{"response": {"status": "ok", "userTier": "developer", "total": 15968, "startIndex": 1, "pageSize": 50, "currentPage": 1, "pages": 320, "orderBy": "newest", "results": [{"id": "environment/2011/jan/30/livewell-plate-diet-nutrition", "type": "article", "sectionId": "environment", "sectionName": "Environment", "webPublicationDate": "2011-01-30T00:07:49Z", "webTitle": "The Livewell diet: it's cheap, it's nutritious and it could help save the planet", "webUrl": "https://www.theguardian.com/environment/2011/jan/30/livewell-plate-diet-nutrition", "apiUrl": "https://content.guardianapis.com/environment/2011/jan/30/livewell-plate-diet-nutrition", "isHosted": false, "pillarId": "pillar/news", "pillarName": "News"}, {"id": "lifeandstyle/2011/jan/30/david-williams-wine-new-zealand", "type": "article", "sectionId": "food", "sectionName": "Food", "webPublicationDate": "2011-01-30T00:05:37Z", "webTitle": "Wines of the week", "webUrl": "https://www.theguardian.com/lifeandstyle/2011/jan/30/david-williams-wine-new-zealand", "apiUrl": "https://content.guardianapis.com/lifeandstyle/2011/jan/30/david-williams-wine-new-zealand", "isHosted": false, "pillarId": "pillar/lifestyle", "pillarName": "Lifestyle"}, {"id": "environment/2011/jan/30/innovator-abigail-forsyth-keepcup-reusable", "type": "article", "sectionId": "environment", "sectionName": "Environment", "webPublicationDate": "2011-01-30T00:05:24Z", "webTitle": "Abigail Forsyth's innovation: KeepCup", "webUrl": "https://www.theguardian.com/environment/2011/jan/30/innovator-abigail-forsyth-keepcup-reusable", "apiUrl": "https://content.guardianapis.com/environment/2011/jan/30/innovator-abigail-forsyth-keepcup-reusable", "isHosted": false, "pillarId": "pillar/news", "pillarName": "News"}, {"id": "lifeandstyle/2011/jan/30/jay-rayner-lunch-with-elena-review", "type": "article", "sectionId": "food", "sectionName": "Food", "webPublicationDate": "2011-01-30T00:05:12Z", "webTitle": "Restaurant review: Lunch with Elena", "webUrl": "https://www.theguardian.com/lifeandstyle/2011/jan/30/jay-rayner-lunch-with-elena-review", "apiUrl": "https://content.guardianapis.com/lifeandstyle/2011/jan/30/jay-rayner-lunch-with-elena-review", "isHosted": false, "pillarId": "pillar/lifestyle", "pillarName": "Lifestyle"}, {"id": "travel/2011/jan/30/valentine-escapes-wild-at-heart", "type": "article", "sectionId": "travel", "sectionName": "Travel", "webPublicationDate": "2011-01-30T00:04:04Z", "webTitle": "Travel: Valentine escapes for the wild at heart", "webUrl": "https://www.theguardian.com/travel/2011/jan/30/valentine-escapes-wild-at-heart", "apiUrl": "https://content.guardianapis.com/travel/2011/jan/30/valentine-escapes-wild-at-heart", "isHosted": false, "pillarId": "pillar/lifestyle", "pillarName": "Lifestyle"}, {"id": "commentisfree/2011/jan/29/bad-science-transparency-authority-publication", "type": "article", "sectionId": "commentisfree", "sectionName": "Opinion", "webPublicationDate": "2011-01-29T08:00:00Z", "webTitle": "Hidden the workings out? You might as well be a Raelian | Ben Goldacre", "webUrl": "https://www.theguardian.com/commentisfree/2011/jan/29/bad-science-transparency-authority-publication", "apiUrl": "https://content.guardianapis.com/commentisfree/2011/jan/29/bad-science-transparency-authority-publication", "isHosted": false, "pillarId": "pillar/opinion", "pillarName": "Opinion"}, {"id": "lifeandstyle/2011/jan/29/barbecoa-london-review-jamie-oliver", "type": "article", "sectionId": "lifeandstyle", "sectionName": "Life and style", "webPublicationDate": "2011-01-29T00:02:18Z", "webTitle": "Restaurant: Barbecoa, London EC4 | John Lanchester | Food and drink", "webUrl": "https://www.theguardian.com/lifeandstyle/2011/jan/29/barbecoa-london-review-jamie-oliver", "apiUrl": "https://content.guardianapis.com/lifeandstyle/2011/jan/29/barbecoa-london-review-jamie-oliver", "isHosted": false, "pillarId": "pillar/lifestyle", "pillarName": "Lifestyle"}, {"id": "lifeandstyle/2011/jan/29/cornmeal-english-muffins-recipe-lepard", "type": "article", "sectionId": "lifeandstyle", "sectionName": "Life and style", "webPublicationDate": "2011-01-29T00:02:04Z", "webTitle": "Cornmeal English muffins recipe | Dan Lepard | How to bake", "webUrl": "https://www.theguardian.com/lifeandstyle/2011/jan/29/cornmeal-english-muffins-recipe-lepard", "apiUrl": "https://content.guardianapis.com/lifeandstyle/2011/jan/29/cornmeal-english-muffins-recipe-lepard", "isHosted": false, "pillarId": "pillar/lifestyle", "pillarName": "Lifestyle"}, {"id": "lifeandstyle/2011/jan/29/braised-leek-goats-curd-recipe", "type": "article", "sectionId": "lifeandstyle", "sectionName": "Life and style", "webPublicationDate": "2011-01-29T00:02:02Z", "webTitle": "Braised leeks with goat's curd recipe | Yotam Ottolenghi | Food and drink", "webUrl": "https://www.theguardian.com/lifeandstyle/2011/jan/29/braised-leek-goats-curd-recipe", "apiUrl": "https://content.guardianapis.com/lifeandstyle/2011/jan/29/braised-leek-goats-curd-recipe", "isHosted": false, "pillarId": "pillar/lifestyle", "pillarName": "Lifestyle"}, {"id": "lifeandstyle/cartoon/2011/jan/29/1", "type": "picture", "sectionId": "lifeandstyle", "sectionName": "Life and style", "webPublicationDate": "2011-01-29T00:02:00Z", "webTitle": "Berger & Wyse", "webUrl": "https://www.theguardian.com/lifeandstyle/cartoon/2011/jan/29/1", "apiUrl": "https://content.guardianapis.com/lifeandstyle/cartoon/2011/jan/29/1", "isHosted": false, "pillarId": "pillar/lifestyle", "pillarName": "Lifestyle"}, {"id": "lifeandstyle/2011/jan/29/wine-match-chinese-food-review", "type": "article", "sectionId": "food", "sectionName": "Food", "webPublicationDate": "2011-01-29T00:02:00Z", "webTitle": "Wine: Chinese puzzle | Fiona Beckett", "webUrl": "https://www.theguardian.com/lifeandstyle/2011/jan/29/wine-match-chinese-food-review", "apiUrl": "https://content.guardianapis.com/lifeandstyle/2011/jan/29/wine-match-chinese-food-review", "isHosted": false, "pillarId": "pillar/lifestyle", "pillarName": "Lifestyle"}, {"id": "lifeandstyle/wordofmouth/2011/jan/28/food-multi-sensory", "type": "article", "sectionId": "lifeandstyle", "sectionName": "Life and style", "webPublicationDate": "2011-01-28T13:37:00Z", "webTitle": "Eating with the eyes", "webUrl": "https://www.theguardian.com/lifeandstyle/wordofmouth/2011/jan/28/food-multi-sensory", "apiUrl": "https://content.guardianapis.com/lifeandstyle/wordofmouth/2011/jan/28/food-multi-sensory", "isHosted": false, "pillarId": "pillar/lifestyle", "pillarName": "Lifestyle"}, {"id": "technology/2011/jan/28/simon-rimmer-bbc-celebrity-squares", "type": "article", "sectionId": "technology", "sectionName": "Technology", "webPublicationDate": "2011-01-28T12:34:57Z", "webTitle": "Simon Rimmer: It's great to be able to keep in touch on the go | Celebrity squares", "webUrl": "https://www.theguardian.com/technology/2011/jan/28/simon-rimmer-bbc-celebrity-squares", "apiUrl": "https://content.guardianapis.com/technology/2011/jan/28/simon-rimmer-bbc-celebrity-squares", "isHosted": false, "pillarId": "pillar/news", "pillarName": "News"}, {"id": "environment/2011/jan/28/sustainable-fish", "type": "article", "sectionId": "environment", "sectionName": "Environment", "webPublicationDate": "2011-01-28T12:10:29Z", "webTitle": "We need to eat less fish \u2013 not more sustainable fish | Aniol Esteban", "webUrl": "https://www.theguardian.com/environment/2011/jan/28/sustainable-fish", "apiUrl": "https://content.guardianapis.com/environment/2011/jan/28/sustainable-fish", "isHosted": false, "pillarId": "pillar/news", "pillarName": "News"}, {"id": "money/2011/jan/27/best-deals-in-breadmakers", "type": "article", "sectionId": "money", "sectionName": "Money", "webPublicationDate": "2011-01-27T07:30:01Z", "webTitle": "Best deals in breadmakers", "webUrl": "https://www.theguardian.com/money/2011/jan/27/best-deals-in-breadmakers", "apiUrl": "https://content.guardianapis.com/money/2011/jan/27/best-deals-in-breadmakers", "isHosted": false, "pillarId": "pillar/lifestyle", "pillarName": "Lifestyle"}, {"id": "lifeandstyle/2011/jan/27/the-test-food-potato-mashers", "type": "article", "sectionId": "food", "sectionName": "Food", "webPublicationDate": "2011-01-27T07:00:05Z", "webTitle": "The test", "webUrl": "https://www.theguardian.com/lifeandstyle/2011/jan/27/the-test-food-potato-mashers", "apiUrl": "https://content.guardianapis.com/lifeandstyle/2011/jan/27/the-test-food-potato-mashers", "isHosted": false, "pillarId": "pillar/lifestyle", "pillarName": "Lifestyle"}, {"id": "lifeandstyle/wordofmouth/2011/jan/27/how-cook-perfect-fish-pie", "type": "article", "sectionId": "food", "sectionName": "Food", "webPublicationDate": "2011-01-27T07:00:00Z", "webTitle": "How to cook perfect fish pie", "webUrl": "https://www.theguardian.com/lifeandstyle/wordofmouth/2011/jan/27/how-cook-perfect-fish-pie", "apiUrl": "https://content.guardianapis.com/lifeandstyle/wordofmouth/2011/jan/27/how-cook-perfect-fish-pie", "isHosted": false, "pillarId": "pillar/lifestyle", "pillarName": "Lifestyle"}, {"id": "environment/quiz/2011/jan/25/which-ethical-brand", "type": "article", "sectionId": "global", "sectionName": "Global", "webPublicationDate": "2011-01-26T11:42:00Z", "webTitle": "Quiz: Who owns which ethical brand?", "webUrl": "https://www.theguardian.com/environment/quiz/2011/jan/25/which-ethical-brand", "apiUrl": "https://content.guardianapis.com/environment/quiz/2011/jan/25/which-ethical-brand", "isHosted": false}, {"id": "lifeandstyle/wordofmouth/2011/jan/26/time-to-change-the-batterie", "type": "article", "sectionId": "lifeandstyle", "sectionName": "Life and style", "webPublicationDate": "2011-01-26T10:00:00Z", "webTitle": "Time to change the batterie?", "webUrl": "https://www.theguardian.com/lifeandstyle/wordofmouth/2011/jan/26/time-to-change-the-batterie", "apiUrl": "https://content.guardianapis.com/lifeandstyle/wordofmouth/2011/jan/26/time-to-change-the-batterie", "isHosted": false, "pillarId": "pillar/lifestyle", "pillarName": "Lifestyle"}, {"id": "environment/2011/jan/25/unacceptable-target-sustainable-fish-government", "type": "article", "sectionId": "environment", "sectionName": "Environment", "webPublicationDate": "2011-01-25T18:13:11Z", "webTitle": "Hugh Fearnley-Whittingstall attacks government's sustainable fish target", "webUrl": "https://www.theguardian.com/environment/2011/jan/25/unacceptable-target-sustainable-fish-government", "apiUrl": "https://content.guardianapis.com/environment/2011/jan/25/unacceptable-target-sustainable-fish-government", "isHosted": false, "pillarId": "pillar/news", "pillarName": "News"}, {"id": "commentisfree/2011/jan/25/best-burns-night-ever-supper", "type": "article", "sectionId": "commentisfree", "sectionName": "Opinion", "webPublicationDate": "2011-01-25T18:00:04Z", "webTitle": "How to have the Best Burns Night Ever, eh no? | Shelagh McKinlay", "webUrl": "https://www.theguardian.com/commentisfree/2011/jan/25/best-burns-night-ever-supper", "apiUrl": "https://content.guardianapis.com/commentisfree/2011/jan/25/best-burns-night-ever-supper", "isHosted": false, "pillarId": "pillar/opinion", "pillarName": "Opinion"}, {"id": "commentisfree/cifamerica/2011/jan/25/haggis-burns-night-american-ban-sheep-lung", "type": "article", "sectionId": "commentisfree", "sectionName": "Opinion", "webPublicationDate": "2011-01-25T12:30:39Z", "webTitle": "This American wants haggis | Evan Kleiman", "webUrl": "https://www.theguardian.com/commentisfree/cifamerica/2011/jan/25/haggis-burns-night-american-ban-sheep-lung", "apiUrl": "https://content.guardianapis.com/commentisfree/cifamerica/2011/jan/25/haggis-burns-night-american-ban-sheep-lung", "isHosted": false, "pillarId": "pillar/opinion", "pillarName": "Opinion"}, {"id": "global-development/poverty-matters/2011/jan/25/cocoa-ghana-ivory-coast-development", "type": "article", "sectionId": "global-development", "sectionName": "Global development", "webPublicationDate": "2011-01-25T11:03:24Z", "webTitle": "Choc-o-nomics: Why misguided western meddling can sour good ideas | Jonathan Glennie", "webUrl": "https://www.theguardian.com/global-development/poverty-matters/2011/jan/25/cocoa-ghana-ivory-coast-development", "apiUrl": "https://content.guardianapis.com/global-development/poverty-matters/2011/jan/25/cocoa-ghana-ivory-coast-development", "isHosted": false, "pillarId": "pillar/news", "pillarName": "News"}, {"id": "lifeandstyle/wordofmouth/2011/jan/25/consider-haggis", "type": "article", "sectionId": "food", "sectionName": "Food", "webPublicationDate": "2011-01-25T10:30:00Z", "webTitle": "Consider haggis", "webUrl": "https://www.theguardian.com/lifeandstyle/wordofmouth/2011/jan/25/consider-haggis", "apiUrl": "https://content.guardianapis.com/lifeandstyle/wordofmouth/2011/jan/25/consider-haggis", "isHosted": false, "pillarId": "pillar/lifestyle", "pillarName": "Lifestyle"}, {"id": "lifeandstyle/wordofmouth/video/2011/jan/25/roka-japanese", "type": "video", "sectionId": "food", "sectionName": "Food", "webPublicationDate": "2011-01-25T10:10:00Z", "webTitle": "Grilled aubergine with miso - video", "webUrl": "https://www.theguardian.com/lifeandstyle/wordofmouth/video/2011/jan/25/roka-japanese", "apiUrl": "https://content.guardianapis.com/lifeandstyle/wordofmouth/video/2011/jan/25/roka-japanese", "isHosted": false, "pillarId": "pillar/lifestyle", "pillarName": "Lifestyle"}, {"id": "lifeandstyle/wordofmouth/2011/jan/24/alchohol-free-beer", "type": "article", "sectionId": "food", "sectionName": "Food", "webPublicationDate": "2011-01-24T10:00:00Z", "webTitle": "How about an alcohol free beer?", "webUrl": "https://www.theguardian.com/lifeandstyle/wordofmouth/2011/jan/24/alchohol-free-beer", "apiUrl": "https://content.guardianapis.com/lifeandstyle/wordofmouth/2011/jan/24/alchohol-free-beer", "isHosted": false, "pillarId": "pillar/lifestyle", "pillarName": "Lifestyle"}, {"id": "lifeandstyle/2011/jan/24/kale-beans-salami-recipe", "type": "article", "sectionId": "food", "sectionName": "Food", "webPublicationDate": "2011-01-24T09:00:00Z", "webTitle": "Kale, beans and salami recipe", "webUrl": "https://www.theguardian.com/lifeandstyle/2011/jan/24/kale-beans-salami-recipe", "apiUrl": "https://content.guardianapis.com/lifeandstyle/2011/jan/24/kale-beans-salami-recipe", "isHosted": false, "pillarId": "pillar/lifestyle", "pillarName": "Lifestyle"}, {"id": "lifeandstyle/2011/jan/23/prestigious-french-cookery-contest", "type": "article", "sectionId": "food", "sectionName": "Food", "webPublicationDate": "2011-01-23T20:00:16Z", "webTitle": "The prestigious French cookery contest you've probably never heard of", "webUrl": "https://www.theguardian.com/lifeandstyle/2011/jan/23/prestigious-french-cookery-contest", "apiUrl": "https://content.guardianapis.com/lifeandstyle/2011/jan/23/prestigious-french-cookery-contest", "isHosted": false, "pillarId": "pillar/lifestyle", "pillarName": "Lifestyle"}, {"id": "lifeandstyle/2011/jan/23/jay-rayner-mistley-thorn-review", "type": "article", "sectionId": "food", "sectionName": "Food", "webPublicationDate": "2011-01-23T00:05:01Z", "webTitle": "Restaurant review: Mistley Thorn", "webUrl": "https://www.theguardian.com/lifeandstyle/2011/jan/23/jay-rayner-mistley-thorn-review", "apiUrl": "https://content.guardianapis.com/lifeandstyle/2011/jan/23/jay-rayner-mistley-thorn-review", "isHosted": false, "pillarId": "pillar/lifestyle", "pillarName": "Lifestyle"}, {"id": "business/2011/jan/23/supermarkets-ethicalbusiness", "type": "article", "sectionId": "business", "sectionName": "Business", "webPublicationDate": "2011-01-23T00:04:13Z", "webTitle": "Power to the people", "webUrl": "https://www.theguardian.com/business/2011/jan/23/supermarkets-ethicalbusiness", "apiUrl": "https://content.guardianapis.com/business/2011/jan/23/supermarkets-ethicalbusiness", "isHosted": false, "pillarId": "pillar/news", "pillarName": "News"}, {"id": "lifeandstyle/2011/jan/23/wines-of-the-week", "type": "article", "sectionId": "food", "sectionName": "Food", "webPublicationDate": "2011-01-23T00:04:07Z", "webTitle": "Wines of the week by David Williams", "webUrl": "https://www.theguardian.com/lifeandstyle/2011/jan/23/wines-of-the-week", "apiUrl": "https://content.guardianapis.com/lifeandstyle/2011/jan/23/wines-of-the-week", "isHosted": false, "pillarId": "pillar/lifestyle", "pillarName": "Lifestyle"}, {"id": "lifeandstyle/2011/jan/23/heston-blumenthal-palmer-watts-interview", "type": "article", "sectionId": "food", "sectionName": "Food", "webPublicationDate": "2011-01-23T00:04:02Z", "webTitle": "Heston Blumenthal and Ashley Palmer-Watts: master and protege", "webUrl": "https://www.theguardian.com/lifeandstyle/2011/jan/23/heston-blumenthal-palmer-watts-interview", "apiUrl": "https://content.guardianapis.com/lifeandstyle/2011/jan/23/heston-blumenthal-palmer-watts-interview", "isHosted": false, "pillarId": "pillar/lifestyle", "pillarName": "Lifestyle"}, {"id": "lifeandstyle/2011/jan/23/diy-food-producers", "type": "article", "sectionId": "food", "sectionName": "Food", "webPublicationDate": "2011-01-23T00:04:02Z", "webTitle": "Britain's DIY food producers", "webUrl": "https://www.theguardian.com/lifeandstyle/2011/jan/23/diy-food-producers", "apiUrl": "https://content.guardianapis.com/lifeandstyle/2011/jan/23/diy-food-producers", "isHosted": false, "pillarId": "pillar/lifestyle", "pillarName": "Lifestyle"}, {"id": "lifeandstyle/2011/jan/23/michel-roux-monica-galetti-interview", "type": "article", "sectionId": "food", "sectionName": "Food", "webPublicationDate": "2011-01-23T00:04:01Z", "webTitle": "Michel Roux Jr and Monica Galetti: master and protege", "webUrl": "https://www.theguardian.com/lifeandstyle/2011/jan/23/michel-roux-monica-galetti-interview", "apiUrl": "https://content.guardianapis.com/lifeandstyle/2011/jan/23/michel-roux-monica-galetti-interview", "isHosted": false, "pillarId": "pillar/lifestyle", "pillarName": "Lifestyle"}, {"id": "lifeandstyle/2011/jan/23/rene-redzepi-sam-miller-interview", "type": "article", "sectionId": "food", "sectionName": "Food", "webPublicationDate": "2011-01-23T00:04:01Z", "webTitle": "Ren\u00e9 Redzepi and Sam Miller: interview", "webUrl": "https://www.theguardian.com/lifeandstyle/2011/jan/23/rene-redzepi-sam-miller-interview", "apiUrl": "https://content.guardianapis.com/lifeandstyle/2011/jan/23/rene-redzepi-sam-miller-interview", "isHosted": false, "pillarId": "pillar/lifestyle", "pillarName": "Lifestyle"}, {"id": "lifeandstyle/2011/jan/23/natural-wine-david-williams", "type": "article", "sectionId": "food", "sectionName": "Food", "webPublicationDate": "2011-01-23T00:04:00Z", "webTitle": "Natural wine: how to pick a winner", "webUrl": "https://www.theguardian.com/lifeandstyle/2011/jan/23/natural-wine-david-williams", "apiUrl": "https://content.guardianapis.com/lifeandstyle/2011/jan/23/natural-wine-david-williams", "isHosted": false, "pillarId": "pillar/lifestyle", "pillarName": "Lifestyle"}, {"id": "lifeandstyle/2011/jan/23/foraged-recipe-sat-bains", "type": "article", "sectionId": "food", "sectionName": "Food", "webPublicationDate": "2011-01-23T00:03:04Z", "webTitle": "Foraged food: Sat Bains's NG7 2SA recipe", "webUrl": "https://www.theguardian.com/lifeandstyle/2011/jan/23/foraged-recipe-sat-bains", "apiUrl": "https://content.guardianapis.com/lifeandstyle/2011/jan/23/foraged-recipe-sat-bains", "isHosted": false, "pillarId": "pillar/lifestyle", "pillarName": "Lifestyle"}, {"id": "lifeandstyle/2011/jan/23/sat-bains-nanna-vestergaard", "type": "article", "sectionId": "food", "sectionName": "Food", "webPublicationDate": "2011-01-23T00:03:03Z", "webTitle": "Sat Bains and Nanna Vestergaard: master and protege", "webUrl": "https://www.theguardian.com/lifeandstyle/2011/jan/23/sat-bains-nanna-vestergaard", "apiUrl": "https://content.guardianapis.com/lifeandstyle/2011/jan/23/sat-bains-nanna-vestergaard", "isHosted": false, "pillarId": "pillar/lifestyle", "pillarName": "Lifestyle"}, {"id": "lifeandstyle/2011/jan/23/monica-galetti-venison-recipe", "type": "article", "sectionId": "food", "sectionName": "Food", "webPublicationDate": "2011-01-23T00:03:03Z", "webTitle": "Monica Galetti's loin of venison recipe", "webUrl": "https://www.theguardian.com/lifeandstyle/2011/jan/23/monica-galetti-venison-recipe", "apiUrl": "https://content.guardianapis.com/lifeandstyle/2011/jan/23/monica-galetti-venison-recipe", "isHosted": false, "pillarId": "pillar/lifestyle", "pillarName": "Lifestyle"}, {"id": "lifeandstyle/2011/jan/23/kimchi-korea-rachel-cooke", "type": "article", "sectionId": "food", "sectionName": "Food", "webPublicationDate": "2011-01-23T00:03:02Z", "webTitle": "What's the point of kimchi?", "webUrl": "https://www.theguardian.com/lifeandstyle/2011/jan/23/kimchi-korea-rachel-cooke", "apiUrl": "https://content.guardianapis.com/lifeandstyle/2011/jan/23/kimchi-korea-rachel-cooke", "isHosted": false, "pillarId": "pillar/lifestyle", "pillarName": "Lifestyle"}, {"id": "lifeandstyle/2011/jan/23/jason-atherton-gordon-ramsay-pollen-street", "type": "article", "sectionId": "food", "sectionName": "Food", "webPublicationDate": "2011-01-23T00:03:02Z", "webTitle": "Jason Atherton: interview", "webUrl": "https://www.theguardian.com/lifeandstyle/2011/jan/23/jason-atherton-gordon-ramsay-pollen-street", "apiUrl": "https://content.guardianapis.com/lifeandstyle/2011/jan/23/jason-atherton-gordon-ramsay-pollen-street", "isHosted": false, "pillarId": "pillar/lifestyle", "pillarName": "Lifestyle"}, {"id": "lifeandstyle/2011/jan/23/oysters-dating-jay-rayner", "type": "article", "sectionId": "food", "sectionName": "Food", "webPublicationDate": "2011-01-23T00:03:01Z", "webTitle": "If you don't like oysters, you'll never be a grown-up", "webUrl": "https://www.theguardian.com/lifeandstyle/2011/jan/23/oysters-dating-jay-rayner", "apiUrl": "https://content.guardianapis.com/lifeandstyle/2011/jan/23/oysters-dating-jay-rayner", "isHosted": false, "pillarId": "pillar/lifestyle", "pillarName": "Lifestyle"}, {"id": "lifeandstyle/2011/jan/23/buzz-aldrin-food-tales", "type": "article", "sectionId": "lifeandstyle", "sectionName": "Life and style", "webPublicationDate": "2011-01-23T00:03:01Z", "webTitle": "Tea with Buzz Aldrin", "webUrl": "https://www.theguardian.com/lifeandstyle/2011/jan/23/buzz-aldrin-food-tales", "apiUrl": "https://content.guardianapis.com/lifeandstyle/2011/jan/23/buzz-aldrin-food-tales", "isHosted": false, "pillarId": "pillar/lifestyle", "pillarName": "Lifestyle"}, {"id": "lifeandstyle/2011/jan/23/heston-blumenthal-mackerel-recipe", "type": "article", "sectionId": "food", "sectionName": "Food", "webPublicationDate": "2011-01-23T00:02:03Z", "webTitle": "Hay-smoked mackerel, lemon salad and gentleman's relish", "webUrl": "https://www.theguardian.com/lifeandstyle/2011/jan/23/heston-blumenthal-mackerel-recipe", "apiUrl": "https://content.guardianapis.com/lifeandstyle/2011/jan/23/heston-blumenthal-mackerel-recipe", "isHosted": false, "pillarId": "pillar/lifestyle", "pillarName": "Lifestyle"}, {"id": "global-development/2011/jan/23/food-speculation-banks-hunger-poverty", "type": "article", "sectionId": "global-development", "sectionName": "Global development", "webPublicationDate": "2011-01-23T00:02:02Z", "webTitle": "Food speculation: aFood speculation: 'People die from hunger while  banks make a killing on food'", "webUrl": "https://www.theguardian.com/global-development/2011/jan/23/food-speculation-banks-hunger-poverty", "apiUrl": "https://content.guardianapis.com/global-development/2011/jan/23/food-speculation-banks-hunger-poverty", "isHosted": false, "pillarId": "pillar/news", "pillarName": "News"}, {"id": "lifeandstyle/2011/jan/23/recipes-jason-atherton-dessert-fish", "type": "article", "sectionId": "food", "sectionName": "Food", "webPublicationDate": "2011-01-23T00:02:02Z", "webTitle": "Jason Atherton: pudding recipes and fish recipes", "webUrl": "https://www.theguardian.com/lifeandstyle/2011/jan/23/recipes-jason-atherton-dessert-fish", "apiUrl": "https://content.guardianapis.com/lifeandstyle/2011/jan/23/recipes-jason-atherton-dessert-fish", "isHosted": false, "pillarId": "pillar/lifestyle", "pillarName": "Lifestyle"}, {"id": "lifeandstyle/2011/jan/23/jonathan-safran-foer-food", "type": "article", "sectionId": "food", "sectionName": "Food", "webPublicationDate": "2011-01-23T00:02:01Z", "webTitle": "Jonathan Safran Foer: My Life on a Plate", "webUrl": "https://www.theguardian.com/lifeandstyle/2011/jan/23/jonathan-safran-foer-food", "apiUrl": "https://content.guardianapis.com/lifeandstyle/2011/jan/23/jonathan-safran-foer-food", "isHosted": false, "pillarId": "pillar/lifestyle", "pillarName": "Lifestyle"}, {"id": "lifeandstyle/2011/jan/23/dinner-candles-ariel-leve", "type": "article", "sectionId": "lifeandstyle", "sectionName": "Life and style", "webPublicationDate": "2011-01-23T00:02:01Z", "webTitle": "The bright side of dining", "webUrl": "https://www.theguardian.com/lifeandstyle/2011/jan/23/dinner-candles-ariel-leve", "apiUrl": "https://content.guardianapis.com/lifeandstyle/2011/jan/23/dinner-candles-ariel-leve", "isHosted": false, "pillarId": "pillar/lifestyle", "pillarName": "Lifestyle"}, {"id": "lifeandstyle/2011/jan/22/lorraine-pascal-baking-cakes", "type": "article", "sectionId": "lifeandstyle", "sectionName": "Life and style", "webPublicationDate": "2011-01-22T14:59:00Z", "webTitle": "Lorraine Pascale: My family values", "webUrl": "https://www.theguardian.com/lifeandstyle/2011/jan/22/lorraine-pascal-baking-cakes", "apiUrl": "https://content.guardianapis.com/lifeandstyle/2011/jan/22/lorraine-pascal-baking-cakes", "isHosted": false, "pillarId": "pillar/lifestyle", "pillarName": "Lifestyle"}, {"id": "lifeandstyle/2011/jan/22/home-brew-wine-food-dehydrator", "type": "article", "sectionId": "lifeandstyle", "sectionName": "Life and style", "webPublicationDate": "2011-01-22T00:02:44Z", "webTitle": "Food for Fort: On ancient home brew and food dehydrators | Matthew Fort", "webUrl": "https://www.theguardian.com/lifeandstyle/2011/jan/22/home-brew-wine-food-dehydrator", "apiUrl": "https://content.guardianapis.com/lifeandstyle/2011/jan/22/home-brew-wine-food-dehydrator", "isHosted": false, "pillarId": "pillar/lifestyle", "pillarName": "Lifestyle"}]}}