{"response": {"status": "ok", "userTier": "developer", "total": 133057, "startIndex": 1, "pageSize": 50, "currentPage": 1, "pages": 2662, "orderBy": "newest", "results": [{"id": "politics/2012/jan/30/hugh-muir-diary-jeremy-hunt", "type": "article", "sectionId": "politics", "sectionName": "Politics", "webPublicationDate": "2012-01-30T22:49:01Z", "webTitle": "Hugh Muir's diary", "webUrl": "https://www.theguardian.com/politics/2012/jan/30/hugh-muir-diary-jeremy-hunt", "apiUrl": "https://content.guardianapis.com/politics/2012/jan/30/hugh-muir-diary-jeremy-hunt", "isHosted": false, "pillarId": "pillar/news", "pillarName": "News"}, {"id": "politics/davehillblog/2012/jan/30/london-mayoral-race-needs-fresh-policy-ideas", "type": "article", "sectionId": "politics", "sectionName": "Politics", "webPublicationDate": "2012-01-30T21:43:00Z", "webTitle": "London mayoral race: policy rainbows", "webUrl": "https://www.theguardian.com/politics/davehillblog/2012/jan/30/london-mayoral-race-needs-fresh-policy-ideas", "apiUrl": "https://content.guardianapis.com/politics/davehillblog/2012/jan/30/london-mayoral-race-needs-fresh-policy-ideas", "isHosted": false, "pillarId": "pillar/news", "pillarName": "News"}, {"id": "business/2012/jan/30/eu-summit-david-cameron-eurosceptics", "type": "article", "sectionId": "business", "sectionName": "Business", "webPublicationDate": "2012-01-30T21:36:14Z", "webTitle": "David Cameron faces clash with Conservative Eurosceptics", "webUrl": "https://www.theguardian.com/business/2012/jan/30/eu-summit-david-cameron-eurosceptics", "apiUrl": "https://content.guardianapis.com/business/2012/jan/30/eu-summit-david-cameron-eurosceptics", "isHosted": false, "pillarId": "pillar/news", "pillarName": "News"}, {"id": "commentisfree/2012/jan/30/tax-on-wealth-public-anger", "type": "article", "sectionId": "commentisfree", "sectionName": "Opinion", "webPublicationDate": "2012-01-30T21:30:01Z", "webTitle": "Taxing wealth? The public mood still escapes the Tories | Polly Toynbee", "webUrl": "https://www.theguardian.com/commentisfree/2012/jan/30/tax-on-wealth-public-anger", "apiUrl": "https://content.guardianapis.com/commentisfree/2012/jan/30/tax-on-wealth-public-anger", "isHosted": false, "pillarId": "pillar/opinion", "pillarName": "Opinion"}, {"id": "commentisfree/2012/jan/30/welfare-reforms-use-hunger-spur-work", "type": "article", "sectionId": "commentisfree", "sectionName": "Opinion", "webPublicationDate": "2012-01-30T21:17:00Z", "webTitle": "These welfare changes use hunger as a spur to work | Felicity Lawrence", "webUrl": "https://www.theguardian.com/commentisfree/2012/jan/30/welfare-reforms-use-hunger-spur-work", "apiUrl": "https://content.guardianapis.com/commentisfree/2012/jan/30/welfare-reforms-use-hunger-spur-work", "isHosted": false, "pillarId": "pillar/opinion", "pillarName": "Opinion"}, {"id": "commentisfree/2012/jan/30/rbs-chief-bonus-responsibility-editorial", "type": "article", "sectionId": "commentisfree", "sectionName": "Opinion", "webPublicationDate": "2012-01-30T21:05:26Z", "webTitle": "RBS chief's bonus: the shares of responsibility", "webUrl": "https://www.theguardian.com/commentisfree/2012/jan/30/rbs-chief-bonus-responsibility-editorial", "apiUrl": "https://content.guardianapis.com/commentisfree/2012/jan/30/rbs-chief-bonus-responsibility-editorial", "isHosted": false, "pillarId": "pillar/opinion", "pillarName": "Opinion"}, {"id": "business/2012/jan/30/executive-pay-bonus-ed-miliband", "type": "article", "sectionId": "business", "sectionName": "Business", "webPublicationDate": "2012-01-30T20:59:04Z", "webTitle": "Letters: Executive pay policy yields big bonus for Ed Miliband", "webUrl": "https://www.theguardian.com/business/2012/jan/30/executive-pay-bonus-ed-miliband", "apiUrl": "https://content.guardianapis.com/business/2012/jan/30/executive-pay-bonus-ed-miliband", "isHosted": false, "pillarId": "pillar/news", "pillarName": "News"}, {"id": "society/2012/jan/30/best-value-nhs-sell-off", "type": "article", "sectionId": "society", "sectionName": "Society", "webPublicationDate": "2012-01-30T20:59:03Z", "webTitle": "Letters: Best value services \u2013 or NHS sell-off?", "webUrl": "https://www.theguardian.com/society/2012/jan/30/best-value-nhs-sell-off", "apiUrl": "https://content.guardianapis.com/society/2012/jan/30/best-value-nhs-sell-off", "isHosted": false, "pillarId": "pillar/news", "pillarName": "News"}, {"id": "uk/2012/jan/30/prince-andrew-concern-trade-missions", "type": "article", "sectionId": "uk-news", "sectionName": "UK news", "webPublicationDate": "2012-01-30T20:35:09Z", "webTitle": "Prince Andrew arouses concerns over 'business as usual' trade missions", "webUrl": "https://www.theguardian.com/uk/2012/jan/30/prince-andrew-concern-trade-missions", "apiUrl": "https://content.guardianapis.com/uk/2012/jan/30/prince-andrew-concern-trade-missions", "isHosted": false, "pillarId": "pillar/news", "pillarName": "News"}, {"id": "commentisfree/2012/jan/30/media-backing-legal-aid-bill", "type": "article", "sectionId": "commentisfree", "sectionName": "Opinion", "webPublicationDate": "2012-01-30T20:17:39Z", "webTitle": "Legal aid bill: why the media's silence?", "webUrl": "https://www.theguardian.com/commentisfree/2012/jan/30/media-backing-legal-aid-bill", "apiUrl": "https://content.guardianapis.com/commentisfree/2012/jan/30/media-backing-legal-aid-bill", "isHosted": false, "pillarId": "pillar/opinion", "pillarName": "Opinion"}, {"id": "education/2012/jan/30/prison-education-failures", "type": "article", "sectionId": "education", "sectionName": "Education", "webPublicationDate": "2012-01-30T20:01:01Z", "webTitle": "Is prison education working?", "webUrl": "https://www.theguardian.com/education/2012/jan/30/prison-education-failures", "apiUrl": "https://content.guardianapis.com/education/2012/jan/30/prison-education-failures", "isHosted": false, "pillarId": "pillar/news", "pillarName": "News"}, {"id": "politics/shortcuts/2012/jan/30/ed-balls-yvette-cooper-lasagne", "type": "article", "sectionId": "politics", "sectionName": "Politics", "webPublicationDate": "2012-01-30T20:00:04Z", "webTitle": "Ed Balls and Yvette Cooper's 'lasagne plot': the story so far", "webUrl": "https://www.theguardian.com/politics/shortcuts/2012/jan/30/ed-balls-yvette-cooper-lasagne", "apiUrl": "https://content.guardianapis.com/politics/shortcuts/2012/jan/30/ed-balls-yvette-cooper-lasagne", "isHosted": false, "pillarId": "pillar/news", "pillarName": "News"}, {"id": "lifeandstyle/the-womens-blog-with-jane-martinson/2012/jan/30/few-women-in-top-jobs", "type": "article", "sectionId": "lifeandstyle", "sectionName": "Life and style", "webPublicationDate": "2012-01-30T20:00:00Z", "webTitle": "Why are women stuck at 17% of top jobs?", "webUrl": "https://www.theguardian.com/lifeandstyle/the-womens-blog-with-jane-martinson/2012/jan/30/few-women-in-top-jobs", "apiUrl": "https://content.guardianapis.com/lifeandstyle/the-womens-blog-with-jane-martinson/2012/jan/30/few-women-in-top-jobs", "isHosted": false, "pillarId": "pillar/lifestyle", "pillarName": "Lifestyle"}, {"id": "business/2012/jan/30/rbs-shares-fall-political-interference", "type": "article", "sectionId": "business", "sectionName": "Business", "webPublicationDate": "2012-01-30T19:43:04Z", "webTitle": "RBS shares fall over fears of political interference", "webUrl": "https://www.theguardian.com/business/2012/jan/30/rbs-shares-fall-political-interference", "apiUrl": "https://content.guardianapis.com/business/2012/jan/30/rbs-shares-fall-political-interference", "isHosted": false, "pillarId": "pillar/news", "pillarName": "News"}, {"id": "world/2012/jan/30/syria-unrest-arab-league-un", "type": "article", "sectionId": "world", "sectionName": "World news", "webPublicationDate": "2012-01-30T18:53:53Z", "webTitle": "Syria unrest: Clinton and Hague back Arab League plan at UN", "webUrl": "https://www.theguardian.com/world/2012/jan/30/syria-unrest-arab-league-un", "apiUrl": "https://content.guardianapis.com/world/2012/jan/30/syria-unrest-arab-league-un", "isHosted": false, "pillarId": "pillar/news", "pillarName": "News"}, {"id": "education/2012/jan/30/gove-education-select-committee", "type": "article", "sectionId": "education", "sectionName": "Education", "webPublicationDate": "2012-01-30T18:45:01Z", "webTitle": "Education in brief: Gove faces the Twitter mob", "webUrl": "https://www.theguardian.com/education/2012/jan/30/gove-education-select-committee", "apiUrl": "https://content.guardianapis.com/education/2012/jan/30/gove-education-select-committee", "isHosted": false, "pillarId": "pillar/news", "pillarName": "News"}, {"id": "politics/2012/jan/30/prison-service-gag-tommy-sheridan", "type": "article", "sectionId": "politics", "sectionName": "Politics", "webPublicationDate": "2012-01-30T18:16:58Z", "webTitle": "Scottish prison service tried to gag me, says Tommy Sheridan", "webUrl": "https://www.theguardian.com/politics/2012/jan/30/prison-service-gag-tommy-sheridan", "apiUrl": "https://content.guardianapis.com/politics/2012/jan/30/prison-service-gag-tommy-sheridan", "isHosted": false, "pillarId": "pillar/news", "pillarName": "News"}, {"id": "law/2012/jan/30/cuts-compensation-victims-crime", "type": "article", "sectionId": "law", "sectionName": "Law", "webPublicationDate": "2012-01-30T18:14:53Z", "webTitle": "Cuts in compensation for victims of crime unveiled", "webUrl": "https://www.theguardian.com/law/2012/jan/30/cuts-compensation-victims-crime", "apiUrl": "https://content.guardianapis.com/law/2012/jan/30/cuts-compensation-victims-crime", "isHosted": false, "pillarId": "pillar/news", "pillarName": "News"}, {"id": "politics/2012/jan/30/ed-miliband-alex-salmond-nationalism", "type": "article", "sectionId": "politics", "sectionName": "Politics", "webPublicationDate": "2012-01-30T15:38:24Z", "webTitle": "Ed Miliband accuses Alex Salmond of divisive nationalism", "webUrl": "https://www.theguardian.com/politics/2012/jan/30/ed-miliband-alex-salmond-nationalism", "apiUrl": "https://content.guardianapis.com/politics/2012/jan/30/ed-miliband-alex-salmond-nationalism", "isHosted": false, "pillarId": "pillar/news", "pillarName": "News"}, {"id": "sport/2012/jan/30/london-olympics-2012-cut-commuter", "type": "article", "sectionId": "sport", "sectionName": "Sport", "webPublicationDate": "2012-01-30T14:36:11Z", "webTitle": "London 2012: campaign seeks to cut commuter numbers during Games", "webUrl": "https://www.theguardian.com/sport/2012/jan/30/london-olympics-2012-cut-commuter", "apiUrl": "https://content.guardianapis.com/sport/2012/jan/30/london-olympics-2012-cut-commuter", "isHosted": false, "pillarId": "pillar/sport", "pillarName": "Sport"}, {"id": "law/2012/jan/30/criminal-compensation-reforms-dangerous", "type": "article", "sectionId": "law", "sectionName": "Law", "webPublicationDate": "2012-01-30T14:32:49Z", "webTitle": "Dangerous, vindictive and unnecessary | Daniel Barnett", "webUrl": "https://www.theguardian.com/law/2012/jan/30/criminal-compensation-reforms-dangerous", "apiUrl": "https://content.guardianapis.com/law/2012/jan/30/criminal-compensation-reforms-dangerous", "isHosted": false, "pillarId": "pillar/news", "pillarName": "News"}, {"id": "commentisfree/2012/jan/30/museums-free-admission-art-exhibitions", "type": "article", "sectionId": "commentisfree", "sectionName": "Opinion", "webPublicationDate": "2012-01-30T14:30:01Z", "webTitle": "\u00a320 for an exhibition \u2013 are museums fooling the public, or themselves? | Charles Saatchi", "webUrl": "https://www.theguardian.com/commentisfree/2012/jan/30/museums-free-admission-art-exhibitions", "apiUrl": "https://content.guardianapis.com/commentisfree/2012/jan/30/museums-free-admission-art-exhibitions", "isHosted": false, "pillarId": "pillar/opinion", "pillarName": "Opinion"}, {"id": "uk/2012/jan/30/northern-ireland-5p-plastic-bag-tax", "type": "article", "sectionId": "environment", "sectionName": "Environment", "webPublicationDate": "2012-01-30T14:13:50Z", "webTitle": "Northern Ireland to bring in 5p plastic bag tax from 2013", "webUrl": "https://www.theguardian.com/uk/2012/jan/30/northern-ireland-5p-plastic-bag-tax", "apiUrl": "https://content.guardianapis.com/uk/2012/jan/30/northern-ireland-5p-plastic-bag-tax", "isHosted": false, "pillarId": "pillar/news", "pillarName": "News"}, {"id": "commentisfree/2012/jan/30/lib-dems-welfare-bill-coalition", "type": "article", "sectionId": "commentisfree", "sectionName": "Opinion", "webPublicationDate": "2012-01-30T13:45:24Z", "webTitle": "If Lib Dems can't influence this welfare bill, why are we in coalition? | George Potter", "webUrl": "https://www.theguardian.com/commentisfree/2012/jan/30/lib-dems-welfare-bill-coalition", "apiUrl": "https://content.guardianapis.com/commentisfree/2012/jan/30/lib-dems-welfare-bill-coalition", "isHosted": false, "pillarId": "pillar/opinion", "pillarName": "Opinion"}, {"id": "politics/wintour-and-watt/2012/jan/30/davidcameron-eu", "type": "article", "sectionId": "politics", "sectionName": "Politics", "webPublicationDate": "2012-01-30T13:44:00Z", "webTitle": "David Cameron \u2013 nightmare of Angela Merkel and Iain Duncan Smith", "webUrl": "https://www.theguardian.com/politics/wintour-and-watt/2012/jan/30/davidcameron-eu", "apiUrl": "https://content.guardianapis.com/politics/wintour-and-watt/2012/jan/30/davidcameron-eu", "isHosted": false, "pillarId": "pillar/news", "pillarName": "News"}, {"id": "books/2012/jan/30/gordon-brown-publish-predictions-2025", "type": "article", "sectionId": "books", "sectionName": "Books", "webPublicationDate": "2012-01-30T13:11:51Z", "webTitle": "Gordon Brown to publish predictions for 2025", "webUrl": "https://www.theguardian.com/books/2012/jan/30/gordon-brown-publish-predictions-2025", "apiUrl": "https://content.guardianapis.com/books/2012/jan/30/gordon-brown-publish-predictions-2025", "isHosted": false, "pillarId": "pillar/arts", "pillarName": "Arts"}, {"id": "commentisfree/2012/jan/30/nostalgia-grammar-schools-comprehensive", "type": "article", "sectionId": "commentisfree", "sectionName": "Opinion", "webPublicationDate": "2012-01-30T12:35:01Z", "webTitle": "Nostalgia for grammar schools is misplaced | Susanna Rustin", "webUrl": "https://www.theguardian.com/commentisfree/2012/jan/30/nostalgia-grammar-schools-comprehensive", "apiUrl": "https://content.guardianapis.com/commentisfree/2012/jan/30/nostalgia-grammar-schools-comprehensive", "isHosted": false, "pillarId": "pillar/opinion", "pillarName": "Opinion"}, {"id": "uk/2012/jan/30/police-pay-deal-theresa-may", "type": "article", "sectionId": "uk-news", "sectionName": "UK news", "webPublicationDate": "2012-01-30T11:58:54Z", "webTitle": "Police pay deal: Theresa May accepts \u00a3150m-a-year compromise", "webUrl": "https://www.theguardian.com/uk/2012/jan/30/police-pay-deal-theresa-may", "apiUrl": "https://content.guardianapis.com/uk/2012/jan/30/police-pay-deal-theresa-may", "isHosted": false, "pillarId": "pillar/news", "pillarName": "News"}, {"id": "business/2012/jan/30/labour-maintain-pressure-rbs-bonuses", "type": "article", "sectionId": "business", "sectionName": "Business", "webPublicationDate": "2012-01-30T11:44:00Z", "webTitle": "Labour vows to maintain pressure on RBS bonuses", "webUrl": "https://www.theguardian.com/business/2012/jan/30/labour-maintain-pressure-rbs-bonuses", "apiUrl": "https://content.guardianapis.com/business/2012/jan/30/labour-maintain-pressure-rbs-bonuses", "isHosted": false, "pillarId": "pillar/news", "pillarName": "News"}, {"id": "politics/blog/2012/jan/30/stephen-hester-bonus-stone-throwing-right", "type": "article", "sectionId": "politics", "sectionName": "Politics", "webPublicationDate": "2012-01-30T11:41:57Z", "webTitle": "Stephen Hester bonus: when populist stone-throwing is the right response", "webUrl": "https://www.theguardian.com/politics/blog/2012/jan/30/stephen-hester-bonus-stone-throwing-right", "apiUrl": "https://content.guardianapis.com/politics/blog/2012/jan/30/stephen-hester-bonus-stone-throwing-right", "isHosted": false, "pillarId": "pillar/news", "pillarName": "News"}, {"id": "uk/2012/jan/30/occupy-bristol-camp-last-protester-standing", "type": "article", "sectionId": "uk-news", "sectionName": "UK news", "webPublicationDate": "2012-01-30T10:50:42Z", "webTitle": "Holed up in his hut: George, the last protester standing at Occupy Bristol", "webUrl": "https://www.theguardian.com/uk/2012/jan/30/occupy-bristol-camp-last-protester-standing", "apiUrl": "https://content.guardianapis.com/uk/2012/jan/30/occupy-bristol-camp-last-protester-standing", "isHosted": false, "pillarId": "pillar/news", "pillarName": "News"}, {"id": "society/patrick-butler-cuts-blog/2012/jan/30/tory-council-boss-says-eric-pickles-cuts-claim-bollocks", "type": "article", "sectionId": "society", "sectionName": "Society", "webPublicationDate": "2012-01-30T10:30:39Z", "webTitle": "Tory council boss on Eric Pickles' 'fair cuts' claim: it's 'bollocks'", "webUrl": "https://www.theguardian.com/society/patrick-butler-cuts-blog/2012/jan/30/tory-council-boss-says-eric-pickles-cuts-claim-bollocks", "apiUrl": "https://content.guardianapis.com/society/patrick-butler-cuts-blog/2012/jan/30/tory-council-boss-says-eric-pickles-cuts-claim-bollocks", "isHosted": false, "pillarId": "pillar/news", "pillarName": "News"}, {"id": "politics/2012/jan/30/ken-livingstone-london-mayor", "type": "article", "sectionId": "politics", "sectionName": "Politics", "webPublicationDate": "2012-01-30T10:02:51Z", "webTitle": "Ken Livingstone ahead on points in fight for London voters", "webUrl": "https://www.theguardian.com/politics/2012/jan/30/ken-livingstone-london-mayor", "apiUrl": "https://content.guardianapis.com/politics/2012/jan/30/ken-livingstone-london-mayor", "isHosted": false, "pillarId": "pillar/news", "pillarName": "News"}, {"id": "commentisfree/2012/jan/30/serial-domestic-abusers-register", "type": "article", "sectionId": "commentisfree", "sectionName": "Opinion", "webPublicationDate": "2012-01-30T10:01:54Z", "webTitle": "Serial domestic abusers should not be hidden | Jane Monckton-Smith", "webUrl": "https://www.theguardian.com/commentisfree/2012/jan/30/serial-domestic-abusers-register", "apiUrl": "https://content.guardianapis.com/commentisfree/2012/jan/30/serial-domestic-abusers-register", "isHosted": false, "pillarId": "pillar/opinion", "pillarName": "Opinion"}, {"id": "business/2012/jan/30/insurance-lobbyists-briefed-legal-reform", "type": "article", "sectionId": "business", "sectionName": "Business", "webPublicationDate": "2012-01-30T09:30:01Z", "webTitle": "Insurance lobbyists were briefed by mandarins over legal reform", "webUrl": "https://www.theguardian.com/business/2012/jan/30/insurance-lobbyists-briefed-legal-reform", "apiUrl": "https://content.guardianapis.com/business/2012/jan/30/insurance-lobbyists-briefed-legal-reform", "isHosted": false, "pillarId": "pillar/news", "pillarName": "News"}, {"id": "politics/2012/jan/30/ken-livingstone-policies-not-personalities", "type": "article", "sectionId": "politics", "sectionName": "Politics", "webPublicationDate": "2012-01-30T07:00:00Z", "webTitle": "Ken Livingstone: It's policies that matter this time, not personalities", "webUrl": "https://www.theguardian.com/politics/2012/jan/30/ken-livingstone-policies-not-personalities", "apiUrl": "https://content.guardianapis.com/politics/2012/jan/30/ken-livingstone-policies-not-personalities", "isHosted": false, "pillarId": "pillar/news", "pillarName": "News"}, {"id": "politics/2012/jan/30/ken-livingstone-interview-ed-miliband", "type": "article", "sectionId": "politics", "sectionName": "Politics", "webPublicationDate": "2012-01-30T07:00:00Z", "webTitle": "Ken Livingstone praises 'visionary' Ed Miliband", "webUrl": "https://www.theguardian.com/politics/2012/jan/30/ken-livingstone-interview-ed-miliband", "apiUrl": "https://content.guardianapis.com/politics/2012/jan/30/ken-livingstone-interview-ed-miliband", "isHosted": false, "pillarId": "pillar/news", "pillarName": "News"}, {"id": "business/2012/jan/30/rbs-stephen-hester-bonus-labour-pressure", "type": "article", "sectionId": "business", "sectionName": "Business", "webPublicationDate": "2012-01-30T01:23:38Z", "webTitle": "Labour pressure made \u00a31m bonus too hot to handle", "webUrl": "https://www.theguardian.com/business/2012/jan/30/rbs-stephen-hester-bonus-labour-pressure", "apiUrl": "https://content.guardianapis.com/business/2012/jan/30/rbs-stephen-hester-bonus-labour-pressure", "isHosted": false, "pillarId": "pillar/news", "pillarName": "News"}, {"id": "law/2012/jan/30/kenneth-clarke-criminals-injuries-fund", "type": "article", "sectionId": "law", "sectionName": "Law", "webPublicationDate": "2012-01-30T00:00:05Z", "webTitle": "Kenneth Clarke to ban criminals from claiming injuries fund", "webUrl": "https://www.theguardian.com/law/2012/jan/30/kenneth-clarke-criminals-injuries-fund", "apiUrl": "https://content.guardianapis.com/law/2012/jan/30/kenneth-clarke-criminals-injuries-fund", "isHosted": false, "pillarId": "pillar/news", "pillarName": "News"}, {"id": "business/2012/jan/29/rbs-stephen-hester-waives-bonus", "type": "article", "sectionId": "business", "sectionName": "Business", "webPublicationDate": "2012-01-29T23:09:19Z", "webTitle": "RBS chief Stephen Hester waives controversial bonus of nearly \u00a31m", "webUrl": "https://www.theguardian.com/business/2012/jan/29/rbs-stephen-hester-waives-bonus", "apiUrl": "https://content.guardianapis.com/business/2012/jan/29/rbs-stephen-hester-waives-bonus", "isHosted": false, "pillarId": "pillar/news", "pillarName": "News"}, {"id": "commentisfree/cartoon/2012/jan/29/desert-island-discs-radio", "type": "picture", "sectionId": "commentisfree", "sectionName": "Opinion", "webPublicationDate": "2012-01-29T22:39:32Z", "webTitle": "Martin Rowson on Desert Island Discs' 70th anniversary and the economic crisis - cartoon", "webUrl": "https://www.theguardian.com/commentisfree/cartoon/2012/jan/29/desert-island-discs-radio", "apiUrl": "https://content.guardianapis.com/commentisfree/cartoon/2012/jan/29/desert-island-discs-radio", "isHosted": false, "pillarId": "pillar/opinion", "pillarName": "Opinion"}, {"id": "commentisfree/2012/jan/29/london-2012-olympic-spirit", "type": "article", "sectionId": "commentisfree", "sectionName": "Opinion", "webPublicationDate": "2012-01-29T22:14:53Z", "webTitle": "London 2012: keeping the Olympic spirit | Editorial", "webUrl": "https://www.theguardian.com/commentisfree/2012/jan/29/london-2012-olympic-spirit", "apiUrl": "https://content.guardianapis.com/commentisfree/2012/jan/29/london-2012-olympic-spirit", "isHosted": false, "pillarId": "pillar/opinion", "pillarName": "Opinion"}, {"id": "politics/2012/jan/29/jack-straw-repatriation-eu-funds-britain", "type": "article", "sectionId": "politics", "sectionName": "Politics", "webPublicationDate": "2012-01-29T22:00:00Z", "webTitle": "Jack Straw presses for repatriation of over \u00a34bn of EU funds to Britain", "webUrl": "https://www.theguardian.com/politics/2012/jan/29/jack-straw-repatriation-eu-funds-britain", "apiUrl": "https://content.guardianapis.com/politics/2012/jan/29/jack-straw-repatriation-eu-funds-britain", "isHosted": false, "pillarId": "pillar/news", "pillarName": "News"}, {"id": "commentisfree/2012/jan/29/let-british-people-eu-referendum", "type": "article", "sectionId": "commentisfree", "sectionName": "Opinion", "webPublicationDate": "2012-01-29T22:00:00Z", "webTitle": "Let the British people decide whether they still want to be part of the EU | Natascha Engel", "webUrl": "https://www.theguardian.com/commentisfree/2012/jan/29/let-british-people-eu-referendum", "apiUrl": "https://content.guardianapis.com/commentisfree/2012/jan/29/let-british-people-eu-referendum", "isHosted": false, "pillarId": "pillar/opinion", "pillarName": "Opinion"}, {"id": "politics/2012/jan/29/welfare-reform-liam-byrne-letter-nick-clegg", "type": "article", "sectionId": "politics", "sectionName": "Politics", "webPublicationDate": "2012-01-29T21:00:12Z", "webTitle": "Welfare reform bill: Liam Byrne's letter to Nick Clegg", "webUrl": "https://www.theguardian.com/politics/2012/jan/29/welfare-reform-liam-byrne-letter-nick-clegg", "apiUrl": "https://content.guardianapis.com/politics/2012/jan/29/welfare-reform-liam-byrne-letter-nick-clegg", "isHosted": false, "pillarId": "pillar/news", "pillarName": "News"}, {"id": "stage/2012/jan/29/priestley-remains-a-good-campanion", "type": "article", "sectionId": "stage", "sectionName": "Stage", "webPublicationDate": "2012-01-29T21:00:11Z", "webTitle": "Letters: JB Priestley remains a good companion", "webUrl": "https://www.theguardian.com/stage/2012/jan/29/priestley-remains-a-good-campanion", "apiUrl": "https://content.guardianapis.com/stage/2012/jan/29/priestley-remains-a-good-campanion", "isHosted": false, "pillarId": "pillar/arts", "pillarName": "Arts"}, {"id": "politics/2012/jan/29/benefits-cap-concessions-welfare-reform", "type": "article", "sectionId": "politics", "sectionName": "Politics", "webPublicationDate": "2012-01-29T21:00:00Z", "webTitle": "Benefits cap concessions expected to win support for welfare reform bill", "webUrl": "https://www.theguardian.com/politics/2012/jan/29/benefits-cap-concessions-welfare-reform", "apiUrl": "https://content.guardianapis.com/politics/2012/jan/29/benefits-cap-concessions-welfare-reform", "isHosted": false, "pillarId": "pillar/news", "pillarName": "News"}, {"id": "world/2012/jan/29/thoughts-on-the-european-project", "type": "article", "sectionId": "world", "sectionName": "World news", "webPublicationDate": "2012-01-29T21:00:00Z", "webTitle": "Letters: European project under pressure", "webUrl": "https://www.theguardian.com/world/2012/jan/29/thoughts-on-the-european-project", "apiUrl": "https://content.guardianapis.com/world/2012/jan/29/thoughts-on-the-european-project", "isHosted": false, "pillarId": "pillar/news", "pillarName": "News"}, {"id": "politics/2012/jan/29/liberal-democrat-david-cameron-eu-summit", "type": "article", "sectionId": "politics", "sectionName": "Politics", "webPublicationDate": "2012-01-29T20:58:12Z", "webTitle": "Liberal Democrat unease at David Cameron's EU summit appearance", "webUrl": "https://www.theguardian.com/politics/2012/jan/29/liberal-democrat-david-cameron-eu-summit", "apiUrl": "https://content.guardianapis.com/politics/2012/jan/29/liberal-democrat-david-cameron-eu-summit", "isHosted": false, "pillarId": "pillar/news", "pillarName": "News"}, {"id": "commentisfree/2012/jan/29/diet-sellers-body-confidence", "type": "article", "sectionId": "commentisfree", "sectionName": "Opinion", "webPublicationDate": "2012-01-29T20:49:00Z", "webTitle": "We've been far too polite to these snake-oil diet sellers | Jackie Ashley", "webUrl": "https://www.theguardian.com/commentisfree/2012/jan/29/diet-sellers-body-confidence", "apiUrl": "https://content.guardianapis.com/commentisfree/2012/jan/29/diet-sellers-body-confidence", "isHosted": false, "pillarId": "pillar/opinion", "pillarName": "Opinion"}]}}