{"response": {"status": "ok", "userTier": "developer", "total": 87260, "startIndex": 1, "pageSize": 50, "currentPage": 1, "pages": 1746, "orderBy": "newest", "results": [{"id": "football/2012/jan/30/yohan-cabaye-charged-fa-violent-conduct", "type": "article", "sectionId": "football", "sectionName": "Football", "webPublicationDate": "2012-01-30T23:36:04Z", "webTitle": "Newcastle's Yohan Cabaye charged with violent conduct by FA", "webUrl": "https://www.theguardian.com/football/2012/jan/30/yohan-cabaye-charged-fa-violent-conduct", "apiUrl": "https://content.guardianapis.com/football/2012/jan/30/yohan-cabaye-charged-fa-violent-conduct", "isHosted": false, "pillarId": "pillar/sport", "pillarName": "Sport"}, {"id": "football/2012/jan/30/west-ham-ravel-morrison-manchester-united", "type": "article", "sectionId": "football", "sectionName": "Football", "webPublicationDate": "2012-01-30T23:29:44Z", "webTitle": "West Ham move to sign Ravel Morrison from Manchester United", "webUrl": "https://www.theguardian.com/football/2012/jan/30/west-ham-ravel-morrison-manchester-united", "apiUrl": "https://content.guardianapis.com/football/2012/jan/30/west-ham-ravel-morrison-manchester-united", "isHosted": false, "pillarId": "pillar/sport", "pillarName": "Sport"}, {"id": "football/2012/jan/30/andre-villas-boas-fernando-torres", "type": "article", "sectionId": "football", "sectionName": "Football", "webPublicationDate": "2012-01-30T23:00:02Z", "webTitle": "Andr\u00e9 Villas-Boas backs Fernando Torres to shine for Chelsea", "webUrl": "https://www.theguardian.com/football/2012/jan/30/andre-villas-boas-fernando-torres", "apiUrl": "https://content.guardianapis.com/football/2012/jan/30/andre-villas-boas-fernando-torres", "isHosted": false, "pillarId": "pillar/sport", "pillarName": "Sport"}, {"id": "football/2012/jan/30/mark-hughes-carlos-tevez-qpr-manchester-city", "type": "article", "sectionId": "football", "sectionName": "Football", "webPublicationDate": "2012-01-30T22:59:01Z", "webTitle": "Mark Hughes: QPR loan move for Carlos Tevez could help Manchester City", "webUrl": "https://www.theguardian.com/football/2012/jan/30/mark-hughes-carlos-tevez-qpr-manchester-city", "apiUrl": "https://content.guardianapis.com/football/2012/jan/30/mark-hughes-carlos-tevez-qpr-manchester-city", "isHosted": false, "pillarId": "pillar/sport", "pillarName": "Sport"}, {"id": "football/2012/jan/30/everton-nikica-jelavic-rangers", "type": "article", "sectionId": "football", "sectionName": "Football", "webPublicationDate": "2012-01-30T22:52:13Z", "webTitle": "Everton set to complete signing of Rangers striker Nikica Jelavic", "webUrl": "https://www.theguardian.com/football/2012/jan/30/everton-nikica-jelavic-rangers", "apiUrl": "https://content.guardianapis.com/football/2012/jan/30/everton-nikica-jelavic-rangers", "isHosted": false, "pillarId": "pillar/sport", "pillarName": "Sport"}, {"id": "football/2012/jan/30/sebastien-bassong-steven-pienaar-tottenham-qpr", "type": "article", "sectionId": "football", "sectionName": "Football", "webPublicationDate": "2012-01-30T22:00:01Z", "webTitle": "S\u00e9bastien Bassong and Steven Pienaar target move from Tottenham to QPR", "webUrl": "https://www.theguardian.com/football/2012/jan/30/sebastien-bassong-steven-pienaar-tottenham-qpr", "apiUrl": "https://content.guardianapis.com/football/2012/jan/30/sebastien-bassong-steven-pienaar-tottenham-qpr", "isHosted": false, "pillarId": "pillar/sport", "pillarName": "Sport"}, {"id": "football/2012/jan/30/barnet-suspend-mark-marshall", "type": "article", "sectionId": "football", "sectionName": "Football", "webPublicationDate": "2012-01-30T21:37:00Z", "webTitle": "Barnet suspend winger Mark Marshall over positive drug test", "webUrl": "https://www.theguardian.com/football/2012/jan/30/barnet-suspend-mark-marshall", "apiUrl": "https://content.guardianapis.com/football/2012/jan/30/barnet-suspend-mark-marshall", "isHosted": false, "pillarId": "pillar/sport", "pillarName": "Sport"}, {"id": "football/2012/jan/30/carlos-tevez-manchester-city-milan", "type": "article", "sectionId": "football", "sectionName": "Football", "webPublicationDate": "2012-01-30T21:04:53Z", "webTitle": "Carlos Tevez set to stay at Manchester City after Milan hopes fade", "webUrl": "https://www.theguardian.com/football/2012/jan/30/carlos-tevez-manchester-city-milan", "apiUrl": "https://content.guardianapis.com/football/2012/jan/30/carlos-tevez-manchester-city-milan", "isHosted": false, "pillarId": "pillar/sport", "pillarName": "Sport"}, {"id": "football/2012/jan/30/john-terry-injury-miss-swansea", "type": "article", "sectionId": "football", "sectionName": "Football", "webPublicationDate": "2012-01-30T20:50:28Z", "webTitle": "Chelsea's John Terry misses trip to Swansea with knee injury", "webUrl": "https://www.theguardian.com/football/2012/jan/30/john-terry-injury-miss-swansea", "apiUrl": "https://content.guardianapis.com/football/2012/jan/30/john-terry-injury-miss-swansea", "isHosted": false, "pillarId": "pillar/sport", "pillarName": "Sport"}, {"id": "football/2012/jan/30/ivory-coast-angola-live-mbm", "type": "article", "sectionId": "football", "sectionName": "Football", "webPublicationDate": "2012-01-30T20:00:00Z", "webTitle": "Ivory Coast 2 Angola 0 - as it happened | Simon Burnton", "webUrl": "https://www.theguardian.com/football/2012/jan/30/ivory-coast-angola-live-mbm", "apiUrl": "https://content.guardianapis.com/football/2012/jan/30/ivory-coast-angola-live-mbm", "isHosted": false, "pillarId": "pillar/sport", "pillarName": "Sport"}, {"id": "uk/2012/jan/30/milan-mandaric-harry-redknapp", "type": "article", "sectionId": "uk-news", "sectionName": "UK news", "webPublicationDate": "2012-01-30T18:16:45Z", "webTitle": "Milan Mandaric says payment to Harry Redknapp was a friendship gift", "webUrl": "https://www.theguardian.com/uk/2012/jan/30/milan-mandaric-harry-redknapp", "apiUrl": "https://content.guardianapis.com/uk/2012/jan/30/milan-mandaric-harry-redknapp", "isHosted": false, "pillarId": "pillar/news", "pillarName": "News"}, {"id": "football/2012/jan/30/liverpool-apology", "type": "article", "sectionId": "football", "sectionName": "Football", "webPublicationDate": "2012-01-30T17:53:47Z", "webTitle": "Liverpool apologise for including alleged racist gesture in club video", "webUrl": "https://www.theguardian.com/football/2012/jan/30/liverpool-apology", "apiUrl": "https://content.guardianapis.com/football/2012/jan/30/liverpool-apology", "isHosted": false, "pillarId": "pillar/sport", "pillarName": "Sport"}, {"id": "football/blog/2012/jan/30/andy-carroll-fernando-torres-transfer-window", "type": "article", "sectionId": "football", "sectionName": "Football", "webPublicationDate": "2012-01-30T17:47:53Z", "webTitle": "Fernando Torres and Andy Carroll have given January sales a bad name | Kevin McCarra", "webUrl": "https://www.theguardian.com/football/blog/2012/jan/30/andy-carroll-fernando-torres-transfer-window", "apiUrl": "https://content.guardianapis.com/football/blog/2012/jan/30/andy-carroll-fernando-torres-transfer-window", "isHosted": false, "pillarId": "pillar/sport", "pillarName": "Sport"}, {"id": "football/2012/jan/30/the-fiver-liverpool-manchester-united", "type": "article", "sectionId": "football", "sectionName": "Football", "webPublicationDate": "2012-01-30T15:59:13Z", "webTitle": "The Fiver | The appalling behaviour of your own | Barry Glendenning", "webUrl": "https://www.theguardian.com/football/2012/jan/30/the-fiver-liverpool-manchester-united", "apiUrl": "https://content.guardianapis.com/football/2012/jan/30/the-fiver-liverpool-manchester-united", "isHosted": false, "pillarId": "pillar/sport", "pillarName": "Sport"}, {"id": "football/blog/audio/2012/jan/30/football-weekly-podcast-dea-gea-manchester-united", "type": "audio", "sectionId": "football", "sectionName": "Football", "webPublicationDate": "2012-01-30T15:36:20Z", "webTitle": "Football Weekly: Manchester United floored in the FA Cup", "webUrl": "https://www.theguardian.com/football/blog/audio/2012/jan/30/football-weekly-podcast-dea-gea-manchester-united", "apiUrl": "https://content.guardianapis.com/football/blog/audio/2012/jan/30/football-weekly-podcast-dea-gea-manchester-united", "isHosted": false, "pillarId": "pillar/sport", "pillarName": "Sport"}, {"id": "commentisfree/2012/jan/30/stephen-hester-bonus-wayne-rooney", "type": "article", "sectionId": "commentisfree", "sectionName": "Opinion", "webPublicationDate": "2012-01-30T15:30:02Z", "webTitle": "Stephen Hester's bonus is wrong \u2013 but what about Wayne Rooney's millions? | Ros Coward", "webUrl": "https://www.theguardian.com/commentisfree/2012/jan/30/stephen-hester-bonus-wayne-rooney", "apiUrl": "https://content.guardianapis.com/commentisfree/2012/jan/30/stephen-hester-bonus-wayne-rooney", "isHosted": false, "pillarId": "pillar/opinion", "pillarName": "Opinion"}, {"id": "football/blog/2012/jan/30/manolo-preciado-survivor-sporting-gijon", "type": "article", "sectionId": "football", "sectionName": "Football", "webPublicationDate": "2012-01-30T13:52:28Z", "webTitle": "Even great survivor Manolo Preciado may not be able to ride out this storm | Sid Lowe", "webUrl": "https://www.theguardian.com/football/blog/2012/jan/30/manolo-preciado-survivor-sporting-gijon", "apiUrl": "https://content.guardianapis.com/football/blog/2012/jan/30/manolo-preciado-survivor-sporting-gijon", "isHosted": false, "pillarId": "pillar/sport", "pillarName": "Sport"}, {"id": "football/2012/jan/30/bolton-crystal-palace-wilfried-zaha", "type": "article", "sectionId": "football", "sectionName": "Football", "webPublicationDate": "2012-01-30T13:33:26Z", "webTitle": "Bolton and Crystal Palace 'way apart in valuation' of Wilfried Zaha", "webUrl": "https://www.theguardian.com/football/2012/jan/30/bolton-crystal-palace-wilfried-zaha", "apiUrl": "https://content.guardianapis.com/football/2012/jan/30/bolton-crystal-palace-wilfried-zaha", "isHosted": false, "pillarId": "pillar/sport", "pillarName": "Sport"}, {"id": "football/blog/2012/jan/30/liverpool-manchester-united-tactics-premier-league", "type": "article", "sectionId": "football", "sectionName": "Football", "webPublicationDate": "2012-01-30T12:48:30Z", "webTitle": "Andy Carroll and Craig Bellamy strike the right note for Liverpool | Michael Cox", "webUrl": "https://www.theguardian.com/football/blog/2012/jan/30/liverpool-manchester-united-tactics-premier-league", "apiUrl": "https://content.guardianapis.com/football/blog/2012/jan/30/liverpool-manchester-united-tactics-premier-league", "isHosted": false, "pillarId": "pillar/sport", "pillarName": "Sport"}, {"id": "football/2012/jan/30/notts-county-lee-hughes-charged", "type": "article", "sectionId": "football", "sectionName": "Football", "webPublicationDate": "2012-01-30T12:11:04Z", "webTitle": "Notts County striker Lee Hughes charged with sexual assault", "webUrl": "https://www.theguardian.com/football/2012/jan/30/notts-county-lee-hughes-charged", "apiUrl": "https://content.guardianapis.com/football/2012/jan/30/notts-county-lee-hughes-charged", "isHosted": false, "pillarId": "pillar/sport", "pillarName": "Sport"}, {"id": "football/2012/jan/30/chelsea-kevin-de-bruyne", "type": "article", "sectionId": "football", "sectionName": "Football", "webPublicationDate": "2012-01-30T11:33:14Z", "webTitle": "Chelsea on verge of signing Genk winger Kevin de Bruyne", "webUrl": "https://www.theguardian.com/football/2012/jan/30/chelsea-kevin-de-bruyne", "apiUrl": "https://content.guardianapis.com/football/2012/jan/30/chelsea-kevin-de-bruyne", "isHosted": false, "pillarId": "pillar/sport", "pillarName": "Sport"}, {"id": "football/blog/2012/jan/30/inter-serie-a-italian-football", "type": "article", "sectionId": "football", "sectionName": "Football", "webPublicationDate": "2012-01-30T10:02:53Z", "webTitle": "Crazy Inter's unbeaten run ends at lowly Lecce | Paolo Bandini", "webUrl": "https://www.theguardian.com/football/blog/2012/jan/30/inter-serie-a-italian-football", "apiUrl": "https://content.guardianapis.com/football/blog/2012/jan/30/inter-serie-a-italian-football", "isHosted": false, "pillarId": "pillar/sport", "pillarName": "Sport"}, {"id": "football/2012/jan/30/football-transfer-rumours-carlos-tevez-liverpool", "type": "article", "sectionId": "football", "sectionName": "Football", "webPublicationDate": "2012-01-30T09:13:05Z", "webTitle": "Football transfer rumours: Carlos Tevez to Liverpool on loan? | Barry Glendenning", "webUrl": "https://www.theguardian.com/football/2012/jan/30/football-transfer-rumours-carlos-tevez-liverpool", "apiUrl": "https://content.guardianapis.com/football/2012/jan/30/football-transfer-rumours-carlos-tevez-liverpool", "isHosted": false, "pillarId": "pillar/sport", "pillarName": "Sport"}, {"id": "football/blog/2012/jan/30/five-things-fa-cup-weekend", "type": "article", "sectionId": "football", "sectionName": "Football", "webPublicationDate": "2012-01-30T08:26:00Z", "webTitle": "Five things we learned from the FA Cup this weekend | Rob Bagchi, Evan Fanning, Ian McCourt and Jacob Steinberg", "webUrl": "https://www.theguardian.com/football/blog/2012/jan/30/five-things-fa-cup-weekend", "apiUrl": "https://content.guardianapis.com/football/blog/2012/jan/30/five-things-fa-cup-weekend", "isHosted": false, "pillarId": "pillar/sport", "pillarName": "Sport"}, {"id": "football/2012/jan/29/andy-carroll-denies-leave-liverpool", "type": "article", "sectionId": "football", "sectionName": "Football", "webPublicationDate": "2012-01-29T23:35:00Z", "webTitle": "Andy Carroll denies that he has any desire to leave Liverpool", "webUrl": "https://www.theguardian.com/football/2012/jan/29/andy-carroll-denies-leave-liverpool", "apiUrl": "https://content.guardianapis.com/football/2012/jan/29/andy-carroll-denies-leave-liverpool", "isHosted": false, "pillarId": "pillar/sport", "pillarName": "Sport"}, {"id": "football/blog/2012/jan/29/adrian-chiles-itv-liverpool-manchester-united", "type": "article", "sectionId": "football", "sectionName": "Football", "webPublicationDate": "2012-01-29T23:21:00Z", "webTitle": "Adrian Chiles's chumminess strikes right tone as ITV treads carefully  | Barney Ronay", "webUrl": "https://www.theguardian.com/football/blog/2012/jan/29/adrian-chiles-itv-liverpool-manchester-united", "apiUrl": "https://content.guardianapis.com/football/blog/2012/jan/29/adrian-chiles-itv-liverpool-manchester-united", "isHosted": false, "pillarId": "pillar/sport", "pillarName": "Sport"}, {"id": "football/2012/jan/29/john-terry-queens-park-rangers-chelsea", "type": "article", "sectionId": "football", "sectionName": "Football", "webPublicationDate": "2012-01-29T23:01:15Z", "webTitle": "Chelsea's John Terry braces for fraternal face-off after QPR taunts", "webUrl": "https://www.theguardian.com/football/2012/jan/29/john-terry-queens-park-rangers-chelsea", "apiUrl": "https://content.guardianapis.com/football/2012/jan/29/john-terry-queens-park-rangers-chelsea", "isHosted": false, "pillarId": "pillar/sport", "pillarName": "Sport"}, {"id": "football/blog/2012/jan/29/liverpool-manchester-united-analysis", "type": "article", "sectionId": "football", "sectionName": "Football", "webPublicationDate": "2012-01-29T23:01:12Z", "webTitle": "Patient Liverpool execute their plan to beat Manchester United | David Pleat", "webUrl": "https://www.theguardian.com/football/blog/2012/jan/29/liverpool-manchester-united-analysis", "apiUrl": "https://content.guardianapis.com/football/blog/2012/jan/29/liverpool-manchester-united-analysis", "isHosted": false, "pillarId": "pillar/sport", "pillarName": "Sport"}, {"id": "football/2012/jan/29/fa-cup-roundup", "type": "article", "sectionId": "football", "sectionName": "Football", "webPublicationDate": "2012-01-29T23:01:11Z", "webTitle": "Stoke City's cup concentration pays dividends at Derby County", "webUrl": "https://www.theguardian.com/football/2012/jan/29/fa-cup-roundup", "apiUrl": "https://content.guardianapis.com/football/2012/jan/29/fa-cup-roundup", "isHosted": false, "pillarId": "pillar/sport", "pillarName": "Sport"}, {"id": "football/2012/jan/29/kevin-davies-bolton-swansea-owen-coyle", "type": "article", "sectionId": "football", "sectionName": "Football", "webPublicationDate": "2012-01-29T23:01:10Z", "webTitle": "Owen Coyle assures Kevin Davies of future as Bolton beat Swansea", "webUrl": "https://www.theguardian.com/football/2012/jan/29/kevin-davies-bolton-swansea-owen-coyle", "apiUrl": "https://content.guardianapis.com/football/2012/jan/29/kevin-davies-bolton-swansea-owen-coyle", "isHosted": false, "pillarId": "pillar/sport", "pillarName": "Sport"}, {"id": "football/2012/jan/29/stoke-derby-fa-cup", "type": "article", "sectionId": "football", "sectionName": "Football", "webPublicationDate": "2012-01-29T23:01:08Z", "webTitle": "Stoke's concentration on the cups pays dividends at Derby", "webUrl": "https://www.theguardian.com/football/2012/jan/29/stoke-derby-fa-cup", "apiUrl": "https://content.guardianapis.com/football/2012/jan/29/stoke-derby-fa-cup", "isHosted": false, "pillarId": "pillar/sport", "pillarName": "Sport"}, {"id": "football/2012/jan/29/liverpool-expose-manchester-united", "type": "article", "sectionId": "football", "sectionName": "Football", "webPublicationDate": "2012-01-29T23:01:08Z", "webTitle": "Liverpool tear aside camouflage to expose Manchester United", "webUrl": "https://www.theguardian.com/football/2012/jan/29/liverpool-expose-manchester-united", "apiUrl": "https://content.guardianapis.com/football/2012/jan/29/liverpool-expose-manchester-united", "isHosted": false, "pillarId": "pillar/sport", "pillarName": "Sport"}, {"id": "football/2012/jan/29/steve-evans-crawley-town-hull", "type": "article", "sectionId": "football", "sectionName": "Football", "webPublicationDate": "2012-01-29T23:01:07Z", "webTitle": "Steve Evans nervous after multiple bids for Crawley Town's finest", "webUrl": "https://www.theguardian.com/football/2012/jan/29/steve-evans-crawley-town-hull", "apiUrl": "https://content.guardianapis.com/football/2012/jan/29/steve-evans-crawley-town-hull", "isHosted": false, "pillarId": "pillar/sport", "pillarName": "Sport"}, {"id": "football/2012/jan/29/brighton-newcastle-yohan-cabaye-fa-cup", "type": "article", "sectionId": "football", "sectionName": "Football", "webPublicationDate": "2012-01-29T23:01:06Z", "webTitle": "Yohan Cabaye's raised hackles add to Newcastle United pain at Brighton", "webUrl": "https://www.theguardian.com/football/2012/jan/29/brighton-newcastle-yohan-cabaye-fa-cup", "apiUrl": "https://content.guardianapis.com/football/2012/jan/29/brighton-newcastle-yohan-cabaye-fa-cup", "isHosted": false, "pillarId": "pillar/sport", "pillarName": "Sport"}, {"id": "football/2012/jan/29/norwich-city-jed-steer-west-brom", "type": "article", "sectionId": "football", "sectionName": "Football", "webPublicationDate": "2012-01-29T23:01:05Z", "webTitle": "Norwich City's Jed Steer stars as victory over West Brom averts replay", "webUrl": "https://www.theguardian.com/football/2012/jan/29/norwich-city-jed-steer-west-brom", "apiUrl": "https://content.guardianapis.com/football/2012/jan/29/norwich-city-jed-steer-west-brom", "isHosted": false, "pillarId": "pillar/sport", "pillarName": "Sport"}, {"id": "football/2012/jan/29/qpr-referee-challenge-system-chelsea", "type": "article", "sectionId": "football", "sectionName": "Football", "webPublicationDate": "2012-01-29T23:01:04Z", "webTitle": "QPR co-owner calls for video challenge system for referee decisions", "webUrl": "https://www.theguardian.com/football/2012/jan/29/qpr-referee-challenge-system-chelsea", "apiUrl": "https://content.guardianapis.com/football/2012/jan/29/qpr-referee-challenge-system-chelsea", "isHosted": false, "pillarId": "pillar/sport", "pillarName": "Sport"}, {"id": "football/2012/jan/29/andy-carroll-lone-ranger-liverpool", "type": "article", "sectionId": "football", "sectionName": "Football", "webPublicationDate": "2012-01-29T22:31:01Z", "webTitle": "Andy Carroll pays the price for lone ranger role at Liverpool", "webUrl": "https://www.theguardian.com/football/2012/jan/29/andy-carroll-lone-ranger-liverpool", "apiUrl": "https://content.guardianapis.com/football/2012/jan/29/andy-carroll-lone-ranger-liverpool", "isHosted": false, "pillarId": "pillar/sport", "pillarName": "Sport"}, {"id": "football/2012/jan/29/everton-rangers-nikica-jelavic", "type": "article", "sectionId": "football", "sectionName": "Football", "webPublicationDate": "2012-01-29T21:16:05Z", "webTitle": "Everton make an offer to Rangers for striker Nikica Jelavic", "webUrl": "https://www.theguardian.com/football/2012/jan/29/everton-rangers-nikica-jelavic", "apiUrl": "https://content.guardianapis.com/football/2012/jan/29/everton-rangers-nikica-jelavic", "isHosted": false, "pillarId": "pillar/sport", "pillarName": "Sport"}, {"id": "football/2012/jan/29/robin-van-persie-elbow-aston-villa", "type": "article", "sectionId": "football", "sectionName": "Football", "webPublicationDate": "2012-01-29T20:54:40Z", "webTitle": "Robin van Persie accused of elbowing Aston Villa's Carlos Cu\u00e9llar", "webUrl": "https://www.theguardian.com/football/2012/jan/29/robin-van-persie-elbow-aston-villa", "apiUrl": "https://content.guardianapis.com/football/2012/jan/29/robin-van-persie-elbow-aston-villa", "isHosted": false, "pillarId": "pillar/sport", "pillarName": "Sport"}, {"id": "football/2012/jan/29/falkirk-celtic-scottish-league-cup", "type": "article", "sectionId": "football", "sectionName": "Football", "webPublicationDate": "2012-01-29T20:19:00Z", "webTitle": "Falkirk 1-3 Celtic | Scottish League Cup semi-final match report", "webUrl": "https://www.theguardian.com/football/2012/jan/29/falkirk-celtic-scottish-league-cup", "apiUrl": "https://content.guardianapis.com/football/2012/jan/29/falkirk-celtic-scottish-league-cup", "isHosted": false, "pillarId": "pillar/sport", "pillarName": "Sport"}, {"id": "football/2012/jan/29/arsenal-aston-villa-fa-cup", "type": "article", "sectionId": "football", "sectionName": "Football", "webPublicationDate": "2012-01-29T18:08:02Z", "webTitle": "Arsenal 3-2 Aston Villa | FA Cup fourth-round match report", "webUrl": "https://www.theguardian.com/football/2012/jan/29/arsenal-aston-villa-fa-cup", "apiUrl": "https://content.guardianapis.com/football/2012/jan/29/arsenal-aston-villa-fa-cup", "isHosted": false, "pillarId": "pillar/sport", "pillarName": "Sport"}, {"id": "football/2012/jan/29/sunderland-middlesbrough-fa-cup1", "type": "article", "sectionId": "football", "sectionName": "Football", "webPublicationDate": "2012-01-29T15:55:40Z", "webTitle": "Sunderland 1-1 Middlesbrough | FA Cup fourth-round match report", "webUrl": "https://www.theguardian.com/football/2012/jan/29/sunderland-middlesbrough-fa-cup1", "apiUrl": "https://content.guardianapis.com/football/2012/jan/29/sunderland-middlesbrough-fa-cup1", "isHosted": false, "pillarId": "pillar/sport", "pillarName": "Sport"}, {"id": "football/2012/jan/28/police-investigate-fan-gesture-anfield", "type": "article", "sectionId": "football", "sectionName": "Football", "webPublicationDate": "2012-01-29T01:45:00Z", "webTitle": "Man detained by police over alleged racist gesture made at Anfield", "webUrl": "https://www.theguardian.com/football/2012/jan/28/police-investigate-fan-gesture-anfield", "apiUrl": "https://content.guardianapis.com/football/2012/jan/28/police-investigate-fan-gesture-anfield", "isHosted": false, "pillarId": "pillar/sport", "pillarName": "Sport"}, {"id": "football/2012/jan/29/jose-mourinho-real-madrid", "type": "article", "sectionId": "football", "sectionName": "Football", "webPublicationDate": "2012-01-29T01:08:00Z", "webTitle": "Jos\u00e9 Mourinho 'tired of Real Madrid' and could return to England", "webUrl": "https://www.theguardian.com/football/2012/jan/29/jose-mourinho-real-madrid", "apiUrl": "https://content.guardianapis.com/football/2012/jan/29/jose-mourinho-real-madrid", "isHosted": false, "pillarId": "pillar/sport", "pillarName": "Sport"}, {"id": "football/2012/jan/29/fa-cup-round-up", "type": "article", "sectionId": "football", "sectionName": "Football", "webPublicationDate": "2012-01-29T00:48:48Z", "webTitle": "FA Cup round-up", "webUrl": "https://www.theguardian.com/football/2012/jan/29/fa-cup-round-up", "apiUrl": "https://content.guardianapis.com/football/2012/jan/29/fa-cup-round-up", "isHosted": false, "pillarId": "pillar/sport", "pillarName": "Sport"}, {"id": "commentisfree/2012/jan/29/kevin-mckenna-football-olympic-games", "type": "article", "sectionId": "commentisfree", "sectionName": "Opinion", "webPublicationDate": "2012-01-29T00:07:13Z", "webTitle": "What do we know about football? Sweet SFA | Kevin McKenna", "webUrl": "https://www.theguardian.com/commentisfree/2012/jan/29/kevin-mckenna-football-olympic-games", "apiUrl": "https://content.guardianapis.com/commentisfree/2012/jan/29/kevin-mckenna-football-olympic-games", "isHosted": false, "pillarId": "pillar/opinion", "pillarName": "Opinion"}, {"id": "football/2012/jan/28/juan-mata-saturday-sundae", "type": "article", "sectionId": "football", "sectionName": "Football", "webPublicationDate": "2012-01-28T23:47:24Z", "webTitle": "Saturday Sundae: penalty king Juan Mata is the man of the day", "webUrl": "https://www.theguardian.com/football/2012/jan/28/juan-mata-saturday-sundae", "apiUrl": "https://content.guardianapis.com/football/2012/jan/28/juan-mata-saturday-sundae", "isHosted": false, "pillarId": "pillar/sport", "pillarName": "Sport"}, {"id": "football/2012/jan/28/said-and-done-teodorin-obiang", "type": "article", "sectionId": "football", "sectionName": "Football", "webPublicationDate": "2012-01-28T23:20:30Z", "webTitle": "Said & Done: Model news; Bin Laden in Romania; plus why football is not for oxen", "webUrl": "https://www.theguardian.com/football/2012/jan/28/said-and-done-teodorin-obiang", "apiUrl": "https://content.guardianapis.com/football/2012/jan/28/said-and-done-teodorin-obiang", "isHosted": false, "pillarId": "pillar/sport", "pillarName": "Sport"}, {"id": "football/2012/jan/28/liverpool-andy-carroll-carlos-tevez", "type": "article", "sectionId": "football", "sectionName": "Football", "webPublicationDate": "2012-01-28T23:00:02Z", "webTitle": "Manchester City reject Liverpool's Andy Carroll for Carlos Tevez offer", "webUrl": "https://www.theguardian.com/football/2012/jan/28/liverpool-andy-carroll-carlos-tevez", "apiUrl": "https://content.guardianapis.com/football/2012/jan/28/liverpool-andy-carroll-carlos-tevez", "isHosted": false, "pillarId": "pillar/sport", "pillarName": "Sport"}, {"id": "football/blog/2012/jan/28/carlos-tevez-manchester-city", "type": "article", "sectionId": "football", "sectionName": "Football", "webPublicationDate": "2012-01-28T23:00:01Z", "webTitle": "Carlos Tevez paying a heavy price for living in his own universe | Daniel Taylor", "webUrl": "https://www.theguardian.com/football/blog/2012/jan/28/carlos-tevez-manchester-city", "apiUrl": "https://content.guardianapis.com/football/blog/2012/jan/28/carlos-tevez-manchester-city", "isHosted": false, "pillarId": "pillar/sport", "pillarName": "Sport"}]}}