{"response": {"status": "ok", "userTier": "developer", "total": 31857, "startIndex": 1, "pageSize": 50, "currentPage": 1, "pages": 638, "orderBy": "newest", "results": [{"id": "environment/the-northerner/2012/jan/30/kinder-scout-silent-brooding-crowd", "type": "article", "sectionId": "environment", "sectionName": "Environment", "webPublicationDate": "2012-01-30T21:00:00Z", "webTitle": "Country diary: Kinder Scout: A silent brooding crowd on the moor", "webUrl": "https://www.theguardian.com/environment/the-northerner/2012/jan/30/kinder-scout-silent-brooding-crowd", "apiUrl": "https://content.guardianapis.com/environment/the-northerner/2012/jan/30/kinder-scout-silent-brooding-crowd", "isHosted": false, "pillarId": "pillar/news", "pillarName": "News"}, {"id": "education/2012/jan/30/hedgerows-flight-bumblebees-rural-planning", "type": "article", "sectionId": "education", "sectionName": "Education", "webPublicationDate": "2012-01-30T17:00:01Z", "webTitle": "Hedgerows direct the flight of the bumblebee", "webUrl": "https://www.theguardian.com/education/2012/jan/30/hedgerows-flight-bumblebees-rural-planning", "apiUrl": "https://content.guardianapis.com/education/2012/jan/30/hedgerows-flight-bumblebees-rural-planning", "isHosted": false, "pillarId": "pillar/news", "pillarName": "News"}, {"id": "environment/2012/jan/30/tesco-drops-carbon-labelling", "type": "article", "sectionId": "environment", "sectionName": "Environment", "webPublicationDate": "2012-01-30T15:02:45Z", "webTitle": "Tesco drops carbon-label pledge", "webUrl": "https://www.theguardian.com/environment/2012/jan/30/tesco-drops-carbon-labelling", "apiUrl": "https://content.guardianapis.com/environment/2012/jan/30/tesco-drops-carbon-labelling", "isHosted": false, "pillarId": "pillar/news", "pillarName": "News"}, {"id": "uk/2012/jan/30/northern-ireland-5p-plastic-bag-tax", "type": "article", "sectionId": "environment", "sectionName": "Environment", "webPublicationDate": "2012-01-30T14:13:50Z", "webTitle": "Northern Ireland to bring in 5p plastic bag tax from 2013", "webUrl": "https://www.theguardian.com/uk/2012/jan/30/northern-ireland-5p-plastic-bag-tax", "apiUrl": "https://content.guardianapis.com/uk/2012/jan/30/northern-ireland-5p-plastic-bag-tax", "isHosted": false, "pillarId": "pillar/news", "pillarName": "News"}, {"id": "environment/2012/jan/30/cadmium-spill-china-river", "type": "article", "sectionId": "environment", "sectionName": "Environment", "webPublicationDate": "2012-01-30T11:43:56Z", "webTitle": "Cadmium spill threatens water supplies of major Chinese city", "webUrl": "https://www.theguardian.com/environment/2012/jan/30/cadmium-spill-china-river", "apiUrl": "https://content.guardianapis.com/environment/2012/jan/30/cadmium-spill-china-river", "isHosted": false, "pillarId": "pillar/news", "pillarName": "News"}, {"id": "global-development/gallery/2012/jan/30/food-security-niger-desertification-in-pictures", "type": "gallery", "sectionId": "global-development", "sectionName": "Global development", "webPublicationDate": "2012-01-30T09:00:00Z", "webTitle": "Communities contending with crisis in Niger \u2013 in pictures", "webUrl": "https://www.theguardian.com/global-development/gallery/2012/jan/30/food-security-niger-desertification-in-pictures", "apiUrl": "https://content.guardianapis.com/global-development/gallery/2012/jan/30/food-security-niger-desertification-in-pictures", "isHosted": false, "pillarId": "pillar/news", "pillarName": "News"}, {"id": "environment/2012/jan/30/sustainable-seafood-products-sharp-rise", "type": "article", "sectionId": "environment", "sectionName": "Environment", "webPublicationDate": "2012-01-30T00:01:03Z", "webTitle": "Sharp rise in sustainable seafood products on sale in UK", "webUrl": "https://www.theguardian.com/environment/2012/jan/30/sustainable-seafood-products-sharp-rise", "apiUrl": "https://content.guardianapis.com/environment/2012/jan/30/sustainable-seafood-products-sharp-rise", "isHosted": false, "pillarId": "pillar/news", "pillarName": "News"}, {"id": "environment/2012/jan/29/wasdale-head-lake-district", "type": "article", "sectionId": "environment", "sectionName": "Environment", "webPublicationDate": "2012-01-29T20:59:00Z", "webTitle": "Country diary: Wasdale Head, Lake District: Breaking the silence of the Lakes", "webUrl": "https://www.theguardian.com/environment/2012/jan/29/wasdale-head-lake-district", "apiUrl": "https://content.guardianapis.com/environment/2012/jan/29/wasdale-head-lake-district", "isHosted": false, "pillarId": "pillar/news", "pillarName": "News"}, {"id": "world/shortcuts/2012/jan/29/pass-notes-brooklyn-3115", "type": "article", "sectionId": "us-news", "sectionName": "US news", "webPublicationDate": "2012-01-29T20:00:00Z", "webTitle": "Pass notes, No 3,115: Brooklyn", "webUrl": "https://www.theguardian.com/world/shortcuts/2012/jan/29/pass-notes-brooklyn-3115", "apiUrl": "https://content.guardianapis.com/world/shortcuts/2012/jan/29/pass-notes-brooklyn-3115", "isHosted": false, "pillarId": "pillar/news", "pillarName": "News"}, {"id": "science/2012/jan/27/plantwatch-spring-flowers-winter", "type": "article", "sectionId": "science", "sectionName": "Science", "webPublicationDate": "2012-01-27T22:30:00Z", "webTitle": "Plantwatch: A premature spring means early bloomers will pay the price", "webUrl": "https://www.theguardian.com/science/2012/jan/27/plantwatch-spring-flowers-winter", "apiUrl": "https://content.guardianapis.com/science/2012/jan/27/plantwatch-spring-flowers-winter", "isHosted": false, "pillarId": "pillar/news", "pillarName": "News"}, {"id": "environment/2012/jan/27/sandy-bedfordshire-robin-dawn-chorus", "type": "article", "sectionId": "environment", "sectionName": "Environment", "webPublicationDate": "2012-01-27T20:59:01Z", "webTitle": "Country diary: Sandy, Bedfordshire: A robin's rumbustious overture to a pre-dawn chorus", "webUrl": "https://www.theguardian.com/environment/2012/jan/27/sandy-bedfordshire-robin-dawn-chorus", "apiUrl": "https://content.guardianapis.com/environment/2012/jan/27/sandy-bedfordshire-robin-dawn-chorus", "isHosted": false, "pillarId": "pillar/news", "pillarName": "News"}, {"id": "environment/2012/jan/27/bp-transocean-deepwater-spill-court", "type": "article", "sectionId": "environment", "sectionName": "Environment", "webPublicationDate": "2012-01-27T19:05:18Z", "webTitle": "BP loses attempt to share Deepwater Horizon oil spill costs", "webUrl": "https://www.theguardian.com/environment/2012/jan/27/bp-transocean-deepwater-spill-court", "apiUrl": "https://content.guardianapis.com/environment/2012/jan/27/bp-transocean-deepwater-spill-court", "isHosted": false, "pillarId": "pillar/news", "pillarName": "News"}, {"id": "environment/gallery/2012/jan/27/week-in-wildlife-in-pictures", "type": "gallery", "sectionId": "environment", "sectionName": "Environment", "webPublicationDate": "2012-01-27T18:08:00Z", "webTitle": "The week in wildlife \u2013 in pictures", "webUrl": "https://www.theguardian.com/environment/gallery/2012/jan/27/week-in-wildlife-in-pictures", "apiUrl": "https://content.guardianapis.com/environment/gallery/2012/jan/27/week-in-wildlife-in-pictures", "isHosted": false, "pillarId": "pillar/news", "pillarName": "News"}, {"id": "environment/2012/jan/27/rare-minerals-global-renewables-industry", "type": "article", "sectionId": "environment", "sectionName": "Environment", "webPublicationDate": "2012-01-27T16:55:03Z", "webTitle": "Rare minerals dearth threatens global renewables industry", "webUrl": "https://www.theguardian.com/environment/2012/jan/27/rare-minerals-global-renewables-industry", "apiUrl": "https://content.guardianapis.com/environment/2012/jan/27/rare-minerals-global-renewables-industry", "isHosted": false, "pillarId": "pillar/news", "pillarName": "News"}, {"id": "politics/2012/jan/27/david-cameron-eco-image-retoxification", "type": "article", "sectionId": "politics", "sectionName": "Politics", "webPublicationDate": "2012-01-27T15:54:59Z", "webTitle": "David Cameron's eco-friendly image risks 'retoxification', warns WWF chief", "webUrl": "https://www.theguardian.com/politics/2012/jan/27/david-cameron-eco-image-retoxification", "apiUrl": "https://content.guardianapis.com/politics/2012/jan/27/david-cameron-eco-image-retoxification", "isHosted": false, "pillarId": "pillar/news", "pillarName": "News"}, {"id": "world/2012/jan/27/indonesian-government-mining-permits-protests", "type": "article", "sectionId": "world", "sectionName": "World news", "webPublicationDate": "2012-01-27T15:53:04Z", "webTitle": "Indonesian protests force government to revoke gold mining permits", "webUrl": "https://www.theguardian.com/world/2012/jan/27/indonesian-government-mining-permits-protests", "apiUrl": "https://content.guardianapis.com/world/2012/jan/27/indonesian-government-mining-permits-protests", "isHosted": false, "pillarId": "pillar/news", "pillarName": "News"}, {"id": "environment/2012/jan/27/public-eye-awards-vale-barclays", "type": "article", "sectionId": "environment", "sectionName": "Environment", "webPublicationDate": "2012-01-27T15:44:00Z", "webTitle": "Public Eye award singles out Brazilian mining company, Barclays", "webUrl": "https://www.theguardian.com/environment/2012/jan/27/public-eye-awards-vale-barclays", "apiUrl": "https://content.guardianapis.com/environment/2012/jan/27/public-eye-awards-vale-barclays", "isHosted": false, "pillarId": "pillar/news", "pillarName": "News"}, {"id": "environment/damian-carrington-blog/2012/jan/27/biofuels-biodiesel-ethanol-palm-oil", "type": "article", "sectionId": "environment", "sectionName": "Environment", "webPublicationDate": "2012-01-27T15:16:00Z", "webTitle": "Leaked data: Palm biodiesel as dirty as fuel from tar sands | Damian Carrington", "webUrl": "https://www.theguardian.com/environment/damian-carrington-blog/2012/jan/27/biofuels-biodiesel-ethanol-palm-oil", "apiUrl": "https://content.guardianapis.com/environment/damian-carrington-blog/2012/jan/27/biofuels-biodiesel-ethanol-palm-oil", "isHosted": false, "pillarId": "pillar/news", "pillarName": "News"}, {"id": "commentisfree/2012/jan/27/metal-theft-banning-cash-transactions", "type": "article", "sectionId": "commentisfree", "sectionName": "Opinion", "webPublicationDate": "2012-01-27T15:02:36Z", "webTitle": "Metal theft won't be stopped by banning cash transactions | Derek Campbell", "webUrl": "https://www.theguardian.com/commentisfree/2012/jan/27/metal-theft-banning-cash-transactions", "apiUrl": "https://content.guardianapis.com/commentisfree/2012/jan/27/metal-theft-banning-cash-transactions", "isHosted": false, "pillarId": "pillar/opinion", "pillarName": "Opinion"}, {"id": "world/2012/jan/27/experts-japan-nuclear-plant-tests", "type": "article", "sectionId": "environment", "sectionName": "Environment", "webPublicationDate": "2012-01-27T12:36:45Z", "webTitle": "Experts cast doubt on Japan nuclear plant tests", "webUrl": "https://www.theguardian.com/world/2012/jan/27/experts-japan-nuclear-plant-tests", "apiUrl": "https://content.guardianapis.com/world/2012/jan/27/experts-japan-nuclear-plant-tests", "isHosted": false, "pillarId": "pillar/news", "pillarName": "News"}, {"id": "environment/2012/jan/27/amazon-rainforest-map-biodiversity-detail", "type": "article", "sectionId": "environment", "sectionName": "Environment", "webPublicationDate": "2012-01-27T12:17:58Z", "webTitle": "Amazon rainforest mapped in unprecedented detail", "webUrl": "https://www.theguardian.com/environment/2012/jan/27/amazon-rainforest-map-biodiversity-detail", "apiUrl": "https://content.guardianapis.com/environment/2012/jan/27/amazon-rainforest-map-biodiversity-detail", "isHosted": false, "pillarId": "pillar/news", "pillarName": "News"}, {"id": "environment/2012/jan/27/feed-in-tariffs-appeal", "type": "article", "sectionId": "environment", "sectionName": "Environment", "webPublicationDate": "2012-01-27T10:34:17Z", "webTitle": "The solar industry needs to know the UK government can be trusted | Caroline Lucas", "webUrl": "https://www.theguardian.com/environment/2012/jan/27/feed-in-tariffs-appeal", "apiUrl": "https://content.guardianapis.com/environment/2012/jan/27/feed-in-tariffs-appeal", "isHosted": false, "pillarId": "pillar/news", "pillarName": "News"}, {"id": "environment/2012/jan/27/gulf-mexico-oil-bp-compensation", "type": "article", "sectionId": "environment", "sectionName": "Environment", "webPublicationDate": "2012-01-27T02:18:07Z", "webTitle": "Gulf of Mexico oil spill: BP loses bid to make others pay compensation", "webUrl": "https://www.theguardian.com/environment/2012/jan/27/gulf-mexico-oil-bp-compensation", "apiUrl": "https://content.guardianapis.com/environment/2012/jan/27/gulf-mexico-oil-bp-compensation", "isHosted": false, "pillarId": "pillar/news", "pillarName": "News"}, {"id": "commentisfree/2012/jan/26/why-meredith-alexander-resigned-bhopal-olympic", "type": "article", "sectionId": "commentisfree", "sectionName": "Opinion", "webPublicationDate": "2012-01-26T22:00:04Z", "webTitle": "Meredith Alexander: Why I resigned over Bhopal", "webUrl": "https://www.theguardian.com/commentisfree/2012/jan/26/why-meredith-alexander-resigned-bhopal-olympic", "apiUrl": "https://content.guardianapis.com/commentisfree/2012/jan/26/why-meredith-alexander-resigned-bhopal-olympic", "isHosted": false, "pillarId": "pillar/opinion", "pillarName": "Opinion"}, {"id": "environment/2012/jan/26/transparency-donors-climate-sceptic-lobby", "type": "article", "sectionId": "environment", "sectionName": "Environment", "webPublicationDate": "2012-01-26T21:00:06Z", "webTitle": "Letters: Transparency needed on donors to climate sceptic lobby", "webUrl": "https://www.theguardian.com/environment/2012/jan/26/transparency-donors-climate-sceptic-lobby", "apiUrl": "https://content.guardianapis.com/environment/2012/jan/26/transparency-donors-climate-sceptic-lobby", "isHosted": false, "pillarId": "pillar/news", "pillarName": "News"}, {"id": "environment/2012/jan/26/south-uist-perfect-day-beach-walk", "type": "article", "sectionId": "environment", "sectionName": "Environment", "webPublicationDate": "2012-01-26T20:59:01Z", "webTitle": "Country diary: South Uist: A perfect day for a beach walk", "webUrl": "https://www.theguardian.com/environment/2012/jan/26/south-uist-perfect-day-beach-walk", "apiUrl": "https://content.guardianapis.com/environment/2012/jan/26/south-uist-perfect-day-beach-walk", "isHosted": false, "pillarId": "pillar/news", "pillarName": "News"}, {"id": "environment/2012/jan/26/super-sewer-thames-london-necessity", "type": "article", "sectionId": "environment", "sectionName": "Environment", "webPublicationDate": "2012-01-26T18:11:07Z", "webTitle": "Thames super-sewer a 'necessity' to prevent EU fines", "webUrl": "https://www.theguardian.com/environment/2012/jan/26/super-sewer-thames-london-necessity", "apiUrl": "https://content.guardianapis.com/environment/2012/jan/26/super-sewer-thames-london-necessity", "isHosted": false, "pillarId": "pillar/news", "pillarName": "News"}, {"id": "environment/gallery/2012/jan/26/worlds-biggest-trees-in-pictures", "type": "gallery", "sectionId": "environment", "sectionName": "Environment", "webPublicationDate": "2012-01-26T16:59:00Z", "webTitle": "The world's biggest and most vulnerable trees \u2013 in pictures", "webUrl": "https://www.theguardian.com/environment/gallery/2012/jan/26/worlds-biggest-trees-in-pictures", "apiUrl": "https://content.guardianapis.com/environment/gallery/2012/jan/26/worlds-biggest-trees-in-pictures", "isHosted": false, "pillarId": "pillar/news", "pillarName": "News"}, {"id": "environment/2012/jan/26/poaching-thailand-elephant-meat", "type": "article", "sectionId": "environment", "sectionName": "Environment", "webPublicationDate": "2012-01-26T15:00:23Z", "webTitle": "Poaching for meat poses new extinction risk to Thai elephants", "webUrl": "https://www.theguardian.com/environment/2012/jan/26/poaching-thailand-elephant-meat", "apiUrl": "https://content.guardianapis.com/environment/2012/jan/26/poaching-thailand-elephant-meat", "isHosted": false, "pillarId": "pillar/news", "pillarName": "News"}, {"id": "science/the-lay-scientist/2012/jan/26/1", "type": "article", "sectionId": "science", "sectionName": "Science", "webPublicationDate": "2012-01-26T13:14:00Z", "webTitle": "The BBC's problem with science | Martin Robbins", "webUrl": "https://www.theguardian.com/science/the-lay-scientist/2012/jan/26/1", "apiUrl": "https://content.guardianapis.com/science/the-lay-scientist/2012/jan/26/1", "isHosted": false, "pillarId": "pillar/news", "pillarName": "News"}, {"id": "environment/blog/2012/jan/26/mike-dilger-rspb-garden-birdwatch", "type": "article", "sectionId": "environment", "sectionName": "Environment", "webPublicationDate": "2012-01-26T11:12:00Z", "webTitle": "Web chat: Mike Dilger on the RSPB Big Garden Birdwatch", "webUrl": "https://www.theguardian.com/environment/blog/2012/jan/26/mike-dilger-rspb-garden-birdwatch", "apiUrl": "https://content.guardianapis.com/environment/blog/2012/jan/26/mike-dilger-rspb-garden-birdwatch", "isHosted": false, "pillarId": "pillar/news", "pillarName": "News"}, {"id": "environment/2012/jan/26/bird-strikes-thames-estuary-airport", "type": "article", "sectionId": "environment", "sectionName": "Environment", "webPublicationDate": "2012-01-26T10:05:32Z", "webTitle": "Risk of bird strikes would make Thames Estuary UK's 'most dangerous airport'", "webUrl": "https://www.theguardian.com/environment/2012/jan/26/bird-strikes-thames-estuary-airport", "apiUrl": "https://content.guardianapis.com/environment/2012/jan/26/bird-strikes-thames-estuary-airport", "isHosted": false, "pillarId": "pillar/news", "pillarName": "News"}, {"id": "environment/2012/jan/26/carbon-floor-price-blow", "type": "article", "sectionId": "environment", "sectionName": "Environment", "webPublicationDate": "2012-01-26T08:37:00Z", "webTitle": "'Carbon floor price' plans dealt a blow by MPs", "webUrl": "https://www.theguardian.com/environment/2012/jan/26/carbon-floor-price-blow", "apiUrl": "https://content.guardianapis.com/environment/2012/jan/26/carbon-floor-price-blow", "isHosted": false, "pillarId": "pillar/news", "pillarName": "News"}, {"id": "environment/damian-carrington-blog/2012/jan/26/flooding-climate-change-heatwave-impact-risk", "type": "article", "sectionId": "environment", "sectionName": "Environment", "webPublicationDate": "2012-01-26T08:00:00Z", "webTitle": "Climate change set to hit the UK hard and the poorest hardest | Damian Carrington", "webUrl": "https://www.theguardian.com/environment/damian-carrington-blog/2012/jan/26/flooding-climate-change-heatwave-impact-risk", "apiUrl": "https://content.guardianapis.com/environment/damian-carrington-blog/2012/jan/26/flooding-climate-change-heatwave-impact-risk", "isHosted": false, "pillarId": "pillar/news", "pillarName": "News"}, {"id": "environment/2012/jan/26/giant-trees-dying", "type": "article", "sectionId": "environment", "sectionName": "Environment", "webPublicationDate": "2012-01-26T07:00:02Z", "webTitle": "World's giant trees are dying off rapidly, studies show", "webUrl": "https://www.theguardian.com/environment/2012/jan/26/giant-trees-dying", "apiUrl": "https://content.guardianapis.com/environment/2012/jan/26/giant-trees-dying", "isHosted": false, "pillarId": "pillar/news", "pillarName": "News"}, {"id": "environment/2012/jan/26/floods-worst-climate-change-uk", "type": "article", "sectionId": "environment", "sectionName": "Environment", "webPublicationDate": "2012-01-26T06:01:00Z", "webTitle": "Flooding rated as worst climate change threat facing UK", "webUrl": "https://www.theguardian.com/environment/2012/jan/26/floods-worst-climate-change-uk", "apiUrl": "https://content.guardianapis.com/environment/2012/jan/26/floods-worst-climate-change-uk", "isHosted": false, "pillarId": "pillar/news", "pillarName": "News"}, {"id": "environment/2012/jan/25/farr-highlands-an-eerie-walk-by-the-lochside", "type": "article", "sectionId": "environment", "sectionName": "Environment", "webPublicationDate": "2012-01-25T20:59:01Z", "webTitle": "Country diary: Farr, Highlands: An eerie walk by the lochside", "webUrl": "https://www.theguardian.com/environment/2012/jan/25/farr-highlands-an-eerie-walk-by-the-lochside", "apiUrl": "https://content.guardianapis.com/environment/2012/jan/25/farr-highlands-an-eerie-walk-by-the-lochside", "isHosted": false, "pillarId": "pillar/news", "pillarName": "News"}, {"id": "environment/2012/jan/25/solar-subsidies-government-loses-court-appeal", "type": "article", "sectionId": "environment", "sectionName": "Environment", "webPublicationDate": "2012-01-25T16:52:00Z", "webTitle": "Solar subsidies cuts: UK government loses court appeal", "webUrl": "https://www.theguardian.com/environment/2012/jan/25/solar-subsidies-government-loses-court-appeal", "apiUrl": "https://content.guardianapis.com/environment/2012/jan/25/solar-subsidies-government-loses-court-appeal", "isHosted": false, "pillarId": "pillar/news", "pillarName": "News"}, {"id": "environment/2012/jan/25/eu-energy-policy-changes-uk", "type": "article", "sectionId": "environment", "sectionName": "Environment", "webPublicationDate": "2012-01-25T14:58:26Z", "webTitle": "EU energy policy drives changes in UK \u2013 with mixed results", "webUrl": "https://www.theguardian.com/environment/2012/jan/25/eu-energy-policy-changes-uk", "apiUrl": "https://content.guardianapis.com/environment/2012/jan/25/eu-energy-policy-changes-uk", "isHosted": false, "pillarId": "pillar/news", "pillarName": "News"}, {"id": "world/2012/jan/25/europa-wildlife-protection-london-gateway", "type": "article", "sectionId": "environment", "sectionName": "Environment", "webPublicationDate": "2012-01-25T14:08:52Z", "webTitle": "Wildlife of the Thames estuary thrives - thanks to European protectors", "webUrl": "https://www.theguardian.com/world/2012/jan/25/europa-wildlife-protection-london-gateway", "apiUrl": "https://content.guardianapis.com/world/2012/jan/25/europa-wildlife-protection-london-gateway", "isHosted": false, "pillarId": "pillar/news", "pillarName": "News"}, {"id": "environment/video/2012/jan/25/la-nina-floods-australia-video", "type": "video", "sectionId": "environment", "sectionName": "Environment", "webPublicationDate": "2012-01-25T14:00:00Z", "webTitle": "La Ni\u00f1a causes floods in Australia - video", "webUrl": "https://www.theguardian.com/environment/video/2012/jan/25/la-nina-floods-australia-video", "apiUrl": "https://content.guardianapis.com/environment/video/2012/jan/25/la-nina-floods-australia-video", "isHosted": false, "pillarId": "pillar/news", "pillarName": "News"}, {"id": "environment/2012/jan/25/1", "type": "article", "sectionId": "environment", "sectionName": "Environment", "webPublicationDate": "2012-01-25T11:38:34Z", "webTitle": "Green news roundup: Climate sceptic funding, first cycling memories and China's environmental year", "webUrl": "https://www.theguardian.com/environment/2012/jan/25/1", "apiUrl": "https://content.guardianapis.com/environment/2012/jan/25/1", "isHosted": false, "pillarId": "pillar/news", "pillarName": "News"}, {"id": "environment/2012/jan/25/state-of-union-2012-environment", "type": "article", "sectionId": "environment", "sectionName": "Environment", "webPublicationDate": "2012-01-25T11:33:30Z", "webTitle": "State of the Union 2012: Barack Obama's environment agenda in review", "webUrl": "https://www.theguardian.com/environment/2012/jan/25/state-of-union-2012-environment", "apiUrl": "https://content.guardianapis.com/environment/2012/jan/25/state-of-union-2012-environment", "isHosted": false, "pillarId": "pillar/news", "pillarName": "News"}, {"id": "environment/gallery/2012/jan/25/new-species-suriname-in-pictures", "type": "gallery", "sectionId": "environment", "sectionName": "Environment", "webPublicationDate": "2012-01-25T10:33:01Z", "webTitle": "New species discovered in Suriname - in pictures", "webUrl": "https://www.theguardian.com/environment/gallery/2012/jan/25/new-species-suriname-in-pictures", "apiUrl": "https://content.guardianapis.com/environment/gallery/2012/jan/25/new-species-suriname-in-pictures", "isHosted": false, "pillarId": "pillar/news", "pillarName": "News"}, {"id": "environment/damian-carrington-blog/2012/jan/25/environment-regulation-pollution-red-tape", "type": "article", "sectionId": "environment", "sectionName": "Environment", "webPublicationDate": "2012-01-25T09:00:00Z", "webTitle": "Environmental protection rules may be headed for government shredder | Damian Carrington", "webUrl": "https://www.theguardian.com/environment/damian-carrington-blog/2012/jan/25/environment-regulation-pollution-red-tape", "apiUrl": "https://content.guardianapis.com/environment/damian-carrington-blog/2012/jan/25/environment-regulation-pollution-red-tape", "isHosted": false, "pillarId": "pillar/news", "pillarName": "News"}, {"id": "environment/2012/jan/24/werrington-tamar-valley-gunshots-graves-and-a-forgotten-waterway", "type": "article", "sectionId": "environment", "sectionName": "Environment", "webPublicationDate": "2012-01-24T20:59:00Z", "webTitle": "Country diary: Werrington, Tamar Valley: Gunshots, graves and a forgotten waterway", "webUrl": "https://www.theguardian.com/environment/2012/jan/24/werrington-tamar-valley-gunshots-graves-and-a-forgotten-waterway", "apiUrl": "https://content.guardianapis.com/environment/2012/jan/24/werrington-tamar-valley-gunshots-graves-and-a-forgotten-waterway", "isHosted": false, "pillarId": "pillar/news", "pillarName": "News"}, {"id": "politics/2012/jan/24/companies-ministers-networking-events", "type": "article", "sectionId": "politics", "sectionName": "Politics", "webPublicationDate": "2012-01-24T20:00:00Z", "webTitle": "Companies paid \u00a31,800 to meet ministers at networking events", "webUrl": "https://www.theguardian.com/politics/2012/jan/24/companies-ministers-networking-events", "apiUrl": "https://content.guardianapis.com/politics/2012/jan/24/companies-ministers-networking-events", "isHosted": false, "pillarId": "pillar/news", "pillarName": "News"}, {"id": "environment/2012/jan/24/wind-turbines-bird-centre-yorkshire", "type": "article", "sectionId": "environment", "sectionName": "Environment", "webPublicationDate": "2012-01-24T18:45:49Z", "webTitle": "Wind turbine row threatens Lottery-funded bird conservation centre", "webUrl": "https://www.theguardian.com/environment/2012/jan/24/wind-turbines-bird-centre-yorkshire", "apiUrl": "https://content.guardianapis.com/environment/2012/jan/24/wind-turbines-bird-centre-yorkshire", "isHosted": false, "pillarId": "pillar/news", "pillarName": "News"}, {"id": "world/2012/jan/24/mexico-city-rubbish-crisis", "type": "article", "sectionId": "environment", "sectionName": "Environment", "webPublicationDate": "2012-01-24T18:12:50Z", "webTitle": "Mexico City holds its breath as leaders look for solutions to rubbish crisis", "webUrl": "https://www.theguardian.com/world/2012/jan/24/mexico-city-rubbish-crisis", "apiUrl": "https://content.guardianapis.com/world/2012/jan/24/mexico-city-rubbish-crisis", "isHosted": false, "pillarId": "pillar/news", "pillarName": "News"}, {"id": "environment/2012/jan/24/sellafield-plutonium-reactor-plans-rejected", "type": "article", "sectionId": "environment", "sectionName": "Environment", "webPublicationDate": "2012-01-24T14:33:29Z", "webTitle": "Plans for Sellafield plutonium reactor rejected", "webUrl": "https://www.theguardian.com/environment/2012/jan/24/sellafield-plutonium-reactor-plans-rejected", "apiUrl": "https://content.guardianapis.com/environment/2012/jan/24/sellafield-plutonium-reactor-plans-rejected", "isHosted": false, "pillarId": "pillar/news", "pillarName": "News"}]}}