{"response": {"status": "ok", "userTier": "developer", "total": 130721, "startIndex": 1, "pageSize": 50, "currentPage": 1, "pages": 2615, "orderBy": "newest", "results": [{"id": "commentisfree/2011/jan/30/porn-portillo-ex-ministers-on-air", "type": "article", "sectionId": "commentisfree", "sectionName": "Opinion", "webPublicationDate": "2011-01-30T23:00:01Z", "webTitle": "From porn to Portillo | Mark Lawson", "webUrl": "https://www.theguardian.com/commentisfree/2011/jan/30/porn-portillo-ex-ministers-on-air", "apiUrl": "https://content.guardianapis.com/commentisfree/2011/jan/30/porn-portillo-ex-ministers-on-air", "isHosted": false, "pillarId": "pillar/opinion", "pillarName": "Opinion"}, {"id": "commentisfree/2011/jan/30/interest-rates-rise-ingrained-inflation", "type": "article", "sectionId": "commentisfree", "sectionName": "Opinion", "webPublicationDate": "2011-01-30T22:00:00Z", "webTitle": "Interest rates: a risk to bank on | Martin Weale", "webUrl": "https://www.theguardian.com/commentisfree/2011/jan/30/interest-rates-rise-ingrained-inflation", "apiUrl": "https://content.guardianapis.com/commentisfree/2011/jan/30/interest-rates-rise-ingrained-inflation", "isHosted": false, "pillarId": "pillar/opinion", "pillarName": "Opinion"}, {"id": "business/2011/jan/30/inflation-interest-rate-rise-economist", "type": "article", "sectionId": "business", "sectionName": "Business", "webPublicationDate": "2011-01-30T22:00:00Z", "webTitle": "Fight inflation with interest rate rise, says top economist", "webUrl": "https://www.theguardian.com/business/2011/jan/30/inflation-interest-rate-rise-economist", "apiUrl": "https://content.guardianapis.com/business/2011/jan/30/inflation-interest-rate-rise-economist", "isHosted": false, "pillarId": "pillar/news", "pillarName": "News"}, {"id": "environment/2011/jan/30/mps-lake-district-forest-protest", "type": "article", "sectionId": "environment", "sectionName": "Environment", "webPublicationDate": "2011-01-30T21:52:27Z", "webTitle": "MPs on all sides back Lake District forest protest", "webUrl": "https://www.theguardian.com/environment/2011/jan/30/mps-lake-district-forest-protest", "apiUrl": "https://content.guardianapis.com/environment/2011/jan/30/mps-lake-district-forest-protest", "isHosted": false, "pillarId": "pillar/news", "pillarName": "News"}, {"id": "commentisfree/2011/jan/30/growth-best-state-does-nothing", "type": "article", "sectionId": "commentisfree", "sectionName": "Opinion", "webPublicationDate": "2011-01-30T21:15:01Z", "webTitle": "For growth, it's often best that the state does nothing | Julian Glover", "webUrl": "https://www.theguardian.com/commentisfree/2011/jan/30/growth-best-state-does-nothing", "apiUrl": "https://content.guardianapis.com/commentisfree/2011/jan/30/growth-best-state-does-nothing", "isHosted": false, "pillarId": "pillar/opinion", "pillarName": "Opinion"}, {"id": "society/2011/jan/30/theresa-may-antisocial-behaviour", "type": "article", "sectionId": "society", "sectionName": "Society", "webPublicationDate": "2011-01-30T21:00:00Z", "webTitle": "Theresa May unfolds new 'toolkit' to tackle antisocial behaviour", "webUrl": "https://www.theguardian.com/society/2011/jan/30/theresa-may-antisocial-behaviour", "apiUrl": "https://content.guardianapis.com/society/2011/jan/30/theresa-may-antisocial-behaviour", "isHosted": false, "pillarId": "pillar/news", "pillarName": "News"}, {"id": "politics/2011/jan/30/george-osborne-ed-balls-economy", "type": "article", "sectionId": "politics", "sectionName": "Politics", "webPublicationDate": "2011-01-30T20:05:41Z", "webTitle": "George Osborne warns unions over strike plans", "webUrl": "https://www.theguardian.com/politics/2011/jan/30/george-osborne-ed-balls-economy", "apiUrl": "https://content.guardianapis.com/politics/2011/jan/30/george-osborne-ed-balls-economy", "isHosted": false, "pillarId": "pillar/news", "pillarName": "News"}, {"id": "business/2011/jan/30/greek-debt-crisis-imf-talks", "type": "article", "sectionId": "business", "sectionName": "Business", "webPublicationDate": "2011-01-30T19:40:30Z", "webTitle": "European Union talks on Greek debt as IMF flies in", "webUrl": "https://www.theguardian.com/business/2011/jan/30/greek-debt-crisis-imf-talks", "apiUrl": "https://content.guardianapis.com/business/2011/jan/30/greek-debt-crisis-imf-talks", "isHosted": false, "pillarId": "pillar/news", "pillarName": "News"}, {"id": "theguardian/2011/jan/30/harold-de-ath-obituary", "type": "article", "sectionId": "theguardian", "sectionName": "From the Guardian", "webPublicationDate": "2011-01-30T18:27:07Z", "webTitle": "Harold De'Ath obituary", "webUrl": "https://www.theguardian.com/theguardian/2011/jan/30/harold-de-ath-obituary", "apiUrl": "https://content.guardianapis.com/theguardian/2011/jan/30/harold-de-ath-obituary", "isHosted": false, "pillarId": "pillar/news", "pillarName": "News"}, {"id": "society/2011/jan/30/eric-pickles-council-rubbish-collection", "type": "article", "sectionId": "society", "sectionName": "Society", "webPublicationDate": "2011-01-30T00:07:00Z", "webTitle": "The Eric Pickles dilemma: clean streets or angry voters", "webUrl": "https://www.theguardian.com/society/2011/jan/30/eric-pickles-council-rubbish-collection", "apiUrl": "https://content.guardianapis.com/society/2011/jan/30/eric-pickles-council-rubbish-collection", "isHosted": false, "pillarId": "pillar/news", "pillarName": "News"}, {"id": "environment/2011/jan/30/melvyn-bragg-lake-district-protests", "type": "article", "sectionId": "environment", "sectionName": "Environment", "webPublicationDate": "2011-01-30T00:07:00Z", "webTitle": "Melvyn Bragg: sale of Lake District forests is 'vandalism'", "webUrl": "https://www.theguardian.com/environment/2011/jan/30/melvyn-bragg-lake-district-protests", "apiUrl": "https://content.guardianapis.com/environment/2011/jan/30/melvyn-bragg-lake-district-protests", "isHosted": false, "pillarId": "pillar/news", "pillarName": "News"}, {"id": "business/2011/jan/30/cbi-chancellor-nerves-beginning-to-show", "type": "article", "sectionId": "business", "sectionName": "Business", "webPublicationDate": "2011-01-30T00:06:34Z", "webTitle": "From the CBI to the chancellor, the nerves are beginning to show | William Keegan", "webUrl": "https://www.theguardian.com/business/2011/jan/30/cbi-chancellor-nerves-beginning-to-show", "apiUrl": "https://content.guardianapis.com/business/2011/jan/30/cbi-chancellor-nerves-beginning-to-show", "isHosted": false, "pillarId": "pillar/news", "pillarName": "News"}, {"id": "theobserver/cartoon/2011/jan/30/egypt-foreignpolicy", "type": "picture", "sectionId": "commentisfree", "sectionName": "Opinion", "webPublicationDate": "2011-01-30T00:05:00Z", "webTitle": "The sphinx stirs", "webUrl": "https://www.theguardian.com/theobserver/cartoon/2011/jan/30/egypt-foreignpolicy", "apiUrl": "https://content.guardianapis.com/theobserver/cartoon/2011/jan/30/egypt-foreignpolicy", "isHosted": false, "pillarId": "pillar/opinion", "pillarName": "Opinion"}, {"id": "politics/2011/jan/30/diary-civil-servant-whitehall-osborne", "type": "article", "sectionId": "politics", "sectionName": "Politics", "webPublicationDate": "2011-01-30T00:04:13Z", "webTitle": "After Osborne's snow job, no wonder Whitehall is wobbling", "webUrl": "https://www.theguardian.com/politics/2011/jan/30/diary-civil-servant-whitehall-osborne", "apiUrl": "https://content.guardianapis.com/politics/2011/jan/30/diary-civil-servant-whitehall-osborne", "isHosted": false, "pillarId": "pillar/news", "pillarName": "News"}, {"id": "politics/2011/jan/29/nhs-private-companies-yougov-poll", "type": "article", "sectionId": "politics", "sectionName": "Politics", "webPublicationDate": "2011-01-29T23:28:00Z", "webTitle": "Poll reveals widespread suspicion of NHS reforms", "webUrl": "https://www.theguardian.com/politics/2011/jan/29/nhs-private-companies-yougov-poll", "apiUrl": "https://content.guardianapis.com/politics/2011/jan/29/nhs-private-companies-yougov-poll", "isHosted": false, "pillarId": "pillar/news", "pillarName": "News"}, {"id": "business/2011/jan/29/davos-summit-cameron-osborne-bankers", "type": "article", "sectionId": "business", "sectionName": "Business", "webPublicationDate": "2011-01-29T22:17:00Z", "webTitle": "Davos summit leaves David Cameron and George Osborne feeling bruised", "webUrl": "https://www.theguardian.com/business/2011/jan/29/davos-summit-cameron-osborne-bankers", "apiUrl": "https://content.guardianapis.com/business/2011/jan/29/davos-summit-cameron-osborne-bankers", "isHosted": false, "pillarId": "pillar/news", "pillarName": "News"}, {"id": "politics/2011/jan/29/crossbench-peers-revolt-voting-reform", "type": "article", "sectionId": "politics", "sectionName": "Politics", "webPublicationDate": "2011-01-29T20:38:28Z", "webTitle": "Voting reform bill: peers threaten 'mass revolt' over guillotine attempt", "webUrl": "https://www.theguardian.com/politics/2011/jan/29/crossbench-peers-revolt-voting-reform", "apiUrl": "https://content.guardianapis.com/politics/2011/jan/29/crossbench-peers-revolt-voting-reform", "isHosted": false, "pillarId": "pillar/news", "pillarName": "News"}, {"id": "education/2011/jan/29/free-schools-announcement-cameron-gove", "type": "article", "sectionId": "education", "sectionName": "Education", "webPublicationDate": "2011-01-29T19:13:54Z", "webTitle": "Government gives go-ahead to first eight 'free schools'", "webUrl": "https://www.theguardian.com/education/2011/jan/29/free-schools-announcement-cameron-gove", "apiUrl": "https://content.guardianapis.com/education/2011/jan/29/free-schools-announcement-cameron-gove", "isHosted": false, "pillarId": "pillar/news", "pillarName": "News"}, {"id": "education/2011/jan/29/free-schools-approved", "type": "article", "sectionId": "education", "sectionName": "Education", "webPublicationDate": "2011-01-29T07:00:01Z", "webTitle": "Eight free schools to open", "webUrl": "https://www.theguardian.com/education/2011/jan/29/free-schools-approved", "apiUrl": "https://content.guardianapis.com/education/2011/jan/29/free-schools-approved", "isHosted": false, "pillarId": "pillar/news", "pillarName": "News"}, {"id": "commentisfree/2011/jan/29/cameron-cuts-alternatives", "type": "article", "sectionId": "commentisfree", "sectionName": "Opinion", "webPublicationDate": "2011-01-29T00:11:00Z", "webTitle": "Cameron's cuts: There are alternatives | Editorial", "webUrl": "https://www.theguardian.com/commentisfree/2011/jan/29/cameron-cuts-alternatives", "apiUrl": "https://content.guardianapis.com/commentisfree/2011/jan/29/cameron-cuts-alternatives", "isHosted": false, "pillarId": "pillar/opinion", "pillarName": "Opinion"}, {"id": "business/2011/jan/29/bank-of-england-mpc-appointment", "type": "article", "sectionId": "business", "sectionName": "Business", "webPublicationDate": "2011-01-29T00:06:40Z", "webTitle": "Hopes that woman can succeed Andrew Sentance on Bank of England's MPC", "webUrl": "https://www.theguardian.com/business/2011/jan/29/bank-of-england-mpc-appointment", "apiUrl": "https://content.guardianapis.com/business/2011/jan/29/bank-of-england-mpc-appointment", "isHosted": false, "pillarId": "pillar/news", "pillarName": "News"}, {"id": "lifeandstyle/2011/jan/29/alan-johnson-common-politics-uk", "type": "article", "sectionId": "lifeandstyle", "sectionName": "Life and style", "webPublicationDate": "2011-01-29T00:02:57Z", "webTitle": "Lucy Mangan: A common complaint", "webUrl": "https://www.theguardian.com/lifeandstyle/2011/jan/29/alan-johnson-common-politics-uk", "apiUrl": "https://content.guardianapis.com/lifeandstyle/2011/jan/29/alan-johnson-common-politics-uk", "isHosted": false, "pillarId": "pillar/lifestyle", "pillarName": "Lifestyle"}, {"id": "media/2011/jan/28/labour-whip-phone-hacking-claim", "type": "article", "sectionId": "media", "sectionName": "Media", "webPublicationDate": "2011-01-28T22:00:01Z", "webTitle": "Former Labour chief whip makes phone-hacking claim", "webUrl": "https://www.theguardian.com/media/2011/jan/28/labour-whip-phone-hacking-claim", "apiUrl": "https://content.guardianapis.com/media/2011/jan/28/labour-whip-phone-hacking-claim", "isHosted": false, "pillarId": "pillar/news", "pillarName": "News"}, {"id": "commentisfree/2011/jan/28/children-legacy-debt-sure-start", "type": "article", "sectionId": "commentisfree", "sectionName": "Opinion", "webPublicationDate": "2011-01-28T21:00:00Z", "webTitle": "Our children will inherit a far worse legacy than mere debt | Polly Toynbee", "webUrl": "https://www.theguardian.com/commentisfree/2011/jan/28/children-legacy-debt-sure-start", "apiUrl": "https://content.guardianapis.com/commentisfree/2011/jan/28/children-legacy-debt-sure-start", "isHosted": false, "pillarId": "pillar/opinion", "pillarName": "Opinion"}, {"id": "commentisfree/2011/jan/28/market-fanatics-kill-libraries", "type": "article", "sectionId": "commentisfree", "sectionName": "Opinion", "webPublicationDate": "2011-01-28T20:00:00Z", "webTitle": "Market fanatics will kill what makes our libraries precious | Philip Pullman", "webUrl": "https://www.theguardian.com/commentisfree/2011/jan/28/market-fanatics-kill-libraries", "apiUrl": "https://content.guardianapis.com/commentisfree/2011/jan/28/market-fanatics-kill-libraries", "isHosted": false, "pillarId": "pillar/opinion", "pillarName": "Opinion"}, {"id": "environment/2011/jan/28/national-trust-save-english-woodlands", "type": "article", "sectionId": "environment", "sectionName": "Environment", "webPublicationDate": "2011-01-28T19:58:59Z", "webTitle": "National Trust ready to 'step in' and save English woodlands", "webUrl": "https://www.theguardian.com/environment/2011/jan/28/national-trust-save-english-woodlands", "apiUrl": "https://content.guardianapis.com/environment/2011/jan/28/national-trust-save-english-woodlands", "isHosted": false, "pillarId": "pillar/news", "pillarName": "News"}, {"id": "politics/2011/jan/28/cameron-budget-growth-davos-trade-plea", "type": "article", "sectionId": "politics", "sectionName": "Politics", "webPublicationDate": "2011-01-28T19:33:37Z", "webTitle": "Cameron promises budget for growth", "webUrl": "https://www.theguardian.com/politics/2011/jan/28/cameron-budget-growth-davos-trade-plea", "apiUrl": "https://content.guardianapis.com/politics/2011/jan/28/cameron-budget-growth-davos-trade-plea", "isHosted": false, "pillarId": "pillar/news", "pillarName": "News"}, {"id": "business/2011/jan/28/highspeedone-losing-bidder-foi-request", "type": "article", "sectionId": "business", "sectionName": "Business", "webPublicationDate": "2011-01-28T19:26:37Z", "webTitle": "High Speed One: top bidder asks why it lost Channel rail link sale", "webUrl": "https://www.theguardian.com/business/2011/jan/28/highspeedone-losing-bidder-foi-request", "apiUrl": "https://content.guardianapis.com/business/2011/jan/28/highspeedone-losing-bidder-foi-request", "isHosted": false, "pillarId": "pillar/news", "pillarName": "News"}, {"id": "world/2011/jan/28/michal-kaminski-resignation-email", "type": "article", "sectionId": "world", "sectionName": "World news", "webPublicationDate": "2011-01-28T19:26:32Z", "webTitle": "Michal Kaminski blames Polish pressure after quitting Tory group", "webUrl": "https://www.theguardian.com/world/2011/jan/28/michal-kaminski-resignation-email", "apiUrl": "https://content.guardianapis.com/world/2011/jan/28/michal-kaminski-resignation-email", "isHosted": false, "pillarId": "pillar/news", "pillarName": "News"}, {"id": "politics/2011/jan/28/cameron-brooks-dinner-questions", "type": "article", "sectionId": "politics", "sectionName": "Politics", "webPublicationDate": "2011-01-28T19:25:32Z", "webTitle": "Cameron's dinner with News International executives: the questions Downing Street refuses to answer", "webUrl": "https://www.theguardian.com/politics/2011/jan/28/cameron-brooks-dinner-questions", "apiUrl": "https://content.guardianapis.com/politics/2011/jan/28/cameron-brooks-dinner-questions", "isHosted": false, "pillarId": "pillar/news", "pillarName": "News"}, {"id": "uk/2011/jan/28/public-sector-pensions-retreat", "type": "article", "sectionId": "society", "sectionName": "Society", "webPublicationDate": "2011-01-28T19:20:13Z", "webTitle": "Treasury retreats over public sector pensions reforms", "webUrl": "https://www.theguardian.com/uk/2011/jan/28/public-sector-pensions-retreat", "apiUrl": "https://content.guardianapis.com/uk/2011/jan/28/public-sector-pensions-retreat", "isHosted": false, "pillarId": "pillar/news", "pillarName": "News"}, {"id": "environment/2011/jan/28/cameron-forests-protests-grizedale", "type": "article", "sectionId": "environment", "sectionName": "Environment", "webPublicationDate": "2011-01-28T19:05:47Z", "webTitle": "Cameron faces the other countryside alliance in Grizedale forest", "webUrl": "https://www.theguardian.com/environment/2011/jan/28/cameron-forests-protests-grizedale", "apiUrl": "https://content.guardianapis.com/environment/2011/jan/28/cameron-forests-protests-grizedale", "isHosted": false, "pillarId": "pillar/news", "pillarName": "News"}, {"id": "politics/2011/jan/28/zakir-naik-oxford-union-satellite", "type": "article", "sectionId": "politics", "sectionName": "Politics", "webPublicationDate": "2011-01-28T18:59:46Z", "webTitle": "Banned scholar Zakir Naik to address Oxford Union by satellite", "webUrl": "https://www.theguardian.com/politics/2011/jan/28/zakir-naik-oxford-union-satellite", "apiUrl": "https://content.guardianapis.com/politics/2011/jan/28/zakir-naik-oxford-union-satellite", "isHosted": false, "pillarId": "pillar/news", "pillarName": "News"}, {"id": "business/2011/jan/28/petrol-prices-record-high", "type": "article", "sectionId": "business", "sectionName": "Business", "webPublicationDate": "2011-01-28T18:08:00Z", "webTitle": "Petrol price hits record high", "webUrl": "https://www.theguardian.com/business/2011/jan/28/petrol-prices-record-high", "apiUrl": "https://content.guardianapis.com/business/2011/jan/28/petrol-prices-record-high", "isHosted": false, "pillarId": "pillar/news", "pillarName": "News"}, {"id": "society/2011/jan/28/cuts-protests-uk-uncut", "type": "article", "sectionId": "global", "sectionName": "Global", "webPublicationDate": "2011-01-28T18:04:00Z", "webTitle": "Weekend of protests planned over cuts", "webUrl": "https://www.theguardian.com/society/2011/jan/28/cuts-protests-uk-uncut", "apiUrl": "https://content.guardianapis.com/society/2011/jan/28/cuts-protests-uk-uncut", "isHosted": false}, {"id": "media/2011/jan/28/bbc-world-service-cuts-response", "type": "article", "sectionId": "media", "sectionName": "Media", "webPublicationDate": "2011-01-28T17:58:14Z", "webTitle": "Listeners on three continents lament BBC World Service cutbacks", "webUrl": "https://www.theguardian.com/media/2011/jan/28/bbc-world-service-cuts-response", "apiUrl": "https://content.guardianapis.com/media/2011/jan/28/bbc-world-service-cuts-response", "isHosted": false, "pillarId": "pillar/news", "pillarName": "News"}, {"id": "commentisfree/belief/2011/jan/28/faiths-religious-illiteracy", "type": "article", "sectionId": "commentisfree", "sectionName": "Opinion", "webPublicationDate": "2011-01-28T17:42:20Z", "webTitle": "All faiths are not the same | Jenny Taylor", "webUrl": "https://www.theguardian.com/commentisfree/belief/2011/jan/28/faiths-religious-illiteracy", "apiUrl": "https://content.guardianapis.com/commentisfree/belief/2011/jan/28/faiths-religious-illiteracy", "isHosted": false, "pillarId": "pillar/opinion", "pillarName": "Opinion"}, {"id": "global-development/2011/jan/28/davos-david-cameron-polio-vaccination", "type": "article", "sectionId": "global-development", "sectionName": "Global development", "webPublicationDate": "2011-01-28T17:39:11Z", "webTitle": "David Cameron pledges \u00a340m for polio vaccines at Davos", "webUrl": "https://www.theguardian.com/global-development/2011/jan/28/davos-david-cameron-polio-vaccination", "apiUrl": "https://content.guardianapis.com/global-development/2011/jan/28/davos-david-cameron-polio-vaccination", "isHosted": false, "pillarId": "pillar/news", "pillarName": "News"}, {"id": "books/2011/jan/28/library-closures-court-action", "type": "article", "sectionId": "books", "sectionName": "Books", "webPublicationDate": "2011-01-28T17:24:37Z", "webTitle": "Library campaigners plan court action over closures", "webUrl": "https://www.theguardian.com/books/2011/jan/28/library-closures-court-action", "apiUrl": "https://content.guardianapis.com/books/2011/jan/28/library-closures-court-action", "isHosted": false, "pillarId": "pillar/arts", "pillarName": "Arts"}, {"id": "business/2011/jan/28/ba-unite-tuc-brendan-barber-attacks-balpa-leader", "type": "article", "sectionId": "business", "sectionName": "Business", "webPublicationDate": "2011-01-28T16:49:13Z", "webTitle": "British Airways union defended by TUC boss in row with Balpa", "webUrl": "https://www.theguardian.com/business/2011/jan/28/ba-unite-tuc-brendan-barber-attacks-balpa-leader", "apiUrl": "https://content.guardianapis.com/business/2011/jan/28/ba-unite-tuc-brendan-barber-attacks-balpa-leader", "isHosted": false, "pillarId": "pillar/news", "pillarName": "News"}, {"id": "commentisfree/audio/2011/jan/28/week-review-podcast-leaks-sexism-meritocracy", "type": "audio", "sectionId": "commentisfree", "sectionName": "Opinion", "webPublicationDate": "2011-01-28T16:48:00Z", "webTitle": "Week in review podcast: Leaks, sexism, and the end of meritocracy", "webUrl": "https://www.theguardian.com/commentisfree/audio/2011/jan/28/week-review-podcast-leaks-sexism-meritocracy", "apiUrl": "https://content.guardianapis.com/commentisfree/audio/2011/jan/28/week-review-podcast-leaks-sexism-meritocracy", "isHosted": false, "pillarId": "pillar/opinion", "pillarName": "Opinion"}, {"id": "environment/2011/jan/28/england-forest-sell-off-q-and-a", "type": "article", "sectionId": "environment", "sectionName": "Environment", "webPublicationDate": "2011-01-28T16:18:17Z", "webTitle": "Q&A: England forests sell-off", "webUrl": "https://www.theguardian.com/environment/2011/jan/28/england-forest-sell-off-q-and-a", "apiUrl": "https://content.guardianapis.com/environment/2011/jan/28/england-forest-sell-off-q-and-a", "isHosted": false, "pillarId": "pillar/news", "pillarName": "News"}, {"id": "uk/2011/jan/28/cabinet-attorney-general-iraq-doubts", "type": "article", "sectionId": "uk-news", "sectionName": "UK news", "webPublicationDate": "2011-01-28T15:41:03Z", "webTitle": "Cabinet should have been told of attorney general's doubts, Iraq inquiry hears", "webUrl": "https://www.theguardian.com/uk/2011/jan/28/cabinet-attorney-general-iraq-doubts", "apiUrl": "https://content.guardianapis.com/uk/2011/jan/28/cabinet-attorney-general-iraq-doubts", "isHosted": false, "pillarId": "pillar/news", "pillarName": "News"}, {"id": "commentisfree/libertycentral/2011/jan/28/control-orders-house-arrest-deportation", "type": "article", "sectionId": "commentisfree", "sectionName": "Opinion", "webPublicationDate": "2011-01-28T15:31:00Z", "webTitle": "Web of secrets still clouds control orders | Saleyha Ahsan", "webUrl": "https://www.theguardian.com/commentisfree/libertycentral/2011/jan/28/control-orders-house-arrest-deportation", "apiUrl": "https://content.guardianapis.com/commentisfree/libertycentral/2011/jan/28/control-orders-house-arrest-deportation", "isHosted": false, "pillarId": "pillar/opinion", "pillarName": "Opinion"}, {"id": "world/2011/jan/28/gaza-protests-palestinian-papers-leak", "type": "article", "sectionId": "world", "sectionName": "World news", "webPublicationDate": "2011-01-28T15:21:56Z", "webTitle": "Gaza protests accuse Palestinian Authority of betrayal in talks with Israel", "webUrl": "https://www.theguardian.com/world/2011/jan/28/gaza-protests-palestinian-papers-leak", "apiUrl": "https://content.guardianapis.com/world/2011/jan/28/gaza-protests-palestinian-papers-leak", "isHosted": false, "pillarId": "pillar/news", "pillarName": "News"}, {"id": "business/2011/jan/28/chancellor-george-osborne-offers-bankers-deal", "type": "article", "sectionId": "business", "sectionName": "Business", "webPublicationDate": "2011-01-28T15:13:11Z", "webTitle": "Davos 2011: George Osborne offers deal to stop banker bashing", "webUrl": "https://www.theguardian.com/business/2011/jan/28/chancellor-george-osborne-offers-bankers-deal", "apiUrl": "https://content.guardianapis.com/business/2011/jan/28/chancellor-george-osborne-offers-bankers-deal", "isHosted": false, "pillarId": "pillar/news", "pillarName": "News"}, {"id": "society/2011/jan/28/unions-mass-strikes-spending-cuts", "type": "article", "sectionId": "society", "sectionName": "Society", "webPublicationDate": "2011-01-28T14:26:50Z", "webTitle": "Unions discuss mass strikes in protest at spending cuts", "webUrl": "https://www.theguardian.com/society/2011/jan/28/unions-mass-strikes-spending-cuts", "apiUrl": "https://content.guardianapis.com/society/2011/jan/28/unions-mass-strikes-spending-cuts", "isHosted": false, "pillarId": "pillar/news", "pillarName": "News"}, {"id": "commentisfree/2011/jan/28/quango-winding-up", "type": "article", "sectionId": "commentisfree", "sectionName": "Opinion", "webPublicationDate": "2011-01-28T14:00:01Z", "webTitle": "Dispatch from a dying quango | Eddie Watson", "webUrl": "https://www.theguardian.com/commentisfree/2011/jan/28/quango-winding-up", "apiUrl": "https://content.guardianapis.com/commentisfree/2011/jan/28/quango-winding-up", "isHosted": false, "pillarId": "pillar/opinion", "pillarName": "Opinion"}, {"id": "environment/2011/jan/28/europe-air-quality-pollution", "type": "article", "sectionId": "environment", "sectionName": "Environment", "webPublicationDate": "2011-01-28T13:39:08Z", "webTitle": "EU considers raising air quality standards", "webUrl": "https://www.theguardian.com/environment/2011/jan/28/europe-air-quality-pollution", "apiUrl": "https://content.guardianapis.com/environment/2011/jan/28/europe-air-quality-pollution", "isHosted": false, "pillarId": "pillar/news", "pillarName": "News"}, {"id": "commentisfree/libertycentral/2011/jan/28/control-orders-protection-of-freedoms-bill", "type": "article", "sectionId": "commentisfree", "sectionName": "Opinion", "webPublicationDate": "2011-01-28T12:56:39Z", "webTitle": "Control orders have been rebranded. Big problems remain | Matthew Ryder", "webUrl": "https://www.theguardian.com/commentisfree/libertycentral/2011/jan/28/control-orders-protection-of-freedoms-bill", "apiUrl": "https://content.guardianapis.com/commentisfree/libertycentral/2011/jan/28/control-orders-protection-of-freedoms-bill", "isHosted": false, "pillarId": "pillar/opinion", "pillarName": "Opinion"}]}}