{"response": {"status": "ok", "userTier": "developer", "total": 35282, "startIndex": 1, "pageSize": 50, "currentPage": 1, "pages": 706, "orderBy": "newest", "results": [{"id": "business/2013/jan/30/managed-contraction-fritz-schumacher", "type": "article", "sectionId": "business", "sectionName": "Business", "webPublicationDate": "2013-01-30T21:00:04Z", "webTitle": "Letters: Managed contraction", "webUrl": "https://www.theguardian.com/business/2013/jan/30/managed-contraction-fritz-schumacher", "apiUrl": "https://content.guardianapis.com/business/2013/jan/30/managed-contraction-fritz-schumacher", "isHosted": false, "pillarId": "pillar/news", "pillarName": "News"}, {"id": "environment/2013/jan/30/lower-benefield-northamptonshire-badgers-footprints", "type": "article", "sectionId": "environment", "sectionName": "Environment", "webPublicationDate": "2013-01-30T20:59:01Z", "webTitle": "Country diary: Lower Benefield, Northamptonshire: A badger's biscuit-sized footprints in the snow follow the field edge", "webUrl": "https://www.theguardian.com/environment/2013/jan/30/lower-benefield-northamptonshire-badgers-footprints", "apiUrl": "https://content.guardianapis.com/environment/2013/jan/30/lower-benefield-northamptonshire-badgers-footprints", "isHosted": false, "pillarId": "pillar/news", "pillarName": "News"}, {"id": "culture/2013/jan/30/english-heritage-bridges-flooding-study", "type": "article", "sectionId": "culture", "sectionName": "Culture", "webPublicationDate": "2013-01-30T19:46:30Z", "webTitle": "English Heritage launches study into effect of bridges on floods", "webUrl": "https://www.theguardian.com/culture/2013/jan/30/english-heritage-bridges-flooding-study", "apiUrl": "https://content.guardianapis.com/culture/2013/jan/30/english-heritage-bridges-flooding-study", "isHosted": false, "pillarId": "pillar/arts", "pillarName": "Arts"}, {"id": "world/2013/jan/30/polish-supplier-burger-scandal-meat", "type": "article", "sectionId": "world", "sectionName": "World news", "webPublicationDate": "2013-01-30T19:44:54Z", "webTitle": "Polish supplier linked to burger scandal 'had been providing meat for a year'", "webUrl": "https://www.theguardian.com/world/2013/jan/30/polish-supplier-burger-scandal-meat", "apiUrl": "https://content.guardianapis.com/world/2013/jan/30/polish-supplier-burger-scandal-meat", "isHosted": false, "pillarId": "pillar/news", "pillarName": "News"}, {"id": "environment/2013/jan/30/nuclear-expansion-thwarted-cumbria-no", "type": "article", "sectionId": "environment", "sectionName": "Environment", "webPublicationDate": "2013-01-30T19:31:55Z", "webTitle": "Nuclear expansion plan thwarted after Cumbria no vote to underground store", "webUrl": "https://www.theguardian.com/environment/2013/jan/30/nuclear-expansion-thwarted-cumbria-no", "apiUrl": "https://content.guardianapis.com/environment/2013/jan/30/nuclear-expansion-thwarted-cumbria-no", "isHosted": false, "pillarId": "pillar/news", "pillarName": "News"}, {"id": "music/2013/jan/30/benjamin-britten-composing-walks", "type": "article", "sectionId": "music", "sectionName": "Music", "webPublicationDate": "2013-01-30T19:00:10Z", "webTitle": "The echoes of Benjamin Britten's 'composing walks'", "webUrl": "https://www.theguardian.com/music/2013/jan/30/benjamin-britten-composing-walks", "apiUrl": "https://content.guardianapis.com/music/2013/jan/30/benjamin-britten-composing-walks", "isHosted": false, "pillarId": "pillar/arts", "pillarName": "Arts"}, {"id": "music/audio/2013/jan/30/benjamin-britten-chris-watson-composing-walk-sounds", "type": "audio", "sectionId": "music", "sectionName": "Music", "webPublicationDate": "2013-01-30T19:00:01Z", "webTitle": "Chris Watson's In Britten's Footsteps \u2013 an audio sampler", "webUrl": "https://www.theguardian.com/music/audio/2013/jan/30/benjamin-britten-chris-watson-composing-walk-sounds", "apiUrl": "https://content.guardianapis.com/music/audio/2013/jan/30/benjamin-britten-chris-watson-composing-walk-sounds", "isHosted": false, "pillarId": "pillar/arts", "pillarName": "Arts"}, {"id": "world/2013/jan/30/lights-out-france-shops-offices", "type": "article", "sectionId": "world", "sectionName": "World news", "webPublicationDate": "2013-01-30T17:48:00Z", "webTitle": "Lights out \u2013 France to force shops and offices to go dark overnight", "webUrl": "https://www.theguardian.com/world/2013/jan/30/lights-out-france-shops-offices", "apiUrl": "https://content.guardianapis.com/world/2013/jan/30/lights-out-france-shops-offices", "isHosted": false, "pillarId": "pillar/news", "pillarName": "News"}, {"id": "environment/2013/jan/30/wind-turbine-blown-down-devon", "type": "article", "sectionId": "environment", "sectionName": "Environment", "webPublicationDate": "2013-01-30T17:30:37Z", "webTitle": "Wind turbine blown down in strong winds in Devon", "webUrl": "https://www.theguardian.com/environment/2013/jan/30/wind-turbine-blown-down-devon", "apiUrl": "https://content.guardianapis.com/environment/2013/jan/30/wind-turbine-blown-down-devon", "isHosted": false, "pillarId": "pillar/news", "pillarName": "News"}, {"id": "lifeandstyle/2013/jan/30/wildlife", "type": "article", "sectionId": "lifeandstyle", "sectionName": "Life and style", "webPublicationDate": "2013-01-30T16:15:00Z", "webTitle": "Why do the squirrels race round my tree?", "webUrl": "https://www.theguardian.com/lifeandstyle/2013/jan/30/wildlife", "apiUrl": "https://content.guardianapis.com/lifeandstyle/2013/jan/30/wildlife", "isHosted": false, "pillarId": "pillar/lifestyle", "pillarName": "Lifestyle"}, {"id": "environment/2013/jan/30/cumbria-rejects-underground-nuclear-storage", "type": "article", "sectionId": "environment", "sectionName": "Environment", "webPublicationDate": "2013-01-30T16:09:00Z", "webTitle": "Cumbria rejects underground nuclear storage dump", "webUrl": "https://www.theguardian.com/environment/2013/jan/30/cumbria-rejects-underground-nuclear-storage", "apiUrl": "https://content.guardianapis.com/environment/2013/jan/30/cumbria-rejects-underground-nuclear-storage", "isHosted": false, "pillarId": "pillar/news", "pillarName": "News"}, {"id": "business/2013/jan/30/horsemeat-scandal-tesco-drops-supplier", "type": "article", "sectionId": "business", "sectionName": "Business", "webPublicationDate": "2013-01-30T14:15:00Z", "webTitle": "Tesco drops Irish supplier over horsemeat scandal", "webUrl": "https://www.theguardian.com/business/2013/jan/30/horsemeat-scandal-tesco-drops-supplier", "apiUrl": "https://content.guardianapis.com/business/2013/jan/30/horsemeat-scandal-tesco-drops-supplier", "isHosted": false, "pillarId": "pillar/news", "pillarName": "News"}, {"id": "environment/damian-carrington-blog/2013/jan/30/nuclear-waste-cumbria-copeland-allerdale", "type": "article", "sectionId": "environment", "sectionName": "Environment", "webPublicationDate": "2013-01-30T13:02:34Z", "webTitle": "Cumbria's nuclear dump can't bury the waste problem | Damian Carrington", "webUrl": "https://www.theguardian.com/environment/damian-carrington-blog/2013/jan/30/nuclear-waste-cumbria-copeland-allerdale", "apiUrl": "https://content.guardianapis.com/environment/damian-carrington-blog/2013/jan/30/nuclear-waste-cumbria-copeland-allerdale", "isHosted": false, "pillarId": "pillar/news", "pillarName": "News"}, {"id": "environment/2013/jan/30/shell-acquitted-nigeria-pollution-charges", "type": "article", "sectionId": "environment", "sectionName": "Environment", "webPublicationDate": "2013-01-30T11:31:04Z", "webTitle": "Shell acquitted of Nigeria pollution charges", "webUrl": "https://www.theguardian.com/environment/2013/jan/30/shell-acquitted-nigeria-pollution-charges", "apiUrl": "https://content.guardianapis.com/environment/2013/jan/30/shell-acquitted-nigeria-pollution-charges", "isHosted": false, "pillarId": "pillar/news", "pillarName": "News"}, {"id": "environment/2013/jan/30/china-burns-half-coal-worldwide", "type": "article", "sectionId": "environment", "sectionName": "Environment", "webPublicationDate": "2013-01-30T11:05:53Z", "webTitle": "China burns half of coal consumption worldwide, figures show", "webUrl": "https://www.theguardian.com/environment/2013/jan/30/china-burns-half-coal-worldwide", "apiUrl": "https://content.guardianapis.com/environment/2013/jan/30/china-burns-half-coal-worldwide", "isHosted": false, "pillarId": "pillar/news", "pillarName": "News"}, {"id": "environment/2013/jan/30/cumbrian-councils-vote-nuclear-waste", "type": "article", "sectionId": "environment", "sectionName": "Environment", "webPublicationDate": "2013-01-30T10:41:48Z", "webTitle": "Cumbrian councils vote on nuclear waste burial sites", "webUrl": "https://www.theguardian.com/environment/2013/jan/30/cumbrian-councils-vote-nuclear-waste", "apiUrl": "https://content.guardianapis.com/environment/2013/jan/30/cumbrian-councils-vote-nuclear-waste", "isHosted": false, "pillarId": "pillar/news", "pillarName": "News"}, {"id": "environment/2013/jan/29/wenlock-edge-relics-of-snow", "type": "article", "sectionId": "environment", "sectionName": "Environment", "webPublicationDate": "2013-01-29T20:59:01Z", "webTitle": "Country diary: Wenlock Edge: Relics of snow in white archipelagos", "webUrl": "https://www.theguardian.com/environment/2013/jan/29/wenlock-edge-relics-of-snow", "apiUrl": "https://content.guardianapis.com/environment/2013/jan/29/wenlock-edge-relics-of-snow", "isHosted": false, "pillarId": "pillar/news", "pillarName": "News"}, {"id": "environment/2013/jan/29/john-kerry-secretary-of-state-climate-change", "type": "article", "sectionId": "environment", "sectionName": "Environment", "webPublicationDate": "2013-01-29T17:33:52Z", "webTitle": "John Kerry's confirmation as secretary of state delights climate campaigners", "webUrl": "https://www.theguardian.com/environment/2013/jan/29/john-kerry-secretary-of-state-climate-change", "apiUrl": "https://content.guardianapis.com/environment/2013/jan/29/john-kerry-secretary-of-state-climate-change", "isHosted": false, "pillarId": "pillar/news", "pillarName": "News"}, {"id": "politics/2013/jan/29/construction-workers-blacklist-vince-cable", "type": "article", "sectionId": "politics", "sectionName": "Politics", "webPublicationDate": "2013-01-29T17:17:52Z", "webTitle": "Construction workers' blacklist: Cable to meet information commissioner", "webUrl": "https://www.theguardian.com/politics/2013/jan/29/construction-workers-blacklist-vince-cable", "apiUrl": "https://content.guardianapis.com/politics/2013/jan/29/construction-workers-blacklist-vince-cable", "isHosted": false, "pillarId": "pillar/news", "pillarName": "News"}, {"id": "environment/blog/2013/jan/29/shell-oil-spills-niger-delta", "type": "article", "sectionId": "environment", "sectionName": "Environment", "webPublicationDate": "2013-01-29T16:37:32Z", "webTitle": "Shell verdict will determine whether other firms could be tried for oil spills | John Vidal", "webUrl": "https://www.theguardian.com/environment/blog/2013/jan/29/shell-oil-spills-niger-delta", "apiUrl": "https://content.guardianapis.com/environment/blog/2013/jan/29/shell-oil-spills-niger-delta", "isHosted": false, "pillarId": "pillar/news", "pillarName": "News"}, {"id": "science/audio/2013/jan/29/science-weekly-podcast-think-sherlock-holmes", "type": "audio", "sectionId": "science", "sectionName": "Science", "webPublicationDate": "2013-01-29T16:29:00Z", "webTitle": "Science Weekly podcast: how to think like Sherlock Holmes", "webUrl": "https://www.theguardian.com/science/audio/2013/jan/29/science-weekly-podcast-think-sherlock-holmes", "apiUrl": "https://content.guardianapis.com/science/audio/2013/jan/29/science-weekly-podcast-think-sherlock-holmes", "isHosted": false, "pillarId": "pillar/news", "pillarName": "News"}, {"id": "environment/2013/jan/29/retailers-withdraw-products-bees", "type": "article", "sectionId": "environment", "sectionName": "Environment", "webPublicationDate": "2013-01-29T16:23:10Z", "webTitle": "B&Q and Wickes pledge to withdraw products harmful to bees", "webUrl": "https://www.theguardian.com/environment/2013/jan/29/retailers-withdraw-products-bees", "apiUrl": "https://content.guardianapis.com/environment/2013/jan/29/retailers-withdraw-products-bees", "isHosted": false, "pillarId": "pillar/news", "pillarName": "News"}, {"id": "world/2013/jan/29/condor-peru-bull-fight-andes", "type": "article", "sectionId": "world", "sectionName": "World news", "webPublicationDate": "2013-01-29T14:54:28Z", "webTitle": "Fight of the condor: Peru bull fiestas threaten future of rare Andean bird", "webUrl": "https://www.theguardian.com/world/2013/jan/29/condor-peru-bull-fight-andes", "apiUrl": "https://content.guardianapis.com/world/2013/jan/29/condor-peru-bull-fight-andes", "isHosted": false, "pillarId": "pillar/news", "pillarName": "News"}, {"id": "environment/2013/jan/29/hedgehog-population-dramatic-decline", "type": "article", "sectionId": "environment", "sectionName": "Environment", "webPublicationDate": "2013-01-29T14:48:00Z", "webTitle": "Hedgehog population in dramatic decline", "webUrl": "https://www.theguardian.com/environment/2013/jan/29/hedgehog-population-dramatic-decline", "apiUrl": "https://content.guardianapis.com/environment/2013/jan/29/hedgehog-population-dramatic-decline", "isHosted": false, "pillarId": "pillar/news", "pillarName": "News"}, {"id": "uk/2013/jan/29/eden-project-job-cuts-fall-visitors", "type": "article", "sectionId": "uk-news", "sectionName": "UK news", "webPublicationDate": "2013-01-29T14:00:00Z", "webTitle": "Eden Project to make job cuts after falling visitor numbers", "webUrl": "https://www.theguardian.com/uk/2013/jan/29/eden-project-job-cuts-fall-visitors", "apiUrl": "https://content.guardianapis.com/uk/2013/jan/29/eden-project-job-cuts-fall-visitors", "isHosted": false, "pillarId": "pillar/news", "pillarName": "News"}, {"id": "environment/gallery/2013/jan/29/china-salween-river-hydro-dams", "type": "gallery", "sectionId": "environment", "sectionName": "Environment", "webPublicationDate": "2013-01-29T13:19:00Z", "webTitle": "China's plan to build hydro dams over Salween river \u2013 in pictures", "webUrl": "https://www.theguardian.com/environment/gallery/2013/jan/29/china-salween-river-hydro-dams", "apiUrl": "https://content.guardianapis.com/environment/gallery/2013/jan/29/china-salween-river-hydro-dams", "isHosted": false, "pillarId": "pillar/news", "pillarName": "News"}, {"id": "environment/2013/jan/29/sunderbans-disappearing-mangrove-india-bangladesh", "type": "article", "sectionId": "environment", "sectionName": "Environment", "webPublicationDate": "2013-01-29T12:33:22Z", "webTitle": "Tigers under threat from disappearing mangrove forest", "webUrl": "https://www.theguardian.com/environment/2013/jan/29/sunderbans-disappearing-mangrove-india-bangladesh", "apiUrl": "https://content.guardianapis.com/environment/2013/jan/29/sunderbans-disappearing-mangrove-india-bangladesh", "isHosted": false, "pillarId": "pillar/news", "pillarName": "News"}, {"id": "global-development/2013/jan/29/sea-change-bay-bengal-vanishing-islands", "type": "article", "sectionId": "environment", "sectionName": "Environment", "webPublicationDate": "2013-01-29T12:12:47Z", "webTitle": "Sea change: the Bay of Bengal's vanishing islands | John Vidal", "webUrl": "https://www.theguardian.com/global-development/2013/jan/29/sea-change-bay-bengal-vanishing-islands", "apiUrl": "https://content.guardianapis.com/global-development/2013/jan/29/sea-change-bay-bengal-vanishing-islands", "isHosted": false, "pillarId": "pillar/news", "pillarName": "News"}, {"id": "world/video/2013/jan/29/australia-floods-evacuation-video", "type": "video", "sectionId": "australia-news", "sectionName": "Australia news", "webPublicationDate": "2013-01-29T12:07:00Z", "webTitle": "Australian floods trigger evacuation of thousands in two states - video", "webUrl": "https://www.theguardian.com/world/video/2013/jan/29/australia-floods-evacuation-video", "apiUrl": "https://content.guardianapis.com/world/video/2013/jan/29/australia-floods-evacuation-video", "isHosted": false, "pillarId": "pillar/news", "pillarName": "News"}, {"id": "environment/2013/jan/29/hydro-dams-china-ecosystem", "type": "article", "sectionId": "environment", "sectionName": "Environment", "webPublicationDate": "2013-01-29T10:37:25Z", "webTitle": "Hydro dams could jeopardise 'Grand Canyon of the east', say green groups", "webUrl": "https://www.theguardian.com/environment/2013/jan/29/hydro-dams-china-ecosystem", "apiUrl": "https://content.guardianapis.com/environment/2013/jan/29/hydro-dams-china-ecosystem", "isHosted": false, "pillarId": "pillar/news", "pillarName": "News"}, {"id": "world/2013/jan/29/queensland-floodwaters-peak-new-south", "type": "article", "sectionId": "world", "sectionName": "World news", "webPublicationDate": "2013-01-29T08:13:00Z", "webTitle": "New South Wales braces for river peaks as Queensland counts flood cost", "webUrl": "https://www.theguardian.com/world/2013/jan/29/queensland-floodwaters-peak-new-south", "apiUrl": "https://content.guardianapis.com/world/2013/jan/29/queensland-floodwaters-peak-new-south", "isHosted": false, "pillarId": "pillar/news", "pillarName": "News"}, {"id": "global-development/2013/jan/29/world-bank-forests-poverty-auditors", "type": "article", "sectionId": "global-development", "sectionName": "Global development", "webPublicationDate": "2013-01-29T07:00:00Z", "webTitle": "World Bank spending on forests fails to curb poverty, auditors claim", "webUrl": "https://www.theguardian.com/global-development/2013/jan/29/world-bank-forests-poverty-auditors", "apiUrl": "https://content.guardianapis.com/global-development/2013/jan/29/world-bank-forests-poverty-auditors", "isHosted": false, "pillarId": "pillar/news", "pillarName": "News"}, {"id": "environment/2013/jan/28/questions-uk-commitment-nonproliferation", "type": "article", "sectionId": "environment", "sectionName": "Environment", "webPublicationDate": "2013-01-28T21:00:01Z", "webTitle": "Letters: Questions over UK's commitment to non-proliferation", "webUrl": "https://www.theguardian.com/environment/2013/jan/28/questions-uk-commitment-nonproliferation", "apiUrl": "https://content.guardianapis.com/environment/2013/jan/28/questions-uk-commitment-nonproliferation", "isHosted": false, "pillarId": "pillar/news", "pillarName": "News"}, {"id": "environment/2013/jan/28/flashmob-jackdaws-rises-from-trees", "type": "article", "sectionId": "environment", "sectionName": "Environment", "webPublicationDate": "2013-01-28T20:59:01Z", "webTitle": "Country diary: Ecclesall Woods, Sheffield: A flashmob of jackdaws rises from the trees", "webUrl": "https://www.theguardian.com/environment/2013/jan/28/flashmob-jackdaws-rises-from-trees", "apiUrl": "https://content.guardianapis.com/environment/2013/jan/28/flashmob-jackdaws-rises-from-trees", "isHosted": false, "pillarId": "pillar/news", "pillarName": "News"}, {"id": "commentisfree/2013/jan/28/hs2-rail-route-off-track", "type": "article", "sectionId": "commentisfree", "sectionName": "Opinion", "webPublicationDate": "2013-01-28T20:21:07Z", "webTitle": "The HS2 line is one big punt | Christian Wolmar", "webUrl": "https://www.theguardian.com/commentisfree/2013/jan/28/hs2-rail-route-off-track", "apiUrl": "https://content.guardianapis.com/commentisfree/2013/jan/28/hs2-rail-route-off-track", "isHosted": false, "pillarId": "pillar/opinion", "pillarName": "Opinion"}, {"id": "environment/2013/jan/28/john-hopkins-obituary", "type": "article", "sectionId": "environment", "sectionName": "Environment", "webPublicationDate": "2013-01-28T17:16:23Z", "webTitle": "John Hopkins obituary", "webUrl": "https://www.theguardian.com/environment/2013/jan/28/john-hopkins-obituary", "apiUrl": "https://content.guardianapis.com/environment/2013/jan/28/john-hopkins-obituary", "isHosted": false, "pillarId": "pillar/news", "pillarName": "News"}, {"id": "environment/blog/2013/jan/28/green-deal-homes-energy-efficient", "type": "liveblog", "sectionId": "environment", "sectionName": "Environment", "webPublicationDate": "2013-01-28T17:08:21Z", "webTitle": "Green deal: can it make millions of homes more energy efficient?", "webUrl": "https://www.theguardian.com/environment/blog/2013/jan/28/green-deal-homes-energy-efficient", "apiUrl": "https://content.guardianapis.com/environment/blog/2013/jan/28/green-deal-homes-energy-efficient", "isHosted": false, "pillarId": "pillar/news", "pillarName": "News"}, {"id": "global/2013/jan/28/ian-breach-humanist", "type": "article", "sectionId": "global", "sectionName": "Global", "webPublicationDate": "2013-01-28T16:35:31Z", "webTitle": "Letter: Ian Breach was an inspired humanist celebrant", "webUrl": "https://www.theguardian.com/global/2013/jan/28/ian-breach-humanist", "apiUrl": "https://content.guardianapis.com/global/2013/jan/28/ian-breach-humanist", "isHosted": false}, {"id": "world/2013/jan/28/britain-tribunal-chagos-islands-marine-area", "type": "article", "sectionId": "world", "sectionName": "World news", "webPublicationDate": "2013-01-28T16:33:43Z", "webTitle": "Britain faces UN tribunal over Chagos Islands marine reserve", "webUrl": "https://www.theguardian.com/world/2013/jan/28/britain-tribunal-chagos-islands-marine-area", "apiUrl": "https://content.guardianapis.com/world/2013/jan/28/britain-tribunal-chagos-islands-marine-area", "isHosted": false, "pillarId": "pillar/news", "pillarName": "News"}, {"id": "business/2013/jan/28/blacklist-construction-firms-environmental-protests", "type": "article", "sectionId": "business", "sectionName": "Business", "webPublicationDate": "2013-01-28T16:06:33Z", "webTitle": "Blacklist used by construction firms to disrupt environmental protests", "webUrl": "https://www.theguardian.com/business/2013/jan/28/blacklist-construction-firms-environmental-protests", "apiUrl": "https://content.guardianapis.com/business/2013/jan/28/blacklist-construction-firms-environmental-protests", "isHosted": false, "pillarId": "pillar/news", "pillarName": "News"}, {"id": "environment/2013/jan/28/bexhill-hastings-road-protest-arrest", "type": "article", "sectionId": "environment", "sectionName": "Environment", "webPublicationDate": "2013-01-28T15:41:00Z", "webTitle": "Eviction begins at final Bexhill-to-Hastings road protest camp", "webUrl": "https://www.theguardian.com/environment/2013/jan/28/bexhill-hastings-road-protest-arrest", "apiUrl": "https://content.guardianapis.com/environment/2013/jan/28/bexhill-hastings-road-protest-arrest", "isHosted": false, "pillarId": "pillar/news", "pillarName": "News"}, {"id": "uk/2013/jan/28/heavy-rain-winds-flood-warnings", "type": "article", "sectionId": "uk-news", "sectionName": "UK news", "webPublicationDate": "2013-01-28T13:41:22Z", "webTitle": "Heavy rain and strong winds prompt UK flood warnings", "webUrl": "https://www.theguardian.com/uk/2013/jan/28/heavy-rain-winds-flood-warnings", "apiUrl": "https://content.guardianapis.com/uk/2013/jan/28/heavy-rain-winds-flood-warnings", "isHosted": false, "pillarId": "pillar/news", "pillarName": "News"}, {"id": "environment/blog/2013/jan/28/wasting-fossil-fuels-burning", "type": "article", "sectionId": "environment", "sectionName": "Environment", "webPublicationDate": "2013-01-28T13:25:55Z", "webTitle": "When will we stop wasting fossil fuels by burning them? | Paul Brown", "webUrl": "https://www.theguardian.com/environment/blog/2013/jan/28/wasting-fossil-fuels-burning", "apiUrl": "https://content.guardianapis.com/environment/blog/2013/jan/28/wasting-fossil-fuels-burning", "isHosted": false, "pillarId": "pillar/news", "pillarName": "News"}, {"id": "money/2013/jan/28/green-deal-home-improvement", "type": "article", "sectionId": "money", "sectionName": "Money", "webPublicationDate": "2013-01-28T11:40:09Z", "webTitle": "Green Deal home improvement scheme: the key points", "webUrl": "https://www.theguardian.com/money/2013/jan/28/green-deal-home-improvement", "apiUrl": "https://content.guardianapis.com/money/2013/jan/28/green-deal-home-improvement", "isHosted": false, "pillarId": "pillar/lifestyle", "pillarName": "Lifestyle"}, {"id": "lifeandstyle/wordofmouth/2013/jan/28/what-kind-of-vegetarian-are-you", "type": "article", "sectionId": "lifeandstyle", "sectionName": "Life and style", "webPublicationDate": "2013-01-28T10:20:00Z", "webTitle": "What kind of vegetarian are you?", "webUrl": "https://www.theguardian.com/lifeandstyle/wordofmouth/2013/jan/28/what-kind-of-vegetarian-are-you", "apiUrl": "https://content.guardianapis.com/lifeandstyle/wordofmouth/2013/jan/28/what-kind-of-vegetarian-are-you", "isHosted": false, "pillarId": "pillar/lifestyle", "pillarName": "Lifestyle"}, {"id": "environment/2013/jan/27/green-deal-unlikely-deliver-promises", "type": "article", "sectionId": "environment", "sectionName": "Environment", "webPublicationDate": "2013-01-28T09:54:00Z", "webTitle": "Green deal 'unlikely to deliver promises', say experts", "webUrl": "https://www.theguardian.com/environment/2013/jan/27/green-deal-unlikely-deliver-promises", "apiUrl": "https://content.guardianapis.com/environment/2013/jan/27/green-deal-unlikely-deliver-promises", "isHosted": false, "pillarId": "pillar/news", "pillarName": "News"}, {"id": "environment/video/2013/jan/25/green-deal-energy-bills-video", "type": "video", "sectionId": "environment", "sectionName": "Environment", "webPublicationDate": "2013-01-28T09:11:00Z", "webTitle": "Will the green deal cut UK households' energy bills? \u2014 video", "webUrl": "https://www.theguardian.com/environment/video/2013/jan/25/green-deal-energy-bills-video", "apiUrl": "https://content.guardianapis.com/environment/video/2013/jan/25/green-deal-energy-bills-video", "isHosted": false, "pillarId": "pillar/news", "pillarName": "News"}, {"id": "global-development/poverty-matters/2013/jan/28/china-brics-lead-climate-change", "type": "article", "sectionId": "global-development", "sectionName": "Global development", "webPublicationDate": "2013-01-28T07:00:03Z", "webTitle": "Could China and its fellow Brics nations lead the way on climate change? | Nancy Birdsall and Lawrence MacDonald", "webUrl": "https://www.theguardian.com/global-development/poverty-matters/2013/jan/28/china-brics-lead-climate-change", "apiUrl": "https://content.guardianapis.com/global-development/poverty-matters/2013/jan/28/china-brics-lead-climate-change", "isHosted": false, "pillarId": "pillar/news", "pillarName": "News"}, {"id": "environment/2013/jan/27/lakelands-climbing-huts", "type": "article", "sectionId": "environment", "sectionName": "Environment", "webPublicationDate": "2013-01-27T21:00:00Z", "webTitle": "Country diary: Rough and ready to take on the elements in Lakeland's climbing huts", "webUrl": "https://www.theguardian.com/environment/2013/jan/27/lakelands-climbing-huts", "apiUrl": "https://content.guardianapis.com/environment/2013/jan/27/lakelands-climbing-huts", "isHosted": false, "pillarId": "pillar/news", "pillarName": "News"}, {"id": "science/2013/jan/27/scienceofclimatechange-climate-change", "type": "article", "sectionId": "environment", "sectionName": "Environment", "webPublicationDate": "2013-01-27T19:15:00Z", "webTitle": "Heat from North American cities causing warmer winters, study finds", "webUrl": "https://www.theguardian.com/science/2013/jan/27/scienceofclimatechange-climate-change", "apiUrl": "https://content.guardianapis.com/science/2013/jan/27/scienceofclimatechange-climate-change", "isHosted": false, "pillarId": "pillar/news", "pillarName": "News"}]}}