{"response": {"status": "ok", "userTier": "developer", "total": 121788, "startIndex": 1, "pageSize": 50, "currentPage": 1, "pages": 2436, "orderBy": "newest", "results": [{"id": "uk/cartoon/2010/jan/30/chilcot-blair-iraq-rowson-cartoon", "type": "picture", "sectionId": "uk-news", "sectionName": "UK news", "webPublicationDate": "2010-01-30T09:24:42Z", "webTitle": "Martin Rowson: Tony Blair's day in the dock", "webUrl": "https://www.theguardian.com/uk/cartoon/2010/jan/30/chilcot-blair-iraq-rowson-cartoon", "apiUrl": "https://content.guardianapis.com/uk/cartoon/2010/jan/30/chilcot-blair-iraq-rowson-cartoon", "isHosted": false, "pillarId": "pillar/news", "pillarName": "News"}, {"id": "uk/2010/jan/29/tony-blair-iraq-inquiry-chilcot", "type": "article", "sectionId": "uk-news", "sectionName": "UK news", "webPublicationDate": "2010-01-30T01:17:00Z", "webTitle": "Tony Blair at Iraq inquiry - the ghost that came back to life", "webUrl": "https://www.theguardian.com/uk/2010/jan/29/tony-blair-iraq-inquiry-chilcot", "apiUrl": "https://content.guardianapis.com/uk/2010/jan/29/tony-blair-iraq-inquiry-chilcot", "isHosted": false, "pillarId": "pillar/news", "pillarName": "News"}, {"id": "politics/2010/jan/30/david-cameron-graffiti", "type": "article", "sectionId": "politics", "sectionName": "Politics", "webPublicationDate": "2010-01-30T00:08:53Z", "webTitle": "David Cameron: the graffiti's on the wall", "webUrl": "https://www.theguardian.com/politics/2010/jan/30/david-cameron-graffiti", "apiUrl": "https://content.guardianapis.com/politics/2010/jan/30/david-cameron-graffiti", "isHosted": false, "pillarId": "pillar/news", "pillarName": "News"}, {"id": "politics/2010/jan/30/magaret-thatcher-1979-election-win", "type": "article", "sectionId": "politics", "sectionName": "Politics", "webPublicationDate": "2010-01-30T00:08:40Z", "webTitle": "Letters of congratulations to Margaret Thatcher on becoming prime minister", "webUrl": "https://www.theguardian.com/politics/2010/jan/30/magaret-thatcher-1979-election-win", "apiUrl": "https://content.guardianapis.com/politics/2010/jan/30/magaret-thatcher-1979-election-win", "isHosted": false, "pillarId": "pillar/news", "pillarName": "News"}, {"id": "politics/2010/jan/30/thatcher-papers-1979-online-eggs", "type": "article", "sectionId": "politics", "sectionName": "Politics", "webPublicationDate": "2010-01-30T00:08:37Z", "webTitle": "Thatcher went to work on an egg, her private papers from 1979 show", "webUrl": "https://www.theguardian.com/politics/2010/jan/30/thatcher-papers-1979-online-eggs", "apiUrl": "https://content.guardianapis.com/politics/2010/jan/30/thatcher-papers-1979-online-eggs", "isHosted": false, "pillarId": "pillar/news", "pillarName": "News"}, {"id": "commentisfree/2010/jan/30/blair-iraq-war-chilcot-inquiry", "type": "article", "sectionId": "commentisfree", "sectionName": "Opinion", "webPublicationDate": "2010-01-30T00:05:51Z", "webTitle": "Blair at the Iraq inquiry: No regrets", "webUrl": "https://www.theguardian.com/commentisfree/2010/jan/30/blair-iraq-war-chilcot-inquiry", "apiUrl": "https://content.guardianapis.com/commentisfree/2010/jan/30/blair-iraq-war-chilcot-inquiry", "isHosted": false, "pillarId": "pillar/opinion", "pillarName": "Opinion"}, {"id": "theguardian/2010/jan/30/simon-hoggarts-week", "type": "article", "sectionId": "theguardian", "sectionName": "From the Guardian", "webPublicationDate": "2010-01-30T00:05:09Z", "webTitle": "Simon Hoggart's week: Extinct? No. Round robin letters live on", "webUrl": "https://www.theguardian.com/theguardian/2010/jan/30/simon-hoggarts-week", "apiUrl": "https://content.guardianapis.com/theguardian/2010/jan/30/simon-hoggarts-week", "isHosted": false, "pillarId": "pillar/news", "pillarName": "News"}, {"id": "commentisfree/2010/jan/29/social-mobility-inequality-conservative-thatcher", "type": "article", "sectionId": "commentisfree", "sectionName": "Opinion", "webPublicationDate": "2010-01-29T22:00:01Z", "webTitle": "A broken society, yes. But broken by Thatcher | Richard Wilkinson and Kate Pickett", "webUrl": "https://www.theguardian.com/commentisfree/2010/jan/29/social-mobility-inequality-conservative-thatcher", "apiUrl": "https://content.guardianapis.com/commentisfree/2010/jan/29/social-mobility-inequality-conservative-thatcher", "isHosted": false, "pillarId": "pillar/opinion", "pillarName": "Opinion"}, {"id": "uk/2010/jan/29/blair-defence-september-11-iraq", "type": "article", "sectionId": "uk-news", "sectionName": "UK news", "webPublicationDate": "2010-01-29T20:40:34Z", "webTitle": "The Blair defence: September 11 changed the 'calculus of risk'", "webUrl": "https://www.theguardian.com/uk/2010/jan/29/blair-defence-september-11-iraq", "apiUrl": "https://content.guardianapis.com/uk/2010/jan/29/blair-defence-september-11-iraq", "isHosted": false, "pillarId": "pillar/news", "pillarName": "News"}, {"id": "global/audio/2010/jan/29/tonyblair-iraq-war-inquiry", "type": "audio", "sectionId": "politics", "sectionName": "Politics", "webPublicationDate": "2010-01-29T20:17:19Z", "webTitle": "Politics Weekly: Blair at the Iraq inquiry", "webUrl": "https://www.theguardian.com/global/audio/2010/jan/29/tonyblair-iraq-war-inquiry", "apiUrl": "https://content.guardianapis.com/global/audio/2010/jan/29/tonyblair-iraq-war-inquiry", "isHosted": false, "pillarId": "pillar/news", "pillarName": "News"}, {"id": "uk/2010/jan/29/responsible-no-regrets-blair-iraq", "type": "article", "sectionId": "uk-news", "sectionName": "UK news", "webPublicationDate": "2010-01-29T19:52:51Z", "webTitle": "Righteous, responsible but no regrets: Tony Blair's day in the dock", "webUrl": "https://www.theguardian.com/uk/2010/jan/29/responsible-no-regrets-blair-iraq", "apiUrl": "https://content.guardianapis.com/uk/2010/jan/29/responsible-no-regrets-blair-iraq", "isHosted": false, "pillarId": "pillar/news", "pillarName": "News"}, {"id": "uk/2010/jan/29/blair-iraq-chilcot-inquiry-analysis", "type": "article", "sectionId": "uk-news", "sectionName": "UK news", "webPublicationDate": "2010-01-29T19:34:54Z", "webTitle": "How Tony Blair fared at the Chilcot inquiry", "webUrl": "https://www.theguardian.com/uk/2010/jan/29/blair-iraq-chilcot-inquiry-analysis", "apiUrl": "https://content.guardianapis.com/uk/2010/jan/29/blair-iraq-chilcot-inquiry-analysis", "isHosted": false, "pillarId": "pillar/news", "pillarName": "News"}, {"id": "politics/2010/jan/29/simon-hoggart-sketch-blair-chilcot", "type": "article", "sectionId": "politics", "sectionName": "Politics", "webPublicationDate": "2010-01-29T19:00:02Z", "webTitle": "Regrets? Oh come off it", "webUrl": "https://www.theguardian.com/politics/2010/jan/29/simon-hoggart-sketch-blair-chilcot", "apiUrl": "https://content.guardianapis.com/politics/2010/jan/29/simon-hoggart-sketch-blair-chilcot", "isHosted": false, "pillarId": "pillar/news", "pillarName": "News"}, {"id": "uk/2010/jan/29/quiroga-asylum-detention-payout", "type": "article", "sectionId": "uk-news", "sectionName": "UK news", "webPublicationDate": "2010-01-29T18:50:35Z", "webTitle": "Family wins \u00a3100,000 for detention ordeal", "webUrl": "https://www.theguardian.com/uk/2010/jan/29/quiroga-asylum-detention-payout", "apiUrl": "https://content.guardianapis.com/uk/2010/jan/29/quiroga-asylum-detention-payout", "isHosted": false, "pillarId": "pillar/news", "pillarName": "News"}, {"id": "uk/2010/jan/29/blair-iraq-inquiry-baghdad-view", "type": "article", "sectionId": "uk-news", "sectionName": "UK news", "webPublicationDate": "2010-01-29T18:46:53Z", "webTitle": "Tony Blair on Iraq: view from Baghdad", "webUrl": "https://www.theguardian.com/uk/2010/jan/29/blair-iraq-inquiry-baghdad-view", "apiUrl": "https://content.guardianapis.com/uk/2010/jan/29/blair-iraq-inquiry-baghdad-view", "isHosted": false, "pillarId": "pillar/news", "pillarName": "News"}, {"id": "commentisfree/2010/jan/29/tony-blair-chilcot-iraq-inquiry2", "type": "article", "sectionId": "commentisfree", "sectionName": "Opinion", "webPublicationDate": "2010-01-29T18:29:50Z", "webTitle": "Tony Blair at the Chilcot inquiry, part II | Jackie Ashley, Jonathan Freedland, Martin Kettle, Seumas Milne and Henry Porter", "webUrl": "https://www.theguardian.com/commentisfree/2010/jan/29/tony-blair-chilcot-iraq-inquiry2", "apiUrl": "https://content.guardianapis.com/commentisfree/2010/jan/29/tony-blair-chilcot-iraq-inquiry2", "isHosted": false, "pillarId": "pillar/opinion", "pillarName": "Opinion"}, {"id": "commentisfree/2010/jan/29/chilcot-iraq-inquiry-secrecy", "type": "article", "sectionId": "commentisfree", "sectionName": "Opinion", "webPublicationDate": "2010-01-29T18:24:07Z", "webTitle": "Chilcot hamstrung by secrecy | Chris Ames", "webUrl": "https://www.theguardian.com/commentisfree/2010/jan/29/chilcot-iraq-inquiry-secrecy", "apiUrl": "https://content.guardianapis.com/commentisfree/2010/jan/29/chilcot-iraq-inquiry-secrecy", "isHosted": false, "pillarId": "pillar/opinion", "pillarName": "Opinion"}, {"id": "society/2010/jan/29/unequal-britain-wealth-divide", "type": "article", "sectionId": "society", "sectionName": "Society", "webPublicationDate": "2010-01-29T18:21:37Z", "webTitle": "Children of the UK wealth divide: how a six-year-old deals with poverty", "webUrl": "https://www.theguardian.com/society/2010/jan/29/unequal-britain-wealth-divide", "apiUrl": "https://content.guardianapis.com/society/2010/jan/29/unequal-britain-wealth-divide", "isHosted": false, "pillarId": "pillar/news", "pillarName": "News"}, {"id": "world/richard-adams-blog/2010/jan/29/blair-iraq-inquiry-media", "type": "article", "sectionId": "us-news", "sectionName": "US news", "webPublicationDate": "2010-01-29T18:00:25Z", "webTitle": "Blair's Iraq testimony gets a US yawn | Richard Adams", "webUrl": "https://www.theguardian.com/world/richard-adams-blog/2010/jan/29/blair-iraq-inquiry-media", "apiUrl": "https://content.guardianapis.com/world/richard-adams-blog/2010/jan/29/blair-iraq-inquiry-media", "isHosted": false, "pillarId": "pillar/news", "pillarName": "News"}, {"id": "society/2010/jan/29/gates-10bn-vacccines-children-charity", "type": "article", "sectionId": "society", "sectionName": "Society", "webPublicationDate": "2010-01-29T17:20:32Z", "webTitle": "Bill and Melinda Gates give $10bn for vaccines to save 8m children's lives", "webUrl": "https://www.theguardian.com/society/2010/jan/29/gates-10bn-vacccines-children-charity", "apiUrl": "https://content.guardianapis.com/society/2010/jan/29/gates-10bn-vacccines-children-charity", "isHosted": false, "pillarId": "pillar/news", "pillarName": "News"}, {"id": "uk/2010/jan/29/blair-iraq-inquiry-chilcot-911-terrorist-threat", "type": "article", "sectionId": "uk-news", "sectionName": "UK news", "webPublicationDate": "2010-01-29T16:33:00Z", "webTitle": "I feel 'responsibility but no regret', says Tony Blair in final statement", "webUrl": "https://www.theguardian.com/uk/2010/jan/29/blair-iraq-inquiry-chilcot-911-terrorist-threat", "apiUrl": "https://content.guardianapis.com/uk/2010/jan/29/blair-iraq-inquiry-chilcot-911-terrorist-threat", "isHosted": false, "pillarId": "pillar/news", "pillarName": "News"}, {"id": "katine/2010/jan/29/agriculture-report-dfid-response", "type": "article", "sectionId": "katine", "sectionName": "Katine", "webPublicationDate": "2010-01-29T16:18:50Z", "webTitle": "DfID 'not neglecting agriculture'", "webUrl": "https://www.theguardian.com/katine/2010/jan/29/agriculture-report-dfid-response", "apiUrl": "https://content.guardianapis.com/katine/2010/jan/29/agriculture-report-dfid-response", "isHosted": false, "pillarId": "pillar/news", "pillarName": "News"}, {"id": "media/greenslade/2010/jan/29/local-newspapers-northcliffe-media", "type": "article", "sectionId": "media", "sectionName": "Media", "webPublicationDate": "2010-01-29T16:07:33Z", "webTitle": "Nottingham Evening Post stays bound to board", "webUrl": "https://www.theguardian.com/media/greenslade/2010/jan/29/local-newspapers-northcliffe-media", "apiUrl": "https://content.guardianapis.com/media/greenslade/2010/jan/29/local-newspapers-northcliffe-media", "isHosted": false, "pillarId": "pillar/news", "pillarName": "News"}, {"id": "politics/2010/jan/29/tony-blair-iraq-inquiry-key-points", "type": "article", "sectionId": "politics", "sectionName": "Politics", "webPublicationDate": "2010-01-29T15:48:00Z", "webTitle": "Tony Blair at Iraq inquiry \u2013 the key points", "webUrl": "https://www.theguardian.com/politics/2010/jan/29/tony-blair-iraq-inquiry-key-points", "apiUrl": "https://content.guardianapis.com/politics/2010/jan/29/tony-blair-iraq-inquiry-key-points", "isHosted": false, "pillarId": "pillar/news", "pillarName": "News"}, {"id": "lifeandstyle/audio/2010/jan/29/family-podcast-ed-balls-alan-davies", "type": "audio", "sectionId": "lifeandstyle", "sectionName": "Life and style", "webPublicationDate": "2010-01-29T15:07:00Z", "webTitle": "The Family Podcast: Ed Balls on family policy, plus the madness of 8.25am", "webUrl": "https://www.theguardian.com/lifeandstyle/audio/2010/jan/29/family-podcast-ed-balls-alan-davies", "apiUrl": "https://content.guardianapis.com/lifeandstyle/audio/2010/jan/29/family-podcast-ed-balls-alan-davies", "isHosted": false, "pillarId": "pillar/lifestyle", "pillarName": "Lifestyle"}, {"id": "commentisfree/2010/jan/29/tony-blair-chilcot-inquiry-afua-hirsch", "type": "article", "sectionId": "commentisfree", "sectionName": "Opinion", "webPublicationDate": "2010-01-29T14:55:28Z", "webTitle": "Tony Blair at Chilcot: nuance is the order of the day | Afua Hirsch", "webUrl": "https://www.theguardian.com/commentisfree/2010/jan/29/tony-blair-chilcot-inquiry-afua-hirsch", "apiUrl": "https://content.guardianapis.com/commentisfree/2010/jan/29/tony-blair-chilcot-inquiry-afua-hirsch", "isHosted": false, "pillarId": "pillar/opinion", "pillarName": "Opinion"}, {"id": "commentisfree/2010/jan/29/harriet-harman-accent", "type": "article", "sectionId": "commentisfree", "sectionName": "Opinion", "webPublicationDate": "2010-01-29T14:40:00Z", "webTitle": "Lose the accent? | Open thread", "webUrl": "https://www.theguardian.com/commentisfree/2010/jan/29/harriet-harman-accent", "apiUrl": "https://content.guardianapis.com/commentisfree/2010/jan/29/harriet-harman-accent", "isHosted": false, "pillarId": "pillar/opinion", "pillarName": "Opinion"}, {"id": "commentisfree/2010/jan/29/tony-blair-chilcot-iraq-inquiry1", "type": "article", "sectionId": "commentisfree", "sectionName": "Opinion", "webPublicationDate": "2010-01-29T13:54:33Z", "webTitle": "Tony Blair at the Chilcot inquiry | Jackie Ashley, Jonathan Freedland, Martin Kettle and Seumas Milne", "webUrl": "https://www.theguardian.com/commentisfree/2010/jan/29/tony-blair-chilcot-iraq-inquiry1", "apiUrl": "https://content.guardianapis.com/commentisfree/2010/jan/29/tony-blair-chilcot-iraq-inquiry1", "isHosted": false, "pillarId": "pillar/opinion", "pillarName": "Opinion"}, {"id": "uk/2010/jan/29/tony-blair-iraq-war-inquiry1", "type": "article", "sectionId": "uk-news", "sectionName": "UK news", "webPublicationDate": "2010-01-29T13:26:00Z", "webTitle": "Families of Iraq war dead voice anger at 'smirking' Blair", "webUrl": "https://www.theguardian.com/uk/2010/jan/29/tony-blair-iraq-war-inquiry1", "apiUrl": "https://content.guardianapis.com/uk/2010/jan/29/tony-blair-iraq-war-inquiry1", "isHosted": false, "pillarId": "pillar/news", "pillarName": "News"}, {"id": "commentisfree/2010/jan/29/chilcot-inquiry-oliver-miles", "type": "article", "sectionId": "commentisfree", "sectionName": "Opinion", "webPublicationDate": "2010-01-29T13:00:00Z", "webTitle": "Britain's affair with antisemitism | David Cesarani", "webUrl": "https://www.theguardian.com/commentisfree/2010/jan/29/chilcot-inquiry-oliver-miles", "apiUrl": "https://content.guardianapis.com/commentisfree/2010/jan/29/chilcot-inquiry-oliver-miles", "isHosted": false, "pillarId": "pillar/opinion", "pillarName": "Opinion"}, {"id": "uk/2010/jan/29/young-muslims-fighting-extremist-propaganda", "type": "article", "sectionId": "uk-news", "sectionName": "UK news", "webPublicationDate": "2010-01-29T12:21:53Z", "webTitle": "How young Muslims are fighting extremist propaganda", "webUrl": "https://www.theguardian.com/uk/2010/jan/29/young-muslims-fighting-extremist-propaganda", "apiUrl": "https://content.guardianapis.com/uk/2010/jan/29/young-muslims-fighting-extremist-propaganda", "isHosted": false, "pillarId": "pillar/news", "pillarName": "News"}, {"id": "uk/video/2009/dec/18/propaganda-muslim-digital-disruption", "type": "video", "sectionId": "uk-news", "sectionName": "UK news", "webPublicationDate": "2010-01-29T12:20:00Z", "webTitle": "Video: 'If you know about propaganda, you won't be fooled into anything'", "webUrl": "https://www.theguardian.com/uk/video/2009/dec/18/propaganda-muslim-digital-disruption", "apiUrl": "https://content.guardianapis.com/uk/video/2009/dec/18/propaganda-muslim-digital-disruption", "isHosted": false, "pillarId": "pillar/news", "pillarName": "News"}, {"id": "commentisfree/2010/jan/29/northern-ireland-sinn-fein-dup", "type": "article", "sectionId": "commentisfree", "sectionName": "Opinion", "webPublicationDate": "2010-01-29T12:00:00Z", "webTitle": "Deadlock in Northern Ireland | Mick Fealty", "webUrl": "https://www.theguardian.com/commentisfree/2010/jan/29/northern-ireland-sinn-fein-dup", "apiUrl": "https://content.guardianapis.com/commentisfree/2010/jan/29/northern-ireland-sinn-fein-dup", "isHosted": false, "pillarId": "pillar/opinion", "pillarName": "Opinion"}, {"id": "politics/2010/jan/29/ken-livingstone-boris-johnson-london", "type": "article", "sectionId": "politics", "sectionName": "Politics", "webPublicationDate": "2010-01-29T11:35:08Z", "webTitle": "Boris Johnson will have to run for London mayor again, says Ken Livingstone", "webUrl": "https://www.theguardian.com/politics/2010/jan/29/ken-livingstone-boris-johnson-london", "apiUrl": "https://content.guardianapis.com/politics/2010/jan/29/ken-livingstone-boris-johnson-london", "isHosted": false, "pillarId": "pillar/news", "pillarName": "News"}, {"id": "commentisfree/2010/jan/29/progressive-politics-labour-conservatives", "type": "article", "sectionId": "commentisfree", "sectionName": "Opinion", "webPublicationDate": "2010-01-29T11:30:00Z", "webTitle": "People deserve a left alternative to Labour | George Galloway", "webUrl": "https://www.theguardian.com/commentisfree/2010/jan/29/progressive-politics-labour-conservatives", "apiUrl": "https://content.guardianapis.com/commentisfree/2010/jan/29/progressive-politics-labour-conservatives", "isHosted": false, "pillarId": "pillar/opinion", "pillarName": "Opinion"}, {"id": "politics/blog/2010/jan/29/blair-wakefield-climate-change-michael-white", "type": "article", "sectionId": "politics", "sectionName": "Politics", "webPublicationDate": "2010-01-29T11:10:52Z", "webTitle": "Blair, Wakefield, climate change \u2013 beware of scapegoats | Michael White", "webUrl": "https://www.theguardian.com/politics/blog/2010/jan/29/blair-wakefield-climate-change-michael-white", "apiUrl": "https://content.guardianapis.com/politics/blog/2010/jan/29/blair-wakefield-climate-change-michael-white", "isHosted": false, "pillarId": "pillar/news", "pillarName": "News"}, {"id": "news/datablog/2010/jan/29/information-beautiful-gay-rights", "type": "article", "sectionId": "news", "sectionName": "News", "webPublicationDate": "2010-01-29T10:34:06Z", "webTitle": "Information is Beautiful Friday: Tory vs Labour voting records on gay rights", "webUrl": "https://www.theguardian.com/news/datablog/2010/jan/29/information-beautiful-gay-rights", "apiUrl": "https://content.guardianapis.com/news/datablog/2010/jan/29/information-beautiful-gay-rights", "isHosted": false, "pillarId": "pillar/news", "pillarName": "News"}, {"id": "politics/blog/2010/jan/29/sinn-fein-northern-ireland-talks", "type": "article", "sectionId": "politics", "sectionName": "Politics", "webPublicationDate": "2010-01-29T10:31:00Z", "webTitle": "Northern Ireland: Sinn F\u00e9in seems to want to salvage power-sharing | Henry McDonald", "webUrl": "https://www.theguardian.com/politics/blog/2010/jan/29/sinn-fein-northern-ireland-talks", "apiUrl": "https://content.guardianapis.com/politics/blog/2010/jan/29/sinn-fein-northern-ireland-talks", "isHosted": false, "pillarId": "pillar/news", "pillarName": "News"}, {"id": "commentisfree/2010/jan/29/tony-blair-chilcot-iraq-inquiry", "type": "article", "sectionId": "commentisfree", "sectionName": "Opinion", "webPublicationDate": "2010-01-29T10:00:00Z", "webTitle": "Blair: truth and lies | Mehdi Hasan", "webUrl": "https://www.theguardian.com/commentisfree/2010/jan/29/tony-blair-chilcot-iraq-inquiry", "apiUrl": "https://content.guardianapis.com/commentisfree/2010/jan/29/tony-blair-chilcot-iraq-inquiry", "isHosted": false, "pillarId": "pillar/opinion", "pillarName": "Opinion"}, {"id": "politics/blog/2010/jan/29/david-cameron-uk-economy", "type": "article", "sectionId": "politics", "sectionName": "Politics", "webPublicationDate": "2010-01-29T09:51:00Z", "webTitle": "Upbeat or downbeat? Cameron's mixed messages on UK economy | Nicholas Watt", "webUrl": "https://www.theguardian.com/politics/blog/2010/jan/29/david-cameron-uk-economy", "apiUrl": "https://content.guardianapis.com/politics/blog/2010/jan/29/david-cameron-uk-economy", "isHosted": false, "pillarId": "pillar/news", "pillarName": "News"}, {"id": "politics/gallery/2010/jan/29/tonyblair-iraq", "type": "gallery", "sectionId": "politics", "sectionName": "Politics", "webPublicationDate": "2010-01-29T09:50:37Z", "webTitle": "Anti-Blair protests at the Chilcot Iraq inquiry", "webUrl": "https://www.theguardian.com/politics/gallery/2010/jan/29/tonyblair-iraq", "apiUrl": "https://content.guardianapis.com/politics/gallery/2010/jan/29/tonyblair-iraq", "isHosted": false, "pillarId": "pillar/news", "pillarName": "News"}, {"id": "uk/2010/jan/29/tony-blair-iraq-war-inquiry", "type": "article", "sectionId": "uk-news", "sectionName": "UK news", "webPublicationDate": "2010-01-29T08:53:00Z", "webTitle": "Iraq war inquiry: Tony Blair arrives early to avoid protesters", "webUrl": "https://www.theguardian.com/uk/2010/jan/29/tony-blair-iraq-war-inquiry", "apiUrl": "https://content.guardianapis.com/uk/2010/jan/29/tony-blair-iraq-war-inquiry", "isHosted": false, "pillarId": "pillar/news", "pillarName": "News"}, {"id": "politics/cartoon/2010/jan/29/tony-blair-chilcot-iraq-inquiry", "type": "picture", "sectionId": "politics", "sectionName": "Politics", "webPublicationDate": "2010-01-29T08:48:40Z", "webTitle": "Steve Bell: Blair faces judgment day on Iraq", "webUrl": "https://www.theguardian.com/politics/cartoon/2010/jan/29/tony-blair-chilcot-iraq-inquiry", "apiUrl": "https://content.guardianapis.com/politics/cartoon/2010/jan/29/tony-blair-chilcot-iraq-inquiry", "isHosted": false, "pillarId": "pillar/news", "pillarName": "News"}, {"id": "politics/blog/2010/jan/29/iraq-war-inquiry-tonyblair", "type": "article", "sectionId": "politics", "sectionName": "Politics", "webPublicationDate": "2010-01-29T08:24:19Z", "webTitle": "Tony Blair at Iraq inquiry \u2013 live", "webUrl": "https://www.theguardian.com/politics/blog/2010/jan/29/iraq-war-inquiry-tonyblair", "apiUrl": "https://content.guardianapis.com/politics/blog/2010/jan/29/iraq-war-inquiry-tonyblair", "isHosted": false, "pillarId": "pillar/news", "pillarName": "News"}, {"id": "uk/2010/jan/29/blair-iraq-inquiry-protesters-gather", "type": "article", "sectionId": "uk-news", "sectionName": "UK news", "webPublicationDate": "2010-01-29T08:13:14Z", "webTitle": "Anti-war campaigners protest as Blair faces Iraq inquiry", "webUrl": "https://www.theguardian.com/uk/2010/jan/29/blair-iraq-inquiry-protesters-gather", "apiUrl": "https://content.guardianapis.com/uk/2010/jan/29/blair-iraq-inquiry-protesters-gather", "isHosted": false, "pillarId": "pillar/news", "pillarName": "News"}, {"id": "politics/2010/jan/29/tony-blair-iraq-chilcot-inquiry", "type": "article", "sectionId": "politics", "sectionName": "Politics", "webPublicationDate": "2010-01-29T06:00:01Z", "webTitle": "10 questions Tony Blair must answer at the Chilcot inquiry", "webUrl": "https://www.theguardian.com/politics/2010/jan/29/tony-blair-iraq-chilcot-inquiry", "apiUrl": "https://content.guardianapis.com/politics/2010/jan/29/tony-blair-iraq-chilcot-inquiry", "isHosted": false, "pillarId": "pillar/news", "pillarName": "News"}, {"id": "uk/2010/jan/29/tony-blair-wmd-saddam-hussein", "type": "article", "sectionId": "uk-news", "sectionName": "UK news", "webPublicationDate": "2010-01-29T05:00:01Z", "webTitle": "Tony Blair to tell Chilcot inquiry: war stopped Saddam building WMDs", "webUrl": "https://www.theguardian.com/uk/2010/jan/29/tony-blair-wmd-saddam-hussein", "apiUrl": "https://content.guardianapis.com/uk/2010/jan/29/tony-blair-wmd-saddam-hussein", "isHosted": false, "pillarId": "pillar/news", "pillarName": "News"}, {"id": "money/2010/jan/28/flexible-working-extension-labour-plans", "type": "article", "sectionId": "money", "sectionName": "Money", "webPublicationDate": "2010-01-29T01:58:00Z", "webTitle": "Minister calls for wider flexible working rights", "webUrl": "https://www.theguardian.com/money/2010/jan/28/flexible-working-extension-labour-plans", "apiUrl": "https://content.guardianapis.com/money/2010/jan/28/flexible-working-extension-labour-plans", "isHosted": false, "pillarId": "pillar/lifestyle", "pillarName": "Lifestyle"}, {"id": "politics/2010/jan/29/nudge-george-osborne-conservatives", "type": "article", "sectionId": "politics", "sectionName": "Politics", "webPublicationDate": "2010-01-29T01:39:00Z", "webTitle": "Cameron wants early deficit cut, despite economy fears", "webUrl": "https://www.theguardian.com/politics/2010/jan/29/nudge-george-osborne-conservatives", "apiUrl": "https://content.guardianapis.com/politics/2010/jan/29/nudge-george-osborne-conservatives", "isHosted": false, "pillarId": "pillar/news", "pillarName": "News"}, {"id": "politics/2010/jan/29/hugh-muir-diary", "type": "article", "sectionId": "politics", "sectionName": "Politics", "webPublicationDate": "2010-01-29T00:15:02Z", "webTitle": "Hugh Muir's diary", "webUrl": "https://www.theguardian.com/politics/2010/jan/29/hugh-muir-diary", "apiUrl": "https://content.guardianapis.com/politics/2010/jan/29/hugh-muir-diary", "isHosted": false, "pillarId": "pillar/news", "pillarName": "News"}]}}