{"response": {"status": "ok", "userTier": "developer", "total": 94888, "startIndex": 1, "pageSize": 50, "currentPage": 1, "pages": 1898, "orderBy": "newest", "results": [{"id": "football/blog/2016/jan/30/louis-van-gaal-manchester-united", "type": "article", "sectionId": "football", "sectionName": "Football", "webPublicationDate": "2016-01-30T23:26:18Z", "webTitle": "Louis van Gaal still has time to rediscover the old Manchester United | Paul Wilson", "webUrl": "https://www.theguardian.com/football/blog/2016/jan/30/louis-van-gaal-manchester-united", "apiUrl": "https://content.guardianapis.com/football/blog/2016/jan/30/louis-van-gaal-manchester-united", "isHosted": false, "pillarId": "pillar/sport", "pillarName": "Sport"}, {"id": "football/2016/jan/30/louis-van-gaal-manchester-united-fans-stoke-city", "type": "article", "sectionId": "football", "sectionName": "Football", "webPublicationDate": "2016-01-30T22:30:10Z", "webTitle": "Louis van Gaal urges Manchester United fans to get behind players", "webUrl": "https://www.theguardian.com/football/2016/jan/30/louis-van-gaal-manchester-united-fans-stoke-city", "apiUrl": "https://content.guardianapis.com/football/2016/jan/30/louis-van-gaal-manchester-united-fans-stoke-city", "isHosted": false, "pillarId": "pillar/sport", "pillarName": "Sport"}, {"id": "football/2016/jan/30/guus-hiddink-chelsea-roman-abramovich-long-term", "type": "article", "sectionId": "football", "sectionName": "Football", "webPublicationDate": "2016-01-30T22:30:10Z", "webTitle": "Guus Hiddink sure Chelsea\u2019s Roman Abramovich is still thinking long-term", "webUrl": "https://www.theguardian.com/football/2016/jan/30/guus-hiddink-chelsea-roman-abramovich-long-term", "apiUrl": "https://content.guardianapis.com/football/2016/jan/30/guus-hiddink-chelsea-roman-abramovich-long-term", "isHosted": false, "pillarId": "pillar/sport", "pillarName": "Sport"}, {"id": "football/2016/jan/30/mk-dons-pete-winkelman-sustainable-future-chelsea-fa-cup", "type": "article", "sectionId": "football", "sectionName": "Football", "webPublicationDate": "2016-01-30T22:30:10Z", "webTitle": "MK Dons\u2019 Pete Winkelman playing the long game for sustainable future", "webUrl": "https://www.theguardian.com/football/2016/jan/30/mk-dons-pete-winkelman-sustainable-future-chelsea-fa-cup", "apiUrl": "https://content.guardianapis.com/football/2016/jan/30/mk-dons-pete-winkelman-sustainable-future-chelsea-fa-cup", "isHosted": false, "pillarId": "pillar/sport", "pillarName": "Sport"}, {"id": "football/2016/jan/30/wayne-rooney-manchester-united-fa-cup", "type": "article", "sectionId": "football", "sectionName": "Football", "webPublicationDate": "2016-01-30T22:29:10Z", "webTitle": "Wayne Rooney eyes record after Manchester United break free in FA Cup", "webUrl": "https://www.theguardian.com/football/2016/jan/30/wayne-rooney-manchester-united-fa-cup", "apiUrl": "https://content.guardianapis.com/football/2016/jan/30/wayne-rooney-manchester-united-fa-cup", "isHosted": false, "pillarId": "pillar/sport", "pillarName": "Sport"}, {"id": "football/2016/jan/30/oumar-niasse-everton-lokomotiv-moscow-premier-league", "type": "article", "sectionId": "football", "sectionName": "Football", "webPublicationDate": "2016-01-30T19:58:21Z", "webTitle": "Everton poised to sign Lokomotiv Moscow\u2019s Oumar Niasse for \u00a313.5m", "webUrl": "https://www.theguardian.com/football/2016/jan/30/oumar-niasse-everton-lokomotiv-moscow-premier-league", "apiUrl": "https://content.guardianapis.com/football/2016/jan/30/oumar-niasse-everton-lokomotiv-moscow-premier-league", "isHosted": false, "pillarId": "pillar/sport", "pillarName": "Sport"}, {"id": "football/2016/jan/30/liverpool-west-ham-united-fa-cup-match-report", "type": "article", "sectionId": "football", "sectionName": "Football", "webPublicationDate": "2016-01-30T19:44:06Z", "webTitle": "West Ham stand firm at Liverpool to earn FA Cup fourth-round replay", "webUrl": "https://www.theguardian.com/football/2016/jan/30/liverpool-west-ham-united-fa-cup-match-report", "apiUrl": "https://content.guardianapis.com/football/2016/jan/30/liverpool-west-ham-united-fa-cup-match-report", "isHosted": false, "pillarId": "pillar/sport", "pillarName": "Sport"}, {"id": "football/blog/2016/jan/30/matt-miazga-chelsea-red-bulls-mls", "type": "article", "sectionId": "football", "sectionName": "Football", "webPublicationDate": "2016-01-30T19:34:10Z", "webTitle": "Matt Miazga: Chelsea's pull proves too strong for Red Bulls' standout defender", "webUrl": "https://www.theguardian.com/football/blog/2016/jan/30/matt-miazga-chelsea-red-bulls-mls", "apiUrl": "https://content.guardianapis.com/football/blog/2016/jan/30/matt-miazga-chelsea-red-bulls-mls", "isHosted": false, "pillarId": "pillar/sport", "pillarName": "Sport"}, {"id": "football/2016/jan/30/football-league-your-thoughts", "type": "article", "sectionId": "football", "sectionName": "Football", "webPublicationDate": "2016-01-30T19:31:08Z", "webTitle": "Football League: your thoughts", "webUrl": "https://www.theguardian.com/football/2016/jan/30/football-league-your-thoughts", "apiUrl": "https://content.guardianapis.com/football/2016/jan/30/football-league-your-thoughts", "isHosted": false, "pillarId": "pillar/sport", "pillarName": "Sport"}, {"id": "football/live/2016/jan/30/liverpool-v-west-ham-united-fa-cup-fourth-round-live", "type": "liveblog", "sectionId": "football", "sectionName": "Football", "webPublicationDate": "2016-01-30T19:24:50Z", "webTitle": "Liverpool 0-0 West Ham United: FA Cup fourth round \u2013 as it happened", "webUrl": "https://www.theguardian.com/football/live/2016/jan/30/liverpool-v-west-ham-united-fa-cup-fourth-round-live", "apiUrl": "https://content.guardianapis.com/football/live/2016/jan/30/liverpool-v-west-ham-united-fa-cup-fourth-round-live", "isHosted": false, "pillarId": "pillar/sport", "pillarName": "Sport"}, {"id": "football/2016/jan/30/dundee-motherwell-rangers-scottish-premiership", "type": "article", "sectionId": "football", "sectionName": "Football", "webPublicationDate": "2016-01-30T19:14:12Z", "webTitle": "Scottish roundup: Kane Hemmings\u2019 late penalty earns draw for Dundee", "webUrl": "https://www.theguardian.com/football/2016/jan/30/dundee-motherwell-rangers-scottish-premiership", "apiUrl": "https://content.guardianapis.com/football/2016/jan/30/dundee-motherwell-rangers-scottish-premiership", "isHosted": false, "pillarId": "pillar/sport", "pillarName": "Sport"}, {"id": "football/2016/jan/30/hibernian-st-johnstone-scottish-league-cup-match-report", "type": "article", "sectionId": "football", "sectionName": "Football", "webPublicationDate": "2016-01-30T17:36:00Z", "webTitle": "John McGinn scores the winner to steer superior Hibs past St Johnstone", "webUrl": "https://www.theguardian.com/football/2016/jan/30/hibernian-st-johnstone-scottish-league-cup-match-report", "apiUrl": "https://content.guardianapis.com/football/2016/jan/30/hibernian-st-johnstone-scottish-league-cup-match-report", "isHosted": false, "pillarId": "pillar/sport", "pillarName": "Sport"}, {"id": "football/2016/jan/30/barcelona-atletico-madrid-la-liga-match-report", "type": "article", "sectionId": "football", "sectionName": "Football", "webPublicationDate": "2016-01-30T17:29:58Z", "webTitle": "Barcelona hold off nine-man Atl\u00e9tico Madrid to climb clear in La Liga", "webUrl": "https://www.theguardian.com/football/2016/jan/30/barcelona-atletico-madrid-la-liga-match-report", "apiUrl": "https://content.guardianapis.com/football/2016/jan/30/barcelona-atletico-madrid-la-liga-match-report", "isHosted": false, "pillarId": "pillar/sport", "pillarName": "Sport"}, {"id": "football/2016/jan/30/arsenal-burnley-fa-cup-match-report", "type": "article", "sectionId": "football", "sectionName": "Football", "webPublicationDate": "2016-01-30T17:17:03Z", "webTitle": "Clinical Alexis S\u00e1nchez on target as Arsenal punish Burnley in FA Cup", "webUrl": "https://www.theguardian.com/football/2016/jan/30/arsenal-burnley-fa-cup-match-report", "apiUrl": "https://content.guardianapis.com/football/2016/jan/30/arsenal-burnley-fa-cup-match-report", "isHosted": false, "pillarId": "pillar/sport", "pillarName": "Sport"}, {"id": "football/2016/jan/30/aston-villa-manchester-city-fa-cup-match-report", "type": "article", "sectionId": "football", "sectionName": "Football", "webPublicationDate": "2016-01-30T17:13:28Z", "webTitle": "Manchester City thrash Aston Villa as Kelechi Iheanacho hits hat-trick", "webUrl": "https://www.theguardian.com/football/2016/jan/30/aston-villa-manchester-city-fa-cup-match-report", "apiUrl": "https://content.guardianapis.com/football/2016/jan/30/aston-villa-manchester-city-fa-cup-match-report", "isHosted": false, "pillarId": "pillar/sport", "pillarName": "Sport"}, {"id": "football/2016/jan/30/oxford-united-blackburn-rovers-fa-cup-ben-marshall", "type": "article", "sectionId": "football", "sectionName": "Football", "webPublicationDate": "2016-01-30T17:13:07Z", "webTitle": "Blackburn\u2019s FA Cup run continues as Ben Marshall double sinks Oxford", "webUrl": "https://www.theguardian.com/football/2016/jan/30/oxford-united-blackburn-rovers-fa-cup-ben-marshall", "apiUrl": "https://content.guardianapis.com/football/2016/jan/30/oxford-united-blackburn-rovers-fa-cup-ben-marshall", "isHosted": false, "pillarId": "pillar/sport", "pillarName": "Sport"}, {"id": "football/2016/jan/30/west-brom-peterborough-fa-cup-match-report", "type": "article", "sectionId": "football", "sectionName": "Football", "webPublicationDate": "2016-01-30T17:09:50Z", "webTitle": "Saido Berahino bags brace but Posh secure replay with late equaliser", "webUrl": "https://www.theguardian.com/football/2016/jan/30/west-brom-peterborough-fa-cup-match-report", "apiUrl": "https://content.guardianapis.com/football/2016/jan/30/west-brom-peterborough-fa-cup-match-report", "isHosted": false, "pillarId": "pillar/sport", "pillarName": "Sport"}, {"id": "football/2016/jan/30/nottingham-forest-watford-fa-cup-match-report", "type": "article", "sectionId": "football", "sectionName": "Football", "webPublicationDate": "2016-01-30T17:09:03Z", "webTitle": "Watford\u2019s Odion Ighalo strikes late to end Nottingham Forest Cup dream", "webUrl": "https://www.theguardian.com/football/2016/jan/30/nottingham-forest-watford-fa-cup-match-report", "apiUrl": "https://content.guardianapis.com/football/2016/jan/30/nottingham-forest-watford-fa-cup-match-report", "isHosted": false, "pillarId": "pillar/sport", "pillarName": "Sport"}, {"id": "football/live/2016/jan/30/arsenal-v-burnley-manchester-city-v-aston-villa-and-more-fa-cup-clockwatch-live", "type": "liveblog", "sectionId": "football", "sectionName": "Football", "webPublicationDate": "2016-01-30T17:06:57Z", "webTitle": "Arsenal 2-1 Burnley, Aston Villa 0-4 Man City and more: FA Cup clockwatch - as it happened", "webUrl": "https://www.theguardian.com/football/live/2016/jan/30/arsenal-v-burnley-manchester-city-v-aston-villa-and-more-fa-cup-clockwatch-live", "apiUrl": "https://content.guardianapis.com/football/live/2016/jan/30/arsenal-v-burnley-manchester-city-v-aston-villa-and-more-fa-cup-clockwatch-live", "isHosted": false, "pillarId": "pillar/sport", "pillarName": "Sport"}, {"id": "football/2016/jan/30/portsmouth-bournemouth-fa-cup-match-report", "type": "article", "sectionId": "football", "sectionName": "Football", "webPublicationDate": "2016-01-30T17:04:55Z", "webTitle": "Bournemouth have Marc Pugh to thank after late show sinks Portsmouth", "webUrl": "https://www.theguardian.com/football/2016/jan/30/portsmouth-bournemouth-fa-cup-match-report", "apiUrl": "https://content.guardianapis.com/football/2016/jan/30/portsmouth-bournemouth-fa-cup-match-report", "isHosted": false, "pillarId": "pillar/sport", "pillarName": "Sport"}, {"id": "football/live/2016/jan/30/barcelona-v-atletico-madrid-la-liga-live", "type": "liveblog", "sectionId": "football", "sectionName": "Football", "webPublicationDate": "2016-01-30T17:00:15Z", "webTitle": "Barcelona 2-1 Atl\u00e9tico Madrid: La Liga \u2013 as it happened", "webUrl": "https://www.theguardian.com/football/live/2016/jan/30/barcelona-v-atletico-madrid-la-liga-live", "apiUrl": "https://content.guardianapis.com/football/live/2016/jan/30/barcelona-v-atletico-madrid-la-liga-live", "isHosted": false, "pillarId": "pillar/sport", "pillarName": "Sport"}, {"id": "football/2016/jan/30/carlisle-united-keith-curle-fa-cup", "type": "article", "sectionId": "football", "sectionName": "Football", "webPublicationDate": "2016-01-30T16:01:28Z", "webTitle": "Have no fear, Carlisle United\u2019s Keith Curle has FA Cup upset in mind | Louise Taylor", "webUrl": "https://www.theguardian.com/football/2016/jan/30/carlisle-united-keith-curle-fa-cup", "apiUrl": "https://content.guardianapis.com/football/2016/jan/30/carlisle-united-keith-curle-fa-cup", "isHosted": false, "pillarId": "pillar/sport", "pillarName": "Sport"}, {"id": "football/2016/jan/30/colchester-tottenham-hotspur-fa-cup", "type": "article", "sectionId": "football", "sectionName": "Football", "webPublicationDate": "2016-01-30T14:50:53Z", "webTitle": "Nacer Chadli\u2019s goals inspire Spurs to comfortable win over Colchester", "webUrl": "https://www.theguardian.com/football/2016/jan/30/colchester-tottenham-hotspur-fa-cup", "apiUrl": "https://content.guardianapis.com/football/2016/jan/30/colchester-tottenham-hotspur-fa-cup", "isHosted": false, "pillarId": "pillar/sport", "pillarName": "Sport"}, {"id": "football/live/2016/jan/30/colchester-united-v-tottenham-hotspur-fa-cup-fourth-round-live", "type": "liveblog", "sectionId": "football", "sectionName": "Football", "webPublicationDate": "2016-01-30T14:41:43Z", "webTitle": "Colchester United 1-4 Tottenham Hotspur: FA Cup fourth round \u2013 live!", "webUrl": "https://www.theguardian.com/football/live/2016/jan/30/colchester-united-v-tottenham-hotspur-fa-cup-fourth-round-live", "apiUrl": "https://content.guardianapis.com/football/live/2016/jan/30/colchester-united-v-tottenham-hotspur-fa-cup-fourth-round-live", "isHosted": false, "pillarId": "pillar/sport", "pillarName": "Sport"}, {"id": "football/2016/jan/30/chelsea-confirm-signing-matt-miazga", "type": "article", "sectionId": "football", "sectionName": "Football", "webPublicationDate": "2016-01-30T14:32:12Z", "webTitle": "Chelsea confirm signing of Matt Miazga from New York Red Bulls", "webUrl": "https://www.theguardian.com/football/2016/jan/30/chelsea-confirm-signing-matt-miazga", "apiUrl": "https://content.guardianapis.com/football/2016/jan/30/chelsea-confirm-signing-matt-miazga", "isHosted": false, "pillarId": "pillar/sport", "pillarName": "Sport"}, {"id": "football/2016/jan/30/moussa-dembele-tottenham-6m-transfer-fulham-loan-end-of-season", "type": "article", "sectionId": "football", "sectionName": "Football", "webPublicationDate": "2016-01-30T12:44:09Z", "webTitle": "Moussa Demb\u00e9l\u00e9 to have Tottenham medical before \u00a36m move from Fulham", "webUrl": "https://www.theguardian.com/football/2016/jan/30/moussa-dembele-tottenham-6m-transfer-fulham-loan-end-of-season", "apiUrl": "https://content.guardianapis.com/football/2016/jan/30/moussa-dembele-tottenham-6m-transfer-fulham-loan-end-of-season", "isHosted": false, "pillarId": "pillar/sport", "pillarName": "Sport"}, {"id": "sport/2016/jan/30/gifs-giving-pinball-wipeout-pool-headers-volleys", "type": "article", "sectionId": "sport", "sectionName": "Sport", "webPublicationDate": "2016-01-30T09:45:21Z", "webTitle": "The gifs that keep on giving: pinball, wipeout, pool and headers and volleys", "webUrl": "https://www.theguardian.com/sport/2016/jan/30/gifs-giving-pinball-wipeout-pool-headers-volleys", "apiUrl": "https://content.guardianapis.com/sport/2016/jan/30/gifs-giving-pinball-wipeout-pool-headers-volleys", "isHosted": false, "pillarId": "pillar/sport", "pillarName": "Sport"}, {"id": "football/2016/jan/30/louis-van-gaal-manchester-united-derby-county-fa-cup-fourth-round", "type": "article", "sectionId": "football", "sectionName": "Football", "webPublicationDate": "2016-01-30T00:13:48Z", "webTitle": "Louis van Gaal looks forward to bottle of wine after win over Derby", "webUrl": "https://www.theguardian.com/football/2016/jan/30/louis-van-gaal-manchester-united-derby-county-fa-cup-fourth-round", "apiUrl": "https://content.guardianapis.com/football/2016/jan/30/louis-van-gaal-manchester-united-derby-county-fa-cup-fourth-round", "isHosted": false, "pillarId": "pillar/sport", "pillarName": "Sport"}, {"id": "football/blog/2016/jan/29/juan-mata-louis-van-gaal-manchester-united-derby-county-fa-cup", "type": "article", "sectionId": "football", "sectionName": "Football", "webPublicationDate": "2016-01-29T23:36:26Z", "webTitle": "Juan Mata makes the most of his chance to shine and boost Louis van Gaal | Peter Lansley", "webUrl": "https://www.theguardian.com/football/blog/2016/jan/29/juan-mata-louis-van-gaal-manchester-united-derby-county-fa-cup", "apiUrl": "https://content.guardianapis.com/football/blog/2016/jan/29/juan-mata-louis-van-gaal-manchester-united-derby-county-fa-cup", "isHosted": false, "pillarId": "pillar/sport", "pillarName": "Sport"}, {"id": "football/2016/jan/29/mohamed-elneny-arsenal-jean-tigana-arsene-wenger", "type": "article", "sectionId": "football", "sectionName": "Football", "webPublicationDate": "2016-01-29T22:30:07Z", "webTitle": "Mohamed Elneny can be Arsenal\u2019s Jean Tigana, says Ars\u00e8ne Wenger", "webUrl": "https://www.theguardian.com/football/2016/jan/29/mohamed-elneny-arsenal-jean-tigana-arsene-wenger", "apiUrl": "https://content.guardianapis.com/football/2016/jan/29/mohamed-elneny-arsenal-jean-tigana-arsene-wenger", "isHosted": false, "pillarId": "pillar/sport", "pillarName": "Sport"}, {"id": "football/2016/jan/29/manuel-pellegrini-manchester-city-kevin-de-bruyne", "type": "article", "sectionId": "football", "sectionName": "Football", "webPublicationDate": "2016-01-29T22:30:07Z", "webTitle": "Manuel Pellegrini wants more from City\u2019s forwards in De Bruyne absence", "webUrl": "https://www.theguardian.com/football/2016/jan/29/manuel-pellegrini-manchester-city-kevin-de-bruyne", "apiUrl": "https://content.guardianapis.com/football/2016/jan/29/manuel-pellegrini-manchester-city-kevin-de-bruyne", "isHosted": false, "pillarId": "pillar/sport", "pillarName": "Sport"}, {"id": "football/2016/jan/29/sevilla-loan-move-everton-aiden-mcgeady-roberto-martinez-transfer-deadline", "type": "article", "sectionId": "football", "sectionName": "Football", "webPublicationDate": "2016-01-29T22:30:07Z", "webTitle": "Sevilla make move loan for Everton midfielder Aiden McGeady", "webUrl": "https://www.theguardian.com/football/2016/jan/29/sevilla-loan-move-everton-aiden-mcgeady-roberto-martinez-transfer-deadline", "apiUrl": "https://content.guardianapis.com/football/2016/jan/29/sevilla-loan-move-everton-aiden-mcgeady-roberto-martinez-transfer-deadline", "isHosted": false, "pillarId": "pillar/sport", "pillarName": "Sport"}, {"id": "football/2016/jan/29/paul-cook-portsmouth-fa-cup-bournemouth", "type": "article", "sectionId": "football", "sectionName": "Football", "webPublicationDate": "2016-01-29T22:30:07Z", "webTitle": "Paul Cook hungers for revamped Portsmouth to regain place in big time", "webUrl": "https://www.theguardian.com/football/2016/jan/29/paul-cook-portsmouth-fa-cup-bournemouth", "apiUrl": "https://content.guardianapis.com/football/2016/jan/29/paul-cook-portsmouth-fa-cup-bournemouth", "isHosted": false, "pillarId": "pillar/sport", "pillarName": "Sport"}, {"id": "football/2016/jan/29/liverpool-west-ham-fa-cup-jurgen-klopp", "type": "article", "sectionId": "football", "sectionName": "Football", "webPublicationDate": "2016-01-29T22:29:07Z", "webTitle": "J\u00fcrgen Klopp will not hammer his players against West Ham in FA Cup", "webUrl": "https://www.theguardian.com/football/2016/jan/29/liverpool-west-ham-fa-cup-jurgen-klopp", "apiUrl": "https://content.guardianapis.com/football/2016/jan/29/liverpool-west-ham-fa-cup-jurgen-klopp", "isHosted": false, "pillarId": "pillar/sport", "pillarName": "Sport"}, {"id": "football/2016/jan/29/jack-wilshere-arsenal-arsene-wenger-england-euro-2016", "type": "article", "sectionId": "football", "sectionName": "Football", "webPublicationDate": "2016-01-29T22:29:07Z", "webTitle": "Jack Wilshere\u2019s Arsenal return put back to mid-March by Ars\u00e8ne Wenger", "webUrl": "https://www.theguardian.com/football/2016/jan/29/jack-wilshere-arsenal-arsene-wenger-england-euro-2016", "apiUrl": "https://content.guardianapis.com/football/2016/jan/29/jack-wilshere-arsenal-arsene-wenger-england-euro-2016", "isHosted": false, "pillarId": "pillar/sport", "pillarName": "Sport"}, {"id": "football/2016/jan/29/guus-hiddink-alexandre-pato-chelsea-loan", "type": "article", "sectionId": "football", "sectionName": "Football", "webPublicationDate": "2016-01-29T22:29:07Z", "webTitle": "Chelsea\u2019s Guus Hiddink says Alexandre Pato must prove \u2018desire\u2019 after joining on loan", "webUrl": "https://www.theguardian.com/football/2016/jan/29/guus-hiddink-alexandre-pato-chelsea-loan", "apiUrl": "https://content.guardianapis.com/football/2016/jan/29/guus-hiddink-alexandre-pato-chelsea-loan", "isHosted": false, "pillarId": "pillar/sport", "pillarName": "Sport"}, {"id": "football/2016/jan/29/derby-county-manchester-united-fa-cup-match-report", "type": "article", "sectionId": "football", "sectionName": "Football", "webPublicationDate": "2016-01-29T22:01:14Z", "webTitle": "Manchester United ease pressure on Louis van Gaal with FA Cup win at Derby", "webUrl": "https://www.theguardian.com/football/2016/jan/29/derby-county-manchester-united-fa-cup-match-report", "apiUrl": "https://content.guardianapis.com/football/2016/jan/29/derby-county-manchester-united-fa-cup-match-report", "isHosted": false, "pillarId": "pillar/sport", "pillarName": "Sport"}, {"id": "football/live/2016/jan/29/derby-county-v-manchester-united-fa-cup-fourth-round-live", "type": "liveblog", "sectionId": "football", "sectionName": "Football", "webPublicationDate": "2016-01-29T21:48:35Z", "webTitle": "Derby County v Manchester United: FA Cup fourth round \u2013 as it happened", "webUrl": "https://www.theguardian.com/football/live/2016/jan/29/derby-county-v-manchester-united-fa-cup-fourth-round-live", "apiUrl": "https://content.guardianapis.com/football/live/2016/jan/29/derby-county-v-manchester-united-fa-cup-fourth-round-live", "isHosted": false, "pillarId": "pillar/sport", "pillarName": "Sport"}, {"id": "football/2016/jan/29/greg-dyke-fa-chairman-reform", "type": "article", "sectionId": "football", "sectionName": "Football", "webPublicationDate": "2016-01-29T19:43:54Z", "webTitle": "Greg Dyke, outgoing FA chairman, is determined to drive through reform", "webUrl": "https://www.theguardian.com/football/2016/jan/29/greg-dyke-fa-chairman-reform", "apiUrl": "https://content.guardianapis.com/football/2016/jan/29/greg-dyke-fa-chairman-reform", "isHosted": false, "pillarId": "pillar/sport", "pillarName": "Sport"}, {"id": "football/2016/jan/29/oxford-united-blackburn-rovers-match-preview", "type": "article", "sectionId": "football", "sectionName": "Football", "webPublicationDate": "2016-01-29T18:28:13Z", "webTitle": "Oxford United v Blackburn Rovers: match preview", "webUrl": "https://www.theguardian.com/football/2016/jan/29/oxford-united-blackburn-rovers-match-preview", "apiUrl": "https://content.guardianapis.com/football/2016/jan/29/oxford-united-blackburn-rovers-match-preview", "isHosted": false, "pillarId": "pillar/sport", "pillarName": "Sport"}, {"id": "football/2016/jan/29/nottingham-forest-watford-match-preview", "type": "article", "sectionId": "football", "sectionName": "Football", "webPublicationDate": "2016-01-29T17:59:05Z", "webTitle": "Nottingham Forest v Watford: match preview", "webUrl": "https://www.theguardian.com/football/2016/jan/29/nottingham-forest-watford-match-preview", "apiUrl": "https://content.guardianapis.com/football/2016/jan/29/nottingham-forest-watford-match-preview", "isHosted": false, "pillarId": "pillar/sport", "pillarName": "Sport"}, {"id": "football/2016/jan/29/milton-keynes-dons-chelsea-match-preview", "type": "article", "sectionId": "football", "sectionName": "Football", "webPublicationDate": "2016-01-29T17:29:30Z", "webTitle": "MK Dons v Chelsea: match preview", "webUrl": "https://www.theguardian.com/football/2016/jan/29/milton-keynes-dons-chelsea-match-preview", "apiUrl": "https://content.guardianapis.com/football/2016/jan/29/milton-keynes-dons-chelsea-match-preview", "isHosted": false, "pillarId": "pillar/sport", "pillarName": "Sport"}, {"id": "football/2016/jan/29/aston-villa-manchester-city-match-preview", "type": "article", "sectionId": "football", "sectionName": "Football", "webPublicationDate": "2016-01-29T17:19:40Z", "webTitle": "Aston Villa v Manchester City: match preview", "webUrl": "https://www.theguardian.com/football/2016/jan/29/aston-villa-manchester-city-match-preview", "apiUrl": "https://content.guardianapis.com/football/2016/jan/29/aston-villa-manchester-city-match-preview", "isHosted": false, "pillarId": "pillar/sport", "pillarName": "Sport"}, {"id": "football/live/2016/jan/29/transfer-window-emenike-dembele-and-more-live", "type": "liveblog", "sectionId": "football", "sectionName": "Football", "webPublicationDate": "2016-01-29T17:19:14Z", "webTitle": "Transfer window: Khazri, Demb\u00e9l\u00e9 and more \u2013 as it happened", "webUrl": "https://www.theguardian.com/football/live/2016/jan/29/transfer-window-emenike-dembele-and-more-live", "apiUrl": "https://content.guardianapis.com/football/live/2016/jan/29/transfer-window-emenike-dembele-and-more-live", "isHosted": false, "pillarId": "pillar/sport", "pillarName": "Sport"}, {"id": "football/2016/jan/29/portsmouth-bournemouth-match-preview", "type": "article", "sectionId": "football", "sectionName": "Football", "webPublicationDate": "2016-01-29T17:05:12Z", "webTitle": "Portsmouth v Bournemouth: match preview", "webUrl": "https://www.theguardian.com/football/2016/jan/29/portsmouth-bournemouth-match-preview", "apiUrl": "https://content.guardianapis.com/football/2016/jan/29/portsmouth-bournemouth-match-preview", "isHosted": false, "pillarId": "pillar/sport", "pillarName": "Sport"}, {"id": "football/2016/jan/29/the-fiver-fa-cup-manchester-united-derby", "type": "article", "sectionId": "football", "sectionName": "Football", "webPublicationDate": "2016-01-29T16:57:28Z", "webTitle": "The Fiver | The sensation of the sharp stick", "webUrl": "https://www.theguardian.com/football/2016/jan/29/the-fiver-fa-cup-manchester-united-derby", "apiUrl": "https://content.guardianapis.com/football/2016/jan/29/the-fiver-fa-cup-manchester-united-derby", "isHosted": false, "pillarId": "pillar/sport", "pillarName": "Sport"}, {"id": "football/2016/jan/29/real-madrid-new-kit-deal-adidas-1bn", "type": "article", "sectionId": "football", "sectionName": "Football", "webPublicationDate": "2016-01-29T16:52:10Z", "webTitle": "Real Madrid poised to announce football\u2019s first \u00a31bn kit deal with Adidas", "webUrl": "https://www.theguardian.com/football/2016/jan/29/real-madrid-new-kit-deal-adidas-1bn", "apiUrl": "https://content.guardianapis.com/football/2016/jan/29/real-madrid-new-kit-deal-adidas-1bn", "isHosted": false, "pillarId": "pillar/sport", "pillarName": "Sport"}, {"id": "football/2016/jan/29/reading-walsall-match-preview", "type": "article", "sectionId": "football", "sectionName": "Football", "webPublicationDate": "2016-01-29T16:28:12Z", "webTitle": "Reading v Walsall: match preview", "webUrl": "https://www.theguardian.com/football/2016/jan/29/reading-walsall-match-preview", "apiUrl": "https://content.guardianapis.com/football/2016/jan/29/reading-walsall-match-preview", "isHosted": false, "pillarId": "pillar/sport", "pillarName": "Sport"}, {"id": "football/2016/jan/29/peter-baker", "type": "article", "sectionId": "football", "sectionName": "Football", "webPublicationDate": "2016-01-29T16:18:43Z", "webTitle": "Peter Baker obituary", "webUrl": "https://www.theguardian.com/football/2016/jan/29/peter-baker", "apiUrl": "https://content.guardianapis.com/football/2016/jan/29/peter-baker", "isHosted": false, "pillarId": "pillar/sport", "pillarName": "Sport"}, {"id": "football/2016/jan/29/bury-hull-city-match-preview", "type": "article", "sectionId": "football", "sectionName": "Football", "webPublicationDate": "2016-01-29T16:18:07Z", "webTitle": "Bury v Hull City: match preview", "webUrl": "https://www.theguardian.com/football/2016/jan/29/bury-hull-city-match-preview", "apiUrl": "https://content.guardianapis.com/football/2016/jan/29/bury-hull-city-match-preview", "isHosted": false, "pillarId": "pillar/sport", "pillarName": "Sport"}]}}