{"response": {"status": "ok", "userTier": "developer", "total": 81028, "startIndex": 1, "pageSize": 50, "currentPage": 1, "pages": 1621, "orderBy": "newest", "results": [{"id": "sport/gallery/2010/jan/30/premierleague-wayne-rooney", "type": "gallery", "sectionId": "sport", "sectionName": "Sport", "webPublicationDate": "2010-01-30T21:40:17Z", "webTitle": "Football: Wayne Rooney's top 10 Premier League goals", "webUrl": "https://www.theguardian.com/sport/gallery/2010/jan/30/premierleague-wayne-rooney", "apiUrl": "https://content.guardianapis.com/sport/gallery/2010/jan/30/premierleague-wayne-rooney", "isHosted": false, "pillarId": "pillar/sport", "pillarName": "Sport"}, {"id": "global/2010/jan/30/crystal-palace-peterborough-championship", "type": "article", "sectionId": "football", "sectionName": "Football", "webPublicationDate": "2010-01-30T20:07:18Z", "webTitle": "Neil Danns adds a little gloss to Palace's miserable week", "webUrl": "https://www.theguardian.com/global/2010/jan/30/crystal-palace-peterborough-championship", "apiUrl": "https://content.guardianapis.com/global/2010/jan/30/crystal-palace-peterborough-championship", "isHosted": false, "pillarId": "pillar/sport", "pillarName": "Sport"}, {"id": "football/2010/jan/30/rangers-falkirk-scottish-premier-league", "type": "article", "sectionId": "football", "sectionName": "Football", "webPublicationDate": "2010-01-30T18:08:53Z", "webTitle": "Steven Davis steers Rangers to victory against Falkirk", "webUrl": "https://www.theguardian.com/football/2010/jan/30/rangers-falkirk-scottish-premier-league", "apiUrl": "https://content.guardianapis.com/football/2010/jan/30/rangers-falkirk-scottish-premier-league", "isHosted": false, "pillarId": "pillar/sport", "pillarName": "Sport"}, {"id": "football/2010/jan/30/wigan-athletic-everton-premier-league", "type": "article", "sectionId": "football", "sectionName": "Football", "webPublicationDate": "2010-01-30T17:13:37Z", "webTitle": "Wigan Athletic 0-1 Everton | Premier League match report", "webUrl": "https://www.theguardian.com/football/2010/jan/30/wigan-athletic-everton-premier-league", "apiUrl": "https://content.guardianapis.com/football/2010/jan/30/wigan-athletic-everton-premier-league", "isHosted": false, "pillarId": "pillar/sport", "pillarName": "Sport"}, {"id": "football/2010/jan/30/birmingham-city-tottenham-premier-league", "type": "article", "sectionId": "football", "sectionName": "Football", "webPublicationDate": "2010-01-30T17:11:00Z", "webTitle": "Birmingham City 1-1 Tottenham Hotspur | Premier League match report", "webUrl": "https://www.theguardian.com/football/2010/jan/30/birmingham-city-tottenham-premier-league", "apiUrl": "https://content.guardianapis.com/football/2010/jan/30/birmingham-city-tottenham-premier-league", "isHosted": false, "pillarId": "pillar/sport", "pillarName": "Sport"}, {"id": "football/2010/jan/30/hull-city-wolverhampton-wanderers-premier-league", "type": "article", "sectionId": "football", "sectionName": "Football", "webPublicationDate": "2010-01-30T17:09:53Z", "webTitle": "Hull City 2-2 Wolverhampton Wanderers | Premier League match report", "webUrl": "https://www.theguardian.com/football/2010/jan/30/hull-city-wolverhampton-wanderers-premier-league", "apiUrl": "https://content.guardianapis.com/football/2010/jan/30/hull-city-wolverhampton-wanderers-premier-league", "isHosted": false, "pillarId": "pillar/sport", "pillarName": "Sport"}, {"id": "football/2010/jan/30/liverpool-bolton-premier-league", "type": "article", "sectionId": "football", "sectionName": "Football", "webPublicationDate": "2010-01-30T17:02:23Z", "webTitle": "Liverpool 2-0 Bolton Wanderers | Premier League match report", "webUrl": "https://www.theguardian.com/football/2010/jan/30/liverpool-bolton-premier-league", "apiUrl": "https://content.guardianapis.com/football/2010/jan/30/liverpool-bolton-premier-league", "isHosted": false, "pillarId": "pillar/sport", "pillarName": "Sport"}, {"id": "football/2010/jan/30/derby-county-nottingham-forest-championship", "type": "article", "sectionId": "football", "sectionName": "Football", "webPublicationDate": "2010-01-30T15:44:19Z", "webTitle": "Derby County 1-0 Nottingham Forest | Championship", "webUrl": "https://www.theguardian.com/football/2010/jan/30/derby-county-nottingham-forest-championship", "apiUrl": "https://content.guardianapis.com/football/2010/jan/30/derby-county-nottingham-forest-championship", "isHosted": false, "pillarId": "pillar/sport", "pillarName": "Sport"}, {"id": "media/2010/jan/29/premier-league-footballer-gagging-order", "type": "article", "sectionId": "media", "sectionName": "Media", "webPublicationDate": "2010-01-30T12:20:00Z", "webTitle": "High court overturns superinjunction granted to England captain John Terry", "webUrl": "https://www.theguardian.com/media/2010/jan/29/premier-league-footballer-gagging-order", "apiUrl": "https://content.guardianapis.com/media/2010/jan/29/premier-league-footballer-gagging-order", "isHosted": false, "pillarId": "pillar/news", "pillarName": "News"}, {"id": "football/2010/jan/30/burnley-chelsea-live", "type": "article", "sectionId": "football", "sectionName": "Football", "webPublicationDate": "2010-01-30T11:09:10Z", "webTitle": "Burnley v Chelsea - as it happened | Scott Murray", "webUrl": "https://www.theguardian.com/football/2010/jan/30/burnley-chelsea-live", "apiUrl": "https://content.guardianapis.com/football/2010/jan/30/burnley-chelsea-live", "isHosted": false, "pillarId": "pillar/sport", "pillarName": "Sport"}, {"id": "football/2010/jan/30/saturday-clockwatch", "type": "article", "sectionId": "football", "sectionName": "Football", "webPublicationDate": "2010-01-30T10:57:22Z", "webTitle": "Saturday clockwatch - as it happened | Alan Gardner", "webUrl": "https://www.theguardian.com/football/2010/jan/30/saturday-clockwatch", "apiUrl": "https://content.guardianapis.com/football/2010/jan/30/saturday-clockwatch", "isHosted": false, "pillarId": "pillar/sport", "pillarName": "Sport"}, {"id": "football/blog/2010/jan/30/crystal-palace-football-finances", "type": "article", "sectionId": "football", "sectionName": "Football", "webPublicationDate": "2010-01-30T00:11:32Z", "webTitle": "Crystal Palace's troubles strike a blow to everyone in the English game", "webUrl": "https://www.theguardian.com/football/blog/2010/jan/30/crystal-palace-football-finances", "apiUrl": "https://content.guardianapis.com/football/blog/2010/jan/30/crystal-palace-football-finances", "isHosted": false, "pillarId": "pillar/sport", "pillarName": "Sport"}, {"id": "football/2010/jan/30/david-moyes-everton", "type": "article", "sectionId": "football", "sectionName": "Football", "webPublicationDate": "2010-01-30T00:11:05Z", "webTitle": "David Moyes says Everton can still qualify for Europe", "webUrl": "https://www.theguardian.com/football/2010/jan/30/david-moyes-everton", "apiUrl": "https://content.guardianapis.com/football/2010/jan/30/david-moyes-everton", "isHosted": false, "pillarId": "pillar/sport", "pillarName": "Sport"}, {"id": "football/2010/jan/30/birmingham-roman-pavlychenko-tottenham", "type": "article", "sectionId": "football", "sectionName": "Football", "webPublicationDate": "2010-01-30T00:10:04Z", "webTitle": "Birmingham's \u00a310m bid for Roman Pavlyuchenko rejected by Tottenham", "webUrl": "https://www.theguardian.com/football/2010/jan/30/birmingham-roman-pavlychenko-tottenham", "apiUrl": "https://content.guardianapis.com/football/2010/jan/30/birmingham-roman-pavlychenko-tottenham", "isHosted": false, "pillarId": "pillar/sport", "pillarName": "Sport"}, {"id": "football/2010/jan/30/martin-oneill-arsene-wenger", "type": "article", "sectionId": "football", "sectionName": "Football", "webPublicationDate": "2010-01-30T00:10:04Z", "webTitle": "Angry Martin O'Neill tells Ars\u00e8ne Wenger to keep opinions to himself", "webUrl": "https://www.theguardian.com/football/2010/jan/30/martin-oneill-arsene-wenger", "apiUrl": "https://content.guardianapis.com/football/2010/jan/30/martin-oneill-arsene-wenger", "isHosted": false, "pillarId": "pillar/sport", "pillarName": "Sport"}, {"id": "football/2010/jan/30/rafael-benitez-liverpool", "type": "article", "sectionId": "football", "sectionName": "Football", "webPublicationDate": "2010-01-30T00:10:03Z", "webTitle": "Rafael Ben\u00edtez 'proud' of Juventus link as summer move looks possible", "webUrl": "https://www.theguardian.com/football/2010/jan/30/rafael-benitez-liverpool", "apiUrl": "https://content.guardianapis.com/football/2010/jan/30/rafael-benitez-liverpool", "isHosted": false, "pillarId": "pillar/sport", "pillarName": "Sport"}, {"id": "football/blog/2010/jan/30/arsene-wenger-arsenal", "type": "article", "sectionId": "football", "sectionName": "Football", "webPublicationDate": "2010-01-30T00:10:03Z", "webTitle": "Ars\u00e8ne Wenger occupies a unique position in the Premier League", "webUrl": "https://www.theguardian.com/football/blog/2010/jan/30/arsene-wenger-arsenal", "apiUrl": "https://content.guardianapis.com/football/blog/2010/jan/30/arsene-wenger-arsenal", "isHosted": false, "pillarId": "pillar/sport", "pillarName": "Sport"}, {"id": "football/2010/jan/30/egypt-ghana-africa-cup-of-nations", "type": "article", "sectionId": "football", "sectionName": "Football", "webPublicationDate": "2010-01-30T00:07:12Z", "webTitle": "Inspirational Hassan Shehata homes in on hat-trick for Egypt", "webUrl": "https://www.theguardian.com/football/2010/jan/30/egypt-ghana-africa-cup-of-nations", "apiUrl": "https://content.guardianapis.com/football/2010/jan/30/egypt-ghana-africa-cup-of-nations", "isHosted": false, "pillarId": "pillar/sport", "pillarName": "Sport"}, {"id": "football/2010/jan/29/sir-alex-ferguson-arsene-wenger-disagreement", "type": "article", "sectionId": "football", "sectionName": "Football", "webPublicationDate": "2010-01-29T23:00:01Z", "webTitle": "Sir Alex Ferguson defends Darren Fletcher over 'anti-football' slur", "webUrl": "https://www.theguardian.com/football/2010/jan/29/sir-alex-ferguson-arsene-wenger-disagreement", "apiUrl": "https://content.guardianapis.com/football/2010/jan/29/sir-alex-ferguson-arsene-wenger-disagreement", "isHosted": false, "pillarId": "pillar/sport", "pillarName": "Sport"}, {"id": "football/2010/jan/29/arsene-wenger-arsenal-wayne-rooney", "type": "article", "sectionId": "football", "sectionName": "Football", "webPublicationDate": "2010-01-29T22:30:01Z", "webTitle": "Ars\u00e8ne Wenger has no fears over Sol Campbell's duel with Wayne Rooney", "webUrl": "https://www.theguardian.com/football/2010/jan/29/arsene-wenger-arsenal-wayne-rooney", "apiUrl": "https://content.guardianapis.com/football/2010/jan/29/arsene-wenger-arsenal-wayne-rooney", "isHosted": false, "pillarId": "pillar/sport", "pillarName": "Sport"}, {"id": "football/2010/jan/29/carlo-ancelotti-chelsea", "type": "article", "sectionId": "football", "sectionName": "Football", "webPublicationDate": "2010-01-29T22:30:01Z", "webTitle": "My Chelsea players are over 30, not over the hill, says Carlo Ancelotti", "webUrl": "https://www.theguardian.com/football/2010/jan/29/carlo-ancelotti-chelsea", "apiUrl": "https://content.guardianapis.com/football/2010/jan/29/carlo-ancelotti-chelsea", "isHosted": false, "pillarId": "pillar/sport", "pillarName": "Sport"}, {"id": "football/2010/jan/29/celtic-tony-mowbray", "type": "article", "sectionId": "football", "sectionName": "Football", "webPublicationDate": "2010-01-29T22:00:00Z", "webTitle": "Tony Mowbray evokes Alex Ferguson's approach in Celtic long-term plan", "webUrl": "https://www.theguardian.com/football/2010/jan/29/celtic-tony-mowbray", "apiUrl": "https://content.guardianapis.com/football/2010/jan/29/celtic-tony-mowbray", "isHosted": false, "pillarId": "pillar/sport", "pillarName": "Sport"}, {"id": "football/2010/jan/29/aaron-lennon-tottenham-hotspur", "type": "article", "sectionId": "football", "sectionName": "Football", "webPublicationDate": "2010-01-29T20:14:14Z", "webTitle": "Tottenham's Aaron Lennon faces surgery dilemma", "webUrl": "https://www.theguardian.com/football/2010/jan/29/aaron-lennon-tottenham-hotspur", "apiUrl": "https://content.guardianapis.com/football/2010/jan/29/aaron-lennon-tottenham-hotspur", "isHosted": false, "pillarId": "pillar/sport", "pillarName": "Sport"}, {"id": "football/2010/jan/29/arsenal-manchester-united-squad-sheets", "type": "article", "sectionId": "football", "sectionName": "Football", "webPublicationDate": "2010-01-29T19:08:00Z", "webTitle": "Squad sheets: Arsenal v Manchester United", "webUrl": "https://www.theguardian.com/football/2010/jan/29/arsenal-manchester-united-squad-sheets", "apiUrl": "https://content.guardianapis.com/football/2010/jan/29/arsenal-manchester-united-squad-sheets", "isHosted": false, "pillarId": "pillar/sport", "pillarName": "Sport"}, {"id": "football/2010/jan/29/hearts-scottishpremierleague", "type": "article", "sectionId": "football", "sectionName": "Football", "webPublicationDate": "2010-01-29T19:07:25Z", "webTitle": "Hearts name Jim Jefferies as new manager", "webUrl": "https://www.theguardian.com/football/2010/jan/29/hearts-scottishpremierleague", "apiUrl": "https://content.guardianapis.com/football/2010/jan/29/hearts-scottishpremierleague", "isHosted": false, "pillarId": "pillar/sport", "pillarName": "Sport"}, {"id": "football/2010/jan/29/didier-drogba-salomon-kalou-chelsea-burnley", "type": "article", "sectionId": "football", "sectionName": "Football", "webPublicationDate": "2010-01-29T19:06:30Z", "webTitle": "Didier Drogba and Salomon Kalou left out of Chelsea squad for Burnley", "webUrl": "https://www.theguardian.com/football/2010/jan/29/didier-drogba-salomon-kalou-chelsea-burnley", "apiUrl": "https://content.guardianapis.com/football/2010/jan/29/didier-drogba-salomon-kalou-chelsea-burnley", "isHosted": false, "pillarId": "pillar/sport", "pillarName": "Sport"}, {"id": "football/2010/jan/29/the-fiver-arsenal-manchester-united", "type": "article", "sectionId": "football", "sectionName": "Football", "webPublicationDate": "2010-01-29T16:28:35Z", "webTitle": "The Fiver | A Hard-Sell That Would Get Him A Job At Sky's Livingston Call Centre | Sean Ingle", "webUrl": "https://www.theguardian.com/football/2010/jan/29/the-fiver-arsenal-manchester-united", "apiUrl": "https://content.guardianapis.com/football/2010/jan/29/the-fiver-arsenal-manchester-united", "isHosted": false, "pillarId": "pillar/sport", "pillarName": "Sport"}, {"id": "business/2010/jan/29/airlines-price-fixing-world-cup", "type": "article", "sectionId": "business", "sectionName": "Business", "webPublicationDate": "2010-01-29T15:00:13Z", "webTitle": "Airlines investigated for alleged price-fixing during World Cup", "webUrl": "https://www.theguardian.com/business/2010/jan/29/airlines-price-fixing-world-cup", "apiUrl": "https://content.guardianapis.com/business/2010/jan/29/airlines-price-fixing-world-cup", "isHosted": false, "pillarId": "pillar/news", "pillarName": "News"}, {"id": "football/2010/jan/29/rafael-benite-admits-juventus-interest", "type": "article", "sectionId": "football", "sectionName": "Football", "webPublicationDate": "2010-01-29T14:54:51Z", "webTitle": "Liverpool's Rafael Ben\u00edtez admits to Juventus interest", "webUrl": "https://www.theguardian.com/football/2010/jan/29/rafael-benite-admits-juventus-interest", "apiUrl": "https://content.guardianapis.com/football/2010/jan/29/rafael-benite-admits-juventus-interest", "isHosted": false, "pillarId": "pillar/sport", "pillarName": "Sport"}, {"id": "media/greenslade/2010/jan/29/superinjunction-john-terry-trafigura", "type": "article", "sectionId": "media", "sectionName": "Media", "webPublicationDate": "2010-01-29T14:26:05Z", "webTitle": "From Trafigura to John Terry: Is the age of the superinjunction over?", "webUrl": "https://www.theguardian.com/media/greenslade/2010/jan/29/superinjunction-john-terry-trafigura", "apiUrl": "https://content.guardianapis.com/media/greenslade/2010/jan/29/superinjunction-john-terry-trafigura", "isHosted": false, "pillarId": "pillar/news", "pillarName": "News"}, {"id": "football/blog/2010/jan/29/tony-mowbray-celtic-transfer-window", "type": "article", "sectionId": "football", "sectionName": "Football", "webPublicationDate": "2010-01-29T13:25:58Z", "webTitle": "Tony Mowbray must act fast to save his rudderless revolution at Celtic", "webUrl": "https://www.theguardian.com/football/blog/2010/jan/29/tony-mowbray-celtic-transfer-window", "apiUrl": "https://content.guardianapis.com/football/blog/2010/jan/29/tony-mowbray-celtic-transfer-window", "isHosted": false, "pillarId": "pillar/sport", "pillarName": "Sport"}, {"id": "football/gallery/2009/apr/16/manchester-united-arsenal", "type": "gallery", "sectionId": "football", "sectionName": "Football", "webPublicationDate": "2010-01-29T09:18:00Z", "webTitle": "Arsenal v Manchester United in the Wenger-Ferguson years", "webUrl": "https://www.theguardian.com/football/gallery/2009/apr/16/manchester-united-arsenal", "apiUrl": "https://content.guardianapis.com/football/gallery/2009/apr/16/manchester-united-arsenal", "isHosted": false, "pillarId": "pillar/sport", "pillarName": "Sport"}, {"id": "football/2010/jan/29/ciro-ferrara-juventus-rafael-benitez", "type": "article", "sectionId": "football", "sectionName": "Football", "webPublicationDate": "2010-01-29T09:12:17Z", "webTitle": "Ciro Ferrara on the brink at Juventus", "webUrl": "https://www.theguardian.com/football/2010/jan/29/ciro-ferrara-juventus-rafael-benitez", "apiUrl": "https://content.guardianapis.com/football/2010/jan/29/ciro-ferrara-juventus-rafael-benitez", "isHosted": false, "pillarId": "pillar/sport", "pillarName": "Sport"}, {"id": "football/2010/jan/29/football-transfer-rumours-hull-city-sell-squad", "type": "article", "sectionId": "football", "sectionName": "Football", "webPublicationDate": "2010-01-29T09:10:10Z", "webTitle": "Football transfer rumours: Hull City to sell their entire squad? | Simon Burnton", "webUrl": "https://www.theguardian.com/football/2010/jan/29/football-transfer-rumours-hull-city-sell-squad", "apiUrl": "https://content.guardianapis.com/football/2010/jan/29/football-transfer-rumours-hull-city-sell-squad", "isHosted": false, "pillarId": "pillar/sport", "pillarName": "Sport"}, {"id": "sport/blog/2010/jan/29/today-in-sport-29-january", "type": "article", "sectionId": "sport", "sectionName": "Sport", "webPublicationDate": "2010-01-29T08:32:15Z", "webTitle": "Today in Sport \u2013 as it happened | James Dart", "webUrl": "https://www.theguardian.com/sport/blog/2010/jan/29/today-in-sport-29-january", "apiUrl": "https://content.guardianapis.com/sport/blog/2010/jan/29/today-in-sport-29-january", "isHosted": false, "pillarId": "pillar/sport", "pillarName": "Sport"}, {"id": "sport/2010/jan/29/world-cup-fifa-finance-digger", "type": "article", "sectionId": "sport", "sectionName": "Sport", "webPublicationDate": "2010-01-29T01:44:48Z", "webTitle": "Fifa braced for losses from South Africa's hosting of 2010 World Cup", "webUrl": "https://www.theguardian.com/sport/2010/jan/29/world-cup-fifa-finance-digger", "apiUrl": "https://content.guardianapis.com/sport/2010/jan/29/world-cup-fifa-finance-digger", "isHosted": false, "pillarId": "pillar/sport", "pillarName": "Sport"}, {"id": "football/2010/jan/29/richard-dunne-aston-villa-arsenal", "type": "article", "sectionId": "football", "sectionName": "Football", "webPublicationDate": "2010-01-29T00:10:05Z", "webTitle": "Aston Villa are passing not punting, says Richard Dunne", "webUrl": "https://www.theguardian.com/football/2010/jan/29/richard-dunne-aston-villa-arsenal", "apiUrl": "https://content.guardianapis.com/football/2010/jan/29/richard-dunne-aston-villa-arsenal", "isHosted": false, "pillarId": "pillar/sport", "pillarName": "Sport"}, {"id": "football/2010/jan/29/manchester-city-garry-cook-sheikh-mansour", "type": "article", "sectionId": "football", "sectionName": "Football", "webPublicationDate": "2010-01-29T00:10:04Z", "webTitle": "Garry Cook's Manchester City future in doubt after failed boast", "webUrl": "https://www.theguardian.com/football/2010/jan/29/manchester-city-garry-cook-sheikh-mansour", "apiUrl": "https://content.guardianapis.com/football/2010/jan/29/manchester-city-garry-cook-sheikh-mansour", "isHosted": false, "pillarId": "pillar/sport", "pillarName": "Sport"}, {"id": "football/2010/jan/29/roman-pavlyuchenko-birmingham-tottenham", "type": "article", "sectionId": "football", "sectionName": "Football", "webPublicationDate": "2010-01-29T00:10:04Z", "webTitle": "Birmingham balk at \u00a313m for Roman Pavlyuchenko of Tottenham Hotspur", "webUrl": "https://www.theguardian.com/football/2010/jan/29/roman-pavlyuchenko-birmingham-tottenham", "apiUrl": "https://content.guardianapis.com/football/2010/jan/29/roman-pavlyuchenko-birmingham-tottenham", "isHosted": false, "pillarId": "pillar/sport", "pillarName": "Sport"}, {"id": "football/blog/2010/jan/29/sol-campbell-wayne-rooney-arsenal-manchester-united", "type": "article", "sectionId": "football", "sectionName": "Football", "webPublicationDate": "2010-01-29T00:10:03Z", "webTitle": "Sol Campbell braced for another dangerous duel with Wayne Rooney | Richard Williams", "webUrl": "https://www.theguardian.com/football/blog/2010/jan/29/sol-campbell-wayne-rooney-arsenal-manchester-united", "apiUrl": "https://content.guardianapis.com/football/blog/2010/jan/29/sol-campbell-wayne-rooney-arsenal-manchester-united", "isHosted": false, "pillarId": "pillar/sport", "pillarName": "Sport"}, {"id": "football/blog/2010/jan/29/carlisle-olga-the-fox-harry-pearson", "type": "article", "sectionId": "football", "sectionName": "Football", "webPublicationDate": "2010-01-29T00:10:01Z", "webTitle": "Carlisle United's perfect match: live sport and dead animals | Harry Pearson", "webUrl": "https://www.theguardian.com/football/blog/2010/jan/29/carlisle-olga-the-fox-harry-pearson", "apiUrl": "https://content.guardianapis.com/football/blog/2010/jan/29/carlisle-olga-the-fox-harry-pearson", "isHosted": false, "pillarId": "pillar/sport", "pillarName": "Sport"}, {"id": "football/2010/jan/28/algeria-egypt-africa-cup-nations-semi-final", "type": "article", "sectionId": "football", "sectionName": "Football", "webPublicationDate": "2010-01-28T23:50:27Z", "webTitle": "Egypt take revenge for World Cup loss against eight-man Algeria", "webUrl": "https://www.theguardian.com/football/2010/jan/28/algeria-egypt-africa-cup-nations-semi-final", "apiUrl": "https://content.guardianapis.com/football/2010/jan/28/algeria-egypt-africa-cup-nations-semi-final", "isHosted": false, "pillarId": "pillar/sport", "pillarName": "Sport"}, {"id": "football/2010/jan/28/aaron-lennon-tottenham-hotspur-injury", "type": "article", "sectionId": "football", "sectionName": "Football", "webPublicationDate": "2010-01-28T22:30:06Z", "webTitle": "Tottenham Hotspur's Aaron Lennon out for three weeks with groin injury", "webUrl": "https://www.theguardian.com/football/2010/jan/28/aaron-lennon-tottenham-hotspur-injury", "apiUrl": "https://content.guardianapis.com/football/2010/jan/28/aaron-lennon-tottenham-hotspur-injury", "isHosted": false, "pillarId": "pillar/sport", "pillarName": "Sport"}, {"id": "football/2010/jan/28/frank-lampard-chelsea-peter-osgood-goals", "type": "article", "sectionId": "football", "sectionName": "Football", "webPublicationDate": "2010-01-28T22:30:01Z", "webTitle": "Frank Lampard has the goal and matching Peter Osgood in his sights", "webUrl": "https://www.theguardian.com/football/2010/jan/28/frank-lampard-chelsea-peter-osgood-goals", "apiUrl": "https://content.guardianapis.com/football/2010/jan/28/frank-lampard-chelsea-peter-osgood-goals", "isHosted": false, "pillarId": "pillar/sport", "pillarName": "Sport"}, {"id": "football/2010/jan/28/tony-mowbray-celtic-transfer-window", "type": "article", "sectionId": "football", "sectionName": "Football", "webPublicationDate": "2010-01-28T22:00:03Z", "webTitle": "Celtic will allow manager Tony Mowbray to sign striker and defender", "webUrl": "https://www.theguardian.com/football/2010/jan/28/tony-mowbray-celtic-transfer-window", "apiUrl": "https://content.guardianapis.com/football/2010/jan/28/tony-mowbray-celtic-transfer-window", "isHosted": false, "pillarId": "pillar/sport", "pillarName": "Sport"}, {"id": "football/2010/jan/28/arsene-wenger-thomas-vermaelen-arsenal", "type": "article", "sectionId": "football", "sectionName": "Football", "webPublicationDate": "2010-01-28T20:22:24Z", "webTitle": "Ars\u00e8ne Wenger optimistic as fears for Thomas Vermaelen prove unfounded", "webUrl": "https://www.theguardian.com/football/2010/jan/28/arsene-wenger-thomas-vermaelen-arsenal", "apiUrl": "https://content.guardianapis.com/football/2010/jan/28/arsene-wenger-thomas-vermaelen-arsenal", "isHosted": false, "pillarId": "pillar/sport", "pillarName": "Sport"}, {"id": "football/2010/jan/28/rio-ferdinand-manchester-united-ban", "type": "article", "sectionId": "football", "sectionName": "Football", "webPublicationDate": "2010-01-28T18:19:00Z", "webTitle": "Manchester United may risk appeal on ruling against Rio Ferdinand", "webUrl": "https://www.theguardian.com/football/2010/jan/28/rio-ferdinand-manchester-united-ban", "apiUrl": "https://content.guardianapis.com/football/2010/jan/28/rio-ferdinand-manchester-united-ban", "isHosted": false, "pillarId": "pillar/sport", "pillarName": "Sport"}, {"id": "football/2010/jan/28/the-fiver-portsmouth", "type": "article", "sectionId": "football", "sectionName": "Football", "webPublicationDate": "2010-01-28T16:57:36Z", "webTitle": "The Fiver | Another Vast Expanse Of White | Barry Glendenning", "webUrl": "https://www.theguardian.com/football/2010/jan/28/the-fiver-portsmouth", "apiUrl": "https://content.guardianapis.com/football/2010/jan/28/the-fiver-portsmouth", "isHosted": false, "pillarId": "pillar/sport", "pillarName": "Sport"}, {"id": "football/2010/jan/28/robinho-manchester-city-santos-loan", "type": "article", "sectionId": "football", "sectionName": "Football", "webPublicationDate": "2010-01-28T16:29:23Z", "webTitle": "Robinho leaves Manchester City for Santos on six-month loan deal", "webUrl": "https://www.theguardian.com/football/2010/jan/28/robinho-manchester-city-santos-loan", "apiUrl": "https://content.guardianapis.com/football/2010/jan/28/robinho-manchester-city-santos-loan", "isHosted": false, "pillarId": "pillar/sport", "pillarName": "Sport"}, {"id": "football/blog/audio/2010/jan/28/football-weekly-extra-podcast-manchester-derby", "type": "audio", "sectionId": "football", "sectionName": "Football", "webPublicationDate": "2010-01-28T16:28:42Z", "webTitle": "Football Weekly Extra: United prevail over City in the battle of Manchester", "webUrl": "https://www.theguardian.com/football/blog/audio/2010/jan/28/football-weekly-extra-podcast-manchester-derby", "apiUrl": "https://content.guardianapis.com/football/blog/audio/2010/jan/28/football-weekly-extra-podcast-manchester-derby", "isHosted": false, "pillarId": "pillar/sport", "pillarName": "Sport"}]}}