{"response": {"status": "ok", "userTier": "developer", "total": 132343, "startIndex": 1, "pageSize": 50, "currentPage": 1, "pages": 2647, "orderBy": "newest", "results": [{"id": "politics/2014/jan/30/esther-addley-diary-beavers-flooding", "type": "article", "sectionId": "politics", "sectionName": "Politics", "webPublicationDate": "2014-01-30T23:15:01Z", "webTitle": "Esther Addley's diary: Damn beavers. They could have solved our flooding crisis", "webUrl": "https://www.theguardian.com/politics/2014/jan/30/esther-addley-diary-beavers-flooding", "apiUrl": "https://content.guardianapis.com/politics/2014/jan/30/esther-addley-diary-beavers-flooding", "isHosted": false, "pillarId": "pillar/news", "pillarName": "News"}, {"id": "commentisfree/2014/jan/30/immigration-bill-political-panic", "type": "article", "sectionId": "commentisfree", "sectionName": "Opinion", "webPublicationDate": "2014-01-30T21:47:48Z", "webTitle": "Immigration bill: political panic attack | Editorial", "webUrl": "https://www.theguardian.com/commentisfree/2014/jan/30/immigration-bill-political-panic", "apiUrl": "https://content.guardianapis.com/commentisfree/2014/jan/30/immigration-bill-political-panic", "isHosted": false, "pillarId": "pillar/opinion", "pillarName": "Opinion"}, {"id": "business/2014/jan/30/living-standards-not-recover-2015-ifs-miliband", "type": "article", "sectionId": "business", "sectionName": "Business", "webPublicationDate": "2014-01-30T21:35:47Z", "webTitle": "Living standards will not recover until after 2015 election says IFS", "webUrl": "https://www.theguardian.com/business/2014/jan/30/living-standards-not-recover-2015-ifs-miliband", "apiUrl": "https://content.guardianapis.com/business/2014/jan/30/living-standards-not-recover-2015-ifs-miliband", "isHosted": false, "pillarId": "pillar/news", "pillarName": "News"}, {"id": "uk-news/2014/jan/30/tory-immigration-rebels-deal-blow-david-cameron-authority", "type": "article", "sectionId": "uk-news", "sectionName": "UK news", "webPublicationDate": "2014-01-30T21:28:59Z", "webTitle": "Tory immigration rebels deal blow to David Cameron's authority", "webUrl": "https://www.theguardian.com/uk-news/2014/jan/30/tory-immigration-rebels-deal-blow-david-cameron-authority", "apiUrl": "https://content.guardianapis.com/uk-news/2014/jan/30/tory-immigration-rebels-deal-blow-david-cameron-authority", "isHosted": false, "pillarId": "pillar/news", "pillarName": "News"}, {"id": "business/2014/jan/30/more-balance-boost-uk-growth", "type": "article", "sectionId": "business", "sectionName": "Business", "webPublicationDate": "2014-01-30T21:00:02Z", "webTitle": "More balance will boost UK growth | @guardianletters", "webUrl": "https://www.theguardian.com/business/2014/jan/30/more-balance-boost-uk-growth", "apiUrl": "https://content.guardianapis.com/business/2014/jan/30/more-balance-boost-uk-growth", "isHosted": false, "pillarId": "pillar/news", "pillarName": "News"}, {"id": "uk-news/2014/jan/31/labor-shorten-uk-disability-reform-revolution", "type": "article", "sectionId": "uk-news", "sectionName": "UK news", "webPublicationDate": "2014-01-30T20:09:21Z", "webTitle": "Labor leader Bill Shorten urges UK to make disability reform 'the next revolution'", "webUrl": "https://www.theguardian.com/uk-news/2014/jan/31/labor-shorten-uk-disability-reform-revolution", "apiUrl": "https://content.guardianapis.com/uk-news/2014/jan/31/labor-shorten-uk-disability-reform-revolution", "isHosted": false, "pillarId": "pillar/news", "pillarName": "News"}, {"id": "politics/2014/jan/30/cameron-failed-mass-surveillance-snowden-communication-laws", "type": "article", "sectionId": "politics", "sectionName": "Politics", "webPublicationDate": "2014-01-30T19:56:45Z", "webTitle": "Cameron says he failed to make case for mass surveillance after Snowden leaks", "webUrl": "https://www.theguardian.com/politics/2014/jan/30/cameron-failed-mass-surveillance-snowden-communication-laws", "apiUrl": "https://content.guardianapis.com/politics/2014/jan/30/cameron-failed-mass-surveillance-snowden-communication-laws", "isHosted": false, "pillarId": "pillar/news", "pillarName": "News"}, {"id": "law/2014/jan/30/european-court-human-rights-case-backlog-falls", "type": "article", "sectionId": "law", "sectionName": "Law", "webPublicationDate": "2014-01-30T19:38:46Z", "webTitle": "Backlog at European court of human rights falls below 100,000 cases", "webUrl": "https://www.theguardian.com/law/2014/jan/30/european-court-human-rights-case-backlog-falls", "apiUrl": "https://content.guardianapis.com/law/2014/jan/30/european-court-human-rights-case-backlog-falls", "isHosted": false, "pillarId": "pillar/news", "pillarName": "News"}, {"id": "business/2014/jan/30/british-airways-cabin-crew-trousers-union", "type": "article", "sectionId": "business", "sectionName": "Business", "webPublicationDate": "2014-01-30T19:31:09Z", "webTitle": "British Airways and cabin crew may clash over who wears the trousers", "webUrl": "https://www.theguardian.com/business/2014/jan/30/british-airways-cabin-crew-trousers-union", "apiUrl": "https://content.guardianapis.com/business/2014/jan/30/british-airways-cabin-crew-trousers-union", "isHosted": false, "pillarId": "pillar/news", "pillarName": "News"}, {"id": "politics/2014/jan/30/theresa-may-snookered-crucible-immigration-bill", "type": "article", "sectionId": "politics", "sectionName": "Politics", "webPublicationDate": "2014-01-30T19:27:44Z", "webTitle": "May snookered in the crucible | Hugh Muir's sketch", "webUrl": "https://www.theguardian.com/politics/2014/jan/30/theresa-may-snookered-crucible-immigration-bill", "apiUrl": "https://content.guardianapis.com/politics/2014/jan/30/theresa-may-snookered-crucible-immigration-bill", "isHosted": false, "pillarId": "pillar/news", "pillarName": "News"}, {"id": "money/2014/jan/30/self-assessment-reprieve-late-filers", "type": "article", "sectionId": "money", "sectionName": "Money", "webPublicationDate": "2014-01-30T19:14:03Z", "webTitle": "Self assessment: reprieve for late filers", "webUrl": "https://www.theguardian.com/money/2014/jan/30/self-assessment-reprieve-late-filers", "apiUrl": "https://content.guardianapis.com/money/2014/jan/30/self-assessment-reprieve-late-filers", "isHosted": false, "pillarId": "pillar/lifestyle", "pillarName": "Lifestyle"}, {"id": "uk-news/2014/jan/30/transport-secretary-blocks-hs2-report", "type": "article", "sectionId": "uk-news", "sectionName": "UK news", "webPublicationDate": "2014-01-30T19:09:45Z", "webTitle": "Transport secretary blocks HS2 report", "webUrl": "https://www.theguardian.com/uk-news/2014/jan/30/transport-secretary-blocks-hs2-report", "apiUrl": "https://content.guardianapis.com/uk-news/2014/jan/30/transport-secretary-blocks-hs2-report", "isHosted": false, "pillarId": "pillar/news", "pillarName": "News"}, {"id": "uk-news/2014/jan/30/tory-mps-told-abstain-foreign-criminal-deportation-vote", "type": "article", "sectionId": "uk-news", "sectionName": "UK news", "webPublicationDate": "2014-01-30T18:51:00Z", "webTitle": "Tory rebel MPs refuse to abstain on foreign criminal deportation vote", "webUrl": "https://www.theguardian.com/uk-news/2014/jan/30/tory-mps-told-abstain-foreign-criminal-deportation-vote", "apiUrl": "https://content.guardianapis.com/uk-news/2014/jan/30/tory-mps-told-abstain-foreign-criminal-deportation-vote", "isHosted": false, "pillarId": "pillar/news", "pillarName": "News"}, {"id": "politics/2014/jan/30/scots-labour-lamont-derides-independence-wee-things-salmond", "type": "article", "sectionId": "politics", "sectionName": "Politics", "webPublicationDate": "2014-01-30T17:54:44Z", "webTitle": "Scots Labour leader derided for casting independence gains as 'wee things'", "webUrl": "https://www.theguardian.com/politics/2014/jan/30/scots-labour-lamont-derides-independence-wee-things-salmond", "apiUrl": "https://content.guardianapis.com/politics/2014/jan/30/scots-labour-lamont-derides-independence-wee-things-salmond", "isHosted": false, "pillarId": "pillar/news", "pillarName": "News"}, {"id": "politics/blog/2014/jan/30/nick-clegg-hosts-his-call-clegg-phone-in-politics-live-blog", "type": "liveblog", "sectionId": "politics", "sectionName": "Politics", "webPublicationDate": "2014-01-30T17:30:41Z", "webTitle": "86 Tory MPs defy Cameron over immigration: Politics live blog", "webUrl": "https://www.theguardian.com/politics/blog/2014/jan/30/nick-clegg-hosts-his-call-clegg-phone-in-politics-live-blog", "apiUrl": "https://content.guardianapis.com/politics/blog/2014/jan/30/nick-clegg-hosts-his-call-clegg-phone-in-politics-live-blog", "isHosted": false, "pillarId": "pillar/news", "pillarName": "News"}, {"id": "politics/blog/2014/jan/30/david-cameron-evidence-joint-committee-national-security-strategy-live-updates", "type": "liveblog", "sectionId": "politics", "sectionName": "Politics", "webPublicationDate": "2014-01-30T16:24:09Z", "webTitle": "David Cameron gives evidence to joint committee on the national security strategy - as it happened", "webUrl": "https://www.theguardian.com/politics/blog/2014/jan/30/david-cameron-evidence-joint-committee-national-security-strategy-live-updates", "apiUrl": "https://content.guardianapis.com/politics/blog/2014/jan/30/david-cameron-evidence-joint-committee-national-security-strategy-live-updates", "isHosted": false, "pillarId": "pillar/news", "pillarName": "News"}, {"id": "politics/2014/jan/30/labour-peter-hain-middle-east-israel", "type": "article", "sectionId": "politics", "sectionName": "Politics", "webPublicationDate": "2014-01-30T15:57:55Z", "webTitle": "Labour criticises Peter Hain comments on Middle East conflict", "webUrl": "https://www.theguardian.com/politics/2014/jan/30/labour-peter-hain-middle-east-israel", "apiUrl": "https://content.guardianapis.com/politics/2014/jan/30/labour-peter-hain-middle-east-israel", "isHosted": false, "pillarId": "pillar/news", "pillarName": "News"}, {"id": "voluntary-sector-network/2014/jan/30/weekly-roundup-voluntary-sector-31-jan", "type": "article", "sectionId": "voluntary-sector-network", "sectionName": "Voluntary Sector Network", "webPublicationDate": "2014-01-30T15:40:00Z", "webTitle": "Weekly round-up: Voluntary Sector Network 31 January 2014", "webUrl": "https://www.theguardian.com/voluntary-sector-network/2014/jan/30/weekly-roundup-voluntary-sector-31-jan", "apiUrl": "https://content.guardianapis.com/voluntary-sector-network/2014/jan/30/weekly-roundup-voluntary-sector-31-jan", "isHosted": false, "pillarId": "pillar/news", "pillarName": "News"}, {"id": "social-enterprise-network/2014/jan/30/driving-forward-social-investment-uk-tax-relief", "type": "article", "sectionId": "sustainable-business", "sectionName": "Guardian Sustainable Business", "webPublicationDate": "2014-01-30T15:33:00Z", "webTitle": "Driving forward social investment in the UK \u2026 via tax relief", "webUrl": "https://www.theguardian.com/social-enterprise-network/2014/jan/30/driving-forward-social-investment-uk-tax-relief", "apiUrl": "https://content.guardianapis.com/social-enterprise-network/2014/jan/30/driving-forward-social-investment-uk-tax-relief", "isHosted": false}, {"id": "commentisfree/2014/jan/30/beavers-dam-rivers-badgers-work", "type": "article", "sectionId": "commentisfree", "sectionName": "Opinion", "webPublicationDate": "2014-01-30T15:04:31Z", "webTitle": "If beavers won't dam our rivers, there's lots of badgers looking for work | Michael Moran", "webUrl": "https://www.theguardian.com/commentisfree/2014/jan/30/beavers-dam-rivers-badgers-work", "apiUrl": "https://content.guardianapis.com/commentisfree/2014/jan/30/beavers-dam-rivers-badgers-work", "isHosted": false, "pillarId": "pillar/opinion", "pillarName": "Opinion"}, {"id": "commentisfree/2014/jan/30/dredging-rivers-floods-somerset-levels-david-cameron-farmers", "type": "article", "sectionId": "commentisfree", "sectionName": "Opinion", "webPublicationDate": "2014-01-30T14:30:02Z", "webTitle": "Dredging rivers won't stop floods. It will make them worse | George Monbiot", "webUrl": "https://www.theguardian.com/commentisfree/2014/jan/30/dredging-rivers-floods-somerset-levels-david-cameron-farmers", "apiUrl": "https://content.guardianapis.com/commentisfree/2014/jan/30/dredging-rivers-floods-somerset-levels-david-cameron-farmers", "isHosted": false, "pillarId": "pillar/opinion", "pillarName": "Opinion"}, {"id": "books/2014/jan/30/oxford-handbook-history-communism-review", "type": "article", "sectionId": "books", "sectionName": "Books", "webPublicationDate": "2014-01-30T14:00:01Z", "webTitle": "The Oxford Handbook of the History of Communism \u2013 review", "webUrl": "https://www.theguardian.com/books/2014/jan/30/oxford-handbook-history-communism-review", "apiUrl": "https://content.guardianapis.com/books/2014/jan/30/oxford-handbook-history-communism-review", "isHosted": false, "pillarId": "pillar/arts", "pillarName": "Arts"}, {"id": "commentisfree/2014/jan/30/pound-euro-scottish-voters-currency-independent-scotland", "type": "article", "sectionId": "commentisfree", "sectionName": "Opinion", "webPublicationDate": "2014-01-30T13:01:47Z", "webTitle": "Pound or euro? It's not what Scottish voters are talking about | John Curtice", "webUrl": "https://www.theguardian.com/commentisfree/2014/jan/30/pound-euro-scottish-voters-currency-independent-scotland", "apiUrl": "https://content.guardianapis.com/commentisfree/2014/jan/30/pound-euro-scottish-voters-currency-independent-scotland", "isHosted": false, "pillarId": "pillar/opinion", "pillarName": "Opinion"}, {"id": "politics/2014/jan/30/tony-blair-backs-egypt-military-ruler-abdel-fatah-al-sisi", "type": "article", "sectionId": "politics", "sectionName": "Politics", "webPublicationDate": "2014-01-30T12:47:51Z", "webTitle": "Tony Blair backs Egypt's government and criticises Brotherhood", "webUrl": "https://www.theguardian.com/politics/2014/jan/30/tony-blair-backs-egypt-military-ruler-abdel-fatah-al-sisi", "apiUrl": "https://content.guardianapis.com/politics/2014/jan/30/tony-blair-backs-egypt-military-ruler-abdel-fatah-al-sisi", "isHosted": false, "pillarId": "pillar/news", "pillarName": "News"}, {"id": "money/2014/jan/30/get-money-back-taxreturngateway", "type": "article", "sectionId": "money", "sectionName": "Money", "webPublicationDate": "2014-01-30T12:43:30Z", "webTitle": "How to get your money back if you have been caught by taxreturngateway", "webUrl": "https://www.theguardian.com/money/2014/jan/30/get-money-back-taxreturngateway", "apiUrl": "https://content.guardianapis.com/money/2014/jan/30/get-money-back-taxreturngateway", "isHosted": false, "pillarId": "pillar/lifestyle", "pillarName": "Lifestyle"}, {"id": "commentisfree/2014/jan/30/ban-smoking-cars-children-authoritarian-step-too-far", "type": "article", "sectionId": "commentisfree", "sectionName": "Opinion", "webPublicationDate": "2014-01-30T12:43:19Z", "webTitle": "A ban on smoking in cars with children is an authoritarian step too far | Charlotte Gore", "webUrl": "https://www.theguardian.com/commentisfree/2014/jan/30/ban-smoking-cars-children-authoritarian-step-too-far", "apiUrl": "https://content.guardianapis.com/commentisfree/2014/jan/30/ban-smoking-cars-children-authoritarian-step-too-far", "isHosted": false, "pillarId": "pillar/opinion", "pillarName": "Opinion"}, {"id": "money/2014/jan/30/tax-return-passport-health-copycat-websites", "type": "article", "sectionId": "money", "sectionName": "Money", "webPublicationDate": "2014-01-30T12:17:06Z", "webTitle": "The Mr Big behind tax return, passport and health card copycat websites", "webUrl": "https://www.theguardian.com/money/2014/jan/30/tax-return-passport-health-copycat-websites", "apiUrl": "https://content.guardianapis.com/money/2014/jan/30/tax-return-passport-health-copycat-websites", "isHosted": false, "pillarId": "pillar/lifestyle", "pillarName": "Lifestyle"}, {"id": "politics/2014/jan/30/nick-clegg-failure-suspend-lib-dem-accused-child-rape-ryan-hope", "type": "article", "sectionId": "politics", "sectionName": "Politics", "webPublicationDate": "2014-01-30T11:50:41Z", "webTitle": "Nick Clegg reveals anger at failure to suspend Lib Dem accused of child rape", "webUrl": "https://www.theguardian.com/politics/2014/jan/30/nick-clegg-failure-suspend-lib-dem-accused-child-rape-ryan-hope", "apiUrl": "https://content.guardianapis.com/politics/2014/jan/30/nick-clegg-failure-suspend-lib-dem-accused-child-rape-ryan-hope", "isHosted": false, "pillarId": "pillar/news", "pillarName": "News"}, {"id": "environment/video/2014/jan/30/somerset-flood-victims-army-environment-secretary-paterson-video", "type": "video", "sectionId": "environment", "sectionName": "Environment", "webPublicationDate": "2014-01-30T11:45:00Z", "webTitle": "Somerset flood victims to be helped by army, says environment secretary \u2013 video", "webUrl": "https://www.theguardian.com/environment/video/2014/jan/30/somerset-flood-victims-army-environment-secretary-paterson-video", "apiUrl": "https://content.guardianapis.com/environment/video/2014/jan/30/somerset-flood-victims-army-environment-secretary-paterson-video", "isHosted": false, "pillarId": "pillar/news", "pillarName": "News"}, {"id": "politics/2014/jan/30/smoking-ban-cars-children-nick-clegg", "type": "article", "sectionId": "politics", "sectionName": "Politics", "webPublicationDate": "2014-01-30T10:46:56Z", "webTitle": "Smoking ban in cars with children unenforceable, says Nick Clegg", "webUrl": "https://www.theguardian.com/politics/2014/jan/30/smoking-ban-cars-children-nick-clegg", "apiUrl": "https://content.guardianapis.com/politics/2014/jan/30/smoking-ban-cars-children-nick-clegg", "isHosted": false, "pillarId": "pillar/news", "pillarName": "News"}, {"id": "commentisfree/2014/jan/30/tories-cuts-poor-tax-rich", "type": "article", "sectionId": "commentisfree", "sectionName": "Opinion", "webPublicationDate": "2014-01-30T10:00:00Z", "webTitle": "The Tories cut funding for the poor \u2013 and won't rule out tax cuts for the rich | Hilary Benn", "webUrl": "https://www.theguardian.com/commentisfree/2014/jan/30/tories-cuts-poor-tax-rich", "apiUrl": "https://content.guardianapis.com/commentisfree/2014/jan/30/tories-cuts-poor-tax-rich", "isHosted": false, "pillarId": "pillar/opinion", "pillarName": "Opinion"}, {"id": "politics/2014/jan/30/gmb-leader-unions-voting-labour-leader", "type": "article", "sectionId": "politics", "sectionName": "Politics", "webPublicationDate": "2014-01-30T09:17:52Z", "webTitle": "GMB leader says unions will support new voting system for Labour leader", "webUrl": "https://www.theguardian.com/politics/2014/jan/30/gmb-leader-unions-voting-labour-leader", "apiUrl": "https://content.guardianapis.com/politics/2014/jan/30/gmb-leader-unions-voting-labour-leader", "isHosted": false, "pillarId": "pillar/news", "pillarName": "News"}, {"id": "commentisfree/2014/jan/30/roosevelt-cartel-busting-legacy-tory-labour-vested-interests", "type": "article", "sectionId": "commentisfree", "sectionName": "Opinion", "webPublicationDate": "2014-01-30T09:00:01Z", "webTitle": "The Roosevelt cartel-busting legacy is Tory territory, not Labour's | David Skelton", "webUrl": "https://www.theguardian.com/commentisfree/2014/jan/30/roosevelt-cartel-busting-legacy-tory-labour-vested-interests", "apiUrl": "https://content.guardianapis.com/commentisfree/2014/jan/30/roosevelt-cartel-busting-legacy-tory-labour-vested-interests", "isHosted": false, "pillarId": "pillar/opinion", "pillarName": "Opinion"}, {"id": "commentisfree/cartoon/2014/jan/30/steve-bell-if-lib-dem-lynch-mob", "type": "picture", "sectionId": "commentisfree", "sectionName": "Opinion", "webPublicationDate": "2014-01-30T08:00:00Z", "webTitle": "Steve Bell's If \u2026 'Save me from the Lib Dem lynch mob'", "webUrl": "https://www.theguardian.com/commentisfree/cartoon/2014/jan/30/steve-bell-if-lib-dem-lynch-mob", "apiUrl": "https://content.guardianapis.com/commentisfree/cartoon/2014/jan/30/steve-bell-if-lib-dem-lynch-mob", "isHosted": false, "pillarId": "pillar/opinion", "pillarName": "Opinion"}, {"id": "society/2014/jan/30/city-urged-to-invest-in-affordable-housing-schemes", "type": "article", "sectionId": "society", "sectionName": "Society", "webPublicationDate": "2014-01-30T06:00:01Z", "webTitle": "City urged to invest in affordable housing schemes", "webUrl": "https://www.theguardian.com/society/2014/jan/30/city-urged-to-invest-in-affordable-housing-schemes", "apiUrl": "https://content.guardianapis.com/society/2014/jan/30/city-urged-to-invest-in-affordable-housing-schemes", "isHosted": false, "pillarId": "pillar/news", "pillarName": "News"}, {"id": "commentisfree/2014/jan/30/recovery-helps-tories-wont-win-election", "type": "article", "sectionId": "commentisfree", "sectionName": "Opinion", "webPublicationDate": "2014-01-30T06:00:00Z", "webTitle": "Economic recovery helps the Tories - but it won't win them the next election | Martin Kettle", "webUrl": "https://www.theguardian.com/commentisfree/2014/jan/30/recovery-helps-tories-wont-win-election", "apiUrl": "https://content.guardianapis.com/commentisfree/2014/jan/30/recovery-helps-tories-wont-win-election", "isHosted": false, "pillarId": "pillar/opinion", "pillarName": "Opinion"}, {"id": "education/2014/jan/30/lengthen-school-days-cut-holidays-tory-adviser", "type": "article", "sectionId": "education", "sectionName": "Education", "webPublicationDate": "2014-01-30T00:42:33Z", "webTitle": "Lengthen school days and cut holidays, says former Tory adviser", "webUrl": "https://www.theguardian.com/education/2014/jan/30/lengthen-school-days-cut-holidays-tory-adviser", "apiUrl": "https://content.guardianapis.com/education/2014/jan/30/lengthen-school-days-cut-holidays-tory-adviser", "isHosted": false, "pillarId": "pillar/news", "pillarName": "News"}, {"id": "society/2014/jan/30/local-government-cuts-poorest-areas", "type": "article", "sectionId": "society", "sectionName": "Society", "webPublicationDate": "2014-01-30T00:05:00Z", "webTitle": "Local government cuts hitting poorest areas hardest, figures show", "webUrl": "https://www.theguardian.com/society/2014/jan/30/local-government-cuts-poorest-areas", "apiUrl": "https://content.guardianapis.com/society/2014/jan/30/local-government-cuts-poorest-areas", "isHosted": false, "pillarId": "pillar/news", "pillarName": "News"}, {"id": "money/2014/jan/30/poorest-households-england-council-tax-rise", "type": "article", "sectionId": "money", "sectionName": "Money", "webPublicationDate": "2014-01-30T00:01:00Z", "webTitle": "More than 270,000 poorest households in England face \u00a380 council tax rise", "webUrl": "https://www.theguardian.com/money/2014/jan/30/poorest-households-england-council-tax-rise", "apiUrl": "https://content.guardianapis.com/money/2014/jan/30/poorest-households-england-council-tax-rise", "isHosted": false, "pillarId": "pillar/lifestyle", "pillarName": "Lifestyle"}, {"id": "politics/2014/jan/29/esther-addley-diary-mandelson-euston-flat", "type": "article", "sectionId": "politics", "sectionName": "Politics", "webPublicationDate": "2014-01-29T23:00:00Z", "webTitle": "Esther Addley's diary: Could Peter Mandelson's Euston hovel explain his opposition to HS2?", "webUrl": "https://www.theguardian.com/politics/2014/jan/29/esther-addley-diary-mandelson-euston-flat", "apiUrl": "https://content.guardianapis.com/politics/2014/jan/29/esther-addley-diary-mandelson-euston-flat", "isHosted": false, "pillarId": "pillar/news", "pillarName": "News"}, {"id": "commentisfree/2014/jan/29/alex-salmond-mark-carney-money-talks", "type": "article", "sectionId": "commentisfree", "sectionName": "Opinion", "webPublicationDate": "2014-01-29T22:09:41Z", "webTitle": "Alex Salmond and Mark Carney: money talks | Editorial", "webUrl": "https://www.theguardian.com/commentisfree/2014/jan/29/alex-salmond-mark-carney-money-talks", "apiUrl": "https://content.guardianapis.com/commentisfree/2014/jan/29/alex-salmond-mark-carney-money-talks", "isHosted": false, "pillarId": "pillar/opinion", "pillarName": "Opinion"}, {"id": "politics/2014/jan/29/labour-abolish-electoral-college-alan-johnson", "type": "article", "sectionId": "politics", "sectionName": "Politics", "webPublicationDate": "2014-01-29T21:28:49Z", "webTitle": "Labour set to abolish electoral college and switch to one-member-one-vote", "webUrl": "https://www.theguardian.com/politics/2014/jan/29/labour-abolish-electoral-college-alan-johnson", "apiUrl": "https://content.guardianapis.com/politics/2014/jan/29/labour-abolish-electoral-college-alan-johnson", "isHosted": false, "pillarId": "pillar/news", "pillarName": "News"}, {"id": "society/2014/jan/29/bedroom-tax-errors-hitting-most-vulnerable", "type": "article", "sectionId": "society", "sectionName": "Society", "webPublicationDate": "2014-01-29T21:00:01Z", "webTitle": "Bedroom tax errors hitting most vulnerable | @guardianletters", "webUrl": "https://www.theguardian.com/society/2014/jan/29/bedroom-tax-errors-hitting-most-vulnerable", "apiUrl": "https://content.guardianapis.com/society/2014/jan/29/bedroom-tax-errors-hitting-most-vulnerable", "isHosted": false, "pillarId": "pillar/news", "pillarName": "News"}, {"id": "politics/2014/jan/29/theresa-may-terror-suspects-citizenship-clegg-approval", "type": "article", "sectionId": "politics", "sectionName": "Politics", "webPublicationDate": "2014-01-29T20:59:24Z", "webTitle": "Theresa May plan capable of making foreign-born terror suspects stateless", "webUrl": "https://www.theguardian.com/politics/2014/jan/29/theresa-may-terror-suspects-citizenship-clegg-approval", "apiUrl": "https://content.guardianapis.com/politics/2014/jan/29/theresa-may-terror-suspects-citizenship-clegg-approval", "isHosted": false, "pillarId": "pillar/news", "pillarName": "News"}, {"id": "politics/2014/jan/29/queen-david-cameron", "type": "article", "sectionId": "politics", "sectionName": "Politics", "webPublicationDate": "2014-01-29T20:32:45Z", "webTitle": "Meetings with the Queen very valuable, says David Cameron", "webUrl": "https://www.theguardian.com/politics/2014/jan/29/queen-david-cameron", "apiUrl": "https://content.guardianapis.com/politics/2014/jan/29/queen-david-cameron", "isHosted": false, "pillarId": "pillar/news", "pillarName": "News"}, {"id": "politics/2014/jan/29/ed-miliband-house-of-commons-tax-rate", "type": "article", "sectionId": "politics", "sectionName": "Politics", "webPublicationDate": "2014-01-29T20:09:44Z", "webTitle": "Ed Miliband turns away from zen and cashes in on 50p tax rate", "webUrl": "https://www.theguardian.com/politics/2014/jan/29/ed-miliband-house-of-commons-tax-rate", "apiUrl": "https://content.guardianapis.com/politics/2014/jan/29/ed-miliband-house-of-commons-tax-rate", "isHosted": false, "pillarId": "pillar/news", "pillarName": "News"}, {"id": "commentisfree/2014/jan/29/royals-want-new-boiler-we-pay-for-it", "type": "article", "sectionId": "commentisfree", "sectionName": "Opinion", "webPublicationDate": "2014-01-29T20:01:00Z", "webTitle": "Why are we subsidising the royal family at a time of gross inequality? | Suzanne Moore", "webUrl": "https://www.theguardian.com/commentisfree/2014/jan/29/royals-want-new-boiler-we-pay-for-it", "apiUrl": "https://content.guardianapis.com/commentisfree/2014/jan/29/royals-want-new-boiler-we-pay-for-it", "isHosted": false, "pillarId": "pillar/opinion", "pillarName": "Opinion"}, {"id": "society/2014/jan/29/ban-smoking-cars-children-lords-vote", "type": "article", "sectionId": "society", "sectionName": "Society", "webPublicationDate": "2014-01-29T19:50:16Z", "webTitle": "Ban on smoking in cars in front of children moves closer after Lords vote", "webUrl": "https://www.theguardian.com/society/2014/jan/29/ban-smoking-cars-children-lords-vote", "apiUrl": "https://content.guardianapis.com/society/2014/jan/29/ban-smoking-cars-children-lords-vote", "isHosted": false, "pillarId": "pillar/news", "pillarName": "News"}, {"id": "politics/2014/jan/29/mark-carney-scottish-independence-currency-union", "type": "article", "sectionId": "politics", "sectionName": "Politics", "webPublicationDate": "2014-01-29T19:10:25Z", "webTitle": "Mark Carney raises doubts over Scotland's plan to share the pound", "webUrl": "https://www.theguardian.com/politics/2014/jan/29/mark-carney-scottish-independence-currency-union", "apiUrl": "https://content.guardianapis.com/politics/2014/jan/29/mark-carney-scottish-independence-currency-union", "isHosted": false, "pillarId": "pillar/news", "pillarName": "News"}, {"id": "society/2014/jan/29/bookmakers-gambling-machine-testing-ministers", "type": "article", "sectionId": "society", "sectionName": "Society", "webPublicationDate": "2014-01-29T19:02:26Z", "webTitle": "Bookmakers must hand over gambling machine for testing, say ministers", "webUrl": "https://www.theguardian.com/society/2014/jan/29/bookmakers-gambling-machine-testing-ministers", "apiUrl": "https://content.guardianapis.com/society/2014/jan/29/bookmakers-gambling-machine-testing-ministers", "isHosted": false, "pillarId": "pillar/news", "pillarName": "News"}]}}