{"response": {"status": "ok", "userTier": "developer", "total": 17330, "startIndex": 1, "pageSize": 50, "currentPage": 1, "pages": 347, "orderBy": "newest", "results": [{"id": "politics/shortcuts/2012/jan/30/ed-balls-yvette-cooper-lasagne", "type": "article", "sectionId": "politics", "sectionName": "Politics", "webPublicationDate": "2012-01-30T20:00:04Z", "webTitle": "Ed Balls and Yvette Cooper's 'lasagne plot': the story so far", "webUrl": "https://www.theguardian.com/politics/shortcuts/2012/jan/30/ed-balls-yvette-cooper-lasagne", "apiUrl": "https://content.guardianapis.com/politics/shortcuts/2012/jan/30/ed-balls-yvette-cooper-lasagne", "isHosted": false, "pillarId": "pillar/news", "pillarName": "News"}, {"id": "education/2012/jan/30/cereals-changing-colour-research", "type": "article", "sectionId": "education", "sectionName": "Education", "webPublicationDate": "2012-01-30T16:30:01Z", "webTitle": "Cereals with that chameleon quality", "webUrl": "https://www.theguardian.com/education/2012/jan/30/cereals-changing-colour-research", "apiUrl": "https://content.guardianapis.com/education/2012/jan/30/cereals-changing-colour-research", "isHosted": false, "pillarId": "pillar/news", "pillarName": "News"}, {"id": "lifeandstyle/2012/jan/30/food-and-drink", "type": "article", "sectionId": "food", "sectionName": "Food", "webPublicationDate": "2012-01-30T15:31:00Z", "webTitle": "Tex Mex chicken salad", "webUrl": "https://www.theguardian.com/lifeandstyle/2012/jan/30/food-and-drink", "apiUrl": "https://content.guardianapis.com/lifeandstyle/2012/jan/30/food-and-drink", "isHosted": false, "pillarId": "pillar/lifestyle", "pillarName": "Lifestyle"}, {"id": "lifeandstyle/video/2012/jan/30/how-to-cook-tex-mex-chicken-salad-video", "type": "video", "sectionId": "lifeandstyle", "sectionName": "Life and style", "webPublicationDate": "2012-01-30T10:00:00Z", "webTitle": "How to cook Tex-Mex chicken salad - video", "webUrl": "https://www.theguardian.com/lifeandstyle/video/2012/jan/30/how-to-cook-tex-mex-chicken-salad-video", "apiUrl": "https://content.guardianapis.com/lifeandstyle/video/2012/jan/30/how-to-cook-tex-mex-chicken-salad-video", "isHosted": false, "pillarId": "pillar/lifestyle", "pillarName": "Lifestyle"}, {"id": "lifeandstyle/wordofmouth/2012/jan/30/rise-of-smoking-food", "type": "article", "sectionId": "lifeandstyle", "sectionName": "Life and style", "webPublicationDate": "2012-01-30T10:00:00Z", "webTitle": "The rise and rise of smoking food", "webUrl": "https://www.theguardian.com/lifeandstyle/wordofmouth/2012/jan/30/rise-of-smoking-food", "apiUrl": "https://content.guardianapis.com/lifeandstyle/wordofmouth/2012/jan/30/rise-of-smoking-food", "isHosted": false, "pillarId": "pillar/lifestyle", "pillarName": "Lifestyle"}, {"id": "environment/2012/jan/30/sustainable-seafood-products-sharp-rise", "type": "article", "sectionId": "environment", "sectionName": "Environment", "webPublicationDate": "2012-01-30T00:01:03Z", "webTitle": "Sharp rise in sustainable seafood products on sale in UK", "webUrl": "https://www.theguardian.com/environment/2012/jan/30/sustainable-seafood-products-sharp-rise", "apiUrl": "https://content.guardianapis.com/environment/2012/jan/30/sustainable-seafood-products-sharp-rise", "isHosted": false, "pillarId": "pillar/news", "pillarName": "News"}, {"id": "commentisfree/2012/jan/29/extravagance-in-times-of-austerity", "type": "article", "sectionId": "commentisfree", "sectionName": "Opinion", "webPublicationDate": "2012-01-29T19:00:01Z", "webTitle": "The readers' editor on\u2026 coverage of extravagance in times of austerity", "webUrl": "https://www.theguardian.com/commentisfree/2012/jan/29/extravagance-in-times-of-austerity", "apiUrl": "https://content.guardianapis.com/commentisfree/2012/jan/29/extravagance-in-times-of-austerity", "isHosted": false, "pillarId": "pillar/opinion", "pillarName": "Opinion"}, {"id": "world/2012/jan/29/turkey-istanbul-arabic-speaking-visitors", "type": "article", "sectionId": "world", "sectionName": "World news", "webPublicationDate": "2012-01-29T15:31:37Z", "webTitle": "Istanbul restaurants change tune \u2013 and language \u2013 to woo big-spending Arabs", "webUrl": "https://www.theguardian.com/world/2012/jan/29/turkey-istanbul-arabic-speaking-visitors", "apiUrl": "https://content.guardianapis.com/world/2012/jan/29/turkey-istanbul-arabic-speaking-visitors", "isHosted": false, "pillarId": "pillar/news", "pillarName": "News"}, {"id": "business/2012/jan/29/fast-food-chains-prosper-retailers-under-pressure", "type": "article", "sectionId": "business", "sectionName": "Business", "webPublicationDate": "2012-01-29T00:07:00Z", "webTitle": "Fast food chains prosper as cash-strapped consumers shun retailers", "webUrl": "https://www.theguardian.com/business/2012/jan/29/fast-food-chains-prosper-retailers-under-pressure", "apiUrl": "https://content.guardianapis.com/business/2012/jan/29/fast-food-chains-prosper-retailers-under-pressure", "isHosted": false, "pillarId": "pillar/news", "pillarName": "News"}, {"id": "lifeandstyle/2012/jan/29/wines-of-the-week-david-williams", "type": "article", "sectionId": "food", "sectionName": "Food", "webPublicationDate": "2012-01-29T00:05:39Z", "webTitle": "Wines of the week: David Williams", "webUrl": "https://www.theguardian.com/lifeandstyle/2012/jan/29/wines-of-the-week-david-williams", "apiUrl": "https://content.guardianapis.com/lifeandstyle/2012/jan/29/wines-of-the-week-david-williams", "isHosted": false, "pillarId": "pillar/lifestyle", "pillarName": "Lifestyle"}, {"id": "lifeandstyle/2012/jan/29/restaurant-review-20-st-johns-jay-rayner", "type": "article", "sectionId": "food", "sectionName": "Food", "webPublicationDate": "2012-01-29T00:05:00Z", "webTitle": "Restaurant review: 20 St John's", "webUrl": "https://www.theguardian.com/lifeandstyle/2012/jan/29/restaurant-review-20-st-johns-jay-rayner", "apiUrl": "https://content.guardianapis.com/lifeandstyle/2012/jan/29/restaurant-review-20-st-johns-jay-rayner", "isHosted": false, "pillarId": "pillar/lifestyle", "pillarName": "Lifestyle"}, {"id": "lifeandstyle/2012/jan/28/readers-favourite-photographs-songs-recipes", "type": "article", "sectionId": "lifeandstyle", "sectionName": "Life and style", "webPublicationDate": "2012-01-28T00:05:22Z", "webTitle": "Family life", "webUrl": "https://www.theguardian.com/lifeandstyle/2012/jan/28/readers-favourite-photographs-songs-recipes", "apiUrl": "https://content.guardianapis.com/lifeandstyle/2012/jan/28/readers-favourite-photographs-songs-recipes", "isHosted": false, "pillarId": "pillar/lifestyle", "pillarName": "Lifestyle"}, {"id": "lifeandstyle/2012/jan/27/za-za-bazaar-bristol-restaurant", "type": "article", "sectionId": "lifeandstyle", "sectionName": "Life and style", "webPublicationDate": "2012-01-27T22:59:27Z", "webTitle": "Restaurant review: Za Za Bazaar, Bristol | John Lanchester", "webUrl": "https://www.theguardian.com/lifeandstyle/2012/jan/27/za-za-bazaar-bristol-restaurant", "apiUrl": "https://content.guardianapis.com/lifeandstyle/2012/jan/27/za-za-bazaar-bristol-restaurant", "isHosted": false, "pillarId": "pillar/lifestyle", "pillarName": "Lifestyle"}, {"id": "lifeandstyle/2012/jan/27/open-old-wine-age-advice", "type": "article", "sectionId": "food", "sectionName": "Food", "webPublicationDate": "2012-01-27T22:59:13Z", "webTitle": "Wine: It's time to crack open the old stuff", "webUrl": "https://www.theguardian.com/lifeandstyle/2012/jan/27/open-old-wine-age-advice", "apiUrl": "https://content.guardianapis.com/lifeandstyle/2012/jan/27/open-old-wine-age-advice", "isHosted": false, "pillarId": "pillar/lifestyle", "pillarName": "Lifestyle"}, {"id": "lifeandstyle/2012/jan/27/halibut-stew-roast-rhubarb-recipes", "type": "article", "sectionId": "food", "sectionName": "Food", "webPublicationDate": "2012-01-27T22:59:10Z", "webTitle": "Yotam Ottolenghi's recipes for roasted rhubarb with sweet labneh", "webUrl": "https://www.theguardian.com/lifeandstyle/2012/jan/27/halibut-stew-roast-rhubarb-recipes", "apiUrl": "https://content.guardianapis.com/lifeandstyle/2012/jan/27/halibut-stew-roast-rhubarb-recipes", "isHosted": false, "pillarId": "pillar/lifestyle", "pillarName": "Lifestyle"}, {"id": "lifeandstyle/2012/jan/27/marmalade-recipes-preserves-dan-lepard", "type": "article", "sectionId": "lifeandstyle", "sectionName": "Life and style", "webPublicationDate": "2012-01-27T22:59:07Z", "webTitle": "Marmalade recipes | Dan Lepard", "webUrl": "https://www.theguardian.com/lifeandstyle/2012/jan/27/marmalade-recipes-preserves-dan-lepard", "apiUrl": "https://content.guardianapis.com/lifeandstyle/2012/jan/27/marmalade-recipes-preserves-dan-lepard", "isHosted": false, "pillarId": "pillar/lifestyle", "pillarName": "Lifestyle"}, {"id": "lifeandstyle/2012/jan/27/cumin-recipes-hugh-fearnley-whittingstall", "type": "article", "sectionId": "lifeandstyle", "sectionName": "Life and style", "webPublicationDate": "2012-01-27T22:59:00Z", "webTitle": "Cumin recipes | Hugh Fearnley-Whittingstall", "webUrl": "https://www.theguardian.com/lifeandstyle/2012/jan/27/cumin-recipes-hugh-fearnley-whittingstall", "apiUrl": "https://content.guardianapis.com/lifeandstyle/2012/jan/27/cumin-recipes-hugh-fearnley-whittingstall", "isHosted": false, "pillarId": "pillar/lifestyle", "pillarName": "Lifestyle"}, {"id": "lifeandstyle/wordofmouth/2012/jan/26/beery-tyranny-pint-glass", "type": "article", "sectionId": "food", "sectionName": "Food", "webPublicationDate": "2012-01-27T10:00:00Z", "webTitle": "Calling time on the pint glass", "webUrl": "https://www.theguardian.com/lifeandstyle/wordofmouth/2012/jan/26/beery-tyranny-pint-glass", "apiUrl": "https://content.guardianapis.com/lifeandstyle/wordofmouth/2012/jan/26/beery-tyranny-pint-glass", "isHosted": false, "pillarId": "pillar/lifestyle", "pillarName": "Lifestyle"}, {"id": "lifeandstyle/2012/jan/27/low-alcohol-beers-sales", "type": "article", "sectionId": "food", "sectionName": "Food", "webPublicationDate": "2012-01-27T08:59:00Z", "webTitle": "Improved taste leads to surge in sales of low-alcohol beers", "webUrl": "https://www.theguardian.com/lifeandstyle/2012/jan/27/low-alcohol-beers-sales", "apiUrl": "https://content.guardianapis.com/lifeandstyle/2012/jan/27/low-alcohol-beers-sales", "isHosted": false, "pillarId": "pillar/lifestyle", "pillarName": "Lifestyle"}, {"id": "lifeandstyle/2012/jan/27/lorraine-pascale-comfort-food-recipes", "type": "article", "sectionId": "lifeandstyle", "sectionName": "Life and style", "webPublicationDate": "2012-01-27T00:15:01Z", "webTitle": "Lorraine Pascale's comfort food recipes", "webUrl": "https://www.theguardian.com/lifeandstyle/2012/jan/27/lorraine-pascale-comfort-food-recipes", "apiUrl": "https://content.guardianapis.com/lifeandstyle/2012/jan/27/lorraine-pascale-comfort-food-recipes", "isHosted": false, "pillarId": "pillar/lifestyle", "pillarName": "Lifestyle"}, {"id": "lifeandstyle/2012/jan/27/pears-sauternes-cardamom-lorraine-pascale-recipe", "type": "article", "sectionId": "lifeandstyle", "sectionName": "Life and style", "webPublicationDate": "2012-01-27T00:05:15Z", "webTitle": "Pears poached in sauternes, cardamom and ginger recipe | Lorraine Pascale", "webUrl": "https://www.theguardian.com/lifeandstyle/2012/jan/27/pears-sauternes-cardamom-lorraine-pascale-recipe", "apiUrl": "https://content.guardianapis.com/lifeandstyle/2012/jan/27/pears-sauternes-cardamom-lorraine-pascale-recipe", "isHosted": false, "pillarId": "pillar/lifestyle", "pillarName": "Lifestyle"}, {"id": "lifeandstyle/2012/jan/27/haddock-fennel-basil-lorraine-pascale-recipe", "type": "article", "sectionId": "lifeandstyle", "sectionName": "Life and style", "webPublicationDate": "2012-01-27T00:05:14Z", "webTitle": "Stove-top haddock with fennel seeds and basil recipe | Lorraine Pascale", "webUrl": "https://www.theguardian.com/lifeandstyle/2012/jan/27/haddock-fennel-basil-lorraine-pascale-recipe", "apiUrl": "https://content.guardianapis.com/lifeandstyle/2012/jan/27/haddock-fennel-basil-lorraine-pascale-recipe", "isHosted": false, "pillarId": "pillar/lifestyle", "pillarName": "Lifestyle"}, {"id": "lifeandstyle/2012/jan/27/butternut-squash-quinoa-feta-pascale-recipe", "type": "article", "sectionId": "lifeandstyle", "sectionName": "Life and style", "webPublicationDate": "2012-01-27T00:05:12Z", "webTitle": "Butternut squash with quinoa, feta, basil and mint recipe | Lorraine Pascale", "webUrl": "https://www.theguardian.com/lifeandstyle/2012/jan/27/butternut-squash-quinoa-feta-pascale-recipe", "apiUrl": "https://content.guardianapis.com/lifeandstyle/2012/jan/27/butternut-squash-quinoa-feta-pascale-recipe", "isHosted": false, "pillarId": "pillar/lifestyle", "pillarName": "Lifestyle"}, {"id": "lifeandstyle/wordofmouth/2012/jan/26/is-red-tractor-pork-high-welfare", "type": "article", "sectionId": "food", "sectionName": "Food", "webPublicationDate": "2012-01-26T12:05:00Z", "webTitle": "Is Red Tractor pork really 'high welfare'?", "webUrl": "https://www.theguardian.com/lifeandstyle/wordofmouth/2012/jan/26/is-red-tractor-pork-high-welfare", "apiUrl": "https://content.guardianapis.com/lifeandstyle/wordofmouth/2012/jan/26/is-red-tractor-pork-high-welfare", "isHosted": false, "pillarId": "pillar/lifestyle", "pillarName": "Lifestyle"}, {"id": "lifeandstyle/2012/jan/26/felicity-cloake-comfort-food", "type": "article", "sectionId": "lifeandstyle", "sectionName": "Life and style", "webPublicationDate": "2012-01-26T00:15:01Z", "webTitle": "Felicity Cloake's comfort food", "webUrl": "https://www.theguardian.com/lifeandstyle/2012/jan/26/felicity-cloake-comfort-food", "apiUrl": "https://content.guardianapis.com/lifeandstyle/2012/jan/26/felicity-cloake-comfort-food", "isHosted": false, "pillarId": "pillar/lifestyle", "pillarName": "Lifestyle"}, {"id": "lifeandstyle/wordofmouth/2012/jan/26/how-to-cook-perfect-ginger-cake", "type": "article", "sectionId": "food", "sectionName": "Food", "webPublicationDate": "2012-01-26T00:10:00Z", "webTitle": "How to cook perfect ginger cake", "webUrl": "https://www.theguardian.com/lifeandstyle/wordofmouth/2012/jan/26/how-to-cook-perfect-ginger-cake", "apiUrl": "https://content.guardianapis.com/lifeandstyle/wordofmouth/2012/jan/26/how-to-cook-perfect-ginger-cake", "isHosted": false, "pillarId": "pillar/lifestyle", "pillarName": "Lifestyle"}, {"id": "lifeandstyle/2012/jan/25/chefs-on-wheels-revolutionary-takeaway", "type": "article", "sectionId": "food", "sectionName": "Food", "webPublicationDate": "2012-01-25T21:30:00Z", "webTitle": "Chefs on wheels: a revolutionary takeaway", "webUrl": "https://www.theguardian.com/lifeandstyle/2012/jan/25/chefs-on-wheels-revolutionary-takeaway", "apiUrl": "https://content.guardianapis.com/lifeandstyle/2012/jan/25/chefs-on-wheels-revolutionary-takeaway", "isHosted": false, "pillarId": "pillar/lifestyle", "pillarName": "Lifestyle"}, {"id": "tv-and-radio/2012/jan/25/jungle-gremlins-of-java-review", "type": "article", "sectionId": "tv-and-radio", "sectionName": "Television & radio", "webPublicationDate": "2012-01-25T21:05:00Z", "webTitle": "TV review: Natural World \u2013 Jungle Gremlins of Java | How to Cook Like Heston", "webUrl": "https://www.theguardian.com/tv-and-radio/2012/jan/25/jungle-gremlins-of-java-review", "apiUrl": "https://content.guardianapis.com/tv-and-radio/2012/jan/25/jungle-gremlins-of-java-review", "isHosted": false, "pillarId": "pillar/arts", "pillarName": "Arts"}, {"id": "lifeandstyle/2012/jan/25/spaghetti-with-clams-recipe", "type": "article", "sectionId": "lifeandstyle", "sectionName": "Life and style", "webPublicationDate": "2012-01-25T15:59:00Z", "webTitle": "Spaghetti with clams recipe | Angela Hartnett", "webUrl": "https://www.theguardian.com/lifeandstyle/2012/jan/25/spaghetti-with-clams-recipe", "apiUrl": "https://content.guardianapis.com/lifeandstyle/2012/jan/25/spaghetti-with-clams-recipe", "isHosted": false, "pillarId": "pillar/lifestyle", "pillarName": "Lifestyle"}, {"id": "lifeandstyle/wordofmouth/2012/jan/25/how-chips-served", "type": "article", "sectionId": "food", "sectionName": "Food", "webPublicationDate": "2012-01-25T14:00:00Z", "webTitle": "How are your chips being served?", "webUrl": "https://www.theguardian.com/lifeandstyle/wordofmouth/2012/jan/25/how-chips-served", "apiUrl": "https://content.guardianapis.com/lifeandstyle/wordofmouth/2012/jan/25/how-chips-served", "isHosted": false, "pillarId": "pillar/lifestyle", "pillarName": "Lifestyle"}, {"id": "lifeandstyle/wordofmouth/2012/jan/25/burns-night-supper-vegetarian-haggis", "type": "article", "sectionId": "food", "sectionName": "Food", "webPublicationDate": "2012-01-25T10:00:00Z", "webTitle": "Burns Night supper: vegetarian haggis", "webUrl": "https://www.theguardian.com/lifeandstyle/wordofmouth/2012/jan/25/burns-night-supper-vegetarian-haggis", "apiUrl": "https://content.guardianapis.com/lifeandstyle/wordofmouth/2012/jan/25/burns-night-supper-vegetarian-haggis", "isHosted": false, "pillarId": "pillar/lifestyle", "pillarName": "Lifestyle"}, {"id": "lifeandstyle/2012/jan/25/allegra-mcevedy-comfort-food-recipes", "type": "article", "sectionId": "lifeandstyle", "sectionName": "Life and style", "webPublicationDate": "2012-01-25T00:15:00Z", "webTitle": "Allegra McEvedy's comfort food recipes", "webUrl": "https://www.theguardian.com/lifeandstyle/2012/jan/25/allegra-mcevedy-comfort-food-recipes", "apiUrl": "https://content.guardianapis.com/lifeandstyle/2012/jan/25/allegra-mcevedy-comfort-food-recipes", "isHosted": false, "pillarId": "pillar/lifestyle", "pillarName": "Lifestyle"}, {"id": "lifeandstyle/2012/jan/25/salad-scheherazade-allegra-mcevedy-recipe", "type": "article", "sectionId": "lifeandstyle", "sectionName": "Life and style", "webPublicationDate": "2012-01-25T00:05:05Z", "webTitle": "Salad scheherazade recipe | Allegra McEvedy", "webUrl": "https://www.theguardian.com/lifeandstyle/2012/jan/25/salad-scheherazade-allegra-mcevedy-recipe", "apiUrl": "https://content.guardianapis.com/lifeandstyle/2012/jan/25/salad-scheherazade-allegra-mcevedy-recipe", "isHosted": false, "pillarId": "pillar/lifestyle", "pillarName": "Lifestyle"}, {"id": "lifeandstyle/2012/jan/25/clams-a-orda-allegra-mcevedy-recipe", "type": "article", "sectionId": "lifeandstyle", "sectionName": "Life and style", "webPublicationDate": "2012-01-25T00:05:04Z", "webTitle": "Clams a\u00e7orda recipe | Allegra McEvedy", "webUrl": "https://www.theguardian.com/lifeandstyle/2012/jan/25/clams-a-orda-allegra-mcevedy-recipe", "apiUrl": "https://content.guardianapis.com/lifeandstyle/2012/jan/25/clams-a-orda-allegra-mcevedy-recipe", "isHosted": false, "pillarId": "pillar/lifestyle", "pillarName": "Lifestyle"}, {"id": "lifeandstyle/2012/jan/25/farro-lentil-soup-allegra-mcevedy-recipe", "type": "article", "sectionId": "lifeandstyle", "sectionName": "Life and style", "webPublicationDate": "2012-01-25T00:05:00Z", "webTitle": "Farro and lentil soup recipe | Allegra McEvedy", "webUrl": "https://www.theguardian.com/lifeandstyle/2012/jan/25/farro-lentil-soup-allegra-mcevedy-recipe", "apiUrl": "https://content.guardianapis.com/lifeandstyle/2012/jan/25/farro-lentil-soup-allegra-mcevedy-recipe", "isHosted": false, "pillarId": "pillar/lifestyle", "pillarName": "Lifestyle"}, {"id": "money/work-blog/2012/jan/24/mcdonalds-jobs-employment-mcjob", "type": "article", "sectionId": "money", "sectionName": "Money", "webPublicationDate": "2012-01-24T14:09:20Z", "webTitle": "Did your career get off to a frying start at McDonald's?", "webUrl": "https://www.theguardian.com/money/work-blog/2012/jan/24/mcdonalds-jobs-employment-mcjob", "apiUrl": "https://content.guardianapis.com/money/work-blog/2012/jan/24/mcdonalds-jobs-employment-mcjob", "isHosted": false, "pillarId": "pillar/lifestyle", "pillarName": "Lifestyle"}, {"id": "lifeandstyle/wordofmouth/2012/jan/24/vegetarian-cookbooks-pick-crop", "type": "article", "sectionId": "food", "sectionName": "Food", "webPublicationDate": "2012-01-24T09:30:00Z", "webTitle": "Vegetarian cookbooks: pick of the crop", "webUrl": "https://www.theguardian.com/lifeandstyle/wordofmouth/2012/jan/24/vegetarian-cookbooks-pick-crop", "apiUrl": "https://content.guardianapis.com/lifeandstyle/wordofmouth/2012/jan/24/vegetarian-cookbooks-pick-crop", "isHosted": false, "pillarId": "pillar/lifestyle", "pillarName": "Lifestyle"}, {"id": "lifeandstyle/2012/jan/24/dan-lepard-comfort-food-recipes", "type": "article", "sectionId": "lifeandstyle", "sectionName": "Life and style", "webPublicationDate": "2012-01-24T00:15:00Z", "webTitle": "Dan Lepard's comfort food recipes", "webUrl": "https://www.theguardian.com/lifeandstyle/2012/jan/24/dan-lepard-comfort-food-recipes", "apiUrl": "https://content.guardianapis.com/lifeandstyle/2012/jan/24/dan-lepard-comfort-food-recipes", "isHosted": false, "pillarId": "pillar/lifestyle", "pillarName": "Lifestyle"}, {"id": "business/2012/jan/23/fortnum-mason-hamper-data-security", "type": "article", "sectionId": "business", "sectionName": "Business", "webPublicationDate": "2012-01-23T14:10:10Z", "webTitle": "Fortnum & Mason in breach of credit card data security standards over hamper refunds", "webUrl": "https://www.theguardian.com/business/2012/jan/23/fortnum-mason-hamper-data-security", "apiUrl": "https://content.guardianapis.com/business/2012/jan/23/fortnum-mason-hamper-data-security", "isHosted": false, "pillarId": "pillar/news", "pillarName": "News"}, {"id": "lifeandstyle/wordofmouth/2012/jan/23/food-in-britain", "type": "article", "sectionId": "food", "sectionName": "Food", "webPublicationDate": "2012-01-23T10:10:00Z", "webTitle": "Food in Britain: better than we think", "webUrl": "https://www.theguardian.com/lifeandstyle/wordofmouth/2012/jan/23/food-in-britain", "apiUrl": "https://content.guardianapis.com/lifeandstyle/wordofmouth/2012/jan/23/food-in-britain", "isHosted": false, "pillarId": "pillar/lifestyle", "pillarName": "Lifestyle"}, {"id": "lifeandstyle/2012/jan/23/angela-hartnett-comfort-food", "type": "article", "sectionId": "lifeandstyle", "sectionName": "Life and style", "webPublicationDate": "2012-01-23T00:15:00Z", "webTitle": "Angela Hartnett's comfort food recipes", "webUrl": "https://www.theguardian.com/lifeandstyle/2012/jan/23/angela-hartnett-comfort-food", "apiUrl": "https://content.guardianapis.com/lifeandstyle/2012/jan/23/angela-hartnett-comfort-food", "isHosted": false, "pillarId": "pillar/lifestyle", "pillarName": "Lifestyle"}, {"id": "lifeandstyle/2012/jan/23/roast-leg-lamb-angela-hartnett", "type": "article", "sectionId": "lifeandstyle", "sectionName": "Life and style", "webPublicationDate": "2012-01-23T00:05:00Z", "webTitle": "Roast leg of lamb recipe | Angela Hartnett", "webUrl": "https://www.theguardian.com/lifeandstyle/2012/jan/23/roast-leg-lamb-angela-hartnett", "apiUrl": "https://content.guardianapis.com/lifeandstyle/2012/jan/23/roast-leg-lamb-angela-hartnett", "isHosted": false, "pillarId": "pillar/lifestyle", "pillarName": "Lifestyle"}, {"id": "lifeandstyle/2012/jan/23/crab-linguine-angela-hartnett", "type": "article", "sectionId": "lifeandstyle", "sectionName": "Life and style", "webPublicationDate": "2012-01-23T00:05:00Z", "webTitle": "Crab linguine recipe | Angela Hartnett", "webUrl": "https://www.theguardian.com/lifeandstyle/2012/jan/23/crab-linguine-angela-hartnett", "apiUrl": "https://content.guardianapis.com/lifeandstyle/2012/jan/23/crab-linguine-angela-hartnett", "isHosted": false, "pillarId": "pillar/lifestyle", "pillarName": "Lifestyle"}, {"id": "lifeandstyle/2012/jan/23/thai-fishcakes-angela-hartnett", "type": "article", "sectionId": "lifeandstyle", "sectionName": "Life and style", "webPublicationDate": "2012-01-23T00:05:00Z", "webTitle": "Thai fishcakes recipe | Angela Hartnett", "webUrl": "https://www.theguardian.com/lifeandstyle/2012/jan/23/thai-fishcakes-angela-hartnett", "apiUrl": "https://content.guardianapis.com/lifeandstyle/2012/jan/23/thai-fishcakes-angela-hartnett", "isHosted": false, "pillarId": "pillar/lifestyle", "pillarName": "Lifestyle"}, {"id": "lifeandstyle/2012/jan/22/italian-refuse-give-up-ice-cream", "type": "article", "sectionId": "food", "sectionName": "Food", "webPublicationDate": "2012-01-22T18:32:17Z", "webTitle": "Italians refuse to give up their ice-cream amid the belt-tightening", "webUrl": "https://www.theguardian.com/lifeandstyle/2012/jan/22/italian-refuse-give-up-ice-cream", "apiUrl": "https://content.guardianapis.com/lifeandstyle/2012/jan/22/italian-refuse-give-up-ice-cream", "isHosted": false, "pillarId": "pillar/lifestyle", "pillarName": "Lifestyle"}, {"id": "lifeandstyle/2012/jan/22/fruit-vegetable-consumption-poorer-families", "type": "article", "sectionId": "society", "sectionName": "Society", "webPublicationDate": "2012-01-22T13:24:50Z", "webTitle": "Fruit and vegetable consumption by poorer families falls 30%, figures show", "webUrl": "https://www.theguardian.com/lifeandstyle/2012/jan/22/fruit-vegetable-consumption-poorer-families", "apiUrl": "https://content.guardianapis.com/lifeandstyle/2012/jan/22/fruit-vegetable-consumption-poorer-families", "isHosted": false, "pillarId": "pillar/news", "pillarName": "News"}, {"id": "lifeandstyle/gallery/2012/jan/22/olympic-diet-in-pictures", "type": "gallery", "sectionId": "lifeandstyle", "sectionName": "Life and style", "webPublicationDate": "2012-01-22T11:08:23Z", "webTitle": "The Olympic Diet - in pictures", "webUrl": "https://www.theguardian.com/lifeandstyle/gallery/2012/jan/22/olympic-diet-in-pictures", "apiUrl": "https://content.guardianapis.com/lifeandstyle/gallery/2012/jan/22/olympic-diet-in-pictures", "isHosted": false, "pillarId": "pillar/lifestyle", "pillarName": "Lifestyle"}, {"id": "lifeandstyle/2012/jan/22/christine-bleakley-interview-food", "type": "article", "sectionId": "food", "sectionName": "Food", "webPublicationDate": "2012-01-22T00:10:09Z", "webTitle": "Christine Bleakley: 'I love getting a burger at the football'", "webUrl": "https://www.theguardian.com/lifeandstyle/2012/jan/22/christine-bleakley-interview-food", "apiUrl": "https://content.guardianapis.com/lifeandstyle/2012/jan/22/christine-bleakley-interview-food", "isHosted": false, "pillarId": "pillar/lifestyle", "pillarName": "Lifestyle"}, {"id": "lifeandstyle/2012/jan/22/stephen-fry-breakfast-food-tales", "type": "article", "sectionId": "lifeandstyle", "sectionName": "Life and style", "webPublicationDate": "2012-01-22T00:10:01Z", "webTitle": "Breakfast with Stephen Fry", "webUrl": "https://www.theguardian.com/lifeandstyle/2012/jan/22/stephen-fry-breakfast-food-tales", "apiUrl": "https://content.guardianapis.com/lifeandstyle/2012/jan/22/stephen-fry-breakfast-food-tales", "isHosted": false, "pillarId": "pillar/lifestyle", "pillarName": "Lifestyle"}, {"id": "lifeandstyle/2012/jan/22/jay-rayner-butley-orford-oysterage", "type": "article", "sectionId": "food", "sectionName": "Food", "webPublicationDate": "2012-01-22T00:10:00Z", "webTitle": "Restaurant review: Butley Orford Oysterage", "webUrl": "https://www.theguardian.com/lifeandstyle/2012/jan/22/jay-rayner-butley-orford-oysterage", "apiUrl": "https://content.guardianapis.com/lifeandstyle/2012/jan/22/jay-rayner-butley-orford-oysterage", "isHosted": false, "pillarId": "pillar/lifestyle", "pillarName": "Lifestyle"}]}}