{"response": {"status": "ok", "userTier": "developer", "total": 14438, "startIndex": 1, "pageSize": 50, "currentPage": 1, "pages": 289, "orderBy": "newest", "results": [{"id": "travel/2010/jan/30/sweden-fish-travel", "type": "article", "sectionId": "travel", "sectionName": "Travel", "webPublicationDate": "2010-01-30T00:11:36Z", "webTitle": "Weekend travel special: Seafood treats in Sweden", "webUrl": "https://www.theguardian.com/travel/2010/jan/30/sweden-fish-travel", "apiUrl": "https://content.guardianapis.com/travel/2010/jan/30/sweden-fish-travel", "isHosted": false, "pillarId": "pillar/lifestyle", "pillarName": "Lifestyle"}, {"id": "travel/2010/jan/30/skiing-switzerland-self-catering-recipes", "type": "article", "sectionId": "travel", "sectionName": "Travel", "webPublicationDate": "2010-01-30T00:11:21Z", "webTitle": "Weekend travel special: Hugh Fearnley-Whittingstall in Switzerland", "webUrl": "https://www.theguardian.com/travel/2010/jan/30/skiing-switzerland-self-catering-recipes", "apiUrl": "https://content.guardianapis.com/travel/2010/jan/30/skiing-switzerland-self-catering-recipes", "isHosted": false, "pillarId": "pillar/lifestyle", "pillarName": "Lifestyle"}, {"id": "lifeandstyle/2010/jan/30/midsummer-house-restaurant-review", "type": "article", "sectionId": "lifeandstyle", "sectionName": "Life and style", "webPublicationDate": "2010-01-30T00:10:50Z", "webTitle": "Restaurant: Midsummer House, Cambridge", "webUrl": "https://www.theguardian.com/lifeandstyle/2010/jan/30/midsummer-house-restaurant-review", "apiUrl": "https://content.guardianapis.com/lifeandstyle/2010/jan/30/midsummer-house-restaurant-review", "isHosted": false, "pillarId": "pillar/lifestyle", "pillarName": "Lifestyle"}, {"id": "lifeandstyle/2010/jan/30/family-life-your-stories", "type": "article", "sectionId": "lifeandstyle", "sectionName": "Life and style", "webPublicationDate": "2010-01-30T00:05:39Z", "webTitle": "Family life", "webUrl": "https://www.theguardian.com/lifeandstyle/2010/jan/30/family-life-your-stories", "apiUrl": "https://content.guardianapis.com/lifeandstyle/2010/jan/30/family-life-your-stories", "isHosted": false, "pillarId": "pillar/lifestyle", "pillarName": "Lifestyle"}, {"id": "travel/2010/jan/30/the-pudding-club-the-cotswolds", "type": "article", "sectionId": "travel", "sectionName": "Travel", "webPublicationDate": "2010-01-30T00:05:10Z", "webTitle": "Life is sweet at the Pudding Club", "webUrl": "https://www.theguardian.com/travel/2010/jan/30/the-pudding-club-the-cotswolds", "apiUrl": "https://content.guardianapis.com/travel/2010/jan/30/the-pudding-club-the-cotswolds", "isHosted": false, "pillarId": "pillar/lifestyle", "pillarName": "Lifestyle"}, {"id": "travel/gallery/2010/jan/30/hugh-fearnley-whittingstall-ski-switzerland", "type": "gallery", "sectionId": "travel", "sectionName": "Travel", "webPublicationDate": "2010-01-30T00:04:00Z", "webTitle": "Hugh Fearnley-Whittingstall turns chalet chef", "webUrl": "https://www.theguardian.com/travel/gallery/2010/jan/30/hugh-fearnley-whittingstall-ski-switzerland", "apiUrl": "https://content.guardianapis.com/travel/gallery/2010/jan/30/hugh-fearnley-whittingstall-ski-switzerland", "isHosted": false, "pillarId": "pillar/lifestyle", "pillarName": "Lifestyle"}, {"id": "lifeandstyle/wordofmouth/2010/jan/29/madrid-fusion-conference", "type": "article", "sectionId": "lifeandstyle", "sectionName": "Life and style", "webPublicationDate": "2010-01-29T11:50:00Z", "webTitle": "Mixed up con Fusi\u00f3n", "webUrl": "https://www.theguardian.com/lifeandstyle/wordofmouth/2010/jan/29/madrid-fusion-conference", "apiUrl": "https://content.guardianapis.com/lifeandstyle/wordofmouth/2010/jan/29/madrid-fusion-conference", "isHosted": false, "pillarId": "pillar/lifestyle", "pillarName": "Lifestyle"}, {"id": "lifeandstyle/wordofmouth/2010/jan/29/office-work-cake-clubs", "type": "article", "sectionId": "lifeandstyle", "sectionName": "Life and style", "webPublicationDate": "2010-01-29T09:25:00Z", "webTitle": "Office cake clubs: don't miss your slice of the action", "webUrl": "https://www.theguardian.com/lifeandstyle/wordofmouth/2010/jan/29/office-work-cake-clubs", "apiUrl": "https://content.guardianapis.com/lifeandstyle/wordofmouth/2010/jan/29/office-work-cake-clubs", "isHosted": false, "pillarId": "pillar/lifestyle", "pillarName": "Lifestyle"}, {"id": "lifeandstyle/audio/2010/jan/28/anarchist-restaurant-bristol", "type": "audio", "sectionId": "food", "sectionName": "Food", "webPublicationDate": "2010-01-28T12:44:18Z", "webTitle": "Steven Morris reports from a 'rebel restaurant' set up by anarchists in Bristol", "webUrl": "https://www.theguardian.com/lifeandstyle/audio/2010/jan/28/anarchist-restaurant-bristol", "apiUrl": "https://content.guardianapis.com/lifeandstyle/audio/2010/jan/28/anarchist-restaurant-bristol", "isHosted": false, "pillarId": "pillar/lifestyle", "pillarName": "Lifestyle"}, {"id": "lifeandstyle/2010/jan/28/bristol-anarchist-restaurant", "type": "article", "sectionId": "food", "sectionName": "Food", "webPublicationDate": "2010-01-28T11:11:46Z", "webTitle": "Bristol's rebel restaurant is the hottest ticket in town", "webUrl": "https://www.theguardian.com/lifeandstyle/2010/jan/28/bristol-anarchist-restaurant", "apiUrl": "https://content.guardianapis.com/lifeandstyle/2010/jan/28/bristol-anarchist-restaurant", "isHosted": false, "pillarId": "pillar/lifestyle", "pillarName": "Lifestyle"}, {"id": "lifeandstyle/wordofmouth/2010/jan/28/food-yoga", "type": "article", "sectionId": "lifeandstyle", "sectionName": "Life and style", "webPublicationDate": "2010-01-28T10:00:00Z", "webTitle": "Food yoga", "webUrl": "https://www.theguardian.com/lifeandstyle/wordofmouth/2010/jan/28/food-yoga", "apiUrl": "https://content.guardianapis.com/lifeandstyle/wordofmouth/2010/jan/28/food-yoga", "isHosted": false, "pillarId": "pillar/lifestyle", "pillarName": "Lifestyle"}, {"id": "global/2010/jan/28/flat-white-coffee-peter-andre", "type": "article", "sectionId": "food", "sectionName": "Food", "webPublicationDate": "2010-01-28T00:05:14Z", "webTitle": "The flat white: three espressos, lots of milk and Peter Andre", "webUrl": "https://www.theguardian.com/global/2010/jan/28/flat-white-coffee-peter-andre", "apiUrl": "https://content.guardianapis.com/global/2010/jan/28/flat-white-coffee-peter-andre", "isHosted": false, "pillarId": "pillar/lifestyle", "pillarName": "Lifestyle"}, {"id": "lifeandstyle/2010/jan/28/ferran-adria-el-bulli-cookbook", "type": "article", "sectionId": "food", "sectionName": "Food", "webPublicationDate": "2010-01-28T00:05:13Z", "webTitle": "Ferran Adria is closing El Bulli. It's time to tackle his cookbook", "webUrl": "https://www.theguardian.com/lifeandstyle/2010/jan/28/ferran-adria-el-bulli-cookbook", "apiUrl": "https://content.guardianapis.com/lifeandstyle/2010/jan/28/ferran-adria-el-bulli-cookbook", "isHosted": false, "pillarId": "pillar/lifestyle", "pillarName": "Lifestyle"}, {"id": "money/2010/jan/28/consumer-affairs-supermarkets", "type": "article", "sectionId": "money", "sectionName": "Money", "webPublicationDate": "2010-01-28T00:05:09Z", "webTitle": "Waitrose top with shoppers \u2013 despite prices", "webUrl": "https://www.theguardian.com/money/2010/jan/28/consumer-affairs-supermarkets", "apiUrl": "https://content.guardianapis.com/money/2010/jan/28/consumer-affairs-supermarkets", "isHosted": false, "pillarId": "pillar/lifestyle", "pillarName": "Lifestyle"}, {"id": "lifeandstyle/gallery/2010/jan/27/food-and-drink-homes", "type": "gallery", "sectionId": "food", "sectionName": "Food", "webPublicationDate": "2010-01-28T00:05:06Z", "webTitle": "The test: teapots", "webUrl": "https://www.theguardian.com/lifeandstyle/gallery/2010/jan/27/food-and-drink-homes", "apiUrl": "https://content.guardianapis.com/lifeandstyle/gallery/2010/jan/27/food-and-drink-homes", "isHosted": false, "pillarId": "pillar/lifestyle", "pillarName": "Lifestyle"}, {"id": "lifeandstyle/2010/jan/27/seasonal-food-rhubarb", "type": "article", "sectionId": "food", "sectionName": "Food", "webPublicationDate": "2010-01-27T11:20:00Z", "webTitle": "Seasonal food: rhubarb", "webUrl": "https://www.theguardian.com/lifeandstyle/2010/jan/27/seasonal-food-rhubarb", "apiUrl": "https://content.guardianapis.com/lifeandstyle/2010/jan/27/seasonal-food-rhubarb", "isHosted": false, "pillarId": "pillar/lifestyle", "pillarName": "Lifestyle"}, {"id": "global/audio/2010/jan/27/wine-store-stone-mine", "type": "audio", "sectionId": "food", "sectionName": "Food", "webPublicationDate": "2010-01-27T10:00:18Z", "webTitle": "Steven Morris visits a Wiltshire stone mine turned into a wine store", "webUrl": "https://www.theguardian.com/global/audio/2010/jan/27/wine-store-stone-mine", "apiUrl": "https://content.guardianapis.com/global/audio/2010/jan/27/wine-store-stone-mine", "isHosted": false, "pillarId": "pillar/lifestyle", "pillarName": "Lifestyle"}, {"id": "lifeandstyle/wordofmouth/2010/jan/27/celebrity-chefs-restaurant-names", "type": "article", "sectionId": "food", "sectionName": "Food", "webPublicationDate": "2010-01-27T10:00:00Z", "webTitle": "Celebrity chefs: the game of the name", "webUrl": "https://www.theguardian.com/lifeandstyle/wordofmouth/2010/jan/27/celebrity-chefs-restaurant-names", "apiUrl": "https://content.guardianapis.com/lifeandstyle/wordofmouth/2010/jan/27/celebrity-chefs-restaurant-names", "isHosted": false, "pillarId": "pillar/lifestyle", "pillarName": "Lifestyle"}, {"id": "football/2010/jan/27/rotherham-pie-capital-of-football", "type": "article", "sectionId": "football", "sectionName": "Football", "webPublicationDate": "2010-01-27T00:10:00Z", "webTitle": "Is Rotherham really the pie capital of the football world? | The Knowledge", "webUrl": "https://www.theguardian.com/football/2010/jan/27/rotherham-pie-capital-of-football", "apiUrl": "https://content.guardianapis.com/football/2010/jan/27/rotherham-pie-capital-of-football", "isHosted": false, "pillarId": "pillar/sport", "pillarName": "Sport"}, {"id": "lifeandstyle/2010/jan/26/ferran-adria-el-bulli-closure", "type": "article", "sectionId": "food", "sectionName": "Food", "webPublicationDate": "2010-01-26T20:27:01Z", "webTitle": "Ferran Adri\u00e0 to close world's top restaurant, El Bulli, for two years", "webUrl": "https://www.theguardian.com/lifeandstyle/2010/jan/26/ferran-adria-el-bulli-closure", "apiUrl": "https://content.guardianapis.com/lifeandstyle/2010/jan/26/ferran-adria-el-bulli-closure", "isHosted": false, "pillarId": "pillar/lifestyle", "pillarName": "Lifestyle"}, {"id": "stage/theatreblog/2010/jan/26/theatre-wine-bar-drink", "type": "article", "sectionId": "stage", "sectionName": "Stage", "webPublicationDate": "2010-01-26T17:59:23Z", "webTitle": "Why can't you get a decent glass of wine at the theatre? | Alistair Smith", "webUrl": "https://www.theguardian.com/stage/theatreblog/2010/jan/26/theatre-wine-bar-drink", "apiUrl": "https://content.guardianapis.com/stage/theatreblog/2010/jan/26/theatre-wine-bar-drink", "isHosted": false, "pillarId": "pillar/arts", "pillarName": "Arts"}, {"id": "lifeandstyle/wordofmouth/2010/jan/26/ferran-adria-el-bulli-closed", "type": "article", "sectionId": "lifeandstyle", "sectionName": "Life and style", "webPublicationDate": "2010-01-26T17:25:00Z", "webTitle": "El Bulli to close for two years", "webUrl": "https://www.theguardian.com/lifeandstyle/wordofmouth/2010/jan/26/ferran-adria-el-bulli-closed", "apiUrl": "https://content.guardianapis.com/lifeandstyle/wordofmouth/2010/jan/26/ferran-adria-el-bulli-closed", "isHosted": false, "pillarId": "pillar/lifestyle", "pillarName": "Lifestyle"}, {"id": "environment/2010/jan/26/dog-meat-china", "type": "article", "sectionId": "world", "sectionName": "World news", "webPublicationDate": "2010-01-26T13:29:49Z", "webTitle": "Chinese legal experts call for ban on eating cats and dogs", "webUrl": "https://www.theguardian.com/environment/2010/jan/26/dog-meat-china", "apiUrl": "https://content.guardianapis.com/environment/2010/jan/26/dog-meat-china", "isHosted": false, "pillarId": "pillar/news", "pillarName": "News"}, {"id": "lifeandstyle/wordofmouth/2010/jan/26/olive-oil-portugal", "type": "article", "sectionId": "lifeandstyle", "sectionName": "Life and style", "webPublicationDate": "2010-01-26T13:10:00Z", "webTitle": "The olive oil barons", "webUrl": "https://www.theguardian.com/lifeandstyle/wordofmouth/2010/jan/26/olive-oil-portugal", "apiUrl": "https://content.guardianapis.com/lifeandstyle/wordofmouth/2010/jan/26/olive-oil-portugal", "isHosted": false, "pillarId": "pillar/lifestyle", "pillarName": "Lifestyle"}, {"id": "lifeandstyle/wordofmouth/video/2010/jan/26/tea-gin-cocktails", "type": "video", "sectionId": "lifeandstyle", "sectionName": "Life and style", "webPublicationDate": "2010-01-26T11:00:00Z", "webTitle": "The Tea Lady: G and tea", "webUrl": "https://www.theguardian.com/lifeandstyle/wordofmouth/video/2010/jan/26/tea-gin-cocktails", "apiUrl": "https://content.guardianapis.com/lifeandstyle/wordofmouth/video/2010/jan/26/tea-gin-cocktails", "isHosted": false, "pillarId": "pillar/lifestyle", "pillarName": "Lifestyle"}, {"id": "lifeandstyle/wordofmouth/2010/jan/26/should-you-sear-steak", "type": "article", "sectionId": "lifeandstyle", "sectionName": "Life and style", "webPublicationDate": "2010-01-26T09:45:00Z", "webTitle": "Should you sear steak?", "webUrl": "https://www.theguardian.com/lifeandstyle/wordofmouth/2010/jan/26/should-you-sear-steak", "apiUrl": "https://content.guardianapis.com/lifeandstyle/wordofmouth/2010/jan/26/should-you-sear-steak", "isHosted": false, "pillarId": "pillar/lifestyle", "pillarName": "Lifestyle"}, {"id": "lifeandstyle/wordofmouth/2010/jan/25/burns-night-haggis-write-poem", "type": "article", "sectionId": "lifeandstyle", "sectionName": "Life and style", "webPublicationDate": "2010-01-25T12:30:00Z", "webTitle": "Pen a poem about a pud", "webUrl": "https://www.theguardian.com/lifeandstyle/wordofmouth/2010/jan/25/burns-night-haggis-write-poem", "apiUrl": "https://content.guardianapis.com/lifeandstyle/wordofmouth/2010/jan/25/burns-night-haggis-write-poem", "isHosted": false, "pillarId": "pillar/lifestyle", "pillarName": "Lifestyle"}, {"id": "lifeandstyle/wordofmouth/2010/jan/25/neeps-swede-or-turnip", "type": "article", "sectionId": "lifeandstyle", "sectionName": "Life and style", "webPublicationDate": "2010-01-25T10:20:00Z", "webTitle": "Are 'neeps' swedes or turnips?", "webUrl": "https://www.theguardian.com/lifeandstyle/wordofmouth/2010/jan/25/neeps-swede-or-turnip", "apiUrl": "https://content.guardianapis.com/lifeandstyle/wordofmouth/2010/jan/25/neeps-swede-or-turnip", "isHosted": false, "pillarId": "pillar/lifestyle", "pillarName": "Lifestyle"}, {"id": "lifeandstyle/2010/jan/25/seasonal-food-swede", "type": "article", "sectionId": "food", "sectionName": "Food", "webPublicationDate": "2010-01-25T09:30:00Z", "webTitle": "Seasonal food: swede", "webUrl": "https://www.theguardian.com/lifeandstyle/2010/jan/25/seasonal-food-swede", "apiUrl": "https://content.guardianapis.com/lifeandstyle/2010/jan/25/seasonal-food-swede", "isHosted": false, "pillarId": "pillar/lifestyle", "pillarName": "Lifestyle"}, {"id": "uk/2010/jan/24/america-haggis-ban-lifted-burns", "type": "article", "sectionId": "food", "sectionName": "Food", "webPublicationDate": "2010-01-24T18:23:51Z", "webTitle": "US to lift 21-year ban on haggis", "webUrl": "https://www.theguardian.com/uk/2010/jan/24/america-haggis-ban-lifted-burns", "apiUrl": "https://content.guardianapis.com/uk/2010/jan/24/america-haggis-ban-lifted-burns", "isHosted": false, "pillarId": "pillar/lifestyle", "pillarName": "Lifestyle"}, {"id": "environment/2010/jan/24/cod-sales-decline", "type": "article", "sectionId": "environment", "sectionName": "Environment", "webPublicationDate": "2010-01-24T00:07:59Z", "webTitle": "Piece of cod is becoming a luxury item", "webUrl": "https://www.theguardian.com/environment/2010/jan/24/cod-sales-decline", "apiUrl": "https://content.guardianapis.com/environment/2010/jan/24/cod-sales-decline", "isHosted": false, "pillarId": "pillar/news", "pillarName": "News"}, {"id": "lifeandstyle/2010/jan/24/tim-atkin-wines-coastal-village-collioure", "type": "article", "sectionId": "lifeandstyle", "sectionName": "Life and style", "webPublicationDate": "2010-01-24T00:05:18Z", "webTitle": "Tim Atkin on wine", "webUrl": "https://www.theguardian.com/lifeandstyle/2010/jan/24/tim-atkin-wines-coastal-village-collioure", "apiUrl": "https://content.guardianapis.com/lifeandstyle/2010/jan/24/tim-atkin-wines-coastal-village-collioure", "isHosted": false, "pillarId": "pillar/lifestyle", "pillarName": "Lifestyle"}, {"id": "lifeandstyle/2010/jan/23/ginger-beer-scones-recipe", "type": "article", "sectionId": "lifeandstyle", "sectionName": "Life and style", "webPublicationDate": "2010-01-23T00:10:19Z", "webTitle": "Ginger beer scones recipe | Dan Lepard", "webUrl": "https://www.theguardian.com/lifeandstyle/2010/jan/23/ginger-beer-scones-recipe", "apiUrl": "https://content.guardianapis.com/lifeandstyle/2010/jan/23/ginger-beer-scones-recipe", "isHosted": false, "pillarId": "pillar/lifestyle", "pillarName": "Lifestyle"}, {"id": "lifeandstyle/2010/jan/23/udon-noodles-miso-walnut-ottolenghi", "type": "article", "sectionId": "lifeandstyle", "sectionName": "Life and style", "webPublicationDate": "2010-01-23T00:10:16Z", "webTitle": "Udon noodles with miso and walnuts recipe | Yotam Ottolenghi", "webUrl": "https://www.theguardian.com/lifeandstyle/2010/jan/23/udon-noodles-miso-walnut-ottolenghi", "apiUrl": "https://content.guardianapis.com/lifeandstyle/2010/jan/23/udon-noodles-miso-walnut-ottolenghi", "isHosted": false, "pillarId": "pillar/lifestyle", "pillarName": "Lifestyle"}, {"id": "lifeandstyle/2010/jan/23/faanoos-london-sw14-restaurant-review", "type": "article", "sectionId": "lifeandstyle", "sectionName": "Life and style", "webPublicationDate": "2010-01-23T00:10:13Z", "webTitle": "Restaurant: Faanoos, London SW14", "webUrl": "https://www.theguardian.com/lifeandstyle/2010/jan/23/faanoos-london-sw14-restaurant-review", "apiUrl": "https://content.guardianapis.com/lifeandstyle/2010/jan/23/faanoos-london-sw14-restaurant-review", "isHosted": false, "pillarId": "pillar/lifestyle", "pillarName": "Lifestyle"}, {"id": "lifeandstyle/2010/jan/23/herring-recipes-hugh-fearnley-whittingstall", "type": "article", "sectionId": "lifeandstyle", "sectionName": "Life and style", "webPublicationDate": "2010-01-23T00:10:03Z", "webTitle": "Herring recipes | Hugh Fearnley-Whittingstall", "webUrl": "https://www.theguardian.com/lifeandstyle/2010/jan/23/herring-recipes-hugh-fearnley-whittingstall", "apiUrl": "https://content.guardianapis.com/lifeandstyle/2010/jan/23/herring-recipes-hugh-fearnley-whittingstall", "isHosted": false, "pillarId": "pillar/lifestyle", "pillarName": "Lifestyle"}, {"id": "business/2010/jan/23/bournville-cadbury-town", "type": "article", "sectionId": "business", "sectionName": "Business", "webPublicationDate": "2010-01-23T00:06:29Z", "webTitle": "Bournville: the town that chocolate built", "webUrl": "https://www.theguardian.com/business/2010/jan/23/bournville-cadbury-town", "apiUrl": "https://content.guardianapis.com/business/2010/jan/23/bournville-cadbury-town", "isHosted": false, "pillarId": "pillar/news", "pillarName": "News"}, {"id": "travel/2010/jan/23/hotel-review-ship-dunwich-suffolk", "type": "article", "sectionId": "travel", "sectionName": "Travel", "webPublicationDate": "2010-01-23T00:06:11Z", "webTitle": "Hotel review | The Ship at Dunwich, Suffolk", "webUrl": "https://www.theguardian.com/travel/2010/jan/23/hotel-review-ship-dunwich-suffolk", "apiUrl": "https://content.guardianapis.com/travel/2010/jan/23/hotel-review-ship-dunwich-suffolk", "isHosted": false, "pillarId": "pillar/lifestyle", "pillarName": "Lifestyle"}, {"id": "technology/2010/jan/22/simon-majumdar-blackberry-storm", "type": "article", "sectionId": "technology", "sectionName": "Technology", "webPublicationDate": "2010-01-22T12:50:00Z", "webTitle": "Simon Majumdar: I hate being far from my email | Celebrity squares", "webUrl": "https://www.theguardian.com/technology/2010/jan/22/simon-majumdar-blackberry-storm", "apiUrl": "https://content.guardianapis.com/technology/2010/jan/22/simon-majumdar-blackberry-storm", "isHosted": false, "pillarId": "pillar/news", "pillarName": "News"}, {"id": "lifeandstyle/2010/jan/22/seasonal-food-turnip", "type": "article", "sectionId": "food", "sectionName": "Food", "webPublicationDate": "2010-01-22T10:00:00Z", "webTitle": "Seasonal food: turnip", "webUrl": "https://www.theguardian.com/lifeandstyle/2010/jan/22/seasonal-food-turnip", "apiUrl": "https://content.guardianapis.com/lifeandstyle/2010/jan/22/seasonal-food-turnip", "isHosted": false, "pillarId": "pillar/lifestyle", "pillarName": "Lifestyle"}, {"id": "lifeandstyle/wordofmouth/2010/jan/22/iceberg-lettuce", "type": "article", "sectionId": "lifeandstyle", "sectionName": "Life and style", "webPublicationDate": "2010-01-22T10:00:00Z", "webTitle": "The tip of the iceberg", "webUrl": "https://www.theguardian.com/lifeandstyle/wordofmouth/2010/jan/22/iceberg-lettuce", "apiUrl": "https://content.guardianapis.com/lifeandstyle/wordofmouth/2010/jan/22/iceberg-lettuce", "isHosted": false, "pillarId": "pillar/lifestyle", "pillarName": "Lifestyle"}, {"id": "business/2010/jan/21/best-fish-chip-shop", "type": "article", "sectionId": "business", "sectionName": "Business", "webPublicationDate": "2010-01-21T17:59:06Z", "webTitle": "Scottish fish and chip shop named best in UK", "webUrl": "https://www.theguardian.com/business/2010/jan/21/best-fish-chip-shop", "apiUrl": "https://content.guardianapis.com/business/2010/jan/21/best-fish-chip-shop", "isHosted": false, "pillarId": "pillar/news", "pillarName": "News"}, {"id": "lifeandstyle/wordofmouth/2010/jan/21/wassailing-cider-apple-orchard", "type": "article", "sectionId": "lifeandstyle", "sectionName": "Life and style", "webPublicationDate": "2010-01-21T12:30:00Z", "webTitle": "Wassailing the cider orchard", "webUrl": "https://www.theguardian.com/lifeandstyle/wordofmouth/2010/jan/21/wassailing-cider-apple-orchard", "apiUrl": "https://content.guardianapis.com/lifeandstyle/wordofmouth/2010/jan/21/wassailing-cider-apple-orchard", "isHosted": false, "pillarId": "pillar/lifestyle", "pillarName": "Lifestyle"}, {"id": "lifeandstyle/wordofmouth/2010/jan/21/eat-festival-newcastle-gateshead-skyline", "type": "article", "sectionId": "lifeandstyle", "sectionName": "Life and style", "webPublicationDate": "2010-01-21T11:00:00Z", "webTitle": "Rebuild this city on rock cake and a roll", "webUrl": "https://www.theguardian.com/lifeandstyle/wordofmouth/2010/jan/21/eat-festival-newcastle-gateshead-skyline", "apiUrl": "https://content.guardianapis.com/lifeandstyle/wordofmouth/2010/jan/21/eat-festival-newcastle-gateshead-skyline", "isHosted": false, "pillarId": "pillar/lifestyle", "pillarName": "Lifestyle"}, {"id": "lifeandstyle/gallery/2010/jan/20/the-test-ginger-biscuits", "type": "gallery", "sectionId": "food", "sectionName": "Food", "webPublicationDate": "2010-01-21T00:05:03Z", "webTitle": "The test\u2026 ginger biscuits", "webUrl": "https://www.theguardian.com/lifeandstyle/gallery/2010/jan/20/the-test-ginger-biscuits", "apiUrl": "https://content.guardianapis.com/lifeandstyle/gallery/2010/jan/20/the-test-ginger-biscuits", "isHosted": false, "pillarId": "pillar/lifestyle", "pillarName": "Lifestyle"}, {"id": "business/2010/jan/20/warren-buffett-blasts-kraft-cadbury", "type": "article", "sectionId": "business", "sectionName": "Business", "webPublicationDate": "2010-01-20T14:45:21Z", "webTitle": "Warren Buffett blasts Kraft's takeover of Cadbury", "webUrl": "https://www.theguardian.com/business/2010/jan/20/warren-buffett-blasts-kraft-cadbury", "apiUrl": "https://content.guardianapis.com/business/2010/jan/20/warren-buffett-blasts-kraft-cadbury", "isHosted": false, "pillarId": "pillar/news", "pillarName": "News"}, {"id": "commentisfree/2010/jan/20/sandwich-saga-choice-filling", "type": "article", "sectionId": "commentisfree", "sectionName": "Opinion", "webPublicationDate": "2010-01-20T12:30:00Z", "webTitle": "The sandwich saga | Philippa Booth", "webUrl": "https://www.theguardian.com/commentisfree/2010/jan/20/sandwich-saga-choice-filling", "apiUrl": "https://content.guardianapis.com/commentisfree/2010/jan/20/sandwich-saga-choice-filling", "isHosted": false, "pillarId": "pillar/opinion", "pillarName": "Opinion"}, {"id": "lifeandstyle/wordofmouth/2010/jan/20/live-chat-jose-pizarro", "type": "article", "sectionId": "lifeandstyle", "sectionName": "Life and style", "webPublicationDate": "2010-01-20T10:29:14Z", "webTitle": "Live chat with Jos\u00e9 Pizarro", "webUrl": "https://www.theguardian.com/lifeandstyle/wordofmouth/2010/jan/20/live-chat-jose-pizarro", "apiUrl": "https://content.guardianapis.com/lifeandstyle/wordofmouth/2010/jan/20/live-chat-jose-pizarro", "isHosted": false, "pillarId": "pillar/lifestyle", "pillarName": "Lifestyle"}, {"id": "lifeandstyle/2010/jan/20/seasonal-food-parsnip", "type": "article", "sectionId": "food", "sectionName": "Food", "webPublicationDate": "2010-01-20T10:00:00Z", "webTitle": "Seasonal food: parsnips", "webUrl": "https://www.theguardian.com/lifeandstyle/2010/jan/20/seasonal-food-parsnip", "apiUrl": "https://content.guardianapis.com/lifeandstyle/2010/jan/20/seasonal-food-parsnip", "isHosted": false, "pillarId": "pillar/lifestyle", "pillarName": "Lifestyle"}, {"id": "business/2010/jan/19/cadbury-kraft-brands-curly-wurly", "type": "article", "sectionId": "business", "sectionName": "Business", "webPublicationDate": "2010-01-19T21:14:27Z", "webTitle": "Cadbury is a sad loss to Britain \u2013 but what about the Curly Wurly?", "webUrl": "https://www.theguardian.com/business/2010/jan/19/cadbury-kraft-brands-curly-wurly", "apiUrl": "https://content.guardianapis.com/business/2010/jan/19/cadbury-kraft-brands-curly-wurly", "isHosted": false, "pillarId": "pillar/news", "pillarName": "News"}]}}