{"response": {"status": "ok", "userTier": "developer", "total": 128989, "startIndex": 1, "pageSize": 50, "currentPage": 1, "pages": 2580, "orderBy": "newest", "results": [{"id": "politics/2015/jan/30/green-party-norwich-natalie-bennett", "type": "article", "sectionId": "politics", "sectionName": "Politics", "webPublicationDate": "2015-01-30T22:05:00Z", "webTitle": "Green surge: on the ground with party activists hoping for a second MP", "webUrl": "https://www.theguardian.com/politics/2015/jan/30/green-party-norwich-natalie-bennett", "apiUrl": "https://content.guardianapis.com/politics/2015/jan/30/green-party-norwich-natalie-bennett", "isHosted": false, "pillarId": "pillar/news", "pillarName": "News"}, {"id": "politics/2015/jan/30/andrew-mitchell-plebgate-costs-libel-toby-rowland-news-group-newspapers", "type": "article", "sectionId": "politics", "sectionName": "Politics", "webPublicationDate": "2015-01-30T20:22:31Z", "webTitle": "Andrew Mitchell ordered to pay further costs after refusing Plebgate settlement", "webUrl": "https://www.theguardian.com/politics/2015/jan/30/andrew-mitchell-plebgate-costs-libel-toby-rowland-news-group-newspapers", "apiUrl": "https://content.guardianapis.com/politics/2015/jan/30/andrew-mitchell-plebgate-costs-libel-toby-rowland-news-group-newspapers", "isHosted": false, "pillarId": "pillar/news", "pillarName": "News"}, {"id": "commentisfree/2015/jan/30/pre-election-jokeying-threatening-united-kingdom", "type": "article", "sectionId": "commentisfree", "sectionName": "Opinion", "webPublicationDate": "2015-01-30T19:42:35Z", "webTitle": "This pre-election jockeying could threaten the United Kingdom itself| Jonathan Freedland", "webUrl": "https://www.theguardian.com/commentisfree/2015/jan/30/pre-election-jokeying-threatening-united-kingdom", "apiUrl": "https://content.guardianapis.com/commentisfree/2015/jan/30/pre-election-jokeying-threatening-united-kingdom", "isHosted": false, "pillarId": "pillar/opinion", "pillarName": "Opinion"}, {"id": "politics/2015/jan/30/greens-changing-political-environment", "type": "article", "sectionId": "politics", "sectionName": "Politics", "webPublicationDate": "2015-01-30T19:30:48Z", "webTitle": "How the Greens are changing the political environment | Letters", "webUrl": "https://www.theguardian.com/politics/2015/jan/30/greens-changing-political-environment", "apiUrl": "https://content.guardianapis.com/politics/2015/jan/30/greens-changing-political-environment", "isHosted": false, "pillarId": "pillar/news", "pillarName": "News"}, {"id": "commentisfree/2015/jan/30/guardian-view-afghanistan-war-quickens-politicians-falter", "type": "article", "sectionId": "commentisfree", "sectionName": "Opinion", "webPublicationDate": "2015-01-30T19:16:49Z", "webTitle": "The Guardian view on Afghanistan: war quickens as politicians falter | Editorial", "webUrl": "https://www.theguardian.com/commentisfree/2015/jan/30/guardian-view-afghanistan-war-quickens-politicians-falter", "apiUrl": "https://content.guardianapis.com/commentisfree/2015/jan/30/guardian-view-afghanistan-war-quickens-politicians-falter", "isHosted": false, "pillarId": "pillar/opinion", "pillarName": "Opinion"}, {"id": "politics/2015/jan/30/labours-failures-worse-than-kinnock-playwright-david-hare", "type": "article", "sectionId": "politics", "sectionName": "Politics", "webPublicationDate": "2015-01-30T18:59:00Z", "webTitle": "Labour\u2019s failures \u2018worse than Kinnock\u2019, says David Hare", "webUrl": "https://www.theguardian.com/politics/2015/jan/30/labours-failures-worse-than-kinnock-playwright-david-hare", "apiUrl": "https://content.guardianapis.com/politics/2015/jan/30/labours-failures-worse-than-kinnock-playwright-david-hare", "isHosted": false, "pillarId": "pillar/news", "pillarName": "News"}, {"id": "uk-news/2015/jan/30/frontline-police-tasers-terror-threat-federation-leader", "type": "article", "sectionId": "uk-news", "sectionName": "UK news", "webPublicationDate": "2015-01-30T18:54:44Z", "webTitle": "Give UK officers Tasers to help fight terror threat, says Police Federation", "webUrl": "https://www.theguardian.com/uk-news/2015/jan/30/frontline-police-tasers-terror-threat-federation-leader", "apiUrl": "https://content.guardianapis.com/uk-news/2015/jan/30/frontline-police-tasers-terror-threat-federation-leader", "isHosted": false, "pillarId": "pillar/news", "pillarName": "News"}, {"id": "world/2015/jan/30/shuja-shafi-head-muslim-council-britain-interview", "type": "article", "sectionId": "world", "sectionName": "World news", "webPublicationDate": "2015-01-30T18:41:51Z", "webTitle": "Shuja Shafi, head of the Muslim Council of Britain: \u2018We\u2019ve never claimed to\u00a0speak for everyone\u2019", "webUrl": "https://www.theguardian.com/world/2015/jan/30/shuja-shafi-head-muslim-council-britain-interview", "apiUrl": "https://content.guardianapis.com/world/2015/jan/30/shuja-shafi-head-muslim-council-britain-interview", "isHosted": false, "pillarId": "pillar/news", "pillarName": "News"}, {"id": "commentisfree/2015/jan/30/in-praise-of-michael-cockerell-filmmaker", "type": "article", "sectionId": "commentisfree", "sectionName": "Opinion", "webPublicationDate": "2015-01-30T18:02:14Z", "webTitle": "In praise of \u2026 Michael Cockerell | Hugh Muir", "webUrl": "https://www.theguardian.com/commentisfree/2015/jan/30/in-praise-of-michael-cockerell-filmmaker", "apiUrl": "https://content.guardianapis.com/commentisfree/2015/jan/30/in-praise-of-michael-cockerell-filmmaker", "isHosted": false, "pillarId": "pillar/opinion", "pillarName": "Opinion"}, {"id": "society/2015/jan/30/surgeons-nhs-england-patients-death-rates-bruce-keogh-jeremy-hunt-health", "type": "article", "sectionId": "society", "sectionName": "Society", "webPublicationDate": "2015-01-30T17:31:10Z", "webTitle": "Surgeons ask NHS England to rethink policy of publishing patients\u2019 death rates", "webUrl": "https://www.theguardian.com/society/2015/jan/30/surgeons-nhs-england-patients-death-rates-bruce-keogh-jeremy-hunt-health", "apiUrl": "https://content.guardianapis.com/society/2015/jan/30/surgeons-nhs-england-patients-death-rates-bruce-keogh-jeremy-hunt-health", "isHosted": false, "pillarId": "pillar/news", "pillarName": "News"}, {"id": "world/2015/jan/30/cia-interrogation-diego-garcia-lawrence-wilkerson", "type": "article", "sectionId": "world", "sectionName": "World news", "webPublicationDate": "2015-01-30T17:11:11Z", "webTitle": "CIA interrogated suspects on Diego Garcia, says Colin Powell aide", "webUrl": "https://www.theguardian.com/world/2015/jan/30/cia-interrogation-diego-garcia-lawrence-wilkerson", "apiUrl": "https://content.guardianapis.com/world/2015/jan/30/cia-interrogation-diego-garcia-lawrence-wilkerson", "isHosted": false, "pillarId": "pillar/news", "pillarName": "News"}, {"id": "politics/2015/jan/30/boris-johnson-jihadis-are-porn-watching-wankers", "type": "article", "sectionId": "politics", "sectionName": "Politics", "webPublicationDate": "2015-01-30T16:21:52Z", "webTitle": "Boris Johnson: jihadis are porn-watching 'wankers'", "webUrl": "https://www.theguardian.com/politics/2015/jan/30/boris-johnson-jihadis-are-porn-watching-wankers", "apiUrl": "https://content.guardianapis.com/politics/2015/jan/30/boris-johnson-jihadis-are-porn-watching-wankers", "isHosted": false, "pillarId": "pillar/news", "pillarName": "News"}, {"id": "politics/blog/live/2015/jan/30/politics-live-readers-edition-friday-30-january", "type": "liveblog", "sectionId": "politics", "sectionName": "Politics", "webPublicationDate": "2015-01-30T16:03:34Z", "webTitle": "Politics Live - readers' edition: Friday 30 January", "webUrl": "https://www.theguardian.com/politics/blog/live/2015/jan/30/politics-live-readers-edition-friday-30-january", "apiUrl": "https://content.guardianapis.com/politics/blog/live/2015/jan/30/politics-live-readers-edition-friday-30-january", "isHosted": false, "pillarId": "pillar/news", "pillarName": "News"}, {"id": "society/2015/jan/30/harriet-harman-sarah-vine-rape-comments", "type": "article", "sectionId": "society", "sectionName": "Society", "webPublicationDate": "2015-01-30T15:52:45Z", "webTitle": "Harriet Harman responds to Sarah Vine\u2019s rape comments", "webUrl": "https://www.theguardian.com/society/2015/jan/30/harriet-harman-sarah-vine-rape-comments", "apiUrl": "https://content.guardianapis.com/society/2015/jan/30/harriet-harman-sarah-vine-rape-comments", "isHosted": false, "pillarId": "pillar/news", "pillarName": "News"}, {"id": "business/2015/jan/30/rbs-chairman-job-lord-smith-ruled-out", "type": "article", "sectionId": "business", "sectionName": "Business", "webPublicationDate": "2015-01-30T15:19:54Z", "webTitle": "Leading candidate pulls out of race for RBS chairman\u2019s job", "webUrl": "https://www.theguardian.com/business/2015/jan/30/rbs-chairman-job-lord-smith-ruled-out", "apiUrl": "https://content.guardianapis.com/business/2015/jan/30/rbs-chairman-job-lord-smith-ruled-out", "isHosted": false, "pillarId": "pillar/news", "pillarName": "News"}, {"id": "politics/2015/jan/30/tory-grant-shapps-rules-out-ukip-election-deal", "type": "article", "sectionId": "politics", "sectionName": "Politics", "webPublicationDate": "2015-01-30T15:07:06Z", "webTitle": "Tory chairman Grant Shapps rules out post-election deal with Ukip", "webUrl": "https://www.theguardian.com/politics/2015/jan/30/tory-grant-shapps-rules-out-ukip-election-deal", "apiUrl": "https://content.guardianapis.com/politics/2015/jan/30/tory-grant-shapps-rules-out-ukip-election-deal", "isHosted": false, "pillarId": "pillar/news", "pillarName": "News"}, {"id": "commentisfree/2015/jan/30/boris-johnson-terrorist-wankers-not-helpful-jihadis", "type": "article", "sectionId": "commentisfree", "sectionName": "Opinion", "webPublicationDate": "2015-01-30T14:49:01Z", "webTitle": "Seriously Boris, calling terrorists \u2018wankers\u2019 is really not helpful | Ally Fogg", "webUrl": "https://www.theguardian.com/commentisfree/2015/jan/30/boris-johnson-terrorist-wankers-not-helpful-jihadis", "apiUrl": "https://content.guardianapis.com/commentisfree/2015/jan/30/boris-johnson-terrorist-wankers-not-helpful-jihadis", "isHosted": false, "pillarId": "pillar/opinion", "pillarName": "Opinion"}, {"id": "commentisfree/2015/jan/30/ed-miliband-fight-cynicism-media-politicians", "type": "article", "sectionId": "commentisfree", "sectionName": "Opinion", "webPublicationDate": "2015-01-30T14:00:19Z", "webTitle": "Ed Miliband is right: we must fight political cynicism in the media | Owen Jones", "webUrl": "https://www.theguardian.com/commentisfree/2015/jan/30/ed-miliband-fight-cynicism-media-politicians", "apiUrl": "https://content.guardianapis.com/commentisfree/2015/jan/30/ed-miliband-fight-cynicism-media-politicians", "isHosted": false, "pillarId": "pillar/opinion", "pillarName": "Opinion"}, {"id": "stage/2015/jan/30/david-hare-labour-party-the-absence-of-war-play", "type": "article", "sectionId": "stage", "sectionName": "Stage", "webPublicationDate": "2015-01-30T14:00:04Z", "webTitle": "David Hare \u2013 can the Labour party find its voice?", "webUrl": "https://www.theguardian.com/stage/2015/jan/30/david-hare-labour-party-the-absence-of-war-play", "apiUrl": "https://content.guardianapis.com/stage/2015/jan/30/david-hare-labour-party-the-absence-of-war-play", "isHosted": false, "pillarId": "pillar/arts", "pillarName": "Arts"}, {"id": "media/greenslade/2015/jan/30/republic-to-prince-charles-disclose-your-financial-interests", "type": "article", "sectionId": "media", "sectionName": "Media", "webPublicationDate": "2015-01-30T12:42:57Z", "webTitle": "Republic to Prince Charles: disclose your financial interests", "webUrl": "https://www.theguardian.com/media/greenslade/2015/jan/30/republic-to-prince-charles-disclose-your-financial-interests", "apiUrl": "https://content.guardianapis.com/media/greenslade/2015/jan/30/republic-to-prince-charles-disclose-your-financial-interests", "isHosted": false, "pillarId": "pillar/news", "pillarName": "News"}, {"id": "politics/2015/jan/30/ed-miliband-labour-campaign-election-posters-issues", "type": "article", "sectionId": "politics", "sectionName": "Politics", "webPublicationDate": "2015-01-30T09:46:49Z", "webTitle": "Ed Miliband calls for press to report \u2018issues not cynicism\u2019 in general election", "webUrl": "https://www.theguardian.com/politics/2015/jan/30/ed-miliband-labour-campaign-election-posters-issues", "apiUrl": "https://content.guardianapis.com/politics/2015/jan/30/ed-miliband-labour-campaign-election-posters-issues", "isHosted": false, "pillarId": "pillar/news", "pillarName": "News"}, {"id": "commentisfree/2015/jan/30/general-election-britain-global-role-trident-europe-isolationism", "type": "article", "sectionId": "commentisfree", "sectionName": "Opinion", "webPublicationDate": "2015-01-30T07:00:02Z", "webTitle": "This general election could define Britain\u2019s global role\u00a0into the next decade | Martin Kettle", "webUrl": "https://www.theguardian.com/commentisfree/2015/jan/30/general-election-britain-global-role-trident-europe-isolationism", "apiUrl": "https://content.guardianapis.com/commentisfree/2015/jan/30/general-election-britain-global-role-trident-europe-isolationism", "isHosted": false, "pillarId": "pillar/opinion", "pillarName": "Opinion"}, {"id": "education/2015/jan/30/department-for-education-troubled-schools-pac-report", "type": "article", "sectionId": "education", "sectionName": "Education", "webPublicationDate": "2015-01-30T00:27:10Z", "webTitle": "DfE lacks effective procedures and insight into schools, watchdog claims", "webUrl": "https://www.theguardian.com/education/2015/jan/30/department-for-education-troubled-schools-pac-report", "apiUrl": "https://content.guardianapis.com/education/2015/jan/30/department-for-education-troubled-schools-pac-report", "isHosted": false, "pillarId": "pillar/news", "pillarName": "News"}, {"id": "law/2015/jan/30/labour-pledges-review-legal-aid-cuts-sadiq-khan", "type": "article", "sectionId": "law", "sectionName": "Law", "webPublicationDate": "2015-01-30T00:05:04Z", "webTitle": "Labour would halt plans to slash on-call legal aid solicitors", "webUrl": "https://www.theguardian.com/law/2015/jan/30/labour-pledges-review-legal-aid-cuts-sadiq-khan", "apiUrl": "https://content.guardianapis.com/law/2015/jan/30/labour-pledges-review-legal-aid-cuts-sadiq-khan", "isHosted": false, "pillarId": "pillar/news", "pillarName": "News"}, {"id": "business/2015/jan/30/british-wage-slump-post-financial-crisis-uk", "type": "article", "sectionId": "business", "sectionName": "Business", "webPublicationDate": "2015-01-30T00:01:04Z", "webTitle": "Young workers hit hardest by wages slump of post-crash Britain", "webUrl": "https://www.theguardian.com/business/2015/jan/30/british-wage-slump-post-financial-crisis-uk", "apiUrl": "https://content.guardianapis.com/business/2015/jan/30/british-wage-slump-post-financial-crisis-uk", "isHosted": false, "pillarId": "pillar/news", "pillarName": "News"}, {"id": "business/2015/jan/30/how-the-uk-sacrificed-pay-for-jobs", "type": "article", "sectionId": "business", "sectionName": "Business", "webPublicationDate": "2015-01-30T00:01:04Z", "webTitle": "How the UK sacrificed pay for jobs", "webUrl": "https://www.theguardian.com/business/2015/jan/30/how-the-uk-sacrificed-pay-for-jobs", "apiUrl": "https://content.guardianapis.com/business/2015/jan/30/how-the-uk-sacrificed-pay-for-jobs", "isHosted": false, "pillarId": "pillar/news", "pillarName": "News"}, {"id": "politics/2015/jan/29/labour-must-empower-public-service-users", "type": "article", "sectionId": "politics", "sectionName": "Politics", "webPublicationDate": "2015-01-29T19:58:20Z", "webTitle": "Labour-led government \u2018must let people shape public services they use\u2019", "webUrl": "https://www.theguardian.com/politics/2015/jan/29/labour-must-empower-public-service-users", "apiUrl": "https://content.guardianapis.com/politics/2015/jan/29/labour-must-empower-public-service-users", "isHosted": false, "pillarId": "pillar/news", "pillarName": "News"}, {"id": "environment/2015/jan/29/balcombe-balks-tax-changes-community-green-energy-solar", "type": "article", "sectionId": "environment", "sectionName": "Environment", "webPublicationDate": "2015-01-29T19:52:06Z", "webTitle": "Balcombe balks at tax changes for community green-energy projects", "webUrl": "https://www.theguardian.com/environment/2015/jan/29/balcombe-balks-tax-changes-community-green-energy-solar", "apiUrl": "https://content.guardianapis.com/environment/2015/jan/29/balcombe-balks-tax-changes-community-green-energy-solar", "isHosted": false, "pillarId": "pillar/news", "pillarName": "News"}, {"id": "business/2015/jan/29/greek-finance-minister-yanis-varoufakis-visit-london", "type": "article", "sectionId": "business", "sectionName": "Business", "webPublicationDate": "2015-01-29T19:44:53Z", "webTitle": "Greek finance minister Yanis Varoufakis to visit Osborne and City bankers", "webUrl": "https://www.theguardian.com/business/2015/jan/29/greek-finance-minister-yanis-varoufakis-visit-london", "apiUrl": "https://content.guardianapis.com/business/2015/jan/29/greek-finance-minister-yanis-varoufakis-visit-london", "isHosted": false, "pillarId": "pillar/news", "pillarName": "News"}, {"id": "education/2015/jan/29/student-groups-condemn-counter-terror-bill", "type": "article", "sectionId": "education", "sectionName": "Education", "webPublicationDate": "2015-01-29T19:36:42Z", "webTitle": "Student groups condemn counter-terror bill", "webUrl": "https://www.theguardian.com/education/2015/jan/29/student-groups-condemn-counter-terror-bill", "apiUrl": "https://content.guardianapis.com/education/2015/jan/29/student-groups-condemn-counter-terror-bill", "isHosted": false, "pillarId": "pillar/news", "pillarName": "News"}, {"id": "politics/2015/jan/29/30-mps-chilcot-iraq-war-inquiry-commons-debate", "type": "article", "sectionId": "politics", "sectionName": "Politics", "webPublicationDate": "2015-01-29T19:30:02Z", "webTitle": "Busy doing nothing: barely 30 MPs turn up to a Chilcot report Commons debate", "webUrl": "https://www.theguardian.com/politics/2015/jan/29/30-mps-chilcot-iraq-war-inquiry-commons-debate", "apiUrl": "https://content.guardianapis.com/politics/2015/jan/29/30-mps-chilcot-iraq-war-inquiry-commons-debate", "isHosted": false, "pillarId": "pillar/news", "pillarName": "News"}, {"id": "environment/2015/jan/29/corporations-not-allowed-dictate-fracking-issue", "type": "article", "sectionId": "environment", "sectionName": "Environment", "webPublicationDate": "2015-01-29T19:29:34Z", "webTitle": "Corporations must not be allowed to dictate fracking issue | Letters", "webUrl": "https://www.theguardian.com/environment/2015/jan/29/corporations-not-allowed-dictate-fracking-issue", "apiUrl": "https://content.guardianapis.com/environment/2015/jan/29/corporations-not-allowed-dictate-fracking-issue", "isHosted": false, "pillarId": "pillar/news", "pillarName": "News"}, {"id": "law/2015/jan/29/uk-broke-law-european-human-rights-cases-2014", "type": "article", "sectionId": "law", "sectionName": "Law", "webPublicationDate": "2015-01-29T19:02:48Z", "webTitle": "UK broke law in fewer than 1% of European human rights cases in 2014", "webUrl": "https://www.theguardian.com/law/2015/jan/29/uk-broke-law-european-human-rights-cases-2014", "apiUrl": "https://content.guardianapis.com/law/2015/jan/29/uk-broke-law-european-human-rights-cases-2014", "isHosted": false, "pillarId": "pillar/news", "pillarName": "News"}, {"id": "tv-and-radio/2015/jan/29/inside-commons-review-peek-behind-westminster-facade", "type": "article", "sectionId": "tv-and-radio", "sectionName": "Television & radio", "webPublicationDate": "2015-01-29T18:06:11Z", "webTitle": "Inside the Commons \u2013 review: a peek behind Westminster\u2019s crumbling facade", "webUrl": "https://www.theguardian.com/tv-and-radio/2015/jan/29/inside-commons-review-peek-behind-westminster-facade", "apiUrl": "https://content.guardianapis.com/tv-and-radio/2015/jan/29/inside-commons-review-peek-behind-westminster-facade", "isHosted": false, "pillarId": "pillar/arts", "pillarName": "Arts"}, {"id": "politics/2015/jan/29/heavy-opposition-defeat-key-part-theresa-may-terrorism-bill", "type": "article", "sectionId": "politics", "sectionName": "Politics", "webPublicationDate": "2015-01-29T17:10:38Z", "webTitle": "Heavy opposition set to defeat key part of Theresa May\u2019s terrorism bill", "webUrl": "https://www.theguardian.com/politics/2015/jan/29/heavy-opposition-defeat-key-part-theresa-may-terrorism-bill", "apiUrl": "https://content.guardianapis.com/politics/2015/jan/29/heavy-opposition-defeat-key-part-theresa-may-terrorism-bill", "isHosted": false, "pillarId": "pillar/news", "pillarName": "News"}, {"id": "politics/blog/live/2015/jan/29/nick-cleggs-call-clegg-phone-in-politics-live-blog", "type": "liveblog", "sectionId": "politics", "sectionName": "Politics", "webPublicationDate": "2015-01-29T16:28:11Z", "webTitle": "MPs debate delay in publishing Chilcot report into Iraq war: Politics Live blog", "webUrl": "https://www.theguardian.com/politics/blog/live/2015/jan/29/nick-cleggs-call-clegg-phone-in-politics-live-blog", "apiUrl": "https://content.guardianapis.com/politics/blog/live/2015/jan/29/nick-cleggs-call-clegg-phone-in-politics-live-blog", "isHosted": false, "pillarId": "pillar/news", "pillarName": "News"}, {"id": "society/2015/jan/29/alan-milburn-labour-health-secretary-am-strategy-private-healthcare", "type": "article", "sectionId": "society", "sectionName": "Society", "webPublicationDate": "2015-01-29T16:19:51Z", "webTitle": "Company owned by Alan Milburn had \u00a3663,000 profit increase in 2013-14", "webUrl": "https://www.theguardian.com/society/2015/jan/29/alan-milburn-labour-health-secretary-am-strategy-private-healthcare", "apiUrl": "https://content.guardianapis.com/society/2015/jan/29/alan-milburn-labour-health-secretary-am-strategy-private-healthcare", "isHosted": false, "pillarId": "pillar/news", "pillarName": "News"}, {"id": "books/2015/jan/29/ukip-study-scoops-10000-prize-for-political-book-of-the-year", "type": "article", "sectionId": "books", "sectionName": "Books", "webPublicationDate": "2015-01-29T14:42:07Z", "webTitle": "Ukip study scoops \u00a310,000 prize for political book of the year", "webUrl": "https://www.theguardian.com/books/2015/jan/29/ukip-study-scoops-10000-prize-for-political-book-of-the-year", "apiUrl": "https://content.guardianapis.com/books/2015/jan/29/ukip-study-scoops-10000-prize-for-political-book-of-the-year", "isHosted": false, "pillarId": "pillar/arts", "pillarName": "Arts"}, {"id": "commentisfree/2015/jan/29/are-these-the-worst-political-comparisons-ever-made", "type": "article", "sectionId": "commentisfree", "sectionName": "Opinion", "webPublicationDate": "2015-01-29T14:13:24Z", "webTitle": "Are these the worst political comparisons ever made?", "webUrl": "https://www.theguardian.com/commentisfree/2015/jan/29/are-these-the-worst-political-comparisons-ever-made", "apiUrl": "https://content.guardianapis.com/commentisfree/2015/jan/29/are-these-the-worst-political-comparisons-ever-made", "isHosted": false, "pillarId": "pillar/opinion", "pillarName": "Opinion"}, {"id": "politics/2015/jan/29/ed-miliband-scotland-backing-jim-murphy-labour", "type": "article", "sectionId": "politics", "sectionName": "Politics", "webPublicationDate": "2015-01-29T13:51:47Z", "webTitle": "Ed Miliband gives Scottish Labour full backing to make own decisions", "webUrl": "https://www.theguardian.com/politics/2015/jan/29/ed-miliband-scotland-backing-jim-murphy-labour", "apiUrl": "https://content.guardianapis.com/politics/2015/jan/29/ed-miliband-scotland-backing-jim-murphy-labour", "isHosted": false, "pillarId": "pillar/news", "pillarName": "News"}, {"id": "politics/2015/jan/29/clegg-cameron-tea-lady-join-debates-election", "type": "article", "sectionId": "politics", "sectionName": "Politics", "webPublicationDate": "2015-01-29T13:00:00Z", "webTitle": "Clegg: next Cameron will ask the \u2018tea lady\u2019 to join debates", "webUrl": "https://www.theguardian.com/politics/2015/jan/29/clegg-cameron-tea-lady-join-debates-election", "apiUrl": "https://content.guardianapis.com/politics/2015/jan/29/clegg-cameron-tea-lady-join-debates-election", "isHosted": false, "pillarId": "pillar/news", "pillarName": "News"}, {"id": "commentisfree/2015/jan/29/nhs-weaponised-tories-politicised-health-service", "type": "article", "sectionId": "commentisfree", "sectionName": "Opinion", "webPublicationDate": "2015-01-29T11:41:09Z", "webTitle": "Yes, the NHS has been weaponised, but it was the Tories who primed the guns | Polly Toynbee", "webUrl": "https://www.theguardian.com/commentisfree/2015/jan/29/nhs-weaponised-tories-politicised-health-service", "apiUrl": "https://content.guardianapis.com/commentisfree/2015/jan/29/nhs-weaponised-tories-politicised-health-service", "isHosted": false, "pillarId": "pillar/opinion", "pillarName": "Opinion"}, {"id": "commentisfree/2015/jan/29/politicians-uk-migrant-voters-electorate-2015-election", "type": "article", "sectionId": "commentisfree", "sectionName": "Opinion", "webPublicationDate": "2015-01-29T11:30:36Z", "webTitle": "Politicians, ignore the UK\u2019s migrant voters at your peril | Robert Ford and Ruth Grove-White", "webUrl": "https://www.theguardian.com/commentisfree/2015/jan/29/politicians-uk-migrant-voters-electorate-2015-election", "apiUrl": "https://content.guardianapis.com/commentisfree/2015/jan/29/politicians-uk-migrant-voters-electorate-2015-election", "isHosted": false, "pillarId": "pillar/opinion", "pillarName": "Opinion"}, {"id": "world/2015/jan/29/mi5-rendition-libyan-oppostion-strengthened-al-qaida", "type": "article", "sectionId": "world", "sectionName": "World news", "webPublicationDate": "2015-01-29T11:27:35Z", "webTitle": "MI5 says rendition of Libyan opposition leaders strengthened al-Qaida", "webUrl": "https://www.theguardian.com/world/2015/jan/29/mi5-rendition-libyan-oppostion-strengthened-al-qaida", "apiUrl": "https://content.guardianapis.com/world/2015/jan/29/mi5-rendition-libyan-oppostion-strengthened-al-qaida", "isHosted": false, "pillarId": "pillar/news", "pillarName": "News"}, {"id": "music/2015/jan/29/2-chainz-to-run-mayor-college-park-georgia", "type": "article", "sectionId": "music", "sectionName": "Music", "webPublicationDate": "2015-01-29T11:17:21Z", "webTitle": "2 Chainz hopes to run for mayor of home town", "webUrl": "https://www.theguardian.com/music/2015/jan/29/2-chainz-to-run-mayor-college-park-georgia", "apiUrl": "https://content.guardianapis.com/music/2015/jan/29/2-chainz-to-run-mayor-college-park-georgia", "isHosted": false, "pillarId": "pillar/arts", "pillarName": "Arts"}, {"id": "politics/2015/jan/29/surge-in-voters-born-overseas", "type": "article", "sectionId": "politics", "sectionName": "Politics", "webPublicationDate": "2015-01-29T09:45:00Z", "webTitle": "Surge in migrant voters could swing vote in key UK constituencies", "webUrl": "https://www.theguardian.com/politics/2015/jan/29/surge-in-voters-born-overseas", "apiUrl": "https://content.guardianapis.com/politics/2015/jan/29/surge-in-voters-born-overseas", "isHosted": false, "pillarId": "pillar/news", "pillarName": "News"}, {"id": "education/2015/jan/29/english-schools-failing-gcse-targets-doubles", "type": "article", "sectionId": "education", "sectionName": "Education", "webPublicationDate": "2015-01-29T09:30:09Z", "webTitle": "Number of English schools failing on GCSE targets doubles in a year", "webUrl": "https://www.theguardian.com/education/2015/jan/29/english-schools-failing-gcse-targets-doubles", "apiUrl": "https://content.guardianapis.com/education/2015/jan/29/english-schools-failing-gcse-targets-doubles", "isHosted": false, "pillarId": "pillar/news", "pillarName": "News"}, {"id": "commentisfree/2015/jan/29/where-real-tory-party-voters-left-with-thatcherism", "type": "article", "sectionId": "commentisfree", "sectionName": "Opinion", "webPublicationDate": "2015-01-29T07:00:25Z", "webTitle": "Where are the Real Tories? We need a party to halt the advance of the state | Simon Jenkins", "webUrl": "https://www.theguardian.com/commentisfree/2015/jan/29/where-real-tory-party-voters-left-with-thatcherism", "apiUrl": "https://content.guardianapis.com/commentisfree/2015/jan/29/where-real-tory-party-voters-left-with-thatcherism", "isHosted": false, "pillarId": "pillar/opinion", "pillarName": "Opinion"}, {"id": "business/2015/jan/29/tesco-towns-count-cost-retail-empire-retreat", "type": "article", "sectionId": "business", "sectionName": "Business", "webPublicationDate": "2015-01-29T06:00:24Z", "webTitle": "Tesco towns count the cost of a retail empire in retreat", "webUrl": "https://www.theguardian.com/business/2015/jan/29/tesco-towns-count-cost-retail-empire-retreat", "apiUrl": "https://content.guardianapis.com/business/2015/jan/29/tesco-towns-count-cost-retail-empire-retreat", "isHosted": false, "pillarId": "pillar/news", "pillarName": "News"}, {"id": "politics/2015/jan/29/hundreds-of-millions-to-foreign-aid-fund-lacked-scrutiny", "type": "article", "sectionId": "global-development", "sectionName": "Global development", "webPublicationDate": "2015-01-29T05:45:24Z", "webTitle": "Hundreds of millions given to foreign aid fund that lacked scrutiny, say MPs", "webUrl": "https://www.theguardian.com/politics/2015/jan/29/hundreds-of-millions-to-foreign-aid-fund-lacked-scrutiny", "apiUrl": "https://content.guardianapis.com/politics/2015/jan/29/hundreds-of-millions-to-foreign-aid-fund-lacked-scrutiny", "isHosted": false, "pillarId": "pillar/news", "pillarName": "News"}]}}