{"response": {"status": "ok", "userTier": "developer", "total": 24355, "startIndex": 1, "pageSize": 50, "currentPage": 1, "pages": 488, "orderBy": "newest", "results": [{"id": "travel/2010/jan/30/andalucia-spain-olives", "type": "article", "sectionId": "travel", "sectionName": "Travel", "webPublicationDate": "2010-01-30T00:07:49Z", "webTitle": "Andaluc\u00eda, Spain's virgin territory", "webUrl": "https://www.theguardian.com/travel/2010/jan/30/andalucia-spain-olives", "apiUrl": "https://content.guardianapis.com/travel/2010/jan/30/andalucia-spain-olives", "isHosted": false, "pillarId": "pillar/lifestyle", "pillarName": "Lifestyle"}, {"id": "environment/2010/jan/30/bedfordshire-mosquito-wasp-logs", "type": "article", "sectionId": "environment", "sectionName": "Environment", "webPublicationDate": "2010-01-30T00:05:11Z", "webTitle": "Country diary: Bedfordshire", "webUrl": "https://www.theguardian.com/environment/2010/jan/30/bedfordshire-mosquito-wasp-logs", "apiUrl": "https://content.guardianapis.com/environment/2010/jan/30/bedfordshire-mosquito-wasp-logs", "isHosted": false, "pillarId": "pillar/news", "pillarName": "News"}, {"id": "world/picture/2010/jan/30/norway", "type": "picture", "sectionId": "world", "sectionName": "World news", "webPublicationDate": "2010-01-30T00:01:00Z", "webTitle": "Eyewitness: A Royal Marine watches the Northern Lights", "webUrl": "https://www.theguardian.com/world/picture/2010/jan/30/norway", "apiUrl": "https://content.guardianapis.com/world/picture/2010/jan/30/norway", "isHosted": false, "pillarId": "pillar/news", "pillarName": "News"}, {"id": "environment/2010/jan/29/climate-change-carbon-emissions", "type": "article", "sectionId": "environment", "sectionName": "Environment", "webPublicationDate": "2010-01-29T17:57:44Z", "webTitle": "US pledges to cut federal government emissions by 28% by 2020", "webUrl": "https://www.theguardian.com/environment/2010/jan/29/climate-change-carbon-emissions", "apiUrl": "https://content.guardianapis.com/environment/2010/jan/29/climate-change-carbon-emissions", "isHosted": false, "pillarId": "pillar/news", "pillarName": "News"}, {"id": "environment/2010/jan/29/cost-of-uk-flood-protection", "type": "article", "sectionId": "environment", "sectionName": "Environment", "webPublicationDate": "2010-01-29T17:30:11Z", "webTitle": "Cost of UK flood protection doubles to \u00a31bn a year", "webUrl": "https://www.theguardian.com/environment/2010/jan/29/cost-of-uk-flood-protection", "apiUrl": "https://content.guardianapis.com/environment/2010/jan/29/cost-of-uk-flood-protection", "isHosted": false, "pillarId": "pillar/news", "pillarName": "News"}, {"id": "commentisfree/cif-green/2010/jan/29/bin-laden-eco-warrior-climate-change", "type": "article", "sectionId": "stage", "sectionName": "Stage", "webPublicationDate": "2010-01-29T16:00:00Z", "webTitle": "Bin Laden, eco warrior | Marcus Brigstocke", "webUrl": "https://www.theguardian.com/commentisfree/cif-green/2010/jan/29/bin-laden-eco-warrior-climate-change", "apiUrl": "https://content.guardianapis.com/commentisfree/cif-green/2010/jan/29/bin-laden-eco-warrior-climate-change", "isHosted": false, "pillarId": "pillar/arts", "pillarName": "Arts"}, {"id": "world/blog/2010/jan/29/sharks-crocodile-anglers-youtube-video", "type": "article", "sectionId": "australia-news", "sectionName": "Australia news", "webPublicationDate": "2010-01-29T15:38:08Z", "webTitle": "Anglers prevail in tussle with sharks and crocodile", "webUrl": "https://www.theguardian.com/world/blog/2010/jan/29/sharks-crocodile-anglers-youtube-video", "apiUrl": "https://content.guardianapis.com/world/blog/2010/jan/29/sharks-crocodile-anglers-youtube-video", "isHosted": false, "pillarId": "pillar/news", "pillarName": "News"}, {"id": "commentisfree/2010/jan/29/davos-women-gender-gap", "type": "article", "sectionId": "commentisfree", "sectionName": "Opinion", "webPublicationDate": "2010-01-29T15:30:02Z", "webTitle": "Women are more than just consumers | Lindsay Mackie", "webUrl": "https://www.theguardian.com/commentisfree/2010/jan/29/davos-women-gender-gap", "apiUrl": "https://content.guardianapis.com/commentisfree/2010/jan/29/davos-women-gender-gap", "isHosted": false, "pillarId": "pillar/opinion", "pillarName": "Opinion"}, {"id": "environment/gallery/2010/jan/29/wildlife-birds", "type": "gallery", "sectionId": "environment", "sectionName": "Environment", "webPublicationDate": "2010-01-29T15:00:00Z", "webTitle": "BirdGuides Photo of the Year 2009", "webUrl": "https://www.theguardian.com/environment/gallery/2010/jan/29/wildlife-birds", "apiUrl": "https://content.guardianapis.com/environment/gallery/2010/jan/29/wildlife-birds", "isHosted": false, "pillarId": "pillar/news", "pillarName": "News"}, {"id": "politics/blog/2010/jan/29/blair-wakefield-climate-change-michael-white", "type": "article", "sectionId": "politics", "sectionName": "Politics", "webPublicationDate": "2010-01-29T11:10:52Z", "webTitle": "Blair, Wakefield, climate change \u2013 beware of scapegoats | Michael White", "webUrl": "https://www.theguardian.com/politics/blog/2010/jan/29/blair-wakefield-climate-change-michael-white", "apiUrl": "https://content.guardianapis.com/politics/blog/2010/jan/29/blair-wakefield-climate-change-michael-white", "isHosted": false, "pillarId": "pillar/news", "pillarName": "News"}, {"id": "money/2010/jan/29/boiler-scrappage-scheme-delays", "type": "article", "sectionId": "money", "sectionName": "Money", "webPublicationDate": "2010-01-29T10:35:06Z", "webTitle": "Boiler scrappage scheme hit by delays", "webUrl": "https://www.theguardian.com/money/2010/jan/29/boiler-scrappage-scheme-delays", "apiUrl": "https://content.guardianapis.com/money/2010/jan/29/boiler-scrappage-scheme-delays", "isHosted": false, "pillarId": "pillar/lifestyle", "pillarName": "Lifestyle"}, {"id": "lifeandstyle/2010/jan/29/embellish-jumper-beads", "type": "article", "sectionId": "fashion", "sectionName": "Fashion", "webPublicationDate": "2010-01-29T10:00:00Z", "webTitle": "How to embellish a jumper with beads", "webUrl": "https://www.theguardian.com/lifeandstyle/2010/jan/29/embellish-jumper-beads", "apiUrl": "https://content.guardianapis.com/lifeandstyle/2010/jan/29/embellish-jumper-beads", "isHosted": false, "pillarId": "pillar/lifestyle", "pillarName": "Lifestyle"}, {"id": "environment/2010/jan/29/water-vapour-climate-change", "type": "article", "sectionId": "environment", "sectionName": "Environment", "webPublicationDate": "2010-01-29T08:40:33Z", "webTitle": "Water vapour caused one-third of global warming in 1990s, study reveals", "webUrl": "https://www.theguardian.com/environment/2010/jan/29/water-vapour-climate-change", "apiUrl": "https://content.guardianapis.com/environment/2010/jan/29/water-vapour-climate-change", "isHosted": false, "pillarId": "pillar/news", "pillarName": "News"}, {"id": "environment/gallery/2010/jan/29/week-in-wildlife", "type": "gallery", "sectionId": "environment", "sectionName": "Environment", "webPublicationDate": "2010-01-29T07:00:00Z", "webTitle": "In pictures: The week in wildlife", "webUrl": "https://www.theguardian.com/environment/gallery/2010/jan/29/week-in-wildlife", "apiUrl": "https://content.guardianapis.com/environment/gallery/2010/jan/29/week-in-wildlife", "isHosted": false, "pillarId": "pillar/news", "pillarName": "News"}, {"id": "environment/2010/jan/29/barack-obama-us-formal-copenhagen", "type": "article", "sectionId": "environment", "sectionName": "Environment", "webPublicationDate": "2010-01-29T02:51:26Z", "webTitle": "Obama sees the positives as US gives formal notice on greenhouse gases", "webUrl": "https://www.theguardian.com/environment/2010/jan/29/barack-obama-us-formal-copenhagen", "apiUrl": "https://content.guardianapis.com/environment/2010/jan/29/barack-obama-us-formal-copenhagen", "isHosted": false, "pillarId": "pillar/news", "pillarName": "News"}, {"id": "environment/2010/jan/29/country-diary-shetland-otter", "type": "article", "sectionId": "environment", "sectionName": "Environment", "webPublicationDate": "2010-01-29T00:05:04Z", "webTitle": "Country diary: Shetland Isles", "webUrl": "https://www.theguardian.com/environment/2010/jan/29/country-diary-shetland-otter", "apiUrl": "https://content.guardianapis.com/environment/2010/jan/29/country-diary-shetland-otter", "isHosted": false, "pillarId": "pillar/news", "pillarName": "News"}, {"id": "world/2010/jan/28/obama-pledge-for-rail-network", "type": "article", "sectionId": "environment", "sectionName": "Environment", "webPublicationDate": "2010-01-28T22:46:57Z", "webTitle": "Barack Obama pledges $8bn to upgrade aged US rail network", "webUrl": "https://www.theguardian.com/world/2010/jan/28/obama-pledge-for-rail-network", "apiUrl": "https://content.guardianapis.com/world/2010/jan/28/obama-pledge-for-rail-network", "isHosted": false, "pillarId": "pillar/news", "pillarName": "News"}, {"id": "katine/2010/jan/28/food-security-parliamentary-report", "type": "article", "sectionId": "katine", "sectionName": "Katine", "webPublicationDate": "2010-01-28T17:45:41Z", "webTitle": "Calls for DfID to increase agriculture spending to 10%", "webUrl": "https://www.theguardian.com/katine/2010/jan/28/food-security-parliamentary-report", "apiUrl": "https://content.guardianapis.com/katine/2010/jan/28/food-security-parliamentary-report", "isHosted": false, "pillarId": "pillar/news", "pillarName": "News"}, {"id": "environment/gallery/2010/jan/26/saving-black-poplar-trees", "type": "gallery", "sectionId": "environment", "sectionName": "Environment", "webPublicationDate": "2010-01-28T16:22:41Z", "webTitle": "In pictures: Saving Britain's black poplar trees", "webUrl": "https://www.theguardian.com/environment/gallery/2010/jan/26/saving-black-poplar-trees", "apiUrl": "https://content.guardianapis.com/environment/gallery/2010/jan/26/saving-black-poplar-trees", "isHosted": false, "pillarId": "pillar/news", "pillarName": "News"}, {"id": "business/2010/jan/28/davos-larry-elliott-development-aid", "type": "article", "sectionId": "business", "sectionName": "Business", "webPublicationDate": "2010-01-28T15:58:00Z", "webTitle": "Davos: Funding switch threatens aid to developing world, campaigner warns", "webUrl": "https://www.theguardian.com/business/2010/jan/28/davos-larry-elliott-development-aid", "apiUrl": "https://content.guardianapis.com/business/2010/jan/28/davos-larry-elliott-development-aid", "isHosted": false, "pillarId": "pillar/news", "pillarName": "News"}, {"id": "business/2010/jan/28/bp-tony-hayward-gas-shale-rocks", "type": "article", "sectionId": "business", "sectionName": "Business", "webPublicationDate": "2010-01-28T15:01:00Z", "webTitle": "BP chief hails American breakthrough in gas supplies from shale rocks", "webUrl": "https://www.theguardian.com/business/2010/jan/28/bp-tony-hayward-gas-shale-rocks", "apiUrl": "https://content.guardianapis.com/business/2010/jan/28/bp-tony-hayward-gas-shale-rocks", "isHosted": false, "pillarId": "pillar/news", "pillarName": "News"}, {"id": "environment/blog/2010/jan/28/us-politics-barack-obama", "type": "article", "sectionId": "environment", "sectionName": "Environment", "webPublicationDate": "2010-01-28T05:50:51Z", "webTitle": "Barack Obama commits to climate change bill", "webUrl": "https://www.theguardian.com/environment/blog/2010/jan/28/us-politics-barack-obama", "apiUrl": "https://content.guardianapis.com/environment/blog/2010/jan/28/us-politics-barack-obama", "isHosted": false, "pillarId": "pillar/news", "pillarName": "News"}, {"id": "environment/2010/jan/28/coutry-diary-nairn-harbour-scotland", "type": "article", "sectionId": "environment", "sectionName": "Environment", "webPublicationDate": "2010-01-28T00:05:15Z", "webTitle": "Country diary: Nairn harbour", "webUrl": "https://www.theguardian.com/environment/2010/jan/28/coutry-diary-nairn-harbour-scotland", "apiUrl": "https://content.guardianapis.com/environment/2010/jan/28/coutry-diary-nairn-harbour-scotland", "isHosted": false, "pillarId": "pillar/news", "pillarName": "News"}, {"id": "lifeandstyle/2010/jan/28/gary-neville-teletubbies-eco-house", "type": "article", "sectionId": "environment", "sectionName": "Environment", "webPublicationDate": "2010-01-28T00:05:10Z", "webTitle": "Is Gary Neville living in Teletubbyland with plans for his eco house?", "webUrl": "https://www.theguardian.com/lifeandstyle/2010/jan/28/gary-neville-teletubbies-eco-house", "apiUrl": "https://content.guardianapis.com/lifeandstyle/2010/jan/28/gary-neville-teletubbies-eco-house", "isHosted": false, "pillarId": "pillar/news", "pillarName": "News"}, {"id": "environment/2010/jan/28/fair-trade-ethical-living", "type": "article", "sectionId": "global-development", "sectionName": "Global development", "webPublicationDate": "2010-01-28T00:05:06Z", "webTitle": "Green and Black's to go 100% Fairtrade", "webUrl": "https://www.theguardian.com/environment/2010/jan/28/fair-trade-ethical-living", "apiUrl": "https://content.guardianapis.com/environment/2010/jan/28/fair-trade-ethical-living", "isHosted": false, "pillarId": "pillar/news", "pillarName": "News"}, {"id": "environment/2010/jan/27/uea-hacked-climate-emails-foi", "type": "article", "sectionId": "environment", "sectionName": "Environment", "webPublicationDate": "2010-01-27T22:26:54Z", "webTitle": "University in hacked climate change emails row broke FOI rules", "webUrl": "https://www.theguardian.com/environment/2010/jan/27/uea-hacked-climate-emails-foi", "apiUrl": "https://content.guardianapis.com/environment/2010/jan/27/uea-hacked-climate-emails-foi", "isHosted": false, "pillarId": "pillar/news", "pillarName": "News"}, {"id": "environment/2010/jan/27/feed-in-tariffs-renewable-energy", "type": "article", "sectionId": "environment", "sectionName": "Environment", "webPublicationDate": "2010-01-27T16:51:53Z", "webTitle": "Public supports ambitious scheme for micro-scale renewable energy: poll", "webUrl": "https://www.theguardian.com/environment/2010/jan/27/feed-in-tariffs-renewable-energy", "apiUrl": "https://content.guardianapis.com/environment/2010/jan/27/feed-in-tariffs-renewable-energy", "isHosted": false, "pillarId": "pillar/news", "pillarName": "News"}, {"id": "artanddesign/2010/jan/27/green-replica-buckingham-palace", "type": "article", "sectionId": "artanddesign", "sectionName": "Art and design", "webPublicationDate": "2010-01-27T16:39:46Z", "webTitle": "Demolish Buckingham Palace ... and replace it with an eco-friendly replica | Steve Rose", "webUrl": "https://www.theguardian.com/artanddesign/2010/jan/27/green-replica-buckingham-palace", "apiUrl": "https://content.guardianapis.com/artanddesign/2010/jan/27/green-replica-buckingham-palace", "isHosted": false, "pillarId": "pillar/arts", "pillarName": "Arts"}, {"id": "environment/audio/2010/jan/27/coal-protest-south-lanarkshire", "type": "audio", "sectionId": "environment", "sectionName": "Environment", "webPublicationDate": "2010-01-27T16:12:28Z", "webTitle": "Coal protest: 'There are bailiffs at the bottom of my tree'", "webUrl": "https://www.theguardian.com/environment/audio/2010/jan/27/coal-protest-south-lanarkshire", "apiUrl": "https://content.guardianapis.com/environment/audio/2010/jan/27/coal-protest-south-lanarkshire", "isHosted": false, "pillarId": "pillar/news", "pillarName": "News"}, {"id": "environment/gallery/2010/jan/27/wildlife-chagos-islands", "type": "gallery", "sectionId": "world", "sectionName": "World news", "webPublicationDate": "2010-01-27T15:49:14Z", "webTitle": "In pictures: Wildlife of the Chagos islands", "webUrl": "https://www.theguardian.com/environment/gallery/2010/jan/27/wildlife-chagos-islands", "apiUrl": "https://content.guardianapis.com/environment/gallery/2010/jan/27/wildlife-chagos-islands", "isHosted": false, "pillarId": "pillar/news", "pillarName": "News"}, {"id": "environment/georgemonbiot/2010/jan/27/james-delingpole-climate-change-denial", "type": "article", "sectionId": "environment", "sectionName": "Environment", "webPublicationDate": "2010-01-27T15:29:56Z", "webTitle": "James Delingpole leads Telegraph into vicious climate over email | George Monbiot", "webUrl": "https://www.theguardian.com/environment/georgemonbiot/2010/jan/27/james-delingpole-climate-change-denial", "apiUrl": "https://content.guardianapis.com/environment/georgemonbiot/2010/jan/27/james-delingpole-climate-change-denial", "isHosted": false, "pillarId": "pillar/news", "pillarName": "News"}, {"id": "environment/2010/jan/27/activists-scottish-coal", "type": "article", "sectionId": "environment", "sectionName": "Environment", "webPublicationDate": "2010-01-27T13:33:07Z", "webTitle": "Activists halt operations at Scottish coal terminal", "webUrl": "https://www.theguardian.com/environment/2010/jan/27/activists-scottish-coal", "apiUrl": "https://content.guardianapis.com/environment/2010/jan/27/activists-scottish-coal", "isHosted": false, "pillarId": "pillar/news", "pillarName": "News"}, {"id": "environment/2010/jan/27/green-light", "type": "article", "sectionId": "environment", "sectionName": "Environment", "webPublicationDate": "2010-01-27T13:15:41Z", "webTitle": "Green light: Climate science under fire, conservation and money-free man", "webUrl": "https://www.theguardian.com/environment/2010/jan/27/green-light", "apiUrl": "https://content.guardianapis.com/environment/2010/jan/27/green-light", "isHosted": false, "pillarId": "pillar/news", "pillarName": "News"}, {"id": "environment/blog/2010/jan/27/cashless-man-pig-castration-mudguards", "type": "article", "sectionId": "environment", "sectionName": "Environment", "webPublicationDate": "2010-01-27T12:29:02Z", "webTitle": "Everybody's talking about: cashless man, pig castration and mudguards | Mariam Cook", "webUrl": "https://www.theguardian.com/environment/blog/2010/jan/27/cashless-man-pig-castration-mudguards", "apiUrl": "https://content.guardianapis.com/environment/blog/2010/jan/27/cashless-man-pig-castration-mudguards", "isHosted": false, "pillarId": "pillar/news", "pillarName": "News"}, {"id": "environment/blog/2010/jan/27/top-50-green-books", "type": "article", "sectionId": "environment", "sectionName": "Environment", "webPublicationDate": "2010-01-27T12:01:24Z", "webTitle": "What are your top green books? | Leo Hickman", "webUrl": "https://www.theguardian.com/environment/blog/2010/jan/27/top-50-green-books", "apiUrl": "https://content.guardianapis.com/environment/blog/2010/jan/27/top-50-green-books", "isHosted": false, "pillarId": "pillar/news", "pillarName": "News"}, {"id": "environment/2010/jan/27/50-books-sustainability-cambridge", "type": "article", "sectionId": "environment", "sectionName": "Environment", "webPublicationDate": "2010-01-27T11:58:37Z", "webTitle": "Fifty books to change the world", "webUrl": "https://www.theguardian.com/environment/2010/jan/27/50-books-sustainability-cambridge", "apiUrl": "https://content.guardianapis.com/environment/2010/jan/27/50-books-sustainability-cambridge", "isHosted": false, "pillarId": "pillar/news", "pillarName": "News"}, {"id": "uk/2010/jan/27/climate-change-uk-top-scientist-urges-caution", "type": "article", "sectionId": "environment", "sectionName": "Environment", "webPublicationDate": "2010-01-27T01:41:35Z", "webTitle": "UK's top scientist urges care in presenting results of climate change", "webUrl": "https://www.theguardian.com/uk/2010/jan/27/climate-change-uk-top-scientist-urges-caution", "apiUrl": "https://content.guardianapis.com/uk/2010/jan/27/climate-change-uk-top-scientist-urges-caution", "isHosted": false, "pillarId": "pillar/news", "pillarName": "News"}, {"id": "environment/2010/jan/27/challenging-times-climate-science", "type": "article", "sectionId": "environment", "sectionName": "Environment", "webPublicationDate": "2010-01-27T00:05:47Z", "webTitle": "Letters: Challenging times for climate science", "webUrl": "https://www.theguardian.com/environment/2010/jan/27/challenging-times-climate-science", "apiUrl": "https://content.guardianapis.com/environment/2010/jan/27/challenging-times-climate-science", "isHosted": false, "pillarId": "pillar/news", "pillarName": "News"}, {"id": "environment/2010/jan/27/gordon-brown-britain-great-barrier-reef", "type": "article", "sectionId": "environment", "sectionName": "Environment", "webPublicationDate": "2010-01-27T00:05:27Z", "webTitle": "Conservationists urge Gordon Brown to create 'Britain's Great Barrier Reef'", "webUrl": "https://www.theguardian.com/environment/2010/jan/27/gordon-brown-britain-great-barrier-reef", "apiUrl": "https://content.guardianapis.com/environment/2010/jan/27/gordon-brown-britain-great-barrier-reef", "isHosted": false, "pillarId": "pillar/news", "pillarName": "News"}, {"id": "society/2010/jan/27/local-authority-rubbish-cleanup-bnp", "type": "article", "sectionId": "society", "sectionName": "Society", "webPublicationDate": "2010-01-27T00:05:16Z", "webTitle": "Eyesore rubbish vies for importance with BNP on local politics agenda", "webUrl": "https://www.theguardian.com/society/2010/jan/27/local-authority-rubbish-cleanup-bnp", "apiUrl": "https://content.guardianapis.com/society/2010/jan/27/local-authority-rubbish-cleanup-bnp", "isHosted": false, "pillarId": "pillar/news", "pillarName": "News"}, {"id": "environment/cif-green/2010/jan/27/chagos-preserve-natural-wonder", "type": "article", "sectionId": "world", "sectionName": "World news", "webPublicationDate": "2010-01-27T00:05:15Z", "webTitle": "Chagos is our chance to preserve a natural wonder | Tony Juniper", "webUrl": "https://www.theguardian.com/environment/cif-green/2010/jan/27/chagos-preserve-natural-wonder", "apiUrl": "https://content.guardianapis.com/environment/cif-green/2010/jan/27/chagos-preserve-natural-wonder", "isHosted": false, "pillarId": "pillar/news", "pillarName": "News"}, {"id": "environment/2010/jan/27/country-diary-wenlock-edge", "type": "article", "sectionId": "environment", "sectionName": "Environment", "webPublicationDate": "2010-01-27T00:05:13Z", "webTitle": "Country diary: Wenlock Edge", "webUrl": "https://www.theguardian.com/environment/2010/jan/27/country-diary-wenlock-edge", "apiUrl": "https://content.guardianapis.com/environment/2010/jan/27/country-diary-wenlock-edge", "isHosted": false, "pillarId": "pillar/news", "pillarName": "News"}, {"id": "environment/2010/jan/27/car-makers-emissions-data", "type": "article", "sectionId": "environment", "sectionName": "Environment", "webPublicationDate": "2010-01-27T00:05:01Z", "webTitle": "Car makers 'failing consumers' on emission data", "webUrl": "https://www.theguardian.com/environment/2010/jan/27/car-makers-emissions-data", "apiUrl": "https://content.guardianapis.com/environment/2010/jan/27/car-makers-emissions-data", "isHosted": false, "pillarId": "pillar/news", "pillarName": "News"}, {"id": "environment/2010/jan/26/ministry-justice-environmental-campaigners-terrorism", "type": "article", "sectionId": "environment", "sectionName": "Environment", "webPublicationDate": "2010-01-26T18:23:46Z", "webTitle": "Ministry of Justice lists eco-activists alongside terrorists", "webUrl": "https://www.theguardian.com/environment/2010/jan/26/ministry-justice-environmental-campaigners-terrorism", "apiUrl": "https://content.guardianapis.com/environment/2010/jan/26/ministry-justice-environmental-campaigners-terrorism", "isHosted": false, "pillarId": "pillar/news", "pillarName": "News"}, {"id": "environment/cif-green/2010/jan/26/ipcc-climate-change", "type": "article", "sectionId": "environment", "sectionName": "Environment", "webPublicationDate": "2010-01-26T17:56:16Z", "webTitle": "'Disastergate' is an excuse for IPCC critics to dig up old academic rows | Bob Ward", "webUrl": "https://www.theguardian.com/environment/cif-green/2010/jan/26/ipcc-climate-change", "apiUrl": "https://content.guardianapis.com/environment/cif-green/2010/jan/26/ipcc-climate-change", "isHosted": false, "pillarId": "pillar/news", "pillarName": "News"}, {"id": "environment/2010/jan/26/ipcc-natural-disasters-climate-change", "type": "article", "sectionId": "environment", "sectionName": "Environment", "webPublicationDate": "2010-01-26T16:48:46Z", "webTitle": "IPCC denies newspaper claim that it overstated costs of natural disasters", "webUrl": "https://www.theguardian.com/environment/2010/jan/26/ipcc-natural-disasters-climate-change", "apiUrl": "https://content.guardianapis.com/environment/2010/jan/26/ipcc-natural-disasters-climate-change", "isHosted": false, "pillarId": "pillar/news", "pillarName": "News"}, {"id": "environment/2010/jan/26/wwf-marks-spencer-fishing", "type": "article", "sectionId": "environment", "sectionName": "Environment", "webPublicationDate": "2010-01-26T13:41:21Z", "webTitle": "WWF nets Marks & Spencer commitment to sustainable fishing", "webUrl": "https://www.theguardian.com/environment/2010/jan/26/wwf-marks-spencer-fishing", "apiUrl": "https://content.guardianapis.com/environment/2010/jan/26/wwf-marks-spencer-fishing", "isHosted": false, "pillarId": "pillar/news", "pillarName": "News"}, {"id": "environment/2010/jan/26/dog-meat-china", "type": "article", "sectionId": "world", "sectionName": "World news", "webPublicationDate": "2010-01-26T13:29:49Z", "webTitle": "Chinese legal experts call for ban on eating cats and dogs", "webUrl": "https://www.theguardian.com/environment/2010/jan/26/dog-meat-china", "apiUrl": "https://content.guardianapis.com/environment/2010/jan/26/dog-meat-china", "isHosted": false, "pillarId": "pillar/news", "pillarName": "News"}, {"id": "environment/2010/jan/26/china-endangered-species-oscars", "type": "article", "sectionId": "environment", "sectionName": "Environment", "webPublicationDate": "2010-01-26T10:37:08Z", "webTitle": "China puts on Oscar-style ceremony to celebrate heroes of wildlife conservation", "webUrl": "https://www.theguardian.com/environment/2010/jan/26/china-endangered-species-oscars", "apiUrl": "https://content.guardianapis.com/environment/2010/jan/26/china-endangered-species-oscars", "isHosted": false, "pillarId": "pillar/news", "pillarName": "News"}, {"id": "environment/2010/jan/26/country-diary-dorset-culpeper-dish", "type": "article", "sectionId": "environment", "sectionName": "Environment", "webPublicationDate": "2010-01-26T00:05:32Z", "webTitle": "Country diary: Dorset", "webUrl": "https://www.theguardian.com/environment/2010/jan/26/country-diary-dorset-culpeper-dish", "apiUrl": "https://content.guardianapis.com/environment/2010/jan/26/country-diary-dorset-culpeper-dish", "isHosted": false, "pillarId": "pillar/news", "pillarName": "News"}]}}