{"response": {"status": "ok", "userTier": "developer", "total": 18387, "startIndex": 1, "pageSize": 50, "currentPage": 1, "pages": 368, "orderBy": "newest", "results": [{"id": "world/2013/jan/30/polish-supplier-burger-scandal-meat", "type": "article", "sectionId": "world", "sectionName": "World news", "webPublicationDate": "2013-01-30T19:44:54Z", "webTitle": "Polish supplier linked to burger scandal 'had been providing meat for a year'", "webUrl": "https://www.theguardian.com/world/2013/jan/30/polish-supplier-burger-scandal-meat", "apiUrl": "https://content.guardianapis.com/world/2013/jan/30/polish-supplier-burger-scandal-meat", "isHosted": false, "pillarId": "pillar/news", "pillarName": "News"}, {"id": "tv-and-radio/2013/jan/30/adam-price-chef-cooked-up-borgen", "type": "article", "sectionId": "tv-and-radio", "sectionName": "Television & radio", "webPublicationDate": "2013-01-30T18:02:00Z", "webTitle": "Adam Price: the chef who cooked up Borgen", "webUrl": "https://www.theguardian.com/tv-and-radio/2013/jan/30/adam-price-chef-cooked-up-borgen", "apiUrl": "https://content.guardianapis.com/tv-and-radio/2013/jan/30/adam-price-chef-cooked-up-borgen", "isHosted": false, "pillarId": "pillar/arts", "pillarName": "Arts"}, {"id": "lifeandstyle/2013/jan/30/choose-potato-cook-tasty-chips", "type": "article", "sectionId": "food", "sectionName": "Food", "webPublicationDate": "2013-01-30T17:15:00Z", "webTitle": "First choose your potato: how to cook really tasty chips", "webUrl": "https://www.theguardian.com/lifeandstyle/2013/jan/30/choose-potato-cook-tasty-chips", "apiUrl": "https://content.guardianapis.com/lifeandstyle/2013/jan/30/choose-potato-cook-tasty-chips", "isHosted": false, "pillarId": "pillar/lifestyle", "pillarName": "Lifestyle"}, {"id": "lifeandstyle/2013/jan/30/sea-bream-shrimp-capers-recipe", "type": "article", "sectionId": "lifeandstyle", "sectionName": "Life and style", "webPublicationDate": "2013-01-30T16:35:00Z", "webTitle": "Sea bream with brown shrimp and capers recipe | Angela Hartnett", "webUrl": "https://www.theguardian.com/lifeandstyle/2013/jan/30/sea-bream-shrimp-capers-recipe", "apiUrl": "https://content.guardianapis.com/lifeandstyle/2013/jan/30/sea-bream-shrimp-capers-recipe", "isHosted": false, "pillarId": "pillar/lifestyle", "pillarName": "Lifestyle"}, {"id": "lifeandstyle/shortcuts/2013/jan/30/mud-latest-culinary-sensation-tokyo", "type": "article", "sectionId": "food", "sectionName": "Food", "webPublicationDate": "2013-01-30T15:24:43Z", "webTitle": "Mud: Tokyo's latest culinary sensation", "webUrl": "https://www.theguardian.com/lifeandstyle/shortcuts/2013/jan/30/mud-latest-culinary-sensation-tokyo", "apiUrl": "https://content.guardianapis.com/lifeandstyle/shortcuts/2013/jan/30/mud-latest-culinary-sensation-tokyo", "isHosted": false, "pillarId": "pillar/lifestyle", "pillarName": "Lifestyle"}, {"id": "business/2013/jan/30/horsemeat-scandal-tesco-drops-supplier", "type": "article", "sectionId": "business", "sectionName": "Business", "webPublicationDate": "2013-01-30T14:15:00Z", "webTitle": "Tesco drops Irish supplier over horsemeat scandal", "webUrl": "https://www.theguardian.com/business/2013/jan/30/horsemeat-scandal-tesco-drops-supplier", "apiUrl": "https://content.guardianapis.com/business/2013/jan/30/horsemeat-scandal-tesco-drops-supplier", "isHosted": false, "pillarId": "pillar/news", "pillarName": "News"}, {"id": "media/2013/jan/30/eric-cantona-kronenbourg-ad", "type": "article", "sectionId": "media", "sectionName": "Media", "webPublicationDate": "2013-01-30T12:19:37Z", "webTitle": "Eric Cantona tackles Kronenbourg ad", "webUrl": "https://www.theguardian.com/media/2013/jan/30/eric-cantona-kronenbourg-ad", "apiUrl": "https://content.guardianapis.com/media/2013/jan/30/eric-cantona-kronenbourg-ad", "isHosted": false, "pillarId": "pillar/news", "pillarName": "News"}, {"id": "lifeandstyle/wordofmouth/2013/jan/30/french-epiphany-king-sociable-cakes", "type": "article", "sectionId": "food", "sectionName": "Food", "webPublicationDate": "2013-01-30T11:30:00Z", "webTitle": "A French epiphany: the king of sociable cakes", "webUrl": "https://www.theguardian.com/lifeandstyle/wordofmouth/2013/jan/30/french-epiphany-king-sociable-cakes", "apiUrl": "https://content.guardianapis.com/lifeandstyle/wordofmouth/2013/jan/30/french-epiphany-king-sociable-cakes", "isHosted": false, "pillarId": "pillar/lifestyle", "pillarName": "Lifestyle"}, {"id": "lifeandstyle/2013/jan/29/frances-top-cheesemonger-english-accountant", "type": "article", "sectionId": "food", "sectionName": "Food", "webPublicationDate": "2013-01-29T16:52:00Z", "webTitle": "France's top cheesemonger: an English accountant", "webUrl": "https://www.theguardian.com/lifeandstyle/2013/jan/29/frances-top-cheesemonger-english-accountant", "apiUrl": "https://content.guardianapis.com/lifeandstyle/2013/jan/29/frances-top-cheesemonger-english-accountant", "isHosted": false, "pillarId": "pillar/lifestyle", "pillarName": "Lifestyle"}, {"id": "tv-and-radio/tvandradioblog/2013/jan/29/great-british-menu-comic-relief", "type": "article", "sectionId": "tv-and-radio", "sectionName": "Television & radio", "webPublicationDate": "2013-01-29T12:43:00Z", "webTitle": "Is Great British Menu the most self-important show ever?", "webUrl": "https://www.theguardian.com/tv-and-radio/tvandradioblog/2013/jan/29/great-british-menu-comic-relief", "apiUrl": "https://content.guardianapis.com/tv-and-radio/tvandradioblog/2013/jan/29/great-british-menu-comic-relief", "isHosted": false, "pillarId": "pillar/arts", "pillarName": "Arts"}, {"id": "commentisfree/2013/jan/29/mcdonalds-healthier-happier-meal-good-pr", "type": "article", "sectionId": "commentisfree", "sectionName": "Opinion", "webPublicationDate": "2013-01-29T12:38:16Z", "webTitle": "McDonald's: a healthier, happier meal \u2013 or just good PR? | Oliver Thring", "webUrl": "https://www.theguardian.com/commentisfree/2013/jan/29/mcdonalds-healthier-happier-meal-good-pr", "apiUrl": "https://content.guardianapis.com/commentisfree/2013/jan/29/mcdonalds-healthier-happier-meal-good-pr", "isHosted": false, "pillarId": "pillar/opinion", "pillarName": "Opinion"}, {"id": "lifeandstyle/2013/jan/29/cook-food-recipes", "type": "article", "sectionId": "food", "sectionName": "Food", "webPublicationDate": "2013-01-29T12:28:23Z", "webTitle": "Cook | the Guardian's new weekly food section", "webUrl": "https://www.theguardian.com/lifeandstyle/2013/jan/29/cook-food-recipes", "apiUrl": "https://content.guardianapis.com/lifeandstyle/2013/jan/29/cook-food-recipes", "isHosted": false, "pillarId": "pillar/lifestyle", "pillarName": "Lifestyle"}, {"id": "lifeandstyle/wordofmouth/2013/jan/29/changing-tastes-food-and-aging", "type": "article", "sectionId": "food", "sectionName": "Food", "webPublicationDate": "2013-01-29T10:10:00Z", "webTitle": "Changing tastes: food and ageing | Amy Fleming", "webUrl": "https://www.theguardian.com/lifeandstyle/wordofmouth/2013/jan/29/changing-tastes-food-and-aging", "apiUrl": "https://content.guardianapis.com/lifeandstyle/wordofmouth/2013/jan/29/changing-tastes-food-and-aging", "isHosted": false, "pillarId": "pillar/lifestyle", "pillarName": "Lifestyle"}, {"id": "lifeandstyle/shortcuts/2013/jan/28/fruitarian-diet-land-you-hospital", "type": "article", "sectionId": "lifeandstyle", "sectionName": "Life and style", "webPublicationDate": "2013-01-28T18:32:45Z", "webTitle": "Can a fruitarian diet land you in hospital?", "webUrl": "https://www.theguardian.com/lifeandstyle/shortcuts/2013/jan/28/fruitarian-diet-land-you-hospital", "apiUrl": "https://content.guardianapis.com/lifeandstyle/shortcuts/2013/jan/28/fruitarian-diet-land-you-hospital", "isHosted": false, "pillarId": "pillar/lifestyle", "pillarName": "Lifestyle"}, {"id": "books/2013/jan/28/katie-stewart", "type": "article", "sectionId": "books", "sectionName": "Books", "webPublicationDate": "2013-01-28T18:16:22Z", "webTitle": "Katie Stewart obituary", "webUrl": "https://www.theguardian.com/books/2013/jan/28/katie-stewart", "apiUrl": "https://content.guardianapis.com/books/2013/jan/28/katie-stewart", "isHosted": false, "pillarId": "pillar/arts", "pillarName": "Arts"}, {"id": "film/2013/jan/28/ashton-kutcher-hospital-steve-jobs-diet", "type": "article", "sectionId": "film", "sectionName": "Film", "webPublicationDate": "2013-01-28T13:35:00Z", "webTitle": "Ashton Kutcher landed in hospital after following Steve Jobs's fruitarian diet", "webUrl": "https://www.theguardian.com/film/2013/jan/28/ashton-kutcher-hospital-steve-jobs-diet", "apiUrl": "https://content.guardianapis.com/film/2013/jan/28/ashton-kutcher-hospital-steve-jobs-diet", "isHosted": false, "pillarId": "pillar/arts", "pillarName": "Arts"}, {"id": "lifeandstyle/2013/jan/28/anne-lo-obituary", "type": "article", "sectionId": "food", "sectionName": "Food", "webPublicationDate": "2013-01-28T12:53:53Z", "webTitle": "Anne Lo obituary", "webUrl": "https://www.theguardian.com/lifeandstyle/2013/jan/28/anne-lo-obituary", "apiUrl": "https://content.guardianapis.com/lifeandstyle/2013/jan/28/anne-lo-obituary", "isHosted": false, "pillarId": "pillar/lifestyle", "pillarName": "Lifestyle"}, {"id": "lifeandstyle/wordofmouth/2013/jan/28/english-lamb-too-good-abroad", "type": "article", "sectionId": "food", "sectionName": "Food", "webPublicationDate": "2013-01-28T12:00:00Z", "webTitle": "English lamb: too good to send abroad", "webUrl": "https://www.theguardian.com/lifeandstyle/wordofmouth/2013/jan/28/english-lamb-too-good-abroad", "apiUrl": "https://content.guardianapis.com/lifeandstyle/wordofmouth/2013/jan/28/english-lamb-too-good-abroad", "isHosted": false, "pillarId": "pillar/lifestyle", "pillarName": "Lifestyle"}, {"id": "lifeandstyle/2013/jan/28/pappardelle-slow-cooked-lamb-ragu-recipe", "type": "article", "sectionId": "food", "sectionName": "Food", "webPublicationDate": "2013-01-28T12:00:00Z", "webTitle": "Pappardelle with slow-cooked lamb ragu recipe", "webUrl": "https://www.theguardian.com/lifeandstyle/2013/jan/28/pappardelle-slow-cooked-lamb-ragu-recipe", "apiUrl": "https://content.guardianapis.com/lifeandstyle/2013/jan/28/pappardelle-slow-cooked-lamb-ragu-recipe", "isHosted": false, "pillarId": "pillar/lifestyle", "pillarName": "Lifestyle"}, {"id": "lifeandstyle/wordofmouth/2013/jan/28/what-kind-of-vegetarian-are-you", "type": "article", "sectionId": "lifeandstyle", "sectionName": "Life and style", "webPublicationDate": "2013-01-28T10:20:00Z", "webTitle": "What kind of vegetarian are you?", "webUrl": "https://www.theguardian.com/lifeandstyle/wordofmouth/2013/jan/28/what-kind-of-vegetarian-are-you", "apiUrl": "https://content.guardianapis.com/lifeandstyle/wordofmouth/2013/jan/28/what-kind-of-vegetarian-are-you", "isHosted": false, "pillarId": "pillar/lifestyle", "pillarName": "Lifestyle"}, {"id": "commentisfree/2013/jan/27/raclette", "type": "article", "sectionId": "commentisfree", "sectionName": "Opinion", "webPublicationDate": "2013-01-27T22:32:21Z", "webTitle": "In praise of \u2026 raclette | Editorial", "webUrl": "https://www.theguardian.com/commentisfree/2013/jan/27/raclette", "apiUrl": "https://content.guardianapis.com/commentisfree/2013/jan/27/raclette", "isHosted": false, "pillarId": "pillar/opinion", "pillarName": "Opinion"}, {"id": "uk/2013/jan/27/horsemeat-burgers-traced-polish-suppliers", "type": "article", "sectionId": "uk-news", "sectionName": "UK news", "webPublicationDate": "2013-01-27T19:55:50Z", "webTitle": "Horsemeat in burgers traced to Polish suppliers, say authorities", "webUrl": "https://www.theguardian.com/uk/2013/jan/27/horsemeat-burgers-traced-polish-suppliers", "apiUrl": "https://content.guardianapis.com/uk/2013/jan/27/horsemeat-burgers-traced-polish-suppliers", "isHosted": false, "pillarId": "pillar/news", "pillarName": "News"}, {"id": "world/2013/jan/27/horsemeat-burgers-traced-polish-suppliers", "type": "article", "sectionId": "world", "sectionName": "World news", "webPublicationDate": "2013-01-27T12:08:00Z", "webTitle": "Horsemeat in burgers traced to Polish suppliers", "webUrl": "https://www.theguardian.com/world/2013/jan/27/horsemeat-burgers-traced-polish-suppliers", "apiUrl": "https://content.guardianapis.com/world/2013/jan/27/horsemeat-burgers-traced-polish-suppliers", "isHosted": false, "pillarId": "pillar/news", "pillarName": "News"}, {"id": "lifeandstyle/2013/jan/27/outlaw-seafood-grill-restaurant-jay-rayner", "type": "article", "sectionId": "food", "sectionName": "Food", "webPublicationDate": "2013-01-27T07:01:00Z", "webTitle": "Outlaw's Seafood & Grill: restaurant review", "webUrl": "https://www.theguardian.com/lifeandstyle/2013/jan/27/outlaw-seafood-grill-restaurant-jay-rayner", "apiUrl": "https://content.guardianapis.com/lifeandstyle/2013/jan/27/outlaw-seafood-grill-restaurant-jay-rayner", "isHosted": false, "pillarId": "pillar/lifestyle", "pillarName": "Lifestyle"}, {"id": "commentisfree/2013/jan/27/anna-soubry-obesity-and-poverty", "type": "article", "sectionId": "commentisfree", "sectionName": "Opinion", "webPublicationDate": "2013-01-27T00:09:31Z", "webTitle": "Why bother with boring facts when prejudice is easier? | Catherine Bennett", "webUrl": "https://www.theguardian.com/commentisfree/2013/jan/27/anna-soubry-obesity-and-poverty", "apiUrl": "https://content.guardianapis.com/commentisfree/2013/jan/27/anna-soubry-obesity-and-poverty", "isHosted": false, "pillarId": "pillar/opinion", "pillarName": "Opinion"}, {"id": "commentisfree/2013/jan/27/climate-change-consumers-sustainable-fish", "type": "article", "sectionId": "commentisfree", "sectionName": "Opinion", "webPublicationDate": "2013-01-27T00:06:00Z", "webTitle": "Food shopping is full of ethical grey areas. Be careful what you buy \u2013 or fish will be a luxury", "webUrl": "https://www.theguardian.com/commentisfree/2013/jan/27/climate-change-consumers-sustainable-fish", "apiUrl": "https://content.guardianapis.com/commentisfree/2013/jan/27/climate-change-consumers-sustainable-fish", "isHosted": false, "pillarId": "pillar/opinion", "pillarName": "Opinion"}, {"id": "lifeandstyle/2013/jan/26/wines-week-three-variations-viognier", "type": "article", "sectionId": "food", "sectionName": "Food", "webPublicationDate": "2013-01-26T22:30:01Z", "webTitle": "Wines of the week: three variations on viognier", "webUrl": "https://www.theguardian.com/lifeandstyle/2013/jan/26/wines-week-three-variations-viognier", "apiUrl": "https://content.guardianapis.com/lifeandstyle/2013/jan/26/wines-week-three-variations-viognier", "isHosted": false, "pillarId": "pillar/lifestyle", "pillarName": "Lifestyle"}, {"id": "lifeandstyle/2013/jan/26/bo-london-w1-restaurant-review", "type": "article", "sectionId": "lifeandstyle", "sectionName": "Life and style", "webPublicationDate": "2013-01-26T09:00:13Z", "webTitle": "Restaurant: Bo London, London W1", "webUrl": "https://www.theguardian.com/lifeandstyle/2013/jan/26/bo-london-w1-restaurant-review", "apiUrl": "https://content.guardianapis.com/lifeandstyle/2013/jan/26/bo-london-w1-restaurant-review", "isHosted": false, "pillarId": "pillar/lifestyle", "pillarName": "Lifestyle"}, {"id": "lifeandstyle/2013/jan/26/wine-pricing-supermarkets-chains-promotions", "type": "article", "sectionId": "food", "sectionName": "Food", "webPublicationDate": "2013-01-26T09:00:03Z", "webTitle": "Wine: you pays your money, you takes your chances", "webUrl": "https://www.theguardian.com/lifeandstyle/2013/jan/26/wine-pricing-supermarkets-chains-promotions", "apiUrl": "https://content.guardianapis.com/lifeandstyle/2013/jan/26/wine-pricing-supermarkets-chains-promotions", "isHosted": false, "pillarId": "pillar/lifestyle", "pillarName": "Lifestyle"}, {"id": "lifeandstyle/2013/jan/26/sibling-solidarity-guides-marshmallow-day", "type": "article", "sectionId": "food", "sectionName": "Food", "webPublicationDate": "2013-01-26T07:14:00Z", "webTitle": "Sibling solidarity, Girl Guide memories and celebrating marshmallows", "webUrl": "https://www.theguardian.com/lifeandstyle/2013/jan/26/sibling-solidarity-guides-marshmallow-day", "apiUrl": "https://content.guardianapis.com/lifeandstyle/2013/jan/26/sibling-solidarity-guides-marshmallow-day", "isHosted": false, "pillarId": "pillar/lifestyle", "pillarName": "Lifestyle"}, {"id": "lifeandstyle/2013/jan/26/breast-hogget-pease-pudding-recipe", "type": "article", "sectionId": "lifeandstyle", "sectionName": "Life and style", "webPublicationDate": "2013-01-26T07:01:22Z", "webTitle": "Breast of hogget and pease pudding recipe | Rosie Sykes", "webUrl": "https://www.theguardian.com/lifeandstyle/2013/jan/26/breast-hogget-pease-pudding-recipe", "apiUrl": "https://content.guardianapis.com/lifeandstyle/2013/jan/26/breast-hogget-pease-pudding-recipe", "isHosted": false, "pillarId": "pillar/lifestyle", "pillarName": "Lifestyle"}, {"id": "lifeandstyle/2013/jan/26/hogget-mutton-good-for-you", "type": "article", "sectionId": "lifeandstyle", "sectionName": "Life and style", "webPublicationDate": "2013-01-26T07:01:16Z", "webTitle": "Why hogget and mutton are good for you", "webUrl": "https://www.theguardian.com/lifeandstyle/2013/jan/26/hogget-mutton-good-for-you", "apiUrl": "https://content.guardianapis.com/lifeandstyle/2013/jan/26/hogget-mutton-good-for-you", "isHosted": false, "pillarId": "pillar/lifestyle", "pillarName": "Lifestyle"}, {"id": "lifeandstyle/2013/jan/26/watercress-meet-the-producer", "type": "article", "sectionId": "lifeandstyle", "sectionName": "Life and style", "webPublicationDate": "2013-01-26T07:01:14Z", "webTitle": "What does a watercress grower eat for lunch? | Meet the producer", "webUrl": "https://www.theguardian.com/lifeandstyle/2013/jan/26/watercress-meet-the-producer", "apiUrl": "https://content.guardianapis.com/lifeandstyle/2013/jan/26/watercress-meet-the-producer", "isHosted": false, "pillarId": "pillar/lifestyle", "pillarName": "Lifestyle"}, {"id": "lifeandstyle/2013/jan/26/readers-recipe-swap-crumbles", "type": "article", "sectionId": "lifeandstyle", "sectionName": "Life and style", "webPublicationDate": "2013-01-26T07:01:14Z", "webTitle": "Readers' recipe swap: Crumbles | Felicity Cloake", "webUrl": "https://www.theguardian.com/lifeandstyle/2013/jan/26/readers-recipe-swap-crumbles", "apiUrl": "https://content.guardianapis.com/lifeandstyle/2013/jan/26/readers-recipe-swap-crumbles", "isHosted": false, "pillarId": "pillar/lifestyle", "pillarName": "Lifestyle"}, {"id": "lifeandstyle/2013/jan/26/mexican-farewell-fiesta-get-togethers", "type": "article", "sectionId": "lifeandstyle", "sectionName": "Life and style", "webPublicationDate": "2013-01-26T07:01:09Z", "webTitle": "A Mexican farewell fiesta | Get-togethers", "webUrl": "https://www.theguardian.com/lifeandstyle/2013/jan/26/mexican-farewell-fiesta-get-togethers", "apiUrl": "https://content.guardianapis.com/lifeandstyle/2013/jan/26/mexican-farewell-fiesta-get-togethers", "isHosted": false, "pillarId": "pillar/lifestyle", "pillarName": "Lifestyle"}, {"id": "lifeandstyle/2013/jan/26/bullshot-cocktail-drink-recipe", "type": "article", "sectionId": "lifeandstyle", "sectionName": "Life and style", "webPublicationDate": "2013-01-26T07:01:00Z", "webTitle": "Beef consomme and vodka recipe | Drinks: Make your own", "webUrl": "https://www.theguardian.com/lifeandstyle/2013/jan/26/bullshot-cocktail-drink-recipe", "apiUrl": "https://content.guardianapis.com/lifeandstyle/2013/jan/26/bullshot-cocktail-drink-recipe", "isHosted": false, "pillarId": "pillar/lifestyle", "pillarName": "Lifestyle"}, {"id": "lifeandstyle/2013/jan/26/10-best-ginger-recipes", "type": "article", "sectionId": "global", "sectionName": "Global", "webPublicationDate": "2013-01-26T07:00:00Z", "webTitle": "The 10 best ginger recipes", "webUrl": "https://www.theguardian.com/lifeandstyle/2013/jan/26/10-best-ginger-recipes", "apiUrl": "https://content.guardianapis.com/lifeandstyle/2013/jan/26/10-best-ginger-recipes", "isHosted": false}, {"id": "lifeandstyle/2013/jan/26/make-fruit-more-exciting", "type": "article", "sectionId": "lifeandstyle", "sectionName": "Life and style", "webPublicationDate": "2013-01-26T06:59:03Z", "webTitle": "How can I make fruit more exciting? | Ask Sonya", "webUrl": "https://www.theguardian.com/lifeandstyle/2013/jan/26/make-fruit-more-exciting", "apiUrl": "https://content.guardianapis.com/lifeandstyle/2013/jan/26/make-fruit-more-exciting", "isHosted": false, "pillarId": "pillar/lifestyle", "pillarName": "Lifestyle"}, {"id": "travel/2013/jan/26/kro-inns-denmark-hotels-restaurants", "type": "article", "sectionId": "travel", "sectionName": "Travel", "webPublicationDate": "2013-01-26T06:59:00Z", "webTitle": "The kro road: Denmark's historic inns", "webUrl": "https://www.theguardian.com/travel/2013/jan/26/kro-inns-denmark-hotels-restaurants", "apiUrl": "https://content.guardianapis.com/travel/2013/jan/26/kro-inns-denmark-hotels-restaurants", "isHosted": false, "pillarId": "pillar/lifestyle", "pillarName": "Lifestyle"}, {"id": "business/2013/jan/25/tesco-horsemeat-inquiry-burgers-sale", "type": "article", "sectionId": "business", "sectionName": "Business", "webPublicationDate": "2013-01-25T18:56:00Z", "webTitle": "Tesco launches horsemeat inquiry after withdrawn burgers found on sale", "webUrl": "https://www.theguardian.com/business/2013/jan/25/tesco-horsemeat-inquiry-burgers-sale", "apiUrl": "https://content.guardianapis.com/business/2013/jan/25/tesco-horsemeat-inquiry-burgers-sale", "isHosted": false, "pillarId": "pillar/news", "pillarName": "News"}, {"id": "lifeandstyle/2013/jan/25/lamington-cake-recipe-dan-lepard", "type": "article", "sectionId": "lifeandstyle", "sectionName": "Life and style", "webPublicationDate": "2013-01-25T16:12:00Z", "webTitle": "Lamington recipe | Dan Lepard", "webUrl": "https://www.theguardian.com/lifeandstyle/2013/jan/25/lamington-cake-recipe-dan-lepard", "apiUrl": "https://content.guardianapis.com/lifeandstyle/2013/jan/25/lamington-cake-recipe-dan-lepard", "isHosted": false, "pillarId": "pillar/lifestyle", "pillarName": "Lifestyle"}, {"id": "artanddesign/architecture-design-blog/2013/jan/25/3d-print-chocolate-face-valentines-day", "type": "article", "sectionId": "artanddesign", "sectionName": "Art and design", "webPublicationDate": "2013-01-25T15:06:00Z", "webTitle": "3D-print your face in chocolate for that special Valentine's Day gift", "webUrl": "https://www.theguardian.com/artanddesign/architecture-design-blog/2013/jan/25/3d-print-chocolate-face-valentines-day", "apiUrl": "https://content.guardianapis.com/artanddesign/architecture-design-blog/2013/jan/25/3d-print-chocolate-face-valentines-day", "isHosted": false, "pillarId": "pillar/arts", "pillarName": "Arts"}, {"id": "lifeandstyle/2013/jan/25/guardian-cook-food-recipes", "type": "article", "sectionId": "food", "sectionName": "Food", "webPublicationDate": "2013-01-25T14:11:00Z", "webTitle": "Cook - the Guardian's new weekly food section", "webUrl": "https://www.theguardian.com/lifeandstyle/2013/jan/25/guardian-cook-food-recipes", "apiUrl": "https://content.guardianapis.com/lifeandstyle/2013/jan/25/guardian-cook-food-recipes", "isHosted": false, "pillarId": "pillar/lifestyle", "pillarName": "Lifestyle"}, {"id": "lifeandstyle/wordofmouth/2013/jan/25/burns-night-food-star-gazing-scotland", "type": "article", "sectionId": "food", "sectionName": "Food", "webPublicationDate": "2013-01-25T12:15:00Z", "webTitle": "Burns night food: star-gazing in Scotland", "webUrl": "https://www.theguardian.com/lifeandstyle/wordofmouth/2013/jan/25/burns-night-food-star-gazing-scotland", "apiUrl": "https://content.guardianapis.com/lifeandstyle/wordofmouth/2013/jan/25/burns-night-food-star-gazing-scotland", "isHosted": false, "pillarId": "pillar/lifestyle", "pillarName": "Lifestyle"}, {"id": "commentisfree/2013/jan/25/good-meat-ken-morrison-horseburger", "type": "article", "sectionId": "commentisfree", "sectionName": "Opinion", "webPublicationDate": "2013-01-25T11:30:00Z", "webTitle": "Good meat need not mean expensive meat: Ken Morrison showed how | Karel Williams", "webUrl": "https://www.theguardian.com/commentisfree/2013/jan/25/good-meat-ken-morrison-horseburger", "apiUrl": "https://content.guardianapis.com/commentisfree/2013/jan/25/good-meat-ken-morrison-horseburger", "isHosted": false, "pillarId": "pillar/opinion", "pillarName": "Opinion"}, {"id": "business/2013/jan/25/waitrose-dalepak-beefburgers-horse", "type": "article", "sectionId": "business", "sectionName": "Business", "webPublicationDate": "2013-01-25T10:47:42Z", "webTitle": "Waitrose pulls beefburgers 'as a precaution' amid horsemeat scare", "webUrl": "https://www.theguardian.com/business/2013/jan/25/waitrose-dalepak-beefburgers-horse", "apiUrl": "https://content.guardianapis.com/business/2013/jan/25/waitrose-dalepak-beefburgers-horse", "isHosted": false, "pillarId": "pillar/news", "pillarName": "News"}, {"id": "lifeandstyle/2013/jan/25/spinach-stew-guinea-recipe", "type": "article", "sectionId": "food", "sectionName": "Food", "webPublicationDate": "2013-01-25T10:04:00Z", "webTitle": "Sauce Feuille recipe from Guinea", "webUrl": "https://www.theguardian.com/lifeandstyle/2013/jan/25/spinach-stew-guinea-recipe", "apiUrl": "https://content.guardianapis.com/lifeandstyle/2013/jan/25/spinach-stew-guinea-recipe", "isHosted": false, "pillarId": "pillar/lifestyle", "pillarName": "Lifestyle"}, {"id": "commentisfree/2013/jan/24/cost-cheap-burger-higher-12p", "type": "article", "sectionId": "commentisfree", "sectionName": "Opinion", "webPublicationDate": "2013-01-24T20:00:00Z", "webTitle": "The secret of the 'special offer' economy burger | Felicity Lawrence", "webUrl": "https://www.theguardian.com/commentisfree/2013/jan/24/cost-cheap-burger-higher-12p", "apiUrl": "https://content.guardianapis.com/commentisfree/2013/jan/24/cost-cheap-burger-higher-12p", "isHosted": false, "pillarId": "pillar/opinion", "pillarName": "Opinion"}, {"id": "commentisfree/2013/jan/24/defence-of-sugar-confection-scientists", "type": "article", "sectionId": "commentisfree", "sectionName": "Opinion", "webPublicationDate": "2013-01-24T17:10:48Z", "webTitle": "Any defence of sugar is pure confection | Aseem Malhotra", "webUrl": "https://www.theguardian.com/commentisfree/2013/jan/24/defence-of-sugar-confection-scientists", "apiUrl": "https://content.guardianapis.com/commentisfree/2013/jan/24/defence-of-sugar-confection-scientists", "isHosted": false, "pillarId": "pillar/opinion", "pillarName": "Opinion"}, {"id": "environment/2013/jan/24/horse-meat-carcinogenic-drug-food-bute", "type": "article", "sectionId": "environment", "sectionName": "Environment", "webPublicationDate": "2013-01-24T12:35:34Z", "webTitle": "Carcinogen may have entered human food chain in horsemeat, claims Labour", "webUrl": "https://www.theguardian.com/environment/2013/jan/24/horse-meat-carcinogenic-drug-food-bute", "apiUrl": "https://content.guardianapis.com/environment/2013/jan/24/horse-meat-carcinogenic-drug-food-bute", "isHosted": false, "pillarId": "pillar/news", "pillarName": "News"}]}}