{"response": {"status": "ok", "userTier": "developer", "total": 28155, "startIndex": 1, "pageSize": 50, "currentPage": 1, "pages": 564, "orderBy": "newest", "results": [{"id": "environment/2011/jan/30/mps-lake-district-forest-protest", "type": "article", "sectionId": "environment", "sectionName": "Environment", "webPublicationDate": "2011-01-30T21:52:27Z", "webTitle": "MPs on all sides back Lake District forest protest", "webUrl": "https://www.theguardian.com/environment/2011/jan/30/mps-lake-district-forest-protest", "apiUrl": "https://content.guardianapis.com/environment/2011/jan/30/mps-lake-district-forest-protest", "isHosted": false, "pillarId": "pillar/news", "pillarName": "News"}, {"id": "business/2011/jan/30/bp-dividend-oil-exploration-arctic-iraq", "type": "article", "sectionId": "business", "sectionName": "Business", "webPublicationDate": "2011-01-30T17:18:45Z", "webTitle": "BP's dividend optimism faces $900m Russian setback", "webUrl": "https://www.theguardian.com/business/2011/jan/30/bp-dividend-oil-exploration-arctic-iraq", "apiUrl": "https://content.guardianapis.com/business/2011/jan/30/bp-dividend-oil-exploration-arctic-iraq", "isHosted": false, "pillarId": "pillar/news", "pillarName": "News"}, {"id": "world/2011/jan/30/greenpeace-protests-koch-brothers-rally", "type": "article", "sectionId": "us-news", "sectionName": "US news", "webPublicationDate": "2011-01-30T17:06:31Z", "webTitle": "Greenpeace protests at Koch brothers' rally", "webUrl": "https://www.theguardian.com/world/2011/jan/30/greenpeace-protests-koch-brothers-rally", "apiUrl": "https://content.guardianapis.com/world/2011/jan/30/greenpeace-protests-koch-brothers-rally", "isHosted": false, "pillarId": "pillar/news", "pillarName": "News"}, {"id": "commentisfree/cifamerica/2011/jan/30/climate-change-climate-change-scepticism", "type": "article", "sectionId": "commentisfree", "sectionName": "Opinion", "webPublicationDate": "2011-01-30T16:08:04Z", "webTitle": "Reheating the climate change story | Jules Boykoff", "webUrl": "https://www.theguardian.com/commentisfree/cifamerica/2011/jan/30/climate-change-climate-change-scepticism", "apiUrl": "https://content.guardianapis.com/commentisfree/cifamerica/2011/jan/30/climate-change-climate-change-scepticism", "isHosted": false, "pillarId": "pillar/opinion", "pillarName": "Opinion"}, {"id": "environment/2011/jan/30/tiger-hip-replacement-operation", "type": "article", "sectionId": "environment", "sectionName": "Environment", "webPublicationDate": "2011-01-30T14:15:08Z", "webTitle": "Tiger, tiger, moving right: Pioneering hip operation gives Girl a new start", "webUrl": "https://www.theguardian.com/environment/2011/jan/30/tiger-hip-replacement-operation", "apiUrl": "https://content.guardianapis.com/environment/2011/jan/30/tiger-hip-replacement-operation", "isHosted": false, "pillarId": "pillar/news", "pillarName": "News"}, {"id": "environment/2011/jan/30/livewell-plate-diet-nutrition", "type": "article", "sectionId": "environment", "sectionName": "Environment", "webPublicationDate": "2011-01-30T00:07:49Z", "webTitle": "The Livewell diet: it's cheap, it's nutritious and it could help save the planet", "webUrl": "https://www.theguardian.com/environment/2011/jan/30/livewell-plate-diet-nutrition", "apiUrl": "https://content.guardianapis.com/environment/2011/jan/30/livewell-plate-diet-nutrition", "isHosted": false, "pillarId": "pillar/news", "pillarName": "News"}, {"id": "business/2011/jan/30/bp-production-targets-deepwater-horizon-spill", "type": "article", "sectionId": "business", "sectionName": "Business", "webPublicationDate": "2011-01-30T00:07:11Z", "webTitle": "BP to cut production amid impact of Deepwater Horizon spill", "webUrl": "https://www.theguardian.com/business/2011/jan/30/bp-production-targets-deepwater-horizon-spill", "apiUrl": "https://content.guardianapis.com/business/2011/jan/30/bp-production-targets-deepwater-horizon-spill", "isHosted": false, "pillarId": "pillar/news", "pillarName": "News"}, {"id": "society/2011/jan/30/eric-pickles-council-rubbish-collection", "type": "article", "sectionId": "society", "sectionName": "Society", "webPublicationDate": "2011-01-30T00:07:00Z", "webTitle": "The Eric Pickles dilemma: clean streets or angry voters", "webUrl": "https://www.theguardian.com/society/2011/jan/30/eric-pickles-council-rubbish-collection", "apiUrl": "https://content.guardianapis.com/society/2011/jan/30/eric-pickles-council-rubbish-collection", "isHosted": false, "pillarId": "pillar/news", "pillarName": "News"}, {"id": "environment/2011/jan/30/melvyn-bragg-lake-district-protests", "type": "article", "sectionId": "environment", "sectionName": "Environment", "webPublicationDate": "2011-01-30T00:07:00Z", "webTitle": "Melvyn Bragg: sale of Lake District forests is 'vandalism'", "webUrl": "https://www.theguardian.com/environment/2011/jan/30/melvyn-bragg-lake-district-protests", "apiUrl": "https://content.guardianapis.com/environment/2011/jan/30/melvyn-bragg-lake-district-protests", "isHosted": false, "pillarId": "pillar/news", "pillarName": "News"}, {"id": "environment/2011/jan/30/monty-don-woodland-coppice-sustainable", "type": "article", "sectionId": "environment", "sectionName": "Environment", "webPublicationDate": "2011-01-30T00:06:00Z", "webTitle": "Monty Don: 'Why we must save our woodlands'", "webUrl": "https://www.theguardian.com/environment/2011/jan/30/monty-don-woodland-coppice-sustainable", "apiUrl": "https://content.guardianapis.com/environment/2011/jan/30/monty-don-woodland-coppice-sustainable", "isHosted": false, "pillarId": "pillar/news", "pillarName": "News"}, {"id": "environment/2011/jan/30/waste-computing", "type": "article", "sectionId": "environment", "sectionName": "Environment", "webPublicationDate": "2011-01-30T00:05:27Z", "webTitle": "Can I ditch my computer and be green?", "webUrl": "https://www.theguardian.com/environment/2011/jan/30/waste-computing", "apiUrl": "https://content.guardianapis.com/environment/2011/jan/30/waste-computing", "isHosted": false, "pillarId": "pillar/news", "pillarName": "News"}, {"id": "environment/2011/jan/30/innovator-abigail-forsyth-keepcup-reusable", "type": "article", "sectionId": "environment", "sectionName": "Environment", "webPublicationDate": "2011-01-30T00:05:24Z", "webTitle": "Abigail Forsyth's innovation: KeepCup", "webUrl": "https://www.theguardian.com/environment/2011/jan/30/innovator-abigail-forsyth-keepcup-reusable", "apiUrl": "https://content.guardianapis.com/environment/2011/jan/30/innovator-abigail-forsyth-keepcup-reusable", "isHosted": false, "pillarId": "pillar/news", "pillarName": "News"}, {"id": "environment/2011/jan/30/rspb-big-garden-birdwatch", "type": "article", "sectionId": "environment", "sectionName": "Environment", "webPublicationDate": "2011-01-30T00:04:20Z", "webTitle": "RSPB Birdwatch: Europe's big freeze brings flocks of rare birds to Britain", "webUrl": "https://www.theguardian.com/environment/2011/jan/30/rspb-big-garden-birdwatch", "apiUrl": "https://content.guardianapis.com/environment/2011/jan/30/rspb-big-garden-birdwatch", "isHosted": false, "pillarId": "pillar/news", "pillarName": "News"}, {"id": "environment/2011/jan/30/green-milk-bottle-launched-at-asda", "type": "article", "sectionId": "environment", "sectionName": "Environment", "webPublicationDate": "2011-01-30T00:04:00Z", "webTitle": "Green milk bottle arrives in UK supermarkets", "webUrl": "https://www.theguardian.com/environment/2011/jan/30/green-milk-bottle-launched-at-asda", "apiUrl": "https://content.guardianapis.com/environment/2011/jan/30/green-milk-bottle-launched-at-asda", "isHosted": false, "pillarId": "pillar/news", "pillarName": "News"}, {"id": "science/2011/jan/30/new-to-nature-pycnonotus-hualon", "type": "article", "sectionId": "science", "sectionName": "Science", "webPublicationDate": "2011-01-30T00:03:00Z", "webTitle": "New to Nature No 30: Pycnonotus hualon", "webUrl": "https://www.theguardian.com/science/2011/jan/30/new-to-nature-pycnonotus-hualon", "apiUrl": "https://content.guardianapis.com/science/2011/jan/30/new-to-nature-pycnonotus-hualon", "isHosted": false, "pillarId": "pillar/news", "pillarName": "News"}, {"id": "environment/2011/jan/30/forest-sell-off-woodland-conservation", "type": "article", "sectionId": "environment", "sectionName": "Environment", "webPublicationDate": "2011-01-30T00:01:05Z", "webTitle": "Don't let them plunder our forests", "webUrl": "https://www.theguardian.com/environment/2011/jan/30/forest-sell-off-woodland-conservation", "apiUrl": "https://content.guardianapis.com/environment/2011/jan/30/forest-sell-off-woodland-conservation", "isHosted": false, "pillarId": "pillar/news", "pillarName": "News"}, {"id": "global/2011/jan/29/country-diary-bedfordshire", "type": "article", "sectionId": "environment", "sectionName": "Environment", "webPublicationDate": "2011-01-29T00:06:00Z", "webTitle": "Country diary: Sandy, Bedfordshire", "webUrl": "https://www.theguardian.com/global/2011/jan/29/country-diary-bedfordshire", "apiUrl": "https://content.guardianapis.com/global/2011/jan/29/country-diary-bedfordshire", "isHosted": false, "pillarId": "pillar/news", "pillarName": "News"}, {"id": "lifeandstyle/2011/jan/29/woodland-forest-of-dean", "type": "article", "sectionId": "lifeandstyle", "sectionName": "Life and style", "webPublicationDate": "2011-01-29T00:05:44Z", "webTitle": "'Don't fence off my memories'", "webUrl": "https://www.theguardian.com/lifeandstyle/2011/jan/29/woodland-forest-of-dean", "apiUrl": "https://content.guardianapis.com/lifeandstyle/2011/jan/29/woodland-forest-of-dean", "isHosted": false, "pillarId": "pillar/lifestyle", "pillarName": "Lifestyle"}, {"id": "environment/2011/jan/28/national-trust-save-english-woodlands", "type": "article", "sectionId": "environment", "sectionName": "Environment", "webPublicationDate": "2011-01-28T19:58:59Z", "webTitle": "National Trust ready to 'step in' and save English woodlands", "webUrl": "https://www.theguardian.com/environment/2011/jan/28/national-trust-save-english-woodlands", "apiUrl": "https://content.guardianapis.com/environment/2011/jan/28/national-trust-save-english-woodlands", "isHosted": false, "pillarId": "pillar/news", "pillarName": "News"}, {"id": "environment/2011/jan/28/cameron-forests-protests-grizedale", "type": "article", "sectionId": "environment", "sectionName": "Environment", "webPublicationDate": "2011-01-28T19:05:47Z", "webTitle": "Cameron faces the other countryside alliance in Grizedale forest", "webUrl": "https://www.theguardian.com/environment/2011/jan/28/cameron-forests-protests-grizedale", "apiUrl": "https://content.guardianapis.com/environment/2011/jan/28/cameron-forests-protests-grizedale", "isHosted": false, "pillarId": "pillar/news", "pillarName": "News"}, {"id": "environment/2011/jan/28/england-forest-sell-off-q-and-a", "type": "article", "sectionId": "environment", "sectionName": "Environment", "webPublicationDate": "2011-01-28T16:18:17Z", "webTitle": "Q&A: England forests sell-off", "webUrl": "https://www.theguardian.com/environment/2011/jan/28/england-forest-sell-off-q-and-a", "apiUrl": "https://content.guardianapis.com/environment/2011/jan/28/england-forest-sell-off-q-and-a", "isHosted": false, "pillarId": "pillar/news", "pillarName": "News"}, {"id": "environment/gallery/2011/jan/28/week-in-wildlife", "type": "gallery", "sectionId": "environment", "sectionName": "Environment", "webPublicationDate": "2011-01-28T14:52:00Z", "webTitle": "Week in wildlife - in pictures", "webUrl": "https://www.theguardian.com/environment/gallery/2011/jan/28/week-in-wildlife", "apiUrl": "https://content.guardianapis.com/environment/gallery/2011/jan/28/week-in-wildlife", "isHosted": false, "pillarId": "pillar/news", "pillarName": "News"}, {"id": "travel/2011/jan/28/national-trust-walks-popularity-surge", "type": "article", "sectionId": "travel", "sectionName": "Travel", "webPublicationDate": "2011-01-28T13:57:13Z", "webTitle": "National Trust walks surge in popularity", "webUrl": "https://www.theguardian.com/travel/2011/jan/28/national-trust-walks-popularity-surge", "apiUrl": "https://content.guardianapis.com/travel/2011/jan/28/national-trust-walks-popularity-surge", "isHosted": false, "pillarId": "pillar/lifestyle", "pillarName": "Lifestyle"}, {"id": "environment/2011/jan/28/europe-air-quality-pollution", "type": "article", "sectionId": "environment", "sectionName": "Environment", "webPublicationDate": "2011-01-28T13:39:08Z", "webTitle": "EU considers raising air quality standards", "webUrl": "https://www.theguardian.com/environment/2011/jan/28/europe-air-quality-pollution", "apiUrl": "https://content.guardianapis.com/environment/2011/jan/28/europe-air-quality-pollution", "isHosted": false, "pillarId": "pillar/news", "pillarName": "News"}, {"id": "global-development/poverty-matters/2011/jan/28/africa-land-grabs-food-security", "type": "article", "sectionId": "global-development", "sectionName": "Global development", "webPublicationDate": "2011-01-28T12:45:58Z", "webTitle": "How land grabs in Africa could herald a new dystopian age of hunger| Madeleine Bunting", "webUrl": "https://www.theguardian.com/global-development/poverty-matters/2011/jan/28/africa-land-grabs-food-security", "apiUrl": "https://content.guardianapis.com/global-development/poverty-matters/2011/jan/28/africa-land-grabs-food-security", "isHosted": false, "pillarId": "pillar/news", "pillarName": "News"}, {"id": "environment/2011/jan/28/sustainable-fish", "type": "article", "sectionId": "environment", "sectionName": "Environment", "webPublicationDate": "2011-01-28T12:10:29Z", "webTitle": "We need to eat less fish \u2013 not more sustainable fish | Aniol Esteban", "webUrl": "https://www.theguardian.com/environment/2011/jan/28/sustainable-fish", "apiUrl": "https://content.guardianapis.com/environment/2011/jan/28/sustainable-fish", "isHosted": false, "pillarId": "pillar/news", "pillarName": "News"}, {"id": "environment/2011/jan/28/cps-reviews-environmental-activists-convictions", "type": "article", "sectionId": "uk-news", "sectionName": "UK news", "webPublicationDate": "2011-01-28T12:10:00Z", "webTitle": "CPS reviews environmental activists' convictions", "webUrl": "https://www.theguardian.com/environment/2011/jan/28/cps-reviews-environmental-activists-convictions", "apiUrl": "https://content.guardianapis.com/environment/2011/jan/28/cps-reviews-environmental-activists-convictions", "isHosted": false, "pillarId": "pillar/news", "pillarName": "News"}, {"id": "environment/damian-carrington-blog/2011/jan/28/climate-change-food-bubble", "type": "article", "sectionId": "environment", "sectionName": "Environment", "webPublicationDate": "2011-01-28T09:54:15Z", "webTitle": "Will climate change burst the global 'food bubble'? | Damian Carrington", "webUrl": "https://www.theguardian.com/environment/damian-carrington-blog/2011/jan/28/climate-change-food-bubble", "apiUrl": "https://content.guardianapis.com/environment/damian-carrington-blog/2011/jan/28/climate-change-food-bubble", "isHosted": false, "pillarId": "pillar/news", "pillarName": "News"}, {"id": "commentisfree/2011/jan/28/forestry-commission-conservation-national-asset", "type": "article", "sectionId": "commentisfree", "sectionName": "Opinion", "webPublicationDate": "2011-01-28T07:59:00Z", "webTitle": "Response: We will all be the losers if our state-owned forests are sold off", "webUrl": "https://www.theguardian.com/commentisfree/2011/jan/28/forestry-commission-conservation-national-asset", "apiUrl": "https://content.guardianapis.com/commentisfree/2011/jan/28/forestry-commission-conservation-national-asset", "isHosted": false, "pillarId": "pillar/opinion", "pillarName": "Opinion"}, {"id": "environment/2011/jan/28/water-vapour-greenhouse-gas", "type": "article", "sectionId": "environment", "sectionName": "Environment", "webPublicationDate": "2011-01-28T07:00:00Z", "webTitle": "If water vapour is the key greenhouse gas, why are man-made emissions important?", "webUrl": "https://www.theguardian.com/environment/2011/jan/28/water-vapour-greenhouse-gas", "apiUrl": "https://content.guardianapis.com/environment/2011/jan/28/water-vapour-greenhouse-gas", "isHosted": false, "pillarId": "pillar/news", "pillarName": "News"}, {"id": "environment/2011/jan/28/climate-change-uk-rail-tourism", "type": "article", "sectionId": "environment", "sectionName": "Environment", "webPublicationDate": "2011-01-28T07:00:00Z", "webTitle": "Climate change could spark UK rail revival and tourism boom, research finds", "webUrl": "https://www.theguardian.com/environment/2011/jan/28/climate-change-uk-rail-tourism", "apiUrl": "https://content.guardianapis.com/environment/2011/jan/28/climate-change-uk-rail-tourism", "isHosted": false, "pillarId": "pillar/news", "pillarName": "News"}, {"id": "commentisfree/2011/jan/28/forestry-commission-editorial", "type": "article", "sectionId": "commentisfree", "sectionName": "Opinion", "webPublicationDate": "2011-01-28T00:05:06Z", "webTitle": "Forestry Commission: Facing the chop | Editorial", "webUrl": "https://www.theguardian.com/commentisfree/2011/jan/28/forestry-commission-editorial", "apiUrl": "https://content.guardianapis.com/commentisfree/2011/jan/28/forestry-commission-editorial", "isHosted": false, "pillarId": "pillar/opinion", "pillarName": "Opinion"}, {"id": "tv-and-radio/2011/jan/27/tv-review-human-planet", "type": "article", "sectionId": "tv-and-radio", "sectionName": "Television & radio", "webPublicationDate": "2011-01-27T23:05:00Z", "webTitle": "TV review: Human Planet", "webUrl": "https://www.theguardian.com/tv-and-radio/2011/jan/27/tv-review-human-planet", "apiUrl": "https://content.guardianapis.com/tv-and-radio/2011/jan/27/tv-review-human-planet", "isHosted": false, "pillarId": "pillar/arts", "pillarName": "Arts"}, {"id": "environment/2011/jan/27/european-commission-carbon-market", "type": "article", "sectionId": "environment", "sectionName": "Environment", "webPublicationDate": "2011-01-27T17:21:16Z", "webTitle": "European commission extends carbon market freeze indefinitely", "webUrl": "https://www.theguardian.com/environment/2011/jan/27/european-commission-carbon-market", "apiUrl": "https://content.guardianapis.com/environment/2011/jan/27/european-commission-carbon-market", "isHosted": false, "pillarId": "pillar/news", "pillarName": "News"}, {"id": "environment/2011/jan/27/england-forest-sell-off-activism", "type": "article", "sectionId": "environment", "sectionName": "Environment", "webPublicationDate": "2011-01-27T16:52:44Z", "webTitle": "Forest sell-off plans met with huge opposition", "webUrl": "https://www.theguardian.com/environment/2011/jan/27/england-forest-sell-off-activism", "apiUrl": "https://content.guardianapis.com/environment/2011/jan/27/england-forest-sell-off-activism", "isHosted": false, "pillarId": "pillar/news", "pillarName": "News"}, {"id": "edinburgh/2011/jan/27/edinburgh-climate-camp-pope-visit-police-cost", "type": "article", "sectionId": "edinburgh", "sectionName": "Edinburgh", "webPublicationDate": "2011-01-27T16:04:00Z", "webTitle": "Edinburgh Climate Camp protest costs police \u00a3650,000", "webUrl": "https://www.theguardian.com/edinburgh/2011/jan/27/edinburgh-climate-camp-pope-visit-police-cost", "apiUrl": "https://content.guardianapis.com/edinburgh/2011/jan/27/edinburgh-climate-camp-pope-visit-police-cost", "isHosted": false, "pillarId": "pillar/news", "pillarName": "News"}, {"id": "environment/cif-green/2011/jan/27/green-growth-ban-ki-moon", "type": "article", "sectionId": "environment", "sectionName": "Environment", "webPublicationDate": "2011-01-27T16:03:18Z", "webTitle": "Ban Ki-moon's green growth agenda can bring climate to the heart of the UN | Yvo de Boer", "webUrl": "https://www.theguardian.com/environment/cif-green/2011/jan/27/green-growth-ban-ki-moon", "apiUrl": "https://content.guardianapis.com/environment/cif-green/2011/jan/27/green-growth-ban-ki-moon", "isHosted": false, "pillarId": "pillar/news", "pillarName": "News"}, {"id": "environment/2011/jan/27/ban-ki-moon-un-climate-change-talks", "type": "article", "sectionId": "environment", "sectionName": "Environment", "webPublicationDate": "2011-01-27T15:17:17Z", "webTitle": "Ban Ki-moon ends hands-on involvement in climate change talks", "webUrl": "https://www.theguardian.com/environment/2011/jan/27/ban-ki-moon-un-climate-change-talks", "apiUrl": "https://content.guardianapis.com/environment/2011/jan/27/ban-ki-moon-un-climate-change-talks", "isHosted": false, "pillarId": "pillar/news", "pillarName": "News"}, {"id": "commentisfree/cifamerica/2011/jan/27/brazil-farming", "type": "article", "sectionId": "commentisfree", "sectionName": "Opinion", "webPublicationDate": "2011-01-27T15:00:00Z", "webTitle": "Why land reform makes sense for Dilma Rousseff | Benjamin Dangl", "webUrl": "https://www.theguardian.com/commentisfree/cifamerica/2011/jan/27/brazil-farming", "apiUrl": "https://content.guardianapis.com/commentisfree/cifamerica/2011/jan/27/brazil-farming", "isHosted": false, "pillarId": "pillar/opinion", "pillarName": "Opinion"}, {"id": "global-development/video/2011/jan/27/pakistan-floods-six-months-on-video", "type": "video", "sectionId": "global-development", "sectionName": "Global development", "webPublicationDate": "2011-01-27T14:46:00Z", "webTitle": "Floods in Pakistan: six months on - video", "webUrl": "https://www.theguardian.com/global-development/video/2011/jan/27/pakistan-floods-six-months-on-video", "apiUrl": "https://content.guardianapis.com/global-development/video/2011/jan/27/pakistan-floods-six-months-on-video", "isHosted": false, "pillarId": "pillar/news", "pillarName": "News"}, {"id": "environment/cif-green/2011/jan/27/england-forest-sell-off-forests", "type": "article", "sectionId": "environment", "sectionName": "Environment", "webPublicationDate": "2011-01-27T13:03:07Z", "webTitle": "England's forests: the time to act is now | David Clark", "webUrl": "https://www.theguardian.com/environment/cif-green/2011/jan/27/england-forest-sell-off-forests", "apiUrl": "https://content.guardianapis.com/environment/cif-green/2011/jan/27/england-forest-sell-off-forests", "isHosted": false, "pillarId": "pillar/news", "pillarName": "News"}, {"id": "environment/2011/jan/27/government-england-forest-sell-off", "type": "article", "sectionId": "environment", "sectionName": "Environment", "webPublicationDate": "2011-01-27T12:53:07Z", "webTitle": "England forests sell-off: Government outlines plans", "webUrl": "https://www.theguardian.com/environment/2011/jan/27/government-england-forest-sell-off", "apiUrl": "https://content.guardianapis.com/environment/2011/jan/27/government-england-forest-sell-off", "isHosted": false, "pillarId": "pillar/news", "pillarName": "News"}, {"id": "environment/blog/2011/jan/27/green-investment-bank", "type": "article", "sectionId": "environment", "sectionName": "Environment", "webPublicationDate": "2011-01-27T11:54:29Z", "webTitle": "The green investment bank: neither particularly green, nor a bank | Caroline Lucas", "webUrl": "https://www.theguardian.com/environment/blog/2011/jan/27/green-investment-bank", "apiUrl": "https://content.guardianapis.com/environment/blog/2011/jan/27/green-investment-bank", "isHosted": false, "pillarId": "pillar/news", "pillarName": "News"}, {"id": "environment/2011/jan/27/england-10-important-wildlife-sites", "type": "article", "sectionId": "environment", "sectionName": "Environment", "webPublicationDate": "2011-01-27T11:27:03Z", "webTitle": "England's 10 most important wildlife sites revealed", "webUrl": "https://www.theguardian.com/environment/2011/jan/27/england-10-important-wildlife-sites", "apiUrl": "https://content.guardianapis.com/environment/2011/jan/27/england-10-important-wildlife-sites", "isHosted": false, "pillarId": "pillar/news", "pillarName": "News"}, {"id": "environment/2011/jan/27/biofuel-fails-green-standard", "type": "article", "sectionId": "environment", "sectionName": "Environment", "webPublicationDate": "2011-01-27T11:04:46Z", "webTitle": "Two-thirds of UK biofuel fails green standard, figures show", "webUrl": "https://www.theguardian.com/environment/2011/jan/27/biofuel-fails-green-standard", "apiUrl": "https://content.guardianapis.com/environment/2011/jan/27/biofuel-fails-green-standard", "isHosted": false, "pillarId": "pillar/news", "pillarName": "News"}, {"id": "world/picture/2011/jan/27/pony-stampede-mongolia-eyewitness", "type": "picture", "sectionId": "environment", "sectionName": "Environment", "webPublicationDate": "2011-01-27T09:06:24Z", "webTitle": "Eyewitness: Mongolia\u2019s pony express", "webUrl": "https://www.theguardian.com/world/picture/2011/jan/27/pony-stampede-mongolia-eyewitness", "apiUrl": "https://content.guardianapis.com/world/picture/2011/jan/27/pony-stampede-mongolia-eyewitness", "isHosted": false, "pillarId": "pillar/news", "pillarName": "News"}, {"id": "world/2011/jan/27/australia-proposes-flood-relief-tax", "type": "article", "sectionId": "australia-news", "sectionName": "Australia news", "webPublicationDate": "2011-01-27T08:25:25Z", "webTitle": "Australian government proposes temporary flood relief tax", "webUrl": "https://www.theguardian.com/world/2011/jan/27/australia-proposes-flood-relief-tax", "apiUrl": "https://content.guardianapis.com/world/2011/jan/27/australia-proposes-flood-relief-tax", "isHosted": false, "pillarId": "pillar/news", "pillarName": "News"}, {"id": "environment/blog/2011/jan/27/nuclear-waste-legacy", "type": "article", "sectionId": "environment", "sectionName": "Environment", "webPublicationDate": "2011-01-27T08:00:03Z", "webTitle": "'Sellafield is where we house the toxic legacy of our failed nuclear industry'", "webUrl": "https://www.theguardian.com/environment/blog/2011/jan/27/nuclear-waste-legacy", "apiUrl": "https://content.guardianapis.com/environment/blog/2011/jan/27/nuclear-waste-legacy", "isHosted": false, "pillarId": "pillar/news", "pillarName": "News"}, {"id": "environment/gallery/2011/jan/27/rare-species-extinction-gallery", "type": "gallery", "sectionId": "environment", "sectionName": "Environment", "webPublicationDate": "2011-01-27T08:00:00Z", "webTitle": "England's refuges for rare species \u2013 in pictures", "webUrl": "https://www.theguardian.com/environment/gallery/2011/jan/27/rare-species-extinction-gallery", "apiUrl": "https://content.guardianapis.com/environment/gallery/2011/jan/27/rare-species-extinction-gallery", "isHosted": false, "pillarId": "pillar/news", "pillarName": "News"}, {"id": "environment/2011/jan/26/mark-kennedy-german-bundestag", "type": "article", "sectionId": "uk-news", "sectionName": "UK news", "webPublicationDate": "2011-01-26T22:51:15Z", "webTitle": "Mark Kennedy infiltrated German anti-fascists, Bundestag told", "webUrl": "https://www.theguardian.com/environment/2011/jan/26/mark-kennedy-german-bundestag", "apiUrl": "https://content.guardianapis.com/environment/2011/jan/26/mark-kennedy-german-bundestag", "isHosted": false, "pillarId": "pillar/news", "pillarName": "News"}]}}