{"response": {"status": "ok", "userTier": "developer", "total": 92830, "startIndex": 1, "pageSize": 50, "currentPage": 1, "pages": 1857, "orderBy": "newest", "results": [{"id": "football/2015/jan/30/gus-poyet-lee-cattermole-sunderland-surgery", "type": "article", "sectionId": "football", "sectionName": "Football", "webPublicationDate": "2015-01-30T22:30:04Z", "webTitle": "Gus Poyet says Sunderland\u2019s Lee Cattermole may require knee surgery", "webUrl": "https://www.theguardian.com/football/2015/jan/30/gus-poyet-lee-cattermole-sunderland-surgery", "apiUrl": "https://content.guardianapis.com/football/2015/jan/30/gus-poyet-lee-cattermole-sunderland-surgery", "isHosted": false, "pillarId": "pillar/sport", "pillarName": "Sport"}, {"id": "football/2015/jan/30/roberto-martinez-everton-battle-relegation", "type": "article", "sectionId": "football", "sectionName": "Football", "webPublicationDate": "2015-01-30T22:30:04Z", "webTitle": "Roberto Mart\u00ednez admits Everton are in battle against relegation", "webUrl": "https://www.theguardian.com/football/2015/jan/30/roberto-martinez-everton-battle-relegation", "apiUrl": "https://content.guardianapis.com/football/2015/jan/30/roberto-martinez-everton-battle-relegation", "isHosted": false, "pillarId": "pillar/sport", "pillarName": "Sport"}, {"id": "football/2015/jan/30/john-carver-first-win-newcastle-manager-hull", "type": "article", "sectionId": "football", "sectionName": "Football", "webPublicationDate": "2015-01-30T22:30:04Z", "webTitle": "John Carver seeks first win since being confirmed as Newcastle manager", "webUrl": "https://www.theguardian.com/football/2015/jan/30/john-carver-first-win-newcastle-manager-hull", "apiUrl": "https://content.guardianapis.com/football/2015/jan/30/john-carver-first-win-newcastle-manager-hull", "isHosted": false, "pillarId": "pillar/sport", "pillarName": "Sport"}, {"id": "football/2015/jan/30/manuel-pellegrini-jose-mourinho-premier-league", "type": "article", "sectionId": "football", "sectionName": "Football", "webPublicationDate": "2015-01-30T22:30:04Z", "webTitle": "Manuel Pellegrini rejects Jos\u00e9 Mourinho\u2019s Chelsea conspiracy theory", "webUrl": "https://www.theguardian.com/football/2015/jan/30/manuel-pellegrini-jose-mourinho-premier-league", "apiUrl": "https://content.guardianapis.com/football/2015/jan/30/manuel-pellegrini-jose-mourinho-premier-league", "isHosted": false, "pillarId": "pillar/sport", "pillarName": "Sport"}, {"id": "football/blog/2015/jan/30/vincent-kompany-manchester-city-chelsea", "type": "article", "sectionId": "football", "sectionName": "Football", "webPublicationDate": "2015-01-30T22:30:04Z", "webTitle": "Vincent Kompany needs his best for Manchester City against Chelsea | Jamie Jackson", "webUrl": "https://www.theguardian.com/football/blog/2015/jan/30/vincent-kompany-manchester-city-chelsea", "apiUrl": "https://content.guardianapis.com/football/blog/2015/jan/30/vincent-kompany-manchester-city-chelsea", "isHosted": false, "pillarId": "pillar/sport", "pillarName": "Sport"}, {"id": "football/2015/jan/30/manchester-united-louis-van-gaal-goals-leicester-city", "type": "article", "sectionId": "football", "sectionName": "Football", "webPublicationDate": "2015-01-30T22:30:04Z", "webTitle": "Manchester United\u2019s Louis van Gaal wants goals for Leicester\u2019s visit", "webUrl": "https://www.theguardian.com/football/2015/jan/30/manchester-united-louis-van-gaal-goals-leicester-city", "apiUrl": "https://content.guardianapis.com/football/2015/jan/30/manchester-united-louis-van-gaal-goals-leicester-city", "isHosted": false, "pillarId": "pillar/sport", "pillarName": "Sport"}, {"id": "football/2015/jan/30/arsene-wenger-gabriel-paulista-signing", "type": "article", "sectionId": "football", "sectionName": "Football", "webPublicationDate": "2015-01-30T22:30:04Z", "webTitle": "Ars\u00e8ne Wenger reveals Arsenal\u2019s methods over Gabriel Paulista signing", "webUrl": "https://www.theguardian.com/football/2015/jan/30/arsene-wenger-gabriel-paulista-signing", "apiUrl": "https://content.guardianapis.com/football/2015/jan/30/arsene-wenger-gabriel-paulista-signing", "isHosted": false, "pillarId": "pillar/sport", "pillarName": "Sport"}, {"id": "football/2015/jan/30/brendan-rodgers-steven-gerrard-700-games", "type": "article", "sectionId": "football", "sectionName": "Football", "webPublicationDate": "2015-01-30T22:29:04Z", "webTitle": "Brendan Rodgers: Steven Gerrard could be Liverpool\u2019s last 700-game man", "webUrl": "https://www.theguardian.com/football/2015/jan/30/brendan-rodgers-steven-gerrard-700-games", "apiUrl": "https://content.guardianapis.com/football/2015/jan/30/brendan-rodgers-steven-gerrard-700-games", "isHosted": false, "pillarId": "pillar/sport", "pillarName": "Sport"}, {"id": "football/2015/jan/30/frank-lampard-chelsea-fans-harry-redknapp", "type": "article", "sectionId": "football", "sectionName": "Football", "webPublicationDate": "2015-01-30T22:29:03Z", "webTitle": "Frank Lampard should be welcomed by Chelsea fans, says Harry Redknapp", "webUrl": "https://www.theguardian.com/football/2015/jan/30/frank-lampard-chelsea-fans-harry-redknapp", "apiUrl": "https://content.guardianapis.com/football/2015/jan/30/frank-lampard-chelsea-fans-harry-redknapp", "isHosted": false, "pillarId": "pillar/sport", "pillarName": "Sport"}, {"id": "football/blog/2015/jan/31/asian-cup-tactics-how-australia-can-win", "type": "article", "sectionId": "football", "sectionName": "Football", "webPublicationDate": "2015-01-30T20:28:04Z", "webTitle": "Analysis: How the Socceroos can beat South Korea in the Asian Cup final", "webUrl": "https://www.theguardian.com/football/blog/2015/jan/31/asian-cup-tactics-how-australia-can-win", "apiUrl": "https://content.guardianapis.com/football/blog/2015/jan/31/asian-cup-tactics-how-australia-can-win", "isHosted": false, "pillarId": "pillar/sport", "pillarName": "Sport"}, {"id": "football/2015/jan/30/port-vale-norman-smurthwaite-crewe", "type": "article", "sectionId": "football", "sectionName": "Football", "webPublicationDate": "2015-01-30T19:46:00Z", "webTitle": "Port Vale\u2019s chairman, Norman Smurthwaite, sparks spat with Crewe fans", "webUrl": "https://www.theguardian.com/football/2015/jan/30/port-vale-norman-smurthwaite-crewe", "apiUrl": "https://content.guardianapis.com/football/2015/jan/30/port-vale-norman-smurthwaite-crewe", "isHosted": false, "pillarId": "pillar/sport", "pillarName": "Sport"}, {"id": "football/2015/jan/30/hatem-ben-arfa-not-eligible-ligue-1-nice", "type": "article", "sectionId": "football", "sectionName": "Football", "webPublicationDate": "2015-01-30T19:24:10Z", "webTitle": "Hatem Ben Arfa not eligible to play for Ligue 1 side Nice this season", "webUrl": "https://www.theguardian.com/football/2015/jan/30/hatem-ben-arfa-not-eligible-ligue-1-nice", "apiUrl": "https://content.guardianapis.com/football/2015/jan/30/hatem-ben-arfa-not-eligible-ligue-1-nice", "isHosted": false, "pillarId": "pillar/sport", "pillarName": "Sport"}, {"id": "football/2015/jan/30/manchester-united-leicester-city-match-preview", "type": "article", "sectionId": "football", "sectionName": "Football", "webPublicationDate": "2015-01-30T18:25:54Z", "webTitle": "Manchester United v Leicester City: match preview", "webUrl": "https://www.theguardian.com/football/2015/jan/30/manchester-united-leicester-city-match-preview", "apiUrl": "https://content.guardianapis.com/football/2015/jan/30/manchester-united-leicester-city-match-preview", "isHosted": false, "pillarId": "pillar/sport", "pillarName": "Sport"}, {"id": "football/2015/jan/30/david-ginola-luis-figo-fifa-sepp-blatter", "type": "article", "sectionId": "football", "sectionName": "Football", "webPublicationDate": "2015-01-30T18:09:28Z", "webTitle": "David Ginola out and Luis Figo in race to replace Sepp Blatter at Fifa", "webUrl": "https://www.theguardian.com/football/2015/jan/30/david-ginola-luis-figo-fifa-sepp-blatter", "apiUrl": "https://content.guardianapis.com/football/2015/jan/30/david-ginola-luis-figo-fifa-sepp-blatter", "isHosted": false, "pillarId": "pillar/sport", "pillarName": "Sport"}, {"id": "football/2015/jan/30/chelsea-manchester-city-match-preview", "type": "article", "sectionId": "football", "sectionName": "Football", "webPublicationDate": "2015-01-30T17:49:55Z", "webTitle": "Chelsea v Manchester City: match preview", "webUrl": "https://www.theguardian.com/football/2015/jan/30/chelsea-manchester-city-match-preview", "apiUrl": "https://content.guardianapis.com/football/2015/jan/30/chelsea-manchester-city-match-preview", "isHosted": false, "pillarId": "pillar/sport", "pillarName": "Sport"}, {"id": "football/live/2015/jan/30/transfer-news-andre-schurrle-danny-ings-and-juan-cuadrado-latest-live", "type": "liveblog", "sectionId": "football", "sectionName": "Football", "webPublicationDate": "2015-01-30T17:49:19Z", "webTitle": "Transfer news: Juan Cuadrado set to complete Chelsea move \u2013 as it happened", "webUrl": "https://www.theguardian.com/football/live/2015/jan/30/transfer-news-andre-schurrle-danny-ings-and-juan-cuadrado-latest-live", "apiUrl": "https://content.guardianapis.com/football/live/2015/jan/30/transfer-news-andre-schurrle-danny-ings-and-juan-cuadrado-latest-live", "isHosted": false, "pillarId": "pillar/sport", "pillarName": "Sport"}, {"id": "football/2015/jan/30/liverpool-west-ham-united-match-preview", "type": "article", "sectionId": "football", "sectionName": "Football", "webPublicationDate": "2015-01-30T17:36:41Z", "webTitle": "Liverpool v West Ham United: match preview", "webUrl": "https://www.theguardian.com/football/2015/jan/30/liverpool-west-ham-united-match-preview", "apiUrl": "https://content.guardianapis.com/football/2015/jan/30/liverpool-west-ham-united-match-preview", "isHosted": false, "pillarId": "pillar/sport", "pillarName": "Sport"}, {"id": "football/2015/jan/30/west-bromwich-albion-tottenham-hotspur-match-preview", "type": "article", "sectionId": "football", "sectionName": "Football", "webPublicationDate": "2015-01-30T17:03:18Z", "webTitle": "West Bromwich Albion v Tottenham Hotspur: match preview", "webUrl": "https://www.theguardian.com/football/2015/jan/30/west-bromwich-albion-tottenham-hotspur-match-preview", "apiUrl": "https://content.guardianapis.com/football/2015/jan/30/west-bromwich-albion-tottenham-hotspur-match-preview", "isHosted": false, "pillarId": "pillar/sport", "pillarName": "Sport"}, {"id": "football/2015/jan/30/burnley-liverpool-danny-ings", "type": "article", "sectionId": "football", "sectionName": "Football", "webPublicationDate": "2015-01-30T16:35:00Z", "webTitle": "Burnley: Liverpool move to sign and loan Danny Ings would breach rules", "webUrl": "https://www.theguardian.com/football/2015/jan/30/burnley-liverpool-danny-ings", "apiUrl": "https://content.guardianapis.com/football/2015/jan/30/burnley-liverpool-danny-ings", "isHosted": false, "pillarId": "pillar/sport", "pillarName": "Sport"}, {"id": "football/2015/jan/30/juan-cuadrado-chelsea-medical-fiorentina-mohamed-salah-andre-schurrle", "type": "article", "sectionId": "football", "sectionName": "Football", "webPublicationDate": "2015-01-30T16:17:50Z", "webTitle": "Juan Cuadrado set to undergo Chelsea medical ahead of \u00a323.3m move", "webUrl": "https://www.theguardian.com/football/2015/jan/30/juan-cuadrado-chelsea-medical-fiorentina-mohamed-salah-andre-schurrle", "apiUrl": "https://content.guardianapis.com/football/2015/jan/30/juan-cuadrado-chelsea-medical-fiorentina-mohamed-salah-andre-schurrle", "isHosted": false, "pillarId": "pillar/sport", "pillarName": "Sport"}, {"id": "football/2015/jan/30/arsenal-aston-villa-match-preview", "type": "article", "sectionId": "football", "sectionName": "Football", "webPublicationDate": "2015-01-30T16:02:31Z", "webTitle": "Arsenal v Aston Villa: match preview", "webUrl": "https://www.theguardian.com/football/2015/jan/30/arsenal-aston-villa-match-preview", "apiUrl": "https://content.guardianapis.com/football/2015/jan/30/arsenal-aston-villa-match-preview", "isHosted": false, "pillarId": "pillar/sport", "pillarName": "Sport"}, {"id": "football/2015/jan/30/the-fiver-chelsea-manchester-city-it-is-on-oh-it-is-on-alright", "type": "article", "sectionId": "football", "sectionName": "Football", "webPublicationDate": "2015-01-30T15:45:09Z", "webTitle": "The Fiver | Now That\u2019s What I Call Whale Songs 47", "webUrl": "https://www.theguardian.com/football/2015/jan/30/the-fiver-chelsea-manchester-city-it-is-on-oh-it-is-on-alright", "apiUrl": "https://content.guardianapis.com/football/2015/jan/30/the-fiver-chelsea-manchester-city-it-is-on-oh-it-is-on-alright", "isHosted": false, "pillarId": "pillar/sport", "pillarName": "Sport"}, {"id": "football/2015/jan/30/stoke-city-queens-park-rangers-match-preview", "type": "article", "sectionId": "football", "sectionName": "Football", "webPublicationDate": "2015-01-30T15:42:22Z", "webTitle": "Stoke City v Queens Park Rangers: match preview", "webUrl": "https://www.theguardian.com/football/2015/jan/30/stoke-city-queens-park-rangers-match-preview", "apiUrl": "https://content.guardianapis.com/football/2015/jan/30/stoke-city-queens-park-rangers-match-preview", "isHosted": false, "pillarId": "pillar/sport", "pillarName": "Sport"}, {"id": "football/2015/jan/30/james-mcarthur-alan-pardew-crystal-palace", "type": "article", "sectionId": "football", "sectionName": "Football", "webPublicationDate": "2015-01-30T15:06:00Z", "webTitle": "James McArthur: Alan Pardew has changed Crystal Palace\u2019s mentality", "webUrl": "https://www.theguardian.com/football/2015/jan/30/james-mcarthur-alan-pardew-crystal-palace", "apiUrl": "https://content.guardianapis.com/football/2015/jan/30/james-mcarthur-alan-pardew-crystal-palace", "isHosted": false, "pillarId": "pillar/sport", "pillarName": "Sport"}, {"id": "football/2015/jan/30/hull-city-newcastle-united-match-preview", "type": "article", "sectionId": "football", "sectionName": "Football", "webPublicationDate": "2015-01-30T14:52:23Z", "webTitle": "Hull City v Newcastle United: match preview", "webUrl": "https://www.theguardian.com/football/2015/jan/30/hull-city-newcastle-united-match-preview", "apiUrl": "https://content.guardianapis.com/football/2015/jan/30/hull-city-newcastle-united-match-preview", "isHosted": false, "pillarId": "pillar/sport", "pillarName": "Sport"}, {"id": "football/2015/jan/30/southampton-swansea-city-match-preview", "type": "article", "sectionId": "football", "sectionName": "Football", "webPublicationDate": "2015-01-30T14:35:52Z", "webTitle": "Southampton v Swansea City: match preview", "webUrl": "https://www.theguardian.com/football/2015/jan/30/southampton-swansea-city-match-preview", "apiUrl": "https://content.guardianapis.com/football/2015/jan/30/southampton-swansea-city-match-preview", "isHosted": false, "pillarId": "pillar/sport", "pillarName": "Sport"}, {"id": "football/2015/jan/30/manchester-city-manuel-pellegrini-diego-costa", "type": "article", "sectionId": "football", "sectionName": "Football", "webPublicationDate": "2015-01-30T14:24:47Z", "webTitle": "Manchester City\u2019s Manuel Pellegrini says Diego Costa should change his ways", "webUrl": "https://www.theguardian.com/football/2015/jan/30/manchester-city-manuel-pellegrini-diego-costa", "apiUrl": "https://content.guardianapis.com/football/2015/jan/30/manchester-city-manuel-pellegrini-diego-costa", "isHosted": false, "pillarId": "pillar/sport", "pillarName": "Sport"}, {"id": "football/2015/jan/30/sunderland-burnley-match-preview", "type": "article", "sectionId": "football", "sectionName": "Football", "webPublicationDate": "2015-01-30T13:02:52Z", "webTitle": "Sunderland v Burnley: match preview", "webUrl": "https://www.theguardian.com/football/2015/jan/30/sunderland-burnley-match-preview", "apiUrl": "https://content.guardianapis.com/football/2015/jan/30/sunderland-burnley-match-preview", "isHosted": false, "pillarId": "pillar/sport", "pillarName": "Sport"}, {"id": "society/2015/jan/30/glasgow-police-domestic-abuse-old-firm-rangers-celtic", "type": "article", "sectionId": "society", "sectionName": "Society", "webPublicationDate": "2015-01-30T12:52:11Z", "webTitle": "Glasgow police to visit known domestic abusers ahead of Old Firm match", "webUrl": "https://www.theguardian.com/society/2015/jan/30/glasgow-police-domestic-abuse-old-firm-rangers-celtic", "apiUrl": "https://content.guardianapis.com/society/2015/jan/30/glasgow-police-domestic-abuse-old-firm-rangers-celtic", "isHosted": false, "pillarId": "pillar/news", "pillarName": "News"}, {"id": "football/2015/jan/30/diego-costa-miss-manchester-city-three-game-ban-stamp-chelsea-liverpool", "type": "article", "sectionId": "football", "sectionName": "Football", "webPublicationDate": "2015-01-30T12:47:06Z", "webTitle": "Diego Costa out of Manchester City game after three-match ban", "webUrl": "https://www.theguardian.com/football/2015/jan/30/diego-costa-miss-manchester-city-three-game-ban-stamp-chelsea-liverpool", "apiUrl": "https://content.guardianapis.com/football/2015/jan/30/diego-costa-miss-manchester-city-three-game-ban-stamp-chelsea-liverpool", "isHosted": false, "pillarId": "pillar/sport", "pillarName": "Sport"}, {"id": "sport/quiz/2015/jan/30/sports-quiz-week-andy-murray-brett-lee-super-bowl", "type": "article", "sectionId": "global", "sectionName": "Global", "webPublicationDate": "2015-01-30T12:39:08Z", "webTitle": "The sports quiz of the week: Andy Murray, FA Cup and Super Bowl XLIX", "webUrl": "https://www.theguardian.com/sport/quiz/2015/jan/30/sports-quiz-week-andy-murray-brett-lee-super-bowl", "apiUrl": "https://content.guardianapis.com/sport/quiz/2015/jan/30/sports-quiz-week-andy-murray-brett-lee-super-bowl", "isHosted": false}, {"id": "football/blog/2015/jan/30/euro-2012-ukraine-turbulent-history", "type": "article", "sectionId": "football", "sectionName": "Football", "webPublicationDate": "2015-01-30T12:34:00Z", "webTitle": "Euro 2012 left little mark on Ukraine, still haunted by its history | Richard Williams", "webUrl": "https://www.theguardian.com/football/blog/2015/jan/30/euro-2012-ukraine-turbulent-history", "apiUrl": "https://content.guardianapis.com/football/blog/2015/jan/30/euro-2012-ukraine-turbulent-history", "isHosted": false, "pillarId": "pillar/sport", "pillarName": "Sport"}, {"id": "football/2015/jan/30/david-meyler-headbutt-hull-city-newcastle-alan-pardew", "type": "article", "sectionId": "football", "sectionName": "Football", "webPublicationDate": "2015-01-30T12:19:59Z", "webTitle": "David Meyler: Pardew headbutt in past but Hull City up for Newcastle challenge", "webUrl": "https://www.theguardian.com/football/2015/jan/30/david-meyler-headbutt-hull-city-newcastle-alan-pardew", "apiUrl": "https://content.guardianapis.com/football/2015/jan/30/david-meyler-headbutt-hull-city-newcastle-alan-pardew", "isHosted": false, "pillarId": "pillar/sport", "pillarName": "Sport"}, {"id": "football/2015/jan/30/crystal-palace-everton-match-preview", "type": "article", "sectionId": "football", "sectionName": "Football", "webPublicationDate": "2015-01-30T11:45:16Z", "webTitle": "Crystal Palace v Everton: match preview", "webUrl": "https://www.theguardian.com/football/2015/jan/30/crystal-palace-everton-match-preview", "apiUrl": "https://content.guardianapis.com/football/2015/jan/30/crystal-palace-everton-match-preview", "isHosted": false, "pillarId": "pillar/sport", "pillarName": "Sport"}, {"id": "football/2015/jan/30/you-are-the-ref-paul-trevillion", "type": "article", "sectionId": "football", "sectionName": "Football", "webPublicationDate": "2015-01-30T09:30:00Z", "webTitle": "318. David de Gea, Manchester United", "webUrl": "https://www.theguardian.com/football/2015/jan/30/you-are-the-ref-paul-trevillion", "apiUrl": "https://content.guardianapis.com/football/2015/jan/30/you-are-the-ref-paul-trevillion", "isHosted": false, "pillarId": "pillar/sport", "pillarName": "Sport"}, {"id": "football/2015/jan/30/football-transfer-rumour-mill-chelsea-manchester-city-gerson", "type": "article", "sectionId": "football", "sectionName": "Football", "webPublicationDate": "2015-01-30T09:12:56Z", "webTitle": "Football transfer rumours: Chelsea and Manchester City in for Gerson?", "webUrl": "https://www.theguardian.com/football/2015/jan/30/football-transfer-rumour-mill-chelsea-manchester-city-gerson", "apiUrl": "https://content.guardianapis.com/football/2015/jan/30/football-transfer-rumour-mill-chelsea-manchester-city-gerson", "isHosted": false, "pillarId": "pillar/sport", "pillarName": "Sport"}, {"id": "football/blog/2015/jan/30/premier-league-10-things-this-weekend", "type": "article", "sectionId": "football", "sectionName": "Football", "webPublicationDate": "2015-01-30T08:05:12Z", "webTitle": "Premier League: 10 things to look out for this weekend | Paul Doyle", "webUrl": "https://www.theguardian.com/football/blog/2015/jan/30/premier-league-10-things-this-weekend", "apiUrl": "https://content.guardianapis.com/football/blog/2015/jan/30/premier-league-10-things-this-weekend", "isHosted": false, "pillarId": "pillar/sport", "pillarName": "Sport"}, {"id": "football/guardianwitness-blog/2015/jan/30/a-great-australian-showcase-readers-perspectives-of-the-2015-asian-cup", "type": "article", "sectionId": "football", "sectionName": "Football", "webPublicationDate": "2015-01-30T06:00:01Z", "webTitle": "'A great Australian showcase:' readers' perspectives of the 2015 Asian Cup", "webUrl": "https://www.theguardian.com/football/guardianwitness-blog/2015/jan/30/a-great-australian-showcase-readers-perspectives-of-the-2015-asian-cup", "apiUrl": "https://content.guardianapis.com/football/guardianwitness-blog/2015/jan/30/a-great-australian-showcase-readers-perspectives-of-the-2015-asian-cup", "isHosted": false, "pillarId": "pillar/sport", "pillarName": "Sport"}, {"id": "football/2015/jan/30/the-rolling-newcastle-jets-saga-nathan-tinklers-controversial-track-record", "type": "article", "sectionId": "football", "sectionName": "Football", "webPublicationDate": "2015-01-30T01:19:28Z", "webTitle": "The Newcastle Jets saga: Nathan Tinkler's controversial track record", "webUrl": "https://www.theguardian.com/football/2015/jan/30/the-rolling-newcastle-jets-saga-nathan-tinklers-controversial-track-record", "apiUrl": "https://content.guardianapis.com/football/2015/jan/30/the-rolling-newcastle-jets-saga-nathan-tinklers-controversial-track-record", "isHosted": false, "pillarId": "pillar/sport", "pillarName": "Sport"}, {"id": "football/2015/jan/30/sentimental-star-south-korea-asian-cup-heroics", "type": "article", "sectionId": "football", "sectionName": "Football", "webPublicationDate": "2015-01-29T23:11:50Z", "webTitle": "Soldiering on: the sentimental star of South Korea's Asian Cup heroics", "webUrl": "https://www.theguardian.com/football/2015/jan/30/sentimental-star-south-korea-asian-cup-heroics", "apiUrl": "https://content.guardianapis.com/football/2015/jan/30/sentimental-star-south-korea-asian-cup-heroics", "isHosted": false, "pillarId": "pillar/sport", "pillarName": "Sport"}, {"id": "football/2015/jan/29/sepp-blatter-fifa-presidency-elections", "type": "article", "sectionId": "football", "sectionName": "Football", "webPublicationDate": "2015-01-29T23:04:00Z", "webTitle": "Sepp Blatter still odds-on Fifa favourite despite plan to oust him", "webUrl": "https://www.theguardian.com/football/2015/jan/29/sepp-blatter-fifa-presidency-elections", "apiUrl": "https://content.guardianapis.com/football/2015/jan/29/sepp-blatter-fifa-presidency-elections", "isHosted": false, "pillarId": "pillar/sport", "pillarName": "Sport"}, {"id": "football/2015/jan/29/diego-costa-chelsea-appeals-violent-conduct-stamping-jose-mourinho", "type": "article", "sectionId": "football", "sectionName": "Football", "webPublicationDate": "2015-01-29T22:42:00Z", "webTitle": "Jos\u00e9 Mourinho puts Chelsea into lockdown after Diego Costa stamp charge", "webUrl": "https://www.theguardian.com/football/2015/jan/29/diego-costa-chelsea-appeals-violent-conduct-stamping-jose-mourinho", "apiUrl": "https://content.guardianapis.com/football/2015/jan/29/diego-costa-chelsea-appeals-violent-conduct-stamping-jose-mourinho", "isHosted": false, "pillarId": "pillar/sport", "pillarName": "Sport"}, {"id": "football/2015/jan/29/newcastle-west-ham-fly-players-home-africa", "type": "article", "sectionId": "football", "sectionName": "Football", "webPublicationDate": "2015-01-29T22:30:02Z", "webTitle": "Newcastle and West Ham club together to fly players home from Africa", "webUrl": "https://www.theguardian.com/football/2015/jan/29/newcastle-west-ham-fly-players-home-africa", "apiUrl": "https://content.guardianapis.com/football/2015/jan/29/newcastle-west-ham-fly-players-home-africa", "isHosted": false, "pillarId": "pillar/sport", "pillarName": "Sport"}, {"id": "football/2015/jan/29/everton-roberto-martinez-striking-creative-options", "type": "article", "sectionId": "football", "sectionName": "Football", "webPublicationDate": "2015-01-29T22:30:02Z", "webTitle": "Everton\u2019s Roberto Mart\u00ednez not seeking striking or creative options", "webUrl": "https://www.theguardian.com/football/2015/jan/29/everton-roberto-martinez-striking-creative-options", "apiUrl": "https://content.guardianapis.com/football/2015/jan/29/everton-roberto-martinez-striking-creative-options", "isHosted": false, "pillarId": "pillar/sport", "pillarName": "Sport"}, {"id": "football/2015/jan/29/liverpool-danny-ings-burnley-transfer-window", "type": "article", "sectionId": "football", "sectionName": "Football", "webPublicationDate": "2015-01-29T22:30:02Z", "webTitle": "Liverpool join transfer window scramble for Burnley\u2019s Danny Ings", "webUrl": "https://www.theguardian.com/football/2015/jan/29/liverpool-danny-ings-burnley-transfer-window", "apiUrl": "https://content.guardianapis.com/football/2015/jan/29/liverpool-danny-ings-burnley-transfer-window", "isHosted": false, "pillarId": "pillar/sport", "pillarName": "Sport"}, {"id": "football/blog/2015/jan/29/chelsea-manchester-city-england-world-care", "type": "article", "sectionId": "football", "sectionName": "Football", "webPublicationDate": "2015-01-29T22:00:02Z", "webTitle": "Chelsea v Manchester City: assessing the fixture's global stature", "webUrl": "https://www.theguardian.com/football/blog/2015/jan/29/chelsea-manchester-city-england-world-care", "apiUrl": "https://content.guardianapis.com/football/blog/2015/jan/29/chelsea-manchester-city-england-world-care", "isHosted": false, "pillarId": "pillar/sport", "pillarName": "Sport"}, {"id": "football/2015/jan/29/thursdays-transfer-roundup", "type": "article", "sectionId": "football", "sectionName": "Football", "webPublicationDate": "2015-01-29T20:07:15Z", "webTitle": "Thursday\u2019s transfer round-up", "webUrl": "https://www.theguardian.com/football/2015/jan/29/thursdays-transfer-roundup", "apiUrl": "https://content.guardianapis.com/football/2015/jan/29/thursdays-transfer-roundup", "isHosted": false, "pillarId": "pillar/sport", "pillarName": "Sport"}, {"id": "football/2015/jan/29/liverpool-daniel-sturridge-mentally-stronger", "type": "article", "sectionId": "football", "sectionName": "Football", "webPublicationDate": "2015-01-29T18:47:02Z", "webTitle": "Liverpool\u2019s Daniel Sturridge says he is mentally stronger after absence", "webUrl": "https://www.theguardian.com/football/2015/jan/29/liverpool-daniel-sturridge-mentally-stronger", "apiUrl": "https://content.guardianapis.com/football/2015/jan/29/liverpool-daniel-sturridge-mentally-stronger", "isHosted": false, "pillarId": "pillar/sport", "pillarName": "Sport"}, {"id": "football/2015/jan/29/alexis-sanchez-arsenal-", "type": "article", "sectionId": "football", "sectionName": "Football", "webPublicationDate": "2015-01-29T17:56:35Z", "webTitle": "Ars\u00e8ne Wenger warns Alexis S\u00e1nchez is uncertain to face Aston Villa", "webUrl": "https://www.theguardian.com/football/2015/jan/29/alexis-sanchez-arsenal-", "apiUrl": "https://content.guardianapis.com/football/2015/jan/29/alexis-sanchez-arsenal-", "isHosted": false, "pillarId": "pillar/sport", "pillarName": "Sport"}, {"id": "football/live/2015/jan/29/transfer-news-all-the-latest-updates-and-news-live", "type": "liveblog", "sectionId": "football", "sectionName": "Football", "webPublicationDate": "2015-01-29T17:03:33Z", "webTitle": "Transfer news: Chelsea prepared to meet Cuadrado clause \u2013 as it happened", "webUrl": "https://www.theguardian.com/football/live/2015/jan/29/transfer-news-all-the-latest-updates-and-news-live", "apiUrl": "https://content.guardianapis.com/football/live/2015/jan/29/transfer-news-all-the-latest-updates-and-news-live", "isHosted": false, "pillarId": "pillar/sport", "pillarName": "Sport"}]}}