{"response": {"status": "ok", "userTier": "developer", "total": 38902, "startIndex": 1, "pageSize": 50, "currentPage": 1, "pages": 779, "orderBy": "newest", "results": [{"id": "politics/2014/jan/30/esther-addley-diary-beavers-flooding", "type": "article", "sectionId": "politics", "sectionName": "Politics", "webPublicationDate": "2014-01-30T23:15:01Z", "webTitle": "Esther Addley's diary: Damn beavers. They could have solved our flooding crisis", "webUrl": "https://www.theguardian.com/politics/2014/jan/30/esther-addley-diary-beavers-flooding", "apiUrl": "https://content.guardianapis.com/politics/2014/jan/30/esther-addley-diary-beavers-flooding", "isHosted": false, "pillarId": "pillar/news", "pillarName": "News"}, {"id": "world/gallery/2014/jan/30/west-virginia-chemical-spill-residents-coping", "type": "gallery", "sectionId": "world", "sectionName": "World news", "webPublicationDate": "2014-01-30T22:04:19Z", "webTitle": "West Virginia chemical spill: how residents are coping three weeks later", "webUrl": "https://www.theguardian.com/world/gallery/2014/jan/30/west-virginia-chemical-spill-residents-coping", "apiUrl": "https://content.guardianapis.com/world/gallery/2014/jan/30/west-virginia-chemical-spill-residents-coping", "isHosted": false, "pillarId": "pillar/news", "pillarName": "News"}, {"id": "environment/the-northerner/2014/jan/30/allendale-northumberland-strange-behaviour-january", "type": "article", "sectionId": "environment", "sectionName": "Environment", "webPublicationDate": "2014-01-30T20:59:00Z", "webTitle": "Country diary: Allendale, Northumberland: Strange behaviour for January", "webUrl": "https://www.theguardian.com/environment/the-northerner/2014/jan/30/allendale-northumberland-strange-behaviour-january", "apiUrl": "https://content.guardianapis.com/environment/the-northerner/2014/jan/30/allendale-northumberland-strange-behaviour-january", "isHosted": false, "pillarId": "pillar/news", "pillarName": "News"}, {"id": "world/2014/jan/30/barack-obama-shark-conservation-ban", "type": "article", "sectionId": "environment", "sectionName": "Environment", "webPublicationDate": "2014-01-30T18:57:47Z", "webTitle": "Obama accused of undermining shark conservation efforts", "webUrl": "https://www.theguardian.com/world/2014/jan/30/barack-obama-shark-conservation-ban", "apiUrl": "https://content.guardianapis.com/world/2014/jan/30/barack-obama-shark-conservation-ban", "isHosted": false, "pillarId": "pillar/news", "pillarName": "News"}, {"id": "environment/2014/jan/30/flooding-experts-uk-adapt-climate-change", "type": "article", "sectionId": "environment", "sectionName": "Environment", "webPublicationDate": "2014-01-30T18:08:42Z", "webTitle": "Flooding experts say Britain will have to adapt to climate change \u2013 and fast", "webUrl": "https://www.theguardian.com/environment/2014/jan/30/flooding-experts-uk-adapt-climate-change", "apiUrl": "https://content.guardianapis.com/environment/2014/jan/30/flooding-experts-uk-adapt-climate-change", "isHosted": false, "pillarId": "pillar/news", "pillarName": "News"}, {"id": "environment/2014/jan/30/snowden-nsa-spying-copenhagen-climate-talks", "type": "article", "sectionId": "environment", "sectionName": "Environment", "webPublicationDate": "2014-01-30T17:54:55Z", "webTitle": "Snowden revelations of NSA spying on Copenhagen climate talks spark anger", "webUrl": "https://www.theguardian.com/environment/2014/jan/30/snowden-nsa-spying-copenhagen-climate-talks", "apiUrl": "https://content.guardianapis.com/environment/2014/jan/30/snowden-nsa-spying-copenhagen-climate-talks", "isHosted": false, "pillarId": "pillar/news", "pillarName": "News"}, {"id": "world/video/2014/jan/30/gold-rush-prospecting-california-drought-video", "type": "video", "sectionId": "us-news", "sectionName": "US news", "webPublicationDate": "2014-01-30T16:13:00Z", "webTitle": "California drought inspires prospecting boom and new 'gold rush' \u2013\u00a0video", "webUrl": "https://www.theguardian.com/world/video/2014/jan/30/gold-rush-prospecting-california-drought-video", "apiUrl": "https://content.guardianapis.com/world/video/2014/jan/30/gold-rush-prospecting-california-drought-video", "isHosted": false, "pillarId": "pillar/news", "pillarName": "News"}, {"id": "environment/chinas-choice/2014/jan/30/china-record-solar-energy", "type": "article", "sectionId": "environment", "sectionName": "Environment", "webPublicationDate": "2014-01-30T15:58:23Z", "webTitle": "China sets new world record for solar installations | Jennifer Duggan", "webUrl": "https://www.theguardian.com/environment/chinas-choice/2014/jan/30/china-record-solar-energy", "apiUrl": "https://content.guardianapis.com/environment/chinas-choice/2014/jan/30/china-record-solar-energy", "isHosted": false, "pillarId": "pillar/news", "pillarName": "News"}, {"id": "commentisfree/2014/jan/30/beavers-dam-rivers-badgers-work", "type": "article", "sectionId": "commentisfree", "sectionName": "Opinion", "webPublicationDate": "2014-01-30T15:04:31Z", "webTitle": "If beavers won't dam our rivers, there's lots of badgers looking for work | Michael Moran", "webUrl": "https://www.theguardian.com/commentisfree/2014/jan/30/beavers-dam-rivers-badgers-work", "apiUrl": "https://content.guardianapis.com/commentisfree/2014/jan/30/beavers-dam-rivers-badgers-work", "isHosted": false, "pillarId": "pillar/opinion", "pillarName": "Opinion"}, {"id": "environment/2014/jan/30/green-news-roundup", "type": "article", "sectionId": "environment", "sectionName": "Environment", "webPublicationDate": "2014-01-30T15:03:59Z", "webTitle": "Green news roundup: fracking activists, electric cars in Norway and beavers", "webUrl": "https://www.theguardian.com/environment/2014/jan/30/green-news-roundup", "apiUrl": "https://content.guardianapis.com/environment/2014/jan/30/green-news-roundup", "isHosted": false, "pillarId": "pillar/news", "pillarName": "News"}, {"id": "commentisfree/2014/jan/30/dredging-rivers-floods-somerset-levels-david-cameron-farmers", "type": "article", "sectionId": "commentisfree", "sectionName": "Opinion", "webPublicationDate": "2014-01-30T14:30:02Z", "webTitle": "Dredging rivers won't stop floods. It will make them worse | George Monbiot", "webUrl": "https://www.theguardian.com/commentisfree/2014/jan/30/dredging-rivers-floods-somerset-levels-david-cameron-farmers", "apiUrl": "https://content.guardianapis.com/commentisfree/2014/jan/30/dredging-rivers-floods-somerset-levels-david-cameron-farmers", "isHosted": false, "pillarId": "pillar/opinion", "pillarName": "Opinion"}, {"id": "environment/2014/jan/30/gaza-looming-water-crisis-friends-earth", "type": "article", "sectionId": "environment", "sectionName": "Environment", "webPublicationDate": "2014-01-30T14:01:47Z", "webTitle": "Gaza warned of looming water crisis", "webUrl": "https://www.theguardian.com/environment/2014/jan/30/gaza-looming-water-crisis-friends-earth", "apiUrl": "https://content.guardianapis.com/environment/2014/jan/30/gaza-looming-water-crisis-friends-earth", "isHosted": false, "pillarId": "pillar/news", "pillarName": "News"}, {"id": "environment/2014/jan/30/army-flooding-somerset-levels", "type": "article", "sectionId": "environment", "sectionName": "Environment", "webPublicationDate": "2014-01-30T13:05:00Z", "webTitle": "Army assesses task on flood-hit Somerset Levels", "webUrl": "https://www.theguardian.com/environment/2014/jan/30/army-flooding-somerset-levels", "apiUrl": "https://content.guardianapis.com/environment/2014/jan/30/army-flooding-somerset-levels", "isHosted": false, "pillarId": "pillar/news", "pillarName": "News"}, {"id": "environment/2014/jan/30/european-bat-population-rises", "type": "article", "sectionId": "environment", "sectionName": "Environment", "webPublicationDate": "2014-01-30T13:00:00Z", "webTitle": "European bat population rises after years of decline, study finds", "webUrl": "https://www.theguardian.com/environment/2014/jan/30/european-bat-population-rises", "apiUrl": "https://content.guardianapis.com/environment/2014/jan/30/european-bat-population-rises", "isHosted": false, "pillarId": "pillar/news", "pillarName": "News"}, {"id": "environment/gallery/2014/jan/30/floods-on-the-somerset-levels-in-pictures", "type": "gallery", "sectionId": "environment", "sectionName": "Environment", "webPublicationDate": "2014-01-30T12:47:45Z", "webTitle": "Floods on the Somerset Levels - in pictures", "webUrl": "https://www.theguardian.com/environment/gallery/2014/jan/30/floods-on-the-somerset-levels-in-pictures", "apiUrl": "https://content.guardianapis.com/environment/gallery/2014/jan/30/floods-on-the-somerset-levels-in-pictures", "isHosted": false, "pillarId": "pillar/news", "pillarName": "News"}, {"id": "environment/video/2014/jan/30/somerset-flood-victims-army-environment-secretary-paterson-video", "type": "video", "sectionId": "environment", "sectionName": "Environment", "webPublicationDate": "2014-01-30T11:45:00Z", "webTitle": "Somerset flood victims to be helped by army, says environment secretary \u2013 video", "webUrl": "https://www.theguardian.com/environment/video/2014/jan/30/somerset-flood-victims-army-environment-secretary-paterson-video", "apiUrl": "https://content.guardianapis.com/environment/video/2014/jan/30/somerset-flood-victims-army-environment-secretary-paterson-video", "isHosted": false, "pillarId": "pillar/news", "pillarName": "News"}, {"id": "sustainable-business/hydroponics-grow-salad-tunnels-london-underground", "type": "article", "sectionId": "sustainable-business", "sectionName": "Guardian Sustainable Business", "webPublicationDate": "2014-01-30T11:34:00Z", "webTitle": "Hydroponics used to grow salad in tunnels under London", "webUrl": "https://www.theguardian.com/sustainable-business/hydroponics-grow-salad-tunnels-london-underground", "apiUrl": "https://content.guardianapis.com/sustainable-business/hydroponics-grow-salad-tunnels-london-underground", "isHosted": false}, {"id": "environment/video/2014/jan/30/argyll-journey-scottish-forest-red-squirrel-video", "type": "video", "sectionId": "environment", "sectionName": "Environment", "webPublicationDate": "2014-01-30T11:08:00Z", "webTitle": "Argyll: a journey through a Scottish forest \u2013 video", "webUrl": "https://www.theguardian.com/environment/video/2014/jan/30/argyll-journey-scottish-forest-red-squirrel-video", "apiUrl": "https://content.guardianapis.com/environment/video/2014/jan/30/argyll-journey-scottish-forest-red-squirrel-video", "isHosted": false, "pillarId": "pillar/news", "pillarName": "News"}, {"id": "uk-news/2014/jan/30/england-wettest-january-records-began", "type": "article", "sectionId": "uk-news", "sectionName": "UK news", "webPublicationDate": "2014-01-30T11:00:01Z", "webTitle": "Parts of England see wettest January since records began", "webUrl": "https://www.theguardian.com/uk-news/2014/jan/30/england-wettest-january-records-began", "apiUrl": "https://content.guardianapis.com/uk-news/2014/jan/30/england-wettest-january-records-began", "isHosted": false, "pillarId": "pillar/news", "pillarName": "News"}, {"id": "environment/picture/2014/jan/30/columbus-crab-crosses-atlantic", "type": "picture", "sectionId": "environment", "sectionName": "Environment", "webPublicationDate": "2014-01-30T10:56:00Z", "webTitle": "Columbus crab crosses the Atlantic \u2013 big picture", "webUrl": "https://www.theguardian.com/environment/picture/2014/jan/30/columbus-crab-crosses-atlantic", "apiUrl": "https://content.guardianapis.com/environment/picture/2014/jan/30/columbus-crab-crosses-atlantic", "isHosted": false, "pillarId": "pillar/news", "pillarName": "News"}, {"id": "world/gallery/2014/jan/30/kenya-turns-flip-flops-into-art-in-pictures", "type": "gallery", "sectionId": "world", "sectionName": "World news", "webPublicationDate": "2014-01-30T10:31:48Z", "webTitle": "Kenya turns flip-flops into art - in pictures", "webUrl": "https://www.theguardian.com/world/gallery/2014/jan/30/kenya-turns-flip-flops-into-art-in-pictures", "apiUrl": "https://content.guardianapis.com/world/gallery/2014/jan/30/kenya-turns-flip-flops-into-art-in-pictures", "isHosted": false, "pillarId": "pillar/news", "pillarName": "News"}, {"id": "business/2014/jan/30/shell-shelves-alaskan-arctic-drilling-oil", "type": "article", "sectionId": "business", "sectionName": "Business", "webPublicationDate": "2014-01-30T10:02:00Z", "webTitle": "Shell shelves plan to drill in Alaskan Arctic this summer", "webUrl": "https://www.theguardian.com/business/2014/jan/30/shell-shelves-alaskan-arctic-drilling-oil", "apiUrl": "https://content.guardianapis.com/business/2014/jan/30/shell-shelves-alaskan-arctic-drilling-oil", "isHosted": false, "pillarId": "pillar/news", "pillarName": "News"}, {"id": "environment/2014/jan/29/somerset-river-dredging-floods-david-cameron", "type": "article", "sectionId": "environment", "sectionName": "Environment", "webPublicationDate": "2014-01-30T09:15:00Z", "webTitle": "UK floods: MoD steps in to send army to Somerset Levels", "webUrl": "https://www.theguardian.com/environment/2014/jan/29/somerset-river-dredging-floods-david-cameron", "apiUrl": "https://content.guardianapis.com/environment/2014/jan/29/somerset-river-dredging-floods-david-cameron", "isHosted": false, "pillarId": "pillar/news", "pillarName": "News"}, {"id": "cities/gallery/2014/jan/30/cities-urban-redevelopment-high-line", "type": "gallery", "sectionId": "cities", "sectionName": "Cities", "webPublicationDate": "2014-01-30T08:00:00Z", "webTitle": "Greening the cities - in pictures", "webUrl": "https://www.theguardian.com/cities/gallery/2014/jan/30/cities-urban-redevelopment-high-line", "apiUrl": "https://content.guardianapis.com/cities/gallery/2014/jan/30/cities-urban-redevelopment-high-line", "isHosted": false, "pillarId": "pillar/news", "pillarName": "News"}, {"id": "cities/2014/jan/30/high-line-park-green-cities-industrial-pastoral", "type": "article", "sectionId": "cities", "sectionName": "Cities", "webPublicationDate": "2014-01-30T08:00:00Z", "webTitle": "High Lines and park life: why more green isn't always greener for cities", "webUrl": "https://www.theguardian.com/cities/2014/jan/30/high-line-park-green-cities-industrial-pastoral", "apiUrl": "https://content.guardianapis.com/cities/2014/jan/30/high-line-park-green-cities-industrial-pastoral", "isHosted": false, "pillarId": "pillar/news", "pillarName": "News"}, {"id": "world/gallery/2014/jan/30/animals-take-a-swim-in-pictures", "type": "gallery", "sectionId": "world", "sectionName": "World news", "webPublicationDate": "2014-01-30T07:00:12Z", "webTitle": "Animals take a swim \u2013 in pictures", "webUrl": "https://www.theguardian.com/world/gallery/2014/jan/30/animals-take-a-swim-in-pictures", "apiUrl": "https://content.guardianapis.com/world/gallery/2014/jan/30/animals-take-a-swim-in-pictures", "isHosted": false, "pillarId": "pillar/news", "pillarName": "News"}, {"id": "world/2014/jan/30/kenyan-firm-turns-flip-flops-into-art", "type": "article", "sectionId": "world", "sectionName": "World news", "webPublicationDate": "2014-01-30T07:00:00Z", "webTitle": "Kenyan firm turns flip-flops into art", "webUrl": "https://www.theguardian.com/world/2014/jan/30/kenyan-firm-turns-flip-flops-into-art", "apiUrl": "https://content.guardianapis.com/world/2014/jan/30/kenyan-firm-turns-flip-flops-into-art", "isHosted": false, "pillarId": "pillar/news", "pillarName": "News"}, {"id": "environment/2014/jan/30/scientists-launch-bio-robots-indian-ocean-study-internal-biology", "type": "article", "sectionId": "environment", "sectionName": "Environment", "webPublicationDate": "2014-01-30T05:57:20Z", "webTitle": "Scientists to launch bio robots in Indian Ocean to study its \u2018interior biology\u2019", "webUrl": "https://www.theguardian.com/environment/2014/jan/30/scientists-launch-bio-robots-indian-ocean-study-internal-biology", "apiUrl": "https://content.guardianapis.com/environment/2014/jan/30/scientists-launch-bio-robots-indian-ocean-study-internal-biology", "isHosted": false, "pillarId": "pillar/news", "pillarName": "News"}, {"id": "lifeandstyle/2014/jan/30/unpasteurised-milk-regulations-fsa", "type": "article", "sectionId": "food", "sectionName": "Food", "webPublicationDate": "2014-01-30T00:05:01Z", "webTitle": "Farm sales of unpasteurised milk should remain legal, says FSA", "webUrl": "https://www.theguardian.com/lifeandstyle/2014/jan/30/unpasteurised-milk-regulations-fsa", "apiUrl": "https://content.guardianapis.com/lifeandstyle/2014/jan/30/unpasteurised-milk-regulations-fsa", "isHosted": false, "pillarId": "pillar/lifestyle", "pillarName": "Lifestyle"}, {"id": "environment/2014/jan/29/monarch-butterfly-decline-mexico", "type": "article", "sectionId": "environment", "sectionName": "Environment", "webPublicationDate": "2014-01-29T23:46:26Z", "webTitle": "Monarch butterfly decline leads to warning over famed migration", "webUrl": "https://www.theguardian.com/environment/2014/jan/29/monarch-butterfly-decline-mexico", "apiUrl": "https://content.guardianapis.com/environment/2014/jan/29/monarch-butterfly-decline-mexico", "isHosted": false, "pillarId": "pillar/news", "pillarName": "News"}, {"id": "environment/the-northerner/2014/jan/29/crook-county-durham-orb-shell-cockles", "type": "article", "sectionId": "environment", "sectionName": "Environment", "webPublicationDate": "2014-01-29T21:00:00Z", "webTitle": "Country diary: Crook, County Durham: Some of the orb-shell cockles were as fragile as a new-born's fingernail", "webUrl": "https://www.theguardian.com/environment/the-northerner/2014/jan/29/crook-county-durham-orb-shell-cockles", "apiUrl": "https://content.guardianapis.com/environment/the-northerner/2014/jan/29/crook-county-durham-orb-shell-cockles", "isHosted": false, "pillarId": "pillar/news", "pillarName": "News"}, {"id": "commentisfree/2014/jan/29/why-iceland-wanted-bin-theft-case-dropped", "type": "article", "sectionId": "commentisfree", "sectionName": "Opinion", "webPublicationDate": "2014-01-29T19:45:00Z", "webTitle": "Why Iceland wanted the bin theft case dropped | Malcolm Walker", "webUrl": "https://www.theguardian.com/commentisfree/2014/jan/29/why-iceland-wanted-bin-theft-case-dropped", "apiUrl": "https://content.guardianapis.com/commentisfree/2014/jan/29/why-iceland-wanted-bin-theft-case-dropped", "isHosted": false, "pillarId": "pillar/opinion", "pillarName": "Opinion"}, {"id": "music/2014/jan/29/pete-seeger-hudson-river-new-york", "type": "article", "sectionId": "music", "sectionName": "Music", "webPublicationDate": "2014-01-29T18:48:42Z", "webTitle": "Pete Seeger's greatest legacy? Saving New York's Hudson river", "webUrl": "https://www.theguardian.com/music/2014/jan/29/pete-seeger-hudson-river-new-york", "apiUrl": "https://content.guardianapis.com/music/2014/jan/29/pete-seeger-hudson-river-new-york", "isHosted": false, "pillarId": "pillar/arts", "pillarName": "Arts"}, {"id": "environment/2014/jan/29/bees-pollen-pesticides-ban", "type": "article", "sectionId": "environment", "sectionName": "Environment", "webPublicationDate": "2014-01-29T17:50:52Z", "webTitle": "Pesticides halve bees' pollen gathering ability, research shows", "webUrl": "https://www.theguardian.com/environment/2014/jan/29/bees-pollen-pesticides-ban", "apiUrl": "https://content.guardianapis.com/environment/2014/jan/29/bees-pollen-pesticides-ban", "isHosted": false, "pillarId": "pillar/news", "pillarName": "News"}, {"id": "environment/2014/jan/29/flooding-england-private-funding-scheme", "type": "article", "sectionId": "environment", "sectionName": "Environment", "webPublicationDate": "2014-01-29T17:25:16Z", "webTitle": "Private funding adds just 2% for flood defences in England", "webUrl": "https://www.theguardian.com/environment/2014/jan/29/flooding-england-private-funding-scheme", "apiUrl": "https://content.guardianapis.com/environment/2014/jan/29/flooding-england-private-funding-scheme", "isHosted": false, "pillarId": "pillar/news", "pillarName": "News"}, {"id": "environment/2014/jan/29/uk-10-million-homes-solar-panels-2020", "type": "article", "sectionId": "environment", "sectionName": "Environment", "webPublicationDate": "2014-01-29T16:50:49Z", "webTitle": "UK should have 10 million homes with solar panels by 2020, experts say", "webUrl": "https://www.theguardian.com/environment/2014/jan/29/uk-10-million-homes-solar-panels-2020", "apiUrl": "https://content.guardianapis.com/environment/2014/jan/29/uk-10-million-homes-solar-panels-2020", "isHosted": false, "pillarId": "pillar/news", "pillarName": "News"}, {"id": "environment/blog/2014/jan/29/drax-coal-case-police", "type": "article", "sectionId": "environment", "sectionName": "Environment", "webPublicationDate": "2014-01-29T16:26:34Z", "webTitle": "Drax coal case shows police cannot be trusted to investigate themselves | Robbie Gillett", "webUrl": "https://www.theguardian.com/environment/blog/2014/jan/29/drax-coal-case-police", "apiUrl": "https://content.guardianapis.com/environment/blog/2014/jan/29/drax-coal-case-police", "isHosted": false, "pillarId": "pillar/news", "pillarName": "News"}, {"id": "uk-news/video/2014/jan/29/2013-weather-systems-60-seconds-video", "type": "video", "sectionId": "uk-news", "sectionName": "UK news", "webPublicationDate": "2014-01-29T16:17:00Z", "webTitle": "2013's weather systems in 60 seconds \u2013 video", "webUrl": "https://www.theguardian.com/uk-news/video/2014/jan/29/2013-weather-systems-60-seconds-video", "apiUrl": "https://content.guardianapis.com/uk-news/video/2014/jan/29/2013-weather-systems-60-seconds-video", "isHosted": false, "pillarId": "pillar/news", "pillarName": "News"}, {"id": "environment/2014/jan/29/beavers-dam-flooding-owen-paterson", "type": "article", "sectionId": "environment", "sectionName": "Environment", "webPublicationDate": "2014-01-29T16:15:12Z", "webTitle": "Bring back beavers to control flooding, environment secretary told", "webUrl": "https://www.theguardian.com/environment/2014/jan/29/beavers-dam-flooding-owen-paterson", "apiUrl": "https://content.guardianapis.com/environment/2014/jan/29/beavers-dam-flooding-owen-paterson", "isHosted": false, "pillarId": "pillar/news", "pillarName": "News"}, {"id": "books/shortcuts/2014/jan/29/malcolm-gladwell-teach-ecoterrorist-nonviolent-protest", "type": "article", "sectionId": "books", "sectionName": "Books", "webPublicationDate": "2014-01-29T15:21:15Z", "webTitle": "Can Malcolm Gladwell teach an ecoterrorist nonviolent protest?", "webUrl": "https://www.theguardian.com/books/shortcuts/2014/jan/29/malcolm-gladwell-teach-ecoterrorist-nonviolent-protest", "apiUrl": "https://content.guardianapis.com/books/shortcuts/2014/jan/29/malcolm-gladwell-teach-ecoterrorist-nonviolent-protest", "isHosted": false, "pillarId": "pillar/arts", "pillarName": "Arts"}, {"id": "sustainable-business/collaboration-water-risk-kenya-nairobi-business-ngos-government", "type": "article", "sectionId": "sustainable-business", "sectionName": "Guardian Sustainable Business", "webPublicationDate": "2014-01-29T15:08:00Z", "webTitle": "Pre-competitive collaboration could be key to solving water risks in Kenya", "webUrl": "https://www.theguardian.com/sustainable-business/collaboration-water-risk-kenya-nairobi-business-ngos-government", "apiUrl": "https://content.guardianapis.com/sustainable-business/collaboration-water-risk-kenya-nairobi-business-ngos-government", "isHosted": false}, {"id": "environment/gallery/2014/jan/29/uk-floods-and-snow-your-images", "type": "gallery", "sectionId": "environment", "sectionName": "Environment", "webPublicationDate": "2014-01-29T15:07:23Z", "webTitle": "UK floods and snow: your images", "webUrl": "https://www.theguardian.com/environment/gallery/2014/jan/29/uk-floods-and-snow-your-images", "apiUrl": "https://content.guardianapis.com/environment/gallery/2014/jan/29/uk-floods-and-snow-your-images", "isHosted": false, "pillarId": "pillar/news", "pillarName": "News"}, {"id": "environment/2014/jan/29/norway-electric-cars-sale", "type": "article", "sectionId": "environment", "sectionName": "Environment", "webPublicationDate": "2014-01-29T14:48:10Z", "webTitle": "Norway has fallen in love with electric cars \u2013 but the affair is coming to an end", "webUrl": "https://www.theguardian.com/environment/2014/jan/29/norway-electric-cars-sale", "apiUrl": "https://content.guardianapis.com/environment/2014/jan/29/norway-electric-cars-sale", "isHosted": false, "pillarId": "pillar/news", "pillarName": "News"}, {"id": "environment/video/2014/jan/29/fracking-activist-vera-scroggins-video", "type": "video", "sectionId": "environment", "sectionName": "Environment", "webPublicationDate": "2014-01-29T13:58:00Z", "webTitle": "Fracking activist Vera Scroggins: 'I'm usually nice, but if they tell me I can't do something, I have to get stern' \u2013\u00a0video", "webUrl": "https://www.theguardian.com/environment/video/2014/jan/29/fracking-activist-vera-scroggins-video", "apiUrl": "https://content.guardianapis.com/environment/video/2014/jan/29/fracking-activist-vera-scroggins-video", "isHosted": false, "pillarId": "pillar/news", "pillarName": "News"}, {"id": "environment/2014/jan/29/vera-scroggins-fracking-activist-pennsylvania", "type": "article", "sectionId": "environment", "sectionName": "Environment", "webPublicationDate": "2014-01-29T13:44:53Z", "webTitle": "The anti-fracking activist barred from 312.5 sq miles of Pennsylvania", "webUrl": "https://www.theguardian.com/environment/2014/jan/29/vera-scroggins-fracking-activist-pennsylvania", "apiUrl": "https://content.guardianapis.com/environment/2014/jan/29/vera-scroggins-fracking-activist-pennsylvania", "isHosted": false, "pillarId": "pillar/news", "pillarName": "News"}, {"id": "environment/2014/jan/29/george-russell", "type": "article", "sectionId": "environment", "sectionName": "Environment", "webPublicationDate": "2014-01-29T11:53:21Z", "webTitle": "George Russell obituary", "webUrl": "https://www.theguardian.com/environment/2014/jan/29/george-russell", "apiUrl": "https://content.guardianapis.com/environment/2014/jan/29/george-russell", "isHosted": false, "pillarId": "pillar/news", "pillarName": "News"}, {"id": "culture-professionals-network/culture-professionals-blog/gallery/2014/jan/29/most-sustainable-shows-stage-in-pictures", "type": "gallery", "sectionId": "culture-professionals-network", "sectionName": "Culture professionals network", "webPublicationDate": "2014-01-29T11:48:00Z", "webTitle": "The most sustainable shows on stage \u2013 in pictures", "webUrl": "https://www.theguardian.com/culture-professionals-network/culture-professionals-blog/gallery/2014/jan/29/most-sustainable-shows-stage-in-pictures", "apiUrl": "https://content.guardianapis.com/culture-professionals-network/culture-professionals-blog/gallery/2014/jan/29/most-sustainable-shows-stage-in-pictures", "isHosted": false, "pillarId": "pillar/news", "pillarName": "News"}, {"id": "commentisfree/2014/jan/29/leard-blockade-twitter-portraits-from-the-frontline-at-maules-creek", "type": "article", "sectionId": "commentisfree", "sectionName": "Opinion", "webPublicationDate": "2014-01-29T01:08:50Z", "webTitle": "Leard blockade: Twitter portraits from the frontline at Maules Creek | Margo Kingston", "webUrl": "https://www.theguardian.com/commentisfree/2014/jan/29/leard-blockade-twitter-portraits-from-the-frontline-at-maules-creek", "apiUrl": "https://content.guardianapis.com/commentisfree/2014/jan/29/leard-blockade-twitter-portraits-from-the-frontline-at-maules-creek", "isHosted": false, "pillarId": "pillar/opinion", "pillarName": "Opinion"}, {"id": "business/2014/jan/29/rivals-follow-tesco-reveal-amount-food-waste", "type": "article", "sectionId": "business", "sectionName": "Business", "webPublicationDate": "2014-01-29T00:02:00Z", "webTitle": "Rivals to follow Tesco in revealing amount of food wasted", "webUrl": "https://www.theguardian.com/business/2014/jan/29/rivals-follow-tesco-reveal-amount-food-waste", "apiUrl": "https://content.guardianapis.com/business/2014/jan/29/rivals-follow-tesco-reveal-amount-food-waste", "isHosted": false, "pillarId": "pillar/news", "pillarName": "News"}, {"id": "environment/2014/jan/28/bere-alston-tamar-valley-landslip", "type": "article", "sectionId": "environment", "sectionName": "Environment", "webPublicationDate": "2014-01-28T20:59:00Z", "webTitle": "Country diary: Bere Alston, Tamar Valley: After the landslip, riverside life goes on beneath the viaduct's graceful arches", "webUrl": "https://www.theguardian.com/environment/2014/jan/28/bere-alston-tamar-valley-landslip", "apiUrl": "https://content.guardianapis.com/environment/2014/jan/28/bere-alston-tamar-valley-landslip", "isHosted": false, "pillarId": "pillar/news", "pillarName": "News"}]}}