{"response": {"status": "ok", "userTier": "developer", "total": 19757, "startIndex": 1, "pageSize": 50, "currentPage": 1, "pages": 396, "orderBy": "newest", "results": [{"id": "commentisfree/emma-brockes-blog/2014/jan/30/let-them-eat-cake-for-breakfast", "type": "article", "sectionId": "commentisfree", "sectionName": "Opinion", "webPublicationDate": "2014-01-30T14:00:00Z", "webTitle": "Let them eat cake for breakfast? The latest fad in dieting | Emma Brockes", "webUrl": "https://www.theguardian.com/commentisfree/emma-brockes-blog/2014/jan/30/let-them-eat-cake-for-breakfast", "apiUrl": "https://content.guardianapis.com/commentisfree/emma-brockes-blog/2014/jan/30/let-them-eat-cake-for-breakfast", "isHosted": false, "pillarId": "pillar/opinion", "pillarName": "Opinion"}, {"id": "society/video/2014/jan/30/peanut-allergy-treatment-cambridge-video", "type": "video", "sectionId": "society", "sectionName": "Society", "webPublicationDate": "2014-01-30T12:40:00Z", "webTitle": "Peanut allergy treatment developed at Cambridge \u2013 video report", "webUrl": "https://www.theguardian.com/society/video/2014/jan/30/peanut-allergy-treatment-cambridge-video", "apiUrl": "https://content.guardianapis.com/society/video/2014/jan/30/peanut-allergy-treatment-cambridge-video", "isHosted": false, "pillarId": "pillar/news", "pillarName": "News"}, {"id": "lifeandstyle/wordofmouth/2014/jan/30/breakfast-lunch-dinner-porridge-eggs-full-english", "type": "article", "sectionId": "lifeandstyle", "sectionName": "Life and style", "webPublicationDate": "2014-01-30T11:25:05Z", "webTitle": "Breakfast: delicious for lunch and dinner", "webUrl": "https://www.theguardian.com/lifeandstyle/wordofmouth/2014/jan/30/breakfast-lunch-dinner-porridge-eggs-full-english", "apiUrl": "https://content.guardianapis.com/lifeandstyle/wordofmouth/2014/jan/30/breakfast-lunch-dinner-porridge-eggs-full-english", "isHosted": false, "pillarId": "pillar/lifestyle", "pillarName": "Lifestyle"}, {"id": "lifeandstyle/wordofmouth/2014/jan/30/how-to-cook-perfect-chicken-satay", "type": "article", "sectionId": "food", "sectionName": "Food", "webPublicationDate": "2014-01-30T07:00:00Z", "webTitle": "How to cook the perfect chicken satay", "webUrl": "https://www.theguardian.com/lifeandstyle/wordofmouth/2014/jan/30/how-to-cook-perfect-chicken-satay", "apiUrl": "https://content.guardianapis.com/lifeandstyle/wordofmouth/2014/jan/30/how-to-cook-perfect-chicken-satay", "isHosted": false, "pillarId": "pillar/lifestyle", "pillarName": "Lifestyle"}, {"id": "lifeandstyle/2014/jan/30/unpasteurised-milk-regulations-fsa", "type": "article", "sectionId": "food", "sectionName": "Food", "webPublicationDate": "2014-01-30T00:05:01Z", "webTitle": "Farm sales of unpasteurised milk should remain legal, says FSA", "webUrl": "https://www.theguardian.com/lifeandstyle/2014/jan/30/unpasteurised-milk-regulations-fsa", "apiUrl": "https://content.guardianapis.com/lifeandstyle/2014/jan/30/unpasteurised-milk-regulations-fsa", "isHosted": false, "pillarId": "pillar/lifestyle", "pillarName": "Lifestyle"}, {"id": "lifeandstyle/shortcuts/2014/jan/29/skipping-food-waste-supermarkets-dumpster-diving", "type": "article", "sectionId": "food", "sectionName": "Food", "webPublicationDate": "2014-01-29T15:42:23Z", "webTitle": "Skipping: is there anything wrong with taking the food that supermarkets throw away?", "webUrl": "https://www.theguardian.com/lifeandstyle/shortcuts/2014/jan/29/skipping-food-waste-supermarkets-dumpster-diving", "apiUrl": "https://content.guardianapis.com/lifeandstyle/shortcuts/2014/jan/29/skipping-food-waste-supermarkets-dumpster-diving", "isHosted": false, "pillarId": "pillar/lifestyle", "pillarName": "Lifestyle"}, {"id": "lifeandstyle/wordofmouth/2014/jan/29/dont-mourn-jamie-oliver-union-jacks-empire", "type": "article", "sectionId": "food", "sectionName": "Food", "webPublicationDate": "2014-01-29T13:48:26Z", "webTitle": "Don't mourn the sun going down on Jamie Oliver's Union Jacks empire", "webUrl": "https://www.theguardian.com/lifeandstyle/wordofmouth/2014/jan/29/dont-mourn-jamie-oliver-union-jacks-empire", "apiUrl": "https://content.guardianapis.com/lifeandstyle/wordofmouth/2014/jan/29/dont-mourn-jamie-oliver-union-jacks-empire", "isHosted": false, "pillarId": "pillar/lifestyle", "pillarName": "Lifestyle"}, {"id": "lifeandstyle/2014/jan/29/regional-chinese-food-britain-sichuan-hunan", "type": "article", "sectionId": "food", "sectionName": "Food", "webPublicationDate": "2014-01-29T12:22:28Z", "webTitle": "Forget crispy duck: regional Chinese food is taking over Britain", "webUrl": "https://www.theguardian.com/lifeandstyle/2014/jan/29/regional-chinese-food-britain-sichuan-hunan", "apiUrl": "https://content.guardianapis.com/lifeandstyle/2014/jan/29/regional-chinese-food-britain-sichuan-hunan", "isHosted": false, "pillarId": "pillar/lifestyle", "pillarName": "Lifestyle"}, {"id": "lifeandstyle/2014/jan/29/jack-monroe-cauliflower-bacon-carbonara-recipe", "type": "article", "sectionId": "lifeandstyle", "sectionName": "Life and style", "webPublicationDate": "2014-01-29T10:38:00Z", "webTitle": "Jack Monroe's cauliflower and bacon carbonara recipe", "webUrl": "https://www.theguardian.com/lifeandstyle/2014/jan/29/jack-monroe-cauliflower-bacon-carbonara-recipe", "apiUrl": "https://content.guardianapis.com/lifeandstyle/2014/jan/29/jack-monroe-cauliflower-bacon-carbonara-recipe", "isHosted": false, "pillarId": "pillar/lifestyle", "pillarName": "Lifestyle"}, {"id": "lifeandstyle/australia-food-blog/2014/jan/29/gelato-taste-sensation", "type": "article", "sectionId": "food", "sectionName": "Food", "webPublicationDate": "2014-01-29T05:11:11Z", "webTitle": "Who makes Australia's best gelati?", "webUrl": "https://www.theguardian.com/lifeandstyle/australia-food-blog/2014/jan/29/gelato-taste-sensation", "apiUrl": "https://content.guardianapis.com/lifeandstyle/australia-food-blog/2014/jan/29/gelato-taste-sensation", "isHosted": false, "pillarId": "pillar/lifestyle", "pillarName": "Lifestyle"}, {"id": "lifeandstyle/2014/jan/28/experts-use-salt-in-cooking-why", "type": "article", "sectionId": "lifeandstyle", "sectionName": "Life and style", "webPublicationDate": "2014-01-28T12:57:53Z", "webTitle": "How the experts use salt in their cooking \u2013 and why", "webUrl": "https://www.theguardian.com/lifeandstyle/2014/jan/28/experts-use-salt-in-cooking-why", "apiUrl": "https://content.guardianapis.com/lifeandstyle/2014/jan/28/experts-use-salt-in-cooking-why", "isHosted": false, "pillarId": "pillar/lifestyle", "pillarName": "Lifestyle"}, {"id": "travel/2014/jan/28/pay-what-you-want-restaurants-around-world", "type": "article", "sectionId": "travel", "sectionName": "Travel", "webPublicationDate": "2014-01-28T05:59:00Z", "webTitle": "Pay-what-you-want restaurants around the world", "webUrl": "https://www.theguardian.com/travel/2014/jan/28/pay-what-you-want-restaurants-around-world", "apiUrl": "https://content.guardianapis.com/travel/2014/jan/28/pay-what-you-want-restaurants-around-world", "isHosted": false, "pillarId": "pillar/lifestyle", "pillarName": "Lifestyle"}, {"id": "lifeandstyle/wordofmouth/2014/jan/27/hotdogs-beef-pork-mustard-beer", "type": "article", "sectionId": "food", "sectionName": "Food", "webPublicationDate": "2014-01-27T12:26:00Z", "webTitle": "How to eat: hotdogs", "webUrl": "https://www.theguardian.com/lifeandstyle/wordofmouth/2014/jan/27/hotdogs-beef-pork-mustard-beer", "apiUrl": "https://content.guardianapis.com/lifeandstyle/wordofmouth/2014/jan/27/hotdogs-beef-pork-mustard-beer", "isHosted": false, "pillarId": "pillar/lifestyle", "pillarName": "Lifestyle"}, {"id": "lifeandstyle/2014/jan/27/why-leeks-are-good-for-you", "type": "article", "sectionId": "lifeandstyle", "sectionName": "Life and style", "webPublicationDate": "2014-01-27T07:00:00Z", "webTitle": "Why leeks are good for you", "webUrl": "https://www.theguardian.com/lifeandstyle/2014/jan/27/why-leeks-are-good-for-you", "apiUrl": "https://content.guardianapis.com/lifeandstyle/2014/jan/27/why-leeks-are-good-for-you", "isHosted": false, "pillarId": "pillar/lifestyle", "pillarName": "Lifestyle"}, {"id": "tv-and-radio/australia-culture-blog/2014/jan/27/my-kitchen-rules-people-pushed-to-breaking-point-screaming-at-food", "type": "article", "sectionId": "tv-and-radio", "sectionName": "Television & radio", "webPublicationDate": "2014-01-27T01:54:53Z", "webTitle": "My Kitchen Rules: people pushed to breaking point screaming at food", "webUrl": "https://www.theguardian.com/tv-and-radio/australia-culture-blog/2014/jan/27/my-kitchen-rules-people-pushed-to-breaking-point-screaming-at-food", "apiUrl": "https://content.guardianapis.com/tv-and-radio/australia-culture-blog/2014/jan/27/my-kitchen-rules-people-pushed-to-breaking-point-screaming-at-food", "isHosted": false, "pillarId": "pillar/arts", "pillarName": "Arts"}, {"id": "lifeandstyle/2014/jan/26/roux-at-parliament-square-restaurant-review-jay-rayner", "type": "article", "sectionId": "food", "sectionName": "Food", "webPublicationDate": "2014-01-26T07:30:00Z", "webTitle": "Roux at Parliament Square: restaurant review | Jay Rayner", "webUrl": "https://www.theguardian.com/lifeandstyle/2014/jan/26/roux-at-parliament-square-restaurant-review-jay-rayner", "apiUrl": "https://content.guardianapis.com/lifeandstyle/2014/jan/26/roux-at-parliament-square-restaurant-review-jay-rayner", "isHosted": false, "pillarId": "pillar/lifestyle", "pillarName": "Lifestyle"}, {"id": "commentisfree/2014/jan/25/are-motorway-pubs-good-idea-debate-jd-wetherspoon-m40", "type": "article", "sectionId": "commentisfree", "sectionName": "Opinion", "webPublicationDate": "2014-01-25T17:37:00Z", "webTitle": "Are motorway pubs a good idea?", "webUrl": "https://www.theguardian.com/commentisfree/2014/jan/25/are-motorway-pubs-good-idea-debate-jd-wetherspoon-m40", "apiUrl": "https://content.guardianapis.com/commentisfree/2014/jan/25/are-motorway-pubs-good-idea-debate-jd-wetherspoon-m40", "isHosted": false, "pillarId": "pillar/opinion", "pillarName": "Opinion"}, {"id": "lifeandstyle/2014/jan/25/south-africa-wines-chenin-sauvignon-blanc-organic-syrah", "type": "article", "sectionId": "food", "sectionName": "Food", "webPublicationDate": "2014-01-25T13:00:00Z", "webTitle": "Three wines to celebrate South Africa | David Williams", "webUrl": "https://www.theguardian.com/lifeandstyle/2014/jan/25/south-africa-wines-chenin-sauvignon-blanc-organic-syrah", "apiUrl": "https://content.guardianapis.com/lifeandstyle/2014/jan/25/south-africa-wines-chenin-sauvignon-blanc-organic-syrah", "isHosted": false, "pillarId": "pillar/lifestyle", "pillarName": "Lifestyle"}, {"id": "lifeandstyle/2014/jan/25/single-grain-whisky-review", "type": "article", "sectionId": "food", "sectionName": "Food", "webPublicationDate": "2014-01-25T09:00:00Z", "webTitle": "Whisky: a new taste for Burns Night celebrations", "webUrl": "https://www.theguardian.com/lifeandstyle/2014/jan/25/single-grain-whisky-review", "apiUrl": "https://content.guardianapis.com/lifeandstyle/2014/jan/25/single-grain-whisky-review", "isHosted": false, "pillarId": "pillar/lifestyle", "pillarName": "Lifestyle"}, {"id": "lifeandstyle/2014/jan/25/dad-hair-ritual-tom-lehrer-mum-trifle", "type": "article", "sectionId": "lifeandstyle", "sectionName": "Life and style", "webPublicationDate": "2014-01-25T07:45:00Z", "webTitle": "Family life: Dad's hair-combing ritual, the naughty Tom Lehrer and Mum's 'trifle'", "webUrl": "https://www.theguardian.com/lifeandstyle/2014/jan/25/dad-hair-ritual-tom-lehrer-mum-trifle", "apiUrl": "https://content.guardianapis.com/lifeandstyle/2014/jan/25/dad-hair-ritual-tom-lehrer-mum-trifle", "isHosted": false, "pillarId": "pillar/lifestyle", "pillarName": "Lifestyle"}, {"id": "lifeandstyle/2014/jan/25/make-your-own-fresh-pasta", "type": "article", "sectionId": "lifeandstyle", "sectionName": "Life and style", "webPublicationDate": "2014-01-25T07:00:22Z", "webTitle": "Make your own fresh pasta", "webUrl": "https://www.theguardian.com/lifeandstyle/2014/jan/25/make-your-own-fresh-pasta", "apiUrl": "https://content.guardianapis.com/lifeandstyle/2014/jan/25/make-your-own-fresh-pasta", "isHosted": false, "pillarId": "pillar/lifestyle", "pillarName": "Lifestyle"}, {"id": "lifeandstyle/2014/jan/25/ruby-tandoh-honey-treacle-tart-recipe-ruby-bakes", "type": "article", "sectionId": "lifeandstyle", "sectionName": "Life and style", "webPublicationDate": "2014-01-25T07:00:00Z", "webTitle": "Ruby Tandoh's honey treacle tart recipe | Ruby bakes", "webUrl": "https://www.theguardian.com/lifeandstyle/2014/jan/25/ruby-tandoh-honey-treacle-tart-recipe-ruby-bakes", "apiUrl": "https://content.guardianapis.com/lifeandstyle/2014/jan/25/ruby-tandoh-honey-treacle-tart-recipe-ruby-bakes", "isHosted": false, "pillarId": "pillar/lifestyle", "pillarName": "Lifestyle"}, {"id": "lifeandstyle/2014/jan/25/seaweed-cracker-biscuits-stag-bakeries-isle-of-lewis", "type": "article", "sectionId": "lifeandstyle", "sectionName": "Life and style", "webPublicationDate": "2014-01-25T07:00:00Z", "webTitle": "Crackers: the baker who puts seaweed in his biscuits | Meet the producer", "webUrl": "https://www.theguardian.com/lifeandstyle/2014/jan/25/seaweed-cracker-biscuits-stag-bakeries-isle-of-lewis", "apiUrl": "https://content.guardianapis.com/lifeandstyle/2014/jan/25/seaweed-cracker-biscuits-stag-bakeries-isle-of-lewis", "isHosted": false, "pillarId": "pillar/lifestyle", "pillarName": "Lifestyle"}, {"id": "lifeandstyle/2014/jan/25/burns-night-haggis-get-togethers", "type": "article", "sectionId": "lifeandstyle", "sectionName": "Life and style", "webPublicationDate": "2014-01-25T07:00:00Z", "webTitle": "Burnsing down the house | Get-togethers", "webUrl": "https://www.theguardian.com/lifeandstyle/2014/jan/25/burns-night-haggis-get-togethers", "apiUrl": "https://content.guardianapis.com/lifeandstyle/2014/jan/25/burns-night-haggis-get-togethers", "isHosted": false, "pillarId": "pillar/lifestyle", "pillarName": "Lifestyle"}, {"id": "lifeandstyle/2014/jan/25/potato-sweet-potato-recipes-10-best", "type": "article", "sectionId": "lifeandstyle", "sectionName": "Life and style", "webPublicationDate": "2014-01-25T07:00:00Z", "webTitle": "The 10 best potato recipes", "webUrl": "https://www.theguardian.com/lifeandstyle/2014/jan/25/potato-sweet-potato-recipes-10-best", "apiUrl": "https://content.guardianapis.com/lifeandstyle/2014/jan/25/potato-sweet-potato-recipes-10-best", "isHosted": false, "pillarId": "pillar/lifestyle", "pillarName": "Lifestyle"}, {"id": "lifeandstyle/2014/jan/25/readers-recipe-swap-citrus-orange-lemon-lime-recipes", "type": "article", "sectionId": "lifeandstyle", "sectionName": "Life and style", "webPublicationDate": "2014-01-25T06:59:00Z", "webTitle": "Readers' recipe swap: citrus", "webUrl": "https://www.theguardian.com/lifeandstyle/2014/jan/25/readers-recipe-swap-citrus-orange-lemon-lime-recipes", "apiUrl": "https://content.guardianapis.com/lifeandstyle/2014/jan/25/readers-recipe-swap-citrus-orange-lemon-lime-recipes", "isHosted": false, "pillarId": "pillar/lifestyle", "pillarName": "Lifestyle"}, {"id": "lifeandstyle/2014/jan/24/blanca-new-york-restaurant-review", "type": "article", "sectionId": "lifeandstyle", "sectionName": "Life and style", "webPublicationDate": "2014-01-24T22:00:00Z", "webTitle": "Blanca, New York: restaurant review | Marina O'Loughlin", "webUrl": "https://www.theguardian.com/lifeandstyle/2014/jan/24/blanca-new-york-restaurant-review", "apiUrl": "https://content.guardianapis.com/lifeandstyle/2014/jan/24/blanca-new-york-restaurant-review", "isHosted": false, "pillarId": "pillar/lifestyle", "pillarName": "Lifestyle"}, {"id": "society/2014/jan/24/children-supermarket-checkouts-unhealthy-study", "type": "article", "sectionId": "society", "sectionName": "Society", "webPublicationDate": "2014-01-24T17:42:06Z", "webTitle": "90% of food displayed to children at checkouts unhealthy, study finds", "webUrl": "https://www.theguardian.com/society/2014/jan/24/children-supermarket-checkouts-unhealthy-study", "apiUrl": "https://content.guardianapis.com/society/2014/jan/24/children-supermarket-checkouts-unhealthy-study", "isHosted": false, "pillarId": "pillar/news", "pillarName": "News"}, {"id": "lifeandstyle/2014/jan/24/italian-malfatti-recipe", "type": "article", "sectionId": "food", "sectionName": "Food", "webPublicationDate": "2014-01-24T15:15:09Z", "webTitle": "How to make Italian malfatti \u2013 recipe", "webUrl": "https://www.theguardian.com/lifeandstyle/2014/jan/24/italian-malfatti-recipe", "apiUrl": "https://content.guardianapis.com/lifeandstyle/2014/jan/24/italian-malfatti-recipe", "isHosted": false, "pillarId": "pillar/lifestyle", "pillarName": "Lifestyle"}, {"id": "lifeandstyle/2014/jan/24/how-to-make-parsnip-soup-beetroot-gratin", "type": "article", "sectionId": "food", "sectionName": "Food", "webPublicationDate": "2014-01-24T12:30:00Z", "webTitle": "How to make parsnip soup and beetroot gratin | Back to basics", "webUrl": "https://www.theguardian.com/lifeandstyle/2014/jan/24/how-to-make-parsnip-soup-beetroot-gratin", "apiUrl": "https://content.guardianapis.com/lifeandstyle/2014/jan/24/how-to-make-parsnip-soup-beetroot-gratin", "isHosted": false, "pillarId": "pillar/lifestyle", "pillarName": "Lifestyle"}, {"id": "lifeandstyle/2014/jan/24/gluten-free-dairy-free-baklava-pistachio", "type": "article", "sectionId": "lifeandstyle", "sectionName": "Life and style", "webPublicationDate": "2014-01-24T12:30:00Z", "webTitle": "Gluten-and dairy-free pistachio bird's nest baklava | Just as tasty", "webUrl": "https://www.theguardian.com/lifeandstyle/2014/jan/24/gluten-free-dairy-free-baklava-pistachio", "apiUrl": "https://content.guardianapis.com/lifeandstyle/2014/jan/24/gluten-free-dairy-free-baklava-pistachio", "isHosted": false, "pillarId": "pillar/lifestyle", "pillarName": "Lifestyle"}, {"id": "lifeandstyle/wordofmouth/2014/jan/24/three-amazing-alternative-haggis-recipes-burns-night", "type": "article", "sectionId": "food", "sectionName": "Food", "webPublicationDate": "2014-01-24T11:40:00Z", "webTitle": "Three amazing alternative haggis recipes for Burns night", "webUrl": "https://www.theguardian.com/lifeandstyle/wordofmouth/2014/jan/24/three-amazing-alternative-haggis-recipes-burns-night", "apiUrl": "https://content.guardianapis.com/lifeandstyle/wordofmouth/2014/jan/24/three-amazing-alternative-haggis-recipes-burns-night", "isHosted": false, "pillarId": "pillar/lifestyle", "pillarName": "Lifestyle"}, {"id": "lifeandstyle/video/2014/jan/24/scottish-island-bakery-biscuits-video", "type": "video", "sectionId": "lifeandstyle", "sectionName": "Life and style", "webPublicationDate": "2014-01-24T11:09:00Z", "webTitle": "The Scottish island bakery that supplies delicious biscuits to the world \u2013 video", "webUrl": "https://www.theguardian.com/lifeandstyle/video/2014/jan/24/scottish-island-bakery-biscuits-video", "apiUrl": "https://content.guardianapis.com/lifeandstyle/video/2014/jan/24/scottish-island-bakery-biscuits-video", "isHosted": false, "pillarId": "pillar/lifestyle", "pillarName": "Lifestyle"}, {"id": "lifeandstyle/australia-food-blog/2014/jan/24/burgers-beetroot-great-australian-dish", "type": "article", "sectionId": "lifeandstyle", "sectionName": "Life and style", "webPublicationDate": "2014-01-24T00:35:50Z", "webTitle": "Burgers with beetroot: a great Australian dish", "webUrl": "https://www.theguardian.com/lifeandstyle/australia-food-blog/2014/jan/24/burgers-beetroot-great-australian-dish", "apiUrl": "https://content.guardianapis.com/lifeandstyle/australia-food-blog/2014/jan/24/burgers-beetroot-great-australian-dish", "isHosted": false, "pillarId": "pillar/lifestyle", "pillarName": "Lifestyle"}, {"id": "sustainable-business/pepsi-higher-levels-chemical-health-warning-new-study", "type": "article", "sectionId": "sustainable-business", "sectionName": "Guardian Sustainable Business", "webPublicationDate": "2014-01-23T20:59:00Z", "webTitle": "Are there carcinogens in your soda?", "webUrl": "https://www.theguardian.com/sustainable-business/pepsi-higher-levels-chemical-health-warning-new-study", "apiUrl": "https://content.guardianapis.com/sustainable-business/pepsi-higher-levels-chemical-health-warning-new-study", "isHosted": false}, {"id": "travel/video/2014/jan/23/fish-and-chip-shop-scarborough-yorkshire", "type": "video", "sectionId": "travel", "sectionName": "Travel", "webPublicationDate": "2014-01-23T17:10:00Z", "webTitle": "My favourite chippie - Scarborough's Harbour View Cafe - video", "webUrl": "https://www.theguardian.com/travel/video/2014/jan/23/fish-and-chip-shop-scarborough-yorkshire", "apiUrl": "https://content.guardianapis.com/travel/video/2014/jan/23/fish-and-chip-shop-scarborough-yorkshire", "isHosted": false, "pillarId": "pillar/lifestyle", "pillarName": "Lifestyle"}, {"id": "lifeandstyle/wordofmouth/2014/jan/23/teach-your-kids-good-eating-habits", "type": "article", "sectionId": "lifeandstyle", "sectionName": "Life and style", "webPublicationDate": "2014-01-23T12:43:15Z", "webTitle": "How to set a table to teach your kids good eating habits", "webUrl": "https://www.theguardian.com/lifeandstyle/wordofmouth/2014/jan/23/teach-your-kids-good-eating-habits", "apiUrl": "https://content.guardianapis.com/lifeandstyle/wordofmouth/2014/jan/23/teach-your-kids-good-eating-habits", "isHosted": false, "pillarId": "pillar/lifestyle", "pillarName": "Lifestyle"}, {"id": "global-development/quiz/2014/jan/23/how-well-do-you-know-your-ancient-grains", "type": "article", "sectionId": "global", "sectionName": "Global", "webPublicationDate": "2014-01-23T08:49:00Z", "webTitle": "Quiz: how well do you know your ancient grains?", "webUrl": "https://www.theguardian.com/global-development/quiz/2014/jan/23/how-well-do-you-know-your-ancient-grains", "apiUrl": "https://content.guardianapis.com/global-development/quiz/2014/jan/23/how-well-do-you-know-your-ancient-grains", "isHosted": false}, {"id": "global-development/2014/jan/23/quinoa-ethiopia-teff-super-grain", "type": "article", "sectionId": "global-development", "sectionName": "Global development", "webPublicationDate": "2014-01-23T08:00:00Z", "webTitle": "Move over quinoa, Ethiopia's teff poised to be next big super grain", "webUrl": "https://www.theguardian.com/global-development/2014/jan/23/quinoa-ethiopia-teff-super-grain", "apiUrl": "https://content.guardianapis.com/global-development/2014/jan/23/quinoa-ethiopia-teff-super-grain", "isHosted": false, "pillarId": "pillar/news", "pillarName": "News"}, {"id": "global-development/poverty-matters/2014/jan/23/get-taste-for-teff-ethiopia-superfood", "type": "article", "sectionId": "global-development", "sectionName": "Global development", "webPublicationDate": "2014-01-23T08:00:00Z", "webTitle": "Get a taste for teff, the Ethiopian superfood", "webUrl": "https://www.theguardian.com/global-development/poverty-matters/2014/jan/23/get-taste-for-teff-ethiopia-superfood", "apiUrl": "https://content.guardianapis.com/global-development/poverty-matters/2014/jan/23/get-taste-for-teff-ethiopia-superfood", "isHosted": false, "pillarId": "pillar/news", "pillarName": "News"}, {"id": "lifeandstyle/2014/jan/23/britains-best-fish-and-chip-shops", "type": "article", "sectionId": "food", "sectionName": "Food", "webPublicationDate": "2014-01-23T07:00:00Z", "webTitle": "Britain's best fish'n'chip shops", "webUrl": "https://www.theguardian.com/lifeandstyle/2014/jan/23/britains-best-fish-and-chip-shops", "apiUrl": "https://content.guardianapis.com/lifeandstyle/2014/jan/23/britains-best-fish-and-chip-shops", "isHosted": false, "pillarId": "pillar/lifestyle", "pillarName": "Lifestyle"}, {"id": "uk-news/the-northerner/2014/jan/22/mp-disses-hendersons-relish-and-incurs-the-wrath-of-sheffield-and-nick-clegg-gets-a-bit-cross", "type": "article", "sectionId": "uk-news", "sectionName": "UK news", "webPublicationDate": "2014-01-22T18:33:42Z", "webTitle": "MP disses Henderson's Relish and incurs the wrath of Sheffield (and Nick Clegg gets a bit cross)", "webUrl": "https://www.theguardian.com/uk-news/the-northerner/2014/jan/22/mp-disses-hendersons-relish-and-incurs-the-wrath-of-sheffield-and-nick-clegg-gets-a-bit-cross", "apiUrl": "https://content.guardianapis.com/uk-news/the-northerner/2014/jan/22/mp-disses-hendersons-relish-and-incurs-the-wrath-of-sheffield-and-nick-clegg-gets-a-bit-cross", "isHosted": false, "pillarId": "pillar/news", "pillarName": "News"}, {"id": "lifeandstyle/wordofmouth/2014/jan/22/how-to-make-perfect-tablet-recipe", "type": "article", "sectionId": "food", "sectionName": "Food", "webPublicationDate": "2014-01-22T12:31:00Z", "webTitle": "How to make the perfect tablet", "webUrl": "https://www.theguardian.com/lifeandstyle/wordofmouth/2014/jan/22/how-to-make-perfect-tablet-recipe", "apiUrl": "https://content.guardianapis.com/lifeandstyle/wordofmouth/2014/jan/22/how-to-make-perfect-tablet-recipe", "isHosted": false, "pillarId": "pillar/lifestyle", "pillarName": "Lifestyle"}, {"id": "lifeandstyle/2014/jan/22/jack-monroe-smoked-mackerel-fishcakes-recipe", "type": "article", "sectionId": "lifeandstyle", "sectionName": "Life and style", "webPublicationDate": "2014-01-22T11:00:56Z", "webTitle": "Jack Monroe's smoked mackerel, lemon and chilli fishcakes recipe", "webUrl": "https://www.theguardian.com/lifeandstyle/2014/jan/22/jack-monroe-smoked-mackerel-fishcakes-recipe", "apiUrl": "https://content.guardianapis.com/lifeandstyle/2014/jan/22/jack-monroe-smoked-mackerel-fishcakes-recipe", "isHosted": false, "pillarId": "pillar/lifestyle", "pillarName": "Lifestyle"}, {"id": "global-development-professionals-network/2014/jan/22/micronutrient-distribution-senegal-bangladesh", "type": "article", "sectionId": "global-development-professionals-network", "sectionName": "Global Development Professionals Network", "webPublicationDate": "2014-01-22T10:19:00Z", "webTitle": "The micronutrient distribution challenge", "webUrl": "https://www.theguardian.com/global-development-professionals-network/2014/jan/22/micronutrient-distribution-senegal-bangladesh", "apiUrl": "https://content.guardianapis.com/global-development-professionals-network/2014/jan/22/micronutrient-distribution-senegal-bangladesh", "isHosted": false, "pillarId": "pillar/news", "pillarName": "News"}, {"id": "lifeandstyle/australia-food-blog/2014/jan/22/food-in-season-surf-fishing-in-january", "type": "article", "sectionId": "lifeandstyle", "sectionName": "Life and style", "webPublicationDate": "2014-01-22T03:55:52Z", "webTitle": "Food in season: surf fishing in January", "webUrl": "https://www.theguardian.com/lifeandstyle/australia-food-blog/2014/jan/22/food-in-season-surf-fishing-in-january", "apiUrl": "https://content.guardianapis.com/lifeandstyle/australia-food-blog/2014/jan/22/food-in-season-surf-fishing-in-january", "isHosted": false, "pillarId": "pillar/lifestyle", "pillarName": "Lifestyle"}, {"id": "commentisfree/2014/jan/22/how-i-lost-weight-by-pledging-to-give-money-to-a-political-party-i-loathe", "type": "article", "sectionId": "commentisfree", "sectionName": "Opinion", "webPublicationDate": "2014-01-21T22:41:15Z", "webTitle": "How I lost weight by pledging to give money to a political party I loathe", "webUrl": "https://www.theguardian.com/commentisfree/2014/jan/22/how-i-lost-weight-by-pledging-to-give-money-to-a-political-party-i-loathe", "apiUrl": "https://content.guardianapis.com/commentisfree/2014/jan/22/how-i-lost-weight-by-pledging-to-give-money-to-a-political-party-i-loathe", "isHosted": false, "pillarId": "pillar/opinion", "pillarName": "Opinion"}, {"id": "uk-news/2014/jan/21/horsemeat-scandal-probe-failure-authorities-dates-back-1998-rotherham", "type": "article", "sectionId": "uk-news", "sectionName": "UK news", "webPublicationDate": "2014-01-21T15:56:59Z", "webTitle": "Horsemeat scandal: probe failure by authorities dates back to 1998", "webUrl": "https://www.theguardian.com/uk-news/2014/jan/21/horsemeat-scandal-probe-failure-authorities-dates-back-1998-rotherham", "apiUrl": "https://content.guardianapis.com/uk-news/2014/jan/21/horsemeat-scandal-probe-failure-authorities-dates-back-1998-rotherham", "isHosted": false, "pillarId": "pillar/news", "pillarName": "News"}, {"id": "environment/2014/jan/20/new-breed-truffler-culinary-gold", "type": "article", "sectionId": "environment", "sectionName": "Environment", "webPublicationDate": "2014-01-21T15:42:00Z", "webTitle": "New breed of English truffler digs for culinary gold", "webUrl": "https://www.theguardian.com/environment/2014/jan/20/new-breed-truffler-culinary-gold", "apiUrl": "https://content.guardianapis.com/environment/2014/jan/20/new-breed-truffler-culinary-gold", "isHosted": false, "pillarId": "pillar/news", "pillarName": "News"}, {"id": "world/2014/jan/21/cooked-breakfast-coffee-pint-motorway-pub-opens", "type": "article", "sectionId": "uk-news", "sectionName": "UK news", "webPublicationDate": "2014-01-21T14:32:14Z", "webTitle": "One for the road: cooked breakfast and a pint at UK's first motorway pub", "webUrl": "https://www.theguardian.com/world/2014/jan/21/cooked-breakfast-coffee-pint-motorway-pub-opens", "apiUrl": "https://content.guardianapis.com/world/2014/jan/21/cooked-breakfast-coffee-pint-motorway-pub-opens", "isHosted": false, "pillarId": "pillar/news", "pillarName": "News"}]}}