{"response": {"status": "ok", "userTier": "developer", "total": 22273, "startIndex": 1, "pageSize": 50, "currentPage": 1, "pages": 446, "orderBy": "newest", "results": [{"id": "lifeandstyle/2018/jan/30/rachel-roddys-recipe-for-pears-poached-in-red-wine", "type": "article", "sectionId": "food", "sectionName": "Food", "webPublicationDate": "2018-01-30T12:00:17Z", "webTitle": "Rachel Roddy's recipe for pears poached in red wine", "webUrl": "https://www.theguardian.com/lifeandstyle/2018/jan/30/rachel-roddys-recipe-for-pears-poached-in-red-wine", "apiUrl": "https://content.guardianapis.com/lifeandstyle/2018/jan/30/rachel-roddys-recipe-for-pears-poached-in-red-wine", "isHosted": false, "pillarId": "pillar/lifestyle", "pillarName": "Lifestyle"}, {"id": "lifeandstyle/2018/jan/30/buttermilk-panna-cotta-with-apricots-recipe-ruby-tandoh-the-sweet-spot", "type": "article", "sectionId": "food", "sectionName": "Food", "webPublicationDate": "2018-01-30T06:00:14Z", "webTitle": "Ruby Tandoh\u2019s buttermilk panna cotta with apricots recipe | The Sweet Spot", "webUrl": "https://www.theguardian.com/lifeandstyle/2018/jan/30/buttermilk-panna-cotta-with-apricots-recipe-ruby-tandoh-the-sweet-spot", "apiUrl": "https://content.guardianapis.com/lifeandstyle/2018/jan/30/buttermilk-panna-cotta-with-apricots-recipe-ruby-tandoh-the-sweet-spot", "isHosted": false, "pillarId": "pillar/lifestyle", "pillarName": "Lifestyle"}, {"id": "environment/2018/jan/29/simple-steps-to-save-the-planet-from-plastic", "type": "article", "sectionId": "environment", "sectionName": "Environment", "webPublicationDate": "2018-01-29T17:55:08Z", "webTitle": "Simple steps to save the planet from plastic | Letters", "webUrl": "https://www.theguardian.com/environment/2018/jan/29/simple-steps-to-save-the-planet-from-plastic", "apiUrl": "https://content.guardianapis.com/environment/2018/jan/29/simple-steps-to-save-the-planet-from-plastic", "isHosted": false, "pillarId": "pillar/news", "pillarName": "News"}, {"id": "lifeandstyle/2018/jan/29/magical-microbes-how-to-feed-your-gut", "type": "article", "sectionId": "lifeandstyle", "sectionName": "Life and style", "webPublicationDate": "2018-01-29T16:21:28Z", "webTitle": "How to feed your gut", "webUrl": "https://www.theguardian.com/lifeandstyle/2018/jan/29/magical-microbes-how-to-feed-your-gut", "apiUrl": "https://content.guardianapis.com/lifeandstyle/2018/jan/29/magical-microbes-how-to-feed-your-gut", "isHosted": false, "pillarId": "pillar/lifestyle", "pillarName": "Lifestyle"}, {"id": "world/2018/jan/29/french-investigate-nutella-deal-brawls", "type": "article", "sectionId": "world", "sectionName": "World news", "webPublicationDate": "2018-01-29T14:57:08Z", "webTitle": "French fraud officials investigate Nutella deal that sparked brawls", "webUrl": "https://www.theguardian.com/world/2018/jan/29/french-investigate-nutella-deal-brawls", "apiUrl": "https://content.guardianapis.com/world/2018/jan/29/french-investigate-nutella-deal-brawls", "isHosted": false, "pillarId": "pillar/news", "pillarName": "News"}, {"id": "lifeandstyle/2018/jan/29/anna-jones-recipes-for-root-vegetable-winter-stews", "type": "article", "sectionId": "food", "sectionName": "Food", "webPublicationDate": "2018-01-29T12:00:47Z", "webTitle": "Anna Jones' recipes for root vegetable winter stews | Anna Jones", "webUrl": "https://www.theguardian.com/lifeandstyle/2018/jan/29/anna-jones-recipes-for-root-vegetable-winter-stews", "apiUrl": "https://content.guardianapis.com/lifeandstyle/2018/jan/29/anna-jones-recipes-for-root-vegetable-winter-stews", "isHosted": false, "pillarId": "pillar/lifestyle", "pillarName": "Lifestyle"}, {"id": "world/2018/jan/29/belgian-restaurants-accused-of-selling-mineral-water-from-tap-val-haacht", "type": "article", "sectionId": "world", "sectionName": "World news", "webPublicationDate": "2018-01-29T11:56:10Z", "webTitle": "Belgian restaurants accused of selling 'mineral water' from the tap", "webUrl": "https://www.theguardian.com/world/2018/jan/29/belgian-restaurants-accused-of-selling-mineral-water-from-tap-val-haacht", "apiUrl": "https://content.guardianapis.com/world/2018/jan/29/belgian-restaurants-accused-of-selling-mineral-water-from-tap-val-haacht", "isHosted": false, "pillarId": "pillar/news", "pillarName": "News"}, {"id": "music/2018/jan/28/on-my-radar-laurie-anderson-cultural-highlights", "type": "article", "sectionId": "music", "sectionName": "Music", "webPublicationDate": "2018-01-28T10:00:15Z", "webTitle": "On my radar: Laurie Anderson\u2019s cultural highlights", "webUrl": "https://www.theguardian.com/music/2018/jan/28/on-my-radar-laurie-anderson-cultural-highlights", "apiUrl": "https://content.guardianapis.com/music/2018/jan/28/on-my-radar-laurie-anderson-cultural-highlights", "isHosted": false, "pillarId": "pillar/arts", "pillarName": "Arts"}, {"id": "global/2018/jan/28/leonor-espinosa-the-colombian-chef-with-a-taste-for-change", "type": "article", "sectionId": "global", "sectionName": "Global", "webPublicationDate": "2018-01-28T08:00:13Z", "webTitle": "Leonor Espinosa: the Colombian chef with a taste for change", "webUrl": "https://www.theguardian.com/global/2018/jan/28/leonor-espinosa-the-colombian-chef-with-a-taste-for-change", "apiUrl": "https://content.guardianapis.com/global/2018/jan/28/leonor-espinosa-the-colombian-chef-with-a-taste-for-change", "isHosted": false}, {"id": "lifeandstyle/2018/jan/28/edo-belfast-go-there-for-the-wood-fired-oven-restaurant-review", "type": "article", "sectionId": "food", "sectionName": "Food", "webPublicationDate": "2018-01-28T06:00:11Z", "webTitle": "Edo, Belfast: \u2018Go there for the wood-fired oven\u2019 \u2013 restaurant review", "webUrl": "https://www.theguardian.com/lifeandstyle/2018/jan/28/edo-belfast-go-there-for-the-wood-fired-oven-restaurant-review", "apiUrl": "https://content.guardianapis.com/lifeandstyle/2018/jan/28/edo-belfast-go-there-for-the-wood-fired-oven-restaurant-review", "isHosted": false, "pillarId": "pillar/lifestyle", "pillarName": "Lifestyle"}, {"id": "lifeandstyle/2018/jan/28/supermarket-wines-by-great-winemakers", "type": "article", "sectionId": "food", "sectionName": "Food", "webPublicationDate": "2018-01-28T06:00:11Z", "webTitle": "Supermarket wines by great winemakers", "webUrl": "https://www.theguardian.com/lifeandstyle/2018/jan/28/supermarket-wines-by-great-winemakers", "apiUrl": "https://content.guardianapis.com/lifeandstyle/2018/jan/28/supermarket-wines-by-great-winemakers", "isHosted": false, "pillarId": "pillar/lifestyle", "pillarName": "Lifestyle"}, {"id": "commentisfree/2018/jan/28/nutella-riots-even-french-go-nuts-for-a-bargain", "type": "article", "sectionId": "commentisfree", "sectionName": "Opinion", "webPublicationDate": "2018-01-28T00:05:28Z", "webTitle": "Nutella riots show that even the French can go nuts over a bargain | Barbara Ellen", "webUrl": "https://www.theguardian.com/commentisfree/2018/jan/28/nutella-riots-even-french-go-nuts-for-a-bargain", "apiUrl": "https://content.guardianapis.com/commentisfree/2018/jan/28/nutella-riots-even-french-go-nuts-for-a-bargain", "isHosted": false, "pillarId": "pillar/opinion", "pillarName": "Opinion"}, {"id": "environment/2018/jan/28/teabags-plastic-free-co-op-eco-friendly", "type": "article", "sectionId": "environment", "sectionName": "Environment", "webPublicationDate": "2018-01-28T00:04:04Z", "webTitle": "An eco-friendly cuppa? Now teabags are set to go plastic-free", "webUrl": "https://www.theguardian.com/environment/2018/jan/28/teabags-plastic-free-co-op-eco-friendly", "apiUrl": "https://content.guardianapis.com/environment/2018/jan/28/teabags-plastic-free-co-op-eco-friendly", "isHosted": false, "pillarId": "pillar/news", "pillarName": "News"}, {"id": "lifeandstyle/2018/jan/27/stephen-bush-can-i-cook-like-andy-warhol", "type": "article", "sectionId": "food", "sectionName": "Food", "webPublicationDate": "2018-01-27T13:00:50Z", "webTitle": "Can I cook like ... Andy Warhol? | Stephen Bush", "webUrl": "https://www.theguardian.com/lifeandstyle/2018/jan/27/stephen-bush-can-i-cook-like-andy-warhol", "apiUrl": "https://content.guardianapis.com/lifeandstyle/2018/jan/27/stephen-bush-can-i-cook-like-andy-warhol", "isHosted": false, "pillarId": "pillar/lifestyle", "pillarName": "Lifestyle"}, {"id": "lifeandstyle/2018/jan/27/chris-packham-what-i-eat-food-diary", "type": "article", "sectionId": "food", "sectionName": "Food", "webPublicationDate": "2018-01-27T10:00:47Z", "webTitle": "Chris Packham: what I eat", "webUrl": "https://www.theguardian.com/lifeandstyle/2018/jan/27/chris-packham-what-i-eat-food-diary", "apiUrl": "https://content.guardianapis.com/lifeandstyle/2018/jan/27/chris-packham-what-i-eat-food-diary", "isHosted": false, "pillarId": "pillar/lifestyle", "pillarName": "Lifestyle"}, {"id": "lifeandstyle/2018/jan/27/meera-sodhas-vegan-swede-laksa-recipe", "type": "article", "sectionId": "food", "sectionName": "Food", "webPublicationDate": "2018-01-27T09:30:46Z", "webTitle": "Meera Sodha\u2019s swede laksa noodle soup recipe | The New Vegan", "webUrl": "https://www.theguardian.com/lifeandstyle/2018/jan/27/meera-sodhas-vegan-swede-laksa-recipe", "apiUrl": "https://content.guardianapis.com/lifeandstyle/2018/jan/27/meera-sodhas-vegan-swede-laksa-recipe", "isHosted": false, "pillarId": "pillar/lifestyle", "pillarName": "Lifestyle"}, {"id": "lifeandstyle/2018/jan/27/ruby-tandoh-the-meals-that-made-me-pistachio-gelato-grilled-tilapia", "type": "article", "sectionId": "food", "sectionName": "Food", "webPublicationDate": "2018-01-27T08:00:44Z", "webTitle": "'I remember that meal and freeze with horror': Ruby Tandoh on the food that made her", "webUrl": "https://www.theguardian.com/lifeandstyle/2018/jan/27/ruby-tandoh-the-meals-that-made-me-pistachio-gelato-grilled-tilapia", "apiUrl": "https://content.guardianapis.com/lifeandstyle/2018/jan/27/ruby-tandoh-the-meals-that-made-me-pistachio-gelato-grilled-tilapia", "isHosted": false, "pillarId": "pillar/lifestyle", "pillarName": "Lifestyle"}, {"id": "travel/2018/jan/27/top-20-new-uk-hotels-and-hostels-2018", "type": "article", "sectionId": "travel", "sectionName": "Travel", "webPublicationDate": "2018-01-27T07:00:43Z", "webTitle": "20 of the best new UK hotels and hostels for 2018", "webUrl": "https://www.theguardian.com/travel/2018/jan/27/top-20-new-uk-hotels-and-hostels-2018", "apiUrl": "https://content.guardianapis.com/travel/2018/jan/27/top-20-new-uk-hotels-and-hostels-2018", "isHosted": false, "pillarId": "pillar/lifestyle", "pillarName": "Lifestyle"}, {"id": "lifeandstyle/2018/jan/26/fiona-beckett-low-alcohol-wines", "type": "article", "sectionId": "food", "sectionName": "Food", "webPublicationDate": "2018-01-26T16:00:44Z", "webTitle": "How low can you go? Our pick of the best low-alcohol wines", "webUrl": "https://www.theguardian.com/lifeandstyle/2018/jan/26/fiona-beckett-low-alcohol-wines", "apiUrl": "https://content.guardianapis.com/lifeandstyle/2018/jan/26/fiona-beckett-low-alcohol-wines", "isHosted": false, "pillarId": "pillar/lifestyle", "pillarName": "Lifestyle"}, {"id": "commentisfree/2018/jan/26/france-brawl-nutella-chocolate-spread-fast-food", "type": "article", "sectionId": "commentisfree", "sectionName": "Opinion", "webPublicationDate": "2018-01-26T15:54:37Z", "webTitle": "How did France, gastronomic capital of the world, sink to brawls over Nutella? | Nigel Kendall", "webUrl": "https://www.theguardian.com/commentisfree/2018/jan/26/france-brawl-nutella-chocolate-spread-fast-food", "apiUrl": "https://content.guardianapis.com/commentisfree/2018/jan/26/france-brawl-nutella-chocolate-spread-fast-food", "isHosted": false, "pillarId": "pillar/opinion", "pillarName": "Opinion"}, {"id": "lifeandstyle/2018/jan/26/the-northern-star-1-lombard-street-good-mixer-cocktail", "type": "article", "sectionId": "food", "sectionName": "Food", "webPublicationDate": "2018-01-26T15:00:42Z", "webTitle": "Cocktail of the week: 1 Lombard Street\u2019s Northern Star | The Good Mixer", "webUrl": "https://www.theguardian.com/lifeandstyle/2018/jan/26/the-northern-star-1-lombard-street-good-mixer-cocktail", "apiUrl": "https://content.guardianapis.com/lifeandstyle/2018/jan/26/the-northern-star-1-lombard-street-good-mixer-cocktail", "isHosted": false, "pillarId": "pillar/lifestyle", "pillarName": "Lifestyle"}, {"id": "lifeandstyle/2018/jan/26/thomasina-mierss-recipe-for-chilli-con-carne", "type": "article", "sectionId": "food", "sectionName": "Food", "webPublicationDate": "2018-01-26T14:00:41Z", "webTitle": "Thomasina Miers\u2019 recipe for chilli con carne", "webUrl": "https://www.theguardian.com/lifeandstyle/2018/jan/26/thomasina-mierss-recipe-for-chilli-con-carne", "apiUrl": "https://content.guardianapis.com/lifeandstyle/2018/jan/26/thomasina-mierss-recipe-for-chilli-con-carne", "isHosted": false, "pillarId": "pillar/lifestyle", "pillarName": "Lifestyle"}, {"id": "lifeandstyle/2018/jan/26/indian-accent-restaurant-london-grace-dent-review", "type": "article", "sectionId": "food", "sectionName": "Food", "webPublicationDate": "2018-01-26T13:00:40Z", "webTitle": "Indian Accent, London W1: restaurant review  | Grace Dent", "webUrl": "https://www.theguardian.com/lifeandstyle/2018/jan/26/indian-accent-restaurant-london-grace-dent-review", "apiUrl": "https://content.guardianapis.com/lifeandstyle/2018/jan/26/indian-accent-restaurant-london-grace-dent-review", "isHosted": false, "pillarId": "pillar/lifestyle", "pillarName": "Lifestyle"}, {"id": "world/2018/jan/26/ce-nest-pas-normal-french-shoppers-bra-over-discounted-nutella", "type": "article", "sectionId": "world", "sectionName": "World news", "webPublicationDate": "2018-01-26T11:29:47Z", "webTitle": "'They are like animals': French shoppers brawl over cut-price Nutella", "webUrl": "https://www.theguardian.com/world/2018/jan/26/ce-nest-pas-normal-french-shoppers-bra-over-discounted-nutella", "apiUrl": "https://content.guardianapis.com/world/2018/jan/26/ce-nest-pas-normal-french-shoppers-bra-over-discounted-nutella", "isHosted": false, "pillarId": "pillar/news", "pillarName": "News"}, {"id": "global-development/2018/jan/26/full-of-beans-rwanda-wants-its-citizens-to-drink-more-coffee", "type": "article", "sectionId": "global-development", "sectionName": "Global development", "webPublicationDate": "2018-01-26T07:00:39Z", "webTitle": "Forget tea, drink more coffee: can a national culture be changed? | Lauren Gambino", "webUrl": "https://www.theguardian.com/global-development/2018/jan/26/full-of-beans-rwanda-wants-its-citizens-to-drink-more-coffee", "apiUrl": "https://content.guardianapis.com/global-development/2018/jan/26/full-of-beans-rwanda-wants-its-citizens-to-drink-more-coffee", "isHosted": false, "pillarId": "pillar/news", "pillarName": "News"}, {"id": "society/2018/jan/26/call-for-ban-on-chocolate-price-cuts-to-fight-obesity-crisis", "type": "article", "sectionId": "society", "sectionName": "Society", "webPublicationDate": "2018-01-26T06:01:38Z", "webTitle": "Call for ban on chocolate price cuts to fight obesity crisis", "webUrl": "https://www.theguardian.com/society/2018/jan/26/call-for-ban-on-chocolate-price-cuts-to-fight-obesity-crisis", "apiUrl": "https://content.guardianapis.com/society/2018/jan/26/call-for-ban-on-chocolate-price-cuts-to-fight-obesity-crisis", "isHosted": false, "pillarId": "pillar/news", "pillarName": "News"}, {"id": "environment/2018/jan/25/naked-veggies-and-a-ringing-rebuke", "type": "article", "sectionId": "environment", "sectionName": "Environment", "webPublicationDate": "2018-01-25T17:45:30Z", "webTitle": "Naked veggies and a\u00a0ringing rebuke | Brief letters", "webUrl": "https://www.theguardian.com/environment/2018/jan/25/naked-veggies-and-a-ringing-rebuke", "apiUrl": "https://content.guardianapis.com/environment/2018/jan/25/naked-veggies-and-a-ringing-rebuke", "isHosted": false, "pillarId": "pillar/news", "pillarName": "News"}, {"id": "world/2018/jan/25/jamie-oliver-and-wetherspoons-caught-up-in-meat-recall", "type": "article", "sectionId": "world", "sectionName": "World news", "webPublicationDate": "2018-01-25T14:33:55Z", "webTitle": "Jamie Oliver and Wetherspoons caught up in meat recall", "webUrl": "https://www.theguardian.com/world/2018/jan/25/jamie-oliver-and-wetherspoons-caught-up-in-meat-recall", "apiUrl": "https://content.guardianapis.com/world/2018/jan/25/jamie-oliver-and-wetherspoons-caught-up-in-meat-recall", "isHosted": false, "pillarId": "pillar/news", "pillarName": "News"}, {"id": "lifeandstyle/2018/jan/25/the-perfect-sussex-pond-pudding-felicity-cloake", "type": "article", "sectionId": "food", "sectionName": "Food", "webPublicationDate": "2018-01-25T12:00:15Z", "webTitle": "The perfect ... Sussex pond pudding | Felicity Cloake", "webUrl": "https://www.theguardian.com/lifeandstyle/2018/jan/25/the-perfect-sussex-pond-pudding-felicity-cloake", "apiUrl": "https://content.guardianapis.com/lifeandstyle/2018/jan/25/the-perfect-sussex-pond-pudding-felicity-cloake", "isHosted": false, "pillarId": "pillar/lifestyle", "pillarName": "Lifestyle"}, {"id": "lifeandstyle/2018/jan/25/scientists-calculate-carbon-emissions-of-your-sandwich", "type": "article", "sectionId": "food", "sectionName": "Food", "webPublicationDate": "2018-01-25T06:00:08Z", "webTitle": "Scientists calculate carbon emissions of your sandwich", "webUrl": "https://www.theguardian.com/lifeandstyle/2018/jan/25/scientists-calculate-carbon-emissions-of-your-sandwich", "apiUrl": "https://content.guardianapis.com/lifeandstyle/2018/jan/25/scientists-calculate-carbon-emissions-of-your-sandwich", "isHosted": false, "pillarId": "pillar/lifestyle", "pillarName": "Lifestyle"}, {"id": "lifeandstyle/2018/jan/25/hyperlocal-chefs-food-and-drink-restaurants-tony-naylor", "type": "article", "sectionId": "food", "sectionName": "Food", "webPublicationDate": "2018-01-25T06:00:08Z", "webTitle": "Hyperlocal heroes: meet the chefs growing their own", "webUrl": "https://www.theguardian.com/lifeandstyle/2018/jan/25/hyperlocal-chefs-food-and-drink-restaurants-tony-naylor", "apiUrl": "https://content.guardianapis.com/lifeandstyle/2018/jan/25/hyperlocal-chefs-food-and-drink-restaurants-tony-naylor", "isHosted": false, "pillarId": "pillar/lifestyle", "pillarName": "Lifestyle"}, {"id": "lifeandstyle/2018/jan/24/scoop-of-stilton-anyone-savoury-ice-cream-takes-on-the-classics", "type": "article", "sectionId": "food", "sectionName": "Food", "webPublicationDate": "2018-01-24T12:11:03Z", "webTitle": "Scoop of stilton, anyone? Savoury ice-cream takes on the classics", "webUrl": "https://www.theguardian.com/lifeandstyle/2018/jan/24/scoop-of-stilton-anyone-savoury-ice-cream-takes-on-the-classics", "apiUrl": "https://content.guardianapis.com/lifeandstyle/2018/jan/24/scoop-of-stilton-anyone-savoury-ice-cream-takes-on-the-classics", "isHosted": false, "pillarId": "pillar/lifestyle", "pillarName": "Lifestyle"}, {"id": "lifeandstyle/2018/jan/24/tom-aikens-macaroni-cheese-basil-garlic-recipe", "type": "article", "sectionId": "food", "sectionName": "Food", "webPublicationDate": "2018-01-24T11:00:03Z", "webTitle": "Tom Aikens\u2019s macaroni cheese with basil and garlic", "webUrl": "https://www.theguardian.com/lifeandstyle/2018/jan/24/tom-aikens-macaroni-cheese-basil-garlic-recipe", "apiUrl": "https://content.guardianapis.com/lifeandstyle/2018/jan/24/tom-aikens-macaroni-cheese-basil-garlic-recipe", "isHosted": false, "pillarId": "pillar/lifestyle", "pillarName": "Lifestyle"}, {"id": "lifeandstyle/2018/jan/23/rachel-roddys-winter-tomato-sauce-recipe", "type": "article", "sectionId": "food", "sectionName": "Food", "webPublicationDate": "2018-01-23T12:00:01Z", "webTitle": "Rachel Roddy\u2019s winter tomato sauce recipe", "webUrl": "https://www.theguardian.com/lifeandstyle/2018/jan/23/rachel-roddys-winter-tomato-sauce-recipe", "apiUrl": "https://content.guardianapis.com/lifeandstyle/2018/jan/23/rachel-roddys-winter-tomato-sauce-recipe", "isHosted": false, "pillarId": "pillar/lifestyle", "pillarName": "Lifestyle"}, {"id": "lifeandstyle/2018/jan/23/tamal-ray-recipe-honey-almond-brittle-biscuits", "type": "article", "sectionId": "food", "sectionName": "Food", "webPublicationDate": "2018-01-23T06:00:01Z", "webTitle": "Tamal Ray's recipe for honey and almond brittle biscuits", "webUrl": "https://www.theguardian.com/lifeandstyle/2018/jan/23/tamal-ray-recipe-honey-almond-brittle-biscuits", "apiUrl": "https://content.guardianapis.com/lifeandstyle/2018/jan/23/tamal-ray-recipe-honey-almond-brittle-biscuits", "isHosted": false, "pillarId": "pillar/lifestyle", "pillarName": "Lifestyle"}, {"id": "world/2018/jan/22/how-the-sushi-boom-is-fuelling-tapeworm-infections", "type": "article", "sectionId": "world", "sectionName": "World news", "webPublicationDate": "2018-01-22T19:00:29Z", "webTitle": "How the sushi boom is fuelling tapeworm infections", "webUrl": "https://www.theguardian.com/world/2018/jan/22/how-the-sushi-boom-is-fuelling-tapeworm-infections", "apiUrl": "https://content.guardianapis.com/world/2018/jan/22/how-the-sushi-boom-is-fuelling-tapeworm-infections", "isHosted": false, "pillarId": "pillar/news", "pillarName": "News"}, {"id": "world/2018/jan/22/venice-authorities-step-in-after-four-tourists-charged-1000-for-meal", "type": "article", "sectionId": "world", "sectionName": "World news", "webPublicationDate": "2018-01-22T18:18:55Z", "webTitle": "Venice authorities step in after four tourists charged \u00a31,000 for meal", "webUrl": "https://www.theguardian.com/world/2018/jan/22/venice-authorities-step-in-after-four-tourists-charged-1000-for-meal", "apiUrl": "https://content.guardianapis.com/world/2018/jan/22/venice-authorities-step-in-after-four-tourists-charged-1000-for-meal", "isHosted": false, "pillarId": "pillar/news", "pillarName": "News"}, {"id": "travel/2018/jan/22/brussels-friteries-kiosk-redesign-mirrored-snack-shacks", "type": "article", "sectionId": "travel", "sectionName": "Travel", "webPublicationDate": "2018-01-22T14:15:30Z", "webTitle": "Micro chips: Brussels' friteries get stylish redesign as mirrored shacks", "webUrl": "https://www.theguardian.com/travel/2018/jan/22/brussels-friteries-kiosk-redesign-mirrored-snack-shacks", "apiUrl": "https://content.guardianapis.com/travel/2018/jan/22/brussels-friteries-kiosk-redesign-mirrored-snack-shacks", "isHosted": false, "pillarId": "pillar/lifestyle", "pillarName": "Lifestyle"}, {"id": "lifeandstyle/2018/jan/22/anna-jones-kale-recipes-ribollita-rigatoni-garlic", "type": "article", "sectionId": "food", "sectionName": "Food", "webPublicationDate": "2018-01-22T12:00:49Z", "webTitle": "Anna Jones\u2019s kale recipes", "webUrl": "https://www.theguardian.com/lifeandstyle/2018/jan/22/anna-jones-kale-recipes-ribollita-rigatoni-garlic", "apiUrl": "https://content.guardianapis.com/lifeandstyle/2018/jan/22/anna-jones-kale-recipes-ribollita-rigatoni-garlic", "isHosted": false, "pillarId": "pillar/lifestyle", "pillarName": "Lifestyle"}, {"id": "lifeandstyle/2018/jan/22/allergic-shiitake-mushrooms-notes-queries", "type": "article", "sectionId": "lifeandstyle", "sectionName": "Life and style", "webPublicationDate": "2018-01-22T11:30:48Z", "webTitle": "How can I be allergic to shiitakes, but fine with other mushrooms? | Notes and queries", "webUrl": "https://www.theguardian.com/lifeandstyle/2018/jan/22/allergic-shiitake-mushrooms-notes-queries", "apiUrl": "https://content.guardianapis.com/lifeandstyle/2018/jan/22/allergic-shiitake-mushrooms-notes-queries", "isHosted": false, "pillarId": "pillar/lifestyle", "pillarName": "Lifestyle"}, {"id": "lifeandstyle/2018/jan/22/nigella-lawson-we-were-always-told-we-mustnt-make-a-man-feel-bad-about-anything", "type": "article", "sectionId": "food", "sectionName": "Food", "webPublicationDate": "2018-01-22T01:38:05Z", "webTitle": "Nigella Lawson: 'We were always told we mustn't make a man feel bad about anything'", "webUrl": "https://www.theguardian.com/lifeandstyle/2018/jan/22/nigella-lawson-we-were-always-told-we-mustnt-make-a-man-feel-bad-about-anything", "apiUrl": "https://content.guardianapis.com/lifeandstyle/2018/jan/22/nigella-lawson-we-were-always-told-we-mustnt-make-a-man-feel-bad-about-anything", "isHosted": false, "pillarId": "pillar/lifestyle", "pillarName": "Lifestyle"}, {"id": "lifeandstyle/2018/jan/21/james-haskell-wasps-england-life-on-a-plate", "type": "article", "sectionId": "food", "sectionName": "Food", "webPublicationDate": "2018-01-21T12:00:20Z", "webTitle": "James Haskell: \u2018When I came to Wasps, I was eating six meals a day. It was horrific\u2019", "webUrl": "https://www.theguardian.com/lifeandstyle/2018/jan/21/james-haskell-wasps-england-life-on-a-plate", "apiUrl": "https://content.guardianapis.com/lifeandstyle/2018/jan/21/james-haskell-wasps-england-life-on-a-plate", "isHosted": false, "pillarId": "pillar/lifestyle", "pillarName": "Lifestyle"}, {"id": "lifeandstyle/2018/jan/21/barmaid-waitress-late-night-banter-restaurants-sexual-harassment", "type": "article", "sectionId": "food", "sectionName": "Food", "webPublicationDate": "2018-01-21T11:30:19Z", "webTitle": "I\u2019ve been a barmaid and a waitress. I know exactly what late-night banter means", "webUrl": "https://www.theguardian.com/lifeandstyle/2018/jan/21/barmaid-waitress-late-night-banter-restaurants-sexual-harassment", "apiUrl": "https://content.guardianapis.com/lifeandstyle/2018/jan/21/barmaid-waitress-late-night-banter-restaurants-sexual-harassment", "isHosted": false, "pillarId": "pillar/lifestyle", "pillarName": "Lifestyle"}, {"id": "lifeandstyle/2018/jan/21/20-best-food-books-2001-to-2017", "type": "article", "sectionId": "food", "sectionName": "Food", "webPublicationDate": "2018-01-21T11:30:19Z", "webTitle": "The 20 best food books from 2001-2017", "webUrl": "https://www.theguardian.com/lifeandstyle/2018/jan/21/20-best-food-books-2001-to-2017", "apiUrl": "https://content.guardianapis.com/lifeandstyle/2018/jan/21/20-best-food-books-2001-to-2017", "isHosted": false, "pillarId": "pillar/lifestyle", "pillarName": "Lifestyle"}, {"id": "lifeandstyle/2018/jan/21/how-our-passion-for-food-has-grown", "type": "article", "sectionId": "food", "sectionName": "Food", "webPublicationDate": "2018-01-21T11:00:19Z", "webTitle": "From foraging to clean eating: how our passion for food has grown", "webUrl": "https://www.theguardian.com/lifeandstyle/2018/jan/21/how-our-passion-for-food-has-grown", "apiUrl": "https://content.guardianapis.com/lifeandstyle/2018/jan/21/how-our-passion-for-food-has-grown", "isHosted": false, "pillarId": "pillar/lifestyle", "pillarName": "Lifestyle"}, {"id": "lifeandstyle/2018/jan/21/nigella-lawson-new-cake-celebration-recipes-fergus-henderson-roast-duck-anna-jones-vegetable-bake", "type": "article", "sectionId": "food", "sectionName": "Food", "webPublicationDate": "2018-01-21T11:00:19Z", "webTitle": "A new Nigella Lawson cake for our 200th issue \u2013 and other recipes for a celebration", "webUrl": "https://www.theguardian.com/lifeandstyle/2018/jan/21/nigella-lawson-new-cake-celebration-recipes-fergus-henderson-roast-duck-anna-jones-vegetable-bake", "apiUrl": "https://content.guardianapis.com/lifeandstyle/2018/jan/21/nigella-lawson-new-cake-celebration-recipes-fergus-henderson-roast-duck-anna-jones-vegetable-bake", "isHosted": false, "pillarId": "pillar/lifestyle", "pillarName": "Lifestyle"}, {"id": "lifeandstyle/2018/jan/21/wines-and-whisky-for-burns-night-scotland-david-williams", "type": "article", "sectionId": "food", "sectionName": "Food", "webPublicationDate": "2018-01-21T05:59:13Z", "webTitle": "Wines and whisky for Burns Night | David Williams", "webUrl": "https://www.theguardian.com/lifeandstyle/2018/jan/21/wines-and-whisky-for-burns-night-scotland-david-williams", "apiUrl": "https://content.guardianapis.com/lifeandstyle/2018/jan/21/wines-and-whisky-for-burns-night-scotland-david-williams", "isHosted": false, "pillarId": "pillar/lifestyle", "pillarName": "Lifestyle"}, {"id": "lifeandstyle/2018/jan/21/lescargot-london-lets-hope-it-never-changes-restaurant-review", "type": "article", "sectionId": "food", "sectionName": "Food", "webPublicationDate": "2018-01-21T05:50:24Z", "webTitle": "\u2018Let\u2019s hope it never changes\u2019: L\u2019Escargot, London \u2013 review | Jay Rayner", "webUrl": "https://www.theguardian.com/lifeandstyle/2018/jan/21/lescargot-london-lets-hope-it-never-changes-restaurant-review", "apiUrl": "https://content.guardianapis.com/lifeandstyle/2018/jan/21/lescargot-london-lets-hope-it-never-changes-restaurant-review", "isHosted": false, "pillarId": "pillar/lifestyle", "pillarName": "Lifestyle"}, {"id": "us-news/2018/jan/20/california-sushi-tapeworm-fresno-doctor-salmon", "type": "article", "sectionId": "us-news", "sectionName": "US news", "webPublicationDate": "2018-01-20T19:09:03Z", "webTitle": "Raw deal: sushi-loving California man discovers 5ft 6in tapeworm", "webUrl": "https://www.theguardian.com/us-news/2018/jan/20/california-sushi-tapeworm-fresno-doctor-salmon", "apiUrl": "https://content.guardianapis.com/us-news/2018/jan/20/california-sushi-tapeworm-fresno-doctor-salmon", "isHosted": false, "pillarId": "pillar/news", "pillarName": "News"}, {"id": "world/2018/jan/20/top-french-chef-paul-bocuse-dies-aged-91", "type": "article", "sectionId": "world", "sectionName": "World news", "webPublicationDate": "2018-01-20T16:02:27Z", "webTitle": "Top French chef Paul Bocuse dies aged 91", "webUrl": "https://www.theguardian.com/world/2018/jan/20/top-french-chef-paul-bocuse-dies-aged-91", "apiUrl": "https://content.guardianapis.com/world/2018/jan/20/top-french-chef-paul-bocuse-dies-aged-91", "isHosted": false, "pillarId": "pillar/news", "pillarName": "News"}]}}