{"response": {"status": "ok", "userTier": "developer", "total": 88051, "startIndex": 1, "pageSize": 50, "currentPage": 1, "pages": 1762, "orderBy": "newest", "results": [{"id": "football/2013/jan/30/gordon-strachan-lee-wallace-rangers-scotland", "type": "article", "sectionId": "football", "sectionName": "Football", "webPublicationDate": "2013-01-30T23:59:01Z", "webTitle": "Gordon Strachan to pick Rangers' Lee Wallace in first Scotland squad", "webUrl": "https://www.theguardian.com/football/2013/jan/30/gordon-strachan-lee-wallace-rangers-scotland", "apiUrl": "https://content.guardianapis.com/football/2013/jan/30/gordon-strachan-lee-wallace-rangers-scotland", "isHosted": false, "pillarId": "pillar/sport", "pillarName": "Sport"}, {"id": "football/2013/jan/30/real-madrid-barcelona-copa-del-rey", "type": "article", "sectionId": "football", "sectionName": "Football", "webPublicationDate": "2013-01-30T23:18:46Z", "webTitle": "Real Madrid 1-1 Barcelona | Copa del Rey semi-final first leg match report", "webUrl": "https://www.theguardian.com/football/2013/jan/30/real-madrid-barcelona-copa-del-rey", "apiUrl": "https://content.guardianapis.com/football/2013/jan/30/real-madrid-barcelona-copa-del-rey", "isHosted": false, "pillarId": "pillar/sport", "pillarName": "Sport"}, {"id": "football/2013/jan/30/football-transfer-news", "type": "article", "sectionId": "football", "sectionName": "Football", "webPublicationDate": "2013-01-30T23:00:01Z", "webTitle": "Football transfer news", "webUrl": "https://www.theguardian.com/football/2013/jan/30/football-transfer-news", "apiUrl": "https://content.guardianapis.com/football/2013/jan/30/football-transfer-news", "isHosted": false, "pillarId": "pillar/sport", "pillarName": "Sport"}, {"id": "football/2013/jan/30/roy-hodgson-liverpool-raheem-sterling-england", "type": "article", "sectionId": "football", "sectionName": "Football", "webPublicationDate": "2013-01-30T22:55:00Z", "webTitle": "Roy Hodgson risks Liverpool wrath over Raheem Sterling's England role", "webUrl": "https://www.theguardian.com/football/2013/jan/30/roy-hodgson-liverpool-raheem-sterling-england", "apiUrl": "https://content.guardianapis.com/football/2013/jan/30/roy-hodgson-liverpool-raheem-sterling-england", "isHosted": false, "pillarId": "pillar/sport", "pillarName": "Sport"}, {"id": "football/2013/jan/30/luis-suarez-liverpool", "type": "article", "sectionId": "football", "sectionName": "Football", "webPublicationDate": "2013-01-30T22:30:01Z", "webTitle": "Luis Su\u00e1rez diving admission is 'unacceptable', says Brendan Rodgers", "webUrl": "https://www.theguardian.com/football/2013/jan/30/luis-suarez-liverpool", "apiUrl": "https://content.guardianapis.com/football/2013/jan/30/luis-suarez-liverpool", "isHosted": false, "pillarId": "pillar/sport", "pillarName": "Sport"}, {"id": "football/2013/jan/30/dennis-bergkamp-arsenal-liam-brady", "type": "article", "sectionId": "football", "sectionName": "Football", "webPublicationDate": "2013-01-30T22:30:01Z", "webTitle": "Dennis Bergkamp tipped to become head of Arsenal youth academy", "webUrl": "https://www.theguardian.com/football/2013/jan/30/dennis-bergkamp-arsenal-liam-brady", "apiUrl": "https://content.guardianapis.com/football/2013/jan/30/dennis-bergkamp-arsenal-liam-brady", "isHosted": false, "pillarId": "pillar/sport", "pillarName": "Sport"}, {"id": "football/2013/jan/30/reading-chelsea-premier-league", "type": "article", "sectionId": "football", "sectionName": "Football", "webPublicationDate": "2013-01-30T22:07:09Z", "webTitle": "Reading 2-2 Chelsea | Premier League match report", "webUrl": "https://www.theguardian.com/football/2013/jan/30/reading-chelsea-premier-league", "apiUrl": "https://content.guardianapis.com/football/2013/jan/30/reading-chelsea-premier-league", "isHosted": false, "pillarId": "pillar/sport", "pillarName": "Sport"}, {"id": "football/2013/jan/30/celtic-kilmarnock-scottish-premier-league", "type": "article", "sectionId": "football", "sectionName": "Football", "webPublicationDate": "2013-01-30T22:05:00Z", "webTitle": "Celtic 4-1 Kilmarnock | Scottish Premier League match report", "webUrl": "https://www.theguardian.com/football/2013/jan/30/celtic-kilmarnock-scottish-premier-league", "apiUrl": "https://content.guardianapis.com/football/2013/jan/30/celtic-kilmarnock-scottish-premier-league", "isHosted": false, "pillarId": "pillar/sport", "pillarName": "Sport"}, {"id": "football/2013/jan/30/everton-west-brom-premier-league", "type": "article", "sectionId": "football", "sectionName": "Football", "webPublicationDate": "2013-01-30T22:00:29Z", "webTitle": "Everton 2-1 West Bromwich Albion | Premier League match report", "webUrl": "https://www.theguardian.com/football/2013/jan/30/everton-west-brom-premier-league", "apiUrl": "https://content.guardianapis.com/football/2013/jan/30/everton-west-brom-premier-league", "isHosted": false, "pillarId": "pillar/sport", "pillarName": "Sport"}, {"id": "football/2013/jan/30/norwich-city-tottenham-premier-league", "type": "article", "sectionId": "football", "sectionName": "Football", "webPublicationDate": "2013-01-30T22:00:00Z", "webTitle": "Norwich City 1-1 Tottenham | Premier League match report", "webUrl": "https://www.theguardian.com/football/2013/jan/30/norwich-city-tottenham-premier-league", "apiUrl": "https://content.guardianapis.com/football/2013/jan/30/norwich-city-tottenham-premier-league", "isHosted": false, "pillarId": "pillar/sport", "pillarName": "Sport"}, {"id": "football/2013/jan/30/manchester-united-wayne-rooney-southampton", "type": "article", "sectionId": "football", "sectionName": "Football", "webPublicationDate": "2013-01-30T21:57:31Z", "webTitle": "Manchester United 2-1 Southampton | Premier League match report", "webUrl": "https://www.theguardian.com/football/2013/jan/30/manchester-united-wayne-rooney-southampton", "apiUrl": "https://content.guardianapis.com/football/2013/jan/30/manchester-united-wayne-rooney-southampton", "isHosted": false, "pillarId": "pillar/sport", "pillarName": "Sport"}, {"id": "football/2013/jan/30/arsenal-liverpool-premier-league", "type": "article", "sectionId": "football", "sectionName": "Football", "webPublicationDate": "2013-01-30T21:57:05Z", "webTitle": "Arsenal 2-2 Liverpool | Premier League match report", "webUrl": "https://www.theguardian.com/football/2013/jan/30/arsenal-liverpool-premier-league", "apiUrl": "https://content.guardianapis.com/football/2013/jan/30/arsenal-liverpool-premier-league", "isHosted": false, "pillarId": "pillar/sport", "pillarName": "Sport"}, {"id": "football/2013/jan/30/real-madrid-barcelona-el-clasico-live", "type": "liveblog", "sectionId": "football", "sectionName": "Football", "webPublicationDate": "2013-01-30T21:53:00Z", "webTitle": "Real Madrid v Barcelona \u2013 as it happened | Rob Smyth", "webUrl": "https://www.theguardian.com/football/2013/jan/30/real-madrid-barcelona-el-clasico-live", "apiUrl": "https://content.guardianapis.com/football/2013/jan/30/real-madrid-barcelona-el-clasico-live", "isHosted": false, "pillarId": "pillar/sport", "pillarName": "Sport"}, {"id": "football/2013/jan/30/qpr-christopher-samba-anzhi", "type": "article", "sectionId": "football", "sectionName": "Football", "webPublicationDate": "2013-01-30T20:51:10Z", "webTitle": "QPR prepare to pay record fee to sign Christopher Samba from Anzhi", "webUrl": "https://www.theguardian.com/football/2013/jan/30/qpr-christopher-samba-anzhi", "apiUrl": "https://content.guardianapis.com/football/2013/jan/30/qpr-christopher-samba-anzhi", "isHosted": false, "pillarId": "pillar/sport", "pillarName": "Sport"}, {"id": "football/gallery/2013/jan/30/premier-league-live-gallery-pictures", "type": "gallery", "sectionId": "football", "sectionName": "Football", "webPublicationDate": "2013-01-30T20:33:00Z", "webTitle": "Premier League: Wednesday night's matches - in pictures", "webUrl": "https://www.theguardian.com/football/gallery/2013/jan/30/premier-league-live-gallery-pictures", "apiUrl": "https://content.guardianapis.com/football/gallery/2013/jan/30/premier-league-live-gallery-pictures", "isHosted": false, "pillarId": "pillar/sport", "pillarName": "Sport"}, {"id": "football/2013/jan/30/togo-tunisia-africa-cup-of-nations-live", "type": "liveblog", "sectionId": "football", "sectionName": "Football", "webPublicationDate": "2013-01-30T18:59:00Z", "webTitle": "Togo v Tunisia: Africa Cup of Nations \u2013 as it happened | Simon Burnton", "webUrl": "https://www.theguardian.com/football/2013/jan/30/togo-tunisia-africa-cup-of-nations-live", "apiUrl": "https://content.guardianapis.com/football/2013/jan/30/togo-tunisia-africa-cup-of-nations-live", "isHosted": false, "pillarId": "pillar/sport", "pillarName": "Sport"}, {"id": "football/2013/jan/30/usa-canada-friendly-international-live", "type": "liveblog", "sectionId": "football", "sectionName": "Football", "webPublicationDate": "2013-01-30T18:44:05Z", "webTitle": "USA 0-0 Canada - as it happened", "webUrl": "https://www.theguardian.com/football/2013/jan/30/usa-canada-friendly-international-live", "apiUrl": "https://content.guardianapis.com/football/2013/jan/30/usa-canada-friendly-international-live", "isHosted": false, "pillarId": "pillar/sport", "pillarName": "Sport"}, {"id": "world/2013/jan/30/balotelli-berlusconi-ac-milan-signing", "type": "article", "sectionId": "world", "sectionName": "World news", "webPublicationDate": "2013-01-30T18:26:28Z", "webTitle": "Balotelli bounce? Berlusconi rivals question timing of AC Milan signing", "webUrl": "https://www.theguardian.com/world/2013/jan/30/balotelli-berlusconi-ac-milan-signing", "apiUrl": "https://content.guardianapis.com/world/2013/jan/30/balotelli-berlusconi-ac-milan-signing", "isHosted": false, "pillarId": "pillar/news", "pillarName": "News"}, {"id": "football/2013/jan/30/mario-balotelli-manchester-city-milan", "type": "article", "sectionId": "football", "sectionName": "Football", "webPublicationDate": "2013-01-30T17:54:30Z", "webTitle": "Mario Balotelli arrives in Milan to complete move from Manchester City", "webUrl": "https://www.theguardian.com/football/2013/jan/30/mario-balotelli-manchester-city-milan", "apiUrl": "https://content.guardianapis.com/football/2013/jan/30/mario-balotelli-manchester-city-milan", "isHosted": false, "pillarId": "pillar/sport", "pillarName": "Sport"}, {"id": "football/the-northerner/2013/jan/30/mario-balotelli-milan-italy-manchester-city", "type": "article", "sectionId": "football", "sectionName": "Football", "webPublicationDate": "2013-01-30T17:52:00Z", "webTitle": "Mario Balotelli: why I'll miss Super Mario when he goes to Milan", "webUrl": "https://www.theguardian.com/football/the-northerner/2013/jan/30/mario-balotelli-milan-italy-manchester-city", "apiUrl": "https://content.guardianapis.com/football/the-northerner/2013/jan/30/mario-balotelli-milan-italy-manchester-city", "isHosted": false, "pillarId": "pillar/sport", "pillarName": "Sport"}, {"id": "football/2013/jan/30/west-bromwich-albion-yassine-el-ghanassy", "type": "article", "sectionId": "football", "sectionName": "Football", "webPublicationDate": "2013-01-30T17:49:56Z", "webTitle": "West Bromwich Albion's Yassine El Ghanassy joins Heerenveen on loan", "webUrl": "https://www.theguardian.com/football/2013/jan/30/west-bromwich-albion-yassine-el-ghanassy", "apiUrl": "https://content.guardianapis.com/football/2013/jan/30/west-bromwich-albion-yassine-el-ghanassy", "isHosted": false, "pillarId": "pillar/sport", "pillarName": "Sport"}, {"id": "football/2013/jan/30/fulham-urby-emanuelson-tom-huddlestone", "type": "article", "sectionId": "football", "sectionName": "Football", "webPublicationDate": "2013-01-30T17:23:13Z", "webTitle": "Fulham close in on Urby Emanuelson but must wait for Tom Huddlestone", "webUrl": "https://www.theguardian.com/football/2013/jan/30/fulham-urby-emanuelson-tom-huddlestone", "apiUrl": "https://content.guardianapis.com/football/2013/jan/30/fulham-urby-emanuelson-tom-huddlestone", "isHosted": false, "pillarId": "pillar/sport", "pillarName": "Sport"}, {"id": "football/video/2013/jan/30/jozy-altidore-racist-monkey-video", "type": "video", "sectionId": "football", "sectionName": "Football", "webPublicationDate": "2013-01-30T17:05:00Z", "webTitle": "Jozy Altidore will pray for fans who racially abused him - video", "webUrl": "https://www.theguardian.com/football/video/2013/jan/30/jozy-altidore-racist-monkey-video", "apiUrl": "https://content.guardianapis.com/football/video/2013/jan/30/jozy-altidore-racist-monkey-video", "isHosted": false, "pillarId": "pillar/sport", "pillarName": "Sport"}, {"id": "football/2013/jan/30/the-fiver-arsenal-liverpool", "type": "article", "sectionId": "football", "sectionName": "Football", "webPublicationDate": "2013-01-30T16:53:39Z", "webTitle": "The Fiver | When Arsenal v Liverpool was one of the biggest fixtures around | Rob Smyth", "webUrl": "https://www.theguardian.com/football/2013/jan/30/the-fiver-arsenal-liverpool", "apiUrl": "https://content.guardianapis.com/football/2013/jan/30/the-fiver-arsenal-liverpool", "isHosted": false, "pillarId": "pillar/sport", "pillarName": "Sport"}, {"id": "football/blog/2013/jan/30/galatasary-didier-drogba-wesley-sneijder", "type": "article", "sectionId": "football", "sectionName": "Football", "webPublicationDate": "2013-01-30T16:38:12Z", "webTitle": "How Galatasaray lured Didier Drogba and Wesley Sneijder to Turkey | Amy Lawrence", "webUrl": "https://www.theguardian.com/football/blog/2013/jan/30/galatasary-didier-drogba-wesley-sneijder", "apiUrl": "https://content.guardianapis.com/football/blog/2013/jan/30/galatasary-didier-drogba-wesley-sneijder", "isHosted": false, "pillarId": "pillar/sport", "pillarName": "Sport"}, {"id": "football/2013/jan/30/leroy-fer-everton-medical-tests", "type": "article", "sectionId": "football", "sectionName": "Football", "webPublicationDate": "2013-01-30T16:15:00Z", "webTitle": "Leroy Fer's \u00a38.6m Everton move collapses after medical tests", "webUrl": "https://www.theguardian.com/football/2013/jan/30/leroy-fer-everton-medical-tests", "apiUrl": "https://content.guardianapis.com/football/2013/jan/30/leroy-fer-everton-medical-tests", "isHosted": false, "pillarId": "pillar/sport", "pillarName": "Sport"}, {"id": "football/2013/jan/30/newcastle-french-signings-steven-taylor", "type": "article", "sectionId": "football", "sectionName": "Football", "webPublicationDate": "2013-01-30T16:08:35Z", "webTitle": "Newcastle's French signings are breath of fresh air, says Steven Taylor", "webUrl": "https://www.theguardian.com/football/2013/jan/30/newcastle-french-signings-steven-taylor", "apiUrl": "https://content.guardianapis.com/football/2013/jan/30/newcastle-french-signings-steven-taylor", "isHosted": false, "pillarId": "pillar/sport", "pillarName": "Sport"}, {"id": "football/video/2013/jan/30/mario-balotelli-milan-manchester-city", "type": "video", "sectionId": "football", "sectionName": "Football", "webPublicationDate": "2013-01-30T14:34:00Z", "webTitle": "Mario Balotelli is Milan-bound but still loved at City, says Roberto Mancini \u2013 video", "webUrl": "https://www.theguardian.com/football/video/2013/jan/30/mario-balotelli-milan-manchester-city", "apiUrl": "https://content.guardianapis.com/football/video/2013/jan/30/mario-balotelli-milan-manchester-city", "isHosted": false, "pillarId": "pillar/sport", "pillarName": "Sport"}, {"id": "football/2013/jan/30/usa-canada-clint-dempsey-michael-bradley", "type": "article", "sectionId": "football", "sectionName": "Football", "webPublicationDate": "2013-01-30T14:25:03Z", "webTitle": "Dempsey, Bradley and Altidore look good in absence from USA-Canada", "webUrl": "https://www.theguardian.com/football/2013/jan/30/usa-canada-clint-dempsey-michael-bradley", "apiUrl": "https://content.guardianapis.com/football/2013/jan/30/usa-canada-clint-dempsey-michael-bradley", "isHosted": false, "pillarId": "pillar/sport", "pillarName": "Sport"}, {"id": "football/blog/2013/jan/30/mario-balotelli-premier-league", "type": "article", "sectionId": "football", "sectionName": "Football", "webPublicationDate": "2013-01-30T13:42:53Z", "webTitle": "Mario Balotelli and tales of unexpected all keep eyes on Premier League | Paul Wilson", "webUrl": "https://www.theguardian.com/football/blog/2013/jan/30/mario-balotelli-premier-league", "apiUrl": "https://content.guardianapis.com/football/blog/2013/jan/30/mario-balotelli-premier-league", "isHosted": false, "pillarId": "pillar/sport", "pillarName": "Sport"}, {"id": "football/2013/jan/30/christopher-samba-qpr-move-anzhi", "type": "article", "sectionId": "football", "sectionName": "Football", "webPublicationDate": "2013-01-30T13:35:00Z", "webTitle": "Christopher Samba in talks with QPR over \u00a310m move from Anzhi", "webUrl": "https://www.theguardian.com/football/2013/jan/30/christopher-samba-qpr-move-anzhi", "apiUrl": "https://content.guardianapis.com/football/2013/jan/30/christopher-samba-qpr-move-anzhi", "isHosted": false, "pillarId": "pillar/sport", "pillarName": "Sport"}, {"id": "media/2013/jan/30/malcolm-brodie-sports-journalist-dies-86", "type": "article", "sectionId": "media", "sectionName": "Media", "webPublicationDate": "2013-01-30T13:28:00Z", "webTitle": "Malcolm Brodie, renowned sports journalist, dies aged 86", "webUrl": "https://www.theguardian.com/media/2013/jan/30/malcolm-brodie-sports-journalist-dies-86", "apiUrl": "https://content.guardianapis.com/media/2013/jan/30/malcolm-brodie-sports-journalist-dies-86", "isHosted": false, "pillarId": "pillar/news", "pillarName": "News"}, {"id": "football/2013/jan/30/enzo-zidane-father-red-card", "type": "article", "sectionId": "football", "sectionName": "Football", "webPublicationDate": "2013-01-30T13:22:05Z", "webTitle": "Enzo Zidane follows in father's footsteps with crunching red card", "webUrl": "https://www.theguardian.com/football/2013/jan/30/enzo-zidane-father-red-card", "apiUrl": "https://content.guardianapis.com/football/2013/jan/30/enzo-zidane-father-red-card", "isHosted": false, "pillarId": "pillar/sport", "pillarName": "Sport"}, {"id": "football/2013/jan/30/jack-butland-chelsea-birmingham-bid", "type": "article", "sectionId": "football", "sectionName": "Football", "webPublicationDate": "2013-01-30T12:38:00Z", "webTitle": "Jack Butland rejects move to Chelsea after Birmingham accept \u00a33.5m bid", "webUrl": "https://www.theguardian.com/football/2013/jan/30/jack-butland-chelsea-birmingham-bid", "apiUrl": "https://content.guardianapis.com/football/2013/jan/30/jack-butland-chelsea-birmingham-bid", "isHosted": false, "pillarId": "pillar/sport", "pillarName": "Sport"}, {"id": "football/blog/2013/jan/30/france-talent-exodus-foreign-clubs", "type": "article", "sectionId": "football", "sectionName": "Football", "webPublicationDate": "2013-01-30T12:24:29Z", "webTitle": "France alarmed as talent exodus to low-rank foreign clubs gathers pace | Paul Doyle", "webUrl": "https://www.theguardian.com/football/blog/2013/jan/30/france-talent-exodus-foreign-clubs", "apiUrl": "https://content.guardianapis.com/football/blog/2013/jan/30/france-talent-exodus-foreign-clubs", "isHosted": false, "pillarId": "pillar/sport", "pillarName": "Sport"}, {"id": "media/2013/jan/30/eric-cantona-kronenbourg-ad", "type": "article", "sectionId": "media", "sectionName": "Media", "webPublicationDate": "2013-01-30T12:19:37Z", "webTitle": "Eric Cantona tackles Kronenbourg ad", "webUrl": "https://www.theguardian.com/media/2013/jan/30/eric-cantona-kronenbourg-ad", "apiUrl": "https://content.guardianapis.com/media/2013/jan/30/eric-cantona-kronenbourg-ad", "isHosted": false, "pillarId": "pillar/news", "pillarName": "News"}, {"id": "football/blog/2013/jan/30/transfer-window-players-buy-open-thread", "type": "article", "sectionId": "football", "sectionName": "Football", "webPublicationDate": "2013-01-30T12:13:56Z", "webTitle": "Transfer deadline day: Who should your club buy? \u2013 open thread", "webUrl": "https://www.theguardian.com/football/blog/2013/jan/30/transfer-window-players-buy-open-thread", "apiUrl": "https://content.guardianapis.com/football/blog/2013/jan/30/transfer-window-players-buy-open-thread", "isHosted": false, "pillarId": "pillar/sport", "pillarName": "Sport"}, {"id": "football/gallery/2013/jan/30/beautiful-games-digital-football-drawings", "type": "gallery", "sectionId": "football", "sectionName": "Football", "webPublicationDate": "2013-01-30T10:32:29Z", "webTitle": "Beautiful Games: digital football drawings by Matheus Toscano", "webUrl": "https://www.theguardian.com/football/gallery/2013/jan/30/beautiful-games-digital-football-drawings", "apiUrl": "https://content.guardianapis.com/football/gallery/2013/jan/30/beautiful-games-digital-football-drawings", "isHosted": false, "pillarId": "pillar/sport", "pillarName": "Sport"}, {"id": "football/2013/jan/30/transfer-rumours-villa-manchester-city-arsenal", "type": "article", "sectionId": "football", "sectionName": "Football", "webPublicationDate": "2013-01-30T09:11:11Z", "webTitle": "Football transfer rumours: David Villa to Manchester City or Arsenal?", "webUrl": "https://www.theguardian.com/football/2013/jan/30/transfer-rumours-villa-manchester-city-arsenal", "apiUrl": "https://content.guardianapis.com/football/2013/jan/30/transfer-rumours-villa-manchester-city-arsenal", "isHosted": false, "pillarId": "pillar/sport", "pillarName": "Sport"}, {"id": "football/blog/2013/jan/30/aston-villa-newcastle-united-paul-lambert", "type": "article", "sectionId": "football", "sectionName": "Football", "webPublicationDate": "2013-01-30T00:49:20Z", "webTitle": "Aston Villa badly wounded by Newcastle's foreign legion | Stuart James", "webUrl": "https://www.theguardian.com/football/blog/2013/jan/30/aston-villa-newcastle-united-paul-lambert", "apiUrl": "https://content.guardianapis.com/football/blog/2013/jan/30/aston-villa-newcastle-united-paul-lambert", "isHosted": false, "pillarId": "pillar/sport", "pillarName": "Sport"}, {"id": "sport/blog/2013/jan/30/manchester-city-miss-yaya-toure", "type": "article", "sectionId": "football", "sectionName": "Football", "webPublicationDate": "2013-01-30T00:34:18Z", "webTitle": "Manchester City miss Yaya Tour\u00e9 more than Mario Balotelli against QPR", "webUrl": "https://www.theguardian.com/sport/blog/2013/jan/30/manchester-city-miss-yaya-toure", "apiUrl": "https://content.guardianapis.com/sport/blog/2013/jan/30/manchester-city-miss-yaya-toure", "isHosted": false, "pillarId": "pillar/sport", "pillarName": "Sport"}, {"id": "football/2013/jan/30/best-ground-goals-the-knowledge", "type": "article", "sectionId": "football", "sectionName": "Football", "webPublicationDate": "2013-01-30T00:01:06Z", "webTitle": "Which is the best ground ever for guaranteed goals? | The Knowledge", "webUrl": "https://www.theguardian.com/football/2013/jan/30/best-ground-goals-the-knowledge", "apiUrl": "https://content.guardianapis.com/football/2013/jan/30/best-ground-goals-the-knowledge", "isHosted": false, "pillarId": "pillar/sport", "pillarName": "Sport"}, {"id": "football/2013/jan/29/roberto-mancini-mario-balotelli-manchester-city", "type": "article", "sectionId": "football", "sectionName": "Football", "webPublicationDate": "2013-01-29T23:51:39Z", "webTitle": "Roberto Mancini 'so sad' over Mario Balotelli's Manchester City exit", "webUrl": "https://www.theguardian.com/football/2013/jan/29/roberto-mancini-mario-balotelli-manchester-city", "apiUrl": "https://content.guardianapis.com/football/2013/jan/29/roberto-mancini-mario-balotelli-manchester-city", "isHosted": false, "pillarId": "pillar/sport", "pillarName": "Sport"}, {"id": "football/2013/jan/29/mario-balotell-exit-planned-manchester-city", "type": "article", "sectionId": "football", "sectionName": "Football", "webPublicationDate": "2013-01-29T23:23:00Z", "webTitle": "Mario Balotelli exit planned by Manchester City for a fortnight", "webUrl": "https://www.theguardian.com/football/2013/jan/29/mario-balotell-exit-planned-manchester-city", "apiUrl": "https://content.guardianapis.com/football/2013/jan/29/mario-balotell-exit-planned-manchester-city", "isHosted": false, "pillarId": "pillar/sport", "pillarName": "Sport"}, {"id": "football/2013/jan/29/qpr-peter-odemwingie-peter-crouch", "type": "article", "sectionId": "football", "sectionName": "Football", "webPublicationDate": "2013-01-29T23:06:00Z", "webTitle": "QPR must up bids to land strikers Peter Odemwingie and Peter Crouch", "webUrl": "https://www.theguardian.com/football/2013/jan/29/qpr-peter-odemwingie-peter-crouch", "apiUrl": "https://content.guardianapis.com/football/2013/jan/29/qpr-peter-odemwingie-peter-crouch", "isHosted": false, "pillarId": "pillar/sport", "pillarName": "Sport"}, {"id": "football/2013/jan/29/transfer-window-news-in-brief", "type": "article", "sectionId": "football", "sectionName": "Football", "webPublicationDate": "2013-01-29T23:00:05Z", "webTitle": "Transfer window news in brief", "webUrl": "https://www.theguardian.com/football/2013/jan/29/transfer-window-news-in-brief", "apiUrl": "https://content.guardianapis.com/football/2013/jan/29/transfer-window-news-in-brief", "isHosted": false, "pillarId": "pillar/sport", "pillarName": "Sport"}, {"id": "football/2013/jan/29/brendan-rodgers-steven-gerrard-liverpool", "type": "article", "sectionId": "football", "sectionName": "Football", "webPublicationDate": "2013-01-29T23:00:05Z", "webTitle": "Brendan Rodgers wants captain Steven Gerrard to stay on at Liverpool", "webUrl": "https://www.theguardian.com/football/2013/jan/29/brendan-rodgers-steven-gerrard-liverpool", "apiUrl": "https://content.guardianapis.com/football/2013/jan/29/brendan-rodgers-steven-gerrard-liverpool", "isHosted": false, "pillarId": "pillar/sport", "pillarName": "Sport"}, {"id": "football/2013/jan/29/chelsea-rafael-benitez-top-four", "type": "article", "sectionId": "football", "sectionName": "Football", "webPublicationDate": "2013-01-29T23:00:04Z", "webTitle": "Chelsea tell Rafael Ben\u00edtez to prioritise top-four finish", "webUrl": "https://www.theguardian.com/football/2013/jan/29/chelsea-rafael-benitez-top-four", "apiUrl": "https://content.guardianapis.com/football/2013/jan/29/chelsea-rafael-benitez-top-four", "isHosted": false, "pillarId": "pillar/sport", "pillarName": "Sport"}, {"id": "football/blog/2013/jan/29/lewis-holtby-tottenham-hotspur", "type": "article", "sectionId": "football", "sectionName": "Football", "webPublicationDate": "2013-01-29T22:30:13Z", "webTitle": "Lewis Holtby could prove to be Tottenham's deal of the century | David Hytner", "webUrl": "https://www.theguardian.com/football/blog/2013/jan/29/lewis-holtby-tottenham-hotspur", "apiUrl": "https://content.guardianapis.com/football/blog/2013/jan/29/lewis-holtby-tottenham-hotspur", "isHosted": false, "pillarId": "pillar/sport", "pillarName": "Sport"}, {"id": "football/2013/jan/29/tottenham-sign-striker-jermain-defoe", "type": "article", "sectionId": "football", "sectionName": "Football", "webPublicationDate": "2013-01-29T22:30:04Z", "webTitle": "Tottenham in market for striker while Jermain Defoe nurses muscle tear", "webUrl": "https://www.theguardian.com/football/2013/jan/29/tottenham-sign-striker-jermain-defoe", "apiUrl": "https://content.guardianapis.com/football/2013/jan/29/tottenham-sign-striker-jermain-defoe", "isHosted": false, "pillarId": "pillar/sport", "pillarName": "Sport"}]}}