{"response": {"status": "ok", "userTier": "developer", "total": 84597, "startIndex": 1, "pageSize": 50, "currentPage": 1, "pages": 1692, "orderBy": "newest", "results": [{"id": "football/2011/jan/30/robbie-keane-scott-parker-west-ham", "type": "article", "sectionId": "football", "sectionName": "Football", "webPublicationDate": "2011-01-30T23:39:00Z", "webTitle": "West Ham banking on Robbie Keane to keep them in Premier League", "webUrl": "https://www.theguardian.com/football/2011/jan/30/robbie-keane-scott-parker-west-ham", "apiUrl": "https://content.guardianapis.com/football/2011/jan/30/robbie-keane-scott-parker-west-ham", "isHosted": false, "pillarId": "pillar/sport", "pillarName": "Sport"}, {"id": "football/2011/jan/30/cesc-fabregas-twitter-arsenal-huddersfield-town", "type": "article", "sectionId": "football", "sectionName": "Football", "webPublicationDate": "2011-01-30T22:36:00Z", "webTitle": "Cesc F\u00e1bregas in Twitter row after Arsenal's defeat of Huddersfield", "webUrl": "https://www.theguardian.com/football/2011/jan/30/cesc-fabregas-twitter-arsenal-huddersfield-town", "apiUrl": "https://content.guardianapis.com/football/2011/jan/30/cesc-fabregas-twitter-arsenal-huddersfield-town", "isHosted": false, "pillarId": "pillar/sport", "pillarName": "Sport"}, {"id": "football/2011/jan/30/liverpool-fernando-torres-chelsea", "type": "article", "sectionId": "football", "sectionName": "Football", "webPublicationDate": "2011-01-30T22:31:00Z", "webTitle": "Liverpool ready to spend \u00a350m as Fernando Torres nears Chelsea move", "webUrl": "https://www.theguardian.com/football/2011/jan/30/liverpool-fernando-torres-chelsea", "apiUrl": "https://content.guardianapis.com/football/2011/jan/30/liverpool-fernando-torres-chelsea", "isHosted": false, "pillarId": "pillar/sport", "pillarName": "Sport"}, {"id": "football/2011/jan/30/torquay-united-crawley-town-fa-cup", "type": "article", "sectionId": "football", "sectionName": "Football", "webPublicationDate": "2011-01-30T22:01:01Z", "webTitle": "'If any non-league club can beat Manchester United, it's Crawley Town'", "webUrl": "https://www.theguardian.com/football/2011/jan/30/torquay-united-crawley-town-fa-cup", "apiUrl": "https://content.guardianapis.com/football/2011/jan/30/torquay-united-crawley-town-fa-cup", "isHosted": false, "pillarId": "pillar/sport", "pillarName": "Sport"}, {"id": "football/2011/jan/30/manchester-city-sexism-notts-county", "type": "article", "sectionId": "football", "sectionName": "Football", "webPublicationDate": "2011-01-30T21:54:00Z", "webTitle": "Manchester City allege employee was victim of Notts County 'sexism'", "webUrl": "https://www.theguardian.com/football/2011/jan/30/manchester-city-sexism-notts-county", "apiUrl": "https://content.guardianapis.com/football/2011/jan/30/manchester-city-sexism-notts-county", "isHosted": false, "pillarId": "pillar/sport", "pillarName": "Sport"}, {"id": "football/2011/jan/30/wolves-jamie-ohara-loan-tottenham-hotspur", "type": "article", "sectionId": "football", "sectionName": "Football", "webPublicationDate": "2011-01-30T21:44:56Z", "webTitle": "Wolves confirm Jamie O'Hara loan signing from Tottenham Hotspur", "webUrl": "https://www.theguardian.com/football/2011/jan/30/wolves-jamie-ohara-loan-tottenham-hotspur", "apiUrl": "https://content.guardianapis.com/football/2011/jan/30/wolves-jamie-ohara-loan-tottenham-hotspur", "isHosted": false, "pillarId": "pillar/sport", "pillarName": "Sport"}, {"id": "football/2011/jan/30/stoke-city-tuncay-sanli-wolfsburg-offer", "type": "article", "sectionId": "football", "sectionName": "Football", "webPublicationDate": "2011-01-30T21:09:46Z", "webTitle": "Stoke City's Tony Pulis: Wolfsburg have made offer for Tuncay Sanli", "webUrl": "https://www.theguardian.com/football/2011/jan/30/stoke-city-tuncay-sanli-wolfsburg-offer", "apiUrl": "https://content.guardianapis.com/football/2011/jan/30/stoke-city-tuncay-sanli-wolfsburg-offer", "isHosted": false, "pillarId": "pillar/sport", "pillarName": "Sport"}, {"id": "football/2011/jan/30/harry-redknapp-andy-carroll-tottenham-hotspur", "type": "article", "sectionId": "football", "sectionName": "Football", "webPublicationDate": "2011-01-30T21:08:37Z", "webTitle": "Harry Redknapp hedges over late Tottenham bid for Andy Carroll", "webUrl": "https://www.theguardian.com/football/2011/jan/30/harry-redknapp-andy-carroll-tottenham-hotspur", "apiUrl": "https://content.guardianapis.com/football/2011/jan/30/harry-redknapp-andy-carroll-tottenham-hotspur", "isHosted": false, "pillarId": "pillar/sport", "pillarName": "Sport"}, {"id": "football/2011/jan/30/fulham-tottenham-hotspur-fa-cup", "type": "article", "sectionId": "football", "sectionName": "Football", "webPublicationDate": "2011-01-30T21:04:00Z", "webTitle": "Fulham 4-0 Tottenham Hotspur | FA Cup match report", "webUrl": "https://www.theguardian.com/football/2011/jan/30/fulham-tottenham-hotspur-fa-cup", "apiUrl": "https://content.guardianapis.com/football/2011/jan/30/fulham-tottenham-hotspur-fa-cup", "isHosted": false, "pillarId": "pillar/sport", "pillarName": "Sport"}, {"id": "football/2011/jan/30/adam-johnson-ankle-injury-roberto-mancini", "type": "article", "sectionId": "football", "sectionName": "Football", "webPublicationDate": "2011-01-30T21:00:05Z", "webTitle": "Adam Johnson's injury forces Roberto Mancini back into transfer market", "webUrl": "https://www.theguardian.com/football/2011/jan/30/adam-johnson-ankle-injury-roberto-mancini", "apiUrl": "https://content.guardianapis.com/football/2011/jan/30/adam-johnson-ankle-injury-roberto-mancini", "isHosted": false, "pillarId": "pillar/sport", "pillarName": "Sport"}, {"id": "football/2011/jan/30/rangers-motherwell-scottish-league-cup", "type": "article", "sectionId": "football", "sectionName": "Football", "webPublicationDate": "2011-01-30T20:51:09Z", "webTitle": "Rangers 2-1 Motherwell | Scottish Cup match report", "webUrl": "https://www.theguardian.com/football/2011/jan/30/rangers-motherwell-scottish-league-cup", "apiUrl": "https://content.guardianapis.com/football/2011/jan/30/rangers-motherwell-scottish-league-cup", "isHosted": false, "pillarId": "pillar/sport", "pillarName": "Sport"}, {"id": "football/2011/jan/30/aston-villa-michael-bradley-stephen-ireland", "type": "article", "sectionId": "football", "sectionName": "Football", "webPublicationDate": "2011-01-30T18:44:59Z", "webTitle": "Aston Villa to sign Michael Bradley on loan and let Stephen Ireland go", "webUrl": "https://www.theguardian.com/football/2011/jan/30/aston-villa-michael-bradley-stephen-ireland", "apiUrl": "https://content.guardianapis.com/football/2011/jan/30/aston-villa-michael-bradley-stephen-ireland", "isHosted": false, "pillarId": "pillar/sport", "pillarName": "Sport"}, {"id": "football/2011/jan/30/rod-wilson-women-football-norway", "type": "article", "sectionId": "football", "sectionName": "Football", "webPublicationDate": "2011-01-30T18:39:53Z", "webTitle": "Trip to Norway is a real eye-opener for Lincoln Ladies' Rod Wilson", "webUrl": "https://www.theguardian.com/football/2011/jan/30/rod-wilson-women-football-norway", "apiUrl": "https://content.guardianapis.com/football/2011/jan/30/rod-wilson-women-football-norway", "isHosted": false, "pillarId": "pillar/sport", "pillarName": "Sport"}, {"id": "football/gallery/2011/jan/30/fa-cup-in-pictures", "type": "gallery", "sectionId": "football", "sectionName": "Football", "webPublicationDate": "2011-01-30T18:06:00Z", "webTitle": "The best FA Cup action \u2013 in pictures", "webUrl": "https://www.theguardian.com/football/gallery/2011/jan/30/fa-cup-in-pictures", "apiUrl": "https://content.guardianapis.com/football/gallery/2011/jan/30/fa-cup-in-pictures", "isHosted": false, "pillarId": "pillar/sport", "pillarName": "Sport"}, {"id": "football/2011/jan/30/west-ham-united-nottingham-forest-fa-cup", "type": "article", "sectionId": "football", "sectionName": "Football", "webPublicationDate": "2011-01-30T16:33:23Z", "webTitle": "West Ham United 3-2 Nottingham Forest | FA Cup matchhttp://www.guardian.co.uk/football/2011/jan/30/west-ham-united-nottingham-forest-fa-cup", "webUrl": "https://www.theguardian.com/football/2011/jan/30/west-ham-united-nottingham-forest-fa-cup", "apiUrl": "https://content.guardianapis.com/football/2011/jan/30/west-ham-united-nottingham-forest-fa-cup", "isHosted": false, "pillarId": "pillar/sport", "pillarName": "Sport"}, {"id": "football/2011/jan/30/fa-cup-fifth-round-draw", "type": "article", "sectionId": "football", "sectionName": "Football", "webPublicationDate": "2011-01-30T16:31:03Z", "webTitle": "Crawley Town to face Manchester United in FA Cup fifth round", "webUrl": "https://www.theguardian.com/football/2011/jan/30/fa-cup-fifth-round-draw", "apiUrl": "https://content.guardianapis.com/football/2011/jan/30/fa-cup-fifth-round-draw", "isHosted": false, "pillarId": "pillar/sport", "pillarName": "Sport"}, {"id": "football/2011/jan/30/notts-county-manchester-city-fa-cup", "type": "article", "sectionId": "football", "sectionName": "Football", "webPublicationDate": "2011-01-30T16:18:08Z", "webTitle": "Notts County 1-1 Manchester City | FA Cup match report", "webUrl": "https://www.theguardian.com/football/2011/jan/30/notts-county-manchester-city-fa-cup", "apiUrl": "https://content.guardianapis.com/football/2011/jan/30/notts-county-manchester-city-fa-cup", "isHosted": false, "pillarId": "pillar/sport", "pillarName": "Sport"}, {"id": "football/2011/jan/30/samir-nasri-hamstring-injury", "type": "article", "sectionId": "football", "sectionName": "Football", "webPublicationDate": "2011-01-30T15:55:02Z", "webTitle": "Arsenal's Samir Nasri a doubt for Champions League tie with Barcelona", "webUrl": "https://www.theguardian.com/football/2011/jan/30/samir-nasri-hamstring-injury", "apiUrl": "https://content.guardianapis.com/football/2011/jan/30/samir-nasri-hamstring-injury", "isHosted": false, "pillarId": "pillar/sport", "pillarName": "Sport"}, {"id": "football/2011/jan/30/fa-cup-fulham-tottenham-hotspur-live", "type": "article", "sectionId": "football", "sectionName": "Football", "webPublicationDate": "2011-01-30T15:21:00Z", "webTitle": "Fulham v Tottenham Hotspur - as it happened | Rob Bagchi", "webUrl": "https://www.theguardian.com/football/2011/jan/30/fa-cup-fulham-tottenham-hotspur-live", "apiUrl": "https://content.guardianapis.com/football/2011/jan/30/fa-cup-fulham-tottenham-hotspur-live", "isHosted": false, "pillarId": "pillar/sport", "pillarName": "Sport"}, {"id": "football/2011/jan/30/wolverhampton-wanderers-stoke-city-fa-cup", "type": "article", "sectionId": "football", "sectionName": "Football", "webPublicationDate": "2011-01-30T15:16:36Z", "webTitle": "Wolverhampton Wanderers 0-1 Stoke City | FA Cup match report", "webUrl": "https://www.theguardian.com/football/2011/jan/30/wolverhampton-wanderers-stoke-city-fa-cup", "apiUrl": "https://content.guardianapis.com/football/2011/jan/30/wolverhampton-wanderers-stoke-city-fa-cup", "isHosted": false, "pillarId": "pillar/sport", "pillarName": "Sport"}, {"id": "football/2011/jan/30/arsenal-huddersfield-town-fa-cup", "type": "article", "sectionId": "football", "sectionName": "Football", "webPublicationDate": "2011-01-30T14:50:42Z", "webTitle": "Arsenal 2-1 Huddersfield Town | FA Cup match report", "webUrl": "https://www.theguardian.com/football/2011/jan/30/arsenal-huddersfield-town-fa-cup", "apiUrl": "https://content.guardianapis.com/football/2011/jan/30/arsenal-huddersfield-town-fa-cup", "isHosted": false, "pillarId": "pillar/sport", "pillarName": "Sport"}, {"id": "football/2011/jan/30/fernando-torres-chelsea", "type": "article", "sectionId": "football", "sectionName": "Football", "webPublicationDate": "2011-01-30T00:32:37Z", "webTitle": "Bigger bid can make Fernando Torres a Chelsea player", "webUrl": "https://www.theguardian.com/football/2011/jan/30/fernando-torres-chelsea", "apiUrl": "https://content.guardianapis.com/football/2011/jan/30/fernando-torres-chelsea", "isHosted": false, "pillarId": "pillar/sport", "pillarName": "Sport"}, {"id": "media/2011/jan/30/espn-fa-cup-sky-sports", "type": "article", "sectionId": "media", "sectionName": "Media", "webPublicationDate": "2011-01-30T00:09:01Z", "webTitle": "Disney-backed ESPN line up against Rupert Murdoch", "webUrl": "https://www.theguardian.com/media/2011/jan/30/espn-fa-cup-sky-sports", "apiUrl": "https://content.guardianapis.com/media/2011/jan/30/espn-fa-cup-sky-sports", "isHosted": false, "pillarId": "pillar/news", "pillarName": "News"}, {"id": "football/blog/2011/jan/30/dimitar-berbatov-manchester-united", "type": "article", "sectionId": "football", "sectionName": "Football", "webPublicationDate": "2011-01-30T00:09:01Z", "webTitle": "Dimitar Berbatov turns from luxury item into essential goods | Paul Wilson", "webUrl": "https://www.theguardian.com/football/blog/2011/jan/30/dimitar-berbatov-manchester-united", "apiUrl": "https://content.guardianapis.com/football/blog/2011/jan/30/dimitar-berbatov-manchester-united", "isHosted": false, "pillarId": "pillar/sport", "pillarName": "Sport"}, {"id": "sport/blog/2011/jan/30/liverpool-fernando-torres-paul-hayward", "type": "article", "sectionId": "football", "sectionName": "Football", "webPublicationDate": "2011-01-30T00:09:00Z", "webTitle": "Liverpool selling Fernando Torres would be a sign of self-confidence | Paul Hayward", "webUrl": "https://www.theguardian.com/sport/blog/2011/jan/30/liverpool-fernando-torres-paul-hayward", "apiUrl": "https://content.guardianapis.com/sport/blog/2011/jan/30/liverpool-fernando-torres-paul-hayward", "isHosted": false, "pillarId": "pillar/sport", "pillarName": "Sport"}, {"id": "commentisfree/2011/jan/30/andy-gray-richard-keys-sexism-sport", "type": "article", "sectionId": "commentisfree", "sectionName": "Opinion", "webPublicationDate": "2011-01-30T00:07:28Z", "webTitle": "Forget getting rid of sexism in sport. Let's get rid of sport | Catherine Bennett", "webUrl": "https://www.theguardian.com/commentisfree/2011/jan/30/andy-gray-richard-keys-sexism-sport", "apiUrl": "https://content.guardianapis.com/commentisfree/2011/jan/30/andy-gray-richard-keys-sexism-sport", "isHosted": false, "pillarId": "pillar/opinion", "pillarName": "Opinion"}, {"id": "commentisfree/2011/jan/30/david-mitchell-andy-gray-sexism", "type": "article", "sectionId": "commentisfree", "sectionName": "Opinion", "webPublicationDate": "2011-01-30T00:06:24Z", "webTitle": "Andy Gray and Richard Keys have finally met their Waterloo. I'm glad | David Mitchell", "webUrl": "https://www.theguardian.com/commentisfree/2011/jan/30/david-mitchell-andy-gray-sexism", "apiUrl": "https://content.guardianapis.com/commentisfree/2011/jan/30/david-mitchell-andy-gray-sexism", "isHosted": false, "pillarId": "pillar/opinion", "pillarName": "Opinion"}, {"id": "football/2011/jan/30/said-done-sexism-gray-keys", "type": "article", "sectionId": "football", "sectionName": "Football", "webPublicationDate": "2011-01-30T00:05:00Z", "webTitle": "Said & Done | David Hills", "webUrl": "https://www.theguardian.com/football/2011/jan/30/said-done-sexism-gray-keys", "apiUrl": "https://content.guardianapis.com/football/2011/jan/30/said-done-sexism-gray-keys", "isHosted": false, "pillarId": "pillar/sport", "pillarName": "Sport"}, {"id": "tv-and-radio/2011/jan/30/richard-keys-sexism-mark-thomas-review", "type": "article", "sectionId": "tv-and-radio", "sectionName": "Television & radio", "webPublicationDate": "2011-01-30T00:04:18Z", "webTitle": "Rewind radio: Hawksbee & Jacobs; Just How Sexist Is Sport?; The Honest Musician's Fear of Accidental Plagiarism; Mark Thomas: The Manifesto; Desert Island Discs \u2013 review", "webUrl": "https://www.theguardian.com/tv-and-radio/2011/jan/30/richard-keys-sexism-mark-thomas-review", "apiUrl": "https://content.guardianapis.com/tv-and-radio/2011/jan/30/richard-keys-sexism-mark-thomas-review", "isHosted": false, "pillarId": "pillar/arts", "pillarName": "Arts"}, {"id": "football/2011/jan/30/billy-davies-nottingham-forest-premier-league", "type": "article", "sectionId": "football", "sectionName": "Football", "webPublicationDate": "2011-01-30T00:01:07Z", "webTitle": "Billy Davies focusing on Nottingham Forest's Premier League return", "webUrl": "https://www.theguardian.com/football/2011/jan/30/billy-davies-nottingham-forest-premier-league", "apiUrl": "https://content.guardianapis.com/football/2011/jan/30/billy-davies-nottingham-forest-premier-league", "isHosted": false, "pillarId": "pillar/sport", "pillarName": "Sport"}, {"id": "football/2011/jan/29/torquay-crawley-fa-cup", "type": "article", "sectionId": "football", "sectionName": "Football", "webPublicationDate": "2011-01-29T23:53:00Z", "webTitle": "Torquay United 0-1 Crawley Town | FA Cup fourth round match report", "webUrl": "https://www.theguardian.com/football/2011/jan/29/torquay-crawley-fa-cup", "apiUrl": "https://content.guardianapis.com/football/2011/jan/29/torquay-crawley-fa-cup", "isHosted": false, "pillarId": "pillar/sport", "pillarName": "Sport"}, {"id": "football/2011/jan/29/steven-pienaar-tottenham-hotspur-fulham", "type": "article", "sectionId": "football", "sectionName": "Football", "webPublicationDate": "2011-01-29T22:30:00Z", "webTitle": "Steven Pienaar says he chose Spurs over Chelsea because of ambition", "webUrl": "https://www.theguardian.com/football/2011/jan/29/steven-pienaar-tottenham-hotspur-fulham", "apiUrl": "https://content.guardianapis.com/football/2011/jan/29/steven-pienaar-tottenham-hotspur-fulham", "isHosted": false, "pillarId": "pillar/sport", "pillarName": "Sport"}, {"id": "football/2011/jan/29/patrick-vieira-manchester-city", "type": "article", "sectionId": "football", "sectionName": "Football", "webPublicationDate": "2011-01-29T22:30:00Z", "webTitle": "Patrick Vieira eager to extend his Manchester City career", "webUrl": "https://www.theguardian.com/football/2011/jan/29/patrick-vieira-manchester-city", "apiUrl": "https://content.guardianapis.com/football/2011/jan/29/patrick-vieira-manchester-city", "isHosted": false, "pillarId": "pillar/sport", "pillarName": "Sport"}, {"id": "football/2011/jan/29/hearts-st-johnstone-spl", "type": "article", "sectionId": "football", "sectionName": "Football", "webPublicationDate": "2011-01-29T20:14:33Z", "webTitle": "Rudi Skacel returns Hearts to winning ways against St Johnstone", "webUrl": "https://www.theguardian.com/football/2011/jan/29/hearts-st-johnstone-spl", "apiUrl": "https://content.guardianapis.com/football/2011/jan/29/hearts-st-johnstone-spl", "isHosted": false, "pillarId": "pillar/sport", "pillarName": "Sport"}, {"id": "football/2011/jan/29/southampton-manchester-united-fa-cup", "type": "article", "sectionId": "football", "sectionName": "Football", "webPublicationDate": "2011-01-29T19:35:18Z", "webTitle": "Southampton 1-2 Manchester United | FA Cup fourth-round match report", "webUrl": "https://www.theguardian.com/football/2011/jan/29/southampton-manchester-united-fa-cup", "apiUrl": "https://content.guardianapis.com/football/2011/jan/29/southampton-manchester-united-fa-cup", "isHosted": false, "pillarId": "pillar/sport", "pillarName": "Sport"}, {"id": "football/2011/jan/29/aberdeen-celtic-cis-cup", "type": "article", "sectionId": "football", "sectionName": "Football", "webPublicationDate": "2011-01-29T17:46:33Z", "webTitle": "Aberdeen 1-4 Celtic | CIS Insurance Cup semi-final match report", "webUrl": "https://www.theguardian.com/football/2011/jan/29/aberdeen-celtic-cis-cup", "apiUrl": "https://content.guardianapis.com/football/2011/jan/29/aberdeen-celtic-cis-cup", "isHosted": false, "pillarId": "pillar/sport", "pillarName": "Sport"}, {"id": "football/2011/jan/29/burnley-burton-albion-fa-cup", "type": "article", "sectionId": "football", "sectionName": "Football", "webPublicationDate": "2011-01-29T17:31:16Z", "webTitle": "Burnley 3-1 Burton Albion | FA Cup fourth-round match report", "webUrl": "https://www.theguardian.com/football/2011/jan/29/burnley-burton-albion-fa-cup", "apiUrl": "https://content.guardianapis.com/football/2011/jan/29/burnley-burton-albion-fa-cup", "isHosted": false, "pillarId": "pillar/sport", "pillarName": "Sport"}, {"id": "football/2011/jan/29/stevenage-borough-reading-fa-cup", "type": "article", "sectionId": "football", "sectionName": "Football", "webPublicationDate": "2011-01-29T17:22:09Z", "webTitle": "Stevenage 1-2 Reading | FA Cup fourth round match report", "webUrl": "https://www.theguardian.com/football/2011/jan/29/stevenage-borough-reading-fa-cup", "apiUrl": "https://content.guardianapis.com/football/2011/jan/29/stevenage-borough-reading-fa-cup", "isHosted": false, "pillarId": "pillar/sport", "pillarName": "Sport"}, {"id": "football/2011/jan/29/birmingham-city-coventry-city-fa-cup", "type": "article", "sectionId": "football", "sectionName": "Football", "webPublicationDate": "2011-01-29T17:17:40Z", "webTitle": "Birmingham City 3-2 Coventry City | FA Cup fourth-round match report", "webUrl": "https://www.theguardian.com/football/2011/jan/29/birmingham-city-coventry-city-fa-cup", "apiUrl": "https://content.guardianapis.com/football/2011/jan/29/birmingham-city-coventry-city-fa-cup", "isHosted": false, "pillarId": "pillar/sport", "pillarName": "Sport"}, {"id": "football/2011/jan/29/watford-brighton-and-hove-albion-fa-cup", "type": "article", "sectionId": "football", "sectionName": "Football", "webPublicationDate": "2011-01-29T17:17:10Z", "webTitle": "Watford 0-1 Brighton and Hove Albion | FA Cup fourth-round report", "webUrl": "https://www.theguardian.com/football/2011/jan/29/watford-brighton-and-hove-albion-fa-cup", "apiUrl": "https://content.guardianapis.com/football/2011/jan/29/watford-brighton-and-hove-albion-fa-cup", "isHosted": false, "pillarId": "pillar/sport", "pillarName": "Sport"}, {"id": "football/football-league-blog/2011/jan/29/football-league-your-thoughts", "type": "article", "sectionId": "football", "sectionName": "Football", "webPublicationDate": "2011-01-29T17:14:00Z", "webTitle": "Football League: Your thoughts | Jacob Steinberg", "webUrl": "https://www.theguardian.com/football/football-league-blog/2011/jan/29/football-league-your-thoughts", "apiUrl": "https://content.guardianapis.com/football/football-league-blog/2011/jan/29/football-league-your-thoughts", "isHosted": false, "pillarId": "pillar/sport", "pillarName": "Sport"}, {"id": "football/2011/jan/29/bolton-wigan-fa-cup", "type": "article", "sectionId": "football", "sectionName": "Football", "webPublicationDate": "2011-01-29T17:10:54Z", "webTitle": "Bolton Wanderers 0-0 Wigan Athletic | FA Cup fourth-round match report", "webUrl": "https://www.theguardian.com/football/2011/jan/29/bolton-wigan-fa-cup", "apiUrl": "https://content.guardianapis.com/football/2011/jan/29/bolton-wigan-fa-cup", "isHosted": false, "pillarId": "pillar/sport", "pillarName": "Sport"}, {"id": "football/2011/jan/29/sheffield-wednesday-hereford-fa-cup", "type": "article", "sectionId": "football", "sectionName": "Football", "webPublicationDate": "2011-01-29T17:01:16Z", "webTitle": "Sheffield Wednesday 4-1 Hereford United | FA Cup fourth-round match report", "webUrl": "https://www.theguardian.com/football/2011/jan/29/sheffield-wednesday-hereford-fa-cup", "apiUrl": "https://content.guardianapis.com/football/2011/jan/29/sheffield-wednesday-hereford-fa-cup", "isHosted": false, "pillarId": "pillar/sport", "pillarName": "Sport"}, {"id": "football/2011/jan/29/aston-villa-blackburn-rovers-fa-cup", "type": "article", "sectionId": "football", "sectionName": "Football", "webPublicationDate": "2011-01-29T15:06:47Z", "webTitle": "Aston Villa 3-1 Blackburn Rovers | FA Cup fourth round match report", "webUrl": "https://www.theguardian.com/football/2011/jan/29/aston-villa-blackburn-rovers-fa-cup", "apiUrl": "https://content.guardianapis.com/football/2011/jan/29/aston-villa-blackburn-rovers-fa-cup", "isHosted": false, "pillarId": "pillar/sport", "pillarName": "Sport"}, {"id": "football/2011/jan/29/swansea-city-leyton-orient-fa-cup", "type": "article", "sectionId": "football", "sectionName": "Football", "webPublicationDate": "2011-01-29T15:05:42Z", "webTitle": "Swansea City 1-2 Leyton Orient | FA Cup fourth-round match report", "webUrl": "https://www.theguardian.com/football/2011/jan/29/swansea-city-leyton-orient-fa-cup", "apiUrl": "https://content.guardianapis.com/football/2011/jan/29/swansea-city-leyton-orient-fa-cup", "isHosted": false, "pillarId": "pillar/sport", "pillarName": "Sport"}, {"id": "football/2011/jan/29/everton-chelsea-fa-cup", "type": "article", "sectionId": "football", "sectionName": "Football", "webPublicationDate": "2011-01-29T14:37:33Z", "webTitle": "Everton 1-1 Chelsea | FA Cup fourth-round match report", "webUrl": "https://www.theguardian.com/football/2011/jan/29/everton-chelsea-fa-cup", "apiUrl": "https://content.guardianapis.com/football/2011/jan/29/everton-chelsea-fa-cup", "isHosted": false, "pillarId": "pillar/sport", "pillarName": "Sport"}, {"id": "football/2011/jan/29/fa-cup-saturday-clockwatch-live", "type": "article", "sectionId": "football", "sectionName": "Football", "webPublicationDate": "2011-01-29T14:31:00Z", "webTitle": "FA Cup Saturday Clockwatch - as it happened | Evan Fanning", "webUrl": "https://www.theguardian.com/football/2011/jan/29/fa-cup-saturday-clockwatch-live", "apiUrl": "https://content.guardianapis.com/football/2011/jan/29/fa-cup-saturday-clockwatch-live", "isHosted": false, "pillarId": "pillar/sport", "pillarName": "Sport"}, {"id": "football/2011/jan/29/everton-chelsea-live", "type": "article", "sectionId": "football", "sectionName": "Football", "webPublicationDate": "2011-01-29T11:54:00Z", "webTitle": "Everton v Chelsea - as it happened | Jacob Steinberg", "webUrl": "https://www.theguardian.com/football/2011/jan/29/everton-chelsea-live", "apiUrl": "https://content.guardianapis.com/football/2011/jan/29/everton-chelsea-live", "isHosted": false, "pillarId": "pillar/sport", "pillarName": "Sport"}, {"id": "football/2011/jan/29/lee-clark-huddersfield-town", "type": "article", "sectionId": "football", "sectionName": "Football", "webPublicationDate": "2011-01-29T09:00:01Z", "webTitle": "Huddersfield's Lee Clark puts Ars\u00e8ne Wenger's philosophy to acid test", "webUrl": "https://www.theguardian.com/football/2011/jan/29/lee-clark-huddersfield-town", "apiUrl": "https://content.guardianapis.com/football/2011/jan/29/lee-clark-huddersfield-town", "isHosted": false, "pillarId": "pillar/sport", "pillarName": "Sport"}, {"id": "football/2011/jan/29/david-moyes-everton-chelsea-fa-cup", "type": "article", "sectionId": "football", "sectionName": "Football", "webPublicationDate": "2011-01-29T00:07:01Z", "webTitle": "David Moyes hopes Chelsea do not deflate Everton's season in FA Cup", "webUrl": "https://www.theguardian.com/football/2011/jan/29/david-moyes-everton-chelsea-fa-cup", "apiUrl": "https://content.guardianapis.com/football/2011/jan/29/david-moyes-everton-chelsea-fa-cup", "isHosted": false, "pillarId": "pillar/sport", "pillarName": "Sport"}]}}