{"response": {"status": "ok", "userTier": "developer", "total": 133905, "startIndex": 1, "pageSize": 50, "currentPage": 1, "pages": 2679, "orderBy": "newest", "results": [{"id": "politics/2013/jan/30/hugh-muir-diary-prince-edward", "type": "article", "sectionId": "politics", "sectionName": "Politics", "webPublicationDate": "2013-01-30T23:00:02Z", "webTitle": "Hugh Muir's diary: can't fly; can't come. Prince Edward and a royal visit that never was", "webUrl": "https://www.theguardian.com/politics/2013/jan/30/hugh-muir-diary-prince-edward", "apiUrl": "https://content.guardianapis.com/politics/2013/jan/30/hugh-muir-diary-prince-edward", "isHosted": false, "pillarId": "pillar/news", "pillarName": "News"}, {"id": "commentisfree/2013/jan/30/fuel-price-oft-review", "type": "article", "sectionId": "commentisfree", "sectionName": "Opinion", "webPublicationDate": "2013-01-30T22:13:49Z", "webTitle": "Petrol prices: all pumped up | Editorial", "webUrl": "https://www.theguardian.com/commentisfree/2013/jan/30/fuel-price-oft-review", "apiUrl": "https://content.guardianapis.com/commentisfree/2013/jan/30/fuel-price-oft-review", "isHosted": false, "pillarId": "pillar/opinion", "pillarName": "Opinion"}, {"id": "commentisfree/cartoon/2013/jan/30/scottish-independence-referendum-question-cartoon", "type": "picture", "sectionId": "commentisfree", "sectionName": "Opinion", "webPublicationDate": "2013-01-30T22:11:07Z", "webTitle": "Steve Bell on the wording of the Scottish independence referendum question \u2013 cartoon", "webUrl": "https://www.theguardian.com/commentisfree/cartoon/2013/jan/30/scottish-independence-referendum-question-cartoon", "apiUrl": "https://content.guardianapis.com/commentisfree/cartoon/2013/jan/30/scottish-independence-referendum-question-cartoon", "isHosted": false, "pillarId": "pillar/opinion", "pillarName": "Opinion"}, {"id": "world/2013/jan/30/uk-algeria-counter-terrorism-training", "type": "article", "sectionId": "world", "sectionName": "World news", "webPublicationDate": "2013-01-30T21:34:00Z", "webTitle": "Britain to work with Algeria on counter-terrorism, says David Cameron", "webUrl": "https://www.theguardian.com/world/2013/jan/30/uk-algeria-counter-terrorism-training", "apiUrl": "https://content.guardianapis.com/world/2013/jan/30/uk-algeria-counter-terrorism-training", "isHosted": false, "pillarId": "pillar/news", "pillarName": "News"}, {"id": "society/2013/jan/30/report-hospitals-regulation-mid-staffordshire", "type": "article", "sectionId": "society", "sectionName": "Society", "webPublicationDate": "2013-01-30T21:30:00Z", "webTitle": "Hospitals face new army of inspectors in wake of Mid Staffordshire scandal", "webUrl": "https://www.theguardian.com/society/2013/jan/30/report-hospitals-regulation-mid-staffordshire", "apiUrl": "https://content.guardianapis.com/society/2013/jan/30/report-hospitals-regulation-mid-staffordshire", "isHosted": false, "pillarId": "pillar/news", "pillarName": "News"}, {"id": "education/2013/jan/30/cleggs-class-dilemma", "type": "article", "sectionId": "education", "sectionName": "Education", "webPublicationDate": "2013-01-30T21:00:07Z", "webTitle": "Letters: Clegg's class dilemma", "webUrl": "https://www.theguardian.com/education/2013/jan/30/cleggs-class-dilemma", "apiUrl": "https://content.guardianapis.com/education/2013/jan/30/cleggs-class-dilemma", "isHosted": false, "pillarId": "pillar/news", "pillarName": "News"}, {"id": "uk/2013/jan/30/other-side-high-speed-rail-argument", "type": "article", "sectionId": "uk-news", "sectionName": "UK news", "webPublicationDate": "2013-01-30T21:00:05Z", "webTitle": "Letters: Other side of the high-speed rail argument", "webUrl": "https://www.theguardian.com/uk/2013/jan/30/other-side-high-speed-rail-argument", "apiUrl": "https://content.guardianapis.com/uk/2013/jan/30/other-side-high-speed-rail-argument", "isHosted": false, "pillarId": "pillar/news", "pillarName": "News"}, {"id": "business/2013/jan/30/managed-contraction-fritz-schumacher", "type": "article", "sectionId": "business", "sectionName": "Business", "webPublicationDate": "2013-01-30T21:00:04Z", "webTitle": "Letters: Managed contraction", "webUrl": "https://www.theguardian.com/business/2013/jan/30/managed-contraction-fritz-schumacher", "apiUrl": "https://content.guardianapis.com/business/2013/jan/30/managed-contraction-fritz-schumacher", "isHosted": false, "pillarId": "pillar/news", "pillarName": "News"}, {"id": "society/2013/jan/30/final-report-mid-staffs-scandal-devastating-nhs", "type": "article", "sectionId": "society", "sectionName": "Society", "webPublicationDate": "2013-01-30T21:00:02Z", "webTitle": "Final report into Mid Staffs scandal likely to prove devastating for NHS", "webUrl": "https://www.theguardian.com/society/2013/jan/30/final-report-mid-staffs-scandal-devastating-nhs", "apiUrl": "https://content.guardianapis.com/society/2013/jan/30/final-report-mid-staffs-scandal-devastating-nhs", "isHosted": false, "pillarId": "pillar/news", "pillarName": "News"}, {"id": "society/2013/jan/30/must-act-now-nhs-saved", "type": "article", "sectionId": "society", "sectionName": "Society", "webPublicationDate": "2013-01-30T20:59:01Z", "webTitle": "Letters: We must act now if the NHS is to be saved", "webUrl": "https://www.theguardian.com/society/2013/jan/30/must-act-now-nhs-saved", "apiUrl": "https://content.guardianapis.com/society/2013/jan/30/must-act-now-nhs-saved", "isHosted": false, "pillarId": "pillar/news", "pillarName": "News"}, {"id": "commentisfree/2013/jan/30/asylum-theresa-may-private-fiefdom", "type": "article", "sectionId": "commentisfree", "sectionName": "Opinion", "webPublicationDate": "2013-01-30T20:30:00Z", "webTitle": "Asylum has become Theresa May's cruel private fiefdom | Zoe Williams", "webUrl": "https://www.theguardian.com/commentisfree/2013/jan/30/asylum-theresa-may-private-fiefdom", "apiUrl": "https://content.guardianapis.com/commentisfree/2013/jan/30/asylum-theresa-may-private-fiefdom", "isHosted": false, "pillarId": "pillar/opinion", "pillarName": "Opinion"}, {"id": "commentisfree/2013/jan/30/michael-gove-destroying-school-system", "type": "article", "sectionId": "commentisfree", "sectionName": "Opinion", "webPublicationDate": "2013-01-30T20:00:01Z", "webTitle": "Michael Gove is destroying our school system | Suzanne Moore", "webUrl": "https://www.theguardian.com/commentisfree/2013/jan/30/michael-gove-destroying-school-system", "apiUrl": "https://content.guardianapis.com/commentisfree/2013/jan/30/michael-gove-destroying-school-system", "isHosted": false, "pillarId": "pillar/opinion", "pillarName": "Opinion"}, {"id": "politics/video/2013/jan/30/david-cameron-combat-terrorism-tough-intelligent-video", "type": "video", "sectionId": "politics", "sectionName": "Politics", "webPublicationDate": "2013-01-30T19:36:00Z", "webTitle": "David Cameron: \u2018combat terrorism in a way that is both tough and intelligent\u2019 - video", "webUrl": "https://www.theguardian.com/politics/video/2013/jan/30/david-cameron-combat-terrorism-tough-intelligent-video", "apiUrl": "https://content.guardianapis.com/politics/video/2013/jan/30/david-cameron-combat-terrorism-tough-intelligent-video", "isHosted": false, "pillarId": "pillar/news", "pillarName": "News"}, {"id": "environment/2013/jan/30/nuclear-expansion-thwarted-cumbria-no", "type": "article", "sectionId": "environment", "sectionName": "Environment", "webPublicationDate": "2013-01-30T19:31:55Z", "webTitle": "Nuclear expansion plan thwarted after Cumbria no vote to underground store", "webUrl": "https://www.theguardian.com/environment/2013/jan/30/nuclear-expansion-thwarted-cumbria-no", "apiUrl": "https://content.guardianapis.com/environment/2013/jan/30/nuclear-expansion-thwarted-cumbria-no", "isHosted": false, "pillarId": "pillar/news", "pillarName": "News"}, {"id": "world/2013/jan/30/iraq-prisoners-deaths-fresh-inquiries", "type": "article", "sectionId": "world", "sectionName": "World news", "webPublicationDate": "2013-01-30T18:53:07Z", "webTitle": "Deaths of prisoners in British custody in Iraq to be re-investigated, court told", "webUrl": "https://www.theguardian.com/world/2013/jan/30/iraq-prisoners-deaths-fresh-inquiries", "apiUrl": "https://content.guardianapis.com/world/2013/jan/30/iraq-prisoners-deaths-fresh-inquiries", "isHosted": false, "pillarId": "pillar/news", "pillarName": "News"}, {"id": "politics/2013/jan/30/kenneth-clarke-eu-fatal-mistake", "type": "article", "sectionId": "politics", "sectionName": "Politics", "webPublicationDate": "2013-01-30T18:39:33Z", "webTitle": "Kenneth Clarke: leaving EU would be fatal mistake", "webUrl": "https://www.theguardian.com/politics/2013/jan/30/kenneth-clarke-eu-fatal-mistake", "apiUrl": "https://content.guardianapis.com/politics/2013/jan/30/kenneth-clarke-eu-fatal-mistake", "isHosted": false, "pillarId": "pillar/news", "pillarName": "News"}, {"id": "politics/2013/jan/30/cameron-adventure-jeremiads-algeria-galloway", "type": "article", "sectionId": "politics", "sectionName": "Politics", "webPublicationDate": "2013-01-30T18:10:32Z", "webTitle": "Cameron off for his Araby adventure, trailing jeremiads from the House", "webUrl": "https://www.theguardian.com/politics/2013/jan/30/cameron-adventure-jeremiads-algeria-galloway", "apiUrl": "https://content.guardianapis.com/politics/2013/jan/30/cameron-adventure-jeremiads-algeria-galloway", "isHosted": false, "pillarId": "pillar/news", "pillarName": "News"}, {"id": "law/2013/jan/30/lord-chief-justice-changes-judiciary", "type": "article", "sectionId": "law", "sectionName": "Law", "webPublicationDate": "2013-01-30T18:09:19Z", "webTitle": "Lord chief justice: changes to judiciary 'eroding something important'", "webUrl": "https://www.theguardian.com/law/2013/jan/30/lord-chief-justice-changes-judiciary", "apiUrl": "https://content.guardianapis.com/law/2013/jan/30/lord-chief-justice-changes-judiciary", "isHosted": false, "pillarId": "pillar/news", "pillarName": "News"}, {"id": "world/2013/jan/30/david-cameron-algeria-growing-warmth-sahara", "type": "article", "sectionId": "world", "sectionName": "World news", "webPublicationDate": "2013-01-30T17:37:46Z", "webTitle": "David Cameron in Algeria: a growing warmth in the Sahara", "webUrl": "https://www.theguardian.com/world/2013/jan/30/david-cameron-algeria-growing-warmth-sahara", "apiUrl": "https://content.guardianapis.com/world/2013/jan/30/david-cameron-algeria-growing-warmth-sahara", "isHosted": false, "pillarId": "pillar/news", "pillarName": "News"}, {"id": "commentisfree/2013/jan/30/david-cameron-algeria-war-on-terror", "type": "article", "sectionId": "commentisfree", "sectionName": "Opinion", "webPublicationDate": "2013-01-30T17:01:47Z", "webTitle": "Algeria is David Cameron's surprising ally in the 'war on terror' | Nabila Ramdani", "webUrl": "https://www.theguardian.com/commentisfree/2013/jan/30/david-cameron-algeria-war-on-terror", "apiUrl": "https://content.guardianapis.com/commentisfree/2013/jan/30/david-cameron-algeria-war-on-terror", "isHosted": false, "pillarId": "pillar/opinion", "pillarName": "Opinion"}, {"id": "politics/video/2013/jan/30/policing-reforms-talent-minister-video", "type": "video", "sectionId": "politics", "sectionName": "Politics", "webPublicationDate": "2013-01-30T15:52:00Z", "webTitle": "Policing reforms will expand talent pool, says minister - video", "webUrl": "https://www.theguardian.com/politics/video/2013/jan/30/policing-reforms-talent-minister-video", "apiUrl": "https://content.guardianapis.com/politics/video/2013/jan/30/policing-reforms-talent-minister-video", "isHosted": false, "pillarId": "pillar/news", "pillarName": "News"}, {"id": "politics/2013/jan/30/hs2-doesnt-anger-tory-voters", "type": "article", "sectionId": "politics", "sectionName": "Politics", "webPublicationDate": "2013-01-30T14:43:42Z", "webTitle": "How to make sure HS2 doesn't anger Tory voters \u2013 Westminster digested", "webUrl": "https://www.theguardian.com/politics/2013/jan/30/hs2-doesnt-anger-tory-voters", "apiUrl": "https://content.guardianapis.com/politics/2013/jan/30/hs2-doesnt-anger-tory-voters", "isHosted": false, "pillarId": "pillar/news", "pillarName": "News"}, {"id": "business/video/2013/jan/30/miliband-cameron-borrowing-pmqs-video", "type": "video", "sectionId": "business", "sectionName": "Business", "webPublicationDate": "2013-01-30T14:35:00Z", "webTitle": "Miliband: Cameron is \u2018borrowing more for failure\u2019 - PMQs video", "webUrl": "https://www.theguardian.com/business/video/2013/jan/30/miliband-cameron-borrowing-pmqs-video", "apiUrl": "https://content.guardianapis.com/business/video/2013/jan/30/miliband-cameron-borrowing-pmqs-video", "isHosted": false, "pillarId": "pillar/news", "pillarName": "News"}, {"id": "society/2013/jan/30/downing-street-benefits-food-banks", "type": "article", "sectionId": "society", "sectionName": "Society", "webPublicationDate": "2013-01-30T14:23:49Z", "webTitle": "Downing Street: high benefits mean food banks should not be needed", "webUrl": "https://www.theguardian.com/society/2013/jan/30/downing-street-benefits-food-banks", "apiUrl": "https://content.guardianapis.com/society/2013/jan/30/downing-street-benefits-food-banks", "isHosted": false, "pillarId": "pillar/news", "pillarName": "News"}, {"id": "politics/2013/jan/30/scottish-government-wording-independence-referendum-question", "type": "article", "sectionId": "politics", "sectionName": "Politics", "webPublicationDate": "2013-01-30T13:02:58Z", "webTitle": "Scottish government changes wording of independence referendum question", "webUrl": "https://www.theguardian.com/politics/2013/jan/30/scottish-government-wording-independence-referendum-question", "apiUrl": "https://content.guardianapis.com/politics/2013/jan/30/scottish-government-wording-independence-referendum-question", "isHosted": false, "pillarId": "pillar/news", "pillarName": "News"}, {"id": "uk/2013/jan/30/garda-adrian-donohoe-murder-troubles", "type": "article", "sectionId": "world", "sectionName": "World news", "webPublicationDate": "2013-01-30T12:39:59Z", "webTitle": "Garda Adrian Donohoe murder sparks political row over Troubles deaths", "webUrl": "https://www.theguardian.com/uk/2013/jan/30/garda-adrian-donohoe-murder-troubles", "apiUrl": "https://content.guardianapis.com/uk/2013/jan/30/garda-adrian-donohoe-murder-troubles", "isHosted": false, "pillarId": "pillar/news", "pillarName": "News"}, {"id": "politics/2013/jan/30/alex-salmond-scottish-independence-referendum", "type": "article", "sectionId": "politics", "sectionName": "Politics", "webPublicationDate": "2013-01-30T12:04:00Z", "webTitle": "Alex Salmond's Scottish independence referendum question rejected", "webUrl": "https://www.theguardian.com/politics/2013/jan/30/alex-salmond-scottish-independence-referendum", "apiUrl": "https://content.guardianapis.com/politics/2013/jan/30/alex-salmond-scottish-independence-referendum", "isHosted": false, "pillarId": "pillar/news", "pillarName": "News"}, {"id": "uk/2013/jan/30/chief-police-officers-promotion-overseas-recruits", "type": "article", "sectionId": "uk-news", "sectionName": "UK news", "webPublicationDate": "2013-01-30T11:47:35Z", "webTitle": "Chief police officers criticise recruitment and promotion reforms", "webUrl": "https://www.theguardian.com/uk/2013/jan/30/chief-police-officers-promotion-overseas-recruits", "apiUrl": "https://content.guardianapis.com/uk/2013/jan/30/chief-police-officers-promotion-overseas-recruits", "isHosted": false, "pillarId": "pillar/news", "pillarName": "News"}, {"id": "social-enterprise-network/2013/jan/30/co-operative-party-moving-beyond-labour", "type": "article", "sectionId": "sustainable-business", "sectionName": "Guardian Sustainable Business", "webPublicationDate": "2013-01-30T11:15:00Z", "webTitle": "The Co-operative party: moving beyond the Labour party", "webUrl": "https://www.theguardian.com/social-enterprise-network/2013/jan/30/co-operative-party-moving-beyond-labour", "apiUrl": "https://content.guardianapis.com/social-enterprise-network/2013/jan/30/co-operative-party-moving-beyond-labour", "isHosted": false}, {"id": "politics/2013/jan/30/louise-mensch-partner-abuse-claims", "type": "article", "sectionId": "politics", "sectionName": "Politics", "webPublicationDate": "2013-01-30T10:48:01Z", "webTitle": "Louise Mensch's business partner says paedophile claims 'destroyed' his life", "webUrl": "https://www.theguardian.com/politics/2013/jan/30/louise-mensch-partner-abuse-claims", "apiUrl": "https://content.guardianapis.com/politics/2013/jan/30/louise-mensch-partner-abuse-claims", "isHosted": false, "pillarId": "pillar/news", "pillarName": "News"}, {"id": "commentisfree/2013/jan/30/romania-immigration-negative-campaign", "type": "article", "sectionId": "commentisfree", "sectionName": "Opinion", "webPublicationDate": "2013-01-30T10:43:04Z", "webTitle": "Romanians aren't about to 'invade' Britain - so stop the negative campaign | Sandra Pralong", "webUrl": "https://www.theguardian.com/commentisfree/2013/jan/30/romania-immigration-negative-campaign", "apiUrl": "https://content.guardianapis.com/commentisfree/2013/jan/30/romania-immigration-negative-campaign", "isHosted": false, "pillarId": "pillar/opinion", "pillarName": "Opinion"}, {"id": "commentisfree/2013/jan/30/boundary-change-defeat-masterful-victory-labour", "type": "article", "sectionId": "commentisfree", "sectionName": "Opinion", "webPublicationDate": "2013-01-30T09:14:00Z", "webTitle": "Boundary change defeat is a masterful victory for Labour | Marcus Roberts", "webUrl": "https://www.theguardian.com/commentisfree/2013/jan/30/boundary-change-defeat-masterful-victory-labour", "apiUrl": "https://content.guardianapis.com/commentisfree/2013/jan/30/boundary-change-defeat-masterful-victory-labour", "isHosted": false, "pillarId": "pillar/opinion", "pillarName": "Opinion"}, {"id": "society/2013/jan/30/healthwatch-nhs-reforms-april-kendall", "type": "article", "sectionId": "society", "sectionName": "Society", "webPublicationDate": "2013-01-30T08:40:48Z", "webTitle": "New consumer bodies for healthcare are far behind schedule, claims Labour", "webUrl": "https://www.theguardian.com/society/2013/jan/30/healthwatch-nhs-reforms-april-kendall", "apiUrl": "https://content.guardianapis.com/society/2013/jan/30/healthwatch-nhs-reforms-april-kendall", "isHosted": false, "pillarId": "pillar/news", "pillarName": "News"}, {"id": "commentisfree/2013/jan/30/china-games-console-ban-moral-panic", "type": "article", "sectionId": "commentisfree", "sectionName": "Opinion", "webPublicationDate": "2013-01-30T08:30:03Z", "webTitle": "If China lifts its game console ban, what will adults panic about next? | Helen Lewis", "webUrl": "https://www.theguardian.com/commentisfree/2013/jan/30/china-games-console-ban-moral-panic", "apiUrl": "https://content.guardianapis.com/commentisfree/2013/jan/30/china-games-console-ban-moral-panic", "isHosted": false, "pillarId": "pillar/opinion", "pillarName": "Opinion"}, {"id": "politics/2013/jan/30/david-cameron-algeria-terror-talk", "type": "article", "sectionId": "politics", "sectionName": "Politics", "webPublicationDate": "2013-01-30T08:23:00Z", "webTitle": "Cameron flies to Algeria to forge alliance against terror", "webUrl": "https://www.theguardian.com/politics/2013/jan/30/david-cameron-algeria-terror-talk", "apiUrl": "https://content.guardianapis.com/politics/2013/jan/30/david-cameron-algeria-terror-talk", "isHosted": false, "pillarId": "pillar/news", "pillarName": "News"}, {"id": "society/2013/jan/30/care-quality-commission-mental-health-services", "type": "article", "sectionId": "society", "sectionName": "Society", "webPublicationDate": "2013-01-30T07:01:00Z", "webTitle": "Mental health patients are being 'detained in all but name'", "webUrl": "https://www.theguardian.com/society/2013/jan/30/care-quality-commission-mental-health-services", "apiUrl": "https://content.guardianapis.com/society/2013/jan/30/care-quality-commission-mental-health-services", "isHosted": false, "pillarId": "pillar/news", "pillarName": "News"}, {"id": "politics/2013/jan/30/cycle-parking-places-rail-stations", "type": "article", "sectionId": "politics", "sectionName": "Politics", "webPublicationDate": "2013-01-30T07:01:00Z", "webTitle": "Government to announce \u00a362m boost for cycling infrastructure", "webUrl": "https://www.theguardian.com/politics/2013/jan/30/cycle-parking-places-rail-stations", "apiUrl": "https://content.guardianapis.com/politics/2013/jan/30/cycle-parking-places-rail-stations", "isHosted": false, "pillarId": "pillar/news", "pillarName": "News"}, {"id": "uk/2013/jan/30/may-proposes-fast-track-police-promotion", "type": "article", "sectionId": "uk-news", "sectionName": "UK news", "webPublicationDate": "2013-01-30T06:03:00Z", "webTitle": "Theresa May proposes fast track promotion for young police officers", "webUrl": "https://www.theguardian.com/uk/2013/jan/30/may-proposes-fast-track-police-promotion", "apiUrl": "https://content.guardianapis.com/uk/2013/jan/30/may-proposes-fast-track-police-promotion", "isHosted": false, "pillarId": "pillar/news", "pillarName": "News"}, {"id": "education/2013/jan/30/fears-school-meal-standards-charity", "type": "article", "sectionId": "education", "sectionName": "Education", "webPublicationDate": "2013-01-30T06:01:00Z", "webTitle": "Fears over school meal standards as children's food charity loses funding", "webUrl": "https://www.theguardian.com/education/2013/jan/30/fears-school-meal-standards-charity", "apiUrl": "https://content.guardianapis.com/education/2013/jan/30/fears-school-meal-standards-charity", "isHosted": false, "pillarId": "pillar/news", "pillarName": "News"}, {"id": "commentisfree/2013/jan/30/david-cameron-creep-speak-imperialism", "type": "article", "sectionId": "commentisfree", "sectionName": "Opinion", "webPublicationDate": "2013-01-30T01:31:18Z", "webTitle": "UK intervention in Mali treads a familiar - and doomed - path | Simon Jenkins", "webUrl": "https://www.theguardian.com/commentisfree/2013/jan/30/david-cameron-creep-speak-imperialism", "apiUrl": "https://content.guardianapis.com/commentisfree/2013/jan/30/david-cameron-creep-speak-imperialism", "isHosted": false, "pillarId": "pillar/opinion", "pillarName": "Opinion"}, {"id": "politics/2013/jan/30/hugh-muir-diary-nick-clegg-michael-gove", "type": "article", "sectionId": "politics", "sectionName": "Politics", "webPublicationDate": "2013-01-30T00:05:08Z", "webTitle": "Diary: the great history face-off: Gove v Clegg", "webUrl": "https://www.theguardian.com/politics/2013/jan/30/hugh-muir-diary-nick-clegg-michael-gove", "apiUrl": "https://content.guardianapis.com/politics/2013/jan/30/hugh-muir-diary-nick-clegg-michael-gove", "isHosted": false, "pillarId": "pillar/news", "pillarName": "News"}, {"id": "business/2013/jan/30/cable-seeks-action-from-men-only-boardrooms", "type": "article", "sectionId": "business", "sectionName": "Business", "webPublicationDate": "2013-01-30T00:05:06Z", "webTitle": "Vince Cable seeks action from seven top firms with men-only boardrooms", "webUrl": "https://www.theguardian.com/business/2013/jan/30/cable-seeks-action-from-men-only-boardrooms", "apiUrl": "https://content.guardianapis.com/business/2013/jan/30/cable-seeks-action-from-men-only-boardrooms", "isHosted": false, "pillarId": "pillar/news", "pillarName": "News"}, {"id": "uk/2013/jan/30/asylum-support-families-severe-poverty", "type": "article", "sectionId": "uk-news", "sectionName": "UK news", "webPublicationDate": "2013-01-30T00:05:00Z", "webTitle": "Asylum-support system is pushing families into severe poverty, say MPs", "webUrl": "https://www.theguardian.com/uk/2013/jan/30/asylum-support-families-severe-poverty", "apiUrl": "https://content.guardianapis.com/uk/2013/jan/30/asylum-support-families-severe-poverty", "isHosted": false, "pillarId": "pillar/news", "pillarName": "News"}, {"id": "society/2013/jan/30/councils-savings-target-nao", "type": "article", "sectionId": "society", "sectionName": "Society", "webPublicationDate": "2013-01-30T00:01:07Z", "webTitle": "One in eight councils risks missing savings target, finds NAO", "webUrl": "https://www.theguardian.com/society/2013/jan/30/councils-savings-target-nao", "apiUrl": "https://content.guardianapis.com/society/2013/jan/30/councils-savings-target-nao", "isHosted": false, "pillarId": "pillar/news", "pillarName": "News"}, {"id": "commentisfree/cartoon/2013/jan/29/mali-intervention", "type": "picture", "sectionId": "commentisfree", "sectionName": "Opinion", "webPublicationDate": "2013-01-29T23:35:49Z", "webTitle": "Steve Bell on the Mali intervention \u2013 cartoon", "webUrl": "https://www.theguardian.com/commentisfree/cartoon/2013/jan/29/mali-intervention", "apiUrl": "https://content.guardianapis.com/commentisfree/cartoon/2013/jan/29/mali-intervention", "isHosted": false, "pillarId": "pillar/opinion", "pillarName": "Opinion"}, {"id": "commentisfree/2013/jan/29/childcare-reforms-plans-truss-editorial", "type": "article", "sectionId": "commentisfree", "sectionName": "Opinion", "webPublicationDate": "2013-01-29T22:39:00Z", "webTitle": "Childcare plan: the kids are not all right | Editorial", "webUrl": "https://www.theguardian.com/commentisfree/2013/jan/29/childcare-reforms-plans-truss-editorial", "apiUrl": "https://content.guardianapis.com/commentisfree/2013/jan/29/childcare-reforms-plans-truss-editorial", "isHosted": false, "pillarId": "pillar/opinion", "pillarName": "Opinion"}, {"id": "uk/2013/jan/29/high-speed-rail-line-north", "type": "article", "sectionId": "uk-news", "sectionName": "UK news", "webPublicationDate": "2013-01-29T21:00:01Z", "webTitle": "Letters: High-speed rail line finds few friends in the north", "webUrl": "https://www.theguardian.com/uk/2013/jan/29/high-speed-rail-line-north", "apiUrl": "https://content.guardianapis.com/uk/2013/jan/29/high-speed-rail-line-north", "isHosted": false, "pillarId": "pillar/news", "pillarName": "News"}, {"id": "uk/2013/jan/29/alternative-options-for-infrastructure-investment", "type": "article", "sectionId": "uk-news", "sectionName": "UK news", "webPublicationDate": "2013-01-29T20:59:02Z", "webTitle": "Letters: Alternative options for infrastructure investment", "webUrl": "https://www.theguardian.com/uk/2013/jan/29/alternative-options-for-infrastructure-investment", "apiUrl": "https://content.guardianapis.com/uk/2013/jan/29/alternative-options-for-infrastructure-investment", "isHosted": false, "pillarId": "pillar/news", "pillarName": "News"}, {"id": "politics/2013/jan/29/we-dont-need-eu-referendum", "type": "article", "sectionId": "politics", "sectionName": "Politics", "webPublicationDate": "2013-01-29T20:59:00Z", "webTitle": "Letters: We don't need an EU referendum", "webUrl": "https://www.theguardian.com/politics/2013/jan/29/we-dont-need-eu-referendum", "apiUrl": "https://content.guardianapis.com/politics/2013/jan/29/we-dont-need-eu-referendum", "isHosted": false, "pillarId": "pillar/news", "pillarName": "News"}, {"id": "politics/2013/jan/29/alex-salmond-spotlight-nationalist-summit", "type": "article", "sectionId": "politics", "sectionName": "Politics", "webPublicationDate": "2013-01-29T20:23:23Z", "webTitle": "Alex Salmond takes spotlight away from nationalists' 'summit'", "webUrl": "https://www.theguardian.com/politics/2013/jan/29/alex-salmond-spotlight-nationalist-summit", "apiUrl": "https://content.guardianapis.com/politics/2013/jan/29/alex-salmond-spotlight-nationalist-summit", "isHosted": false, "pillarId": "pillar/news", "pillarName": "News"}]}}