{"response": {"status": "ok", "userTier": "developer", "total": 90326, "startIndex": 1, "pageSize": 50, "currentPage": 1, "pages": 1807, "orderBy": "newest", "results": [{"id": "football/2014/jan/30/andy-gray-bt-sport-sky-video", "type": "article", "sectionId": "football", "sectionName": "Football", "webPublicationDate": "2014-01-30T23:49:14Z", "webTitle": "Andy Gray's BT prospects threatened by release of new Sky video", "webUrl": "https://www.theguardian.com/football/2014/jan/30/andy-gray-bt-sport-sky-video", "apiUrl": "https://content.guardianapis.com/football/2014/jan/30/andy-gray-bt-sport-sky-video", "isHosted": false, "pillarId": "pillar/sport", "pillarName": "Sport"}, {"id": "football/2014/jan/30/hugo-lloris-tottenham-manchester-city", "type": "article", "sectionId": "football", "sectionName": "Football", "webPublicationDate": "2014-01-30T23:01:00Z", "webTitle": "Manchester City's musketeers have winning bond, says Hugo Lloris", "webUrl": "https://www.theguardian.com/football/2014/jan/30/hugo-lloris-tottenham-manchester-city", "apiUrl": "https://content.guardianapis.com/football/2014/jan/30/hugo-lloris-tottenham-manchester-city", "isHosted": false, "pillarId": "pillar/sport", "pillarName": "Sport"}, {"id": "football/2014/jan/30/newcastle-united-alan-pardew-lyon-clement-grenier", "type": "article", "sectionId": "football", "sectionName": "Football", "webPublicationDate": "2014-01-30T22:54:00Z", "webTitle": "Newcastle's Alan Pardew unsure he can seal deal for Lyon's Cl\u00e9ment Grenier", "webUrl": "https://www.theguardian.com/football/2014/jan/30/newcastle-united-alan-pardew-lyon-clement-grenier", "apiUrl": "https://content.guardianapis.com/football/2014/jan/30/newcastle-united-alan-pardew-lyon-clement-grenier", "isHosted": false, "pillarId": "pillar/sport", "pillarName": "Sport"}, {"id": "football/2014/jan/30/manchester-city-porto-signing-eliaquim-mangala-fernando", "type": "article", "sectionId": "football", "sectionName": "Football", "webPublicationDate": "2014-01-30T22:42:30Z", "webTitle": "Manchester City talk to Porto about Eliaquim Mangala and Fernando", "webUrl": "https://www.theguardian.com/football/2014/jan/30/manchester-city-porto-signing-eliaquim-mangala-fernando", "apiUrl": "https://content.guardianapis.com/football/2014/jan/30/manchester-city-porto-signing-eliaquim-mangala-fernando", "isHosted": false, "pillarId": "pillar/sport", "pillarName": "Sport"}, {"id": "football/2014/jan/30/west-ham-19th-century-lacina-traore-everton", "type": "article", "sectionId": "football", "sectionName": "Football", "webPublicationDate": "2014-01-30T22:30:01Z", "webTitle": "West Ham's '19th century' style drove Lacina Traor\u00e9 to opt for Everton", "webUrl": "https://www.theguardian.com/football/2014/jan/30/west-ham-19th-century-lacina-traore-everton", "apiUrl": "https://content.guardianapis.com/football/2014/jan/30/west-ham-19th-century-lacina-traore-everton", "isHosted": false, "pillarId": "pillar/sport", "pillarName": "Sport"}, {"id": "football/2014/jan/30/sunderland-lee-cattermole-liam-bridcutt-stoke-city-brighton", "type": "article", "sectionId": "football", "sectionName": "Football", "webPublicationDate": "2014-01-30T21:36:35Z", "webTitle": "Sunderland will not sell Lee Cattermole but Liam Bridcutt set to sign", "webUrl": "https://www.theguardian.com/football/2014/jan/30/sunderland-lee-cattermole-liam-bridcutt-stoke-city-brighton", "apiUrl": "https://content.guardianapis.com/football/2014/jan/30/sunderland-lee-cattermole-liam-bridcutt-stoke-city-brighton", "isHosted": false, "pillarId": "pillar/sport", "pillarName": "Sport"}, {"id": "football/2014/jan/30/football-news", "type": "article", "sectionId": "football", "sectionName": "Football", "webPublicationDate": "2014-01-30T20:45:41Z", "webTitle": "Transfer window round-up", "webUrl": "https://www.theguardian.com/football/2014/jan/30/football-news", "apiUrl": "https://content.guardianapis.com/football/2014/jan/30/football-news", "isHosted": false, "pillarId": "pillar/sport", "pillarName": "Sport"}, {"id": "football/2014/jan/30/chelsea-kurt-zouma-st-etienne-jose-mourinho", "type": "article", "sectionId": "football", "sectionName": "Football", "webPublicationDate": "2014-01-30T20:13:25Z", "webTitle": "Chelsea set to sign Kurt Zouma for \u00a312.5m but loan him back to St Etienne", "webUrl": "https://www.theguardian.com/football/2014/jan/30/chelsea-kurt-zouma-st-etienne-jose-mourinho", "apiUrl": "https://content.guardianapis.com/football/2014/jan/30/chelsea-kurt-zouma-st-etienne-jose-mourinho", "isHosted": false, "pillarId": "pillar/sport", "pillarName": "Sport"}, {"id": "football/2014/jan/30/why-premier-league-banned-third-party-ownership-players", "type": "article", "sectionId": "football", "sectionName": "Football", "webPublicationDate": "2014-01-30T19:11:48Z", "webTitle": "Why the Premier League banned 'third-party ownership' of players | David Conn", "webUrl": "https://www.theguardian.com/football/2014/jan/30/why-premier-league-banned-third-party-ownership-players", "apiUrl": "https://content.guardianapis.com/football/2014/jan/30/why-premier-league-banned-third-party-ownership-players", "isHosted": false, "pillarId": "pillar/sport", "pillarName": "Sport"}, {"id": "football/2014/jan/30/chelsea-links-third-party-ownership", "type": "article", "sectionId": "football", "sectionName": "Football", "webPublicationDate": "2014-01-30T19:04:24Z", "webTitle": "Questions for Chelsea over links to third-party ownership of players", "webUrl": "https://www.theguardian.com/football/2014/jan/30/chelsea-links-third-party-ownership", "apiUrl": "https://content.guardianapis.com/football/2014/jan/30/chelsea-links-third-party-ownership", "isHosted": false, "pillarId": "pillar/sport", "pillarName": "Sport"}, {"id": "football/2014/jan/30/you-are-the-ref-paul-trevillion", "type": "article", "sectionId": "football", "sectionName": "Football", "webPublicationDate": "2014-01-30T19:00:00Z", "webTitle": "273. Samuel Eto'o, Chelsea", "webUrl": "https://www.theguardian.com/football/2014/jan/30/you-are-the-ref-paul-trevillion", "apiUrl": "https://content.guardianapis.com/football/2014/jan/30/you-are-the-ref-paul-trevillion", "isHosted": false, "pillarId": "pillar/sport", "pillarName": "Sport"}, {"id": "football/2014/jan/30/leeds-united-takeover-collapses-cash", "type": "article", "sectionId": "football", "sectionName": "Football", "webPublicationDate": "2014-01-30T17:52:05Z", "webTitle": "Leeds United in disarray after takeover collapses over lack of cash", "webUrl": "https://www.theguardian.com/football/2014/jan/30/leeds-united-takeover-collapses-cash", "apiUrl": "https://content.guardianapis.com/football/2014/jan/30/leeds-united-takeover-collapses-cash", "isHosted": false, "pillarId": "pillar/sport", "pillarName": "Sport"}, {"id": "science/political-science/2014/jan/30/sciences-transfer-market", "type": "article", "sectionId": "science", "sectionName": "Science", "webPublicationDate": "2014-01-30T17:45:12Z", "webTitle": "Science\u2019s transfer market", "webUrl": "https://www.theguardian.com/science/political-science/2014/jan/30/sciences-transfer-market", "apiUrl": "https://content.guardianapis.com/science/political-science/2014/jan/30/sciences-transfer-market", "isHosted": false, "pillarId": "pillar/news", "pillarName": "News"}, {"id": "science/political-science/2014/jan/30/why-not-treat-scientists-like-footballers", "type": "article", "sectionId": "science", "sectionName": "Science", "webPublicationDate": "2014-01-30T16:55:27Z", "webTitle": "Why not treat scientists like footballers? | Daniel Zeichner", "webUrl": "https://www.theguardian.com/science/political-science/2014/jan/30/why-not-treat-scientists-like-footballers", "apiUrl": "https://content.guardianapis.com/science/political-science/2014/jan/30/why-not-treat-scientists-like-footballers", "isHosted": false, "pillarId": "pillar/news", "pillarName": "News"}, {"id": "football/2014/jan/30/the-fiver-notfootball", "type": "article", "sectionId": "football", "sectionName": "Football", "webPublicationDate": "2014-01-30T16:52:27Z", "webTitle": "Notfootball | The Fiver", "webUrl": "https://www.theguardian.com/football/2014/jan/30/the-fiver-notfootball", "apiUrl": "https://content.guardianapis.com/football/2014/jan/30/the-fiver-notfootball", "isHosted": false, "pillarId": "pillar/sport", "pillarName": "Sport"}, {"id": "football/blog/audio/2014/jan/30/premierleague", "type": "audio", "sectionId": "football", "sectionName": "Football", "webPublicationDate": "2014-01-30T16:44:24Z", "webTitle": "Football Weekly Extra: Manchester City underline title intent with Spurs rout", "webUrl": "https://www.theguardian.com/football/blog/audio/2014/jan/30/premierleague", "apiUrl": "https://content.guardianapis.com/football/blog/audio/2014/jan/30/premierleague", "isHosted": false, "pillarId": "pillar/sport", "pillarName": "Sport"}, {"id": "football/2014/jan/30/dimitar-berbatov-leave-fulham-kostas-mitroglou", "type": "article", "sectionId": "football", "sectionName": "Football", "webPublicationDate": "2014-01-30T16:27:48Z", "webTitle": "Dimitar Berbatov set for move after Fulham target Kostas Mitroglou", "webUrl": "https://www.theguardian.com/football/2014/jan/30/dimitar-berbatov-leave-fulham-kostas-mitroglou", "apiUrl": "https://content.guardianapis.com/football/2014/jan/30/dimitar-berbatov-leave-fulham-kostas-mitroglou", "isHosted": false, "pillarId": "pillar/sport", "pillarName": "Sport"}, {"id": "football/2014/jan/30/liverpool-plan-anfield-expansion", "type": "article", "sectionId": "football", "sectionName": "Football", "webPublicationDate": "2014-01-30T16:09:51Z", "webTitle": "Liverpool hope to submit plans for Anfield expansion soon", "webUrl": "https://www.theguardian.com/football/2014/jan/30/liverpool-plan-anfield-expansion", "apiUrl": "https://content.guardianapis.com/football/2014/jan/30/liverpool-plan-anfield-expansion", "isHosted": false, "pillarId": "pillar/sport", "pillarName": "Sport"}, {"id": "football/2014/jan/30/arsenal-blow-julian-draxler-schalke-move-ruled-out", "type": "article", "sectionId": "football", "sectionName": "Football", "webPublicationDate": "2014-01-30T16:06:28Z", "webTitle": "Arsenal suffer blow over Julian Draxler move as Schalke rule out transfer", "webUrl": "https://www.theguardian.com/football/2014/jan/30/arsenal-blow-julian-draxler-schalke-move-ruled-out", "apiUrl": "https://content.guardianapis.com/football/2014/jan/30/arsenal-blow-julian-draxler-schalke-move-ruled-out", "isHosted": false, "pillarId": "pillar/sport", "pillarName": "Sport"}, {"id": "football/blog/2014/jan/30/win-nowt-chelsea-fans-duped", "type": "article", "sectionId": "football", "sectionName": "Football", "webPublicationDate": "2014-01-30T13:00:01Z", "webTitle": "You Win Nowt by pretending to know all things football | Sachin Nakrani", "webUrl": "https://www.theguardian.com/football/blog/2014/jan/30/win-nowt-chelsea-fans-duped", "apiUrl": "https://content.guardianapis.com/football/blog/2014/jan/30/win-nowt-chelsea-fans-duped", "isHosted": false, "pillarId": "pillar/sport", "pillarName": "Sport"}, {"id": "football/2014/jan/30/adel-taarabt-join-milan-loan-fulham", "type": "article", "sectionId": "football", "sectionName": "Football", "webPublicationDate": "2014-01-30T12:25:47Z", "webTitle": "Adel Taarabt to join Milan and terminate Fulham loan deal", "webUrl": "https://www.theguardian.com/football/2014/jan/30/adel-taarabt-join-milan-loan-fulham", "apiUrl": "https://content.guardianapis.com/football/2014/jan/30/adel-taarabt-join-milan-loan-fulham", "isHosted": false, "pillarId": "pillar/sport", "pillarName": "Sport"}, {"id": "football/blog/2014/jan/30/spain-unemployed-xi-offers-hope", "type": "article", "sectionId": "football", "sectionName": "Football", "webPublicationDate": "2014-01-30T10:45:21Z", "webTitle": "Spain's Unemployed XI offers hope to professionals fallen on hard times | Sid Lowe", "webUrl": "https://www.theguardian.com/football/blog/2014/jan/30/spain-unemployed-xi-offers-hope", "apiUrl": "https://content.guardianapis.com/football/blog/2014/jan/30/spain-unemployed-xi-offers-hope", "isHosted": false, "pillarId": "pillar/sport", "pillarName": "Sport"}, {"id": "football/blog/2014/jan/30/a-league-what-to-look-out-for-this-weekend", "type": "article", "sectionId": "football", "sectionName": "Football", "webPublicationDate": "2014-01-30T10:19:30Z", "webTitle": "A-League: what to look out for this weekend", "webUrl": "https://www.theguardian.com/football/blog/2014/jan/30/a-league-what-to-look-out-for-this-weekend", "apiUrl": "https://content.guardianapis.com/football/blog/2014/jan/30/a-league-what-to-look-out-for-this-weekend", "isHosted": false, "pillarId": "pillar/sport", "pillarName": "Sport"}, {"id": "football/2014/jan/30/football-transfer-rumours", "type": "article", "sectionId": "football", "sectionName": "Football", "webPublicationDate": "2014-01-30T09:10:33Z", "webTitle": "Football transfer rumours: Draxler and Vucinic to Arsenal?", "webUrl": "https://www.theguardian.com/football/2014/jan/30/football-transfer-rumours", "apiUrl": "https://content.guardianapis.com/football/2014/jan/30/football-transfer-rumours", "isHosted": false, "pillarId": "pillar/sport", "pillarName": "Sport"}, {"id": "sport/blog/2014/jan/30/classic-youtube-juan-mata-six-nations-maradona", "type": "article", "sectionId": "sport", "sectionName": "Sport", "webPublicationDate": "2014-01-30T08:57:00Z", "webTitle": "Waterpolo drama, a referee with no yellow cards and Six Nations memories", "webUrl": "https://www.theguardian.com/sport/blog/2014/jan/30/classic-youtube-juan-mata-six-nations-maradona", "apiUrl": "https://content.guardianapis.com/sport/blog/2014/jan/30/classic-youtube-juan-mata-six-nations-maradona", "isHosted": false, "pillarId": "pillar/sport", "pillarName": "Sport"}, {"id": "football/2014/jan/29/tottenham-hotspur-manchester-city-premier-league-match-report", "type": "article", "sectionId": "football", "sectionName": "Football", "webPublicationDate": "2014-01-30T00:57:00Z", "webTitle": "Tottenham Hotspur 1-5 Manchester City | Premier League match report", "webUrl": "https://www.theguardian.com/football/2014/jan/29/tottenham-hotspur-manchester-city-premier-league-match-report", "apiUrl": "https://content.guardianapis.com/football/2014/jan/29/tottenham-hotspur-manchester-city-premier-league-match-report", "isHosted": false, "pillarId": "pillar/sport", "pillarName": "Sport"}, {"id": "football/gallery/2014/jan/30/premier-league-tottenham-hotspur-manchester-city", "type": "gallery", "sectionId": "football", "sectionName": "Football", "webPublicationDate": "2014-01-30T00:48:49Z", "webTitle": "Premier League: Tottenham v Manchester City \u2013 in pictures", "webUrl": "https://www.theguardian.com/football/gallery/2014/jan/30/premier-league-tottenham-hotspur-manchester-city", "apiUrl": "https://content.guardianapis.com/football/gallery/2014/jan/30/premier-league-tottenham-hotspur-manchester-city", "isHosted": false, "pillarId": "pillar/sport", "pillarName": "Sport"}, {"id": "football/2014/jan/30/jose-mourinho-19th-century-football-west-ham-allardyce", "type": "article", "sectionId": "football", "sectionName": "Football", "webPublicationDate": "2014-01-30T00:32:00Z", "webTitle": "Chelsea's Jose Mourinho says West Ham played '19th-century' football", "webUrl": "https://www.theguardian.com/football/2014/jan/30/jose-mourinho-19th-century-football-west-ham-allardyce", "apiUrl": "https://content.guardianapis.com/football/2014/jan/30/jose-mourinho-19th-century-football-west-ham-allardyce", "isHosted": false, "pillarId": "pillar/sport", "pillarName": "Sport"}, {"id": "football/2014/jan/30/manuel-pellegrini-hails-manchester-city-rout-tottenham", "type": "article", "sectionId": "football", "sectionName": "Football", "webPublicationDate": "2014-01-30T00:26:00Z", "webTitle": "Manuel Pellegrini hails complete City display after rout of Tottenham", "webUrl": "https://www.theguardian.com/football/2014/jan/30/manuel-pellegrini-hails-manchester-city-rout-tottenham", "apiUrl": "https://content.guardianapis.com/football/2014/jan/30/manuel-pellegrini-hails-manchester-city-rout-tottenham", "isHosted": false, "pillarId": "pillar/sport", "pillarName": "Sport"}, {"id": "football/2014/jan/29/tottenham-turn-down-napoli-bid-etienne-capoue", "type": "article", "sectionId": "football", "sectionName": "Football", "webPublicationDate": "2014-01-30T00:23:00Z", "webTitle": "Tottenham turn down \u20ac10m Napoli bid for \u00c9tienne Capoue", "webUrl": "https://www.theguardian.com/football/2014/jan/29/tottenham-turn-down-napoli-bid-etienne-capoue", "apiUrl": "https://content.guardianapis.com/football/2014/jan/29/tottenham-turn-down-napoli-bid-etienne-capoue", "isHosted": false, "pillarId": "pillar/sport", "pillarName": "Sport"}, {"id": "football/2014/jan/29/chelsea-west-ham-united-premier-league-match-report", "type": "article", "sectionId": "football", "sectionName": "Football", "webPublicationDate": "2014-01-30T00:22:00Z", "webTitle": "Chelsea 0-0 West Ham United | Premier League match report", "webUrl": "https://www.theguardian.com/football/2014/jan/29/chelsea-west-ham-united-premier-league-match-report", "apiUrl": "https://content.guardianapis.com/football/2014/jan/29/chelsea-west-ham-united-premier-league-match-report", "isHosted": false, "pillarId": "pillar/sport", "pillarName": "Sport"}, {"id": "football/2014/jan/29/sunderland-stoke-city-premier-league-match-report", "type": "article", "sectionId": "football", "sectionName": "Football", "webPublicationDate": "2014-01-30T00:21:00Z", "webTitle": "Sunderland 1-0 Stoke City | Premier League match report", "webUrl": "https://www.theguardian.com/football/2014/jan/29/sunderland-stoke-city-premier-league-match-report", "apiUrl": "https://content.guardianapis.com/football/2014/jan/29/sunderland-stoke-city-premier-league-match-report", "isHosted": false, "pillarId": "pillar/sport", "pillarName": "Sport"}, {"id": "football/2014/jan/29/aston-villa-west-bromwich-albion-premier-league-match-report", "type": "article", "sectionId": "football", "sectionName": "Football", "webPublicationDate": "2014-01-30T00:19:00Z", "webTitle": "Aston Villa 4-3 West Bromwich Albion| Premier League match report", "webUrl": "https://www.theguardian.com/football/2014/jan/29/aston-villa-west-bromwich-albion-premier-league-match-report", "apiUrl": "https://content.guardianapis.com/football/2014/jan/29/aston-villa-west-bromwich-albion-premier-league-match-report", "isHosted": false, "pillarId": "pillar/sport", "pillarName": "Sport"}, {"id": "media/2014/jan/30/bskyb-five-year-deal-exclusive-rights-hbo-tv-catalogue", "type": "article", "sectionId": "media", "sectionName": "Media", "webPublicationDate": "2014-01-30T00:01:00Z", "webTitle": "BSkyB signs new five-year deal for exclusive rights to HBO TV catalogue", "webUrl": "https://www.theguardian.com/media/2014/jan/30/bskyb-five-year-deal-exclusive-rights-hbo-tv-catalogue", "apiUrl": "https://content.guardianapis.com/media/2014/jan/30/bskyb-five-year-deal-exclusive-rights-hbo-tv-catalogue", "isHosted": false, "pillarId": "pillar/news", "pillarName": "News"}, {"id": "football/blog/2014/jan/29/manchester-city-tottenham-purring-confidence-fortune-bottled", "type": "article", "sectionId": "football", "sectionName": "Football", "webPublicationDate": "2014-01-29T23:31:00Z", "webTitle": "Manchester City's purring confidence would be worth a fortune bottled", "webUrl": "https://www.theguardian.com/football/blog/2014/jan/29/manchester-city-tottenham-purring-confidence-fortune-bottled", "apiUrl": "https://content.guardianapis.com/football/blog/2014/jan/29/manchester-city-tottenham-purring-confidence-fortune-bottled", "isHosted": false, "pillarId": "pillar/sport", "pillarName": "Sport"}, {"id": "media/2014/jan/29/sun-o2-premier-league-football-4g-mobile", "type": "article", "sectionId": "media", "sectionName": "Media", "webPublicationDate": "2014-01-29T23:30:00Z", "webTitle": "The Sun links up with O2 to offer Premier League clips with 4G deals", "webUrl": "https://www.theguardian.com/media/2014/jan/29/sun-o2-premier-league-football-4g-mobile", "apiUrl": "https://content.guardianapis.com/media/2014/jan/29/sun-o2-premier-league-football-4g-mobile", "isHosted": false, "pillarId": "pillar/news", "pillarName": "News"}, {"id": "football/2014/jan/29/phil-jones-juan-mata-positive-impact-manchester-united", "type": "article", "sectionId": "football", "sectionName": "Football", "webPublicationDate": "2014-01-29T22:30:00Z", "webTitle": "Phil Jones hails Juan Mata's positive impact on Manchester United players", "webUrl": "https://www.theguardian.com/football/2014/jan/29/phil-jones-juan-mata-positive-impact-manchester-united", "apiUrl": "https://content.guardianapis.com/football/2014/jan/29/phil-jones-juan-mata-positive-impact-manchester-united", "isHosted": false, "pillarId": "pillar/sport", "pillarName": "Sport"}, {"id": "football/2014/jan/29/crystal-palace-transfer-buckley-ramis", "type": "article", "sectionId": "football", "sectionName": "Football", "webPublicationDate": "2014-01-29T22:30:00Z", "webTitle": "Crystal Palace seek to sign Will Buckley, Ivan Ramis and Scott Dann", "webUrl": "https://www.theguardian.com/football/2014/jan/29/crystal-palace-transfer-buckley-ramis", "apiUrl": "https://content.guardianapis.com/football/2014/jan/29/crystal-palace-transfer-buckley-ramis", "isHosted": false, "pillarId": "pillar/sport", "pillarName": "Sport"}, {"id": "football/2014/jan/29/premier-league-clockwatch-live", "type": "liveblog", "sectionId": "football", "sectionName": "Football", "webPublicationDate": "2014-01-29T21:44:00Z", "webTitle": "Premier League clockwatch \u2013 as it happened! | Ian McCourt", "webUrl": "https://www.theguardian.com/football/2014/jan/29/premier-league-clockwatch-live", "apiUrl": "https://content.guardianapis.com/football/2014/jan/29/premier-league-clockwatch-live", "isHosted": false, "pillarId": "pillar/sport", "pillarName": "Sport"}, {"id": "football/2014/jan/29/tottenham-hotspur-manchester-city-live", "type": "liveblog", "sectionId": "football", "sectionName": "Football", "webPublicationDate": "2014-01-29T21:40:59Z", "webTitle": "Tottenham Hotspur v Manchester City \u2013 as it happened | Scott Murray", "webUrl": "https://www.theguardian.com/football/2014/jan/29/tottenham-hotspur-manchester-city-live", "apiUrl": "https://content.guardianapis.com/football/2014/jan/29/tottenham-hotspur-manchester-city-live", "isHosted": false, "pillarId": "pillar/sport", "pillarName": "Sport"}, {"id": "football/2014/jan/29/transfer-window-round-up-luuk-de-jong-newcastle-crystal-palace", "type": "article", "sectionId": "football", "sectionName": "Football", "webPublicationDate": "2014-01-29T21:04:12Z", "webTitle": "Transfer window round-up", "webUrl": "https://www.theguardian.com/football/2014/jan/29/transfer-window-round-up-luuk-de-jong-newcastle-crystal-palace", "apiUrl": "https://content.guardianapis.com/football/2014/jan/29/transfer-window-round-up-luuk-de-jong-newcastle-crystal-palace", "isHosted": false, "pillarId": "pillar/sport", "pillarName": "Sport"}, {"id": "football/gallery/2014/jan/29/premierleague-chelsea", "type": "gallery", "sectionId": "football", "sectionName": "Football", "webPublicationDate": "2014-01-29T20:32:00Z", "webTitle": "Premier League: Wednesday's matches \u2013 in pictures", "webUrl": "https://www.theguardian.com/football/gallery/2014/jan/29/premierleague-chelsea", "apiUrl": "https://content.guardianapis.com/football/gallery/2014/jan/29/premierleague-chelsea", "isHosted": false, "pillarId": "pillar/sport", "pillarName": "Sport"}, {"id": "football/2014/jan/29/manchester-city-loss-wage-bill-income", "type": "article", "sectionId": "football", "sectionName": "Football", "webPublicationDate": "2014-01-29T19:38:02Z", "webTitle": "Manchester City reveal \u00a352m loss for year to May 2013, down from \u00a398m", "webUrl": "https://www.theguardian.com/football/2014/jan/29/manchester-city-loss-wage-bill-income", "apiUrl": "https://content.guardianapis.com/football/2014/jan/29/manchester-city-loss-wage-bill-income", "isHosted": false, "pillarId": "pillar/sport", "pillarName": "Sport"}, {"id": "football/video/2014/jan/29/michael-laudrup-hails-swansea-2-0-win-at-fulham-video", "type": "video", "sectionId": "football", "sectionName": "Football", "webPublicationDate": "2014-01-29T16:45:00Z", "webTitle": "Michael Laudrup hails Swansea 2-0 win at Fulham as a 'six-pointer' \u2013 video", "webUrl": "https://www.theguardian.com/football/video/2014/jan/29/michael-laudrup-hails-swansea-2-0-win-at-fulham-video", "apiUrl": "https://content.guardianapis.com/football/video/2014/jan/29/michael-laudrup-hails-swansea-2-0-win-at-fulham-video", "isHosted": false, "pillarId": "pillar/sport", "pillarName": "Sport"}, {"id": "football/2014/jan/29/football-the-fiver", "type": "article", "sectionId": "football", "sectionName": "Football", "webPublicationDate": "2014-01-29T16:22:56Z", "webTitle": "The Fiver: Three-Legged Overweight Baby Elephant | Ian McCourt", "webUrl": "https://www.theguardian.com/football/2014/jan/29/football-the-fiver", "apiUrl": "https://content.guardianapis.com/football/2014/jan/29/football-the-fiver", "isHosted": false, "pillarId": "pillar/sport", "pillarName": "Sport"}, {"id": "football/video/2014/jan/29/jose-mourinho-chelsea-premier-league-title-video", "type": "video", "sectionId": "football", "sectionName": "Football", "webPublicationDate": "2014-01-29T15:53:00Z", "webTitle": "Jos\u00e9 Mourinho plays down Chelsea's Premier League title chances \u2013 video", "webUrl": "https://www.theguardian.com/football/video/2014/jan/29/jose-mourinho-chelsea-premier-league-title-video", "apiUrl": "https://content.guardianapis.com/football/video/2014/jan/29/jose-mourinho-chelsea-premier-league-title-video", "isHosted": false, "pillarId": "pillar/sport", "pillarName": "Sport"}, {"id": "football/2014/jan/29/english-clubs-overseas-players-fifa-report", "type": "article", "sectionId": "football", "sectionName": "Football", "webPublicationDate": "2014-01-29T15:26:26Z", "webTitle": "English clubs are biggest spenders on overseas players, says Fifa report", "webUrl": "https://www.theguardian.com/football/2014/jan/29/english-clubs-overseas-players-fifa-report", "apiUrl": "https://content.guardianapis.com/football/2014/jan/29/english-clubs-overseas-players-fifa-report", "isHosted": false, "pillarId": "pillar/sport", "pillarName": "Sport"}, {"id": "football/2014/jan/29/david-moyes-sir-alex-ferguson-manchester-united-wayne-rooney", "type": "article", "sectionId": "football", "sectionName": "Football", "webPublicationDate": "2014-01-29T14:51:26Z", "webTitle": "David Moyes out of Sir Alex Ferguson's shadow at Manchester United | Paul Wilson", "webUrl": "https://www.theguardian.com/football/2014/jan/29/david-moyes-sir-alex-ferguson-manchester-united-wayne-rooney", "apiUrl": "https://content.guardianapis.com/football/2014/jan/29/david-moyes-sir-alex-ferguson-manchester-united-wayne-rooney", "isHosted": false, "pillarId": "pillar/sport", "pillarName": "Sport"}, {"id": "football/2014/jan/29/arsenal-move-julian-draxler-schalke", "type": "article", "sectionId": "football", "sectionName": "Football", "webPublicationDate": "2014-01-29T14:34:20Z", "webTitle": "Arsenal open talks with Schalke over move for Julian Draxler", "webUrl": "https://www.theguardian.com/football/2014/jan/29/arsenal-move-julian-draxler-schalke", "apiUrl": "https://content.guardianapis.com/football/2014/jan/29/arsenal-move-julian-draxler-schalke", "isHosted": false, "pillarId": "pillar/sport", "pillarName": "Sport"}, {"id": "sport/gallery/2014/jan/29/illustration-art", "type": "gallery", "sectionId": "sport", "sectionName": "Sport", "webPublicationDate": "2014-01-29T13:19:00Z", "webTitle": "Beautiful Games: picturing the playmakers", "webUrl": "https://www.theguardian.com/sport/gallery/2014/jan/29/illustration-art", "apiUrl": "https://content.guardianapis.com/sport/gallery/2014/jan/29/illustration-art", "isHosted": false, "pillarId": "pillar/sport", "pillarName": "Sport"}]}}