{"response": {"status": "ok", "userTier": "developer", "total": 132670, "startIndex": 1, "pageSize": 50, "currentPage": 1, "pages": 2654, "orderBy": "newest", "results": [{"id": "commentisfree/2011/oct/30/piracy-no-longer-bloodless", "type": "article", "sectionId": "commentisfree", "sectionName": "Opinion", "webPublicationDate": "2011-10-30T21:30:00Z", "webTitle": "Piracy is no longer bloodless | Rose George", "webUrl": "https://www.theguardian.com/commentisfree/2011/oct/30/piracy-no-longer-bloodless", "apiUrl": "https://content.guardianapis.com/commentisfree/2011/oct/30/piracy-no-longer-bloodless", "isHosted": false, "pillarId": "pillar/opinion", "pillarName": "Opinion"}, {"id": "politics/2011/oct/30/peers-progress-health-bill", "type": "article", "sectionId": "politics", "sectionName": "Politics", "webPublicationDate": "2011-10-30T21:00:06Z", "webTitle": "Letters: Peers' progress on the health and social care bill", "webUrl": "https://www.theguardian.com/politics/2011/oct/30/peers-progress-health-bill", "apiUrl": "https://content.guardianapis.com/politics/2011/oct/30/peers-progress-health-bill", "isHosted": false, "pillarId": "pillar/news", "pillarName": "News"}, {"id": "business/2011/oct/30/executive-pay-selfish-right-wing", "type": "article", "sectionId": "business", "sectionName": "Business", "webPublicationDate": "2011-10-30T21:00:05Z", "webTitle": "Letters: Executive pay and the selfish right wing", "webUrl": "https://www.theguardian.com/business/2011/oct/30/executive-pay-selfish-right-wing", "apiUrl": "https://content.guardianapis.com/business/2011/oct/30/executive-pay-selfish-right-wing", "isHosted": false, "pillarId": "pillar/news", "pillarName": "News"}, {"id": "uk/2011/oct/30/prince-charles-offered-veto-legislation", "type": "article", "sectionId": "uk-news", "sectionName": "UK news", "webPublicationDate": "2011-10-30T21:00:00Z", "webTitle": "Prince Charles has been offered a veto over 12 government bills since 2005", "webUrl": "https://www.theguardian.com/uk/2011/oct/30/prince-charles-offered-veto-legislation", "apiUrl": "https://content.guardianapis.com/uk/2011/oct/30/prince-charles-offered-veto-legislation", "isHosted": false, "pillarId": "pillar/news", "pillarName": "News"}, {"id": "uk/2011/oct/30/prince-of-wales-veto-legislation", "type": "article", "sectionId": "uk-news", "sectionName": "UK news", "webPublicationDate": "2011-10-30T21:00:00Z", "webTitle": "Prince of Wales: a private individual's effective veto over public legislation", "webUrl": "https://www.theguardian.com/uk/2011/oct/30/prince-of-wales-veto-legislation", "apiUrl": "https://content.guardianapis.com/uk/2011/oct/30/prince-of-wales-veto-legislation", "isHosted": false, "pillarId": "pillar/news", "pillarName": "News"}, {"id": "world/2011/oct/30/nuclear-powers-weapons-spending-report", "type": "article", "sectionId": "world", "sectionName": "World news", "webPublicationDate": "2011-10-30T20:48:33Z", "webTitle": "Nuclear powers plan weapons spending spree, report finds", "webUrl": "https://www.theguardian.com/world/2011/oct/30/nuclear-powers-weapons-spending-report", "apiUrl": "https://content.guardianapis.com/world/2011/oct/30/nuclear-powers-weapons-spending-report", "isHosted": false, "pillarId": "pillar/news", "pillarName": "News"}, {"id": "uk/2011/oct/30/girl-victims-anti-gang-strategy", "type": "article", "sectionId": "society", "sectionName": "Society", "webPublicationDate": "2011-10-30T20:46:04Z", "webTitle": "Girl victims of gang violence at centre of cabinet ministers' anti-gang strategy", "webUrl": "https://www.theguardian.com/uk/2011/oct/30/girl-victims-anti-gang-strategy", "apiUrl": "https://content.guardianapis.com/uk/2011/oct/30/girl-victims-anti-gang-strategy", "isHosted": false, "pillarId": "pillar/news", "pillarName": "News"}, {"id": "politics/2011/oct/30/conservative-eurosceptics-turn-fire-uk-negotiator", "type": "article", "sectionId": "politics", "sectionName": "Politics", "webPublicationDate": "2011-10-30T20:00:11Z", "webTitle": "Conservative Eurosceptics turn fire on UK negotiator", "webUrl": "https://www.theguardian.com/politics/2011/oct/30/conservative-eurosceptics-turn-fire-uk-negotiator", "apiUrl": "https://content.guardianapis.com/politics/2011/oct/30/conservative-eurosceptics-turn-fire-uk-negotiator", "isHosted": false, "pillarId": "pillar/news", "pillarName": "News"}, {"id": "commentisfree/2011/oct/30/foreigners-slavery-labour-xenophobia", "type": "article", "sectionId": "commentisfree", "sectionName": "Opinion", "webPublicationDate": "2011-10-30T19:15:01Z", "webTitle": "This fear of 'foreigners' is behind modern-day slavery | David Blunkett", "webUrl": "https://www.theguardian.com/commentisfree/2011/oct/30/foreigners-slavery-labour-xenophobia", "apiUrl": "https://content.guardianapis.com/commentisfree/2011/oct/30/foreigners-slavery-labour-xenophobia", "isHosted": false, "pillarId": "pillar/opinion", "pillarName": "Opinion"}, {"id": "politics/2011/oct/30/david-blunkett-warns-against-xenophobia", "type": "article", "sectionId": "politics", "sectionName": "Politics", "webPublicationDate": "2011-10-30T19:15:00Z", "webTitle": "David Blunkett warns the left: you can't outdo Tories on immigration", "webUrl": "https://www.theguardian.com/politics/2011/oct/30/david-blunkett-warns-against-xenophobia", "apiUrl": "https://content.guardianapis.com/politics/2011/oct/30/david-blunkett-warns-against-xenophobia", "isHosted": false, "pillarId": "pillar/news", "pillarName": "News"}, {"id": "education/2011/oct/30/education-ipad", "type": "article", "sectionId": "education", "sectionName": "Education", "webPublicationDate": "2011-10-30T18:36:50Z", "webTitle": "iPads and iPods 'are helping our pupils learn without realising they are doing it'", "webUrl": "https://www.theguardian.com/education/2011/oct/30/education-ipad", "apiUrl": "https://content.guardianapis.com/education/2011/oct/30/education-ipad", "isHosted": false, "pillarId": "pillar/news", "pillarName": "News"}, {"id": "education/2011/oct/30/smartphones-handheld-computers-battleground-schools", "type": "article", "sectionId": "education", "sectionName": "Education", "webPublicationDate": "2011-10-30T18:31:10Z", "webTitle": "Smartphones and handheld computers: the new battleground in UK schools", "webUrl": "https://www.theguardian.com/education/2011/oct/30/smartphones-handheld-computers-battleground-schools", "apiUrl": "https://content.guardianapis.com/education/2011/oct/30/smartphones-handheld-computers-battleground-schools", "isHosted": false, "pillarId": "pillar/news", "pillarName": "News"}, {"id": "commentisfree/2011/oct/30/edl-heart-facebook", "type": "article", "sectionId": "commentisfree", "sectionName": "Opinion", "webPublicationDate": "2011-10-30T18:05:01Z", "webTitle": "The heart of the EDL army is online, not on the streets | Jamie Bartlett", "webUrl": "https://www.theguardian.com/commentisfree/2011/oct/30/edl-heart-facebook", "apiUrl": "https://content.guardianapis.com/commentisfree/2011/oct/30/edl-heart-facebook", "isHosted": false, "pillarId": "pillar/opinion", "pillarName": "Opinion"}, {"id": "uk/2011/oct/30/campbell-christie", "type": "article", "sectionId": "politics", "sectionName": "Politics", "webPublicationDate": "2011-10-30T17:41:59Z", "webTitle": "Campbell Christie obituary", "webUrl": "https://www.theguardian.com/uk/2011/oct/30/campbell-christie", "apiUrl": "https://content.guardianapis.com/uk/2011/oct/30/campbell-christie", "isHosted": false, "pillarId": "pillar/news", "pillarName": "News"}, {"id": "commentisfree/2011/oct/30/ireland-turned-against-sean-gallagher", "type": "article", "sectionId": "commentisfree", "sectionName": "Opinion", "webPublicationDate": "2011-10-30T16:15:00Z", "webTitle": "Why Ireland turned against presidential favourite Se\u00e1n Gallagher | Christine Bohan", "webUrl": "https://www.theguardian.com/commentisfree/2011/oct/30/ireland-turned-against-sean-gallagher", "apiUrl": "https://content.guardianapis.com/commentisfree/2011/oct/30/ireland-turned-against-sean-gallagher", "isHosted": false, "pillarId": "pillar/opinion", "pillarName": "Opinion"}, {"id": "uk/2011/oct/30/occupy-protesters-government-blame-lse-chairman", "type": "article", "sectionId": "uk-news", "sectionName": "UK news", "webPublicationDate": "2011-10-30T13:32:00Z", "webTitle": "Occupy activists 'should target governments not City'", "webUrl": "https://www.theguardian.com/uk/2011/oct/30/occupy-protesters-government-blame-lse-chairman", "apiUrl": "https://content.guardianapis.com/uk/2011/oct/30/occupy-protesters-government-blame-lse-chairman", "isHosted": false, "pillarId": "pillar/news", "pillarName": "News"}, {"id": "commentisfree/2011/oct/30/sunday-papers-with-cath-elliott", "type": "article", "sectionId": "commentisfree", "sectionName": "Opinion", "webPublicationDate": "2011-10-30T12:41:00Z", "webTitle": "The Sunday papers with \u2026 Cath Elliott", "webUrl": "https://www.theguardian.com/commentisfree/2011/oct/30/sunday-papers-with-cath-elliott", "apiUrl": "https://content.guardianapis.com/commentisfree/2011/oct/30/sunday-papers-with-cath-elliott", "isHosted": false, "pillarId": "pillar/opinion", "pillarName": "Opinion"}, {"id": "society/2011/oct/30/female-domestic-violence-victims-lose-out-in-legal-reforms", "type": "article", "sectionId": "society", "sectionName": "Society", "webPublicationDate": "2011-10-29T23:18:01Z", "webTitle": "Women victims of domestic violence to lose out in legal aid reforms", "webUrl": "https://www.theguardian.com/society/2011/oct/30/female-domestic-violence-victims-lose-out-in-legal-reforms", "apiUrl": "https://content.guardianapis.com/society/2011/oct/30/female-domestic-violence-victims-lose-out-in-legal-reforms", "isHosted": false, "pillarId": "pillar/news", "pillarName": "News"}, {"id": "commentisfree/2011/oct/30/observer-editorial-implement-plan-b", "type": "article", "sectionId": "commentisfree", "sectionName": "Opinion", "webPublicationDate": "2011-10-29T23:09:00Z", "webTitle": "The economy: we need Plan B and we need it now | Observer editorial", "webUrl": "https://www.theguardian.com/commentisfree/2011/oct/30/observer-editorial-implement-plan-b", "apiUrl": "https://content.guardianapis.com/commentisfree/2011/oct/30/observer-editorial-implement-plan-b", "isHosted": false, "pillarId": "pillar/opinion", "pillarName": "Opinion"}, {"id": "politics/2011/oct/30/second-homes-tax-break-scrapped", "type": "article", "sectionId": "politics", "sectionName": "Politics", "webPublicationDate": "2011-10-29T23:07:00Z", "webTitle": "Wealthy to lose tax breaks on second homes", "webUrl": "https://www.theguardian.com/politics/2011/oct/30/second-homes-tax-break-scrapped", "apiUrl": "https://content.guardianapis.com/politics/2011/oct/30/second-homes-tax-break-scrapped", "isHosted": false, "pillarId": "pillar/news", "pillarName": "News"}, {"id": "commentisfree/2011/oct/30/david-mitchell-mary-portas-cameron", "type": "article", "sectionId": "commentisfree", "sectionName": "Opinion", "webPublicationDate": "2011-10-29T23:07:00Z", "webTitle": "I bet David Cameron wishes he'd chosen me instead of Mary Portas | David Mitchell", "webUrl": "https://www.theguardian.com/commentisfree/2011/oct/30/david-mitchell-mary-portas-cameron", "apiUrl": "https://content.guardianapis.com/commentisfree/2011/oct/30/david-mitchell-mary-portas-cameron", "isHosted": false, "pillarId": "pillar/opinion", "pillarName": "Opinion"}, {"id": "lifeandstyle/2011/oct/30/this-much-know-harriet-harman", "type": "article", "sectionId": "lifeandstyle", "sectionName": "Life and style", "webPublicationDate": "2011-10-29T23:06:06Z", "webTitle": "This much I know: Harriet Harman | Toby Helm", "webUrl": "https://www.theguardian.com/lifeandstyle/2011/oct/30/this-much-know-harriet-harman", "apiUrl": "https://content.guardianapis.com/lifeandstyle/2011/oct/30/this-much-know-harriet-harman", "isHosted": false, "pillarId": "pillar/lifestyle", "pillarName": "Lifestyle"}, {"id": "commentisfree/2011/oct/29/planb-economic-crisis-britain", "type": "article", "sectionId": "commentisfree", "sectionName": "Opinion", "webPublicationDate": "2011-10-29T20:44:11Z", "webTitle": "Plan B could have been even more aggressive \u2013 but it would definitely work | Will Hutton", "webUrl": "https://www.theguardian.com/commentisfree/2011/oct/29/planb-economic-crisis-britain", "apiUrl": "https://content.guardianapis.com/commentisfree/2011/oct/29/planb-economic-crisis-britain", "isHosted": false, "pillarId": "pillar/opinion", "pillarName": "Opinion"}, {"id": "politics/2011/oct/29/george-osborne-plan-b-economy", "type": "article", "sectionId": "politics", "sectionName": "Politics", "webPublicationDate": "2011-10-29T20:00:00Z", "webTitle": "100 leading economists tell George Osborne: we must turn to Plan B", "webUrl": "https://www.theguardian.com/politics/2011/oct/29/george-osborne-plan-b-economy", "apiUrl": "https://content.guardianapis.com/politics/2011/oct/29/george-osborne-plan-b-economy", "isHosted": false, "pillarId": "pillar/news", "pillarName": "News"}, {"id": "politics/2011/oct/29/plan-b-economy-george-osborne", "type": "article", "sectionId": "politics", "sectionName": "Politics", "webPublicationDate": "2011-10-29T20:00:00Z", "webTitle": "Plan B: the ideas designed to restart a stalled UK economy", "webUrl": "https://www.theguardian.com/politics/2011/oct/29/plan-b-economy-george-osborne", "apiUrl": "https://content.guardianapis.com/politics/2011/oct/29/plan-b-economy-george-osborne", "isHosted": false, "pillarId": "pillar/news", "pillarName": "News"}, {"id": "politics/2011/oct/29/nick-clegg-rebuke-tory-europe", "type": "article", "sectionId": "politics", "sectionName": "Politics", "webPublicationDate": "2011-10-29T19:30:00Z", "webTitle": "Nick Clegg issues fierce rebuke to Tory right over Europe", "webUrl": "https://www.theguardian.com/politics/2011/oct/29/nick-clegg-rebuke-tory-europe", "apiUrl": "https://content.guardianapis.com/politics/2011/oct/29/nick-clegg-rebuke-tory-europe", "isHosted": false, "pillarId": "pillar/news", "pillarName": "News"}, {"id": "theguardian/2011/oct/31/archive-gonzalez-charismatic-spaniard-1982", "type": "article", "sectionId": "theguardian", "sectionName": "From the Guardian", "webPublicationDate": "2011-10-29T11:40:00Z", "webTitle": "From the archive, 29 October 1982: Gonzalez - a charismatic Spaniard", "webUrl": "https://www.theguardian.com/theguardian/2011/oct/31/archive-gonzalez-charismatic-spaniard-1982", "apiUrl": "https://content.guardianapis.com/theguardian/2011/oct/31/archive-gonzalez-charismatic-spaniard-1982", "isHosted": false, "pillarId": "pillar/news", "pillarName": "News"}, {"id": "world/2011/oct/29/commonwealth-meeting-human-rights-disgrace", "type": "article", "sectionId": "world", "sectionName": "World news", "webPublicationDate": "2011-10-29T10:33:40Z", "webTitle": "Commonwealth leaders under fire for refusing to publish human rights report", "webUrl": "https://www.theguardian.com/world/2011/oct/29/commonwealth-meeting-human-rights-disgrace", "apiUrl": "https://content.guardianapis.com/world/2011/oct/29/commonwealth-meeting-human-rights-disgrace", "isHosted": false, "pillarId": "pillar/news", "pillarName": "News"}, {"id": "commentisfree/libertycentral/2011/oct/29/commonwealth-future-human-rights", "type": "article", "sectionId": "commentisfree", "sectionName": "Opinion", "webPublicationDate": "2011-10-29T10:00:02Z", "webTitle": "Does the Commonwealth have a bright future? Yes, if it's ready to change | Peter Kellner", "webUrl": "https://www.theguardian.com/commentisfree/libertycentral/2011/oct/29/commonwealth-future-human-rights", "apiUrl": "https://content.guardianapis.com/commentisfree/libertycentral/2011/oct/29/commonwealth-future-human-rights", "isHosted": false, "pillarId": "pillar/opinion", "pillarName": "Opinion"}, {"id": "politics/2011/oct/29/david-cameron-british-empire-medal", "type": "article", "sectionId": "politics", "sectionName": "Politics", "webPublicationDate": "2011-10-28T23:05:00Z", "webTitle": "David Cameron revives the British Empire Medal", "webUrl": "https://www.theguardian.com/politics/2011/oct/29/david-cameron-british-empire-medal", "apiUrl": "https://content.guardianapis.com/politics/2011/oct/29/david-cameron-british-empire-medal", "isHosted": false, "pillarId": "pillar/news", "pillarName": "News"}, {"id": "politics/2011/oct/29/criminals-benefits-docked-pay-fines", "type": "article", "sectionId": "politics", "sectionName": "Politics", "webPublicationDate": "2011-10-28T23:01:00Z", "webTitle": "Criminals to have weekly benefits docked by up to \u00a325 to pay fines", "webUrl": "https://www.theguardian.com/politics/2011/oct/29/criminals-benefits-docked-pay-fines", "apiUrl": "https://content.guardianapis.com/politics/2011/oct/29/criminals-benefits-docked-pay-fines", "isHosted": false, "pillarId": "pillar/news", "pillarName": "News"}, {"id": "uk/2011/oct/28/christine-hemming-sentence-zoe-williams", "type": "article", "sectionId": "uk-news", "sectionName": "UK news", "webPublicationDate": "2011-10-28T22:15:49Z", "webTitle": "Christine Hemming's sentence was no foregone conclusion", "webUrl": "https://www.theguardian.com/uk/2011/oct/28/christine-hemming-sentence-zoe-williams", "apiUrl": "https://content.guardianapis.com/uk/2011/oct/28/christine-hemming-sentence-zoe-williams", "isHosted": false, "pillarId": "pillar/news", "pillarName": "News"}, {"id": "money/2011/oct/28/how-to-get-into-transport-policy", "type": "article", "sectionId": "money", "sectionName": "Money", "webPublicationDate": "2011-10-28T22:01:00Z", "webTitle": "How to get into the transport sector", "webUrl": "https://www.theguardian.com/money/2011/oct/28/how-to-get-into-transport-policy", "apiUrl": "https://content.guardianapis.com/money/2011/oct/28/how-to-get-into-transport-policy", "isHosted": false, "pillarId": "pillar/lifestyle", "pillarName": "Lifestyle"}, {"id": "world/2011/oct/28/pirate-party-european-politics", "type": "article", "sectionId": "world", "sectionName": "World news", "webPublicationDate": "2011-10-28T21:24:58Z", "webTitle": "Pirate party leads new breed out to change European politics", "webUrl": "https://www.theguardian.com/world/2011/oct/28/pirate-party-european-politics", "apiUrl": "https://content.guardianapis.com/world/2011/oct/28/pirate-party-european-politics", "isHosted": false, "pillarId": "pillar/news", "pillarName": "News"}, {"id": "commentisfree/2011/oct/28/political-funding-paying-for-the-party", "type": "article", "sectionId": "commentisfree", "sectionName": "Opinion", "webPublicationDate": "2011-10-28T21:16:13Z", "webTitle": "Political funding: paying for the party", "webUrl": "https://www.theguardian.com/commentisfree/2011/oct/28/political-funding-paying-for-the-party", "apiUrl": "https://content.guardianapis.com/commentisfree/2011/oct/28/political-funding-paying-for-the-party", "isHosted": false, "pillarId": "pillar/opinion", "pillarName": "Opinion"}, {"id": "commentisfree/2011/oct/28/ken-clarke-the-revolution-that-never-was", "type": "article", "sectionId": "commentisfree", "sectionName": "Opinion", "webPublicationDate": "2011-10-28T21:12:20Z", "webTitle": "Ken Clarke: the revolution that never was", "webUrl": "https://www.theguardian.com/commentisfree/2011/oct/28/ken-clarke-the-revolution-that-never-was", "apiUrl": "https://content.guardianapis.com/commentisfree/2011/oct/28/ken-clarke-the-revolution-that-never-was", "isHosted": false, "pillarId": "pillar/opinion", "pillarName": "Opinion"}, {"id": "politics/2011/oct/28/cameron-clegg-rebalancing-powers-eu", "type": "article", "sectionId": "politics", "sectionName": "Politics", "webPublicationDate": "2011-10-28T20:03:46Z", "webTitle": "Cameron and Clegg disagree over rebalancing of powers with EU", "webUrl": "https://www.theguardian.com/politics/2011/oct/28/cameron-clegg-rebalancing-powers-eu", "apiUrl": "https://content.guardianapis.com/politics/2011/oct/28/cameron-clegg-rebalancing-powers-eu", "isHosted": false, "pillarId": "pillar/news", "pillarName": "News"}, {"id": "politics/2011/oct/28/bbc-accused-anti-welfare-stance", "type": "article", "sectionId": "politics", "sectionName": "Politics", "webPublicationDate": "2011-10-28T20:00:02Z", "webTitle": "Letters: BBC accused of anti-welfare stance", "webUrl": "https://www.theguardian.com/politics/2011/oct/28/bbc-accused-anti-welfare-stance", "apiUrl": "https://content.guardianapis.com/politics/2011/oct/28/bbc-accused-anti-welfare-stance", "isHosted": false, "pillarId": "pillar/news", "pillarName": "News"}, {"id": "world/2011/oct/28/mi5-russian-spy-investigation", "type": "article", "sectionId": "world", "sectionName": "World news", "webPublicationDate": "2011-10-28T19:51:56Z", "webTitle": "MI5 inquiry into Russian 'spy' was 'Inspector Clouseau not George Smiley'", "webUrl": "https://www.theguardian.com/world/2011/oct/28/mi5-russian-spy-investigation", "apiUrl": "https://content.guardianapis.com/world/2011/oct/28/mi5-russian-spy-investigation", "isHosted": false, "pillarId": "pillar/news", "pillarName": "News"}, {"id": "politics/2011/oct/28/political-parties-more-state-funding", "type": "article", "sectionId": "politics", "sectionName": "Politics", "webPublicationDate": "2011-10-28T19:47:23Z", "webTitle": "Political parties could get more state funding to make up for donation caps", "webUrl": "https://www.theguardian.com/politics/2011/oct/28/political-parties-more-state-funding", "apiUrl": "https://content.guardianapis.com/politics/2011/oct/28/political-parties-more-state-funding", "isHosted": false, "pillarId": "pillar/news", "pillarName": "News"}, {"id": "world/2011/oct/28/michael-d-higgins-ireland-president", "type": "article", "sectionId": "world", "sectionName": "World news", "webPublicationDate": "2011-10-28T18:53:47Z", "webTitle": "Michael D Higgins to become Ireland's next president", "webUrl": "https://www.theguardian.com/world/2011/oct/28/michael-d-higgins-ireland-president", "apiUrl": "https://content.guardianapis.com/world/2011/oct/28/michael-d-higgins-ireland-president", "isHosted": false, "pillarId": "pillar/news", "pillarName": "News"}, {"id": "business/2011/oct/28/small-businesses-failing-loans", "type": "article", "sectionId": "business", "sectionName": "Business", "webPublicationDate": "2011-10-28T18:48:23Z", "webTitle": "Small businesses failing to get loans as banks blamed for credit squeeze", "webUrl": "https://www.theguardian.com/business/2011/oct/28/small-businesses-failing-loans", "apiUrl": "https://content.guardianapis.com/business/2011/oct/28/small-businesses-failing-loans", "isHosted": false, "pillarId": "pillar/news", "pillarName": "News"}, {"id": "society/2011/oct/28/labour-coalition-social-care", "type": "article", "sectionId": "society", "sectionName": "Society", "webPublicationDate": "2011-10-28T18:23:58Z", "webTitle": "Labour calls for coalition guarantees over 'quiet crisis' in social care", "webUrl": "https://www.theguardian.com/society/2011/oct/28/labour-coalition-social-care", "apiUrl": "https://content.guardianapis.com/society/2011/oct/28/labour-coalition-social-care", "isHosted": false, "pillarId": "pillar/news", "pillarName": "News"}, {"id": "business/2011/oct/28/cunard-leaves-britain-bermuda", "type": "article", "sectionId": "business", "sectionName": "Business", "webPublicationDate": "2011-10-28T18:03:04Z", "webTitle": "Cunard waves goodbye to Britannia after 170 years", "webUrl": "https://www.theguardian.com/business/2011/oct/28/cunard-leaves-britain-bermuda", "apiUrl": "https://content.guardianapis.com/business/2011/oct/28/cunard-leaves-britain-bermuda", "isHosted": false, "pillarId": "pillar/news", "pillarName": "News"}, {"id": "commentisfree/2011/oct/28/m25-london-orbital-margaret-thatcher-25", "type": "article", "sectionId": "commentisfree", "sectionName": "Opinion", "webPublicationDate": "2011-10-28T18:00:00Z", "webTitle": "M25 comes full circle | Joe Moran", "webUrl": "https://www.theguardian.com/commentisfree/2011/oct/28/m25-london-orbital-margaret-thatcher-25", "apiUrl": "https://content.guardianapis.com/commentisfree/2011/oct/28/m25-london-orbital-margaret-thatcher-25", "isHosted": false, "pillarId": "pillar/opinion", "pillarName": "Opinion"}, {"id": "law/2011/oct/28/lib-dem-legal-aid-rebellion", "type": "article", "sectionId": "law", "sectionName": "Law", "webPublicationDate": "2011-10-28T17:44:04Z", "webTitle": "Lib Dem MPs rebel against proposals to cut legal aid funding", "webUrl": "https://www.theguardian.com/law/2011/oct/28/lib-dem-legal-aid-rebellion", "apiUrl": "https://content.guardianapis.com/law/2011/oct/28/lib-dem-legal-aid-rebellion", "isHosted": false, "pillarId": "pillar/news", "pillarName": "News"}, {"id": "business/2011/oct/28/labour-not-anti-business-john-denham", "type": "article", "sectionId": "politics", "sectionName": "Politics", "webPublicationDate": "2011-10-28T17:41:31Z", "webTitle": "Labour's goodies v baddies rhetoric is not anti-business, says John Denham", "webUrl": "https://www.theguardian.com/business/2011/oct/28/labour-not-anti-business-john-denham", "apiUrl": "https://content.guardianapis.com/business/2011/oct/28/labour-not-anti-business-john-denham", "isHosted": false, "pillarId": "pillar/news", "pillarName": "News"}, {"id": "business/2011/oct/28/martin-sorrell-defends-pay-rises-for-executives", "type": "article", "sectionId": "business", "sectionName": "Business", "webPublicationDate": "2011-10-28T16:26:05Z", "webTitle": "\u00a34m advertising boss Sir Martin Sorrell defends rising executive pay", "webUrl": "https://www.theguardian.com/business/2011/oct/28/martin-sorrell-defends-pay-rises-for-executives", "apiUrl": "https://content.guardianapis.com/business/2011/oct/28/martin-sorrell-defends-pay-rises-for-executives", "isHosted": false, "pillarId": "pillar/news", "pillarName": "News"}, {"id": "law/2011/oct/28/european-single-contract-law-english", "type": "article", "sectionId": "law", "sectionName": "Law", "webPublicationDate": "2011-10-28T14:51:23Z", "webTitle": "How a European single contract law could erode English hegemony | Alex Aldridge", "webUrl": "https://www.theguardian.com/law/2011/oct/28/european-single-contract-law-english", "apiUrl": "https://content.guardianapis.com/law/2011/oct/28/european-single-contract-law-english", "isHosted": false, "pillarId": "pillar/news", "pillarName": "News"}, {"id": "culture/culture-cuts-blog/2011/oct/28/arts-funding-libraries", "type": "article", "sectionId": "culture", "sectionName": "Culture", "webPublicationDate": "2011-10-28T14:43:33Z", "webTitle": "Hunt offers little hope of intervening over library closures", "webUrl": "https://www.theguardian.com/culture/culture-cuts-blog/2011/oct/28/arts-funding-libraries", "apiUrl": "https://content.guardianapis.com/culture/culture-cuts-blog/2011/oct/28/arts-funding-libraries", "isHosted": false, "pillarId": "pillar/arts", "pillarName": "Arts"}]}}