{"response": {"status": "ok", "userTier": "developer", "total": 16967, "startIndex": 1, "pageSize": 50, "currentPage": 1, "pages": 340, "orderBy": "newest", "results": [{"id": "lifeandstyle/gallery/2011/oct/30/food-and-drink-design", "type": "gallery", "sectionId": "food", "sectionName": "Food", "webPublicationDate": "2011-10-30T20:00:00Z", "webTitle": "Vintage food packaging \u2013 in pictures", "webUrl": "https://www.theguardian.com/lifeandstyle/gallery/2011/oct/30/food-and-drink-design", "apiUrl": "https://content.guardianapis.com/lifeandstyle/gallery/2011/oct/30/food-and-drink-design", "isHosted": false, "pillarId": "pillar/lifestyle", "pillarName": "Lifestyle"}, {"id": "lifeandstyle/2011/oct/30/british-vintage-food", "type": "article", "sectionId": "food", "sectionName": "Food", "webPublicationDate": "2011-10-30T19:59:02Z", "webTitle": "Best before 1960: British vintage food", "webUrl": "https://www.theguardian.com/lifeandstyle/2011/oct/30/british-vintage-food", "apiUrl": "https://content.guardianapis.com/lifeandstyle/2011/oct/30/british-vintage-food", "isHosted": false, "pillarId": "pillar/lifestyle", "pillarName": "Lifestyle"}, {"id": "lifeandstyle/2011/oct/30/bread-street-kitchen-restaurant-review", "type": "article", "sectionId": "food", "sectionName": "Food", "webPublicationDate": "2011-10-29T23:05:57Z", "webTitle": "Restaurant review: Bread Street Kitchen | Jay Rayner", "webUrl": "https://www.theguardian.com/lifeandstyle/2011/oct/30/bread-street-kitchen-restaurant-review", "apiUrl": "https://content.guardianapis.com/lifeandstyle/2011/oct/30/bread-street-kitchen-restaurant-review", "isHosted": false, "pillarId": "pillar/lifestyle", "pillarName": "Lifestyle"}, {"id": "lifeandstyle/2011/oct/28/chickpea-recipes-hugh-fearnley-whittingstall", "type": "article", "sectionId": "lifeandstyle", "sectionName": "Life and style", "webPublicationDate": "2011-10-28T21:59:31Z", "webTitle": "Chickpea recipes | Hugh Fearnley-Whittingstall", "webUrl": "https://www.theguardian.com/lifeandstyle/2011/oct/28/chickpea-recipes-hugh-fearnley-whittingstall", "apiUrl": "https://content.guardianapis.com/lifeandstyle/2011/oct/28/chickpea-recipes-hugh-fearnley-whittingstall", "isHosted": false, "pillarId": "pillar/lifestyle", "pillarName": "Lifestyle"}, {"id": "lifeandstyle/2011/oct/28/honey-nut-banana-muffin-recipe", "type": "article", "sectionId": "lifeandstyle", "sectionName": "Life and style", "webPublicationDate": "2011-10-28T21:59:26Z", "webTitle": "Honey nut banana muffins recipe | Dan Lepard", "webUrl": "https://www.theguardian.com/lifeandstyle/2011/oct/28/honey-nut-banana-muffin-recipe", "apiUrl": "https://content.guardianapis.com/lifeandstyle/2011/oct/28/honey-nut-banana-muffin-recipe", "isHosted": false, "pillarId": "pillar/lifestyle", "pillarName": "Lifestyle"}, {"id": "lifeandstyle/2011/oct/28/young-turks-10-bells-review", "type": "article", "sectionId": "lifeandstyle", "sectionName": "Life and style", "webPublicationDate": "2011-10-28T21:59:21Z", "webTitle": "Restaurant review: The Young Turks, London E1", "webUrl": "https://www.theguardian.com/lifeandstyle/2011/oct/28/young-turks-10-bells-review", "apiUrl": "https://content.guardianapis.com/lifeandstyle/2011/oct/28/young-turks-10-bells-review", "isHosted": false, "pillarId": "pillar/lifestyle", "pillarName": "Lifestyle"}, {"id": "lifeandstyle/2011/oct/28/vietnamese-beef-salad-recipe", "type": "article", "sectionId": "food", "sectionName": "Food", "webPublicationDate": "2011-10-28T21:59:16Z", "webTitle": "Yotam Ottolenghi's recipes for warm Vietnamese beef salad and baby spinach, almond and pecorino salad", "webUrl": "https://www.theguardian.com/lifeandstyle/2011/oct/28/vietnamese-beef-salad-recipe", "apiUrl": "https://content.guardianapis.com/lifeandstyle/2011/oct/28/vietnamese-beef-salad-recipe", "isHosted": false, "pillarId": "pillar/lifestyle", "pillarName": "Lifestyle"}, {"id": "lifeandstyle/2011/oct/28/good-value-wines-high-street", "type": "article", "sectionId": "food", "sectionName": "Food", "webPublicationDate": "2011-10-28T21:59:13Z", "webTitle": "Wine: how to get value for money", "webUrl": "https://www.theguardian.com/lifeandstyle/2011/oct/28/good-value-wines-high-street", "apiUrl": "https://content.guardianapis.com/lifeandstyle/2011/oct/28/good-value-wines-high-street", "isHosted": false, "pillarId": "pillar/lifestyle", "pillarName": "Lifestyle"}, {"id": "lifeandstyle/2011/oct/28/decaffeinated-tea-michelin-starred-restaurants", "type": "article", "sectionId": "lifeandstyle", "sectionName": "Life and style", "webPublicationDate": "2011-10-28T21:59:08Z", "webTitle": "Food for Fort: decaff tea and Michelin-starred restaurants", "webUrl": "https://www.theguardian.com/lifeandstyle/2011/oct/28/decaffeinated-tea-michelin-starred-restaurants", "apiUrl": "https://content.guardianapis.com/lifeandstyle/2011/oct/28/decaffeinated-tea-michelin-starred-restaurants", "isHosted": false, "pillarId": "pillar/lifestyle", "pillarName": "Lifestyle"}, {"id": "business/2011/oct/28/ferrero-unwrapped", "type": "article", "sectionId": "business", "sectionName": "Business", "webPublicationDate": "2011-10-28T17:30:54Z", "webTitle": "Ferrero unwrapped: Italy's secretive confectioner opens its doors", "webUrl": "https://www.theguardian.com/business/2011/oct/28/ferrero-unwrapped", "apiUrl": "https://content.guardianapis.com/business/2011/oct/28/ferrero-unwrapped", "isHosted": false, "pillarId": "pillar/news", "pillarName": "News"}, {"id": "lifeandstyle/2011/oct/28/spiderweb-cheesecake-recipe", "type": "article", "sectionId": "lifeandstyle", "sectionName": "Life and style", "webPublicationDate": "2011-10-28T11:00:00Z", "webTitle": "Halloween spiderweb cheesecake recipe", "webUrl": "https://www.theguardian.com/lifeandstyle/2011/oct/28/spiderweb-cheesecake-recipe", "apiUrl": "https://content.guardianapis.com/lifeandstyle/2011/oct/28/spiderweb-cheesecake-recipe", "isHosted": false, "pillarId": "pillar/lifestyle", "pillarName": "Lifestyle"}, {"id": "lifeandstyle/2011/oct/28/british-food-clarissa-dickson-wright", "type": "article", "sectionId": "food", "sectionName": "Food", "webPublicationDate": "2011-10-28T10:00:01Z", "webTitle": "A History of English Food by Clarissa Dickson Wright \u2013 review", "webUrl": "https://www.theguardian.com/lifeandstyle/2011/oct/28/british-food-clarissa-dickson-wright", "apiUrl": "https://content.guardianapis.com/lifeandstyle/2011/oct/28/british-food-clarissa-dickson-wright", "isHosted": false, "pillarId": "pillar/lifestyle", "pillarName": "Lifestyle"}, {"id": "lifeandstyle/wordofmouth/2011/oct/28/is-cheating-ok-if-its-posh", "type": "article", "sectionId": "lifeandstyle", "sectionName": "Life and style", "webPublicationDate": "2011-10-28T08:30:00Z", "webTitle": "Is kitchen cheating OK if it's posh?", "webUrl": "https://www.theguardian.com/lifeandstyle/wordofmouth/2011/oct/28/is-cheating-ok-if-its-posh", "apiUrl": "https://content.guardianapis.com/lifeandstyle/wordofmouth/2011/oct/28/is-cheating-ok-if-its-posh", "isHosted": false, "pillarId": "pillar/lifestyle", "pillarName": "Lifestyle"}, {"id": "lifeandstyle/wordofmouth/2011/oct/27/are-you-carving-halloween-pumpkin", "type": "article", "sectionId": "lifeandstyle", "sectionName": "Life and style", "webPublicationDate": "2011-10-27T10:30:00Z", "webTitle": "Are you carving a Halloween pumpkin?", "webUrl": "https://www.theguardian.com/lifeandstyle/wordofmouth/2011/oct/27/are-you-carving-halloween-pumpkin", "apiUrl": "https://content.guardianapis.com/lifeandstyle/wordofmouth/2011/oct/27/are-you-carving-halloween-pumpkin", "isHosted": false, "pillarId": "pillar/lifestyle", "pillarName": "Lifestyle"}, {"id": "lifeandstyle/gallery/2011/oct/27/how-to-carve-pumpkin-halloween", "type": "gallery", "sectionId": "food", "sectionName": "Food", "webPublicationDate": "2011-10-27T10:30:00Z", "webTitle": "How to carve a pumpkin for Halloween - in pictures", "webUrl": "https://www.theguardian.com/lifeandstyle/gallery/2011/oct/27/how-to-carve-pumpkin-halloween", "apiUrl": "https://content.guardianapis.com/lifeandstyle/gallery/2011/oct/27/how-to-carve-pumpkin-halloween", "isHosted": false, "pillarId": "pillar/lifestyle", "pillarName": "Lifestyle"}, {"id": "lifeandstyle/wordofmouth/2011/oct/27/how-to-cook-perfect-welsh-rarebit", "type": "article", "sectionId": "food", "sectionName": "Food", "webPublicationDate": "2011-10-26T23:10:00Z", "webTitle": "How to cook perfect welsh rarebit", "webUrl": "https://www.theguardian.com/lifeandstyle/wordofmouth/2011/oct/27/how-to-cook-perfect-welsh-rarebit", "apiUrl": "https://content.guardianapis.com/lifeandstyle/wordofmouth/2011/oct/27/how-to-cook-perfect-welsh-rarebit", "isHosted": false, "pillarId": "pillar/lifestyle", "pillarName": "Lifestyle"}, {"id": "lifeandstyle/2011/oct/26/food-mould-safe-or-toxic", "type": "article", "sectionId": "food", "sectionName": "Food", "webPublicationDate": "2011-10-26T19:59:01Z", "webTitle": "Spoilt rotten: good and bad mould", "webUrl": "https://www.theguardian.com/lifeandstyle/2011/oct/26/food-mould-safe-or-toxic", "apiUrl": "https://content.guardianapis.com/lifeandstyle/2011/oct/26/food-mould-safe-or-toxic", "isHosted": false, "pillarId": "pillar/lifestyle", "pillarName": "Lifestyle"}, {"id": "lifeandstyle/wordofmouth/2011/oct/26/french-government-banning-vegetarianism-schools", "type": "article", "sectionId": "lifeandstyle", "sectionName": "Life and style", "webPublicationDate": "2011-10-26T15:55:48Z", "webTitle": "French government 'banning vegetarianism' in school canteens", "webUrl": "https://www.theguardian.com/lifeandstyle/wordofmouth/2011/oct/26/french-government-banning-vegetarianism-schools", "apiUrl": "https://content.guardianapis.com/lifeandstyle/wordofmouth/2011/oct/26/french-government-banning-vegetarianism-schools", "isHosted": false, "pillarId": "pillar/lifestyle", "pillarName": "Lifestyle"}, {"id": "lifeandstyle/2011/oct/26/venison-and-carrot-stew", "type": "article", "sectionId": "lifeandstyle", "sectionName": "Life and style", "webPublicationDate": "2011-10-26T14:36:00Z", "webTitle": "Angela Hartnett's venison and carrot stew recipe", "webUrl": "https://www.theguardian.com/lifeandstyle/2011/oct/26/venison-and-carrot-stew", "apiUrl": "https://content.guardianapis.com/lifeandstyle/2011/oct/26/venison-and-carrot-stew", "isHosted": false, "pillarId": "pillar/lifestyle", "pillarName": "Lifestyle"}, {"id": "lifeandstyle/gallery/2011/oct/26/diwali-snacks-sweets-in-pictures", "type": "gallery", "sectionId": "lifeandstyle", "sectionName": "Life and style", "webPublicationDate": "2011-10-26T11:00:00Z", "webTitle": "Diwali snacks and sweets - in pictures", "webUrl": "https://www.theguardian.com/lifeandstyle/gallery/2011/oct/26/diwali-snacks-sweets-in-pictures", "apiUrl": "https://content.guardianapis.com/lifeandstyle/gallery/2011/oct/26/diwali-snacks-sweets-in-pictures", "isHosted": false, "pillarId": "pillar/lifestyle", "pillarName": "Lifestyle"}, {"id": "lifeandstyle/wordofmouth/2011/oct/26/how-to-make-chestnut-liqueur", "type": "article", "sectionId": "lifeandstyle", "sectionName": "Life and style", "webPublicationDate": "2011-10-26T08:50:00Z", "webTitle": "How to make chestnut liqueur", "webUrl": "https://www.theguardian.com/lifeandstyle/wordofmouth/2011/oct/26/how-to-make-chestnut-liqueur", "apiUrl": "https://content.guardianapis.com/lifeandstyle/wordofmouth/2011/oct/26/how-to-make-chestnut-liqueur", "isHosted": false, "pillarId": "pillar/lifestyle", "pillarName": "Lifestyle"}, {"id": "society/2011/oct/25/village-pubs-model-community-ownership", "type": "article", "sectionId": "society", "sectionName": "Society", "webPublicationDate": "2011-10-25T15:45:00Z", "webTitle": "How village pubs could be a shining model of community ownership", "webUrl": "https://www.theguardian.com/society/2011/oct/25/village-pubs-model-community-ownership", "apiUrl": "https://content.guardianapis.com/society/2011/oct/25/village-pubs-model-community-ownership", "isHosted": false, "pillarId": "pillar/news", "pillarName": "News"}, {"id": "world/2011/oct/25/letter-from-italy-tomatoes", "type": "article", "sectionId": "world", "sectionName": "World news", "webPublicationDate": "2011-10-25T13:07:01Z", "webTitle": "Letter from Italy: it's the season for having fun with tomato sauce", "webUrl": "https://www.theguardian.com/world/2011/oct/25/letter-from-italy-tomatoes", "apiUrl": "https://content.guardianapis.com/world/2011/oct/25/letter-from-italy-tomatoes", "isHosted": false, "pillarId": "pillar/news", "pillarName": "News"}, {"id": "lifeandstyle/wordofmouth/2011/oct/25/whats-eaten-at-diwali", "type": "article", "sectionId": "lifeandstyle", "sectionName": "Life and style", "webPublicationDate": "2011-10-25T12:00:00Z", "webTitle": "What's eaten at Diwali?", "webUrl": "https://www.theguardian.com/lifeandstyle/wordofmouth/2011/oct/25/whats-eaten-at-diwali", "apiUrl": "https://content.guardianapis.com/lifeandstyle/wordofmouth/2011/oct/25/whats-eaten-at-diwali", "isHosted": false, "pillarId": "pillar/lifestyle", "pillarName": "Lifestyle"}, {"id": "money/2011/oct/25/supermarket-price-promises-offers", "type": "article", "sectionId": "money", "sectionName": "Money", "webPublicationDate": "2011-10-25T09:26:34Z", "webTitle": "Why supermarket price promises aren't all they seem", "webUrl": "https://www.theguardian.com/money/2011/oct/25/supermarket-price-promises-offers", "apiUrl": "https://content.guardianapis.com/money/2011/oct/25/supermarket-price-promises-offers", "isHosted": false, "pillarId": "pillar/lifestyle", "pillarName": "Lifestyle"}, {"id": "lifeandstyle/wordofmouth/2011/oct/25/internet-recipe-seach-seasons-eatings", "type": "article", "sectionId": "food", "sectionName": "Food", "webPublicationDate": "2011-10-25T09:00:00Z", "webTitle": "Internet recipe search: seasons' eatings", "webUrl": "https://www.theguardian.com/lifeandstyle/wordofmouth/2011/oct/25/internet-recipe-seach-seasons-eatings", "apiUrl": "https://content.guardianapis.com/lifeandstyle/wordofmouth/2011/oct/25/internet-recipe-seach-seasons-eatings", "isHosted": false, "pillarId": "pillar/lifestyle", "pillarName": "Lifestyle"}, {"id": "education/2011/oct/24/jamie-oliver-teaching-resources", "type": "article", "sectionId": "teacher-network", "sectionName": "Teacher Network", "webPublicationDate": "2011-10-24T19:30:01Z", "webTitle": "How to teach \u2026 children to cook", "webUrl": "https://www.theguardian.com/education/2011/oct/24/jamie-oliver-teaching-resources", "apiUrl": "https://content.guardianapis.com/education/2011/oct/24/jamie-oliver-teaching-resources", "isHosted": false, "pillarId": "pillar/news", "pillarName": "News"}, {"id": "education/2011/oct/24/jamie-oliver-fight-healthy-eating-schools", "type": "article", "sectionId": "education", "sectionName": "Education", "webPublicationDate": "2011-10-24T19:00:00Z", "webTitle": "How to save school dinners \u2013 part two", "webUrl": "https://www.theguardian.com/education/2011/oct/24/jamie-oliver-fight-healthy-eating-schools", "apiUrl": "https://content.guardianapis.com/education/2011/oct/24/jamie-oliver-fight-healthy-eating-schools", "isHosted": false, "pillarId": "pillar/news", "pillarName": "News"}, {"id": "education/2011/oct/24/jamie-oliver-school-meals-progress-undone", "type": "article", "sectionId": "education", "sectionName": "Education", "webPublicationDate": "2011-10-24T15:00:49Z", "webTitle": "Jamie Oliver fears government is undoing school meal progress", "webUrl": "https://www.theguardian.com/education/2011/oct/24/jamie-oliver-school-meals-progress-undone", "apiUrl": "https://content.guardianapis.com/education/2011/oct/24/jamie-oliver-school-meals-progress-undone", "isHosted": false, "pillarId": "pillar/news", "pillarName": "News"}, {"id": "lifeandstyle/video/2011/oct/24/japanese-miso-soup-video", "type": "video", "sectionId": "food", "sectionName": "Food", "webPublicationDate": "2011-10-24T13:33:00Z", "webTitle": "How to cook Japanese miso soup - video", "webUrl": "https://www.theguardian.com/lifeandstyle/video/2011/oct/24/japanese-miso-soup-video", "apiUrl": "https://content.guardianapis.com/lifeandstyle/video/2011/oct/24/japanese-miso-soup-video", "isHosted": false, "pillarId": "pillar/lifestyle", "pillarName": "Lifestyle"}, {"id": "lifeandstyle/wordofmouth/2011/oct/24/baking-books-best-of-batch", "type": "article", "sectionId": "food", "sectionName": "Food", "webPublicationDate": "2011-10-24T09:00:00Z", "webTitle": "Baking books: best of the new batch", "webUrl": "https://www.theguardian.com/lifeandstyle/wordofmouth/2011/oct/24/baking-books-best-of-batch", "apiUrl": "https://content.guardianapis.com/lifeandstyle/wordofmouth/2011/oct/24/baking-books-best-of-batch", "isHosted": false, "pillarId": "pillar/lifestyle", "pillarName": "Lifestyle"}, {"id": "lifeandstyle/2011/oct/23/jay-rayner-restaurant-enclume-cumbria", "type": "article", "sectionId": "food", "sectionName": "Food", "webPublicationDate": "2011-10-22T23:11:01Z", "webTitle": "Restaurant review: L'Enclume", "webUrl": "https://www.theguardian.com/lifeandstyle/2011/oct/23/jay-rayner-restaurant-enclume-cumbria", "apiUrl": "https://content.guardianapis.com/lifeandstyle/2011/oct/23/jay-rayner-restaurant-enclume-cumbria", "isHosted": false, "pillarId": "pillar/lifestyle", "pillarName": "Lifestyle"}, {"id": "lifeandstyle/2011/oct/23/david-williams-wines-of-the-week", "type": "article", "sectionId": "food", "sectionName": "Food", "webPublicationDate": "2011-10-22T23:05:00Z", "webTitle": "Wines of the week: David Williams", "webUrl": "https://www.theguardian.com/lifeandstyle/2011/oct/23/david-williams-wines-of-the-week", "apiUrl": "https://content.guardianapis.com/lifeandstyle/2011/oct/23/david-williams-wines-of-the-week", "isHosted": false, "pillarId": "pillar/lifestyle", "pillarName": "Lifestyle"}, {"id": "society/2011/oct/22/stephen-fry-campaign-cromer-crab", "type": "article", "sectionId": "society", "sectionName": "Society", "webPublicationDate": "2011-10-22T22:52:05Z", "webTitle": "Stephen Fry leads celebrities in campaign to save Cromer's crab factory", "webUrl": "https://www.theguardian.com/society/2011/oct/22/stephen-fry-campaign-cromer-crab", "apiUrl": "https://content.guardianapis.com/society/2011/oct/22/stephen-fry-campaign-cromer-crab", "isHosted": false, "pillarId": "pillar/news", "pillarName": "News"}, {"id": "commentisfree/2011/oct/22/subway-brick-lane", "type": "article", "sectionId": "commentisfree", "sectionName": "Opinion", "webPublicationDate": "2011-10-22T11:00:01Z", "webTitle": "Subway is not a patch on Brick Lane | Trim Lamba", "webUrl": "https://www.theguardian.com/commentisfree/2011/oct/22/subway-brick-lane", "apiUrl": "https://content.guardianapis.com/commentisfree/2011/oct/22/subway-brick-lane", "isHosted": false, "pillarId": "pillar/opinion", "pillarName": "Opinion"}, {"id": "lifeandstyle/cartoon/2011/oct/22/food-and-drink", "type": "picture", "sectionId": "lifeandstyle", "sectionName": "Life and style", "webPublicationDate": "2011-10-22T02:00:00Z", "webTitle": "Berger & Wyse", "webUrl": "https://www.theguardian.com/lifeandstyle/cartoon/2011/oct/22/food-and-drink", "apiUrl": "https://content.guardianapis.com/lifeandstyle/cartoon/2011/oct/22/food-and-drink", "isHosted": false, "pillarId": "pillar/lifestyle", "pillarName": "Lifestyle"}, {"id": "lifeandstyle/2011/oct/22/clarissa-dickson-wright-father-alcoholic", "type": "article", "sectionId": "lifeandstyle", "sectionName": "Life and style", "webPublicationDate": "2011-10-21T23:04:18Z", "webTitle": "Clarissa Dickson Wright: 'I don't love my father - fond is as good as it gets'", "webUrl": "https://www.theguardian.com/lifeandstyle/2011/oct/22/clarissa-dickson-wright-father-alcoholic", "apiUrl": "https://content.guardianapis.com/lifeandstyle/2011/oct/22/clarissa-dickson-wright-father-alcoholic", "isHosted": false, "pillarId": "pillar/lifestyle", "pillarName": "Lifestyle"}, {"id": "lifeandstyle/2011/oct/22/readers-favourite-photographs-songs-recipes", "type": "article", "sectionId": "lifeandstyle", "sectionName": "Life and style", "webPublicationDate": "2011-10-21T23:04:12Z", "webTitle": "Family life", "webUrl": "https://www.theguardian.com/lifeandstyle/2011/oct/22/readers-favourite-photographs-songs-recipes", "apiUrl": "https://content.guardianapis.com/lifeandstyle/2011/oct/22/readers-favourite-photographs-songs-recipes", "isHosted": false, "pillarId": "pillar/lifestyle", "pillarName": "Lifestyle"}, {"id": "lifeandstyle/2011/oct/21/goulash-pasta-soup-recipes-whittingstall", "type": "article", "sectionId": "lifeandstyle", "sectionName": "Life and style", "webPublicationDate": "2011-10-21T22:00:20Z", "webTitle": "Hot food for cold days recipes | Hugh Fearnley-Whittingstall", "webUrl": "https://www.theguardian.com/lifeandstyle/2011/oct/21/goulash-pasta-soup-recipes-whittingstall", "apiUrl": "https://content.guardianapis.com/lifeandstyle/2011/oct/21/goulash-pasta-soup-recipes-whittingstall", "isHosted": false, "pillarId": "pillar/lifestyle", "pillarName": "Lifestyle"}, {"id": "lifeandstyle/2011/oct/21/winemakers-forrester-ortega-draper", "type": "article", "sectionId": "food", "sectionName": "Food", "webPublicationDate": "2011-10-21T21:59:23Z", "webTitle": "Wine: Why winemakers with big personalities make equally big wines", "webUrl": "https://www.theguardian.com/lifeandstyle/2011/oct/21/winemakers-forrester-ortega-draper", "apiUrl": "https://content.guardianapis.com/lifeandstyle/2011/oct/21/winemakers-forrester-ortega-draper", "isHosted": false, "pillarId": "pillar/lifestyle", "pillarName": "Lifestyle"}, {"id": "lifeandstyle/2011/oct/21/taste-changes-with-age-fort", "type": "article", "sectionId": "lifeandstyle", "sectionName": "Life and style", "webPublicationDate": "2011-10-21T21:59:19Z", "webTitle": "Food for Fort: on how taste changes with age, plus potato ricers", "webUrl": "https://www.theguardian.com/lifeandstyle/2011/oct/21/taste-changes-with-age-fort", "apiUrl": "https://content.guardianapis.com/lifeandstyle/2011/oct/21/taste-changes-with-age-fort", "isHosted": false, "pillarId": "pillar/lifestyle", "pillarName": "Lifestyle"}, {"id": "lifeandstyle/2011/oct/21/ale-crust-potato-pasty-recipe", "type": "article", "sectionId": "lifeandstyle", "sectionName": "Life and style", "webPublicationDate": "2011-10-21T21:59:14Z", "webTitle": "Ale-crust potato pasties recipe | Dan Lepard", "webUrl": "https://www.theguardian.com/lifeandstyle/2011/oct/21/ale-crust-potato-pasty-recipe", "apiUrl": "https://content.guardianapis.com/lifeandstyle/2011/oct/21/ale-crust-potato-pasty-recipe", "isHosted": false, "pillarId": "pillar/lifestyle", "pillarName": "Lifestyle"}, {"id": "lifeandstyle/2011/oct/21/dc-diner-coventry-restaurant-review", "type": "article", "sectionId": "lifeandstyle", "sectionName": "Life and style", "webPublicationDate": "2011-10-21T21:59:11Z", "webTitle": "Restaurant review: DC Diner, Coventry", "webUrl": "https://www.theguardian.com/lifeandstyle/2011/oct/21/dc-diner-coventry-restaurant-review", "apiUrl": "https://content.guardianapis.com/lifeandstyle/2011/oct/21/dc-diner-coventry-restaurant-review", "isHosted": false, "pillarId": "pillar/lifestyle", "pillarName": "Lifestyle"}, {"id": "lifeandstyle/2011/oct/21/bean-salad-lentil-soup-recipes", "type": "article", "sectionId": "food", "sectionName": "Food", "webPublicationDate": "2011-10-21T21:59:08Z", "webTitle": "Carrot and mung bean salad, plus red lentil soup with fried tofu and chilli oil recipes | Yotam Ottolenghi", "webUrl": "https://www.theguardian.com/lifeandstyle/2011/oct/21/bean-salad-lentil-soup-recipes", "apiUrl": "https://content.guardianapis.com/lifeandstyle/2011/oct/21/bean-salad-lentil-soup-recipes", "isHosted": false, "pillarId": "pillar/lifestyle", "pillarName": "Lifestyle"}, {"id": "music/2011/oct/20/jon-bon-jovi-restaurant", "type": "article", "sectionId": "music", "sectionName": "Music", "webPublicationDate": "2011-10-20T09:35:45Z", "webTitle": "Jon Bon Jovi opens 'pay what you can' restaurant", "webUrl": "https://www.theguardian.com/music/2011/oct/20/jon-bon-jovi-restaurant", "apiUrl": "https://content.guardianapis.com/music/2011/oct/20/jon-bon-jovi-restaurant", "isHosted": false, "pillarId": "pillar/arts", "pillarName": "Arts"}, {"id": "lifeandstyle/wordofmouth/2011/oct/20/how-to-cook-perfect-tarte-tatin", "type": "article", "sectionId": "food", "sectionName": "Food", "webPublicationDate": "2011-10-19T23:10:00Z", "webTitle": "How to cook perfect tarte tatin", "webUrl": "https://www.theguardian.com/lifeandstyle/wordofmouth/2011/oct/20/how-to-cook-perfect-tarte-tatin", "apiUrl": "https://content.guardianapis.com/lifeandstyle/wordofmouth/2011/oct/20/how-to-cook-perfect-tarte-tatin", "isHosted": false, "pillarId": "pillar/lifestyle", "pillarName": "Lifestyle"}, {"id": "lifeandstyle/2011/oct/19/cooking-small-kitchen-advantages-change", "type": "article", "sectionId": "food", "sectionName": "Food", "webPublicationDate": "2011-10-19T20:00:00Z", "webTitle": "Size shouldn't matter: tiny kitchens", "webUrl": "https://www.theguardian.com/lifeandstyle/2011/oct/19/cooking-small-kitchen-advantages-change", "apiUrl": "https://content.guardianapis.com/lifeandstyle/2011/oct/19/cooking-small-kitchen-advantages-change", "isHosted": false, "pillarId": "pillar/lifestyle", "pillarName": "Lifestyle"}, {"id": "environment/2011/oct/19/gm-crops-insecurity-superweeds-pesticides", "type": "article", "sectionId": "environment", "sectionName": "Environment", "webPublicationDate": "2011-10-19T15:53:31Z", "webTitle": "GM crops promote superweeds, food insecurity and pesticides, say NGOs", "webUrl": "https://www.theguardian.com/environment/2011/oct/19/gm-crops-insecurity-superweeds-pesticides", "apiUrl": "https://content.guardianapis.com/environment/2011/oct/19/gm-crops-insecurity-superweeds-pesticides", "isHosted": false, "pillarId": "pillar/news", "pillarName": "News"}, {"id": "lifeandstyle/2011/oct/19/chicken-with-lemon-and-chili-broccoli", "type": "article", "sectionId": "lifeandstyle", "sectionName": "Life and style", "webPublicationDate": "2011-10-19T15:30:00Z", "webTitle": "Angela Hartnett's chicken with lemon, and chilli broccoli recipes", "webUrl": "https://www.theguardian.com/lifeandstyle/2011/oct/19/chicken-with-lemon-and-chili-broccoli", "apiUrl": "https://content.guardianapis.com/lifeandstyle/2011/oct/19/chicken-with-lemon-and-chili-broccoli", "isHosted": false, "pillarId": "pillar/lifestyle", "pillarName": "Lifestyle"}, {"id": "tv-and-radio/tvandradioblog/2011/oct/19/tv-baking", "type": "article", "sectionId": "tv-and-radio", "sectionName": "Television & radio", "webPublicationDate": "2011-10-19T11:17:00Z", "webTitle": "Why is TV obsessed with baking?", "webUrl": "https://www.theguardian.com/tv-and-radio/tvandradioblog/2011/oct/19/tv-baking", "apiUrl": "https://content.guardianapis.com/tv-and-radio/tvandradioblog/2011/oct/19/tv-baking", "isHosted": false, "pillarId": "pillar/arts", "pillarName": "Arts"}]}}