{"response": {"status": "ok", "userTier": "developer", "total": 128640, "startIndex": 1, "pageSize": 50, "currentPage": 1, "pages": 2573, "orderBy": "newest", "results": [{"id": "society/2010/oct/31/london-housing-crisis-benefit-cuts", "type": "article", "sectionId": "society", "sectionName": "Society", "webPublicationDate": "2010-10-30T23:19:39Z", "webTitle": "Housing benefit cut would make London 'unaffordable'", "webUrl": "https://www.theguardian.com/society/2010/oct/31/london-housing-crisis-benefit-cuts", "apiUrl": "https://content.guardianapis.com/society/2010/oct/31/london-housing-crisis-benefit-cuts", "isHosted": false, "pillarId": "pillar/news", "pillarName": "News"}, {"id": "commentisfree/2010/oct/31/victoria-clark-yemen-saudi-arabia", "type": "article", "sectionId": "commentisfree", "sectionName": "Opinion", "webPublicationDate": "2010-10-30T23:11:14Z", "webTitle": "The key to defeating al-Qaida in Yemen lies with Saudi Arabia | Victoria Clark", "webUrl": "https://www.theguardian.com/commentisfree/2010/oct/31/victoria-clark-yemen-saudi-arabia", "apiUrl": "https://content.guardianapis.com/commentisfree/2010/oct/31/victoria-clark-yemen-saudi-arabia", "isHosted": false, "pillarId": "pillar/opinion", "pillarName": "Opinion"}, {"id": "commentisfree/2010/oct/31/andrew-rawnsley-coalition-terrorism-laws", "type": "article", "sectionId": "commentisfree", "sectionName": "Opinion", "webPublicationDate": "2010-10-30T23:10:07Z", "webTitle": "The fierce battle behind the scenes for the coalition's soul | Andrew Rawnsley", "webUrl": "https://www.theguardian.com/commentisfree/2010/oct/31/andrew-rawnsley-coalition-terrorism-laws", "apiUrl": "https://content.guardianapis.com/commentisfree/2010/oct/31/andrew-rawnsley-coalition-terrorism-laws", "isHosted": false, "pillarId": "pillar/opinion", "pillarName": "Opinion"}, {"id": "society/2010/oct/31/high-cost-of-renting", "type": "article", "sectionId": "society", "sectionName": "Society", "webPublicationDate": "2010-10-30T23:09:55Z", "webTitle": "Spirit of Rachman still walks the streets of London", "webUrl": "https://www.theguardian.com/society/2010/oct/31/high-cost-of-renting", "apiUrl": "https://content.guardianapis.com/society/2010/oct/31/high-cost-of-renting", "isHosted": false, "pillarId": "pillar/news", "pillarName": "News"}, {"id": "tv-and-radio/2010/oct/31/x-factor-2010-westminster", "type": "article", "sectionId": "tv-and-radio", "sectionName": "Television & radio", "webPublicationDate": "2010-10-30T23:09:48Z", "webTitle": "X Factor 2010 tops the agenda around the Westminster water cooler", "webUrl": "https://www.theguardian.com/tv-and-radio/2010/oct/31/x-factor-2010-westminster", "apiUrl": "https://content.guardianapis.com/tv-and-radio/2010/oct/31/x-factor-2010-westminster", "isHosted": false, "pillarId": "pillar/arts", "pillarName": "Arts"}, {"id": "politics/2010/oct/31/prime-ministers-questions-political-punch", "type": "article", "sectionId": "politics", "sectionName": "Politics", "webPublicationDate": "2010-10-30T23:09:12Z", "webTitle": "Prime Minister's Questions still pack a political punch (and Judy)", "webUrl": "https://www.theguardian.com/politics/2010/oct/31/prime-ministers-questions-political-punch", "apiUrl": "https://content.guardianapis.com/politics/2010/oct/31/prime-ministers-questions-political-punch", "isHosted": false, "pillarId": "pillar/news", "pillarName": "News"}, {"id": "world/2010/oct/31/nicholas-watt-europe-david-cameron", "type": "article", "sectionId": "world", "sectionName": "World news", "webPublicationDate": "2010-10-30T23:08:33Z", "webTitle": "David Cameron learns to love Europe | Nicholas Watt", "webUrl": "https://www.theguardian.com/world/2010/oct/31/nicholas-watt-europe-david-cameron", "apiUrl": "https://content.guardianapis.com/world/2010/oct/31/nicholas-watt-europe-david-cameron", "isHosted": false, "pillarId": "pillar/news", "pillarName": "News"}, {"id": "commentisfree/2010/oct/31/david-mitchell-george-osborne-tax", "type": "article", "sectionId": "commentisfree", "sectionName": "Opinion", "webPublicationDate": "2010-10-30T23:07:20Z", "webTitle": "David Mitchell: You can't blame the rich for paying as little tax as possible. I do the same", "webUrl": "https://www.theguardian.com/commentisfree/2010/oct/31/david-mitchell-george-osborne-tax", "apiUrl": "https://content.guardianapis.com/commentisfree/2010/oct/31/david-mitchell-george-osborne-tax", "isHosted": false, "pillarId": "pillar/opinion", "pillarName": "Opinion"}, {"id": "politics/2010/oct/31/minority-verdict-ashcroft-nick-boles-review", "type": "article", "sectionId": "politics", "sectionName": "Politics", "webPublicationDate": "2010-10-30T23:05:35Z", "webTitle": "Minority Verdict by Michael Ashcroft, Which Way's Up? by Nick Boles, The British General Election of 2010 by Philip Cowley and Dennis Kavanagh | Book review", "webUrl": "https://www.theguardian.com/politics/2010/oct/31/minority-verdict-ashcroft-nick-boles-review", "apiUrl": "https://content.guardianapis.com/politics/2010/oct/31/minority-verdict-ashcroft-nick-boles-review", "isHosted": false, "pillarId": "pillar/news", "pillarName": "News"}, {"id": "society/2010/oct/31/race-bias-drug-arrests-claim", "type": "article", "sectionId": "society", "sectionName": "Society", "webPublicationDate": "2010-10-30T23:04:12Z", "webTitle": "Black people six times more likely to face drug arrest", "webUrl": "https://www.theguardian.com/society/2010/oct/31/race-bias-drug-arrests-claim", "apiUrl": "https://content.guardianapis.com/society/2010/oct/31/race-bias-drug-arrests-claim", "isHosted": false, "pillarId": "pillar/news", "pillarName": "News"}, {"id": "business/2010/oct/31/construction-supports-uk-economic-recovery", "type": "article", "sectionId": "business", "sectionName": "Business", "webPublicationDate": "2010-10-30T23:04:07Z", "webTitle": "Construction gives UK economic recovery an unstable foundation", "webUrl": "https://www.theguardian.com/business/2010/oct/31/construction-supports-uk-economic-recovery", "apiUrl": "https://content.guardianapis.com/business/2010/oct/31/construction-supports-uk-economic-recovery", "isHosted": false, "pillarId": "pillar/news", "pillarName": "News"}, {"id": "society/2010/oct/30/care-elderly-disabled-council-cuts", "type": "article", "sectionId": "society", "sectionName": "Society", "webPublicationDate": "2010-10-30T20:00:00Z", "webTitle": "Cuts to council budgets threaten care for elderly and disabled", "webUrl": "https://www.theguardian.com/society/2010/oct/30/care-elderly-disabled-council-cuts", "apiUrl": "https://content.guardianapis.com/society/2010/oct/30/care-elderly-disabled-council-cuts", "isHosted": false, "pillarId": "pillar/news", "pillarName": "News"}, {"id": "world/2010/oct/30/cargo-bombs-al-quaida", "type": "article", "sectionId": "world", "sectionName": "World news", "webPublicationDate": "2010-10-30T16:38:05Z", "webTitle": "Cargo bombs from Yemen open new front in al-Quaida terror war", "webUrl": "https://www.theguardian.com/world/2010/oct/30/cargo-bombs-al-quaida", "apiUrl": "https://content.guardianapis.com/world/2010/oct/30/cargo-bombs-al-quaida", "isHosted": false, "pillarId": "pillar/news", "pillarName": "News"}, {"id": "politics/2010/oct/30/harman-apologises-calling-alexander-ginger-rodent", "type": "article", "sectionId": "politics", "sectionName": "Politics", "webPublicationDate": "2010-10-30T16:22:47Z", "webTitle": "Harman says sorry for 'ginger rodent' jibe", "webUrl": "https://www.theguardian.com/politics/2010/oct/30/harman-apologises-calling-alexander-ginger-rodent", "apiUrl": "https://content.guardianapis.com/politics/2010/oct/30/harman-apologises-calling-alexander-ginger-rodent", "isHosted": false, "pillarId": "pillar/news", "pillarName": "News"}, {"id": "world/2010/oct/30/cargo-plane-bombs-explode-midair", "type": "article", "sectionId": "uk-news", "sectionName": "UK news", "webPublicationDate": "2010-10-30T16:18:26Z", "webTitle": "Terror bombs were primed to down cargo planes in mid-air", "webUrl": "https://www.theguardian.com/world/2010/oct/30/cargo-plane-bombs-explode-midair", "apiUrl": "https://content.guardianapis.com/world/2010/oct/30/cargo-plane-bombs-explode-midair", "isHosted": false, "pillarId": "pillar/news", "pillarName": "News"}, {"id": "world/2010/oct/30/package-bomb-cargo-plane-uk-dubai", "type": "article", "sectionId": "world", "sectionName": "World news", "webPublicationDate": "2010-10-30T15:12:50Z", "webTitle": "Package bomb 'could have blown up cargo plane'", "webUrl": "https://www.theguardian.com/world/2010/oct/30/package-bomb-cargo-plane-uk-dubai", "apiUrl": "https://content.guardianapis.com/world/2010/oct/30/package-bomb-cargo-plane-uk-dubai", "isHosted": false, "pillarId": "pillar/news", "pillarName": "News"}, {"id": "world/2010/oct/30/explosive-packages-alqaida-hallmarks-dubai", "type": "article", "sectionId": "world", "sectionName": "World news", "webPublicationDate": "2010-10-30T13:06:00Z", "webTitle": "Explosive package bore al-Qaida hallmarks, Dubai police say", "webUrl": "https://www.theguardian.com/world/2010/oct/30/explosive-packages-alqaida-hallmarks-dubai", "apiUrl": "https://content.guardianapis.com/world/2010/oct/30/explosive-packages-alqaida-hallmarks-dubai", "isHosted": false, "pillarId": "pillar/news", "pillarName": "News"}, {"id": "commentisfree/2010/oct/30/labour-opposition-history-unions", "type": "article", "sectionId": "commentisfree", "sectionName": "Opinion", "webPublicationDate": "2010-10-30T13:00:00Z", "webTitle": "Can Labour cope in opposition? | Ken Capstick", "webUrl": "https://www.theguardian.com/commentisfree/2010/oct/30/labour-opposition-history-unions", "apiUrl": "https://content.guardianapis.com/commentisfree/2010/oct/30/labour-opposition-history-unions", "isHosted": false, "pillarId": "pillar/opinion", "pillarName": "Opinion"}, {"id": "theobserver/cartoon/2010/oct/30/david-cameron-europe", "type": "picture", "sectionId": "commentisfree", "sectionName": "Opinion", "webPublicationDate": "2010-10-30T10:41:35Z", "webTitle": "Trick or Treat for David Cameron in Downing Street", "webUrl": "https://www.theguardian.com/theobserver/cartoon/2010/oct/30/david-cameron-europe", "apiUrl": "https://content.guardianapis.com/theobserver/cartoon/2010/oct/30/david-cameron-europe", "isHosted": false, "pillarId": "pillar/opinion", "pillarName": "Opinion"}, {"id": "commentisfree/cartoon/2010/oct/30/phil-disley-housing-benefit-cuts", "type": "picture", "sectionId": "commentisfree", "sectionName": "Opinion", "webPublicationDate": "2010-10-29T23:11:34Z", "webTitle": "Cartoon: Phil Disley on housing benefit cuts", "webUrl": "https://www.theguardian.com/commentisfree/cartoon/2010/oct/30/phil-disley-housing-benefit-cuts", "apiUrl": "https://content.guardianapis.com/commentisfree/cartoon/2010/oct/30/phil-disley-housing-benefit-cuts", "isHosted": false, "pillarId": "pillar/opinion", "pillarName": "Opinion"}, {"id": "commentisfree/2010/oct/30/hosuing-benefit-reform-hosuing-policy", "type": "article", "sectionId": "commentisfree", "sectionName": "Opinion", "webPublicationDate": "2010-10-29T23:08:47Z", "webTitle": "Housing: Misery beckons on the home front | Editorial", "webUrl": "https://www.theguardian.com/commentisfree/2010/oct/30/hosuing-benefit-reform-hosuing-policy", "apiUrl": "https://content.guardianapis.com/commentisfree/2010/oct/30/hosuing-benefit-reform-hosuing-policy", "isHosted": false, "pillarId": "pillar/opinion", "pillarName": "Opinion"}, {"id": "politics/2010/oct/30/women-lose-welfare-cuts", "type": "article", "sectionId": "politics", "sectionName": "Politics", "webPublicationDate": "2010-10-29T23:08:43Z", "webTitle": "Letters: Women the losers from welfare cuts", "webUrl": "https://www.theguardian.com/politics/2010/oct/30/women-lose-welfare-cuts", "apiUrl": "https://content.guardianapis.com/politics/2010/oct/30/women-lose-welfare-cuts", "isHosted": false, "pillarId": "pillar/news", "pillarName": "News"}, {"id": "uk/2010/oct/30/prince-charles-architecture-plans", "type": "article", "sectionId": "uk-news", "sectionName": "UK news", "webPublicationDate": "2010-10-29T23:07:08Z", "webTitle": "Letters: Prince's plans", "webUrl": "https://www.theguardian.com/uk/2010/oct/30/prince-charles-architecture-plans", "apiUrl": "https://content.guardianapis.com/uk/2010/oct/30/prince-charles-architecture-plans", "isHosted": false, "pillarId": "pillar/news", "pillarName": "News"}, {"id": "society/2010/oct/30/housing-costs-and-benefits", "type": "article", "sectionId": "society", "sectionName": "Society", "webPublicationDate": "2010-10-29T23:07:07Z", "webTitle": "Letters: Inner-city housing costs \u2013 and benefits", "webUrl": "https://www.theguardian.com/society/2010/oct/30/housing-costs-and-benefits", "apiUrl": "https://content.guardianapis.com/society/2010/oct/30/housing-costs-and-benefits", "isHosted": false, "pillarId": "pillar/news", "pillarName": "News"}, {"id": "money/2010/oct/30/state-pension-questions-answers", "type": "article", "sectionId": "money", "sectionName": "Money", "webPublicationDate": "2010-10-29T23:07:02Z", "webTitle": "Pensions: What does \u00a3140 a week really mean?", "webUrl": "https://www.theguardian.com/money/2010/oct/30/state-pension-questions-answers", "apiUrl": "https://content.guardianapis.com/money/2010/oct/30/state-pension-questions-answers", "isHosted": false, "pillarId": "pillar/lifestyle", "pillarName": "Lifestyle"}, {"id": "politics/2010/oct/29/nice-to-lose-new-drug-power", "type": "article", "sectionId": "politics", "sectionName": "Politics", "webPublicationDate": "2010-10-29T20:00:02Z", "webTitle": "Nice to lose powers to decide on new drugs", "webUrl": "https://www.theguardian.com/politics/2010/oct/29/nice-to-lose-new-drug-power", "apiUrl": "https://content.guardianapis.com/politics/2010/oct/29/nice-to-lose-new-drug-power", "isHosted": false, "pillarId": "pillar/news", "pillarName": "News"}, {"id": "commentisfree/2010/oct/29/firefighters-for-unions-sake-work-bonfire-night", "type": "article", "sectionId": "commentisfree", "sectionName": "Opinion", "webPublicationDate": "2010-10-29T20:00:01Z", "webTitle": "Firefighters, for the unions' sake, work on bonfire night | Polly Toynbee", "webUrl": "https://www.theguardian.com/commentisfree/2010/oct/29/firefighters-for-unions-sake-work-bonfire-night", "apiUrl": "https://content.guardianapis.com/commentisfree/2010/oct/29/firefighters-for-unions-sake-work-bonfire-night", "isHosted": false, "pillarId": "pillar/opinion", "pillarName": "Opinion"}, {"id": "theguardian/2010/oct/29/simon-hoggart-week", "type": "article", "sectionId": "theguardian", "sectionName": "From the Guardian", "webPublicationDate": "2010-10-29T20:00:01Z", "webTitle": "Simon Hoggart's week: If family matters, why go into politics?", "webUrl": "https://www.theguardian.com/theguardian/2010/oct/29/simon-hoggart-week", "apiUrl": "https://content.guardianapis.com/theguardian/2010/oct/29/simon-hoggart-week", "isHosted": false, "pillarId": "pillar/news", "pillarName": "News"}, {"id": "politics/2010/oct/29/government-accused-meetings-news-corp", "type": "article", "sectionId": "politics", "sectionName": "Politics", "webPublicationDate": "2010-10-29T19:32:31Z", "webTitle": "Government accused over details of meetings with News Corp", "webUrl": "https://www.theguardian.com/politics/2010/oct/29/government-accused-meetings-news-corp", "apiUrl": "https://content.guardianapis.com/politics/2010/oct/29/government-accused-meetings-news-corp", "isHosted": false, "pillarId": "pillar/news", "pillarName": "News"}, {"id": "society/2010/oct/29/housing-benefits-cuts-cap", "type": "article", "sectionId": "society", "sectionName": "Society", "webPublicationDate": "2010-10-29T19:07:18Z", "webTitle": "Housing benefits: how the cap will work", "webUrl": "https://www.theguardian.com/society/2010/oct/29/housing-benefits-cuts-cap", "apiUrl": "https://content.guardianapis.com/society/2010/oct/29/housing-benefits-cuts-cap", "isHosted": false, "pillarId": "pillar/news", "pillarName": "News"}, {"id": "society/2010/oct/29/housing-benefit-cuts-government-claims", "type": "article", "sectionId": "society", "sectionName": "Society", "webPublicationDate": "2010-10-29T19:02:30Z", "webTitle": "Housing benefit cuts: Study undermines government claims", "webUrl": "https://www.theguardian.com/society/2010/oct/29/housing-benefit-cuts-government-claims", "apiUrl": "https://content.guardianapis.com/society/2010/oct/29/housing-benefit-cuts-government-claims", "isHosted": false, "pillarId": "pillar/news", "pillarName": "News"}, {"id": "commentisfree/2010/oct/29/boris-johnson-sarah-palin-mavericks-tea-party", "type": "article", "sectionId": "commentisfree", "sectionName": "Opinion", "webPublicationDate": "2010-10-29T19:00:01Z", "webTitle": "Boris Johnson, our very own Sarah Palin, is going rogue | Marina Hyde", "webUrl": "https://www.theguardian.com/commentisfree/2010/oct/29/boris-johnson-sarah-palin-mavericks-tea-party", "apiUrl": "https://content.guardianapis.com/commentisfree/2010/oct/29/boris-johnson-sarah-palin-mavericks-tea-party", "isHosted": false, "pillarId": "pillar/opinion", "pillarName": "Opinion"}, {"id": "politics/2010/oct/29/tommy-sheridan-trial-sex-claims", "type": "article", "sectionId": "politics", "sectionName": "Politics", "webPublicationDate": "2010-10-29T18:53:36Z", "webTitle": "Tommy Sheridan trial: columnist admits lying over sex claims", "webUrl": "https://www.theguardian.com/politics/2010/oct/29/tommy-sheridan-trial-sex-claims", "apiUrl": "https://content.guardianapis.com/politics/2010/oct/29/tommy-sheridan-trial-sex-claims", "isHosted": false, "pillarId": "pillar/news", "pillarName": "News"}, {"id": "politics/2010/oct/29/boris-johnson-david-cameron", "type": "article", "sectionId": "politics", "sectionName": "Politics", "webPublicationDate": "2010-10-29T18:47:29Z", "webTitle": "Boris Johson - why Tories love him and David Cameron is terrified of him", "webUrl": "https://www.theguardian.com/politics/2010/oct/29/boris-johnson-david-cameron", "apiUrl": "https://content.guardianapis.com/politics/2010/oct/29/boris-johnson-david-cameron", "isHosted": false, "pillarId": "pillar/news", "pillarName": "News"}, {"id": "society/2010/oct/29/social-housing-shakeup-hastings-pier", "type": "article", "sectionId": "society", "sectionName": "Society", "webPublicationDate": "2010-10-29T18:38:42Z", "webTitle": "Housing shakeup prompts residents' fears on the road to Hastings pier", "webUrl": "https://www.theguardian.com/society/2010/oct/29/social-housing-shakeup-hastings-pier", "apiUrl": "https://content.guardianapis.com/society/2010/oct/29/social-housing-shakeup-hastings-pier", "isHosted": false, "pillarId": "pillar/news", "pillarName": "News"}, {"id": "politics/2010/oct/29/obama-education-secretary-school-reforms", "type": "article", "sectionId": "politics", "sectionName": "Politics", "webPublicationDate": "2010-10-29T18:35:36Z", "webTitle": "Barack Obama's education secretary backs coalition school reforms", "webUrl": "https://www.theguardian.com/politics/2010/oct/29/obama-education-secretary-school-reforms", "apiUrl": "https://content.guardianapis.com/politics/2010/oct/29/obama-education-secretary-school-reforms", "isHosted": false, "pillarId": "pillar/news", "pillarName": "News"}, {"id": "commentisfree/2010/oct/29/the-hobbit-new-zealand-actors-union", "type": "article", "sectionId": "commentisfree", "sectionName": "Opinion", "webPublicationDate": "2010-10-29T18:00:00Z", "webTitle": "The Hobbit hullabaloo | Toby Manhire", "webUrl": "https://www.theguardian.com/commentisfree/2010/oct/29/the-hobbit-new-zealand-actors-union", "apiUrl": "https://content.guardianapis.com/commentisfree/2010/oct/29/the-hobbit-new-zealand-actors-union", "isHosted": false, "pillarId": "pillar/opinion", "pillarName": "Opinion"}, {"id": "world/2010/oct/29/cameron-eu-spending-national-budgets", "type": "article", "sectionId": "world", "sectionName": "World news", "webPublicationDate": "2010-10-29T17:46:09Z", "webTitle": "David Cameron secures link between EU spending and national budgets", "webUrl": "https://www.theguardian.com/world/2010/oct/29/cameron-eu-spending-national-budgets", "apiUrl": "https://content.guardianapis.com/world/2010/oct/29/cameron-eu-spending-national-budgets", "isHosted": false, "pillarId": "pillar/news", "pillarName": "News"}, {"id": "politics/2010/oct/29/david-cameron-bbc-spending-freeze", "type": "article", "sectionId": "politics", "sectionName": "Politics", "webPublicationDate": "2010-10-29T17:22:41Z", "webTitle": "David Cameron baits BBC over spending freeze", "webUrl": "https://www.theguardian.com/politics/2010/oct/29/david-cameron-bbc-spending-freeze", "apiUrl": "https://content.guardianapis.com/politics/2010/oct/29/david-cameron-bbc-spending-freeze", "isHosted": false, "pillarId": "pillar/news", "pillarName": "News"}, {"id": "society/2010/oct/29/chancellor-to-face-questions-child-benefit", "type": "article", "sectionId": "society", "sectionName": "Society", "webPublicationDate": "2010-10-29T17:11:33Z", "webTitle": "Chancellor to face questions over child benefit reform plans", "webUrl": "https://www.theguardian.com/society/2010/oct/29/chancellor-to-face-questions-child-benefit", "apiUrl": "https://content.guardianapis.com/society/2010/oct/29/chancellor-to-face-questions-child-benefit", "isHosted": false, "pillarId": "pillar/news", "pillarName": "News"}, {"id": "business/2010/oct/29/angela-merkel-wins-euro-deal", "type": "article", "sectionId": "business", "sectionName": "Business", "webPublicationDate": "2010-10-29T16:35:35Z", "webTitle": "Angela Merkel forces Europe to protect euro from future collapse", "webUrl": "https://www.theguardian.com/business/2010/oct/29/angela-merkel-wins-euro-deal", "apiUrl": "https://content.guardianapis.com/business/2010/oct/29/angela-merkel-wins-euro-deal", "isHosted": false, "pillarId": "pillar/news", "pillarName": "News"}, {"id": "society/2010/oct/29/volunteers-child-protection-tim-loughton", "type": "article", "sectionId": "society", "sectionName": "Society", "webPublicationDate": "2010-10-29T16:30:41Z", "webTitle": "Minister calls for more child protection volunteers", "webUrl": "https://www.theguardian.com/society/2010/oct/29/volunteers-child-protection-tim-loughton", "apiUrl": "https://content.guardianapis.com/society/2010/oct/29/volunteers-child-protection-tim-loughton", "isHosted": false, "pillarId": "pillar/news", "pillarName": "News"}, {"id": "uk/2010/oct/29/general-sir-david-richards-chief-defence", "type": "article", "sectionId": "uk-news", "sectionName": "UK news", "webPublicationDate": "2010-10-29T15:56:06Z", "webTitle": "General Sir David Richards takes up chief of defence staff role", "webUrl": "https://www.theguardian.com/uk/2010/oct/29/general-sir-david-richards-chief-defence", "apiUrl": "https://content.guardianapis.com/uk/2010/oct/29/general-sir-david-richards-chief-defence", "isHosted": false, "pillarId": "pillar/news", "pillarName": "News"}, {"id": "law/2010/oct/29/control-order-ban-coalition-rights", "type": "article", "sectionId": "law", "sectionName": "Law", "webPublicationDate": "2010-10-29T15:21:03Z", "webTitle": "Control order ban central to coalition civil rights policy, warn Lib Dems", "webUrl": "https://www.theguardian.com/law/2010/oct/29/control-order-ban-coalition-rights", "apiUrl": "https://content.guardianapis.com/law/2010/oct/29/control-order-ban-coalition-rights", "isHosted": false, "pillarId": "pillar/news", "pillarName": "News"}, {"id": "politics/2010/oct/29/boris-johnson-shelve-key-projects-scrapping-lda", "type": "article", "sectionId": "politics", "sectionName": "Politics", "webPublicationDate": "2010-10-29T15:11:04Z", "webTitle": "Boris Johnson may be forced to shelve key projects due to scrapping of LDA", "webUrl": "https://www.theguardian.com/politics/2010/oct/29/boris-johnson-shelve-key-projects-scrapping-lda", "apiUrl": "https://content.guardianapis.com/politics/2010/oct/29/boris-johnson-shelve-key-projects-scrapping-lda", "isHosted": false, "pillarId": "pillar/news", "pillarName": "News"}, {"id": "books/audio/2010/oct/29/guardian-first-book-award", "type": "audio", "sectionId": "books", "sectionName": "Books", "webPublicationDate": "2010-10-29T15:10:52Z", "webTitle": "Guardian first book award: The shortlist", "webUrl": "https://www.theguardian.com/books/audio/2010/oct/29/guardian-first-book-award", "apiUrl": "https://content.guardianapis.com/books/audio/2010/oct/29/guardian-first-book-award", "isHosted": false, "pillarId": "pillar/arts", "pillarName": "Arts"}, {"id": "commentisfree/2010/oct/29/david-cameron-eu-budget", "type": "article", "sectionId": "commentisfree", "sectionName": "Opinion", "webPublicationDate": "2010-10-29T15:00:00Z", "webTitle": "David Cameron's budget fight remains an EU sideshow | Katinka Barysch", "webUrl": "https://www.theguardian.com/commentisfree/2010/oct/29/david-cameron-eu-budget", "apiUrl": "https://content.guardianapis.com/commentisfree/2010/oct/29/david-cameron-eu-budget", "isHosted": false, "pillarId": "pillar/opinion", "pillarName": "Opinion"}, {"id": "environment/2010/oct/29/uk-government-forest-sell-off", "type": "article", "sectionId": "environment", "sectionName": "Environment", "webPublicationDate": "2010-10-29T14:46:50Z", "webTitle": "UK government confirms forest sell-off plans", "webUrl": "https://www.theguardian.com/environment/2010/oct/29/uk-government-forest-sell-off", "apiUrl": "https://content.guardianapis.com/environment/2010/oct/29/uk-government-forest-sell-off", "isHosted": false, "pillarId": "pillar/news", "pillarName": "News"}, {"id": "society/2010/oct/29/higher-rate-taxpayer-fined-fail-declare-child-benefit", "type": "article", "sectionId": "society", "sectionName": "Society", "webPublicationDate": "2010-10-29T14:41:00Z", "webTitle": "Top Tory brands child benefit plans 'unworkable'", "webUrl": "https://www.theguardian.com/society/2010/oct/29/higher-rate-taxpayer-fined-fail-declare-child-benefit", "apiUrl": "https://content.guardianapis.com/society/2010/oct/29/higher-rate-taxpayer-fined-fail-declare-child-benefit", "isHosted": false, "pillarId": "pillar/news", "pillarName": "News"}, {"id": "politics/wintour-and-watt/2010/oct/29/davidcameron-eu", "type": "article", "sectionId": "politics", "sectionName": "Politics", "webPublicationDate": "2010-10-29T14:34:09Z", "webTitle": "David Cameron on lively form ahead of battle with Tory right over EU", "webUrl": "https://www.theguardian.com/politics/wintour-and-watt/2010/oct/29/davidcameron-eu", "apiUrl": "https://content.guardianapis.com/politics/wintour-and-watt/2010/oct/29/davidcameron-eu", "isHosted": false, "pillarId": "pillar/news", "pillarName": "News"}]}}