{"response": {"status": "ok", "userTier": "developer", "total": 130328, "startIndex": 1, "pageSize": 50, "currentPage": 1, "pages": 2607, "orderBy": "newest", "results": [{"id": "politics/2014/oct/30/david-cameron-spending-cuts-claims-questioned-ifs", "type": "article", "sectionId": "politics", "sectionName": "Politics", "webPublicationDate": "2014-10-30T23:35:33Z", "webTitle": "David Cameron accused of getting sums wrong on spending cuts claims", "webUrl": "https://www.theguardian.com/politics/2014/oct/30/david-cameron-spending-cuts-claims-questioned-ifs", "apiUrl": "https://content.guardianapis.com/politics/2014/oct/30/david-cameron-spending-cuts-claims-questioned-ifs", "isHosted": false, "pillarId": "pillar/news", "pillarName": "News"}, {"id": "politics/2014/oct/30/ed-miliband-labour-scotland-election-poll-snp-win", "type": "article", "sectionId": "politics", "sectionName": "Politics", "webPublicationDate": "2014-10-30T22:00:05Z", "webTitle": "Ed Miliband: Labour faces a fight to save its Scottish MPs", "webUrl": "https://www.theguardian.com/politics/2014/oct/30/ed-miliband-labour-scotland-election-poll-snp-win", "apiUrl": "https://content.guardianapis.com/politics/2014/oct/30/ed-miliband-labour-scotland-election-poll-snp-win", "isHosted": false, "pillarId": "pillar/news", "pillarName": "News"}, {"id": "politics/2014/oct/30/family-friendly-policy-guide-uk-civil-servants", "type": "article", "sectionId": "politics", "sectionName": "Politics", "webPublicationDate": "2014-10-30T22:00:05Z", "webTitle": "Policy guide for civil servants to boost family life in the UK", "webUrl": "https://www.theguardian.com/politics/2014/oct/30/family-friendly-policy-guide-uk-civil-servants", "apiUrl": "https://content.guardianapis.com/politics/2014/oct/30/family-friendly-policy-guide-uk-civil-servants", "isHosted": false, "pillarId": "pillar/news", "pillarName": "News"}, {"id": "commentisfree/2014/oct/30/winston-churchill-life-difficult-david-cameron-boris-johnson", "type": "article", "sectionId": "commentisfree", "sectionName": "Opinion", "webPublicationDate": "2014-10-30T20:40:48Z", "webTitle": "How Winston Churchill is making life difficult for David Cameron | Hugh Muir", "webUrl": "https://www.theguardian.com/commentisfree/2014/oct/30/winston-churchill-life-difficult-david-cameron-boris-johnson", "apiUrl": "https://content.guardianapis.com/commentisfree/2014/oct/30/winston-churchill-life-difficult-david-cameron-boris-johnson", "isHosted": false, "pillarId": "pillar/opinion", "pillarName": "Opinion"}, {"id": "politics/2014/oct/30/michael-white-commons-sketch-law-unintended-consequences-asylum-seekers-drugs-badgers", "type": "article", "sectionId": "politics", "sectionName": "Politics", "webPublicationDate": "2014-10-30T20:39:55Z", "webTitle": "The law of unintended consequences affects refugees, drugs \u2013 even badgers", "webUrl": "https://www.theguardian.com/politics/2014/oct/30/michael-white-commons-sketch-law-unintended-consequences-asylum-seekers-drugs-badgers", "apiUrl": "https://content.guardianapis.com/politics/2014/oct/30/michael-white-commons-sketch-law-unintended-consequences-asylum-seekers-drugs-badgers", "isHosted": false, "pillarId": "pillar/news", "pillarName": "News"}, {"id": "society/2014/oct/30/simon-stevens-pfi-need-realism-nhs-funding", "type": "article", "sectionId": "society", "sectionName": "Society", "webPublicationDate": "2014-10-30T19:26:45Z", "webTitle": "Simon Stevens, PFI and the need for realism about NHS funding |@guardianletters", "webUrl": "https://www.theguardian.com/society/2014/oct/30/simon-stevens-pfi-need-realism-nhs-funding", "apiUrl": "https://content.guardianapis.com/society/2014/oct/30/simon-stevens-pfi-need-realism-nhs-funding", "isHosted": false, "pillarId": "pillar/news", "pillarName": "News"}, {"id": "world/2014/oct/30/empowered-kurdish-women-fighters-need-arms", "type": "article", "sectionId": "world", "sectionName": "World news", "webPublicationDate": "2014-10-30T19:24:53Z", "webTitle": "Kurdish women need arms to fight Isis | @guardianletters", "webUrl": "https://www.theguardian.com/world/2014/oct/30/empowered-kurdish-women-fighters-need-arms", "apiUrl": "https://content.guardianapis.com/world/2014/oct/30/empowered-kurdish-women-fighters-need-arms", "isHosted": false, "pillarId": "pillar/news", "pillarName": "News"}, {"id": "football/2014/oct/30/tory-mp-mistakes-stop-and-search-campaigner-for-mario-balotelli", "type": "article", "sectionId": "football", "sectionName": "Football", "webPublicationDate": "2014-10-30T17:38:34Z", "webTitle": "Tory MP mistakes stop and search campaigner for Mario Balotelli", "webUrl": "https://www.theguardian.com/football/2014/oct/30/tory-mp-mistakes-stop-and-search-campaigner-for-mario-balotelli", "apiUrl": "https://content.guardianapis.com/football/2014/oct/30/tory-mp-mistakes-stop-and-search-campaigner-for-mario-balotelli", "isHosted": false, "pillarId": "pillar/sport", "pillarName": "Sport"}, {"id": "politics/live/2014/oct/30/coalition-row-over-drugs-policy-politics-live", "type": "liveblog", "sectionId": "politics", "sectionName": "Politics", "webPublicationDate": "2014-10-30T17:38:18Z", "webTitle": "Tory minister defends axing migrant rescue \u2013 as it happened", "webUrl": "https://www.theguardian.com/politics/live/2014/oct/30/coalition-row-over-drugs-policy-politics-live", "apiUrl": "https://content.guardianapis.com/politics/live/2014/oct/30/coalition-row-over-drugs-policy-politics-live", "isHosted": false, "pillarId": "pillar/news", "pillarName": "News"}, {"id": "uk-news/2014/oct/30/derby-city-council-retailers-high-street-eric-pickles-tesco-tax", "type": "article", "sectionId": "uk-news", "sectionName": "UK news", "webPublicationDate": "2014-10-30T17:27:29Z", "webTitle": "Derby city council: time for big retailers to support high street", "webUrl": "https://www.theguardian.com/uk-news/2014/oct/30/derby-city-council-retailers-high-street-eric-pickles-tesco-tax", "apiUrl": "https://content.guardianapis.com/uk-news/2014/oct/30/derby-city-council-retailers-high-street-eric-pickles-tesco-tax", "isHosted": false, "pillarId": "pillar/news", "pillarName": "News"}, {"id": "commentisfree/2014/oct/30/nicola-sturgeon-euro-scottish-independence-snp-ukip", "type": "article", "sectionId": "commentisfree", "sectionName": "Opinion", "webPublicationDate": "2014-10-30T16:38:33Z", "webTitle": "Sturgeon\u2019s Euro gambit could galvanise another Scottish independence tilt | Ruth Wishart", "webUrl": "https://www.theguardian.com/commentisfree/2014/oct/30/nicola-sturgeon-euro-scottish-independence-snp-ukip", "apiUrl": "https://content.guardianapis.com/commentisfree/2014/oct/30/nicola-sturgeon-euro-scottish-independence-snp-ukip", "isHosted": false, "pillarId": "pillar/opinion", "pillarName": "Opinion"}, {"id": "money/2014/oct/30/generation-rent-will-grow-by-2021", "type": "article", "sectionId": "money", "sectionName": "Money", "webPublicationDate": "2014-10-30T16:05:42Z", "webTitle": "Renters \u2018will outnumber homeowners in 104 parliamentary seats by 2021\u2019", "webUrl": "https://www.theguardian.com/money/2014/oct/30/generation-rent-will-grow-by-2021", "apiUrl": "https://content.guardianapis.com/money/2014/oct/30/generation-rent-will-grow-by-2021", "isHosted": false, "pillarId": "pillar/lifestyle", "pillarName": "Lifestyle"}, {"id": "politics/2014/oct/30/scottish-labour-snp-general-election-poll", "type": "article", "sectionId": "politics", "sectionName": "Politics", "webPublicationDate": "2014-10-30T16:01:40Z", "webTitle": "Labour faces massive losses to SNP at UK general election, poll shows", "webUrl": "https://www.theguardian.com/politics/2014/oct/30/scottish-labour-snp-general-election-poll", "apiUrl": "https://content.guardianapis.com/politics/2014/oct/30/scottish-labour-snp-general-election-poll", "isHosted": false, "pillarId": "pillar/news", "pillarName": "News"}, {"id": "uk-news/davehillblog/2014/oct/30/london-housing-crisis-seven-bright-ideas-from-islington", "type": "article", "sectionId": "uk-news", "sectionName": "UK news", "webPublicationDate": "2014-10-30T15:19:44Z", "webTitle": "London housing crisis: seven bright ideas from Islington", "webUrl": "https://www.theguardian.com/uk-news/davehillblog/2014/oct/30/london-housing-crisis-seven-bright-ideas-from-islington", "apiUrl": "https://content.guardianapis.com/uk-news/davehillblog/2014/oct/30/london-housing-crisis-seven-bright-ideas-from-islington", "isHosted": false, "pillarId": "pillar/news", "pillarName": "News"}, {"id": "commentisfree/2014/oct/30/trojan-horse-faith-schools-children", "type": "article", "sectionId": "commentisfree", "sectionName": "Opinion", "webPublicationDate": "2014-10-30T15:01:17Z", "webTitle": "The Trojan horse affair has been a wake-up call on faith schools | Jonathan Romain", "webUrl": "https://www.theguardian.com/commentisfree/2014/oct/30/trojan-horse-faith-schools-children", "apiUrl": "https://content.guardianapis.com/commentisfree/2014/oct/30/trojan-horse-faith-schools-children", "isHosted": false, "pillarId": "pillar/opinion", "pillarName": "Opinion"}, {"id": "commentisfree/2014/oct/30/scottish-no-voters-referendum-labour", "type": "article", "sectionId": "commentisfree", "sectionName": "Opinion", "webPublicationDate": "2014-10-30T13:56:27Z", "webTitle": "Scottish no voters have every reason to feel let down since the referendum | Mike Small", "webUrl": "https://www.theguardian.com/commentisfree/2014/oct/30/scottish-no-voters-referendum-labour", "apiUrl": "https://content.guardianapis.com/commentisfree/2014/oct/30/scottish-no-voters-referendum-labour", "isHosted": false, "pillarId": "pillar/opinion", "pillarName": "Opinion"}, {"id": "commentisfree/2014/oct/30/zambians-dont-care-about-president-guy-scott-skin-colour-white", "type": "article", "sectionId": "commentisfree", "sectionName": "Opinion", "webPublicationDate": "2014-10-30T13:14:48Z", "webTitle": "Zambians don\u2019t care about our new president\u2019s skin colour | Namwali Serpell", "webUrl": "https://www.theguardian.com/commentisfree/2014/oct/30/zambians-dont-care-about-president-guy-scott-skin-colour-white", "apiUrl": "https://content.guardianapis.com/commentisfree/2014/oct/30/zambians-dont-care-about-president-guy-scott-skin-colour-white", "isHosted": false, "pillarId": "pillar/opinion", "pillarName": "Opinion"}, {"id": "politics/2014/oct/30/civil-service-chief-step-down-second-job-sabmiller-drinks-firm", "type": "article", "sectionId": "politics", "sectionName": "Politics", "webPublicationDate": "2014-10-30T12:58:19Z", "webTitle": "Civil service chief to step down from second job at major drinks firm", "webUrl": "https://www.theguardian.com/politics/2014/oct/30/civil-service-chief-step-down-second-job-sabmiller-drinks-firm", "apiUrl": "https://content.guardianapis.com/politics/2014/oct/30/civil-service-chief-step-down-second-job-sabmiller-drinks-firm", "isHosted": false, "pillarId": "pillar/news", "pillarName": "News"}, {"id": "society/2014/oct/30/next-government-do-ageing-population", "type": "article", "sectionId": "society", "sectionName": "Society", "webPublicationDate": "2014-10-30T12:25:25Z", "webTitle": "What should the next government do to support the ageing population?", "webUrl": "https://www.theguardian.com/society/2014/oct/30/next-government-do-ageing-population", "apiUrl": "https://content.guardianapis.com/society/2014/oct/30/next-government-do-ageing-population", "isHosted": false, "pillarId": "pillar/news", "pillarName": "News"}, {"id": "cities/2014/oct/30/mitchell-silver-new-york-parks-bill-de-blasio", "type": "article", "sectionId": "cities", "sectionName": "Cities", "webPublicationDate": "2014-10-30T12:07:58Z", "webTitle": "Mitchell Silver: a man possessed by making New York\u2019s parks havens of happiness for all", "webUrl": "https://www.theguardian.com/cities/2014/oct/30/mitchell-silver-new-york-parks-bill-de-blasio", "apiUrl": "https://content.guardianapis.com/cities/2014/oct/30/mitchell-silver-new-york-parks-bill-de-blasio", "isHosted": false, "pillarId": "pillar/news", "pillarName": "News"}, {"id": "media/greenslade/2014/oct/30/drugspolicy-national-newspapers", "type": "article", "sectionId": "media", "sectionName": "Media", "webPublicationDate": "2014-10-30T11:48:03Z", "webTitle": "The Sun and the Guardian agree on need for a change in drugs policy", "webUrl": "https://www.theguardian.com/media/greenslade/2014/oct/30/drugspolicy-national-newspapers", "apiUrl": "https://content.guardianapis.com/media/greenslade/2014/oct/30/drugspolicy-national-newspapers", "isHosted": false, "pillarId": "pillar/news", "pillarName": "News"}, {"id": "commentisfree/2014/oct/30/cameron-tax-cuts-miliband-moral-case", "type": "article", "sectionId": "commentisfree", "sectionName": "Opinion", "webPublicationDate": "2014-10-30T11:11:38Z", "webTitle": "Labour needs to make the moral arguments | Anne Perkins", "webUrl": "https://www.theguardian.com/commentisfree/2014/oct/30/cameron-tax-cuts-miliband-moral-case", "apiUrl": "https://content.guardianapis.com/commentisfree/2014/oct/30/cameron-tax-cuts-miliband-moral-case", "isHosted": false, "pillarId": "pillar/opinion", "pillarName": "Opinion"}, {"id": "politics/2014/oct/30/government-drug-laws-survey-suppressed-lib-dem-minister-norman-baker", "type": "article", "sectionId": "politics", "sectionName": "Politics", "webPublicationDate": "2014-10-30T11:03:00Z", "webTitle": "UK government\u2019s drug laws survey was suppressed, Lib Dem minister says", "webUrl": "https://www.theguardian.com/politics/2014/oct/30/government-drug-laws-survey-suppressed-lib-dem-minister-norman-baker", "apiUrl": "https://content.guardianapis.com/politics/2014/oct/30/government-drug-laws-survey-suppressed-lib-dem-minister-norman-baker", "isHosted": false, "pillarId": "pillar/news", "pillarName": "News"}, {"id": "politics/2014/oct/30/jim-murphy-hopes-first-minister-scotland", "type": "article", "sectionId": "politics", "sectionName": "Politics", "webPublicationDate": "2014-10-30T09:39:52Z", "webTitle": "Jim Murphy hopes to become first minister of Scotland", "webUrl": "https://www.theguardian.com/politics/2014/oct/30/jim-murphy-hopes-first-minister-scotland", "apiUrl": "https://content.guardianapis.com/politics/2014/oct/30/jim-murphy-hopes-first-minister-scotland", "isHosted": false, "pillarId": "pillar/news", "pillarName": "News"}, {"id": "commentisfree/2014/oct/30/drug-reform-martha-fernback-tragic-experience-need-drugs-laws", "type": "article", "sectionId": "commentisfree", "sectionName": "Opinion", "webPublicationDate": "2014-10-30T09:17:13Z", "webTitle": "Martha Fernback\u2019s tragic experience proves the need for drug reform | Caroline Lucas", "webUrl": "https://www.theguardian.com/commentisfree/2014/oct/30/drug-reform-martha-fernback-tragic-experience-need-drugs-laws", "apiUrl": "https://content.guardianapis.com/commentisfree/2014/oct/30/drug-reform-martha-fernback-tragic-experience-need-drugs-laws", "isHosted": false, "pillarId": "pillar/opinion", "pillarName": "Opinion"}, {"id": "society/2014/oct/30/punitive-drug-laws-are-failing-study", "type": "article", "sectionId": "society", "sectionName": "Society", "webPublicationDate": "2014-10-30T08:49:49Z", "webTitle": "Punitive drug law enforcement failing, says Home Office study", "webUrl": "https://www.theguardian.com/society/2014/oct/30/punitive-drug-laws-are-failing-study", "apiUrl": "https://content.guardianapis.com/society/2014/oct/30/punitive-drug-laws-are-failing-study", "isHosted": false, "pillarId": "pillar/news", "pillarName": "News"}, {"id": "uk-news/2014/oct/30/veterans-deprived-long-term-support", "type": "article", "sectionId": "uk-news", "sectionName": "UK news", "webPublicationDate": "2014-10-30T06:00:34Z", "webTitle": "Iraq and Afghanistan veterans deprived of long-term support, say MPs", "webUrl": "https://www.theguardian.com/uk-news/2014/oct/30/veterans-deprived-long-term-support", "apiUrl": "https://content.guardianapis.com/uk-news/2014/oct/30/veterans-deprived-long-term-support", "isHosted": false, "pillarId": "pillar/news", "pillarName": "News"}, {"id": "media/2014/oct/30/nigel-farage-ukip-documentary-spoof-channel-4", "type": "article", "sectionId": "media", "sectionName": "Media", "webPublicationDate": "2014-10-30T00:05:18Z", "webTitle": "Nigel Farage to take power in Ukip documentary spoof", "webUrl": "https://www.theguardian.com/media/2014/oct/30/nigel-farage-ukip-documentary-spoof-channel-4", "apiUrl": "https://content.guardianapis.com/media/2014/oct/30/nigel-farage-ukip-documentary-spoof-channel-4", "isHosted": false, "pillarId": "pillar/news", "pillarName": "News"}, {"id": "society/2014/oct/30/drug-laws-international-study-tough-policy-use-problem", "type": "article", "sectionId": "society", "sectionName": "Society", "webPublicationDate": "2014-10-30T00:02:18Z", "webTitle": "Eleven countries studied, one inescapable conclusion \u2013 the drug laws don\u2019t work", "webUrl": "https://www.theguardian.com/society/2014/oct/30/drug-laws-international-study-tough-policy-use-problem", "apiUrl": "https://content.guardianapis.com/society/2014/oct/30/drug-laws-international-study-tough-policy-use-problem", "isHosted": false, "pillarId": "pillar/news", "pillarName": "News"}, {"id": "education/2014/oct/30/spending-watchdog-nao-ofsted-education-inspection-english-state-schools", "type": "article", "sectionId": "education", "sectionName": "Education", "webPublicationDate": "2014-10-30T00:01:18Z", "webTitle": "Spending watchdog slams inspection regime for English state schools", "webUrl": "https://www.theguardian.com/education/2014/oct/30/spending-watchdog-nao-ofsted-education-inspection-english-state-schools", "apiUrl": "https://content.guardianapis.com/education/2014/oct/30/spending-watchdog-nao-ofsted-education-inspection-english-state-schools", "isHosted": false, "pillarId": "pillar/news", "pillarName": "News"}, {"id": "politics/2014/oct/30/audit-office-education-sector-oversight", "type": "article", "sectionId": "politics", "sectionName": "Politics", "webPublicationDate": "2014-10-30T00:01:18Z", "webTitle": "State education sector needs more effective oversight, says audit office", "webUrl": "https://www.theguardian.com/politics/2014/oct/30/audit-office-education-sector-oversight", "apiUrl": "https://content.guardianapis.com/politics/2014/oct/30/audit-office-education-sector-oversight", "isHosted": false, "pillarId": "pillar/news", "pillarName": "News"}, {"id": "commentisfree/2014/oct/30/guardian-view-on-drugs-policy-politicians-study-evidence", "type": "article", "sectionId": "commentisfree", "sectionName": "Opinion", "webPublicationDate": "2014-10-30T00:01:18Z", "webTitle": "The Guardian view on drugs policy: time for the politicians to study the evidence | Editorial", "webUrl": "https://www.theguardian.com/commentisfree/2014/oct/30/guardian-view-on-drugs-policy-politicians-study-evidence", "apiUrl": "https://content.guardianapis.com/commentisfree/2014/oct/30/guardian-view-on-drugs-policy-politicians-study-evidence", "isHosted": false, "pillarId": "pillar/opinion", "pillarName": "Opinion"}, {"id": "commentisfree/2014/oct/29/miliband-point-of-no-return-rochester-come-out-fighting", "type": "article", "sectionId": "commentisfree", "sectionName": "Opinion", "webPublicationDate": "2014-10-29T20:42:44Z", "webTitle": "Miliband is approaching the point of no return. He must now come out fighting | Martin Kettle", "webUrl": "https://www.theguardian.com/commentisfree/2014/oct/29/miliband-point-of-no-return-rochester-come-out-fighting", "apiUrl": "https://content.guardianapis.com/commentisfree/2014/oct/29/miliband-point-of-no-return-rochester-come-out-fighting", "isHosted": false, "pillarId": "pillar/opinion", "pillarName": "Opinion"}, {"id": "business/economics-blog/2014/oct/29/quantitative-easing-policy-stimulus-janet-yellen-ecb", "type": "article", "sectionId": "business", "sectionName": "Business", "webPublicationDate": "2014-10-29T20:37:47Z", "webTitle": "Quantitative easing: giving cash to the public would have been more effective", "webUrl": "https://www.theguardian.com/business/economics-blog/2014/oct/29/quantitative-easing-policy-stimulus-janet-yellen-ecb", "apiUrl": "https://content.guardianapis.com/business/economics-blog/2014/oct/29/quantitative-easing-policy-stimulus-janet-yellen-ecb", "isHosted": false, "pillarId": "pillar/news", "pillarName": "News"}, {"id": "politics/2014/oct/29/uk-eu-bill-clegg-seeks-support-valls", "type": "article", "sectionId": "politics", "sectionName": "Politics", "webPublicationDate": "2014-10-29T19:52:44Z", "webTitle": "UK\u2019s \u00a31.7bn EU bill: Clegg turns to French PM for support", "webUrl": "https://www.theguardian.com/politics/2014/oct/29/uk-eu-bill-clegg-seeks-support-valls", "apiUrl": "https://content.guardianapis.com/politics/2014/oct/29/uk-eu-bill-clegg-seeks-support-valls", "isHosted": false, "pillarId": "pillar/news", "pillarName": "News"}, {"id": "commentisfree/2014/oct/29/feminism-men-tories-david-cameron-f-word", "type": "article", "sectionId": "commentisfree", "sectionName": "Opinion", "webPublicationDate": "2014-10-29T19:49:05Z", "webTitle": "Feminism is for everyone \u2013 even men and Tories | Gaby Hinsliff", "webUrl": "https://www.theguardian.com/commentisfree/2014/oct/29/feminism-men-tories-david-cameron-f-word", "apiUrl": "https://content.guardianapis.com/commentisfree/2014/oct/29/feminism-men-tories-david-cameron-f-word", "isHosted": false, "pillarId": "pillar/opinion", "pillarName": "Opinion"}, {"id": "world/2014/oct/29/little-to-celebrate-uk-troops-withdraw-afghanistan", "type": "article", "sectionId": "world", "sectionName": "World news", "webPublicationDate": "2014-10-29T19:28:11Z", "webTitle": "Little to celebrate as UK troops withdraw from Afghanistan | @guardianletters", "webUrl": "https://www.theguardian.com/world/2014/oct/29/little-to-celebrate-uk-troops-withdraw-afghanistan", "apiUrl": "https://content.guardianapis.com/world/2014/oct/29/little-to-celebrate-uk-troops-withdraw-afghanistan", "isHosted": false, "pillarId": "pillar/news", "pillarName": "News"}, {"id": "commentisfree/2014/oct/29/guardian-view-scotland-eu-referendum-question-needs-answer", "type": "article", "sectionId": "commentisfree", "sectionName": "Opinion", "webPublicationDate": "2014-10-29T19:25:50Z", "webTitle": "The Guardian view on Scotland and the EU referendum: the question needs an answer | Editorial", "webUrl": "https://www.theguardian.com/commentisfree/2014/oct/29/guardian-view-scotland-eu-referendum-question-needs-answer", "apiUrl": "https://content.guardianapis.com/commentisfree/2014/oct/29/guardian-view-scotland-eu-referendum-question-needs-answer", "isHosted": false, "pillarId": "pillar/opinion", "pillarName": "Opinion"}, {"id": "politics/2014/oct/29/south-yorkshire-new-pcc", "type": "article", "sectionId": "politics", "sectionName": "Politics", "webPublicationDate": "2014-10-29T19:12:40Z", "webTitle": "Fury, disgust and apathy as people of South Yorkshire choose a new PCC", "webUrl": "https://www.theguardian.com/politics/2014/oct/29/south-yorkshire-new-pcc", "apiUrl": "https://content.guardianapis.com/politics/2014/oct/29/south-yorkshire-new-pcc", "isHosted": false, "pillarId": "pillar/news", "pillarName": "News"}, {"id": "business/2014/oct/29/co-op-delays-decision-withdrawal-funding-labour-affiliated-party", "type": "article", "sectionId": "business", "sectionName": "Business", "webPublicationDate": "2014-10-29T18:58:20Z", "webTitle": "Co-op delays decision on withdrawal of \u00a31m funding to Labour-affiliated party", "webUrl": "https://www.theguardian.com/business/2014/oct/29/co-op-delays-decision-withdrawal-funding-labour-affiliated-party", "apiUrl": "https://content.guardianapis.com/business/2014/oct/29/co-op-delays-decision-withdrawal-funding-labour-affiliated-party", "isHosted": false, "pillarId": "pillar/news", "pillarName": "News"}, {"id": "society/patrick-butler-cuts-blog/2014/oct/29/governement-advisors-finesse-child-protection-outsourcing-plans-market", "type": "article", "sectionId": "society", "sectionName": "Society", "webPublicationDate": "2014-10-29T18:13:09Z", "webTitle": "Outsourcing: government advisors finesse child protection 'sales pitch'", "webUrl": "https://www.theguardian.com/society/patrick-butler-cuts-blog/2014/oct/29/governement-advisors-finesse-child-protection-outsourcing-plans-market", "apiUrl": "https://content.guardianapis.com/society/patrick-butler-cuts-blog/2014/oct/29/governement-advisors-finesse-child-protection-outsourcing-plans-market", "isHosted": false, "pillarId": "pillar/news", "pillarName": "News"}, {"id": "politics/live/2014/oct/29/asylum-chaos-puts-david-cameron-under-pressure-ahead-of-pmqs-politics-live", "type": "liveblog", "sectionId": "politics", "sectionName": "Politics", "webPublicationDate": "2014-10-29T18:10:37Z", "webTitle": "David Cameron attacked at PMQs for callous and incompetent immigration policy: as it happened", "webUrl": "https://www.theguardian.com/politics/live/2014/oct/29/asylum-chaos-puts-david-cameron-under-pressure-ahead-of-pmqs-politics-live", "apiUrl": "https://content.guardianapis.com/politics/live/2014/oct/29/asylum-chaos-puts-david-cameron-under-pressure-ahead-of-pmqs-politics-live", "isHosted": false, "pillarId": "pillar/news", "pillarName": "News"}, {"id": "politics/2014/oct/29/cameron-miliband-race-ukip-immigration", "type": "article", "sectionId": "politics", "sectionName": "Politics", "webPublicationDate": "2014-10-29T18:10:02Z", "webTitle": "Nigel Farage has already won his fight with Labour and Conservatives | John Crace", "webUrl": "https://www.theguardian.com/politics/2014/oct/29/cameron-miliband-race-ukip-immigration", "apiUrl": "https://content.guardianapis.com/politics/2014/oct/29/cameron-miliband-race-ukip-immigration", "isHosted": false, "pillarId": "pillar/news", "pillarName": "News"}, {"id": "politics/2014/oct/29/bbc-refuses-include-green-party-televised-leader-debates-general-election", "type": "article", "sectionId": "politics", "sectionName": "Politics", "webPublicationDate": "2014-10-29T17:27:26Z", "webTitle": "BBC refuses to include Green party in general election TV leader debates", "webUrl": "https://www.theguardian.com/politics/2014/oct/29/bbc-refuses-include-green-party-televised-leader-debates-general-election", "apiUrl": "https://content.guardianapis.com/politics/2014/oct/29/bbc-refuses-include-green-party-televised-leader-debates-general-election", "isHosted": false, "pillarId": "pillar/news", "pillarName": "News"}, {"id": "world/2014/oct/29/obligatory-voting-socialism-corruption-brazilians-tell-us-what-they-think-about-rouseffs-re-election", "type": "article", "sectionId": "world", "sectionName": "World news", "webPublicationDate": "2014-10-29T16:10:38Z", "webTitle": "Obligatory voting, socialism and corruption: Brazilians tell us what they think about Rouseff's re-election", "webUrl": "https://www.theguardian.com/world/2014/oct/29/obligatory-voting-socialism-corruption-brazilians-tell-us-what-they-think-about-rouseffs-re-election", "apiUrl": "https://content.guardianapis.com/world/2014/oct/29/obligatory-voting-socialism-corruption-brazilians-tell-us-what-they-think-about-rouseffs-re-election", "isHosted": false, "pillarId": "pillar/news", "pillarName": "News"}, {"id": "media/2014/oct/29/bbc3-tv-closure-june-sarpong", "type": "article", "sectionId": "media", "sectionName": "Media", "webPublicationDate": "2014-10-29T15:46:57Z", "webTitle": "BBC3 TV closure \u2018completely wrong\u2019, says June Sarpong", "webUrl": "https://www.theguardian.com/media/2014/oct/29/bbc3-tv-closure-june-sarpong", "apiUrl": "https://content.guardianapis.com/media/2014/oct/29/bbc3-tv-closure-june-sarpong", "isHosted": false, "pillarId": "pillar/news", "pillarName": "News"}, {"id": "law/2014/oct/29/european-arrest-warrant-q-and-a", "type": "article", "sectionId": "law", "sectionName": "Law", "webPublicationDate": "2014-10-29T15:24:28Z", "webTitle": "The European arrest warrant: what is it and will the UK opt back in?", "webUrl": "https://www.theguardian.com/law/2014/oct/29/european-arrest-warrant-q-and-a", "apiUrl": "https://content.guardianapis.com/law/2014/oct/29/european-arrest-warrant-q-and-a", "isHosted": false, "pillarId": "pillar/news", "pillarName": "News"}, {"id": "world/blog/2014/oct/29/europe-divided-drifting-feels-like-1914-2014", "type": "article", "sectionId": "world", "sectionName": "World news", "webPublicationDate": "2014-10-29T13:57:24Z", "webTitle": "Europe is drifting and divided. This feels more like 1914 than 2014", "webUrl": "https://www.theguardian.com/world/blog/2014/oct/29/europe-divided-drifting-feels-like-1914-2014", "apiUrl": "https://content.guardianapis.com/world/blog/2014/oct/29/europe-divided-drifting-feels-like-1914-2014", "isHosted": false, "pillarId": "pillar/news", "pillarName": "News"}, {"id": "law/2014/oct/29/cameron-commons-vote-european-arrest-warrant", "type": "article", "sectionId": "law", "sectionName": "Law", "webPublicationDate": "2014-10-29T13:54:00Z", "webTitle": "Cameron to stage Commons vote on European arrest warrant", "webUrl": "https://www.theguardian.com/law/2014/oct/29/cameron-commons-vote-european-arrest-warrant", "apiUrl": "https://content.guardianapis.com/law/2014/oct/29/cameron-commons-vote-european-arrest-warrant", "isHosted": false, "pillarId": "pillar/news", "pillarName": "News"}, {"id": "media/2014/oct/29/bbc-licence-fee-poll-tax-tory-john-whittingdale", "type": "article", "sectionId": "media", "sectionName": "Media", "webPublicationDate": "2014-10-29T10:56:15Z", "webTitle": "BBC licence fee \u2018worse than poll tax\u2019, says Tory MP", "webUrl": "https://www.theguardian.com/media/2014/oct/29/bbc-licence-fee-poll-tax-tory-john-whittingdale", "apiUrl": "https://content.guardianapis.com/media/2014/oct/29/bbc-licence-fee-poll-tax-tory-john-whittingdale", "isHosted": false, "pillarId": "pillar/news", "pillarName": "News"}]}}