{"response": {"status": "ok", "userTier": "developer", "total": 30937, "startIndex": 1, "pageSize": 50, "currentPage": 1, "pages": 619, "orderBy": "newest", "results": [{"id": "environment/2011/oct/30/country-diary-claxton-norfolk", "type": "article", "sectionId": "environment", "sectionName": "Environment", "webPublicationDate": "2011-10-30T21:00:00Z", "webTitle": "Country diary: Claxton, Norfolk", "webUrl": "https://www.theguardian.com/environment/2011/oct/30/country-diary-claxton-norfolk", "apiUrl": "https://content.guardianapis.com/environment/2011/oct/30/country-diary-claxton-norfolk", "isHosted": false, "pillarId": "pillar/news", "pillarName": "News"}, {"id": "commentisfree/2011/oct/30/population-policies-little-impact-earth", "type": "article", "sectionId": "commentisfree", "sectionName": "Opinion", "webPublicationDate": "2011-10-30T19:40:00Z", "webTitle": "Population is not the problem | Juliette Jowit", "webUrl": "https://www.theguardian.com/commentisfree/2011/oct/30/population-policies-little-impact-earth", "apiUrl": "https://content.guardianapis.com/commentisfree/2011/oct/30/population-policies-little-impact-earth", "isHosted": false, "pillarId": "pillar/opinion", "pillarName": "Opinion"}, {"id": "environment/2011/oct/30/loch-lomond-goldmine-national-park", "type": "article", "sectionId": "environment", "sectionName": "Environment", "webPublicationDate": "2011-10-30T16:10:16Z", "webTitle": "Loch Lomond goldmine approval sparks fears for national park", "webUrl": "https://www.theguardian.com/environment/2011/oct/30/loch-lomond-goldmine-national-park", "apiUrl": "https://content.guardianapis.com/environment/2011/oct/30/loch-lomond-goldmine-national-park", "isHosted": false, "pillarId": "pillar/news", "pillarName": "News"}, {"id": "environment/2011/oct/30/bird-numbers-soar-in-britain", "type": "article", "sectionId": "environment", "sectionName": "Environment", "webPublicationDate": "2011-10-29T23:08:55Z", "webTitle": "Rare birds flock to British shores in record numbers", "webUrl": "https://www.theguardian.com/environment/2011/oct/30/bird-numbers-soar-in-britain", "apiUrl": "https://content.guardianapis.com/environment/2011/oct/30/bird-numbers-soar-in-britain", "isHosted": false, "pillarId": "pillar/news", "pillarName": "News"}, {"id": "books/2011/oct/30/world-improving-say-american-authors", "type": "article", "sectionId": "books", "sectionName": "Books", "webPublicationDate": "2011-10-29T23:08:03Z", "webTitle": "Keep smiling... the world is doing fine, say American authors", "webUrl": "https://www.theguardian.com/books/2011/oct/30/world-improving-say-american-authors", "apiUrl": "https://content.guardianapis.com/books/2011/oct/30/world-improving-say-american-authors", "isHosted": false, "pillarId": "pillar/arts", "pillarName": "Arts"}, {"id": "commentisfree/2011/oct/30/david-attenborough-killer-whales-glasgow", "type": "article", "sectionId": "commentisfree", "sectionName": "Opinion", "webPublicationDate": "2011-10-29T23:07:00Z", "webTitle": "I've a bone to pick with David Attenborough | Kevin McKenna", "webUrl": "https://www.theguardian.com/commentisfree/2011/oct/30/david-attenborough-killer-whales-glasgow", "apiUrl": "https://content.guardianapis.com/commentisfree/2011/oct/30/david-attenborough-killer-whales-glasgow", "isHosted": false, "pillarId": "pillar/opinion", "pillarName": "Opinion"}, {"id": "environment/2011/oct/30/but-will-wash-eco-temperatures", "type": "article", "sectionId": "environment", "sectionName": "Environment", "webPublicationDate": "2011-10-29T23:05:54Z", "webTitle": "But will it wash? | Lucy Siegle", "webUrl": "https://www.theguardian.com/environment/2011/oct/30/but-will-wash-eco-temperatures", "apiUrl": "https://content.guardianapis.com/environment/2011/oct/30/but-will-wash-eco-temperatures", "isHosted": false, "pillarId": "pillar/news", "pillarName": "News"}, {"id": "world/2011/oct/30/life-greenlands-polar-desert", "type": "article", "sectionId": "world", "sectionName": "World news", "webPublicationDate": "2011-10-29T23:04:00Z", "webTitle": "Life in Greenland's polar desert | Stephen Pax Leonard", "webUrl": "https://www.theguardian.com/world/2011/oct/30/life-greenlands-polar-desert", "apiUrl": "https://content.guardianapis.com/world/2011/oct/30/life-greenlands-polar-desert", "isHosted": false, "pillarId": "pillar/news", "pillarName": "News"}, {"id": "environment/2011/oct/30/africa-poor-west-biofuel-betrayal", "type": "article", "sectionId": "environment", "sectionName": "Environment", "webPublicationDate": "2011-10-29T23:04:00Z", "webTitle": "UK firm's failed biofuel dream wrecks lives of Tanzania villagers", "webUrl": "https://www.theguardian.com/environment/2011/oct/30/africa-poor-west-biofuel-betrayal", "apiUrl": "https://content.guardianapis.com/environment/2011/oct/30/africa-poor-west-biofuel-betrayal", "isHosted": false, "pillarId": "pillar/news", "pillarName": "News"}, {"id": "world/picture/2011/oct/29/whales-california-eyewitness", "type": "picture", "sectionId": "world", "sectionName": "World news", "webPublicationDate": "2011-10-29T20:00:00Z", "webTitle": "Eyewitness: Whale of a time", "webUrl": "https://www.theguardian.com/world/picture/2011/oct/29/whales-california-eyewitness", "apiUrl": "https://content.guardianapis.com/world/picture/2011/oct/29/whales-california-eyewitness", "isHosted": false, "pillarId": "pillar/news", "pillarName": "News"}, {"id": "world/2011/oct/29/bangkok-floods-redcross-warning", "type": "article", "sectionId": "world", "sectionName": "World news", "webPublicationDate": "2011-10-29T19:22:22Z", "webTitle": "Bangkok braced for further flood devastation as water level rises", "webUrl": "https://www.theguardian.com/world/2011/oct/29/bangkok-floods-redcross-warning", "apiUrl": "https://content.guardianapis.com/world/2011/oct/29/bangkok-floods-redcross-warning", "isHosted": false, "pillarId": "pillar/news", "pillarName": "News"}, {"id": "environment/2011/oct/28/country-diary-new-forest", "type": "article", "sectionId": "environment", "sectionName": "Environment", "webPublicationDate": "2011-10-28T20:00:01Z", "webTitle": "Country diary: New Forest", "webUrl": "https://www.theguardian.com/environment/2011/oct/28/country-diary-new-forest", "apiUrl": "https://content.guardianapis.com/environment/2011/oct/28/country-diary-new-forest", "isHosted": false, "pillarId": "pillar/news", "pillarName": "News"}, {"id": "world/2011/oct/28/bangkok-residents-flee-floods", "type": "article", "sectionId": "world", "sectionName": "World news", "webPublicationDate": "2011-10-28T18:10:07Z", "webTitle": "Bangkok residents flee as floods threaten to overwhelm capital", "webUrl": "https://www.theguardian.com/world/2011/oct/28/bangkok-residents-flee-floods", "apiUrl": "https://content.guardianapis.com/world/2011/oct/28/bangkok-residents-flee-floods", "isHosted": false, "pillarId": "pillar/news", "pillarName": "News"}, {"id": "global-development/2011/oct/28/solar-powered-internet-school-children-africa", "type": "article", "sectionId": "global-development", "sectionName": "Global development", "webPublicationDate": "2011-10-28T16:04:12Z", "webTitle": "Solar-powered internet school set to benefit children in rural Africa", "webUrl": "https://www.theguardian.com/global-development/2011/oct/28/solar-powered-internet-school-children-africa", "apiUrl": "https://content.guardianapis.com/global-development/2011/oct/28/solar-powered-internet-school-children-africa", "isHosted": false, "pillarId": "pillar/news", "pillarName": "News"}, {"id": "environment/green-living-blog/2011/oct/28/feed-in-tariff-change-homeowners", "type": "article", "sectionId": "environment", "sectionName": "Environment", "webPublicationDate": "2011-10-28T15:37:33Z", "webTitle": "What will the feed-in tariff changes mean for homeowners? | Duncan Clark", "webUrl": "https://www.theguardian.com/environment/green-living-blog/2011/oct/28/feed-in-tariff-change-homeowners", "apiUrl": "https://content.guardianapis.com/environment/green-living-blog/2011/oct/28/feed-in-tariff-change-homeowners", "isHosted": false, "pillarId": "pillar/news", "pillarName": "News"}, {"id": "environment/blog/2011/oct/28/blood-of-the-amazon-nicola-peel", "type": "article", "sectionId": "environment", "sectionName": "Environment", "webPublicationDate": "2011-10-28T15:13:58Z", "webTitle": "Blood of the Amazon by Nicola Peel \u2013 preview", "webUrl": "https://www.theguardian.com/environment/blog/2011/oct/28/blood-of-the-amazon-nicola-peel", "apiUrl": "https://content.guardianapis.com/environment/blog/2011/oct/28/blood-of-the-amazon-nicola-peel", "isHosted": false, "pillarId": "pillar/news", "pillarName": "News"}, {"id": "global-development/2011/oct/28/uk-bill-threatens-global-human-rights", "type": "article", "sectionId": "global-development", "sectionName": "Global development", "webPublicationDate": "2011-10-28T15:01:28Z", "webTitle": "The UK's scandalous legal aid bill is a threat to global human rights | Nick Mathiason", "webUrl": "https://www.theguardian.com/global-development/2011/oct/28/uk-bill-threatens-global-human-rights", "apiUrl": "https://content.guardianapis.com/global-development/2011/oct/28/uk-bill-threatens-global-human-rights", "isHosted": false, "pillarId": "pillar/news", "pillarName": "News"}, {"id": "artanddesign/2011/oct/28/week-in-architecture", "type": "article", "sectionId": "artanddesign", "sectionName": "Art and design", "webPublicationDate": "2011-10-28T15:01:00Z", "webTitle": "Constructive criticism: the week in architecture", "webUrl": "https://www.theguardian.com/artanddesign/2011/oct/28/week-in-architecture", "apiUrl": "https://content.guardianapis.com/artanddesign/2011/oct/28/week-in-architecture", "isHosted": false, "pillarId": "pillar/arts", "pillarName": "Arts"}, {"id": "environment/gallery/2011/oct/28/week-in-wildlife-in-pictures", "type": "gallery", "sectionId": "environment", "sectionName": "Environment", "webPublicationDate": "2011-10-28T13:35:25Z", "webTitle": "The week in wildlife \u2013 in pictures", "webUrl": "https://www.theguardian.com/environment/gallery/2011/oct/28/week-in-wildlife-in-pictures", "apiUrl": "https://content.guardianapis.com/environment/gallery/2011/oct/28/week-in-wildlife-in-pictures", "isHosted": false, "pillarId": "pillar/news", "pillarName": "News"}, {"id": "environment/blog/2011/oct/28/carol-ann-duffy-bee-poetry", "type": "article", "sectionId": "environment", "sectionName": "Environment", "webPublicationDate": "2011-10-28T12:17:35Z", "webTitle": "Carol Ann Duffy \u2013 the newest of the bee poets | Alison Benjamin", "webUrl": "https://www.theguardian.com/environment/blog/2011/oct/28/carol-ann-duffy-bee-poetry", "apiUrl": "https://content.guardianapis.com/environment/blog/2011/oct/28/carol-ann-duffy-bee-poetry", "isHosted": false, "pillarId": "pillar/news", "pillarName": "News"}, {"id": "world/picture/2011/oct/28/eyewitness-great-rift-valley", "type": "picture", "sectionId": "world", "sectionName": "World news", "webPublicationDate": "2011-10-28T09:14:00Z", "webTitle": "Eyewitness: Great Rift Valley, Tanzania", "webUrl": "https://www.theguardian.com/world/picture/2011/oct/28/eyewitness-great-rift-valley", "apiUrl": "https://content.guardianapis.com/world/picture/2011/oct/28/eyewitness-great-rift-valley", "isHosted": false, "pillarId": "pillar/news", "pillarName": "News"}, {"id": "world/2011/oct/28/fukushima-released-double-radioactive-material", "type": "article", "sectionId": "world", "sectionName": "World news", "webPublicationDate": "2011-10-28T06:40:22Z", "webTitle": "Fukushima released 'twice as much' radioactive material as first thought", "webUrl": "https://www.theguardian.com/world/2011/oct/28/fukushima-released-double-radioactive-material", "apiUrl": "https://content.guardianapis.com/world/2011/oct/28/fukushima-released-double-radioactive-material", "isHosted": false, "pillarId": "pillar/news", "pillarName": "News"}, {"id": "environment/2011/oct/28/councils-unprepared-flood-risk", "type": "article", "sectionId": "environment", "sectionName": "Environment", "webPublicationDate": "2011-10-27T23:01:00Z", "webTitle": "Councils 'unprepared for flood risk'", "webUrl": "https://www.theguardian.com/environment/2011/oct/28/councils-unprepared-flood-risk", "apiUrl": "https://content.guardianapis.com/environment/2011/oct/28/councils-unprepared-flood-risk", "isHosted": false, "pillarId": "pillar/news", "pillarName": "News"}, {"id": "environment/2011/oct/27/innospec-allegations-bribery-toxic-chemical", "type": "article", "sectionId": "environment", "sectionName": "Environment", "webPublicationDate": "2011-10-27T21:01:32Z", "webTitle": "Former Innospec bosses 'bribed officials to buy toxic chemical'", "webUrl": "https://www.theguardian.com/environment/2011/oct/27/innospec-allegations-bribery-toxic-chemical", "apiUrl": "https://content.guardianapis.com/environment/2011/oct/27/innospec-allegations-bribery-toxic-chemical", "isHosted": false, "pillarId": "pillar/news", "pillarName": "News"}, {"id": "environment/2011/oct/27/country-diary-north-stoke", "type": "article", "sectionId": "environment", "sectionName": "Environment", "webPublicationDate": "2011-10-27T20:00:01Z", "webTitle": "Country diary: North Stoke, near Arundel", "webUrl": "https://www.theguardian.com/environment/2011/oct/27/country-diary-north-stoke", "apiUrl": "https://content.guardianapis.com/environment/2011/oct/27/country-diary-north-stoke", "isHosted": false, "pillarId": "pillar/news", "pillarName": "News"}, {"id": "world/2011/oct/27/bangkok-floods-evacuation-thailand", "type": "article", "sectionId": "world", "sectionName": "World news", "webPublicationDate": "2011-10-27T18:39:33Z", "webTitle": "Bangkok braced for month of flooding as big evacuation gets under way", "webUrl": "https://www.theguardian.com/world/2011/oct/27/bangkok-floods-evacuation-thailand", "apiUrl": "https://content.guardianapis.com/world/2011/oct/27/bangkok-floods-evacuation-thailand", "isHosted": false, "pillarId": "pillar/news", "pillarName": "News"}, {"id": "environment/2011/oct/27/solar-subsidy-cuts-community-schemes", "type": "article", "sectionId": "environment", "sectionName": "Environment", "webPublicationDate": "2011-10-27T18:25:33Z", "webTitle": "Solar subsidy cuts will hit community schemes hardest, industry warns", "webUrl": "https://www.theguardian.com/environment/2011/oct/27/solar-subsidy-cuts-community-schemes", "apiUrl": "https://content.guardianapis.com/environment/2011/oct/27/solar-subsidy-cuts-community-schemes", "isHosted": false, "pillarId": "pillar/news", "pillarName": "News"}, {"id": "commentisfree/2011/oct/27/peoples-panel-children-overpopulation", "type": "article", "sectionId": "commentisfree", "sectionName": "Opinion", "webPublicationDate": "2011-10-27T17:00:00Z", "webTitle": "Comment is free readers on \u2026 children and overpopulation | The people's panel", "webUrl": "https://www.theguardian.com/commentisfree/2011/oct/27/peoples-panel-children-overpopulation", "apiUrl": "https://content.guardianapis.com/commentisfree/2011/oct/27/peoples-panel-children-overpopulation", "isHosted": false, "pillarId": "pillar/opinion", "pillarName": "Opinion"}, {"id": "world/video/2011/oct/27/italy-floods-liguria-video", "type": "video", "sectionId": "world", "sectionName": "World news", "webPublicationDate": "2011-10-27T16:22:00Z", "webTitle": "Italy flood rescuers reach worst hit areas - video", "webUrl": "https://www.theguardian.com/world/video/2011/oct/27/italy-floods-liguria-video", "apiUrl": "https://content.guardianapis.com/world/video/2011/oct/27/italy-floods-liguria-video", "isHosted": false, "pillarId": "pillar/news", "pillarName": "News"}, {"id": "environment/2011/oct/27/give-unwanted-fish-poor-eu", "type": "article", "sectionId": "environment", "sectionName": "Environment", "webPublicationDate": "2011-10-27T15:45:51Z", "webTitle": "Give unwanted fish to the poor, says EU fisheries chief", "webUrl": "https://www.theguardian.com/environment/2011/oct/27/give-unwanted-fish-poor-eu", "apiUrl": "https://content.guardianapis.com/environment/2011/oct/27/give-unwanted-fish-poor-eu", "isHosted": false, "pillarId": "pillar/news", "pillarName": "News"}, {"id": "uk/the-northerner/2011/oct/27/ennerdale-cumbria-low-gillerthwaite-science-and-technology-facilities-council", "type": "article", "sectionId": "uk-news", "sectionName": "UK news", "webPublicationDate": "2011-10-27T15:26:00Z", "webTitle": "North west opens first Dark Sky Discovery Site in the Lake District", "webUrl": "https://www.theguardian.com/uk/the-northerner/2011/oct/27/ennerdale-cumbria-low-gillerthwaite-science-and-technology-facilities-council", "apiUrl": "https://content.guardianapis.com/uk/the-northerner/2011/oct/27/ennerdale-cumbria-low-gillerthwaite-science-and-technology-facilities-council", "isHosted": false, "pillarId": "pillar/news", "pillarName": "News"}, {"id": "environment/2011/oct/27/facebook-green-datacentre-sweden-renewables", "type": "article", "sectionId": "environment", "sectionName": "Environment", "webPublicationDate": "2011-10-27T14:29:59Z", "webTitle": "Facebook builds 'green' datacentre in Sweden", "webUrl": "https://www.theguardian.com/environment/2011/oct/27/facebook-green-datacentre-sweden-renewables", "apiUrl": "https://content.guardianapis.com/environment/2011/oct/27/facebook-green-datacentre-sweden-renewables", "isHosted": false, "pillarId": "pillar/news", "pillarName": "News"}, {"id": "business/2011/oct/27/shell-doubles-profits-as-tar-sands-production-increases", "type": "article", "sectionId": "business", "sectionName": "Business", "webPublicationDate": "2011-10-27T12:34:01Z", "webTitle": "North Sea oil spill risk 'unacceptably high', claims European commission", "webUrl": "https://www.theguardian.com/business/2011/oct/27/shell-doubles-profits-as-tar-sands-production-increases", "apiUrl": "https://content.guardianapis.com/business/2011/oct/27/shell-doubles-profits-as-tar-sands-production-increases", "isHosted": false, "pillarId": "pillar/news", "pillarName": "News"}, {"id": "environment/2011/oct/27/shark-conservation-gaining-momentum", "type": "article", "sectionId": "environment", "sectionName": "Environment", "webPublicationDate": "2011-10-27T12:18:51Z", "webTitle": "Shark conservation is gaining momentum - but are we doing enough?", "webUrl": "https://www.theguardian.com/environment/2011/oct/27/shark-conservation-gaining-momentum", "apiUrl": "https://content.guardianapis.com/environment/2011/oct/27/shark-conservation-gaining-momentum", "isHosted": false, "pillarId": "pillar/news", "pillarName": "News"}, {"id": "environment/video/2011/oct/27/shark-florida-marine-conservationists-video", "type": "video", "sectionId": "environment", "sectionName": "Environment", "webPublicationDate": "2011-10-27T11:16:00Z", "webTitle": "Shark caught off Florida by marine conservationists - video", "webUrl": "https://www.theguardian.com/environment/video/2011/oct/27/shark-florida-marine-conservationists-video", "apiUrl": "https://content.guardianapis.com/environment/video/2011/oct/27/shark-florida-marine-conservationists-video", "isHosted": false, "pillarId": "pillar/news", "pillarName": "News"}, {"id": "environment/georgemonbiot/2011/oct/27/population-consumption-threat-to-planet", "type": "article", "sectionId": "environment", "sectionName": "Environment", "webPublicationDate": "2011-10-27T10:49:09Z", "webTitle": "Population is just a sidekick to the real big baddie \u2013 consumption | George Monbiot", "webUrl": "https://www.theguardian.com/environment/georgemonbiot/2011/oct/27/population-consumption-threat-to-planet", "apiUrl": "https://content.guardianapis.com/environment/georgemonbiot/2011/oct/27/population-consumption-threat-to-planet", "isHosted": false, "pillarId": "pillar/news", "pillarName": "News"}, {"id": "environment/damian-carrington-blog/2011/oct/27/huhne-renewable-energy-green-growth-deniers", "type": "article", "sectionId": "environment", "sectionName": "Environment", "webPublicationDate": "2011-10-27T09:30:00Z", "webTitle": "How to solve 'green growth denial' in one stroke | Damian Carrington", "webUrl": "https://www.theguardian.com/environment/damian-carrington-blog/2011/oct/27/huhne-renewable-energy-green-growth-deniers", "apiUrl": "https://content.guardianapis.com/environment/damian-carrington-blog/2011/oct/27/huhne-renewable-energy-green-growth-deniers", "isHosted": false, "pillarId": "pillar/news", "pillarName": "News"}, {"id": "world/2011/oct/27/bangkok-floods-river-threatens-burst", "type": "article", "sectionId": "world", "sectionName": "World news", "webPublicationDate": "2011-10-27T09:02:15Z", "webTitle": "Bangkok residents flee floods as river threatens to burst banks", "webUrl": "https://www.theguardian.com/world/2011/oct/27/bangkok-floods-river-threatens-burst", "apiUrl": "https://content.guardianapis.com/world/2011/oct/27/bangkok-floods-river-threatens-burst", "isHosted": false, "pillarId": "pillar/news", "pillarName": "News"}, {"id": "commentisfree/2011/oct/26/occupy-london-big-bang-city", "type": "article", "sectionId": "commentisfree", "sectionName": "Opinion", "webPublicationDate": "2011-10-27T08:15:22Z", "webTitle": "Occupy London is cleaning up the big bang's mess | Andrew Simms", "webUrl": "https://www.theguardian.com/commentisfree/2011/oct/26/occupy-london-big-bang-city", "apiUrl": "https://content.guardianapis.com/commentisfree/2011/oct/26/occupy-london-big-bang-city", "isHosted": false, "pillarId": "pillar/opinion", "pillarName": "Opinion"}, {"id": "environment/gallery/2011/oct/27/rhino-endangered-species-wildlife-wwf", "type": "gallery", "sectionId": "environment", "sectionName": "Environment", "webPublicationDate": "2011-10-27T07:00:00Z", "webTitle": "Which rhinos do we have left, and how many?", "webUrl": "https://www.theguardian.com/environment/gallery/2011/oct/27/rhino-endangered-species-wildlife-wwf", "apiUrl": "https://content.guardianapis.com/environment/gallery/2011/oct/27/rhino-endangered-species-wildlife-wwf", "isHosted": false, "pillarId": "pillar/news", "pillarName": "News"}, {"id": "news/2011/oct/26/weatherwatch-birds-hurricane-caribbean", "type": "article", "sectionId": "news", "sectionName": "News", "webPublicationDate": "2011-10-26T22:05:01Z", "webTitle": "Weatherwatch: Birds of the hurricane", "webUrl": "https://www.theguardian.com/news/2011/oct/26/weatherwatch-birds-hurricane-caribbean", "apiUrl": "https://content.guardianapis.com/news/2011/oct/26/weatherwatch-birds-hurricane-caribbean", "isHosted": false, "pillarId": "pillar/news", "pillarName": "News"}, {"id": "tv-and-radio/2011/oct/26/tv-review-frozen-planet", "type": "article", "sectionId": "tv-and-radio", "sectionName": "Television & radio", "webPublicationDate": "2011-10-26T21:10:01Z", "webTitle": "TV review: Frozen Planet", "webUrl": "https://www.theguardian.com/tv-and-radio/2011/oct/26/tv-review-frozen-planet", "apiUrl": "https://content.guardianapis.com/tv-and-radio/2011/oct/26/tv-review-frozen-planet", "isHosted": false, "pillarId": "pillar/arts", "pillarName": "Arts"}, {"id": "environment/2011/oct/26/country-diary-hamsterley-co-durham", "type": "article", "sectionId": "environment", "sectionName": "Environment", "webPublicationDate": "2011-10-26T19:59:02Z", "webTitle": "Country diary: Hamsterley, Co Durham", "webUrl": "https://www.theguardian.com/environment/2011/oct/26/country-diary-hamsterley-co-durham", "apiUrl": "https://content.guardianapis.com/environment/2011/oct/26/country-diary-hamsterley-co-durham", "isHosted": false, "pillarId": "pillar/news", "pillarName": "News"}, {"id": "theguardian/2011/oct/26/david-attenborough-chasing-armadillo", "type": "article", "sectionId": "tv-and-radio", "sectionName": "Television & radio", "webPublicationDate": "2011-10-26T19:30:06Z", "webTitle": "When I first saw David Attenborough he was wearing Scout shorts and chasing an armadillo", "webUrl": "https://www.theguardian.com/theguardian/2011/oct/26/david-attenborough-chasing-armadillo", "apiUrl": "https://content.guardianapis.com/theguardian/2011/oct/26/david-attenborough-chasing-armadillo", "isHosted": false, "pillarId": "pillar/arts", "pillarName": "Arts"}, {"id": "uk/2011/oct/26/police-spy-urges-public-inquiry", "type": "article", "sectionId": "uk-news", "sectionName": "UK news", "webPublicationDate": "2011-10-26T16:01:03Z", "webTitle": "Former police spy urges public inquiry into undercover operations", "webUrl": "https://www.theguardian.com/uk/2011/oct/26/police-spy-urges-public-inquiry", "apiUrl": "https://content.guardianapis.com/uk/2011/oct/26/police-spy-urges-public-inquiry", "isHosted": false, "pillarId": "pillar/news", "pillarName": "News"}, {"id": "environment/2011/oct/26/1", "type": "article", "sectionId": "environment", "sectionName": "Environment", "webPublicationDate": "2011-10-26T15:47:11Z", "webTitle": "Green news roundup: 7 billion people, hydropower and Javan rhino", "webUrl": "https://www.theguardian.com/environment/2011/oct/26/1", "apiUrl": "https://content.guardianapis.com/environment/2011/oct/26/1", "isHosted": false, "pillarId": "pillar/news", "pillarName": "News"}, {"id": "uk/the-northerner/2011/oct/26/bishopthorpe-palace-anglican", "type": "article", "sectionId": "uk-news", "sectionName": "UK news", "webPublicationDate": "2011-10-26T15:01:00Z", "webTitle": "Archbishop opens his gardens - online", "webUrl": "https://www.theguardian.com/uk/the-northerner/2011/oct/26/bishopthorpe-palace-anglican", "apiUrl": "https://content.guardianapis.com/uk/the-northerner/2011/oct/26/bishopthorpe-palace-anglican", "isHosted": false, "pillarId": "pillar/news", "pillarName": "News"}, {"id": "environment/gallery/2011/oct/26/top-10-green-cars-in-pictures", "type": "gallery", "sectionId": "environment", "sectionName": "Environment", "webPublicationDate": "2011-10-26T15:00:05Z", "webTitle": "The top 10 green cars coming in 2012 - in pictures", "webUrl": "https://www.theguardian.com/environment/gallery/2011/oct/26/top-10-green-cars-in-pictures", "apiUrl": "https://content.guardianapis.com/environment/gallery/2011/oct/26/top-10-green-cars-in-pictures", "isHosted": false, "pillarId": "pillar/news", "pillarName": "News"}, {"id": "environment/2011/oct/26/orangutans-man-made-islands-indonesia", "type": "article", "sectionId": "environment", "sectionName": "Environment", "webPublicationDate": "2011-10-26T14:28:41Z", "webTitle": "Indonesia may host man-made 'orangutan island'", "webUrl": "https://www.theguardian.com/environment/2011/oct/26/orangutans-man-made-islands-indonesia", "apiUrl": "https://content.guardianapis.com/environment/2011/oct/26/orangutans-man-made-islands-indonesia", "isHosted": false, "pillarId": "pillar/news", "pillarName": "News"}, {"id": "environment/damian-carrington-blog/2011/oct/26/climate-change-developing-country-impacts-risk", "type": "article", "sectionId": "environment", "sectionName": "Environment", "webPublicationDate": "2011-10-26T13:45:00Z", "webTitle": "Map shows stark divide between who caused climate change and who's being hit | Damian Carrington", "webUrl": "https://www.theguardian.com/environment/damian-carrington-blog/2011/oct/26/climate-change-developing-country-impacts-risk", "apiUrl": "https://content.guardianapis.com/environment/damian-carrington-blog/2011/oct/26/climate-change-developing-country-impacts-risk", "isHosted": false, "pillarId": "pillar/news", "pillarName": "News"}]}}