{"response": {"status": "ok", "userTier": "developer", "total": 132885, "startIndex": 1, "pageSize": 50, "currentPage": 1, "pages": 2658, "orderBy": "newest", "results": [{"id": "commentisfree/cartoon/2013/oct/30/steve-bell-david-cameron-energy-policy", "type": "picture", "sectionId": "commentisfree", "sectionName": "Opinion", "webPublicationDate": "2013-10-30T23:20:02Z", "webTitle": "Steve Bell on David Cameron and energy policy \u2013 cartoon", "webUrl": "https://www.theguardian.com/commentisfree/cartoon/2013/oct/30/steve-bell-david-cameron-energy-policy", "apiUrl": "https://content.guardianapis.com/commentisfree/cartoon/2013/oct/30/steve-bell-david-cameron-energy-policy", "isHosted": false, "pillarId": "pillar/opinion", "pillarName": "Opinion"}, {"id": "commentisfree/2013/oct/30/in-praise-of-pure-fruit-pulp", "type": "article", "sectionId": "commentisfree", "sectionName": "Opinion", "webPublicationDate": "2013-10-30T23:01:31Z", "webTitle": "In praise of \u2026 pure fruit pulp | Editorial", "webUrl": "https://www.theguardian.com/commentisfree/2013/oct/30/in-praise-of-pure-fruit-pulp", "apiUrl": "https://content.guardianapis.com/commentisfree/2013/oct/30/in-praise-of-pure-fruit-pulp", "isHosted": false, "pillarId": "pillar/opinion", "pillarName": "Opinion"}, {"id": "politics/2013/oct/30/hugh-muirs-diary-freedom-of-information", "type": "article", "sectionId": "politics", "sectionName": "Politics", "webPublicationDate": "2013-10-30T23:00:00Z", "webTitle": "The closed world of an open government | Hugh Muir", "webUrl": "https://www.theguardian.com/politics/2013/oct/30/hugh-muirs-diary-freedom-of-information", "apiUrl": "https://content.guardianapis.com/politics/2013/oct/30/hugh-muirs-diary-freedom-of-information", "isHosted": false, "pillarId": "pillar/news", "pillarName": "News"}, {"id": "commentisfree/2013/oct/30/politics-market-smoke-light-editorial", "type": "article", "sectionId": "commentisfree", "sectionName": "Opinion", "webPublicationDate": "2013-10-30T22:48:13Z", "webTitle": "Politics and the market: more smoke than light | Editorial", "webUrl": "https://www.theguardian.com/commentisfree/2013/oct/30/politics-market-smoke-light-editorial", "apiUrl": "https://content.guardianapis.com/commentisfree/2013/oct/30/politics-market-smoke-light-editorial", "isHosted": false, "pillarId": "pillar/opinion", "pillarName": "Opinion"}, {"id": "education/2013/oct/30/professors-supporting-colleagues-strike", "type": "article", "sectionId": "education", "sectionName": "Education", "webPublicationDate": "2013-10-30T21:00:01Z", "webTitle": "Letters: Professors supporting colleagues on strike", "webUrl": "https://www.theguardian.com/education/2013/oct/30/professors-supporting-colleagues-strike", "apiUrl": "https://content.guardianapis.com/education/2013/oct/30/professors-supporting-colleagues-strike", "isHosted": false, "pillarId": "pillar/news", "pillarName": "News"}, {"id": "uk-news/2013/oct/30/hs2-much-more-quicker-journeys", "type": "article", "sectionId": "uk-news", "sectionName": "UK news", "webPublicationDate": "2013-10-30T21:00:00Z", "webTitle": "Letters: HS2 is about much more than quicker journeys", "webUrl": "https://www.theguardian.com/uk-news/2013/oct/30/hs2-much-more-quicker-journeys", "apiUrl": "https://content.guardianapis.com/uk-news/2013/oct/30/hs2-much-more-quicker-journeys", "isHosted": false, "pillarId": "pillar/news", "pillarName": "News"}, {"id": "tv-and-radio/2013/oct/30/robert-webb-russell-brand-vote", "type": "article", "sectionId": "tv-and-radio", "sectionName": "Television & radio", "webPublicationDate": "2013-10-30T20:14:11Z", "webTitle": "Robert Webb rebukes Russell Brand for urging people not to vote", "webUrl": "https://www.theguardian.com/tv-and-radio/2013/oct/30/robert-webb-russell-brand-vote", "apiUrl": "https://content.guardianapis.com/tv-and-radio/2013/oct/30/robert-webb-russell-brand-vote", "isHosted": false, "pillarId": "pillar/arts", "pillarName": "Arts"}, {"id": "business/2013/oct/30/switching-energy-suppliers-quick-banks", "type": "article", "sectionId": "money", "sectionName": "Money", "webPublicationDate": "2013-10-30T20:00:00Z", "webTitle": "Switching energy suppliers to be made as quick as changing banks", "webUrl": "https://www.theguardian.com/business/2013/oct/30/switching-energy-suppliers-quick-banks", "apiUrl": "https://content.guardianapis.com/business/2013/oct/30/switching-energy-suppliers-quick-banks", "isHosted": false, "pillarId": "pillar/lifestyle", "pillarName": "Lifestyle"}, {"id": "commentisfree/2013/oct/30/privatising-probation-reoffending-rise-costs", "type": "article", "sectionId": "commentisfree", "sectionName": "Opinion", "webPublicationDate": "2013-10-30T19:32:34Z", "webTitle": "How to make recidivism and costs rise? Privatise probation | Zoe Williams", "webUrl": "https://www.theguardian.com/commentisfree/2013/oct/30/privatising-probation-reoffending-rise-costs", "apiUrl": "https://content.guardianapis.com/commentisfree/2013/oct/30/privatising-probation-reoffending-rise-costs", "isHosted": false, "pillarId": "pillar/opinion", "pillarName": "Opinion"}, {"id": "politics/2013/oct/30/foreigners-down-energy-prices-up", "type": "article", "sectionId": "politics", "sectionName": "Politics", "webPublicationDate": "2013-10-30T19:26:27Z", "webTitle": "Foreigners down, energy prices up: another great week for the coalition", "webUrl": "https://www.theguardian.com/politics/2013/oct/30/foreigners-down-energy-prices-up", "apiUrl": "https://content.guardianapis.com/politics/2013/oct/30/foreigners-down-energy-prices-up", "isHosted": false, "pillarId": "pillar/news", "pillarName": "News"}, {"id": "uk-news/2013/oct/30/john-denham-labour-division-hs2", "type": "article", "sectionId": "uk-news", "sectionName": "UK news", "webPublicationDate": "2013-10-30T19:12:20Z", "webTitle": "John Denham warns against Labour division on HS2 rail line", "webUrl": "https://www.theguardian.com/uk-news/2013/oct/30/john-denham-labour-division-hs2", "apiUrl": "https://content.guardianapis.com/uk-news/2013/oct/30/john-denham-labour-division-hs2", "isHosted": false, "pillarId": "pillar/news", "pillarName": "News"}, {"id": "commentisfree/2013/oct/30/poppies-prince-george-nsa", "type": "article", "sectionId": "commentisfree", "sectionName": "Opinion", "webPublicationDate": "2013-10-30T19:08:50Z", "webTitle": "What poppies, Prince George and the NSA tell us about freedom | Martin Kettle", "webUrl": "https://www.theguardian.com/commentisfree/2013/oct/30/poppies-prince-george-nsa", "apiUrl": "https://content.guardianapis.com/commentisfree/2013/oct/30/poppies-prince-george-nsa", "isHosted": false, "pillarId": "pillar/opinion", "pillarName": "Opinion"}, {"id": "politics/2013/oct/30/david-cameron-glass-warfare-pmqs", "type": "article", "sectionId": "politics", "sectionName": "Politics", "webPublicationDate": "2013-10-30T19:00:04Z", "webTitle": "David Cameron's glass warfare at PMQs", "webUrl": "https://www.theguardian.com/politics/2013/oct/30/david-cameron-glass-warfare-pmqs", "apiUrl": "https://content.guardianapis.com/politics/2013/oct/30/david-cameron-glass-warfare-pmqs", "isHosted": false, "pillarId": "pillar/news", "pillarName": "News"}, {"id": "uk-news/2013/oct/30/royal-mail-workers-call-off-strike", "type": "article", "sectionId": "business", "sectionName": "Business", "webPublicationDate": "2013-10-30T18:47:25Z", "webTitle": "Royal Mail workers call off one-day strike after talks progress", "webUrl": "https://www.theguardian.com/uk-news/2013/oct/30/royal-mail-workers-call-off-strike", "apiUrl": "https://content.guardianapis.com/uk-news/2013/oct/30/royal-mail-workers-call-off-strike", "isHosted": false, "pillarId": "pillar/news", "pillarName": "News"}, {"id": "commentisfree/2013/oct/30/poundland-ruling-workfare-slave-labour-benefits", "type": "article", "sectionId": "commentisfree", "sectionName": "Opinion", "webPublicationDate": "2013-10-30T18:17:11Z", "webTitle": "The Poundland ruling sends out the wrong message about workfare | Mary Dejevsky", "webUrl": "https://www.theguardian.com/commentisfree/2013/oct/30/poundland-ruling-workfare-slave-labour-benefits", "apiUrl": "https://content.guardianapis.com/commentisfree/2013/oct/30/poundland-ruling-workfare-slave-labour-benefits", "isHosted": false, "pillarId": "pillar/opinion", "pillarName": "Opinion"}, {"id": "law/2013/oct/30/dwp-appeal-report-court-ruling", "type": "article", "sectionId": "law", "sectionName": "Law", "webPublicationDate": "2013-10-30T18:11:34Z", "webTitle": "Take my advice: adopt a degree of scepticism towards media reports | Joshua Rozenberg", "webUrl": "https://www.theguardian.com/law/2013/oct/30/dwp-appeal-report-court-ruling", "apiUrl": "https://content.guardianapis.com/law/2013/oct/30/dwp-appeal-report-court-ruling", "isHosted": false, "pillarId": "pillar/news", "pillarName": "News"}, {"id": "world/2013/oct/30/tadeusz-mazowiecki", "type": "article", "sectionId": "world", "sectionName": "World news", "webPublicationDate": "2013-10-30T17:44:52Z", "webTitle": "Tadeusz Mazowiecki obituary", "webUrl": "https://www.theguardian.com/world/2013/oct/30/tadeusz-mazowiecki", "apiUrl": "https://content.guardianapis.com/world/2013/oct/30/tadeusz-mazowiecki", "isHosted": false, "pillarId": "pillar/news", "pillarName": "News"}, {"id": "society/2013/oct/30/frank-mckenna-obituary", "type": "article", "sectionId": "society", "sectionName": "Society", "webPublicationDate": "2013-10-30T17:32:38Z", "webTitle": "Frank McKenna obituary", "webUrl": "https://www.theguardian.com/society/2013/oct/30/frank-mckenna-obituary", "apiUrl": "https://content.guardianapis.com/society/2013/oct/30/frank-mckenna-obituary", "isHosted": false, "pillarId": "pillar/news", "pillarName": "News"}, {"id": "higher-education-network/blog/2013/oct/30/university-staff-why-we-are-striking-higher-education-pay", "type": "article", "sectionId": "education", "sectionName": "Education", "webPublicationDate": "2013-10-30T17:16:00Z", "webTitle": "University staff: why we are striking", "webUrl": "https://www.theguardian.com/higher-education-network/blog/2013/oct/30/university-staff-why-we-are-striking-higher-education-pay", "apiUrl": "https://content.guardianapis.com/higher-education-network/blog/2013/oct/30/university-staff-why-we-are-striking-higher-education-pay", "isHosted": false, "pillarId": "pillar/news", "pillarName": "News"}, {"id": "politics/video/2013/oct/30/boris-johnson-defends-guardian-video1", "type": "video", "sectionId": "politics", "sectionName": "Politics", "webPublicationDate": "2013-10-30T17:11:00Z", "webTitle": "Boris Johnson defends Guardian over NSA revelations - video", "webUrl": "https://www.theguardian.com/politics/video/2013/oct/30/boris-johnson-defends-guardian-video1", "apiUrl": "https://content.guardianapis.com/politics/video/2013/oct/30/boris-johnson-defends-guardian-video1", "isHosted": false, "pillarId": "pillar/news", "pillarName": "News"}, {"id": "politics/2013/oct/30/boris-johnson-defends-guardian-nsa", "type": "article", "sectionId": "politics", "sectionName": "Politics", "webPublicationDate": "2013-10-30T17:07:00Z", "webTitle": "Boris Johnson defends Guardian over NSA revelations", "webUrl": "https://www.theguardian.com/politics/2013/oct/30/boris-johnson-defends-guardian-nsa", "apiUrl": "https://content.guardianapis.com/politics/2013/oct/30/boris-johnson-defends-guardian-nsa", "isHosted": false, "pillarId": "pillar/news", "pillarName": "News"}, {"id": "local-government-network/2013/oct/30/councils-role-education-live-discussion", "type": "article", "sectionId": "public-leaders-network", "sectionName": "Public Leaders Network", "webPublicationDate": "2013-10-30T16:51:19Z", "webTitle": "What role should councils play in education? \u2013 live discussion", "webUrl": "https://www.theguardian.com/local-government-network/2013/oct/30/councils-role-education-live-discussion", "apiUrl": "https://content.guardianapis.com/local-government-network/2013/oct/30/councils-role-education-live-discussion", "isHosted": false, "pillarId": "pillar/news", "pillarName": "News"}, {"id": "politics/2013/oct/30/pmqs-nick-clegg-press-conference-politics-live-cameron-milliband", "type": "liveblog", "sectionId": "politics", "sectionName": "Politics", "webPublicationDate": "2013-10-30T16:19:40Z", "webTitle": "PMQs and Nick Clegg press conference \u2013 politics live blog", "webUrl": "https://www.theguardian.com/politics/2013/oct/30/pmqs-nick-clegg-press-conference-politics-live-cameron-milliband", "apiUrl": "https://content.guardianapis.com/politics/2013/oct/30/pmqs-nick-clegg-press-conference-politics-live-cameron-milliband", "isHosted": false, "pillarId": "pillar/news", "pillarName": "News"}, {"id": "commentisfree/2013/oct/30/poundland-case-workfare-forced-labour-employers-workers", "type": "article", "sectionId": "commentisfree", "sectionName": "Opinion", "webPublicationDate": "2013-10-30T15:37:05Z", "webTitle": "The Poundland ruling leaves the forced labour of workfare unchallenged | Richard Seymour", "webUrl": "https://www.theguardian.com/commentisfree/2013/oct/30/poundland-case-workfare-forced-labour-employers-workers", "apiUrl": "https://content.guardianapis.com/commentisfree/2013/oct/30/poundland-case-workfare-forced-labour-employers-workers", "isHosted": false, "pillarId": "pillar/opinion", "pillarName": "Opinion"}, {"id": "politics/video/2013/oct/30/david-cameron-ed-miliband-energy-prices-pmqs-video", "type": "video", "sectionId": "politics", "sectionName": "Politics", "webPublicationDate": "2013-10-30T15:17:00Z", "webTitle": "David Cameron and Ed Miliband clash over energy prices at PMQs - video", "webUrl": "https://www.theguardian.com/politics/video/2013/oct/30/david-cameron-ed-miliband-energy-prices-pmqs-video", "apiUrl": "https://content.guardianapis.com/politics/video/2013/oct/30/david-cameron-ed-miliband-energy-prices-pmqs-video", "isHosted": false, "pillarId": "pillar/news", "pillarName": "News"}, {"id": "society/2013/oct/30/ealing-charing-cross-accident-emergency-jeremy-hunt", "type": "article", "sectionId": "society", "sectionName": "Society", "webPublicationDate": "2013-10-30T14:58:39Z", "webTitle": "Ealing and Charing Cross A&E services to be retained, says Jeremy Hunt", "webUrl": "https://www.theguardian.com/society/2013/oct/30/ealing-charing-cross-accident-emergency-jeremy-hunt", "apiUrl": "https://content.guardianapis.com/society/2013/oct/30/ealing-charing-cross-accident-emergency-jeremy-hunt", "isHosted": false, "pillarId": "pillar/news", "pillarName": "News"}, {"id": "politics/2013/oct/30/david-cameron-inquiry-competition-energy-industry", "type": "article", "sectionId": "politics", "sectionName": "Politics", "webPublicationDate": "2013-10-30T14:51:16Z", "webTitle": "Cameron calls for immediate inquiry into competition in energy industry", "webUrl": "https://www.theguardian.com/politics/2013/oct/30/david-cameron-inquiry-competition-energy-industry", "apiUrl": "https://content.guardianapis.com/politics/2013/oct/30/david-cameron-inquiry-competition-energy-industry", "isHosted": false, "pillarId": "pillar/news", "pillarName": "News"}, {"id": "uk-news/2013/oct/30/police-federation-plebgate-review", "type": "article", "sectionId": "uk-news", "sectionName": "UK news", "webPublicationDate": "2013-10-30T14:20:58Z", "webTitle": "Police Federation's legitimacy queried in tough post-plebgate review", "webUrl": "https://www.theguardian.com/uk-news/2013/oct/30/police-federation-plebgate-review", "apiUrl": "https://content.guardianapis.com/uk-news/2013/oct/30/police-federation-plebgate-review", "isHosted": false, "pillarId": "pillar/news", "pillarName": "News"}, {"id": "local-government-network/2013/oct/30/data-breaches-local-government", "type": "article", "sectionId": "public-leaders-network", "sectionName": "Public Leaders Network", "webPublicationDate": "2013-10-30T14:00:00Z", "webTitle": "Data leaks in local government: where are the cracks in your system?", "webUrl": "https://www.theguardian.com/local-government-network/2013/oct/30/data-breaches-local-government", "apiUrl": "https://content.guardianapis.com/local-government-network/2013/oct/30/data-breaches-local-government", "isHosted": false, "pillarId": "pillar/news", "pillarName": "News"}, {"id": "uk-news/davehillblog/2013/oct/30/what-lies-behind-southwark-3m-council-house-sale", "type": "article", "sectionId": "uk-news", "sectionName": "UK news", "webPublicationDate": "2013-10-30T13:54:00Z", "webTitle": "London housing crisis: what lies behind the \u00a33m Southwark council house sale?", "webUrl": "https://www.theguardian.com/uk-news/davehillblog/2013/oct/30/what-lies-behind-southwark-3m-council-house-sale", "apiUrl": "https://content.guardianapis.com/uk-news/davehillblog/2013/oct/30/what-lies-behind-southwark-3m-council-house-sale", "isHosted": false, "pillarId": "pillar/news", "pillarName": "News"}, {"id": "media/2013/oct/30/newspapers-injuction-press-regulation-royal-charter", "type": "article", "sectionId": "media", "sectionName": "Media", "webPublicationDate": "2013-10-30T13:10:45Z", "webTitle": "Newspapers' bid for injunction against press regulation royal charter fails", "webUrl": "https://www.theguardian.com/media/2013/oct/30/newspapers-injuction-press-regulation-royal-charter", "apiUrl": "https://content.guardianapis.com/media/2013/oct/30/newspapers-injuction-press-regulation-royal-charter", "isHosted": false, "pillarId": "pillar/news", "pillarName": "News"}, {"id": "business/video/2013/oct/30/poundland-back-to-work-minister-video", "type": "video", "sectionId": "business", "sectionName": "Business", "webPublicationDate": "2013-10-30T12:55:00Z", "webTitle": "Poundland case: back-to-work schemes not slave labour, says minister - video", "webUrl": "https://www.theguardian.com/business/video/2013/oct/30/poundland-back-to-work-minister-video", "apiUrl": "https://content.guardianapis.com/business/video/2013/oct/30/poundland-back-to-work-minister-video", "isHosted": false, "pillarId": "pillar/news", "pillarName": "News"}, {"id": "business/2013/oct/30/household-spending-income-fuel-essentials-ons-energy", "type": "article", "sectionId": "business", "sectionName": "Business", "webPublicationDate": "2013-10-30T12:23:01Z", "webTitle": "Households spending bigger share of income on fuel and other essentials", "webUrl": "https://www.theguardian.com/business/2013/oct/30/household-spending-income-fuel-essentials-ons-energy", "apiUrl": "https://content.guardianapis.com/business/2013/oct/30/household-spending-income-fuel-essentials-ons-energy", "isHosted": false, "pillarId": "pillar/news", "pillarName": "News"}, {"id": "politics/2013/oct/30/hugh-muirs-diary-chris-grayling", "type": "article", "sectionId": "politics", "sectionName": "Politics", "webPublicationDate": "2013-10-30T11:08:07Z", "webTitle": "Hugh Muir's diary: urgent appeal \u2026 will anyone send good news to Chris Grayling?", "webUrl": "https://www.theguardian.com/politics/2013/oct/30/hugh-muirs-diary-chris-grayling", "apiUrl": "https://content.guardianapis.com/politics/2013/oct/30/hugh-muirs-diary-chris-grayling", "isHosted": false, "pillarId": "pillar/news", "pillarName": "News"}, {"id": "society/2013/oct/30/britain-inequality-public-health-timebomb-marmot", "type": "article", "sectionId": "society", "sectionName": "Society", "webPublicationDate": "2013-10-30T10:00:03Z", "webTitle": "Britain told social inequality has created 'public health timebomb'", "webUrl": "https://www.theguardian.com/society/2013/oct/30/britain-inequality-public-health-timebomb-marmot", "apiUrl": "https://content.guardianapis.com/society/2013/oct/30/britain-inequality-public-health-timebomb-marmot", "isHosted": false, "pillarId": "pillar/news", "pillarName": "News"}, {"id": "commentisfree/cartoon/2013/oct/30/steve-bell-if-dave-lookin-frisky", "type": "picture", "sectionId": "commentisfree", "sectionName": "Opinion", "webPublicationDate": "2013-10-30T08:00:00Z", "webTitle": "Steve Bell's If ... Dave, you're lookin' frisky", "webUrl": "https://www.theguardian.com/commentisfree/cartoon/2013/oct/30/steve-bell-if-dave-lookin-frisky", "apiUrl": "https://content.guardianapis.com/commentisfree/cartoon/2013/oct/30/steve-bell-if-dave-lookin-frisky", "isHosted": false, "pillarId": "pillar/opinion", "pillarName": "Opinion"}, {"id": "local-government-network/2013/oct/30/boris-johnson-e-bikes-london-electric", "type": "article", "sectionId": "public-leaders-network", "sectionName": "Public Leaders Network", "webPublicationDate": "2013-10-30T07:59:00Z", "webTitle": "Boris Johnson's e-bikes: before going electric we need to go back to basics", "webUrl": "https://www.theguardian.com/local-government-network/2013/oct/30/boris-johnson-e-bikes-london-electric", "apiUrl": "https://content.guardianapis.com/local-government-network/2013/oct/30/boris-johnson-e-bikes-london-electric", "isHosted": false, "pillarId": "pillar/news", "pillarName": "News"}, {"id": "politics/2013/oct/30/supreme-court-poundland-workfare", "type": "article", "sectionId": "politics", "sectionName": "Politics", "webPublicationDate": "2013-10-30T05:27:25Z", "webTitle": "Supreme court to make final ruling on Poundland case", "webUrl": "https://www.theguardian.com/politics/2013/oct/30/supreme-court-poundland-workfare", "apiUrl": "https://content.guardianapis.com/politics/2013/oct/30/supreme-court-poundland-workfare", "isHosted": false, "pillarId": "pillar/news", "pillarName": "News"}, {"id": "society/2013/oct/30/childcare-ratios-survey", "type": "article", "sectionId": "education", "sectionName": "Education", "webPublicationDate": "2013-10-30T00:02:01Z", "webTitle": "Online survey hints at new move to reduce childcare ratio", "webUrl": "https://www.theguardian.com/society/2013/oct/30/childcare-ratios-survey", "apiUrl": "https://content.guardianapis.com/society/2013/oct/30/childcare-ratios-survey", "isHosted": false, "pillarId": "pillar/news", "pillarName": "News"}, {"id": "money/2013/oct/30/pension-scheme-charges-cap-ministers-consultation", "type": "article", "sectionId": "money", "sectionName": "Money", "webPublicationDate": "2013-10-30T00:02:00Z", "webTitle": "Pension scheme charges cap proposed by ministers", "webUrl": "https://www.theguardian.com/money/2013/oct/30/pension-scheme-charges-cap-ministers-consultation", "apiUrl": "https://content.guardianapis.com/money/2013/oct/30/pension-scheme-charges-cap-ministers-consultation", "isHosted": false, "pillarId": "pillar/lifestyle", "pillarName": "Lifestyle"}, {"id": "commentisfree/cartoon/2013/oct/29/immigration-infrastructure", "type": "picture", "sectionId": "commentisfree", "sectionName": "Opinion", "webPublicationDate": "2013-10-29T23:05:00Z", "webTitle": "Steve Bell on immigration and infrastructure \u2013 cartoon", "webUrl": "https://www.theguardian.com/commentisfree/cartoon/2013/oct/29/immigration-infrastructure", "apiUrl": "https://content.guardianapis.com/commentisfree/cartoon/2013/oct/29/immigration-infrastructure", "isHosted": false, "pillarId": "pillar/opinion", "pillarName": "Opinion"}, {"id": "business/2013/oct/29/revaluation-business-rates-delayed-tory", "type": "article", "sectionId": "business", "sectionName": "Business", "webPublicationDate": "2013-10-29T22:42:12Z", "webTitle": "Revaluation of business rates delayed 'to protect Tory areas'", "webUrl": "https://www.theguardian.com/business/2013/oct/29/revaluation-business-rates-delayed-tory", "apiUrl": "https://content.guardianapis.com/business/2013/oct/29/revaluation-business-rates-delayed-tory", "isHosted": false, "pillarId": "pillar/news", "pillarName": "News"}, {"id": "world/2013/oct/29/nsa-files-us-intelligence-officials-testify-in-congress-live-coverage", "type": "liveblog", "sectionId": "world", "sectionName": "World news", "webPublicationDate": "2013-10-29T21:51:54Z", "webTitle": "Intelligence officials defend surveillance tactics in Congressional hearing - live", "webUrl": "https://www.theguardian.com/world/2013/oct/29/nsa-files-us-intelligence-officials-testify-in-congress-live-coverage", "apiUrl": "https://content.guardianapis.com/world/2013/oct/29/nsa-files-us-intelligence-officials-testify-in-congress-live-coverage", "isHosted": false, "pillarId": "pillar/news", "pillarName": "News"}, {"id": "business/2013/oct/29/energy-firms-overcharge-accusation", "type": "article", "sectionId": "business", "sectionName": "Business", "webPublicationDate": "2013-10-29T21:14:44Z", "webTitle": "Energy firms 'overcharge by \u00a33.7bn a year'", "webUrl": "https://www.theguardian.com/business/2013/oct/29/energy-firms-overcharge-accusation", "apiUrl": "https://content.guardianapis.com/business/2013/oct/29/energy-firms-overcharge-accusation", "isHosted": false, "pillarId": "pillar/news", "pillarName": "News"}, {"id": "society/2013/oct/29/race-bottom-social-care-provision", "type": "article", "sectionId": "society", "sectionName": "Society", "webPublicationDate": "2013-10-29T21:00:00Z", "webTitle": "Letters: A race to the bottom in social care provision", "webUrl": "https://www.theguardian.com/society/2013/oct/29/race-bottom-social-care-provision", "apiUrl": "https://content.guardianapis.com/society/2013/oct/29/race-bottom-social-care-provision", "isHosted": false, "pillarId": "pillar/news", "pillarName": "News"}, {"id": "uk-news/2013/oct/29/hs2-labour-support-rail-costs", "type": "article", "sectionId": "uk-news", "sectionName": "UK news", "webPublicationDate": "2013-10-29T21:00:00Z", "webTitle": "HS2: Labour to support rail project if costs brought down", "webUrl": "https://www.theguardian.com/uk-news/2013/oct/29/hs2-labour-support-rail-costs", "apiUrl": "https://content.guardianapis.com/uk-news/2013/oct/29/hs2-labour-support-rail-costs", "isHosted": false, "pillarId": "pillar/news", "pillarName": "News"}, {"id": "business/2013/oct/29/post-office-royal-mail-staff-to-strike", "type": "article", "sectionId": "business", "sectionName": "Business", "webPublicationDate": "2013-10-29T20:41:14Z", "webTitle": "Post Office and Royal Mail staff to strike", "webUrl": "https://www.theguardian.com/business/2013/oct/29/post-office-royal-mail-staff-to-strike", "apiUrl": "https://content.guardianapis.com/business/2013/oct/29/post-office-royal-mail-staff-to-strike", "isHosted": false, "pillarId": "pillar/news", "pillarName": "News"}, {"id": "commentisfree/2013/oct/29/grip-privatisation-vital-services-ineos-energy", "type": "article", "sectionId": "commentisfree", "sectionName": "Opinion", "webPublicationDate": "2013-10-29T20:00:18Z", "webTitle": "The grip of privatisation on our vital services has to be broken | Seumas Milne", "webUrl": "https://www.theguardian.com/commentisfree/2013/oct/29/grip-privatisation-vital-services-ineos-energy", "apiUrl": "https://content.guardianapis.com/commentisfree/2013/oct/29/grip-privatisation-vital-services-ineos-energy", "isHosted": false, "pillarId": "pillar/opinion", "pillarName": "Opinion"}, {"id": "commentisfree/2013/oct/29/bbc-jibe-grant-shapps-press-regulation", "type": "article", "sectionId": "commentisfree", "sectionName": "Opinion", "webPublicationDate": "2013-10-29T19:35:01Z", "webTitle": "Not just another BBC jibe | Jackie Ashley", "webUrl": "https://www.theguardian.com/commentisfree/2013/oct/29/bbc-jibe-grant-shapps-press-regulation", "apiUrl": "https://content.guardianapis.com/commentisfree/2013/oct/29/bbc-jibe-grant-shapps-press-regulation", "isHosted": false, "pillarId": "pillar/opinion", "pillarName": "Opinion"}, {"id": "uk-news/2013/oct/29/hs2-figures-department-for-transport", "type": "article", "sectionId": "business", "sectionName": "Business", "webPublicationDate": "2013-10-29T18:52:04Z", "webTitle": "HS2 figures threaten to derail DfT's business strategy", "webUrl": "https://www.theguardian.com/uk-news/2013/oct/29/hs2-figures-department-for-transport", "apiUrl": "https://content.guardianapis.com/uk-news/2013/oct/29/hs2-figures-department-for-transport", "isHosted": false, "pillarId": "pillar/news", "pillarName": "News"}]}}