{"response": {"status": "ok", "userTier": "developer", "total": 134094, "startIndex": 1, "pageSize": 50, "currentPage": 1, "pages": 2682, "orderBy": "newest", "results": [{"id": "news/datablog/2012/oct/30/stagnation-britain-charts", "type": "article", "sectionId": "news", "sectionName": "News", "webPublicationDate": "2012-10-30T23:48:38Z", "webTitle": "Charts that tell the tale of stagnation Britain", "webUrl": "https://www.theguardian.com/news/datablog/2012/oct/30/stagnation-britain-charts", "apiUrl": "https://content.guardianapis.com/news/datablog/2012/oct/30/stagnation-britain-charts", "isHosted": false, "pillarId": "pillar/news", "pillarName": "News"}, {"id": "politics/2012/oct/30/hugh-muir-diary-grant-shapps", "type": "article", "sectionId": "politics", "sectionName": "Politics", "webPublicationDate": "2012-10-30T22:50:00Z", "webTitle": "Hugh Muir's diary", "webUrl": "https://www.theguardian.com/politics/2012/oct/30/hugh-muir-diary-grant-shapps", "apiUrl": "https://content.guardianapis.com/politics/2012/oct/30/hugh-muir-diary-grant-shapps", "isHosted": false, "pillarId": "pillar/news", "pillarName": "News"}, {"id": "commentisfree/2012/oct/30/david-cameron-european-policy-budget", "type": "article", "sectionId": "commentisfree", "sectionName": "Opinion", "webPublicationDate": "2012-10-30T22:26:15Z", "webTitle": "EU budget: Britain's race to the bottom | Editorial", "webUrl": "https://www.theguardian.com/commentisfree/2012/oct/30/david-cameron-european-policy-budget", "apiUrl": "https://content.guardianapis.com/commentisfree/2012/oct/30/david-cameron-european-policy-budget", "isHosted": false, "pillarId": "pillar/opinion", "pillarName": "Opinion"}, {"id": "world/2012/oct/30/blair-aide-bahrain-conflict-resolution", "type": "article", "sectionId": "world", "sectionName": "World news", "webPublicationDate": "2012-10-30T22:26:00Z", "webTitle": "Ex-Blair aide advising Bahrain on conflict resolution", "webUrl": "https://www.theguardian.com/world/2012/oct/30/blair-aide-bahrain-conflict-resolution", "apiUrl": "https://content.guardianapis.com/world/2012/oct/30/blair-aide-bahrain-conflict-resolution", "isHosted": false, "pillarId": "pillar/news", "pillarName": "News"}, {"id": "commentisfree/2012/oct/30/roll-call-corporate-rogues-tax", "type": "article", "sectionId": "commentisfree", "sectionName": "Opinion", "webPublicationDate": "2012-10-30T22:20:00Z", "webTitle": "A roll call of corporate rogues who are milking the country | Seumas Milne", "webUrl": "https://www.theguardian.com/commentisfree/2012/oct/30/roll-call-corporate-rogues-tax", "apiUrl": "https://content.guardianapis.com/commentisfree/2012/oct/30/roll-call-corporate-rogues-tax", "isHosted": false, "pillarId": "pillar/opinion", "pillarName": "Opinion"}, {"id": "business/2012/oct/30/economic-growth-commission-on-living-standards", "type": "article", "sectionId": "business", "sectionName": "Business", "webPublicationDate": "2012-10-30T22:15:00Z", "webTitle": "Britain stands at equality crossroads, according to landmark report", "webUrl": "https://www.theguardian.com/business/2012/oct/30/economic-growth-commission-on-living-standards", "apiUrl": "https://content.guardianapis.com/business/2012/oct/30/economic-growth-commission-on-living-standards", "isHosted": false, "pillarId": "pillar/news", "pillarName": "News"}, {"id": "money/2012/oct/30/blueprint-supporting-strivers", "type": "article", "sectionId": "money", "sectionName": "Money", "webPublicationDate": "2012-10-30T22:15:00Z", "webTitle": "A blueprint for supporting the strivers \u2013 or barely scratching the surface?", "webUrl": "https://www.theguardian.com/money/2012/oct/30/blueprint-supporting-strivers", "apiUrl": "https://content.guardianapis.com/money/2012/oct/30/blueprint-supporting-strivers", "isHosted": false, "pillarId": "pillar/lifestyle", "pillarName": "Lifestyle"}, {"id": "money/2012/oct/30/minster-under-fire-over-energy-tariff-pledge", "type": "article", "sectionId": "money", "sectionName": "Money", "webPublicationDate": "2012-10-30T21:10:47Z", "webTitle": "Minister under fire over David Cameron's energy tariff pledge", "webUrl": "https://www.theguardian.com/money/2012/oct/30/minster-under-fire-over-energy-tariff-pledge", "apiUrl": "https://content.guardianapis.com/money/2012/oct/30/minster-under-fire-over-energy-tariff-pledge", "isHosted": false, "pillarId": "pillar/lifestyle", "pillarName": "Lifestyle"}, {"id": "law/2012/oct/30/human-conditions-free-range-workers", "type": "article", "sectionId": "law", "sectionName": "Law", "webPublicationDate": "2012-10-30T21:00:02Z", "webTitle": "Letters: Humane conditions for free-range workers", "webUrl": "https://www.theguardian.com/law/2012/oct/30/human-conditions-free-range-workers", "apiUrl": "https://content.guardianapis.com/law/2012/oct/30/human-conditions-free-range-workers", "isHosted": false, "pillarId": "pillar/news", "pillarName": "News"}, {"id": "world/2012/oct/30/more-reasons-defend-indefensible", "type": "article", "sectionId": "world", "sectionName": "World news", "webPublicationDate": "2012-10-30T20:59:01Z", "webTitle": "Letters: More reasons not to defend the indefensible", "webUrl": "https://www.theguardian.com/world/2012/oct/30/more-reasons-defend-indefensible", "apiUrl": "https://content.guardianapis.com/world/2012/oct/30/more-reasons-defend-indefensible", "isHosted": false, "pillarId": "pillar/news", "pillarName": "News"}, {"id": "culture/2012/oct/30/arts-council-england-jobs-cut", "type": "article", "sectionId": "culture", "sectionName": "Culture", "webPublicationDate": "2012-10-30T20:14:52Z", "webTitle": "Arts Council England jobs to be cut", "webUrl": "https://www.theguardian.com/culture/2012/oct/30/arts-council-england-jobs-cut", "apiUrl": "https://content.guardianapis.com/culture/2012/oct/30/arts-council-england-jobs-cut", "isHosted": false, "pillarId": "pillar/arts", "pillarName": "Arts"}, {"id": "business/economics-blog/2012/oct/30/michael-heseltine-growth-report", "type": "article", "sectionId": "politics", "sectionName": "Politics", "webPublicationDate": "2012-10-30T19:54:40Z", "webTitle": "Don't bank on Michael Heseltine's growth report changing policy | Larry Elliott", "webUrl": "https://www.theguardian.com/business/economics-blog/2012/oct/30/michael-heseltine-growth-report", "apiUrl": "https://content.guardianapis.com/business/economics-blog/2012/oct/30/michael-heseltine-growth-report", "isHosted": false, "pillarId": "pillar/news", "pillarName": "News"}, {"id": "commentisfree/2012/oct/30/david-cameron-pro-eu-charade", "type": "article", "sectionId": "commentisfree", "sectionName": "Opinion", "webPublicationDate": "2012-10-30T19:36:53Z", "webTitle": "David Cameron's pro-EU charade cannot go on much longer | Simon Jenkins", "webUrl": "https://www.theguardian.com/commentisfree/2012/oct/30/david-cameron-pro-eu-charade", "apiUrl": "https://content.guardianapis.com/commentisfree/2012/oct/30/david-cameron-pro-eu-charade", "isHosted": false, "pillarId": "pillar/opinion", "pillarName": "Opinion"}, {"id": "politics/2012/oct/30/sketch-simon-hoggart-britain-power", "type": "article", "sectionId": "politics", "sectionName": "Politics", "webPublicationDate": "2012-10-30T19:19:58Z", "webTitle": "Bleats from a small island", "webUrl": "https://www.theguardian.com/politics/2012/oct/30/sketch-simon-hoggart-britain-power", "apiUrl": "https://content.guardianapis.com/politics/2012/oct/30/sketch-simon-hoggart-britain-power", "isHosted": false, "pillarId": "pillar/news", "pillarName": "News"}, {"id": "politics/2012/oct/30/thameslink-trains-west-coast-fiasco", "type": "article", "sectionId": "politics", "sectionName": "Politics", "webPublicationDate": "2012-10-30T18:52:48Z", "webTitle": "Thameslink deal under scrutiny as government considers options", "webUrl": "https://www.theguardian.com/politics/2012/oct/30/thameslink-trains-west-coast-fiasco", "apiUrl": "https://content.guardianapis.com/politics/2012/oct/30/thameslink-trains-west-coast-fiasco", "isHosted": false, "pillarId": "pillar/news", "pillarName": "News"}, {"id": "uk/2012/oct/30/green-on-blue-attacks-uk", "type": "article", "sectionId": "uk-news", "sectionName": "UK news", "webPublicationDate": "2012-10-30T18:46:52Z", "webTitle": "'Green-on-blue' attacks are difficult to deal with, UK commander tells MPs", "webUrl": "https://www.theguardian.com/uk/2012/oct/30/green-on-blue-attacks-uk", "apiUrl": "https://content.guardianapis.com/uk/2012/oct/30/green-on-blue-attacks-uk", "isHosted": false, "pillarId": "pillar/news", "pillarName": "News"}, {"id": "society/2012/oct/30/essex-police-criticised-domestic-murder", "type": "article", "sectionId": "society", "sectionName": "Society", "webPublicationDate": "2012-10-30T18:26:45Z", "webTitle": "Police criticised over murder of Jeanette Goodwin", "webUrl": "https://www.theguardian.com/society/2012/oct/30/essex-police-criticised-domestic-murder", "apiUrl": "https://content.guardianapis.com/society/2012/oct/30/essex-police-criticised-domestic-murder", "isHosted": false, "pillarId": "pillar/news", "pillarName": "News"}, {"id": "society/davehillblog/audio/2012/oct/30/earls-court-regeneration-nick-johnson-hammersmith-and-fulham", "type": "audio", "sectionId": "society", "sectionName": "Society", "webPublicationDate": "2012-10-30T17:42:00Z", "webTitle": "Earls Court project audio: \"Absolutely,\" it would be possible to give you two flats", "webUrl": "https://www.theguardian.com/society/davehillblog/audio/2012/oct/30/earls-court-regeneration-nick-johnson-hammersmith-and-fulham", "apiUrl": "https://content.guardianapis.com/society/davehillblog/audio/2012/oct/30/earls-court-regeneration-nick-johnson-hammersmith-and-fulham", "isHosted": false, "pillarId": "pillar/news", "pillarName": "News"}, {"id": "environment/2012/oct/30/energy-strategy-renewables", "type": "article", "sectionId": "environment", "sectionName": "Environment", "webPublicationDate": "2012-10-30T16:44:10Z", "webTitle": "Our future energy strategy cannot depend on renewables alone | John Hayes", "webUrl": "https://www.theguardian.com/environment/2012/oct/30/energy-strategy-renewables", "apiUrl": "https://content.guardianapis.com/environment/2012/oct/30/energy-strategy-renewables", "isHosted": false, "pillarId": "pillar/news", "pillarName": "News"}, {"id": "books/2012/oct/30/event-simon-hoggart", "type": "article", "sectionId": "books", "sectionName": "Books", "webPublicationDate": "2012-10-30T15:51:00Z", "webTitle": "An evening with Simon Hoggart", "webUrl": "https://www.theguardian.com/books/2012/oct/30/event-simon-hoggart", "apiUrl": "https://content.guardianapis.com/books/2012/oct/30/event-simon-hoggart", "isHosted": false, "pillarId": "pillar/arts", "pillarName": "Arts"}, {"id": "society/2012/oct/30/dan-poulter-nhs-social-care", "type": "article", "sectionId": "society", "sectionName": "Society", "webPublicationDate": "2012-10-30T14:07:35Z", "webTitle": "Dan Poulter: NHS and social care integration is 'the holy grail'", "webUrl": "https://www.theguardian.com/society/2012/oct/30/dan-poulter-nhs-social-care", "apiUrl": "https://content.guardianapis.com/society/2012/oct/30/dan-poulter-nhs-social-care", "isHosted": false, "pillarId": "pillar/news", "pillarName": "News"}, {"id": "world/2012/oct/30/eu-budget-challenging-no-10", "type": "article", "sectionId": "world", "sectionName": "World news", "webPublicationDate": "2012-10-30T13:42:48Z", "webTitle": "Getting EU members to agree on budget will be challenging, says No 10", "webUrl": "https://www.theguardian.com/world/2012/oct/30/eu-budget-challenging-no-10", "apiUrl": "https://content.guardianapis.com/world/2012/oct/30/eu-budget-challenging-no-10", "isHosted": false, "pillarId": "pillar/news", "pillarName": "News"}, {"id": "politics/2012/oct/30/david-cameron-adviser-lobbyist-wonga", "type": "article", "sectionId": "politics", "sectionName": "Politics", "webPublicationDate": "2012-10-30T13:30:07Z", "webTitle": "Cameron adviser to become lobbyist for Wonga", "webUrl": "https://www.theguardian.com/politics/2012/oct/30/david-cameron-adviser-lobbyist-wonga", "apiUrl": "https://content.guardianapis.com/politics/2012/oct/30/david-cameron-adviser-lobbyist-wonga", "isHosted": false, "pillarId": "pillar/news", "pillarName": "News"}, {"id": "politics/davehillblog/2012/oct/30/earls-court-project-capco-richard-powell", "type": "article", "sectionId": "politics", "sectionName": "Politics", "webPublicationDate": "2012-10-30T12:53:00Z", "webTitle": "Earls Earls Court project: what's in it for Boris Johnson's \"struggling middle\"?Court project: what's in it for the middle?", "webUrl": "https://www.theguardian.com/politics/davehillblog/2012/oct/30/earls-court-project-capco-richard-powell", "apiUrl": "https://content.guardianapis.com/politics/davehillblog/2012/oct/30/earls-court-project-capco-richard-powell", "isHosted": false, "pillarId": "pillar/news", "pillarName": "News"}, {"id": "uk/the-northerner/2012/oct/30/police-and-crime-commissioners-police", "type": "article", "sectionId": "uk-news", "sectionName": "UK news", "webPublicationDate": "2012-10-30T12:33:47Z", "webTitle": "A bad policy at a bad time. But it's here and Labour's candidates merit your support", "webUrl": "https://www.theguardian.com/uk/the-northerner/2012/oct/30/police-and-crime-commissioners-police", "apiUrl": "https://content.guardianapis.com/uk/the-northerner/2012/oct/30/police-and-crime-commissioners-police", "isHosted": false, "pillarId": "pillar/news", "pillarName": "News"}, {"id": "society/2012/oct/30/how-prolifers-hijacked-paralympics", "type": "article", "sectionId": "society", "sectionName": "Society", "webPublicationDate": "2012-10-30T12:30:01Z", "webTitle": "How pro-lifers hijacked the Paralympics", "webUrl": "https://www.theguardian.com/society/2012/oct/30/how-prolifers-hijacked-paralympics", "apiUrl": "https://content.guardianapis.com/society/2012/oct/30/how-prolifers-hijacked-paralympics", "isHosted": false, "pillarId": "pillar/news", "pillarName": "News"}, {"id": "uk/the-northerner/2012/oct/30/cities-and-development-localgovernment", "type": "article", "sectionId": "uk-news", "sectionName": "UK news", "webPublicationDate": "2012-10-30T11:07:00Z", "webTitle": "New City Deals need to involve local people", "webUrl": "https://www.theguardian.com/uk/the-northerner/2012/oct/30/cities-and-development-localgovernment", "apiUrl": "https://content.guardianapis.com/uk/the-northerner/2012/oct/30/cities-and-development-localgovernment", "isHosted": false, "pillarId": "pillar/news", "pillarName": "News"}, {"id": "politics/blog/2012/oct/30/politics-live-readers-edition", "type": "article", "sectionId": "politics", "sectionName": "Politics", "webPublicationDate": "2012-10-30T09:39:44Z", "webTitle": "Politics live: readers' edition - Tuesday 30 October", "webUrl": "https://www.theguardian.com/politics/blog/2012/oct/30/politics-live-readers-edition", "apiUrl": "https://content.guardianapis.com/politics/blog/2012/oct/30/politics-live-readers-edition", "isHosted": false, "pillarId": "pillar/news", "pillarName": "News"}, {"id": "commentisfree/2012/oct/30/osborne-isnt-working-rebuild-economy", "type": "article", "sectionId": "commentisfree", "sectionName": "Opinion", "webPublicationDate": "2012-10-30T09:00:03Z", "webTitle": "Osborne isn't working \u2013 how do we rebuild the economy? | Matthew Oakeshott", "webUrl": "https://www.theguardian.com/commentisfree/2012/oct/30/osborne-isnt-working-rebuild-economy", "apiUrl": "https://content.guardianapis.com/commentisfree/2012/oct/30/osborne-isnt-working-rebuild-economy", "isHosted": false, "pillarId": "pillar/opinion", "pillarName": "Opinion"}, {"id": "politics/2012/oct/30/louise-mensch-austin-mitchell-twitter", "type": "article", "sectionId": "politics", "sectionName": "Politics", "webPublicationDate": "2012-10-30T00:39:34Z", "webTitle": "Labour MP defends 'ironic' Louise Mensch tweet", "webUrl": "https://www.theguardian.com/politics/2012/oct/30/louise-mensch-austin-mitchell-twitter", "apiUrl": "https://content.guardianapis.com/politics/2012/oct/30/louise-mensch-austin-mitchell-twitter", "isHosted": false, "pillarId": "pillar/news", "pillarName": "News"}, {"id": "politics/2012/oct/30/welfare-benefits", "type": "article", "sectionId": "politics", "sectionName": "Politics", "webPublicationDate": "2012-10-30T00:01:06Z", "webTitle": "Universal credit will hit low-income families, charity warns", "webUrl": "https://www.theguardian.com/politics/2012/oct/30/welfare-benefits", "apiUrl": "https://content.guardianapis.com/politics/2012/oct/30/welfare-benefits", "isHosted": false, "pillarId": "pillar/news", "pillarName": "News"}, {"id": "uk/2012/oct/30/offenders-meet-victims-plan", "type": "article", "sectionId": "uk-news", "sectionName": "UK news", "webPublicationDate": "2012-10-30T00:01:04Z", "webTitle": "More offenders to meet their victims under plan to expand restorative justice", "webUrl": "https://www.theguardian.com/uk/2012/oct/30/offenders-meet-victims-plan", "apiUrl": "https://content.guardianapis.com/uk/2012/oct/30/offenders-meet-victims-plan", "isHosted": false, "pillarId": "pillar/news", "pillarName": "News"}, {"id": "society/2012/oct/30/mps-health-nhs-privatised-hospitals", "type": "article", "sectionId": "society", "sectionName": "Society", "webPublicationDate": "2012-10-30T00:00:02Z", "webTitle": "MPs criticise department of health over bankrupt hospitals", "webUrl": "https://www.theguardian.com/society/2012/oct/30/mps-health-nhs-privatised-hospitals", "apiUrl": "https://content.guardianapis.com/society/2012/oct/30/mps-health-nhs-privatised-hospitals", "isHosted": false, "pillarId": "pillar/news", "pillarName": "News"}, {"id": "politics/2012/oct/29/hugh-muir-diary-conrad-black", "type": "article", "sectionId": "politics", "sectionName": "Politics", "webPublicationDate": "2012-10-29T22:50:01Z", "webTitle": "Hugh Muir's diary", "webUrl": "https://www.theguardian.com/politics/2012/oct/29/hugh-muir-diary-conrad-black", "apiUrl": "https://content.guardianapis.com/politics/2012/oct/29/hugh-muir-diary-conrad-black", "isHosted": false, "pillarId": "pillar/news", "pillarName": "News"}, {"id": "commentisfree/2012/oct/29/trident-renewal-philip-hammond", "type": "article", "sectionId": "commentisfree", "sectionName": "Opinion", "webPublicationDate": "2012-10-29T22:31:18Z", "webTitle": "Trident: the bloody union jack | Editorial", "webUrl": "https://www.theguardian.com/commentisfree/2012/oct/29/trident-renewal-philip-hammond", "apiUrl": "https://content.guardianapis.com/commentisfree/2012/oct/29/trident-renewal-philip-hammond", "isHosted": false, "pillarId": "pillar/opinion", "pillarName": "Opinion"}, {"id": "uk/2012/oct/29/police-commissioner-election-ballots-blunder", "type": "article", "sectionId": "uk-news", "sectionName": "UK news", "webPublicationDate": "2012-10-29T22:16:00Z", "webTitle": "Police commissioner election ballots reprinted after Home Office blunder", "webUrl": "https://www.theguardian.com/uk/2012/oct/29/police-commissioner-election-ballots-blunder", "apiUrl": "https://content.guardianapis.com/uk/2012/oct/29/police-commissioner-election-ballots-blunder", "isHosted": false, "pillarId": "pillar/news", "pillarName": "News"}, {"id": "commentisfree/2012/oct/29/capitalism-bankrolls-politics-pay-price", "type": "article", "sectionId": "commentisfree", "sectionName": "Opinion", "webPublicationDate": "2012-10-29T21:30:01Z", "webTitle": "When corporations bankroll politics, we all pay the price | George Monbiot", "webUrl": "https://www.theguardian.com/commentisfree/2012/oct/29/capitalism-bankrolls-politics-pay-price", "apiUrl": "https://content.guardianapis.com/commentisfree/2012/oct/29/capitalism-bankrolls-politics-pay-price", "isHosted": false, "pillarId": "pillar/opinion", "pillarName": "Opinion"}, {"id": "world/2012/oct/29/robbing-paula-pay-peter-principles", "type": "article", "sectionId": "world", "sectionName": "World news", "webPublicationDate": "2012-10-29T21:00:03Z", "webTitle": "Letter: Robbing Paula to pay Peter, and other disputed principles", "webUrl": "https://www.theguardian.com/world/2012/oct/29/robbing-paula-pay-peter-principles", "apiUrl": "https://content.guardianapis.com/world/2012/oct/29/robbing-paula-pay-peter-principles", "isHosted": false, "pillarId": "pillar/news", "pillarName": "News"}, {"id": "politics/2012/oct/29/gove-protege-debut", "type": "article", "sectionId": "politics", "sectionName": "Politics", "webPublicationDate": "2012-10-29T20:54:57Z", "webTitle": "Tension and excitement for Gove protege's debut | Simon Hoggart's sketch", "webUrl": "https://www.theguardian.com/politics/2012/oct/29/gove-protege-debut", "apiUrl": "https://content.guardianapis.com/politics/2012/oct/29/gove-protege-debut", "isHosted": false, "pillarId": "pillar/news", "pillarName": "News"}, {"id": "commentisfree/2012/oct/29/trident-miliband-brave-jump-ship", "type": "article", "sectionId": "commentisfree", "sectionName": "Opinion", "webPublicationDate": "2012-10-29T20:31:00Z", "webTitle": "On Trident, Miliband needs to be brave and jump ship | Polly Toynbee", "webUrl": "https://www.theguardian.com/commentisfree/2012/oct/29/trident-miliband-brave-jump-ship", "apiUrl": "https://content.guardianapis.com/commentisfree/2012/oct/29/trident-miliband-brave-jump-ship", "isHosted": false, "pillarId": "pillar/opinion", "pillarName": "Opinion"}, {"id": "politics/2012/oct/29/tony-blair-david-cameron-europe", "type": "article", "sectionId": "politics", "sectionName": "Politics", "webPublicationDate": "2012-10-29T20:27:54Z", "webTitle": "Tony Blair warns David Cameron against creating 'two speed' Europe", "webUrl": "https://www.theguardian.com/politics/2012/oct/29/tony-blair-david-cameron-europe", "apiUrl": "https://content.guardianapis.com/politics/2012/oct/29/tony-blair-david-cameron-europe", "isHosted": false, "pillarId": "pillar/news", "pillarName": "News"}, {"id": "society/2012/oct/29/pension-reforms-moving-slowly-union", "type": "article", "sectionId": "society", "sectionName": "Society", "webPublicationDate": "2012-10-29T20:26:17Z", "webTitle": "Pension reforms moving too slowly, union warns", "webUrl": "https://www.theguardian.com/society/2012/oct/29/pension-reforms-moving-slowly-union", "apiUrl": "https://content.guardianapis.com/society/2012/oct/29/pension-reforms-moving-slowly-union", "isHosted": false, "pillarId": "pillar/news", "pillarName": "News"}, {"id": "uk/2012/oct/29/review-slams-west-coast-franchise-award", "type": "article", "sectionId": "uk-news", "sectionName": "UK news", "webPublicationDate": "2012-10-29T20:10:48Z", "webTitle": "DfT flouted own rules in botched award of west coast franchise, says report", "webUrl": "https://www.theguardian.com/uk/2012/oct/29/review-slams-west-coast-franchise-award", "apiUrl": "https://content.guardianapis.com/uk/2012/oct/29/review-slams-west-coast-franchise-award", "isHosted": false, "pillarId": "pillar/news", "pillarName": "News"}, {"id": "education/2012/oct/29/headteachers-twitter-traine-teachers", "type": "article", "sectionId": "education", "sectionName": "Education", "webPublicationDate": "2012-10-29T19:30:01Z", "webTitle": "Education in brief: Heads of the Roundtable start making a name for themselves", "webUrl": "https://www.theguardian.com/education/2012/oct/29/headteachers-twitter-traine-teachers", "apiUrl": "https://content.guardianapis.com/education/2012/oct/29/headteachers-twitter-traine-teachers", "isHosted": false, "pillarId": "pillar/news", "pillarName": "News"}, {"id": "politics/2012/oct/29/jeremy-hunt-sectioned-patients-review", "type": "article", "sectionId": "politics", "sectionName": "Politics", "webPublicationDate": "2012-10-29T18:32:30Z", "webTitle": "Thousands of patients sectioned without correct approval", "webUrl": "https://www.theguardian.com/politics/2012/oct/29/jeremy-hunt-sectioned-patients-review", "apiUrl": "https://content.guardianapis.com/politics/2012/oct/29/jeremy-hunt-sectioned-patients-review", "isHosted": false, "pillarId": "pillar/news", "pillarName": "News"}, {"id": "uk/the-northerner/2012/oct/29/police-police-and-crime-commissioners", "type": "article", "sectionId": "uk-news", "sectionName": "UK news", "webPublicationDate": "2012-10-29T18:00:00Z", "webTitle": "A truly independent voice for Humberside", "webUrl": "https://www.theguardian.com/uk/the-northerner/2012/oct/29/police-police-and-crime-commissioners", "apiUrl": "https://content.guardianapis.com/uk/the-northerner/2012/oct/29/police-police-and-crime-commissioners", "isHosted": false, "pillarId": "pillar/news", "pillarName": "News"}, {"id": "theguardian/2012/oct/29/jim-farrell-obituary", "type": "article", "sectionId": "theguardian", "sectionName": "From the Guardian", "webPublicationDate": "2012-10-29T17:58:26Z", "webTitle": "Jim Farrell obituary", "webUrl": "https://www.theguardian.com/theguardian/2012/oct/29/jim-farrell-obituary", "apiUrl": "https://content.guardianapis.com/theguardian/2012/oct/29/jim-farrell-obituary", "isHosted": false, "pillarId": "pillar/news", "pillarName": "News"}, {"id": "politics/2012/oct/29/nick-clegg-attacks-philip-hammond-trident", "type": "article", "sectionId": "politics", "sectionName": "Politics", "webPublicationDate": "2012-10-29T17:54:58Z", "webTitle": "Nick Clegg attacks Philip Hammond for 'jumping the gun' on Trident", "webUrl": "https://www.theguardian.com/politics/2012/oct/29/nick-clegg-attacks-philip-hammond-trident", "apiUrl": "https://content.guardianapis.com/politics/2012/oct/29/nick-clegg-attacks-philip-hammond-trident", "isHosted": false, "pillarId": "pillar/news", "pillarName": "News"}, {"id": "environment/2012/oct/29/government-ignored-ash-dieback-warnings", "type": "article", "sectionId": "environment", "sectionName": "Environment", "webPublicationDate": "2012-10-29T17:40:00Z", "webTitle": "Government ignored ash dieback warnings, emails reveal", "webUrl": "https://www.theguardian.com/environment/2012/oct/29/government-ignored-ash-dieback-warnings", "apiUrl": "https://content.guardianapis.com/environment/2012/oct/29/government-ignored-ash-dieback-warnings", "isHosted": false, "pillarId": "pillar/news", "pillarName": "News"}, {"id": "commentisfree/2012/oct/29/ed-miliband-mental-health", "type": "article", "sectionId": "commentisfree", "sectionName": "Opinion", "webPublicationDate": "2012-10-29T17:23:50Z", "webTitle": "Ed Miliband understands that making fun of mental health is no joke | Mark Brown", "webUrl": "https://www.theguardian.com/commentisfree/2012/oct/29/ed-miliband-mental-health", "apiUrl": "https://content.guardianapis.com/commentisfree/2012/oct/29/ed-miliband-mental-health", "isHosted": false, "pillarId": "pillar/opinion", "pillarName": "Opinion"}]}}