{"response": {"status": "ok", "userTier": "developer", "total": 94539, "startIndex": 1, "pageSize": 50, "currentPage": 1, "pages": 1891, "orderBy": "newest", "results": [{"id": "football/2015/oct/30/manuel-pellegrini-manchester-city-sergio-aguero", "type": "article", "sectionId": "football", "sectionName": "Football", "webPublicationDate": "2015-10-30T22:30:03Z", "webTitle": "Manuel Pellegrini urges Manchester City\u2019s Sergio Ag\u00fcero to listen to body", "webUrl": "https://www.theguardian.com/football/2015/oct/30/manuel-pellegrini-manchester-city-sergio-aguero", "apiUrl": "https://content.guardianapis.com/football/2015/oct/30/manuel-pellegrini-manchester-city-sergio-aguero", "isHosted": false, "pillarId": "pillar/sport", "pillarName": "Sport"}, {"id": "football/2015/oct/30/bournemouth-andrew-surman-southampton", "type": "article", "sectionId": "football", "sectionName": "Football", "webPublicationDate": "2015-10-30T22:30:03Z", "webTitle": "Bournemouth\u2019s Andrew Surman returns to Southampton with split loyalties", "webUrl": "https://www.theguardian.com/football/2015/oct/30/bournemouth-andrew-surman-southampton", "apiUrl": "https://content.guardianapis.com/football/2015/oct/30/bournemouth-andrew-surman-southampton", "isHosted": false, "pillarId": "pillar/sport", "pillarName": "Sport"}, {"id": "football/2015/oct/30/chelsea-jose-mourinho-jurgen-klopp-liverpool", "type": "article", "sectionId": "football", "sectionName": "Football", "webPublicationDate": "2015-10-30T22:30:03Z", "webTitle": "Chelsea\u2019s Jos\u00e9 Mourinho shows the strain at talk of facing J\u00fcrgen Klopp", "webUrl": "https://www.theguardian.com/football/2015/oct/30/chelsea-jose-mourinho-jurgen-klopp-liverpool", "apiUrl": "https://content.guardianapis.com/football/2015/oct/30/chelsea-jose-mourinho-jurgen-klopp-liverpool", "isHosted": false, "pillarId": "pillar/sport", "pillarName": "Sport"}, {"id": "football/2015/oct/30/joel-campbell-premier-league-arsenal-arsene-wenger", "type": "article", "sectionId": "football", "sectionName": "Football", "webPublicationDate": "2015-10-30T22:30:03Z", "webTitle": "Joel Campbell to make first Premier League start for Arsenal as injuries mount", "webUrl": "https://www.theguardian.com/football/2015/oct/30/joel-campbell-premier-league-arsenal-arsene-wenger", "apiUrl": "https://content.guardianapis.com/football/2015/oct/30/joel-campbell-premier-league-arsenal-arsene-wenger", "isHosted": false, "pillarId": "pillar/sport", "pillarName": "Sport"}, {"id": "football/2015/oct/30/roberto-martinez-everton-howard-kendall-funeral", "type": "article", "sectionId": "football", "sectionName": "Football", "webPublicationDate": "2015-10-30T22:30:03Z", "webTitle": "Roberto Mart\u00ednez hopes Howard Kendall\u2019s funeral can inspire Everton", "webUrl": "https://www.theguardian.com/football/2015/oct/30/roberto-martinez-everton-howard-kendall-funeral", "apiUrl": "https://content.guardianapis.com/football/2015/oct/30/roberto-martinez-everton-howard-kendall-funeral", "isHosted": false, "pillarId": "pillar/sport", "pillarName": "Sport"}, {"id": "football/2015/oct/30/west-ham-united-slaven-bilic-england-premier-league-watford", "type": "article", "sectionId": "football", "sectionName": "Football", "webPublicationDate": "2015-10-30T22:30:03Z", "webTitle": "West Ham\u2019s Slaven Bilic: all clubs in England should hope and dream", "webUrl": "https://www.theguardian.com/football/2015/oct/30/west-ham-united-slaven-bilic-england-premier-league-watford", "apiUrl": "https://content.guardianapis.com/football/2015/oct/30/west-ham-united-slaven-bilic-england-premier-league-watford", "isHosted": false, "pillarId": "pillar/sport", "pillarName": "Sport"}, {"id": "football/2015/oct/30/liverpool-jurgen-klopp-calmer-job-70-chelsea", "type": "article", "sectionId": "football", "sectionName": "Football", "webPublicationDate": "2015-10-30T22:29:03Z", "webTitle": "Liverpool\u2019s J\u00fcrgen Klopp: I hope to be calmer if I am doing this job at 70", "webUrl": "https://www.theguardian.com/football/2015/oct/30/liverpool-jurgen-klopp-calmer-job-70-chelsea", "apiUrl": "https://content.guardianapis.com/football/2015/oct/30/liverpool-jurgen-klopp-calmer-job-70-chelsea", "isHosted": false, "pillarId": "pillar/sport", "pillarName": "Sport"}, {"id": "football/2015/oct/30/louis-van-gaal-manchester-united-strikers", "type": "article", "sectionId": "football", "sectionName": "Football", "webPublicationDate": "2015-10-30T22:29:03Z", "webTitle": "Louis van Gaal: nine touches are all a striker really needs to score goals", "webUrl": "https://www.theguardian.com/football/2015/oct/30/louis-van-gaal-manchester-united-strikers", "apiUrl": "https://content.guardianapis.com/football/2015/oct/30/louis-van-gaal-manchester-united-strikers", "isHosted": false, "pillarId": "pillar/sport", "pillarName": "Sport"}, {"id": "football/2015/oct/30/alvaro-arbeloa-jose-mourinho-chelsea-real-madrid", "type": "article", "sectionId": "football", "sectionName": "Football", "webPublicationDate": "2015-10-30T20:02:00Z", "webTitle": "Real Madrid\u2019s Alvaro Arbeloa: \u2018Jos\u00e9 Mourinho still guarantees success\u2019", "webUrl": "https://www.theguardian.com/football/2015/oct/30/alvaro-arbeloa-jose-mourinho-chelsea-real-madrid", "apiUrl": "https://content.guardianapis.com/football/2015/oct/30/alvaro-arbeloa-jose-mourinho-chelsea-real-madrid", "isHosted": false, "pillarId": "pillar/sport", "pillarName": "Sport"}, {"id": "football/2015/oct/30/leeds-massino-cellino-fans-united-shares", "type": "article", "sectionId": "football", "sectionName": "Football", "webPublicationDate": "2015-10-30T18:33:04Z", "webTitle": "Massimo Cellino agrees to sell shares to supporters group Leeds Fans United", "webUrl": "https://www.theguardian.com/football/2015/oct/30/leeds-massino-cellino-fans-united-shares", "apiUrl": "https://content.guardianapis.com/football/2015/oct/30/leeds-massino-cellino-fans-united-shares", "isHosted": false, "pillarId": "pillar/sport", "pillarName": "Sport"}, {"id": "football/blog/2015/oct/30/mls-portland-sporting-kc-playoffs", "type": "article", "sectionId": "football", "sectionName": "Football", "webPublicationDate": "2015-10-30T18:14:46Z", "webTitle": "MLS playoff party gets serious after Portland squeak home on penalties", "webUrl": "https://www.theguardian.com/football/blog/2015/oct/30/mls-portland-sporting-kc-playoffs", "apiUrl": "https://content.guardianapis.com/football/blog/2015/oct/30/mls-portland-sporting-kc-playoffs", "isHosted": false, "pillarId": "pillar/sport", "pillarName": "Sport"}, {"id": "football/2015/oct/30/manchester-city-norwich-city-match-preview", "type": "article", "sectionId": "football", "sectionName": "Football", "webPublicationDate": "2015-10-30T17:26:26Z", "webTitle": "Manchester City v Norwich City: match preview", "webUrl": "https://www.theguardian.com/football/2015/oct/30/manchester-city-norwich-city-match-preview", "apiUrl": "https://content.guardianapis.com/football/2015/oct/30/manchester-city-norwich-city-match-preview", "isHosted": false, "pillarId": "pillar/sport", "pillarName": "Sport"}, {"id": "football/2015/oct/30/swansea-city-arsenal-match-preview", "type": "article", "sectionId": "football", "sectionName": "Football", "webPublicationDate": "2015-10-30T17:13:10Z", "webTitle": "Swansea City v Arsenal: match preview", "webUrl": "https://www.theguardian.com/football/2015/oct/30/swansea-city-arsenal-match-preview", "apiUrl": "https://content.guardianapis.com/football/2015/oct/30/swansea-city-arsenal-match-preview", "isHosted": false, "pillarId": "pillar/sport", "pillarName": "Sport"}, {"id": "football/2015/oct/30/west-bromwich-albion-leicester-city-match-preview", "type": "article", "sectionId": "football", "sectionName": "Football", "webPublicationDate": "2015-10-30T16:23:04Z", "webTitle": "]West Bromwich Albion v Leicester City: match preview", "webUrl": "https://www.theguardian.com/football/2015/oct/30/west-bromwich-albion-leicester-city-match-preview", "apiUrl": "https://content.guardianapis.com/football/2015/oct/30/west-bromwich-albion-leicester-city-match-preview", "isHosted": false, "pillarId": "pillar/sport", "pillarName": "Sport"}, {"id": "football/2015/oct/30/crystal-palace-manchester-united-match-preview", "type": "article", "sectionId": "football", "sectionName": "Football", "webPublicationDate": "2015-10-30T16:09:56Z", "webTitle": "Crystal Palace v Manchester United: match preview", "webUrl": "https://www.theguardian.com/football/2015/oct/30/crystal-palace-manchester-united-match-preview", "apiUrl": "https://content.guardianapis.com/football/2015/oct/30/crystal-palace-manchester-united-match-preview", "isHosted": false, "pillarId": "pillar/sport", "pillarName": "Sport"}, {"id": "football/2015/oct/30/tottenham-hotspur-aston-villa-match-preview", "type": "article", "sectionId": "football", "sectionName": "Football", "webPublicationDate": "2015-10-30T16:01:37Z", "webTitle": "Tottenham Hotspur v Aston Villa: match preview", "webUrl": "https://www.theguardian.com/football/2015/oct/30/tottenham-hotspur-aston-villa-match-preview", "apiUrl": "https://content.guardianapis.com/football/2015/oct/30/tottenham-hotspur-aston-villa-match-preview", "isHosted": false, "pillarId": "pillar/sport", "pillarName": "Sport"}, {"id": "football/blog/2015/oct/30/jose-mourinho-dark-side-chelsea-trophies-adversaries", "type": "article", "sectionId": "football", "sectionName": "Football", "webPublicationDate": "2015-10-30T15:56:11Z", "webTitle": "Jos\u00e9 Mourinho\u2019s return to dark side highlights deep malaise at Chelsea | Richard Williams", "webUrl": "https://www.theguardian.com/football/blog/2015/oct/30/jose-mourinho-dark-side-chelsea-trophies-adversaries", "apiUrl": "https://content.guardianapis.com/football/blog/2015/oct/30/jose-mourinho-dark-side-chelsea-trophies-adversaries", "isHosted": false, "pillarId": "pillar/sport", "pillarName": "Sport"}, {"id": "football/2015/oct/30/kelechi-iheanacho-manchester-city-manuel-pellegrini", "type": "article", "sectionId": "football", "sectionName": "Football", "webPublicationDate": "2015-10-30T15:34:09Z", "webTitle": "Manuel Pellegrini: Kelechi Iheanacho can start for Manchester City", "webUrl": "https://www.theguardian.com/football/2015/oct/30/kelechi-iheanacho-manchester-city-manuel-pellegrini", "apiUrl": "https://content.guardianapis.com/football/2015/oct/30/kelechi-iheanacho-manchester-city-manuel-pellegrini", "isHosted": false, "pillarId": "pillar/sport", "pillarName": "Sport"}, {"id": "football/2015/oct/30/the-fiver-chelsea-liverpool-jose-mourinho", "type": "article", "sectionId": "football", "sectionName": "Football", "webPublicationDate": "2015-10-30T15:33:48Z", "webTitle": "The Fiver | The best and worst of Mourinho", "webUrl": "https://www.theguardian.com/football/2015/oct/30/the-fiver-chelsea-liverpool-jose-mourinho", "apiUrl": "https://content.guardianapis.com/football/2015/oct/30/the-fiver-chelsea-liverpool-jose-mourinho", "isHosted": false, "pillarId": "pillar/sport", "pillarName": "Sport"}, {"id": "football/2015/oct/30/southampton-bournemouth-match-preview", "type": "article", "sectionId": "football", "sectionName": "Football", "webPublicationDate": "2015-10-30T15:17:49Z", "webTitle": "Southampton v Bournemouth: match preview", "webUrl": "https://www.theguardian.com/football/2015/oct/30/southampton-bournemouth-match-preview", "apiUrl": "https://content.guardianapis.com/football/2015/oct/30/southampton-bournemouth-match-preview", "isHosted": false, "pillarId": "pillar/sport", "pillarName": "Sport"}, {"id": "football/2015/oct/30/graziano-pelle-southampton-italy-interview-football-ronald-koeman", "type": "article", "sectionId": "football", "sectionName": "Football", "webPublicationDate": "2015-10-30T15:03:14Z", "webTitle": "Southampton\u2019s Graziano Pell\u00e8: I am more mature now and I know what I want", "webUrl": "https://www.theguardian.com/football/2015/oct/30/graziano-pelle-southampton-italy-interview-football-ronald-koeman", "apiUrl": "https://content.guardianapis.com/football/2015/oct/30/graziano-pelle-southampton-italy-interview-football-ronald-koeman", "isHosted": false, "pillarId": "pillar/sport", "pillarName": "Sport"}, {"id": "football/2015/oct/30/jose-mourinho-chelsea-cannot-promise-champions-league-qualification", "type": "article", "sectionId": "football", "sectionName": "Football", "webPublicationDate": "2015-10-30T14:51:59Z", "webTitle": "Chelsea\u2019s Jos\u00e9 Mourinho admits he \u2018cannot promise\u2019 top-four finish", "webUrl": "https://www.theguardian.com/football/2015/oct/30/jose-mourinho-chelsea-cannot-promise-champions-league-qualification", "apiUrl": "https://content.guardianapis.com/football/2015/oct/30/jose-mourinho-chelsea-cannot-promise-champions-league-qualification", "isHosted": false, "pillarId": "pillar/sport", "pillarName": "Sport"}, {"id": "football/2015/oct/30/everton-sunderland-match-preview", "type": "article", "sectionId": "football", "sectionName": "Football", "webPublicationDate": "2015-10-30T14:18:30Z", "webTitle": "Everton v Sunderland: match preview", "webUrl": "https://www.theguardian.com/football/2015/oct/30/everton-sunderland-match-preview", "apiUrl": "https://content.guardianapis.com/football/2015/oct/30/everton-sunderland-match-preview", "isHosted": false, "pillarId": "pillar/sport", "pillarName": "Sport"}, {"id": "sport/2015/oct/30/sports-quiz-week-new-zealand-australia-claudio-ranieri-leeds", "type": "article", "sectionId": "sport", "sectionName": "Sport", "webPublicationDate": "2015-10-30T14:14:31Z", "webTitle": "Sports quiz of the week: New Zealand v Australia, Claudio Ranieri and Leeds", "webUrl": "https://www.theguardian.com/sport/2015/oct/30/sports-quiz-week-new-zealand-australia-claudio-ranieri-leeds", "apiUrl": "https://content.guardianapis.com/sport/2015/oct/30/sports-quiz-week-new-zealand-australia-claudio-ranieri-leeds", "isHosted": false, "pillarId": "pillar/sport", "pillarName": "Sport"}, {"id": "football/2015/oct/30/newcastle-united-stoke-city-match-preview", "type": "article", "sectionId": "football", "sectionName": "Football", "webPublicationDate": "2015-10-30T14:09:59Z", "webTitle": "Newcastle United v Stoke City: match preview", "webUrl": "https://www.theguardian.com/football/2015/oct/30/newcastle-united-stoke-city-match-preview", "apiUrl": "https://content.guardianapis.com/football/2015/oct/30/newcastle-united-stoke-city-match-preview", "isHosted": false, "pillarId": "pillar/sport", "pillarName": "Sport"}, {"id": "football/2015/oct/30/chelsea-liverpool-match-preview", "type": "article", "sectionId": "football", "sectionName": "Football", "webPublicationDate": "2015-10-30T14:04:06Z", "webTitle": "Chelsea v Liverpool: match preview", "webUrl": "https://www.theguardian.com/football/2015/oct/30/chelsea-liverpool-match-preview", "apiUrl": "https://content.guardianapis.com/football/2015/oct/30/chelsea-liverpool-match-preview", "isHosted": false, "pillarId": "pillar/sport", "pillarName": "Sport"}, {"id": "football/blog/2015/oct/30/alex-pato-premier-league-corinthians-sao-paulo", "type": "article", "sectionId": "football", "sectionName": "Football", "webPublicationDate": "2015-10-30T13:07:21Z", "webTitle": "Signing the Duck: Alex Pato a step too far for Premier League pantomime | Barney Ronay", "webUrl": "https://www.theguardian.com/football/blog/2015/oct/30/alex-pato-premier-league-corinthians-sao-paulo", "apiUrl": "https://content.guardianapis.com/football/blog/2015/oct/30/alex-pato-premier-league-corinthians-sao-paulo", "isHosted": false, "pillarId": "pillar/sport", "pillarName": "Sport"}, {"id": "football/2015/oct/30/watford-west-ham-united-match-preview", "type": "article", "sectionId": "football", "sectionName": "Football", "webPublicationDate": "2015-10-30T12:42:39Z", "webTitle": "Watford v West Ham United: match preview", "webUrl": "https://www.theguardian.com/football/2015/oct/30/watford-west-ham-united-match-preview", "apiUrl": "https://content.guardianapis.com/football/2015/oct/30/watford-west-ham-united-match-preview", "isHosted": false, "pillarId": "pillar/sport", "pillarName": "Sport"}, {"id": "football/2015/oct/30/jurgen-klopp-liverpool-wounded-chelsea-jose-mourinho", "type": "article", "sectionId": "football", "sectionName": "Football", "webPublicationDate": "2015-10-30T12:28:58Z", "webTitle": "J\u00fcrgen Klopp sends warning to Liverpool over \u2018wounded\u2019 Chelsea", "webUrl": "https://www.theguardian.com/football/2015/oct/30/jurgen-klopp-liverpool-wounded-chelsea-jose-mourinho", "apiUrl": "https://content.guardianapis.com/football/2015/oct/30/jurgen-klopp-liverpool-wounded-chelsea-jose-mourinho", "isHosted": false, "pillarId": "pillar/sport", "pillarName": "Sport"}, {"id": "football/2015/oct/30/george-best-football-as-never-before-matthew-nolan", "type": "article", "sectionId": "football", "sectionName": "Football", "webPublicationDate": "2015-10-30T12:20:48Z", "webTitle": "Long-lost George Best art film is resurrected by Irish composer", "webUrl": "https://www.theguardian.com/football/2015/oct/30/george-best-football-as-never-before-matthew-nolan", "apiUrl": "https://content.guardianapis.com/football/2015/oct/30/george-best-football-as-never-before-matthew-nolan", "isHosted": false, "pillarId": "pillar/sport", "pillarName": "Sport"}, {"id": "football/2015/oct/30/arsenal-theo-walcott-december-injury-arsene-wenger", "type": "article", "sectionId": "football", "sectionName": "Football", "webPublicationDate": "2015-10-30T12:17:49Z", "webTitle": "Arsenal\u2019s Theo Walcott could be out until December with calf injury", "webUrl": "https://www.theguardian.com/football/2015/oct/30/arsenal-theo-walcott-december-injury-arsene-wenger", "apiUrl": "https://content.guardianapis.com/football/2015/oct/30/arsenal-theo-walcott-december-injury-arsene-wenger", "isHosted": false, "pillarId": "pillar/sport", "pillarName": "Sport"}, {"id": "football/2015/oct/30/manchester-united-louis-van-gaal-paul-scholes-sticks-and-stones", "type": "article", "sectionId": "football", "sectionName": "Football", "webPublicationDate": "2015-10-30T11:40:10Z", "webTitle": "Louis van Gaal: Sticks and stones break my bones but names never hurt me", "webUrl": "https://www.theguardian.com/football/2015/oct/30/manchester-united-louis-van-gaal-paul-scholes-sticks-and-stones", "apiUrl": "https://content.guardianapis.com/football/2015/oct/30/manchester-united-louis-van-gaal-paul-scholes-sticks-and-stones", "isHosted": false, "pillarId": "pillar/sport", "pillarName": "Sport"}, {"id": "football/2015/oct/30/leeds-united-massimo-cellino-losing-sleep-balls", "type": "article", "sectionId": "football", "sectionName": "Football", "webPublicationDate": "2015-10-30T10:57:16Z", "webTitle": "Massimo Cellino: I am losing sleep, and my balls, trying to run Leeds United", "webUrl": "https://www.theguardian.com/football/2015/oct/30/leeds-united-massimo-cellino-losing-sleep-balls", "apiUrl": "https://content.guardianapis.com/football/2015/oct/30/leeds-united-massimo-cellino-losing-sleep-balls", "isHosted": false, "pillarId": "pillar/sport", "pillarName": "Sport"}, {"id": "football/live/2015/oct/30/a-league-melbourne-city-v-newcastle-jets", "type": "liveblog", "sectionId": "football", "sectionName": "Football", "webPublicationDate": "2015-10-30T10:44:16Z", "webTitle": "A-League: Melbourne City v Newcastle Jets \u2013\u00a0as it happened", "webUrl": "https://www.theguardian.com/football/live/2015/oct/30/a-league-melbourne-city-v-newcastle-jets", "apiUrl": "https://content.guardianapis.com/football/live/2015/oct/30/a-league-melbourne-city-v-newcastle-jets", "isHosted": false, "pillarId": "pillar/sport", "pillarName": "Sport"}, {"id": "football/blog/2015/oct/30/the-joy-of-six-unglamorous-football-clubs", "type": "article", "sectionId": "football", "sectionName": "Football", "webPublicationDate": "2015-10-30T10:41:21Z", "webTitle": "The Joy of Six: celebrating unglamorous football clubs", "webUrl": "https://www.theguardian.com/football/blog/2015/oct/30/the-joy-of-six-unglamorous-football-clubs", "apiUrl": "https://content.guardianapis.com/football/blog/2015/oct/30/the-joy-of-six-unglamorous-football-clubs", "isHosted": false, "pillarId": "pillar/sport", "pillarName": "Sport"}, {"id": "football/2015/oct/30/pele-cruyff-best-barnes-stories-meeting-footballers", "type": "article", "sectionId": "football", "sectionName": "Football", "webPublicationDate": "2015-10-30T10:13:44Z", "webTitle": "Pel\u00e9, Cruyff, Best and Barnes: our readers\u2019 best stories about meeting footballers", "webUrl": "https://www.theguardian.com/football/2015/oct/30/pele-cruyff-best-barnes-stories-meeting-footballers", "apiUrl": "https://content.guardianapis.com/football/2015/oct/30/pele-cruyff-best-barnes-stories-meeting-footballers", "isHosted": false, "pillarId": "pillar/sport", "pillarName": "Sport"}, {"id": "football/2015/oct/30/you-are-the-ref-no346-david-de-gea", "type": "article", "sectionId": "football", "sectionName": "Football", "webPublicationDate": "2015-10-30T09:30:11Z", "webTitle": "You are the Ref No346: David de Gea", "webUrl": "https://www.theguardian.com/football/2015/oct/30/you-are-the-ref-no346-david-de-gea", "apiUrl": "https://content.guardianapis.com/football/2015/oct/30/you-are-the-ref-no346-david-de-gea", "isHosted": false, "pillarId": "pillar/sport", "pillarName": "Sport"}, {"id": "football/blog/2015/oct/30/premier-league-10-things-to-look-out-for-this-weekend", "type": "article", "sectionId": "football", "sectionName": "Football", "webPublicationDate": "2015-10-30T08:55:54Z", "webTitle": "Premier League: 10 things to look out for this weekend", "webUrl": "https://www.theguardian.com/football/blog/2015/oct/30/premier-league-10-things-to-look-out-for-this-weekend", "apiUrl": "https://content.guardianapis.com/football/blog/2015/oct/30/premier-league-10-things-to-look-out-for-this-weekend", "isHosted": false, "pillarId": "pillar/sport", "pillarName": "Sport"}, {"id": "football/2015/oct/30/football-transfer-rumours-tottenham-harry-kane-manchester-united", "type": "article", "sectionId": "football", "sectionName": "Football", "webPublicationDate": "2015-10-30T08:19:49Z", "webTitle": "Football transfer rumours: Tottenham's Harry Kane to Manchester United?", "webUrl": "https://www.theguardian.com/football/2015/oct/30/football-transfer-rumours-tottenham-harry-kane-manchester-united", "apiUrl": "https://content.guardianapis.com/football/2015/oct/30/football-transfer-rumours-tottenham-harry-kane-manchester-united", "isHosted": false, "pillarId": "pillar/sport", "pillarName": "Sport"}, {"id": "tv-and-radio/2015/oct/30/class-of-92-review", "type": "article", "sectionId": "tv-and-radio", "sectionName": "Television & radio", "webPublicationDate": "2015-10-30T07:10:09Z", "webTitle": "Class of 92 review: what the Neville brothers and Giggsy did next\u200b\r\n", "webUrl": "https://www.theguardian.com/tv-and-radio/2015/oct/30/class-of-92-review", "apiUrl": "https://content.guardianapis.com/tv-and-radio/2015/oct/30/class-of-92-review", "isHosted": false, "pillarId": "pillar/arts", "pillarName": "Arts"}, {"id": "football/2015/oct/29/liverpool-alberto-moreno-brendan-rodgers-jurgen-klopp", "type": "article", "sectionId": "football", "sectionName": "Football", "webPublicationDate": "2015-10-29T22:30:12Z", "webTitle": "Liverpool\u2019s Alberto Moreno: I felt inner anger after being out of team", "webUrl": "https://www.theguardian.com/football/2015/oct/29/liverpool-alberto-moreno-brendan-rodgers-jurgen-klopp", "apiUrl": "https://content.guardianapis.com/football/2015/oct/29/liverpool-alberto-moreno-brendan-rodgers-jurgen-klopp", "isHosted": false, "pillarId": "pillar/sport", "pillarName": "Sport"}, {"id": "football/2015/oct/29/howard-kendall-funeral-liverpool-cathedral-everton-peter-reid-bill-kenwright", "type": "article", "sectionId": "football", "sectionName": "Football", "webPublicationDate": "2015-10-29T22:06:49Z", "webTitle": "Memories of Howard Kendall light up Liverpool cathedral", "webUrl": "https://www.theguardian.com/football/2015/oct/29/howard-kendall-funeral-liverpool-cathedral-everton-peter-reid-bill-kenwright", "apiUrl": "https://content.guardianapis.com/football/2015/oct/29/howard-kendall-funeral-liverpool-cathedral-everton-peter-reid-bill-kenwright", "isHosted": false, "pillarId": "pillar/sport", "pillarName": "Sport"}, {"id": "football/2015/oct/29/everton-liverpool-howard-kendall-funeral", "type": "article", "sectionId": "football", "sectionName": "Football", "webPublicationDate": "2015-10-29T21:40:38Z", "webTitle": "Everton fans and city of Liverpool pay respect to Howard Kendall", "webUrl": "https://www.theguardian.com/football/2015/oct/29/everton-liverpool-howard-kendall-funeral", "apiUrl": "https://content.guardianapis.com/football/2015/oct/29/everton-liverpool-howard-kendall-funeral", "isHosted": false, "pillarId": "pillar/sport", "pillarName": "Sport"}, {"id": "football/2015/oct/29/bahrain-fa-2011-sheikh-salman", "type": "article", "sectionId": "football", "sectionName": "Football", "webPublicationDate": "2015-10-29T20:15:42Z", "webTitle": "Bahrain FA vowed to take action against demonstrators in 2011, document shows", "webUrl": "https://www.theguardian.com/football/2015/oct/29/bahrain-fa-2011-sheikh-salman", "apiUrl": "https://content.guardianapis.com/football/2015/oct/29/bahrain-fa-2011-sheikh-salman", "isHosted": false, "pillarId": "pillar/sport", "pillarName": "Sport"}, {"id": "sport/blog/2015/oct/30/wellington-phoenix-are-the-a-leagues-victims-but-kiwi-football-will-go-on", "type": "article", "sectionId": "sport", "sectionName": "Sport", "webPublicationDate": "2015-10-29T19:30:07Z", "webTitle": "Wellington Phoenix are the A-League's victims but Kiwi football will go on | Paul Connolly", "webUrl": "https://www.theguardian.com/sport/blog/2015/oct/30/wellington-phoenix-are-the-a-leagues-victims-but-kiwi-football-will-go-on", "apiUrl": "https://content.guardianapis.com/sport/blog/2015/oct/30/wellington-phoenix-are-the-a-leagues-victims-but-kiwi-football-will-go-on", "isHosted": false, "pillarId": "pillar/sport", "pillarName": "Sport"}, {"id": "football/2015/oct/29/premier-league-rooney-rule-football-league-richard-scudamore", "type": "article", "sectionId": "football", "sectionName": "Football", "webPublicationDate": "2015-10-29T19:07:34Z", "webTitle": "Premier League will not implement voluntary version of Rooney rule", "webUrl": "https://www.theguardian.com/football/2015/oct/29/premier-league-rooney-rule-football-league-richard-scudamore", "apiUrl": "https://content.guardianapis.com/football/2015/oct/29/premier-league-rooney-rule-football-league-richard-scudamore", "isHosted": false, "pillarId": "pillar/sport", "pillarName": "Sport"}, {"id": "football/2015/oct/29/chelsea-lucas-piazon-toronto-police", "type": "article", "sectionId": "football", "sectionName": "Football", "webPublicationDate": "2015-10-29T17:23:58Z", "webTitle": "Chelsea\u2019s Lucas Piazon wanted by Toronto police over sexual assault allegation", "webUrl": "https://www.theguardian.com/football/2015/oct/29/chelsea-lucas-piazon-toronto-police", "apiUrl": "https://content.guardianapis.com/football/2015/oct/29/chelsea-lucas-piazon-toronto-police", "isHosted": false, "pillarId": "pillar/sport", "pillarName": "Sport"}, {"id": "football/2015/oct/29/the-great-exposing-of-the-blatant-reptilian-illuminatus-in-our-midst", "type": "article", "sectionId": "football", "sectionName": "Football", "webPublicationDate": "2015-10-29T16:39:22Z", "webTitle": "The great exposing of the blatant reptilian Illuminatus in our midst", "webUrl": "https://www.theguardian.com/football/2015/oct/29/the-great-exposing-of-the-blatant-reptilian-illuminatus-in-our-midst", "apiUrl": "https://content.guardianapis.com/football/2015/oct/29/the-great-exposing-of-the-blatant-reptilian-illuminatus-in-our-midst", "isHosted": false, "pillarId": "pillar/sport", "pillarName": "Sport"}, {"id": "football/blog/2015/oct/29/wayne-rooney-manchester-united-captaincy", "type": "article", "sectionId": "football", "sectionName": "Football", "webPublicationDate": "2015-10-29T15:09:26Z", "webTitle": "Wayne Rooney needs a rest, even if it means losing Manchester United captaincy | Paul Wilson", "webUrl": "https://www.theguardian.com/football/blog/2015/oct/29/wayne-rooney-manchester-united-captaincy", "apiUrl": "https://content.guardianapis.com/football/blog/2015/oct/29/wayne-rooney-manchester-united-captaincy", "isHosted": false, "pillarId": "pillar/sport", "pillarName": "Sport"}, {"id": "football/2015/oct/29/jose-mourinho-chelsea-liverpool-fa-charge", "type": "article", "sectionId": "football", "sectionName": "Football", "webPublicationDate": "2015-10-29T15:00:45Z", "webTitle": "Jos\u00e9 Mourinho clear to be in Chelsea dugout for critical Liverpool match", "webUrl": "https://www.theguardian.com/football/2015/oct/29/jose-mourinho-chelsea-liverpool-fa-charge", "apiUrl": "https://content.guardianapis.com/football/2015/oct/29/jose-mourinho-chelsea-liverpool-fa-charge", "isHosted": false, "pillarId": "pillar/sport", "pillarName": "Sport"}]}}