{"response": {"status": "ok", "userTier": "developer", "total": 27247, "startIndex": 1, "pageSize": 50, "currentPage": 1, "pages": 545, "orderBy": "newest", "results": [{"id": "business/2010/oct/31/bp-gulf-disaster-blame", "type": "article", "sectionId": "business", "sectionName": "Business", "webPublicationDate": "2010-10-30T23:08:59Z", "webTitle": "BP's behaviour was shameful. But it wasn't the only one to blame for the gulf disaster", "webUrl": "https://www.theguardian.com/business/2010/oct/31/bp-gulf-disaster-blame", "apiUrl": "https://content.guardianapis.com/business/2010/oct/31/bp-gulf-disaster-blame", "isHosted": false, "pillarId": "pillar/news", "pillarName": "News"}, {"id": "uk/2010/oct/31/black-mountains-seasons-weather", "type": "article", "sectionId": "uk-news", "sectionName": "UK news", "webPublicationDate": "2010-10-30T23:08:45Z", "webTitle": "Spring, summer, autumn, winter... how this year revived the seasons", "webUrl": "https://www.theguardian.com/uk/2010/oct/31/black-mountains-seasons-weather", "apiUrl": "https://content.guardianapis.com/uk/2010/oct/31/black-mountains-seasons-weather", "isHosted": false, "pillarId": "pillar/news", "pillarName": "News"}, {"id": "media/2010/oct/31/emperor-stag-exmoor-killed-sightings", "type": "article", "sectionId": "media", "sectionName": "Media", "webPublicationDate": "2010-10-30T23:07:58Z", "webTitle": "Dead or alive? The Emperor becomes an Exmoor legend", "webUrl": "https://www.theguardian.com/media/2010/oct/31/emperor-stag-exmoor-killed-sightings", "apiUrl": "https://content.guardianapis.com/media/2010/oct/31/emperor-stag-exmoor-killed-sightings", "isHosted": false, "pillarId": "pillar/news", "pillarName": "News"}, {"id": "science/2010/oct/31/selitrichodes-globulus-new-to-nature", "type": "article", "sectionId": "science", "sectionName": "Science", "webPublicationDate": "2010-10-30T23:06:55Z", "webTitle": "New to Nature No 22: Selitrichodes globulus", "webUrl": "https://www.theguardian.com/science/2010/oct/31/selitrichodes-globulus-new-to-nature", "apiUrl": "https://content.guardianapis.com/science/2010/oct/31/selitrichodes-globulus-new-to-nature", "isHosted": false, "pillarId": "pillar/news", "pillarName": "News"}, {"id": "environment/2010/oct/31/innovator-geomatics-david-parker", "type": "article", "sectionId": "environment", "sectionName": "Environment", "webPublicationDate": "2010-10-30T23:05:33Z", "webTitle": "David Parker's innovation: geomatics", "webUrl": "https://www.theguardian.com/environment/2010/oct/31/innovator-geomatics-david-parker", "apiUrl": "https://content.guardianapis.com/environment/2010/oct/31/innovator-geomatics-david-parker", "isHosted": false, "pillarId": "pillar/news", "pillarName": "News"}, {"id": "environment/2010/oct/31/not-easy-being-green-packaging-landfill-waste", "type": "article", "sectionId": "environment", "sectionName": "Environment", "webPublicationDate": "2010-10-30T23:05:04Z", "webTitle": "Can I buy packaged goods and be green?", "webUrl": "https://www.theguardian.com/environment/2010/oct/31/not-easy-being-green-packaging-landfill-waste", "apiUrl": "https://content.guardianapis.com/environment/2010/oct/31/not-easy-being-green-packaging-landfill-waste", "isHosted": false, "pillarId": "pillar/news", "pillarName": "News"}, {"id": "commentisfree/cif-green/2010/oct/30/natural-world-britons-lost-touch", "type": "article", "sectionId": "commentisfree", "sectionName": "Opinion", "webPublicationDate": "2010-10-30T14:00:00Z", "webTitle": "Why have Britons lost touch with the natural world? | Fiona Reynolds", "webUrl": "https://www.theguardian.com/commentisfree/cif-green/2010/oct/30/natural-world-britons-lost-touch", "apiUrl": "https://content.guardianapis.com/commentisfree/cif-green/2010/oct/30/natural-world-britons-lost-touch", "isHosted": false, "pillarId": "pillar/opinion", "pillarName": "Opinion"}, {"id": "uk/audio/2010/oct/30/countryside-campaign-national-trust", "type": "audio", "sectionId": "uk-news", "sectionName": "UK news", "webPublicationDate": "2010-10-30T07:00:00Z", "webTitle": "National Trust countryside campaign: 'A society that's less confident about going out'", "webUrl": "https://www.theguardian.com/uk/audio/2010/oct/30/countryside-campaign-national-trust", "apiUrl": "https://content.guardianapis.com/uk/audio/2010/oct/30/countryside-campaign-national-trust", "isHosted": false, "pillarId": "pillar/news", "pillarName": "News"}, {"id": "uk/2010/oct/30/britons-countryside-national-trust", "type": "article", "sectionId": "uk-news", "sectionName": "UK news", "webPublicationDate": "2010-10-30T06:00:00Z", "webTitle": "Britons 'terrified' of the countryside, National Trust warns", "webUrl": "https://www.theguardian.com/uk/2010/oct/30/britons-countryside-national-trust", "apiUrl": "https://content.guardianapis.com/uk/2010/oct/30/britons-countryside-national-trust", "isHosted": false, "pillarId": "pillar/news", "pillarName": "News"}, {"id": "environment/2010/oct/30/country-diary-new-forest", "type": "article", "sectionId": "environment", "sectionName": "Environment", "webPublicationDate": "2010-10-29T23:08:51Z", "webTitle": "Country diary: New Forest", "webUrl": "https://www.theguardian.com/environment/2010/oct/30/country-diary-new-forest", "apiUrl": "https://content.guardianapis.com/environment/2010/oct/30/country-diary-new-forest", "isHosted": false, "pillarId": "pillar/news", "pillarName": "News"}, {"id": "travel/2010/oct/30/walking-with-wolves-yellowstone-park", "type": "article", "sectionId": "travel", "sectionName": "Travel", "webPublicationDate": "2010-10-29T23:07:09Z", "webTitle": "A howling success: encounters with Yellowstone's wolves", "webUrl": "https://www.theguardian.com/travel/2010/oct/30/walking-with-wolves-yellowstone-park", "apiUrl": "https://content.guardianapis.com/travel/2010/oct/30/walking-with-wolves-yellowstone-park", "isHosted": false, "pillarId": "pillar/lifestyle", "pillarName": "Lifestyle"}, {"id": "uk/2010/oct/30/exmoor-emperor-deer-hunting-on-exmoor", "type": "article", "sectionId": "uk-news", "sectionName": "UK news", "webPublicationDate": "2010-10-29T23:01:23Z", "webTitle": "Stag party turns bitter in Exmoor deer hunting row", "webUrl": "https://www.theguardian.com/uk/2010/oct/30/exmoor-emperor-deer-hunting-on-exmoor", "apiUrl": "https://content.guardianapis.com/uk/2010/oct/30/exmoor-emperor-deer-hunting-on-exmoor", "isHosted": false, "pillarId": "pillar/news", "pillarName": "News"}, {"id": "environment/2010/oct/29/biodiversity-talks-ministers-nagoya-strategy", "type": "article", "sectionId": "environment", "sectionName": "Environment", "webPublicationDate": "2010-10-29T17:53:36Z", "webTitle": "Biodiversity talks: Ministers in Nagoya adopt new strategy", "webUrl": "https://www.theguardian.com/environment/2010/oct/29/biodiversity-talks-ministers-nagoya-strategy", "apiUrl": "https://content.guardianapis.com/environment/2010/oct/29/biodiversity-talks-ministers-nagoya-strategy", "isHosted": false, "pillarId": "pillar/news", "pillarName": "News"}, {"id": "environment/2010/oct/29/nagoya-biodiversity-summit-deal", "type": "article", "sectionId": "environment", "sectionName": "Environment", "webPublicationDate": "2010-10-29T16:49:18Z", "webTitle": "Goodwill and compromise: Nagoya biodiversity deal restores faith in UN", "webUrl": "https://www.theguardian.com/environment/2010/oct/29/nagoya-biodiversity-summit-deal", "apiUrl": "https://content.guardianapis.com/environment/2010/oct/29/nagoya-biodiversity-summit-deal", "isHosted": false, "pillarId": "pillar/news", "pillarName": "News"}, {"id": "environment/blog/2010/oct/29/urban-beekeeping", "type": "article", "sectionId": "environment", "sectionName": "Environment", "webPublicationDate": "2010-10-29T15:50:16Z", "webTitle": "The joys of urban beekeeping | Alison Benjamin", "webUrl": "https://www.theguardian.com/environment/blog/2010/oct/29/urban-beekeeping", "apiUrl": "https://content.guardianapis.com/environment/blog/2010/oct/29/urban-beekeeping", "isHosted": false, "pillarId": "pillar/news", "pillarName": "News"}, {"id": "business/2010/oct/29/air-passenger-duty-treasury", "type": "article", "sectionId": "business", "sectionName": "Business", "webPublicationDate": "2010-10-29T15:28:23Z", "webTitle": "Air passenger duty: environmentally necessary or cash-hoovering ruse?", "webUrl": "https://www.theguardian.com/business/2010/oct/29/air-passenger-duty-treasury", "apiUrl": "https://content.guardianapis.com/business/2010/oct/29/air-passenger-duty-treasury", "isHosted": false, "pillarId": "pillar/news", "pillarName": "News"}, {"id": "environment/blog/2010/oct/29/advertising-natural-world", "type": "article", "sectionId": "environment", "sectionName": "Environment", "webPublicationDate": "2010-10-29T15:28:05Z", "webTitle": "Payback time for tigers and polar bears | Ed Gillespie", "webUrl": "https://www.theguardian.com/environment/blog/2010/oct/29/advertising-natural-world", "apiUrl": "https://content.guardianapis.com/environment/blog/2010/oct/29/advertising-natural-world", "isHosted": false, "pillarId": "pillar/news", "pillarName": "News"}, {"id": "environment/2010/oct/29/uk-government-forest-sell-off", "type": "article", "sectionId": "environment", "sectionName": "Environment", "webPublicationDate": "2010-10-29T14:46:50Z", "webTitle": "UK government confirms forest sell-off plans", "webUrl": "https://www.theguardian.com/environment/2010/oct/29/uk-government-forest-sell-off", "apiUrl": "https://content.guardianapis.com/environment/2010/oct/29/uk-government-forest-sell-off", "isHosted": false, "pillarId": "pillar/news", "pillarName": "News"}, {"id": "uk/video/2010/oct/29/deer-hunting-emperor-exmoor-video", "type": "video", "sectionId": "uk-news", "sectionName": "UK news", "webPublicationDate": "2010-10-29T12:14:00Z", "webTitle": "Video: Meet the deer hunter: 'The Emperor was nice, but I've seen better'", "webUrl": "https://www.theguardian.com/uk/video/2010/oct/29/deer-hunting-emperor-exmoor-video", "apiUrl": "https://content.guardianapis.com/uk/video/2010/oct/29/deer-hunting-emperor-exmoor-video", "isHosted": false, "pillarId": "pillar/news", "pillarName": "News"}, {"id": "environment/blog/2010/oct/29/environment-cuts", "type": "article", "sectionId": "environment", "sectionName": "Environment", "webPublicationDate": "2010-10-29T12:12:21Z", "webTitle": "The environment cuts that didn't make the headlines | Juliette Jowit", "webUrl": "https://www.theguardian.com/environment/blog/2010/oct/29/environment-cuts", "apiUrl": "https://content.guardianapis.com/environment/blog/2010/oct/29/environment-cuts", "isHosted": false, "pillarId": "pillar/news", "pillarName": "News"}, {"id": "environment/gallery/2010/oct/28/elephant-crocodile-kruger-south-africa", "type": "gallery", "sectionId": "environment", "sectionName": "Environment", "webPublicationDate": "2010-10-29T11:51:23Z", "webTitle": "Elephant v crocodile", "webUrl": "https://www.theguardian.com/environment/gallery/2010/oct/28/elephant-crocodile-kruger-south-africa", "apiUrl": "https://content.guardianapis.com/environment/gallery/2010/oct/28/elephant-crocodile-kruger-south-africa", "isHosted": false, "pillarId": "pillar/news", "pillarName": "News"}, {"id": "world/audio/2010/oct/29/food-security", "type": "audio", "sectionId": "world", "sectionName": "World news", "webPublicationDate": "2010-10-29T10:32:29Z", "webTitle": "Guardian Focus podcast: Food security", "webUrl": "https://www.theguardian.com/world/audio/2010/oct/29/food-security", "apiUrl": "https://content.guardianapis.com/world/audio/2010/oct/29/food-security", "isHosted": false, "pillarId": "pillar/news", "pillarName": "News"}, {"id": "environment/2010/oct/29/biodiversity-deal-nagoya", "type": "article", "sectionId": "environment", "sectionName": "Environment", "webPublicationDate": "2010-10-29T10:32:16Z", "webTitle": "Biodiversity talks hang in the balance", "webUrl": "https://www.theguardian.com/environment/2010/oct/29/biodiversity-deal-nagoya", "apiUrl": "https://content.guardianapis.com/environment/2010/oct/29/biodiversity-deal-nagoya", "isHosted": false, "pillarId": "pillar/news", "pillarName": "News"}, {"id": "environment/gallery/2010/oct/28/week-in-wildlife", "type": "gallery", "sectionId": "environment", "sectionName": "Environment", "webPublicationDate": "2010-10-29T10:24:36Z", "webTitle": "In pictures: The week in wildlife", "webUrl": "https://www.theguardian.com/environment/gallery/2010/oct/28/week-in-wildlife", "apiUrl": "https://content.guardianapis.com/environment/gallery/2010/oct/28/week-in-wildlife", "isHosted": false, "pillarId": "pillar/news", "pillarName": "News"}, {"id": "environment/2010/oct/29/bp-oil-spill-bp", "type": "article", "sectionId": "environment", "sectionName": "Environment", "webPublicationDate": "2010-10-29T07:38:12Z", "webTitle": "BP and Halliburton knew of Gulf oil well cement flaws", "webUrl": "https://www.theguardian.com/environment/2010/oct/29/bp-oil-spill-bp", "apiUrl": "https://content.guardianapis.com/environment/2010/oct/29/bp-oil-spill-bp", "isHosted": false, "pillarId": "pillar/news", "pillarName": "News"}, {"id": "environment/2010/oct/29/forest-sell-off-government", "type": "article", "sectionId": "environment", "sectionName": "Environment", "webPublicationDate": "2010-10-29T07:00:01Z", "webTitle": "The great forest sell-off", "webUrl": "https://www.theguardian.com/environment/2010/oct/29/forest-sell-off-government", "apiUrl": "https://content.guardianapis.com/environment/2010/oct/29/forest-sell-off-government", "isHosted": false, "pillarId": "pillar/news", "pillarName": "News"}, {"id": "environment/georgemonbiot/2010/oct/29/how-to-make-apple-juice", "type": "article", "sectionId": "environment", "sectionName": "Environment", "webPublicationDate": "2010-10-29T07:00:01Z", "webTitle": "How to make apple juice that doesn't cost the Earth | George Monbiot", "webUrl": "https://www.theguardian.com/environment/georgemonbiot/2010/oct/29/how-to-make-apple-juice", "apiUrl": "https://content.guardianapis.com/environment/georgemonbiot/2010/oct/29/how-to-make-apple-juice", "isHosted": false, "pillarId": "pillar/news", "pillarName": "News"}, {"id": "lifeandstyle/gallery/2010/oct/29/how-to-press-apples-george-monbiot", "type": "gallery", "sectionId": "food", "sectionName": "Food", "webPublicationDate": "2010-10-29T07:00:00Z", "webTitle": "In pictures: How to press apples", "webUrl": "https://www.theguardian.com/lifeandstyle/gallery/2010/oct/29/how-to-press-apples-george-monbiot", "apiUrl": "https://content.guardianapis.com/lifeandstyle/gallery/2010/oct/29/how-to-press-apples-george-monbiot", "isHosted": false, "pillarId": "pillar/lifestyle", "pillarName": "Lifestyle"}, {"id": "environment/2010/oct/29/wireless-charging-electric-cars", "type": "article", "sectionId": "environment", "sectionName": "Environment", "webPublicationDate": "2010-10-29T06:00:01Z", "webTitle": "Wireless charging could drive electric vehicle take-up, developers say", "webUrl": "https://www.theguardian.com/environment/2010/oct/29/wireless-charging-electric-cars", "apiUrl": "https://content.guardianapis.com/environment/2010/oct/29/wireless-charging-electric-cars", "isHosted": false, "pillarId": "pillar/news", "pillarName": "News"}, {"id": "uk/2010/oct/29/clocks-forward-scotland-road-deaths", "type": "article", "sectionId": "uk-news", "sectionName": "UK news", "webPublicationDate": "2010-10-29T05:00:01Z", "webTitle": "Moving clocks forward would cut road deaths in Scotland, claims study", "webUrl": "https://www.theguardian.com/uk/2010/oct/29/clocks-forward-scotland-road-deaths", "apiUrl": "https://content.guardianapis.com/uk/2010/oct/29/clocks-forward-scotland-road-deaths", "isHosted": false, "pillarId": "pillar/news", "pillarName": "News"}, {"id": "environment/2010/oct/29/country-diary-northumberland", "type": "article", "sectionId": "environment", "sectionName": "Environment", "webPublicationDate": "2010-10-28T23:05:07Z", "webTitle": "Country diary: Northumberland", "webUrl": "https://www.theguardian.com/environment/2010/oct/29/country-diary-northumberland", "apiUrl": "https://content.guardianapis.com/environment/2010/oct/29/country-diary-northumberland", "isHosted": false, "pillarId": "pillar/news", "pillarName": "News"}, {"id": "commentisfree/2010/oct/28/they-conserved-the-victorian-cities", "type": "article", "sectionId": "commentisfree", "sectionName": "Opinion", "webPublicationDate": "2010-10-28T19:00:02Z", "webTitle": "They saved our Victorian cities. Now they are demolishing my prejudices | Simon Jenkins", "webUrl": "https://www.theguardian.com/commentisfree/2010/oct/28/they-conserved-the-victorian-cities", "apiUrl": "https://content.guardianapis.com/commentisfree/2010/oct/28/they-conserved-the-victorian-cities", "isHosted": false, "pillarId": "pillar/opinion", "pillarName": "Opinion"}, {"id": "environment/2010/oct/28/lake-district-burial-nuclear-waste", "type": "article", "sectionId": "environment", "sectionName": "Environment", "webPublicationDate": "2010-10-28T17:15:00Z", "webTitle": "Lake District identified as prime site for burial of nuclear waste", "webUrl": "https://www.theguardian.com/environment/2010/oct/28/lake-district-burial-nuclear-waste", "apiUrl": "https://content.guardianapis.com/environment/2010/oct/28/lake-district-burial-nuclear-waste", "isHosted": false, "pillarId": "pillar/news", "pillarName": "News"}, {"id": "world/2010/oct/28/arnold-schwarzenegger-proposition23-oil-climate-change", "type": "article", "sectionId": "environment", "sectionName": "Environment", "webPublicationDate": "2010-10-28T16:13:31Z", "webTitle": "Arnold Schwarzenegger flexes muscles to defend climate-change law", "webUrl": "https://www.theguardian.com/world/2010/oct/28/arnold-schwarzenegger-proposition23-oil-climate-change", "apiUrl": "https://content.guardianapis.com/world/2010/oct/28/arnold-schwarzenegger-proposition23-oil-climate-change", "isHosted": false, "pillarId": "pillar/news", "pillarName": "News"}, {"id": "environment/2010/oct/28/nagoya-biodiversity-summit-pathogens", "type": "article", "sectionId": "environment", "sectionName": "Environment", "webPublicationDate": "2010-10-28T15:38:42Z", "webTitle": "Pathogen row blocking biodiversity deal", "webUrl": "https://www.theguardian.com/environment/2010/oct/28/nagoya-biodiversity-summit-pathogens", "apiUrl": "https://content.guardianapis.com/environment/2010/oct/28/nagoya-biodiversity-summit-pathogens", "isHosted": false, "pillarId": "pillar/news", "pillarName": "News"}, {"id": "uk/2010/oct/28/exmoor-emperor-shooting-mystery", "type": "article", "sectionId": "uk-news", "sectionName": "UK news", "webPublicationDate": "2010-10-28T15:27:12Z", "webTitle": "Emperor of Exmoor: reports of his demise may be exaggerated, say locals", "webUrl": "https://www.theguardian.com/uk/2010/oct/28/exmoor-emperor-shooting-mystery", "apiUrl": "https://content.guardianapis.com/uk/2010/oct/28/exmoor-emperor-shooting-mystery", "isHosted": false, "pillarId": "pillar/news", "pillarName": "News"}, {"id": "money/2010/oct/28/quarter-water-companies-leakage", "type": "article", "sectionId": "money", "sectionName": "Money", "webPublicationDate": "2010-10-28T14:36:22Z", "webTitle": "Quarter of water companies neglecting leakage duties, says Ofwat", "webUrl": "https://www.theguardian.com/money/2010/oct/28/quarter-water-companies-leakage", "apiUrl": "https://content.guardianapis.com/money/2010/oct/28/quarter-water-companies-leakage", "isHosted": false, "pillarId": "pillar/lifestyle", "pillarName": "Lifestyle"}, {"id": "business/2010/oct/28/shell-profits-rise-18-per-cent", "type": "article", "sectionId": "business", "sectionName": "Business", "webPublicationDate": "2010-10-28T12:20:55Z", "webTitle": "Shell profits rise by 18%", "webUrl": "https://www.theguardian.com/business/2010/oct/28/shell-profits-rise-18-per-cent", "apiUrl": "https://content.guardianapis.com/business/2010/oct/28/shell-profits-rise-18-per-cent", "isHosted": false, "pillarId": "pillar/news", "pillarName": "News"}, {"id": "environment/2010/oct/28/ipcc-climate-science-attacks-tobacco", "type": "article", "sectionId": "environment", "sectionName": "Environment", "webPublicationDate": "2010-10-28T11:44:01Z", "webTitle": "IPCC vice-chair: Attacks on climate science echo tobacco industry tactics", "webUrl": "https://www.theguardian.com/environment/2010/oct/28/ipcc-climate-science-attacks-tobacco", "apiUrl": "https://content.guardianapis.com/environment/2010/oct/28/ipcc-climate-science-attacks-tobacco", "isHosted": false, "pillarId": "pillar/news", "pillarName": "News"}, {"id": "environment/2010/oct/28/accountants-hope-ecosystems", "type": "article", "sectionId": "environment", "sectionName": "Environment", "webPublicationDate": "2010-10-28T11:02:10Z", "webTitle": "Are accountants the last hope for the world's ecosystems? | Jonathan Watts", "webUrl": "https://www.theguardian.com/environment/2010/oct/28/accountants-hope-ecosystems", "apiUrl": "https://content.guardianapis.com/environment/2010/oct/28/accountants-hope-ecosystems", "isHosted": false, "pillarId": "pillar/news", "pillarName": "News"}, {"id": "news/datablog/2010/oct/28/24-new-transport-schemes-mapped", "type": "article", "sectionId": "news", "sectionName": "News", "webPublicationDate": "2010-10-28T10:16:19Z", "webTitle": "New transport projects mapped: see all 24 schemes", "webUrl": "https://www.theguardian.com/news/datablog/2010/oct/28/24-new-transport-schemes-mapped", "apiUrl": "https://content.guardianapis.com/news/datablog/2010/oct/28/24-new-transport-schemes-mapped", "isHosted": false, "pillarId": "pillar/news", "pillarName": "News"}, {"id": "environment/2010/oct/28/chicken-poo-lights-town", "type": "article", "sectionId": "environment", "sectionName": "Environment", "webPublicationDate": "2010-10-28T10:08:25Z", "webTitle": "Fowl energy: Chicken poo lights Gloucestershire town", "webUrl": "https://www.theguardian.com/environment/2010/oct/28/chicken-poo-lights-town", "apiUrl": "https://content.guardianapis.com/environment/2010/oct/28/chicken-poo-lights-town", "isHosted": false, "pillarId": "pillar/news", "pillarName": "News"}, {"id": "travel/video/2010/oct/28/thailand-green-travel", "type": "video", "sectionId": "travel", "sectionName": "Travel", "webPublicationDate": "2010-10-28T08:58:00Z", "webTitle": "Video | A green light for Thailand's tourism", "webUrl": "https://www.theguardian.com/travel/video/2010/oct/28/thailand-green-travel", "apiUrl": "https://content.guardianapis.com/travel/video/2010/oct/28/thailand-green-travel", "isHosted": false, "pillarId": "pillar/lifestyle", "pillarName": "Lifestyle"}, {"id": "environment/cif-green/2010/oct/28/oil-us-military-biofuels", "type": "article", "sectionId": "environment", "sectionName": "Environment", "webPublicationDate": "2010-10-28T07:52:50Z", "webTitle": "Surging price of oil forces US military to seek alternative energy sources | John Vidal", "webUrl": "https://www.theguardian.com/environment/cif-green/2010/oct/28/oil-us-military-biofuels", "apiUrl": "https://content.guardianapis.com/environment/cif-green/2010/oct/28/oil-us-military-biofuels", "isHosted": false, "pillarId": "pillar/news", "pillarName": "News"}, {"id": "environment/video/2010/oct/28/rspb-feed-birds-day", "type": "video", "sectionId": "environment", "sectionName": "Environment", "webPublicationDate": "2010-10-28T06:00:00Z", "webTitle": "Video | RSPB Feed the Birds day", "webUrl": "https://www.theguardian.com/environment/video/2010/oct/28/rspb-feed-birds-day", "apiUrl": "https://content.guardianapis.com/environment/video/2010/oct/28/rspb-feed-birds-day", "isHosted": false, "pillarId": "pillar/news", "pillarName": "News"}, {"id": "environment/2010/oct/28/country-diary-middlehope-burn", "type": "article", "sectionId": "environment", "sectionName": "Environment", "webPublicationDate": "2010-10-27T23:11:00Z", "webTitle": "Country diary: Westgate, Weardale", "webUrl": "https://www.theguardian.com/environment/2010/oct/28/country-diary-middlehope-burn", "apiUrl": "https://content.guardianapis.com/environment/2010/oct/28/country-diary-middlehope-burn", "isHosted": false, "pillarId": "pillar/news", "pillarName": "News"}, {"id": "environment/2010/oct/28/forest-policy", "type": "article", "sectionId": "environment", "sectionName": "Environment", "webPublicationDate": "2010-10-27T23:05:01Z", "webTitle": "Letters: Forest policy", "webUrl": "https://www.theguardian.com/environment/2010/oct/28/forest-policy", "apiUrl": "https://content.guardianapis.com/environment/2010/oct/28/forest-policy", "isHosted": false, "pillarId": "pillar/news", "pillarName": "News"}, {"id": "tv-and-radio/2010/oct/28/keith-richards-culture-show-special", "type": "article", "sectionId": "tv-and-radio", "sectionName": "Television & radio", "webPublicationDate": "2010-10-27T23:04:00Z", "webTitle": "Tonight's TV highlights: Keith Richards: A Culture Show Special | Monte Carlo or Bust | Wait Till Your Teacher Gets Home! | How to Get a Head in Sculpture", "webUrl": "https://www.theguardian.com/tv-and-radio/2010/oct/28/keith-richards-culture-show-special", "apiUrl": "https://content.guardianapis.com/tv-and-radio/2010/oct/28/keith-richards-culture-show-special", "isHosted": false, "pillarId": "pillar/arts", "pillarName": "Arts"}, {"id": "environment/2010/oct/27/us-navy-biofuel-gunboat", "type": "article", "sectionId": "environment", "sectionName": "Environment", "webPublicationDate": "2010-10-27T19:46:06Z", "webTitle": "US navy completes successful test on boat powered by algae", "webUrl": "https://www.theguardian.com/environment/2010/oct/27/us-navy-biofuel-gunboat", "apiUrl": "https://content.guardianapis.com/environment/2010/oct/27/us-navy-biofuel-gunboat", "isHosted": false, "pillarId": "pillar/news", "pillarName": "News"}, {"id": "environment/2010/oct/27/future-london-climate-change-images", "type": "article", "sectionId": "environment", "sectionName": "Environment", "webPublicationDate": "2010-10-27T17:28:46Z", "webTitle": "Images of London after climate change 'are lazy', say refugee groups", "webUrl": "https://www.theguardian.com/environment/2010/oct/27/future-london-climate-change-images", "apiUrl": "https://content.guardianapis.com/environment/2010/oct/27/future-london-climate-change-images", "isHosted": false, "pillarId": "pillar/news", "pillarName": "News"}]}}