{"response": {"status": "ok", "userTier": "developer", "total": 22144, "startIndex": 1, "pageSize": 50, "currentPage": 1, "pages": 443, "orderBy": "newest", "results": [{"id": "business/2015/oct/30/ferrero-rocher-factory-chocolatier-christmas-market", "type": "article", "sectionId": "business", "sectionName": "Business", "webPublicationDate": "2015-10-30T18:45:44Z", "webTitle": "Full steam ahead at Ferrero factory as chocolatier eyes No 1 spot in UK", "webUrl": "https://www.theguardian.com/business/2015/oct/30/ferrero-rocher-factory-chocolatier-christmas-market", "apiUrl": "https://content.guardianapis.com/business/2015/oct/30/ferrero-rocher-factory-chocolatier-christmas-market", "isHosted": false, "pillarId": "pillar/news", "pillarName": "News"}, {"id": "lifeandstyle/2015/oct/30/korean-pork-belly-recipe-baked-pumpkin-cheesecake-thomasina-miers", "type": "article", "sectionId": "food", "sectionName": "Food", "webPublicationDate": "2015-10-30T18:00:01Z", "webTitle": "The weekend cook: Thomasina Miers\u2019 recipes for Korean-style pork belly, and baked pumpkin cheesecake", "webUrl": "https://www.theguardian.com/lifeandstyle/2015/oct/30/korean-pork-belly-recipe-baked-pumpkin-cheesecake-thomasina-miers", "apiUrl": "https://content.guardianapis.com/lifeandstyle/2015/oct/30/korean-pork-belly-recipe-baked-pumpkin-cheesecake-thomasina-miers", "isHosted": false, "pillarId": "pillar/lifestyle", "pillarName": "Lifestyle"}, {"id": "world/2015/oct/30/russia-crazy-toilet-cafe-restaurant", "type": "article", "sectionId": "world", "sectionName": "World news", "webPublicationDate": "2015-10-30T15:11:25Z", "webTitle": "Faecal attraction: toilet-themed Russian restaurant appeals to novelty diners", "webUrl": "https://www.theguardian.com/world/2015/oct/30/russia-crazy-toilet-cafe-restaurant", "apiUrl": "https://content.guardianapis.com/world/2015/oct/30/russia-crazy-toilet-cafe-restaurant", "isHosted": false, "pillarId": "pillar/news", "pillarName": "News"}, {"id": "lifeandstyle/2015/oct/30/hendersons-vegan-edinburgh-restaurant-review-marina-oloughlin", "type": "article", "sectionId": "lifeandstyle", "sectionName": "Life and style", "webPublicationDate": "2015-10-30T14:00:03Z", "webTitle": "Henderson\u2019s Vegan, Edinburgh \u2013 restaurant review | Marina O\u2019Loughlin", "webUrl": "https://www.theguardian.com/lifeandstyle/2015/oct/30/hendersons-vegan-edinburgh-restaurant-review-marina-oloughlin", "apiUrl": "https://content.guardianapis.com/lifeandstyle/2015/oct/30/hendersons-vegan-edinburgh-restaurant-review-marina-oloughlin", "isHosted": false, "pillarId": "pillar/lifestyle", "pillarName": "Lifestyle"}, {"id": "uk-news/2015/oct/30/cancer-carcinogens-avoid-i-die-exposure", "type": "article", "sectionId": "society", "sectionName": "Society", "webPublicationDate": "2015-10-30T12:01:21Z", "webTitle": "How do I ... avoid carcinogens?", "webUrl": "https://www.theguardian.com/uk-news/2015/oct/30/cancer-carcinogens-avoid-i-die-exposure", "apiUrl": "https://content.guardianapis.com/uk-news/2015/oct/30/cancer-carcinogens-avoid-i-die-exposure", "isHosted": false, "pillarId": "pillar/news", "pillarName": "News"}, {"id": "lifeandstyle/2015/oct/30/mexican-mole-sauce-recipe-feasting-henry-dimbleby", "type": "article", "sectionId": "lifeandstyle", "sectionName": "Life and style", "webPublicationDate": "2015-10-30T12:00:02Z", "webTitle": "Sauce of conflict: a vegan mole recipe | Feasting", "webUrl": "https://www.theguardian.com/lifeandstyle/2015/oct/30/mexican-mole-sauce-recipe-feasting-henry-dimbleby", "apiUrl": "https://content.guardianapis.com/lifeandstyle/2015/oct/30/mexican-mole-sauce-recipe-feasting-henry-dimbleby", "isHosted": false, "pillarId": "pillar/lifestyle", "pillarName": "Lifestyle"}, {"id": "commentisfree/2015/oct/30/italy-pasta-best-staple-gluten-free-paleo-diets", "type": "article", "sectionId": "commentisfree", "sectionName": "Opinion", "webPublicationDate": "2015-10-30T11:44:24Z", "webTitle": "Italy, don\u2019t turn your back on pasta \u2013 it\u2019s the best food on earth\r\n\r\n \r\n", "webUrl": "https://www.theguardian.com/commentisfree/2015/oct/30/italy-pasta-best-staple-gluten-free-paleo-diets", "apiUrl": "https://content.guardianapis.com/commentisfree/2015/oct/30/italy-pasta-best-staple-gluten-free-paleo-diets", "isHosted": false, "pillarId": "pillar/opinion", "pillarName": "Opinion"}, {"id": "lifeandstyle/2015/oct/30/last-bites-anna-hansen-final-meal", "type": "article", "sectionId": "food", "sectionName": "Food", "webPublicationDate": "2015-10-30T08:00:09Z", "webTitle": "Anna Hansen\u2019s final meal | Last bites", "webUrl": "https://www.theguardian.com/lifeandstyle/2015/oct/30/last-bites-anna-hansen-final-meal", "apiUrl": "https://content.guardianapis.com/lifeandstyle/2015/oct/30/last-bites-anna-hansen-final-meal", "isHosted": false, "pillarId": "pillar/lifestyle", "pillarName": "Lifestyle"}, {"id": "lifeandstyle/2015/oct/30/low-fat-diets-slammed-major-new-report", "type": "article", "sectionId": "lifeandstyle", "sectionName": "Life and style", "webPublicationDate": "2015-10-30T01:36:43Z", "webTitle": "Low-carb and Mediterranean diets beat low-fat plans for losing weight \u2013 report", "webUrl": "https://www.theguardian.com/lifeandstyle/2015/oct/30/low-fat-diets-slammed-major-new-report", "apiUrl": "https://content.guardianapis.com/lifeandstyle/2015/oct/30/low-fat-diets-slammed-major-new-report", "isHosted": false, "pillarId": "pillar/lifestyle", "pillarName": "Lifestyle"}, {"id": "australia-news/australia-culture-blog/2015/oct/30/how-australia-learned-to-be-cosmopolitan", "type": "article", "sectionId": "australia-news", "sectionName": "Australia news", "webPublicationDate": "2015-10-30T00:26:20Z", "webTitle": "How Australia learned to be cosmopolitan | Frank Bongiorno", "webUrl": "https://www.theguardian.com/australia-news/australia-culture-blog/2015/oct/30/how-australia-learned-to-be-cosmopolitan", "apiUrl": "https://content.guardianapis.com/australia-news/australia-culture-blog/2015/oct/30/how-australia-learned-to-be-cosmopolitan", "isHosted": false, "pillarId": "pillar/news", "pillarName": "News"}, {"id": "lifeandstyle/2015/oct/29/mulled-cider-whisky-mac-toddy-for-halloween-bonfire-night", "type": "article", "sectionId": "lifeandstyle", "sectionName": "Life and style", "webPublicationDate": "2015-10-29T16:00:00Z", "webTitle": "Drink: warming tipples for Halloween, the Day of the Dead and Bonfire Night", "webUrl": "https://www.theguardian.com/lifeandstyle/2015/oct/29/mulled-cider-whisky-mac-toddy-for-halloween-bonfire-night", "apiUrl": "https://content.guardianapis.com/lifeandstyle/2015/oct/29/mulled-cider-whisky-mac-toddy-for-halloween-bonfire-night", "isHosted": false, "pillarId": "pillar/lifestyle", "pillarName": "Lifestyle"}, {"id": "lifeandstyle/2015/oct/29/healthy-candy-halloween-parenting-monster", "type": "article", "sectionId": "lifeandstyle", "sectionName": "Life and style", "webPublicationDate": "2015-10-29T13:00:07Z", "webTitle": "Healthy candy for Halloween? You're a parenting monster", "webUrl": "https://www.theguardian.com/lifeandstyle/2015/oct/29/healthy-candy-halloween-parenting-monster", "apiUrl": "https://content.guardianapis.com/lifeandstyle/2015/oct/29/healthy-candy-halloween-parenting-monster", "isHosted": false, "pillarId": "pillar/lifestyle", "pillarName": "Lifestyle"}, {"id": "lifeandstyle/2015/oct/29/peperonata-recipe-jane-grigson-rachel-roddy-kitchen-sink-tales", "type": "article", "sectionId": "food", "sectionName": "Food", "webPublicationDate": "2015-10-29T13:00:07Z", "webTitle": "A peperonata recipe straight from Rome | Kitchen sink tales", "webUrl": "https://www.theguardian.com/lifeandstyle/2015/oct/29/peperonata-recipe-jane-grigson-rachel-roddy-kitchen-sink-tales", "apiUrl": "https://content.guardianapis.com/lifeandstyle/2015/oct/29/peperonata-recipe-jane-grigson-rachel-roddy-kitchen-sink-tales", "isHosted": false, "pillarId": "pillar/lifestyle", "pillarName": "Lifestyle"}, {"id": "sustainable-business/ng-interactive/2015/oct/29/the-fish-farm-of-the-future-interactive", "type": "interactive", "sectionId": "sustainable-business", "sectionName": "Guardian Sustainable Business", "webPublicationDate": "2015-10-29T12:07:23Z", "webTitle": "The fish farm of the future - interactive", "webUrl": "https://www.theguardian.com/sustainable-business/ng-interactive/2015/oct/29/the-fish-farm-of-the-future-interactive", "apiUrl": "https://content.guardianapis.com/sustainable-business/ng-interactive/2015/oct/29/the-fish-farm-of-the-future-interactive", "isHosted": false}, {"id": "lifeandstyle/2015/oct/29/brazilian-recipes-from-mazi-mas-women-always-manage", "type": "article", "sectionId": "food", "sectionName": "Food", "webPublicationDate": "2015-10-29T12:03:16Z", "webTitle": "Brazilian recipes from Mazi Mas: 'Women always manage!' | Cook residency", "webUrl": "https://www.theguardian.com/lifeandstyle/2015/oct/29/brazilian-recipes-from-mazi-mas-women-always-manage", "apiUrl": "https://content.guardianapis.com/lifeandstyle/2015/oct/29/brazilian-recipes-from-mazi-mas-women-always-manage", "isHosted": false, "pillarId": "pillar/lifestyle", "pillarName": "Lifestyle"}, {"id": "lifeandstyle/2015/oct/29/martini-recipe-classic-perfect", "type": "article", "sectionId": "food", "sectionName": "Food", "webPublicationDate": "2015-10-29T08:45:03Z", "webTitle": "How to make the perfect martini", "webUrl": "https://www.theguardian.com/lifeandstyle/2015/oct/29/martini-recipe-classic-perfect", "apiUrl": "https://content.guardianapis.com/lifeandstyle/2015/oct/29/martini-recipe-classic-perfect", "isHosted": false, "pillarId": "pillar/lifestyle", "pillarName": "Lifestyle"}, {"id": "lifeandstyle/2015/oct/29/seasons-eatings-broad-bean-salad-with-goats-curd", "type": "article", "sectionId": "lifeandstyle", "sectionName": "Life and style", "webPublicationDate": "2015-10-29T06:20:52Z", "webTitle": "Season's eatings: broad bean salad with goat's cheese", "webUrl": "https://www.theguardian.com/lifeandstyle/2015/oct/29/seasons-eatings-broad-bean-salad-with-goats-curd", "apiUrl": "https://content.guardianapis.com/lifeandstyle/2015/oct/29/seasons-eatings-broad-bean-salad-with-goats-curd", "isHosted": false, "pillarId": "pillar/lifestyle", "pillarName": "Lifestyle"}, {"id": "travel/2015/oct/29/its-all-about-the-fresh-local-produce-the-five-best-healthy-places-to-eat-in-bali", "type": "article", "sectionId": "travel", "sectionName": "Travel", "webPublicationDate": "2015-10-29T04:02:41Z", "webTitle": "'It's all about the fresh, local produce': the five best healthy places to eat in Bali", "webUrl": "https://www.theguardian.com/travel/2015/oct/29/its-all-about-the-fresh-local-produce-the-five-best-healthy-places-to-eat-in-bali", "apiUrl": "https://content.guardianapis.com/travel/2015/oct/29/its-all-about-the-fresh-local-produce-the-five-best-healthy-places-to-eat-in-bali", "isHosted": false, "pillarId": "pillar/lifestyle", "pillarName": "Lifestyle"}, {"id": "world/2015/oct/28/dijon-court-fines-review-loiseau-des-ducs-restaurant", "type": "article", "sectionId": "world", "sectionName": "World news", "webPublicationDate": "2015-10-28T17:41:59Z", "webTitle": "French court fines online reviewer for slamming restaurant before it had opened", "webUrl": "https://www.theguardian.com/world/2015/oct/28/dijon-court-fines-review-loiseau-des-ducs-restaurant", "apiUrl": "https://content.guardianapis.com/world/2015/oct/28/dijon-court-fines-review-loiseau-des-ducs-restaurant", "isHosted": false, "pillarId": "pillar/news", "pillarName": "News"}, {"id": "community/2015/oct/28/recipe-swap-clementines", "type": "article", "sectionId": "community", "sectionName": "Community", "webPublicationDate": "2015-10-28T17:16:15Z", "webTitle": "Recipe swap: clementines", "webUrl": "https://www.theguardian.com/community/2015/oct/28/recipe-swap-clementines", "apiUrl": "https://content.guardianapis.com/community/2015/oct/28/recipe-swap-clementines", "isHosted": false, "pillarId": "pillar/news", "pillarName": "News"}, {"id": "business/2015/oct/28/asda-curry-shortage-ready-meal-supplier-administration", "type": "article", "sectionId": "business", "sectionName": "Business", "webPublicationDate": "2015-10-28T15:52:56Z", "webTitle": "Curry squeeze at Asda after supplier goes into administration", "webUrl": "https://www.theguardian.com/business/2015/oct/28/asda-curry-shortage-ready-meal-supplier-administration", "apiUrl": "https://content.guardianapis.com/business/2015/oct/28/asda-curry-shortage-ready-meal-supplier-administration", "isHosted": false, "pillarId": "pillar/news", "pillarName": "News"}, {"id": "lifeandstyle/2015/oct/28/nuno-mendes-portuguese-recipes-squid-rice-beef", "type": "article", "sectionId": "food", "sectionName": "Food", "webPublicationDate": "2015-10-28T15:37:39Z", "webTitle": "Nuno Mendes\u2019 Portuguese squid, rice and beef recipes", "webUrl": "https://www.theguardian.com/lifeandstyle/2015/oct/28/nuno-mendes-portuguese-recipes-squid-rice-beef", "apiUrl": "https://content.guardianapis.com/lifeandstyle/2015/oct/28/nuno-mendes-portuguese-recipes-squid-rice-beef", "isHosted": false, "pillarId": "pillar/lifestyle", "pillarName": "Lifestyle"}, {"id": "lifeandstyle/2015/oct/28/in-october-at-least-america-runs-on-pumpkin", "type": "article", "sectionId": "food", "sectionName": "Food", "webPublicationDate": "2015-10-28T13:37:53Z", "webTitle": "In October at least, America runs on pumpkin", "webUrl": "https://www.theguardian.com/lifeandstyle/2015/oct/28/in-october-at-least-america-runs-on-pumpkin", "apiUrl": "https://content.guardianapis.com/lifeandstyle/2015/oct/28/in-october-at-least-america-runs-on-pumpkin", "isHosted": false, "pillarId": "pillar/lifestyle", "pillarName": "Lifestyle"}, {"id": "books/2015/oct/28/top-10-memorable-meals-in-literature", "type": "article", "sectionId": "books", "sectionName": "Books", "webPublicationDate": "2015-10-28T13:06:14Z", "webTitle": "Top 10 memorable meals in literature", "webUrl": "https://www.theguardian.com/books/2015/oct/28/top-10-memorable-meals-in-literature", "apiUrl": "https://content.guardianapis.com/books/2015/oct/28/top-10-memorable-meals-in-literature", "isHosted": false, "pillarId": "pillar/arts", "pillarName": "Arts"}, {"id": "lifeandstyle/2015/oct/28/ecologyk-kettle-kitchen-gadget-review-rhik-samadder", "type": "article", "sectionId": "food", "sectionName": "Food", "webPublicationDate": "2015-10-28T12:24:50Z", "webTitle": "Kitchen gadgets review: EcoLogyk kettle \u2013 be an eco-hero with zero effort", "webUrl": "https://www.theguardian.com/lifeandstyle/2015/oct/28/ecologyk-kettle-kitchen-gadget-review-rhik-samadder", "apiUrl": "https://content.guardianapis.com/lifeandstyle/2015/oct/28/ecologyk-kettle-kitchen-gadget-review-rhik-samadder", "isHosted": false, "pillarId": "pillar/lifestyle", "pillarName": "Lifestyle"}, {"id": "sustainable-business/2015/oct/28/food-safety-health-supply-mars-global-center", "type": "article", "sectionId": "sustainable-business", "sectionName": "Guardian Sustainable Business", "webPublicationDate": "2015-10-28T12:00:05Z", "webTitle": "Companies have to work together to cut out food safety scares, says Mars", "webUrl": "https://www.theguardian.com/sustainable-business/2015/oct/28/food-safety-health-supply-mars-global-center", "apiUrl": "https://content.guardianapis.com/sustainable-business/2015/oct/28/food-safety-health-supply-mars-global-center", "isHosted": false}, {"id": "society/2015/oct/27/sugar-market-reform-could-flood-eu-with-cheap-imports", "type": "article", "sectionId": "society", "sectionName": "Society", "webPublicationDate": "2015-10-27T23:30:12Z", "webTitle": "Sugar market reform 'could flood EU with cheap imports'", "webUrl": "https://www.theguardian.com/society/2015/oct/27/sugar-market-reform-could-flood-eu-with-cheap-imports", "apiUrl": "https://content.guardianapis.com/society/2015/oct/27/sugar-market-reform-could-flood-eu-with-cheap-imports", "isHosted": false, "pillarId": "pillar/news", "pillarName": "News"}, {"id": "lifeandstyle/2015/oct/27/hipster-fried-chicken-pfc-documentary", "type": "article", "sectionId": "food", "sectionName": "Food", "webPublicationDate": "2015-10-27T17:00:00Z", "webTitle": "Posh fried chicken tested by teenagers: \u2018It\u2019s crispy, bruv!\u2019", "webUrl": "https://www.theguardian.com/lifeandstyle/2015/oct/27/hipster-fried-chicken-pfc-documentary", "apiUrl": "https://content.guardianapis.com/lifeandstyle/2015/oct/27/hipster-fried-chicken-pfc-documentary", "isHosted": false, "pillarId": "pillar/lifestyle", "pillarName": "Lifestyle"}, {"id": "travel/2015/oct/27/las-vegas-diner-at-5am", "type": "article", "sectionId": "travel", "sectionName": "Travel", "webPublicationDate": "2015-10-27T16:00:03Z", "webTitle": "Life in a Vegas diner at 5am: 'Good morning \u2026 or good evening'", "webUrl": "https://www.theguardian.com/travel/2015/oct/27/las-vegas-diner-at-5am", "apiUrl": "https://content.guardianapis.com/travel/2015/oct/27/las-vegas-diner-at-5am", "isHosted": false, "pillarId": "pillar/lifestyle", "pillarName": "Lifestyle"}, {"id": "lifeandstyle/2015/oct/27/pasta-key-to-healthy-sustainable-diet-says-italian-celebrity-chef", "type": "article", "sectionId": "food", "sectionName": "Food", "webPublicationDate": "2015-10-27T15:36:35Z", "webTitle": "Pasta key to healthy sustainable diet, says Italian celebrity chef", "webUrl": "https://www.theguardian.com/lifeandstyle/2015/oct/27/pasta-key-to-healthy-sustainable-diet-says-italian-celebrity-chef", "apiUrl": "https://content.guardianapis.com/lifeandstyle/2015/oct/27/pasta-key-to-healthy-sustainable-diet-says-italian-celebrity-chef", "isHosted": false, "pillarId": "pillar/lifestyle", "pillarName": "Lifestyle"}, {"id": "commentisfree/2015/oct/27/bacon-carcinogen-kill-you-life-happens", "type": "article", "sectionId": "commentisfree", "sectionName": "Opinion", "webPublicationDate": "2015-10-27T10:00:10Z", "webTitle": "Something is going to kill you. Life is about what happens before that | JC Johnson", "webUrl": "https://www.theguardian.com/commentisfree/2015/oct/27/bacon-carcinogen-kill-you-life-happens", "apiUrl": "https://content.guardianapis.com/commentisfree/2015/oct/27/bacon-carcinogen-kill-you-life-happens", "isHosted": false, "pillarId": "pillar/opinion", "pillarName": "Opinion"}, {"id": "commentisfree/2015/oct/27/science-new-study-case-sugar-tax", "type": "article", "sectionId": "commentisfree", "sectionName": "Opinion", "webPublicationDate": "2015-10-27T09:13:11Z", "webTitle": "The science is in: the case for a sugar tax is overwhelming | Robert Lustig", "webUrl": "https://www.theguardian.com/commentisfree/2015/oct/27/science-new-study-case-sugar-tax", "apiUrl": "https://content.guardianapis.com/commentisfree/2015/oct/27/science-new-study-case-sugar-tax", "isHosted": false, "pillarId": "pillar/opinion", "pillarName": "Opinion"}, {"id": "world/2015/oct/27/australians-should-moderate-but-not-banish-red-meat-intake-say-experts", "type": "article", "sectionId": "world", "sectionName": "World news", "webPublicationDate": "2015-10-27T00:27:40Z", "webTitle": "Australians should limit but not stop eating red meat, say experts", "webUrl": "https://www.theguardian.com/world/2015/oct/27/australians-should-moderate-but-not-banish-red-meat-intake-say-experts", "apiUrl": "https://content.guardianapis.com/world/2015/oct/27/australians-should-moderate-but-not-banish-red-meat-intake-say-experts", "isHosted": false, "pillarId": "pillar/news", "pillarName": "News"}, {"id": "australia-news/2015/oct/27/barnaby-joyce-plays-down-research-linking-processed-meats-to-cancer", "type": "article", "sectionId": "australia-news", "sectionName": "Australia news", "webPublicationDate": "2015-10-26T22:29:27Z", "webTitle": "Barnaby Joyce plays down research linking processed meats to cancer", "webUrl": "https://www.theguardian.com/australia-news/2015/oct/27/barnaby-joyce-plays-down-research-linking-processed-meats-to-cancer", "apiUrl": "https://content.guardianapis.com/australia-news/2015/oct/27/barnaby-joyce-plays-down-research-linking-processed-meats-to-cancer", "isHosted": false, "pillarId": "pillar/news", "pillarName": "News"}, {"id": "commentisfree/2015/oct/26/the-guardian-view-on-meat-and-cancer-a-little-of-what-you-fancy-will-do-you-no-harm", "type": "article", "sectionId": "commentisfree", "sectionName": "Opinion", "webPublicationDate": "2015-10-26T19:37:25Z", "webTitle": "The Guardian view on meat and cancer: a little of what you fancy will do you no harm | Editorial", "webUrl": "https://www.theguardian.com/commentisfree/2015/oct/26/the-guardian-view-on-meat-and-cancer-a-little-of-what-you-fancy-will-do-you-no-harm", "apiUrl": "https://content.guardianapis.com/commentisfree/2015/oct/26/the-guardian-view-on-meat-and-cancer-a-little-of-what-you-fancy-will-do-you-no-harm", "isHosted": false, "pillarId": "pillar/opinion", "pillarName": "Opinion"}, {"id": "business/2015/oct/26/meat-industry-rejects-report-linking-products-cancer", "type": "article", "sectionId": "business", "sectionName": "Business", "webPublicationDate": "2015-10-26T19:29:34Z", "webTitle": "Meat industry rejects report linking its products to cancer", "webUrl": "https://www.theguardian.com/business/2015/oct/26/meat-industry-rejects-report-linking-products-cancer", "apiUrl": "https://content.guardianapis.com/business/2015/oct/26/meat-industry-rejects-report-linking-products-cancer", "isHosted": false, "pillarId": "pillar/news", "pillarName": "News"}, {"id": "world/2015/oct/26/italy-parma-ham-defend-prosciutto-processed-meat-scare-cancer", "type": "article", "sectionId": "food", "sectionName": "Food", "webPublicationDate": "2015-10-26T19:03:42Z", "webTitle": "Italy's Parma ham connoisseurs defend prosciutto amid processed meat scare", "webUrl": "https://www.theguardian.com/world/2015/oct/26/italy-parma-ham-defend-prosciutto-processed-meat-scare-cancer", "apiUrl": "https://content.guardianapis.com/world/2015/oct/26/italy-parma-ham-defend-prosciutto-processed-meat-scare-cancer", "isHosted": false, "pillarId": "pillar/lifestyle", "pillarName": "Lifestyle"}, {"id": "lifeandstyle/shortcuts/2015/oct/26/pumpkin-shortage-wet-summer-halloween", "type": "article", "sectionId": "food", "sectionName": "Food", "webPublicationDate": "2015-10-26T17:33:04Z", "webTitle": "'They are ticking timebombs': the problem with the British pumpkin harvest", "webUrl": "https://www.theguardian.com/lifeandstyle/shortcuts/2015/oct/26/pumpkin-shortage-wet-summer-halloween", "apiUrl": "https://content.guardianapis.com/lifeandstyle/shortcuts/2015/oct/26/pumpkin-shortage-wet-summer-halloween", "isHosted": false, "pillarId": "pillar/lifestyle", "pillarName": "Lifestyle"}, {"id": "commentisfree/2015/oct/26/ham-risks-cancer-red-processed-meat", "type": "article", "sectionId": "commentisfree", "sectionName": "Opinion", "webPublicationDate": "2015-10-26T15:59:33Z", "webTitle": "I\u2019m not giving up my ham and mustard sandwich | Ann Robinson", "webUrl": "https://www.theguardian.com/commentisfree/2015/oct/26/ham-risks-cancer-red-processed-meat", "apiUrl": "https://content.guardianapis.com/commentisfree/2015/oct/26/ham-risks-cancer-red-processed-meat", "isHosted": false, "pillarId": "pillar/opinion", "pillarName": "Opinion"}, {"id": "society/2015/oct/26/processed-and-red-meat-what-are-the-cancer-risks", "type": "article", "sectionId": "society", "sectionName": "Society", "webPublicationDate": "2015-10-26T15:53:52Z", "webTitle": "Processed and red meat: what are the cancer risks?", "webUrl": "https://www.theguardian.com/society/2015/oct/26/processed-and-red-meat-what-are-the-cancer-risks", "apiUrl": "https://content.guardianapis.com/society/2015/oct/26/processed-and-red-meat-what-are-the-cancer-risks", "isHosted": false, "pillarId": "pillar/news", "pillarName": "News"}, {"id": "lifeandstyle/2015/oct/26/how-bad-is-meat-for-me-frankly-the-experts-dont-know", "type": "article", "sectionId": "food", "sectionName": "Food", "webPublicationDate": "2015-10-26T15:35:39Z", "webTitle": "How bad is meat for me? Frankly, the experts don't know", "webUrl": "https://www.theguardian.com/lifeandstyle/2015/oct/26/how-bad-is-meat-for-me-frankly-the-experts-dont-know", "apiUrl": "https://content.guardianapis.com/lifeandstyle/2015/oct/26/how-bad-is-meat-for-me-frankly-the-experts-dont-know", "isHosted": false, "pillarId": "pillar/lifestyle", "pillarName": "Lifestyle"}, {"id": "lifeandstyle/live/2015/oct/24/marina-oloughlins-50-favourite-restaurants-post-your-webchat-questions-now", "type": "liveblog", "sectionId": "food", "sectionName": "Food", "webPublicationDate": "2015-10-26T14:15:59Z", "webTitle": "Marina O'Loughlin's webchat - as it happened", "webUrl": "https://www.theguardian.com/lifeandstyle/live/2015/oct/24/marina-oloughlins-50-favourite-restaurants-post-your-webchat-questions-now", "apiUrl": "https://content.guardianapis.com/lifeandstyle/live/2015/oct/24/marina-oloughlins-50-favourite-restaurants-post-your-webchat-questions-now", "isHosted": false, "pillarId": "pillar/lifestyle", "pillarName": "Lifestyle"}, {"id": "society/2015/oct/26/bacon-ham-sausages-processed-meats-cancer-risk-smoking-says-who", "type": "article", "sectionId": "society", "sectionName": "Society", "webPublicationDate": "2015-10-26T12:30:51Z", "webTitle": "Processed meats rank alongside smoking as cancer causes \u2013 WHO", "webUrl": "https://www.theguardian.com/society/2015/oct/26/bacon-ham-sausages-processed-meats-cancer-risk-smoking-says-who", "apiUrl": "https://content.guardianapis.com/society/2015/oct/26/bacon-ham-sausages-processed-meats-cancer-risk-smoking-says-who", "isHosted": false, "pillarId": "pillar/news", "pillarName": "News"}, {"id": "lifeandstyle/2015/oct/26/go-back-to-halloweens-roots-and-carve-a-turnip-charity-suggests", "type": "article", "sectionId": "lifeandstyle", "sectionName": "Life and style", "webPublicationDate": "2015-10-26T11:20:04Z", "webTitle": "Go back to Halloween's roots and carve a turnip, charity suggests", "webUrl": "https://www.theguardian.com/lifeandstyle/2015/oct/26/go-back-to-halloweens-roots-and-carve-a-turnip-charity-suggests", "apiUrl": "https://content.guardianapis.com/lifeandstyle/2015/oct/26/go-back-to-halloweens-roots-and-carve-a-turnip-charity-suggests", "isHosted": false, "pillarId": "pillar/lifestyle", "pillarName": "Lifestyle"}, {"id": "lifeandstyle/2015/oct/26/processed-meats-pose-same-cancer-risk-as-smoking-and-asbestos-reports-say", "type": "article", "sectionId": "food", "sectionName": "Food", "webPublicationDate": "2015-10-26T09:44:25Z", "webTitle": "Processed meats pose same cancer risk as smoking and asbestos, reports say", "webUrl": "https://www.theguardian.com/lifeandstyle/2015/oct/26/processed-meats-pose-same-cancer-risk-as-smoking-and-asbestos-reports-say", "apiUrl": "https://content.guardianapis.com/lifeandstyle/2015/oct/26/processed-meats-pose-same-cancer-risk-as-smoking-and-asbestos-reports-say", "isHosted": false, "pillarId": "pillar/lifestyle", "pillarName": "Lifestyle"}, {"id": "money/2015/oct/26/save-money-when-you-take-the-children-out-to-eat", "type": "article", "sectionId": "money", "sectionName": "Money", "webPublicationDate": "2015-10-26T07:00:11Z", "webTitle": "Eat, drink and save when you take the children out for a half-term treat", "webUrl": "https://www.theguardian.com/money/2015/oct/26/save-money-when-you-take-the-children-out-to-eat", "apiUrl": "https://content.guardianapis.com/money/2015/oct/26/save-money-when-you-take-the-children-out-to-eat", "isHosted": false, "pillarId": "pillar/lifestyle", "pillarName": "Lifestyle"}, {"id": "business/2015/oct/26/english-wine-rush-to-start-uk-vineyards", "type": "article", "sectionId": "business", "sectionName": "Business", "webPublicationDate": "2015-10-26T01:00:04Z", "webTitle": "English wine pioneers rush to start UK vineyards", "webUrl": "https://www.theguardian.com/business/2015/oct/26/english-wine-rush-to-start-uk-vineyards", "apiUrl": "https://content.guardianapis.com/business/2015/oct/26/english-wine-rush-to-start-uk-vineyards", "isHosted": false, "pillarId": "pillar/news", "pillarName": "News"}, {"id": "business/2015/oct/26/lidl-christmas-lobster-war", "type": "article", "sectionId": "business", "sectionName": "Business", "webPublicationDate": "2015-10-26T00:01:04Z", "webTitle": "Lidl fires first shot in Christmas lobster war", "webUrl": "https://www.theguardian.com/business/2015/oct/26/lidl-christmas-lobster-war", "apiUrl": "https://content.guardianapis.com/business/2015/oct/26/lidl-christmas-lobster-war", "isHosted": false, "pillarId": "pillar/news", "pillarName": "News"}, {"id": "lifeandstyle/2015/oct/25/tony-gallagher-moro-newspaper-editor", "type": "article", "sectionId": "food", "sectionName": "Food", "webPublicationDate": "2015-10-25T19:00:17Z", "webTitle": "\u2018I made a giant mess\u2019 \u2013 newspaper editor Tony Gallagher on working in the kitchen at Moro\r\n\r\n", "webUrl": "https://www.theguardian.com/lifeandstyle/2015/oct/25/tony-gallagher-moro-newspaper-editor", "apiUrl": "https://content.guardianapis.com/lifeandstyle/2015/oct/25/tony-gallagher-moro-newspaper-editor", "isHosted": false, "pillarId": "pillar/lifestyle", "pillarName": "Lifestyle"}, {"id": "lifeandstyle/2015/oct/25/taken-back-35-years-by-bleeding-radiators", "type": "article", "sectionId": "lifeandstyle", "sectionName": "Life and style", "webPublicationDate": "2015-10-25T18:48:45Z", "webTitle": "Taken back 35 years by bleeding radiators | Letters", "webUrl": "https://www.theguardian.com/lifeandstyle/2015/oct/25/taken-back-35-years-by-bleeding-radiators", "apiUrl": "https://content.guardianapis.com/lifeandstyle/2015/oct/25/taken-back-35-years-by-bleeding-radiators", "isHosted": false, "pillarId": "pillar/lifestyle", "pillarName": "Lifestyle"}]}}