{"response": {"status": "ok", "userTier": "developer", "total": 86728, "startIndex": 1, "pageSize": 50, "currentPage": 1, "pages": 1735, "orderBy": "newest", "results": [{"id": "football/2011/oct/30/robin-van-persie-arsenal-chelsea", "type": "article", "sectionId": "football", "sectionName": "Football", "webPublicationDate": "2011-10-30T23:01:01Z", "webTitle": "Robin van Persie raises the standard for revitalised Arsenal", "webUrl": "https://www.theguardian.com/football/2011/oct/30/robin-van-persie-arsenal-chelsea", "apiUrl": "https://content.guardianapis.com/football/2011/oct/30/robin-van-persie-arsenal-chelsea", "isHosted": false, "pillarId": "pillar/sport", "pillarName": "Sport"}, {"id": "football/2011/oct/30/edin-dzeko-title-city", "type": "article", "sectionId": "football", "sectionName": "Football", "webPublicationDate": "2011-10-30T23:00:07Z", "webTitle": "Edin Dzeko cautions against title talk for Manchester City", "webUrl": "https://www.theguardian.com/football/2011/oct/30/edin-dzeko-title-city", "apiUrl": "https://content.guardianapis.com/football/2011/oct/30/edin-dzeko-title-city", "isHosted": false, "pillarId": "pillar/sport", "pillarName": "Sport"}, {"id": "football/2011/oct/30/chelsea-andre-villas-boas-arsenal", "type": "article", "sectionId": "football", "sectionName": "Football", "webPublicationDate": "2011-10-30T23:00:06Z", "webTitle": "Chelsea on message but Andr\u00e9 Villas-Boas needs to work on method", "webUrl": "https://www.theguardian.com/football/2011/oct/30/chelsea-andre-villas-boas-arsenal", "apiUrl": "https://content.guardianapis.com/football/2011/oct/30/chelsea-andre-villas-boas-arsenal", "isHosted": false, "pillarId": "pillar/sport", "pillarName": "Sport"}, {"id": "football/2011/oct/30/neil-lennon-celtic-rangers", "type": "article", "sectionId": "football", "sectionName": "Football", "webPublicationDate": "2011-10-30T23:00:06Z", "webTitle": "Rangers' off-field problems may offer Celtic's Neil Lennon a lifeline", "webUrl": "https://www.theguardian.com/football/2011/oct/30/neil-lennon-celtic-rangers", "apiUrl": "https://content.guardianapis.com/football/2011/oct/30/neil-lennon-celtic-rangers", "isHosted": false, "pillarId": "pillar/sport", "pillarName": "Sport"}, {"id": "football/2011/oct/30/steve-bruce-sunderland", "type": "article", "sectionId": "football", "sectionName": "Football", "webPublicationDate": "2011-10-30T23:00:05Z", "webTitle": "Steve Bruce and Alex McLeish draw little comfort from stalemate", "webUrl": "https://www.theguardian.com/football/2011/oct/30/steve-bruce-sunderland", "apiUrl": "https://content.guardianapis.com/football/2011/oct/30/steve-bruce-sunderland", "isHosted": false, "pillarId": "pillar/sport", "pillarName": "Sport"}, {"id": "football/2011/oct/30/everton-manchester-united", "type": "article", "sectionId": "football", "sectionName": "Football", "webPublicationDate": "2011-10-30T23:00:04Z", "webTitle": "Manchester United's caution pays off in win at Everton", "webUrl": "https://www.theguardian.com/football/2011/oct/30/everton-manchester-united", "apiUrl": "https://content.guardianapis.com/football/2011/oct/30/everton-manchester-united", "isHosted": false, "pillarId": "pillar/sport", "pillarName": "Sport"}, {"id": "football/2011/oct/30/dalglish-carroll-suarez-liverpool", "type": "article", "sectionId": "football", "sectionName": "Football", "webPublicationDate": "2011-10-30T23:00:02Z", "webTitle": "Dalglish not ready to class Carroll and Su\u00e1rez among Liverpool greats", "webUrl": "https://www.theguardian.com/football/2011/oct/30/dalglish-carroll-suarez-liverpool", "apiUrl": "https://content.guardianapis.com/football/2011/oct/30/dalglish-carroll-suarez-liverpool", "isHosted": false, "pillarId": "pillar/sport", "pillarName": "Sport"}, {"id": "football/2011/oct/30/steve-kean-blackburn-norwich", "type": "article", "sectionId": "football", "sectionName": "Football", "webPublicationDate": "2011-10-30T22:59:01Z", "webTitle": "Steve Kean encouraged by eager Blackburn despite draw with Norwich", "webUrl": "https://www.theguardian.com/football/2011/oct/30/steve-kean-blackburn-norwich", "apiUrl": "https://content.guardianapis.com/football/2011/oct/30/steve-kean-blackburn-norwich", "isHosted": false, "pillarId": "pillar/sport", "pillarName": "Sport"}, {"id": "football/2011/oct/30/roberto-mancini-manchester-city-adam-johnson", "type": "article", "sectionId": "football", "sectionName": "Football", "webPublicationDate": "2011-10-30T22:30:02Z", "webTitle": "Roberto Mancini stands by criticism of Manchester City's Adam Johnson", "webUrl": "https://www.theguardian.com/football/2011/oct/30/roberto-mancini-manchester-city-adam-johnson", "apiUrl": "https://content.guardianapis.com/football/2011/oct/30/roberto-mancini-manchester-city-adam-johnson", "isHosted": false, "pillarId": "pillar/sport", "pillarName": "Sport"}, {"id": "football/2011/oct/30/tiki-taka-chelsea-john-terry", "type": "article", "sectionId": "football", "sectionName": "Football", "webPublicationDate": "2011-10-30T22:01:03Z", "webTitle": "tiki-taka: Chelsea having a laugh with their John Terry cover story", "webUrl": "https://www.theguardian.com/football/2011/oct/30/tiki-taka-chelsea-john-terry", "apiUrl": "https://content.guardianapis.com/football/2011/oct/30/tiki-taka-chelsea-john-terry", "isHosted": false, "pillarId": "pillar/sport", "pillarName": "Sport"}, {"id": "football/blog/2011/oct/30/arsenal-front-line-back-lines", "type": "article", "sectionId": "football", "sectionName": "Football", "webPublicationDate": "2011-10-30T22:01:01Z", "webTitle": "The efficient Arsenal front line made more of the high back lines | David Pleat", "webUrl": "https://www.theguardian.com/football/blog/2011/oct/30/arsenal-front-line-back-lines", "apiUrl": "https://content.guardianapis.com/football/blog/2011/oct/30/arsenal-front-line-back-lines", "isHosted": false, "pillarId": "pillar/sport", "pillarName": "Sport"}, {"id": "football/football-league-blog/2011/oct/30/sam-allardyce-west-ham-leicester", "type": "article", "sectionId": "football", "sectionName": "Football", "webPublicationDate": "2011-10-30T22:01:00Z", "webTitle": "Sam Allardyce thinks big with West Ham after victory over Leicester | Jeremy Alexander", "webUrl": "https://www.theguardian.com/football/football-league-blog/2011/oct/30/sam-allardyce-west-ham-leicester", "apiUrl": "https://content.guardianapis.com/football/football-league-blog/2011/oct/30/sam-allardyce-west-ham-leicester", "isHosted": false, "pillarId": "pillar/sport", "pillarName": "Sport"}, {"id": "football/2011/oct/30/neil-warnock-anton-ferdinand-qpr", "type": "article", "sectionId": "football", "sectionName": "Football", "webPublicationDate": "2011-10-30T20:46:06Z", "webTitle": "Neil Warnock praises Anton Ferdinand's display for QPR at Spurs", "webUrl": "https://www.theguardian.com/football/2011/oct/30/neil-warnock-anton-ferdinand-qpr", "apiUrl": "https://content.guardianapis.com/football/2011/oct/30/neil-warnock-anton-ferdinand-qpr", "isHosted": false, "pillarId": "pillar/sport", "pillarName": "Sport"}, {"id": "football/gallery/2011/oct/30/tottenham-hotspur-qpr", "type": "gallery", "sectionId": "football", "sectionName": "Football", "webPublicationDate": "2011-10-30T20:11:00Z", "webTitle": "Premier League: Tottenham Hotspur v QPR - in pictures", "webUrl": "https://www.theguardian.com/football/gallery/2011/oct/30/tottenham-hotspur-qpr", "apiUrl": "https://content.guardianapis.com/football/gallery/2011/oct/30/tottenham-hotspur-qpr", "isHosted": false, "pillarId": "pillar/sport", "pillarName": "Sport"}, {"id": "football/2011/oct/30/tottenham-hotspur-qpr-premier-league", "type": "article", "sectionId": "football", "sectionName": "Football", "webPublicationDate": "2011-10-30T18:11:29Z", "webTitle": "Tottenham Hotspur 3-1 QPR | Premier League match report", "webUrl": "https://www.theguardian.com/football/2011/oct/30/tottenham-hotspur-qpr-premier-league", "apiUrl": "https://content.guardianapis.com/football/2011/oct/30/tottenham-hotspur-qpr-premier-league", "isHosted": false, "pillarId": "pillar/sport", "pillarName": "Sport"}, {"id": "football/2011/oct/30/manchester-united-sir-alex-ferguson", "type": "article", "sectionId": "football", "sectionName": "Football", "webPublicationDate": "2011-10-30T01:16:33Z", "webTitle": "Sir Alex Ferguson 'very surprised' at alleged racism incidents", "webUrl": "https://www.theguardian.com/football/2011/oct/30/manchester-united-sir-alex-ferguson", "apiUrl": "https://content.guardianapis.com/football/2011/oct/30/manchester-united-sir-alex-ferguson", "isHosted": false, "pillarId": "pillar/sport", "pillarName": "Sport"}, {"id": "football/blog/2011/oct/29/hearts-scottish-premier-league-football", "type": "article", "sectionId": "football", "sectionName": "Football", "webPublicationDate": "2011-10-29T23:41:00Z", "webTitle": "Erratic Vladimir Romanov has Hearts in a flutter over future | Ewan Murray", "webUrl": "https://www.theguardian.com/football/blog/2011/oct/29/hearts-scottish-premier-league-football", "apiUrl": "https://content.guardianapis.com/football/blog/2011/oct/29/hearts-scottish-premier-league-football", "isHosted": false, "pillarId": "pillar/sport", "pillarName": "Sport"}, {"id": "football/2011/oct/30/saturday-sundae-robin-van-persie", "type": "article", "sectionId": "football", "sectionName": "Football", "webPublicationDate": "2011-10-29T23:10:00Z", "webTitle": "Saturday Sundae: Van Persie's shirt plus football's meanest referee", "webUrl": "https://www.theguardian.com/football/2011/oct/30/saturday-sundae-robin-van-persie", "apiUrl": "https://content.guardianapis.com/football/2011/oct/30/saturday-sundae-robin-van-persie", "isHosted": false, "pillarId": "pillar/sport", "pillarName": "Sport"}, {"id": "commentisfree/2011/oct/30/football-lost-soul-observer-debate", "type": "article", "sectionId": "commentisfree", "sectionName": "Opinion", "webPublicationDate": "2011-10-29T23:04:15Z", "webTitle": "Has football lost its soul? | Alex Clark and Danny Kelly", "webUrl": "https://www.theguardian.com/commentisfree/2011/oct/30/football-lost-soul-observer-debate", "apiUrl": "https://content.guardianapis.com/commentisfree/2011/oct/30/football-lost-soul-observer-debate", "isHosted": false, "pillarId": "pillar/opinion", "pillarName": "Opinion"}, {"id": "football/2011/oct/29/said-and-done-fifa-klan", "type": "article", "sectionId": "football", "sectionName": "Football", "webPublicationDate": "2011-10-29T22:38:00Z", "webTitle": "Said & Done: Fifa's Ku Klux Klan man", "webUrl": "https://www.theguardian.com/football/2011/oct/29/said-and-done-fifa-klan", "apiUrl": "https://content.guardianapis.com/football/2011/oct/29/said-and-done-fifa-klan", "isHosted": false, "pillarId": "pillar/sport", "pillarName": "Sport"}, {"id": "football/2011/oct/29/scott-parker-tottenham-hotspur", "type": "article", "sectionId": "football", "sectionName": "Football", "webPublicationDate": "2011-10-29T21:55:05Z", "webTitle": "Dynamic Scott Parker revs up Spurs after their early stall", "webUrl": "https://www.theguardian.com/football/2011/oct/29/scott-parker-tottenham-hotspur", "apiUrl": "https://content.guardianapis.com/football/2011/oct/29/scott-parker-tottenham-hotspur", "isHosted": false, "pillarId": "pillar/sport", "pillarName": "Sport"}, {"id": "football/2011/oct/29/players-managers-bad-challenges", "type": "article", "sectionId": "football", "sectionName": "Football", "webPublicationDate": "2011-10-29T21:55:00Z", "webTitle": "Players' actions speak louder than managers' character references | Paul Hayward", "webUrl": "https://www.theguardian.com/football/2011/oct/29/players-managers-bad-challenges", "apiUrl": "https://content.guardianapis.com/football/2011/oct/29/players-managers-bad-challenges", "isHosted": false, "pillarId": "pillar/sport", "pillarName": "Sport"}, {"id": "football/2011/oct/29/arsene-wenger-robin-van-persie-arsenal", "type": "article", "sectionId": "football", "sectionName": "Football", "webPublicationDate": "2011-10-29T19:22:07Z", "webTitle": "Robin van Persie is on fire for Arsenal, says Ars\u00e8ne Wenger", "webUrl": "https://www.theguardian.com/football/2011/oct/29/arsene-wenger-robin-van-persie-arsenal", "apiUrl": "https://content.guardianapis.com/football/2011/oct/29/arsene-wenger-robin-van-persie-arsenal", "isHosted": false, "pillarId": "pillar/sport", "pillarName": "Sport"}, {"id": "football/2011/oct/29/alex-ferguson-manchester-united", "type": "article", "sectionId": "football", "sectionName": "Football", "webPublicationDate": "2011-10-29T18:51:12Z", "webTitle": "It's about time we won 1-0, says defensive Sir Alex Ferguson", "webUrl": "https://www.theguardian.com/football/2011/oct/29/alex-ferguson-manchester-united", "apiUrl": "https://content.guardianapis.com/football/2011/oct/29/alex-ferguson-manchester-united", "isHosted": false, "pillarId": "pillar/sport", "pillarName": "Sport"}, {"id": "football/2011/oct/29/southampton-middlesbrough-championship", "type": "article", "sectionId": "football", "sectionName": "Football", "webPublicationDate": "2011-10-29T18:45:48Z", "webTitle": "Southampton 3-0 Middlesbrough | Championship match report", "webUrl": "https://www.theguardian.com/football/2011/oct/29/southampton-middlesbrough-championship", "apiUrl": "https://content.guardianapis.com/football/2011/oct/29/southampton-middlesbrough-championship", "isHosted": false, "pillarId": "pillar/sport", "pillarName": "Sport"}, {"id": "football/2011/oct/29/west-bromwich-albion-liverpool-premier-league1", "type": "article", "sectionId": "football", "sectionName": "Football", "webPublicationDate": "2011-10-29T18:45:01Z", "webTitle": "West Bromwich Albion 0-2 Liverpool | Premier League Match report", "webUrl": "https://www.theguardian.com/football/2011/oct/29/west-bromwich-albion-liverpool-premier-league1", "apiUrl": "https://content.guardianapis.com/football/2011/oct/29/west-bromwich-albion-liverpool-premier-league1", "isHosted": false, "pillarId": "pillar/sport", "pillarName": "Sport"}, {"id": "football/gallery/2011/oct/29/chelsea-arsenal-in-pictures", "type": "gallery", "sectionId": "football", "sectionName": "Football", "webPublicationDate": "2011-10-29T18:34:27Z", "webTitle": "In pictures: Chelsea v Arsenal", "webUrl": "https://www.theguardian.com/football/gallery/2011/oct/29/chelsea-arsenal-in-pictures", "apiUrl": "https://content.guardianapis.com/football/gallery/2011/oct/29/chelsea-arsenal-in-pictures", "isHosted": false, "pillarId": "pillar/sport", "pillarName": "Sport"}, {"id": "football/gallery/2011/oct/29/premierleague", "type": "gallery", "sectionId": "football", "sectionName": "Football", "webPublicationDate": "2011-10-29T18:30:00Z", "webTitle": "Premier League round-up", "webUrl": "https://www.theguardian.com/football/gallery/2011/oct/29/premierleague", "apiUrl": "https://content.guardianapis.com/football/gallery/2011/oct/29/premierleague", "isHosted": false, "pillarId": "pillar/sport", "pillarName": "Sport"}, {"id": "football/2011/oct/29/west-bromwich-albion-liverpool-premier-league", "type": "article", "sectionId": "football", "sectionName": "Football", "webPublicationDate": "2011-10-29T18:27:41Z", "webTitle": "West Bromwich Albion v Liverpool  - as it happened | Scott Murray", "webUrl": "https://www.theguardian.com/football/2011/oct/29/west-bromwich-albion-liverpool-premier-league", "apiUrl": "https://content.guardianapis.com/football/2011/oct/29/west-bromwich-albion-liverpool-premier-league", "isHosted": false, "pillarId": "pillar/sport", "pillarName": "Sport"}, {"id": "football/2011/oct/29/motherwell-inverness-hearts-kilmarnock-spl", "type": "article", "sectionId": "football", "sectionName": "Football", "webPublicationDate": "2011-10-29T18:10:41Z", "webTitle": "Tom Hateley's late strike snatches victory for Motherwell at Inverness", "webUrl": "https://www.theguardian.com/football/2011/oct/29/motherwell-inverness-hearts-kilmarnock-spl", "apiUrl": "https://content.guardianapis.com/football/2011/oct/29/motherwell-inverness-hearts-kilmarnock-spl", "isHosted": false, "pillarId": "pillar/sport", "pillarName": "Sport"}, {"id": "football/football-league-blog/2011/oct/29/football-league-your-thoughts-blog", "type": "article", "sectionId": "football", "sectionName": "Football", "webPublicationDate": "2011-10-29T17:38:07Z", "webTitle": "Football League: your thoughts | Ian McCourt", "webUrl": "https://www.theguardian.com/football/football-league-blog/2011/oct/29/football-league-your-thoughts-blog", "apiUrl": "https://content.guardianapis.com/football/football-league-blog/2011/oct/29/football-league-your-thoughts-blog", "isHosted": false, "pillarId": "pillar/sport", "pillarName": "Sport"}, {"id": "football/blog/2011/oct/29/john-terry-chelsea-arsenal", "type": "article", "sectionId": "football", "sectionName": "Football", "webPublicationDate": "2011-10-29T17:15:44Z", "webTitle": "John Terry is fall guy in Chelsea's comedy of errors against Arsenal", "webUrl": "https://www.theguardian.com/football/blog/2011/oct/29/john-terry-chelsea-arsenal", "apiUrl": "https://content.guardianapis.com/football/blog/2011/oct/29/john-terry-chelsea-arsenal", "isHosted": false, "pillarId": "pillar/sport", "pillarName": "Sport"}, {"id": "football/blog/2011/oct/29/manchester-united-everton-premier-league", "type": "article", "sectionId": "football", "sectionName": "Football", "webPublicationDate": "2011-10-29T17:05:03Z", "webTitle": "Manchester United keep it tight to clear hangover from City drubbing | Kevin McCarra", "webUrl": "https://www.theguardian.com/football/blog/2011/oct/29/manchester-united-everton-premier-league", "apiUrl": "https://content.guardianapis.com/football/blog/2011/oct/29/manchester-united-everton-premier-league", "isHosted": false, "pillarId": "pillar/sport", "pillarName": "Sport"}, {"id": "football/2011/oct/29/cetlic-hibernian-spl", "type": "article", "sectionId": "football", "sectionName": "Football", "webPublicationDate": "2011-10-29T16:55:30Z", "webTitle": "Celtic 0-0 Hibernian | SPL Match report", "webUrl": "https://www.theguardian.com/football/2011/oct/29/cetlic-hibernian-spl", "apiUrl": "https://content.guardianapis.com/football/2011/oct/29/cetlic-hibernian-spl", "isHosted": false, "pillarId": "pillar/sport", "pillarName": "Sport"}, {"id": "football/2011/oct/29/sunderland-aston-villa-premier-league", "type": "article", "sectionId": "football", "sectionName": "Football", "webPublicationDate": "2011-10-29T16:28:18Z", "webTitle": "Sunderland 2-2 Aston Villa | Premier League match report", "webUrl": "https://www.theguardian.com/football/2011/oct/29/sunderland-aston-villa-premier-league", "apiUrl": "https://content.guardianapis.com/football/2011/oct/29/sunderland-aston-villa-premier-league", "isHosted": false, "pillarId": "pillar/sport", "pillarName": "Sport"}, {"id": "football/2011/oct/29/manchester-city-wolves-premier-league", "type": "article", "sectionId": "football", "sectionName": "Football", "webPublicationDate": "2011-10-29T16:23:01Z", "webTitle": "Manchester City 3-1 Wolves | Premier League match report", "webUrl": "https://www.theguardian.com/football/2011/oct/29/manchester-city-wolves-premier-league", "apiUrl": "https://content.guardianapis.com/football/2011/oct/29/manchester-city-wolves-premier-league", "isHosted": false, "pillarId": "pillar/sport", "pillarName": "Sport"}, {"id": "football/2011/oct/29/norwich-city-blackburn-rovers-premier-league", "type": "article", "sectionId": "football", "sectionName": "Football", "webPublicationDate": "2011-10-29T16:22:16Z", "webTitle": "Norwich City 3-3 Blackburn Rovers | Premier League Match report", "webUrl": "https://www.theguardian.com/football/2011/oct/29/norwich-city-blackburn-rovers-premier-league", "apiUrl": "https://content.guardianapis.com/football/2011/oct/29/norwich-city-blackburn-rovers-premier-league", "isHosted": false, "pillarId": "pillar/sport", "pillarName": "Sport"}, {"id": "football/2011/oct/29/chelsea-arsenal-premier-league1", "type": "article", "sectionId": "football", "sectionName": "Football", "webPublicationDate": "2011-10-29T14:09:03Z", "webTitle": "Chelsea 3-5 Arsenal | Premier League match report", "webUrl": "https://www.theguardian.com/football/2011/oct/29/chelsea-arsenal-premier-league1", "apiUrl": "https://content.guardianapis.com/football/2011/oct/29/chelsea-arsenal-premier-league1", "isHosted": false, "pillarId": "pillar/sport", "pillarName": "Sport"}, {"id": "football/2011/oct/29/chelsea-arsenal-premier-league", "type": "article", "sectionId": "football", "sectionName": "Football", "webPublicationDate": "2011-10-29T13:43:00Z", "webTitle": "Chelsea v Arsenal - as it happened | Scott Murray", "webUrl": "https://www.theguardian.com/football/2011/oct/29/chelsea-arsenal-premier-league", "apiUrl": "https://content.guardianapis.com/football/2011/oct/29/chelsea-arsenal-premier-league", "isHosted": false, "pillarId": "pillar/sport", "pillarName": "Sport"}, {"id": "football/2011/oct/29/everton-manchester-united-premier-league", "type": "article", "sectionId": "football", "sectionName": "Football", "webPublicationDate": "2011-10-29T13:15:54Z", "webTitle": "Everton 0-1 Manchester United | Premier League match report", "webUrl": "https://www.theguardian.com/football/2011/oct/29/everton-manchester-united-premier-league", "apiUrl": "https://content.guardianapis.com/football/2011/oct/29/everton-manchester-united-premier-league", "isHosted": false, "pillarId": "pillar/sport", "pillarName": "Sport"}, {"id": "football/2011/oct/29/wayne-rooney-miodrag-dzudovic-uefa", "type": "article", "sectionId": "football", "sectionName": "Football", "webPublicationDate": "2011-10-29T00:23:00Z", "webTitle": "Montenegro defender urges Uefa to show leniency to Wayne Rooney", "webUrl": "https://www.theguardian.com/football/2011/oct/29/wayne-rooney-miodrag-dzudovic-uefa", "apiUrl": "https://content.guardianapis.com/football/2011/oct/29/wayne-rooney-miodrag-dzudovic-uefa", "isHosted": false, "pillarId": "pillar/sport", "pillarName": "Sport"}, {"id": "football/2011/oct/28/andre-villas-boas-john-terry-chelsea", "type": "article", "sectionId": "football", "sectionName": "Football", "webPublicationDate": "2011-10-28T22:04:06Z", "webTitle": "Andr\u00e9 Villas-Boas proves unmovable rock in support of John Terry", "webUrl": "https://www.theguardian.com/football/2011/oct/28/andre-villas-boas-john-terry-chelsea", "apiUrl": "https://content.guardianapis.com/football/2011/oct/28/andre-villas-boas-john-terry-chelsea", "isHosted": false, "pillarId": "pillar/sport", "pillarName": "Sport"}, {"id": "football/2011/oct/28/arsene-wenger-john-terry-race", "type": "article", "sectionId": "football", "sectionName": "Football", "webPublicationDate": "2011-10-28T22:04:05Z", "webTitle": "Ars\u00e8ne Wenger adopts understanding tone in John Terry race row", "webUrl": "https://www.theguardian.com/football/2011/oct/28/arsene-wenger-john-terry-race", "apiUrl": "https://content.guardianapis.com/football/2011/oct/28/arsene-wenger-john-terry-race", "isHosted": false, "pillarId": "pillar/sport", "pillarName": "Sport"}, {"id": "football/blog/2011/oct/28/the-secret-footballer-mario-balotelli", "type": "article", "sectionId": "football", "sectionName": "Football", "webPublicationDate": "2011-10-28T22:04:04Z", "webTitle": "The Secret Footballer: misunderstood Mario is a much-loved maverick", "webUrl": "https://www.theguardian.com/football/blog/2011/oct/28/the-secret-footballer-mario-balotelli", "apiUrl": "https://content.guardianapis.com/football/blog/2011/oct/28/the-secret-footballer-mario-balotelli", "isHosted": false, "pillarId": "pillar/sport", "pillarName": "Sport"}, {"id": "football/2011/oct/28/carlos-tevez-manchester-city-fifa", "type": "article", "sectionId": "football", "sectionName": "Football", "webPublicationDate": "2011-10-28T22:04:04Z", "webTitle": "Fifa statutes mean Carlos Tevez may not be finished at Manchester City", "webUrl": "https://www.theguardian.com/football/2011/oct/28/carlos-tevez-manchester-city-fifa", "apiUrl": "https://content.guardianapis.com/football/2011/oct/28/carlos-tevez-manchester-city-fifa", "isHosted": false, "pillarId": "pillar/sport", "pillarName": "Sport"}, {"id": "football/2011/oct/28/chelsea-arsenal-arsene-wenger", "type": "article", "sectionId": "football", "sectionName": "Football", "webPublicationDate": "2011-10-28T22:04:03Z", "webTitle": "Chelsea game will show how Arsenal have improved, says Ars\u00e8ne Wenger", "webUrl": "https://www.theguardian.com/football/2011/oct/28/chelsea-arsenal-arsene-wenger", "apiUrl": "https://content.guardianapis.com/football/2011/oct/28/chelsea-arsenal-arsene-wenger", "isHosted": false, "pillarId": "pillar/sport", "pillarName": "Sport"}, {"id": "football/2011/oct/28/celtic-neil-lennon-rangers-tax-tribunal", "type": "article", "sectionId": "football", "sectionName": "Football", "webPublicationDate": "2011-10-28T22:04:02Z", "webTitle": "Celtic's Neil Lennon not distracted by Rangers' tax tribunal concerns", "webUrl": "https://www.theguardian.com/football/2011/oct/28/celtic-neil-lennon-rangers-tax-tribunal", "apiUrl": "https://content.guardianapis.com/football/2011/oct/28/celtic-neil-lennon-rangers-tax-tribunal", "isHosted": false, "pillarId": "pillar/sport", "pillarName": "Sport"}, {"id": "football/2011/oct/28/manchester-united-wayne-rooney-everton", "type": "article", "sectionId": "football", "sectionName": "Football", "webPublicationDate": "2011-10-28T22:04:02Z", "webTitle": "Manchester United set to play Wayne Rooney against Everton at Goodison", "webUrl": "https://www.theguardian.com/football/2011/oct/28/manchester-united-wayne-rooney-everton", "apiUrl": "https://content.guardianapis.com/football/2011/oct/28/manchester-united-wayne-rooney-everton", "isHosted": false, "pillarId": "pillar/sport", "pillarName": "Sport"}, {"id": "football/blog/2011/oct/28/david-platt", "type": "article", "sectionId": "football", "sectionName": "Football", "webPublicationDate": "2011-10-28T22:04:01Z", "webTitle": "David Platt is English football's unexploited asset | Barney Ronay", "webUrl": "https://www.theguardian.com/football/blog/2011/oct/28/david-platt", "apiUrl": "https://content.guardianapis.com/football/blog/2011/oct/28/david-platt", "isHosted": false, "pillarId": "pillar/sport", "pillarName": "Sport"}, {"id": "football/blog/2011/oct/28/tony-mowbray-middlesbrough", "type": "article", "sectionId": "football", "sectionName": "Football", "webPublicationDate": "2011-10-28T21:02:09Z", "webTitle": "Tony Mowbray's makeover makes Middlesbrough attractive again | Louise Taylor", "webUrl": "https://www.theguardian.com/football/blog/2011/oct/28/tony-mowbray-middlesbrough", "apiUrl": "https://content.guardianapis.com/football/blog/2011/oct/28/tony-mowbray-middlesbrough", "isHosted": false, "pillarId": "pillar/sport", "pillarName": "Sport"}]}}