{"response": {"status": "ok", "userTier": "developer", "total": 18056, "startIndex": 1, "pageSize": 50, "currentPage": 1, "pages": 362, "orderBy": "newest", "results": [{"id": "commentisfree/2012/oct/30/in-praise-of-simple-coffee", "type": "article", "sectionId": "commentisfree", "sectionName": "Opinion", "webPublicationDate": "2012-10-30T23:00:00Z", "webTitle": "In praise of ... simple coffee | Editorial", "webUrl": "https://www.theguardian.com/commentisfree/2012/oct/30/in-praise-of-simple-coffee", "apiUrl": "https://content.guardianapis.com/commentisfree/2012/oct/30/in-praise-of-simple-coffee", "isHosted": false, "pillarId": "pillar/opinion", "pillarName": "Opinion"}, {"id": "law/2012/oct/30/human-conditions-free-range-workers", "type": "article", "sectionId": "law", "sectionName": "Law", "webPublicationDate": "2012-10-30T21:00:02Z", "webTitle": "Letters: Humane conditions for free-range workers", "webUrl": "https://www.theguardian.com/law/2012/oct/30/human-conditions-free-range-workers", "apiUrl": "https://content.guardianapis.com/law/2012/oct/30/human-conditions-free-range-workers", "isHosted": false, "pillarId": "pillar/news", "pillarName": "News"}, {"id": "commentisfree/2012/oct/30/india-yuppies-starbucks-coffee", "type": "article", "sectionId": "commentisfree", "sectionName": "Opinion", "webPublicationDate": "2012-10-30T12:35:24Z", "webTitle": "Why India's yuppies want Starbucks (it's not about the coffee) | Kavitha Rao", "webUrl": "https://www.theguardian.com/commentisfree/2012/oct/30/india-yuppies-starbucks-coffee", "apiUrl": "https://content.guardianapis.com/commentisfree/2012/oct/30/india-yuppies-starbucks-coffee", "isHosted": false, "pillarId": "pillar/opinion", "pillarName": "Opinion"}, {"id": "lifeandstyle/wordofmouth/2012/oct/30/british-produce-the-best-in-france", "type": "article", "sectionId": "food", "sectionName": "Food", "webPublicationDate": "2012-10-30T10:00:00Z", "webTitle": "British produce: the best in France", "webUrl": "https://www.theguardian.com/lifeandstyle/wordofmouth/2012/oct/30/british-produce-the-best-in-france", "apiUrl": "https://content.guardianapis.com/lifeandstyle/wordofmouth/2012/oct/30/british-produce-the-best-in-france", "isHosted": false, "pillarId": "pillar/lifestyle", "pillarName": "Lifestyle"}, {"id": "money/2012/oct/30/how-become-whisky-malt-master", "type": "article", "sectionId": "money", "sectionName": "Money", "webPublicationDate": "2012-10-30T09:39:05Z", "webTitle": "How do I become \u2026 a whisky malt master", "webUrl": "https://www.theguardian.com/money/2012/oct/30/how-become-whisky-malt-master", "apiUrl": "https://content.guardianapis.com/money/2012/oct/30/how-become-whisky-malt-master", "isHosted": false, "pillarId": "pillar/lifestyle", "pillarName": "Lifestyle"}, {"id": "business/2012/oct/30/branston-pickle-sold-japanese-firm", "type": "article", "sectionId": "business", "sectionName": "Business", "webPublicationDate": "2012-10-30T09:21:32Z", "webTitle": "Branston pickle sold to Japanese firm Mizkan", "webUrl": "https://www.theguardian.com/business/2012/oct/30/branston-pickle-sold-japanese-firm", "apiUrl": "https://content.guardianapis.com/business/2012/oct/30/branston-pickle-sold-japanese-firm", "isHosted": false, "pillarId": "pillar/news", "pillarName": "News"}, {"id": "lifeandstyle/2012/oct/30/madhur-jaffrey-indian-cookery-television", "type": "article", "sectionId": "food", "sectionName": "Food", "webPublicationDate": "2012-10-30T00:01:00Z", "webTitle": "'Rude' chefs leave sour taste for Madhur Jaffrey", "webUrl": "https://www.theguardian.com/lifeandstyle/2012/oct/30/madhur-jaffrey-indian-cookery-television", "apiUrl": "https://content.guardianapis.com/lifeandstyle/2012/oct/30/madhur-jaffrey-indian-cookery-television", "isHosted": false, "pillarId": "pillar/lifestyle", "pillarName": "Lifestyle"}, {"id": "commentisfree/2012/oct/29/newmarket-sausages-protected-eu-status", "type": "article", "sectionId": "commentisfree", "sectionName": "Opinion", "webPublicationDate": "2012-10-29T18:00:31Z", "webTitle": "Congratulations to Newmarket sausages, but this label has a price | Oliver Thring", "webUrl": "https://www.theguardian.com/commentisfree/2012/oct/29/newmarket-sausages-protected-eu-status", "apiUrl": "https://content.guardianapis.com/commentisfree/2012/oct/29/newmarket-sausages-protected-eu-status", "isHosted": false, "pillarId": "pillar/opinion", "pillarName": "Opinion"}, {"id": "commentisfree/2012/oct/29/raise-a-toast-alcohol-channel-4", "type": "article", "sectionId": "commentisfree", "sectionName": "Opinion", "webPublicationDate": "2012-10-29T14:55:01Z", "webTitle": "Let's raise a toast to alcohol | Mark Liam Piggott", "webUrl": "https://www.theguardian.com/commentisfree/2012/oct/29/raise-a-toast-alcohol-channel-4", "apiUrl": "https://content.guardianapis.com/commentisfree/2012/oct/29/raise-a-toast-alcohol-channel-4", "isHosted": false, "pillarId": "pillar/opinion", "pillarName": "Opinion"}, {"id": "world/2012/oct/29/india-first-starbucks-long-queues", "type": "article", "sectionId": "world", "sectionName": "World news", "webPublicationDate": "2012-10-29T12:28:12Z", "webTitle": "India's first Starbucks branches draw long queues", "webUrl": "https://www.theguardian.com/world/2012/oct/29/india-first-starbucks-long-queues", "apiUrl": "https://content.guardianapis.com/world/2012/oct/29/india-first-starbucks-long-queues", "isHosted": false, "pillarId": "pillar/news", "pillarName": "News"}, {"id": "lifeandstyle/wordofmouth/2012/oct/29/when-restaurants-get-ridiculous", "type": "article", "sectionId": "food", "sectionName": "Food", "webPublicationDate": "2012-10-29T10:00:00Z", "webTitle": "When restaurants get ridiculous", "webUrl": "https://www.theguardian.com/lifeandstyle/wordofmouth/2012/oct/29/when-restaurants-get-ridiculous", "apiUrl": "https://content.guardianapis.com/lifeandstyle/wordofmouth/2012/oct/29/when-restaurants-get-ridiculous", "isHosted": false, "pillarId": "pillar/lifestyle", "pillarName": "Lifestyle"}, {"id": "uk/the-northerner/2012/oct/29/tea-cuppa", "type": "article", "sectionId": "uk-news", "sectionName": "UK news", "webPublicationDate": "2012-10-29T07:00:00Z", "webTitle": "The search for the perfect cuppa", "webUrl": "https://www.theguardian.com/uk/the-northerner/2012/oct/29/tea-cuppa", "apiUrl": "https://content.guardianapis.com/uk/the-northerner/2012/oct/29/tea-cuppa", "isHosted": false, "pillarId": "pillar/news", "pillarName": "News"}, {"id": "travel/2012/oct/29/newmarket-sausages-european-award", "type": "article", "sectionId": "food", "sectionName": "Food", "webPublicationDate": "2012-10-29T00:01:00Z", "webTitle": "Newmarket sausages win EU award", "webUrl": "https://www.theguardian.com/travel/2012/oct/29/newmarket-sausages-european-award", "apiUrl": "https://content.guardianapis.com/travel/2012/oct/29/newmarket-sausages-european-award", "isHosted": false, "pillarId": "pillar/lifestyle", "pillarName": "Lifestyle"}, {"id": "lifeandstyle/2012/oct/28/should-i-eat-breakfast", "type": "article", "sectionId": "lifeandstyle", "sectionName": "Life and style", "webPublicationDate": "2012-10-28T21:00:44Z", "webTitle": "Should I eat breakfast?", "webUrl": "https://www.theguardian.com/lifeandstyle/2012/oct/28/should-i-eat-breakfast", "apiUrl": "https://content.guardianapis.com/lifeandstyle/2012/oct/28/should-i-eat-breakfast", "isHosted": false, "pillarId": "pillar/lifestyle", "pillarName": "Lifestyle"}, {"id": "business/2012/oct/28/totnes-costa-coffee-high-street", "type": "article", "sectionId": "business", "sectionName": "Business", "webPublicationDate": "2012-10-27T23:22:01Z", "webTitle": "How Totnes won fight to keep Costa out of town", "webUrl": "https://www.theguardian.com/business/2012/oct/28/totnes-costa-coffee-high-street", "apiUrl": "https://content.guardianapis.com/business/2012/oct/28/totnes-costa-coffee-high-street", "isHosted": false, "pillarId": "pillar/news", "pillarName": "News"}, {"id": "lifeandstyle/2012/oct/28/restaurant-review-fish-market-london-ec2", "type": "article", "sectionId": "food", "sectionName": "Food", "webPublicationDate": "2012-10-27T23:15:02Z", "webTitle": "Restaurant review: Fish Market, London EC2", "webUrl": "https://www.theguardian.com/lifeandstyle/2012/oct/28/restaurant-review-fish-market-london-ec2", "apiUrl": "https://content.guardianapis.com/lifeandstyle/2012/oct/28/restaurant-review-fish-market-london-ec2", "isHosted": false, "pillarId": "pillar/lifestyle", "pillarName": "Lifestyle"}, {"id": "lifeandstyle/2012/oct/28/david-williams-wines-of-the-week", "type": "article", "sectionId": "food", "sectionName": "Food", "webPublicationDate": "2012-10-27T23:12:44Z", "webTitle": "Wines of the week | David Williams", "webUrl": "https://www.theguardian.com/lifeandstyle/2012/oct/28/david-williams-wines-of-the-week", "apiUrl": "https://content.guardianapis.com/lifeandstyle/2012/oct/28/david-williams-wines-of-the-week", "isHosted": false, "pillarId": "pillar/lifestyle", "pillarName": "Lifestyle"}, {"id": "travel/2012/oct/28/mallorca-palma-golden-age", "type": "article", "sectionId": "travel", "sectionName": "Travel", "webPublicationDate": "2012-10-27T23:07:10Z", "webTitle": "The golden age of Palma de Mallorca", "webUrl": "https://www.theguardian.com/travel/2012/oct/28/mallorca-palma-golden-age", "apiUrl": "https://content.guardianapis.com/travel/2012/oct/28/mallorca-palma-golden-age", "isHosted": false, "pillarId": "pillar/lifestyle", "pillarName": "Lifestyle"}, {"id": "lifeandstyle/2012/oct/26/pear-recipes-hugh-fearnley-whittingstall", "type": "article", "sectionId": "lifeandstyle", "sectionName": "Life and style", "webPublicationDate": "2012-10-26T22:03:00Z", "webTitle": "Pear recipes | Hugh Fearnley-Whittingstall", "webUrl": "https://www.theguardian.com/lifeandstyle/2012/oct/26/pear-recipes-hugh-fearnley-whittingstall", "apiUrl": "https://content.guardianapis.com/lifeandstyle/2012/oct/26/pear-recipes-hugh-fearnley-whittingstall", "isHosted": false, "pillarId": "pillar/lifestyle", "pillarName": "Lifestyle"}, {"id": "lifeandstyle/2012/oct/26/heston-blumenthal-tampon-taste-enhancer", "type": "article", "sectionId": "food", "sectionName": "Food", "webPublicationDate": "2012-10-26T22:02:54Z", "webTitle": "Heston Blumenthal unveils new use for a tampon \u2013 as a palate cleanser", "webUrl": "https://www.theguardian.com/lifeandstyle/2012/oct/26/heston-blumenthal-tampon-taste-enhancer", "apiUrl": "https://content.guardianapis.com/lifeandstyle/2012/oct/26/heston-blumenthal-tampon-taste-enhancer", "isHosted": false, "pillarId": "pillar/lifestyle", "pillarName": "Lifestyle"}, {"id": "lifeandstyle/2012/oct/26/3-south-place-restaurant-review", "type": "article", "sectionId": "lifeandstyle", "sectionName": "Life and style", "webPublicationDate": "2012-10-26T22:01:23Z", "webTitle": "Restaurant: 3 South Place, London EC2", "webUrl": "https://www.theguardian.com/lifeandstyle/2012/oct/26/3-south-place-restaurant-review", "apiUrl": "https://content.guardianapis.com/lifeandstyle/2012/oct/26/3-south-place-restaurant-review", "isHosted": false, "pillarId": "pillar/lifestyle", "pillarName": "Lifestyle"}, {"id": "lifeandstyle/2012/oct/26/british-craft-beer-fiona-beckett", "type": "article", "sectionId": "food", "sectionName": "Food", "webPublicationDate": "2012-10-26T21:59:12Z", "webTitle": "Beer: all hail the British craft beer revolution", "webUrl": "https://www.theguardian.com/lifeandstyle/2012/oct/26/british-craft-beer-fiona-beckett", "apiUrl": "https://content.guardianapis.com/lifeandstyle/2012/oct/26/british-craft-beer-fiona-beckett", "isHosted": false, "pillarId": "pillar/lifestyle", "pillarName": "Lifestyle"}, {"id": "lifeandstyle/2012/oct/26/foodie-food-diaries-nigella-heston", "type": "article", "sectionId": "food", "sectionName": "Food", "webPublicationDate": "2012-10-26T21:58:00Z", "webTitle": "My life on a plate: famous foodies' food diaries", "webUrl": "https://www.theguardian.com/lifeandstyle/2012/oct/26/foodie-food-diaries-nigella-heston", "apiUrl": "https://content.guardianapis.com/lifeandstyle/2012/oct/26/foodie-food-diaries-nigella-heston", "isHosted": false, "pillarId": "pillar/lifestyle", "pillarName": "Lifestyle"}, {"id": "lifeandstyle/2012/oct/26/rotli-traditional-indian-puffed-flatbread-recipe", "type": "article", "sectionId": "food", "sectionName": "Food", "webPublicationDate": "2012-10-26T11:00:00Z", "webTitle": "Rotli: traditional Indian puffed flatbread", "webUrl": "https://www.theguardian.com/lifeandstyle/2012/oct/26/rotli-traditional-indian-puffed-flatbread-recipe", "apiUrl": "https://content.guardianapis.com/lifeandstyle/2012/oct/26/rotli-traditional-indian-puffed-flatbread-recipe", "isHosted": false, "pillarId": "pillar/lifestyle", "pillarName": "Lifestyle"}, {"id": "news/datablog/2012/oct/26/data-cake-obesity-world", "type": "article", "sectionId": "news", "sectionName": "News", "webPublicationDate": "2012-10-26T09:21:07Z", "webTitle": "Data cake: visualising obesity with icing and raisins", "webUrl": "https://www.theguardian.com/news/datablog/2012/oct/26/data-cake-obesity-world", "apiUrl": "https://content.guardianapis.com/news/datablog/2012/oct/26/data-cake-obesity-world", "isHosted": false, "pillarId": "pillar/news", "pillarName": "News"}, {"id": "lifeandstyle/wordofmouth/2012/oct/26/homespun-cures-for-coughs-and-colds", "type": "article", "sectionId": "lifeandstyle", "sectionName": "Life and style", "webPublicationDate": "2012-10-26T09:00:00Z", "webTitle": "Homespun cures for coughs and colds", "webUrl": "https://www.theguardian.com/lifeandstyle/wordofmouth/2012/oct/26/homespun-cures-for-coughs-and-colds", "apiUrl": "https://content.guardianapis.com/lifeandstyle/wordofmouth/2012/oct/26/homespun-cures-for-coughs-and-colds", "isHosted": false, "pillarId": "pillar/lifestyle", "pillarName": "Lifestyle"}, {"id": "lifeandstyle/2012/oct/25/mattar-paneer-cheese-peas-recipe", "type": "article", "sectionId": "food", "sectionName": "Food", "webPublicationDate": "2012-10-25T13:00:00Z", "webTitle": "Mattar paneer: sweet and spicy cheese and peas recipe", "webUrl": "https://www.theguardian.com/lifeandstyle/2012/oct/25/mattar-paneer-cheese-peas-recipe", "apiUrl": "https://content.guardianapis.com/lifeandstyle/2012/oct/25/mattar-paneer-cheese-peas-recipe", "isHosted": false, "pillarId": "pillar/lifestyle", "pillarName": "Lifestyle"}, {"id": "business/2012/oct/25/costa-coffee-totnes-outlet-protests", "type": "article", "sectionId": "business", "sectionName": "Business", "webPublicationDate": "2012-10-25T12:19:44Z", "webTitle": "Costa Coffee drops plans for Totnes outlet after protests", "webUrl": "https://www.theguardian.com/business/2012/oct/25/costa-coffee-totnes-outlet-protests", "apiUrl": "https://content.guardianapis.com/business/2012/oct/25/costa-coffee-totnes-outlet-protests", "isHosted": false, "pillarId": "pillar/news", "pillarName": "News"}, {"id": "travel/2012/oct/25/herefordshire-top-10-budget-restaurants-cafes-delis", "type": "article", "sectionId": "travel", "sectionName": "Travel", "webPublicationDate": "2012-10-25T09:50:00Z", "webTitle": "Hereford's top 10 budget restaurants and cafes", "webUrl": "https://www.theguardian.com/travel/2012/oct/25/herefordshire-top-10-budget-restaurants-cafes-delis", "apiUrl": "https://content.guardianapis.com/travel/2012/oct/25/herefordshire-top-10-budget-restaurants-cafes-delis", "isHosted": false, "pillarId": "pillar/lifestyle", "pillarName": "Lifestyle"}, {"id": "lifeandstyle/wordofmouth/2012/oct/25/how-to-cook-the-perfect-steak", "type": "article", "sectionId": "food", "sectionName": "Food", "webPublicationDate": "2012-10-24T23:10:00Z", "webTitle": "How to cook the perfect steak", "webUrl": "https://www.theguardian.com/lifeandstyle/wordofmouth/2012/oct/25/how-to-cook-the-perfect-steak", "apiUrl": "https://content.guardianapis.com/lifeandstyle/wordofmouth/2012/oct/25/how-to-cook-the-perfect-steak", "isHosted": false, "pillarId": "pillar/lifestyle", "pillarName": "Lifestyle"}, {"id": "lifeandstyle/2012/oct/24/24hr-restaurants-midnight-feasts-grown-ups", "type": "article", "sectionId": "food", "sectionName": "Food", "webPublicationDate": "2012-10-24T17:15:00Z", "webTitle": "24-hour restaurants: midnight feasts for the grown-ups", "webUrl": "https://www.theguardian.com/lifeandstyle/2012/oct/24/24hr-restaurants-midnight-feasts-grown-ups", "apiUrl": "https://content.guardianapis.com/lifeandstyle/2012/oct/24/24hr-restaurants-midnight-feasts-grown-ups", "isHosted": false, "pillarId": "pillar/lifestyle", "pillarName": "Lifestyle"}, {"id": "lifeandstyle/shortcuts/2012/oct/24/most-repulsive-cake-shop-world", "type": "article", "sectionId": "food", "sectionName": "Food", "webPublicationDate": "2012-10-24T16:15:00Z", "webTitle": "The most repulsive cake shop in the world", "webUrl": "https://www.theguardian.com/lifeandstyle/shortcuts/2012/oct/24/most-repulsive-cake-shop-world", "apiUrl": "https://content.guardianapis.com/lifeandstyle/shortcuts/2012/oct/24/most-repulsive-cake-shop-world", "isHosted": false, "pillarId": "pillar/lifestyle", "pillarName": "Lifestyle"}, {"id": "lifeandstyle/gallery/2012/oct/24/worlds-most-revolting-cakes-in-pictures", "type": "gallery", "sectionId": "food", "sectionName": "Food", "webPublicationDate": "2012-10-24T14:45:00Z", "webTitle": "The world's most revolting cakes - in pictures", "webUrl": "https://www.theguardian.com/lifeandstyle/gallery/2012/oct/24/worlds-most-revolting-cakes-in-pictures", "apiUrl": "https://content.guardianapis.com/lifeandstyle/gallery/2012/oct/24/worlds-most-revolting-cakes-in-pictures", "isHosted": false, "pillarId": "pillar/lifestyle", "pillarName": "Lifestyle"}, {"id": "lifeandstyle/2012/oct/24/tagliatelle-with-girolle-mushrooms-recipe", "type": "article", "sectionId": "food", "sectionName": "Food", "webPublicationDate": "2012-10-24T14:30:00Z", "webTitle": "Tagliatelle with girolle mushrooms recipe | Angela Hartnett", "webUrl": "https://www.theguardian.com/lifeandstyle/2012/oct/24/tagliatelle-with-girolle-mushrooms-recipe", "apiUrl": "https://content.guardianapis.com/lifeandstyle/2012/oct/24/tagliatelle-with-girolle-mushrooms-recipe", "isHosted": false, "pillarId": "pillar/lifestyle", "pillarName": "Lifestyle"}, {"id": "lifeandstyle/wordofmouth/2012/oct/24/kitchen-gadgets-innovations-old-and-new", "type": "article", "sectionId": "food", "sectionName": "Food", "webPublicationDate": "2012-10-24T11:15:00Z", "webTitle": "Kitchen gadgets: innovations old and new", "webUrl": "https://www.theguardian.com/lifeandstyle/wordofmouth/2012/oct/24/kitchen-gadgets-innovations-old-and-new", "apiUrl": "https://content.guardianapis.com/lifeandstyle/wordofmouth/2012/oct/24/kitchen-gadgets-innovations-old-and-new", "isHosted": false, "pillarId": "pillar/lifestyle", "pillarName": "Lifestyle"}, {"id": "business/2012/oct/24/supermarkets-traffic-light-labelling-nutrition", "type": "article", "sectionId": "society", "sectionName": "Society", "webPublicationDate": "2012-10-23T23:01:00Z", "webTitle": "All supermarkets to adopt 'traffic-light labelling' for nutrition", "webUrl": "https://www.theguardian.com/business/2012/oct/24/supermarkets-traffic-light-labelling-nutrition", "apiUrl": "https://content.guardianapis.com/business/2012/oct/24/supermarkets-traffic-light-labelling-nutrition", "isHosted": false, "pillarId": "pillar/news", "pillarName": "News"}, {"id": "business/2012/oct/23/stabucks-tax-avoidance-costa-coffee", "type": "article", "sectionId": "business", "sectionName": "Business", "webPublicationDate": "2012-10-23T15:58:46Z", "webTitle": "Starbucks' tax avoidance hasn't boosted our business, says Costa Coffee", "webUrl": "https://www.theguardian.com/business/2012/oct/23/stabucks-tax-avoidance-costa-coffee", "apiUrl": "https://content.guardianapis.com/business/2012/oct/23/stabucks-tax-avoidance-costa-coffee", "isHosted": false, "pillarId": "pillar/news", "pillarName": "News"}, {"id": "lifeandstyle/2012/oct/23/vegetable-biryani-recipe", "type": "article", "sectionId": "food", "sectionName": "Food", "webPublicationDate": "2012-10-23T10:30:00Z", "webTitle": "Vegetable biryani recipe", "webUrl": "https://www.theguardian.com/lifeandstyle/2012/oct/23/vegetable-biryani-recipe", "apiUrl": "https://content.guardianapis.com/lifeandstyle/2012/oct/23/vegetable-biryani-recipe", "isHosted": false, "pillarId": "pillar/lifestyle", "pillarName": "Lifestyle"}, {"id": "lifeandstyle/wordofmouth/2012/oct/23/halloween-catering-a-grave-matter", "type": "article", "sectionId": "lifeandstyle", "sectionName": "Life and style", "webPublicationDate": "2012-10-23T09:55:00Z", "webTitle": "Halloween catering: a grave matter", "webUrl": "https://www.theguardian.com/lifeandstyle/wordofmouth/2012/oct/23/halloween-catering-a-grave-matter", "apiUrl": "https://content.guardianapis.com/lifeandstyle/wordofmouth/2012/oct/23/halloween-catering-a-grave-matter", "isHosted": false, "pillarId": "pillar/lifestyle", "pillarName": "Lifestyle"}, {"id": "science/2012/oct/22/cooking-supports-increased-human-brain-power", "type": "article", "sectionId": "science", "sectionName": "Science", "webPublicationDate": "2012-10-22T19:00:00Z", "webTitle": "Invention of cooking made having a bigger brain an asset for humans", "webUrl": "https://www.theguardian.com/science/2012/oct/22/cooking-supports-increased-human-brain-power", "apiUrl": "https://content.guardianapis.com/science/2012/oct/22/cooking-supports-increased-human-brain-power", "isHosted": false, "pillarId": "pillar/news", "pillarName": "News"}, {"id": "society/2012/oct/22/lobster-bisque-soup-kitchen-charity", "type": "article", "sectionId": "society", "sectionName": "Society", "webPublicationDate": "2012-10-22T15:30:02Z", "webTitle": "Lobster bisque at the soup kitchen: how a charity is redistributing food", "webUrl": "https://www.theguardian.com/society/2012/oct/22/lobster-bisque-soup-kitchen-charity", "apiUrl": "https://content.guardianapis.com/society/2012/oct/22/lobster-bisque-soup-kitchen-charity", "isHosted": false, "pillarId": "pillar/news", "pillarName": "News"}, {"id": "commentisfree/belief/2012/oct/22/navratri-lessons-fasting-atheists", "type": "article", "sectionId": "commentisfree", "sectionName": "Opinion", "webPublicationDate": "2012-10-22T14:34:34Z", "webTitle": "Navratri and the lessons of fasting for atheists | Julian Baggini", "webUrl": "https://www.theguardian.com/commentisfree/belief/2012/oct/22/navratri-lessons-fasting-atheists", "apiUrl": "https://content.guardianapis.com/commentisfree/belief/2012/oct/22/navratri-lessons-fasting-atheists", "isHosted": false, "pillarId": "pillar/opinion", "pillarName": "Opinion"}, {"id": "lifeandstyle/2012/oct/22/fenugreek-leaf-banana-bhajis-recipe", "type": "article", "sectionId": "food", "sectionName": "Food", "webPublicationDate": "2012-10-22T13:40:00Z", "webTitle": "Fenugreek leaf and banana bhajis recipe", "webUrl": "https://www.theguardian.com/lifeandstyle/2012/oct/22/fenugreek-leaf-banana-bhajis-recipe", "apiUrl": "https://content.guardianapis.com/lifeandstyle/2012/oct/22/fenugreek-leaf-banana-bhajis-recipe", "isHosted": false, "pillarId": "pillar/lifestyle", "pillarName": "Lifestyle"}, {"id": "lifeandstyle/wordofmouth/2012/oct/22/not-worth-the-truffle", "type": "article", "sectionId": "food", "sectionName": "Food", "webPublicationDate": "2012-10-22T09:00:00Z", "webTitle": "Not worth the truffle?", "webUrl": "https://www.theguardian.com/lifeandstyle/wordofmouth/2012/oct/22/not-worth-the-truffle", "apiUrl": "https://content.guardianapis.com/lifeandstyle/wordofmouth/2012/oct/22/not-worth-the-truffle", "isHosted": false, "pillarId": "pillar/lifestyle", "pillarName": "Lifestyle"}, {"id": "politics/shortcuts/2012/oct/21/return-leftwing-cafe-culture", "type": "article", "sectionId": "politics", "sectionName": "Politics", "webPublicationDate": "2012-10-21T19:45:00Z", "webTitle": "The return of leftwing cafe culture", "webUrl": "https://www.theguardian.com/politics/shortcuts/2012/oct/21/return-leftwing-cafe-culture", "apiUrl": "https://content.guardianapis.com/politics/shortcuts/2012/oct/21/return-leftwing-cafe-culture", "isHosted": false, "pillarId": "pillar/news", "pillarName": "News"}, {"id": "lifeandstyle/2012/oct/21/ofm-awards-outstanding-raymond-blanc", "type": "article", "sectionId": "food", "sectionName": "Food", "webPublicationDate": "2012-10-20T23:26:30Z", "webTitle": "Observer Food Monthly Awards 2012 Outstanding Contribution: Raymond Blanc", "webUrl": "https://www.theguardian.com/lifeandstyle/2012/oct/21/ofm-awards-outstanding-raymond-blanc", "apiUrl": "https://content.guardianapis.com/lifeandstyle/2012/oct/21/ofm-awards-outstanding-raymond-blanc", "isHosted": false, "pillarId": "pillar/lifestyle", "pillarName": "Lifestyle"}, {"id": "lifeandstyle/2012/oct/21/sunday-lunch-ofm-awards-2012", "type": "article", "sectionId": "food", "sectionName": "Food", "webPublicationDate": "2012-10-20T23:26:27Z", "webTitle": "Observer Food Monthly Awards 2012 Best Sunday Lunch: runners up", "webUrl": "https://www.theguardian.com/lifeandstyle/2012/oct/21/sunday-lunch-ofm-awards-2012", "apiUrl": "https://content.guardianapis.com/lifeandstyle/2012/oct/21/sunday-lunch-ofm-awards-2012", "isHosted": false, "pillarId": "pillar/lifestyle", "pillarName": "Lifestyle"}, {"id": "lifeandstyle/2012/oct/21/ofm-awards-best-cheap-eats", "type": "article", "sectionId": "food", "sectionName": "Food", "webPublicationDate": "2012-10-20T23:26:24Z", "webTitle": "Observer Food Monthly Awards 2012 Best Cheap Eats: runners up", "webUrl": "https://www.theguardian.com/lifeandstyle/2012/oct/21/ofm-awards-best-cheap-eats", "apiUrl": "https://content.guardianapis.com/lifeandstyle/2012/oct/21/ofm-awards-best-cheap-eats", "isHosted": false, "pillarId": "pillar/lifestyle", "pillarName": "Lifestyle"}, {"id": "lifeandstyle/2012/oct/21/ofm-awards-best-cocktail-recipe", "type": "article", "sectionId": "food", "sectionName": "Food", "webPublicationDate": "2012-10-20T23:26:09Z", "webTitle": "Observer Food Monthly Awards 2012 Best Readers' Cocktail Recipe: You Me @ Six by Pete Nielsen", "webUrl": "https://www.theguardian.com/lifeandstyle/2012/oct/21/ofm-awards-best-cocktail-recipe", "apiUrl": "https://content.guardianapis.com/lifeandstyle/2012/oct/21/ofm-awards-best-cocktail-recipe", "isHosted": false, "pillarId": "pillar/lifestyle", "pillarName": "Lifestyle"}, {"id": "lifeandstyle/2012/oct/21/ofm-awards-best-bar-zetter-townhouse", "type": "article", "sectionId": "food", "sectionName": "Food", "webPublicationDate": "2012-10-20T23:25:50Z", "webTitle": "Observer Food Monthly Awards 2012 Best Place to Drink: The Zetter Townhouse, London", "webUrl": "https://www.theguardian.com/lifeandstyle/2012/oct/21/ofm-awards-best-bar-zetter-townhouse", "apiUrl": "https://content.guardianapis.com/lifeandstyle/2012/oct/21/ofm-awards-best-bar-zetter-townhouse", "isHosted": false, "pillarId": "pillar/lifestyle", "pillarName": "Lifestyle"}]}}