{"response": {"status": "ok", "userTier": "developer", "total": 89624, "startIndex": 1, "pageSize": 50, "currentPage": 1, "pages": 1793, "orderBy": "newest", "results": [{"id": "football/2013/oct/30/real-madrid-sevilla-la-liga", "type": "article", "sectionId": "football", "sectionName": "Football", "webPublicationDate": "2013-10-30T23:42:12Z", "webTitle": "Real Madrid 7-3 Sevilla | La Liga match report", "webUrl": "https://www.theguardian.com/football/2013/oct/30/real-madrid-sevilla-la-liga", "apiUrl": "https://content.guardianapis.com/football/2013/oct/30/real-madrid-sevilla-la-liga", "isHosted": false, "pillarId": "pillar/sport", "pillarName": "Sport"}, {"id": "football/2013/oct/30/tottenham-hotspur-hull-city-capital-one-cup", "type": "article", "sectionId": "football", "sectionName": "Football", "webPublicationDate": "2013-10-30T22:45:19Z", "webTitle": "Tottenham Hotspur 2-2 Hull City (aet; Spurs win 8-7 on pens) | Capital One Cup", "webUrl": "https://www.theguardian.com/football/2013/oct/30/tottenham-hotspur-hull-city-capital-one-cup", "apiUrl": "https://content.guardianapis.com/football/2013/oct/30/tottenham-hotspur-hull-city-capital-one-cup", "isHosted": false, "pillarId": "pillar/sport", "pillarName": "Sport"}, {"id": "football/2013/oct/30/newcastle-united-manchester-city-capital-one-cup", "type": "article", "sectionId": "football", "sectionName": "Football", "webPublicationDate": "2013-10-30T22:38:47Z", "webTitle": "Newcastle United 0-2 Manchester City (aet) | Capital One Cup fourth round", "webUrl": "https://www.theguardian.com/football/2013/oct/30/newcastle-united-manchester-city-capital-one-cup", "apiUrl": "https://content.guardianapis.com/football/2013/oct/30/newcastle-united-manchester-city-capital-one-cup", "isHosted": false, "pillarId": "pillar/sport", "pillarName": "Sport"}, {"id": "football/2013/oct/30/newcastle-manchester-city-live-mbm", "type": "liveblog", "sectionId": "football", "sectionName": "Football", "webPublicationDate": "2013-10-30T22:31:18Z", "webTitle": "Newcastle v Manchester City \u2013 as it happened | Jacob Steinberg", "webUrl": "https://www.theguardian.com/football/2013/oct/30/newcastle-manchester-city-live-mbm", "apiUrl": "https://content.guardianapis.com/football/2013/oct/30/newcastle-manchester-city-live-mbm", "isHosted": false, "pillarId": "pillar/sport", "pillarName": "Sport"}, {"id": "football/2013/oct/30/wigan-athletic-qpr-championship", "type": "article", "sectionId": "football", "sectionName": "Football", "webPublicationDate": "2013-10-30T22:01:40Z", "webTitle": "Wigan Athletic 0-0 QPR | Championship match report", "webUrl": "https://www.theguardian.com/football/2013/oct/30/wigan-athletic-qpr-championship", "apiUrl": "https://content.guardianapis.com/football/2013/oct/30/wigan-athletic-qpr-championship", "isHosted": false, "pillarId": "pillar/sport", "pillarName": "Sport"}, {"id": "football/2013/oct/30/david-beckham-miami-mls-playoffs", "type": "article", "sectionId": "football", "sectionName": "Football", "webPublicationDate": "2013-10-30T17:20:04Z", "webTitle": "David Beckham to Miami? It must be MLS playoffs time", "webUrl": "https://www.theguardian.com/football/2013/oct/30/david-beckham-miami-mls-playoffs", "apiUrl": "https://content.guardianapis.com/football/2013/oct/30/david-beckham-miami-mls-playoffs", "isHosted": false, "pillarId": "pillar/sport", "pillarName": "Sport"}, {"id": "football/gallery/2013/oct/30/tottenham-stadium-redevelopment-pictures", "type": "gallery", "sectionId": "football", "sectionName": "Football", "webPublicationDate": "2013-10-30T17:01:00Z", "webTitle": "Tottenham's stadium development: locals losing out? - in pictures", "webUrl": "https://www.theguardian.com/football/gallery/2013/oct/30/tottenham-stadium-redevelopment-pictures", "apiUrl": "https://content.guardianapis.com/football/gallery/2013/oct/30/tottenham-stadium-redevelopment-pictures", "isHosted": false, "pillarId": "pillar/sport", "pillarName": "Sport"}, {"id": "football/2013/oct/30/tottenham-new-stadium-fury-regeneration", "type": "article", "sectionId": "football", "sectionName": "Football", "webPublicationDate": "2013-10-30T17:00:47Z", "webTitle": "Tottenham's new stadium masterplan: the fury amid the regeneration", "webUrl": "https://www.theguardian.com/football/2013/oct/30/tottenham-new-stadium-fury-regeneration", "apiUrl": "https://content.guardianapis.com/football/2013/oct/30/tottenham-new-stadium-fury-regeneration", "isHosted": false, "pillarId": "pillar/sport", "pillarName": "Sport"}, {"id": "football/2013/oct/30/tottenham-hotspur-stadium-traders-oppose-haringey", "type": "article", "sectionId": "football", "sectionName": "Football", "webPublicationDate": "2013-10-30T16:59:48Z", "webTitle": "Tottenham Hotspur new stadium: local traders oppose Haringey masterplan", "webUrl": "https://www.theguardian.com/football/2013/oct/30/tottenham-hotspur-stadium-traders-oppose-haringey", "apiUrl": "https://content.guardianapis.com/football/2013/oct/30/tottenham-hotspur-stadium-traders-oppose-haringey", "isHosted": false, "pillarId": "pillar/sport", "pillarName": "Sport"}, {"id": "football/video/2013/oct/30/tottenham-hotspur-new-stadium-video", "type": "video", "sectionId": "football", "sectionName": "Football", "webPublicationDate": "2013-10-30T16:58:00Z", "webTitle": "Tottenham Hotspur get new stadium but local businesses lose out - video", "webUrl": "https://www.theguardian.com/football/video/2013/oct/30/tottenham-hotspur-new-stadium-video", "apiUrl": "https://content.guardianapis.com/football/video/2013/oct/30/tottenham-hotspur-new-stadium-video", "isHosted": false, "pillarId": "pillar/sport", "pillarName": "Sport"}, {"id": "football/2013/oct/30/tottenham-new-stadium-local-business-demolition", "type": "article", "sectionId": "football", "sectionName": "Football", "webPublicationDate": "2013-10-30T16:56:30Z", "webTitle": "Tottenham's new stadium: how club can cash in on development plan", "webUrl": "https://www.theguardian.com/football/2013/oct/30/tottenham-new-stadium-local-business-demolition", "apiUrl": "https://content.guardianapis.com/football/2013/oct/30/tottenham-new-stadium-local-business-demolition", "isHosted": false, "pillarId": "pillar/sport", "pillarName": "Sport"}, {"id": "football/2013/oct/30/mls-playoffs-team-by-team-guide", "type": "article", "sectionId": "football", "sectionName": "Football", "webPublicationDate": "2013-10-30T16:00:24Z", "webTitle": "MLS playoffs team-by-team guide", "webUrl": "https://www.theguardian.com/football/2013/oct/30/mls-playoffs-team-by-team-guide", "apiUrl": "https://content.guardianapis.com/football/2013/oct/30/mls-playoffs-team-by-team-guide", "isHosted": false, "pillarId": "pillar/sport", "pillarName": "Sport"}, {"id": "football/2013/oct/30/the-fiver-newcastle-manchester-city", "type": "article", "sectionId": "football", "sectionName": "Football", "webPublicationDate": "2013-10-30T15:56:01Z", "webTitle": "The Fiver | Lord Ashley's blinding magnificence | Jacob Steinberg", "webUrl": "https://www.theguardian.com/football/2013/oct/30/the-fiver-newcastle-manchester-city", "apiUrl": "https://content.guardianapis.com/football/2013/oct/30/the-fiver-newcastle-manchester-city", "isHosted": false, "pillarId": "pillar/sport", "pillarName": "Sport"}, {"id": "books/2013/oct/30/alex-ferguson-my-autobiography-fastest-selling-nonfiction-book", "type": "article", "sectionId": "books", "sectionName": "Books", "webPublicationDate": "2013-10-30T15:38:00Z", "webTitle": "Alex Ferguson's My Autobiography hits back of the net with sales", "webUrl": "https://www.theguardian.com/books/2013/oct/30/alex-ferguson-my-autobiography-fastest-selling-nonfiction-book", "apiUrl": "https://content.guardianapis.com/books/2013/oct/30/alex-ferguson-my-autobiography-fastest-selling-nonfiction-book", "isHosted": false, "pillarId": "pillar/arts", "pillarName": "Arts"}, {"id": "football/2013/oct/30/arsenal-capital-one-cup-defeat-chelsea", "type": "article", "sectionId": "football", "sectionName": "Football", "webPublicationDate": "2013-10-30T15:33:05Z", "webTitle": "Five talking points from Arsenal's Capital One Cup defeat by Chelsea", "webUrl": "https://www.theguardian.com/football/2013/oct/30/arsenal-capital-one-cup-defeat-chelsea", "apiUrl": "https://content.guardianapis.com/football/2013/oct/30/arsenal-capital-one-cup-defeat-chelsea", "isHosted": false, "pillarId": "pillar/sport", "pillarName": "Sport"}, {"id": "sport/blog/2013/oct/30/forgotten-story-alec-stock-qpr-manager", "type": "article", "sectionId": "sport", "sectionName": "Sport", "webPublicationDate": "2013-10-30T12:49:47Z", "webTitle": "The forgotten story of \u2026 Alec Stock | Simon Burnton", "webUrl": "https://www.theguardian.com/sport/blog/2013/oct/30/forgotten-story-alec-stock-qpr-manager", "apiUrl": "https://content.guardianapis.com/sport/blog/2013/oct/30/forgotten-story-alec-stock-qpr-manager", "isHosted": false, "pillarId": "pillar/sport", "pillarName": "Sport"}, {"id": "football/gallery/2013/oct/10/football-kits-weird-horrendous-in-pictures", "type": "gallery", "sectionId": "football", "sectionName": "Football", "webPublicationDate": "2013-10-30T11:40:00Z", "webTitle": "Football kits: 30 of the most weird and horrendous \u2013 in pictures", "webUrl": "https://www.theguardian.com/football/gallery/2013/oct/10/football-kits-weird-horrendous-in-pictures", "apiUrl": "https://content.guardianapis.com/football/gallery/2013/oct/10/football-kits-weird-horrendous-in-pictures", "isHosted": false, "pillarId": "pillar/sport", "pillarName": "Sport"}, {"id": "football/2013/oct/30/brazilian-footballer-decapitated-world-cup-rio", "type": "article", "sectionId": "football", "sectionName": "Football", "webPublicationDate": "2013-10-30T11:33:18Z", "webTitle": "Former Brazilian footballer decapitated by drug traffickers", "webUrl": "https://www.theguardian.com/football/2013/oct/30/brazilian-footballer-decapitated-world-cup-rio", "apiUrl": "https://content.guardianapis.com/football/2013/oct/30/brazilian-footballer-decapitated-world-cup-rio", "isHosted": false, "pillarId": "pillar/sport", "pillarName": "Sport"}, {"id": "football/blog/2013/oct/30/newcastle-united-journalist-alex-ferguson-mike-ashley", "type": "article", "sectionId": "football", "sectionName": "Football", "webPublicationDate": "2013-10-30T11:15:33Z", "webTitle": "Newcastle United journalist ban emulates Sir Alex Ferguson arrogance | Marina Hyde", "webUrl": "https://www.theguardian.com/football/blog/2013/oct/30/newcastle-united-journalist-alex-ferguson-mike-ashley", "apiUrl": "https://content.guardianapis.com/football/blog/2013/oct/30/newcastle-united-journalist-alex-ferguson-mike-ashley", "isHosted": false, "pillarId": "pillar/sport", "pillarName": "Sport"}, {"id": "football/blog/2013/oct/30/michel-platini-40-team-world-cup-uefa", "type": "article", "sectionId": "football", "sectionName": "Football", "webPublicationDate": "2013-10-30T10:00:01Z", "webTitle": "Non monsieur: why Michel Platini's 40-team World Cup idea is misguided | Jonathan Wilson", "webUrl": "https://www.theguardian.com/football/blog/2013/oct/30/michel-platini-40-team-world-cup-uefa", "apiUrl": "https://content.guardianapis.com/football/blog/2013/oct/30/michel-platini-40-team-world-cup-uefa", "isHosted": false, "pillarId": "pillar/sport", "pillarName": "Sport"}, {"id": "football/2013/oct/30/football-transfer-rumours-luis-suarez", "type": "article", "sectionId": "football", "sectionName": "Football", "webPublicationDate": "2013-10-30T09:17:33Z", "webTitle": "Football transfer rumours: Mario Balotelli to Chelsea?", "webUrl": "https://www.theguardian.com/football/2013/oct/30/football-transfer-rumours-luis-suarez", "apiUrl": "https://content.guardianapis.com/football/2013/oct/30/football-transfer-rumours-luis-suarez", "isHosted": false, "pillarId": "pillar/sport", "pillarName": "Sport"}, {"id": "football/2013/oct/29/leicester-city-fulham-capital-one-cup", "type": "article", "sectionId": "football", "sectionName": "Football", "webPublicationDate": "2013-10-30T00:19:00Z", "webTitle": "Leicester City 4-3 Fulham | Capital One Cup match report", "webUrl": "https://www.theguardian.com/football/2013/oct/29/leicester-city-fulham-capital-one-cup", "apiUrl": "https://content.guardianapis.com/football/2013/oct/29/leicester-city-fulham-capital-one-cup", "isHosted": false, "pillarId": "pillar/sport", "pillarName": "Sport"}, {"id": "football/2013/oct/29/burnley-west-ham-capital-one-cup", "type": "article", "sectionId": "football", "sectionName": "Football", "webPublicationDate": "2013-10-30T00:18:00Z", "webTitle": "Burnley 0-2 West Ham United | Capital One Cup match report", "webUrl": "https://www.theguardian.com/football/2013/oct/29/burnley-west-ham-capital-one-cup", "apiUrl": "https://content.guardianapis.com/football/2013/oct/29/burnley-west-ham-capital-one-cup", "isHosted": false, "pillarId": "pillar/sport", "pillarName": "Sport"}, {"id": "football/2013/oct/29/manchester-united-arsenal-capital-one-cup", "type": "article", "sectionId": "football", "sectionName": "Football", "webPublicationDate": "2013-10-30T00:17:00Z", "webTitle": "Manchester United 4-0 Norwich City | Capital One Cup match report", "webUrl": "https://www.theguardian.com/football/2013/oct/29/manchester-united-arsenal-capital-one-cup", "apiUrl": "https://content.guardianapis.com/football/2013/oct/29/manchester-united-arsenal-capital-one-cup", "isHosted": false, "pillarId": "pillar/sport", "pillarName": "Sport"}, {"id": "football/2013/oct/30/the-knowledge-premier-league-minutes-goals", "type": "article", "sectionId": "football", "sectionName": "Football", "webPublicationDate": "2013-10-30T00:06:00Z", "webTitle": "The Knowledge | The most prolific minute in Premier League history? | Georgina Turner", "webUrl": "https://www.theguardian.com/football/2013/oct/30/the-knowledge-premier-league-minutes-goals", "apiUrl": "https://content.guardianapis.com/football/2013/oct/30/the-knowledge-premier-league-minutes-goals", "isHosted": false, "pillarId": "pillar/sport", "pillarName": "Sport"}, {"id": "football/2013/oct/29/arsenal-chelsea-capital-one-cup", "type": "article", "sectionId": "football", "sectionName": "Football", "webPublicationDate": "2013-10-30T00:03:00Z", "webTitle": "Arsenal 0-2 Chelsea | Capital One Cup match report", "webUrl": "https://www.theguardian.com/football/2013/oct/29/arsenal-chelsea-capital-one-cup", "apiUrl": "https://content.guardianapis.com/football/2013/oct/29/arsenal-chelsea-capital-one-cup", "isHosted": false, "pillarId": "pillar/sport", "pillarName": "Sport"}, {"id": "football/2013/oct/29/arsene-wenger-arsenal-chelsea-capital-one-cup", "type": "article", "sectionId": "football", "sectionName": "Football", "webPublicationDate": "2013-10-29T23:59:47Z", "webTitle": "Ars\u00e8ne Wenger seeks instant response from Arsenal after loss to Chelsea", "webUrl": "https://www.theguardian.com/football/2013/oct/29/arsene-wenger-arsenal-chelsea-capital-one-cup", "apiUrl": "https://content.guardianapis.com/football/2013/oct/29/arsene-wenger-arsenal-chelsea-capital-one-cup", "isHosted": false, "pillarId": "pillar/sport", "pillarName": "Sport"}, {"id": "football/blog/2013/oct/29/ange-postecoglou-socceroos-world-cup-brazil", "type": "article", "sectionId": "football", "sectionName": "Football", "webPublicationDate": "2013-10-29T23:00:47Z", "webTitle": "Balance essential for Ange Postecoglou's Socceroos", "webUrl": "https://www.theguardian.com/football/blog/2013/oct/29/ange-postecoglou-socceroos-world-cup-brazil", "apiUrl": "https://content.guardianapis.com/football/blog/2013/oct/29/ange-postecoglou-socceroos-world-cup-brazil", "isHosted": false, "pillarId": "pillar/sport", "pillarName": "Sport"}, {"id": "football/2013/oct/29/crystal-palace-talks-martin-oneill-tony-pulis", "type": "article", "sectionId": "football", "sectionName": "Football", "webPublicationDate": "2013-10-29T22:30:00Z", "webTitle": "Crystal Palace hold initial talks with Martin O'Neill and Tony Pulis", "webUrl": "https://www.theguardian.com/football/2013/oct/29/crystal-palace-talks-martin-oneill-tony-pulis", "apiUrl": "https://content.guardianapis.com/football/2013/oct/29/crystal-palace-talks-martin-oneill-tony-pulis", "isHosted": false, "pillarId": "pillar/sport", "pillarName": "Sport"}, {"id": "football/blog/2013/oct/29/chelsea-capital-one-cup-arsenal", "type": "article", "sectionId": "football", "sectionName": "Football", "webPublicationDate": "2013-10-29T22:28:00Z", "webTitle": "Chelsea's fringe men prove worth in Capital One Cup win over Arsenal | Amy Lawrence", "webUrl": "https://www.theguardian.com/football/blog/2013/oct/29/chelsea-capital-one-cup-arsenal", "apiUrl": "https://content.guardianapis.com/football/blog/2013/oct/29/chelsea-capital-one-cup-arsenal", "isHosted": false, "pillarId": "pillar/sport", "pillarName": "Sport"}, {"id": "football/2013/oct/29/arsenal-v-chelsea-live", "type": "liveblog", "sectionId": "football", "sectionName": "Football", "webPublicationDate": "2013-10-29T21:38:29Z", "webTitle": "Arsenal v Chelsea \u2013 as it happened | Jacob Steinberg", "webUrl": "https://www.theguardian.com/football/2013/oct/29/arsenal-v-chelsea-live", "apiUrl": "https://content.guardianapis.com/football/2013/oct/29/arsenal-v-chelsea-live", "isHosted": false, "pillarId": "pillar/sport", "pillarName": "Sport"}, {"id": "football/blog/2013/oct/29/lionel-messi-2013-ballon-dor-ronaldo-ribery-robben-fifa", "type": "article", "sectionId": "football", "sectionName": "Football", "webPublicationDate": "2013-10-29T17:33:14Z", "webTitle": "Ballon d'Or 2013: Lionel Messi may not have it all his own way this year | Sean Ingle", "webUrl": "https://www.theguardian.com/football/blog/2013/oct/29/lionel-messi-2013-ballon-dor-ronaldo-ribery-robben-fifa", "apiUrl": "https://content.guardianapis.com/football/blog/2013/oct/29/lionel-messi-2013-ballon-dor-ronaldo-ribery-robben-fifa", "isHosted": false, "pillarId": "pillar/sport", "pillarName": "Sport"}, {"id": "football/2013/oct/29/the-fiver-ballon-dor-ronaldo", "type": "article", "sectionId": "football", "sectionName": "Football", "webPublicationDate": "2013-10-29T17:08:20Z", "webTitle": "The Fiver | What Rembrandt's The Night Watch is to a packet of Tesco custard creams", "webUrl": "https://www.theguardian.com/football/2013/oct/29/the-fiver-ballon-dor-ronaldo", "apiUrl": "https://content.guardianapis.com/football/2013/oct/29/the-fiver-ballon-dor-ronaldo", "isHosted": false, "pillarId": "pillar/sport", "pillarName": "Sport"}, {"id": "media/blog/2013/oct/29/bt-sport", "type": "article", "sectionId": "sport", "sectionName": "Sport", "webPublicationDate": "2013-10-29T16:22:41Z", "webTitle": "BT Sport has star quality but remains a trailing comet in Sky's firmament | Owen Gibson", "webUrl": "https://www.theguardian.com/media/blog/2013/oct/29/bt-sport", "apiUrl": "https://content.guardianapis.com/media/blog/2013/oct/29/bt-sport", "isHosted": false, "pillarId": "pillar/sport", "pillarName": "Sport"}, {"id": "football/2013/oct/29/football-league-goalline-technology-capital-one-cup-watford", "type": "article", "sectionId": "football", "sectionName": "Football", "webPublicationDate": "2013-10-29T13:51:13Z", "webTitle": "Football League considers use of goalline technology for Capital One Cup", "webUrl": "https://www.theguardian.com/football/2013/oct/29/football-league-goalline-technology-capital-one-cup-watford", "apiUrl": "https://content.guardianapis.com/football/2013/oct/29/football-league-goalline-technology-capital-one-cup-watford", "isHosted": false, "pillarId": "pillar/sport", "pillarName": "Sport"}, {"id": "football/blog/2013/oct/29/best-goals-weekend-thierry-henry", "type": "article", "sectionId": "football", "sectionName": "Football", "webPublicationDate": "2013-10-29T13:33:00Z", "webTitle": "The best goals of the weekend", "webUrl": "https://www.theguardian.com/football/blog/2013/oct/29/best-goals-weekend-thierry-henry", "apiUrl": "https://content.guardianapis.com/football/blog/2013/oct/29/best-goals-weekend-thierry-henry", "isHosted": false, "pillarId": "pillar/sport", "pillarName": "Sport"}, {"id": "football/picture/2013/oct/29/sport-picture-of-the-day-revolution-or-football-match", "type": "picture", "sectionId": "football", "sectionName": "Football", "webPublicationDate": "2013-10-29T13:06:11Z", "webTitle": "Sport picture of the day: revolution or football match?", "webUrl": "https://www.theguardian.com/football/picture/2013/oct/29/sport-picture-of-the-day-revolution-or-football-match", "apiUrl": "https://content.guardianapis.com/football/picture/2013/oct/29/sport-picture-of-the-day-revolution-or-football-match", "isHosted": false, "pillarId": "pillar/sport", "pillarName": "Sport"}, {"id": "football/blog/2013/oct/29/arsenal-arsene-wenger-capital-one-cup", "type": "article", "sectionId": "football", "sectionName": "Football", "webPublicationDate": "2013-10-29T11:39:00Z", "webTitle": "League Cup \u2013 where Ars\u00e8ne Wenger tests young Gunners' mettle under fire | Ian McCourt", "webUrl": "https://www.theguardian.com/football/blog/2013/oct/29/arsenal-arsene-wenger-capital-one-cup", "apiUrl": "https://content.guardianapis.com/football/blog/2013/oct/29/arsenal-arsene-wenger-capital-one-cup", "isHosted": false, "pillarId": "pillar/sport", "pillarName": "Sport"}, {"id": "football/blog/2013/oct/29/nigeria-toughest-league-win-away", "type": "article", "sectionId": "football", "sectionName": "Football", "webPublicationDate": "2013-10-29T10:00:00Z", "webTitle": "Why is Nigeria the world's toughest league in which to get an away win? | Paul Doyle", "webUrl": "https://www.theguardian.com/football/blog/2013/oct/29/nigeria-toughest-league-win-away", "apiUrl": "https://content.guardianapis.com/football/blog/2013/oct/29/nigeria-toughest-league-win-away", "isHosted": false, "pillarId": "pillar/sport", "pillarName": "Sport"}, {"id": "football/2013/oct/29/football-transfer-rumours", "type": "article", "sectionId": "football", "sectionName": "Football", "webPublicationDate": "2013-10-29T09:07:51Z", "webTitle": "Football transfer rumours: Vincent Kompany to Monaco?", "webUrl": "https://www.theguardian.com/football/2013/oct/29/football-transfer-rumours", "apiUrl": "https://content.guardianapis.com/football/2013/oct/29/football-transfer-rumours", "isHosted": false, "pillarId": "pillar/sport", "pillarName": "Sport"}, {"id": "sport/2013/oct/29/premier-league-highlights-australia-football", "type": "article", "sectionId": "sport", "sectionName": "Sport", "webPublicationDate": "2013-10-29T02:36:32Z", "webTitle": "Is it so hard to get Premier League highlights right in Australia?", "webUrl": "https://www.theguardian.com/sport/2013/oct/29/premier-league-highlights-australia-football", "apiUrl": "https://content.guardianapis.com/sport/2013/oct/29/premier-league-highlights-australia-football", "isHosted": false, "pillarId": "pillar/sport", "pillarName": "Sport"}, {"id": "football/2013/oct/28/arsene-wenger-arsenal-jose-mourinho-chelsea", "type": "article", "sectionId": "football", "sectionName": "Football", "webPublicationDate": "2013-10-28T23:52:00Z", "webTitle": "Ars\u00e8ne Wenger seeks first blood in battle against old rival Jos\u00e9 Mourinho", "webUrl": "https://www.theguardian.com/football/2013/oct/28/arsene-wenger-arsenal-jose-mourinho-chelsea", "apiUrl": "https://content.guardianapis.com/football/2013/oct/28/arsene-wenger-arsenal-jose-mourinho-chelsea", "isHosted": false, "pillarId": "pillar/sport", "pillarName": "Sport"}, {"id": "football/2013/oct/28/alex-ferguson-malky-mackay-cardiff-city", "type": "article", "sectionId": "football", "sectionName": "Football", "webPublicationDate": "2013-10-28T23:19:33Z", "webTitle": "Sir Alex Ferguson gives Malky Mackay advice over Cardiff problems", "webUrl": "https://www.theguardian.com/football/2013/oct/28/alex-ferguson-malky-mackay-cardiff-city", "apiUrl": "https://content.guardianapis.com/football/2013/oct/28/alex-ferguson-malky-mackay-cardiff-city", "isHosted": false, "pillarId": "pillar/sport", "pillarName": "Sport"}, {"id": "football/2013/oct/28/burnley-westhamunited", "type": "article", "sectionId": "football", "sectionName": "Football", "webPublicationDate": "2013-10-28T22:41:00Z", "webTitle": "Burnley's Sean Dyche follows Brian Clough's basics before West Ham visit", "webUrl": "https://www.theguardian.com/football/2013/oct/28/burnley-westhamunited", "apiUrl": "https://content.guardianapis.com/football/2013/oct/28/burnley-westhamunited", "isHosted": false, "pillarId": "pillar/sport", "pillarName": "Sport"}, {"id": "football/blog/2013/oct/28/a-league-tactics-brisbane-adelaide", "type": "article", "sectionId": "football", "sectionName": "Football", "webPublicationDate": "2013-10-28T22:33:06Z", "webTitle": "A-League tactical round-up: how injuries deplete systems", "webUrl": "https://www.theguardian.com/football/blog/2013/oct/28/a-league-tactics-brisbane-adelaide", "apiUrl": "https://content.guardianapis.com/football/blog/2013/oct/28/a-league-tactics-brisbane-adelaide", "isHosted": false, "pillarId": "pillar/sport", "pillarName": "Sport"}, {"id": "football/2013/oct/28/crystal-palace-west-brom-tony-pulis", "type": "article", "sectionId": "football", "sectionName": "Football", "webPublicationDate": "2013-10-28T22:30:00Z", "webTitle": "Crystal Palace may delay naming new manager until after West Brom trip", "webUrl": "https://www.theguardian.com/football/2013/oct/28/crystal-palace-west-brom-tony-pulis", "apiUrl": "https://content.guardianapis.com/football/2013/oct/28/crystal-palace-west-brom-tony-pulis", "isHosted": false, "pillarId": "pillar/sport", "pillarName": "Sport"}, {"id": "football/2013/oct/28/jeffrey-webb-fifa-black-managers", "type": "article", "sectionId": "football", "sectionName": "Football", "webPublicationDate": "2013-10-28T22:20:51Z", "webTitle": "Fifa's Jeffrey Webb wants England to address lack of black managers", "webUrl": "https://www.theguardian.com/football/2013/oct/28/jeffrey-webb-fifa-black-managers", "apiUrl": "https://content.guardianapis.com/football/2013/oct/28/jeffrey-webb-fifa-black-managers", "isHosted": false, "pillarId": "pillar/sport", "pillarName": "Sport"}, {"id": "sport/blog/2013/oct/28/joy-of-six-australian-sport-books", "type": "article", "sectionId": "sport", "sectionName": "Sport", "webPublicationDate": "2013-10-28T20:51:00Z", "webTitle": "The Joy of Six: Australian sport books", "webUrl": "https://www.theguardian.com/sport/blog/2013/oct/28/joy-of-six-australian-sport-books", "apiUrl": "https://content.guardianapis.com/sport/blog/2013/oct/28/joy-of-six-australian-sport-books", "isHosted": false, "pillarId": "pillar/sport", "pillarName": "Sport"}, {"id": "football/blog/2013/oct/28/chelsea-fernando-torres-jose-mourinho", "type": "article", "sectionId": "football", "sectionName": "Football", "webPublicationDate": "2013-10-28T18:14:07Z", "webTitle": "Chelsea's Fernando Torres solves striker conundrum for Jos\u00e9 Mourinho | Barney Ronay", "webUrl": "https://www.theguardian.com/football/blog/2013/oct/28/chelsea-fernando-torres-jose-mourinho", "apiUrl": "https://content.guardianapis.com/football/blog/2013/oct/28/chelsea-fernando-torres-jose-mourinho", "isHosted": false, "pillarId": "pillar/sport", "pillarName": "Sport"}, {"id": "football/blog/2013/oct/28/newcastle-mike-ashley-alan-pardew", "type": "article", "sectionId": "football", "sectionName": "Football", "webPublicationDate": "2013-10-28T17:49:14Z", "webTitle": "Alan Pardew's future is just one problem for Newcastle and Mike Ashley | Louise Taylor", "webUrl": "https://www.theguardian.com/football/blog/2013/oct/28/newcastle-mike-ashley-alan-pardew", "apiUrl": "https://content.guardianapis.com/football/blog/2013/oct/28/newcastle-mike-ashley-alan-pardew", "isHosted": false, "pillarId": "pillar/sport", "pillarName": "Sport"}]}}