{"response": {"status": "ok", "userTier": "developer", "total": 19486, "startIndex": 1, "pageSize": 50, "currentPage": 1, "pages": 390, "orderBy": "newest", "results": [{"id": "commentisfree/2013/oct/30/in-praise-of-pure-fruit-pulp", "type": "article", "sectionId": "commentisfree", "sectionName": "Opinion", "webPublicationDate": "2013-10-30T23:01:31Z", "webTitle": "In praise of \u2026 pure fruit pulp | Editorial", "webUrl": "https://www.theguardian.com/commentisfree/2013/oct/30/in-praise-of-pure-fruit-pulp", "apiUrl": "https://content.guardianapis.com/commentisfree/2013/oct/30/in-praise-of-pure-fruit-pulp", "isHosted": false, "pillarId": "pillar/opinion", "pillarName": "Opinion"}, {"id": "lifeandstyle/2013/oct/30/jam-wars-reducing-sugar-britain", "type": "article", "sectionId": "food", "sectionName": "Food", "webPublicationDate": "2013-10-30T16:58:00Z", "webTitle": "Jam wars: will reducing sugar destroy Britain's jam?", "webUrl": "https://www.theguardian.com/lifeandstyle/2013/oct/30/jam-wars-reducing-sugar-britain", "apiUrl": "https://content.guardianapis.com/lifeandstyle/2013/oct/30/jam-wars-reducing-sugar-britain", "isHosted": false, "pillarId": "pillar/lifestyle", "pillarName": "Lifestyle"}, {"id": "tv-and-radio/gallery/2013/oct/30/television-breaking-bad", "type": "gallery", "sectionId": "tv-and-radio", "sectionName": "Television & radio", "webPublicationDate": "2013-10-30T13:00:00Z", "webTitle": "Breaking Bad menu at Lucky Chip - in pictures", "webUrl": "https://www.theguardian.com/tv-and-radio/gallery/2013/oct/30/television-breaking-bad", "apiUrl": "https://content.guardianapis.com/tv-and-radio/gallery/2013/oct/30/television-breaking-bad", "isHosted": false, "pillarId": "pillar/arts", "pillarName": "Arts"}, {"id": "commentisfree/2013/oct/30/marco-pierre-white-jamaican-dish-knorr-advert", "type": "article", "sectionId": "commentisfree", "sectionName": "Opinion", "webPublicationDate": "2013-10-30T12:04:09Z", "webTitle": "Marco Pierre White, that was no Jamaican dish you made | Lola Okolosie", "webUrl": "https://www.theguardian.com/commentisfree/2013/oct/30/marco-pierre-white-jamaican-dish-knorr-advert", "apiUrl": "https://content.guardianapis.com/commentisfree/2013/oct/30/marco-pierre-white-jamaican-dish-knorr-advert", "isHosted": false, "pillarId": "pillar/opinion", "pillarName": "Opinion"}, {"id": "lifeandstyle/2013/oct/30/jack-monroe-kale-pesto-paste-recipe", "type": "article", "sectionId": "lifeandstyle", "sectionName": "Life and style", "webPublicationDate": "2013-10-30T12:01:28Z", "webTitle": "Jack Monroe's kale pesto pasta recipe", "webUrl": "https://www.theguardian.com/lifeandstyle/2013/oct/30/jack-monroe-kale-pesto-paste-recipe", "apiUrl": "https://content.guardianapis.com/lifeandstyle/2013/oct/30/jack-monroe-kale-pesto-paste-recipe", "isHosted": false, "pillarId": "pillar/lifestyle", "pillarName": "Lifestyle"}, {"id": "lifeandstyle/wordofmouth/2013/oct/29/fake-blood-halloween-costumes-cakes-recipe-edible", "type": "article", "sectionId": "lifeandstyle", "sectionName": "Life and style", "webPublicationDate": "2013-10-29T13:12:10Z", "webTitle": "Fake blood for Halloween costumes and cakes: what's the best recipe?", "webUrl": "https://www.theguardian.com/lifeandstyle/wordofmouth/2013/oct/29/fake-blood-halloween-costumes-cakes-recipe-edible", "apiUrl": "https://content.guardianapis.com/lifeandstyle/wordofmouth/2013/oct/29/fake-blood-halloween-costumes-cakes-recipe-edible", "isHosted": false, "pillarId": "pillar/lifestyle", "pillarName": "Lifestyle"}, {"id": "lifeandstyle/wordofmouth/2013/oct/29/raw-carrots-good-cooked-bad-food-tastes", "type": "article", "sectionId": "lifeandstyle", "sectionName": "Life and style", "webPublicationDate": "2013-10-29T10:00:00Z", "webTitle": "Raw carrots good, cooked carrots bad: our fickle food tastes", "webUrl": "https://www.theguardian.com/lifeandstyle/wordofmouth/2013/oct/29/raw-carrots-good-cooked-bad-food-tastes", "apiUrl": "https://content.guardianapis.com/lifeandstyle/wordofmouth/2013/oct/29/raw-carrots-good-cooked-bad-food-tastes", "isHosted": false, "pillarId": "pillar/lifestyle", "pillarName": "Lifestyle"}, {"id": "travel/2013/oct/29/craft-beer-ireland-10-pubs-microbreweries", "type": "article", "sectionId": "travel", "sectionName": "Travel", "webPublicationDate": "2013-10-29T06:00:00Z", "webTitle": "Craft beer in Ireland: 10 pubs and microbreweries to explore", "webUrl": "https://www.theguardian.com/travel/2013/oct/29/craft-beer-ireland-10-pubs-microbreweries", "apiUrl": "https://content.guardianapis.com/travel/2013/oct/29/craft-beer-ireland-10-pubs-microbreweries", "isHosted": false, "pillarId": "pillar/lifestyle", "pillarName": "Lifestyle"}, {"id": "lifeandstyle/australia-food-blog/2013/oct/29/moroccan-recipes", "type": "article", "sectionId": "lifeandstyle", "sectionName": "Life and style", "webPublicationDate": "2013-10-29T02:41:55Z", "webTitle": "Recipes for a Morrocan surfers' seafood barbecue", "webUrl": "https://www.theguardian.com/lifeandstyle/australia-food-blog/2013/oct/29/moroccan-recipes", "apiUrl": "https://content.guardianapis.com/lifeandstyle/australia-food-blog/2013/oct/29/moroccan-recipes", "isHosted": false, "pillarId": "pillar/lifestyle", "pillarName": "Lifestyle"}, {"id": "environment/2013/oct/28/somerset-apples-of-concord", "type": "article", "sectionId": "environment", "sectionName": "Environment", "webPublicationDate": "2013-10-28T21:00:00Z", "webTitle": "Country diary: Henstridge, Somerset: Apples of concord", "webUrl": "https://www.theguardian.com/environment/2013/oct/28/somerset-apples-of-concord", "apiUrl": "https://content.guardianapis.com/environment/2013/oct/28/somerset-apples-of-concord", "isHosted": false, "pillarId": "pillar/news", "pillarName": "News"}, {"id": "lifeandstyle/wordofmouth/2013/oct/28/kadir-nurman-invent-doner-kebab", "type": "article", "sectionId": "food", "sectionName": "Food", "webPublicationDate": "2013-10-28T18:46:43Z", "webTitle": "Did Kadir Nurman really invent the doner kebab?", "webUrl": "https://www.theguardian.com/lifeandstyle/wordofmouth/2013/oct/28/kadir-nurman-invent-doner-kebab", "apiUrl": "https://content.guardianapis.com/lifeandstyle/wordofmouth/2013/oct/28/kadir-nurman-invent-doner-kebab", "isHosted": false, "pillarId": "pillar/lifestyle", "pillarName": "Lifestyle"}, {"id": "lifeandstyle/wordofmouth/2013/oct/28/gay-hussar-sale-favourite-restaurant", "type": "article", "sectionId": "food", "sectionName": "Food", "webPublicationDate": "2013-10-28T11:43:47Z", "webTitle": "The Gay Hussar's sale should teach us to use or lose our favourite restaurants", "webUrl": "https://www.theguardian.com/lifeandstyle/wordofmouth/2013/oct/28/gay-hussar-sale-favourite-restaurant", "apiUrl": "https://content.guardianapis.com/lifeandstyle/wordofmouth/2013/oct/28/gay-hussar-sale-favourite-restaurant", "isHosted": false, "pillarId": "pillar/lifestyle", "pillarName": "Lifestyle"}, {"id": "education/2013/oct/28/vegetarian-halloween-student-supper-recipe", "type": "article", "sectionId": "education", "sectionName": "Education", "webPublicationDate": "2013-10-28T10:10:00Z", "webTitle": "Student recipe: a vegetarian Halloween supper", "webUrl": "https://www.theguardian.com/education/2013/oct/28/vegetarian-halloween-student-supper-recipe", "apiUrl": "https://content.guardianapis.com/education/2013/oct/28/vegetarian-halloween-student-supper-recipe", "isHosted": false, "pillarId": "pillar/news", "pillarName": "News"}, {"id": "lifeandstyle/australia-food-blog/video/2013/oct/27/vegan-avocado-chocolate-mousse-video", "type": "video", "sectionId": "lifeandstyle", "sectionName": "Life and style", "webPublicationDate": "2013-10-27T23:09:00Z", "webTitle": "Raw vegan avocado chocolate mousse - Bondi Harvest video recipe", "webUrl": "https://www.theguardian.com/lifeandstyle/australia-food-blog/video/2013/oct/27/vegan-avocado-chocolate-mousse-video", "apiUrl": "https://content.guardianapis.com/lifeandstyle/australia-food-blog/video/2013/oct/27/vegan-avocado-chocolate-mousse-video", "isHosted": false, "pillarId": "pillar/lifestyle", "pillarName": "Lifestyle"}, {"id": "lifeandstyle/2013/oct/27/drakes-tabanco-restaurant-review", "type": "article", "sectionId": "food", "sectionName": "Food", "webPublicationDate": "2013-10-27T07:30:00Z", "webTitle": "Drakes Tabanco: restaurant review | Jay Rayner", "webUrl": "https://www.theguardian.com/lifeandstyle/2013/oct/27/drakes-tabanco-restaurant-review", "apiUrl": "https://content.guardianapis.com/lifeandstyle/2013/oct/27/drakes-tabanco-restaurant-review", "isHosted": false, "pillarId": "pillar/lifestyle", "pillarName": "Lifestyle"}, {"id": "sustainable-business/food-blog/gallery/where-does-your-food-come-from-pictures", "type": "gallery", "sectionId": "sustainable-business", "sectionName": "Guardian Sustainable Business", "webPublicationDate": "2013-10-26T15:00:00Z", "webTitle": "Where does your food come from? - in pictures", "webUrl": "https://www.theguardian.com/sustainable-business/food-blog/gallery/where-does-your-food-come-from-pictures", "apiUrl": "https://content.guardianapis.com/sustainable-business/food-blog/gallery/where-does-your-food-come-from-pictures", "isHosted": false}, {"id": "lifeandstyle/2013/oct/26/scotch-whisky-village-distillery-died", "type": "article", "sectionId": "food", "sectionName": "Food", "webPublicationDate": "2013-10-26T13:00:02Z", "webTitle": "Thirty years ago, a distillery died. Now its scotch sells for \u00a31,500 a bottle", "webUrl": "https://www.theguardian.com/lifeandstyle/2013/oct/26/scotch-whisky-village-distillery-died", "apiUrl": "https://content.guardianapis.com/lifeandstyle/2013/oct/26/scotch-whisky-village-distillery-died", "isHosted": false, "pillarId": "pillar/lifestyle", "pillarName": "Lifestyle"}, {"id": "lifeandstyle/2013/oct/26/wines-from-old-and-new-worlds", "type": "article", "sectionId": "food", "sectionName": "Food", "webPublicationDate": "2013-10-26T12:00:00Z", "webTitle": "Unusual wines from the old and new worlds | David Williams", "webUrl": "https://www.theguardian.com/lifeandstyle/2013/oct/26/wines-from-old-and-new-worlds", "apiUrl": "https://content.guardianapis.com/lifeandstyle/2013/oct/26/wines-from-old-and-new-worlds", "isHosted": false, "pillarId": "pillar/lifestyle", "pillarName": "Lifestyle"}, {"id": "lifeandstyle/2013/oct/26/the-buttery-glasgow-restaurant-review", "type": "article", "sectionId": "lifeandstyle", "sectionName": "Life and style", "webPublicationDate": "2013-10-26T08:00:06Z", "webTitle": "Restaurant: The Buttery, Glasgow", "webUrl": "https://www.theguardian.com/lifeandstyle/2013/oct/26/the-buttery-glasgow-restaurant-review", "apiUrl": "https://content.guardianapis.com/lifeandstyle/2013/oct/26/the-buttery-glasgow-restaurant-review", "isHosted": false, "pillarId": "pillar/lifestyle", "pillarName": "Lifestyle"}, {"id": "lifeandstyle/2013/oct/26/german-dry-wine-red-white", "type": "article", "sectionId": "food", "sectionName": "Food", "webPublicationDate": "2013-10-26T08:00:00Z", "webTitle": "Wine: Germany's not all sweetness and light", "webUrl": "https://www.theguardian.com/lifeandstyle/2013/oct/26/german-dry-wine-red-white", "apiUrl": "https://content.guardianapis.com/lifeandstyle/2013/oct/26/german-dry-wine-red-white", "isHosted": false, "pillarId": "pillar/lifestyle", "pillarName": "Lifestyle"}, {"id": "lifeandstyle/2013/oct/26/aunti-sheila-farm-beatles-spaghetti-eggs", "type": "article", "sectionId": "lifeandstyle", "sectionName": "Life and style", "webPublicationDate": "2013-10-26T06:30:01Z", "webTitle": "Family life: Posh auntie Sheila, on the farm with the Beatles and Mom's spaghetti and eggs", "webUrl": "https://www.theguardian.com/lifeandstyle/2013/oct/26/aunti-sheila-farm-beatles-spaghetti-eggs", "apiUrl": "https://content.guardianapis.com/lifeandstyle/2013/oct/26/aunti-sheila-farm-beatles-spaghetti-eggs", "isHosted": false, "pillarId": "pillar/lifestyle", "pillarName": "Lifestyle"}, {"id": "lifeandstyle/2013/oct/26/10-best-slow-cooked-recipes", "type": "article", "sectionId": "lifeandstyle", "sectionName": "Life and style", "webPublicationDate": "2013-10-26T06:00:49Z", "webTitle": "The 10 best slow-cooked recipes", "webUrl": "https://www.theguardian.com/lifeandstyle/2013/oct/26/10-best-slow-cooked-recipes", "apiUrl": "https://content.guardianapis.com/lifeandstyle/2013/oct/26/10-best-slow-cooked-recipes", "isHosted": false, "pillarId": "pillar/lifestyle", "pillarName": "Lifestyle"}, {"id": "lifeandstyle/2013/oct/26/swamp-drink-halloween", "type": "article", "sectionId": "lifeandstyle", "sectionName": "Life and style", "webPublicationDate": "2013-10-26T06:00:38Z", "webTitle": "How to make a halloween swamp drink", "webUrl": "https://www.theguardian.com/lifeandstyle/2013/oct/26/swamp-drink-halloween", "apiUrl": "https://content.guardianapis.com/lifeandstyle/2013/oct/26/swamp-drink-halloween", "isHosted": false, "pillarId": "pillar/lifestyle", "pillarName": "Lifestyle"}, {"id": "lifeandstyle/2013/oct/26/why-onions-good-for-you", "type": "article", "sectionId": "lifeandstyle", "sectionName": "Life and style", "webPublicationDate": "2013-10-26T06:00:00Z", "webTitle": "Why onions are good for you", "webUrl": "https://www.theguardian.com/lifeandstyle/2013/oct/26/why-onions-good-for-you", "apiUrl": "https://content.guardianapis.com/lifeandstyle/2013/oct/26/why-onions-good-for-you", "isHosted": false, "pillarId": "pillar/lifestyle", "pillarName": "Lifestyle"}, {"id": "lifeandstyle/2013/oct/26/meet-the-producer-vegetable-farmer", "type": "article", "sectionId": "lifeandstyle", "sectionName": "Life and style", "webPublicationDate": "2013-10-26T06:00:00Z", "webTitle": "Vegetable farmer | Meet the producer", "webUrl": "https://www.theguardian.com/lifeandstyle/2013/oct/26/meet-the-producer-vegetable-farmer", "apiUrl": "https://content.guardianapis.com/lifeandstyle/2013/oct/26/meet-the-producer-vegetable-farmer", "isHosted": false, "pillarId": "pillar/lifestyle", "pillarName": "Lifestyle"}, {"id": "lifeandstyle/2013/oct/26/how-to-keep-greens-fresh", "type": "article", "sectionId": "food", "sectionName": "Food", "webPublicationDate": "2013-10-26T05:59:02Z", "webTitle": "How to keep greens fresh | Kitchen tips", "webUrl": "https://www.theguardian.com/lifeandstyle/2013/oct/26/how-to-keep-greens-fresh", "apiUrl": "https://content.guardianapis.com/lifeandstyle/2013/oct/26/how-to-keep-greens-fresh", "isHosted": false, "pillarId": "pillar/lifestyle", "pillarName": "Lifestyle"}, {"id": "lifeandstyle/2013/oct/26/readers-recipe-swap-breadcrumbs", "type": "article", "sectionId": "global", "sectionName": "Global", "webPublicationDate": "2013-10-26T05:59:00Z", "webTitle": "Readers' recipe swap: breaded | Felicity Cloake", "webUrl": "https://www.theguardian.com/lifeandstyle/2013/oct/26/readers-recipe-swap-breadcrumbs", "apiUrl": "https://content.guardianapis.com/lifeandstyle/2013/oct/26/readers-recipe-swap-breadcrumbs", "isHosted": false}, {"id": "lifeandstyle/2013/oct/26/get-togethers-cornwall-gallery-party-recipes", "type": "article", "sectionId": "food", "sectionName": "Food", "webPublicationDate": "2013-10-26T05:59:00Z", "webTitle": "Get-togethers: The fine art of good food", "webUrl": "https://www.theguardian.com/lifeandstyle/2013/oct/26/get-togethers-cornwall-gallery-party-recipes", "apiUrl": "https://content.guardianapis.com/lifeandstyle/2013/oct/26/get-togethers-cornwall-gallery-party-recipes", "isHosted": false, "pillarId": "pillar/lifestyle", "pillarName": "Lifestyle"}, {"id": "lifeandstyle/2013/oct/26/saturated-fat-cut-pledge", "type": "article", "sectionId": "lifeandstyle", "sectionName": "Life and style", "webPublicationDate": "2013-10-25T23:05:00Z", "webTitle": "Saturated fat to be cut in chocolate products, makers pledge", "webUrl": "https://www.theguardian.com/lifeandstyle/2013/oct/26/saturated-fat-cut-pledge", "apiUrl": "https://content.guardianapis.com/lifeandstyle/2013/oct/26/saturated-fat-cut-pledge", "isHosted": false, "pillarId": "pillar/lifestyle", "pillarName": "Lifestyle"}, {"id": "commentisfree/2013/oct/25/unthinkable-diners-co-operatives-the-gay-hussar", "type": "article", "sectionId": "commentisfree", "sectionName": "Opinion", "webPublicationDate": "2013-10-25T21:32:47Z", "webTitle": "Unthinkable? Diners' co-operatives", "webUrl": "https://www.theguardian.com/commentisfree/2013/oct/25/unthinkable-diners-co-operatives-the-gay-hussar", "apiUrl": "https://content.guardianapis.com/commentisfree/2013/oct/25/unthinkable-diners-co-operatives-the-gay-hussar", "isHosted": false, "pillarId": "pillar/opinion", "pillarName": "Opinion"}, {"id": "lifeandstyle/video/2013/oct/25/stuart-langley-food-startup-tips", "type": "video", "sectionId": "food", "sectionName": "Food", "webPublicationDate": "2013-10-25T20:23:00Z", "webTitle": "Five top tips on launching a food start-up from Stuart Langley", "webUrl": "https://www.theguardian.com/lifeandstyle/video/2013/oct/25/stuart-langley-food-startup-tips", "apiUrl": "https://content.guardianapis.com/lifeandstyle/video/2013/oct/25/stuart-langley-food-startup-tips", "isHosted": false, "pillarId": "pillar/lifestyle", "pillarName": "Lifestyle"}, {"id": "business/2013/oct/25/tales-tesco-reduced-to-clear-aisle", "type": "article", "sectionId": "business", "sectionName": "Business", "webPublicationDate": "2013-10-25T19:22:34Z", "webTitle": "Tesco's reduced-to-clear aisle: 'it's a taste of the Serengeti'", "webUrl": "https://www.theguardian.com/business/2013/oct/25/tales-tesco-reduced-to-clear-aisle", "apiUrl": "https://content.guardianapis.com/business/2013/oct/25/tales-tesco-reduced-to-clear-aisle", "isHosted": false, "pillarId": "pillar/news", "pillarName": "News"}, {"id": "lifeandstyle/2013/oct/25/gay-hussar-soho-restaurant-for-sale", "type": "article", "sectionId": "food", "sectionName": "Food", "webPublicationDate": "2013-10-25T18:45:23Z", "webTitle": "Gay Hussar \u2013 the left's London canteen \u2013 goes up for sale", "webUrl": "https://www.theguardian.com/lifeandstyle/2013/oct/25/gay-hussar-soho-restaurant-for-sale", "apiUrl": "https://content.guardianapis.com/lifeandstyle/2013/oct/25/gay-hussar-soho-restaurant-for-sale", "isHosted": false, "pillarId": "pillar/lifestyle", "pillarName": "Lifestyle"}, {"id": "lifeandstyle/2013/oct/25/nigel-slater-food-photography-competition", "type": "article", "sectionId": "food", "sectionName": "Food", "webPublicationDate": "2013-10-25T15:15:52Z", "webTitle": "Nigel Slater food photography competition", "webUrl": "https://www.theguardian.com/lifeandstyle/2013/oct/25/nigel-slater-food-photography-competition", "apiUrl": "https://content.guardianapis.com/lifeandstyle/2013/oct/25/nigel-slater-food-photography-competition", "isHosted": false, "pillarId": "pillar/lifestyle", "pillarName": "Lifestyle"}, {"id": "education/2013/oct/25/bake-off-ruby-stress-exams", "type": "article", "sectionId": "education", "sectionName": "Education", "webPublicationDate": "2013-10-25T13:04:00Z", "webTitle": "Ruby Tandoh: 'Bake Off made me complain less about my studies'", "webUrl": "https://www.theguardian.com/education/2013/oct/25/bake-off-ruby-stress-exams", "apiUrl": "https://content.guardianapis.com/education/2013/oct/25/bake-off-ruby-stress-exams", "isHosted": false, "pillarId": "pillar/news", "pillarName": "News"}, {"id": "lifeandstyle/wordofmouth/2013/oct/25/starbucks-tea-house-independent-cuppa", "type": "article", "sectionId": "food", "sectionName": "Food", "webPublicationDate": "2013-10-25T12:11:27Z", "webTitle": "Starbucks tea house: can the coffee giant make a decent cuppa?", "webUrl": "https://www.theguardian.com/lifeandstyle/wordofmouth/2013/oct/25/starbucks-tea-house-independent-cuppa", "apiUrl": "https://content.guardianapis.com/lifeandstyle/wordofmouth/2013/oct/25/starbucks-tea-house-independent-cuppa", "isHosted": false, "pillarId": "pillar/lifestyle", "pillarName": "Lifestyle"}, {"id": "lifeandstyle/2013/oct/25/joy-sweets-adults-nostalgia-childhood", "type": "article", "sectionId": "lifeandstyle", "sectionName": "Life and style", "webPublicationDate": "2013-10-25T11:59:00Z", "webTitle": "The joy of sweeties ... for adults", "webUrl": "https://www.theguardian.com/lifeandstyle/2013/oct/25/joy-sweets-adults-nostalgia-childhood", "apiUrl": "https://content.guardianapis.com/lifeandstyle/2013/oct/25/joy-sweets-adults-nostalgia-childhood", "isHosted": false, "pillarId": "pillar/lifestyle", "pillarName": "Lifestyle"}, {"id": "lifeandstyle/gallery/2013/oct/25/halloween-tricks-treats-in-pictures-costume-party", "type": "gallery", "sectionId": "lifeandstyle", "sectionName": "Life and style", "webPublicationDate": "2013-10-25T11:30:29Z", "webTitle": "Halloween tricks and treats - in pictures", "webUrl": "https://www.theguardian.com/lifeandstyle/gallery/2013/oct/25/halloween-tricks-treats-in-pictures-costume-party", "apiUrl": "https://content.guardianapis.com/lifeandstyle/gallery/2013/oct/25/halloween-tricks-treats-in-pictures-costume-party", "isHosted": false, "pillarId": "pillar/lifestyle", "pillarName": "Lifestyle"}, {"id": "lifeandstyle/2013/oct/25/gluten-free-parsnip-croquetas-dairy-free-egg-free-garlic-dip", "type": "article", "sectionId": "lifeandstyle", "sectionName": "Life and style", "webPublicationDate": "2013-10-25T11:30:00Z", "webTitle": "Gluten-free parsnip croquetas with a dairy-free, egg-free garlic dip | Just as tasty", "webUrl": "https://www.theguardian.com/lifeandstyle/2013/oct/25/gluten-free-parsnip-croquetas-dairy-free-egg-free-garlic-dip", "apiUrl": "https://content.guardianapis.com/lifeandstyle/2013/oct/25/gluten-free-parsnip-croquetas-dairy-free-egg-free-garlic-dip", "isHosted": false, "pillarId": "pillar/lifestyle", "pillarName": "Lifestyle"}, {"id": "lifeandstyle/2013/oct/25/how-to-make-inside-out-toffee-apples", "type": "article", "sectionId": "lifeandstyle", "sectionName": "Life and style", "webPublicationDate": "2013-10-25T09:00:00Z", "webTitle": "How to make inside-out toffee apples", "webUrl": "https://www.theguardian.com/lifeandstyle/2013/oct/25/how-to-make-inside-out-toffee-apples", "apiUrl": "https://content.guardianapis.com/lifeandstyle/2013/oct/25/how-to-make-inside-out-toffee-apples", "isHosted": false, "pillarId": "pillar/lifestyle", "pillarName": "Lifestyle"}, {"id": "education/2013/oct/25/halloween-party-student-budget", "type": "article", "sectionId": "education", "sectionName": "Education", "webPublicationDate": "2013-10-25T08:54:00Z", "webTitle": "How to throw a Halloween party on a student budget", "webUrl": "https://www.theguardian.com/education/2013/oct/25/halloween-party-student-budget", "apiUrl": "https://content.guardianapis.com/education/2013/oct/25/halloween-party-student-budget", "isHosted": false, "pillarId": "pillar/news", "pillarName": "News"}, {"id": "lifeandstyle/video/2013/oct/25/weirdest-tasting-crisp-ever-video", "type": "video", "sectionId": "food", "sectionName": "Food", "webPublicationDate": "2013-10-25T06:50:00Z", "webTitle": "Is this the weirdest tasting crisp ever ? - video", "webUrl": "https://www.theguardian.com/lifeandstyle/video/2013/oct/25/weirdest-tasting-crisp-ever-video", "apiUrl": "https://content.guardianapis.com/lifeandstyle/video/2013/oct/25/weirdest-tasting-crisp-ever-video", "isHosted": false, "pillarId": "pillar/lifestyle", "pillarName": "Lifestyle"}, {"id": "lifeandstyle/2013/oct/25/royal-melbourne-wine-awards-yabby-lake-pinot-victoria", "type": "article", "sectionId": "food", "sectionName": "Food", "webPublicationDate": "2013-10-24T23:22:19Z", "webTitle": "Jimmy Watson memorial trophy: Yabby Lake triumphs for pinot and Victoria", "webUrl": "https://www.theguardian.com/lifeandstyle/2013/oct/25/royal-melbourne-wine-awards-yabby-lake-pinot-victoria", "apiUrl": "https://content.guardianapis.com/lifeandstyle/2013/oct/25/royal-melbourne-wine-awards-yabby-lake-pinot-victoria", "isHosted": false, "pillarId": "pillar/lifestyle", "pillarName": "Lifestyle"}, {"id": "commentisfree/2013/oct/24/owen-paterson-minister-gm-hype", "type": "article", "sectionId": "commentisfree", "sectionName": "Opinion", "webPublicationDate": "2013-10-24T18:00:00Z", "webTitle": "Owen Paterson: the minister for GM hype | Zac Goldsmith", "webUrl": "https://www.theguardian.com/commentisfree/2013/oct/24/owen-paterson-minister-gm-hype", "apiUrl": "https://content.guardianapis.com/commentisfree/2013/oct/24/owen-paterson-minister-gm-hype", "isHosted": false, "pillarId": "pillar/opinion", "pillarName": "Opinion"}, {"id": "lifeandstyle/shortcuts/2013/oct/24/argos-catalogue-small-losses-blue-pen", "type": "article", "sectionId": "lifeandstyle", "sectionName": "Life and style", "webPublicationDate": "2013-10-24T15:26:00Z", "webTitle": "The Argos catalogue  \u2013 and other small losses that hit us harder than expected", "webUrl": "https://www.theguardian.com/lifeandstyle/shortcuts/2013/oct/24/argos-catalogue-small-losses-blue-pen", "apiUrl": "https://content.guardianapis.com/lifeandstyle/shortcuts/2013/oct/24/argos-catalogue-small-losses-blue-pen", "isHosted": false, "pillarId": "pillar/lifestyle", "pillarName": "Lifestyle"}, {"id": "lifeandstyle/wordofmouth/2013/oct/24/ten-impressive-food-heists-thefts-baked-beans", "type": "article", "sectionId": "food", "sectionName": "Food", "webPublicationDate": "2013-10-24T11:35:00Z", "webTitle": "Ten of the most impressive food heists", "webUrl": "https://www.theguardian.com/lifeandstyle/wordofmouth/2013/oct/24/ten-impressive-food-heists-thefts-baked-beans", "apiUrl": "https://content.guardianapis.com/lifeandstyle/wordofmouth/2013/oct/24/ten-impressive-food-heists-thefts-baked-beans", "isHosted": false, "pillarId": "pillar/lifestyle", "pillarName": "Lifestyle"}, {"id": "lifeandstyle/2013/oct/24/six-pubs-restaurants-horrible-history", "type": "article", "sectionId": "food", "sectionName": "Food", "webPublicationDate": "2013-10-24T08:00:00Z", "webTitle": "Six pubs and restaurants with horrible histories", "webUrl": "https://www.theguardian.com/lifeandstyle/2013/oct/24/six-pubs-restaurants-horrible-history", "apiUrl": "https://content.guardianapis.com/lifeandstyle/2013/oct/24/six-pubs-restaurants-horrible-history", "isHosted": false, "pillarId": "pillar/lifestyle", "pillarName": "Lifestyle"}, {"id": "tv-and-radio/2013/oct/23/great-british-bake-off-final-8m-viewers", "type": "article", "sectionId": "tv-and-radio", "sectionName": "Television & radio", "webPublicationDate": "2013-10-23T21:41:57Z", "webTitle": "Great British Bake Off scoops up more than 8 million viewers", "webUrl": "https://www.theguardian.com/tv-and-radio/2013/oct/23/great-british-bake-off-final-8m-viewers", "apiUrl": "https://content.guardianapis.com/tv-and-radio/2013/oct/23/great-british-bake-off-final-8m-viewers", "isHosted": false, "pillarId": "pillar/arts", "pillarName": "Arts"}, {"id": "uk-news/2013/oct/23/horsemeat-food-scandal-meat-trade", "type": "article", "sectionId": "uk-news", "sectionName": "UK news", "webPublicationDate": "2013-10-23T16:45:47Z", "webTitle": "Horsemeat: the mystery 'Polish beef trimmings' at the heart of a scandal", "webUrl": "https://www.theguardian.com/uk-news/2013/oct/23/horsemeat-food-scandal-meat-trade", "apiUrl": "https://content.guardianapis.com/uk-news/2013/oct/23/horsemeat-food-scandal-meat-trade", "isHosted": false, "pillarId": "pillar/news", "pillarName": "News"}, {"id": "commentisfree/2013/oct/23/butter-bad-saturated-fat-healthy-eating-industry", "type": "article", "sectionId": "commentisfree", "sectionName": "Opinion", "webPublicationDate": "2013-10-23T16:02:15Z", "webTitle": "Butter is bad \u2013 a myth we've been fed by the 'healthy eating' industry | Joanna Blythman", "webUrl": "https://www.theguardian.com/commentisfree/2013/oct/23/butter-bad-saturated-fat-healthy-eating-industry", "apiUrl": "https://content.guardianapis.com/commentisfree/2013/oct/23/butter-bad-saturated-fat-healthy-eating-industry", "isHosted": false, "pillarId": "pillar/opinion", "pillarName": "Opinion"}]}}