{"response": {"status": "ok", "userTier": "developer", "total": 34453, "startIndex": 1, "pageSize": 50, "currentPage": 1, "pages": 690, "orderBy": "newest", "results": [{"id": "environment/2012/oct/30/wenlock-edge-bryony-jewels-halloween", "type": "article", "sectionId": "environment", "sectionName": "Environment", "webPublicationDate": "2012-10-30T21:00:00Z", "webTitle": "Country diary: Wenlock Edge: Black bryony's poisonous berries are the jewels of Halloween", "webUrl": "https://www.theguardian.com/environment/2012/oct/30/wenlock-edge-bryony-jewels-halloween", "apiUrl": "https://content.guardianapis.com/environment/2012/oct/30/wenlock-edge-bryony-jewels-halloween", "isHosted": false, "pillarId": "pillar/news", "pillarName": "News"}, {"id": "world/2012/oct/30/more-reasons-defend-indefensible", "type": "article", "sectionId": "world", "sectionName": "World news", "webPublicationDate": "2012-10-30T20:59:01Z", "webTitle": "Letters: More reasons not to defend the indefensible", "webUrl": "https://www.theguardian.com/world/2012/oct/30/more-reasons-defend-indefensible", "apiUrl": "https://content.guardianapis.com/world/2012/oct/30/more-reasons-defend-indefensible", "isHosted": false, "pillarId": "pillar/news", "pillarName": "News"}, {"id": "social-enterprise-network/2012/oct/30/co-operative-energy-solution-climate-change", "type": "article", "sectionId": "sustainable-business", "sectionName": "Guardian Sustainable Business", "webPublicationDate": "2012-10-30T18:56:00Z", "webTitle": "Is co-operative energy the solution to climate change?", "webUrl": "https://www.theguardian.com/social-enterprise-network/2012/oct/30/co-operative-energy-solution-climate-change", "apiUrl": "https://content.guardianapis.com/social-enterprise-network/2012/oct/30/co-operative-energy-solution-climate-change", "isHosted": false}, {"id": "environment/2012/oct/30/hiatchi-future-low-carbon-power", "type": "article", "sectionId": "environment", "sectionName": "Environment", "webPublicationDate": "2012-10-30T18:05:19Z", "webTitle": "Hitachi energises future of low-carbon power in the UK", "webUrl": "https://www.theguardian.com/environment/2012/oct/30/hiatchi-future-low-carbon-power", "apiUrl": "https://content.guardianapis.com/environment/2012/oct/30/hiatchi-future-low-carbon-power", "isHosted": false, "pillarId": "pillar/news", "pillarName": "News"}, {"id": "environment/2012/oct/30/ash-tree-crisis-dieback-disease", "type": "article", "sectionId": "environment", "sectionName": "Environment", "webPublicationDate": "2012-10-30T17:51:16Z", "webTitle": "The ash tree crisis: a disaster in the making", "webUrl": "https://www.theguardian.com/environment/2012/oct/30/ash-tree-crisis-dieback-disease", "apiUrl": "https://content.guardianapis.com/environment/2012/oct/30/ash-tree-crisis-dieback-disease", "isHosted": false, "pillarId": "pillar/news", "pillarName": "News"}, {"id": "business/2012/oct/30/bp-beats-forecasts-5bn-profit-dividend", "type": "article", "sectionId": "business", "sectionName": "Business", "webPublicationDate": "2012-10-30T17:46:00Z", "webTitle": "BP dividend increase cheered by investors", "webUrl": "https://www.theguardian.com/business/2012/oct/30/bp-beats-forecasts-5bn-profit-dividend", "apiUrl": "https://content.guardianapis.com/business/2012/oct/30/bp-beats-forecasts-5bn-profit-dividend", "isHosted": false, "pillarId": "pillar/news", "pillarName": "News"}, {"id": "society/2012/oct/30/parks-green-space-councils-pay", "type": "article", "sectionId": "society", "sectionName": "Society", "webPublicationDate": "2012-10-30T17:30:00Z", "webTitle": "Parks and green space are precious, but should councils have to pay for them?", "webUrl": "https://www.theguardian.com/society/2012/oct/30/parks-green-space-councils-pay", "apiUrl": "https://content.guardianapis.com/society/2012/oct/30/parks-green-space-councils-pay", "isHosted": false, "pillarId": "pillar/news", "pillarName": "News"}, {"id": "environment/2012/oct/30/energy-strategy-renewables", "type": "article", "sectionId": "environment", "sectionName": "Environment", "webPublicationDate": "2012-10-30T16:44:10Z", "webTitle": "Our future energy strategy cannot depend on renewables alone | John Hayes", "webUrl": "https://www.theguardian.com/environment/2012/oct/30/energy-strategy-renewables", "apiUrl": "https://content.guardianapis.com/environment/2012/oct/30/energy-strategy-renewables", "isHosted": false, "pillarId": "pillar/news", "pillarName": "News"}, {"id": "environment/video/2012/oct/30/giant-pandas-return-home-earthquake-video", "type": "video", "sectionId": "environment", "sectionName": "Environment", "webPublicationDate": "2012-10-30T16:32:00Z", "webTitle": "Giant pandas return home after earthquake - video", "webUrl": "https://www.theguardian.com/environment/video/2012/oct/30/giant-pandas-return-home-earthquake-video", "apiUrl": "https://content.guardianapis.com/environment/video/2012/oct/30/giant-pandas-return-home-earthquake-video", "isHosted": false, "pillarId": "pillar/news", "pillarName": "News"}, {"id": "business/video/2012/oct/30/hitachi-uk-nuclear-power-plants-video", "type": "video", "sectionId": "business", "sectionName": "Business", "webPublicationDate": "2012-10-30T16:02:00Z", "webTitle": "Hitachi signs \u00a3700m deal to build UK nuclear power plants - video", "webUrl": "https://www.theguardian.com/business/video/2012/oct/30/hitachi-uk-nuclear-power-plants-video", "apiUrl": "https://content.guardianapis.com/business/video/2012/oct/30/hitachi-uk-nuclear-power-plants-video", "isHosted": false, "pillarId": "pillar/news", "pillarName": "News"}, {"id": "environment/damian-carrington-blog/2012/oct/30/horizon-nuclear-energy-ccs", "type": "article", "sectionId": "environment", "sectionName": "Environment", "webPublicationDate": "2012-10-30T14:13:47Z", "webTitle": "Nuclear sale overshadows crucial carbon capture development | Damian Carrington", "webUrl": "https://www.theguardian.com/environment/damian-carrington-blog/2012/oct/30/horizon-nuclear-energy-ccs", "apiUrl": "https://content.guardianapis.com/environment/damian-carrington-blog/2012/oct/30/horizon-nuclear-energy-ccs", "isHosted": false, "pillarId": "pillar/news", "pillarName": "News"}, {"id": "environment/2012/oct/30/pakistan-vulture-diclofenac-ban", "type": "article", "sectionId": "environment", "sectionName": "Environment", "webPublicationDate": "2012-10-30T13:25:36Z", "webTitle": "Long-billed vulture numbers recover in Pakistan after diclofenac ban", "webUrl": "https://www.theguardian.com/environment/2012/oct/30/pakistan-vulture-diclofenac-ban", "apiUrl": "https://content.guardianapis.com/environment/2012/oct/30/pakistan-vulture-diclofenac-ban", "isHosted": false, "pillarId": "pillar/news", "pillarName": "News"}, {"id": "environment/blog/2012/oct/30/governments-pick-energy-winners", "type": "article", "sectionId": "environment", "sectionName": "Environment", "webPublicationDate": "2012-10-30T12:35:23Z", "webTitle": "Why governments must pick the right energy policy 'winners'", "webUrl": "https://www.theguardian.com/environment/blog/2012/oct/30/governments-pick-energy-winners", "apiUrl": "https://content.guardianapis.com/environment/blog/2012/oct/30/governments-pick-energy-winners", "isHosted": false, "pillarId": "pillar/news", "pillarName": "News"}, {"id": "environment/blog/2012/oct/30/hurricane-sandy-supersized-climate-change", "type": "article", "sectionId": "environment", "sectionName": "Environment", "webPublicationDate": "2012-10-30T12:00:00Z", "webTitle": "Was Hurricane Sandy supersized by climate change?", "webUrl": "https://www.theguardian.com/environment/blog/2012/oct/30/hurricane-sandy-supersized-climate-change", "apiUrl": "https://content.guardianapis.com/environment/blog/2012/oct/30/hurricane-sandy-supersized-climate-change", "isHosted": false, "pillarId": "pillar/news", "pillarName": "News"}, {"id": "environment/2012/oct/30/no-dash-for-gas-occupy", "type": "article", "sectionId": "environment", "sectionName": "Environment", "webPublicationDate": "2012-10-30T11:35:09Z", "webTitle": "No Dash For Gas promise to occupy power station for as long as possible", "webUrl": "https://www.theguardian.com/environment/2012/oct/30/no-dash-for-gas-occupy", "apiUrl": "https://content.guardianapis.com/environment/2012/oct/30/no-dash-for-gas-occupy", "isHosted": false, "pillarId": "pillar/news", "pillarName": "News"}, {"id": "environment/2012/oct/30/renewable-energy-nuclear-power", "type": "article", "sectionId": "environment", "sectionName": "Environment", "webPublicationDate": "2012-10-30T06:00:00Z", "webTitle": "Renewable energy will overtake nuclear power by 2018, research says", "webUrl": "https://www.theguardian.com/environment/2012/oct/30/renewable-energy-nuclear-power", "apiUrl": "https://content.guardianapis.com/environment/2012/oct/30/renewable-energy-nuclear-power", "isHosted": false, "pillarId": "pillar/news", "pillarName": "News"}, {"id": "commentisfree/2012/oct/29/hurricane-sandy-blows-away-election-ephemera", "type": "article", "sectionId": "commentisfree", "sectionName": "Opinion", "webPublicationDate": "2012-10-29T21:15:00Z", "webTitle": "Hurricane Sandy blows away election ephemera, leaving stark choice | Ana Marie Cox", "webUrl": "https://www.theguardian.com/commentisfree/2012/oct/29/hurricane-sandy-blows-away-election-ephemera", "apiUrl": "https://content.guardianapis.com/commentisfree/2012/oct/29/hurricane-sandy-blows-away-election-ephemera", "isHosted": false, "pillarId": "pillar/opinion", "pillarName": "Opinion"}, {"id": "environment/2012/oct/29/barn-owl-spooky-face-brewham-somerset", "type": "article", "sectionId": "environment", "sectionName": "Environment", "webPublicationDate": "2012-10-29T21:00:01Z", "webTitle": "Country diary: Brewham, Somerset: Fears for the spooky white face that haunts the dusk", "webUrl": "https://www.theguardian.com/environment/2012/oct/29/barn-owl-spooky-face-brewham-somerset", "apiUrl": "https://content.guardianapis.com/environment/2012/oct/29/barn-owl-spooky-face-brewham-somerset", "isHosted": false, "pillarId": "pillar/news", "pillarName": "News"}, {"id": "commentisfree/2012/oct/29/why-occupying-gas-fired-power-station", "type": "article", "sectionId": "commentisfree", "sectionName": "Opinion", "webPublicationDate": "2012-10-29T18:45:00Z", "webTitle": "Why I'm occupying a gas-fired power station chimney | Ewa Jasiewicz", "webUrl": "https://www.theguardian.com/commentisfree/2012/oct/29/why-occupying-gas-fired-power-station", "apiUrl": "https://content.guardianapis.com/commentisfree/2012/oct/29/why-occupying-gas-fired-power-station", "isHosted": false, "pillarId": "pillar/opinion", "pillarName": "Opinion"}, {"id": "environment/2012/oct/29/roger-hammond-obituary", "type": "article", "sectionId": "environment", "sectionName": "Environment", "webPublicationDate": "2012-10-29T18:25:44Z", "webTitle": "Roger Hammond obituary", "webUrl": "https://www.theguardian.com/environment/2012/oct/29/roger-hammond-obituary", "apiUrl": "https://content.guardianapis.com/environment/2012/oct/29/roger-hammond-obituary", "isHosted": false, "pillarId": "pillar/news", "pillarName": "News"}, {"id": "environment/2012/oct/29/government-ignored-ash-dieback-warnings", "type": "article", "sectionId": "environment", "sectionName": "Environment", "webPublicationDate": "2012-10-29T17:40:00Z", "webTitle": "Government ignored ash dieback warnings, emails reveal", "webUrl": "https://www.theguardian.com/environment/2012/oct/29/government-ignored-ash-dieback-warnings", "apiUrl": "https://content.guardianapis.com/environment/2012/oct/29/government-ignored-ash-dieback-warnings", "isHosted": false, "pillarId": "pillar/news", "pillarName": "News"}, {"id": "world/2012/oct/29/venice-cruise-liner-row-escalates", "type": "article", "sectionId": "world", "sectionName": "World news", "webPublicationDate": "2012-10-29T17:10:00Z", "webTitle": "Venice cruise liner row escalates", "webUrl": "https://www.theguardian.com/world/2012/oct/29/venice-cruise-liner-row-escalates", "apiUrl": "https://content.guardianapis.com/world/2012/oct/29/venice-cruise-liner-row-escalates", "isHosted": false, "pillarId": "pillar/news", "pillarName": "News"}, {"id": "environment/2012/oct/29/operation-iceberg-moment-frozen-time", "type": "article", "sectionId": "environment", "sectionName": "Environment", "webPublicationDate": "2012-10-29T17:00:01Z", "webTitle": "The BBC's Operation Iceberg captures a brief moment frozen in time", "webUrl": "https://www.theguardian.com/environment/2012/oct/29/operation-iceberg-moment-frozen-time", "apiUrl": "https://content.guardianapis.com/environment/2012/oct/29/operation-iceberg-moment-frozen-time", "isHosted": false, "pillarId": "pillar/news", "pillarName": "News"}, {"id": "sustainable-business/global-collaboration-restore-fisheries", "type": "article", "sectionId": "sustainable-business", "sectionName": "Guardian Sustainable Business", "webPublicationDate": "2012-10-29T15:46:03Z", "webTitle": "50% in 10 years: a new global collaboration to restore fisheries", "webUrl": "https://www.theguardian.com/sustainable-business/global-collaboration-restore-fisheries", "apiUrl": "https://content.guardianapis.com/sustainable-business/global-collaboration-restore-fisheries", "isHosted": false}, {"id": "environment/2012/oct/29/ashtag-app-tree-disease-dieback", "type": "article", "sectionId": "environment", "sectionName": "Environment", "webPublicationDate": "2012-10-29T15:06:00Z", "webTitle": "AshTag app launched to prevent spread of devastating tree disease", "webUrl": "https://www.theguardian.com/environment/2012/oct/29/ashtag-app-tree-disease-dieback", "apiUrl": "https://content.guardianapis.com/environment/2012/oct/29/ashtag-app-tree-disease-dieback", "isHosted": false, "pillarId": "pillar/news", "pillarName": "News"}, {"id": "environment/blog/2012/oct/29/economy-environment", "type": "article", "sectionId": "environment", "sectionName": "Environment", "webPublicationDate": "2012-10-29T14:50:36Z", "webTitle": "Worried about the economy? It's the environment, stupid | David Powell", "webUrl": "https://www.theguardian.com/environment/blog/2012/oct/29/economy-environment", "apiUrl": "https://content.guardianapis.com/environment/blog/2012/oct/29/economy-environment", "isHosted": false, "pillarId": "pillar/news", "pillarName": "News"}, {"id": "world/2012/oct/29/hurricane-sandy-what-to-expect-where", "type": "article", "sectionId": "us-news", "sectionName": "US news", "webPublicationDate": "2012-10-29T13:45:41Z", "webTitle": "Hurricane Sandy: what to expect, where | Harry J Enten", "webUrl": "https://www.theguardian.com/world/2012/oct/29/hurricane-sandy-what-to-expect-where", "apiUrl": "https://content.guardianapis.com/world/2012/oct/29/hurricane-sandy-what-to-expect-where", "isHosted": false, "pillarId": "pillar/news", "pillarName": "News"}, {"id": "environment/georgemonbiot/2012/oct/29/ash-dieback-letter-benn-spelman", "type": "article", "sectionId": "environment", "sectionName": "Environment", "webPublicationDate": "2012-10-29T13:41:45Z", "webTitle": "Ash disease: an open letter to Hilary Benn and Caroline Spelman | George Monbiot", "webUrl": "https://www.theguardian.com/environment/georgemonbiot/2012/oct/29/ash-dieback-letter-benn-spelman", "apiUrl": "https://content.guardianapis.com/environment/georgemonbiot/2012/oct/29/ash-dieback-letter-benn-spelman", "isHosted": false, "pillarId": "pillar/news", "pillarName": "News"}, {"id": "commentisfree/2012/oct/29/words-greatest-weapon-political-activists", "type": "article", "sectionId": "commentisfree", "sectionName": "Opinion", "webPublicationDate": "2012-10-29T13:30:01Z", "webTitle": "Words are the greatest weapon for political activists | Rebecca Solnit", "webUrl": "https://www.theguardian.com/commentisfree/2012/oct/29/words-greatest-weapon-political-activists", "apiUrl": "https://content.guardianapis.com/commentisfree/2012/oct/29/words-greatest-weapon-political-activists", "isHosted": false, "pillarId": "pillar/opinion", "pillarName": "Opinion"}, {"id": "environment/2012/oct/29/ash-dieback-q-and-a", "type": "article", "sectionId": "environment", "sectionName": "Environment", "webPublicationDate": "2012-10-29T13:14:51Z", "webTitle": "Ash dieback Q&A", "webUrl": "https://www.theguardian.com/environment/2012/oct/29/ash-dieback-q-and-a", "apiUrl": "https://content.guardianapis.com/environment/2012/oct/29/ash-dieback-q-and-a", "isHosted": false, "pillarId": "pillar/news", "pillarName": "News"}, {"id": "environment/damian-carrington-blog/2012/oct/29/gas-energy-protest", "type": "article", "sectionId": "environment", "sectionName": "Environment", "webPublicationDate": "2012-10-29T12:11:09Z", "webTitle": "The dash for gas is a dangerous gamble | Damian Carrington", "webUrl": "https://www.theguardian.com/environment/damian-carrington-blog/2012/oct/29/gas-energy-protest", "apiUrl": "https://content.guardianapis.com/environment/damian-carrington-blog/2012/oct/29/gas-energy-protest", "isHosted": false, "pillarId": "pillar/news", "pillarName": "News"}, {"id": "environment/blog/2012/oct/29/community-energy", "type": "article", "sectionId": "environment", "sectionName": "Environment", "webPublicationDate": "2012-10-29T11:11:19Z", "webTitle": "Community energy is on the up. But will the government hobble it?", "webUrl": "https://www.theguardian.com/environment/blog/2012/oct/29/community-energy", "apiUrl": "https://content.guardianapis.com/environment/blog/2012/oct/29/community-energy", "isHosted": false, "pillarId": "pillar/news", "pillarName": "News"}, {"id": "environment/2012/oct/29/climate-activists-west-burton-gas", "type": "article", "sectionId": "environment", "sectionName": "Environment", "webPublicationDate": "2012-10-29T11:01:03Z", "webTitle": "Climate activists occupy West Burton gas power station", "webUrl": "https://www.theguardian.com/environment/2012/oct/29/climate-activists-west-burton-gas", "apiUrl": "https://content.guardianapis.com/environment/2012/oct/29/climate-activists-west-burton-gas", "isHosted": false, "pillarId": "pillar/news", "pillarName": "News"}, {"id": "artanddesign/gallery/2012/oct/29/royal-horticultural-society-photographic-competition-winning-pictures", "type": "gallery", "sectionId": "artanddesign", "sectionName": "Art and design", "webPublicationDate": "2012-10-29T10:43:00Z", "webTitle": "Royal Horticultural Society photographic competition 2012 - winning pictures", "webUrl": "https://www.theguardian.com/artanddesign/gallery/2012/oct/29/royal-horticultural-society-photographic-competition-winning-pictures", "apiUrl": "https://content.guardianapis.com/artanddesign/gallery/2012/oct/29/royal-horticultural-society-photographic-competition-winning-pictures", "isHosted": false, "pillarId": "pillar/arts", "pillarName": "Arts"}, {"id": "global-development/2012/oct/29/land-deals-africa-wild-west-fao", "type": "article", "sectionId": "global-development", "sectionName": "Global development", "webPublicationDate": "2012-10-29T07:00:00Z", "webTitle": "Land deals in Africa have led to a wild west \u2013 bring on the sheriff, says FAO", "webUrl": "https://www.theguardian.com/global-development/2012/oct/29/land-deals-africa-wild-west-fao", "apiUrl": "https://content.guardianapis.com/global-development/2012/oct/29/land-deals-africa-wild-west-fao", "isHosted": false, "pillarId": "pillar/news", "pillarName": "News"}, {"id": "environment/2012/oct/29/coal-threatens-climate-change-targets", "type": "article", "sectionId": "environment", "sectionName": "Environment", "webPublicationDate": "2012-10-29T00:01:00Z", "webTitle": "Coal resurgence threatens climate change targets", "webUrl": "https://www.theguardian.com/environment/2012/oct/29/coal-threatens-climate-change-targets", "apiUrl": "https://content.guardianapis.com/environment/2012/oct/29/coal-threatens-climate-change-targets", "isHosted": false, "pillarId": "pillar/news", "pillarName": "News"}, {"id": "commentisfree/2012/oct/28/tory-retreat-on-climate-change-senseless", "type": "article", "sectionId": "commentisfree", "sectionName": "Opinion", "webPublicationDate": "2012-10-28T21:30:23Z", "webTitle": "The Tory retreat on climate change is senseless | Ian Birrell", "webUrl": "https://www.theguardian.com/commentisfree/2012/oct/28/tory-retreat-on-climate-change-senseless", "apiUrl": "https://content.guardianapis.com/commentisfree/2012/oct/28/tory-retreat-on-climate-change-senseless", "isHosted": false, "pillarId": "pillar/opinion", "pillarName": "Opinion"}, {"id": "environment/2012/oct/28/peter-lilleys-flawed-climate-analysis", "type": "article", "sectionId": "environment", "sectionName": "Environment", "webPublicationDate": "2012-10-28T21:01:39Z", "webTitle": "Letters: Peter Lilley's flawed climate analysis", "webUrl": "https://www.theguardian.com/environment/2012/oct/28/peter-lilleys-flawed-climate-analysis", "apiUrl": "https://content.guardianapis.com/environment/2012/oct/28/peter-lilleys-flawed-climate-analysis", "isHosted": false, "pillarId": "pillar/news", "pillarName": "News"}, {"id": "environment/2012/oct/28/blizzard-of-birds-flock", "type": "article", "sectionId": "environment", "sectionName": "Environment", "webPublicationDate": "2012-10-28T21:00:56Z", "webTitle": "Country diary: Snettisham, Norfolk: A blizzard of birds flock in a tightly packed pyramid", "webUrl": "https://www.theguardian.com/environment/2012/oct/28/blizzard-of-birds-flock", "apiUrl": "https://content.guardianapis.com/environment/2012/oct/28/blizzard-of-birds-flock", "isHosted": false, "pillarId": "pillar/news", "pillarName": "News"}, {"id": "environment/2012/oct/28/ash-dieback-fungus-change-countryside", "type": "article", "sectionId": "environment", "sectionName": "Environment", "webPublicationDate": "2012-10-28T18:42:51Z", "webTitle": "Ash dieback fungus will 'change countryside very significantly'", "webUrl": "https://www.theguardian.com/environment/2012/oct/28/ash-dieback-fungus-change-countryside", "apiUrl": "https://content.guardianapis.com/environment/2012/oct/28/ash-dieback-fungus-change-countryside", "isHosted": false, "pillarId": "pillar/news", "pillarName": "News"}, {"id": "tv-and-radio/2012/oct/26/richard-attenborough-climate-global-arctic-environment", "type": "article", "sectionId": "tv-and-radio", "sectionName": "Television & radio", "webPublicationDate": "2012-10-27T23:24:40Z", "webTitle": "David Attenborough: force of nature", "webUrl": "https://www.theguardian.com/tv-and-radio/2012/oct/26/richard-attenborough-climate-global-arctic-environment", "apiUrl": "https://content.guardianapis.com/tv-and-radio/2012/oct/26/richard-attenborough-climate-global-arctic-environment", "isHosted": false, "pillarId": "pillar/arts", "pillarName": "Arts"}, {"id": "business/2012/oct/28/nuclear-power-developing-world-west-recoils-fukushima", "type": "article", "sectionId": "business", "sectionName": "Business", "webPublicationDate": "2012-10-27T23:18:00Z", "webTitle": "Nuclear power turns to developing world as west recoils from Fukushima", "webUrl": "https://www.theguardian.com/business/2012/oct/28/nuclear-power-developing-world-west-recoils-fukushima", "apiUrl": "https://content.guardianapis.com/business/2012/oct/28/nuclear-power-developing-world-west-recoils-fukushima", "isHosted": false, "pillarId": "pillar/news", "pillarName": "News"}, {"id": "environment/2012/oct/28/ethical-hair-dye-grey-hair", "type": "article", "sectionId": "environment", "sectionName": "Environment", "webPublicationDate": "2012-10-27T23:13:18Z", "webTitle": "Is there an ethical treatment for grey hair?", "webUrl": "https://www.theguardian.com/environment/2012/oct/28/ethical-hair-dye-grey-hair", "apiUrl": "https://content.guardianapis.com/environment/2012/oct/28/ethical-hair-dye-grey-hair", "isHosted": false, "pillarId": "pillar/news", "pillarName": "News"}, {"id": "science/2012/oct/28/sulawesi-cave-planthopper-celebenna-thomarosa", "type": "article", "sectionId": "science", "sectionName": "Science", "webPublicationDate": "2012-10-27T23:10:23Z", "webTitle": "New to Nature No 89: Celebenna thomarosa", "webUrl": "https://www.theguardian.com/science/2012/oct/28/sulawesi-cave-planthopper-celebenna-thomarosa", "apiUrl": "https://content.guardianapis.com/science/2012/oct/28/sulawesi-cave-planthopper-celebenna-thomarosa", "isHosted": false, "pillarId": "pillar/news", "pillarName": "News"}, {"id": "environment/2012/oct/27/whitley-wood-new-forest-devils-coach", "type": "article", "sectionId": "environment", "sectionName": "Environment", "webPublicationDate": "2012-10-27T20:00:01Z", "webTitle": "Country diary: Whitley Wood, New Forest: There are many beetles about in the forest, but one real eye-catcher", "webUrl": "https://www.theguardian.com/environment/2012/oct/27/whitley-wood-new-forest-devils-coach", "apiUrl": "https://content.guardianapis.com/environment/2012/oct/27/whitley-wood-new-forest-devils-coach", "isHosted": false, "pillarId": "pillar/news", "pillarName": "News"}, {"id": "environment/2012/oct/29/ash-dieback-campaigners-crackdown-plant-imports", "type": "article", "sectionId": "environment", "sectionName": "Environment", "webPublicationDate": "2012-10-27T18:51:22Z", "webTitle": "Ash dieback: campaigners call for crackdown on plant imports", "webUrl": "https://www.theguardian.com/environment/2012/oct/29/ash-dieback-campaigners-crackdown-plant-imports", "apiUrl": "https://content.guardianapis.com/environment/2012/oct/29/ash-dieback-campaigners-crackdown-plant-imports", "isHosted": false, "pillarId": "pillar/news", "pillarName": "News"}, {"id": "environment/2012/oct/28/more-forest-sites-ash-disease", "type": "article", "sectionId": "environment", "sectionName": "Environment", "webPublicationDate": "2012-10-27T18:23:24Z", "webTitle": "More forest sites infected as ash disease takes hold", "webUrl": "https://www.theguardian.com/environment/2012/oct/28/more-forest-sites-ash-disease", "apiUrl": "https://content.guardianapis.com/environment/2012/oct/28/more-forest-sites-ash-disease", "isHosted": false, "pillarId": "pillar/news", "pillarName": "News"}, {"id": "commentisfree/2012/oct/27/tobias-jones-ash-dieback", "type": "article", "sectionId": "commentisfree", "sectionName": "Opinion", "webPublicationDate": "2012-10-27T15:23:34Z", "webTitle": "Ash dieback: This shambles fills me with fear for my beloved countryside", "webUrl": "https://www.theguardian.com/commentisfree/2012/oct/27/tobias-jones-ash-dieback", "apiUrl": "https://content.guardianapis.com/commentisfree/2012/oct/27/tobias-jones-ash-dieback", "isHosted": false, "pillarId": "pillar/opinion", "pillarName": "Opinion"}, {"id": "environment/gallery/2012/oct/27/urban-wildlife-invaders-in-pictures", "type": "gallery", "sectionId": "environment", "sectionName": "Environment", "webPublicationDate": "2012-10-27T14:47:00Z", "webTitle": "Urban wildlife 'invaders' - in pictures", "webUrl": "https://www.theguardian.com/environment/gallery/2012/oct/27/urban-wildlife-invaders-in-pictures", "apiUrl": "https://content.guardianapis.com/environment/gallery/2012/oct/27/urban-wildlife-invaders-in-pictures", "isHosted": false, "pillarId": "pillar/news", "pillarName": "News"}, {"id": "world/video/2012/oct/27/chinese-protesters-police-chemical-plant-demonstration-video", "type": "video", "sectionId": "world", "sectionName": "World news", "webPublicationDate": "2012-10-27T13:45:00Z", "webTitle": "Chinese protesters clash with police at chemical plant demonstration \u2013 video", "webUrl": "https://www.theguardian.com/world/video/2012/oct/27/chinese-protesters-police-chemical-plant-demonstration-video", "apiUrl": "https://content.guardianapis.com/world/video/2012/oct/27/chinese-protesters-police-chemical-plant-demonstration-video", "isHosted": false, "pillarId": "pillar/news", "pillarName": "News"}]}}