{"response": {"status": "ok", "userTier": "developer", "total": 15509, "startIndex": 1, "pageSize": 50, "currentPage": 1, "pages": 311, "orderBy": "newest", "results": [{"id": "lifeandstyle/2010/oct/31/jay-rayner-york-albany-restaurant-review", "type": "article", "sectionId": "food", "sectionName": "Food", "webPublicationDate": "2010-10-30T23:05:11Z", "webTitle": "Restaurant review: York & Albany", "webUrl": "https://www.theguardian.com/lifeandstyle/2010/oct/31/jay-rayner-york-albany-restaurant-review", "apiUrl": "https://content.guardianapis.com/lifeandstyle/2010/oct/31/jay-rayner-york-albany-restaurant-review", "isHosted": false, "pillarId": "pillar/lifestyle", "pillarName": "Lifestyle"}, {"id": "lifeandstyle/2010/oct/30/readers-favourite-photographs-songs-recipes", "type": "article", "sectionId": "lifeandstyle", "sectionName": "Life and style", "webPublicationDate": "2010-10-29T23:07:10Z", "webTitle": "Family life", "webUrl": "https://www.theguardian.com/lifeandstyle/2010/oct/30/readers-favourite-photographs-songs-recipes", "apiUrl": "https://content.guardianapis.com/lifeandstyle/2010/oct/30/readers-favourite-photographs-songs-recipes", "isHosted": false, "pillarId": "pillar/lifestyle", "pillarName": "Lifestyle"}, {"id": "lifeandstyle/2010/oct/30/pickled-turnips-teetotal-gateau-butter-substitutes", "type": "article", "sectionId": "lifeandstyle", "sectionName": "Life and style", "webPublicationDate": "2010-10-29T23:03:55Z", "webTitle": "Food for Fort: Turnips, teetotal gateau and butter substitutes | Matthew Fort | Food & drink", "webUrl": "https://www.theguardian.com/lifeandstyle/2010/oct/30/pickled-turnips-teetotal-gateau-butter-substitutes", "apiUrl": "https://content.guardianapis.com/lifeandstyle/2010/oct/30/pickled-turnips-teetotal-gateau-butter-substitutes", "isHosted": false, "pillarId": "pillar/lifestyle", "pillarName": "Lifestyle"}, {"id": "lifeandstyle/2010/oct/30/winter-warmer-reds-wine-review", "type": "article", "sectionId": "food", "sectionName": "Food", "webPublicationDate": "2010-10-29T23:02:13Z", "webTitle": "Wine: Big reds for chilly nights | Fiona Beckett", "webUrl": "https://www.theguardian.com/lifeandstyle/2010/oct/30/winter-warmer-reds-wine-review", "apiUrl": "https://content.guardianapis.com/lifeandstyle/2010/oct/30/winter-warmer-reds-wine-review", "isHosted": false, "pillarId": "pillar/lifestyle", "pillarName": "Lifestyle"}, {"id": "lifeandstyle/2010/oct/30/ashmolean-dining-room-review-lanchester", "type": "article", "sectionId": "lifeandstyle", "sectionName": "Life and style", "webPublicationDate": "2010-10-29T23:02:05Z", "webTitle": "Restaurant: The Ashmolean Dining Room | John Lanchester", "webUrl": "https://www.theguardian.com/lifeandstyle/2010/oct/30/ashmolean-dining-room-review-lanchester", "apiUrl": "https://content.guardianapis.com/lifeandstyle/2010/oct/30/ashmolean-dining-room-review-lanchester", "isHosted": false, "pillarId": "pillar/lifestyle", "pillarName": "Lifestyle"}, {"id": "lifeandstyle/2010/oct/30/red-leicester-biscuit-recipe-lepard", "type": "article", "sectionId": "lifeandstyle", "sectionName": "Life and style", "webPublicationDate": "2010-10-29T23:02:01Z", "webTitle": "Red Leicester biscuits recipe | Dan Lepard | Baking | Food & drink", "webUrl": "https://www.theguardian.com/lifeandstyle/2010/oct/30/red-leicester-biscuit-recipe-lepard", "apiUrl": "https://content.guardianapis.com/lifeandstyle/2010/oct/30/red-leicester-biscuit-recipe-lepard", "isHosted": false, "pillarId": "pillar/lifestyle", "pillarName": "Lifestyle"}, {"id": "lifeandstyle/cartoon/2010/oct/30/1", "type": "picture", "sectionId": "lifeandstyle", "sectionName": "Life and style", "webPublicationDate": "2010-10-29T23:02:00Z", "webTitle": "Berger & Wyse", "webUrl": "https://www.theguardian.com/lifeandstyle/cartoon/2010/oct/30/1", "apiUrl": "https://content.guardianapis.com/lifeandstyle/cartoon/2010/oct/30/1", "isHosted": false, "pillarId": "pillar/lifestyle", "pillarName": "Lifestyle"}, {"id": "environment/blog/2010/oct/29/urban-beekeeping", "type": "article", "sectionId": "environment", "sectionName": "Environment", "webPublicationDate": "2010-10-29T15:50:16Z", "webTitle": "The joys of urban beekeeping | Alison Benjamin", "webUrl": "https://www.theguardian.com/environment/blog/2010/oct/29/urban-beekeeping", "apiUrl": "https://content.guardianapis.com/environment/blog/2010/oct/29/urban-beekeeping", "isHosted": false, "pillarId": "pillar/news", "pillarName": "News"}, {"id": "world/audio/2010/oct/29/food-security", "type": "audio", "sectionId": "world", "sectionName": "World news", "webPublicationDate": "2010-10-29T10:32:29Z", "webTitle": "Guardian Focus podcast: Food security", "webUrl": "https://www.theguardian.com/world/audio/2010/oct/29/food-security", "apiUrl": "https://content.guardianapis.com/world/audio/2010/oct/29/food-security", "isHosted": false, "pillarId": "pillar/news", "pillarName": "News"}, {"id": "lifeandstyle/wordofmouth/2010/oct/29/cold-comfort-balm", "type": "article", "sectionId": "lifeandstyle", "sectionName": "Life and style", "webPublicationDate": "2010-10-29T09:00:00Z", "webTitle": "Cold comfort balm", "webUrl": "https://www.theguardian.com/lifeandstyle/wordofmouth/2010/oct/29/cold-comfort-balm", "apiUrl": "https://content.guardianapis.com/lifeandstyle/wordofmouth/2010/oct/29/cold-comfort-balm", "isHosted": false, "pillarId": "pillar/lifestyle", "pillarName": "Lifestyle"}, {"id": "environment/georgemonbiot/2010/oct/29/how-to-make-apple-juice", "type": "article", "sectionId": "environment", "sectionName": "Environment", "webPublicationDate": "2010-10-29T07:00:01Z", "webTitle": "How to make apple juice that doesn't cost the Earth | George Monbiot", "webUrl": "https://www.theguardian.com/environment/georgemonbiot/2010/oct/29/how-to-make-apple-juice", "apiUrl": "https://content.guardianapis.com/environment/georgemonbiot/2010/oct/29/how-to-make-apple-juice", "isHosted": false, "pillarId": "pillar/news", "pillarName": "News"}, {"id": "lifeandstyle/gallery/2010/oct/29/how-to-press-apples-george-monbiot", "type": "gallery", "sectionId": "food", "sectionName": "Food", "webPublicationDate": "2010-10-29T07:00:00Z", "webTitle": "In pictures: How to press apples", "webUrl": "https://www.theguardian.com/lifeandstyle/gallery/2010/oct/29/how-to-press-apples-george-monbiot", "apiUrl": "https://content.guardianapis.com/lifeandstyle/gallery/2010/oct/29/how-to-press-apples-george-monbiot", "isHosted": false, "pillarId": "pillar/lifestyle", "pillarName": "Lifestyle"}, {"id": "lifeandstyle/2010/oct/27/healthier-school-dinner-cornell-canteen", "type": "article", "sectionId": "food", "sectionName": "Food", "webPublicationDate": "2010-10-28T09:42:54Z", "webTitle": "A healthier school dinner? Step this way", "webUrl": "https://www.theguardian.com/lifeandstyle/2010/oct/27/healthier-school-dinner-cornell-canteen", "apiUrl": "https://content.guardianapis.com/lifeandstyle/2010/oct/27/healthier-school-dinner-cornell-canteen", "isHosted": false, "pillarId": "pillar/lifestyle", "pillarName": "Lifestyle"}, {"id": "lifeandstyle/2010/oct/28/halloween-treats-sweets", "type": "article", "sectionId": "lifeandstyle", "sectionName": "Life and style", "webPublicationDate": "2010-10-28T06:00:02Z", "webTitle": "The test \u2026 Halloween treats", "webUrl": "https://www.theguardian.com/lifeandstyle/2010/oct/28/halloween-treats-sweets", "apiUrl": "https://content.guardianapis.com/lifeandstyle/2010/oct/28/halloween-treats-sweets", "isHosted": false, "pillarId": "pillar/lifestyle", "pillarName": "Lifestyle"}, {"id": "lifeandstyle/wordofmouth/2010/oct/28/make-perfect-pumpkin-pie", "type": "article", "sectionId": "lifeandstyle", "sectionName": "Life and style", "webPublicationDate": "2010-10-28T06:00:00Z", "webTitle": "How to make perfect pumpkin pie", "webUrl": "https://www.theguardian.com/lifeandstyle/wordofmouth/2010/oct/28/make-perfect-pumpkin-pie", "apiUrl": "https://content.guardianapis.com/lifeandstyle/wordofmouth/2010/oct/28/make-perfect-pumpkin-pie", "isHosted": false, "pillarId": "pillar/lifestyle", "pillarName": "Lifestyle"}, {"id": "lifeandstyle/2010/oct/28/how-make-indian-sweets-diwali", "type": "article", "sectionId": "food", "sectionName": "Food", "webPublicationDate": "2010-10-28T05:59:01Z", "webTitle": "How to make Indian sweets", "webUrl": "https://www.theguardian.com/lifeandstyle/2010/oct/28/how-make-indian-sweets-diwali", "apiUrl": "https://content.guardianapis.com/lifeandstyle/2010/oct/28/how-make-indian-sweets-diwali", "isHosted": false, "pillarId": "pillar/lifestyle", "pillarName": "Lifestyle"}, {"id": "lifeandstyle/2010/oct/27/braised-thin-rib-beef-recipe", "type": "article", "sectionId": "food", "sectionName": "Food", "webPublicationDate": "2010-10-27T09:45:00Z", "webTitle": "Braised thin rib of beef recipe", "webUrl": "https://www.theguardian.com/lifeandstyle/2010/oct/27/braised-thin-rib-beef-recipe", "apiUrl": "https://content.guardianapis.com/lifeandstyle/2010/oct/27/braised-thin-rib-beef-recipe", "isHosted": false, "pillarId": "pillar/lifestyle", "pillarName": "Lifestyle"}, {"id": "lifeandstyle/2010/oct/27/sole-en-papillote-recipe", "type": "article", "sectionId": "food", "sectionName": "Food", "webPublicationDate": "2010-10-27T09:40:00Z", "webTitle": "Sole en papillote recipe", "webUrl": "https://www.theguardian.com/lifeandstyle/2010/oct/27/sole-en-papillote-recipe", "apiUrl": "https://content.guardianapis.com/lifeandstyle/2010/oct/27/sole-en-papillote-recipe", "isHosted": false, "pillarId": "pillar/lifestyle", "pillarName": "Lifestyle"}, {"id": "lifeandstyle/2010/oct/27/chicken-liver-mousse-recipe", "type": "article", "sectionId": "food", "sectionName": "Food", "webPublicationDate": "2010-10-27T09:30:00Z", "webTitle": "Chicken liver \u00admousse recipe", "webUrl": "https://www.theguardian.com/lifeandstyle/2010/oct/27/chicken-liver-mousse-recipe", "apiUrl": "https://content.guardianapis.com/lifeandstyle/2010/oct/27/chicken-liver-mousse-recipe", "isHosted": false, "pillarId": "pillar/lifestyle", "pillarName": "Lifestyle"}, {"id": "lifeandstyle/wordofmouth/2010/oct/27/old-ale-beer-history", "type": "article", "sectionId": "food", "sectionName": "Food", "webPublicationDate": "2010-10-27T09:00:00Z", "webTitle": "The beer of yesteryear", "webUrl": "https://www.theguardian.com/lifeandstyle/wordofmouth/2010/oct/27/old-ale-beer-history", "apiUrl": "https://content.guardianapis.com/lifeandstyle/wordofmouth/2010/oct/27/old-ale-beer-history", "isHosted": false, "pillarId": "pillar/lifestyle", "pillarName": "Lifestyle"}, {"id": "lifeandstyle/2010/oct/27/duck-confit-recipe", "type": "article", "sectionId": "food", "sectionName": "Food", "webPublicationDate": "2010-10-27T08:50:00Z", "webTitle": "Duck confit recipe", "webUrl": "https://www.theguardian.com/lifeandstyle/2010/oct/27/duck-confit-recipe", "apiUrl": "https://content.guardianapis.com/lifeandstyle/2010/oct/27/duck-confit-recipe", "isHosted": false, "pillarId": "pillar/lifestyle", "pillarName": "Lifestyle"}, {"id": "tv-and-radio/tvandradioblog/2010/oct/26/jamie-olivers-30-minute-meals", "type": "article", "sectionId": "tv-and-radio", "sectionName": "Television & radio", "webPublicationDate": "2010-10-26T10:43:33Z", "webTitle": "Bish, bash, bosh: Putting Jamie's 30 Minute Meals to the test", "webUrl": "https://www.theguardian.com/tv-and-radio/tvandradioblog/2010/oct/26/jamie-olivers-30-minute-meals", "apiUrl": "https://content.guardianapis.com/tv-and-radio/tvandradioblog/2010/oct/26/jamie-olivers-30-minute-meals", "isHosted": false, "pillarId": "pillar/arts", "pillarName": "Arts"}, {"id": "money/2010/oct/26/tesco-app-barcode-reader", "type": "article", "sectionId": "money", "sectionName": "Money", "webPublicationDate": "2010-10-26T09:16:38Z", "webTitle": "Tesco launches barcode scanner app for online orders", "webUrl": "https://www.theguardian.com/money/2010/oct/26/tesco-app-barcode-reader", "apiUrl": "https://content.guardianapis.com/money/2010/oct/26/tesco-app-barcode-reader", "isHosted": false, "pillarId": "pillar/lifestyle", "pillarName": "Lifestyle"}, {"id": "lifeandstyle/wordofmouth/2010/oct/26/consider-the-dumpling", "type": "article", "sectionId": "lifeandstyle", "sectionName": "Life and style", "webPublicationDate": "2010-10-26T08:30:00Z", "webTitle": "Consider the dumpling", "webUrl": "https://www.theguardian.com/lifeandstyle/wordofmouth/2010/oct/26/consider-the-dumpling", "apiUrl": "https://content.guardianapis.com/lifeandstyle/wordofmouth/2010/oct/26/consider-the-dumpling", "isHosted": false, "pillarId": "pillar/lifestyle", "pillarName": "Lifestyle"}, {"id": "theguardian/2010/oct/25/joe-gazzano-obituary", "type": "article", "sectionId": "theguardian", "sectionName": "From the Guardian", "webPublicationDate": "2010-10-25T17:56:00Z", "webTitle": "Joe Gazzano obituary", "webUrl": "https://www.theguardian.com/theguardian/2010/oct/25/joe-gazzano-obituary", "apiUrl": "https://content.guardianapis.com/theguardian/2010/oct/25/joe-gazzano-obituary", "isHosted": false, "pillarId": "pillar/news", "pillarName": "News"}, {"id": "environment/2010/oct/25/impending-global-food-crisis", "type": "article", "sectionId": "environment", "sectionName": "Environment", "webPublicationDate": "2010-10-25T14:26:00Z", "webTitle": "Global food crisis forecast as prices reach record highs", "webUrl": "https://www.theguardian.com/environment/2010/oct/25/impending-global-food-crisis", "apiUrl": "https://content.guardianapis.com/environment/2010/oct/25/impending-global-food-crisis", "isHosted": false, "pillarId": "pillar/news", "pillarName": "News"}, {"id": "travel/audio/2010/oct/25/london-uk", "type": "audio", "sectionId": "travel", "sectionName": "Travel", "webPublicationDate": "2010-10-25T09:40:00Z", "webTitle": "London walks podcast: Coffee house tour", "webUrl": "https://www.theguardian.com/travel/audio/2010/oct/25/london-uk", "apiUrl": "https://content.guardianapis.com/travel/audio/2010/oct/25/london-uk", "isHosted": false, "pillarId": "pillar/lifestyle", "pillarName": "Lifestyle"}, {"id": "lifeandstyle/wordofmouth/2010/oct/25/malton-chef", "type": "article", "sectionId": "lifeandstyle", "sectionName": "Life and style", "webPublicationDate": "2010-10-25T09:20:00Z", "webTitle": "Can a great chef make Malton famous?", "webUrl": "https://www.theguardian.com/lifeandstyle/wordofmouth/2010/oct/25/malton-chef", "apiUrl": "https://content.guardianapis.com/lifeandstyle/wordofmouth/2010/oct/25/malton-chef", "isHosted": false, "pillarId": "pillar/lifestyle", "pillarName": "Lifestyle"}, {"id": "environment/2010/oct/25/chocolate-box-compostable-packaging", "type": "article", "sectionId": "environment", "sectionName": "Environment", "webPublicationDate": "2010-10-25T06:03:00Z", "webTitle": "Compostable tray heralds new era for chocolate boxes", "webUrl": "https://www.theguardian.com/environment/2010/oct/25/chocolate-box-compostable-packaging", "apiUrl": "https://content.guardianapis.com/environment/2010/oct/25/chocolate-box-compostable-packaging", "isHosted": false, "pillarId": "pillar/news", "pillarName": "News"}, {"id": "commentisfree/2010/oct/25/in-praise-of-the-english-apple", "type": "article", "sectionId": "commentisfree", "sectionName": "Opinion", "webPublicationDate": "2010-10-24T23:05:12Z", "webTitle": "In praise of \u2026 the English apple | Editorial", "webUrl": "https://www.theguardian.com/commentisfree/2010/oct/25/in-praise-of-the-english-apple", "apiUrl": "https://content.guardianapis.com/commentisfree/2010/oct/25/in-praise-of-the-english-apple", "isHosted": false, "pillarId": "pillar/opinion", "pillarName": "Opinion"}, {"id": "environment/2010/oct/24/wild-mushroom-foraging-hurts-forests", "type": "article", "sectionId": "environment", "sectionName": "Environment", "webPublicationDate": "2010-10-24T17:30:35Z", "webTitle": "Wild mushroom foraging is damaging forests, warn nature groups", "webUrl": "https://www.theguardian.com/environment/2010/oct/24/wild-mushroom-foraging-hurts-forests", "apiUrl": "https://content.guardianapis.com/environment/2010/oct/24/wild-mushroom-foraging-hurts-forests", "isHosted": false, "pillarId": "pillar/news", "pillarName": "News"}, {"id": "lifeandstyle/2010/oct/24/jay-rayner-restaurant-review-otarian-london", "type": "article", "sectionId": "food", "sectionName": "Food", "webPublicationDate": "2010-10-24T11:04:00Z", "webTitle": "Restaurant review: Otarian", "webUrl": "https://www.theguardian.com/lifeandstyle/2010/oct/24/jay-rayner-restaurant-review-otarian-london", "apiUrl": "https://content.guardianapis.com/lifeandstyle/2010/oct/24/jay-rayner-restaurant-review-otarian-london", "isHosted": false, "pillarId": "pillar/lifestyle", "pillarName": "Lifestyle"}, {"id": "lifeandstyle/2010/oct/24/gordon-ramsay-chef-troubles", "type": "article", "sectionId": "food", "sectionName": "Food", "webPublicationDate": "2010-10-23T23:06:47Z", "webTitle": "Gordon Ramsay: the culinary hot ticket is beginning to cool down", "webUrl": "https://www.theguardian.com/lifeandstyle/2010/oct/24/gordon-ramsay-chef-troubles", "apiUrl": "https://content.guardianapis.com/lifeandstyle/2010/oct/24/gordon-ramsay-chef-troubles", "isHosted": false, "pillarId": "pillar/lifestyle", "pillarName": "Lifestyle"}, {"id": "lifeandstyle/2010/oct/24/david-williams-wines-of-the-week", "type": "article", "sectionId": "food", "sectionName": "Food", "webPublicationDate": "2010-10-23T23:05:38Z", "webTitle": "Wines of the week: David Williams", "webUrl": "https://www.theguardian.com/lifeandstyle/2010/oct/24/david-williams-wines-of-the-week", "apiUrl": "https://content.guardianapis.com/lifeandstyle/2010/oct/24/david-williams-wines-of-the-week", "isHosted": false, "pillarId": "pillar/lifestyle", "pillarName": "Lifestyle"}, {"id": "lifeandstyle/2010/oct/23/readers-favourite-photographs-songs-recipes", "type": "article", "sectionId": "lifeandstyle", "sectionName": "Life and style", "webPublicationDate": "2010-10-22T23:07:59Z", "webTitle": "Family life", "webUrl": "https://www.theguardian.com/lifeandstyle/2010/oct/23/readers-favourite-photographs-songs-recipes", "apiUrl": "https://content.guardianapis.com/lifeandstyle/2010/oct/23/readers-favourite-photographs-songs-recipes", "isHosted": false, "pillarId": "pillar/lifestyle", "pillarName": "Lifestyle"}, {"id": "lifeandstyle/2010/oct/23/canton-arms-london-sw8-review", "type": "article", "sectionId": "lifeandstyle", "sectionName": "Life and style", "webPublicationDate": "2010-10-22T23:03:19Z", "webTitle": "Restaurant: The Canton Arms, London SW8 | John Lanchester | Food and drink", "webUrl": "https://www.theguardian.com/lifeandstyle/2010/oct/23/canton-arms-london-sw8-review", "apiUrl": "https://content.guardianapis.com/lifeandstyle/2010/oct/23/canton-arms-london-sw8-review", "isHosted": false, "pillarId": "pillar/lifestyle", "pillarName": "Lifestyle"}, {"id": "lifeandstyle/2010/oct/23/weevils-egg-yolks-kidney-soup-recipe", "type": "article", "sectionId": "lifeandstyle", "sectionName": "Life and style", "webPublicationDate": "2010-10-22T23:03:11Z", "webTitle": "Food for Fort: Weevils, kidney soup and egg yolks | Matthew Fort", "webUrl": "https://www.theguardian.com/lifeandstyle/2010/oct/23/weevils-egg-yolks-kidney-soup-recipe", "apiUrl": "https://content.guardianapis.com/lifeandstyle/2010/oct/23/weevils-egg-yolks-kidney-soup-recipe", "isHosted": false, "pillarId": "pillar/lifestyle", "pillarName": "Lifestyle"}, {"id": "lifeandstyle/2010/oct/23/what-coffee-baristas-really-think", "type": "article", "sectionId": "lifeandstyle", "sectionName": "Life and style", "webPublicationDate": "2010-10-22T23:03:09Z", "webTitle": "What I'm really thinking: The coffee shop barista", "webUrl": "https://www.theguardian.com/lifeandstyle/2010/oct/23/what-coffee-baristas-really-think", "apiUrl": "https://content.guardianapis.com/lifeandstyle/2010/oct/23/what-coffee-baristas-really-think", "isHosted": false, "pillarId": "pillar/lifestyle", "pillarName": "Lifestyle"}, {"id": "lifeandstyle/2010/oct/23/value-in-wine-review-beckett", "type": "article", "sectionId": "food", "sectionName": "Food", "webPublicationDate": "2010-10-22T23:03:05Z", "webTitle": "Wine: We're not asking for much | Fiona Beckett | Food and drink", "webUrl": "https://www.theguardian.com/lifeandstyle/2010/oct/23/value-in-wine-review-beckett", "apiUrl": "https://content.guardianapis.com/lifeandstyle/2010/oct/23/value-in-wine-review-beckett", "isHosted": false, "pillarId": "pillar/lifestyle", "pillarName": "Lifestyle"}, {"id": "lifeandstyle/2010/oct/23/aubergine-with-herbs-recipe-ottolenghi", "type": "article", "sectionId": "lifeandstyle", "sectionName": "Life and style", "webPublicationDate": "2010-10-22T23:03:00Z", "webTitle": "Aubergine with herbs recipe | Yotam Ottolenghi | Vegetarian", "webUrl": "https://www.theguardian.com/lifeandstyle/2010/oct/23/aubergine-with-herbs-recipe-ottolenghi", "apiUrl": "https://content.guardianapis.com/lifeandstyle/2010/oct/23/aubergine-with-herbs-recipe-ottolenghi", "isHosted": false, "pillarId": "pillar/lifestyle", "pillarName": "Lifestyle"}, {"id": "lifeandstyle/cartoon/2010/oct/23/1", "type": "picture", "sectionId": "lifeandstyle", "sectionName": "Life and style", "webPublicationDate": "2010-10-22T23:02:00Z", "webTitle": "Berger & Wyse", "webUrl": "https://www.theguardian.com/lifeandstyle/cartoon/2010/oct/23/1", "apiUrl": "https://content.guardianapis.com/lifeandstyle/cartoon/2010/oct/23/1", "isHosted": false, "pillarId": "pillar/lifestyle", "pillarName": "Lifestyle"}, {"id": "lifeandstyle/2010/oct/23/chestnut-brownies-recipe-dan-lepard", "type": "article", "sectionId": "lifeandstyle", "sectionName": "Life and style", "webPublicationDate": "2010-10-22T23:01:10Z", "webTitle": "Chestnut brownies recipe | Dan Lepard | Food | Baking", "webUrl": "https://www.theguardian.com/lifeandstyle/2010/oct/23/chestnut-brownies-recipe-dan-lepard", "apiUrl": "https://content.guardianapis.com/lifeandstyle/2010/oct/23/chestnut-brownies-recipe-dan-lepard", "isHosted": false, "pillarId": "pillar/lifestyle", "pillarName": "Lifestyle"}, {"id": "lifeandstyle/wordofmouth/2010/oct/22/smell-excess-shopping-food", "type": "article", "sectionId": "lifeandstyle", "sectionName": "Life and style", "webPublicationDate": "2010-10-22T09:20:00Z", "webTitle": "The smell of excess", "webUrl": "https://www.theguardian.com/lifeandstyle/wordofmouth/2010/oct/22/smell-excess-shopping-food", "apiUrl": "https://content.guardianapis.com/lifeandstyle/wordofmouth/2010/oct/22/smell-excess-shopping-food", "isHosted": false, "pillarId": "pillar/lifestyle", "pillarName": "Lifestyle"}, {"id": "travel/video/2010/oct/21/china-beijing-duck", "type": "video", "sectionId": "travel", "sectionName": "Travel", "webPublicationDate": "2010-10-21T12:13:00Z", "webTitle": "Video | Where to eat Beijing's best roast duck", "webUrl": "https://www.theguardian.com/travel/video/2010/oct/21/china-beijing-duck", "apiUrl": "https://content.guardianapis.com/travel/video/2010/oct/21/china-beijing-duck", "isHosted": false, "pillarId": "pillar/lifestyle", "pillarName": "Lifestyle"}, {"id": "lifeandstyle/wordofmouth/2010/oct/21/best-pizza-in-britain", "type": "article", "sectionId": "lifeandstyle", "sectionName": "Life and style", "webPublicationDate": "2010-10-21T09:30:00Z", "webTitle": "What's the best pizza in Britain?", "webUrl": "https://www.theguardian.com/lifeandstyle/wordofmouth/2010/oct/21/best-pizza-in-britain", "apiUrl": "https://content.guardianapis.com/lifeandstyle/wordofmouth/2010/oct/21/best-pizza-in-britain", "isHosted": false, "pillarId": "pillar/lifestyle", "pillarName": "Lifestyle"}, {"id": "money/2010/oct/21/fun-for-free-cuts", "type": "article", "sectionId": "money", "sectionName": "Money", "webPublicationDate": "2010-10-21T07:00:01Z", "webTitle": "How to have fun for free", "webUrl": "https://www.theguardian.com/money/2010/oct/21/fun-for-free-cuts", "apiUrl": "https://content.guardianapis.com/money/2010/oct/21/fun-for-free-cuts", "isHosted": false, "pillarId": "pillar/lifestyle", "pillarName": "Lifestyle"}, {"id": "lifeandstyle/2010/oct/21/green-valleys-sustainable-food-wales", "type": "article", "sectionId": "food", "sectionName": "Food", "webPublicationDate": "2010-10-21T06:00:00Z", "webTitle": "Green valleys: sustainable food in Wales", "webUrl": "https://www.theguardian.com/lifeandstyle/2010/oct/21/green-valleys-sustainable-food-wales", "apiUrl": "https://content.guardianapis.com/lifeandstyle/2010/oct/21/green-valleys-sustainable-food-wales", "isHosted": false, "pillarId": "pillar/lifestyle", "pillarName": "Lifestyle"}, {"id": "lifeandstyle/2010/oct/21/test-casserole-dishes", "type": "article", "sectionId": "lifeandstyle", "sectionName": "Life and style", "webPublicationDate": "2010-10-21T06:00:00Z", "webTitle": "The test \u2026 casserole dishes", "webUrl": "https://www.theguardian.com/lifeandstyle/2010/oct/21/test-casserole-dishes", "apiUrl": "https://content.guardianapis.com/lifeandstyle/2010/oct/21/test-casserole-dishes", "isHosted": false, "pillarId": "pillar/lifestyle", "pillarName": "Lifestyle"}, {"id": "lifeandstyle/wordofmouth/2010/oct/21/make-perfect-cottage-pie", "type": "article", "sectionId": "lifeandstyle", "sectionName": "Life and style", "webPublicationDate": "2010-10-21T06:00:00Z", "webTitle": "How to make perfect cottage pie", "webUrl": "https://www.theguardian.com/lifeandstyle/wordofmouth/2010/oct/21/make-perfect-cottage-pie", "apiUrl": "https://content.guardianapis.com/lifeandstyle/wordofmouth/2010/oct/21/make-perfect-cottage-pie", "isHosted": false, "pillarId": "pillar/lifestyle", "pillarName": "Lifestyle"}, {"id": "commentisfree/cifamerica/2010/oct/19/soda-ban-food-stamps", "type": "article", "sectionId": "commentisfree", "sectionName": "Opinion", "webPublicationDate": "2010-10-20T12:00:01Z", "webTitle": "Let them drink Coke | Sadhbh Walshe", "webUrl": "https://www.theguardian.com/commentisfree/cifamerica/2010/oct/19/soda-ban-food-stamps", "apiUrl": "https://content.guardianapis.com/commentisfree/cifamerica/2010/oct/19/soda-ban-food-stamps", "isHosted": false, "pillarId": "pillar/opinion", "pillarName": "Opinion"}]}}