{"response": {"status": "ok", "userTier": "developer", "total": 87558, "startIndex": 1, "pageSize": 50, "currentPage": 1, "pages": 1752, "orderBy": "newest", "results": [{"id": "football/2012/oct/30/wigan-athletic-bradford-capital-one-cup", "type": "article", "sectionId": "football", "sectionName": "Football", "webPublicationDate": "2012-10-30T22:42:32Z", "webTitle": "Wigan Athletic 0-0 Bradford City (Bradford win 4-2 on pens) | Capital One Cup match report", "webUrl": "https://www.theguardian.com/football/2012/oct/30/wigan-athletic-bradford-capital-one-cup", "apiUrl": "https://content.guardianapis.com/football/2012/oct/30/wigan-athletic-bradford-capital-one-cup", "isHosted": false, "pillarId": "pillar/sport", "pillarName": "Sport"}, {"id": "football/2012/oct/30/reading-arsenal-capital-one-cup", "type": "article", "sectionId": "football", "sectionName": "Football", "webPublicationDate": "2012-10-30T22:41:45Z", "webTitle": "Reading 5-7 Arsenal (aet) | Capital One Cup match report", "webUrl": "https://www.theguardian.com/football/2012/oct/30/reading-arsenal-capital-one-cup", "apiUrl": "https://content.guardianapis.com/football/2012/oct/30/reading-arsenal-capital-one-cup", "isHosted": false, "pillarId": "pillar/sport", "pillarName": "Sport"}, {"id": "football/2012/oct/30/brendan-rodgers-liverpool-swansea-league-cup", "type": "article", "sectionId": "football", "sectionName": "Football", "webPublicationDate": "2012-10-30T22:30:00Z", "webTitle": "Joe Cole set for starting role as Brendan Rodgers prepares to face former club", "webUrl": "https://www.theguardian.com/football/2012/oct/30/brendan-rodgers-liverpool-swansea-league-cup", "apiUrl": "https://content.guardianapis.com/football/2012/oct/30/brendan-rodgers-liverpool-swansea-league-cup", "isHosted": false, "pillarId": "pillar/sport", "pillarName": "Sport"}, {"id": "football/2012/oct/30/reading-arsenal-live-report-mbm", "type": "article", "sectionId": "football", "sectionName": "Football", "webPublicationDate": "2012-10-30T22:23:00Z", "webTitle": "Reading 5-7 Arsenal: as it happened", "webUrl": "https://www.theguardian.com/football/2012/oct/30/reading-arsenal-live-report-mbm", "apiUrl": "https://content.guardianapis.com/football/2012/oct/30/reading-arsenal-live-report-mbm", "isHosted": false, "pillarId": "pillar/sport", "pillarName": "Sport"}, {"id": "football/2012/oct/30/swindon-aston-villa-capital-one-cup", "type": "article", "sectionId": "football", "sectionName": "Football", "webPublicationDate": "2012-10-30T21:59:02Z", "webTitle": "Swindon Town 2-3 Aston Villa | Capital One Cup", "webUrl": "https://www.theguardian.com/football/2012/oct/30/swindon-aston-villa-capital-one-cup", "apiUrl": "https://content.guardianapis.com/football/2012/oct/30/swindon-aston-villa-capital-one-cup", "isHosted": false, "pillarId": "pillar/sport", "pillarName": "Sport"}, {"id": "football/2012/oct/30/celtic-st-johnstone-scottish-league-cup", "type": "article", "sectionId": "football", "sectionName": "Football", "webPublicationDate": "2012-10-30T21:54:50Z", "webTitle": "Celtic 5-0 St Johnstone | Scottish League Cup", "webUrl": "https://www.theguardian.com/football/2012/oct/30/celtic-st-johnstone-scottish-league-cup", "apiUrl": "https://content.guardianapis.com/football/2012/oct/30/celtic-st-johnstone-scottish-league-cup", "isHosted": false, "pillarId": "pillar/sport", "pillarName": "Sport"}, {"id": "football/2012/oct/30/sunderland-middlesbrough-capital-one-cup", "type": "article", "sectionId": "football", "sectionName": "Football", "webPublicationDate": "2012-10-30T21:53:28Z", "webTitle": "Sunderland 0-1 Middlesbrough | Capital One Cup match report", "webUrl": "https://www.theguardian.com/football/2012/oct/30/sunderland-middlesbrough-capital-one-cup", "apiUrl": "https://content.guardianapis.com/football/2012/oct/30/sunderland-middlesbrough-capital-one-cup", "isHosted": false, "pillarId": "pillar/sport", "pillarName": "Sport"}, {"id": "football/2012/oct/30/chelsea-mark-clattenburg-allegations", "type": "article", "sectionId": "football", "sectionName": "Football", "webPublicationDate": "2012-10-30T21:38:22Z", "webTitle": "Chelsea the accusers cannot afford to get this one wrong | Daniel Taylor", "webUrl": "https://www.theguardian.com/football/2012/oct/30/chelsea-mark-clattenburg-allegations", "apiUrl": "https://content.guardianapis.com/football/2012/oct/30/chelsea-mark-clattenburg-allegations", "isHosted": false, "pillarId": "pillar/sport", "pillarName": "Sport"}, {"id": "football/2012/oct/30/liverpool-apology-spoof-journalist", "type": "article", "sectionId": "football", "sectionName": "Football", "webPublicationDate": "2012-10-30T20:11:23Z", "webTitle": "Liverpool issue apology to Duncan Jenkins creator over Jen Chang actions", "webUrl": "https://www.theguardian.com/football/2012/oct/30/liverpool-apology-spoof-journalist", "apiUrl": "https://content.guardianapis.com/football/2012/oct/30/liverpool-apology-spoof-journalist", "isHosted": false, "pillarId": "pillar/sport", "pillarName": "Sport"}, {"id": "football/blog/2012/oct/30/mls-cup-previews-2012", "type": "article", "sectionId": "football", "sectionName": "Football", "webPublicationDate": "2012-10-30T19:11:00Z", "webTitle": "MLS 2012 playoffs preview | Graham Parker", "webUrl": "https://www.theguardian.com/football/blog/2012/oct/30/mls-cup-previews-2012", "apiUrl": "https://content.guardianapis.com/football/blog/2012/oct/30/mls-cup-previews-2012", "isHosted": false, "pillarId": "pillar/sport", "pillarName": "Sport"}, {"id": "football/2012/oct/30/manchester-united-chelsea-capital-one-cup", "type": "article", "sectionId": "football", "sectionName": "Football", "webPublicationDate": "2012-10-30T18:58:59Z", "webTitle": "All change for Manchester United as they head for reprise at Chelsea", "webUrl": "https://www.theguardian.com/football/2012/oct/30/manchester-united-chelsea-capital-one-cup", "apiUrl": "https://content.guardianapis.com/football/2012/oct/30/manchester-united-chelsea-capital-one-cup", "isHosted": false, "pillarId": "pillar/sport", "pillarName": "Sport"}, {"id": "football/2012/oct/30/serbia-police-england-under-21s-brawl", "type": "article", "sectionId": "football", "sectionName": "Football", "webPublicationDate": "2012-10-30T18:44:51Z", "webTitle": "Serbia police charge two England players over part in Under-21s brawl", "webUrl": "https://www.theguardian.com/football/2012/oct/30/serbia-police-england-under-21s-brawl", "apiUrl": "https://content.guardianapis.com/football/2012/oct/30/serbia-police-england-under-21s-brawl", "isHosted": false, "pillarId": "pillar/sport", "pillarName": "Sport"}, {"id": "football/2012/oct/30/the-fiver-brazil-maverick-plan", "type": "article", "sectionId": "football", "sectionName": "Football", "webPublicationDate": "2012-10-30T16:01:16Z", "webTitle": "The Fiver | A different kind of justice | Sean Ingle", "webUrl": "https://www.theguardian.com/football/2012/oct/30/the-fiver-brazil-maverick-plan", "apiUrl": "https://content.guardianapis.com/football/2012/oct/30/the-fiver-brazil-maverick-plan", "isHosted": false, "pillarId": "pillar/sport", "pillarName": "Sport"}, {"id": "football/2012/oct/30/chelsea-juan-mata-alleged-racist-comments", "type": "article", "sectionId": "football", "sectionName": "Football", "webPublicationDate": "2012-10-30T13:56:49Z", "webTitle": "Juan Mata 'didn't hear' referee's alleged 'inappropriate' comments", "webUrl": "https://www.theguardian.com/football/2012/oct/30/chelsea-juan-mata-alleged-racist-comments", "apiUrl": "https://content.guardianapis.com/football/2012/oct/30/chelsea-juan-mata-alleged-racist-comments", "isHosted": false, "pillarId": "pillar/sport", "pillarName": "Sport"}, {"id": "football/2012/oct/30/micah-richards-four-months-injured", "type": "article", "sectionId": "football", "sectionName": "Football", "webPublicationDate": "2012-10-30T13:38:00Z", "webTitle": "Manchester City's Micah Richards facing up to four months out injured", "webUrl": "https://www.theguardian.com/football/2012/oct/30/micah-richards-four-months-injured", "apiUrl": "https://content.guardianapis.com/football/2012/oct/30/micah-richards-four-months-injured", "isHosted": false, "pillarId": "pillar/sport", "pillarName": "Sport"}, {"id": "football/2012/oct/30/mark-clattenburg-set-deny-allegations", "type": "article", "sectionId": "football", "sectionName": "Football", "webPublicationDate": "2012-10-30T13:19:00Z", "webTitle": "Mark Clattenburg set to deny Chelsea allegations as police open investigation", "webUrl": "https://www.theguardian.com/football/2012/oct/30/mark-clattenburg-set-deny-allegations", "apiUrl": "https://content.guardianapis.com/football/2012/oct/30/mark-clattenburg-set-deny-allegations", "isHosted": false, "pillarId": "pillar/sport", "pillarName": "Sport"}, {"id": "football/blog/2012/oct/30/superclasico-boca-juniors-river-plate-argentina", "type": "article", "sectionId": "football", "sectionName": "Football", "webPublicationDate": "2012-10-30T12:47:08Z", "webTitle": "Supercl\u00e1sico passion reignited as Boca Juniors and River Plate meet again | Jonathan Wilson", "webUrl": "https://www.theguardian.com/football/blog/2012/oct/30/superclasico-boca-juniors-river-plate-argentina", "apiUrl": "https://content.guardianapis.com/football/blog/2012/oct/30/superclasico-boca-juniors-river-plate-argentina", "isHosted": false, "pillarId": "pillar/sport", "pillarName": "Sport"}, {"id": "football/2012/oct/30/rio-ferdinand-game-microscope-race", "type": "article", "sectionId": "football", "sectionName": "Football", "webPublicationDate": "2012-10-30T12:26:13Z", "webTitle": "Rio Ferdinand: Football is under microscope after latest 'race' allegations", "webUrl": "https://www.theguardian.com/football/2012/oct/30/rio-ferdinand-game-microscope-race", "apiUrl": "https://content.guardianapis.com/football/2012/oct/30/rio-ferdinand-game-microscope-race", "isHosted": false, "pillarId": "pillar/sport", "pillarName": "Sport"}, {"id": "commentisfree/2012/oct/30/football-referees-mics-mark-clattenburg", "type": "article", "sectionId": "commentisfree", "sectionName": "Opinion", "webPublicationDate": "2012-10-30T11:53:52Z", "webTitle": "Let's hear what's said on football pitches \u2013 using referees' mics | Mark Perryman", "webUrl": "https://www.theguardian.com/commentisfree/2012/oct/30/football-referees-mics-mark-clattenburg", "apiUrl": "https://content.guardianapis.com/commentisfree/2012/oct/30/football-referees-mics-mark-clattenburg", "isHosted": false, "pillarId": "pillar/opinion", "pillarName": "Opinion"}, {"id": "football/2012/oct/30/football-transfer-rumours-liverpool-holtby", "type": "article", "sectionId": "football", "sectionName": "Football", "webPublicationDate": "2012-10-30T09:25:55Z", "webTitle": "Football transfer rumours: Liverpool to sign Lewis Holtby from Schalke?", "webUrl": "https://www.theguardian.com/football/2012/oct/30/football-transfer-rumours-liverpool-holtby", "apiUrl": "https://content.guardianapis.com/football/2012/oct/30/football-transfer-rumours-liverpool-holtby", "isHosted": false, "pillarId": "pillar/sport", "pillarName": "Sport"}, {"id": "football/2012/oct/29/mark-clattenburg-chelsea-allegations-mikel-mata", "type": "article", "sectionId": "football", "sectionName": "Football", "webPublicationDate": "2012-10-30T08:10:00Z", "webTitle": "Mark Clattenburg stood down as FA examines Chelsea racism claim", "webUrl": "https://www.theguardian.com/football/2012/oct/29/mark-clattenburg-chelsea-allegations-mikel-mata", "apiUrl": "https://content.guardianapis.com/football/2012/oct/29/mark-clattenburg-chelsea-allegations-mikel-mata", "isHosted": false, "pillarId": "pillar/sport", "pillarName": "Sport"}, {"id": "football/gallery/2012/oct/30/leonardo-bonucci-the-gallery", "type": "gallery", "sectionId": "football", "sectionName": "Football", "webPublicationDate": "2012-10-30T00:06:00Z", "webTitle": "Leonardo Bonucci | The Gallery", "webUrl": "https://www.theguardian.com/football/gallery/2012/oct/30/leonardo-bonucci-the-gallery", "apiUrl": "https://content.guardianapis.com/football/gallery/2012/oct/30/leonardo-bonucci-the-gallery", "isHosted": false, "pillarId": "pillar/sport", "pillarName": "Sport"}, {"id": "football/2012/oct/29/neil-lennon-celtic-champions-league", "type": "article", "sectionId": "football", "sectionName": "Football", "webPublicationDate": "2012-10-29T23:00:01Z", "webTitle": "Celtic manager Neil Lennon warns players against domestic complacency", "webUrl": "https://www.theguardian.com/football/2012/oct/29/neil-lennon-celtic-champions-league", "apiUrl": "https://content.guardianapis.com/football/2012/oct/29/neil-lennon-celtic-champions-league", "isHosted": false, "pillarId": "pillar/sport", "pillarName": "Sport"}, {"id": "football/2012/oct/29/liverpool-steven-gerrard-everton-physical", "type": "article", "sectionId": "football", "sectionName": "Football", "webPublicationDate": "2012-10-29T22:30:01Z", "webTitle": "Steven Gerrard describes Everton as big, physical long-ball merchants", "webUrl": "https://www.theguardian.com/football/2012/oct/29/liverpool-steven-gerrard-everton-physical", "apiUrl": "https://content.guardianapis.com/football/2012/oct/29/liverpool-steven-gerrard-everton-physical", "isHosted": false, "pillarId": "pillar/sport", "pillarName": "Sport"}, {"id": "football/2012/oct/29/mark-clattenburg-chelsea-claims-calamity", "type": "article", "sectionId": "football", "sectionName": "Football", "webPublicationDate": "2012-10-29T20:44:52Z", "webTitle": "Chelsea's claims a calamity for Mark Clattenburg, but what happens next?", "webUrl": "https://www.theguardian.com/football/2012/oct/29/mark-clattenburg-chelsea-claims-calamity", "apiUrl": "https://content.guardianapis.com/football/2012/oct/29/mark-clattenburg-chelsea-claims-calamity", "isHosted": false, "pillarId": "pillar/sport", "pillarName": "Sport"}, {"id": "football/2012/oct/29/referees-earpieces-recording-mark-clattenburg", "type": "article", "sectionId": "football", "sectionName": "Football", "webPublicationDate": "2012-10-29T20:42:14Z", "webTitle": "Graham Poll and David Davies support hearing what referees say", "webUrl": "https://www.theguardian.com/football/2012/oct/29/referees-earpieces-recording-mark-clattenburg", "apiUrl": "https://content.guardianapis.com/football/2012/oct/29/referees-earpieces-recording-mark-clattenburg", "isHosted": false, "pillarId": "pillar/sport", "pillarName": "Sport"}, {"id": "football/2012/oct/29/fc-united-doing-things-differently", "type": "article", "sectionId": "football", "sectionName": "Football", "webPublicationDate": "2012-10-29T20:01:01Z", "webTitle": "FC United: united by name, united by nature", "webUrl": "https://www.theguardian.com/football/2012/oct/29/fc-united-doing-things-differently", "apiUrl": "https://content.guardianapis.com/football/2012/oct/29/fc-united-doing-things-differently", "isHosted": false, "pillarId": "pillar/sport", "pillarName": "Sport"}, {"id": "football/2012/oct/29/micah-richards-manchester-city-injury", "type": "article", "sectionId": "football", "sectionName": "Football", "webPublicationDate": "2012-10-29T19:52:49Z", "webTitle": "Manchester City's Micah Richards out for eight weeks with knee injury", "webUrl": "https://www.theguardian.com/football/2012/oct/29/micah-richards-manchester-city-injury", "apiUrl": "https://content.guardianapis.com/football/2012/oct/29/micah-richards-manchester-city-injury", "isHosted": false, "pillarId": "pillar/sport", "pillarName": "Sport"}, {"id": "commentisfree/2012/oct/29/hillsborough-need-truth-commission", "type": "article", "sectionId": "commentisfree", "sectionName": "Opinion", "webPublicationDate": "2012-10-29T19:30:02Z", "webTitle": "Hillsborough shows why we need a permanent truth commission | Michael Mansfield", "webUrl": "https://www.theguardian.com/commentisfree/2012/oct/29/hillsborough-need-truth-commission", "apiUrl": "https://content.guardianapis.com/commentisfree/2012/oct/29/hillsborough-need-truth-commission", "isHosted": false, "pillarId": "pillar/opinion", "pillarName": "Opinion"}, {"id": "football/2012/oct/29/mark-clattenburg-referee-contentious", "type": "article", "sectionId": "football", "sectionName": "Football", "webPublicationDate": "2012-10-29T19:04:07Z", "webTitle": "Mark Clattenburg \u2013 the referee who can whistle up a storm", "webUrl": "https://www.theguardian.com/football/2012/oct/29/mark-clattenburg-referee-contentious", "apiUrl": "https://content.guardianapis.com/football/2012/oct/29/mark-clattenburg-referee-contentious", "isHosted": false, "pillarId": "pillar/sport", "pillarName": "Sport"}, {"id": "football/shortcuts/2012/oct/29/is-premier-league-racist-again", "type": "article", "sectionId": "football", "sectionName": "Football", "webPublicationDate": "2012-10-29T19:00:03Z", "webTitle": "Is the Premier League becoming racist again?", "webUrl": "https://www.theguardian.com/football/shortcuts/2012/oct/29/is-premier-league-racist-again", "apiUrl": "https://content.guardianapis.com/football/shortcuts/2012/oct/29/is-premier-league-racist-again", "isHosted": false, "pillarId": "pillar/sport", "pillarName": "Sport"}, {"id": "football/2012/oct/29/mark-clattenburg-referee-chelsea-allegations", "type": "article", "sectionId": "football", "sectionName": "Football", "webPublicationDate": "2012-10-29T17:44:52Z", "webTitle": "Mark Clattenburg: high flyer who courted controversy on and off field", "webUrl": "https://www.theguardian.com/football/2012/oct/29/mark-clattenburg-referee-chelsea-allegations", "apiUrl": "https://content.guardianapis.com/football/2012/oct/29/mark-clattenburg-referee-chelsea-allegations", "isHosted": false, "pillarId": "pillar/sport", "pillarName": "Sport"}, {"id": "football/2012/oct/29/the-fiver-mark-clattenburg", "type": "article", "sectionId": "football", "sectionName": "Football", "webPublicationDate": "2012-10-29T16:30:02Z", "webTitle": "The Fiver | Modern Football protocol initiated | Georgina Turner", "webUrl": "https://www.theguardian.com/football/2012/oct/29/the-fiver-mark-clattenburg", "apiUrl": "https://content.guardianapis.com/football/2012/oct/29/the-fiver-mark-clattenburg", "isHosted": false, "pillarId": "pillar/sport", "pillarName": "Sport"}, {"id": "football/video/2012/oct/29/goalkeeper-sent-off-ball-boy-shot-video", "type": "video", "sectionId": "football", "sectionName": "Football", "webPublicationDate": "2012-10-29T16:18:00Z", "webTitle": "Goalkeeper sent off for ball boy shot \u2013 video", "webUrl": "https://www.theguardian.com/football/video/2012/oct/29/goalkeeper-sent-off-ball-boy-shot-video", "apiUrl": "https://content.guardianapis.com/football/video/2012/oct/29/goalkeeper-sent-off-ball-boy-shot-video", "isHosted": false, "pillarId": "pillar/sport", "pillarName": "Sport"}, {"id": "world/video/2012/oct/29/argentinian-football-brawl-video", "type": "video", "sectionId": "world", "sectionName": "World news", "webPublicationDate": "2012-10-29T16:12:00Z", "webTitle": "Argentinian football brawl leaves 25 people injured \u2013 video", "webUrl": "https://www.theguardian.com/world/video/2012/oct/29/argentinian-football-brawl-video", "apiUrl": "https://content.guardianapis.com/world/video/2012/oct/29/argentinian-football-brawl-video", "isHosted": false, "pillarId": "pillar/news", "pillarName": "News"}, {"id": "football/blog/audio/2012/oct/29/football-weekly-podcast-manchester-united-chelsea", "type": "audio", "sectionId": "football", "sectionName": "Football", "webPublicationDate": "2012-10-29T16:11:51Z", "webTitle": "Football Weekly: controversy reigns as Manchester United beat Chelsea \u2013 podcast", "webUrl": "https://www.theguardian.com/football/blog/audio/2012/oct/29/football-weekly-podcast-manchester-united-chelsea", "apiUrl": "https://content.guardianapis.com/football/blog/audio/2012/oct/29/football-weekly-podcast-manchester-united-chelsea", "isHosted": false, "pillarId": "pillar/sport", "pillarName": "Sport"}, {"id": "football/2012/oct/29/fifa-ballon-dor-manchester-city", "type": "article", "sectionId": "football", "sectionName": "Football", "webPublicationDate": "2012-10-29T16:11:38Z", "webTitle": "Manchester City trio named on Fifa longlist for the 2012 Ballon d'Or", "webUrl": "https://www.theguardian.com/football/2012/oct/29/fifa-ballon-dor-manchester-city", "apiUrl": "https://content.guardianapis.com/football/2012/oct/29/fifa-ballon-dor-manchester-city", "isHosted": false, "pillarId": "pillar/sport", "pillarName": "Sport"}, {"id": "football/blog/2012/oct/29/week-34-dc-united-chicago-fire-thierry-henry", "type": "article", "sectionId": "football", "sectionName": "Football", "webPublicationDate": "2012-10-29T13:59:07Z", "webTitle": "MLS: Five things we learned in week 34 | Graham Parker & Joe Prince-Wright", "webUrl": "https://www.theguardian.com/football/blog/2012/oct/29/week-34-dc-united-chicago-fire-thierry-henry", "apiUrl": "https://content.guardianapis.com/football/blog/2012/oct/29/week-34-dc-united-chicago-fire-thierry-henry", "isHosted": false, "pillarId": "pillar/sport", "pillarName": "Sport"}, {"id": "football/gallery/2012/oct/29/boca-juniors-river-plate-superclasico-pictures", "type": "gallery", "sectionId": "football", "sectionName": "Football", "webPublicationDate": "2012-10-29T13:41:00Z", "webTitle": "River Plate v Boca Juniors: Supercl\u00e1sico - in pictures", "webUrl": "https://www.theguardian.com/football/gallery/2012/oct/29/boca-juniors-river-plate-superclasico-pictures", "apiUrl": "https://content.guardianapis.com/football/gallery/2012/oct/29/boca-juniors-river-plate-superclasico-pictures", "isHosted": false, "pillarId": "pillar/sport", "pillarName": "Sport"}, {"id": "media/2012/oct/29/sky-sports-premier-league-football-tv-ratings", "type": "article", "sectionId": "media", "sectionName": "Media", "webPublicationDate": "2012-10-29T13:33:07Z", "webTitle": "Premier League football nets 3 million viewers for Sky Sports", "webUrl": "https://www.theguardian.com/media/2012/oct/29/sky-sports-premier-league-football-tv-ratings", "apiUrl": "https://content.guardianapis.com/media/2012/oct/29/sky-sports-premier-league-football-tv-ratings", "isHosted": false, "pillarId": "pillar/news", "pillarName": "News"}, {"id": "football/blog/2012/oct/29/bayer-leverkusen-lift-munich-curse", "type": "article", "sectionId": "football", "sectionName": "Football", "webPublicationDate": "2012-10-29T12:53:20Z", "webTitle": "Bayer Leverkusen lift Munich curse to leave Rudi V\u00f6ller worse for wear | Raphael Honigstein", "webUrl": "https://www.theguardian.com/football/blog/2012/oct/29/bayer-leverkusen-lift-munich-curse", "apiUrl": "https://content.guardianapis.com/football/blog/2012/oct/29/bayer-leverkusen-lift-munich-curse", "isHosted": false, "pillarId": "pillar/sport", "pillarName": "Sport"}, {"id": "football/blog/2012/oct/29/athletic-bilbao-surreal-crisis-silence", "type": "article", "sectionId": "football", "sectionName": "Football", "webPublicationDate": "2012-10-29T12:04:22Z", "webTitle": "Athletic Bilbao's surreal crisis deepens to the sound of silence | Sid Lowe", "webUrl": "https://www.theguardian.com/football/blog/2012/oct/29/athletic-bilbao-surreal-crisis-silence", "apiUrl": "https://content.guardianapis.com/football/blog/2012/oct/29/athletic-bilbao-surreal-crisis-silence", "isHosted": false, "pillarId": "pillar/sport", "pillarName": "Sport"}, {"id": "football/blog/2012/oct/29/juventus-catania-bemoan-death-of-football", "type": "article", "sectionId": "football", "sectionName": "Football", "webPublicationDate": "2012-10-29T11:33:55Z", "webTitle": "Juventus run continues as Catania are left bemoaning 'the death of football' | Paolo Bandini", "webUrl": "https://www.theguardian.com/football/blog/2012/oct/29/juventus-catania-bemoan-death-of-football", "apiUrl": "https://content.guardianapis.com/football/blog/2012/oct/29/juventus-catania-bemoan-death-of-football", "isHosted": false, "pillarId": "pillar/sport", "pillarName": "Sport"}, {"id": "football/2012/oct/29/football-transfer-rumours-gareth-bale-madrid", "type": "article", "sectionId": "football", "sectionName": "Football", "webPublicationDate": "2012-10-29T09:24:03Z", "webTitle": "Football transfer rumours: Gareth Bale to Real Madrid?", "webUrl": "https://www.theguardian.com/football/2012/oct/29/football-transfer-rumours-gareth-bale-madrid", "apiUrl": "https://content.guardianapis.com/football/2012/oct/29/football-transfer-rumours-gareth-bale-madrid", "isHosted": false, "pillarId": "pillar/sport", "pillarName": "Sport"}, {"id": "football/2012/oct/28/everton-liverpool-premier-league-match-report", "type": "article", "sectionId": "football", "sectionName": "Football", "webPublicationDate": "2012-10-29T08:30:00Z", "webTitle": "Everton 2-2 Liverpool | Premier League match report", "webUrl": "https://www.theguardian.com/football/2012/oct/28/everton-liverpool-premier-league-match-report", "apiUrl": "https://content.guardianapis.com/football/2012/oct/28/everton-liverpool-premier-league-match-report", "isHosted": false, "pillarId": "pillar/sport", "pillarName": "Sport"}, {"id": "football/2012/oct/29/10-talking-points-premier-league", "type": "article", "sectionId": "football", "sectionName": "Football", "webPublicationDate": "2012-10-29T08:30:00Z", "webTitle": "Premier League: 10 talking points from this weekend's action", "webUrl": "https://www.theguardian.com/football/2012/oct/29/10-talking-points-premier-league", "apiUrl": "https://content.guardianapis.com/football/2012/oct/29/10-talking-points-premier-league", "isHosted": false, "pillarId": "pillar/sport", "pillarName": "Sport"}, {"id": "football/2012/oct/29/los-angeles-galaxy-seattle-sounders-live", "type": "liveblog", "sectionId": "football", "sectionName": "Football", "webPublicationDate": "2012-10-29T03:25:54Z", "webTitle": "LA Galaxy vs Seattle Sounders - live!", "webUrl": "https://www.theguardian.com/football/2012/oct/29/los-angeles-galaxy-seattle-sounders-live", "apiUrl": "https://content.guardianapis.com/football/2012/oct/29/los-angeles-galaxy-seattle-sounders-live", "isHosted": false, "pillarId": "pillar/sport", "pillarName": "Sport"}, {"id": "football/2012/oct/28/jack-wilshere-arsenal-queens-park-rangers", "type": "article", "sectionId": "football", "sectionName": "Football", "webPublicationDate": "2012-10-28T23:45:00Z", "webTitle": "Jack Wilshere impresses as Arsenal narrowly beat Queens Park Rangers", "webUrl": "https://www.theguardian.com/football/2012/oct/28/jack-wilshere-arsenal-queens-park-rangers", "apiUrl": "https://content.guardianapis.com/football/2012/oct/28/jack-wilshere-arsenal-queens-park-rangers", "isHosted": false, "pillarId": "pillar/sport", "pillarName": "Sport"}, {"id": "football/2012/oct/28/wigan-athletic-west-ham-united-premier-league", "type": "article", "sectionId": "football", "sectionName": "Football", "webPublicationDate": "2012-10-28T23:35:00Z", "webTitle": "Wigan's Iv\u00e1n Ramis provides initial return against West Ham", "webUrl": "https://www.theguardian.com/football/2012/oct/28/wigan-athletic-west-ham-united-premier-league", "apiUrl": "https://content.guardianapis.com/football/2012/oct/28/wigan-athletic-west-ham-united-premier-league", "isHosted": false, "pillarId": "pillar/sport", "pillarName": "Sport"}, {"id": "football/2012/oct/28/reading-fulham-premier-league", "type": "article", "sectionId": "football", "sectionName": "Football", "webPublicationDate": "2012-10-28T23:00:00Z", "webTitle": "Fulham's forward options underline the size of Reading's task", "webUrl": "https://www.theguardian.com/football/2012/oct/28/reading-fulham-premier-league", "apiUrl": "https://content.guardianapis.com/football/2012/oct/28/reading-fulham-premier-league", "isHosted": false, "pillarId": "pillar/sport", "pillarName": "Sport"}]}}