{"response": {"status": "ok", "userTier": "developer", "total": 92498, "startIndex": 1, "pageSize": 50, "currentPage": 1, "pages": 1850, "orderBy": "newest", "results": [{"id": "football/2014/oct/30/five-english-players-shortlist-golden-boy", "type": "article", "sectionId": "football", "sectionName": "Football", "webPublicationDate": "2014-10-30T23:35:25Z", "webTitle": "Five English players on 40-man shortlist for Golden Boy award", "webUrl": "https://www.theguardian.com/football/2014/oct/30/five-english-players-shortlist-golden-boy", "apiUrl": "https://content.guardianapis.com/football/2014/oct/30/five-english-players-shortlist-golden-boy", "isHosted": false, "pillarId": "pillar/sport", "pillarName": "Sport"}, {"id": "football/2014/oct/30/newcastle-united-alan-pardew-rolando-aarons", "type": "article", "sectionId": "football", "sectionName": "Football", "webPublicationDate": "2014-10-30T23:07:00Z", "webTitle": "Rolando Aarons and young graduates give Newcastle United pacier look", "webUrl": "https://www.theguardian.com/football/2014/oct/30/newcastle-united-alan-pardew-rolando-aarons", "apiUrl": "https://content.guardianapis.com/football/2014/oct/30/newcastle-united-alan-pardew-rolando-aarons", "isHosted": false, "pillarId": "pillar/sport", "pillarName": "Sport"}, {"id": "football/2014/oct/30/sam-allardyce-west-ham-squad-winter-injuries-diafra-sakho", "type": "article", "sectionId": "football", "sectionName": "Football", "webPublicationDate": "2014-10-30T22:33:00Z", "webTitle": "Sam Allardyce hopes West Ham squad depth will ward off winter slump", "webUrl": "https://www.theguardian.com/football/2014/oct/30/sam-allardyce-west-ham-squad-winter-injuries-diafra-sakho", "apiUrl": "https://content.guardianapis.com/football/2014/oct/30/sam-allardyce-west-ham-squad-winter-injuries-diafra-sakho", "isHosted": false, "pillarId": "pillar/sport", "pillarName": "Sport"}, {"id": "football/2014/oct/30/qpr-harry-redknapp-rio-ferdinand-tweet", "type": "article", "sectionId": "football", "sectionName": "Football", "webPublicationDate": "2014-10-30T22:30:06Z", "webTitle": "QPR\u2019s Harry Redknapp hits out at FA over Rio Ferdinand ban for tweet", "webUrl": "https://www.theguardian.com/football/2014/oct/30/qpr-harry-redknapp-rio-ferdinand-tweet", "apiUrl": "https://content.guardianapis.com/football/2014/oct/30/qpr-harry-redknapp-rio-ferdinand-tweet", "isHosted": false, "pillarId": "pillar/sport", "pillarName": "Sport"}, {"id": "football/2014/oct/30/brendan-rodgers-daniel-sturridge-injury-real-madrid-chelsea-liverpool", "type": "article", "sectionId": "football", "sectionName": "Football", "webPublicationDate": "2014-10-30T22:30:06Z", "webTitle": "Brendan Rodgers: Daniel Sturridge out of Real Madrid and Chelsea games", "webUrl": "https://www.theguardian.com/football/2014/oct/30/brendan-rodgers-daniel-sturridge-injury-real-madrid-chelsea-liverpool", "apiUrl": "https://content.guardianapis.com/football/2014/oct/30/brendan-rodgers-daniel-sturridge-injury-real-madrid-chelsea-liverpool", "isHosted": false, "pillarId": "pillar/sport", "pillarName": "Sport"}, {"id": "football/2014/oct/30/samuel-eto-o-everton-roberto-martinez", "type": "article", "sectionId": "football", "sectionName": "Football", "webPublicationDate": "2014-10-30T22:29:06Z", "webTitle": "\u2018Gift from footballing gods\u2019 Samuel Eto\u2019o on course for new Everton deal", "webUrl": "https://www.theguardian.com/football/2014/oct/30/samuel-eto-o-everton-roberto-martinez", "apiUrl": "https://content.guardianapis.com/football/2014/oct/30/samuel-eto-o-everton-roberto-martinez", "isHosted": false, "pillarId": "pillar/sport", "pillarName": "Sport"}, {"id": "football/2014/oct/30/fa-fines-rio-ferdinand-twitter", "type": "article", "sectionId": "football", "sectionName": "Football", "webPublicationDate": "2014-10-30T21:09:38Z", "webTitle": "Think before you tweet: FA makes \u00a3350,000 in Twitter fines since 2011", "webUrl": "https://www.theguardian.com/football/2014/oct/30/fa-fines-rio-ferdinand-twitter", "apiUrl": "https://content.guardianapis.com/football/2014/oct/30/fa-fines-rio-ferdinand-twitter", "isHosted": false, "pillarId": "pillar/sport", "pillarName": "Sport"}, {"id": "football/blog/2014/oct/31/a-league-and-asian-champions-league-what-to-look-out-for", "type": "article", "sectionId": "football", "sectionName": "Football", "webPublicationDate": "2014-10-30T19:58:17Z", "webTitle": "A-League and Asian Champions League: what to look out for", "webUrl": "https://www.theguardian.com/football/blog/2014/oct/31/a-league-and-asian-champions-league-what-to-look-out-for", "apiUrl": "https://content.guardianapis.com/football/blog/2014/oct/31/a-league-and-asian-champions-league-what-to-look-out-for", "isHosted": false, "pillarId": "pillar/sport", "pillarName": "Sport"}, {"id": "football/2014/oct/30/helen-grant-eradicate-sexism-sports-minister-county-fa-official", "type": "article", "sectionId": "football", "sectionName": "Football", "webPublicationDate": "2014-10-30T18:24:31Z", "webTitle": "Helen Grant: deplorable comment highlights work left to eradicate sexism", "webUrl": "https://www.theguardian.com/football/2014/oct/30/helen-grant-eradicate-sexism-sports-minister-county-fa-official", "apiUrl": "https://content.guardianapis.com/football/2014/oct/30/helen-grant-eradicate-sexism-sports-minister-county-fa-official", "isHosted": false, "pillarId": "pillar/sport", "pillarName": "Sport"}, {"id": "football/blog/2014/oct/30/manchester-city-players-club-tragicomedy-chelsea", "type": "article", "sectionId": "football", "sectionName": "Football", "webPublicationDate": "2014-10-30T17:28:48Z", "webTitle": "Slack attitudes at Manchester City risk returning club to tragicomedy | Jacob Steinberg", "webUrl": "https://www.theguardian.com/football/blog/2014/oct/30/manchester-city-players-club-tragicomedy-chelsea", "apiUrl": "https://content.guardianapis.com/football/blog/2014/oct/30/manchester-city-players-club-tragicomedy-chelsea", "isHosted": false, "pillarId": "pillar/sport", "pillarName": "Sport"}, {"id": "football/2014/oct/30/the-fiver-manchester-city", "type": "article", "sectionId": "football", "sectionName": "Football", "webPublicationDate": "2014-10-30T15:47:53Z", "webTitle": "The Fiver | Bears, woods, popes and pointy hats", "webUrl": "https://www.theguardian.com/football/2014/oct/30/the-fiver-manchester-city", "apiUrl": "https://content.guardianapis.com/football/2014/oct/30/the-fiver-manchester-city", "isHosted": false, "pillarId": "pillar/sport", "pillarName": "Sport"}, {"id": "football/2014/oct/30/european-football-talking-points-from-la-liga-bundesliga-serie-a-and-ligue-1", "type": "article", "sectionId": "football", "sectionName": "Football", "webPublicationDate": "2014-10-30T14:25:45Z", "webTitle": "European football: talking points from La Liga, Bundesliga, Serie A and Ligue 1", "webUrl": "https://www.theguardian.com/football/2014/oct/30/european-football-talking-points-from-la-liga-bundesliga-serie-a-and-ligue-1", "apiUrl": "https://content.guardianapis.com/football/2014/oct/30/european-football-talking-points-from-la-liga-bundesliga-serie-a-and-ligue-1", "isHosted": false, "pillarId": "pillar/sport", "pillarName": "Sport"}, {"id": "football/datablog/2014/oct/30/the-premier-leagues-91-goalscoring-nations", "type": "article", "sectionId": "football", "sectionName": "Football", "webPublicationDate": "2014-10-30T13:19:21Z", "webTitle": "The Premier League's 91 goalscoring nations", "webUrl": "https://www.theguardian.com/football/datablog/2014/oct/30/the-premier-leagues-91-goalscoring-nations", "apiUrl": "https://content.guardianapis.com/football/datablog/2014/oct/30/the-premier-leagues-91-goalscoring-nations", "isHosted": false, "pillarId": "pillar/sport", "pillarName": "Sport"}, {"id": "football/football-league-blog/2014/oct/30/bristol-city-chelsea-steve-cotterill-jose-mourinho-unbeaten", "type": "article", "sectionId": "football", "sectionName": "Football", "webPublicationDate": "2014-10-30T13:04:00Z", "webTitle": "Bristol City match Chelsea on back of magpies, soft pillows and lucky pants", "webUrl": "https://www.theguardian.com/football/football-league-blog/2014/oct/30/bristol-city-chelsea-steve-cotterill-jose-mourinho-unbeaten", "apiUrl": "https://content.guardianapis.com/football/football-league-blog/2014/oct/30/bristol-city-chelsea-steve-cotterill-jose-mourinho-unbeaten", "isHosted": false, "pillarId": "pillar/sport", "pillarName": "Sport"}, {"id": "football/2014/oct/30/rio-ferdinand-qpr-harry-redknapp", "type": "article", "sectionId": "football", "sectionName": "Football", "webPublicationDate": "2014-10-30T12:35:57Z", "webTitle": "QPR\u2019s Harry Redknapp defends banned Rio Ferdinand as a \u2018top-class person\u2019", "webUrl": "https://www.theguardian.com/football/2014/oct/30/rio-ferdinand-qpr-harry-redknapp", "apiUrl": "https://content.guardianapis.com/football/2014/oct/30/rio-ferdinand-qpr-harry-redknapp", "isHosted": false, "pillarId": "pillar/sport", "pillarName": "Sport"}, {"id": "football/blog/2014/oct/30/senzo-meyiwa-murder-south-africa-gun-culture", "type": "article", "sectionId": "football", "sectionName": "Football", "webPublicationDate": "2014-10-30T11:02:00Z", "webTitle": "Soweto unites to say farewell to murdered goalkeeper Senzo Meyiwa  | Ed Aarons", "webUrl": "https://www.theguardian.com/football/blog/2014/oct/30/senzo-meyiwa-murder-south-africa-gun-culture", "apiUrl": "https://content.guardianapis.com/football/blog/2014/oct/30/senzo-meyiwa-murder-south-africa-gun-culture", "isHosted": false, "pillarId": "pillar/sport", "pillarName": "Sport"}, {"id": "football/football-league-blog/2014/oct/30/ipswich-mick-mccarthy-championship-premier-league", "type": "article", "sectionId": "football", "sectionName": "Football", "webPublicationDate": "2014-10-30T10:00:02Z", "webTitle": "Ipswich Town: the \u00a310,000 team pushing for the Premier League | Ian McCourt", "webUrl": "https://www.theguardian.com/football/football-league-blog/2014/oct/30/ipswich-mick-mccarthy-championship-premier-league", "apiUrl": "https://content.guardianapis.com/football/football-league-blog/2014/oct/30/ipswich-mick-mccarthy-championship-premier-league", "isHosted": false, "pillarId": "pillar/sport", "pillarName": "Sport"}, {"id": "football/2014/oct/30/al-ahly-walid-soliman-banned-referees-shirt", "type": "article", "sectionId": "football", "sectionName": "Football", "webPublicationDate": "2014-10-30T09:49:43Z", "webTitle": "Al Ahly\u2019s Walid Soliman banned for four games after untucking referee\u2019s shirt", "webUrl": "https://www.theguardian.com/football/2014/oct/30/al-ahly-walid-soliman-banned-referees-shirt", "apiUrl": "https://content.guardianapis.com/football/2014/oct/30/al-ahly-walid-soliman-banned-referees-shirt", "isHosted": false, "pillarId": "pillar/sport", "pillarName": "Sport"}, {"id": "football/2014/oct/30/football-transfer-rumours-arsenal-lichtsteiner-van-dijk", "type": "article", "sectionId": "football", "sectionName": "Football", "webPublicationDate": "2014-10-30T09:22:58Z", "webTitle": "Football transfer rumours: Arsenal to sign Stephan Lichtsteiner and Virgil van Dijk?", "webUrl": "https://www.theguardian.com/football/2014/oct/30/football-transfer-rumours-arsenal-lichtsteiner-van-dijk", "apiUrl": "https://content.guardianapis.com/football/2014/oct/30/football-transfer-rumours-arsenal-lichtsteiner-van-dijk", "isHosted": false, "pillarId": "pillar/sport", "pillarName": "Sport"}, {"id": "sport/blog/2014/oct/30/gullit-lombardo-robotic-dolphins-and-surfing-at-1000-frames-per-second", "type": "article", "sectionId": "sport", "sectionName": "Sport", "webPublicationDate": "2014-10-30T09:00:00Z", "webTitle": "Gullit, Lombardo, robotic dolphins and surfing at 1,000 frames per second | Classic YouTube", "webUrl": "https://www.theguardian.com/sport/blog/2014/oct/30/gullit-lombardo-robotic-dolphins-and-surfing-at-1000-frames-per-second", "apiUrl": "https://content.guardianapis.com/sport/blog/2014/oct/30/gullit-lombardo-robotic-dolphins-and-surfing-at-1000-frames-per-second", "isHosted": false, "pillarId": "pillar/sport", "pillarName": "Sport"}, {"id": "football/2014/oct/30/hamburg-apologise-pitch-invader-bayern-ribery-scarf", "type": "article", "sectionId": "football", "sectionName": "Football", "webPublicationDate": "2014-10-30T08:51:53Z", "webTitle": "Hamburg apologise after pitch invader slaps Bayern\u2019s Franck Rib\u00e9ry with scarf", "webUrl": "https://www.theguardian.com/football/2014/oct/30/hamburg-apologise-pitch-invader-bayern-ribery-scarf", "apiUrl": "https://content.guardianapis.com/football/2014/oct/30/hamburg-apologise-pitch-invader-bayern-ribery-scarf", "isHosted": false, "pillarId": "pillar/sport", "pillarName": "Sport"}, {"id": "football/2014/oct/29/bayern-munich-franck-ribery-pitch-invader", "type": "article", "sectionId": "football", "sectionName": "Football", "webPublicationDate": "2014-10-29T23:09:35Z", "webTitle": "Bayern\u2019s Franck Rib\u00e9ry slapped in face with scarf by pitch invader at Hamburg", "webUrl": "https://www.theguardian.com/football/2014/oct/29/bayern-munich-franck-ribery-pitch-invader", "apiUrl": "https://content.guardianapis.com/football/2014/oct/29/bayern-munich-franck-ribery-pitch-invader", "isHosted": false, "pillarId": "pillar/sport", "pillarName": "Sport"}, {"id": "football/2014/oct/29/chelsea-gary-cahill-qpr-manchester-city", "type": "article", "sectionId": "football", "sectionName": "Football", "webPublicationDate": "2014-10-29T22:29:16Z", "webTitle": "Chelsea\u2019s Cahill says beating QPR can put pressure on Manchester City", "webUrl": "https://www.theguardian.com/football/2014/oct/29/chelsea-gary-cahill-qpr-manchester-city", "apiUrl": "https://content.guardianapis.com/football/2014/oct/29/chelsea-gary-cahill-qpr-manchester-city", "isHosted": false, "pillarId": "pillar/sport", "pillarName": "Sport"}, {"id": "football/live/2014/oct/29/manchester-city-v-newcastle-united-capital-one-cup-live", "type": "liveblog", "sectionId": "football", "sectionName": "Football", "webPublicationDate": "2014-10-29T22:07:28Z", "webTitle": "Manchester City v Newcastle United: Capital One Cup \u2013 as it happened", "webUrl": "https://www.theguardian.com/football/live/2014/oct/29/manchester-city-v-newcastle-united-capital-one-cup-live", "apiUrl": "https://content.guardianapis.com/football/live/2014/oct/29/manchester-city-v-newcastle-united-capital-one-cup-live", "isHosted": false, "pillarId": "pillar/sport", "pillarName": "Sport"}, {"id": "football/2014/oct/29/manchester-city-newcastle-united-capital-one-cup-match-report", "type": "article", "sectionId": "football", "sectionName": "Football", "webPublicationDate": "2014-10-29T22:05:39Z", "webTitle": "Manchester City 0-2 Newcastle | Capital One Cup fourth-round report", "webUrl": "https://www.theguardian.com/football/2014/oct/29/manchester-city-newcastle-united-capital-one-cup-match-report", "apiUrl": "https://content.guardianapis.com/football/2014/oct/29/manchester-city-newcastle-united-capital-one-cup-match-report", "isHosted": false, "pillarId": "pillar/sport", "pillarName": "Sport"}, {"id": "football/2014/oct/29/tottenham-brighton-capital-one-cup-match-report", "type": "article", "sectionId": "football", "sectionName": "Football", "webPublicationDate": "2014-10-29T22:04:31Z", "webTitle": "Tottenham 2-0 Brighton | Capital One Cup fourth-round match report", "webUrl": "https://www.theguardian.com/football/2014/oct/29/tottenham-brighton-capital-one-cup-match-report", "apiUrl": "https://content.guardianapis.com/football/2014/oct/29/tottenham-brighton-capital-one-cup-match-report", "isHosted": false, "pillarId": "pillar/sport", "pillarName": "Sport"}, {"id": "football/2014/oct/29/stoke-southampton-capital-one-cup-fourth-round-match-report", "type": "article", "sectionId": "football", "sectionName": "Football", "webPublicationDate": "2014-10-29T22:02:46Z", "webTitle": "Stoke City 2-3 Southampton | Capital One Cup fourth round match report", "webUrl": "https://www.theguardian.com/football/2014/oct/29/stoke-southampton-capital-one-cup-fourth-round-match-report", "apiUrl": "https://content.guardianapis.com/football/2014/oct/29/stoke-southampton-capital-one-cup-fourth-round-match-report", "isHosted": false, "pillarId": "pillar/sport", "pillarName": "Sport"}, {"id": "sport/blog/2014/oct/30/brighton-and-crystal-palace-fans-live-the-trials-of-the-exiled-fan", "type": "article", "sectionId": "football", "sectionName": "Football", "webPublicationDate": "2014-10-29T20:31:59Z", "webTitle": "Brighton and Crystal Palace fans live the trials of the long-distance supporter | Joe Gorman", "webUrl": "https://www.theguardian.com/sport/blog/2014/oct/30/brighton-and-crystal-palace-fans-live-the-trials-of-the-exiled-fan", "apiUrl": "https://content.guardianapis.com/sport/blog/2014/oct/30/brighton-and-crystal-palace-fans-live-the-trials-of-the-exiled-fan", "isHosted": false, "pillarId": "pillar/sport", "pillarName": "Sport"}, {"id": "football/2014/oct/29/design-alternative-logo-2018-world-cup-russia", "type": "article", "sectionId": "football", "sectionName": "Football", "webPublicationDate": "2014-10-29T17:47:19Z", "webTitle": "Design an alternative logo for the 2018 World Cup in Russia", "webUrl": "https://www.theguardian.com/football/2014/oct/29/design-alternative-logo-2018-world-cup-russia", "apiUrl": "https://content.guardianapis.com/football/2014/oct/29/design-alternative-logo-2018-world-cup-russia", "isHosted": false, "pillarId": "pillar/sport", "pillarName": "Sport"}, {"id": "football/2014/oct/29/the-fiver-tottenham-pitch-size-really-the-man-is-having-us-here-lets-hope-he-doesnt-check-urls", "type": "article", "sectionId": "football", "sectionName": "Football", "webPublicationDate": "2014-10-29T15:52:27Z", "webTitle": "The Fiver | Arrogant and lazy Premier League pitches", "webUrl": "https://www.theguardian.com/football/2014/oct/29/the-fiver-tottenham-pitch-size-really-the-man-is-having-us-here-lets-hope-he-doesnt-check-urls", "apiUrl": "https://content.guardianapis.com/football/2014/oct/29/the-fiver-tottenham-pitch-size-really-the-man-is-having-us-here-lets-hope-he-doesnt-check-urls", "isHosted": false, "pillarId": "pillar/sport", "pillarName": "Sport"}, {"id": "football/blog/2014/oct/29/pochettino-pitch-size-does-matter", "type": "article", "sectionId": "football", "sectionName": "Football", "webPublicationDate": "2014-10-29T13:50:46Z", "webTitle": "Does size really matter? Pochettino is not the first to suffer pitch problems | Michael Cox", "webUrl": "https://www.theguardian.com/football/blog/2014/oct/29/pochettino-pitch-size-does-matter", "apiUrl": "https://content.guardianapis.com/football/blog/2014/oct/29/pochettino-pitch-size-does-matter", "isHosted": false, "pillarId": "pillar/sport", "pillarName": "Sport"}, {"id": "football/blog/2014/oct/29/best-goals-week-real-madrid-delhi-dynamos-celtic-reserves", "type": "article", "sectionId": "football", "sectionName": "Football", "webPublicationDate": "2014-10-29T13:36:51Z", "webTitle": "The best goals of the week: Real Madrid, Sydney FC and Celtic Reserves", "webUrl": "https://www.theguardian.com/football/blog/2014/oct/29/best-goals-week-real-madrid-delhi-dynamos-celtic-reserves", "apiUrl": "https://content.guardianapis.com/football/blog/2014/oct/29/best-goals-week-real-madrid-delhi-dynamos-celtic-reserves", "isHosted": false, "pillarId": "pillar/sport", "pillarName": "Sport"}, {"id": "football/blog/2014/oct/29/mario-balotelli-liverpool-rodgers", "type": "article", "sectionId": "football", "sectionName": "Football", "webPublicationDate": "2014-10-29T12:51:08Z", "webTitle": "Balotelli ends drought but doubts remain over transfer strategy | Tor-Kristian Karlsen", "webUrl": "https://www.theguardian.com/football/blog/2014/oct/29/mario-balotelli-liverpool-rodgers", "apiUrl": "https://content.guardianapis.com/football/blog/2014/oct/29/mario-balotelli-liverpool-rodgers", "isHosted": false, "pillarId": "pillar/sport", "pillarName": "Sport"}, {"id": "football/2014/oct/29/fa-official-banned-female-referee", "type": "article", "sectionId": "football", "sectionName": "Football", "webPublicationDate": "2014-10-29T12:46:54Z", "webTitle": "FA official banned for telling female referee her place was \u2018in the kitchen\u2019", "webUrl": "https://www.theguardian.com/football/2014/oct/29/fa-official-banned-female-referee", "apiUrl": "https://content.guardianapis.com/football/2014/oct/29/fa-official-banned-female-referee", "isHosted": false, "pillarId": "pillar/sport", "pillarName": "Sport"}, {"id": "football/2014/oct/29/wayne-rooney-manchester-united-city-derby-injury", "type": "article", "sectionId": "football", "sectionName": "Football", "webPublicationDate": "2014-10-29T11:45:46Z", "webTitle": "Wayne Rooney hopeful of overcoming injury to face Manchester City", "webUrl": "https://www.theguardian.com/football/2014/oct/29/wayne-rooney-manchester-united-city-derby-injury", "apiUrl": "https://content.guardianapis.com/football/2014/oct/29/wayne-rooney-manchester-united-city-derby-injury", "isHosted": false, "pillarId": "pillar/sport", "pillarName": "Sport"}, {"id": "football/2014/oct/29/former-sweden-midfielder-klas-ingesson-dies", "type": "article", "sectionId": "football", "sectionName": "Football", "webPublicationDate": "2014-10-29T10:22:46Z", "webTitle": "Former Sweden midfielder Klas Ingesson dies from cancer, aged 46", "webUrl": "https://www.theguardian.com/football/2014/oct/29/former-sweden-midfielder-klas-ingesson-dies", "apiUrl": "https://content.guardianapis.com/football/2014/oct/29/former-sweden-midfielder-klas-ingesson-dies", "isHosted": false, "pillarId": "pillar/sport", "pillarName": "Sport"}, {"id": "football/2014/oct/29/bolton-wanderers-thai-consortium-takeover", "type": "article", "sectionId": "football", "sectionName": "Football", "webPublicationDate": "2014-10-29T10:22:09Z", "webTitle": "Bolton chairman plays down talk of \u00a340m takeover by Thai consortium", "webUrl": "https://www.theguardian.com/football/2014/oct/29/bolton-wanderers-thai-consortium-takeover", "apiUrl": "https://content.guardianapis.com/football/2014/oct/29/bolton-wanderers-thai-consortium-takeover", "isHosted": false, "pillarId": "pillar/sport", "pillarName": "Sport"}, {"id": "football/blog/2014/oct/29/ayoze-perez-newcastle-united-spain-tenerife", "type": "article", "sectionId": "football", "sectionName": "Football", "webPublicationDate": "2014-10-29T10:00:08Z", "webTitle": "Ayoze P\u00e9rez has no regrets after rejecting Bar\u00e7a and Real for Newcastle | Louise Taylor", "webUrl": "https://www.theguardian.com/football/blog/2014/oct/29/ayoze-perez-newcastle-united-spain-tenerife", "apiUrl": "https://content.guardianapis.com/football/blog/2014/oct/29/ayoze-perez-newcastle-united-spain-tenerife", "isHosted": false, "pillarId": "pillar/sport", "pillarName": "Sport"}, {"id": "football/2014/oct/29/referee-mark-clattenburg-dropped-ed-sheeran", "type": "article", "sectionId": "football", "sectionName": "Football", "webPublicationDate": "2014-10-29T09:49:26Z", "webTitle": "Mark Clattenburg dropped for weekend games after going to Ed Sheeran gig", "webUrl": "https://www.theguardian.com/football/2014/oct/29/referee-mark-clattenburg-dropped-ed-sheeran", "apiUrl": "https://content.guardianapis.com/football/2014/oct/29/referee-mark-clattenburg-dropped-ed-sheeran", "isHosted": false, "pillarId": "pillar/sport", "pillarName": "Sport"}, {"id": "sport/2014/oct/28/football-in-brief", "type": "article", "sectionId": "football", "sectionName": "Football", "webPublicationDate": "2014-10-29T01:17:05Z", "webTitle": "Mark Clattenburg \u2018axed for weekend games\u2019 after going to Ed Sheeran gig", "webUrl": "https://www.theguardian.com/sport/2014/oct/28/football-in-brief", "apiUrl": "https://content.guardianapis.com/sport/2014/oct/28/football-in-brief", "isHosted": false, "pillarId": "pillar/sport", "pillarName": "Sport"}, {"id": "football/2014/oct/29/ballon-dor-shortlist-most-leagues", "type": "article", "sectionId": "football", "sectionName": "Football", "webPublicationDate": "2014-10-29T00:08:05Z", "webTitle": "Which year\u2019s Ballon d\u2019Or shortlist featured teams from most leagues?", "webUrl": "https://www.theguardian.com/football/2014/oct/29/ballon-dor-shortlist-most-leagues", "apiUrl": "https://content.guardianapis.com/football/2014/oct/29/ballon-dor-shortlist-most-leagues", "isHosted": false, "pillarId": "pillar/sport", "pillarName": "Sport"}, {"id": "football/2014/oct/28/mauricio-pochettino-tottenham-pitch-small", "type": "article", "sectionId": "football", "sectionName": "Football", "webPublicationDate": "2014-10-28T22:30:03Z", "webTitle": "Mauricio Pochettino puts Tottenham\u2019s poor home form down to tiny pitch", "webUrl": "https://www.theguardian.com/football/2014/oct/28/mauricio-pochettino-tottenham-pitch-small", "apiUrl": "https://content.guardianapis.com/football/2014/oct/28/mauricio-pochettino-tottenham-pitch-small", "isHosted": false, "pillarId": "pillar/sport", "pillarName": "Sport"}, {"id": "football/2014/oct/28/manchester-city-newcastle-brighton-stoke-southampton-carling-cup", "type": "article", "sectionId": "football", "sectionName": "Football", "webPublicationDate": "2014-10-28T22:30:03Z", "webTitle": "Manuel Pellegrini admits Manchester City must tighten up defensively", "webUrl": "https://www.theguardian.com/football/2014/oct/28/manchester-city-newcastle-brighton-stoke-southampton-carling-cup", "apiUrl": "https://content.guardianapis.com/football/2014/oct/28/manchester-city-newcastle-brighton-stoke-southampton-carling-cup", "isHosted": false, "pillarId": "pillar/sport", "pillarName": "Sport"}, {"id": "football/2014/oct/28/liverpool-swansea-city-capital-one-cup-match-report", "type": "article", "sectionId": "football", "sectionName": "Football", "webPublicationDate": "2014-10-28T22:17:12Z", "webTitle": "Liverpool 2-1 Swansea City | Capital One Cup fourth-round match report", "webUrl": "https://www.theguardian.com/football/2014/oct/28/liverpool-swansea-city-capital-one-cup-match-report", "apiUrl": "https://content.guardianapis.com/football/2014/oct/28/liverpool-swansea-city-capital-one-cup-match-report", "isHosted": false, "pillarId": "pillar/sport", "pillarName": "Sport"}, {"id": "football/2014/oct/28/fulham-derby-county-capital-one-cup-match-report", "type": "article", "sectionId": "football", "sectionName": "Football", "webPublicationDate": "2014-10-28T22:01:06Z", "webTitle": "Fulham 2-5 Derby County | Capital One Cup fourth-round match report", "webUrl": "https://www.theguardian.com/football/2014/oct/28/fulham-derby-county-capital-one-cup-match-report", "apiUrl": "https://content.guardianapis.com/football/2014/oct/28/fulham-derby-county-capital-one-cup-match-report", "isHosted": false, "pillarId": "pillar/sport", "pillarName": "Sport"}, {"id": "football/2014/oct/28/shrewsbury-town-chelsea-capital-one-cup-match-report", "type": "article", "sectionId": "football", "sectionName": "Football", "webPublicationDate": "2014-10-28T21:56:37Z", "webTitle": "Shrewsbury 1-2 Chelsea | Capital One Cup fourth-round match report", "webUrl": "https://www.theguardian.com/football/2014/oct/28/shrewsbury-town-chelsea-capital-one-cup-match-report", "apiUrl": "https://content.guardianapis.com/football/2014/oct/28/shrewsbury-town-chelsea-capital-one-cup-match-report", "isHosted": false, "pillarId": "pillar/sport", "pillarName": "Sport"}, {"id": "sport/blog/2014/oct/29/away-days-watching-david-villa-in-melbourne", "type": "article", "sectionId": "sport", "sectionName": "Sport", "webPublicationDate": "2014-10-28T20:08:41Z", "webTitle": "Away Days: Watching David Villa in Melbourne", "webUrl": "https://www.theguardian.com/sport/blog/2014/oct/29/away-days-watching-david-villa-in-melbourne", "apiUrl": "https://content.guardianapis.com/sport/blog/2014/oct/29/away-days-watching-david-villa-in-melbourne", "isHosted": false, "pillarId": "pillar/sport", "pillarName": "Sport"}, {"id": "football/blog/2014/oct/28/ballon-dor-ranking-23-man-shortlist", "type": "article", "sectionId": "football", "sectionName": "Football", "webPublicationDate": "2014-10-28T19:12:17Z", "webTitle": "Power rankings: Germans to the fore in 23-man Ballon d\u2019Or shortlist | Paul Doyle", "webUrl": "https://www.theguardian.com/football/blog/2014/oct/28/ballon-dor-ranking-23-man-shortlist", "apiUrl": "https://content.guardianapis.com/football/blog/2014/oct/28/ballon-dor-ranking-23-man-shortlist", "isHosted": false, "pillarId": "pillar/sport", "pillarName": "Sport"}, {"id": "football/2014/oct/28/deandre-yedlin-how-to-make-it-in-america", "type": "article", "sectionId": "football", "sectionName": "Football", "webPublicationDate": "2014-10-28T18:58:55Z", "webTitle": "USMNT's DeAndre Yedlin goes global: 'I know that I can perform'", "webUrl": "https://www.theguardian.com/football/2014/oct/28/deandre-yedlin-how-to-make-it-in-america", "apiUrl": "https://content.guardianapis.com/football/2014/oct/28/deandre-yedlin-how-to-make-it-in-america", "isHosted": false, "pillarId": "pillar/sport", "pillarName": "Sport"}, {"id": "football/blog/2014/oct/28/mike-ashley-rangers-protests-profit", "type": "article", "sectionId": "football", "sectionName": "Football", "webPublicationDate": "2014-10-28T18:38:10Z", "webTitle": "Mike Ashley\u2019s arrival at Rangers might bring both protests and profit", "webUrl": "https://www.theguardian.com/football/blog/2014/oct/28/mike-ashley-rangers-protests-profit", "apiUrl": "https://content.guardianapis.com/football/blog/2014/oct/28/mike-ashley-rangers-protests-profit", "isHosted": false, "pillarId": "pillar/sport", "pillarName": "Sport"}]}}