{"response": {"status": "ok", "userTier": "developer", "total": 37919, "startIndex": 1, "pageSize": 50, "currentPage": 1, "pages": 759, "orderBy": "newest", "results": [{"id": "politics/2013/oct/30/hugh-muirs-diary-freedom-of-information", "type": "article", "sectionId": "politics", "sectionName": "Politics", "webPublicationDate": "2013-10-30T23:00:00Z", "webTitle": "The closed world of an open government | Hugh Muir", "webUrl": "https://www.theguardian.com/politics/2013/oct/30/hugh-muirs-diary-freedom-of-information", "apiUrl": "https://content.guardianapis.com/politics/2013/oct/30/hugh-muirs-diary-freedom-of-information", "isHosted": false, "pillarId": "pillar/news", "pillarName": "News"}, {"id": "environment/2013/oct/30/bearshank-wood-northamptonshire-small-reed", "type": "article", "sectionId": "environment", "sectionName": "Environment", "webPublicationDate": "2013-10-30T20:59:00Z", "webTitle": "Country diary: Bearshank Wood, Northamptonshire: The wood hosts a thick carpet of wood small-reed", "webUrl": "https://www.theguardian.com/environment/2013/oct/30/bearshank-wood-northamptonshire-small-reed", "apiUrl": "https://content.guardianapis.com/environment/2013/oct/30/bearshank-wood-northamptonshire-small-reed", "isHosted": false, "pillarId": "pillar/news", "pillarName": "News"}, {"id": "environment/2013/oct/30/how-many-more-new-species-are-left-to-discover", "type": "liveblog", "sectionId": "environment", "sectionName": "Environment", "webPublicationDate": "2013-10-30T19:12:52Z", "webTitle": "How many more new species are left to discover?", "webUrl": "https://www.theguardian.com/environment/2013/oct/30/how-many-more-new-species-are-left-to-discover", "apiUrl": "https://content.guardianapis.com/environment/2013/oct/30/how-many-more-new-species-are-left-to-discover", "isHosted": false, "pillarId": "pillar/news", "pillarName": "News"}, {"id": "politics/2013/oct/30/frank-kelf-obituary", "type": "article", "sectionId": "politics", "sectionName": "Politics", "webPublicationDate": "2013-10-30T17:31:24Z", "webTitle": "Frank Kelf obituary", "webUrl": "https://www.theguardian.com/politics/2013/oct/30/frank-kelf-obituary", "apiUrl": "https://content.guardianapis.com/politics/2013/oct/30/frank-kelf-obituary", "isHosted": false, "pillarId": "pillar/news", "pillarName": "News"}, {"id": "environment/2013/oct/30/george-monbiot-national-trust-wind-fracking-dame-ghosh", "type": "article", "sectionId": "environment", "sectionName": "Environment", "webPublicationDate": "2013-10-30T15:40:33Z", "webTitle": "George Monbiot is mistaken \u2013 National Trust is not 'anti-wind, pro-fracking' | Dame Helen Ghosh", "webUrl": "https://www.theguardian.com/environment/2013/oct/30/george-monbiot-national-trust-wind-fracking-dame-ghosh", "apiUrl": "https://content.guardianapis.com/environment/2013/oct/30/george-monbiot-national-trust-wind-fracking-dame-ghosh", "isHosted": false, "pillarId": "pillar/news", "pillarName": "News"}, {"id": "global-development/2013/oct/30/how-does-electricity-affect-your-life", "type": "article", "sectionId": "global-development", "sectionName": "Global development", "webPublicationDate": "2013-10-30T15:27:55Z", "webTitle": "How does electricity affect your life?", "webUrl": "https://www.theguardian.com/global-development/2013/oct/30/how-does-electricity-affect-your-life", "apiUrl": "https://content.guardianapis.com/global-development/2013/oct/30/how-does-electricity-affect-your-life", "isHosted": false, "pillarId": "pillar/news", "pillarName": "News"}, {"id": "environment/2013/oct/30/one-third-of-australias-media-coverage-rejects-climate-science-study-finds", "type": "article", "sectionId": "environment", "sectionName": "Environment", "webPublicationDate": "2013-10-30T13:10:16Z", "webTitle": "One third of Australia's media coverage rejects climate science, study finds", "webUrl": "https://www.theguardian.com/environment/2013/oct/30/one-third-of-australias-media-coverage-rejects-climate-science-study-finds", "apiUrl": "https://content.guardianapis.com/environment/2013/oct/30/one-third-of-australias-media-coverage-rejects-climate-science-study-finds", "isHosted": false, "pillarId": "pillar/news", "pillarName": "News"}, {"id": "environment/2013/oct/30/forest-breakthrough-key-2015-climate-deal", "type": "article", "sectionId": "environment", "sectionName": "Environment", "webPublicationDate": "2013-10-30T10:47:50Z", "webTitle": "Forest breakthrough is key to 2015 global climate deal | Globe International", "webUrl": "https://www.theguardian.com/environment/2013/oct/30/forest-breakthrough-key-2015-climate-deal", "apiUrl": "https://content.guardianapis.com/environment/2013/oct/30/forest-breakthrough-key-2015-climate-deal", "isHosted": false, "pillarId": "pillar/news", "pillarName": "News"}, {"id": "environment/2013/oct/30/australian-conservation-foundation-chief-don-henry-to-step-down", "type": "article", "sectionId": "environment", "sectionName": "Environment", "webPublicationDate": "2013-10-30T08:35:41Z", "webTitle": "Australian Conservation Foundation chief Don Henry to step down", "webUrl": "https://www.theguardian.com/environment/2013/oct/30/australian-conservation-foundation-chief-don-henry-to-step-down", "apiUrl": "https://content.guardianapis.com/environment/2013/oct/30/australian-conservation-foundation-chief-don-henry-to-step-down", "isHosted": false, "pillarId": "pillar/news", "pillarName": "News"}, {"id": "environment/gallery/2013/oct/30/nature-spotting-britain-waterways-in-pictures", "type": "gallery", "sectionId": "environment", "sectionName": "Environment", "webPublicationDate": "2013-10-30T08:00:05Z", "webTitle": "Nature-spotting on Britain's waterways - in pictures", "webUrl": "https://www.theguardian.com/environment/gallery/2013/oct/30/nature-spotting-britain-waterways-in-pictures", "apiUrl": "https://content.guardianapis.com/environment/gallery/2013/oct/30/nature-spotting-britain-waterways-in-pictures", "isHosted": false, "pillarId": "pillar/news", "pillarName": "News"}, {"id": "global-development/2013/oct/30/coal-mining-uk-profits-indonesia", "type": "article", "sectionId": "global-development", "sectionName": "Global development", "webPublicationDate": "2013-10-30T07:00:01Z", "webTitle": "Swallowed by coal: UK profits from Indonesia's harmful mining industry | John Vidal", "webUrl": "https://www.theguardian.com/global-development/2013/oct/30/coal-mining-uk-profits-indonesia", "apiUrl": "https://content.guardianapis.com/global-development/2013/oct/30/coal-mining-uk-profits-indonesia", "isHosted": false, "pillarId": "pillar/news", "pillarName": "News"}, {"id": "environment/2013/oct/30/climate-change-chairman-attacks-flip-flopping", "type": "article", "sectionId": "environment", "sectionName": "Environment", "webPublicationDate": "2013-10-30T05:19:11Z", "webTitle": "Climate change chairman attacks policy 'flip-flopping' and lack of consensus", "webUrl": "https://www.theguardian.com/environment/2013/oct/30/climate-change-chairman-attacks-flip-flopping", "apiUrl": "https://content.guardianapis.com/environment/2013/oct/30/climate-change-chairman-attacks-flip-flopping", "isHosted": false, "pillarId": "pillar/news", "pillarName": "News"}, {"id": "environment/2013/oct/30/great-barrier-reef-greg-hunt-inquiry", "type": "article", "sectionId": "environment", "sectionName": "Environment", "webPublicationDate": "2013-10-30T04:04:41Z", "webTitle": "Great Barrier Reef: Greg Hunt orders conflict of interest inquiry", "webUrl": "https://www.theguardian.com/environment/2013/oct/30/great-barrier-reef-greg-hunt-inquiry", "apiUrl": "https://content.guardianapis.com/environment/2013/oct/30/great-barrier-reef-greg-hunt-inquiry", "isHosted": false, "pillarId": "pillar/news", "pillarName": "News"}, {"id": "environment/2013/oct/30/emission-reductions-coalition-appears-determined-to-ignore-the-experts", "type": "article", "sectionId": "environment", "sectionName": "Environment", "webPublicationDate": "2013-10-30T00:31:55Z", "webTitle": "Emission reductions: Coalition appears determined to ignore the experts", "webUrl": "https://www.theguardian.com/environment/2013/oct/30/emission-reductions-coalition-appears-determined-to-ignore-the-experts", "apiUrl": "https://content.guardianapis.com/environment/2013/oct/30/emission-reductions-coalition-appears-determined-to-ignore-the-experts", "isHosted": false, "pillarId": "pillar/news", "pillarName": "News"}, {"id": "environment/2013/oct/30/21m-conservation-grants-landscape-partnership-heritage-lottery-fund", "type": "article", "sectionId": "environment", "sectionName": "Environment", "webPublicationDate": "2013-10-30T00:02:00Z", "webTitle": "\u00a321m in grants awarded to care for nine UK landscapes", "webUrl": "https://www.theguardian.com/environment/2013/oct/30/21m-conservation-grants-landscape-partnership-heritage-lottery-fund", "apiUrl": "https://content.guardianapis.com/environment/2013/oct/30/21m-conservation-grants-landscape-partnership-heritage-lottery-fund", "isHosted": false, "pillarId": "pillar/news", "pillarName": "News"}, {"id": "environment/2013/oct/29/insulation-solar-answers", "type": "article", "sectionId": "environment", "sectionName": "Environment", "webPublicationDate": "2013-10-29T21:00:01Z", "webTitle": "Letters: Insulation and solar are the answers", "webUrl": "https://www.theguardian.com/environment/2013/oct/29/insulation-solar-answers", "apiUrl": "https://content.guardianapis.com/environment/2013/oct/29/insulation-solar-answers", "isHosted": false, "pillarId": "pillar/news", "pillarName": "News"}, {"id": "environment/2013/oct/29/mystery-of-toad-in-tin", "type": "article", "sectionId": "environment", "sectionName": "Environment", "webPublicationDate": "2013-10-29T20:59:00Z", "webTitle": "Country diary: Wenlock Edge: The mystery of the toad in the tin", "webUrl": "https://www.theguardian.com/environment/2013/oct/29/mystery-of-toad-in-tin", "apiUrl": "https://content.guardianapis.com/environment/2013/oct/29/mystery-of-toad-in-tin", "isHosted": false, "pillarId": "pillar/news", "pillarName": "News"}, {"id": "money/gallery/2013/oct/29/eco-homes-for-sale-in-pictures", "type": "gallery", "sectionId": "money", "sectionName": "Money", "webPublicationDate": "2013-10-29T15:40:00Z", "webTitle": "Eco homes for sale \u2013 in pictures", "webUrl": "https://www.theguardian.com/money/gallery/2013/oct/29/eco-homes-for-sale-in-pictures", "apiUrl": "https://content.guardianapis.com/money/gallery/2013/oct/29/eco-homes-for-sale-in-pictures", "isHosted": false, "pillarId": "pillar/lifestyle", "pillarName": "Lifestyle"}, {"id": "environment/2013/oct/29/st-jude-storm-minimal-tree-loss", "type": "article", "sectionId": "environment", "sectionName": "Environment", "webPublicationDate": "2013-10-29T14:48:00Z", "webTitle": "St Jude storm causes minimal tree loss", "webUrl": "https://www.theguardian.com/environment/2013/oct/29/st-jude-storm-minimal-tree-loss", "apiUrl": "https://content.guardianapis.com/environment/2013/oct/29/st-jude-storm-minimal-tree-loss", "isHosted": false, "pillarId": "pillar/news", "pillarName": "News"}, {"id": "science/grrlscientist/2013/oct/29/the-otter-the-spotted-frog-and-great-flood-gerald-hausman-book-review", "type": "article", "sectionId": "science", "sectionName": "Science", "webPublicationDate": "2013-10-29T14:02:00Z", "webTitle": "The Otter, the Spotted Frog and the Great Flood by Gerald Hausman and Ramon Shiloh | Book Review | @GrrlScientist", "webUrl": "https://www.theguardian.com/science/grrlscientist/2013/oct/29/the-otter-the-spotted-frog-and-great-flood-gerald-hausman-book-review", "apiUrl": "https://content.guardianapis.com/science/grrlscientist/2013/oct/29/the-otter-the-spotted-frog-and-great-flood-gerald-hausman-book-review", "isHosted": false, "pillarId": "pillar/news", "pillarName": "News"}, {"id": "science/brain-flapping/2013/oct/29/noahs-ark-modern-science", "type": "article", "sectionId": "science", "sectionName": "Science", "webPublicationDate": "2013-10-29T12:49:00Z", "webTitle": "Noah's Ark: the scientific version | Dean Burnett", "webUrl": "https://www.theguardian.com/science/brain-flapping/2013/oct/29/noahs-ark-modern-science", "apiUrl": "https://content.guardianapis.com/science/brain-flapping/2013/oct/29/noahs-ark-modern-science", "isHosted": false, "pillarId": "pillar/news", "pillarName": "News"}, {"id": "commentisfree/2013/oct/29/british-cant-afford-heat-food-big-six-energy-jack-monroe", "type": "article", "sectionId": "commentisfree", "sectionName": "Opinion", "webPublicationDate": "2013-10-29T12:10:18Z", "webTitle": "Some British people can't afford to heat their food. Aren't we ashamed? | Jack Monroe", "webUrl": "https://www.theguardian.com/commentisfree/2013/oct/29/british-cant-afford-heat-food-big-six-energy-jack-monroe", "apiUrl": "https://content.guardianapis.com/commentisfree/2013/oct/29/british-cant-afford-heat-food-big-six-energy-jack-monroe", "isHosted": false, "pillarId": "pillar/opinion", "pillarName": "Opinion"}, {"id": "business/2013/oct/29/bp-investors-10bn-asset-sale-dividend-oil", "type": "article", "sectionId": "business", "sectionName": "Business", "webPublicationDate": "2013-10-29T12:04:33Z", "webTitle": "BP cheers investors with $10bn asset sale and dividend hike", "webUrl": "https://www.theguardian.com/business/2013/oct/29/bp-investors-10bn-asset-sale-dividend-oil", "apiUrl": "https://content.guardianapis.com/business/2013/oct/29/bp-investors-10bn-asset-sale-dividend-oil", "isHosted": false, "pillarId": "pillar/news", "pillarName": "News"}, {"id": "environment/2013/oct/29/josh-fox-anti-fracking-protest-gasland", "type": "article", "sectionId": "environment", "sectionName": "Environment", "webPublicationDate": "2013-10-29T11:55:25Z", "webTitle": "Josh Fox: anti-fracking protests could stop drilling in the UK", "webUrl": "https://www.theguardian.com/environment/2013/oct/29/josh-fox-anti-fracking-protest-gasland", "apiUrl": "https://content.guardianapis.com/environment/2013/oct/29/josh-fox-anti-fracking-protest-gasland", "isHosted": false, "pillarId": "pillar/news", "pillarName": "News"}, {"id": "environment/2013/oct/29/peruvian-amazon-illegal-goldmines-mapped", "type": "article", "sectionId": "environment", "sectionName": "Environment", "webPublicationDate": "2013-10-29T11:30:09Z", "webTitle": "Extent of Peruvian Amazon lost to illegal goldmines mapped for first time", "webUrl": "https://www.theguardian.com/environment/2013/oct/29/peruvian-amazon-illegal-goldmines-mapped", "apiUrl": "https://content.guardianapis.com/environment/2013/oct/29/peruvian-amazon-illegal-goldmines-mapped", "isHosted": false, "pillarId": "pillar/news", "pillarName": "News"}, {"id": "environment/2013/oct/29/fossil-fuels-divestment-campaign-gather-momentum", "type": "article", "sectionId": "environment", "sectionName": "Environment", "webPublicationDate": "2013-10-29T10:18:42Z", "webTitle": "Fossil fuels divestment campaign is gathering momentum | Bill McKibben", "webUrl": "https://www.theguardian.com/environment/2013/oct/29/fossil-fuels-divestment-campaign-gather-momentum", "apiUrl": "https://content.guardianapis.com/environment/2013/oct/29/fossil-fuels-divestment-campaign-gather-momentum", "isHosted": false, "pillarId": "pillar/news", "pillarName": "News"}, {"id": "commentisfree/2013/oct/29/big-six-energy-giants-hungary-orban-public-sector", "type": "article", "sectionId": "commentisfree", "sectionName": "Opinion", "webPublicationDate": "2013-10-29T08:00:07Z", "webTitle": "Taking on the big six energy giants is not a leftwing delusion \u2013 ask Hungary | Neil Clark", "webUrl": "https://www.theguardian.com/commentisfree/2013/oct/29/big-six-energy-giants-hungary-orban-public-sector", "apiUrl": "https://content.guardianapis.com/commentisfree/2013/oct/29/big-six-energy-giants-hungary-orban-public-sector", "isHosted": false, "pillarId": "pillar/opinion", "pillarName": "Opinion"}, {"id": "technology/2013/oct/29/web-inventor-open-data-institute-new-global-network", "type": "article", "sectionId": "technology", "sectionName": "Technology", "webPublicationDate": "2013-10-29T07:00:00Z", "webTitle": "Web inventor's open data organisation announces new global network", "webUrl": "https://www.theguardian.com/technology/2013/oct/29/web-inventor-open-data-institute-new-global-network", "apiUrl": "https://content.guardianapis.com/technology/2013/oct/29/web-inventor-open-data-institute-new-global-network", "isHosted": false, "pillarId": "pillar/news", "pillarName": "News"}, {"id": "environment/gallery/2013/oct/29/trees-amazon-rainforest-in-pictures", "type": "gallery", "sectionId": "environment", "sectionName": "Environment", "webPublicationDate": "2013-10-29T07:00:00Z", "webTitle": "Trees of the Amazon rainforest - in pictures", "webUrl": "https://www.theguardian.com/environment/gallery/2013/oct/29/trees-amazon-rainforest-in-pictures", "apiUrl": "https://content.guardianapis.com/environment/gallery/2013/oct/29/trees-amazon-rainforest-in-pictures", "isHosted": false, "pillarId": "pillar/news", "pillarName": "News"}, {"id": "environment/2013/oct/29/stick-with-carbon-pricing-labor", "type": "article", "sectionId": "environment", "sectionName": "Environment", "webPublicationDate": "2013-10-29T05:43:50Z", "webTitle": "Labor should stick with carbon pricing, national secretary tells party colleagues", "webUrl": "https://www.theguardian.com/environment/2013/oct/29/stick-with-carbon-pricing-labor", "apiUrl": "https://content.guardianapis.com/environment/2013/oct/29/stick-with-carbon-pricing-labor", "isHosted": false, "pillarId": "pillar/news", "pillarName": "News"}, {"id": "world/2013/oct/29/carbon-farming-its-a-nice-theory-but-dont-get-your-hopes-up", "type": "article", "sectionId": "world", "sectionName": "World news", "webPublicationDate": "2013-10-29T04:42:45Z", "webTitle": "Carbon farming: it's a nice theory, but don't get your hopes up", "webUrl": "https://www.theguardian.com/world/2013/oct/29/carbon-farming-its-a-nice-theory-but-dont-get-your-hopes-up", "apiUrl": "https://content.guardianapis.com/world/2013/oct/29/carbon-farming-its-a-nice-theory-but-dont-get-your-hopes-up", "isHosted": false, "pillarId": "pillar/news", "pillarName": "News"}, {"id": "books/2013/oct/29/the-reef-a-passionate-history-by-iain-mccalman-book-review", "type": "article", "sectionId": "books", "sectionName": "Books", "webPublicationDate": "2013-10-29T04:04:53Z", "webTitle": "The Reef: A Passionate History, by Iain McCalman \u2013 book review", "webUrl": "https://www.theguardian.com/books/2013/oct/29/the-reef-a-passionate-history-by-iain-mccalman-book-review", "apiUrl": "https://content.guardianapis.com/books/2013/oct/29/the-reef-a-passionate-history-by-iain-mccalman-book-review", "isHosted": false, "pillarId": "pillar/arts", "pillarName": "Arts"}, {"id": "environment/planet-oz/2013/oct/29/climate-change-bushfires-smoking-denial-tony-abbott", "type": "article", "sectionId": "environment", "sectionName": "Environment", "webPublicationDate": "2013-10-29T02:32:00Z", "webTitle": "Missing logic of Australian prime minister's denial of climate change link to bushfires | Graham Readfearn", "webUrl": "https://www.theguardian.com/environment/planet-oz/2013/oct/29/climate-change-bushfires-smoking-denial-tony-abbott", "apiUrl": "https://content.guardianapis.com/environment/planet-oz/2013/oct/29/climate-change-bushfires-smoking-denial-tony-abbott", "isHosted": false, "pillarId": "pillar/news", "pillarName": "News"}, {"id": "environment/2013/oct/29/woodchips-producer-apologises-koala-deaths", "type": "article", "sectionId": "environment", "sectionName": "Environment", "webPublicationDate": "2013-10-29T02:17:12Z", "webTitle": "Tree fellers  apologise for causing deaths and horrific injuries to koalas", "webUrl": "https://www.theguardian.com/environment/2013/oct/29/woodchips-producer-apologises-koala-deaths", "apiUrl": "https://content.guardianapis.com/environment/2013/oct/29/woodchips-producer-apologises-koala-deaths", "isHosted": false, "pillarId": "pillar/news", "pillarName": "News"}, {"id": "environment/2013/oct/28/golden-rice-gm-global-menu", "type": "article", "sectionId": "environment", "sectionName": "Environment", "webPublicationDate": "2013-10-28T21:00:02Z", "webTitle": "Letters: Golden rice and its place on the global menu", "webUrl": "https://www.theguardian.com/environment/2013/oct/28/golden-rice-gm-global-menu", "apiUrl": "https://content.guardianapis.com/environment/2013/oct/28/golden-rice-gm-global-menu", "isHosted": false, "pillarId": "pillar/news", "pillarName": "News"}, {"id": "environment/2013/oct/28/somerset-apples-of-concord", "type": "article", "sectionId": "environment", "sectionName": "Environment", "webPublicationDate": "2013-10-28T21:00:00Z", "webTitle": "Country diary: Henstridge, Somerset: Apples of concord", "webUrl": "https://www.theguardian.com/environment/2013/oct/28/somerset-apples-of-concord", "apiUrl": "https://content.guardianapis.com/environment/2013/oct/28/somerset-apples-of-concord", "isHosted": false, "pillarId": "pillar/news", "pillarName": "News"}, {"id": "politics/2013/oct/28/grangemouth-unite-official-quits", "type": "article", "sectionId": "uk-news", "sectionName": "UK news", "webPublicationDate": "2013-10-28T19:58:32Z", "webTitle": "Grangemouth Unite official quits before he gets the boot", "webUrl": "https://www.theguardian.com/politics/2013/oct/28/grangemouth-unite-official-quits", "apiUrl": "https://content.guardianapis.com/politics/2013/oct/28/grangemouth-unite-official-quits", "isHosted": false, "pillarId": "pillar/news", "pillarName": "News"}, {"id": "environment/2013/oct/28/arctic-30-cameron-putin-greenpeace", "type": "article", "sectionId": "environment", "sectionName": "Environment", "webPublicationDate": "2013-10-28T19:13:29Z", "webTitle": "David Cameron may speak to Vladimir Putin directly over Arctic 30 arrests", "webUrl": "https://www.theguardian.com/environment/2013/oct/28/arctic-30-cameron-putin-greenpeace", "apiUrl": "https://content.guardianapis.com/environment/2013/oct/28/arctic-30-cameron-putin-greenpeace", "isHosted": false, "pillarId": "pillar/news", "pillarName": "News"}, {"id": "uk-news/scotland-blog/2013/oct/28/scotland-conservation-policy", "type": "article", "sectionId": "uk-news", "sectionName": "UK news", "webPublicationDate": "2013-10-28T16:52:00Z", "webTitle": "Scotland's worthy green goals need tougher action, not words", "webUrl": "https://www.theguardian.com/uk-news/scotland-blog/2013/oct/28/scotland-conservation-policy", "apiUrl": "https://content.guardianapis.com/uk-news/scotland-blog/2013/oct/28/scotland-conservation-policy", "isHosted": false, "pillarId": "pillar/news", "pillarName": "News"}, {"id": "environment/2013/oct/28/scottish-government-failing-climate-wildlife", "type": "article", "sectionId": "environment", "sectionName": "Environment", "webPublicationDate": "2013-10-28T16:32:04Z", "webTitle": "Scottish government 'failing to live up to climate and wildlife promises'", "webUrl": "https://www.theguardian.com/environment/2013/oct/28/scottish-government-failing-climate-wildlife", "apiUrl": "https://content.guardianapis.com/environment/2013/oct/28/scottish-government-failing-climate-wildlife", "isHosted": false, "pillarId": "pillar/news", "pillarName": "News"}, {"id": "environment/2013/oct/28/greenpeace-arctic-30-russia-jails", "type": "article", "sectionId": "environment", "sectionName": "Environment", "webPublicationDate": "2013-10-28T16:31:55Z", "webTitle": "Greenpeace Arctic 30's plight highlights the inhumanity of Russia's jails", "webUrl": "https://www.theguardian.com/environment/2013/oct/28/greenpeace-arctic-30-russia-jails", "apiUrl": "https://content.guardianapis.com/environment/2013/oct/28/greenpeace-arctic-30-russia-jails", "isHosted": false, "pillarId": "pillar/news", "pillarName": "News"}, {"id": "environment/2013/oct/28/bbc-coverage-favouring-climate-change-sceptics", "type": "article", "sectionId": "environment", "sectionName": "Environment", "webPublicationDate": "2013-10-28T15:49:53Z", "webTitle": "BBC coverage criticised for favouring climate change sceptics", "webUrl": "https://www.theguardian.com/environment/2013/oct/28/bbc-coverage-favouring-climate-change-sceptics", "apiUrl": "https://content.guardianapis.com/environment/2013/oct/28/bbc-coverage-favouring-climate-change-sceptics", "isHosted": false, "pillarId": "pillar/news", "pillarName": "News"}, {"id": "commentisfree/2013/oct/28/price-mile-highway-bike-friendly-city", "type": "article", "sectionId": "environment", "sectionName": "Environment", "webPublicationDate": "2013-10-28T13:45:00Z", "webTitle": "For the price of a mile of highway, you too can have a bike-friendly city | Elly Blue", "webUrl": "https://www.theguardian.com/commentisfree/2013/oct/28/price-mile-highway-bike-friendly-city", "apiUrl": "https://content.guardianapis.com/commentisfree/2013/oct/28/price-mile-highway-bike-friendly-city", "isHosted": false, "pillarId": "pillar/news", "pillarName": "News"}, {"id": "environment/gallery/2013/oct/28/lost-world-new-species-australia-in-pictures", "type": "gallery", "sectionId": "environment", "sectionName": "Environment", "webPublicationDate": "2013-10-28T13:40:00Z", "webTitle": "\u2018Lost world\u2019 of new species discovered in Australia - in pictures", "webUrl": "https://www.theguardian.com/environment/gallery/2013/oct/28/lost-world-new-species-australia-in-pictures", "apiUrl": "https://content.guardianapis.com/environment/gallery/2013/oct/28/lost-world-new-species-australia-in-pictures", "isHosted": false, "pillarId": "pillar/news", "pillarName": "News"}, {"id": "environment/2013/oct/28/gecko-leaf-new-species-australia-skink-frog-queensland", "type": "article", "sectionId": "environment", "sectionName": "Environment", "webPublicationDate": "2013-10-28T13:28:37Z", "webTitle": "Gecko that looks like a leaf among new species found in Australia's 'lost world'", "webUrl": "https://www.theguardian.com/environment/2013/oct/28/gecko-leaf-new-species-australia-skink-frog-queensland", "apiUrl": "https://content.guardianapis.com/environment/2013/oct/28/gecko-leaf-new-species-australia-skink-frog-queensland", "isHosted": false, "pillarId": "pillar/news", "pillarName": "News"}, {"id": "global-development/2013/oct/28/ethiopia-opens-africa-biggest-windfarm", "type": "article", "sectionId": "global-development", "sectionName": "Global development", "webPublicationDate": "2013-10-28T13:07:56Z", "webTitle": "Ethiopia opens Africa's biggest windfarm", "webUrl": "https://www.theguardian.com/global-development/2013/oct/28/ethiopia-opens-africa-biggest-windfarm", "apiUrl": "https://content.guardianapis.com/global-development/2013/oct/28/ethiopia-opens-africa-biggest-windfarm", "isHosted": false, "pillarId": "pillar/news", "pillarName": "News"}, {"id": "science/small-world/2013/oct/28/big-nanotech-unexpected-future-apm", "type": "article", "sectionId": "science", "sectionName": "Science", "webPublicationDate": "2013-10-28T12:52:43Z", "webTitle": "Big nanotech: an unexpected future | Eric Drexler", "webUrl": "https://www.theguardian.com/science/small-world/2013/oct/28/big-nanotech-unexpected-future-apm", "apiUrl": "https://content.guardianapis.com/science/small-world/2013/oct/28/big-nanotech-unexpected-future-apm", "isHosted": false, "pillarId": "pillar/news", "pillarName": "News"}, {"id": "environment/blog/2013/oct/28/jeremy-paxman-litterbugs", "type": "article", "sectionId": "environment", "sectionName": "Environment", "webPublicationDate": "2013-10-28T11:08:36Z", "webTitle": "Should you challenge litterbugs like Jeremy Paxman does?", "webUrl": "https://www.theguardian.com/environment/blog/2013/oct/28/jeremy-paxman-litterbugs", "apiUrl": "https://content.guardianapis.com/environment/blog/2013/oct/28/jeremy-paxman-litterbugs", "isHosted": false, "pillarId": "pillar/news", "pillarName": "News"}, {"id": "commentisfree/video/2013/oct/28/nuclear-power-solution-energy-needs-debate-video", "type": "video", "sectionId": "commentisfree", "sectionName": "Opinion", "webPublicationDate": "2013-10-28T09:00:00Z", "webTitle": "Is nuclear power the solution to our energy needs? \u2013 five-minute video debate", "webUrl": "https://www.theguardian.com/commentisfree/video/2013/oct/28/nuclear-power-solution-energy-needs-debate-video", "apiUrl": "https://content.guardianapis.com/commentisfree/video/2013/oct/28/nuclear-power-solution-energy-needs-debate-video", "isHosted": false, "pillarId": "pillar/opinion", "pillarName": "Opinion"}, {"id": "science/video/2013/oct/28/cans-recycling-spanish-twist", "type": "video", "sectionId": "science", "sectionName": "Science", "webPublicationDate": "2013-10-28T07:00:00Z", "webTitle": "Cans: recycling with a Spanish twist \u2013 video", "webUrl": "https://www.theguardian.com/science/video/2013/oct/28/cans-recycling-spanish-twist", "apiUrl": "https://content.guardianapis.com/science/video/2013/oct/28/cans-recycling-spanish-twist", "isHosted": false, "pillarId": "pillar/news", "pillarName": "News"}]}}