{"response": {"status": "ok", "userTier": "developer", "total": 83682, "startIndex": 1, "pageSize": 50, "currentPage": 1, "pages": 1674, "orderBy": "newest", "results": [{"id": "football/2010/oct/31/black-football-managers", "type": "article", "sectionId": "football", "sectionName": "Football", "webPublicationDate": "2010-10-30T23:11:13Z", "webTitle": "The lack of black football managers is a problem that won't go away", "webUrl": "https://www.theguardian.com/football/2010/oct/31/black-football-managers", "apiUrl": "https://content.guardianapis.com/football/2010/oct/31/black-football-managers", "isHosted": false, "pillarId": "pillar/sport", "pillarName": "Sport"}, {"id": "football/blog/2010/oct/31/2018-world-cup-bid-england", "type": "article", "sectionId": "football", "sectionName": "Football", "webPublicationDate": "2010-10-30T23:11:12Z", "webTitle": "The more I hear of the World Cup bid the more I like bog-snorkelling | Paul Wilson", "webUrl": "https://www.theguardian.com/football/blog/2010/oct/31/2018-world-cup-bid-england", "apiUrl": "https://content.guardianapis.com/football/blog/2010/oct/31/2018-world-cup-bid-england", "isHosted": false, "pillarId": "pillar/sport", "pillarName": "Sport"}, {"id": "football/2010/oct/31/cardiff-jay-bothroyd", "type": "article", "sectionId": "football", "sectionName": "Football", "webPublicationDate": "2010-10-30T23:11:02Z", "webTitle": "On Song: Cardiff City's Jay Bothroyd", "webUrl": "https://www.theguardian.com/football/2010/oct/31/cardiff-jay-bothroyd", "apiUrl": "https://content.guardianapis.com/football/2010/oct/31/cardiff-jay-bothroyd", "isHosted": false, "pillarId": "pillar/sport", "pillarName": "Sport"}, {"id": "commentisfree/2010/oct/31/dundee-football-european-cup", "type": "article", "sectionId": "commentisfree", "sectionName": "Opinion", "webPublicationDate": "2010-10-30T23:09:41Z", "webTitle": "Dundee FC really needs the Cameronians now | Kevin McKenna", "webUrl": "https://www.theguardian.com/commentisfree/2010/oct/31/dundee-football-european-cup", "apiUrl": "https://content.guardianapis.com/commentisfree/2010/oct/31/dundee-football-european-cup", "isHosted": false, "pillarId": "pillar/opinion", "pillarName": "Opinion"}, {"id": "football/2010/oct/31/said-and-done-fifa-corruption", "type": "article", "sectionId": "football", "sectionName": "Football", "webPublicationDate": "2010-10-30T23:05:00Z", "webTitle": "Said & Done | David Hills", "webUrl": "https://www.theguardian.com/football/2010/oct/31/said-and-done-fifa-corruption", "apiUrl": "https://content.guardianapis.com/football/2010/oct/31/said-and-done-fifa-corruption", "isHosted": false, "pillarId": "pillar/sport", "pillarName": "Sport"}, {"id": "football/blog/2010/oct/30/javier-hernandez-manchester-united-wayne-rooney", "type": "article", "sectionId": "football", "sectionName": "Football", "webPublicationDate": "2010-10-30T21:56:03Z", "webTitle": "Javier Hern\u00e1ndez's emergence is a threat to Wayne Rooney | Paul Hayward", "webUrl": "https://www.theguardian.com/football/blog/2010/oct/30/javier-hernandez-manchester-united-wayne-rooney", "apiUrl": "https://content.guardianapis.com/football/blog/2010/oct/30/javier-hernandez-manchester-united-wayne-rooney", "isHosted": false, "pillarId": "pillar/sport", "pillarName": "Sport"}, {"id": "sport/blog/2010/oct/30/dougie-mcdonald-penalty-sfa", "type": "article", "sectionId": "football", "sectionName": "Football", "webPublicationDate": "2010-10-30T21:35:00Z", "webTitle": "Dougie McDonald penalty saga exposes need for SFA transparency", "webUrl": "https://www.theguardian.com/sport/blog/2010/oct/30/dougie-mcdonald-penalty-sfa", "apiUrl": "https://content.guardianapis.com/sport/blog/2010/oct/30/dougie-mcdonald-penalty-sfa", "isHosted": false, "pillarId": "pillar/sport", "pillarName": "Sport"}, {"id": "football/2010/oct/30/observer-fans-network", "type": "article", "sectionId": "football", "sectionName": "Football", "webPublicationDate": "2010-10-30T21:08:12Z", "webTitle": "Championship Verdict: The Observer fans' network on Saturday's matches", "webUrl": "https://www.theguardian.com/football/2010/oct/30/observer-fans-network", "apiUrl": "https://content.guardianapis.com/football/2010/oct/30/observer-fans-network", "isHosted": false, "pillarId": "pillar/sport", "pillarName": "Sport"}, {"id": "football/2010/oct/30/bolo-zenden-sunderland", "type": "article", "sectionId": "football", "sectionName": "Football", "webPublicationDate": "2010-10-30T21:00:02Z", "webTitle": "Sunderland's Bolo Zenden eager to add Tyne-Wear to his list of derbies", "webUrl": "https://www.theguardian.com/football/2010/oct/30/bolo-zenden-sunderland", "apiUrl": "https://content.guardianapis.com/football/2010/oct/30/bolo-zenden-sunderland", "isHosted": false, "pillarId": "pillar/sport", "pillarName": "Sport"}, {"id": "football/2010/oct/30/russia-2018-world-cup-allegations", "type": "article", "sectionId": "football", "sectionName": "Football", "webPublicationDate": "2010-10-30T21:00:02Z", "webTitle": "Russia's 2018 World Cup bid attacks new 'bribery' allegations", "webUrl": "https://www.theguardian.com/football/2010/oct/30/russia-2018-world-cup-allegations", "apiUrl": "https://content.guardianapis.com/football/2010/oct/30/russia-2018-world-cup-allegations", "isHosted": false, "pillarId": "pillar/sport", "pillarName": "Sport"}, {"id": "football/2010/oct/30/barcelona-sevilla-live", "type": "article", "sectionId": "football", "sectionName": "Football", "webPublicationDate": "2010-10-30T18:47:10Z", "webTitle": "Barcelona v Sevilla - as it happened | Jacob Steinberg", "webUrl": "https://www.theguardian.com/football/2010/oct/30/barcelona-sevilla-live", "apiUrl": "https://content.guardianapis.com/football/2010/oct/30/barcelona-sevilla-live", "isHosted": false, "pillarId": "pillar/sport", "pillarName": "Sport"}, {"id": "football/2010/oct/30/manchester-united-tottenham-hotspur-premier-league", "type": "article", "sectionId": "football", "sectionName": "Football", "webPublicationDate": "2010-10-30T18:43:34Z", "webTitle": "Manchester United 2-0 Tottenham Hotspur | Premier League match report", "webUrl": "https://www.theguardian.com/football/2010/oct/30/manchester-united-tottenham-hotspur-premier-league", "apiUrl": "https://content.guardianapis.com/football/2010/oct/30/manchester-united-tottenham-hotspur-premier-league", "isHosted": false, "pillarId": "pillar/sport", "pillarName": "Sport"}, {"id": "football/2010/oct/30/milan-juventus-live-scores", "type": "article", "sectionId": "football", "sectionName": "Football", "webPublicationDate": "2010-10-30T17:58:13Z", "webTitle": "Milan 1-2 Juventus \u2013 as it happened | Tom Lutz", "webUrl": "https://www.theguardian.com/football/2010/oct/30/milan-juventus-live-scores", "apiUrl": "https://content.guardianapis.com/football/2010/oct/30/milan-juventus-live-scores", "isHosted": false, "pillarId": "pillar/sport", "pillarName": "Sport"}, {"id": "football/2010/oct/30/crystal-palace-swansea-city-championship", "type": "article", "sectionId": "football", "sectionName": "Football", "webPublicationDate": "2010-10-30T17:48:23Z", "webTitle": "Crystal Palace 0-3 Swansea City | Championship match report", "webUrl": "https://www.theguardian.com/football/2010/oct/30/crystal-palace-swansea-city-championship", "apiUrl": "https://content.guardianapis.com/football/2010/oct/30/crystal-palace-swansea-city-championship", "isHosted": false, "pillarId": "pillar/sport", "pillarName": "Sport"}, {"id": "football/2010/oct/30/celtic-st-johnstone-niall-mcginn", "type": "article", "sectionId": "football", "sectionName": "Football", "webPublicationDate": "2010-10-30T17:01:49Z", "webTitle": "Celtic close gap after Niall McGinn stars in win over St Johnstone", "webUrl": "https://www.theguardian.com/football/2010/oct/30/celtic-st-johnstone-niall-mcginn", "apiUrl": "https://content.guardianapis.com/football/2010/oct/30/celtic-st-johnstone-niall-mcginn", "isHosted": false, "pillarId": "pillar/sport", "pillarName": "Sport"}, {"id": "football/football-league-blog/2010/oct/30/football-league-discussion", "type": "article", "sectionId": "football", "sectionName": "Football", "webPublicationDate": "2010-10-30T16:26:00Z", "webTitle": "Football League: your thoughts | Tom Lutz", "webUrl": "https://www.theguardian.com/football/football-league-blog/2010/oct/30/football-league-discussion", "apiUrl": "https://content.guardianapis.com/football/football-league-blog/2010/oct/30/football-league-discussion", "isHosted": false, "pillarId": "pillar/sport", "pillarName": "Sport"}, {"id": "football/2010/oct/30/rangers-inverness-caledonian-thistle", "type": "article", "sectionId": "football", "sectionName": "Football", "webPublicationDate": "2010-10-30T16:20:42Z", "webTitle": "Rangers 1-1 Inverness Caledonian Thistle | Scottish Premier League match report", "webUrl": "https://www.theguardian.com/football/2010/oct/30/rangers-inverness-caledonian-thistle", "apiUrl": "https://content.guardianapis.com/football/2010/oct/30/rangers-inverness-caledonian-thistle", "isHosted": false, "pillarId": "pillar/sport", "pillarName": "Sport"}, {"id": "football/2010/oct/30/arsenal-west-ham-united-premier-league", "type": "article", "sectionId": "football", "sectionName": "Football", "webPublicationDate": "2010-10-30T16:16:32Z", "webTitle": "Arsenal 1-0 West Ham United | Premier League match report", "webUrl": "https://www.theguardian.com/football/2010/oct/30/arsenal-west-ham-united-premier-league", "apiUrl": "https://content.guardianapis.com/football/2010/oct/30/arsenal-west-ham-united-premier-league", "isHosted": false, "pillarId": "pillar/sport", "pillarName": "Sport"}, {"id": "football/2010/oct/30/blackburn-chelsea-premier-league", "type": "article", "sectionId": "football", "sectionName": "Football", "webPublicationDate": "2010-10-30T16:13:09Z", "webTitle": "Blackburn Rovers 1-2 Chelsea | Premier League match report", "webUrl": "https://www.theguardian.com/football/2010/oct/30/blackburn-chelsea-premier-league", "apiUrl": "https://content.guardianapis.com/football/2010/oct/30/blackburn-chelsea-premier-league", "isHosted": false, "pillarId": "pillar/sport", "pillarName": "Sport"}, {"id": "football/2010/oct/30/fulham-wigan-athletic-premier-league", "type": "article", "sectionId": "football", "sectionName": "Football", "webPublicationDate": "2010-10-30T16:05:26Z", "webTitle": "Fulham 2-0 Wigan Athletic | Premier League match report", "webUrl": "https://www.theguardian.com/football/2010/oct/30/fulham-wigan-athletic-premier-league", "apiUrl": "https://content.guardianapis.com/football/2010/oct/30/fulham-wigan-athletic-premier-league", "isHosted": false, "pillarId": "pillar/sport", "pillarName": "Sport"}, {"id": "football/2010/oct/30/everton-stoke-city-premier-league", "type": "article", "sectionId": "football", "sectionName": "Football", "webPublicationDate": "2010-10-30T16:01:15Z", "webTitle": "Everton 1-0 Stoke City | Premier League match report", "webUrl": "https://www.theguardian.com/football/2010/oct/30/everton-stoke-city-premier-league", "apiUrl": "https://content.guardianapis.com/football/2010/oct/30/everton-stoke-city-premier-league", "isHosted": false, "pillarId": "pillar/sport", "pillarName": "Sport"}, {"id": "football/2010/oct/30/manchester-united-tottenham-hotspur-live", "type": "article", "sectionId": "football", "sectionName": "Football", "webPublicationDate": "2010-10-30T15:44:38Z", "webTitle": "Manchester United v Tottenham Hotspur - as it happened", "webUrl": "https://www.theguardian.com/football/2010/oct/30/manchester-united-tottenham-hotspur-live", "apiUrl": "https://content.guardianapis.com/football/2010/oct/30/manchester-united-tottenham-hotspur-live", "isHosted": false, "pillarId": "pillar/sport", "pillarName": "Sport"}, {"id": "football/2010/oct/30/premier-league-clock-watch", "type": "article", "sectionId": "football", "sectionName": "Football", "webPublicationDate": "2010-10-30T12:39:13Z", "webTitle": "Premier League clockwatch - as it happened | Jacob Steinberg", "webUrl": "https://www.theguardian.com/football/2010/oct/30/premier-league-clock-watch", "apiUrl": "https://content.guardianapis.com/football/2010/oct/30/premier-league-clock-watch", "isHosted": false, "pillarId": "pillar/sport", "pillarName": "Sport"}, {"id": "football/2010/oct/30/liverpool-fernando-torres-jose-reina", "type": "article", "sectionId": "football", "sectionName": "Football", "webPublicationDate": "2010-10-30T00:06:19Z", "webTitle": "Liverpool owner says Fernando Torres and Jos\u00e9 Reina are going nowhere", "webUrl": "https://www.theguardian.com/football/2010/oct/30/liverpool-fernando-torres-jose-reina", "apiUrl": "https://content.guardianapis.com/football/2010/oct/30/liverpool-fernando-torres-jose-reina", "isHosted": false, "pillarId": "pillar/sport", "pillarName": "Sport"}, {"id": "football/2010/oct/30/blackburn-rovers-chelsea-sam-allardyce-nicolas-anelka", "type": "article", "sectionId": "football", "sectionName": "Football", "webPublicationDate": "2010-10-29T23:08:58Z", "webTitle": "Blackburn's Sam Allardyce wary of Nicolas Anelka's finishing skills", "webUrl": "https://www.theguardian.com/football/2010/oct/30/blackburn-rovers-chelsea-sam-allardyce-nicolas-anelka", "apiUrl": "https://content.guardianapis.com/football/2010/oct/30/blackburn-rovers-chelsea-sam-allardyce-nicolas-anelka", "isHosted": false, "pillarId": "pillar/sport", "pillarName": "Sport"}, {"id": "football/2010/oct/30/cheik-tiote-newcastle-united", "type": "article", "sectionId": "football", "sectionName": "Football", "webPublicationDate": "2010-10-29T23:08:57Z", "webTitle": "Cheik Tiot\u00e9: I miss Africa but Newcastle is perfect for me", "webUrl": "https://www.theguardian.com/football/2010/oct/30/cheik-tiote-newcastle-united", "apiUrl": "https://content.guardianapis.com/football/2010/oct/30/cheik-tiote-newcastle-united", "isHosted": false, "pillarId": "pillar/sport", "pillarName": "Sport"}, {"id": "football/blog/2010/oct/30/punditry-match-of-the-day", "type": "article", "sectionId": "football", "sectionName": "Football", "webPublicationDate": "2010-10-29T23:00:12Z", "webTitle": "Why punditry is a game the English cannot win | Barney Ronay", "webUrl": "https://www.theguardian.com/football/blog/2010/oct/30/punditry-match-of-the-day", "apiUrl": "https://content.guardianapis.com/football/blog/2010/oct/30/punditry-match-of-the-day", "isHosted": false, "pillarId": "pillar/sport", "pillarName": "Sport"}, {"id": "football/blog/2010/oct/29/tottenham-hotspur-manchester-united", "type": "article", "sectionId": "football", "sectionName": "Football", "webPublicationDate": "2010-10-29T22:12:00Z", "webTitle": "Tottenham need to make statement of intent at Manchester United", "webUrl": "https://www.theguardian.com/football/blog/2010/oct/29/tottenham-hotspur-manchester-united", "apiUrl": "https://content.guardianapis.com/football/blog/2010/oct/29/tottenham-hotspur-manchester-united", "isHosted": false, "pillarId": "pillar/sport", "pillarName": "Sport"}, {"id": "football/2010/oct/29/matthew-etherington-stoke-help-debts", "type": "article", "sectionId": "football", "sectionName": "Football", "webPublicationDate": "2010-10-29T21:30:01Z", "webTitle": "Matthew Etherington is paying back Stoke City in more ways than one", "webUrl": "https://www.theguardian.com/football/2010/oct/29/matthew-etherington-stoke-help-debts", "apiUrl": "https://content.guardianapis.com/football/2010/oct/29/matthew-etherington-stoke-help-debts", "isHosted": false, "pillarId": "pillar/sport", "pillarName": "Sport"}, {"id": "football/2010/oct/29/arsenal-jack-wilshere-contract", "type": "article", "sectionId": "football", "sectionName": "Football", "webPublicationDate": "2010-10-29T21:30:01Z", "webTitle": "Arsenal to reward Jack Wilshere's form with new contract", "webUrl": "https://www.theguardian.com/football/2010/oct/29/arsenal-jack-wilshere-contract", "apiUrl": "https://content.guardianapis.com/football/2010/oct/29/arsenal-jack-wilshere-contract", "isHosted": false, "pillarId": "pillar/sport", "pillarName": "Sport"}, {"id": "football/2010/oct/29/lukasz-fabianski-arsenal", "type": "article", "sectionId": "football", "sectionName": "Football", "webPublicationDate": "2010-10-29T21:30:00Z", "webTitle": "Arsenal at last feel Lukasz Fabianski will no longer cost them dear", "webUrl": "https://www.theguardian.com/football/2010/oct/29/lukasz-fabianski-arsenal", "apiUrl": "https://content.guardianapis.com/football/2010/oct/29/lukasz-fabianski-arsenal", "isHosted": false, "pillarId": "pillar/sport", "pillarName": "Sport"}, {"id": "football/blog/2010/oct/29/alex-mcleish-birmingham-aston-villa-derby", "type": "article", "sectionId": "football", "sectionName": "Football", "webPublicationDate": "2010-10-29T21:29:02Z", "webTitle": "Alex McLeish desperate to end Birmingham pain in West Midlands derby | Stuart James", "webUrl": "https://www.theguardian.com/football/blog/2010/oct/29/alex-mcleish-birmingham-aston-villa-derby", "apiUrl": "https://content.guardianapis.com/football/blog/2010/oct/29/alex-mcleish-birmingham-aston-villa-derby", "isHosted": false, "pillarId": "pillar/sport", "pillarName": "Sport"}, {"id": "football/2010/oct/29/birmingham-city-stephen-carr-aston-villa", "type": "article", "sectionId": "football", "sectionName": "Football", "webPublicationDate": "2010-10-29T21:29:01Z", "webTitle": "Birmingham City's Stephen Carr has no regrets about Aston Villa gesture", "webUrl": "https://www.theguardian.com/football/2010/oct/29/birmingham-city-stephen-carr-aston-villa", "apiUrl": "https://content.guardianapis.com/football/2010/oct/29/birmingham-city-stephen-carr-aston-villa", "isHosted": false, "pillarId": "pillar/sport", "pillarName": "Sport"}, {"id": "football/2010/oct/29/sir-alex-ferguson-wayne-rooney", "type": "article", "sectionId": "football", "sectionName": "Football", "webPublicationDate": "2010-10-29T21:29:01Z", "webTitle": "Sir Alex Ferguson tells Wayne Rooney he faces a fight for his place", "webUrl": "https://www.theguardian.com/football/2010/oct/29/sir-alex-ferguson-wayne-rooney", "apiUrl": "https://content.guardianapis.com/football/2010/oct/29/sir-alex-ferguson-wayne-rooney", "isHosted": false, "pillarId": "pillar/sport", "pillarName": "Sport"}, {"id": "football/2010/oct/29/manchester-city-drining-roberto-mancini", "type": "article", "sectionId": "football", "sectionName": "Football", "webPublicationDate": "2010-10-29T21:29:01Z", "webTitle": "Manchester City's drinking culture of great concern to Roberto Mancini", "webUrl": "https://www.theguardian.com/football/2010/oct/29/manchester-city-drining-roberto-mancini", "apiUrl": "https://content.guardianapis.com/football/2010/oct/29/manchester-city-drining-roberto-mancini", "isHosted": false, "pillarId": "pillar/sport", "pillarName": "Sport"}, {"id": "football/2010/oct/29/dougie-mcdonald-sfa-warning-penalty-celtic", "type": "article", "sectionId": "football", "sectionName": "Football", "webPublicationDate": "2010-10-29T21:00:03Z", "webTitle": "Referee at centre of Celtic penalty incident escapes with a warning", "webUrl": "https://www.theguardian.com/football/2010/oct/29/dougie-mcdonald-sfa-warning-penalty-celtic", "apiUrl": "https://content.guardianapis.com/football/2010/oct/29/dougie-mcdonald-sfa-warning-penalty-celtic", "isHosted": false, "pillarId": "pillar/sport", "pillarName": "Sport"}, {"id": "football/2010/oct/29/steve-bruce-sunderland-newcastle", "type": "article", "sectionId": "football", "sectionName": "Football", "webPublicationDate": "2010-10-29T21:00:02Z", "webTitle": "Steve Bruce remembers debt to Sir Bobby Robson before north-east derby", "webUrl": "https://www.theguardian.com/football/2010/oct/29/steve-bruce-sunderland-newcastle", "apiUrl": "https://content.guardianapis.com/football/2010/oct/29/steve-bruce-sunderland-newcastle", "isHosted": false, "pillarId": "pillar/sport", "pillarName": "Sport"}, {"id": "football/2010/oct/29/chris-hughton-steve-bruce-newcastle", "type": "article", "sectionId": "football", "sectionName": "Football", "webPublicationDate": "2010-10-29T21:00:01Z", "webTitle": "Chris Hughton humbled by Steve Bruce's anger over Newcastle rumours", "webUrl": "https://www.theguardian.com/football/2010/oct/29/chris-hughton-steve-bruce-newcastle", "apiUrl": "https://content.guardianapis.com/football/2010/oct/29/chris-hughton-steve-bruce-newcastle", "isHosted": false, "pillarId": "pillar/sport", "pillarName": "Sport"}, {"id": "football/2010/oct/29/newcastle-kevin-nolan-andy-carroll", "type": "article", "sectionId": "football", "sectionName": "Football", "webPublicationDate": "2010-10-29T21:00:01Z", "webTitle": "Newcastle's Kevin Nolan and Andy Carroll settle down to domestic life", "webUrl": "https://www.theguardian.com/football/2010/oct/29/newcastle-kevin-nolan-andy-carroll", "apiUrl": "https://content.guardianapis.com/football/2010/oct/29/newcastle-kevin-nolan-andy-carroll", "isHosted": false, "pillarId": "pillar/sport", "pillarName": "Sport"}, {"id": "football/2010/oct/29/ashley-cole-carlo-ancelotti-chelsea", "type": "article", "sectionId": "football", "sectionName": "Football", "webPublicationDate": "2010-10-29T20:59:00Z", "webTitle": "Ashley Cole is best left-back in the world, says Carlo Ancelotti", "webUrl": "https://www.theguardian.com/football/2010/oct/29/ashley-cole-carlo-ancelotti-chelsea", "apiUrl": "https://content.guardianapis.com/football/2010/oct/29/ashley-cole-carlo-ancelotti-chelsea", "isHosted": false, "pillarId": "pillar/sport", "pillarName": "Sport"}, {"id": "football/2010/oct/29/england-russia-fifa-2018-world-cup", "type": "article", "sectionId": "football", "sectionName": "Football", "webPublicationDate": "2010-10-29T20:45:00Z", "webTitle": "Latest attack leaves England's 2018 World Cup bid trailing Russia", "webUrl": "https://www.theguardian.com/football/2010/oct/29/england-russia-fifa-2018-world-cup", "apiUrl": "https://content.guardianapis.com/football/2010/oct/29/england-russia-fifa-2018-world-cup", "isHosted": false, "pillarId": "pillar/sport", "pillarName": "Sport"}, {"id": "football/2010/oct/29/squad-sheets-fulham-wigan-athletic", "type": "article", "sectionId": "football", "sectionName": "Football", "webPublicationDate": "2010-10-29T18:00:49Z", "webTitle": "Squad sheets: Fulham v Wigan Athletic", "webUrl": "https://www.theguardian.com/football/2010/oct/29/squad-sheets-fulham-wigan-athletic", "apiUrl": "https://content.guardianapis.com/football/2010/oct/29/squad-sheets-fulham-wigan-athletic", "isHosted": false, "pillarId": "pillar/sport", "pillarName": "Sport"}, {"id": "football/2010/oct/29/squad-sheets-arsenal-west-ham-united", "type": "article", "sectionId": "football", "sectionName": "Football", "webPublicationDate": "2010-10-29T17:09:37Z", "webTitle": "Squad sheets: Arsenal v West Ham United", "webUrl": "https://www.theguardian.com/football/2010/oct/29/squad-sheets-arsenal-west-ham-united", "apiUrl": "https://content.guardianapis.com/football/2010/oct/29/squad-sheets-arsenal-west-ham-united", "isHosted": false, "pillarId": "pillar/sport", "pillarName": "Sport"}, {"id": "football/2010/oct/29/squad-sheets-aston-villa-birmingham-city", "type": "article", "sectionId": "football", "sectionName": "Football", "webPublicationDate": "2010-10-29T17:05:12Z", "webTitle": "Squad sheets: Aston Villa v Birmingham City", "webUrl": "https://www.theguardian.com/football/2010/oct/29/squad-sheets-aston-villa-birmingham-city", "apiUrl": "https://content.guardianapis.com/football/2010/oct/29/squad-sheets-aston-villa-birmingham-city", "isHosted": false, "pillarId": "pillar/sport", "pillarName": "Sport"}, {"id": "football/2010/oct/29/squad-sheets-blackpool-west-bromwich-albion", "type": "article", "sectionId": "football", "sectionName": "Football", "webPublicationDate": "2010-10-29T16:59:33Z", "webTitle": "Squad sheets: Blackpool v West Bromwich Albion", "webUrl": "https://www.theguardian.com/football/2010/oct/29/squad-sheets-blackpool-west-bromwich-albion", "apiUrl": "https://content.guardianapis.com/football/2010/oct/29/squad-sheets-blackpool-west-bromwich-albion", "isHosted": false, "pillarId": "pillar/sport", "pillarName": "Sport"}, {"id": "football/2010/oct/29/squad-sheets-bolton-wanderers-liverpool", "type": "article", "sectionId": "football", "sectionName": "Football", "webPublicationDate": "2010-10-29T16:27:57Z", "webTitle": "Squad sheets: Bolton Wanderers v Liverpool", "webUrl": "https://www.theguardian.com/football/2010/oct/29/squad-sheets-bolton-wanderers-liverpool", "apiUrl": "https://content.guardianapis.com/football/2010/oct/29/squad-sheets-bolton-wanderers-liverpool", "isHosted": false, "pillarId": "pillar/sport", "pillarName": "Sport"}, {"id": "football/2010/oct/29/squad-sheets-manchester-united-tottenham-hotspur", "type": "article", "sectionId": "football", "sectionName": "Football", "webPublicationDate": "2010-10-29T15:58:48Z", "webTitle": "Squad sheets: Manchester United v Tottenham Hotspur", "webUrl": "https://www.theguardian.com/football/2010/oct/29/squad-sheets-manchester-united-tottenham-hotspur", "apiUrl": "https://content.guardianapis.com/football/2010/oct/29/squad-sheets-manchester-united-tottenham-hotspur", "isHosted": false, "pillarId": "pillar/sport", "pillarName": "Sport"}, {"id": "football/2010/oct/29/squad-sheets-newcastle-united-sunderland", "type": "article", "sectionId": "football", "sectionName": "Football", "webPublicationDate": "2010-10-29T15:52:58Z", "webTitle": "Squad sheets: Newcastle United v Sunderland", "webUrl": "https://www.theguardian.com/football/2010/oct/29/squad-sheets-newcastle-united-sunderland", "apiUrl": "https://content.guardianapis.com/football/2010/oct/29/squad-sheets-newcastle-united-sunderland", "isHosted": false, "pillarId": "pillar/sport", "pillarName": "Sport"}, {"id": "football/2010/oct/29/the-fiver-fifa-sepp-blatter", "type": "article", "sectionId": "football", "sectionName": "Football", "webPublicationDate": "2010-10-29T15:35:41Z", "webTitle": "The Fiver | Pages from Ceefax-style light jazz | Scott Murray", "webUrl": "https://www.theguardian.com/football/2010/oct/29/the-fiver-fifa-sepp-blatter", "apiUrl": "https://content.guardianapis.com/football/2010/oct/29/the-fiver-fifa-sepp-blatter", "isHosted": false, "pillarId": "pillar/sport", "pillarName": "Sport"}, {"id": "football/2010/oct/29/squad-sheets-everton-stoke-city", "type": "article", "sectionId": "football", "sectionName": "Football", "webPublicationDate": "2010-10-29T15:28:06Z", "webTitle": "Squad sheets: Everton v Stoke City", "webUrl": "https://www.theguardian.com/football/2010/oct/29/squad-sheets-everton-stoke-city", "apiUrl": "https://content.guardianapis.com/football/2010/oct/29/squad-sheets-everton-stoke-city", "isHosted": false, "pillarId": "pillar/sport", "pillarName": "Sport"}]}}