{"response": {"status": "ok", "userTier": "developer", "total": 83985, "startIndex": 1, "pageSize": 50, "currentPage": 1, "pages": 1680, "orderBy": "newest", "results": [{"id": "football/2010/nov/30/aston-villa-gabriel-agbonlahor-gerard-houllier", "type": "article", "sectionId": "football", "sectionName": "Football", "webPublicationDate": "2010-11-30T22:35:00Z", "webTitle": "G\u00e9rard Houllier tells Gabriel Agbonlahor to lay off the weights", "webUrl": "https://www.theguardian.com/football/2010/nov/30/aston-villa-gabriel-agbonlahor-gerard-houllier", "apiUrl": "https://content.guardianapis.com/football/2010/nov/30/aston-villa-gabriel-agbonlahor-gerard-houllier", "isHosted": false, "pillarId": "pillar/sport", "pillarName": "Sport"}, {"id": "football/2010/nov/30/alex-mcleish-birmingham-city-aston-villa-carling-cup", "type": "article", "sectionId": "football", "sectionName": "Football", "webPublicationDate": "2010-11-30T22:30:01Z", "webTitle": "Alex McLeish calls on Birmingham fans to intimidate visiting Aston Villa", "webUrl": "https://www.theguardian.com/football/2010/nov/30/alex-mcleish-birmingham-city-aston-villa-carling-cup", "apiUrl": "https://content.guardianapis.com/football/2010/nov/30/alex-mcleish-birmingham-city-aston-villa-carling-cup", "isHosted": false, "pillarId": "pillar/sport", "pillarName": "Sport"}, {"id": "football/2010/nov/30/arsenal-wigan-athetic-carling-cup", "type": "article", "sectionId": "football", "sectionName": "Football", "webPublicationDate": "2010-11-30T21:57:28Z", "webTitle": "Arsenal 2-0 Wigan Athletic | Carling Cup quarter-final", "webUrl": "https://www.theguardian.com/football/2010/nov/30/arsenal-wigan-athetic-carling-cup", "apiUrl": "https://content.guardianapis.com/football/2010/nov/30/arsenal-wigan-athetic-carling-cup", "isHosted": false, "pillarId": "pillar/sport", "pillarName": "Sport"}, {"id": "football/2010/nov/30/england-2018-world-cup-hopes-rise", "type": "article", "sectionId": "football", "sectionName": "Football", "webPublicationDate": "2010-11-30T21:25:17Z", "webTitle": "England's 2018 hopes rise as Vladimir Putin hints he will not turn up", "webUrl": "https://www.theguardian.com/football/2010/nov/30/england-2018-world-cup-hopes-rise", "apiUrl": "https://content.guardianapis.com/football/2010/nov/30/england-2018-world-cup-hopes-rise", "isHosted": false, "pillarId": "pillar/sport", "pillarName": "Sport"}, {"id": "football/2010/nov/30/chelsea-liverpool-agents", "type": "article", "sectionId": "football", "sectionName": "Football", "webPublicationDate": "2010-11-30T20:04:00Z", "webTitle": "Liverpool and Chelsea top league's list of money paid to agents", "webUrl": "https://www.theguardian.com/football/2010/nov/30/chelsea-liverpool-agents", "apiUrl": "https://content.guardianapis.com/football/2010/nov/30/chelsea-liverpool-agents", "isHosted": false, "pillarId": "pillar/sport", "pillarName": "Sport"}, {"id": "football/2010/nov/30/worst-football-team-in-britain", "type": "article", "sectionId": "football", "sectionName": "Football", "webPublicationDate": "2010-11-30T20:00:04Z", "webTitle": "The worst football team in Britain?", "webUrl": "https://www.theguardian.com/football/2010/nov/30/worst-football-team-in-britain", "apiUrl": "https://content.guardianapis.com/football/2010/nov/30/worst-football-team-in-britain", "isHosted": false, "pillarId": "pillar/sport", "pillarName": "Sport"}, {"id": "football/2010/nov/30/sepp-blatter-casting-vote-world-cup-2018", "type": "article", "sectionId": "football", "sectionName": "Football", "webPublicationDate": "2010-11-30T19:24:40Z", "webTitle": "Russia stands to benefit from Sepp Blatter's World Cup casting vote", "webUrl": "https://www.theguardian.com/football/2010/nov/30/sepp-blatter-casting-vote-world-cup-2018", "apiUrl": "https://content.guardianapis.com/football/2010/nov/30/sepp-blatter-casting-vote-world-cup-2018", "isHosted": false, "pillarId": "pillar/sport", "pillarName": "Sport"}, {"id": "football/2010/nov/30/carling-cup-west-ham-manchester-united-live", "type": "article", "sectionId": "football", "sectionName": "Football", "webPublicationDate": "2010-11-30T18:55:45Z", "webTitle": "West Ham v Manchester United - as it happened", "webUrl": "https://www.theguardian.com/football/2010/nov/30/carling-cup-west-ham-manchester-united-live", "apiUrl": "https://content.guardianapis.com/football/2010/nov/30/carling-cup-west-ham-manchester-united-live", "isHosted": false, "pillarId": "pillar/sport", "pillarName": "Sport"}, {"id": "football/blog/2010/nov/30/roy-keane-footballers-snood", "type": "article", "sectionId": "football", "sectionName": "Football", "webPublicationDate": "2010-11-30T18:55:00Z", "webTitle": "Roy Keane struggles to warm to footballers' not so brave snood world | Jamie Jackson", "webUrl": "https://www.theguardian.com/football/blog/2010/nov/30/roy-keane-footballers-snood", "apiUrl": "https://content.guardianapis.com/football/blog/2010/nov/30/roy-keane-footballers-snood", "isHosted": false, "pillarId": "pillar/sport", "pillarName": "Sport"}, {"id": "football/2010/nov/30/three-lions-england-2018-jack-warner", "type": "article", "sectionId": "football", "sectionName": "Football", "webPublicationDate": "2010-11-30T18:52:23Z", "webTitle": "'The three lions' of England 2018 bid forced to rely on Jack Warner", "webUrl": "https://www.theguardian.com/football/2010/nov/30/three-lions-england-2018-jack-warner", "apiUrl": "https://content.guardianapis.com/football/2010/nov/30/three-lions-england-2018-jack-warner", "isHosted": false, "pillarId": "pillar/sport", "pillarName": "Sport"}, {"id": "football/2010/nov/30/the-fiver-el-clasico-fifa", "type": "article", "sectionId": "football", "sectionName": "Football", "webPublicationDate": "2010-11-30T16:13:27Z", "webTitle": "The Fiver | 'The best players in the world (and Xavi)'; and Big Billy Windsor | Sean Ingle and Paul Doyle", "webUrl": "https://www.theguardian.com/football/2010/nov/30/the-fiver-el-clasico-fifa", "apiUrl": "https://content.guardianapis.com/football/2010/nov/30/the-fiver-el-clasico-fifa", "isHosted": false, "pillarId": "pillar/sport", "pillarName": "Sport"}, {"id": "football/2010/nov/30/roberto-mancini-goals-manchester-city", "type": "article", "sectionId": "football", "sectionName": "Football", "webPublicationDate": "2010-11-30T15:48:13Z", "webTitle": "Roberto Mancini confident Manchester City will end home goal drought", "webUrl": "https://www.theguardian.com/football/2010/nov/30/roberto-mancini-goals-manchester-city", "apiUrl": "https://content.guardianapis.com/football/2010/nov/30/roberto-mancini-goals-manchester-city", "isHosted": false, "pillarId": "pillar/sport", "pillarName": "Sport"}, {"id": "football/gallery/2010/nov/30/el-clasico-barcelona-real-madrid", "type": "gallery", "sectionId": "football", "sectionName": "Football", "webPublicationDate": "2010-11-30T15:36:36Z", "webTitle": "La Liga: Pictures of Barcelona v Real Madrid", "webUrl": "https://www.theguardian.com/football/gallery/2010/nov/30/el-clasico-barcelona-real-madrid", "apiUrl": "https://content.guardianapis.com/football/gallery/2010/nov/30/el-clasico-barcelona-real-madrid", "isHosted": false, "pillarId": "pillar/sport", "pillarName": "Sport"}, {"id": "football/2010/nov/30/david-cameron-fifa-zurich", "type": "article", "sectionId": "football", "sectionName": "Football", "webPublicationDate": "2010-11-30T14:48:30Z", "webTitle": "David Cameron deflects questions on corruption as he arrives in Zurich", "webUrl": "https://www.theguardian.com/football/2010/nov/30/david-cameron-fifa-zurich", "apiUrl": "https://content.guardianapis.com/football/2010/nov/30/david-cameron-fifa-zurich", "isHosted": false, "pillarId": "pillar/sport", "pillarName": "Sport"}, {"id": "football/2010/nov/30/trinidad-world-cup-payment-warner", "type": "article", "sectionId": "football", "sectionName": "Football", "webPublicationDate": "2010-11-30T12:52:50Z", "webTitle": "Court tells Trinidad football federation to pay 2006 World Cup squad", "webUrl": "https://www.theguardian.com/football/2010/nov/30/trinidad-world-cup-payment-warner", "apiUrl": "https://content.guardianapis.com/football/2010/nov/30/trinidad-world-cup-payment-warner", "isHosted": false, "pillarId": "pillar/sport", "pillarName": "Sport"}, {"id": "football/2010/nov/30/arsenal-arsene-wenger-transfer-january", "type": "article", "sectionId": "football", "sectionName": "Football", "webPublicationDate": "2010-11-30T12:39:27Z", "webTitle": "Arsenal do not need new signings in January, says Ars\u00e8ne Wenger", "webUrl": "https://www.theguardian.com/football/2010/nov/30/arsenal-arsene-wenger-transfer-january", "apiUrl": "https://content.guardianapis.com/football/2010/nov/30/arsenal-arsene-wenger-transfer-january", "isHosted": false, "pillarId": "pillar/sport", "pillarName": "Sport"}, {"id": "football/blog/2010/nov/30/barcelona-win-epoch-defining-clasico", "type": "article", "sectionId": "football", "sectionName": "Football", "webPublicationDate": "2010-11-30T12:33:30Z", "webTitle": "Barcelona, the 'Orgasm Team', win another epoch-defining cl\u00e1sico | Sid Lowe", "webUrl": "https://www.theguardian.com/football/blog/2010/nov/30/barcelona-win-epoch-defining-clasico", "apiUrl": "https://content.guardianapis.com/football/blog/2010/nov/30/barcelona-win-epoch-defining-clasico", "isHosted": false, "pillarId": "pillar/sport", "pillarName": "Sport"}, {"id": "media/greenslade/2010/nov/30/investigative-journalism-scotland", "type": "article", "sectionId": "media", "sectionName": "Media", "webPublicationDate": "2010-11-30T12:23:13Z", "webTitle": "Blogging investigative journalist who blew the whistle on a Scottish referee", "webUrl": "https://www.theguardian.com/media/greenslade/2010/nov/30/investigative-journalism-scotland", "apiUrl": "https://content.guardianapis.com/media/greenslade/2010/nov/30/investigative-journalism-scotland", "isHosted": false, "pillarId": "pillar/news", "pillarName": "News"}, {"id": "football/2010/nov/30/jamie-carragher-liverpool-defender-surgery", "type": "article", "sectionId": "football", "sectionName": "Football", "webPublicationDate": "2010-11-30T11:50:00Z", "webTitle": "Injured Liverpool defender Jamie Carragher out for three months", "webUrl": "https://www.theguardian.com/football/2010/nov/30/jamie-carragher-liverpool-defender-surgery", "apiUrl": "https://content.guardianapis.com/football/2010/nov/30/jamie-carragher-liverpool-defender-surgery", "isHosted": false, "pillarId": "pillar/sport", "pillarName": "Sport"}, {"id": "politics/blog/2010/nov/30/wikileaks-too-much-information", "type": "article", "sectionId": "politics", "sectionName": "Politics", "webPublicationDate": "2010-11-30T10:38:21Z", "webTitle": "Wikileaks: too much information? | Michael White", "webUrl": "https://www.theguardian.com/politics/blog/2010/nov/30/wikileaks-too-much-information", "apiUrl": "https://content.guardianapis.com/politics/blog/2010/nov/30/wikileaks-too-much-information", "isHosted": false, "pillarId": "pillar/news", "pillarName": "News"}, {"id": "football/blog/2010/nov/30/2018-world-cup-fifa-vote", "type": "article", "sectionId": "football", "sectionName": "Football", "webPublicationDate": "2010-11-30T10:33:49Z", "webTitle": "World Cup 2018 bid live: two days to the vote", "webUrl": "https://www.theguardian.com/football/blog/2010/nov/30/2018-world-cup-fifa-vote", "apiUrl": "https://content.guardianapis.com/football/blog/2010/nov/30/2018-world-cup-fifa-vote", "isHosted": false, "pillarId": "pillar/sport", "pillarName": "Sport"}, {"id": "football/2010/nov/30/fifa-world-cup-sunday-times-bbc", "type": "article", "sectionId": "football", "sectionName": "Football", "webPublicationDate": "2010-11-30T10:00:01Z", "webTitle": "Six weeks of allegations: from the Sunday Times to Panorama", "webUrl": "https://www.theguardian.com/football/2010/nov/30/fifa-world-cup-sunday-times-bbc", "apiUrl": "https://content.guardianapis.com/football/2010/nov/30/fifa-world-cup-sunday-times-bbc", "isHosted": false, "pillarId": "pillar/sport", "pillarName": "Sport"}, {"id": "football/quiz/2010/nov/30/bolton-wanderers-football-quiz", "type": "article", "sectionId": "global", "sectionName": "Global", "webPublicationDate": "2010-11-30T09:18:11Z", "webTitle": "Bolton Wanderers | Quiz", "webUrl": "https://www.theguardian.com/football/quiz/2010/nov/30/bolton-wanderers-football-quiz", "apiUrl": "https://content.guardianapis.com/football/quiz/2010/nov/30/bolton-wanderers-football-quiz", "isHosted": false}, {"id": "football/2010/nov/30/football-transfer-rumours-gareth-bale", "type": "article", "sectionId": "football", "sectionName": "Football", "webPublicationDate": "2010-11-30T08:46:26Z", "webTitle": "Football transfer rumours: Gareth Bale to Real Madrid?", "webUrl": "https://www.theguardian.com/football/2010/nov/30/football-transfer-rumours-gareth-bale", "apiUrl": "https://content.guardianapis.com/football/2010/nov/30/football-transfer-rumours-gareth-bale", "isHosted": false, "pillarId": "pillar/sport", "pillarName": "Sport"}, {"id": "tv-and-radio/2010/nov/30/dispatches-kids-britain-doesnt-want-review", "type": "article", "sectionId": "tv-and-radio", "sectionName": "Television & radio", "webPublicationDate": "2010-11-30T08:00:12Z", "webTitle": "TV review: Dispatches: The Kids Britain Doesn't Want | Panorama: Fifa's Dirty Secrets | Ian Hislop's Age of the Do-Gooders", "webUrl": "https://www.theguardian.com/tv-and-radio/2010/nov/30/dispatches-kids-britain-doesnt-want-review", "apiUrl": "https://content.guardianapis.com/tv-and-radio/2010/nov/30/dispatches-kids-britain-doesnt-want-review", "isHosted": false, "pillarId": "pillar/arts", "pillarName": "Arts"}, {"id": "football/2010/nov/30/jose-mourinho-real-madrid-barcelona", "type": "article", "sectionId": "football", "sectionName": "Football", "webPublicationDate": "2010-11-30T01:00:26Z", "webTitle": "Jos\u00e9 Mourinho admits Barcelona's thrashing of Real Madrid was fair", "webUrl": "https://www.theguardian.com/football/2010/nov/30/jose-mourinho-real-madrid-barcelona", "apiUrl": "https://content.guardianapis.com/football/2010/nov/30/jose-mourinho-real-madrid-barcelona", "isHosted": false, "pillarId": "pillar/sport", "pillarName": "Sport"}, {"id": "football/2010/nov/30/milan-mandaric-sheffield-wednesday", "type": "article", "sectionId": "football", "sectionName": "Football", "webPublicationDate": "2010-11-30T00:06:03Z", "webTitle": "Lack of clarity in Milan Mandaric's takeover of Sheffield Wednesday", "webUrl": "https://www.theguardian.com/football/2010/nov/30/milan-mandaric-sheffield-wednesday", "apiUrl": "https://content.guardianapis.com/football/2010/nov/30/milan-mandaric-sheffield-wednesday", "isHosted": false, "pillarId": "pillar/sport", "pillarName": "Sport"}, {"id": "football/2010/nov/30/panorama-football-programmes", "type": "article", "sectionId": "football", "sectionName": "Football", "webPublicationDate": "2010-11-30T00:06:03Z", "webTitle": "Panorama expos\u00e9s: From Jason Ferguson to the Glazers", "webUrl": "https://www.theguardian.com/football/2010/nov/30/panorama-football-programmes", "apiUrl": "https://content.guardianapis.com/football/2010/nov/30/panorama-football-programmes", "isHosted": false, "pillarId": "pillar/sport", "pillarName": "Sport"}, {"id": "football/2010/nov/30/liverpool-jamie-carragher-shoulder-operation", "type": "article", "sectionId": "football", "sectionName": "Football", "webPublicationDate": "2010-11-30T00:06:02Z", "webTitle": "Liverpool's Jamie Carragher awaits verdict on shoulder operation", "webUrl": "https://www.theguardian.com/football/2010/nov/30/liverpool-jamie-carragher-shoulder-operation", "apiUrl": "https://content.guardianapis.com/football/2010/nov/30/liverpool-jamie-carragher-shoulder-operation", "isHosted": false, "pillarId": "pillar/sport", "pillarName": "Sport"}, {"id": "football/gallery/2010/nov/30/the-gallery-scottish-referees-strike", "type": "gallery", "sectionId": "football", "sectionName": "Football", "webPublicationDate": "2010-11-30T00:06:00Z", "webTitle": "Scottish referees", "webUrl": "https://www.theguardian.com/football/gallery/2010/nov/30/the-gallery-scottish-referees-strike", "apiUrl": "https://content.guardianapis.com/football/gallery/2010/nov/30/the-gallery-scottish-referees-strike", "isHosted": false, "pillarId": "pillar/sport", "pillarName": "Sport"}, {"id": "football/2010/nov/29/cheik-tiote-newcastle-united-drogba", "type": "article", "sectionId": "football", "sectionName": "Football", "webPublicationDate": "2010-11-29T23:31:01Z", "webTitle": "Newcastle's Cheik Tiot\u00e9 will be a Premier League star \u2013 Didier Drogba", "webUrl": "https://www.theguardian.com/football/2010/nov/29/cheik-tiote-newcastle-united-drogba", "apiUrl": "https://content.guardianapis.com/football/2010/nov/29/cheik-tiote-newcastle-united-drogba", "isHosted": false, "pillarId": "pillar/sport", "pillarName": "Sport"}, {"id": "football/2010/nov/29/panorama-bbc-fifa-accused", "type": "article", "sectionId": "football", "sectionName": "Football", "webPublicationDate": "2010-11-29T23:11:41Z", "webTitle": "Panorama: Allegations from the BBC but silence from Fifa's accused", "webUrl": "https://www.theguardian.com/football/2010/nov/29/panorama-bbc-fifa-accused", "apiUrl": "https://content.guardianapis.com/football/2010/nov/29/panorama-bbc-fifa-accused", "isHosted": false, "pillarId": "pillar/sport", "pillarName": "Sport"}, {"id": "football/2010/nov/29/chelsea-frank-arnesen", "type": "article", "sectionId": "football", "sectionName": "Football", "webPublicationDate": "2010-11-29T23:01:00Z", "webTitle": "Carlo Ancelotti will have a say if Chelsea replace Frank Arnesen", "webUrl": "https://www.theguardian.com/football/2010/nov/29/chelsea-frank-arnesen", "apiUrl": "https://content.guardianapis.com/football/2010/nov/29/chelsea-frank-arnesen", "isHosted": false, "pillarId": "pillar/sport", "pillarName": "Sport"}, {"id": "football/2010/nov/29/scott-parker-west-ham-united-carling-cup", "type": "article", "sectionId": "football", "sectionName": "Football", "webPublicationDate": "2010-11-29T22:31:04Z", "webTitle": "Scott Parker to miss West Ham's Carling Cup tie with Manchester United", "webUrl": "https://www.theguardian.com/football/2010/nov/29/scott-parker-west-ham-united-carling-cup", "apiUrl": "https://content.guardianapis.com/football/2010/nov/29/scott-parker-west-ham-united-carling-cup", "isHosted": false, "pillarId": "pillar/sport", "pillarName": "Sport"}, {"id": "football/2010/nov/29/tottenham-rafael-van-der-vaart-injury", "type": "article", "sectionId": "football", "sectionName": "Football", "webPublicationDate": "2010-11-29T22:30:01Z", "webTitle": "Tottenham's Rafael van der Vaart fears he faces month out with injury", "webUrl": "https://www.theguardian.com/football/2010/nov/29/tottenham-rafael-van-der-vaart-injury", "apiUrl": "https://content.guardianapis.com/football/2010/nov/29/tottenham-rafael-van-der-vaart-injury", "isHosted": false, "pillarId": "pillar/sport", "pillarName": "Sport"}, {"id": "football/2010/nov/29/robin-van-persie-wigan-carling-cup", "type": "article", "sectionId": "football", "sectionName": "Football", "webPublicationDate": "2010-11-29T22:15:09Z", "webTitle": "Robin van Persie can find form against Wigan, says Ars\u00e8ne Wenger", "webUrl": "https://www.theguardian.com/football/2010/nov/29/robin-van-persie-wigan-carling-cup", "apiUrl": "https://content.guardianapis.com/football/2010/nov/29/robin-van-persie-wigan-carling-cup", "isHosted": false, "pillarId": "pillar/sport", "pillarName": "Sport"}, {"id": "football/2010/nov/29/world-cup-fifa-panorama", "type": "article", "sectionId": "football", "sectionName": "Football", "webPublicationDate": "2010-11-29T22:04:32Z", "webTitle": "Do we really want to pay this price to host the 2018 World Cup?", "webUrl": "https://www.theguardian.com/football/2010/nov/29/world-cup-fifa-panorama", "apiUrl": "https://content.guardianapis.com/football/2010/nov/29/world-cup-fifa-panorama", "isHosted": false, "pillarId": "pillar/sport", "pillarName": "Sport"}, {"id": "football/2010/nov/29/barcelona-real-madrid-la-liga", "type": "article", "sectionId": "football", "sectionName": "Football", "webPublicationDate": "2010-11-29T21:58:40Z", "webTitle": "Barcelona 5-0 Real Madrid | La Liga match report", "webUrl": "https://www.theguardian.com/football/2010/nov/29/barcelona-real-madrid-la-liga", "apiUrl": "https://content.guardianapis.com/football/2010/nov/29/barcelona-real-madrid-la-liga", "isHosted": false, "pillarId": "pillar/sport", "pillarName": "Sport"}, {"id": "football/2010/nov/29/leicester-city-nottingham-forest-championship", "type": "article", "sectionId": "football", "sectionName": "Football", "webPublicationDate": "2010-11-29T21:58:00Z", "webTitle": "Leicester City 1-0 Nottingham Forest | Championship match report", "webUrl": "https://www.theguardian.com/football/2010/nov/29/leicester-city-nottingham-forest-championship", "apiUrl": "https://content.guardianapis.com/football/2010/nov/29/leicester-city-nottingham-forest-championship", "isHosted": false, "pillarId": "pillar/sport", "pillarName": "Sport"}, {"id": "football/2010/nov/29/panorama-fifa-world-cup-bribes", "type": "article", "sectionId": "football", "sectionName": "Football", "webPublicationDate": "2010-11-29T20:42:25Z", "webTitle": "Panorama: Three Fifa World Cup voters accused of taking bribes", "webUrl": "https://www.theguardian.com/football/2010/nov/29/panorama-fifa-world-cup-bribes", "apiUrl": "https://content.guardianapis.com/football/2010/nov/29/panorama-fifa-world-cup-bribes", "isHosted": false, "pillarId": "pillar/sport", "pillarName": "Sport"}, {"id": "football/2010/nov/29/pass-notes-nani-manchester-united", "type": "article", "sectionId": "football", "sectionName": "Football", "webPublicationDate": "2010-11-29T20:00:03Z", "webTitle": "Pass notes No 2,889: Nani", "webUrl": "https://www.theguardian.com/football/2010/nov/29/pass-notes-nani-manchester-united", "apiUrl": "https://content.guardianapis.com/football/2010/nov/29/pass-notes-nani-manchester-united", "isHosted": false, "pillarId": "pillar/sport", "pillarName": "Sport"}, {"id": "football/2010/nov/29/barcelona-real-madrid-el-clasico-live", "type": "article", "sectionId": "football", "sectionName": "Football", "webPublicationDate": "2010-11-29T19:00:00Z", "webTitle": "Barcelona v Real Madrid - as it happened! | John Ashdown", "webUrl": "https://www.theguardian.com/football/2010/nov/29/barcelona-real-madrid-el-clasico-live", "apiUrl": "https://content.guardianapis.com/football/2010/nov/29/barcelona-real-madrid-el-clasico-live", "isHosted": false, "pillarId": "pillar/sport", "pillarName": "Sport"}, {"id": "media/2010/nov/29/stanley-williamson-obituary", "type": "article", "sectionId": "media", "sectionName": "Media", "webPublicationDate": "2010-11-29T17:56:26Z", "webTitle": "Stanley Williamson obituary", "webUrl": "https://www.theguardian.com/media/2010/nov/29/stanley-williamson-obituary", "apiUrl": "https://content.guardianapis.com/media/2010/nov/29/stanley-williamson-obituary", "isHosted": false, "pillarId": "pillar/news", "pillarName": "News"}, {"id": "football/2010/nov/29/the-fiver-barcelona-real-madrid", "type": "article", "sectionId": "football", "sectionName": "Football", "webPublicationDate": "2010-11-29T15:50:48Z", "webTitle": "The Fiver | Conical bifter; and FiverLeaks | Barry Glendenning and Tom Lutz", "webUrl": "https://www.theguardian.com/football/2010/nov/29/the-fiver-barcelona-real-madrid", "apiUrl": "https://content.guardianapis.com/football/2010/nov/29/the-fiver-barcelona-real-madrid", "isHosted": false, "pillarId": "pillar/sport", "pillarName": "Sport"}, {"id": "uk/2010/nov/29/football-team-concedes-227-goals", "type": "article", "sectionId": "uk-news", "sectionName": "UK news", "webPublicationDate": "2010-11-29T14:33:06Z", "webTitle": "We're the pits: manager admits football team is 'probably worst in Britain'", "webUrl": "https://www.theguardian.com/uk/2010/nov/29/football-team-concedes-227-goals", "apiUrl": "https://content.guardianapis.com/uk/2010/nov/29/football-team-concedes-227-goals", "isHosted": false, "pillarId": "pillar/news", "pillarName": "News"}, {"id": "football/gallery/2010/nov/28/chelsea-liverpool", "type": "gallery", "sectionId": "football", "sectionName": "Football", "webPublicationDate": "2010-11-29T14:11:18Z", "webTitle": "Premier League: Sunday round-up", "webUrl": "https://www.theguardian.com/football/gallery/2010/nov/28/chelsea-liverpool", "apiUrl": "https://content.guardianapis.com/football/gallery/2010/nov/28/chelsea-liverpool", "isHosted": false, "pillarId": "pillar/sport", "pillarName": "Sport"}, {"id": "football/blog/2010/nov/29/josip-ilicic-palermo-serie-a", "type": "article", "sectionId": "football", "sectionName": "Football", "webPublicationDate": "2010-11-29T12:58:30Z", "webTitle": "Josip Ilicic steals the show as Palermo flip the script | Paolo Bandini", "webUrl": "https://www.theguardian.com/football/blog/2010/nov/29/josip-ilicic-palermo-serie-a", "apiUrl": "https://content.guardianapis.com/football/blog/2010/nov/29/josip-ilicic-palermo-serie-a", "isHosted": false, "pillarId": "pillar/sport", "pillarName": "Sport"}, {"id": "football/blog/2010/nov/29/bundesliga-hamburg-stuttgart-armin-veh", "type": "article", "sectionId": "football", "sectionName": "Football", "webPublicationDate": "2010-11-29T12:31:18Z", "webTitle": "Armin Veh will be lucky to stay course at 'heaven and hell' Hamburg | Raphael Honigstein", "webUrl": "https://www.theguardian.com/football/blog/2010/nov/29/bundesliga-hamburg-stuttgart-armin-veh", "apiUrl": "https://content.guardianapis.com/football/blog/2010/nov/29/bundesliga-hamburg-stuttgart-armin-veh", "isHosted": false, "pillarId": "pillar/sport", "pillarName": "Sport"}, {"id": "media/2010/nov/29/bskyb-arabic-news-channel", "type": "article", "sectionId": "media", "sectionName": "Media", "webPublicationDate": "2010-11-29T12:31:11Z", "webTitle": "Sky News teams up with Sheikh Mansour to launch Arabic TV channel", "webUrl": "https://www.theguardian.com/media/2010/nov/29/bskyb-arabic-news-channel", "apiUrl": "https://content.guardianapis.com/media/2010/nov/29/bskyb-arabic-news-channel", "isHosted": false, "pillarId": "pillar/news", "pillarName": "News"}, {"id": "football/blog/audio/2010/nov/29/football-weekly-manchester-united-dimitar-berbatov", "type": "audio", "sectionId": "football", "sectionName": "Football", "webPublicationDate": "2010-11-29T12:01:11Z", "webTitle": "Football Weekly podcast: Five-star Berbatov sends Manchester United top", "webUrl": "https://www.theguardian.com/football/blog/audio/2010/nov/29/football-weekly-manchester-united-dimitar-berbatov", "apiUrl": "https://content.guardianapis.com/football/blog/audio/2010/nov/29/football-weekly-manchester-united-dimitar-berbatov", "isHosted": false, "pillarId": "pillar/sport", "pillarName": "Sport"}]}}