{"response": {"status": "ok", "userTier": "developer", "total": 92562, "startIndex": 1, "pageSize": 50, "currentPage": 1, "pages": 1852, "orderBy": "newest", "results": [{"id": "football/2014/nov/30/liverpool-glen-johnson-stoke-city-match-report", "type": "article", "sectionId": "football", "sectionName": "Football", "webPublicationDate": "2014-11-30T22:41:00Z", "webTitle": "Liverpool\u2019s Glen Johnson sees off Stoke and says he has no contract offer", "webUrl": "https://www.theguardian.com/football/2014/nov/30/liverpool-glen-johnson-stoke-city-match-report", "apiUrl": "https://content.guardianapis.com/football/2014/nov/30/liverpool-glen-johnson-stoke-city-match-report", "isHosted": false, "pillarId": "pillar/sport", "pillarName": "Sport"}, {"id": "football/blog/2014/dec/01/a-league-what-we-learned-round-eight", "type": "article", "sectionId": "football", "sectionName": "Football", "webPublicationDate": "2014-11-30T22:34:10Z", "webTitle": "A-League: what we learned in round eight | Words: Pete Smith", "webUrl": "https://www.theguardian.com/football/blog/2014/dec/01/a-league-what-we-learned-round-eight", "apiUrl": "https://content.guardianapis.com/football/blog/2014/dec/01/a-league-what-we-learned-round-eight", "isHosted": false, "pillarId": "pillar/sport", "pillarName": "Sport"}, {"id": "football/2014/nov/30/aaron-cresswell-west-ham-newcastle-united-premier-league", "type": "article", "sectionId": "football", "sectionName": "Football", "webPublicationDate": "2014-11-30T22:30:05Z", "webTitle": "Aaron Cresswell demonstrates West Ham\u2019s depth in defeat of Newcastle", "webUrl": "https://www.theguardian.com/football/2014/nov/30/aaron-cresswell-west-ham-newcastle-united-premier-league", "apiUrl": "https://content.guardianapis.com/football/2014/nov/30/aaron-cresswell-west-ham-newcastle-united-premier-league", "isHosted": false, "pillarId": "pillar/sport", "pillarName": "Sport"}, {"id": "football/2014/nov/30/swansea-city-crystal-palace-premier-league-neil-warncok", "type": "article", "sectionId": "football", "sectionName": "Football", "webPublicationDate": "2014-11-30T22:30:05Z", "webTitle": "Neil Warnock: Growing belief drove Crystal Palace to draw at Swansea", "webUrl": "https://www.theguardian.com/football/2014/nov/30/swansea-city-crystal-palace-premier-league-neil-warncok", "apiUrl": "https://content.guardianapis.com/football/2014/nov/30/swansea-city-crystal-palace-premier-league-neil-warncok", "isHosted": false, "pillarId": "pillar/sport", "pillarName": "Sport"}, {"id": "football/2014/nov/30/manchester-united-louis-van-gaal-festive-christmas-hull-matchreport", "type": "article", "sectionId": "football", "sectionName": "Football", "webPublicationDate": "2014-11-30T22:30:05Z", "webTitle": "Louis van Gaal keen to adapt festive plans after timely win against Hull", "webUrl": "https://www.theguardian.com/football/2014/nov/30/manchester-united-louis-van-gaal-festive-christmas-hull-matchreport", "apiUrl": "https://content.guardianapis.com/football/2014/nov/30/manchester-united-louis-van-gaal-festive-christmas-hull-matchreport", "isHosted": false, "pillarId": "pillar/sport", "pillarName": "Sport"}, {"id": "football/2014/nov/30/arsene-wenger-arsenal-consistency-west-brom", "type": "article", "sectionId": "football", "sectionName": "Football", "webPublicationDate": "2014-11-30T22:30:05Z", "webTitle": "Ars\u00e8ne Wenger highlights Arsenal consistency after win at West Brom", "webUrl": "https://www.theguardian.com/football/2014/nov/30/arsene-wenger-arsenal-consistency-west-brom", "apiUrl": "https://content.guardianapis.com/football/2014/nov/30/arsene-wenger-arsenal-consistency-west-brom", "isHosted": false, "pillarId": "pillar/sport", "pillarName": "Sport"}, {"id": "football/football-league-blog/2014/nov/30/mk-dons-colchester-league-one-match-report", "type": "article", "sectionId": "football", "sectionName": "Football", "webPublicationDate": "2014-11-30T22:00:05Z", "webTitle": "MK Dons prove masters of the game and worthy of study against Colchester | Jeremy Alexander", "webUrl": "https://www.theguardian.com/football/football-league-blog/2014/nov/30/mk-dons-colchester-league-one-match-report", "apiUrl": "https://content.guardianapis.com/football/football-league-blog/2014/nov/30/mk-dons-colchester-league-one-match-report", "isHosted": false, "pillarId": "pillar/sport", "pillarName": "Sport"}, {"id": "football/live/2014/nov/30/valencia-v-barcelona-live", "type": "liveblog", "sectionId": "football", "sectionName": "Football", "webPublicationDate": "2014-11-30T21:58:44Z", "webTitle": "Valencia v Barcelona \u2013 as it happened | Daniel Harris", "webUrl": "https://www.theguardian.com/football/live/2014/nov/30/valencia-v-barcelona-live", "apiUrl": "https://content.guardianapis.com/football/live/2014/nov/30/valencia-v-barcelona-live", "isHosted": false, "pillarId": "pillar/sport", "pillarName": "Sport"}, {"id": "football/blog/2014/nov/30/southampton-manchester-city-five-talking-points", "type": "article", "sectionId": "football", "sectionName": "Football", "webPublicationDate": "2014-11-30T20:40:51Z", "webTitle": "Southampton v Manchester City: five talking points | Jacob Steinberg", "webUrl": "https://www.theguardian.com/football/blog/2014/nov/30/southampton-manchester-city-five-talking-points", "apiUrl": "https://content.guardianapis.com/football/blog/2014/nov/30/southampton-manchester-city-five-talking-points", "isHosted": false, "pillarId": "pillar/sport", "pillarName": "Sport"}, {"id": "football/blog/2014/nov/30/southampton-manchester-city-reality-check", "type": "article", "sectionId": "football", "sectionName": "Football", "webPublicationDate": "2014-11-30T18:05:54Z", "webTitle": "Southampton get reality check against Manchester City but can recover | Paul Doyle", "webUrl": "https://www.theguardian.com/football/blog/2014/nov/30/southampton-manchester-city-reality-check", "apiUrl": "https://content.guardianapis.com/football/blog/2014/nov/30/southampton-manchester-city-reality-check", "isHosted": false, "pillarId": "pillar/sport", "pillarName": "Sport"}, {"id": "football/live/2014/nov/30/tottenham-hotspur-v-everton-live", "type": "liveblog", "sectionId": "football", "sectionName": "Football", "webPublicationDate": "2014-11-30T17:59:20Z", "webTitle": "Tottenham Hotspur v Everton \u2013 as it happened", "webUrl": "https://www.theguardian.com/football/live/2014/nov/30/tottenham-hotspur-v-everton-live", "apiUrl": "https://content.guardianapis.com/football/live/2014/nov/30/tottenham-hotspur-v-everton-live", "isHosted": false, "pillarId": "pillar/sport", "pillarName": "Sport"}, {"id": "commentisfree/2014/nov/30/qatar-let-gaza-host-world-cup", "type": "article", "sectionId": "commentisfree", "sectionName": "Opinion", "webPublicationDate": "2014-11-30T16:27:21Z", "webTitle": "A modest proposal: Qatar could win by letting Gaza host the World Cup | Tom Gross", "webUrl": "https://www.theguardian.com/commentisfree/2014/nov/30/qatar-let-gaza-host-world-cup", "apiUrl": "https://content.guardianapis.com/commentisfree/2014/nov/30/qatar-let-gaza-host-world-cup", "isHosted": false, "pillarId": "pillar/opinion", "pillarName": "Opinion"}, {"id": "football/2014/nov/30/fa-secret-dossier-world-cup-bids-qatar-russia-fifa", "type": "article", "sectionId": "football", "sectionName": "Football", "webPublicationDate": "2014-11-30T15:58:28Z", "webTitle": "FA faces demand to hand over secret dossier on World Cup bids", "webUrl": "https://www.theguardian.com/football/2014/nov/30/fa-secret-dossier-world-cup-bids-qatar-russia-fifa", "apiUrl": "https://content.guardianapis.com/football/2014/nov/30/fa-secret-dossier-world-cup-bids-qatar-russia-fifa", "isHosted": false, "pillarId": "pillar/sport", "pillarName": "Sport"}, {"id": "football/2014/nov/30/liverpool-mls-djimi-traore-retire-seattle-sounders-champions-league", "type": "article", "sectionId": "football", "sectionName": "Football", "webPublicationDate": "2014-11-30T11:36:12Z", "webTitle": "Djimi Traor\u00e9 will probably always be defined by a high and low at Liverpool", "webUrl": "https://www.theguardian.com/football/2014/nov/30/liverpool-mls-djimi-traore-retire-seattle-sounders-champions-league", "apiUrl": "https://content.guardianapis.com/football/2014/nov/30/liverpool-mls-djimi-traore-retire-seattle-sounders-champions-league", "isHosted": false, "pillarId": "pillar/sport", "pillarName": "Sport"}, {"id": "football/2014/nov/30/championship-roundup-mick-mccarthy-ipswich-charlton", "type": "article", "sectionId": "football", "sectionName": "Football", "webPublicationDate": "2014-11-30T00:43:37Z", "webTitle": "Championship roundup: McCarthy salutes Ipswich\u2019s Hunt brothers", "webUrl": "https://www.theguardian.com/football/2014/nov/30/championship-roundup-mick-mccarthy-ipswich-charlton", "apiUrl": "https://content.guardianapis.com/football/2014/nov/30/championship-roundup-mick-mccarthy-ipswich-charlton", "isHosted": false, "pillarId": "pillar/sport", "pillarName": "Sport"}, {"id": "football/2014/nov/29/saturday-sundae-liverpool-fans-protest", "type": "article", "sectionId": "football", "sectionName": "Football", "webPublicationDate": "2014-11-29T22:57:38Z", "webTitle": "Saturday Sundae: Liverpool fans in tuneful protest over ticket prices", "webUrl": "https://www.theguardian.com/football/2014/nov/29/saturday-sundae-liverpool-fans-protest", "apiUrl": "https://content.guardianapis.com/football/2014/nov/29/saturday-sundae-liverpool-fans-protest", "isHosted": false, "pillarId": "pillar/sport", "pillarName": "Sport"}, {"id": "football/2014/nov/29/thierry-henry-new-england-red-bulls-mls", "type": "article", "sectionId": "football", "sectionName": "Football", "webPublicationDate": "2014-11-29T22:47:05Z", "webTitle": "Thierry Henry faces final curtain after New England beat New York Red Bulls", "webUrl": "https://www.theguardian.com/football/2014/nov/29/thierry-henry-new-england-red-bulls-mls", "apiUrl": "https://content.guardianapis.com/football/2014/nov/29/thierry-henry-new-england-red-bulls-mls", "isHosted": false, "pillarId": "pillar/sport", "pillarName": "Sport"}, {"id": "football/2014/nov/29/steven-gerrard-16th-anniversary-liverpool", "type": "article", "sectionId": "football", "sectionName": "Football", "webPublicationDate": "2014-11-29T22:45:02Z", "webTitle": "Steven Gerrard made substitute on 16th anniversary of Liverpool debut", "webUrl": "https://www.theguardian.com/football/2014/nov/29/steven-gerrard-16th-anniversary-liverpool", "apiUrl": "https://content.guardianapis.com/football/2014/nov/29/steven-gerrard-16th-anniversary-liverpool", "isHosted": false, "pillarId": "pillar/sport", "pillarName": "Sport"}, {"id": "football/2014/nov/29/southampton-ronald-koeman-manchester-city", "type": "article", "sectionId": "football", "sectionName": "Football", "webPublicationDate": "2014-11-29T22:30:11Z", "webTitle": "Southampton\u2019s manager Ronald Koeman is enjoying great expectations", "webUrl": "https://www.theguardian.com/football/2014/nov/29/southampton-ronald-koeman-manchester-city", "apiUrl": "https://content.guardianapis.com/football/2014/nov/29/southampton-ronald-koeman-manchester-city", "isHosted": false, "pillarId": "pillar/sport", "pillarName": "Sport"}, {"id": "football/2014/nov/29/manuel-pellegrini-frank-lampard-manchester-city", "type": "article", "sectionId": "football", "sectionName": "Football", "webPublicationDate": "2014-11-29T22:29:11Z", "webTitle": "Manuel Pellegrini wants Frank Lampard to stay at Manchester City", "webUrl": "https://www.theguardian.com/football/2014/nov/29/manuel-pellegrini-frank-lampard-manchester-city", "apiUrl": "https://content.guardianapis.com/football/2014/nov/29/manuel-pellegrini-frank-lampard-manchester-city", "isHosted": false, "pillarId": "pillar/sport", "pillarName": "Sport"}, {"id": "football/blog/2014/nov/29/everton-harry-catterick-forgotten-great-manager", "type": "article", "sectionId": "football", "sectionName": "Football", "webPublicationDate": "2014-11-29T22:00:10Z", "webTitle": "Everton\u2019s Harry Catterick is the forgotten great of British managers", "webUrl": "https://www.theguardian.com/football/blog/2014/nov/29/everton-harry-catterick-forgotten-great-manager", "apiUrl": "https://content.guardianapis.com/football/blog/2014/nov/29/everton-harry-catterick-forgotten-great-manager", "isHosted": false, "pillarId": "pillar/sport", "pillarName": "Sport"}, {"id": "football/2014/nov/29/hereford-united-new-owners-mistrusting-supporters", "type": "article", "sectionId": "football", "sectionName": "Football", "webPublicationDate": "2014-11-29T21:59:10Z", "webTitle": "Hereford United\u2019s tale of new owners and mistrusting supporters | David Conn", "webUrl": "https://www.theguardian.com/football/2014/nov/29/hereford-united-new-owners-mistrusting-supporters", "apiUrl": "https://content.guardianapis.com/football/2014/nov/29/hereford-united-new-owners-mistrusting-supporters", "isHosted": false, "pillarId": "pillar/sport", "pillarName": "Sport"}, {"id": "football/2014/nov/29/said-and-done-fifa-level-ghost", "type": "article", "sectionId": "football", "sectionName": "Football", "webPublicationDate": "2014-11-29T21:10:29Z", "webTitle": "Said & Done: Fifa\u2019s level; Harry Redknapp; plus ghost of the week", "webUrl": "https://www.theguardian.com/football/2014/nov/29/said-and-done-fifa-level-ghost", "apiUrl": "https://content.guardianapis.com/football/2014/nov/29/said-and-done-fifa-level-ghost", "isHosted": false, "pillarId": "pillar/sport", "pillarName": "Sport"}, {"id": "football/blog/2014/nov/29/seattle-sounders-mls-cup-final-la-galaxy", "type": "article", "sectionId": "football", "sectionName": "Football", "webPublicationDate": "2014-11-29T20:00:08Z", "webTitle": "Breathless in Seattle: the Sounders in full cry for first MLS Cup final", "webUrl": "https://www.theguardian.com/football/blog/2014/nov/29/seattle-sounders-mls-cup-final-la-galaxy", "apiUrl": "https://content.guardianapis.com/football/blog/2014/nov/29/seattle-sounders-mls-cup-final-la-galaxy", "isHosted": false, "pillarId": "pillar/sport", "pillarName": "Sport"}, {"id": "football/football-league-blog/2014/nov/29/football-league-your-thoughts", "type": "article", "sectionId": "football", "sectionName": "Football", "webPublicationDate": "2014-11-29T19:46:31Z", "webTitle": "Football League: your thoughts", "webUrl": "https://www.theguardian.com/football/football-league-blog/2014/nov/29/football-league-your-thoughts", "apiUrl": "https://content.guardianapis.com/football/football-league-blog/2014/nov/29/football-league-your-thoughts", "isHosted": false, "pillarId": "pillar/sport", "pillarName": "Sport"}, {"id": "football/2014/nov/29/sunderland-chelsea-premier-league-match-report", "type": "article", "sectionId": "football", "sectionName": "Football", "webPublicationDate": "2014-11-29T19:42:27Z", "webTitle": "Sunderland 0-0 Chelsea | Premier League match report", "webUrl": "https://www.theguardian.com/football/2014/nov/29/sunderland-chelsea-premier-league-match-report", "apiUrl": "https://content.guardianapis.com/football/2014/nov/29/sunderland-chelsea-premier-league-match-report", "isHosted": false, "pillarId": "pillar/sport", "pillarName": "Sport"}, {"id": "football/2014/nov/29/manchester-united-louis-van-gaal", "type": "article", "sectionId": "football", "sectionName": "Football", "webPublicationDate": "2014-11-29T19:41:38Z", "webTitle": "Manchester United\u2019s Louis van Gaal lifted by win amid more injury woe", "webUrl": "https://www.theguardian.com/football/2014/nov/29/manchester-united-louis-van-gaal", "apiUrl": "https://content.guardianapis.com/football/2014/nov/29/manchester-united-louis-van-gaal", "isHosted": false, "pillarId": "pillar/sport", "pillarName": "Sport"}, {"id": "football/live/2014/nov/29/sunderland-v-chelsea-premier-league-live", "type": "liveblog", "sectionId": "football", "sectionName": "Football", "webPublicationDate": "2014-11-29T19:22:03Z", "webTitle": "Sunderland v Chelsea: Premier League \u2013 as it happened", "webUrl": "https://www.theguardian.com/football/live/2014/nov/29/sunderland-v-chelsea-premier-league-live", "apiUrl": "https://content.guardianapis.com/football/live/2014/nov/29/sunderland-v-chelsea-premier-league-live", "isHosted": false, "pillarId": "pillar/sport", "pillarName": "Sport"}, {"id": "football/2014/nov/29/st-johnstone-dundee-united-motherwell-partick-scottish-cup", "type": "article", "sectionId": "football", "sectionName": "Football", "webPublicationDate": "2014-11-29T19:10:24Z", "webTitle": "Scottish roundup: James McFadden\u2019s strike seals Saints victory over County", "webUrl": "https://www.theguardian.com/football/2014/nov/29/st-johnstone-dundee-united-motherwell-partick-scottish-cup", "apiUrl": "https://content.guardianapis.com/football/2014/nov/29/st-johnstone-dundee-united-motherwell-partick-scottish-cup", "isHosted": false, "pillarId": "pillar/sport", "pillarName": "Sport"}, {"id": "football/2014/nov/29/middlesbrough-blackburn-championship-match-report", "type": "article", "sectionId": "football", "sectionName": "Football", "webPublicationDate": "2014-11-29T17:58:49Z", "webTitle": "Middlesbough 1-1 Blackburn | Championship match report", "webUrl": "https://www.theguardian.com/football/2014/nov/29/middlesbrough-blackburn-championship-match-report", "apiUrl": "https://content.guardianapis.com/football/2014/nov/29/middlesbrough-blackburn-championship-match-report", "isHosted": false, "pillarId": "pillar/sport", "pillarName": "Sport"}, {"id": "football/2014/nov/29/burnley-aston-villa-premier-league-match-report", "type": "article", "sectionId": "football", "sectionName": "Football", "webPublicationDate": "2014-11-29T17:29:40Z", "webTitle": "Burnley 1-1 Aston Villa | Premier League match report", "webUrl": "https://www.theguardian.com/football/2014/nov/29/burnley-aston-villa-premier-league-match-report", "apiUrl": "https://content.guardianapis.com/football/2014/nov/29/burnley-aston-villa-premier-league-match-report", "isHosted": false, "pillarId": "pillar/sport", "pillarName": "Sport"}, {"id": "football/2014/nov/29/manchester-united-hull-city-premier-league-match-report", "type": "article", "sectionId": "football", "sectionName": "Football", "webPublicationDate": "2014-11-29T17:13:23Z", "webTitle": "Manchester United 3-0 Hull City | Premier League match report", "webUrl": "https://www.theguardian.com/football/2014/nov/29/manchester-united-hull-city-premier-league-match-report", "apiUrl": "https://content.guardianapis.com/football/2014/nov/29/manchester-united-hull-city-premier-league-match-report", "isHosted": false, "pillarId": "pillar/sport", "pillarName": "Sport"}, {"id": "football/live/2014/nov/29/football-clockwatch-premier-league-updates-and-latest-news-live", "type": "liveblog", "sectionId": "football", "sectionName": "Football", "webPublicationDate": "2014-11-29T17:12:03Z", "webTitle": "Football clockwatch: Premier League updates and latest news \u2013 as it happened!", "webUrl": "https://www.theguardian.com/football/live/2014/nov/29/football-clockwatch-premier-league-updates-and-latest-news-live", "apiUrl": "https://content.guardianapis.com/football/live/2014/nov/29/football-clockwatch-premier-league-updates-and-latest-news-live", "isHosted": false, "pillarId": "pillar/sport", "pillarName": "Sport"}, {"id": "football/2014/nov/29/liverpool-stoke-city-premier-league-match-report", "type": "article", "sectionId": "football", "sectionName": "Football", "webPublicationDate": "2014-11-29T17:11:40Z", "webTitle": "Liverpool 1-0 Stoke | Premier League match report", "webUrl": "https://www.theguardian.com/football/2014/nov/29/liverpool-stoke-city-premier-league-match-report", "apiUrl": "https://content.guardianapis.com/football/2014/nov/29/liverpool-stoke-city-premier-league-match-report", "isHosted": false, "pillarId": "pillar/sport", "pillarName": "Sport"}, {"id": "football/2014/nov/29/swansea-city-crystal-palace-premier-league-match-report", "type": "article", "sectionId": "football", "sectionName": "Football", "webPublicationDate": "2014-11-29T17:10:22Z", "webTitle": "Swansea 1-1 Crystal Palace | Premier League match report", "webUrl": "https://www.theguardian.com/football/2014/nov/29/swansea-city-crystal-palace-premier-league-match-report", "apiUrl": "https://content.guardianapis.com/football/2014/nov/29/swansea-city-crystal-palace-premier-league-match-report", "isHosted": false, "pillarId": "pillar/sport", "pillarName": "Sport"}, {"id": "football/2014/nov/29/west-ham-united-newcastle-united-premier-league-match-report", "type": "article", "sectionId": "football", "sectionName": "Football", "webPublicationDate": "2014-11-29T17:03:11Z", "webTitle": "West Ham 1-0 Newcastle | Premier League match report", "webUrl": "https://www.theguardian.com/football/2014/nov/29/west-ham-united-newcastle-united-premier-league-match-report", "apiUrl": "https://content.guardianapis.com/football/2014/nov/29/west-ham-united-newcastle-united-premier-league-match-report", "isHosted": false, "pillarId": "pillar/sport", "pillarName": "Sport"}, {"id": "football/2014/nov/29/angel-di-maria-injury-manchester-united-hull", "type": "article", "sectionId": "football", "sectionName": "Football", "webPublicationDate": "2014-11-29T15:33:53Z", "webTitle": "\u00c1ngel di Mar\u00eda hobbles off with injury during Manchester United v Hull", "webUrl": "https://www.theguardian.com/football/2014/nov/29/angel-di-maria-injury-manchester-united-hull", "apiUrl": "https://content.guardianapis.com/football/2014/nov/29/angel-di-maria-injury-manchester-united-hull", "isHosted": false, "pillarId": "pillar/sport", "pillarName": "Sport"}, {"id": "football/live/2014/nov/29/west-brom-v-arsenal-premier-league-live", "type": "liveblog", "sectionId": "football", "sectionName": "Football", "webPublicationDate": "2014-11-29T14:40:40Z", "webTitle": "West Brom v Arsenal: Premier League \u2013 as it happened", "webUrl": "https://www.theguardian.com/football/live/2014/nov/29/west-brom-v-arsenal-premier-league-live", "apiUrl": "https://content.guardianapis.com/football/live/2014/nov/29/west-brom-v-arsenal-premier-league-live", "isHosted": false, "pillarId": "pillar/sport", "pillarName": "Sport"}, {"id": "football/2014/nov/29/graziano-pelle-southampton-italy-feyenoord", "type": "article", "sectionId": "football", "sectionName": "Football", "webPublicationDate": "2014-11-29T12:00:02Z", "webTitle": "Graziano Pell\u00e8: an Italian romantic having a love affair at Southampton", "webUrl": "https://www.theguardian.com/football/2014/nov/29/graziano-pelle-southampton-italy-feyenoord", "apiUrl": "https://content.guardianapis.com/football/2014/nov/29/graziano-pelle-southampton-italy-feyenoord", "isHosted": false, "pillarId": "pillar/sport", "pillarName": "Sport"}, {"id": "football/2014/nov/29/manchester-city-champions-league-transfer-window", "type": "article", "sectionId": "football", "sectionName": "Football", "webPublicationDate": "2014-11-29T11:38:12Z", "webTitle": "Champions League will determine Manchester City transfers \u2013 Pellegrini", "webUrl": "https://www.theguardian.com/football/2014/nov/29/manchester-city-champions-league-transfer-window", "apiUrl": "https://content.guardianapis.com/football/2014/nov/29/manchester-city-champions-league-transfer-window", "isHosted": false, "pillarId": "pillar/sport", "pillarName": "Sport"}, {"id": "football/2014/nov/29/brisbane-roar-perth-glory-match-report", "type": "article", "sectionId": "football", "sectionName": "Football", "webPublicationDate": "2014-11-29T10:55:37Z", "webTitle": "A-League: Brisbane Roar 1-1 Perth Glory | Match report", "webUrl": "https://www.theguardian.com/football/2014/nov/29/brisbane-roar-perth-glory-match-report", "apiUrl": "https://content.guardianapis.com/football/2014/nov/29/brisbane-roar-perth-glory-match-report", "isHosted": false, "pillarId": "pillar/sport", "pillarName": "Sport"}, {"id": "football/live/2014/nov/29/western-sydney-wanderers-sydney-fc-live", "type": "liveblog", "sectionId": "football", "sectionName": "Football", "webPublicationDate": "2014-11-29T10:39:47Z", "webTitle": "A-League: Western Sydney Wanderers v Sydney FC \u2013 as it happened", "webUrl": "https://www.theguardian.com/football/live/2014/nov/29/western-sydney-wanderers-sydney-fc-live", "apiUrl": "https://content.guardianapis.com/football/live/2014/nov/29/western-sydney-wanderers-sydney-fc-live", "isHosted": false, "pillarId": "pillar/sport", "pillarName": "Sport"}, {"id": "sport/blog/2014/nov/29/gifs-keep-giving-odell-beckham-catch-sergio-ramos-anger", "type": "article", "sectionId": "sport", "sectionName": "Sport", "webPublicationDate": "2014-11-29T09:45:10Z", "webTitle": "The gifs that keep on giving: Odell Beckham, Sergio Ramos and anger", "webUrl": "https://www.theguardian.com/sport/blog/2014/nov/29/gifs-keep-giving-odell-beckham-catch-sergio-ramos-anger", "apiUrl": "https://content.guardianapis.com/sport/blog/2014/nov/29/gifs-keep-giving-odell-beckham-catch-sergio-ramos-anger", "isHosted": false, "pillarId": "pillar/sport", "pillarName": "Sport"}, {"id": "football/2014/nov/28/roy-keane-aston-villa-exit-paul-lambert", "type": "article", "sectionId": "football", "sectionName": "Football", "webPublicationDate": "2014-11-28T23:00:08Z", "webTitle": "Roy Keane\u2019s sudden Aston Villa exit leaves Paul Lambert in the lurch", "webUrl": "https://www.theguardian.com/football/2014/nov/28/roy-keane-aston-villa-exit-paul-lambert", "apiUrl": "https://content.guardianapis.com/football/2014/nov/28/roy-keane-aston-villa-exit-paul-lambert", "isHosted": false, "pillarId": "pillar/sport", "pillarName": "Sport"}, {"id": "football/2014/nov/28/sunderland-gus-poyet-off-day-chelsea", "type": "article", "sectionId": "football", "sectionName": "Football", "webPublicationDate": "2014-11-28T22:30:08Z", "webTitle": "Sunderland\u2019s manager Gus Poyet prays for off-day from \u2018perfect\u2019 Chelsea", "webUrl": "https://www.theguardian.com/football/2014/nov/28/sunderland-gus-poyet-off-day-chelsea", "apiUrl": "https://content.guardianapis.com/football/2014/nov/28/sunderland-gus-poyet-off-day-chelsea", "isHosted": false, "pillarId": "pillar/sport", "pillarName": "Sport"}, {"id": "football/2014/nov/28/robin-van-persie-manchester-united-place-louis-van-gaal", "type": "article", "sectionId": "football", "sectionName": "Football", "webPublicationDate": "2014-11-28T22:30:08Z", "webTitle": "Robin van Persie may lose Manchester United place after dip in belief", "webUrl": "https://www.theguardian.com/football/2014/nov/28/robin-van-persie-manchester-united-place-louis-van-gaal", "apiUrl": "https://content.guardianapis.com/football/2014/nov/28/robin-van-persie-manchester-united-place-louis-van-gaal", "isHosted": false, "pillarId": "pillar/sport", "pillarName": "Sport"}, {"id": "football/2014/nov/28/west-ham-newcastle-summer-signings-alan-pardew", "type": "article", "sectionId": "football", "sectionName": "Football", "webPublicationDate": "2014-11-28T22:30:08Z", "webTitle": "West Ham made best signings last summer, says Newcastle\u2019s Alan Pardew", "webUrl": "https://www.theguardian.com/football/2014/nov/28/west-ham-newcastle-summer-signings-alan-pardew", "apiUrl": "https://content.guardianapis.com/football/2014/nov/28/west-ham-newcastle-summer-signings-alan-pardew", "isHosted": false, "pillarId": "pillar/sport", "pillarName": "Sport"}, {"id": "football/2014/nov/28/brendan-rodgers-liverpool-champions-league", "type": "article", "sectionId": "football", "sectionName": "Football", "webPublicationDate": "2014-11-28T22:30:08Z", "webTitle": "Brendan Rodgers confident Liverpool can make Champions League spot", "webUrl": "https://www.theguardian.com/football/2014/nov/28/brendan-rodgers-liverpool-champions-league", "apiUrl": "https://content.guardianapis.com/football/2014/nov/28/brendan-rodgers-liverpool-champions-league", "isHosted": false, "pillarId": "pillar/sport", "pillarName": "Sport"}, {"id": "football/2014/nov/28/arsene-wenger-arsenal-january-transfer-window", "type": "article", "sectionId": "football", "sectionName": "Football", "webPublicationDate": "2014-11-28T22:30:08Z", "webTitle": "Ars\u00e8ne Wenger says Arsenal will look to buy in January transfer window", "webUrl": "https://www.theguardian.com/football/2014/nov/28/arsene-wenger-arsenal-january-transfer-window", "apiUrl": "https://content.guardianapis.com/football/2014/nov/28/arsene-wenger-arsenal-january-transfer-window", "isHosted": false, "pillarId": "pillar/sport", "pillarName": "Sport"}, {"id": "football/2014/nov/28/chelsea-jose-mourinho-christmas-party-sunderland", "type": "article", "sectionId": "football", "sectionName": "Football", "webPublicationDate": "2014-11-28T22:30:08Z", "webTitle": "Chelsea\u2019s Jos\u00e9 Mourinho gives an early Christmas present by allowing party", "webUrl": "https://www.theguardian.com/football/2014/nov/28/chelsea-jose-mourinho-christmas-party-sunderland", "apiUrl": "https://content.guardianapis.com/football/2014/nov/28/chelsea-jose-mourinho-christmas-party-sunderland", "isHosted": false, "pillarId": "pillar/sport", "pillarName": "Sport"}]}}