{"response": {"status": "ok", "userTier": "developer", "total": 86906, "startIndex": 1, "pageSize": 50, "currentPage": 1, "pages": 1739, "orderBy": "newest", "results": [{"id": "football/2011/nov/30/carling-cup-championship-crystal-palace-cardiff", "type": "article", "sectionId": "football", "sectionName": "Football", "webPublicationDate": "2011-11-30T23:26:40Z", "webTitle": "Carling Cup draw guarantees a Championship team will be in the final", "webUrl": "https://www.theguardian.com/football/2011/nov/30/carling-cup-championship-crystal-palace-cardiff", "apiUrl": "https://content.guardianapis.com/football/2011/nov/30/carling-cup-championship-crystal-palace-cardiff", "isHosted": false, "pillarId": "pillar/sport", "pillarName": "Sport"}, {"id": "football/2011/nov/30/kolo-toure-manchester-city-arsenal", "type": "article", "sectionId": "football", "sectionName": "Football", "webPublicationDate": "2011-11-30T23:00:00Z", "webTitle": "Kolo Tour\u00e9 thinks Manchester City can match Arsenal's Invincibles", "webUrl": "https://www.theguardian.com/football/2011/nov/30/kolo-toure-manchester-city-arsenal", "apiUrl": "https://content.guardianapis.com/football/2011/nov/30/kolo-toure-manchester-city-arsenal", "isHosted": false, "pillarId": "pillar/sport", "pillarName": "Sport"}, {"id": "football/gallery/2011/nov/30/carling-cup-manchester-united-crystal-palace", "type": "gallery", "sectionId": "football", "sectionName": "Football", "webPublicationDate": "2011-11-30T22:49:00Z", "webTitle": "Carling Cup: Manchester United v Crystal Palace - in pictures", "webUrl": "https://www.theguardian.com/football/gallery/2011/nov/30/carling-cup-manchester-united-crystal-palace", "apiUrl": "https://content.guardianapis.com/football/gallery/2011/nov/30/carling-cup-manchester-united-crystal-palace", "isHosted": false, "pillarId": "pillar/sport", "pillarName": "Sport"}, {"id": "football/2011/nov/30/carling-cup-manchester-united", "type": "article", "sectionId": "football", "sectionName": "Football", "webPublicationDate": "2011-11-30T22:37:00Z", "webTitle": "Manchester United v Crystal Palace", "webUrl": "https://www.theguardian.com/football/2011/nov/30/carling-cup-manchester-united", "apiUrl": "https://content.guardianapis.com/football/2011/nov/30/carling-cup-manchester-united", "isHosted": false, "pillarId": "pillar/sport", "pillarName": "Sport"}, {"id": "football/2011/nov/30/sunderland-hughes-oneill-steve-bruce", "type": "article", "sectionId": "football", "sectionName": "Football", "webPublicationDate": "2011-11-30T22:31:03Z", "webTitle": "Sunderland target Hughes and O'Neill after sacking Steve Bruce", "webUrl": "https://www.theguardian.com/football/2011/nov/30/sunderland-hughes-oneill-steve-bruce", "apiUrl": "https://content.guardianapis.com/football/2011/nov/30/sunderland-hughes-oneill-steve-bruce", "isHosted": false, "pillarId": "pillar/sport", "pillarName": "Sport"}, {"id": "football/2011/nov/30/manchester-united-crystal-palace-carling-cup", "type": "article", "sectionId": "football", "sectionName": "Football", "webPublicationDate": "2011-11-30T22:22:06Z", "webTitle": "Manchester United 1-2 Crystal Palace | Carling Cup match report", "webUrl": "https://www.theguardian.com/football/2011/nov/30/manchester-united-crystal-palace-carling-cup", "apiUrl": "https://content.guardianapis.com/football/2011/nov/30/manchester-united-crystal-palace-carling-cup", "isHosted": false, "pillarId": "pillar/sport", "pillarName": "Sport"}, {"id": "football/2011/nov/30/steve-bruce-sunderland-timeline", "type": "article", "sectionId": "football", "sectionName": "Football", "webPublicationDate": "2011-11-30T22:18:44Z", "webTitle": "Steve Bruce's Sunderland timeline", "webUrl": "https://www.theguardian.com/football/2011/nov/30/steve-bruce-sunderland-timeline", "apiUrl": "https://content.guardianapis.com/football/2011/nov/30/steve-bruce-sunderland-timeline", "isHosted": false, "pillarId": "pillar/sport", "pillarName": "Sport"}, {"id": "football/2011/nov/30/tottenham-hotspur-paok-salonica-europa-league", "type": "article", "sectionId": "football", "sectionName": "Football", "webPublicationDate": "2011-11-30T22:04:18Z", "webTitle": "Tottenham Hotspur 1-2 Paok Salonika | Europa League Gp A match report", "webUrl": "https://www.theguardian.com/football/2011/nov/30/tottenham-hotspur-paok-salonica-europa-league", "apiUrl": "https://content.guardianapis.com/football/2011/nov/30/tottenham-hotspur-paok-salonica-europa-league", "isHosted": false, "pillarId": "pillar/sport", "pillarName": "Sport"}, {"id": "football/2011/nov/30/romelu-lukaku-escape-fa-sanction", "type": "article", "sectionId": "football", "sectionName": "Football", "webPublicationDate": "2011-11-30T22:00:01Z", "webTitle": "Romelu Lukaku set to escape FA sanction in case of mistaken identity", "webUrl": "https://www.theguardian.com/football/2011/nov/30/romelu-lukaku-escape-fa-sanction", "apiUrl": "https://content.guardianapis.com/football/2011/nov/30/romelu-lukaku-escape-fa-sanction", "isHosted": false, "pillarId": "pillar/sport", "pillarName": "Sport"}, {"id": "football/2011/nov/30/tottenham-hotspur-paok-salonika-europa-league", "type": "article", "sectionId": "football", "sectionName": "Football", "webPublicationDate": "2011-11-30T22:00:00Z", "webTitle": "Tottenham Hostpur v PAOK Salonika \u2013 live! | Paul Doyle", "webUrl": "https://www.theguardian.com/football/2011/nov/30/tottenham-hotspur-paok-salonika-europa-league", "apiUrl": "https://content.guardianapis.com/football/2011/nov/30/tottenham-hotspur-paok-salonika-europa-league", "isHosted": false, "pillarId": "pillar/sport", "pillarName": "Sport"}, {"id": "football/2011/nov/30/celtic-atletico-madrid-europa-league", "type": "article", "sectionId": "football", "sectionName": "Football", "webPublicationDate": "2011-11-30T21:26:56Z", "webTitle": "Celtic 0-1 Atl\u00e9tico Madrid | Europa League Group I match report", "webUrl": "https://www.theguardian.com/football/2011/nov/30/celtic-atletico-madrid-europa-league", "apiUrl": "https://content.guardianapis.com/football/2011/nov/30/celtic-atletico-madrid-europa-league", "isHosted": false, "pillarId": "pillar/sport", "pillarName": "Sport"}, {"id": "football/blog/2011/nov/30/steve-bruce-sunderland-sacked", "type": "article", "sectionId": "football", "sectionName": "Football", "webPublicationDate": "2011-11-30T21:08:35Z", "webTitle": "Steve Bruce was a manager who refused to move with the times | Louise Taylor", "webUrl": "https://www.theguardian.com/football/blog/2011/nov/30/steve-bruce-sunderland-sacked", "apiUrl": "https://content.guardianapis.com/football/blog/2011/nov/30/steve-bruce-sunderland-sacked", "isHosted": false, "pillarId": "pillar/sport", "pillarName": "Sport"}, {"id": "football/2011/nov/30/hm-revenue-customs-football-creditors-rule", "type": "article", "sectionId": "football", "sectionName": "Football", "webPublicationDate": "2011-11-30T20:07:05Z", "webTitle": "HM Revenue and Customs opens case against football creditors' rule", "webUrl": "https://www.theguardian.com/football/2011/nov/30/hm-revenue-customs-football-creditors-rule", "apiUrl": "https://content.guardianapis.com/football/2011/nov/30/hm-revenue-customs-football-creditors-rule", "isHosted": false, "pillarId": "pillar/sport", "pillarName": "Sport"}, {"id": "football/2011/nov/30/brazilian-corruption-investigation-fifa-teixeira", "type": "article", "sectionId": "football", "sectionName": "Football", "webPublicationDate": "2011-11-30T20:06:58Z", "webTitle": "Brazilian corruption investigation presents new headache for Fifa", "webUrl": "https://www.theguardian.com/football/2011/nov/30/brazilian-corruption-investigation-fifa-teixeira", "apiUrl": "https://content.guardianapis.com/football/2011/nov/30/brazilian-corruption-investigation-fifa-teixeira", "isHosted": false, "pillarId": "pillar/sport", "pillarName": "Sport"}, {"id": "football/2011/nov/30/sporting-braga-birmingham-city-live", "type": "article", "sectionId": "football", "sectionName": "Football", "webPublicationDate": "2011-11-30T19:53:00Z", "webTitle": "Sporting Braga v Birmingham \u2013 as it happened | Tom Lutz", "webUrl": "https://www.theguardian.com/football/2011/nov/30/sporting-braga-birmingham-city-live", "apiUrl": "https://content.guardianapis.com/football/2011/nov/30/sporting-braga-birmingham-city-live", "isHosted": false, "pillarId": "pillar/sport", "pillarName": "Sport"}, {"id": "football/2011/nov/30/west-bromwich-albion-zoltan-gera", "type": "article", "sectionId": "football", "sectionName": "Football", "webPublicationDate": "2011-11-30T19:39:50Z", "webTitle": "West Bromwich Albion's Zoltan Gera out for rest of season", "webUrl": "https://www.theguardian.com/football/2011/nov/30/west-bromwich-albion-zoltan-gera", "apiUrl": "https://content.guardianapis.com/football/2011/nov/30/west-bromwich-albion-zoltan-gera", "isHosted": false, "pillarId": "pillar/sport", "pillarName": "Sport"}, {"id": "football/2011/nov/30/championship-clubs-financial-fair-play", "type": "article", "sectionId": "football", "sectionName": "Football", "webPublicationDate": "2011-11-30T19:37:54Z", "webTitle": "Championship clubs agree on need to slash losses", "webUrl": "https://www.theguardian.com/football/2011/nov/30/championship-clubs-financial-fair-play", "apiUrl": "https://content.guardianapis.com/football/2011/nov/30/championship-clubs-financial-fair-play", "isHosted": false, "pillarId": "pillar/sport", "pillarName": "Sport"}, {"id": "football/2011/nov/30/liverpool-lucas-cruciate-ligament-injury", "type": "article", "sectionId": "football", "sectionName": "Football", "webPublicationDate": "2011-11-30T19:22:22Z", "webTitle": "Liverpool's Lucas fears scan will reveal cruciate ligament injury", "webUrl": "https://www.theguardian.com/football/2011/nov/30/liverpool-lucas-cruciate-ligament-injury", "apiUrl": "https://content.guardianapis.com/football/2011/nov/30/liverpool-lucas-cruciate-ligament-injury", "isHosted": false, "pillarId": "pillar/sport", "pillarName": "Sport"}, {"id": "football/2011/nov/30/manchester-city-sheikh-mansour-roberto-mancini", "type": "article", "sectionId": "football", "sectionName": "Football", "webPublicationDate": "2011-11-30T18:00:31Z", "webTitle": "Manchester City's owner Sheikh Mansour praises Roberto Mancini", "webUrl": "https://www.theguardian.com/football/2011/nov/30/manchester-city-sheikh-mansour-roberto-mancini", "apiUrl": "https://content.guardianapis.com/football/2011/nov/30/manchester-city-sheikh-mansour-roberto-mancini", "isHosted": false, "pillarId": "pillar/sport", "pillarName": "Sport"}, {"id": "football/2011/nov/30/arsenal-ladies-japan", "type": "article", "sectionId": "football", "sectionName": "Football", "webPublicationDate": "2011-11-30T17:02:35Z", "webTitle": "Arsenal Ladies hail 'astonishing' reception in Japan", "webUrl": "https://www.theguardian.com/football/2011/nov/30/arsenal-ladies-japan", "apiUrl": "https://content.guardianapis.com/football/2011/nov/30/arsenal-ladies-japan", "isHosted": false, "pillarId": "pillar/sport", "pillarName": "Sport"}, {"id": "football/2011/nov/30/the-fiver-palace-united-steve-kean", "type": "article", "sectionId": "football", "sectionName": "Football", "webPublicationDate": "2011-11-30T16:21:42Z", "webTitle": "The Fiver | Survivalist; and Steve Kean | Barry Glendenning and Tom Lutz", "webUrl": "https://www.theguardian.com/football/2011/nov/30/the-fiver-palace-united-steve-kean", "apiUrl": "https://content.guardianapis.com/football/2011/nov/30/the-fiver-palace-united-steve-kean", "isHosted": false, "pillarId": "pillar/sport", "pillarName": "Sport"}, {"id": "football/blog/2011/nov/30/premier-league-managers-sack", "type": "article", "sectionId": "football", "sectionName": "Football", "webPublicationDate": "2011-11-30T15:39:38Z", "webTitle": "Premier League managers seem safer with sack-happy culture on wane | Jamie Jackson", "webUrl": "https://www.theguardian.com/football/blog/2011/nov/30/premier-league-managers-sack", "apiUrl": "https://content.guardianapis.com/football/blog/2011/nov/30/premier-league-managers-sack", "isHosted": false, "pillarId": "pillar/sport", "pillarName": "Sport"}, {"id": "football/2011/nov/30/wales-gary-speed-successor-faw", "type": "article", "sectionId": "football", "sectionName": "Football", "webPublicationDate": "2011-11-30T15:16:53Z", "webTitle": "Wales to delay search for Gary Speed's successor as national coach", "webUrl": "https://www.theguardian.com/football/2011/nov/30/wales-gary-speed-successor-faw", "apiUrl": "https://content.guardianapis.com/football/2011/nov/30/wales-gary-speed-successor-faw", "isHosted": false, "pillarId": "pillar/sport", "pillarName": "Sport"}, {"id": "football/2011/nov/30/everton-official-leaves-club-emails", "type": "article", "sectionId": "football", "sectionName": "Football", "webPublicationDate": "2011-11-30T15:04:30Z", "webTitle": "Everton official leaves club following release of private emails", "webUrl": "https://www.theguardian.com/football/2011/nov/30/everton-official-leaves-club-emails", "apiUrl": "https://content.guardianapis.com/football/2011/nov/30/everton-official-leaves-club-emails", "isHosted": false, "pillarId": "pillar/sport", "pillarName": "Sport"}, {"id": "football/blog/2011/nov/30/chelsea-premier-league-icon-manchester-united", "type": "article", "sectionId": "football", "sectionName": "Football", "webPublicationDate": "2011-11-30T13:51:23Z", "webTitle": "Why Chelsea are a bigger Premier League icon than Manchester United | Paul Wilson", "webUrl": "https://www.theguardian.com/football/blog/2011/nov/30/chelsea-premier-league-icon-manchester-united", "apiUrl": "https://content.guardianapis.com/football/blog/2011/nov/30/chelsea-premier-league-icon-manchester-united", "isHosted": false, "pillarId": "pillar/sport", "pillarName": "Sport"}, {"id": "football/football-league-blog/2011/nov/30/paul-jewell-ipswich-town", "type": "article", "sectionId": "football", "sectionName": "Football", "webPublicationDate": "2011-11-30T12:37:41Z", "webTitle": "Paul Jewell's woeful Ipswich 'can't even win a tackle' | John Ashdown", "webUrl": "https://www.theguardian.com/football/football-league-blog/2011/nov/30/paul-jewell-ipswich-town", "apiUrl": "https://content.guardianapis.com/football/football-league-blog/2011/nov/30/paul-jewell-ipswich-town", "isHosted": false, "pillarId": "pillar/sport", "pillarName": "Sport"}, {"id": "football/2011/nov/30/nasri-frimpong-post-match-handbags", "type": "article", "sectionId": "football", "sectionName": "Football", "webPublicationDate": "2011-11-30T11:58:05Z", "webTitle": "No action to be taken over Nasri and Frimpong's post-match 'handbags'", "webUrl": "https://www.theguardian.com/football/2011/nov/30/nasri-frimpong-post-match-handbags", "apiUrl": "https://content.guardianapis.com/football/2011/nov/30/nasri-frimpong-post-match-handbags", "isHosted": false, "pillarId": "pillar/sport", "pillarName": "Sport"}, {"id": "football/blog/2011/nov/30/crystal-palace-manchester-united-carling-cup", "type": "article", "sectionId": "football", "sectionName": "Football", "webPublicationDate": "2011-11-30T11:15:54Z", "webTitle": "Dougie Freedman proud to showcase Crystal Palace young blood | Barney Ronay", "webUrl": "https://www.theguardian.com/football/blog/2011/nov/30/crystal-palace-manchester-united-carling-cup", "apiUrl": "https://content.guardianapis.com/football/blog/2011/nov/30/crystal-palace-manchester-united-carling-cup", "isHosted": false, "pillarId": "pillar/sport", "pillarName": "Sport"}, {"id": "football/2011/nov/30/football-transfer-rumours-villas-boas", "type": "article", "sectionId": "football", "sectionName": "Football", "webPublicationDate": "2011-11-30T09:19:09Z", "webTitle": "Football transfer rumours: Andr\u00e9 Villas-Boas to raid Barcelona?", "webUrl": "https://www.theguardian.com/football/2011/nov/30/football-transfer-rumours-villas-boas", "apiUrl": "https://content.guardianapis.com/football/2011/nov/30/football-transfer-rumours-villas-boas", "isHosted": false, "pillarId": "pillar/sport", "pillarName": "Sport"}, {"id": "football/2011/nov/30/samir-nasri-emmanuel-frimpong-tunnel-row", "type": "article", "sectionId": "football", "sectionName": "Football", "webPublicationDate": "2011-11-30T08:41:07Z", "webTitle": "Samir Nasri and Emmanuel Frimpong clash in post-match tunnel row", "webUrl": "https://www.theguardian.com/football/2011/nov/30/samir-nasri-emmanuel-frimpong-tunnel-row", "apiUrl": "https://content.guardianapis.com/football/2011/nov/30/samir-nasri-emmanuel-frimpong-tunnel-row", "isHosted": false, "pillarId": "pillar/sport", "pillarName": "Sport"}, {"id": "football/2011/nov/30/pfa-guidebook-depression", "type": "article", "sectionId": "football", "sectionName": "Football", "webPublicationDate": "2011-11-30T00:53:17Z", "webTitle": "PFA commissions guidebook to help footballers cope with depression", "webUrl": "https://www.theguardian.com/football/2011/nov/30/pfa-guidebook-depression", "apiUrl": "https://content.guardianapis.com/football/2011/nov/30/pfa-guidebook-depression", "isHosted": false, "pillarId": "pillar/sport", "pillarName": "Sport"}, {"id": "football/2011/nov/30/team-needed-tank-escape-ground", "type": "article", "sectionId": "football", "sectionName": "Football", "webPublicationDate": "2011-11-30T00:06:00Z", "webTitle": "Have any teams ever needed a tank to escape a ground? | The Knowledge", "webUrl": "https://www.theguardian.com/football/2011/nov/30/team-needed-tank-escape-ground", "apiUrl": "https://content.guardianapis.com/football/2011/nov/30/team-needed-tank-escape-ground", "isHosted": false, "pillarId": "pillar/sport", "pillarName": "Sport"}, {"id": "football/2011/nov/29/andre-villas-boas-chelsea-anxiety", "type": "article", "sectionId": "football", "sectionName": "Football", "webPublicationDate": "2011-11-29T23:59:18Z", "webTitle": "Andr\u00e9 Villas-Boas says Chelsea's form has made Stamford Bridge anxious", "webUrl": "https://www.theguardian.com/football/2011/nov/29/andre-villas-boas-chelsea-anxiety", "apiUrl": "https://content.guardianapis.com/football/2011/nov/29/andre-villas-boas-chelsea-anxiety", "isHosted": false, "pillarId": "pillar/sport", "pillarName": "Sport"}, {"id": "football/2011/nov/29/celtic-neil-lennon-atletico-madrid", "type": "article", "sectionId": "football", "sectionName": "Football", "webPublicationDate": "2011-11-29T23:01:01Z", "webTitle": "Celtic's Neil Lennon rues early kick-off against Atl\u00e9tico Madrid", "webUrl": "https://www.theguardian.com/football/2011/nov/29/celtic-neil-lennon-atletico-madrid", "apiUrl": "https://content.guardianapis.com/football/2011/nov/29/celtic-neil-lennon-atletico-madrid", "isHosted": false, "pillarId": "pillar/sport", "pillarName": "Sport"}, {"id": "football/2011/nov/29/manchester-united-crystal-palace-carling-cup", "type": "article", "sectionId": "football", "sectionName": "Football", "webPublicationDate": "2011-11-29T22:47:30Z", "webTitle": "Manchester United's Ravel Morrison may start against Crystal Palace", "webUrl": "https://www.theguardian.com/football/2011/nov/29/manchester-united-crystal-palace-carling-cup", "apiUrl": "https://content.guardianapis.com/football/2011/nov/29/manchester-united-crystal-palace-carling-cup", "isHosted": false, "pillarId": "pillar/sport", "pillarName": "Sport"}, {"id": "football/blog/2011/nov/29/arsenal-liverpool-five-things-learned", "type": "article", "sectionId": "football", "sectionName": "Football", "webPublicationDate": "2011-11-29T22:45:30Z", "webTitle": "Arsenal v Manchester City: five things we learned | Jamie Jackson", "webUrl": "https://www.theguardian.com/football/blog/2011/nov/29/arsenal-liverpool-five-things-learned", "apiUrl": "https://content.guardianapis.com/football/blog/2011/nov/29/arsenal-liverpool-five-things-learned", "isHosted": false, "pillarId": "pillar/sport", "pillarName": "Sport"}, {"id": "football/gallery/2011/nov/29/carling-cup-quarter-finals-pictures", "type": "gallery", "sectionId": "football", "sectionName": "Football", "webPublicationDate": "2011-11-29T22:39:00Z", "webTitle": "Carling Cup quarter-finals - in pictures", "webUrl": "https://www.theguardian.com/football/gallery/2011/nov/29/carling-cup-quarter-finals-pictures", "apiUrl": "https://content.guardianapis.com/football/gallery/2011/nov/29/carling-cup-quarter-finals-pictures", "isHosted": false, "pillarId": "pillar/sport", "pillarName": "Sport"}, {"id": "football/blog/2011/nov/29/chelsea-liverpool-carling-cup", "type": "article", "sectionId": "football", "sectionName": "Football", "webPublicationDate": "2011-11-29T22:34:57Z", "webTitle": "Young guns fail to fire Chelsea past Liverpool's quality in depth | David Hytner", "webUrl": "https://www.theguardian.com/football/blog/2011/nov/29/chelsea-liverpool-carling-cup", "apiUrl": "https://content.guardianapis.com/football/blog/2011/nov/29/chelsea-liverpool-carling-cup", "isHosted": false, "pillarId": "pillar/sport", "pillarName": "Sport"}, {"id": "football/2011/nov/29/tottenham-europa-league-roman-pavlyuchenko", "type": "article", "sectionId": "football", "sectionName": "Football", "webPublicationDate": "2011-11-29T22:30:02Z", "webTitle": "Tottenham's Europa League plans ruined by Roman Pavlyuchenko injury", "webUrl": "https://www.theguardian.com/football/2011/nov/29/tottenham-europa-league-roman-pavlyuchenko", "apiUrl": "https://content.guardianapis.com/football/2011/nov/29/tottenham-europa-league-roman-pavlyuchenko", "isHosted": false, "pillarId": "pillar/sport", "pillarName": "Sport"}, {"id": "football/2011/nov/29/middlesbrough-west-ham-united-championship", "type": "article", "sectionId": "football", "sectionName": "Football", "webPublicationDate": "2011-11-29T22:28:08Z", "webTitle": "Middlesbrough 0-2 West Ham United | Championship match report", "webUrl": "https://www.theguardian.com/football/2011/nov/29/middlesbrough-west-ham-united-championship", "apiUrl": "https://content.guardianapis.com/football/2011/nov/29/middlesbrough-west-ham-united-championship", "isHosted": false, "pillarId": "pillar/sport", "pillarName": "Sport"}, {"id": "football/blog/2011/nov/29/manchester-city-samir-nasri-arsenal", "type": "article", "sectionId": "football", "sectionName": "Football", "webPublicationDate": "2011-11-29T22:08:07Z", "webTitle": "Manchester City fielded Samir Nasri and turned the taunts on Arsenal | Amy Lawrence", "webUrl": "https://www.theguardian.com/football/blog/2011/nov/29/manchester-city-samir-nasri-arsenal", "apiUrl": "https://content.guardianapis.com/football/blog/2011/nov/29/manchester-city-samir-nasri-arsenal", "isHosted": false, "pillarId": "pillar/sport", "pillarName": "Sport"}, {"id": "football/2011/nov/29/arsenal-manchester-city-mbm-carling-cup", "type": "article", "sectionId": "football", "sectionName": "Football", "webPublicationDate": "2011-11-29T22:03:00Z", "webTitle": "Arsenal v Manchester City - as it happened | Barry Glendenning", "webUrl": "https://www.theguardian.com/football/2011/nov/29/arsenal-manchester-city-mbm-carling-cup", "apiUrl": "https://content.guardianapis.com/football/2011/nov/29/arsenal-manchester-city-mbm-carling-cup", "isHosted": false, "pillarId": "pillar/sport", "pillarName": "Sport"}, {"id": "football/2011/nov/29/arsenal-manchester-city-carling-cup", "type": "article", "sectionId": "football", "sectionName": "Football", "webPublicationDate": "2011-11-29T22:02:11Z", "webTitle": "Arsenal 0-1 Manchester City | Carling Cup quarter-final match report", "webUrl": "https://www.theguardian.com/football/2011/nov/29/arsenal-manchester-city-carling-cup", "apiUrl": "https://content.guardianapis.com/football/2011/nov/29/arsenal-manchester-city-carling-cup", "isHosted": false, "pillarId": "pillar/sport", "pillarName": "Sport"}, {"id": "football/2011/nov/29/cardiff-city-blackburn-rovers-carling-cup", "type": "article", "sectionId": "football", "sectionName": "Football", "webPublicationDate": "2011-11-29T21:59:45Z", "webTitle": "Cardiff City 2-0 Blackburn Rovers | Carling Cup quarter-final match report", "webUrl": "https://www.theguardian.com/football/2011/nov/29/cardiff-city-blackburn-rovers-carling-cup", "apiUrl": "https://content.guardianapis.com/football/2011/nov/29/cardiff-city-blackburn-rovers-carling-cup", "isHosted": false, "pillarId": "pillar/sport", "pillarName": "Sport"}, {"id": "football/2011/nov/29/chelsea-liverpool-carling-cup", "type": "article", "sectionId": "football", "sectionName": "Football", "webPublicationDate": "2011-11-29T21:54:55Z", "webTitle": "Chelsea 0-2 Liverpool | Carling Cup quarter-final match report", "webUrl": "https://www.theguardian.com/football/2011/nov/29/chelsea-liverpool-carling-cup", "apiUrl": "https://content.guardianapis.com/football/2011/nov/29/chelsea-liverpool-carling-cup", "isHosted": false, "pillarId": "pillar/sport", "pillarName": "Sport"}, {"id": "tv-and-radio/tvandradioblog/2011/nov/29/radio-head-gary-speed-606", "type": "article", "sectionId": "tv-and-radio", "sectionName": "Television & radio", "webPublicationDate": "2011-11-29T21:30:02Z", "webTitle": "Radio head: 606 Football Phone-In's Gary Speed special", "webUrl": "https://www.theguardian.com/tv-and-radio/tvandradioblog/2011/nov/29/radio-head-gary-speed-606", "apiUrl": "https://content.guardianapis.com/tv-and-radio/tvandradioblog/2011/nov/29/radio-head-gary-speed-606", "isHosted": false, "pillarId": "pillar/arts", "pillarName": "Arts"}, {"id": "sport/2011/nov/29/olympic-football-tickets-2012", "type": "article", "sectionId": "sport", "sectionName": "Sport", "webPublicationDate": "2011-11-29T20:02:58Z", "webTitle": "Demand for Olympic football tickets slows online system to crawl", "webUrl": "https://www.theguardian.com/sport/2011/nov/29/olympic-football-tickets-2012", "apiUrl": "https://content.guardianapis.com/sport/2011/nov/29/olympic-football-tickets-2012", "isHosted": false, "pillarId": "pillar/sport", "pillarName": "Sport"}, {"id": "football/2011/nov/29/gary-speed-inquest-not-suspicious", "type": "article", "sectionId": "football", "sectionName": "Football", "webPublicationDate": "2011-11-29T19:48:36Z", "webTitle": "Gary Speed's body found in garage of family home, inquest told", "webUrl": "https://www.theguardian.com/football/2011/nov/29/gary-speed-inquest-not-suspicious", "apiUrl": "https://content.guardianapis.com/football/2011/nov/29/gary-speed-inquest-not-suspicious", "isHosted": false, "pillarId": "pillar/sport", "pillarName": "Sport"}, {"id": "football/david-conn-inside-sport-blog/2011/nov/29/portsmouth-crisis-vladimir-antonov", "type": "article", "sectionId": "football", "sectionName": "Football", "webPublicationDate": "2011-11-29T19:37:36Z", "webTitle": "Portsmouth's latest crisis prompts another fit-and-proper question | David Conn", "webUrl": "https://www.theguardian.com/football/david-conn-inside-sport-blog/2011/nov/29/portsmouth-crisis-vladimir-antonov", "apiUrl": "https://content.guardianapis.com/football/david-conn-inside-sport-blog/2011/nov/29/portsmouth-crisis-vladimir-antonov", "isHosted": false, "pillarId": "pillar/sport", "pillarName": "Sport"}, {"id": "football/2011/nov/29/rangers-kyle-lafferty-brick-attack", "type": "article", "sectionId": "football", "sectionName": "Football", "webPublicationDate": "2011-11-29T17:53:50Z", "webTitle": "Rangers' Kyle Lafferty sickened by brick attack on his car", "webUrl": "https://www.theguardian.com/football/2011/nov/29/rangers-kyle-lafferty-brick-attack", "apiUrl": "https://content.guardianapis.com/football/2011/nov/29/rangers-kyle-lafferty-brick-attack", "isHosted": false, "pillarId": "pillar/sport", "pillarName": "Sport"}]}}