{"response": {"status": "ok", "userTier": "developer", "total": 27557, "startIndex": 1, "pageSize": 50, "currentPage": 1, "pages": 552, "orderBy": "newest", "results": [{"id": "media/2010/nov/30/future-of-journalism-joris-luyendijk", "type": "article", "sectionId": "media", "sectionName": "Media", "webPublicationDate": "2010-11-30T20:30:00Z", "webTitle": "Joris Luyendijk: 'The old model of journalism is broken'", "webUrl": "https://www.theguardian.com/media/2010/nov/30/future-of-journalism-joris-luyendijk", "apiUrl": "https://content.guardianapis.com/media/2010/nov/30/future-of-journalism-joris-luyendijk", "isHosted": false, "pillarId": "pillar/news", "pillarName": "News"}, {"id": "environment/2010/nov/30/uk-economic-recovery-environment-eu", "type": "article", "sectionId": "environment", "sectionName": "Environment", "webPublicationDate": "2010-11-30T17:55:35Z", "webTitle": "UK economic recovery 'poses threat to environment'", "webUrl": "https://www.theguardian.com/environment/2010/nov/30/uk-economic-recovery-environment-eu", "apiUrl": "https://content.guardianapis.com/environment/2010/nov/30/uk-economic-recovery-environment-eu", "isHosted": false, "pillarId": "pillar/news", "pillarName": "News"}, {"id": "environment/cif-green/2010/nov/30/climate-change-sceptic-bob-carter", "type": "article", "sectionId": "environment", "sectionName": "Environment", "webPublicationDate": "2010-11-30T16:25:12Z", "webTitle": "Climate change sceptic Bob Carter continues to ply his trade | Bob Ward", "webUrl": "https://www.theguardian.com/environment/cif-green/2010/nov/30/climate-change-sceptic-bob-carter", "apiUrl": "https://content.guardianapis.com/environment/cif-green/2010/nov/30/climate-change-sceptic-bob-carter", "isHosted": false, "pillarId": "pillar/news", "pillarName": "News"}, {"id": "environment/cif-green/2010/nov/30/cancun-carbon-growth", "type": "article", "sectionId": "environment", "sectionName": "Environment", "webPublicationDate": "2010-11-30T16:14:03Z", "webTitle": "Canc\u00fan climate summit: Let's look beyond carbon | Tim Yeo", "webUrl": "https://www.theguardian.com/environment/cif-green/2010/nov/30/cancun-carbon-growth", "apiUrl": "https://content.guardianapis.com/environment/cif-green/2010/nov/30/cancun-carbon-growth", "isHosted": false, "pillarId": "pillar/news", "pillarName": "News"}, {"id": "commentisfree/cifamerica/2010/nov/30/global-climate-talks-climate-change", "type": "article", "sectionId": "commentisfree", "sectionName": "Opinion", "webPublicationDate": "2010-11-30T15:32:47Z", "webTitle": "Canc\u00fan and the new economics of climate change | Kevin Gallagher and Frank Ackerman", "webUrl": "https://www.theguardian.com/commentisfree/cifamerica/2010/nov/30/global-climate-talks-climate-change", "apiUrl": "https://content.guardianapis.com/commentisfree/cifamerica/2010/nov/30/global-climate-talks-climate-change", "isHosted": false, "pillarId": "pillar/opinion", "pillarName": "Opinion"}, {"id": "uk/2010/nov/30/week-in-britain-derek-brown", "type": "article", "sectionId": "uk-news", "sectionName": "UK news", "webPublicationDate": "2010-11-30T13:59:02Z", "webTitle": "Spring into those bank holidays", "webUrl": "https://www.theguardian.com/uk/2010/nov/30/week-in-britain-derek-brown", "apiUrl": "https://content.guardianapis.com/uk/2010/nov/30/week-in-britain-derek-brown", "isHosted": false, "pillarId": "pillar/news", "pillarName": "News"}, {"id": "environment/2010/nov/30/cancun-climate-change-summit-america", "type": "article", "sectionId": "environment", "sectionName": "Environment", "webPublicationDate": "2010-11-30T13:55:26Z", "webTitle": "Canc\u00fan climate change summit: America plays tough", "webUrl": "https://www.theguardian.com/environment/2010/nov/30/cancun-climate-change-summit-america", "apiUrl": "https://content.guardianapis.com/environment/2010/nov/30/cancun-climate-change-summit-america", "isHosted": false, "pillarId": "pillar/news", "pillarName": "News"}, {"id": "environment/blog/2010/nov/30/wwf-cancun-climate-summit", "type": "article", "sectionId": "environment", "sectionName": "Environment", "webPublicationDate": "2010-11-30T13:00:00Z", "webTitle": "Live web chat: WWF on the Canc\u00fan climate summit", "webUrl": "https://www.theguardian.com/environment/blog/2010/nov/30/wwf-cancun-climate-summit", "apiUrl": "https://content.guardianapis.com/environment/blog/2010/nov/30/wwf-cancun-climate-summit", "isHosted": false, "pillarId": "pillar/news", "pillarName": "News"}, {"id": "environment/video/2010/nov/30/water-peru-climate-change", "type": "video", "sectionId": "environment", "sectionName": "Environment", "webPublicationDate": "2010-11-30T12:15:00Z", "webTitle": "Video | A climate journey - The Andes: Water wars", "webUrl": "https://www.theguardian.com/environment/video/2010/nov/30/water-peru-climate-change", "apiUrl": "https://content.guardianapis.com/environment/video/2010/nov/30/water-peru-climate-change", "isHosted": false, "pillarId": "pillar/news", "pillarName": "News"}, {"id": "environment/2010/nov/30/cancun-climate-talks-pablo-salon", "type": "article", "sectionId": "environment", "sectionName": "Environment", "webPublicationDate": "2010-11-30T08:00:09Z", "webTitle": "Climate talks: We must not allow Canc\u00fan to turn into Can'tCun", "webUrl": "https://www.theguardian.com/environment/2010/nov/30/cancun-climate-talks-pablo-salon", "apiUrl": "https://content.guardianapis.com/environment/2010/nov/30/cancun-climate-talks-pablo-salon", "isHosted": false, "pillarId": "pillar/news", "pillarName": "News"}, {"id": "science/2010/nov/30/10-big-questions-science-must-answer", "type": "article", "sectionId": "science", "sectionName": "Science", "webPublicationDate": "2010-11-30T07:59:02Z", "webTitle": "Ten questions science must answer", "webUrl": "https://www.theguardian.com/science/2010/nov/30/10-big-questions-science-must-answer", "apiUrl": "https://content.guardianapis.com/science/2010/nov/30/10-big-questions-science-must-answer", "isHosted": false, "pillarId": "pillar/news", "pillarName": "News"}, {"id": "environment/2010/nov/30/country-diary-somerset", "type": "article", "sectionId": "environment", "sectionName": "Environment", "webPublicationDate": "2010-11-30T00:05:10Z", "webTitle": "Country diary: Somerset", "webUrl": "https://www.theguardian.com/environment/2010/nov/30/country-diary-somerset", "apiUrl": "https://content.guardianapis.com/environment/2010/nov/30/country-diary-somerset", "isHosted": false, "pillarId": "pillar/news", "pillarName": "News"}, {"id": "environment/2010/nov/30/reverend-billy-protest-consumer-spending-christmas", "type": "article", "sectionId": "environment", "sectionName": "Environment", "webPublicationDate": "2010-11-30T00:05:05Z", "webTitle": "Letters: Reverend Billy", "webUrl": "https://www.theguardian.com/environment/2010/nov/30/reverend-billy-protest-consumer-spending-christmas", "apiUrl": "https://content.guardianapis.com/environment/2010/nov/30/reverend-billy-protest-consumer-spending-christmas", "isHosted": false, "pillarId": "pillar/news", "pillarName": "News"}, {"id": "world/2010/nov/29/us-green-technology-energy-investment", "type": "article", "sectionId": "environment", "sectionName": "Environment", "webPublicationDate": "2010-11-29T21:15:01Z", "webTitle": "US energy secretary warns of 'Sputnik moment' in green technology race", "webUrl": "https://www.theguardian.com/world/2010/nov/29/us-green-technology-energy-investment", "apiUrl": "https://content.guardianapis.com/world/2010/nov/29/us-green-technology-energy-investment", "isHosted": false, "pillarId": "pillar/news", "pillarName": "News"}, {"id": "environment/2010/nov/29/climate-change-activists-trespass-charges", "type": "article", "sectionId": "environment", "sectionName": "Environment", "webPublicationDate": "2010-11-29T20:58:14Z", "webTitle": "Climate change protesters' anger was justifiable, says Nasa scientist", "webUrl": "https://www.theguardian.com/environment/2010/nov/29/climate-change-activists-trespass-charges", "apiUrl": "https://content.guardianapis.com/environment/2010/nov/29/climate-change-activists-trespass-charges", "isHosted": false, "pillarId": "pillar/news", "pillarName": "News"}, {"id": "environment/gallery/2010/nov/29/cancun-climate-change-talks-copenhagen", "type": "gallery", "sectionId": "environment", "sectionName": "Environment", "webPublicationDate": "2010-11-29T18:35:00Z", "webTitle": "From Copenhagen to Canc\u00fan: A year in climate change", "webUrl": "https://www.theguardian.com/environment/gallery/2010/nov/29/cancun-climate-change-talks-copenhagen", "apiUrl": "https://content.guardianapis.com/environment/gallery/2010/nov/29/cancun-climate-change-talks-copenhagen", "isHosted": false, "pillarId": "pillar/news", "pillarName": "News"}, {"id": "environment/cif-green/2010/nov/29/cancun-climate-change-copenhagen", "type": "article", "sectionId": "environment", "sectionName": "Environment", "webPublicationDate": "2010-11-29T15:48:00Z", "webTitle": "Canc\u00fan climate talks: In search of the holy grail of climate change policy | Michael Jacobs", "webUrl": "https://www.theguardian.com/environment/cif-green/2010/nov/29/cancun-climate-change-copenhagen", "apiUrl": "https://content.guardianapis.com/environment/cif-green/2010/nov/29/cancun-climate-change-copenhagen", "isHosted": false, "pillarId": "pillar/news", "pillarName": "News"}, {"id": "environment/blog/2010/nov/29/cancun-climate-talks-united-nations", "type": "article", "sectionId": "environment", "sectionName": "Environment", "webPublicationDate": "2010-11-29T13:30:01Z", "webTitle": "Canc\u00fan climate talks are too big to fail | Lucy Brinicombe", "webUrl": "https://www.theguardian.com/environment/blog/2010/nov/29/cancun-climate-talks-united-nations", "apiUrl": "https://content.guardianapis.com/environment/blog/2010/nov/29/cancun-climate-talks-united-nations", "isHosted": false, "pillarId": "pillar/news", "pillarName": "News"}, {"id": "environment/2010/nov/29/shop-doors-shut-save-energy", "type": "article", "sectionId": "environment", "sectionName": "Environment", "webPublicationDate": "2010-11-29T12:47:53Z", "webTitle": "How much energy do shops waste by keeping their doors open in winter? | Leo Hickman", "webUrl": "https://www.theguardian.com/environment/2010/nov/29/shop-doors-shut-save-energy", "apiUrl": "https://content.guardianapis.com/environment/2010/nov/29/shop-doors-shut-save-energy", "isHosted": false, "pillarId": "pillar/news", "pillarName": "News"}, {"id": "film/2010/nov/29/mark-ruffalo-terrorism-watchlist-gasland", "type": "article", "sectionId": "film", "sectionName": "Film", "webPublicationDate": "2010-11-29T11:21:01Z", "webTitle": "Mark Ruffalo 'added to terrorism watchlist' over Gasland", "webUrl": "https://www.theguardian.com/film/2010/nov/29/mark-ruffalo-terrorism-watchlist-gasland", "apiUrl": "https://content.guardianapis.com/film/2010/nov/29/mark-ruffalo-terrorism-watchlist-gasland", "isHosted": false, "pillarId": "pillar/arts", "pillarName": "Arts"}, {"id": "environment/2010/nov/29/iccat-conservation-conference-fishing-quotas", "type": "article", "sectionId": "environment", "sectionName": "Environment", "webPublicationDate": "2010-11-29T11:04:16Z", "webTitle": "Bluefin tuna still largely unprotected as conservation conference ends", "webUrl": "https://www.theguardian.com/environment/2010/nov/29/iccat-conservation-conference-fishing-quotas", "apiUrl": "https://content.guardianapis.com/environment/2010/nov/29/iccat-conservation-conference-fishing-quotas", "isHosted": false, "pillarId": "pillar/news", "pillarName": "News"}, {"id": "environment/video/2010/nov/29/climate-change-andes-peru-water", "type": "video", "sectionId": "environment", "sectionName": "Environment", "webPublicationDate": "2010-11-29T10:46:00Z", "webTitle": "A climate journey - The Andes: The farmers' struggle", "webUrl": "https://www.theguardian.com/environment/video/2010/nov/29/climate-change-andes-peru-water", "apiUrl": "https://content.guardianapis.com/environment/video/2010/nov/29/climate-change-andes-peru-water", "isHosted": false, "pillarId": "pillar/news", "pillarName": "News"}, {"id": "commentisfree/video/2010/nov/21/joris-luyendijk-journalism", "type": "video", "sectionId": "commentisfree", "sectionName": "Opinion", "webPublicationDate": "2010-11-29T09:00:00Z", "webTitle": "Video: Joris Luyendijk", "webUrl": "https://www.theguardian.com/commentisfree/video/2010/nov/21/joris-luyendijk-journalism", "apiUrl": "https://content.guardianapis.com/commentisfree/video/2010/nov/21/joris-luyendijk-journalism", "isHosted": false, "pillarId": "pillar/opinion", "pillarName": "Opinion"}, {"id": "environment/blog/2010/nov/29/1", "type": "article", "sectionId": "environment", "sectionName": "Environment", "webPublicationDate": "2010-11-29T08:59:31Z", "webTitle": "Environment Weekly - tell us what to cover", "webUrl": "https://www.theguardian.com/environment/blog/2010/nov/29/1", "apiUrl": "https://content.guardianapis.com/environment/blog/2010/nov/29/1", "isHosted": false, "pillarId": "pillar/news", "pillarName": "News"}, {"id": "environment/2010/nov/29/cancun-climate-conference", "type": "article", "sectionId": "environment", "sectionName": "Environment", "webPublicationDate": "2010-11-29T08:30:01Z", "webTitle": "Pass notes No 2,888: Canc\u00fan", "webUrl": "https://www.theguardian.com/environment/2010/nov/29/cancun-climate-conference", "apiUrl": "https://content.guardianapis.com/environment/2010/nov/29/cancun-climate-conference", "isHosted": false, "pillarId": "pillar/news", "pillarName": "News"}, {"id": "environment/blog/2010/nov/29/live-huhne-cancun-climate-talks", "type": "article", "sectionId": "environment", "sectionName": "Environment", "webPublicationDate": "2010-11-29T08:30:00Z", "webTitle": "Live web chat: Chris Huhne on the Canc\u00fan climate talks", "webUrl": "https://www.theguardian.com/environment/blog/2010/nov/29/live-huhne-cancun-climate-talks", "apiUrl": "https://content.guardianapis.com/environment/blog/2010/nov/29/live-huhne-cancun-climate-talks", "isHosted": false, "pillarId": "pillar/news", "pillarName": "News"}, {"id": "business/2010/nov/29/oil-oilandgascompanies", "type": "article", "sectionId": "business", "sectionName": "Business", "webPublicationDate": "2010-11-29T06:00:01Z", "webTitle": "Madagascar Oil brings tar sands project to London market", "webUrl": "https://www.theguardian.com/business/2010/nov/29/oil-oilandgascompanies", "apiUrl": "https://content.guardianapis.com/business/2010/nov/29/oil-oilandgascompanies", "isHosted": false, "pillarId": "pillar/news", "pillarName": "News"}, {"id": "environment/2010/nov/29/david-cameron-green-commitment-cancun", "type": "article", "sectionId": "environment", "sectionName": "Environment", "webPublicationDate": "2010-11-29T00:05:11Z", "webTitle": "Letters: David Cameron must live up to his green commitments", "webUrl": "https://www.theguardian.com/environment/2010/nov/29/david-cameron-green-commitment-cancun", "apiUrl": "https://content.guardianapis.com/environment/2010/nov/29/david-cameron-green-commitment-cancun", "isHosted": false, "pillarId": "pillar/news", "pillarName": "News"}, {"id": "news/2010/nov/29/weatherwatch-natural-drainage-systems-flooding-fens", "type": "article", "sectionId": "news", "sectionName": "News", "webPublicationDate": "2010-11-29T00:05:08Z", "webTitle": "Why a severe North Sea storm could spell disaster for the fens", "webUrl": "https://www.theguardian.com/news/2010/nov/29/weatherwatch-natural-drainage-systems-flooding-fens", "apiUrl": "https://content.guardianapis.com/news/2010/nov/29/weatherwatch-natural-drainage-systems-flooding-fens", "isHosted": false, "pillarId": "pillar/news", "pillarName": "News"}, {"id": "environment/2010/nov/29/country-diary-claxton-norfolk-waxwings", "type": "article", "sectionId": "environment", "sectionName": "Environment", "webPublicationDate": "2010-11-29T00:04:01Z", "webTitle": "Country diary: Claxton, Norfolk", "webUrl": "https://www.theguardian.com/environment/2010/nov/29/country-diary-claxton-norfolk-waxwings", "apiUrl": "https://content.guardianapis.com/environment/2010/nov/29/country-diary-claxton-norfolk-waxwings", "isHosted": false, "pillarId": "pillar/news", "pillarName": "News"}, {"id": "environment/2010/nov/29/climate-change-scientists-4c-temperature", "type": "article", "sectionId": "environment", "sectionName": "Environment", "webPublicationDate": "2010-11-29T00:01:33Z", "webTitle": "Climate change scientists warn of 4C global temperature rise", "webUrl": "https://www.theguardian.com/environment/2010/nov/29/climate-change-scientists-4c-temperature", "apiUrl": "https://content.guardianapis.com/environment/2010/nov/29/climate-change-scientists-4c-temperature", "isHosted": false, "pillarId": "pillar/news", "pillarName": "News"}, {"id": "science/audio/2010/nov/29/science-weekly-podcast-memory", "type": "audio", "sectionId": "science", "sectionName": "Science", "webPublicationDate": "2010-11-29T00:01:00Z", "webTitle": "Science Weekly podcast: Miscarriages of memory and a new climate science exhibition", "webUrl": "https://www.theguardian.com/science/audio/2010/nov/29/science-weekly-podcast-memory", "apiUrl": "https://content.guardianapis.com/science/audio/2010/nov/29/science-weekly-podcast-memory", "isHosted": false, "pillarId": "pillar/news", "pillarName": "News"}, {"id": "environment/2010/nov/28/redd-forest-protection-banks-oil", "type": "article", "sectionId": "environment", "sectionName": "Environment", "webPublicationDate": "2010-11-28T19:58:50Z", "webTitle": "Oil companies and banks will profit from UN forest protection scheme", "webUrl": "https://www.theguardian.com/environment/2010/nov/28/redd-forest-protection-banks-oil", "apiUrl": "https://content.guardianapis.com/environment/2010/nov/28/redd-forest-protection-banks-oil", "isHosted": false, "pillarId": "pillar/news", "pillarName": "News"}, {"id": "world/us-embassy-cables-documents/219058", "type": "article", "sectionId": "world", "sectionName": "World news", "webPublicationDate": "2010-11-28T18:13:36Z", "webTitle": "US embassy cables: Washington calls for intelligence on top UN officials", "webUrl": "https://www.theguardian.com/world/us-embassy-cables-documents/219058", "apiUrl": "https://content.guardianapis.com/world/us-embassy-cables-documents/219058", "isHosted": false, "pillarId": "pillar/news", "pillarName": "News"}, {"id": "environment/2010/nov/28/beaver-escape-scotland-natural-heritage", "type": "article", "sectionId": "environment", "sectionName": "Environment", "webPublicationDate": "2010-11-28T00:12:04Z", "webTitle": "Beaver escape gives teeth to Scotland's debate over tampering with nature", "webUrl": "https://www.theguardian.com/environment/2010/nov/28/beaver-escape-scotland-natural-heritage", "apiUrl": "https://content.guardianapis.com/environment/2010/nov/28/beaver-escape-scotland-natural-heritage", "isHosted": false, "pillarId": "pillar/news", "pillarName": "News"}, {"id": "environment/2010/nov/28/not-easy-being-green-perfume-synthetic", "type": "article", "sectionId": "environment", "sectionName": "Environment", "webPublicationDate": "2010-11-28T00:05:40Z", "webTitle": "Can I use perfume and be green?", "webUrl": "https://www.theguardian.com/environment/2010/nov/28/not-easy-being-green-perfume-synthetic", "apiUrl": "https://content.guardianapis.com/environment/2010/nov/28/not-easy-being-green-perfume-synthetic", "isHosted": false, "pillarId": "pillar/news", "pillarName": "News"}, {"id": "environment/2010/nov/28/innovator-vivien-johnston-fifi-bijoux", "type": "article", "sectionId": "environment", "sectionName": "Environment", "webPublicationDate": "2010-11-28T00:05:25Z", "webTitle": "Vivien Johnston's innovation: ethical jewellery", "webUrl": "https://www.theguardian.com/environment/2010/nov/28/innovator-vivien-johnston-fifi-bijoux", "apiUrl": "https://content.guardianapis.com/environment/2010/nov/28/innovator-vivien-johnston-fifi-bijoux", "isHosted": false, "pillarId": "pillar/news", "pillarName": "News"}, {"id": "environment/2010/nov/28/cancun-climate-summit-weather", "type": "article", "sectionId": "environment", "sectionName": "Environment", "webPublicationDate": "2010-11-28T00:04:11Z", "webTitle": "Climate change will cost a billion people their homes, says report", "webUrl": "https://www.theguardian.com/environment/2010/nov/28/cancun-climate-summit-weather", "apiUrl": "https://content.guardianapis.com/environment/2010/nov/28/cancun-climate-summit-weather", "isHosted": false, "pillarId": "pillar/news", "pillarName": "News"}, {"id": "environment/2010/nov/28/antarctica-ice-climate-change", "type": "article", "sectionId": "environment", "sectionName": "Environment", "webPublicationDate": "2010-11-28T00:03:01Z", "webTitle": "Antarctic ice reveals trapped secrets of climate change", "webUrl": "https://www.theguardian.com/environment/2010/nov/28/antarctica-ice-climate-change", "apiUrl": "https://content.guardianapis.com/environment/2010/nov/28/antarctica-ice-climate-change", "isHosted": false, "pillarId": "pillar/news", "pillarName": "News"}, {"id": "science/2010/nov/28/new-to-nature-allamanda-calcicola", "type": "article", "sectionId": "science", "sectionName": "Science", "webPublicationDate": "2010-11-28T00:03:00Z", "webTitle": "New to Nature No 25: Allamanda calcicola", "webUrl": "https://www.theguardian.com/science/2010/nov/28/new-to-nature-allamanda-calcicola", "apiUrl": "https://content.guardianapis.com/science/2010/nov/28/new-to-nature-allamanda-calcicola", "isHosted": false, "pillarId": "pillar/news", "pillarName": "News"}, {"id": "technology/2010/nov/28/bright-idea-pieter-hoff-agriculture", "type": "article", "sectionId": "science", "sectionName": "Science", "webPublicationDate": "2010-11-28T00:02:01Z", "webTitle": "Pieter Hoff: Teach plants to grow in arid places | Discover", "webUrl": "https://www.theguardian.com/technology/2010/nov/28/bright-idea-pieter-hoff-agriculture", "apiUrl": "https://content.guardianapis.com/technology/2010/nov/28/bright-idea-pieter-hoff-agriculture", "isHosted": false, "pillarId": "pillar/news", "pillarName": "News"}, {"id": "commentisfree/2010/nov/27/fuel-bills-turning-up-heat", "type": "article", "sectionId": "commentisfree", "sectionName": "Opinion", "webPublicationDate": "2010-11-27T00:01:22Z", "webTitle": "Fuel bills: turning up the heat | Editorial", "webUrl": "https://www.theguardian.com/commentisfree/2010/nov/27/fuel-bills-turning-up-heat", "apiUrl": "https://content.guardianapis.com/commentisfree/2010/nov/27/fuel-bills-turning-up-heat", "isHosted": false, "pillarId": "pillar/opinion", "pillarName": "Opinion"}, {"id": "global-development/poverty-matters/2010/nov/26/africa-water-privatisation", "type": "article", "sectionId": "global-development", "sectionName": "Global development", "webPublicationDate": "2010-11-26T17:31:00Z", "webTitle": "Is the stage being set for new water wars in Africa? | Claire Provost", "webUrl": "https://www.theguardian.com/global-development/poverty-matters/2010/nov/26/africa-water-privatisation", "apiUrl": "https://content.guardianapis.com/global-development/poverty-matters/2010/nov/26/africa-water-privatisation", "isHosted": false, "pillarId": "pillar/news", "pillarName": "News"}, {"id": "environment/2010/nov/26/climate-change-andes-amazon", "type": "article", "sectionId": "environment", "sectionName": "Environment", "webPublicationDate": "2010-11-26T16:52:34Z", "webTitle": "A climate journey: From the peaks of the Andes to the Amazon's oilfields", "webUrl": "https://www.theguardian.com/environment/2010/nov/26/climate-change-andes-amazon", "apiUrl": "https://content.guardianapis.com/environment/2010/nov/26/climate-change-andes-amazon", "isHosted": false, "pillarId": "pillar/news", "pillarName": "News"}, {"id": "commentisfree/cif-green/2010/nov/26/cancun-climate-change-conference", "type": "article", "sectionId": "commentisfree", "sectionName": "Opinion", "webPublicationDate": "2010-11-26T15:30:00Z", "webTitle": "Canc\u00fan must be about more than climate change | Wangari Maathai", "webUrl": "https://www.theguardian.com/commentisfree/cif-green/2010/nov/26/cancun-climate-change-conference", "apiUrl": "https://content.guardianapis.com/commentisfree/cif-green/2010/nov/26/cancun-climate-change-conference", "isHosted": false, "pillarId": "pillar/opinion", "pillarName": "Opinion"}, {"id": "environment/gallery/2010/nov/25/wildlife-animals", "type": "gallery", "sectionId": "environment", "sectionName": "Environment", "webPublicationDate": "2010-11-26T14:12:26Z", "webTitle": "The week in wildlife", "webUrl": "https://www.theguardian.com/environment/gallery/2010/nov/25/wildlife-animals", "apiUrl": "https://content.guardianapis.com/environment/gallery/2010/nov/25/wildlife-animals", "isHosted": false, "pillarId": "pillar/news", "pillarName": "News"}, {"id": "science/video/2010/nov/26/craig-venter-genome-climate-change", "type": "video", "sectionId": "science", "sectionName": "Science", "webPublicationDate": "2010-11-26T13:27:00Z", "webTitle": "Video | Craig Venter on saving the world with biology | The Newton Project", "webUrl": "https://www.theguardian.com/science/video/2010/nov/26/craig-venter-genome-climate-change", "apiUrl": "https://content.guardianapis.com/science/video/2010/nov/26/craig-venter-genome-climate-change", "isHosted": false, "pillarId": "pillar/news", "pillarName": "News"}, {"id": "environment/georgemonbiot/2010/nov/26/zero-carbon-homes", "type": "article", "sectionId": "environment", "sectionName": "Environment", "webPublicationDate": "2010-11-26T13:11:54Z", "webTitle": "Government redefines zero as it abandons green homes commitment | George Monbiot", "webUrl": "https://www.theguardian.com/environment/georgemonbiot/2010/nov/26/zero-carbon-homes", "apiUrl": "https://content.guardianapis.com/environment/georgemonbiot/2010/nov/26/zero-carbon-homes", "isHosted": false, "pillarId": "pillar/news", "pillarName": "News"}, {"id": "environment/video/2010/nov/25/climate-change-ecuador-andes-glacier", "type": "video", "sectionId": "environment", "sectionName": "Environment", "webPublicationDate": "2010-11-26T12:48:00Z", "webTitle": "Video | A climate journey - The Andes: Retreat of the glaciers", "webUrl": "https://www.theguardian.com/environment/video/2010/nov/25/climate-change-ecuador-andes-glacier", "apiUrl": "https://content.guardianapis.com/environment/video/2010/nov/25/climate-change-ecuador-andes-glacier", "isHosted": false, "pillarId": "pillar/news", "pillarName": "News"}, {"id": "environment/blog/2010/nov/05/ultimate-climate-change-faq", "type": "article", "sectionId": "environment", "sectionName": "Environment", "webPublicationDate": "2010-11-26T11:20:28Z", "webTitle": "Introducing the ultimate climate change FAQ", "webUrl": "https://www.theguardian.com/environment/blog/2010/nov/05/ultimate-climate-change-faq", "apiUrl": "https://content.guardianapis.com/environment/blog/2010/nov/05/ultimate-climate-change-faq", "isHosted": false, "pillarId": "pillar/news", "pillarName": "News"}]}}