{"response": {"status": "ok", "userTier": "developer", "total": 134136, "startIndex": 1, "pageSize": 50, "currentPage": 1, "pages": 2683, "orderBy": "newest", "results": [{"id": "politics/2012/nov/30/leveson-inquiry-crossing-the-real-rubicon", "type": "article", "sectionId": "politics", "sectionName": "Politics", "webPublicationDate": "2012-11-30T22:53:17Z", "webTitle": "How the real Rubicon was crossed \u2013 tracing the source of the phrase", "webUrl": "https://www.theguardian.com/politics/2012/nov/30/leveson-inquiry-crossing-the-real-rubicon", "apiUrl": "https://content.guardianapis.com/politics/2012/nov/30/leveson-inquiry-crossing-the-real-rubicon", "isHosted": false, "pillarId": "pillar/news", "pillarName": "News"}, {"id": "commentisfree/2012/nov/30/labour-byelections-coalition-ukip", "type": "article", "sectionId": "commentisfree", "sectionName": "Opinion", "webPublicationDate": "2012-11-30T21:36:52Z", "webTitle": "Byelections: Labour's majority verdict | Editorial", "webUrl": "https://www.theguardian.com/commentisfree/2012/nov/30/labour-byelections-coalition-ukip", "apiUrl": "https://content.guardianapis.com/commentisfree/2012/nov/30/labour-byelections-coalition-ukip", "isHosted": false, "pillarId": "pillar/opinion", "pillarName": "Opinion"}, {"id": "media/2012/nov/30/leveson-report-views-of-main-players", "type": "article", "sectionId": "media", "sectionName": "Media", "webPublicationDate": "2012-11-30T21:33:21Z", "webTitle": "Leveson report: where the judge, the party leaders and the victims stand", "webUrl": "https://www.theguardian.com/media/2012/nov/30/leveson-report-views-of-main-players", "apiUrl": "https://content.guardianapis.com/media/2012/nov/30/leveson-report-views-of-main-players", "isHosted": false, "pillarId": "pillar/news", "pillarName": "News"}, {"id": "uk/2012/nov/30/ukip-row-many-reasons-children-removed", "type": "article", "sectionId": "uk-news", "sectionName": "UK news", "webPublicationDate": "2012-11-30T21:07:27Z", "webTitle": "Ukip row: multiple reasons children taken from Rotherham foster parents", "webUrl": "https://www.theguardian.com/uk/2012/nov/30/ukip-row-many-reasons-children-removed", "apiUrl": "https://content.guardianapis.com/uk/2012/nov/30/ukip-row-many-reasons-children-removed", "isHosted": false, "pillarId": "pillar/news", "pillarName": "News"}, {"id": "commentisfree/2012/nov/30/football-state-ownership-chelsea-ian-jack", "type": "article", "sectionId": "commentisfree", "sectionName": "Opinion", "webPublicationDate": "2012-11-30T20:59:00Z", "webTitle": "The state: we've no more ownership of it than Chelsea fans have of the club | Ian Jack", "webUrl": "https://www.theguardian.com/commentisfree/2012/nov/30/football-state-ownership-chelsea-ian-jack", "apiUrl": "https://content.guardianapis.com/commentisfree/2012/nov/30/football-state-ownership-chelsea-ian-jack", "isHosted": false, "pillarId": "pillar/opinion", "pillarName": "Opinion"}, {"id": "politics/2012/nov/30/ebay-investigation-tax-payments-margaret-hodge", "type": "article", "sectionId": "politics", "sectionName": "Politics", "webPublicationDate": "2012-11-30T20:23:22Z", "webTitle": "Investigate eBay over tax payments, says Margaret Hodge", "webUrl": "https://www.theguardian.com/politics/2012/nov/30/ebay-investigation-tax-payments-margaret-hodge", "apiUrl": "https://content.guardianapis.com/politics/2012/nov/30/ebay-investigation-tax-payments-margaret-hodge", "isHosted": false, "pillarId": "pillar/news", "pillarName": "News"}, {"id": "politics/2012/nov/30/activities-of-conservative-friends-of-russia", "type": "article", "sectionId": "politics", "sectionName": "Politics", "webPublicationDate": "2012-11-30T20:19:28Z", "webTitle": "Tory blushes deepen over activities of Conservative Friends of Russia", "webUrl": "https://www.theguardian.com/politics/2012/nov/30/activities-of-conservative-friends-of-russia", "apiUrl": "https://content.guardianapis.com/politics/2012/nov/30/activities-of-conservative-friends-of-russia", "isHosted": false, "pillarId": "pillar/news", "pillarName": "News"}, {"id": "politics/2012/nov/30/kremlin-orders-diplomats-cooperation-conservatives", "type": "article", "sectionId": "politics", "sectionName": "Politics", "webPublicationDate": "2012-11-30T20:16:36Z", "webTitle": "How Kremlin got diplomats to woo Tories", "webUrl": "https://www.theguardian.com/politics/2012/nov/30/kremlin-orders-diplomats-cooperation-conservatives", "apiUrl": "https://content.guardianapis.com/politics/2012/nov/30/kremlin-orders-diplomats-cooperation-conservatives", "isHosted": false, "pillarId": "pillar/news", "pillarName": "News"}, {"id": "politics/2012/nov/30/sick-disabled-work-benefits-programme", "type": "article", "sectionId": "politics", "sectionName": "Politics", "webPublicationDate": "2012-11-30T19:59:06Z", "webTitle": "Sick and disabled braced for enforced work-for-benefits programme", "webUrl": "https://www.theguardian.com/politics/2012/nov/30/sick-disabled-work-benefits-programme", "apiUrl": "https://content.guardianapis.com/politics/2012/nov/30/sick-disabled-work-benefits-programme", "isHosted": false, "pillarId": "pillar/news", "pillarName": "News"}, {"id": "commentisfree/2012/nov/30/david-cameron-leveson-deborah-orr", "type": "article", "sectionId": "media", "sectionName": "Media", "webPublicationDate": "2012-11-30T19:59:00Z", "webTitle": "Business as usual for Cameron over pleasing the Tory-supporting press | Deborah Orr", "webUrl": "https://www.theguardian.com/commentisfree/2012/nov/30/david-cameron-leveson-deborah-orr", "apiUrl": "https://content.guardianapis.com/commentisfree/2012/nov/30/david-cameron-leveson-deborah-orr", "isHosted": false, "pillarId": "pillar/news", "pillarName": "News"}, {"id": "commentisfree/2012/nov/30/ukip-surge-progressive-majority", "type": "article", "sectionId": "commentisfree", "sectionName": "Opinion", "webPublicationDate": "2012-11-30T19:45:01Z", "webTitle": "With Ukip's surge, do we still have a progressive majority? | John Harris", "webUrl": "https://www.theguardian.com/commentisfree/2012/nov/30/ukip-surge-progressive-majority", "apiUrl": "https://content.guardianapis.com/commentisfree/2012/nov/30/ukip-surge-progressive-majority", "isHosted": false, "pillarId": "pillar/opinion", "pillarName": "Opinion"}, {"id": "media/2012/nov/30/nicholas-hytner-arts-are-on-knifes-edge", "type": "article", "sectionId": "stage", "sectionName": "Stage", "webPublicationDate": "2012-11-30T19:33:23Z", "webTitle": "Nicholas Hytner: 'The arts are on a knife's edge'", "webUrl": "https://www.theguardian.com/media/2012/nov/30/nicholas-hytner-arts-are-on-knifes-edge", "apiUrl": "https://content.guardianapis.com/media/2012/nov/30/nicholas-hytner-arts-are-on-knifes-edge", "isHosted": false, "pillarId": "pillar/arts", "pillarName": "Arts"}, {"id": "politics/2012/nov/30/george-osborne-thinktank-boss-new-voters", "type": "article", "sectionId": "politics", "sectionName": "Politics", "webPublicationDate": "2012-11-30T19:19:28Z", "webTitle": "George Osborne hires thinktank boss to attract new voters", "webUrl": "https://www.theguardian.com/politics/2012/nov/30/george-osborne-thinktank-boss-new-voters", "apiUrl": "https://content.guardianapis.com/politics/2012/nov/30/george-osborne-thinktank-boss-new-voters", "isHosted": false, "pillarId": "pillar/news", "pillarName": "News"}, {"id": "commentisfree/2012/nov/30/leveson-report-true-test-who-rules", "type": "article", "sectionId": "commentisfree", "sectionName": "Opinion", "webPublicationDate": "2012-11-30T19:15:00Z", "webTitle": "The Leveson report: a true test of who rules Britain | Polly Toynbee", "webUrl": "https://www.theguardian.com/commentisfree/2012/nov/30/leveson-report-true-test-who-rules", "apiUrl": "https://content.guardianapis.com/commentisfree/2012/nov/30/leveson-report-true-test-who-rules", "isHosted": false, "pillarId": "pillar/opinion", "pillarName": "Opinion"}, {"id": "world/2012/nov/30/us-war-against-al-qaida", "type": "article", "sectionId": "world", "sectionName": "World news", "webPublicationDate": "2012-11-30T19:04:28Z", "webTitle": "US heading for point when 'military pursuit of al-Qaida should end'", "webUrl": "https://www.theguardian.com/world/2012/nov/30/us-war-against-al-qaida", "apiUrl": "https://content.guardianapis.com/world/2012/nov/30/us-war-against-al-qaida", "isHosted": false, "pillarId": "pillar/news", "pillarName": "News"}, {"id": "media/2012/nov/30/leveson-victims-press-intrusion", "type": "article", "sectionId": "media", "sectionName": "Media", "webPublicationDate": "2012-11-30T18:48:40Z", "webTitle": "Leveson report: JK Rowling left 'duped and angry' at PM's response", "webUrl": "https://www.theguardian.com/media/2012/nov/30/leveson-victims-press-intrusion", "apiUrl": "https://content.guardianapis.com/media/2012/nov/30/leveson-victims-press-intrusion", "isHosted": false, "pillarId": "pillar/news", "pillarName": "News"}, {"id": "media/2012/nov/30/leveson-leaves-field-david-cameron", "type": "article", "sectionId": "media", "sectionName": "Media", "webPublicationDate": "2012-11-30T18:35:41Z", "webTitle": "Leveson leaves the field as the tackles fly in", "webUrl": "https://www.theguardian.com/media/2012/nov/30/leveson-leaves-field-david-cameron", "apiUrl": "https://content.guardianapis.com/media/2012/nov/30/leveson-leaves-field-david-cameron", "isHosted": false, "pillarId": "pillar/news", "pillarName": "News"}, {"id": "culture/2012/nov/30/national-theatre-culture-secretary-art-fund", "type": "article", "sectionId": "culture", "sectionName": "Culture", "webPublicationDate": "2012-11-30T17:46:20Z", "webTitle": "National Theatre boss rebukes culture secretary over arts funding stance", "webUrl": "https://www.theguardian.com/culture/2012/nov/30/national-theatre-culture-secretary-art-fund", "apiUrl": "https://content.guardianapis.com/culture/2012/nov/30/national-theatre-culture-secretary-art-fund", "isHosted": false, "pillarId": "pillar/arts", "pillarName": "Arts"}, {"id": "lifeandstyle/2012/nov/30/vince-cable-ftse-100-women-in-boardroom", "type": "article", "sectionId": "business", "sectionName": "Business", "webPublicationDate": "2012-11-30T17:39:32Z", "webTitle": "Women in the boardroom: Vince Cable urges top firms to diversify boards", "webUrl": "https://www.theguardian.com/lifeandstyle/2012/nov/30/vince-cable-ftse-100-women-in-boardroom", "apiUrl": "https://content.guardianapis.com/lifeandstyle/2012/nov/30/vince-cable-ftse-100-women-in-boardroom", "isHosted": false, "pillarId": "pillar/news", "pillarName": "News"}, {"id": "media/audio/2012/nov/30/leveson-politics-podcast", "type": "audio", "sectionId": "media", "sectionName": "Media", "webPublicationDate": "2012-11-30T17:26:00Z", "webTitle": "Leveson: the politics of press regulation - Guardian podcast special", "webUrl": "https://www.theguardian.com/media/audio/2012/nov/30/leveson-politics-podcast", "apiUrl": "https://content.guardianapis.com/media/audio/2012/nov/30/leveson-politics-podcast", "isHosted": false, "pillarId": "pillar/news", "pillarName": "News"}, {"id": "society/2012/nov/30/cyril-smith-rumours-liberal-party", "type": "article", "sectionId": "society", "sectionName": "Society", "webPublicationDate": "2012-11-30T16:45:17Z", "webTitle": "Cyril Smith rumours were known to Liberal party", "webUrl": "https://www.theguardian.com/society/2012/nov/30/cyril-smith-rumours-liberal-party", "apiUrl": "https://content.guardianapis.com/society/2012/nov/30/cyril-smith-rumours-liberal-party", "isHosted": false, "pillarId": "pillar/news", "pillarName": "News"}, {"id": "lifeandstyle/2012/nov/30/cycling-documentary-bbc1-road", "type": "article", "sectionId": "lifeandstyle", "sectionName": "Life and style", "webPublicationDate": "2012-11-30T16:41:25Z", "webTitle": "Cycling groups and MPs condemn BBC1 documentary about road users", "webUrl": "https://www.theguardian.com/lifeandstyle/2012/nov/30/cycling-documentary-bbc1-road", "apiUrl": "https://content.guardianapis.com/lifeandstyle/2012/nov/30/cycling-documentary-bbc1-road", "isHosted": false, "pillarId": "pillar/lifestyle", "pillarName": "Lifestyle"}, {"id": "media/blog/2012/nov/30/leveson-report-government-prepares-draft-bill-live-coverage", "type": "liveblog", "sectionId": "media", "sectionName": "Media", "webPublicationDate": "2012-11-30T16:34:00Z", "webTitle": "Leveson report: government prepares draft bill \u2013 Friday 30 November ", "webUrl": "https://www.theguardian.com/media/blog/2012/nov/30/leveson-report-government-prepares-draft-bill-live-coverage", "apiUrl": "https://content.guardianapis.com/media/blog/2012/nov/30/leveson-report-government-prepares-draft-bill-live-coverage", "isHosted": false, "pillarId": "pillar/news", "pillarName": "News"}, {"id": "politics/2012/nov/30/nigel-farage-ukip-third-party", "type": "article", "sectionId": "politics", "sectionName": "Politics", "webPublicationDate": "2012-11-30T16:18:44Z", "webTitle": "Nigel Farage: Ukip is now Britain's third party", "webUrl": "https://www.theguardian.com/politics/2012/nov/30/nigel-farage-ukip-third-party", "apiUrl": "https://content.guardianapis.com/politics/2012/nov/30/nigel-farage-ukip-third-party", "isHosted": false, "pillarId": "pillar/news", "pillarName": "News"}, {"id": "society/2012/nov/30/campaigners-government-caste-discrimination-uk", "type": "article", "sectionId": "inequality", "sectionName": "Inequality", "webPublicationDate": "2012-11-30T15:51:08Z", "webTitle": "Campaigners urge government to tackle caste discrimination in UK", "webUrl": "https://www.theguardian.com/society/2012/nov/30/campaigners-government-caste-discrimination-uk", "apiUrl": "https://content.guardianapis.com/society/2012/nov/30/campaigners-government-caste-discrimination-uk", "isHosted": false, "pillarId": "pillar/news", "pillarName": "News"}, {"id": "society/2012/nov/30/cyril-smith-teenager-houses-parliament", "type": "article", "sectionId": "society", "sectionName": "Society", "webPublicationDate": "2012-11-30T15:20:33Z", "webTitle": "Cyril Smith 'sexually assaulted teenager in Houses of Parliament'", "webUrl": "https://www.theguardian.com/society/2012/nov/30/cyril-smith-teenager-houses-parliament", "apiUrl": "https://content.guardianapis.com/society/2012/nov/30/cyril-smith-teenager-houses-parliament", "isHosted": false, "pillarId": "pillar/news", "pillarName": "News"}, {"id": "commentisfree/2012/nov/30/leveson-david-cameron-weak", "type": "article", "sectionId": "commentisfree", "sectionName": "Opinion", "webPublicationDate": "2012-11-30T15:13:33Z", "webTitle": "On Leveson, Cameron has sacrificed the national interest on the altar of his fear | Alastair Campbell", "webUrl": "https://www.theguardian.com/commentisfree/2012/nov/30/leveson-david-cameron-weak", "apiUrl": "https://content.guardianapis.com/commentisfree/2012/nov/30/leveson-david-cameron-weak", "isHosted": false, "pillarId": "pillar/opinion", "pillarName": "Opinion"}, {"id": "environment/2012/nov/30/flooding-120m-defence-spending", "type": "article", "sectionId": "environment", "sectionName": "Environment", "webPublicationDate": "2012-11-30T15:12:45Z", "webTitle": "David Cameron forced into U-turn on flood defence spending cuts", "webUrl": "https://www.theguardian.com/environment/2012/nov/30/flooding-120m-defence-spending", "apiUrl": "https://content.guardianapis.com/environment/2012/nov/30/flooding-120m-defence-spending", "isHosted": false, "pillarId": "pillar/news", "pillarName": "News"}, {"id": "politics/2012/nov/30/rotherham-byelection-labour-ukip", "type": "article", "sectionId": "politics", "sectionName": "Politics", "webPublicationDate": "2012-11-30T14:43:32Z", "webTitle": "Rotherham byelection brings relief for Labour as Ukip celebrates second place", "webUrl": "https://www.theguardian.com/politics/2012/nov/30/rotherham-byelection-labour-ukip", "apiUrl": "https://content.guardianapis.com/politics/2012/nov/30/rotherham-byelection-labour-ukip", "isHosted": false, "pillarId": "pillar/news", "pillarName": "News"}, {"id": "commentisfree/belief/2012/nov/30/free-schools-creationism", "type": "article", "sectionId": "commentisfree", "sectionName": "Opinion", "webPublicationDate": "2012-11-30T13:00:03Z", "webTitle": "Free schools are exploiting loopholes to teach creationism | Andrew Copson", "webUrl": "https://www.theguardian.com/commentisfree/belief/2012/nov/30/free-schools-creationism", "apiUrl": "https://content.guardianapis.com/commentisfree/belief/2012/nov/30/free-schools-creationism", "isHosted": false, "pillarId": "pillar/opinion", "pillarName": "Opinion"}, {"id": "global-development/2012/nov/30/uk-withholds-aid-rwanda-congo-drc", "type": "article", "sectionId": "global-development", "sectionName": "Global development", "webPublicationDate": "2012-11-30T11:56:58Z", "webTitle": "UK withholds aid to Rwanda in light of Congo DRC allegations", "webUrl": "https://www.theguardian.com/global-development/2012/nov/30/uk-withholds-aid-rwanda-congo-drc", "apiUrl": "https://content.guardianapis.com/global-development/2012/nov/30/uk-withholds-aid-rwanda-congo-drc", "isHosted": false, "pillarId": "pillar/news", "pillarName": "News"}, {"id": "commentisfree/2012/nov/30/ukip-byelections-historic-night", "type": "article", "sectionId": "commentisfree", "sectionName": "Opinion", "webPublicationDate": "2012-11-30T10:45:59Z", "webTitle": "A historic night for Ukip in the byelections? | Debate of the day", "webUrl": "https://www.theguardian.com/commentisfree/2012/nov/30/ukip-byelections-historic-night", "apiUrl": "https://content.guardianapis.com/commentisfree/2012/nov/30/ukip-byelections-historic-night", "isHosted": false, "pillarId": "pillar/opinion", "pillarName": "Opinion"}, {"id": "politics/video/2012/nov/30/labour-rotherham-byelection-video", "type": "video", "sectionId": "politics", "sectionName": "Politics", "webPublicationDate": "2012-11-30T10:09:00Z", "webTitle": "Labour wins Rotherham byelection - video", "webUrl": "https://www.theguardian.com/politics/video/2012/nov/30/labour-rotherham-byelection-video", "apiUrl": "https://content.guardianapis.com/politics/video/2012/nov/30/labour-rotherham-byelection-video", "isHosted": false, "pillarId": "pillar/news", "pillarName": "News"}, {"id": "media/video/2012/nov/30/leveson-inquiry-hacked-off-cameron-video", "type": "video", "sectionId": "media", "sectionName": "Media", "webPublicationDate": "2012-11-30T09:44:00Z", "webTitle": "Leveson inquiry: Hacked Off 'let down' by David Cameron - video", "webUrl": "https://www.theguardian.com/media/video/2012/nov/30/leveson-inquiry-hacked-off-cameron-video", "apiUrl": "https://content.guardianapis.com/media/video/2012/nov/30/leveson-inquiry-hacked-off-cameron-video", "isHosted": false, "pillarId": "pillar/news", "pillarName": "News"}, {"id": "media/2012/nov/30/david-cameron-accused-prejudging-leveson", "type": "article", "sectionId": "media", "sectionName": "Media", "webPublicationDate": "2012-11-30T09:19:00Z", "webTitle": "David Cameron accused of dismissing Leveson report too quickly", "webUrl": "https://www.theguardian.com/media/2012/nov/30/david-cameron-accused-prejudging-leveson", "apiUrl": "https://content.guardianapis.com/media/2012/nov/30/david-cameron-accused-prejudging-leveson", "isHosted": false, "pillarId": "pillar/news", "pillarName": "News"}, {"id": "politics/blog/2012/nov/30/ukip-labour-byelections-live-blog", "type": "liveblog", "sectionId": "politics", "sectionName": "Politics", "webPublicationDate": "2012-11-30T09:00:00Z", "webTitle": "Ukip surge as Labour win Rotherham, Croydon North and Middlesbrough byelections: Politics live blog", "webUrl": "https://www.theguardian.com/politics/blog/2012/nov/30/ukip-labour-byelections-live-blog", "apiUrl": "https://content.guardianapis.com/politics/blog/2012/nov/30/ukip-labour-byelections-live-blog", "isHosted": false, "pillarId": "pillar/news", "pillarName": "News"}, {"id": "politics/davehillblog/2012/nov/30/boris-johnson-london-boroughs-affordable-rent", "type": "article", "sectionId": "politics", "sectionName": "Politics", "webPublicationDate": "2012-11-30T07:45:00Z", "webTitle": "London housing: Boris challenged by boroughs over \"affordable rent\"", "webUrl": "https://www.theguardian.com/politics/davehillblog/2012/nov/30/boris-johnson-london-boroughs-affordable-rent", "apiUrl": "https://content.guardianapis.com/politics/davehillblog/2012/nov/30/boris-johnson-london-boroughs-affordable-rent", "isHosted": false, "pillarId": "pillar/news", "pillarName": "News"}, {"id": "uk/the-northerner/2012/nov/30/work-and-careers-apprenticeships", "type": "article", "sectionId": "public-leaders-network", "sectionName": "Public Leaders Network", "webPublicationDate": "2012-11-30T07:00:00Z", "webTitle": "Tackling poverty and inequality need to be at the heart of any plan for economic growth in the North of England.", "webUrl": "https://www.theguardian.com/uk/the-northerner/2012/nov/30/work-and-careers-apprenticeships", "apiUrl": "https://content.guardianapis.com/uk/the-northerner/2012/nov/30/work-and-careers-apprenticeships", "isHosted": false, "pillarId": "pillar/news", "pillarName": "News"}, {"id": "politics/2012/nov/30/labour-rotherham-byelection-ukip", "type": "article", "sectionId": "politics", "sectionName": "Politics", "webPublicationDate": "2012-11-30T01:11:40Z", "webTitle": "Labour holds off Ukip in byelections", "webUrl": "https://www.theguardian.com/politics/2012/nov/30/labour-rotherham-byelection-ukip", "apiUrl": "https://content.guardianapis.com/politics/2012/nov/30/labour-rotherham-byelection-ukip", "isHosted": false, "pillarId": "pillar/news", "pillarName": "News"}, {"id": "science/2012/nov/30/whooping-cough-three-babies-october", "type": "article", "sectionId": "society", "sectionName": "Society", "webPublicationDate": "2012-11-30T00:01:00Z", "webTitle": "Whooping cough kills three more babies", "webUrl": "https://www.theguardian.com/science/2012/nov/30/whooping-cough-three-babies-october", "apiUrl": "https://content.guardianapis.com/science/2012/nov/30/whooping-cough-three-babies-october", "isHosted": false, "pillarId": "pillar/news", "pillarName": "News"}, {"id": "media/2012/nov/29/leveson-report-published-and-brooks-and-coulson-in-court-live-coverage", "type": "liveblog", "sectionId": "media", "sectionName": "Media", "webPublicationDate": "2012-11-29T22:55:00Z", "webTitle": "Leveson report published - as it happened", "webUrl": "https://www.theguardian.com/media/2012/nov/29/leveson-report-published-and-brooks-and-coulson-in-court-live-coverage", "apiUrl": "https://content.guardianapis.com/media/2012/nov/29/leveson-report-published-and-brooks-and-coulson-in-court-live-coverage", "isHosted": false, "pillarId": "pillar/news", "pillarName": "News"}, {"id": "politics/2012/nov/29/hugh-muir-diary", "type": "article", "sectionId": "politics", "sectionName": "Politics", "webPublicationDate": "2012-11-29T22:49:01Z", "webTitle": "Hugh Muir's diary", "webUrl": "https://www.theguardian.com/politics/2012/nov/29/hugh-muir-diary", "apiUrl": "https://content.guardianapis.com/politics/2012/nov/29/hugh-muir-diary", "isHosted": false, "pillarId": "pillar/news", "pillarName": "News"}, {"id": "media/2012/nov/29/leveson-cameron-clegg", "type": "article", "sectionId": "media", "sectionName": "Media", "webPublicationDate": "2012-11-29T22:09:37Z", "webTitle": "Leveson plunges coalition into uncharted territory", "webUrl": "https://www.theguardian.com/media/2012/nov/29/leveson-cameron-clegg", "apiUrl": "https://content.guardianapis.com/media/2012/nov/29/leveson-cameron-clegg", "isHosted": false, "pillarId": "pillar/news", "pillarName": "News"}, {"id": "media/2012/nov/29/leveson-report-last-chance-saloon-for-press", "type": "article", "sectionId": "media", "sectionName": "Media", "webPublicationDate": "2012-11-29T22:06:40Z", "webTitle": "Leveson report: 'I cannot recommend another last chance saloon for the press'", "webUrl": "https://www.theguardian.com/media/2012/nov/29/leveson-report-last-chance-saloon-for-press", "apiUrl": "https://content.guardianapis.com/media/2012/nov/29/leveson-report-last-chance-saloon-for-press", "isHosted": false, "pillarId": "pillar/news", "pillarName": "News"}, {"id": "media/2012/nov/29/david-cameron-refuses-to-write-press-law", "type": "article", "sectionId": "media", "sectionName": "Media", "webPublicationDate": "2012-11-29T21:50:33Z", "webTitle": "Leveson report: David Cameron refuses to 'cross Rubicon' and write press law", "webUrl": "https://www.theguardian.com/media/2012/nov/29/david-cameron-refuses-to-write-press-law", "apiUrl": "https://content.guardianapis.com/media/2012/nov/29/david-cameron-refuses-to-write-press-law", "isHosted": false, "pillarId": "pillar/news", "pillarName": "News"}, {"id": "commentisfree/2012/nov/29/we-have-been-betrayed-by-cameron", "type": "article", "sectionId": "commentisfree", "sectionName": "Opinion", "webPublicationDate": "2012-11-29T21:45:00Z", "webTitle": "We've been betrayed by David Cameron | Steve Coogan", "webUrl": "https://www.theguardian.com/commentisfree/2012/nov/29/we-have-been-betrayed-by-cameron", "apiUrl": "https://content.guardianapis.com/commentisfree/2012/nov/29/we-have-been-betrayed-by-cameron", "isHosted": false, "pillarId": "pillar/opinion", "pillarName": "Opinion"}, {"id": "media/video/2012/nov/29/leveson-report-nick-clegg-press-regulator-video", "type": "video", "sectionId": "media", "sectionName": "Media", "webPublicationDate": "2012-11-29T21:42:00Z", "webTitle": "Leveson report: Nick Clegg accepts statutory underpinning of press regulator \u2013 video", "webUrl": "https://www.theguardian.com/media/video/2012/nov/29/leveson-report-nick-clegg-press-regulator-video", "apiUrl": "https://content.guardianapis.com/media/video/2012/nov/29/leveson-report-nick-clegg-press-regulator-video", "isHosted": false, "pillarId": "pillar/news", "pillarName": "News"}, {"id": "politics/2012/nov/29/local-authorities-vital-schools-role", "type": "article", "sectionId": "politics", "sectionName": "Politics", "webPublicationDate": "2012-11-29T21:00:03Z", "webTitle": "Letters: Local authorities' vital schools role", "webUrl": "https://www.theguardian.com/politics/2012/nov/29/local-authorities-vital-schools-role", "apiUrl": "https://content.guardianapis.com/politics/2012/nov/29/local-authorities-vital-schools-role", "isHosted": false, "pillarId": "pillar/news", "pillarName": "News"}, {"id": "media/2012/nov/29/leveson-fleet-street-sabbagh", "type": "article", "sectionId": "media", "sectionName": "Media", "webPublicationDate": "2012-11-29T20:48:58Z", "webTitle": "Leveson report: Fleet Street left squabbling over way forward", "webUrl": "https://www.theguardian.com/media/2012/nov/29/leveson-fleet-street-sabbagh", "apiUrl": "https://content.guardianapis.com/media/2012/nov/29/leveson-fleet-street-sabbagh", "isHosted": false, "pillarId": "pillar/news", "pillarName": "News"}, {"id": "media/2012/nov/29/leveson-police-whistleblowers", "type": "article", "sectionId": "media", "sectionName": "Media", "webPublicationDate": "2012-11-29T20:44:07Z", "webTitle": "Leveson warns police whistleblowers not to contact media", "webUrl": "https://www.theguardian.com/media/2012/nov/29/leveson-police-whistleblowers", "apiUrl": "https://content.guardianapis.com/media/2012/nov/29/leveson-police-whistleblowers", "isHosted": false, "pillarId": "pillar/news", "pillarName": "News"}]}}