{"response": {"status": "ok", "userTier": "developer", "total": 17112, "startIndex": 1, "pageSize": 50, "currentPage": 1, "pages": 343, "orderBy": "newest", "results": [{"id": "lifeandstyle/2011/nov/30/mince-pies-buy-them-or-make-your-own", "type": "article", "sectionId": "lifeandstyle", "sectionName": "Life and style", "webPublicationDate": "2011-11-30T19:59:00Z", "webTitle": "Mince pies: buy them or make your own?", "webUrl": "https://www.theguardian.com/lifeandstyle/2011/nov/30/mince-pies-buy-them-or-make-your-own", "apiUrl": "https://content.guardianapis.com/lifeandstyle/2011/nov/30/mince-pies-buy-them-or-make-your-own", "isHosted": false, "pillarId": "pillar/lifestyle", "pillarName": "Lifestyle"}, {"id": "lifeandstyle/2011/nov/30/celeriac-and-apple-soup", "type": "article", "sectionId": "lifeandstyle", "sectionName": "Life and style", "webPublicationDate": "2011-11-30T17:11:00Z", "webTitle": "Angela Hartnett's celeriac and apple soup recipe", "webUrl": "https://www.theguardian.com/lifeandstyle/2011/nov/30/celeriac-and-apple-soup", "apiUrl": "https://content.guardianapis.com/lifeandstyle/2011/nov/30/celeriac-and-apple-soup", "isHosted": false, "pillarId": "pillar/lifestyle", "pillarName": "Lifestyle"}, {"id": "commentisfree/2011/nov/30/marmite-love-it-hate-it-pr", "type": "article", "sectionId": "commentisfree", "sectionName": "Opinion", "webPublicationDate": "2011-11-30T13:33:35Z", "webTitle": "Marmite: love or hate its PR, you have to admit it's strong stuff | Arwa Mahdawi", "webUrl": "https://www.theguardian.com/commentisfree/2011/nov/30/marmite-love-it-hate-it-pr", "apiUrl": "https://content.guardianapis.com/commentisfree/2011/nov/30/marmite-love-it-hate-it-pr", "isHosted": false, "pillarId": "pillar/opinion", "pillarName": "Opinion"}, {"id": "lifeandstyle/2011/nov/30/britains-biggest-restaurant-opens", "type": "article", "sectionId": "food", "sectionName": "Food", "webPublicationDate": "2011-11-30T12:16:00Z", "webTitle": "One thousand diners: Britain's biggest restaurant opens", "webUrl": "https://www.theguardian.com/lifeandstyle/2011/nov/30/britains-biggest-restaurant-opens", "apiUrl": "https://content.guardianapis.com/lifeandstyle/2011/nov/30/britains-biggest-restaurant-opens", "isHosted": false, "pillarId": "pillar/lifestyle", "pillarName": "Lifestyle"}, {"id": "travel/2011/nov/30/lisbon-shopping-guide", "type": "article", "sectionId": "travel", "sectionName": "Travel", "webPublicationDate": "2011-11-30T09:52:00Z", "webTitle": "A shopper's guide to Lisbon", "webUrl": "https://www.theguardian.com/travel/2011/nov/30/lisbon-shopping-guide", "apiUrl": "https://content.guardianapis.com/travel/2011/nov/30/lisbon-shopping-guide", "isHosted": false, "pillarId": "pillar/lifestyle", "pillarName": "Lifestyle"}, {"id": "lifeandstyle/wordofmouth/2011/nov/30/a-friendship-cake-called-herman", "type": "article", "sectionId": "food", "sectionName": "Food", "webPublicationDate": "2011-11-30T09:50:00Z", "webTitle": "A friendship cake called Herman", "webUrl": "https://www.theguardian.com/lifeandstyle/wordofmouth/2011/nov/30/a-friendship-cake-called-herman", "apiUrl": "https://content.guardianapis.com/lifeandstyle/wordofmouth/2011/nov/30/a-friendship-cake-called-herman", "isHosted": false, "pillarId": "pillar/lifestyle", "pillarName": "Lifestyle"}, {"id": "uk/the-northerner/2011/nov/30/harry-ramsdens-closure-guiseley-fish-and-chips", "type": "article", "sectionId": "uk-news", "sectionName": "UK news", "webPublicationDate": "2011-11-30T07:00:00Z", "webTitle": "Harry Ramsden's famous original fish and chip shop faces closure after losses", "webUrl": "https://www.theguardian.com/uk/the-northerner/2011/nov/30/harry-ramsdens-closure-guiseley-fish-and-chips", "apiUrl": "https://content.guardianapis.com/uk/the-northerner/2011/nov/30/harry-ramsdens-closure-guiseley-fish-and-chips", "isHosted": false, "pillarId": "pillar/news", "pillarName": "News"}, {"id": "lifeandstyle/2011/nov/29/pass-notes-oysters", "type": "article", "sectionId": "food", "sectionName": "Food", "webPublicationDate": "2011-11-29T20:00:00Z", "webTitle": "Pass notes No 3,087: oysters", "webUrl": "https://www.theguardian.com/lifeandstyle/2011/nov/29/pass-notes-oysters", "apiUrl": "https://content.guardianapis.com/lifeandstyle/2011/nov/29/pass-notes-oysters", "isHosted": false, "pillarId": "pillar/lifestyle", "pillarName": "Lifestyle"}, {"id": "environment/2011/nov/29/game-speciality-meats-sales-soar", "type": "article", "sectionId": "food", "sectionName": "Food", "webPublicationDate": "2011-11-29T12:14:05Z", "webTitle": "Consumers turn to speciality meats as game sales soar", "webUrl": "https://www.theguardian.com/environment/2011/nov/29/game-speciality-meats-sales-soar", "apiUrl": "https://content.guardianapis.com/environment/2011/nov/29/game-speciality-meats-sales-soar", "isHosted": false, "pillarId": "pillar/lifestyle", "pillarName": "Lifestyle"}, {"id": "lifeandstyle/wordofmouth/2011/nov/29/recipe-secrets-and-lies", "type": "article", "sectionId": "food", "sectionName": "Food", "webPublicationDate": "2011-11-29T10:20:00Z", "webTitle": "Recipe secrets and lies", "webUrl": "https://www.theguardian.com/lifeandstyle/wordofmouth/2011/nov/29/recipe-secrets-and-lies", "apiUrl": "https://content.guardianapis.com/lifeandstyle/wordofmouth/2011/nov/29/recipe-secrets-and-lies", "isHosted": false, "pillarId": "pillar/lifestyle", "pillarName": "Lifestyle"}, {"id": "travel/video/2011/nov/29/japan-kanazawa-sake", "type": "video", "sectionId": "travel", "sectionName": "Travel", "webPublicationDate": "2011-11-29T06:00:00Z", "webTitle": "In search of sake: Kanazawa - video", "webUrl": "https://www.theguardian.com/travel/video/2011/nov/29/japan-kanazawa-sake", "apiUrl": "https://content.guardianapis.com/travel/video/2011/nov/29/japan-kanazawa-sake", "isHosted": false, "pillarId": "pillar/lifestyle", "pillarName": "Lifestyle"}, {"id": "lifeandstyle/wordofmouth/2011/nov/28/benefit-of-the-red-sprout", "type": "article", "sectionId": "lifeandstyle", "sectionName": "Life and style", "webPublicationDate": "2011-11-28T12:00:00Z", "webTitle": "Benefit of the (red) sprout", "webUrl": "https://www.theguardian.com/lifeandstyle/wordofmouth/2011/nov/28/benefit-of-the-red-sprout", "apiUrl": "https://content.guardianapis.com/lifeandstyle/wordofmouth/2011/nov/28/benefit-of-the-red-sprout", "isHosted": false, "pillarId": "pillar/lifestyle", "pillarName": "Lifestyle"}, {"id": "lifeandstyle/2011/nov/28/pumpkin-and-ginger-doughnuts-recipe", "type": "article", "sectionId": "food", "sectionName": "Food", "webPublicationDate": "2011-11-28T10:00:00Z", "webTitle": "Pumpkin and ginger doughnuts recipe", "webUrl": "https://www.theguardian.com/lifeandstyle/2011/nov/28/pumpkin-and-ginger-doughnuts-recipe", "apiUrl": "https://content.guardianapis.com/lifeandstyle/2011/nov/28/pumpkin-and-ginger-doughnuts-recipe", "isHosted": false, "pillarId": "pillar/lifestyle", "pillarName": "Lifestyle"}, {"id": "lifeandstyle/video/2011/nov/28/pumpkin-ginger-doughnuts-video", "type": "video", "sectionId": "lifeandstyle", "sectionName": "Life and style", "webPublicationDate": "2011-11-28T10:00:00Z", "webTitle": "How to cook pumpkin and ginger doughnuts - video", "webUrl": "https://www.theguardian.com/lifeandstyle/video/2011/nov/28/pumpkin-ginger-doughnuts-video", "apiUrl": "https://content.guardianapis.com/lifeandstyle/video/2011/nov/28/pumpkin-ginger-doughnuts-video", "isHosted": false, "pillarId": "pillar/lifestyle", "pillarName": "Lifestyle"}, {"id": "world/2011/nov/27/diners-presidential-candidates-america", "type": "article", "sectionId": "us-news", "sectionName": "US news", "webPublicationDate": "2011-11-27T20:30:00Z", "webTitle": "Diners offer presidential candidates a taste of America", "webUrl": "https://www.theguardian.com/world/2011/nov/27/diners-presidential-candidates-america", "apiUrl": "https://content.guardianapis.com/world/2011/nov/27/diners-presidential-candidates-america", "isHosted": false, "pillarId": "pillar/news", "pillarName": "News"}, {"id": "lifeandstyle/2011/nov/27/this-i-know-michael-roux-jr", "type": "article", "sectionId": "food", "sectionName": "Food", "webPublicationDate": "2011-11-27T00:11:00Z", "webTitle": "This much I know: Michel Roux Jr", "webUrl": "https://www.theguardian.com/lifeandstyle/2011/nov/27/this-i-know-michael-roux-jr", "apiUrl": "https://content.guardianapis.com/lifeandstyle/2011/nov/27/this-i-know-michael-roux-jr", "isHosted": false, "pillarId": "pillar/lifestyle", "pillarName": "Lifestyle"}, {"id": "lifeandstyle/2011/nov/27/jay-rayner-carlo-cicchetti-manchester", "type": "article", "sectionId": "food", "sectionName": "Food", "webPublicationDate": "2011-11-27T00:08:01Z", "webTitle": "Restaurant review: San Carlo Cicchetti", "webUrl": "https://www.theguardian.com/lifeandstyle/2011/nov/27/jay-rayner-carlo-cicchetti-manchester", "apiUrl": "https://content.guardianapis.com/lifeandstyle/2011/nov/27/jay-rayner-carlo-cicchetti-manchester", "isHosted": false, "pillarId": "pillar/lifestyle", "pillarName": "Lifestyle"}, {"id": "lifeandstyle/2011/nov/27/david-williams-wines-french-canadian", "type": "article", "sectionId": "food", "sectionName": "Food", "webPublicationDate": "2011-11-27T00:05:18Z", "webTitle": "Wines of the week: David Williams", "webUrl": "https://www.theguardian.com/lifeandstyle/2011/nov/27/david-williams-wines-french-canadian", "apiUrl": "https://content.guardianapis.com/lifeandstyle/2011/nov/27/david-williams-wines-french-canadian", "isHosted": false, "pillarId": "pillar/lifestyle", "pillarName": "Lifestyle"}, {"id": "lifeandstyle/2011/nov/27/online-shopping-guide", "type": "article", "sectionId": "lifeandstyle", "sectionName": "Life and style", "webPublicationDate": "2011-11-27T00:04:05Z", "webTitle": "How to shop online", "webUrl": "https://www.theguardian.com/lifeandstyle/2011/nov/27/online-shopping-guide", "apiUrl": "https://content.guardianapis.com/lifeandstyle/2011/nov/27/online-shopping-guide", "isHosted": false, "pillarId": "pillar/lifestyle", "pillarName": "Lifestyle"}, {"id": "global/cartoon/2011/nov/26/1", "type": "picture", "sectionId": "lifeandstyle", "sectionName": "Life and style", "webPublicationDate": "2011-11-26T03:00:00Z", "webTitle": "Berger & Wyse", "webUrl": "https://www.theguardian.com/global/cartoon/2011/nov/26/1", "apiUrl": "https://content.guardianapis.com/global/cartoon/2011/nov/26/1", "isHosted": false, "pillarId": "pillar/lifestyle", "pillarName": "Lifestyle"}, {"id": "lifeandstyle/2011/nov/26/readers-favourite-photographs-songs-recipes", "type": "article", "sectionId": "lifeandstyle", "sectionName": "Life and style", "webPublicationDate": "2011-11-26T00:04:00Z", "webTitle": "Family life", "webUrl": "https://www.theguardian.com/lifeandstyle/2011/nov/26/readers-favourite-photographs-songs-recipes", "apiUrl": "https://content.guardianapis.com/lifeandstyle/2011/nov/26/readers-favourite-photographs-songs-recipes", "isHosted": false, "pillarId": "pillar/lifestyle", "pillarName": "Lifestyle"}, {"id": "lifeandstyle/2011/nov/25/abbeville-kitchen-london-restaurant-review", "type": "article", "sectionId": "lifeandstyle", "sectionName": "Life and style", "webPublicationDate": "2011-11-25T22:59:35Z", "webTitle": "Restaurant review: Abbeville Kitchen, London SW4", "webUrl": "https://www.theguardian.com/lifeandstyle/2011/nov/25/abbeville-kitchen-london-restaurant-review", "apiUrl": "https://content.guardianapis.com/lifeandstyle/2011/nov/25/abbeville-kitchen-london-restaurant-review", "isHosted": false, "pillarId": "pillar/lifestyle", "pillarName": "Lifestyle"}, {"id": "lifeandstyle/2011/nov/25/prawn-okra-gumbo-potatocake-recipes", "type": "article", "sectionId": "food", "sectionName": "Food", "webPublicationDate": "2011-11-25T22:59:31Z", "webTitle": "Prawn and okra gumbo recipe, plus spice-stuffed potato cakes | Yotam Ottolenghi", "webUrl": "https://www.theguardian.com/lifeandstyle/2011/nov/25/prawn-okra-gumbo-potatocake-recipes", "apiUrl": "https://content.guardianapis.com/lifeandstyle/2011/nov/25/prawn-okra-gumbo-potatocake-recipes", "isHosted": false, "pillarId": "pillar/lifestyle", "pillarName": "Lifestyle"}, {"id": "lifeandstyle/2011/nov/25/wine-half-bottles-for-christmas", "type": "article", "sectionId": "food", "sectionName": "Food", "webPublicationDate": "2011-11-25T22:59:21Z", "webTitle": "Wine: why half-bottles can be twice as nice", "webUrl": "https://www.theguardian.com/lifeandstyle/2011/nov/25/wine-half-bottles-for-christmas", "apiUrl": "https://content.guardianapis.com/lifeandstyle/2011/nov/25/wine-half-bottles-for-christmas", "isHosted": false, "pillarId": "pillar/lifestyle", "pillarName": "Lifestyle"}, {"id": "lifeandstyle/2011/nov/25/gifts-for-cooks-potato-sides", "type": "article", "sectionId": "lifeandstyle", "sectionName": "Life and style", "webPublicationDate": "2011-11-25T22:59:16Z", "webTitle": "Food for Fort: on gifts for cooks and making spuds shine | Matthew Fort", "webUrl": "https://www.theguardian.com/lifeandstyle/2011/nov/25/gifts-for-cooks-potato-sides", "apiUrl": "https://content.guardianapis.com/lifeandstyle/2011/nov/25/gifts-for-cooks-potato-sides", "isHosted": false, "pillarId": "pillar/lifestyle", "pillarName": "Lifestyle"}, {"id": "lifeandstyle/wordofmouth/2011/nov/25/a-matter-of-conveniences", "type": "article", "sectionId": "food", "sectionName": "Food", "webPublicationDate": "2011-11-25T15:10:00Z", "webTitle": "A matter of conveniences", "webUrl": "https://www.theguardian.com/lifeandstyle/wordofmouth/2011/nov/25/a-matter-of-conveniences", "apiUrl": "https://content.guardianapis.com/lifeandstyle/wordofmouth/2011/nov/25/a-matter-of-conveniences", "isHosted": false, "pillarId": "pillar/lifestyle", "pillarName": "Lifestyle"}, {"id": "lifeandstyle/2011/nov/25/christmas-taste-test-chocolate-logs", "type": "article", "sectionId": "lifeandstyle", "sectionName": "Life and style", "webPublicationDate": "2011-11-25T10:00:00Z", "webTitle": "Christmas taste test: chocolate yule logs", "webUrl": "https://www.theguardian.com/lifeandstyle/2011/nov/25/christmas-taste-test-chocolate-logs", "apiUrl": "https://content.guardianapis.com/lifeandstyle/2011/nov/25/christmas-taste-test-chocolate-logs", "isHosted": false, "pillarId": "pillar/lifestyle", "pillarName": "Lifestyle"}, {"id": "lifeandstyle/2011/nov/25/taste-test-christmas-pudding", "type": "article", "sectionId": "food", "sectionName": "Food", "webPublicationDate": "2011-11-25T10:00:00Z", "webTitle": "Christmas taste test: Christmas puddings", "webUrl": "https://www.theguardian.com/lifeandstyle/2011/nov/25/taste-test-christmas-pudding", "apiUrl": "https://content.guardianapis.com/lifeandstyle/2011/nov/25/taste-test-christmas-pudding", "isHosted": false, "pillarId": "pillar/lifestyle", "pillarName": "Lifestyle"}, {"id": "lifeandstyle/2011/nov/25/christmas-taste-test-chocolates", "type": "article", "sectionId": "food", "sectionName": "Food", "webPublicationDate": "2011-11-25T10:00:00Z", "webTitle": "Christmas taste test: chocolate boxes", "webUrl": "https://www.theguardian.com/lifeandstyle/2011/nov/25/christmas-taste-test-chocolates", "apiUrl": "https://content.guardianapis.com/lifeandstyle/2011/nov/25/christmas-taste-test-chocolates", "isHosted": false, "pillarId": "pillar/lifestyle", "pillarName": "Lifestyle"}, {"id": "lifeandstyle/2011/nov/25/christmas-taste-test-christmas-cake", "type": "article", "sectionId": "lifeandstyle", "sectionName": "Life and style", "webPublicationDate": "2011-11-25T10:00:00Z", "webTitle": "Christmas taste test: Christmas cake", "webUrl": "https://www.theguardian.com/lifeandstyle/2011/nov/25/christmas-taste-test-christmas-cake", "apiUrl": "https://content.guardianapis.com/lifeandstyle/2011/nov/25/christmas-taste-test-christmas-cake", "isHosted": false, "pillarId": "pillar/lifestyle", "pillarName": "Lifestyle"}, {"id": "commentisfree/2011/nov/25/eric-pickles-curry-college", "type": "article", "sectionId": "commentisfree", "sectionName": "Opinion", "webPublicationDate": "2011-11-25T10:00:00Z", "webTitle": "Eric Pickles's curry college will hardly champion integration | Oliver Laughland", "webUrl": "https://www.theguardian.com/commentisfree/2011/nov/25/eric-pickles-curry-college", "apiUrl": "https://content.guardianapis.com/commentisfree/2011/nov/25/eric-pickles-curry-college", "isHosted": false, "pillarId": "pillar/opinion", "pillarName": "Opinion"}, {"id": "lifeandstyle/2011/nov/25/christmas-taste-test-stollen", "type": "article", "sectionId": "lifeandstyle", "sectionName": "Life and style", "webPublicationDate": "2011-11-25T10:00:00Z", "webTitle": "Christmas taste test: stollen", "webUrl": "https://www.theguardian.com/lifeandstyle/2011/nov/25/christmas-taste-test-stollen", "apiUrl": "https://content.guardianapis.com/lifeandstyle/2011/nov/25/christmas-taste-test-stollen", "isHosted": false, "pillarId": "pillar/lifestyle", "pillarName": "Lifestyle"}, {"id": "lifeandstyle/2011/nov/25/christmas-taste-test-mince-pies", "type": "article", "sectionId": "lifeandstyle", "sectionName": "Life and style", "webPublicationDate": "2011-11-25T10:00:00Z", "webTitle": "Christmas taste test: mince pies", "webUrl": "https://www.theguardian.com/lifeandstyle/2011/nov/25/christmas-taste-test-mince-pies", "apiUrl": "https://content.guardianapis.com/lifeandstyle/2011/nov/25/christmas-taste-test-mince-pies", "isHosted": false, "pillarId": "pillar/lifestyle", "pillarName": "Lifestyle"}, {"id": "lifeandstyle/2011/nov/25/christmas-taste-test-panettone", "type": "article", "sectionId": "lifeandstyle", "sectionName": "Life and style", "webPublicationDate": "2011-11-25T10:00:00Z", "webTitle": "Christmas taste test: panettone", "webUrl": "https://www.theguardian.com/lifeandstyle/2011/nov/25/christmas-taste-test-panettone", "apiUrl": "https://content.guardianapis.com/lifeandstyle/2011/nov/25/christmas-taste-test-panettone", "isHosted": false, "pillarId": "pillar/lifestyle", "pillarName": "Lifestyle"}, {"id": "lifeandstyle/2011/nov/25/christmas-taste-test-luxury-biscuits", "type": "article", "sectionId": "lifeandstyle", "sectionName": "Life and style", "webPublicationDate": "2011-11-25T10:00:00Z", "webTitle": "Christmas taste test: luxury biscuits", "webUrl": "https://www.theguardian.com/lifeandstyle/2011/nov/25/christmas-taste-test-luxury-biscuits", "apiUrl": "https://content.guardianapis.com/lifeandstyle/2011/nov/25/christmas-taste-test-luxury-biscuits", "isHosted": false, "pillarId": "pillar/lifestyle", "pillarName": "Lifestyle"}, {"id": "lifeandstyle/2011/nov/25/christmas-taste-test-chocolate-truffles", "type": "article", "sectionId": "food", "sectionName": "Food", "webPublicationDate": "2011-11-25T10:00:00Z", "webTitle": "Christmas taste test: chocolate truffles", "webUrl": "https://www.theguardian.com/lifeandstyle/2011/nov/25/christmas-taste-test-chocolate-truffles", "apiUrl": "https://content.guardianapis.com/lifeandstyle/2011/nov/25/christmas-taste-test-chocolate-truffles", "isHosted": false, "pillarId": "pillar/lifestyle", "pillarName": "Lifestyle"}, {"id": "lifeandstyle/2011/nov/25/christmas-taste-test-novelty-chocolates", "type": "article", "sectionId": "lifeandstyle", "sectionName": "Life and style", "webPublicationDate": "2011-11-25T10:00:00Z", "webTitle": "Christmas taste test: novelty chocolates", "webUrl": "https://www.theguardian.com/lifeandstyle/2011/nov/25/christmas-taste-test-novelty-chocolates", "apiUrl": "https://content.guardianapis.com/lifeandstyle/2011/nov/25/christmas-taste-test-novelty-chocolates", "isHosted": false, "pillarId": "pillar/lifestyle", "pillarName": "Lifestyle"}, {"id": "lifeandstyle/2011/nov/25/mustard-fish-mango-curry-recipe", "type": "article", "sectionId": "food", "sectionName": "Food", "webPublicationDate": "2011-11-25T09:45:00Z", "webTitle": "Mustard fish and mango curry recipe", "webUrl": "https://www.theguardian.com/lifeandstyle/2011/nov/25/mustard-fish-mango-curry-recipe", "apiUrl": "https://content.guardianapis.com/lifeandstyle/2011/nov/25/mustard-fish-mango-curry-recipe", "isHosted": false, "pillarId": "pillar/lifestyle", "pillarName": "Lifestyle"}, {"id": "lifeandstyle/2011/nov/24/brasserie-blanc-buys-chez-gerard", "type": "article", "sectionId": "food", "sectionName": "Food", "webPublicationDate": "2011-11-24T20:30:56Z", "webTitle": "Brasserie Blanc expands with extra helping of steak and frites", "webUrl": "https://www.theguardian.com/lifeandstyle/2011/nov/24/brasserie-blanc-buys-chez-gerard", "apiUrl": "https://content.guardianapis.com/lifeandstyle/2011/nov/24/brasserie-blanc-buys-chez-gerard", "isHosted": false, "pillarId": "pillar/lifestyle", "pillarName": "Lifestyle"}, {"id": "commentisfree/cifamerica/2011/nov/24/thanksgiving-food-and-drink", "type": "article", "sectionId": "commentisfree", "sectionName": "Opinion", "webPublicationDate": "2011-11-24T20:30:01Z", "webTitle": "Let them eat turkey | Linh Dinh", "webUrl": "https://www.theguardian.com/commentisfree/cifamerica/2011/nov/24/thanksgiving-food-and-drink", "apiUrl": "https://content.guardianapis.com/commentisfree/cifamerica/2011/nov/24/thanksgiving-food-and-drink", "isHosted": false, "pillarId": "pillar/opinion", "pillarName": "Opinion"}, {"id": "commentisfree/cifamerica/2011/nov/24/new-world-great-tradition-novelty", "type": "article", "sectionId": "commentisfree", "sectionName": "Opinion", "webPublicationDate": "2011-11-24T20:00:01Z", "webTitle": "The new world's great tradition: novelty | Charles Petersen", "webUrl": "https://www.theguardian.com/commentisfree/cifamerica/2011/nov/24/new-world-great-tradition-novelty", "apiUrl": "https://content.guardianapis.com/commentisfree/cifamerica/2011/nov/24/new-world-great-tradition-novelty", "isHosted": false, "pillarId": "pillar/opinion", "pillarName": "Opinion"}, {"id": "commentisfree/cifamerica/2011/nov/24/customs-of-the-country", "type": "article", "sectionId": "lifeandstyle", "sectionName": "Life and style", "webPublicationDate": "2011-11-24T19:30:01Z", "webTitle": "The customs of the country | Sarahi Uribe", "webUrl": "https://www.theguardian.com/commentisfree/cifamerica/2011/nov/24/customs-of-the-country", "apiUrl": "https://content.guardianapis.com/commentisfree/cifamerica/2011/nov/24/customs-of-the-country", "isHosted": false, "pillarId": "pillar/lifestyle", "pillarName": "Lifestyle"}, {"id": "lifeandstyle/2011/nov/24/wine-tasting-secrets-science-swirl", "type": "article", "sectionId": "food", "sectionName": "Food", "webPublicationDate": "2011-11-24T16:05:33Z", "webTitle": "What's in a swirl? Secrets of the wine taster's gesture", "webUrl": "https://www.theguardian.com/lifeandstyle/2011/nov/24/wine-tasting-secrets-science-swirl", "apiUrl": "https://content.guardianapis.com/lifeandstyle/2011/nov/24/wine-tasting-secrets-science-swirl", "isHosted": false, "pillarId": "pillar/lifestyle", "pillarName": "Lifestyle"}, {"id": "money/blog/2011/nov/24/restaurant-charges-for-baby", "type": "article", "sectionId": "money", "sectionName": "Money", "webPublicationDate": "2011-11-24T15:39:49Z", "webTitle": "A baby at your restaurant table? That'll be a \u00a33 surcharge", "webUrl": "https://www.theguardian.com/money/blog/2011/nov/24/restaurant-charges-for-baby", "apiUrl": "https://content.guardianapis.com/money/blog/2011/nov/24/restaurant-charges-for-baby", "isHosted": false, "pillarId": "pillar/lifestyle", "pillarName": "Lifestyle"}, {"id": "commentisfree/cifamerica/2011/nov/24/united-by-turkey-and-twitter", "type": "article", "sectionId": "commentisfree", "sectionName": "Opinion", "webPublicationDate": "2011-11-24T14:30:01Z", "webTitle": "United by turkey \u2013 and Twitter | An Xiao Mina", "webUrl": "https://www.theguardian.com/commentisfree/cifamerica/2011/nov/24/united-by-turkey-and-twitter", "apiUrl": "https://content.guardianapis.com/commentisfree/cifamerica/2011/nov/24/united-by-turkey-and-twitter", "isHosted": false, "pillarId": "pillar/opinion", "pillarName": "Opinion"}, {"id": "travel/2011/nov/24/boat-magazine-detroit-food", "type": "article", "sectionId": "travel", "sectionName": "Travel", "webPublicationDate": "2011-11-24T13:31:00Z", "webTitle": "A food adventure in Detroit", "webUrl": "https://www.theguardian.com/travel/2011/nov/24/boat-magazine-detroit-food", "apiUrl": "https://content.guardianapis.com/travel/2011/nov/24/boat-magazine-detroit-food", "isHosted": false, "pillarId": "pillar/lifestyle", "pillarName": "Lifestyle"}, {"id": "environment/2011/nov/24/shark-fin-peninsula-hotels", "type": "article", "sectionId": "environment", "sectionName": "Environment", "webPublicationDate": "2011-11-24T12:38:15Z", "webTitle": "Shark fin goes off the menu at Peninsula hotels", "webUrl": "https://www.theguardian.com/environment/2011/nov/24/shark-fin-peninsula-hotels", "apiUrl": "https://content.guardianapis.com/environment/2011/nov/24/shark-fin-peninsula-hotels", "isHosted": false, "pillarId": "pillar/news", "pillarName": "News"}, {"id": "lifeandstyle/2011/nov/24/lamb-rogan-josh-recipe", "type": "article", "sectionId": "food", "sectionName": "Food", "webPublicationDate": "2011-11-24T11:40:00Z", "webTitle": "Lamb rogan josh recipe", "webUrl": "https://www.theguardian.com/lifeandstyle/2011/nov/24/lamb-rogan-josh-recipe", "apiUrl": "https://content.guardianapis.com/lifeandstyle/2011/nov/24/lamb-rogan-josh-recipe", "isHosted": false, "pillarId": "pillar/lifestyle", "pillarName": "Lifestyle"}, {"id": "uk/the-northerner/2011/nov/24/food-food-and-drink", "type": "article", "sectionId": "uk-news", "sectionName": "UK news", "webPublicationDate": "2011-11-24T11:12:00Z", "webTitle": "Bradford prepares for Curry Capital coronation", "webUrl": "https://www.theguardian.com/uk/the-northerner/2011/nov/24/food-food-and-drink", "apiUrl": "https://content.guardianapis.com/uk/the-northerner/2011/nov/24/food-food-and-drink", "isHosted": false, "pillarId": "pillar/news", "pillarName": "News"}, {"id": "money/2011/nov/24/meal-appeal-donations-fareshare-sainsburys", "type": "article", "sectionId": "money", "sectionName": "Money", "webPublicationDate": "2011-11-24T10:51:31Z", "webTitle": "Meal appeal targets 1m donations over Christmas", "webUrl": "https://www.theguardian.com/money/2011/nov/24/meal-appeal-donations-fareshare-sainsburys", "apiUrl": "https://content.guardianapis.com/money/2011/nov/24/meal-appeal-donations-fareshare-sainsburys", "isHosted": false, "pillarId": "pillar/lifestyle", "pillarName": "Lifestyle"}]}}