{"response": {"status": "ok", "userTier": "developer", "total": 19566, "startIndex": 1, "pageSize": 50, "currentPage": 1, "pages": 392, "orderBy": "newest", "results": [{"id": "tv-and-radio/2013/nov/30/strange-days-legacy-farm-kitchen-tudor-monastery", "type": "article", "sectionId": "tv-and-radio", "sectionName": "Television & radio", "webPublicationDate": "2013-11-30T18:00:00Z", "webTitle": "Rewind TV: Strange Days: Cold War Britain; Legacy; Nigel and Adam's Farm Kitchen; Tudor Monastery Farm \u2013 review", "webUrl": "https://www.theguardian.com/tv-and-radio/2013/nov/30/strange-days-legacy-farm-kitchen-tudor-monastery", "apiUrl": "https://content.guardianapis.com/tv-and-radio/2013/nov/30/strange-days-legacy-farm-kitchen-tudor-monastery", "isHosted": false, "pillarId": "pillar/arts", "pillarName": "Arts"}, {"id": "lifeandstyle/2013/nov/30/manchester-house-aiden-byrne-restaurant-review-jay-rayner", "type": "article", "sectionId": "food", "sectionName": "Food", "webPublicationDate": "2013-11-30T15:46:00Z", "webTitle": "Manchester House: restaurant review | Jay Rayner", "webUrl": "https://www.theguardian.com/lifeandstyle/2013/nov/30/manchester-house-aiden-byrne-restaurant-review-jay-rayner", "apiUrl": "https://content.guardianapis.com/lifeandstyle/2013/nov/30/manchester-house-aiden-byrne-restaurant-review-jay-rayner", "isHosted": false, "pillarId": "pillar/lifestyle", "pillarName": "Lifestyle"}, {"id": "lifeandstyle/2013/nov/30/mediterranean-teutonic-wines-place-david-williams", "type": "article", "sectionId": "food", "sectionName": "Food", "webPublicationDate": "2013-11-30T12:59:00Z", "webTitle": "Mediterranean and Teutonic wines with a sense of place | David Williams", "webUrl": "https://www.theguardian.com/lifeandstyle/2013/nov/30/mediterranean-teutonic-wines-place-david-williams", "apiUrl": "https://content.guardianapis.com/lifeandstyle/2013/nov/30/mediterranean-teutonic-wines-place-david-williams", "isHosted": false, "pillarId": "pillar/lifestyle", "pillarName": "Lifestyle"}, {"id": "lifeandstyle/2013/nov/30/confessions-cocktail-convert", "type": "article", "sectionId": "lifeandstyle", "sectionName": "Life and style", "webPublicationDate": "2013-11-30T09:00:24Z", "webTitle": "Shake it up: confessions of a cocktail convert", "webUrl": "https://www.theguardian.com/lifeandstyle/2013/nov/30/confessions-cocktail-convert", "apiUrl": "https://content.guardianapis.com/lifeandstyle/2013/nov/30/confessions-cocktail-convert", "isHosted": false, "pillarId": "pillar/lifestyle", "pillarName": "Lifestyle"}, {"id": "lifeandstyle/2013/nov/30/pros-cons-eating-restaurants-christmas", "type": "article", "sectionId": "lifeandstyle", "sectionName": "Life and style", "webPublicationDate": "2013-11-30T09:00:00Z", "webTitle": "Get stuffed? The pros and cons of dining out at Christmas", "webUrl": "https://www.theguardian.com/lifeandstyle/2013/nov/30/pros-cons-eating-restaurants-christmas", "apiUrl": "https://content.guardianapis.com/lifeandstyle/2013/nov/30/pros-cons-eating-restaurants-christmas", "isHosted": false, "pillarId": "pillar/lifestyle", "pillarName": "Lifestyle"}, {"id": "lifeandstyle/2013/nov/30/food-lovers-advent-calendar-recipes-christmas", "type": "article", "sectionId": "food", "sectionName": "Food", "webPublicationDate": "2013-11-30T09:00:00Z", "webTitle": "The ultimate food lovers' advent calendar", "webUrl": "https://www.theguardian.com/lifeandstyle/2013/nov/30/food-lovers-advent-calendar-recipes-christmas", "apiUrl": "https://content.guardianapis.com/lifeandstyle/2013/nov/30/food-lovers-advent-calendar-recipes-christmas", "isHosted": false, "pillarId": "pillar/lifestyle", "pillarName": "Lifestyle"}, {"id": "lifeandstyle/2013/nov/30/sister-diagnosis-chas-dave-all-bran", "type": "article", "sectionId": "lifeandstyle", "sectionName": "Life and style", "webPublicationDate": "2013-11-30T07:30:05Z", "webTitle": "Family life: My sister's diagnosis, Chas & Dave and Mum's All-Bran loaf", "webUrl": "https://www.theguardian.com/lifeandstyle/2013/nov/30/sister-diagnosis-chas-dave-all-bran", "apiUrl": "https://content.guardianapis.com/lifeandstyle/2013/nov/30/sister-diagnosis-chas-dave-all-bran", "isHosted": false, "pillarId": "pillar/lifestyle", "pillarName": "Lifestyle"}, {"id": "lifeandstyle/2013/nov/30/10-best-oat-recipes-breakfast", "type": "article", "sectionId": "lifeandstyle", "sectionName": "Life and style", "webPublicationDate": "2013-11-30T07:00:41Z", "webTitle": "The 10 best oat recipes", "webUrl": "https://www.theguardian.com/lifeandstyle/2013/nov/30/10-best-oat-recipes-breakfast", "apiUrl": "https://content.guardianapis.com/lifeandstyle/2013/nov/30/10-best-oat-recipes-breakfast", "isHosted": false, "pillarId": "pillar/lifestyle", "pillarName": "Lifestyle"}, {"id": "lifeandstyle/2013/nov/30/recipe-swap-boozy-whisky-venisons-rum-butter-drunken-clementines", "type": "article", "sectionId": "lifeandstyle", "sectionName": "Life and style", "webPublicationDate": "2013-11-30T07:00:39Z", "webTitle": "Readers' recipe swap: Boozy | Felicity Cloake", "webUrl": "https://www.theguardian.com/lifeandstyle/2013/nov/30/recipe-swap-boozy-whisky-venisons-rum-butter-drunken-clementines", "apiUrl": "https://content.guardianapis.com/lifeandstyle/2013/nov/30/recipe-swap-boozy-whisky-venisons-rum-butter-drunken-clementines", "isHosted": false, "pillarId": "pillar/lifestyle", "pillarName": "Lifestyle"}, {"id": "lifeandstyle/2013/nov/30/beer-cocktail-swedish-christmas-drink-stout-mumma", "type": "article", "sectionId": "lifeandstyle", "sectionName": "Life and style", "webPublicationDate": "2013-11-30T07:00:31Z", "webTitle": "Make your own mumma cocktail", "webUrl": "https://www.theguardian.com/lifeandstyle/2013/nov/30/beer-cocktail-swedish-christmas-drink-stout-mumma", "apiUrl": "https://content.guardianapis.com/lifeandstyle/2013/nov/30/beer-cocktail-swedish-christmas-drink-stout-mumma", "isHosted": false, "pillarId": "pillar/lifestyle", "pillarName": "Lifestyle"}, {"id": "lifeandstyle/2013/nov/30/pork-recipes-pigs-food-waste-demonstration", "type": "article", "sectionId": "lifeandstyle", "sectionName": "Life and style", "webPublicationDate": "2013-11-30T07:00:00Z", "webTitle": "pig idea demonstration in Trafalgar Square", "webUrl": "https://www.theguardian.com/lifeandstyle/2013/nov/30/pork-recipes-pigs-food-waste-demonstration", "apiUrl": "https://content.guardianapis.com/lifeandstyle/2013/nov/30/pork-recipes-pigs-food-waste-demonstration", "isHosted": false, "pillarId": "pillar/lifestyle", "pillarName": "Lifestyle"}, {"id": "lifeandstyle/2013/nov/30/store-cupboard-swaps-ingredients-recipes", "type": "article", "sectionId": "lifeandstyle", "sectionName": "Life and style", "webPublicationDate": "2013-11-30T07:00:00Z", "webTitle": "Store cupboard swaps - kitchen tips for busy cooks", "webUrl": "https://www.theguardian.com/lifeandstyle/2013/nov/30/store-cupboard-swaps-ingredients-recipes", "apiUrl": "https://content.guardianapis.com/lifeandstyle/2013/nov/30/store-cupboard-swaps-ingredients-recipes", "isHosted": false, "pillarId": "pillar/lifestyle", "pillarName": "Lifestyle"}, {"id": "lifeandstyle/2013/nov/30/cranberry-farmer-kent-crumble-cake-recipe", "type": "article", "sectionId": "lifeandstyle", "sectionName": "Life and style", "webPublicationDate": "2013-11-30T07:00:00Z", "webTitle": "UK's only cranberry farmer | Meet the producer", "webUrl": "https://www.theguardian.com/lifeandstyle/2013/nov/30/cranberry-farmer-kent-crumble-cake-recipe", "apiUrl": "https://content.guardianapis.com/lifeandstyle/2013/nov/30/cranberry-farmer-kent-crumble-cake-recipe", "isHosted": false, "pillarId": "pillar/lifestyle", "pillarName": "Lifestyle"}, {"id": "lifeandstyle/2013/nov/29/angela-hartnett-simple-party-food-recipes", "type": "article", "sectionId": "lifeandstyle", "sectionName": "Life and style", "webPublicationDate": "2013-11-29T16:30:00Z", "webTitle": "Finger-lickin' good: Angela Hartnett's simple party food recipes", "webUrl": "https://www.theguardian.com/lifeandstyle/2013/nov/29/angela-hartnett-simple-party-food-recipes", "apiUrl": "https://content.guardianapis.com/lifeandstyle/2013/nov/29/angela-hartnett-simple-party-food-recipes", "isHosted": false, "pillarId": "pillar/lifestyle", "pillarName": "Lifestyle"}, {"id": "lifeandstyle/2013/nov/29/gluten-free-egg-free-dairy-free-chrismas-pudding", "type": "article", "sectionId": "lifeandstyle", "sectionName": "Life and style", "webPublicationDate": "2013-11-29T12:29:00Z", "webTitle": "Gluten-free, egg-free and dairy-free Christmas pudding | Just as tasty", "webUrl": "https://www.theguardian.com/lifeandstyle/2013/nov/29/gluten-free-egg-free-dairy-free-chrismas-pudding", "apiUrl": "https://content.guardianapis.com/lifeandstyle/2013/nov/29/gluten-free-egg-free-dairy-free-chrismas-pudding", "isHosted": false, "pillarId": "pillar/lifestyle", "pillarName": "Lifestyle"}, {"id": "lifeandstyle/wordofmouth/2013/nov/29/how-to-eat-curry-take-away", "type": "article", "sectionId": "food", "sectionName": "Food", "webPublicationDate": "2013-11-29T10:00:00Z", "webTitle": "How to eat: curry", "webUrl": "https://www.theguardian.com/lifeandstyle/wordofmouth/2013/nov/29/how-to-eat-curry-take-away", "apiUrl": "https://content.guardianapis.com/lifeandstyle/wordofmouth/2013/nov/29/how-to-eat-curry-take-away", "isHosted": false, "pillarId": "pillar/lifestyle", "pillarName": "Lifestyle"}, {"id": "lifeandstyle/2013/nov/29/how-to-make-pink-pickled-eggs-children", "type": "article", "sectionId": "food", "sectionName": "Food", "webPublicationDate": "2013-11-29T09:30:00Z", "webTitle": "How to make pink pickled eggs", "webUrl": "https://www.theguardian.com/lifeandstyle/2013/nov/29/how-to-make-pink-pickled-eggs-children", "apiUrl": "https://content.guardianapis.com/lifeandstyle/2013/nov/29/how-to-make-pink-pickled-eggs-children", "isHosted": false, "pillarId": "pillar/lifestyle", "pillarName": "Lifestyle"}, {"id": "lifeandstyle/2013/nov/29/christmas-drinks-tips", "type": "article", "sectionId": "food", "sectionName": "Food", "webPublicationDate": "2013-11-29T08:00:00Z", "webTitle": "Christmas drinks tips and recipes", "webUrl": "https://www.theguardian.com/lifeandstyle/2013/nov/29/christmas-drinks-tips", "apiUrl": "https://content.guardianapis.com/lifeandstyle/2013/nov/29/christmas-drinks-tips", "isHosted": false, "pillarId": "pillar/lifestyle", "pillarName": "Lifestyle"}, {"id": "stage/2013/nov/28/gastronauts-food-theatre-review", "type": "article", "sectionId": "stage", "sectionName": "Stage", "webPublicationDate": "2013-11-28T21:30:01Z", "webTitle": "Gastronauts \u2013 review", "webUrl": "https://www.theguardian.com/stage/2013/nov/28/gastronauts-food-theatre-review", "apiUrl": "https://content.guardianapis.com/stage/2013/nov/28/gastronauts-food-theatre-review", "isHosted": false, "pillarId": "pillar/arts", "pillarName": "Arts"}, {"id": "commentisfree/2013/nov/28/thanksgiving-while-living-abroad", "type": "article", "sectionId": "commentisfree", "sectionName": "Opinion", "webPublicationDate": "2013-11-28T12:30:00Z", "webTitle": "How to do Thanksgiving abroad \u2013 and have a turkey spend the night in your tub | Heather Long", "webUrl": "https://www.theguardian.com/commentisfree/2013/nov/28/thanksgiving-while-living-abroad", "apiUrl": "https://content.guardianapis.com/commentisfree/2013/nov/28/thanksgiving-while-living-abroad", "isHosted": false, "pillarId": "pillar/opinion", "pillarName": "Opinion"}, {"id": "environment/2013/nov/28/sainsburys-admits-new-zealand-jellied-eels-sold-as-british", "type": "article", "sectionId": "environment", "sectionName": "Environment", "webPublicationDate": "2013-11-28T11:26:48Z", "webTitle": "Sainsbury's admits New Zealand jellied eels were mislabelled as British", "webUrl": "https://www.theguardian.com/environment/2013/nov/28/sainsburys-admits-new-zealand-jellied-eels-sold-as-british", "apiUrl": "https://content.guardianapis.com/environment/2013/nov/28/sainsburys-admits-new-zealand-jellied-eels-sold-as-british", "isHosted": false, "pillarId": "pillar/news", "pillarName": "News"}, {"id": "lifeandstyle/2013/nov/28/jello-salads-american-thanksgiving", "type": "article", "sectionId": "food", "sectionName": "Food", "webPublicationDate": "2013-11-28T08:00:00Z", "webTitle": "Jell-O salads: American abomination or Thanksgiving treat?", "webUrl": "https://www.theguardian.com/lifeandstyle/2013/nov/28/jello-salads-american-thanksgiving", "apiUrl": "https://content.guardianapis.com/lifeandstyle/2013/nov/28/jello-salads-american-thanksgiving", "isHosted": false, "pillarId": "pillar/lifestyle", "pillarName": "Lifestyle"}, {"id": "society/2013/nov/28/oral-hygiene-heart-disease-study", "type": "article", "sectionId": "society", "sectionName": "Society", "webPublicationDate": "2013-11-28T00:01:00Z", "webTitle": "Poor oral hygiene linked to heart disease \u2013 study", "webUrl": "https://www.theguardian.com/society/2013/nov/28/oral-hygiene-heart-disease-study", "apiUrl": "https://content.guardianapis.com/society/2013/nov/28/oral-hygiene-heart-disease-study", "isHosted": false, "pillarId": "pillar/news", "pillarName": "News"}, {"id": "world/2013/nov/27/sriracha-partial-shutdown-california-factory", "type": "article", "sectionId": "world", "sectionName": "World news", "webPublicationDate": "2013-11-27T21:49:44Z", "webTitle": "Sriracha: judge orders partial shutdown of California factory", "webUrl": "https://www.theguardian.com/world/2013/nov/27/sriracha-partial-shutdown-california-factory", "apiUrl": "https://content.guardianapis.com/world/2013/nov/27/sriracha-partial-shutdown-california-factory", "isHosted": false, "pillarId": "pillar/news", "pillarName": "News"}, {"id": "lifeandstyle/2013/nov/27/better-name-for-mincemeat", "type": "article", "sectionId": "food", "sectionName": "Food", "webPublicationDate": "2013-11-27T15:00:02Z", "webTitle": "Has anyone got a better name for mincemeat?", "webUrl": "https://www.theguardian.com/lifeandstyle/2013/nov/27/better-name-for-mincemeat", "apiUrl": "https://content.guardianapis.com/lifeandstyle/2013/nov/27/better-name-for-mincemeat", "isHosted": false, "pillarId": "pillar/lifestyle", "pillarName": "Lifestyle"}, {"id": "lifeandstyle/wordofmouth/2013/nov/27/how-make-perfect-pecan-pie", "type": "article", "sectionId": "food", "sectionName": "Food", "webPublicationDate": "2013-11-27T12:28:00Z", "webTitle": "How to make the perfect pecan pie", "webUrl": "https://www.theguardian.com/lifeandstyle/wordofmouth/2013/nov/27/how-make-perfect-pecan-pie", "apiUrl": "https://content.guardianapis.com/lifeandstyle/wordofmouth/2013/nov/27/how-make-perfect-pecan-pie", "isHosted": false, "pillarId": "pillar/lifestyle", "pillarName": "Lifestyle"}, {"id": "lifeandstyle/2013/nov/27/jack-monroe-tomato-bean-soup-recipe", "type": "article", "sectionId": "lifeandstyle", "sectionName": "Life and style", "webPublicationDate": "2013-11-27T10:42:51Z", "webTitle": "Jack Monroe's tomato and bean soup recipe", "webUrl": "https://www.theguardian.com/lifeandstyle/2013/nov/27/jack-monroe-tomato-bean-soup-recipe", "apiUrl": "https://content.guardianapis.com/lifeandstyle/2013/nov/27/jack-monroe-tomato-bean-soup-recipe", "isHosted": false, "pillarId": "pillar/lifestyle", "pillarName": "Lifestyle"}, {"id": "lifeandstyle/2013/nov/27/christmas-turkey-tips", "type": "article", "sectionId": "lifeandstyle", "sectionName": "Life and style", "webPublicationDate": "2013-11-27T08:00:00Z", "webTitle": "Talking turkey: Christmas tips", "webUrl": "https://www.theguardian.com/lifeandstyle/2013/nov/27/christmas-turkey-tips", "apiUrl": "https://content.guardianapis.com/lifeandstyle/2013/nov/27/christmas-turkey-tips", "isHosted": false, "pillarId": "pillar/lifestyle", "pillarName": "Lifestyle"}, {"id": "lifeandstyle/2013/nov/26/food-cookery-dinner-foodie-brits", "type": "article", "sectionId": "food", "sectionName": "Food", "webPublicationDate": "2013-11-26T20:41:40Z", "webTitle": "'Foodie' Brits admit to dining regularly on cereal and pasta", "webUrl": "https://www.theguardian.com/lifeandstyle/2013/nov/26/food-cookery-dinner-foodie-brits", "apiUrl": "https://content.guardianapis.com/lifeandstyle/2013/nov/26/food-cookery-dinner-foodie-brits", "isHosted": false, "pillarId": "pillar/lifestyle", "pillarName": "Lifestyle"}, {"id": "world/2013/nov/26/al-gore-goes-vegan-bill-clinton", "type": "article", "sectionId": "world", "sectionName": "World news", "webPublicationDate": "2013-11-26T19:41:02Z", "webTitle": "Al Gore follows Bill Clinton's lead with apparent turn to veganism", "webUrl": "https://www.theguardian.com/world/2013/nov/26/al-gore-goes-vegan-bill-clinton", "apiUrl": "https://content.guardianapis.com/world/2013/nov/26/al-gore-goes-vegan-bill-clinton", "isHosted": false, "pillarId": "pillar/news", "pillarName": "News"}, {"id": "lifeandstyle/video/2013/nov/26/thanksgiving-pumpkin-pie-recipe-video", "type": "video", "sectionId": "lifeandstyle", "sectionName": "Life and style", "webPublicationDate": "2013-11-26T16:31:00Z", "webTitle": "Pumpkin pie 101: how to conquer a Thanksgiving staple \u2013 video", "webUrl": "https://www.theguardian.com/lifeandstyle/video/2013/nov/26/thanksgiving-pumpkin-pie-recipe-video", "apiUrl": "https://content.guardianapis.com/lifeandstyle/video/2013/nov/26/thanksgiving-pumpkin-pie-recipe-video", "isHosted": false, "pillarId": "pillar/lifestyle", "pillarName": "Lifestyle"}, {"id": "lifeandstyle/gallery/2013/nov/26/thanksgiving-hanukkah-recipes-from-guardian-readers", "type": "gallery", "sectionId": "food", "sectionName": "Food", "webPublicationDate": "2013-11-26T15:04:01Z", "webTitle": "'Thanksgivukkah' holiday recipes from Guardian US readers \u2013 in photos", "webUrl": "https://www.theguardian.com/lifeandstyle/gallery/2013/nov/26/thanksgiving-hanukkah-recipes-from-guardian-readers", "apiUrl": "https://content.guardianapis.com/lifeandstyle/gallery/2013/nov/26/thanksgiving-hanukkah-recipes-from-guardian-readers", "isHosted": false, "pillarId": "pillar/lifestyle", "pillarName": "Lifestyle"}, {"id": "lifeandstyle/2013/nov/26/advent-calendar-taste-test-kids-best", "type": "article", "sectionId": "lifeandstyle", "sectionName": "Life and style", "webPublicationDate": "2013-11-26T14:00:00Z", "webTitle": "Advent calendar taste test: kids rate the best", "webUrl": "https://www.theguardian.com/lifeandstyle/2013/nov/26/advent-calendar-taste-test-kids-best", "apiUrl": "https://content.guardianapis.com/lifeandstyle/2013/nov/26/advent-calendar-taste-test-kids-best", "isHosted": false, "pillarId": "pillar/lifestyle", "pillarName": "Lifestyle"}, {"id": "sustainable-business/food-blog/pig-idea-food-waste-feed-tristram-stuart-thomasina-miers", "type": "article", "sectionId": "sustainable-business", "sectionName": "Guardian Sustainable Business", "webPublicationDate": "2013-11-26T12:58:00Z", "webTitle": "The Pig Idea: use food waste as animal feed rather than crops, say celebrity chefs", "webUrl": "https://www.theguardian.com/sustainable-business/food-blog/pig-idea-food-waste-feed-tristram-stuart-thomasina-miers", "apiUrl": "https://content.guardianapis.com/sustainable-business/food-blog/pig-idea-food-waste-feed-tristram-stuart-thomasina-miers", "isHosted": false}, {"id": "lifeandstyle/wordofmouth/2013/nov/26/christmas-sandwiches-taste-test-best-worst", "type": "article", "sectionId": "food", "sectionName": "Food", "webPublicationDate": "2013-11-26T10:30:00Z", "webTitle": "Christmas sandwiches taste test: the best and the worst", "webUrl": "https://www.theguardian.com/lifeandstyle/wordofmouth/2013/nov/26/christmas-sandwiches-taste-test-best-worst", "apiUrl": "https://content.guardianapis.com/lifeandstyle/wordofmouth/2013/nov/26/christmas-sandwiches-taste-test-best-worst", "isHosted": false, "pillarId": "pillar/lifestyle", "pillarName": "Lifestyle"}, {"id": "lifeandstyle/australia-food-blog/video/2013/nov/26/kale-mint-video-recipe", "type": "video", "sectionId": "lifeandstyle", "sectionName": "Life and style", "webPublicationDate": "2013-11-26T01:32:00Z", "webTitle": "Kale, mint and lemon salad - Bondi Harvest video recipe", "webUrl": "https://www.theguardian.com/lifeandstyle/australia-food-blog/video/2013/nov/26/kale-mint-video-recipe", "apiUrl": "https://content.guardianapis.com/lifeandstyle/australia-food-blog/video/2013/nov/26/kale-mint-video-recipe", "isHosted": false, "pillarId": "pillar/lifestyle", "pillarName": "Lifestyle"}, {"id": "news/2013/nov/25/avoid-food-coma-thanksgiving-use-a-smaller-plate", "type": "article", "sectionId": "news", "sectionName": "News", "webPublicationDate": "2013-11-25T16:15:19Z", "webTitle": "Want to avoid a food coma this Thanksgiving? Use a smaller plate | Oliver Burkeman", "webUrl": "https://www.theguardian.com/news/2013/nov/25/avoid-food-coma-thanksgiving-use-a-smaller-plate", "apiUrl": "https://content.guardianapis.com/news/2013/nov/25/avoid-food-coma-thanksgiving-use-a-smaller-plate", "isHosted": false, "pillarId": "pillar/news", "pillarName": "News"}, {"id": "lifeandstyle/2013/nov/25/how-not-to-ruin-thanksgiving-etiquette-chat", "type": "article", "sectionId": "lifeandstyle", "sectionName": "Life and style", "webPublicationDate": "2013-11-25T16:09:54Z", "webTitle": "How not to ruin Thanksgiving: an etiquette chat", "webUrl": "https://www.theguardian.com/lifeandstyle/2013/nov/25/how-not-to-ruin-thanksgiving-etiquette-chat", "apiUrl": "https://content.guardianapis.com/lifeandstyle/2013/nov/25/how-not-to-ruin-thanksgiving-etiquette-chat", "isHosted": false, "pillarId": "pillar/lifestyle", "pillarName": "Lifestyle"}, {"id": "environment/georgemonbiot/2013/nov/25/stealth-tax-north-sea-cod-seafish", "type": "article", "sectionId": "environment", "sectionName": "Environment", "webPublicationDate": "2013-11-25T10:35:30Z", "webTitle": "The stealth tax that says to hell with North Sea cod stocks | George Monbiot", "webUrl": "https://www.theguardian.com/environment/georgemonbiot/2013/nov/25/stealth-tax-north-sea-cod-seafish", "apiUrl": "https://content.guardianapis.com/environment/georgemonbiot/2013/nov/25/stealth-tax-north-sea-cod-seafish", "isHosted": false, "pillarId": "pillar/news", "pillarName": "News"}, {"id": "lifeandstyle/2013/nov/25/why-free-range-milk-is-good-for-you", "type": "article", "sectionId": "lifeandstyle", "sectionName": "Life and style", "webPublicationDate": "2013-11-25T07:00:00Z", "webTitle": "Why free-range milk is good for you", "webUrl": "https://www.theguardian.com/lifeandstyle/2013/nov/25/why-free-range-milk-is-good-for-you", "apiUrl": "https://content.guardianapis.com/lifeandstyle/2013/nov/25/why-free-range-milk-is-good-for-you", "isHosted": false, "pillarId": "pillar/lifestyle", "pillarName": "Lifestyle"}, {"id": "commentisfree/video/2013/nov/24/thanksgiving-dinner-annoying-family-questions", "type": "video", "sectionId": "commentisfree", "sectionName": "Opinion", "webPublicationDate": "2013-11-24T16:57:00Z", "webTitle": "How to deal with your relatives' holiday harassment | Jill Filipovic", "webUrl": "https://www.theguardian.com/commentisfree/video/2013/nov/24/thanksgiving-dinner-annoying-family-questions", "apiUrl": "https://content.guardianapis.com/commentisfree/video/2013/nov/24/thanksgiving-dinner-annoying-family-questions", "isHosted": false, "pillarId": "pillar/opinion", "pillarName": "Opinion"}, {"id": "lifeandstyle/2013/nov/24/azealia-banks-goldie-beth-ditto-anthony-bourdain-comfort-food", "type": "article", "sectionId": "food", "sectionName": "Food", "webPublicationDate": "2013-11-24T08:30:00Z", "webTitle": "Happy eaters Azealia Banks, Goldie, Beth Ditto, Anthony Bourdain: my favourite comfort food", "webUrl": "https://www.theguardian.com/lifeandstyle/2013/nov/24/azealia-banks-goldie-beth-ditto-anthony-bourdain-comfort-food", "apiUrl": "https://content.guardianapis.com/lifeandstyle/2013/nov/24/azealia-banks-goldie-beth-ditto-anthony-bourdain-comfort-food", "isHosted": false, "pillarId": "pillar/lifestyle", "pillarName": "Lifestyle"}, {"id": "lifeandstyle/2013/nov/24/magdalen-arms-oxford-restaurant-review-jay-rayner", "type": "article", "sectionId": "food", "sectionName": "Food", "webPublicationDate": "2013-11-24T07:38:00Z", "webTitle": "The Magdalen Arms: restaurant review | Jay Rayner", "webUrl": "https://www.theguardian.com/lifeandstyle/2013/nov/24/magdalen-arms-oxford-restaurant-review-jay-rayner", "apiUrl": "https://content.guardianapis.com/lifeandstyle/2013/nov/24/magdalen-arms-oxford-restaurant-review-jay-rayner", "isHosted": false, "pillarId": "pillar/lifestyle", "pillarName": "Lifestyle"}, {"id": "global/2013/nov/24/jacob-kenedy-autumn-recipes-italy-flavours", "type": "article", "sectionId": "food", "sectionName": "Food", "webPublicationDate": "2013-11-24T00:05:00Z", "webTitle": "Jacob Kenedy's autumn recipes", "webUrl": "https://www.theguardian.com/global/2013/nov/24/jacob-kenedy-autumn-recipes-italy-flavours", "apiUrl": "https://content.guardianapis.com/global/2013/nov/24/jacob-kenedy-autumn-recipes-italy-flavours", "isHosted": false, "pillarId": "pillar/lifestyle", "pillarName": "Lifestyle"}, {"id": "lifeandstyle/2013/nov/23/kitchen-gadgets-bake-off-christmas", "type": "article", "sectionId": "lifeandstyle", "sectionName": "Life and style", "webPublicationDate": "2013-11-23T23:41:21Z", "webTitle": "Bake Off sparks Christmas rise in kitchen gadget sales", "webUrl": "https://www.theguardian.com/lifeandstyle/2013/nov/23/kitchen-gadgets-bake-off-christmas", "apiUrl": "https://content.guardianapis.com/lifeandstyle/2013/nov/23/kitchen-gadgets-bake-off-christmas", "isHosted": false, "pillarId": "pillar/lifestyle", "pillarName": "Lifestyle"}, {"id": "commentisfree/2013/nov/23/food-waste-recycling-pigs-farming", "type": "article", "sectionId": "commentisfree", "sectionName": "Opinion", "webPublicationDate": "2013-11-23T19:00:02Z", "webTitle": "Let pigs eat swill and stop wasting precious resources | Thomasina Miers", "webUrl": "https://www.theguardian.com/commentisfree/2013/nov/23/food-waste-recycling-pigs-farming", "apiUrl": "https://content.guardianapis.com/commentisfree/2013/nov/23/food-waste-recycling-pigs-farming", "isHosted": false, "pillarId": "pillar/opinion", "pillarName": "Opinion"}, {"id": "lifeandstyle/2013/nov/23/indie-wine-dealers-and-sunday-red", "type": "article", "sectionId": "food", "sectionName": "Food", "webPublicationDate": "2013-11-23T12:59:00Z", "webTitle": "Great indie wines and a Sunday-roast red | David Williams", "webUrl": "https://www.theguardian.com/lifeandstyle/2013/nov/23/indie-wine-dealers-and-sunday-red", "apiUrl": "https://content.guardianapis.com/lifeandstyle/2013/nov/23/indie-wine-dealers-and-sunday-red", "isHosted": false, "pillarId": "pillar/lifestyle", "pillarName": "Lifestyle"}, {"id": "lifeandstyle/2013/nov/23/japanese-christmas-recipe-gomoku-namasu", "type": "article", "sectionId": "food", "sectionName": "Food", "webPublicationDate": "2013-11-23T12:00:00Z", "webTitle": "A Japanese Christmas recipe: gomoku namasu", "webUrl": "https://www.theguardian.com/lifeandstyle/2013/nov/23/japanese-christmas-recipe-gomoku-namasu", "apiUrl": "https://content.guardianapis.com/lifeandstyle/2013/nov/23/japanese-christmas-recipe-gomoku-namasu", "isHosted": false, "pillarId": "pillar/lifestyle", "pillarName": "Lifestyle"}, {"id": "lifeandstyle/2013/nov/23/wine-magnums-recommendations-fiona-beckett", "type": "article", "sectionId": "food", "sectionName": "Food", "webPublicationDate": "2013-11-23T09:00:00Z", "webTitle": "Wine: magnum force", "webUrl": "https://www.theguardian.com/lifeandstyle/2013/nov/23/wine-magnums-recommendations-fiona-beckett", "apiUrl": "https://content.guardianapis.com/lifeandstyle/2013/nov/23/wine-magnums-recommendations-fiona-beckett", "isHosted": false, "pillarId": "pillar/lifestyle", "pillarName": "Lifestyle"}, {"id": "lifeandstyle/2013/nov/23/star-inn-the-city-review-restaurant", "type": "article", "sectionId": "lifeandstyle", "sectionName": "Life and style", "webPublicationDate": "2013-11-23T09:00:00Z", "webTitle": "Restaurant: The Star Inn the City, York", "webUrl": "https://www.theguardian.com/lifeandstyle/2013/nov/23/star-inn-the-city-review-restaurant", "apiUrl": "https://content.guardianapis.com/lifeandstyle/2013/nov/23/star-inn-the-city-review-restaurant", "isHosted": false, "pillarId": "pillar/lifestyle", "pillarName": "Lifestyle"}]}}