{"response": {"status": "ok", "userTier": "developer", "total": 21633, "startIndex": 1, "pageSize": 50, "currentPage": 1, "pages": 433, "orderBy": "newest", "results": [{"id": "food/shortcuts/2018/nov/30/cheesy-churros-morrisons-uk-spain", "type": "article", "sectionId": "food", "sectionName": "Food", "webPublicationDate": "2018-11-30T15:27:48Z", "webTitle": "This means war: why cheesy churros will destroy UK-Spain relations", "webUrl": "https://www.theguardian.com/food/shortcuts/2018/nov/30/cheesy-churros-morrisons-uk-spain", "apiUrl": "https://content.guardianapis.com/food/shortcuts/2018/nov/30/cheesy-churros-morrisons-uk-spain", "isHosted": false, "pillarId": "pillar/lifestyle", "pillarName": "Lifestyle"}, {"id": "food/2018/nov/30/amarone-the-ideal-wine-for-your-christmas-table", "type": "article", "sectionId": "food", "sectionName": "Food", "webPublicationDate": "2018-11-30T14:00:37Z", "webTitle": "Amarone: the ideal wine for your Christmas table | Fiona Beckett on wine", "webUrl": "https://www.theguardian.com/food/2018/nov/30/amarone-the-ideal-wine-for-your-christmas-table", "apiUrl": "https://content.guardianapis.com/food/2018/nov/30/amarone-the-ideal-wine-for-your-christmas-table", "isHosted": false, "pillarId": "pillar/lifestyle", "pillarName": "Lifestyle"}, {"id": "food/2018/nov/30/anna-jones-recipe-for-pasta-with-radicchio-fennel-and-rosemary", "type": "article", "sectionId": "food", "sectionName": "Food", "webPublicationDate": "2018-11-30T12:00:38Z", "webTitle": "Anna Jones\u2019 recipe for pasta with radicchio and balsamic dressing | The Modern Cook", "webUrl": "https://www.theguardian.com/food/2018/nov/30/anna-jones-recipe-for-pasta-with-radicchio-fennel-and-rosemary", "apiUrl": "https://content.guardianapis.com/food/2018/nov/30/anna-jones-recipe-for-pasta-with-radicchio-fennel-and-rosemary", "isHosted": false, "pillarId": "pillar/lifestyle", "pillarName": "Lifestyle"}, {"id": "food/2018/nov/30/as-much-about-eating-as-cooking-anna-jones-on-laurie-colwin", "type": "article", "sectionId": "food", "sectionName": "Food", "webPublicationDate": "2018-11-30T12:00:38Z", "webTitle": "As much about eating as cooking: Anna Jones on Laurie Colwin | The Cook\u2019s Cook", "webUrl": "https://www.theguardian.com/food/2018/nov/30/as-much-about-eating-as-cooking-anna-jones-on-laurie-colwin", "apiUrl": "https://content.guardianapis.com/food/2018/nov/30/as-much-about-eating-as-cooking-anna-jones-on-laurie-colwin", "isHosted": false, "pillarId": "pillar/lifestyle", "pillarName": "Lifestyle"}, {"id": "food/2018/nov/30/two-lights-london-e2-restaurant-review-grace-dent", "type": "article", "sectionId": "food", "sectionName": "Food", "webPublicationDate": "2018-11-30T10:00:36Z", "webTitle": "Two Lights, London: 'The more I ate, the less convinced I was\u2019 - restaurant review | Grace Dent", "webUrl": "https://www.theguardian.com/food/2018/nov/30/two-lights-london-e2-restaurant-review-grace-dent", "apiUrl": "https://content.guardianapis.com/food/2018/nov/30/two-lights-london-e2-restaurant-review-grace-dent", "isHosted": false, "pillarId": "pillar/lifestyle", "pillarName": "Lifestyle"}, {"id": "business/2018/nov/29/meat-poultry-sustainable-affordable-solution-lab-grown", "type": "article", "sectionId": "business", "sectionName": "Business", "webPublicationDate": "2018-11-29T12:00:06Z", "webTitle": "Lab-grown meat of the future is here \u2013 and may even sustainably fill demand | Gene Marks", "webUrl": "https://www.theguardian.com/business/2018/nov/29/meat-poultry-sustainable-affordable-solution-lab-grown", "apiUrl": "https://content.guardianapis.com/business/2018/nov/29/meat-poultry-sustainable-affordable-solution-lab-grown", "isHosted": false, "pillarId": "pillar/news", "pillarName": "News"}, {"id": "food/2018/nov/29/yuzu-the-citrus-fruit-that-looks-like-it-fell-off-a-lorry", "type": "article", "sectionId": "food", "sectionName": "Food", "webPublicationDate": "2018-11-29T08:00:01Z", "webTitle": "Yuzu: the citrus fruit that looks like it fell off a lorry", "webUrl": "https://www.theguardian.com/food/2018/nov/29/yuzu-the-citrus-fruit-that-looks-like-it-fell-off-a-lorry", "apiUrl": "https://content.guardianapis.com/food/2018/nov/29/yuzu-the-citrus-fruit-that-looks-like-it-fell-off-a-lorry", "isHosted": false, "pillarId": "pillar/lifestyle", "pillarName": "Lifestyle"}, {"id": "food/2018/nov/28/you-need-to-prepare-yourselves-how-a-good-review-can-destroy-a-restaurant", "type": "article", "sectionId": "food", "sectionName": "Food", "webPublicationDate": "2018-11-28T16:39:00Z", "webTitle": "\u2018You need to prepare yourselves\u2019: how a good review can destroy a restaurant", "webUrl": "https://www.theguardian.com/food/2018/nov/28/you-need-to-prepare-yourselves-how-a-good-review-can-destroy-a-restaurant", "apiUrl": "https://content.guardianapis.com/food/2018/nov/28/you-need-to-prepare-yourselves-how-a-good-review-can-destroy-a-restaurant", "isHosted": false, "pillarId": "pillar/lifestyle", "pillarName": "Lifestyle"}, {"id": "food/2018/nov/28/felicity-cloakes-perfect-sweet-potato-fries-recipe", "type": "article", "sectionId": "food", "sectionName": "Food", "webPublicationDate": "2018-11-28T12:00:36Z", "webTitle": "Felicity Cloake's perfect sweet potato fries \u2013 recipe", "webUrl": "https://www.theguardian.com/food/2018/nov/28/felicity-cloakes-perfect-sweet-potato-fries-recipe", "apiUrl": "https://content.guardianapis.com/food/2018/nov/28/felicity-cloakes-perfect-sweet-potato-fries-recipe", "isHosted": false, "pillarId": "pillar/lifestyle", "pillarName": "Lifestyle"}, {"id": "food/2018/nov/28/sam-bryants-recipe-for-green-chorizo-with-pink-pickled-onions-and-frazzles", "type": "article", "sectionId": "food", "sectionName": "Food", "webPublicationDate": "2018-11-28T10:50:00Z", "webTitle": "Sam Bryant\u2019s recipe for green chorizo with pink pickled onions and Frazzles", "webUrl": "https://www.theguardian.com/food/2018/nov/28/sam-bryants-recipe-for-green-chorizo-with-pink-pickled-onions-and-frazzles", "apiUrl": "https://content.guardianapis.com/food/2018/nov/28/sam-bryants-recipe-for-green-chorizo-with-pink-pickled-onions-and-frazzles", "isHosted": false, "pillarId": "pillar/lifestyle", "pillarName": "Lifestyle"}, {"id": "society/2018/nov/28/high-street-food-brands-misled-undercover-reporter-on-deadly-allergens", "type": "article", "sectionId": "society", "sectionName": "Society", "webPublicationDate": "2018-11-28T00:01:21Z", "webTitle": "High street chains gave out wrong information on deadly allergens", "webUrl": "https://www.theguardian.com/society/2018/nov/28/high-street-food-brands-misled-undercover-reporter-on-deadly-allergens", "apiUrl": "https://content.guardianapis.com/society/2018/nov/28/high-street-food-brands-misled-undercover-reporter-on-deadly-allergens", "isHosted": false, "pillarId": "pillar/news", "pillarName": "News"}, {"id": "food/2018/nov/27/from-lichen-to-kelp-jerky-how-did-food-become-so-pretentious", "type": "article", "sectionId": "food", "sectionName": "Food", "webPublicationDate": "2018-11-27T16:34:55Z", "webTitle": "From lichen to kelp jerky: how did food become so pretentious?", "webUrl": "https://www.theguardian.com/food/2018/nov/27/from-lichen-to-kelp-jerky-how-did-food-become-so-pretentious", "apiUrl": "https://content.guardianapis.com/food/2018/nov/27/from-lichen-to-kelp-jerky-how-did-food-become-so-pretentious", "isHosted": false, "pillarId": "pillar/lifestyle", "pillarName": "Lifestyle"}, {"id": "food/2018/nov/26/thomasina-miers-recipe-for-crisp-turkish-duck-leg", "type": "article", "sectionId": "food", "sectionName": "Food", "webPublicationDate": "2018-11-26T12:30:39Z", "webTitle": "A recipe for crisp Turkish leg of duck | Thomasina Miers", "webUrl": "https://www.theguardian.com/food/2018/nov/26/thomasina-miers-recipe-for-crisp-turkish-duck-leg", "apiUrl": "https://content.guardianapis.com/food/2018/nov/26/thomasina-miers-recipe-for-crisp-turkish-duck-leg", "isHosted": false, "pillarId": "pillar/lifestyle", "pillarName": "Lifestyle"}, {"id": "food/2018/nov/26/rachel-roddy-farro-pumpkin-and-chestnut-soup-recipe", "type": "article", "sectionId": "food", "sectionName": "Food", "webPublicationDate": "2018-11-26T12:00:38Z", "webTitle": "Rachel Roddy\u2019s farro, pumpkin and chestnut soup recipe | A Kitchen in Rome", "webUrl": "https://www.theguardian.com/food/2018/nov/26/rachel-roddy-farro-pumpkin-and-chestnut-soup-recipe", "apiUrl": "https://content.guardianapis.com/food/2018/nov/26/rachel-roddy-farro-pumpkin-and-chestnut-soup-recipe", "isHosted": false, "pillarId": "pillar/lifestyle", "pillarName": "Lifestyle"}, {"id": "food/2018/nov/26/revealed-restricting-breaks-keeps-poultry-industry-workers-living-in-fear", "type": "article", "sectionId": "food", "sectionName": "Food", "webPublicationDate": "2018-11-26T11:00:36Z", "webTitle": "Revealed: Restricting breaks keeps poultry industry workers living in fear", "webUrl": "https://www.theguardian.com/food/2018/nov/26/revealed-restricting-breaks-keeps-poultry-industry-workers-living-in-fear", "apiUrl": "https://content.guardianapis.com/food/2018/nov/26/revealed-restricting-breaks-keeps-poultry-industry-workers-living-in-fear", "isHosted": false, "pillarId": "pillar/lifestyle", "pillarName": "Lifestyle"}, {"id": "food/2018/nov/25/cornerstone-london-beautiful-fish-shown-resepct-restaurant-review", "type": "article", "sectionId": "food", "sectionName": "Food", "webPublicationDate": "2018-11-25T06:00:04Z", "webTitle": "Cornerstone, London: \u2018Beautiful fish shown respect\u2019 \u2013 restaurant review", "webUrl": "https://www.theguardian.com/food/2018/nov/25/cornerstone-london-beautiful-fish-shown-resepct-restaurant-review", "apiUrl": "https://content.guardianapis.com/food/2018/nov/25/cornerstone-london-beautiful-fish-shown-resepct-restaurant-review", "isHosted": false, "pillarId": "pillar/lifestyle", "pillarName": "Lifestyle"}, {"id": "food/2018/nov/25/price-busting-cotes-du-rhone-wine-france", "type": "article", "sectionId": "food", "sectionName": "Food", "webPublicationDate": "2018-11-25T05:59:00Z", "webTitle": "Price busting C\u00f4tes du Rh\u00f4nes | David Williams", "webUrl": "https://www.theguardian.com/food/2018/nov/25/price-busting-cotes-du-rhone-wine-france", "apiUrl": "https://content.guardianapis.com/food/2018/nov/25/price-busting-cotes-du-rhone-wine-france", "isHosted": false, "pillarId": "pillar/lifestyle", "pillarName": "Lifestyle"}, {"id": "food/2018/nov/24/tamal-ray-clementine-lemon-syrup-cake-recipe", "type": "article", "sectionId": "food", "sectionName": "Food", "webPublicationDate": "2018-11-24T11:00:37Z", "webTitle": "Tamal Ray\u2019s clementine and lemon syrup cake | The Sweet Spot", "webUrl": "https://www.theguardian.com/food/2018/nov/24/tamal-ray-clementine-lemon-syrup-cake-recipe", "apiUrl": "https://content.guardianapis.com/food/2018/nov/24/tamal-ray-clementine-lemon-syrup-cake-recipe", "isHosted": false, "pillarId": "pillar/lifestyle", "pillarName": "Lifestyle"}, {"id": "food/2018/nov/24/vegan-mushroom-tofu-kheema-recipe-meera-sodha", "type": "article", "sectionId": "food", "sectionName": "Food", "webPublicationDate": "2018-11-24T10:00:36Z", "webTitle": "Meera Sodha's vegan recipe for spicy mushroom kheema | The New Vegan", "webUrl": "https://www.theguardian.com/food/2018/nov/24/vegan-mushroom-tofu-kheema-recipe-meera-sodha", "apiUrl": "https://content.guardianapis.com/food/2018/nov/24/vegan-mushroom-tofu-kheema-recipe-meera-sodha", "isHosted": false, "pillarId": "pillar/lifestyle", "pillarName": "Lifestyle"}, {"id": "lifeandstyle/2018/nov/24/not-eating-vegetables-families-raising-vegan-children", "type": "article", "sectionId": "lifeandstyle", "sectionName": "Life and style", "webPublicationDate": "2018-11-24T07:00:37Z", "webTitle": "\u2018If they\u2019re not eating any vegetables, you panic\u2019: the families raising vegan children", "webUrl": "https://www.theguardian.com/lifeandstyle/2018/nov/24/not-eating-vegetables-families-raising-vegan-children", "apiUrl": "https://content.guardianapis.com/lifeandstyle/2018/nov/24/not-eating-vegetables-families-raising-vegan-children", "isHosted": false, "pillarId": "pillar/lifestyle", "pillarName": "Lifestyle"}, {"id": "food/2018/nov/24/why-you-should-never-throw-away-stale-bread", "type": "article", "sectionId": "food", "sectionName": "Food", "webPublicationDate": "2018-11-24T06:00:34Z", "webTitle": "Why you should never throw away stale bread | Tom Hunt", "webUrl": "https://www.theguardian.com/food/2018/nov/24/why-you-should-never-throw-away-stale-bread", "apiUrl": "https://content.guardianapis.com/food/2018/nov/24/why-you-should-never-throw-away-stale-bread", "isHosted": false, "pillarId": "pillar/lifestyle", "pillarName": "Lifestyle"}, {"id": "food/2018/nov/24/english-sparkling-wine-tops-which-taste-test-of-non-champagne-fizz", "type": "article", "sectionId": "food", "sectionName": "Food", "webPublicationDate": "2018-11-24T00:01:23Z", "webTitle": "English sparkling wine tops Which? taste test of non-champagne fizz", "webUrl": "https://www.theguardian.com/food/2018/nov/24/english-sparkling-wine-tops-which-taste-test-of-non-champagne-fizz", "apiUrl": "https://content.guardianapis.com/food/2018/nov/24/english-sparkling-wine-tops-which-taste-test-of-non-champagne-fizz", "isHosted": false, "pillarId": "pillar/lifestyle", "pillarName": "Lifestyle"}, {"id": "food/2018/nov/23/will-whisky-ever-be-cool", "type": "article", "sectionId": "food", "sectionName": "Food", "webPublicationDate": "2018-11-23T14:00:11Z", "webTitle": "Will whisky ever be cool? | Fiona Beckett", "webUrl": "https://www.theguardian.com/food/2018/nov/23/will-whisky-ever-be-cool", "apiUrl": "https://content.guardianapis.com/food/2018/nov/23/will-whisky-ever-be-cool", "isHosted": false, "pillarId": "pillar/lifestyle", "pillarName": "Lifestyle"}, {"id": "food/2018/nov/23/roast-beetroot-and-pickle-recipe-anna-jones", "type": "article", "sectionId": "food", "sectionName": "Food", "webPublicationDate": "2018-11-23T12:00:09Z", "webTitle": "Anna Jones\u2019 beetroot recipes | The modern cook", "webUrl": "https://www.theguardian.com/food/2018/nov/23/roast-beetroot-and-pickle-recipe-anna-jones", "apiUrl": "https://content.guardianapis.com/food/2018/nov/23/roast-beetroot-and-pickle-recipe-anna-jones", "isHosted": false, "pillarId": "pillar/lifestyle", "pillarName": "Lifestyle"}, {"id": "food/2018/nov/23/rachel-roddy-on-jane-grigson", "type": "article", "sectionId": "food", "sectionName": "Food", "webPublicationDate": "2018-11-23T12:00:08Z", "webTitle": "Irreverent, rude, but joyous: Rachel Roddy on the enduring legacy of Jane Grigson | The Cook\u2019s Cook", "webUrl": "https://www.theguardian.com/food/2018/nov/23/rachel-roddy-on-jane-grigson", "apiUrl": "https://content.guardianapis.com/food/2018/nov/23/rachel-roddy-on-jane-grigson", "isHosted": false, "pillarId": "pillar/lifestyle", "pillarName": "Lifestyle"}, {"id": "food/2018/nov/23/mexico-inn-long-rock-pub-penzance-cornwall-restaurant-review-grace-dent", "type": "article", "sectionId": "food", "sectionName": "Food", "webPublicationDate": "2018-11-23T10:00:09Z", "webTitle": "The Mexico Inn, Penzance, Cornwall: \u2018The little things mean so much\u2019 - restaurant review | Grace Dent", "webUrl": "https://www.theguardian.com/food/2018/nov/23/mexico-inn-long-rock-pub-penzance-cornwall-restaurant-review-grace-dent", "apiUrl": "https://content.guardianapis.com/food/2018/nov/23/mexico-inn-long-rock-pub-penzance-cornwall-restaurant-review-grace-dent", "isHosted": false, "pillarId": "pillar/lifestyle", "pillarName": "Lifestyle"}, {"id": "food/2018/nov/22/say-cheese-cooking-in-the-age-of-instagram", "type": "article", "sectionId": "food", "sectionName": "Food", "webPublicationDate": "2018-11-22T10:00:36Z", "webTitle": "Say cheese: cooking in the age of Instagram", "webUrl": "https://www.theguardian.com/food/2018/nov/22/say-cheese-cooking-in-the-age-of-instagram", "apiUrl": "https://content.guardianapis.com/food/2018/nov/22/say-cheese-cooking-in-the-age-of-instagram", "isHosted": false, "pillarId": "pillar/lifestyle", "pillarName": "Lifestyle"}, {"id": "travel/2018/nov/22/are-you-ready-to-fight-eight-of-the-most-epic-food-wars-of-all-time", "type": "article", "sectionId": "food", "sectionName": "Food", "webPublicationDate": "2018-11-22T08:00:36Z", "webTitle": "What belongs on a pizza? And seven more all-time epic food wars", "webUrl": "https://www.theguardian.com/travel/2018/nov/22/are-you-ready-to-fight-eight-of-the-most-epic-food-wars-of-all-time", "apiUrl": "https://content.guardianapis.com/travel/2018/nov/22/are-you-ready-to-fight-eight-of-the-most-epic-food-wars-of-all-time", "isHosted": false, "pillarId": "pillar/lifestyle", "pillarName": "Lifestyle"}, {"id": "commentisfree/2018/nov/22/pizza-plot-balti-bailout-politics-food-granita-politicians", "type": "article", "sectionId": "commentisfree", "sectionName": "Opinion", "webPublicationDate": "2018-11-22T07:00:37Z", "webTitle": "From pizza plots to balti bailouts, dinner is where the deals are done | Zoe Williams", "webUrl": "https://www.theguardian.com/commentisfree/2018/nov/22/pizza-plot-balti-bailout-politics-food-granita-politicians", "apiUrl": "https://content.guardianapis.com/commentisfree/2018/nov/22/pizza-plot-balti-bailout-politics-food-granita-politicians", "isHosted": false, "pillarId": "pillar/opinion", "pillarName": "Opinion"}, {"id": "environment/2018/nov/22/growth-hormones-gestation-crates-bacon-us-trade-deal", "type": "article", "sectionId": "environment", "sectionName": "Environment", "webPublicationDate": "2018-11-22T07:00:36Z", "webTitle": "US trade deal would flood Britain with 'cheap, inhumanely produced' bacon", "webUrl": "https://www.theguardian.com/environment/2018/nov/22/growth-hormones-gestation-crates-bacon-us-trade-deal", "apiUrl": "https://content.guardianapis.com/environment/2018/nov/22/growth-hormones-gestation-crates-bacon-us-trade-deal", "isHosted": false, "pillarId": "pillar/news", "pillarName": "News"}, {"id": "world/2018/nov/22/e-coli-romaine-lettuce-outbreak-fda-warning", "type": "article", "sectionId": "world", "sectionName": "World news", "webPublicationDate": "2018-11-22T06:00:31Z", "webTitle": "Romaine lettuce and E coli: all you need to know", "webUrl": "https://www.theguardian.com/world/2018/nov/22/e-coli-romaine-lettuce-outbreak-fda-warning", "apiUrl": "https://content.guardianapis.com/world/2018/nov/22/e-coli-romaine-lettuce-outbreak-fda-warning", "isHosted": false, "pillarId": "pillar/news", "pillarName": "News"}, {"id": "food/2018/nov/21/waste-bread-gails-is-making-the-most-of-yesterdays-bake", "type": "article", "sectionId": "food", "sectionName": "Food", "webPublicationDate": "2018-11-21T17:35:00Z", "webTitle": "Waste bread: Gail\u2019s is making the most of yesterday\u2019s bake", "webUrl": "https://www.theguardian.com/food/2018/nov/21/waste-bread-gails-is-making-the-most-of-yesterdays-bake", "apiUrl": "https://content.guardianapis.com/food/2018/nov/21/waste-bread-gails-is-making-the-most-of-yesterdays-bake", "isHosted": false, "pillarId": "pillar/lifestyle", "pillarName": "Lifestyle"}, {"id": "food/2018/nov/21/felicity-cloakes-recipe-for-poached-pears-three-ways", "type": "article", "sectionId": "food", "sectionName": "Food", "webPublicationDate": "2018-11-21T12:00:28Z", "webTitle": "Felicity Cloake's recipe for poached pears three ways", "webUrl": "https://www.theguardian.com/food/2018/nov/21/felicity-cloakes-recipe-for-poached-pears-three-ways", "apiUrl": "https://content.guardianapis.com/food/2018/nov/21/felicity-cloakes-recipe-for-poached-pears-three-ways", "isHosted": false, "pillarId": "pillar/lifestyle", "pillarName": "Lifestyle"}, {"id": "food/2018/nov/19/thomasina-miers-thai-venison-mince-mushroom-stir-fry-recipe", "type": "article", "sectionId": "food", "sectionName": "Food", "webPublicationDate": "2018-11-19T12:00:29Z", "webTitle": "Thomasina Miers' recipe for Thai-spiced venison stir-fry", "webUrl": "https://www.theguardian.com/food/2018/nov/19/thomasina-miers-thai-venison-mince-mushroom-stir-fry-recipe", "apiUrl": "https://content.guardianapis.com/food/2018/nov/19/thomasina-miers-thai-venison-mince-mushroom-stir-fry-recipe", "isHosted": false, "pillarId": "pillar/lifestyle", "pillarName": "Lifestyle"}, {"id": "food/2018/nov/19/tiramisu-rcipe-rachel-roddy", "type": "article", "sectionId": "food", "sectionName": "Food", "webPublicationDate": "2018-11-19T12:00:29Z", "webTitle": "Rachel Roddy\u2019s tiramisu recipe | A Kitchen in Rome", "webUrl": "https://www.theguardian.com/food/2018/nov/19/tiramisu-rcipe-rachel-roddy", "apiUrl": "https://content.guardianapis.com/food/2018/nov/19/tiramisu-rcipe-rachel-roddy", "isHosted": false, "pillarId": "pillar/lifestyle", "pillarName": "Lifestyle"}, {"id": "commentisfree/2018/nov/19/christmas-crisis-kill-dinner-work-abattoir-industry-psychological-physical-damage", "type": "article", "sectionId": "commentisfree", "sectionName": "Opinion", "webPublicationDate": "2018-11-19T09:53:58Z", "webTitle": "There\u2019s a Christmas crisis going on: no one wants to kill your dinner | Chas Newkey-Burden", "webUrl": "https://www.theguardian.com/commentisfree/2018/nov/19/christmas-crisis-kill-dinner-work-abattoir-industry-psychological-physical-damage", "apiUrl": "https://content.guardianapis.com/commentisfree/2018/nov/19/christmas-crisis-kill-dinner-work-abattoir-industry-psychological-physical-damage", "isHosted": false, "pillarId": "pillar/opinion", "pillarName": "Opinion"}, {"id": "food/2018/nov/19/set-age-ban-on-sale-of-energy-drinks-at-18-government-told", "type": "article", "sectionId": "food", "sectionName": "Food", "webPublicationDate": "2018-11-19T00:01:15Z", "webTitle": "Set age ban on sale of energy drinks at 18, government told", "webUrl": "https://www.theguardian.com/food/2018/nov/19/set-age-ban-on-sale-of-energy-drinks-at-18-government-told", "apiUrl": "https://content.guardianapis.com/food/2018/nov/19/set-age-ban-on-sale-of-energy-drinks-at-18-government-told", "isHosted": false, "pillarId": "pillar/lifestyle", "pillarName": "Lifestyle"}, {"id": "society/2018/nov/18/peanut-allergy-treatment-around-the-corner-but-cost-raises-concerns", "type": "article", "sectionId": "society", "sectionName": "Society", "webPublicationDate": "2018-11-18T21:45:11Z", "webTitle": "Peanut allergy treatment around the corner but cost raises concerns", "webUrl": "https://www.theguardian.com/society/2018/nov/18/peanut-allergy-treatment-around-the-corner-but-cost-raises-concerns", "apiUrl": "https://content.guardianapis.com/society/2018/nov/18/peanut-allergy-treatment-around-the-corner-but-cost-raises-concerns", "isHosted": false, "pillarId": "pillar/news", "pillarName": "News"}, {"id": "world/2018/nov/18/mitzvah-day-jews-muslims-chicken-soup-east-london-mosque", "type": "article", "sectionId": "world", "sectionName": "World news", "webPublicationDate": "2018-11-18T14:39:05Z", "webTitle": "Mitzvah Day: Jews and Muslims come together to cook chicken soup", "webUrl": "https://www.theguardian.com/world/2018/nov/18/mitzvah-day-jews-muslims-chicken-soup-east-london-mosque", "apiUrl": "https://content.guardianapis.com/world/2018/nov/18/mitzvah-day-jews-muslims-chicken-soup-east-london-mosque", "isHosted": false, "pillarId": "pillar/news", "pillarName": "News"}, {"id": "food/2018/nov/18/kathleen-alcott-cooking-for-one-donald-trump-", "type": "article", "sectionId": "food", "sectionName": "Food", "webPublicationDate": "2018-11-18T11:59:01Z", "webTitle": "Cooking for one in the age of Trump", "webUrl": "https://www.theguardian.com/food/2018/nov/18/kathleen-alcott-cooking-for-one-donald-trump-", "apiUrl": "https://content.guardianapis.com/food/2018/nov/18/kathleen-alcott-cooking-for-one-donald-trump-", "isHosted": false, "pillarId": "pillar/lifestyle", "pillarName": "Lifestyle"}, {"id": "food/ng-interactive/2018/nov/18/christmas-gift-ideas-for-food-lovers-2018", "type": "interactive", "sectionId": "food", "sectionName": "Food", "webPublicationDate": "2018-11-18T11:30:03Z", "webTitle": "Christmas gift ideas for food lovers 2018", "webUrl": "https://www.theguardian.com/food/ng-interactive/2018/nov/18/christmas-gift-ideas-for-food-lovers-2018", "apiUrl": "https://content.guardianapis.com/food/ng-interactive/2018/nov/18/christmas-gift-ideas-for-food-lovers-2018", "isHosted": false, "pillarId": "pillar/lifestyle", "pillarName": "Lifestyle"}, {"id": "food/2018/nov/18/50-best-christmas-wines-2018-budget-value-top-of-the-range-reds-whites-fizz", "type": "article", "sectionId": "food", "sectionName": "Food", "webPublicationDate": "2018-11-18T11:30:02Z", "webTitle": "The 50 best Christmas wines for 2018", "webUrl": "https://www.theguardian.com/food/2018/nov/18/50-best-christmas-wines-2018-budget-value-top-of-the-range-reds-whites-fizz", "apiUrl": "https://content.guardianapis.com/food/2018/nov/18/50-best-christmas-wines-2018-budget-value-top-of-the-range-reds-whites-fizz", "isHosted": false, "pillarId": "pillar/lifestyle", "pillarName": "Lifestyle"}, {"id": "food/2018/nov/18/cocktail-recipes-christmas-drinks-pink-g-and-t-choc-orange-bubbly-jared-brown-anistatia-miller-writers", "type": "article", "sectionId": "food", "sectionName": "Food", "webPublicationDate": "2018-11-18T11:30:01Z", "webTitle": "Pink G&T, and choc-orange bubbly: the best Christmas cocktail recipes", "webUrl": "https://www.theguardian.com/food/2018/nov/18/cocktail-recipes-christmas-drinks-pink-g-and-t-choc-orange-bubbly-jared-brown-anistatia-miller-writers", "apiUrl": "https://content.guardianapis.com/food/2018/nov/18/cocktail-recipes-christmas-drinks-pink-g-and-t-choc-orange-bubbly-jared-brown-anistatia-miller-writers", "isHosted": false, "pillarId": "pillar/lifestyle", "pillarName": "Lifestyle"}, {"id": "food/2018/nov/18/barbara-ellen-vegetarian-christmas-dinner-proper-feast-tasty-dishes", "type": "article", "sectionId": "food", "sectionName": "Food", "webPublicationDate": "2018-11-18T11:00:02Z", "webTitle": "Barbara Ellen\u2019s vegetarian Christmas: at last, I can have a proper feast", "webUrl": "https://www.theguardian.com/food/2018/nov/18/barbara-ellen-vegetarian-christmas-dinner-proper-feast-tasty-dishes", "apiUrl": "https://content.guardianapis.com/food/2018/nov/18/barbara-ellen-vegetarian-christmas-dinner-proper-feast-tasty-dishes", "isHosted": false, "pillarId": "pillar/lifestyle", "pillarName": "Lifestyle"}, {"id": "food/2018/nov/18/vermouth-makes-a-comeback-cocktails-herby-fortified", "type": "article", "sectionId": "food", "sectionName": "Food", "webPublicationDate": "2018-11-18T05:59:53Z", "webTitle": "Vermouth makes a comeback | David Williams", "webUrl": "https://www.theguardian.com/food/2018/nov/18/vermouth-makes-a-comeback-cocktails-herby-fortified", "apiUrl": "https://content.guardianapis.com/food/2018/nov/18/vermouth-makes-a-comeback-cocktails-herby-fortified", "isHosted": false, "pillarId": "pillar/lifestyle", "pillarName": "Lifestyle"}, {"id": "food/2018/nov/18/wok-inn-seaside-noodle-bar-blackpool-utterly-beguiling-restaurant-review", "type": "article", "sectionId": "food", "sectionName": "Food", "webPublicationDate": "2018-11-18T05:59:52Z", "webTitle": "Wok Inn Noodle Bar, Blackpool: \u2019Utterly beguiling\u2019 \u2013 restaurant review", "webUrl": "https://www.theguardian.com/food/2018/nov/18/wok-inn-seaside-noodle-bar-blackpool-utterly-beguiling-restaurant-review", "apiUrl": "https://content.guardianapis.com/food/2018/nov/18/wok-inn-seaside-noodle-bar-blackpool-utterly-beguiling-restaurant-review", "isHosted": false, "pillarId": "pillar/lifestyle", "pillarName": "Lifestyle"}, {"id": "food/2018/nov/17/why-you-shouldnt-sneer-at-vintage-cookbooks-rachel-cooke", "type": "article", "sectionId": "food", "sectionName": "Food", "webPublicationDate": "2018-11-17T18:00:38Z", "webTitle": "In praise of vintage cookbooks", "webUrl": "https://www.theguardian.com/food/2018/nov/17/why-you-shouldnt-sneer-at-vintage-cookbooks-rachel-cooke", "apiUrl": "https://content.guardianapis.com/food/2018/nov/17/why-you-shouldnt-sneer-at-vintage-cookbooks-rachel-cooke", "isHosted": false, "pillarId": "pillar/lifestyle", "pillarName": "Lifestyle"}, {"id": "music/2018/nov/17/loyle-carner-life-on-a-plate-adhd-cooking-meditation-ottolenghi", "type": "article", "sectionId": "music", "sectionName": "Music", "webPublicationDate": "2018-11-17T17:59:38Z", "webTitle": "Loyle Carner: \u2018I grew up with ADHD, and for me cooking is close to meditation\u2019", "webUrl": "https://www.theguardian.com/music/2018/nov/17/loyle-carner-life-on-a-plate-adhd-cooking-meditation-ottolenghi", "apiUrl": "https://content.guardianapis.com/music/2018/nov/17/loyle-carner-life-on-a-plate-adhd-cooking-meditation-ottolenghi", "isHosted": false, "pillarId": "pillar/arts", "pillarName": "Arts"}, {"id": "food/2018/nov/17/liam-charles-recipe-for-toffee-apple-pinwheel-pastries", "type": "article", "sectionId": "food", "sectionName": "Food", "webPublicationDate": "2018-11-17T11:00:30Z", "webTitle": "Liam Charles' recipe for toffee-apple pinwheel pastries", "webUrl": "https://www.theguardian.com/food/2018/nov/17/liam-charles-recipe-for-toffee-apple-pinwheel-pastries", "apiUrl": "https://content.guardianapis.com/food/2018/nov/17/liam-charles-recipe-for-toffee-apple-pinwheel-pastries", "isHosted": false, "pillarId": "pillar/lifestyle", "pillarName": "Lifestyle"}, {"id": "food/2018/nov/17/meera-sodhas-recipe-for-vegan-beetroot-and-ginger-soup", "type": "article", "sectionId": "food", "sectionName": "Food", "webPublicationDate": "2018-11-17T10:00:28Z", "webTitle": "Meera Sodha's recipe for vegan beetroot and ginger soup", "webUrl": "https://www.theguardian.com/food/2018/nov/17/meera-sodhas-recipe-for-vegan-beetroot-and-ginger-soup", "apiUrl": "https://content.guardianapis.com/food/2018/nov/17/meera-sodhas-recipe-for-vegan-beetroot-and-ginger-soup", "isHosted": false, "pillarId": "pillar/lifestyle", "pillarName": "Lifestyle"}]}}