{"response": {"status": "ok", "userTier": "developer", "total": 129417, "startIndex": 1, "pageSize": 50, "currentPage": 1, "pages": 2589, "orderBy": "newest", "results": [{"id": "world/2010/nov/30/david-blunkett-extradition-mckinnon-wikileaks", "type": "article", "sectionId": "us-news", "sectionName": "US news", "webPublicationDate": "2010-11-30T23:40:46Z", "webTitle": "David Blunkett voices regrets over Gary McKinnon and extradition treaty", "webUrl": "https://www.theguardian.com/world/2010/nov/30/david-blunkett-extradition-mckinnon-wikileaks", "apiUrl": "https://content.guardianapis.com/world/2010/nov/30/david-blunkett-extradition-mckinnon-wikileaks", "isHosted": false, "pillarId": "pillar/news", "pillarName": "News"}, {"id": "politics/wintour-and-watt/2010/nov/30/mervyn-king-georgeosborne", "type": "article", "sectionId": "politics", "sectionName": "Politics", "webPublicationDate": "2010-11-30T23:32:53Z", "webTitle": "David Cameron and George Osborne criticised in private by Bank of England governor", "webUrl": "https://www.theguardian.com/politics/wintour-and-watt/2010/nov/30/mervyn-king-georgeosborne", "apiUrl": "https://content.guardianapis.com/politics/wintour-and-watt/2010/nov/30/mervyn-king-georgeosborne", "isHosted": false, "pillarId": "pillar/news", "pillarName": "News"}, {"id": "world/us-embassy-cables-documents/249236", "type": "article", "sectionId": "politics", "sectionName": "Politics", "webPublicationDate": "2010-11-30T23:18:41Z", "webTitle": "US embassy cables: Mervyn King expresses doubt over David Cameron and George Osborne", "webUrl": "https://www.theguardian.com/world/us-embassy-cables-documents/249236", "apiUrl": "https://content.guardianapis.com/world/us-embassy-cables-documents/249236", "isHosted": false, "pillarId": "pillar/news", "pillarName": "News"}, {"id": "world/us-embassy-cables-documents/172841", "type": "article", "sectionId": "politics", "sectionName": "Politics", "webPublicationDate": "2010-11-30T23:00:12Z", "webTitle": "US embassy cables: George Osborne lacks gravitas thanks to 'high-pitched vocal delivery'", "webUrl": "https://www.theguardian.com/world/us-embassy-cables-documents/172841", "apiUrl": "https://content.guardianapis.com/world/us-embassy-cables-documents/172841", "isHosted": false, "pillarId": "pillar/news", "pillarName": "News"}, {"id": "world/us-embassy-cables-documents/162673", "type": "article", "sectionId": "politics", "sectionName": "Politics", "webPublicationDate": "2010-11-30T23:00:11Z", "webTitle": "US embassy cables: Danny Alexander warned of deep spending cuts", "webUrl": "https://www.theguardian.com/world/us-embassy-cables-documents/162673", "apiUrl": "https://content.guardianapis.com/world/us-embassy-cables-documents/162673", "isHosted": false, "pillarId": "pillar/news", "pillarName": "News"}, {"id": "politics/2010/nov/30/eric-pickles-slams-town-hall-reserves", "type": "article", "sectionId": "politics", "sectionName": "Politics", "webPublicationDate": "2010-11-30T23:00:10Z", "webTitle": "Eric Pickles slams town hall for not dipping into 'Fort Knox' reserves", "webUrl": "https://www.theguardian.com/politics/2010/nov/30/eric-pickles-slams-town-hall-reserves", "apiUrl": "https://content.guardianapis.com/politics/2010/nov/30/eric-pickles-slams-town-hall-reserves", "isHosted": false, "pillarId": "pillar/news", "pillarName": "News"}, {"id": "politics/2010/nov/30/wikileaks-cables-george-osborne-lightweight", "type": "article", "sectionId": "politics", "sectionName": "Politics", "webPublicationDate": "2010-11-30T23:00:09Z", "webTitle": "Wikileaks cables: George Osborne 'lightweight and inexperienced'", "webUrl": "https://www.theguardian.com/politics/2010/nov/30/wikileaks-cables-george-osborne-lightweight", "apiUrl": "https://content.guardianapis.com/politics/2010/nov/30/wikileaks-cables-george-osborne-lightweight", "isHosted": false, "pillarId": "pillar/news", "pillarName": "News"}, {"id": "politics/2010/nov/30/wikileaks-ivan-cameron-death-lib-dem", "type": "article", "sectionId": "politics", "sectionName": "Politics", "webPublicationDate": "2010-11-30T23:00:08Z", "webTitle": "WikiLeaks: Ivan Cameron's death hit Lib Dem election plans", "webUrl": "https://www.theguardian.com/politics/2010/nov/30/wikileaks-ivan-cameron-death-lib-dem", "apiUrl": "https://content.guardianapis.com/politics/2010/nov/30/wikileaks-ivan-cameron-death-lib-dem", "isHosted": false, "pillarId": "pillar/news", "pillarName": "News"}, {"id": "world/us-embassy-cables-documents/176250", "type": "article", "sectionId": "politics", "sectionName": "Politics", "webPublicationDate": "2010-11-30T23:00:07Z", "webTitle": "US embassy cables: Conservative MP criticises party's handling of economic crisis", "webUrl": "https://www.theguardian.com/world/us-embassy-cables-documents/176250", "apiUrl": "https://content.guardianapis.com/world/us-embassy-cables-documents/176250", "isHosted": false, "pillarId": "pillar/news", "pillarName": "News"}, {"id": "world/us-embassy-cables-documents/195947", "type": "article", "sectionId": "politics", "sectionName": "Politics", "webPublicationDate": "2010-11-30T23:00:06Z", "webTitle": "US embassy cables: Conservative-Lib Dem coalition 'unlikely'", "webUrl": "https://www.theguardian.com/world/us-embassy-cables-documents/195947", "apiUrl": "https://content.guardianapis.com/world/us-embassy-cables-documents/195947", "isHosted": false, "pillarId": "pillar/news", "pillarName": "News"}, {"id": "business/2010/nov/30/mervyn-king-deficit-policy-neutrality", "type": "article", "sectionId": "business", "sectionName": "Business", "webPublicationDate": "2010-11-30T23:00:06Z", "webTitle": "Mervyn King shaped tough deficit policy \u2013 but was it political bias?", "webUrl": "https://www.theguardian.com/business/2010/nov/30/mervyn-king-deficit-policy-neutrality", "apiUrl": "https://content.guardianapis.com/business/2010/nov/30/mervyn-king-deficit-policy-neutrality", "isHosted": false, "pillarId": "pillar/news", "pillarName": "News"}, {"id": "world/us-embassy-cables-documents/160636", "type": "article", "sectionId": "politics", "sectionName": "Politics", "webPublicationDate": "2010-11-30T23:00:05Z", "webTitle": "US embassy cables: Nick Clegg outlines foreign policy", "webUrl": "https://www.theguardian.com/world/us-embassy-cables-documents/160636", "apiUrl": "https://content.guardianapis.com/world/us-embassy-cables-documents/160636", "isHosted": false, "pillarId": "pillar/news", "pillarName": "News"}, {"id": "world/us-embassy-cables-documents/201706", "type": "article", "sectionId": "politics", "sectionName": "Politics", "webPublicationDate": "2010-11-30T23:00:04Z", "webTitle": "US embassy cables: David Cameron sets out Tory approach to Pakistan", "webUrl": "https://www.theguardian.com/world/us-embassy-cables-documents/201706", "apiUrl": "https://content.guardianapis.com/world/us-embassy-cables-documents/201706", "isHosted": false, "pillarId": "pillar/news", "pillarName": "News"}, {"id": "world/us-embassy-cables-documents/243846", "type": "article", "sectionId": "politics", "sectionName": "Politics", "webPublicationDate": "2010-11-30T23:00:04Z", "webTitle": "US embassy cables: US ambassador sizes up Nick Clegg", "webUrl": "https://www.theguardian.com/world/us-embassy-cables-documents/243846", "apiUrl": "https://content.guardianapis.com/world/us-embassy-cables-documents/243846", "isHosted": false, "pillarId": "pillar/news", "pillarName": "News"}, {"id": "world/2010/nov/30/wikileaks-french-d-day-gordon-brown", "type": "article", "sectionId": "world", "sectionName": "World news", "webPublicationDate": "2010-11-30T23:00:03Z", "webTitle": "WikiLeaks cables: French D-day invite to Gordon Brown 'was political'", "webUrl": "https://www.theguardian.com/world/2010/nov/30/wikileaks-french-d-day-gordon-brown", "apiUrl": "https://content.guardianapis.com/world/2010/nov/30/wikileaks-french-d-day-gordon-brown", "isHosted": false, "pillarId": "pillar/news", "pillarName": "News"}, {"id": "politics/2010/nov/30/us-vat-waiver-london-embassy", "type": "article", "sectionId": "politics", "sectionName": "Politics", "webPublicationDate": "2010-11-30T23:00:02Z", "webTitle": "US asked for VAT waiver on London embassy", "webUrl": "https://www.theguardian.com/politics/2010/nov/30/us-vat-waiver-london-embassy", "apiUrl": "https://content.guardianapis.com/politics/2010/nov/30/us-vat-waiver-london-embassy", "isHosted": false, "pillarId": "pillar/news", "pillarName": "News"}, {"id": "politics/2010/nov/30/ken-livingston-anti-american-chavez-castro", "type": "article", "sectionId": "politics", "sectionName": "Politics", "webPublicationDate": "2010-11-30T23:00:02Z", "webTitle": "Ken Livingstone an 'anti-American friend of Ch\u00e1vez and Castro'", "webUrl": "https://www.theguardian.com/politics/2010/nov/30/ken-livingston-anti-american-chavez-castro", "apiUrl": "https://content.guardianapis.com/politics/2010/nov/30/ken-livingston-anti-american-chavez-castro", "isHosted": false, "pillarId": "pillar/news", "pillarName": "News"}, {"id": "politics/2010/nov/30/david-cameron-radicalised-muslims", "type": "article", "sectionId": "politics", "sectionName": "Politics", "webPublicationDate": "2010-11-30T23:00:01Z", "webTitle": "David Cameron on radicalised Muslims: 'We let in some crazies'", "webUrl": "https://www.theguardian.com/politics/2010/nov/30/david-cameron-radicalised-muslims", "apiUrl": "https://content.guardianapis.com/politics/2010/nov/30/david-cameron-radicalised-muslims", "isHosted": false, "pillarId": "pillar/news", "pillarName": "News"}, {"id": "business/2010/nov/30/wikileaks-cables-mervyn-king-cameron-osborne", "type": "article", "sectionId": "business", "sectionName": "Business", "webPublicationDate": "2010-11-30T23:00:00Z", "webTitle": "WikiLeaks cables: Mervyn King had doubts over Cameron and Osborne", "webUrl": "https://www.theguardian.com/business/2010/nov/30/wikileaks-cables-mervyn-king-cameron-osborne", "apiUrl": "https://content.guardianapis.com/business/2010/nov/30/wikileaks-cables-mervyn-king-cameron-osborne", "isHosted": false, "pillarId": "pillar/news", "pillarName": "News"}, {"id": "education/2010/nov/30/student-protests-tuition-fees-rallies", "type": "article", "sectionId": "education", "sectionName": "Education", "webPublicationDate": "2010-11-30T22:35:00Z", "webTitle": "Student protesters ignore winter freeze with mass rallies against tuition fees", "webUrl": "https://www.theguardian.com/education/2010/nov/30/student-protests-tuition-fees-rallies", "apiUrl": "https://content.guardianapis.com/education/2010/nov/30/student-protests-tuition-fees-rallies", "isHosted": false, "pillarId": "pillar/news", "pillarName": "News"}, {"id": "uk/2010/nov/30/prince-andrew-wikileaks-cables", "type": "article", "sectionId": "uk-news", "sectionName": "UK news", "webPublicationDate": "2010-11-30T22:15:36Z", "webTitle": "WikiLeaks cables: Prince Andrew demanded special BAE briefing", "webUrl": "https://www.theguardian.com/uk/2010/nov/30/prince-andrew-wikileaks-cables", "apiUrl": "https://content.guardianapis.com/uk/2010/nov/30/prince-andrew-wikileaks-cables", "isHosted": false, "pillarId": "pillar/news", "pillarName": "News"}, {"id": "culture/charlottehigginsblog/2010/nov/30/labour-coalition-assault-culture", "type": "article", "sectionId": "culture", "sectionName": "Culture", "webPublicationDate": "2010-11-30T22:04:00Z", "webTitle": "Labour takes steps against the coalition's assault on culture", "webUrl": "https://www.theguardian.com/culture/charlottehigginsblog/2010/nov/30/labour-coalition-assault-culture", "apiUrl": "https://content.guardianapis.com/culture/charlottehigginsblog/2010/nov/30/labour-coalition-assault-culture", "isHosted": false, "pillarId": "pillar/arts", "pillarName": "Arts"}, {"id": "world/2010/nov/30/wikileaks-cables-pakistani-leadership-wrangle", "type": "article", "sectionId": "world", "sectionName": "World news", "webPublicationDate": "2010-11-30T21:30:19Z", "webTitle": "WikiLeaks cables: Pakistani army chief considered plan to oust president", "webUrl": "https://www.theguardian.com/world/2010/nov/30/wikileaks-cables-pakistani-leadership-wrangle", "apiUrl": "https://content.guardianapis.com/world/2010/nov/30/wikileaks-cables-pakistani-leadership-wrangle", "isHosted": false, "pillarId": "pillar/news", "pillarName": "News"}, {"id": "world/us-embassy-cables-documents/108224", "type": "article", "sectionId": "world", "sectionName": "World news", "webPublicationDate": "2010-11-30T21:30:12Z", "webTitle": "US embassy cables: Nicolas Sarkozy likely to neglect smaller EU countries as he doesn't like dealing with 'unimportant people'", "webUrl": "https://www.theguardian.com/world/us-embassy-cables-documents/108224", "apiUrl": "https://content.guardianapis.com/world/us-embassy-cables-documents/108224", "isHosted": false, "pillarId": "pillar/news", "pillarName": "News"}, {"id": "world/2010/nov/30/wikileaks-cables-pakistan-nuclear-fears", "type": "article", "sectionId": "world", "sectionName": "World news", "webPublicationDate": "2010-11-30T20:18:00Z", "webTitle": "WikiLeaks cables expose Pakistan nuclear fears", "webUrl": "https://www.theguardian.com/world/2010/nov/30/wikileaks-cables-pakistan-nuclear-fears", "apiUrl": "https://content.guardianapis.com/world/2010/nov/30/wikileaks-cables-pakistan-nuclear-fears", "isHosted": false, "pillarId": "pillar/news", "pillarName": "News"}, {"id": "education/2010/nov/30/student-protests-london-tanya-gold", "type": "article", "sectionId": "education", "sectionName": "Education", "webPublicationDate": "2010-11-30T20:09:47Z", "webTitle": "Student demonstrations: A game of protest Monopoly | Tanya Gold", "webUrl": "https://www.theguardian.com/education/2010/nov/30/student-protests-london-tanya-gold", "apiUrl": "https://content.guardianapis.com/education/2010/nov/30/student-protests-london-tanya-gold", "isHosted": false, "pillarId": "pillar/news", "pillarName": "News"}, {"id": "politics/2010/nov/30/pass-notes-nudge-unit", "type": "article", "sectionId": "politics", "sectionName": "Politics", "webPublicationDate": "2010-11-30T20:00:04Z", "webTitle": "Pass notes No 2,890: The Nudge Unit", "webUrl": "https://www.theguardian.com/politics/2010/nov/30/pass-notes-nudge-unit", "apiUrl": "https://content.guardianapis.com/politics/2010/nov/30/pass-notes-nudge-unit", "isHosted": false, "pillarId": "pillar/news", "pillarName": "News"}, {"id": "society/2010/nov/30/housing-benefit-reforms-social-security", "type": "article", "sectionId": "society", "sectionName": "Society", "webPublicationDate": "2010-11-30T18:57:10Z", "webTitle": "Housing benefit reforms should not go ahead, warned government advisers", "webUrl": "https://www.theguardian.com/society/2010/nov/30/housing-benefit-reforms-social-security", "apiUrl": "https://content.guardianapis.com/society/2010/nov/30/housing-benefit-reforms-social-security", "isHosted": false, "pillarId": "pillar/news", "pillarName": "News"}, {"id": "uk/2010/nov/30/scotland-powers-set-income-tax-rates", "type": "article", "sectionId": "uk-news", "sectionName": "UK news", "webPublicationDate": "2010-11-30T18:54:58Z", "webTitle": "Scotland to get powers to set own income tax rates", "webUrl": "https://www.theguardian.com/uk/2010/nov/30/scotland-powers-set-income-tax-rates", "apiUrl": "https://content.guardianapis.com/uk/2010/nov/30/scotland-powers-set-income-tax-rates", "isHosted": false, "pillarId": "pillar/news", "pillarName": "News"}, {"id": "politics/2010/nov/30/vince-cable-abstain-tuition-fees", "type": "article", "sectionId": "politics", "sectionName": "Politics", "webPublicationDate": "2010-11-30T18:47:31Z", "webTitle": "Vince Cable considers tuition fees abstention for sake of Lib Dem unity", "webUrl": "https://www.theguardian.com/politics/2010/nov/30/vince-cable-abstain-tuition-fees", "apiUrl": "https://content.guardianapis.com/politics/2010/nov/30/vince-cable-abstain-tuition-fees", "isHosted": false, "pillarId": "pillar/news", "pillarName": "News"}, {"id": "world/us-embassy-cables-documents/190109", "type": "article", "sectionId": "us-news", "sectionName": "US news", "webPublicationDate": "2010-11-30T16:57:36Z", "webTitle": "US embassy cables: Head of Foreign Office counter-terrorism policy says UK cannot take anymore Guantanamo detainees", "webUrl": "https://www.theguardian.com/world/us-embassy-cables-documents/190109", "apiUrl": "https://content.guardianapis.com/world/us-embassy-cables-documents/190109", "isHosted": false, "pillarId": "pillar/news", "pillarName": "News"}, {"id": "politics/2010/nov/30/labour-gordon-brown-cuts-douglas-alexander", "type": "article", "sectionId": "politics", "sectionName": "Politics", "webPublicationDate": "2010-11-30T16:32:32Z", "webTitle": "Labour was damaged by Gordon Brown's refusal to talk about cuts \u2013 Douglas Alexander", "webUrl": "https://www.theguardian.com/politics/2010/nov/30/labour-gordon-brown-cuts-douglas-alexander", "apiUrl": "https://content.guardianapis.com/politics/2010/nov/30/labour-gordon-brown-cuts-douglas-alexander", "isHosted": false, "pillarId": "pillar/news", "pillarName": "News"}, {"id": "society/2010/nov/30/andrew-lansley-sarah-wollaston-mp", "type": "article", "sectionId": "society", "sectionName": "Society", "webPublicationDate": "2010-11-30T16:15:01Z", "webTitle": "Sarah Wollaston: 'Andrew Lansley knows how I feel about this'", "webUrl": "https://www.theguardian.com/society/2010/nov/30/andrew-lansley-sarah-wollaston-mp", "apiUrl": "https://content.guardianapis.com/society/2010/nov/30/andrew-lansley-sarah-wollaston-mp", "isHosted": false, "pillarId": "pillar/news", "pillarName": "News"}, {"id": "commentisfree/cifamerica/2010/nov/30/gary-mckinnon-extradition-wikileaks", "type": "article", "sectionId": "commentisfree", "sectionName": "Opinion", "webPublicationDate": "2010-11-30T16:09:27Z", "webTitle": "Gary McKinnon needs coalition to stand up to US bullying | Duncan Campbell", "webUrl": "https://www.theguardian.com/commentisfree/cifamerica/2010/nov/30/gary-mckinnon-extradition-wikileaks", "apiUrl": "https://content.guardianapis.com/commentisfree/cifamerica/2010/nov/30/gary-mckinnon-extradition-wikileaks", "isHosted": false, "pillarId": "pillar/opinion", "pillarName": "Opinion"}, {"id": "society/joepublic/2010/nov/30/smokers-forced-out-of-hospitals", "type": "article", "sectionId": "society", "sectionName": "Society", "webPublicationDate": "2010-11-30T16:05:00Z", "webTitle": "Smokers should not be forced out of hospitals | Richard White", "webUrl": "https://www.theguardian.com/society/joepublic/2010/nov/30/smokers-forced-out-of-hospitals", "apiUrl": "https://content.guardianapis.com/society/joepublic/2010/nov/30/smokers-forced-out-of-hospitals", "isHosted": false, "pillarId": "pillar/news", "pillarName": "News"}, {"id": "society/2010/nov/30/assisted-dying-inquiry-promises-fairness", "type": "article", "sectionId": "society", "sectionName": "Society", "webPublicationDate": "2010-11-30T15:43:10Z", "webTitle": "Assisted dying inquiry will be fair, Falconer vows", "webUrl": "https://www.theguardian.com/society/2010/nov/30/assisted-dying-inquiry-promises-fairness", "apiUrl": "https://content.guardianapis.com/society/2010/nov/30/assisted-dying-inquiry-promises-fairness", "isHosted": false, "pillarId": "pillar/news", "pillarName": "News"}, {"id": "politics/2010/nov/30/white-paper-public-health", "type": "article", "sectionId": "politics", "sectionName": "Politics", "webPublicationDate": "2010-11-30T15:14:17Z", "webTitle": "White paper hands responsibility for public health to local authorities", "webUrl": "https://www.theguardian.com/politics/2010/nov/30/white-paper-public-health", "apiUrl": "https://content.guardianapis.com/politics/2010/nov/30/white-paper-public-health", "isHosted": false, "pillarId": "pillar/news", "pillarName": "News"}, {"id": "politics/2010/nov/30/vince-cable-abstain-tuition-fees-vote", "type": "article", "sectionId": "politics", "sectionName": "Politics", "webPublicationDate": "2010-11-30T14:59:00Z", "webTitle": "Vince Cable may abstain in tuition fees vote", "webUrl": "https://www.theguardian.com/politics/2010/nov/30/vince-cable-abstain-tuition-fees-vote", "apiUrl": "https://content.guardianapis.com/politics/2010/nov/30/vince-cable-abstain-tuition-fees-vote", "isHosted": false, "pillarId": "pillar/news", "pillarName": "News"}, {"id": "commentisfree/2010/nov/30/student-protests-aaron-porter-university-occupations", "type": "article", "sectionId": "commentisfree", "sectionName": "Opinion", "webPublicationDate": "2010-11-30T13:06:06Z", "webTitle": "These student protests will grow with or without Aaron Porter's support | Rowan Rheingans", "webUrl": "https://www.theguardian.com/commentisfree/2010/nov/30/student-protests-aaron-porter-university-occupations", "apiUrl": "https://content.guardianapis.com/commentisfree/2010/nov/30/student-protests-aaron-porter-university-occupations", "isHosted": false, "pillarId": "pillar/opinion", "pillarName": "Opinion"}, {"id": "film/filmblog/2010/nov/30/bfi-uk-film-council-takeover", "type": "article", "sectionId": "film", "sectionName": "Film", "webPublicationDate": "2010-11-30T12:39:05Z", "webTitle": "More Harry Potter or another Another Year? The BFI must decide", "webUrl": "https://www.theguardian.com/film/filmblog/2010/nov/30/bfi-uk-film-council-takeover", "apiUrl": "https://content.guardianapis.com/film/filmblog/2010/nov/30/bfi-uk-film-council-takeover", "isHosted": false, "pillarId": "pillar/arts", "pillarName": "Arts"}, {"id": "education/2010/nov/30/katharine-birbalsingh-live-webchat", "type": "article", "sectionId": "education", "sectionName": "Education", "webPublicationDate": "2010-11-30T12:37:26Z", "webTitle": "Education: online Q&A", "webUrl": "https://www.theguardian.com/education/2010/nov/30/katharine-birbalsingh-live-webchat", "apiUrl": "https://content.guardianapis.com/education/2010/nov/30/katharine-birbalsingh-live-webchat", "isHosted": false, "pillarId": "pillar/news", "pillarName": "News"}, {"id": "politics/2010/nov/30/tax-high-strength-beer-up", "type": "article", "sectionId": "politics", "sectionName": "Politics", "webPublicationDate": "2010-11-30T12:27:22Z", "webTitle": "Tax on high-strength beer to go up", "webUrl": "https://www.theguardian.com/politics/2010/nov/30/tax-high-strength-beer-up", "apiUrl": "https://content.guardianapis.com/politics/2010/nov/30/tax-high-strength-beer-up", "isHosted": false, "pillarId": "pillar/news", "pillarName": "News"}, {"id": "commentisfree/video/2010/nov/30/john-harris-frome-neoliberalism", "type": "video", "sectionId": "commentisfree", "sectionName": "Opinion", "webPublicationDate": "2010-11-30T12:10:00Z", "webTitle": "Frome: Will neoliberalism eat my town? |  John Harris and John Domokos", "webUrl": "https://www.theguardian.com/commentisfree/video/2010/nov/30/john-harris-frome-neoliberalism", "apiUrl": "https://content.guardianapis.com/commentisfree/video/2010/nov/30/john-harris-frome-neoliberalism", "isHosted": false, "pillarId": "pillar/opinion", "pillarName": "Opinion"}, {"id": "society/joepublic/2010/nov/30/david-cameron-measuring-national-happiness", "type": "article", "sectionId": "society", "sectionName": "Society", "webPublicationDate": "2010-11-30T11:30:01Z", "webTitle": "How should David Cameron measure the nation's happiness? | Alan Walker", "webUrl": "https://www.theguardian.com/society/joepublic/2010/nov/30/david-cameron-measuring-national-happiness", "apiUrl": "https://content.guardianapis.com/society/joepublic/2010/nov/30/david-cameron-measuring-national-happiness", "isHosted": false, "pillarId": "pillar/news", "pillarName": "News"}, {"id": "commentisfree/2010/nov/30/lewisham-anti-cuts-protesters", "type": "article", "sectionId": "commentisfree", "sectionName": "Opinion", "webPublicationDate": "2010-11-30T11:08:42Z", "webTitle": "Lewisham anti-cuts protesters have been pushed to the edge | Richard Seymour", "webUrl": "https://www.theguardian.com/commentisfree/2010/nov/30/lewisham-anti-cuts-protesters", "apiUrl": "https://content.guardianapis.com/commentisfree/2010/nov/30/lewisham-anti-cuts-protesters", "isHosted": false, "pillarId": "pillar/opinion", "pillarName": "Opinion"}, {"id": "tv-and-radio/video/2010/nov/30/documentary-documentary", "type": "video", "sectionId": "film", "sectionName": "Film", "webPublicationDate": "2010-11-30T11:00:00Z", "webTitle": "The Battle for Barking: interview - director Laura Fairrie", "webUrl": "https://www.theguardian.com/tv-and-radio/video/2010/nov/30/documentary-documentary", "apiUrl": "https://content.guardianapis.com/tv-and-radio/video/2010/nov/30/documentary-documentary", "isHosted": false, "pillarId": "pillar/arts", "pillarName": "Arts"}, {"id": "education/2010/nov/30/olympic-athletes-school-sport-cuts", "type": "article", "sectionId": "education", "sectionName": "Education", "webPublicationDate": "2010-11-30T10:54:04Z", "webTitle": "Olympic athletes condemn David Cameron's school sports cuts", "webUrl": "https://www.theguardian.com/education/2010/nov/30/olympic-athletes-school-sport-cuts", "apiUrl": "https://content.guardianapis.com/education/2010/nov/30/olympic-athletes-school-sport-cuts", "isHosted": false, "pillarId": "pillar/news", "pillarName": "News"}, {"id": "politics/blog/2010/nov/30/wikileaks-too-much-information", "type": "article", "sectionId": "politics", "sectionName": "Politics", "webPublicationDate": "2010-11-30T10:38:21Z", "webTitle": "Wikileaks: too much information? | Michael White", "webUrl": "https://www.theguardian.com/politics/blog/2010/nov/30/wikileaks-too-much-information", "apiUrl": "https://content.guardianapis.com/politics/blog/2010/nov/30/wikileaks-too-much-information", "isHosted": false, "pillarId": "pillar/news", "pillarName": "News"}, {"id": "politics/davehillblog/2010/nov/29/london-budget-cuts-winter-of-discontent", "type": "article", "sectionId": "politics", "sectionName": "Politics", "webPublicationDate": "2010-11-30T10:33:18Z", "webTitle": "London budget cuts suggest winter of Town Hall discontent", "webUrl": "https://www.theguardian.com/politics/davehillblog/2010/nov/29/london-budget-cuts-winter-of-discontent", "apiUrl": "https://content.guardianapis.com/politics/davehillblog/2010/nov/29/london-budget-cuts-winter-of-discontent", "isHosted": false, "pillarId": "pillar/news", "pillarName": "News"}, {"id": "world/2010/nov/30/wikileaks-cables-gary-mckinnon-gordon-brown", "type": "article", "sectionId": "world", "sectionName": "World news", "webPublicationDate": "2010-11-30T10:00:16Z", "webTitle": "WikiLeaks cables: US spurned Gary McKinnon plea from Gordon Brown", "webUrl": "https://www.theguardian.com/world/2010/nov/30/wikileaks-cables-gary-mckinnon-gordon-brown", "apiUrl": "https://content.guardianapis.com/world/2010/nov/30/wikileaks-cables-gary-mckinnon-gordon-brown", "isHosted": false, "pillarId": "pillar/news", "pillarName": "News"}]}}