{"response": {"status": "ok", "userTier": "developer", "total": 87699, "startIndex": 1, "pageSize": 50, "currentPage": 1, "pages": 1754, "orderBy": "newest", "results": [{"id": "football/2012/nov/30/alex-ferguson-wayne-rooney-goals", "type": "article", "sectionId": "football", "sectionName": "Football", "webPublicationDate": "2012-11-30T23:02:05Z", "webTitle": "Sir Alex Ferguson happy with Wayne Rooney apart from his lack of goals", "webUrl": "https://www.theguardian.com/football/2012/nov/30/alex-ferguson-wayne-rooney-goals", "apiUrl": "https://content.guardianapis.com/football/2012/nov/30/alex-ferguson-wayne-rooney-goals", "isHosted": false, "pillarId": "pillar/sport", "pillarName": "Sport"}, {"id": "football/2012/nov/30/manchester-city-samir-nasri-roberto-mancini", "type": "article", "sectionId": "football", "sectionName": "Football", "webPublicationDate": "2012-11-30T23:02:03Z", "webTitle": "Samir Nasri can still still improve for Manchester City, says Roberto Mancini", "webUrl": "https://www.theguardian.com/football/2012/nov/30/manchester-city-samir-nasri-roberto-mancini", "apiUrl": "https://content.guardianapis.com/football/2012/nov/30/manchester-city-samir-nasri-roberto-mancini", "isHosted": false, "pillarId": "pillar/sport", "pillarName": "Sport"}, {"id": "football/2012/nov/30/jermain-defoe-tottenham-interview", "type": "article", "sectionId": "football", "sectionName": "Football", "webPublicationDate": "2012-11-30T23:01:59Z", "webTitle": "Jermain Defoe: 'Every day I look at my goal chart. It's a good feeling'", "webUrl": "https://www.theguardian.com/football/2012/nov/30/jermain-defoe-tottenham-interview", "apiUrl": "https://content.guardianapis.com/football/2012/nov/30/jermain-defoe-tottenham-interview", "isHosted": false, "pillarId": "pillar/sport", "pillarName": "Sport"}, {"id": "football/2012/nov/30/everton-manchester-city-leon-osman", "type": "article", "sectionId": "football", "sectionName": "Football", "webPublicationDate": "2012-11-30T23:01:55Z", "webTitle": "Everton have no reason to fear trip to Manchester City, says Leon Osman", "webUrl": "https://www.theguardian.com/football/2012/nov/30/everton-manchester-city-leon-osman", "apiUrl": "https://content.guardianapis.com/football/2012/nov/30/everton-manchester-city-leon-osman", "isHosted": false, "pillarId": "pillar/sport", "pillarName": "Sport"}, {"id": "football/2012/nov/30/rafael-benitez-chelsea-suit", "type": "article", "sectionId": "football", "sectionName": "Football", "webPublicationDate": "2012-11-30T22:30:04Z", "webTitle": "Rafael Ben\u00edtez: the Chelsea emperor awaiting new clothes", "webUrl": "https://www.theguardian.com/football/2012/nov/30/rafael-benitez-chelsea-suit", "apiUrl": "https://content.guardianapis.com/football/2012/nov/30/rafael-benitez-chelsea-suit", "isHosted": false, "pillarId": "pillar/sport", "pillarName": "Sport"}, {"id": "football/2012/nov/30/chelsea-rafael-benitez", "type": "article", "sectionId": "football", "sectionName": "Football", "webPublicationDate": "2012-11-30T22:30:04Z", "webTitle": "Chelsea face burnout if squad is not augmented, warns Rafael Ben\u00edtez", "webUrl": "https://www.theguardian.com/football/2012/nov/30/chelsea-rafael-benitez", "apiUrl": "https://content.guardianapis.com/football/2012/nov/30/chelsea-rafael-benitez", "isHosted": false, "pillarId": "pillar/sport", "pillarName": "Sport"}, {"id": "football/2012/nov/30/liverpool-top-four-brendan-rodgers", "type": "article", "sectionId": "football", "sectionName": "Football", "webPublicationDate": "2012-11-30T22:30:02Z", "webTitle": "Liverpool could still finish season in top four, says Brendan Rodgers", "webUrl": "https://www.theguardian.com/football/2012/nov/30/liverpool-top-four-brendan-rodgers", "apiUrl": "https://content.guardianapis.com/football/2012/nov/30/liverpool-top-four-brendan-rodgers", "isHosted": false, "pillarId": "pillar/sport", "pillarName": "Sport"}, {"id": "football/2012/nov/30/neal-ardley-afc-wimbledon-mk-dons", "type": "article", "sectionId": "football", "sectionName": "Football", "webPublicationDate": "2012-11-30T22:30:02Z", "webTitle": "Neal Ardley's phoenix club on the rise for FA Cup duel of raw emotion", "webUrl": "https://www.theguardian.com/football/2012/nov/30/neal-ardley-afc-wimbledon-mk-dons", "apiUrl": "https://content.guardianapis.com/football/2012/nov/30/neal-ardley-afc-wimbledon-mk-dons", "isHosted": false, "pillarId": "pillar/sport", "pillarName": "Sport"}, {"id": "football/2012/nov/30/harry-redknapp-qpr-bent-villa", "type": "article", "sectionId": "football", "sectionName": "Football", "webPublicationDate": "2012-11-30T22:29:01Z", "webTitle": "Harry Redknapp says he may not spend in January if QPR are 'cut adrift'", "webUrl": "https://www.theguardian.com/football/2012/nov/30/harry-redknapp-qpr-bent-villa", "apiUrl": "https://content.guardianapis.com/football/2012/nov/30/harry-redknapp-qpr-bent-villa", "isHosted": false, "pillarId": "pillar/sport", "pillarName": "Sport"}, {"id": "commentisfree/2012/nov/30/football-state-ownership-chelsea-ian-jack", "type": "article", "sectionId": "commentisfree", "sectionName": "Opinion", "webPublicationDate": "2012-11-30T20:59:00Z", "webTitle": "The state: we've no more ownership of it than Chelsea fans have of the club | Ian Jack", "webUrl": "https://www.theguardian.com/commentisfree/2012/nov/30/football-state-ownership-chelsea-ian-jack", "apiUrl": "https://content.guardianapis.com/commentisfree/2012/nov/30/football-state-ownership-chelsea-ian-jack", "isHosted": false, "pillarId": "pillar/opinion", "pillarName": "Opinion"}, {"id": "football/2012/nov/30/west-bromwich-albion-stoke-squad-sheets", "type": "article", "sectionId": "football", "sectionName": "Football", "webPublicationDate": "2012-11-30T18:24:43Z", "webTitle": "West Bromwich Albion v Stoke City: Squad sheets", "webUrl": "https://www.theguardian.com/football/2012/nov/30/west-bromwich-albion-stoke-squad-sheets", "apiUrl": "https://content.guardianapis.com/football/2012/nov/30/west-bromwich-albion-stoke-squad-sheets", "isHosted": false, "pillarId": "pillar/sport", "pillarName": "Sport"}, {"id": "football/2012/nov/30/arsenal-swansea-city-squad-sheets", "type": "article", "sectionId": "football", "sectionName": "Football", "webPublicationDate": "2012-11-30T18:13:00Z", "webTitle": "Arsenal v Swansea City: Squad sheets", "webUrl": "https://www.theguardian.com/football/2012/nov/30/arsenal-swansea-city-squad-sheets", "apiUrl": "https://content.guardianapis.com/football/2012/nov/30/arsenal-swansea-city-squad-sheets", "isHosted": false, "pillarId": "pillar/sport", "pillarName": "Sport"}, {"id": "football/video/2012/nov/30/rafa-benitez-defends-squad-rotation-chelsea-video", "type": "video", "sectionId": "football", "sectionName": "Football", "webPublicationDate": "2012-11-30T17:24:00Z", "webTitle": "Rafa Ben\u00edtez defends squad rotation system at Chelsea \u2013 video", "webUrl": "https://www.theguardian.com/football/video/2012/nov/30/rafa-benitez-defends-squad-rotation-chelsea-video", "apiUrl": "https://content.guardianapis.com/football/video/2012/nov/30/rafa-benitez-defends-squad-rotation-chelsea-video", "isHosted": false, "pillarId": "pillar/sport", "pillarName": "Sport"}, {"id": "football/2012/nov/30/qpr-aston-villa-squad-sheets", "type": "article", "sectionId": "football", "sectionName": "Football", "webPublicationDate": "2012-11-30T17:13:18Z", "webTitle": "Queens Park Rangers v Aston Villa: Squad sheets", "webUrl": "https://www.theguardian.com/football/2012/nov/30/qpr-aston-villa-squad-sheets", "apiUrl": "https://content.guardianapis.com/football/2012/nov/30/qpr-aston-villa-squad-sheets", "isHosted": false, "pillarId": "pillar/sport", "pillarName": "Sport"}, {"id": "football/blog/2012/nov/30/david-beckham-la-galaxy-mls", "type": "article", "sectionId": "football", "sectionName": "Football", "webPublicationDate": "2012-11-30T17:00:02Z", "webTitle": "How David Beckham won Galaxy fans over \u2013 but his real value was to MLS | Graham Parker", "webUrl": "https://www.theguardian.com/football/blog/2012/nov/30/david-beckham-la-galaxy-mls", "apiUrl": "https://content.guardianapis.com/football/blog/2012/nov/30/david-beckham-la-galaxy-mls", "isHosted": false, "pillarId": "pillar/sport", "pillarName": "Sport"}, {"id": "football/2012/nov/30/west-ham-chelsea-squad-sheets", "type": "article", "sectionId": "football", "sectionName": "Football", "webPublicationDate": "2012-11-30T16:51:42Z", "webTitle": "West Ham United v Chelsea: Squad sheets", "webUrl": "https://www.theguardian.com/football/2012/nov/30/west-ham-chelsea-squad-sheets", "apiUrl": "https://content.guardianapis.com/football/2012/nov/30/west-ham-chelsea-squad-sheets", "isHosted": false, "pillarId": "pillar/sport", "pillarName": "Sport"}, {"id": "football/2012/nov/30/fulham-tottenham-hotspur-squad-sheets", "type": "article", "sectionId": "football", "sectionName": "Football", "webPublicationDate": "2012-11-30T16:20:40Z", "webTitle": "Fulham v Tottenham Hotspur: Squad sheets", "webUrl": "https://www.theguardian.com/football/2012/nov/30/fulham-tottenham-hotspur-squad-sheets", "apiUrl": "https://content.guardianapis.com/football/2012/nov/30/fulham-tottenham-hotspur-squad-sheets", "isHosted": false, "pillarId": "pillar/sport", "pillarName": "Sport"}, {"id": "football/2012/nov/30/reading-manchester-united-squad-sheets", "type": "article", "sectionId": "football", "sectionName": "Football", "webPublicationDate": "2012-11-30T15:59:10Z", "webTitle": "Reading v Manchester United: Squad sheets", "webUrl": "https://www.theguardian.com/football/2012/nov/30/reading-manchester-united-squad-sheets", "apiUrl": "https://content.guardianapis.com/football/2012/nov/30/reading-manchester-united-squad-sheets", "isHosted": false, "pillarId": "pillar/sport", "pillarName": "Sport"}, {"id": "football/2012/nov/30/the-fiver-arsenal", "type": "article", "sectionId": "football", "sectionName": "Football", "webPublicationDate": "2012-11-30T15:52:03Z", "webTitle": "The Fiver | Sucking the life out of every football fan within a 25-mile radius | Ian McCourt", "webUrl": "https://www.theguardian.com/football/2012/nov/30/the-fiver-arsenal", "apiUrl": "https://content.guardianapis.com/football/2012/nov/30/the-fiver-arsenal", "isHosted": false, "pillarId": "pillar/sport", "pillarName": "Sport"}, {"id": "football/video/2012/nov/30/harry-redknapp-qpr-video", "type": "video", "sectionId": "football", "sectionName": "Football", "webPublicationDate": "2012-11-30T15:35:00Z", "webTitle": "Harry Redknapp: new signings may not save QPR - video", "webUrl": "https://www.theguardian.com/football/video/2012/nov/30/harry-redknapp-qpr-video", "apiUrl": "https://content.guardianapis.com/football/video/2012/nov/30/harry-redknapp-qpr-video", "isHosted": false, "pillarId": "pillar/sport", "pillarName": "Sport"}, {"id": "football/2012/nov/30/norwich-city-sunderland-squad-sheets", "type": "article", "sectionId": "football", "sectionName": "Football", "webPublicationDate": "2012-11-30T15:24:44Z", "webTitle": "Norwich City v Sunderland: Squad sheets", "webUrl": "https://www.theguardian.com/football/2012/nov/30/norwich-city-sunderland-squad-sheets", "apiUrl": "https://content.guardianapis.com/football/2012/nov/30/norwich-city-sunderland-squad-sheets", "isHosted": false, "pillarId": "pillar/sport", "pillarName": "Sport"}, {"id": "football/2012/nov/30/newcastle-united-wigan-athletic-squad-sheets", "type": "article", "sectionId": "football", "sectionName": "Football", "webPublicationDate": "2012-11-30T15:07:05Z", "webTitle": "Newcastle United v Wigan Athletic: Squad sheets", "webUrl": "https://www.theguardian.com/football/2012/nov/30/newcastle-united-wigan-athletic-squad-sheets", "apiUrl": "https://content.guardianapis.com/football/2012/nov/30/newcastle-united-wigan-athletic-squad-sheets", "isHosted": false, "pillarId": "pillar/sport", "pillarName": "Sport"}, {"id": "football/blog/2012/nov/30/chris-wondolowski-mls-mvp-cup", "type": "article", "sectionId": "football", "sectionName": "Football", "webPublicationDate": "2012-11-30T15:04:32Z", "webTitle": "Chris Wondolowski is a deserving MLS MVP", "webUrl": "https://www.theguardian.com/football/blog/2012/nov/30/chris-wondolowski-mls-mvp-cup", "apiUrl": "https://content.guardianapis.com/football/blog/2012/nov/30/chris-wondolowski-mls-mvp-cup", "isHosted": false, "pillarId": "pillar/sport", "pillarName": "Sport"}, {"id": "world/2012/nov/30/footballers-u21-european-championship-israel", "type": "article", "sectionId": "world", "sectionName": "World news", "webPublicationDate": "2012-11-30T14:52:40Z", "webTitle": "Footballers condemn plans to hold U21 European championship in Israel", "webUrl": "https://www.theguardian.com/world/2012/nov/30/footballers-u21-european-championship-israel", "apiUrl": "https://content.guardianapis.com/world/2012/nov/30/footballers-u21-european-championship-israel", "isHosted": false, "pillarId": "pillar/news", "pillarName": "News"}, {"id": "football/blog/2012/nov/30/mls-cup-final-la-galaxy-houston-dynamo-fan-previews", "type": "article", "sectionId": "football", "sectionName": "Football", "webPublicationDate": "2012-11-30T14:00:00Z", "webTitle": "MLS Cup final: LA Galaxy and Houston Dynamo fans previews", "webUrl": "https://www.theguardian.com/football/blog/2012/nov/30/mls-cup-final-la-galaxy-houston-dynamo-fan-previews", "apiUrl": "https://content.guardianapis.com/football/blog/2012/nov/30/mls-cup-final-la-galaxy-houston-dynamo-fan-previews", "isHosted": false, "pillarId": "pillar/sport", "pillarName": "Sport"}, {"id": "football/blog/2012/nov/30/ballon-dor-ronaldo-messi", "type": "article", "sectionId": "football", "sectionName": "Football", "webPublicationDate": "2012-11-30T13:44:40Z", "webTitle": "Ballon d'Or should be objectionable but Ronaldo and Messi are irresistible | Barney Ronay", "webUrl": "https://www.theguardian.com/football/blog/2012/nov/30/ballon-dor-ronaldo-messi", "apiUrl": "https://content.guardianapis.com/football/blog/2012/nov/30/ballon-dor-ronaldo-messi", "isHosted": false, "pillarId": "pillar/sport", "pillarName": "Sport"}, {"id": "football/2012/nov/30/liverpool-southampton-squad-sheets", "type": "article", "sectionId": "football", "sectionName": "Football", "webPublicationDate": "2012-11-30T13:14:20Z", "webTitle": "Liverpool v Southampton: Squad sheets", "webUrl": "https://www.theguardian.com/football/2012/nov/30/liverpool-southampton-squad-sheets", "apiUrl": "https://content.guardianapis.com/football/2012/nov/30/liverpool-southampton-squad-sheets", "isHosted": false, "pillarId": "pillar/sport", "pillarName": "Sport"}, {"id": "football/2012/nov/30/manchester-city-everton-squad-sheets", "type": "article", "sectionId": "football", "sectionName": "Football", "webPublicationDate": "2012-11-30T12:55:33Z", "webTitle": "Manchester City v Everton: Squad sheets", "webUrl": "https://www.theguardian.com/football/2012/nov/30/manchester-city-everton-squad-sheets", "apiUrl": "https://content.guardianapis.com/football/2012/nov/30/manchester-city-everton-squad-sheets", "isHosted": false, "pillarId": "pillar/sport", "pillarName": "Sport"}, {"id": "football/video/2012/nov/30/david-beckham-la-galaxy-video", "type": "video", "sectionId": "football", "sectionName": "Football", "webPublicationDate": "2012-11-30T12:08:00Z", "webTitle": "David Beckham prepares for last LA Galaxy game - video", "webUrl": "https://www.theguardian.com/football/video/2012/nov/30/david-beckham-la-galaxy-video", "apiUrl": "https://content.guardianapis.com/football/video/2012/nov/30/david-beckham-la-galaxy-video", "isHosted": false, "pillarId": "pillar/sport", "pillarName": "Sport"}, {"id": "football/blog/2012/nov/30/europa-league-unloved-european-league", "type": "article", "sectionId": "football", "sectionName": "Football", "webPublicationDate": "2012-11-30T10:52:08Z", "webTitle": "Whatever happens to the Europa League we don't need a European League | David Lacey", "webUrl": "https://www.theguardian.com/football/blog/2012/nov/30/europa-league-unloved-european-league", "apiUrl": "https://content.guardianapis.com/football/blog/2012/nov/30/europa-league-unloved-european-league", "isHosted": false, "pillarId": "pillar/sport", "pillarName": "Sport"}, {"id": "football/2012/nov/30/transfer-rumours-cole-queens-park-rangers", "type": "article", "sectionId": "football", "sectionName": "Football", "webPublicationDate": "2012-11-30T09:15:36Z", "webTitle": "Football transfer rumours: Joe Cole off to Queens Park Rangers?", "webUrl": "https://www.theguardian.com/football/2012/nov/30/transfer-rumours-cole-queens-park-rangers", "apiUrl": "https://content.guardianapis.com/football/2012/nov/30/transfer-rumours-cole-queens-park-rangers", "isHosted": false, "pillarId": "pillar/sport", "pillarName": "Sport"}, {"id": "football/blog/2012/nov/30/premier-league-10-things-this-weekend", "type": "article", "sectionId": "football", "sectionName": "Football", "webPublicationDate": "2012-11-30T08:46:00Z", "webTitle": "Premier League: 10 things to look out for this weekend | Jamie Jackson", "webUrl": "https://www.theguardian.com/football/blog/2012/nov/30/premier-league-10-things-this-weekend", "apiUrl": "https://content.guardianapis.com/football/blog/2012/nov/30/premier-league-10-things-this-weekend", "isHosted": false, "pillarId": "pillar/sport", "pillarName": "Sport"}, {"id": "football/2012/nov/30/arsenal-pay-cuts-champions-league", "type": "article", "sectionId": "football", "sectionName": "Football", "webPublicationDate": "2012-11-30T00:40:25Z", "webTitle": "Arsenal want pay cuts for Champions League failure in new contracts", "webUrl": "https://www.theguardian.com/football/2012/nov/30/arsenal-pay-cuts-champions-league", "apiUrl": "https://content.guardianapis.com/football/2012/nov/30/arsenal-pay-cuts-champions-league", "isHosted": false, "pillarId": "pillar/sport", "pillarName": "Sport"}, {"id": "football/video/2012/nov/30/james-richardson-european-football-papers-review-video", "type": "video", "sectionId": "football", "sectionName": "Football", "webPublicationDate": "2012-11-30T00:05:00Z", "webTitle": "James Richardson's European football papers review - video", "webUrl": "https://www.theguardian.com/football/video/2012/nov/30/james-richardson-european-football-papers-review-video", "apiUrl": "https://content.guardianapis.com/football/video/2012/nov/30/james-richardson-european-football-papers-review-video", "isHosted": false, "pillarId": "pillar/sport", "pillarName": "Sport"}, {"id": "football/2012/nov/29/clint-dempsey-fulham-tottenham-hotspur", "type": "article", "sectionId": "football", "sectionName": "Football", "webPublicationDate": "2012-11-29T23:00:04Z", "webTitle": "Clint Dempsey 'grateful' to Fulham as he prepares to return with Spurs", "webUrl": "https://www.theguardian.com/football/2012/nov/29/clint-dempsey-fulham-tottenham-hotspur", "apiUrl": "https://content.guardianapis.com/football/2012/nov/29/clint-dempsey-fulham-tottenham-hotspur", "isHosted": false, "pillarId": "pillar/sport", "pillarName": "Sport"}, {"id": "football/blog/2012/nov/29/manchester-city-united-premier-league", "type": "article", "sectionId": "football", "sectionName": "Football", "webPublicationDate": "2012-11-29T23:00:02Z", "webTitle": "Manchester duo pull clear of pack and set up derby of some significance| Paul Wilson", "webUrl": "https://www.theguardian.com/football/blog/2012/nov/29/manchester-city-united-premier-league", "apiUrl": "https://content.guardianapis.com/football/blog/2012/nov/29/manchester-city-united-premier-league", "isHosted": false, "pillarId": "pillar/sport", "pillarName": "Sport"}, {"id": "football/2012/nov/29/brendan-rodgers-liverpool-raheem-sterling", "type": "article", "sectionId": "football", "sectionName": "Football", "webPublicationDate": "2012-11-29T22:30:23Z", "webTitle": "Brendan Rodgers urges Liverpool's Raheem Sterling to sign long-term deal", "webUrl": "https://www.theguardian.com/football/2012/nov/29/brendan-rodgers-liverpool-raheem-sterling", "apiUrl": "https://content.guardianapis.com/football/2012/nov/29/brendan-rodgers-liverpool-raheem-sterling", "isHosted": false, "pillarId": "pillar/sport", "pillarName": "Sport"}, {"id": "football/2012/nov/29/marouane-fellaini-everton-top-four", "type": "article", "sectionId": "football", "sectionName": "Football", "webPublicationDate": "2012-11-29T22:29:01Z", "webTitle": "Marouane Fellaini can get Everton to top-four finish, says Mikel Arteta", "webUrl": "https://www.theguardian.com/football/2012/nov/29/marouane-fellaini-everton-top-four", "apiUrl": "https://content.guardianapis.com/football/2012/nov/29/marouane-fellaini-everton-top-four", "isHosted": false, "pillarId": "pillar/sport", "pillarName": "Sport"}, {"id": "football/blog/2012/nov/29/rafael-benitez-mutinous-chelsea-fans", "type": "article", "sectionId": "football", "sectionName": "Football", "webPublicationDate": "2012-11-29T20:42:09Z", "webTitle": "Rafael Ben\u00edtez feels the heat as mutinous Chelsea fans crave new voice | Stuart James", "webUrl": "https://www.theguardian.com/football/blog/2012/nov/29/rafael-benitez-mutinous-chelsea-fans", "apiUrl": "https://content.guardianapis.com/football/blog/2012/nov/29/rafael-benitez-mutinous-chelsea-fans", "isHosted": false, "pillarId": "pillar/sport", "pillarName": "Sport"}, {"id": "football/blog/2012/nov/29/real-oviedo-spain-premier-league", "type": "article", "sectionId": "football", "sectionName": "Football", "webPublicationDate": "2012-11-29T19:25:31Z", "webTitle": "Real Oviedo \u2013 the remarkable story of a club the world united to save | Sid Lowe", "webUrl": "https://www.theguardian.com/football/blog/2012/nov/29/real-oviedo-spain-premier-league", "apiUrl": "https://content.guardianapis.com/football/blog/2012/nov/29/real-oviedo-spain-premier-league", "isHosted": false, "pillarId": "pillar/sport", "pillarName": "Sport"}, {"id": "football/2012/nov/29/la-galaxy-houston-dynamo-mls-cup", "type": "article", "sectionId": "football", "sectionName": "Football", "webPublicationDate": "2012-11-29T19:07:00Z", "webTitle": "LA Galaxy v Houston Dynamo: five key factors on the road to MLS Cup 2012", "webUrl": "https://www.theguardian.com/football/2012/nov/29/la-galaxy-houston-dynamo-mls-cup", "apiUrl": "https://content.guardianapis.com/football/2012/nov/29/la-galaxy-houston-dynamo-mls-cup", "isHosted": false, "pillarId": "pillar/sport", "pillarName": "Sport"}, {"id": "football/blog/2012/nov/29/newcastle-sunderland-grey-area", "type": "article", "sectionId": "football", "sectionName": "Football", "webPublicationDate": "2012-11-29T17:44:59Z", "webTitle": "Newcastle and Sunderland locked in fight against a dangerous grey area | Louise Taylor", "webUrl": "https://www.theguardian.com/football/blog/2012/nov/29/newcastle-sunderland-grey-area", "apiUrl": "https://content.guardianapis.com/football/blog/2012/nov/29/newcastle-sunderland-grey-area", "isHosted": false, "pillarId": "pillar/sport", "pillarName": "Sport"}, {"id": "football/2012/nov/29/the-fiver-liverpool-brendan-rodgers", "type": "article", "sectionId": "football", "sectionName": "Football", "webPublicationDate": "2012-11-29T16:43:02Z", "webTitle": "The Fiver | Ethics of the football press | Barry Glendenning", "webUrl": "https://www.theguardian.com/football/2012/nov/29/the-fiver-liverpool-brendan-rodgers", "apiUrl": "https://content.guardianapis.com/football/2012/nov/29/the-fiver-liverpool-brendan-rodgers", "isHosted": false, "pillarId": "pillar/sport", "pillarName": "Sport"}, {"id": "football/video/2012/nov/29/scolari-brazil-manager-world-cup-video", "type": "video", "sectionId": "football", "sectionName": "Football", "webPublicationDate": "2012-11-29T16:26:00Z", "webTitle": "Luiz Felipe Scolari to get second stint as Brazil manager for 'home' World Cup - video", "webUrl": "https://www.theguardian.com/football/video/2012/nov/29/scolari-brazil-manager-world-cup-video", "apiUrl": "https://content.guardianapis.com/football/video/2012/nov/29/scolari-brazil-manager-world-cup-video", "isHosted": false, "pillarId": "pillar/sport", "pillarName": "Sport"}, {"id": "football/blog/audio/2012/nov/29/football-weekly-extra-podcast-gareth-bale", "type": "audio", "sectionId": "football", "sectionName": "Football", "webPublicationDate": "2012-11-29T16:24:16Z", "webTitle": "Football Weekly Extra: Gareth Bale in a class of his own \u2013 podcast", "webUrl": "https://www.theguardian.com/football/blog/audio/2012/nov/29/football-weekly-extra-podcast-gareth-bale", "apiUrl": "https://content.guardianapis.com/football/blog/audio/2012/nov/29/football-weekly-extra-podcast-gareth-bale", "isHosted": false, "pillarId": "pillar/sport", "pillarName": "Sport"}, {"id": "football/2012/nov/29/joleon-lescott-manchester-city", "type": "article", "sectionId": "football", "sectionName": "Football", "webPublicationDate": "2012-11-29T16:12:10Z", "webTitle": "Joleon Lescott determined to fight for his place at Manchester City", "webUrl": "https://www.theguardian.com/football/2012/nov/29/joleon-lescott-manchester-city", "apiUrl": "https://content.guardianapis.com/football/2012/nov/29/joleon-lescott-manchester-city", "isHosted": false, "pillarId": "pillar/sport", "pillarName": "Sport"}, {"id": "sport/blog/2012/nov/29/update-comments-guardian-sport", "type": "article", "sectionId": "sport", "sectionName": "Sport", "webPublicationDate": "2012-11-29T15:37:00Z", "webTitle": "A new comment platform for Guardian sport", "webUrl": "https://www.theguardian.com/sport/blog/2012/nov/29/update-comments-guardian-sport", "apiUrl": "https://content.guardianapis.com/sport/blog/2012/nov/29/update-comments-guardian-sport", "isHosted": false, "pillarId": "pillar/sport", "pillarName": "Sport"}, {"id": "football/blog/2012/nov/29/bayern-munich-bundesliga-germany", "type": "article", "sectionId": "football", "sectionName": "Football", "webPublicationDate": "2012-11-29T15:12:14Z", "webTitle": "Bayern Munich in a hurry to put last season's disappointment behind them | Raphael Honigstein", "webUrl": "https://www.theguardian.com/football/blog/2012/nov/29/bayern-munich-bundesliga-germany", "apiUrl": "https://content.guardianapis.com/football/blog/2012/nov/29/bayern-munich-bundesliga-germany", "isHosted": false, "pillarId": "pillar/sport", "pillarName": "Sport"}, {"id": "football/2012/nov/29/balkans-political-football-hooligans-power", "type": "article", "sectionId": "football", "sectionName": "Football", "webPublicationDate": "2012-11-29T14:31:30Z", "webTitle": "Balkans' political football keeps hooligans close to heart of power", "webUrl": "https://www.theguardian.com/football/2012/nov/29/balkans-political-football-hooligans-power", "apiUrl": "https://content.guardianapis.com/football/2012/nov/29/balkans-political-football-hooligans-power", "isHosted": false, "pillarId": "pillar/sport", "pillarName": "Sport"}, {"id": "sport/video/2012/nov/29/valencia-adil-rami-halfway-line-video", "type": "video", "sectionId": "football", "sectionName": "Football", "webPublicationDate": "2012-11-29T13:08:00Z", "webTitle": "Valencia's Adil Rami scores from his own half \u2013 video", "webUrl": "https://www.theguardian.com/sport/video/2012/nov/29/valencia-adil-rami-halfway-line-video", "apiUrl": "https://content.guardianapis.com/sport/video/2012/nov/29/valencia-adil-rami-halfway-line-video", "isHosted": false, "pillarId": "pillar/sport", "pillarName": "Sport"}]}}