{"response": {"status": "ok", "userTier": "developer", "total": 132855, "startIndex": 1, "pageSize": 50, "currentPage": 1, "pages": 2658, "orderBy": "newest", "results": [{"id": "commentisfree/cartoon/2011/nov/30/steve-bell-david-cameron-strikes-cartoon", "type": "picture", "sectionId": "commentisfree", "sectionName": "Opinion", "webPublicationDate": "2011-11-30T23:50:00Z", "webTitle": "Steve Bell on David Cameron and the public sector workers' strike \u2013 cartoon", "webUrl": "https://www.theguardian.com/commentisfree/cartoon/2011/nov/30/steve-bell-david-cameron-strikes-cartoon", "apiUrl": "https://content.guardianapis.com/commentisfree/cartoon/2011/nov/30/steve-bell-david-cameron-strikes-cartoon", "isHosted": false, "pillarId": "pillar/opinion", "pillarName": "Opinion"}, {"id": "politics/2011/nov/30/hugh-muir-diary-john-bolton", "type": "article", "sectionId": "politics", "sectionName": "Politics", "webPublicationDate": "2011-11-30T22:57:00Z", "webTitle": "Hugh Muir's diary", "webUrl": "https://www.theguardian.com/politics/2011/nov/30/hugh-muir-diary-john-bolton", "apiUrl": "https://content.guardianapis.com/politics/2011/nov/30/hugh-muir-diary-john-bolton", "isHosted": false, "pillarId": "pillar/news", "pillarName": "News"}, {"id": "business/2011/nov/30/osborne-autumn-statement-fawlty-towers", "type": "article", "sectionId": "business", "sectionName": "Business", "webPublicationDate": "2011-11-30T22:38:24Z", "webTitle": "Osborne's autumn statement shows a Britain worse than it was in the 1970s | Larry Elliott", "webUrl": "https://www.theguardian.com/business/2011/nov/30/osborne-autumn-statement-fawlty-towers", "apiUrl": "https://content.guardianapis.com/business/2011/nov/30/osborne-autumn-statement-fawlty-towers", "isHosted": false, "pillarId": "pillar/news", "pillarName": "News"}, {"id": "commentisfree/2011/nov/30/strike-turns-tide-of-generation", "type": "article", "sectionId": "commentisfree", "sectionName": "Opinion", "webPublicationDate": "2011-11-30T22:20:01Z", "webTitle": "This strike could start to turn the tide of a generation | Seumas Milne", "webUrl": "https://www.theguardian.com/commentisfree/2011/nov/30/strike-turns-tide-of-generation", "apiUrl": "https://content.guardianapis.com/commentisfree/2011/nov/30/strike-turns-tide-of-generation", "isHosted": false, "pillarId": "pillar/opinion", "pillarName": "Opinion"}, {"id": "commentisfree/2011/nov/30/britain-and-the-euro-cheap-dollars", "type": "article", "sectionId": "commentisfree", "sectionName": "Opinion", "webPublicationDate": "2011-11-30T22:11:35Z", "webTitle": "Britain and the euro: a fistful of (cheap) dollars", "webUrl": "https://www.theguardian.com/commentisfree/2011/nov/30/britain-and-the-euro-cheap-dollars", "apiUrl": "https://content.guardianapis.com/commentisfree/2011/nov/30/britain-and-the-euro-cheap-dollars", "isHosted": false, "pillarId": "pillar/opinion", "pillarName": "Opinion"}, {"id": "politics/2011/nov/30/liberal-democrats-cuts-danny-alexander", "type": "article", "sectionId": "politics", "sectionName": "Politics", "webPublicationDate": "2011-11-30T21:56:23Z", "webTitle": "Lib Dems try to defuse row over \u00a315bn spending cuts deal with Tories", "webUrl": "https://www.theguardian.com/politics/2011/nov/30/liberal-democrats-cuts-danny-alexander", "apiUrl": "https://content.guardianapis.com/politics/2011/nov/30/liberal-democrats-cuts-danny-alexander", "isHosted": false, "pillarId": "pillar/news", "pillarName": "News"}, {"id": "politics/2011/nov/30/william-hague-seeks-eu-action-iran", "type": "article", "sectionId": "politics", "sectionName": "Politics", "webPublicationDate": "2011-11-30T21:29:41Z", "webTitle": "William Hague seeks joint EU action against Iran over embassy attack", "webUrl": "https://www.theguardian.com/politics/2011/nov/30/william-hague-seeks-eu-action-iran", "apiUrl": "https://content.guardianapis.com/politics/2011/nov/30/william-hague-seeks-eu-action-iran", "isHosted": false, "pillarId": "pillar/news", "pillarName": "News"}, {"id": "politics/2011/nov/30/william-hague-iranian-diplomats", "type": "article", "sectionId": "politics", "sectionName": "Politics", "webPublicationDate": "2011-11-30T21:05:49Z", "webTitle": "William Hague's expulsion of Iranian diplomats divides opinion", "webUrl": "https://www.theguardian.com/politics/2011/nov/30/william-hague-iranian-diplomats", "apiUrl": "https://content.guardianapis.com/politics/2011/nov/30/william-hague-iranian-diplomats", "isHosted": false, "pillarId": "pillar/news", "pillarName": "News"}, {"id": "uk/2011/nov/30/osborne-big-economic-gamble", "type": "article", "sectionId": "uk-news", "sectionName": "UK news", "webPublicationDate": "2011-11-30T21:00:04Z", "webTitle": "Letters: Osborne's big economy gamble", "webUrl": "https://www.theguardian.com/uk/2011/nov/30/osborne-big-economic-gamble", "apiUrl": "https://content.guardianapis.com/uk/2011/nov/30/osborne-big-economic-gamble", "isHosted": false, "pillarId": "pillar/news", "pillarName": "News"}, {"id": "politics/2011/nov/30/georgeosborne-autumn-statement-2011", "type": "article", "sectionId": "politics", "sectionName": "Politics", "webPublicationDate": "2011-11-30T21:00:03Z", "webTitle": "Letters: Of motorists, muffins and muppets", "webUrl": "https://www.theguardian.com/politics/2011/nov/30/georgeosborne-autumn-statement-2011", "apiUrl": "https://content.guardianapis.com/politics/2011/nov/30/georgeosborne-autumn-statement-2011", "isHosted": false, "pillarId": "pillar/news", "pillarName": "News"}, {"id": "world/2011/nov/30/iran-britain-relations-new-low", "type": "article", "sectionId": "world", "sectionName": "World news", "webPublicationDate": "2011-11-30T20:44:00Z", "webTitle": "Iran-Britain relations at new low", "webUrl": "https://www.theguardian.com/world/2011/nov/30/iran-britain-relations-new-low", "apiUrl": "https://content.guardianapis.com/world/2011/nov/30/iran-britain-relations-new-low", "isHosted": false, "pillarId": "pillar/news", "pillarName": "News"}, {"id": "business/2011/nov/30/battersea-power-station-redevelopment-collapses", "type": "article", "sectionId": "business", "sectionName": "Business", "webPublicationDate": "2011-11-30T20:40:16Z", "webTitle": "Battersea Power Station calls in administrators", "webUrl": "https://www.theguardian.com/business/2011/nov/30/battersea-power-station-redevelopment-collapses", "apiUrl": "https://content.guardianapis.com/business/2011/nov/30/battersea-power-station-redevelopment-collapses", "isHosted": false, "pillarId": "pillar/news", "pillarName": "News"}, {"id": "media/2011/nov/30/alastair-campbell-cherie-blair-leveson", "type": "article", "sectionId": "media", "sectionName": "Media", "webPublicationDate": "2011-11-30T20:04:00Z", "webTitle": "Alastair Campbell: phone hacking 'possibly' revealed Cherie Blair's pregnancy", "webUrl": "https://www.theguardian.com/media/2011/nov/30/alastair-campbell-cherie-blair-leveson", "apiUrl": "https://content.guardianapis.com/media/2011/nov/30/alastair-campbell-cherie-blair-leveson", "isHosted": false, "pillarId": "pillar/news", "pillarName": "News"}, {"id": "politics/2011/nov/30/simon-hoggart-david-cameron-ed-miliband", "type": "article", "sectionId": "politics", "sectionName": "Politics", "webPublicationDate": "2011-11-30T20:01:59Z", "webTitle": "Hair-raising confusion in chamber as smooth Dave strikes out at Ed | Simon Hoggart's sketch", "webUrl": "https://www.theguardian.com/politics/2011/nov/30/simon-hoggart-david-cameron-ed-miliband", "apiUrl": "https://content.guardianapis.com/politics/2011/nov/30/simon-hoggart-david-cameron-ed-miliband", "isHosted": false, "pillarId": "pillar/news", "pillarName": "News"}, {"id": "commentisfree/2011/nov/30/inquiry-into-uk-riots-flimsy", "type": "article", "sectionId": "commentisfree", "sectionName": "Opinion", "webPublicationDate": "2011-11-30T20:00:00Z", "webTitle": "If the summer rioters really were all criminals, why don't they rampage more often \u2013 and why did they stop? | Suzanne Moore", "webUrl": "https://www.theguardian.com/commentisfree/2011/nov/30/inquiry-into-uk-riots-flimsy", "apiUrl": "https://content.guardianapis.com/commentisfree/2011/nov/30/inquiry-into-uk-riots-flimsy", "isHosted": false, "pillarId": "pillar/opinion", "pillarName": "Opinion"}, {"id": "politics/2011/nov/30/pensions-strike-brendan-barber-pickets", "type": "article", "sectionId": "politics", "sectionName": "Politics", "webPublicationDate": "2011-11-30T19:52:15Z", "webTitle": "Brendan Barber's whistlestop tour of Britain's 'reasonable, angry' strikers", "webUrl": "https://www.theguardian.com/politics/2011/nov/30/pensions-strike-brendan-barber-pickets", "apiUrl": "https://content.guardianapis.com/politics/2011/nov/30/pensions-strike-brendan-barber-pickets", "isHosted": false, "pillarId": "pillar/news", "pillarName": "News"}, {"id": "politics/2011/nov/30/peter-hain-police-hacking-northern-ireland", "type": "article", "sectionId": "politics", "sectionName": "Politics", "webPublicationDate": "2011-11-30T19:39:44Z", "webTitle": "Peter Hain meets police over hacking allegations", "webUrl": "https://www.theguardian.com/politics/2011/nov/30/peter-hain-police-hacking-northern-ireland", "apiUrl": "https://content.guardianapis.com/politics/2011/nov/30/peter-hain-police-hacking-northern-ireland", "isHosted": false, "pillarId": "pillar/news", "pillarName": "News"}, {"id": "society/2011/nov/30/public-services-union-warning-pensions", "type": "article", "sectionId": "society", "sectionName": "Society", "webPublicationDate": "2011-11-30T19:39:15Z", "webTitle": "Public services union warns of more industrial action over pensions", "webUrl": "https://www.theguardian.com/society/2011/nov/30/public-services-union-warning-pensions", "apiUrl": "https://content.guardianapis.com/society/2011/nov/30/public-services-union-warning-pensions", "isHosted": false, "pillarId": "pillar/news", "pillarName": "News"}, {"id": "politics/2011/nov/30/union-fury-cameron-axes-workplace-subsidy", "type": "article", "sectionId": "politics", "sectionName": "Politics", "webPublicationDate": "2011-11-30T19:38:15Z", "webTitle": "Fury as David Cameron axes \u00a3113m funding of public sector union salaries", "webUrl": "https://www.theguardian.com/politics/2011/nov/30/union-fury-cameron-axes-workplace-subsidy", "apiUrl": "https://content.guardianapis.com/politics/2011/nov/30/union-fury-cameron-axes-workplace-subsidy", "isHosted": false, "pillarId": "pillar/news", "pillarName": "News"}, {"id": "commentisfree/2011/nov/30/autumn-statement-hoarding-for-apocalypse", "type": "article", "sectionId": "commentisfree", "sectionName": "Opinion", "webPublicationDate": "2011-11-30T19:35:01Z", "webTitle": "Hoarding for the apocalypse? I really wouldn't blame you | Zoe Williams", "webUrl": "https://www.theguardian.com/commentisfree/2011/nov/30/autumn-statement-hoarding-for-apocalypse", "apiUrl": "https://content.guardianapis.com/commentisfree/2011/nov/30/autumn-statement-hoarding-for-apocalypse", "isHosted": false, "pillarId": "pillar/opinion", "pillarName": "Opinion"}, {"id": "politics/2011/nov/30/green-policies-blue-rinse-allegra-stratton", "type": "article", "sectionId": "environment", "sectionName": "Environment", "webPublicationDate": "2011-11-30T19:20:46Z", "webTitle": "Inside politics - Green policies get the blue rinse", "webUrl": "https://www.theguardian.com/politics/2011/nov/30/green-policies-blue-rinse-allegra-stratton", "apiUrl": "https://content.guardianapis.com/politics/2011/nov/30/green-policies-blue-rinse-allegra-stratton", "isHosted": false, "pillarId": "pillar/news", "pillarName": "News"}, {"id": "society/2011/nov/30/strike-public-sector-protest-pensions", "type": "article", "sectionId": "society", "sectionName": "Society", "webPublicationDate": "2011-11-30T19:12:23Z", "webTitle": "Strike action: truth the first casualty in struggle to appear 'reasonable' | Analysis", "webUrl": "https://www.theguardian.com/society/2011/nov/30/strike-public-sector-protest-pensions", "apiUrl": "https://content.guardianapis.com/society/2011/nov/30/strike-public-sector-protest-pensions", "isHosted": false, "pillarId": "pillar/news", "pillarName": "News"}, {"id": "politics/wintour-and-watt/2011/nov/30/edballs-georgeosborne", "type": "article", "sectionId": "politics", "sectionName": "Politics", "webPublicationDate": "2011-11-30T19:09:32Z", "webTitle": "Is Ed Balls the new John Maynard Keynes as George Osborne hits trouble?", "webUrl": "https://www.theguardian.com/politics/wintour-and-watt/2011/nov/30/edballs-georgeosborne", "apiUrl": "https://content.guardianapis.com/politics/wintour-and-watt/2011/nov/30/edballs-georgeosborne", "isHosted": false, "pillarId": "pillar/news", "pillarName": "News"}, {"id": "society/2011/nov/30/public-sector-workers-strike-bristol", "type": "article", "sectionId": "society", "sectionName": "Society", "webPublicationDate": "2011-11-30T18:48:35Z", "webTitle": "Strikers get sympathy and support in Bristol as people join protest march", "webUrl": "https://www.theguardian.com/society/2011/nov/30/public-sector-workers-strike-bristol", "apiUrl": "https://content.guardianapis.com/society/2011/nov/30/public-sector-workers-strike-bristol", "isHosted": false, "pillarId": "pillar/news", "pillarName": "News"}, {"id": "politics/2011/nov/30/alastair-campbell-sultan-spin-leveson", "type": "article", "sectionId": "politics", "sectionName": "Politics", "webPublicationDate": "2011-11-30T18:48:29Z", "webTitle": "Leveson inquiry: Alastair Campbell, the sultan of spin, gets a few soft deliveries", "webUrl": "https://www.theguardian.com/politics/2011/nov/30/alastair-campbell-sultan-spin-leveson", "apiUrl": "https://content.guardianapis.com/politics/2011/nov/30/alastair-campbell-sultan-spin-leveson", "isHosted": false, "pillarId": "pillar/news", "pillarName": "News"}, {"id": "society/2011/nov/30/scottish-public-sector-strikers", "type": "article", "sectionId": "society", "sectionName": "Society", "webPublicationDate": "2011-11-30T18:43:25Z", "webTitle": "Scottish public sector strikers take to the streets", "webUrl": "https://www.theguardian.com/society/2011/nov/30/scottish-public-sector-strikers", "apiUrl": "https://content.guardianapis.com/society/2011/nov/30/scottish-public-sector-strikers", "isHosted": false, "pillarId": "pillar/news", "pillarName": "News"}, {"id": "society/gallery/2011/nov/30/public-sector-strike-protest-placards", "type": "gallery", "sectionId": "society", "sectionName": "Society", "webPublicationDate": "2011-11-30T17:49:33Z", "webTitle": "Placards at the public sector strike protests - in pictures", "webUrl": "https://www.theguardian.com/society/gallery/2011/nov/30/public-sector-strike-protest-placards", "apiUrl": "https://content.guardianapis.com/society/gallery/2011/nov/30/public-sector-strike-protest-placards", "isHosted": false, "pillarId": "pillar/news", "pillarName": "News"}, {"id": "society/2011/nov/30/public-sector-strike-leeds", "type": "article", "sectionId": "society", "sectionName": "Society", "webPublicationDate": "2011-11-30T17:31:50Z", "webTitle": "Public sector strikers find tea and sympathy in Leeds", "webUrl": "https://www.theguardian.com/society/2011/nov/30/public-sector-strike-leeds", "apiUrl": "https://content.guardianapis.com/society/2011/nov/30/public-sector-strike-leeds", "isHosted": false, "pillarId": "pillar/news", "pillarName": "News"}, {"id": "commentisfree/2011/nov/30/david-cameron-leftwing-insult", "type": "article", "sectionId": "commentisfree", "sectionName": "Opinion", "webPublicationDate": "2011-11-30T17:23:56Z", "webTitle": "The latest playground insult for adults? You're so 'leftwing'", "webUrl": "https://www.theguardian.com/commentisfree/2011/nov/30/david-cameron-leftwing-insult", "apiUrl": "https://content.guardianapis.com/commentisfree/2011/nov/30/david-cameron-leftwing-insult", "isHosted": false, "pillarId": "pillar/opinion", "pillarName": "Opinion"}, {"id": "society/datablog/2011/nov/30/prescription-drug-use-survey", "type": "article", "sectionId": "society", "sectionName": "Society", "webPublicationDate": "2011-11-30T17:12:20Z", "webTitle": "Tell us about your drug use - legal and otherwise", "webUrl": "https://www.theguardian.com/society/datablog/2011/nov/30/prescription-drug-use-survey", "apiUrl": "https://content.guardianapis.com/society/datablog/2011/nov/30/prescription-drug-use-survey", "isHosted": false, "pillarId": "pillar/news", "pillarName": "News"}, {"id": "uk/the-northerner/2011/nov/30/easington-miners-strike-keith-pattison-david-pearce", "type": "article", "sectionId": "uk-news", "sectionName": "UK news", "webPublicationDate": "2011-11-30T16:40:48Z", "webTitle": "Warmth and bitterness mix in photographs of coal's great struggle", "webUrl": "https://www.theguardian.com/uk/the-northerner/2011/nov/30/easington-miners-strike-keith-pattison-david-pearce", "apiUrl": "https://content.guardianapis.com/uk/the-northerner/2011/nov/30/easington-miners-strike-keith-pattison-david-pearce", "isHosted": false, "pillarId": "pillar/news", "pillarName": "News"}, {"id": "society/video/2011/nov/30/strikes-damp-squib-cameron-video", "type": "video", "sectionId": "society", "sectionName": "Society", "webPublicationDate": "2011-11-30T15:42:00Z", "webTitle": "Public sector strikes 'a damp squib', says Cameron - video", "webUrl": "https://www.theguardian.com/society/video/2011/nov/30/strikes-damp-squib-cameron-video", "apiUrl": "https://content.guardianapis.com/society/video/2011/nov/30/strikes-damp-squib-cameron-video", "isHosted": false, "pillarId": "pillar/news", "pillarName": "News"}, {"id": "world/video/2011/nov/30/iran-diplomats-expelled-uk-video", "type": "video", "sectionId": "world", "sectionName": "World news", "webPublicationDate": "2011-11-30T15:20:00Z", "webTitle": "Iran's diplomats expelled from UK, says Hague - video", "webUrl": "https://www.theguardian.com/world/video/2011/nov/30/iran-diplomats-expelled-uk-video", "apiUrl": "https://content.guardianapis.com/world/video/2011/nov/30/iran-diplomats-expelled-uk-video", "isHosted": false, "pillarId": "pillar/news", "pillarName": "News"}, {"id": "business/2011/nov/30/living-standards-institute-fiscal-studies", "type": "article", "sectionId": "business", "sectionName": "Business", "webPublicationDate": "2011-11-30T15:11:22Z", "webTitle": "Autumn statement study by IFS predicts lost decade for UK living standards", "webUrl": "https://www.theguardian.com/business/2011/nov/30/living-standards-institute-fiscal-studies", "apiUrl": "https://content.guardianapis.com/business/2011/nov/30/living-standards-institute-fiscal-studies", "isHosted": false, "pillarId": "pillar/news", "pillarName": "News"}, {"id": "business/2011/nov/30/china-central-bank-boost-growth", "type": "article", "sectionId": "business", "sectionName": "Business", "webPublicationDate": "2011-11-30T15:09:41Z", "webTitle": "China's central bank acts to boost growth amid alarm over world economy", "webUrl": "https://www.theguardian.com/business/2011/nov/30/china-central-bank-boost-growth", "apiUrl": "https://content.guardianapis.com/business/2011/nov/30/china-central-bank-boost-growth", "isHosted": false, "pillarId": "pillar/news", "pillarName": "News"}, {"id": "society/video/2011/nov/30/cameron-miliband-public-sector-strike-video", "type": "video", "sectionId": "society", "sectionName": "Society", "webPublicationDate": "2011-11-30T15:02:00Z", "webTitle": "Cameron attacks 'leftwing' Miliband over public sector strike - video", "webUrl": "https://www.theguardian.com/society/video/2011/nov/30/cameron-miliband-public-sector-strike-video", "apiUrl": "https://content.guardianapis.com/society/video/2011/nov/30/cameron-miliband-public-sector-strike-video", "isHosted": false, "pillarId": "pillar/news", "pillarName": "News"}, {"id": "world/2011/nov/30/britain-expels-iranian-diplomats-tehran", "type": "article", "sectionId": "world", "sectionName": "World news", "webPublicationDate": "2011-11-30T14:54:00Z", "webTitle": "Britain expels Iranian diplomats and closes Tehran embassy", "webUrl": "https://www.theguardian.com/world/2011/nov/30/britain-expels-iranian-diplomats-tehran", "apiUrl": "https://content.guardianapis.com/world/2011/nov/30/britain-expels-iranian-diplomats-tehran", "isHosted": false, "pillarId": "pillar/news", "pillarName": "News"}, {"id": "society/video/2011/nov/30/strike-action-irresponsible-francis-maude-video", "type": "video", "sectionId": "society", "sectionName": "Society", "webPublicationDate": "2011-11-30T14:38:00Z", "webTitle": "Strike during negotiations 'irresponsible', says Francis Maude  - video", "webUrl": "https://www.theguardian.com/society/video/2011/nov/30/strike-action-irresponsible-francis-maude-video", "apiUrl": "https://content.guardianapis.com/society/video/2011/nov/30/strike-action-irresponsible-francis-maude-video", "isHosted": false, "pillarId": "pillar/news", "pillarName": "News"}, {"id": "society/2011/nov/30/strikes-public-sector-pensions-impact", "type": "article", "sectionId": "society", "sectionName": "Society", "webPublicationDate": "2011-11-30T14:18:55Z", "webTitle": "Strikes over public sector pensions hit services across UK as 2 million walk out", "webUrl": "https://www.theguardian.com/society/2011/nov/30/strikes-public-sector-pensions-impact", "apiUrl": "https://content.guardianapis.com/society/2011/nov/30/strikes-public-sector-pensions-impact", "isHosted": false, "pillarId": "pillar/news", "pillarName": "News"}, {"id": "society/2011/nov/30/cameron-public-funding-union-salaries-strike", "type": "article", "sectionId": "society", "sectionName": "Society", "webPublicationDate": "2011-11-30T14:15:01Z", "webTitle": "Cameron to end public funding for union salaries in workplace", "webUrl": "https://www.theguardian.com/society/2011/nov/30/cameron-public-funding-union-salaries-strike", "apiUrl": "https://content.guardianapis.com/society/2011/nov/30/cameron-public-funding-union-salaries-strike", "isHosted": false, "pillarId": "pillar/news", "pillarName": "News"}, {"id": "media/2011/nov/30/alastair-campbell-ni-phone-hacking", "type": "article", "sectionId": "media", "sectionName": "Media", "webPublicationDate": "2011-11-30T14:10:04Z", "webTitle": "Alastair Campbell 'threatened by NI executives over phone hacking'", "webUrl": "https://www.theguardian.com/media/2011/nov/30/alastair-campbell-ni-phone-hacking", "apiUrl": "https://content.guardianapis.com/media/2011/nov/30/alastair-campbell-ni-phone-hacking", "isHosted": false, "pillarId": "pillar/news", "pillarName": "News"}, {"id": "politics/davehillblog/2011/nov/30/boris-johnson-mentoring-scheme-volunteers", "type": "article", "sectionId": "politics", "sectionName": "Politics", "webPublicationDate": "2011-11-30T13:55:00Z", "webTitle": "A third of Boris Johnson's 2,000 'male role model' scheme 'volunteers' are women", "webUrl": "https://www.theguardian.com/politics/davehillblog/2011/nov/30/boris-johnson-mentoring-scheme-volunteers", "apiUrl": "https://content.guardianapis.com/politics/davehillblog/2011/nov/30/boris-johnson-mentoring-scheme-volunteers", "isHosted": false, "pillarId": "pillar/news", "pillarName": "News"}, {"id": "society/patrick-butler-cuts-blog/2011/nov/30/public-sector-cuts-fearful-and-exhausted", "type": "article", "sectionId": "society", "sectionName": "Society", "webPublicationDate": "2011-11-30T13:44:01Z", "webTitle": "Cuts-era public sector: 'not so much a fearful place as an exhausted one'", "webUrl": "https://www.theguardian.com/society/patrick-butler-cuts-blog/2011/nov/30/public-sector-cuts-fearful-and-exhausted", "apiUrl": "https://content.guardianapis.com/society/patrick-butler-cuts-blog/2011/nov/30/public-sector-cuts-fearful-and-exhausted", "isHosted": false, "pillarId": "pillar/news", "pillarName": "News"}, {"id": "society/2011/nov/30/strikes-unions-pensions-cuts", "type": "article", "sectionId": "society", "sectionName": "Society", "webPublicationDate": "2011-11-30T13:04:00Z", "webTitle": "Strikes hit services as millions heed unions' call to fight pension cuts", "webUrl": "https://www.theguardian.com/society/2011/nov/30/strikes-unions-pensions-cuts", "apiUrl": "https://content.guardianapis.com/society/2011/nov/30/strikes-unions-pensions-cuts", "isHosted": false, "pillarId": "pillar/news", "pillarName": "News"}, {"id": "politics/audio/2011/nov/30/prime-ministers-questions", "type": "audio", "sectionId": "politics", "sectionName": "Politics", "webPublicationDate": "2011-11-30T12:59:12Z", "webTitle": "Prime minister's questions: 30 November 2011 - audio", "webUrl": "https://www.theguardian.com/politics/audio/2011/nov/30/prime-ministers-questions", "apiUrl": "https://content.guardianapis.com/politics/audio/2011/nov/30/prime-ministers-questions", "isHosted": false, "pillarId": "pillar/news", "pillarName": "News"}, {"id": "politics/blog/2011/nov/30/george-osborne-good-political-fist", "type": "article", "sectionId": "politics", "sectionName": "Politics", "webPublicationDate": "2011-11-30T12:34:44Z", "webTitle": "George Osborne has made a good political fist out of a poor hand | Michael White", "webUrl": "https://www.theguardian.com/politics/blog/2011/nov/30/george-osborne-good-political-fist", "apiUrl": "https://content.guardianapis.com/politics/blog/2011/nov/30/george-osborne-good-political-fist", "isHosted": false, "pillarId": "pillar/news", "pillarName": "News"}, {"id": "commentisfree/2011/nov/30/public-misunderstanding-infrastructure-funding", "type": "article", "sectionId": "commentisfree", "sectionName": "Opinion", "webPublicationDate": "2011-11-30T11:44:20Z", "webTitle": "A public misunderstanding over infrastructure funding | Stephen Glaister", "webUrl": "https://www.theguardian.com/commentisfree/2011/nov/30/public-misunderstanding-infrastructure-funding", "apiUrl": "https://content.guardianapis.com/commentisfree/2011/nov/30/public-misunderstanding-infrastructure-funding", "isHosted": false, "pillarId": "pillar/opinion", "pillarName": "Opinion"}, {"id": "politics/2011/nov/30/spending-cuts-bind-coalition-partners", "type": "article", "sectionId": "politics", "sectionName": "Politics", "webPublicationDate": "2011-11-30T11:20:55Z", "webTitle": "Spending cuts bind coalition partners beyond next election | Patrick Wintour", "webUrl": "https://www.theguardian.com/politics/2011/nov/30/spending-cuts-bind-coalition-partners", "apiUrl": "https://content.guardianapis.com/politics/2011/nov/30/spending-cuts-bind-coalition-partners", "isHosted": false, "pillarId": "pillar/news", "pillarName": "News"}, {"id": "commentisfree/2011/nov/30/end-of-growth", "type": "article", "sectionId": "commentisfree", "sectionName": "Opinion", "webPublicationDate": "2011-11-30T11:14:35Z", "webTitle": "Life after the end of economic growth | Richard Heinberg", "webUrl": "https://www.theguardian.com/commentisfree/2011/nov/30/end-of-growth", "apiUrl": "https://content.guardianapis.com/commentisfree/2011/nov/30/end-of-growth", "isHosted": false, "pillarId": "pillar/opinion", "pillarName": "Opinion"}, {"id": "society/joepublic/2011/nov/30/mental-health-discrimination-campaign", "type": "article", "sectionId": "society", "sectionName": "Society", "webPublicationDate": "2011-11-30T10:59:01Z", "webTitle": "Mental health discrimination is coming from the top, not the public", "webUrl": "https://www.theguardian.com/society/joepublic/2011/nov/30/mental-health-discrimination-campaign", "apiUrl": "https://content.guardianapis.com/society/joepublic/2011/nov/30/mental-health-discrimination-campaign", "isHosted": false, "pillarId": "pillar/news", "pillarName": "News"}]}}