{"response": {"status": "ok", "userTier": "developer", "total": 31311, "startIndex": 1, "pageSize": 50, "currentPage": 1, "pages": 627, "orderBy": "newest", "results": [{"id": "news/2011/nov/30/weatherwatch-freeze-winter-snow", "type": "article", "sectionId": "news", "sectionName": "News", "webPublicationDate": "2011-11-30T22:30:01Z", "webTitle": "Weatherwatch: Enjoying the most intense freezing frost of all", "webUrl": "https://www.theguardian.com/news/2011/nov/30/weatherwatch-freeze-winter-snow", "apiUrl": "https://content.guardianapis.com/news/2011/nov/30/weatherwatch-freeze-winter-snow", "isHosted": false, "pillarId": "pillar/news", "pillarName": "News"}, {"id": "environment/2011/nov/30/country-diary-inverness", "type": "article", "sectionId": "environment", "sectionName": "Environment", "webPublicationDate": "2011-11-30T21:00:00Z", "webTitle": "Country diary: Inverness", "webUrl": "https://www.theguardian.com/environment/2011/nov/30/country-diary-inverness", "apiUrl": "https://content.guardianapis.com/environment/2011/nov/30/country-diary-inverness", "isHosted": false, "pillarId": "pillar/news", "pillarName": "News"}, {"id": "environment/2011/nov/30/barack-obama-us-stance-climate-summit", "type": "article", "sectionId": "environment", "sectionName": "Environment", "webPublicationDate": "2011-11-30T20:11:23Z", "webTitle": "Barack Obama urged to change US stance at UN climate summit", "webUrl": "https://www.theguardian.com/environment/2011/nov/30/barack-obama-us-stance-climate-summit", "apiUrl": "https://content.guardianapis.com/environment/2011/nov/30/barack-obama-us-stance-climate-summit", "isHosted": false, "pillarId": "pillar/news", "pillarName": "News"}, {"id": "politics/2011/nov/30/green-policies-blue-rinse-allegra-stratton", "type": "article", "sectionId": "environment", "sectionName": "Environment", "webPublicationDate": "2011-11-30T19:20:46Z", "webTitle": "Inside politics - Green policies get the blue rinse", "webUrl": "https://www.theguardian.com/politics/2011/nov/30/green-policies-blue-rinse-allegra-stratton", "apiUrl": "https://content.guardianapis.com/politics/2011/nov/30/green-policies-blue-rinse-allegra-stratton", "isHosted": false, "pillarId": "pillar/news", "pillarName": "News"}, {"id": "environment/2011/nov/30/ge-hitachi-nuclear-reactor-plutonium", "type": "article", "sectionId": "environment", "sectionName": "Environment", "webPublicationDate": "2011-11-30T17:41:11Z", "webTitle": "GE and Hitachi plan new reactor to burn UK plutonium stockpile", "webUrl": "https://www.theguardian.com/environment/2011/nov/30/ge-hitachi-nuclear-reactor-plutonium", "apiUrl": "https://content.guardianapis.com/environment/2011/nov/30/ge-hitachi-nuclear-reactor-plutonium", "isHosted": false, "pillarId": "pillar/news", "pillarName": "News"}, {"id": "environment/2011/nov/30/turtle-doves-wild-birds-britain", "type": "article", "sectionId": "environment", "sectionName": "Environment", "webPublicationDate": "2011-11-30T17:23:27Z", "webTitle": "Turtle doves and partridges among wild birds in steep decline in Britain", "webUrl": "https://www.theguardian.com/environment/2011/nov/30/turtle-doves-wild-birds-britain", "apiUrl": "https://content.guardianapis.com/environment/2011/nov/30/turtle-doves-wild-birds-britain", "isHosted": false, "pillarId": "pillar/news", "pillarName": "News"}, {"id": "environment/2011/nov/30/berlin-hunt-wild-boar", "type": "article", "sectionId": "environment", "sectionName": "Environment", "webPublicationDate": "2011-11-30T16:58:16Z", "webTitle": "Berlin plans hunt of wild boar invaders", "webUrl": "https://www.theguardian.com/environment/2011/nov/30/berlin-hunt-wild-boar", "apiUrl": "https://content.guardianapis.com/environment/2011/nov/30/berlin-hunt-wild-boar", "isHosted": false, "pillarId": "pillar/news", "pillarName": "News"}, {"id": "business/2011/nov/30/cairn-dry-oil-wells-greenland", "type": "article", "sectionId": "business", "sectionName": "Business", "webPublicationDate": "2011-11-30T16:24:32Z", "webTitle": "Cairn finds no oil in Greenland", "webUrl": "https://www.theguardian.com/business/2011/nov/30/cairn-dry-oil-wells-greenland", "apiUrl": "https://content.guardianapis.com/business/2011/nov/30/cairn-dry-oil-wells-greenland", "isHosted": false, "pillarId": "pillar/news", "pillarName": "News"}, {"id": "environment/2011/nov/30/coal-banks", "type": "article", "sectionId": "environment", "sectionName": "Environment", "webPublicationDate": "2011-11-30T16:14:55Z", "webTitle": "Coal study names top 20 'climate killer' banks", "webUrl": "https://www.theguardian.com/environment/2011/nov/30/coal-banks", "apiUrl": "https://content.guardianapis.com/environment/2011/nov/30/coal-banks", "isHosted": false, "pillarId": "pillar/news", "pillarName": "News"}, {"id": "environment/damian-carrington-blog/2011/nov/30/oil-sands-tar-canada-uk-fuel", "type": "article", "sectionId": "environment", "sectionName": "Environment", "webPublicationDate": "2011-11-30T15:46:00Z", "webTitle": "Minister tries to defend UK secret tar sands help for Canada - and fails | Damian Carrington", "webUrl": "https://www.theguardian.com/environment/damian-carrington-blog/2011/nov/30/oil-sands-tar-canada-uk-fuel", "apiUrl": "https://content.guardianapis.com/environment/damian-carrington-blog/2011/nov/30/oil-sands-tar-canada-uk-fuel", "isHosted": false, "pillarId": "pillar/news", "pillarName": "News"}, {"id": "environment/2011/nov/30/1", "type": "article", "sectionId": "environment", "sectionName": "Environment", "webPublicationDate": "2011-11-30T14:46:44Z", "webTitle": "Green news roundup: Durban, autumn statement and decoding whale song", "webUrl": "https://www.theguardian.com/environment/2011/nov/30/1", "apiUrl": "https://content.guardianapis.com/environment/2011/nov/30/1", "isHosted": false, "pillarId": "pillar/news", "pillarName": "News"}, {"id": "commentisfree/cifamerica/2011/nov/30/new-york-hydrofracking-hearings-mark-ruffalo", "type": "article", "sectionId": "environment", "sectionName": "Environment", "webPublicationDate": "2011-11-30T14:32:00Z", "webTitle": "Mark Ruffalo: Who will be heard in New York's hydrofracking hearings?", "webUrl": "https://www.theguardian.com/commentisfree/cifamerica/2011/nov/30/new-york-hydrofracking-hearings-mark-ruffalo", "apiUrl": "https://content.guardianapis.com/commentisfree/cifamerica/2011/nov/30/new-york-hydrofracking-hearings-mark-ruffalo", "isHosted": false, "pillarId": "pillar/news", "pillarName": "News"}, {"id": "environment/2011/nov/30/carbon-capture-plant-uk-yorkshire", "type": "article", "sectionId": "environment", "sectionName": "Environment", "webPublicationDate": "2011-11-30T14:15:14Z", "webTitle": "Largest carbon capture plant in UK opens in Yorkshire", "webUrl": "https://www.theguardian.com/environment/2011/nov/30/carbon-capture-plant-uk-yorkshire", "apiUrl": "https://content.guardianapis.com/environment/2011/nov/30/carbon-capture-plant-uk-yorkshire", "isHosted": false, "pillarId": "pillar/news", "pillarName": "News"}, {"id": "environment/2011/nov/30/europe-hardline-un-climate-talks", "type": "article", "sectionId": "environment", "sectionName": "Environment", "webPublicationDate": "2011-11-30T13:49:19Z", "webTitle": "EU takes hardline stance at UN climate talks", "webUrl": "https://www.theguardian.com/environment/2011/nov/30/europe-hardline-un-climate-talks", "apiUrl": "https://content.guardianapis.com/environment/2011/nov/30/europe-hardline-un-climate-talks", "isHosted": false, "pillarId": "pillar/news", "pillarName": "News"}, {"id": "environment/2011/nov/30/alaskan-legal-bid-globla-warming", "type": "article", "sectionId": "environment", "sectionName": "Environment", "webPublicationDate": "2011-11-30T12:36:16Z", "webTitle": "Alaskan community revives legal bid for global warming damages", "webUrl": "https://www.theguardian.com/environment/2011/nov/30/alaskan-legal-bid-globla-warming", "apiUrl": "https://content.guardianapis.com/environment/2011/nov/30/alaskan-legal-bid-globla-warming", "isHosted": false, "pillarId": "pillar/news", "pillarName": "News"}, {"id": "business/2011/nov/30/cairn-fails-oil-greenland", "type": "article", "sectionId": "business", "sectionName": "Business", "webPublicationDate": "2011-11-30T12:16:57Z", "webTitle": "Cairn fails to strike oil off Greenland", "webUrl": "https://www.theguardian.com/business/2011/nov/30/cairn-fails-oil-greenland", "apiUrl": "https://content.guardianapis.com/business/2011/nov/30/cairn-fails-oil-greenland", "isHosted": false, "pillarId": "pillar/news", "pillarName": "News"}, {"id": "environment/2011/nov/30/peruvian-amazon-carbon-piracy", "type": "article", "sectionId": "environment", "sectionName": "Environment", "webPublicationDate": "2011-11-30T11:46:04Z", "webTitle": "Peruvian Amazon could become global centre of 'carbon piracy': report", "webUrl": "https://www.theguardian.com/environment/2011/nov/30/peruvian-amazon-carbon-piracy", "apiUrl": "https://content.guardianapis.com/environment/2011/nov/30/peruvian-amazon-carbon-piracy", "isHosted": false, "pillarId": "pillar/news", "pillarName": "News"}, {"id": "global-development/poverty-matters/2011/nov/30/congo-forests-depend-on-durban", "type": "article", "sectionId": "global-development", "sectionName": "Global development", "webPublicationDate": "2011-11-30T07:00:01Z", "webTitle": "Congo's forests depend on Durban | Fran\u00e7ois Biloko", "webUrl": "https://www.theguardian.com/global-development/poverty-matters/2011/nov/30/congo-forests-depend-on-durban", "apiUrl": "https://content.guardianapis.com/global-development/poverty-matters/2011/nov/30/congo-forests-depend-on-durban", "isHosted": false, "pillarId": "pillar/news", "pillarName": "News"}, {"id": "environment/2011/nov/29/tar-sands-canada-environmental-warning", "type": "article", "sectionId": "environment", "sectionName": "Environment", "webPublicationDate": "2011-11-29T22:56:58Z", "webTitle": "Canadian tar sands project carries huge risks, warn environmental activists", "webUrl": "https://www.theguardian.com/environment/2011/nov/29/tar-sands-canada-environmental-warning", "apiUrl": "https://content.guardianapis.com/environment/2011/nov/29/tar-sands-canada-environmental-warning", "isHosted": false, "pillarId": "pillar/news", "pillarName": "News"}, {"id": "environment/2011/nov/29/tar-sands-needs-closer-examination", "type": "article", "sectionId": "environment", "sectionName": "Environment", "webPublicationDate": "2011-11-29T21:00:03Z", "webTitle": "Letters: Tar sands issue needs closer examination", "webUrl": "https://www.theguardian.com/environment/2011/nov/29/tar-sands-needs-closer-examination", "apiUrl": "https://content.guardianapis.com/environment/2011/nov/29/tar-sands-needs-closer-examination", "isHosted": false, "pillarId": "pillar/news", "pillarName": "News"}, {"id": "environment/the-northerner/2011/nov/29/country-diary-wenlock-edge", "type": "article", "sectionId": "environment", "sectionName": "Environment", "webPublicationDate": "2011-11-29T20:59:01Z", "webTitle": "Country diary: Wenlock Edge", "webUrl": "https://www.theguardian.com/environment/the-northerner/2011/nov/29/country-diary-wenlock-edge", "apiUrl": "https://content.guardianapis.com/environment/the-northerner/2011/nov/29/country-diary-wenlock-edge", "isHosted": false, "pillarId": "pillar/news", "pillarName": "News"}, {"id": "environment/2011/nov/29/kyoto-protocol-life-support-durban-summit", "type": "article", "sectionId": "environment", "sectionName": "Environment", "webPublicationDate": "2011-11-29T20:25:48Z", "webTitle": "Kyoto protocol 'will be on life support' after Durban summit", "webUrl": "https://www.theguardian.com/environment/2011/nov/29/kyoto-protocol-life-support-durban-summit", "apiUrl": "https://content.guardianapis.com/environment/2011/nov/29/kyoto-protocol-life-support-durban-summit", "isHosted": false, "pillarId": "pillar/news", "pillarName": "News"}, {"id": "business/2011/nov/29/george-osborne-climbdown-on-private-jet-tax", "type": "article", "sectionId": "business", "sectionName": "Business", "webPublicationDate": "2011-11-29T19:50:38Z", "webTitle": "George Osborne's climbdown on 'Learjet tax' angers British airlines", "webUrl": "https://www.theguardian.com/business/2011/nov/29/george-osborne-climbdown-on-private-jet-tax", "apiUrl": "https://content.guardianapis.com/business/2011/nov/29/george-osborne-climbdown-on-private-jet-tax", "isHosted": false, "pillarId": "pillar/news", "pillarName": "News"}, {"id": "science/2011/nov/29/george-osborne-science-autumn-statement", "type": "article", "sectionId": "science", "sectionName": "Science", "webPublicationDate": "2011-11-29T19:30:13Z", "webTitle": "George Osborne pumps extra \u00a3200m into science in autumn statement", "webUrl": "https://www.theguardian.com/science/2011/nov/29/george-osborne-science-autumn-statement", "apiUrl": "https://content.guardianapis.com/science/2011/nov/29/george-osborne-science-autumn-statement", "isHosted": false, "pillarId": "pillar/news", "pillarName": "News"}, {"id": "uk/2011/nov/29/autumn-statement-george-osborne-green-policies", "type": "article", "sectionId": "uk-news", "sectionName": "UK news", "webPublicationDate": "2011-11-29T17:44:15Z", "webTitle": "Autumn statement: George Osborne slams 'costly' green policies", "webUrl": "https://www.theguardian.com/uk/2011/nov/29/autumn-statement-george-osborne-green-policies", "apiUrl": "https://content.guardianapis.com/uk/2011/nov/29/autumn-statement-george-osborne-green-policies", "isHosted": false, "pillarId": "pillar/news", "pillarName": "News"}, {"id": "uk/the-northerner/2011/nov/29/renewableenergy-localgovernment", "type": "article", "sectionId": "uk-news", "sectionName": "UK news", "webPublicationDate": "2011-11-29T17:38:32Z", "webTitle": "Humber estuary gets second enterprise zone to target renewable energy firms", "webUrl": "https://www.theguardian.com/uk/the-northerner/2011/nov/29/renewableenergy-localgovernment", "apiUrl": "https://content.guardianapis.com/uk/the-northerner/2011/nov/29/renewableenergy-localgovernment", "isHosted": false, "pillarId": "pillar/news", "pillarName": "News"}, {"id": "environment/2011/nov/29/scientists-public-whale-song", "type": "article", "sectionId": "environment", "sectionName": "Environment", "webPublicationDate": "2011-11-29T16:56:02Z", "webTitle": "Scientists ask public to help decode whale song", "webUrl": "https://www.theguardian.com/environment/2011/nov/29/scientists-public-whale-song", "apiUrl": "https://content.guardianapis.com/environment/2011/nov/29/scientists-public-whale-song", "isHosted": false, "pillarId": "pillar/news", "pillarName": "News"}, {"id": "environment/damian-carrington-blog/2011/nov/29/green-autumn-statement-osborne-economy-environment", "type": "article", "sectionId": "environment", "sectionName": "Environment", "webPublicationDate": "2011-11-29T16:40:00Z", "webTitle": "George Osborne's false economy is the death of 'greenest government ever' | Damian Carrington", "webUrl": "https://www.theguardian.com/environment/damian-carrington-blog/2011/nov/29/green-autumn-statement-osborne-economy-environment", "apiUrl": "https://content.guardianapis.com/environment/damian-carrington-blog/2011/nov/29/green-autumn-statement-osborne-economy-environment", "isHosted": false, "pillarId": "pillar/news", "pillarName": "News"}, {"id": "environment/blog/2011/nov/29/kyoto-protocol-julius-caesar-durban", "type": "article", "sectionId": "environment", "sectionName": "Environment", "webPublicationDate": "2011-11-29T15:28:32Z", "webTitle": "Kyoto protocol may suffer fate of Julius Caesar at Durban climate talks | John Vidal", "webUrl": "https://www.theguardian.com/environment/blog/2011/nov/29/kyoto-protocol-julius-caesar-durban", "apiUrl": "https://content.guardianapis.com/environment/blog/2011/nov/29/kyoto-protocol-julius-caesar-durban", "isHosted": false, "pillarId": "pillar/news", "pillarName": "News"}, {"id": "uk/2011/nov/29/autumn-statement-2011-environment-issues", "type": "article", "sectionId": "uk-news", "sectionName": "UK news", "webPublicationDate": "2011-11-29T14:37:18Z", "webTitle": "Autumn statement 2011: environmental issues at a glance", "webUrl": "https://www.theguardian.com/uk/2011/nov/29/autumn-statement-2011-environment-issues", "apiUrl": "https://content.guardianapis.com/uk/2011/nov/29/autumn-statement-2011-environment-issues", "isHosted": false, "pillarId": "pillar/news", "pillarName": "News"}, {"id": "environment/2011/nov/29/european-commission-nuclear-safety-report", "type": "article", "sectionId": "environment", "sectionName": "Environment", "webPublicationDate": "2011-11-29T13:59:00Z", "webTitle": "Brussels report on nuclear power finds no common safety standards", "webUrl": "https://www.theguardian.com/environment/2011/nov/29/european-commission-nuclear-safety-report", "apiUrl": "https://content.guardianapis.com/environment/2011/nov/29/european-commission-nuclear-safety-report", "isHosted": false, "pillarId": "pillar/news", "pillarName": "News"}, {"id": "world/2011/nov/29/fukushima-daiichi-operator-tsunami-warning", "type": "article", "sectionId": "world", "sectionName": "World news", "webPublicationDate": "2011-11-29T13:48:30Z", "webTitle": "Fukushima Daiichi nuclear power plant operator 'ignored tsunami warning'", "webUrl": "https://www.theguardian.com/world/2011/nov/29/fukushima-daiichi-operator-tsunami-warning", "apiUrl": "https://content.guardianapis.com/world/2011/nov/29/fukushima-daiichi-operator-tsunami-warning", "isHosted": false, "pillarId": "pillar/news", "pillarName": "News"}, {"id": "environment/2011/nov/29/secret-message-hacked-climate-science-emails", "type": "article", "sectionId": "environment", "sectionName": "Environment", "webPublicationDate": "2011-11-29T13:10:19Z", "webTitle": "Secret message hidden among fresh climate email files", "webUrl": "https://www.theguardian.com/environment/2011/nov/29/secret-message-hacked-climate-science-emails", "apiUrl": "https://content.guardianapis.com/environment/2011/nov/29/secret-message-hacked-climate-science-emails", "isHosted": false, "pillarId": "pillar/news", "pillarName": "News"}, {"id": "environment/2011/nov/29/mongolia-bogd-khan-nature-reserve", "type": "article", "sectionId": "environment", "sectionName": "Environment", "webPublicationDate": "2011-11-29T12:08:37Z", "webTitle": "Hopes for a breakthrough in plans to protect world's oldest nature reserve", "webUrl": "https://www.theguardian.com/environment/2011/nov/29/mongolia-bogd-khan-nature-reserve", "apiUrl": "https://content.guardianapis.com/environment/2011/nov/29/mongolia-bogd-khan-nature-reserve", "isHosted": false, "pillarId": "pillar/news", "pillarName": "News"}, {"id": "uk/the-northerner/2011/nov/29/first-electric-car-pod-manchester-electric-car-company-oldham-council", "type": "article", "sectionId": "uk-news", "sectionName": "UK news", "webPublicationDate": "2011-11-29T12:00:00Z", "webTitle": "Oldham looks likely to have the UK's first electric car showrooms", "webUrl": "https://www.theguardian.com/uk/the-northerner/2011/nov/29/first-electric-car-pod-manchester-electric-car-company-oldham-council", "apiUrl": "https://content.guardianapis.com/uk/the-northerner/2011/nov/29/first-electric-car-pod-manchester-electric-car-company-oldham-council", "isHosted": false, "pillarId": "pillar/news", "pillarName": "News"}, {"id": "politics/davehillblog/2011/nov/29/down-chemicals-olympic-stadium-london-politcians", "type": "article", "sectionId": "politics", "sectionName": "Politics", "webPublicationDate": "2011-11-29T10:12:00Z", "webTitle": "London politicians in battle formations over Dow stadium wrap controversy", "webUrl": "https://www.theguardian.com/politics/davehillblog/2011/nov/29/down-chemicals-olympic-stadium-london-politcians", "apiUrl": "https://content.guardianapis.com/politics/davehillblog/2011/nov/29/down-chemicals-olympic-stadium-london-politcians", "isHosted": false, "pillarId": "pillar/news", "pillarName": "News"}, {"id": "environment/blog/2011/nov/28/report-obama-broken-environmental-promises", "type": "article", "sectionId": "environment", "sectionName": "Environment", "webPublicationDate": "2011-11-28T22:37:00Z", "webTitle": "Report highlights Obama's broken environmental promises", "webUrl": "https://www.theguardian.com/environment/blog/2011/nov/28/report-obama-broken-environmental-promises", "apiUrl": "https://content.guardianapis.com/environment/blog/2011/nov/28/report-obama-broken-environmental-promises", "isHosted": false, "pillarId": "pillar/news", "pillarName": "News"}, {"id": "commentisfree/2011/nov/28/durban-climate-change-deniers-copenhagen", "type": "article", "sectionId": "commentisfree", "sectionName": "Opinion", "webPublicationDate": "2011-11-28T22:00:01Z", "webTitle": "Durban and the climate change deniers | Praful Bidwai", "webUrl": "https://www.theguardian.com/commentisfree/2011/nov/28/durban-climate-change-deniers-copenhagen", "apiUrl": "https://content.guardianapis.com/commentisfree/2011/nov/28/durban-climate-change-deniers-copenhagen", "isHosted": false, "pillarId": "pillar/opinion", "pillarName": "Opinion"}, {"id": "environment/2011/nov/28/country-diary-south-somerset-villages", "type": "article", "sectionId": "environment", "sectionName": "Environment", "webPublicationDate": "2011-11-28T20:59:01Z", "webTitle": "Country diary: South Somerset villages", "webUrl": "https://www.theguardian.com/environment/2011/nov/28/country-diary-south-somerset-villages", "apiUrl": "https://content.guardianapis.com/environment/2011/nov/28/country-diary-south-somerset-villages", "isHosted": false, "pillarId": "pillar/news", "pillarName": "News"}, {"id": "education/2011/nov/28/national-tree-week-teaching-resources", "type": "article", "sectionId": "teacher-network", "sectionName": "Teacher Network", "webPublicationDate": "2011-11-28T20:30:00Z", "webTitle": "How to teach \u2026 National Tree Week", "webUrl": "https://www.theguardian.com/education/2011/nov/28/national-tree-week-teaching-resources", "apiUrl": "https://content.guardianapis.com/education/2011/nov/28/national-tree-week-teaching-resources", "isHosted": false, "pillarId": "pillar/news", "pillarName": "News"}, {"id": "commentisfree/2011/nov/28/utilities-aristocrats-eu-agricultural-policy", "type": "article", "sectionId": "commentisfree", "sectionName": "Opinion", "webPublicationDate": "2011-11-28T20:30:00Z", "webTitle": "We're all paying for Europe's gift to our aristocrats and utility companies | George Monbiot", "webUrl": "https://www.theguardian.com/commentisfree/2011/nov/28/utilities-aristocrats-eu-agricultural-policy", "apiUrl": "https://content.guardianapis.com/commentisfree/2011/nov/28/utilities-aristocrats-eu-agricultural-policy", "isHosted": false, "pillarId": "pillar/opinion", "pillarName": "Opinion"}, {"id": "uk/2011/nov/28/prince-charles-duchy-of-cornwall-court", "type": "article", "sectionId": "uk-news", "sectionName": "UK news", "webPublicationDate": "2011-11-28T19:52:57Z", "webTitle": "Prince Charles to challenge ruling set to lift secrecy about his estate", "webUrl": "https://www.theguardian.com/uk/2011/nov/28/prince-charles-duchy-of-cornwall-court", "apiUrl": "https://content.guardianapis.com/uk/2011/nov/28/prince-charles-duchy-of-cornwall-court", "isHosted": false, "pillarId": "pillar/news", "pillarName": "News"}, {"id": "environment/gallery/2011/nov/28/anti-nuclear-protests-germany-in-pictures", "type": "gallery", "sectionId": "environment", "sectionName": "Environment", "webPublicationDate": "2011-11-28T17:10:49Z", "webTitle": "Anti-nuclear protests in Germany - in pictures", "webUrl": "https://www.theguardian.com/environment/gallery/2011/nov/28/anti-nuclear-protests-germany-in-pictures", "apiUrl": "https://content.guardianapis.com/environment/gallery/2011/nov/28/anti-nuclear-protests-germany-in-pictures", "isHosted": false, "pillarId": "pillar/news", "pillarName": "News"}, {"id": "global-development/poverty-matters/2011/nov/28/rural-peru-gets-internet-access", "type": "article", "sectionId": "global-development", "sectionName": "Global development", "webPublicationDate": "2011-11-28T17:02:43Z", "webTitle": "Rural Peru gets connected | Mattia Cabitza", "webUrl": "https://www.theguardian.com/global-development/poverty-matters/2011/nov/28/rural-peru-gets-internet-access", "apiUrl": "https://content.guardianapis.com/global-development/poverty-matters/2011/nov/28/rural-peru-gets-internet-access", "isHosted": false, "pillarId": "pillar/news", "pillarName": "News"}, {"id": "global-development/gallery/2011/nov/28/durban-caravan-of-hope-in-pictures", "type": "gallery", "sectionId": "global-development", "sectionName": "Global development", "webPublicationDate": "2011-11-28T16:46:55Z", "webTitle": "Caravan of Hope takes climate change message to Durban \u2013 in pictures", "webUrl": "https://www.theguardian.com/global-development/gallery/2011/nov/28/durban-caravan-of-hope-in-pictures", "apiUrl": "https://content.guardianapis.com/global-development/gallery/2011/nov/28/durban-caravan-of-hope-in-pictures", "isHosted": false, "pillarId": "pillar/news", "pillarName": "News"}, {"id": "environment/damian-carrington-blog/2011/nov/28/george-osborne-green-energy-economy-budget-report-industry", "type": "article", "sectionId": "environment", "sectionName": "Environment", "webPublicationDate": "2011-11-28T16:06:56Z", "webTitle": "From the 99% to the 1%: Osborne bails out the energy fat cats | Damian Carrington", "webUrl": "https://www.theguardian.com/environment/damian-carrington-blog/2011/nov/28/george-osborne-green-energy-economy-budget-report-industry", "apiUrl": "https://content.guardianapis.com/environment/damian-carrington-blog/2011/nov/28/george-osborne-green-energy-economy-budget-report-industry", "isHosted": false, "pillarId": "pillar/news", "pillarName": "News"}, {"id": "environment/2011/nov/28/deadlock-climate-change-negotiations", "type": "article", "sectionId": "environment", "sectionName": "Environment", "webPublicationDate": "2011-11-28T15:56:11Z", "webTitle": "How to break the deadlock in climate change negotiations | Kelly Rigg", "webUrl": "https://www.theguardian.com/environment/2011/nov/28/deadlock-climate-change-negotiations", "apiUrl": "https://content.guardianapis.com/environment/2011/nov/28/deadlock-climate-change-negotiations", "isHosted": false, "pillarId": "pillar/news", "pillarName": "News"}, {"id": "environment/2011/nov/28/durban-cop17-climate-talks", "type": "article", "sectionId": "environment", "sectionName": "Environment", "webPublicationDate": "2011-11-28T12:52:00Z", "webTitle": "Q&A: Durban COP17 climate talks", "webUrl": "https://www.theguardian.com/environment/2011/nov/28/durban-cop17-climate-talks", "apiUrl": "https://content.guardianapis.com/environment/2011/nov/28/durban-cop17-climate-talks", "isHosted": false, "pillarId": "pillar/news", "pillarName": "News"}, {"id": "global-development/audio/2011/nov/28/cop17-durban-developing-countries-podcast", "type": "audio", "sectionId": "global-development", "sectionName": "Global development", "webPublicationDate": "2011-11-28T12:48:00Z", "webTitle": "COP17: the issues at stake for developing countries - podcast", "webUrl": "https://www.theguardian.com/global-development/audio/2011/nov/28/cop17-durban-developing-countries-podcast", "apiUrl": "https://content.guardianapis.com/global-development/audio/2011/nov/28/cop17-durban-developing-countries-podcast", "isHosted": false, "pillarId": "pillar/news", "pillarName": "News"}, {"id": "environment/2011/nov/28/treasury-carbon-capture-funding-infrastructure", "type": "article", "sectionId": "environment", "sectionName": "Environment", "webPublicationDate": "2011-11-28T11:54:00Z", "webTitle": "Government moves to calm carbon capture funding fears", "webUrl": "https://www.theguardian.com/environment/2011/nov/28/treasury-carbon-capture-funding-infrastructure", "apiUrl": "https://content.guardianapis.com/environment/2011/nov/28/treasury-carbon-capture-funding-infrastructure", "isHosted": false, "pillarId": "pillar/news", "pillarName": "News"}]}}