{"response": {"status": "ok", "userTier": "developer", "total": 18149, "startIndex": 1, "pageSize": 50, "currentPage": 1, "pages": 363, "orderBy": "newest", "results": [{"id": "lifeandstyle/2012/nov/30/hugh-fearnley-whittingstall-easy-christmas-recipes", "type": "article", "sectionId": "lifeandstyle", "sectionName": "Life and style", "webPublicationDate": "2012-11-30T23:00:37Z", "webTitle": "Hugh Fearnley-Whittingstall's easy Christmas recipes", "webUrl": "https://www.theguardian.com/lifeandstyle/2012/nov/30/hugh-fearnley-whittingstall-easy-christmas-recipes", "apiUrl": "https://content.guardianapis.com/lifeandstyle/2012/nov/30/hugh-fearnley-whittingstall-easy-christmas-recipes", "isHosted": false, "pillarId": "pillar/lifestyle", "pillarName": "Lifestyle"}, {"id": "lifeandstyle/2012/nov/30/delia-smith-christmas-lunch-cheap", "type": "article", "sectionId": "lifeandstyle", "sectionName": "Life and style", "webPublicationDate": "2012-11-30T23:00:00Z", "webTitle": "Delia Smith's Christmas lunch for under \u00a35 a head", "webUrl": "https://www.theguardian.com/lifeandstyle/2012/nov/30/delia-smith-christmas-lunch-cheap", "apiUrl": "https://content.guardianapis.com/lifeandstyle/2012/nov/30/delia-smith-christmas-lunch-cheap", "isHosted": false, "pillarId": "pillar/lifestyle", "pillarName": "Lifestyle"}, {"id": "lifeandstyle/2012/nov/30/ask-a-grownup-jamie-oliver", "type": "article", "sectionId": "lifeandstyle", "sectionName": "Life and style", "webPublicationDate": "2012-11-30T22:59:30Z", "webTitle": "Ask a grown-up: why do beans make you fart?", "webUrl": "https://www.theguardian.com/lifeandstyle/2012/nov/30/ask-a-grownup-jamie-oliver", "apiUrl": "https://content.guardianapis.com/lifeandstyle/2012/nov/30/ask-a-grownup-jamie-oliver", "isHosted": false, "pillarId": "pillar/lifestyle", "pillarName": "Lifestyle"}, {"id": "travel/2012/nov/30/best-bars-world-boozers", "type": "article", "sectionId": "travel", "sectionName": "Travel", "webPublicationDate": "2012-11-30T22:45:00Z", "webTitle": "The best bars in the world", "webUrl": "https://www.theguardian.com/travel/2012/nov/30/best-bars-world-boozers", "apiUrl": "https://content.guardianapis.com/travel/2012/nov/30/best-bars-world-boozers", "isHosted": false, "pillarId": "pillar/lifestyle", "pillarName": "Lifestyle"}, {"id": "science/2012/nov/30/microwave-zaps-food-bugs-shelf-life", "type": "article", "sectionId": "science", "sectionName": "Science", "webPublicationDate": "2012-11-30T14:24:06Z", "webTitle": "Microwave technique keeps bread mould-free for 60 days, say scientists", "webUrl": "https://www.theguardian.com/science/2012/nov/30/microwave-zaps-food-bugs-shelf-life", "apiUrl": "https://content.guardianapis.com/science/2012/nov/30/microwave-zaps-food-bugs-shelf-life", "isHosted": false, "pillarId": "pillar/news", "pillarName": "News"}, {"id": "lifeandstyle/quiz/2012/nov/30/heston-blumenthal-fantastical-food-quiz", "type": "article", "sectionId": "global", "sectionName": "Global", "webPublicationDate": "2012-11-30T14:00:00Z", "webTitle": "Heston's food is getting weirder. Can you sniff out our fakes?", "webUrl": "https://www.theguardian.com/lifeandstyle/quiz/2012/nov/30/heston-blumenthal-fantastical-food-quiz", "apiUrl": "https://content.guardianapis.com/lifeandstyle/quiz/2012/nov/30/heston-blumenthal-fantastical-food-quiz", "isHosted": false}, {"id": "travel/2012/nov/30/worlds-best-pubs-bars-boozers", "type": "article", "sectionId": "travel", "sectionName": "Travel", "webPublicationDate": "2012-11-30T11:48:58Z", "webTitle": "The world's best pubs, bars and boozers: readers' travel tips", "webUrl": "https://www.theguardian.com/travel/2012/nov/30/worlds-best-pubs-bars-boozers", "apiUrl": "https://content.guardianapis.com/travel/2012/nov/30/worlds-best-pubs-bars-boozers", "isHosted": false, "pillarId": "pillar/lifestyle", "pillarName": "Lifestyle"}, {"id": "lifeandstyle/quiz/2011/sep/27/cheese-quiz", "type": "article", "sectionId": "global", "sectionName": "Global", "webPublicationDate": "2012-11-30T11:30:00Z", "webTitle": "Quiz: how well do you know cheese?", "webUrl": "https://www.theguardian.com/lifeandstyle/quiz/2011/sep/27/cheese-quiz", "apiUrl": "https://content.guardianapis.com/lifeandstyle/quiz/2011/sep/27/cheese-quiz", "isHosted": false}, {"id": "money/2012/nov/30/hello-fresh-gousto-which-better", "type": "article", "sectionId": "money", "sectionName": "Money", "webPublicationDate": "2012-11-30T08:50:01Z", "webTitle": "Hello Fresh and Gousto \u2013 which is better?", "webUrl": "https://www.theguardian.com/money/2012/nov/30/hello-fresh-gousto-which-better", "apiUrl": "https://content.guardianapis.com/money/2012/nov/30/hello-fresh-gousto-which-better", "isHosted": false, "pillarId": "pillar/lifestyle", "pillarName": "Lifestyle"}, {"id": "lifeandstyle/2012/nov/29/english-beef-cooking-and-flavour", "type": "article", "sectionId": "food", "sectionName": "Food", "webPublicationDate": "2012-11-29T16:00:00Z", "webTitle": "English beef: cooking and flavour", "webUrl": "https://www.theguardian.com/lifeandstyle/2012/nov/29/english-beef-cooking-and-flavour", "apiUrl": "https://content.guardianapis.com/lifeandstyle/2012/nov/29/english-beef-cooking-and-flavour", "isHosted": false, "pillarId": "pillar/lifestyle", "pillarName": "Lifestyle"}, {"id": "uk/the-northerner/2012/nov/29/lake-district-beer-belgium", "type": "article", "sectionId": "uk-news", "sectionName": "UK news", "webPublicationDate": "2012-11-29T15:00:00Z", "webTitle": "Cumbria takes its beers to tempt the mighty Belgians", "webUrl": "https://www.theguardian.com/uk/the-northerner/2012/nov/29/lake-district-beer-belgium", "apiUrl": "https://content.guardianapis.com/uk/the-northerner/2012/nov/29/lake-district-beer-belgium", "isHosted": false, "pillarId": "pillar/news", "pillarName": "News"}, {"id": "lifeandstyle/wordofmouth/2012/nov/29/how-choose-healthier-cheese", "type": "article", "sectionId": "food", "sectionName": "Food", "webPublicationDate": "2012-11-29T14:29:00Z", "webTitle": "How to choose a healthier cheese", "webUrl": "https://www.theguardian.com/lifeandstyle/wordofmouth/2012/nov/29/how-choose-healthier-cheese", "apiUrl": "https://content.guardianapis.com/lifeandstyle/wordofmouth/2012/nov/29/how-choose-healthier-cheese", "isHosted": false, "pillarId": "pillar/lifestyle", "pillarName": "Lifestyle"}, {"id": "social-enterprise-network/2012/nov/23/social-enterprise-live-debate-food", "type": "article", "sectionId": "sustainable-business", "sectionName": "Guardian Sustainable Business", "webPublicationDate": "2012-11-29T10:00:00Z", "webTitle": "Live debate: Social enterprise and food, 30 November 2012, 12-1pm", "webUrl": "https://www.theguardian.com/social-enterprise-network/2012/nov/23/social-enterprise-live-debate-food", "apiUrl": "https://content.guardianapis.com/social-enterprise-network/2012/nov/23/social-enterprise-live-debate-food", "isHosted": false}, {"id": "lifeandstyle/wordofmouth/2012/nov/29/how-make-perfect-chicken-liver-pate", "type": "article", "sectionId": "food", "sectionName": "Food", "webPublicationDate": "2012-11-29T00:10:00Z", "webTitle": "How to make perfect chicken liver p\u00e2t\u00e9", "webUrl": "https://www.theguardian.com/lifeandstyle/wordofmouth/2012/nov/29/how-make-perfect-chicken-liver-pate", "apiUrl": "https://content.guardianapis.com/lifeandstyle/wordofmouth/2012/nov/29/how-make-perfect-chicken-liver-pate", "isHosted": false, "pillarId": "pillar/lifestyle", "pillarName": "Lifestyle"}, {"id": "society/2012/nov/29/cheddar-cheese-more-salt-crisps", "type": "article", "sectionId": "society", "sectionName": "Society", "webPublicationDate": "2012-11-29T00:01:01Z", "webTitle": "Cheddar cheese can contain more salt than crisps, study reveals", "webUrl": "https://www.theguardian.com/society/2012/nov/29/cheddar-cheese-more-salt-crisps", "apiUrl": "https://content.guardianapis.com/society/2012/nov/29/cheddar-cheese-more-salt-crisps", "isHosted": false, "pillarId": "pillar/news", "pillarName": "News"}, {"id": "lifeandstyle/2012/nov/28/alvin-leung-hong-kongs-maverick-chef", "type": "article", "sectionId": "food", "sectionName": "Food", "webPublicationDate": "2012-11-28T19:30:00Z", "webTitle": "Alvin Leung: Hong Kong's Maverick Chef hits Britain", "webUrl": "https://www.theguardian.com/lifeandstyle/2012/nov/28/alvin-leung-hong-kongs-maverick-chef", "apiUrl": "https://content.guardianapis.com/lifeandstyle/2012/nov/28/alvin-leung-hong-kongs-maverick-chef", "isHosted": false, "pillarId": "pillar/lifestyle", "pillarName": "Lifestyle"}, {"id": "lifeandstyle/2012/nov/28/tagliatelle-pine-nuts-capers-kale", "type": "article", "sectionId": "lifeandstyle", "sectionName": "Life and style", "webPublicationDate": "2012-11-28T18:00:44Z", "webTitle": "Angela Hartnett's tagliatelle with pine nuts, capers and kale recipe", "webUrl": "https://www.theguardian.com/lifeandstyle/2012/nov/28/tagliatelle-pine-nuts-capers-kale", "apiUrl": "https://content.guardianapis.com/lifeandstyle/2012/nov/28/tagliatelle-pine-nuts-capers-kale", "isHosted": false, "pillarId": "pillar/lifestyle", "pillarName": "Lifestyle"}, {"id": "world/2012/nov/28/french-maitre-d-association-recruitment", "type": "article", "sectionId": "world", "sectionName": "World news", "webPublicationDate": "2012-11-28T17:31:59Z", "webTitle": "Waiting on a star: French ma\u00eetre d's want to show chefs who's boss", "webUrl": "https://www.theguardian.com/world/2012/nov/28/french-maitre-d-association-recruitment", "apiUrl": "https://content.guardianapis.com/world/2012/nov/28/french-maitre-d-association-recruitment", "isHosted": false, "pillarId": "pillar/news", "pillarName": "News"}, {"id": "lifeandstyle/2012/nov/28/taste-test-edible-advent-calendars", "type": "article", "sectionId": "lifeandstyle", "sectionName": "Life and style", "webPublicationDate": "2012-11-28T13:00:00Z", "webTitle": "Taste test: edible advent calendars", "webUrl": "https://www.theguardian.com/lifeandstyle/2012/nov/28/taste-test-edible-advent-calendars", "apiUrl": "https://content.guardianapis.com/lifeandstyle/2012/nov/28/taste-test-edible-advent-calendars", "isHosted": false, "pillarId": "pillar/lifestyle", "pillarName": "Lifestyle"}, {"id": "lifeandstyle/2012/nov/28/best-christmas-recipes-2012", "type": "article", "sectionId": "lifeandstyle", "sectionName": "Life and style", "webPublicationDate": "2012-11-28T11:20:00Z", "webTitle": "The best Christmas recipes 2012", "webUrl": "https://www.theguardian.com/lifeandstyle/2012/nov/28/best-christmas-recipes-2012", "apiUrl": "https://content.guardianapis.com/lifeandstyle/2012/nov/28/best-christmas-recipes-2012", "isHosted": false, "pillarId": "pillar/lifestyle", "pillarName": "Lifestyle"}, {"id": "lifeandstyle/wordofmouth/2012/nov/28/street-food-traders-in-winter", "type": "article", "sectionId": "lifeandstyle", "sectionName": "Life and style", "webPublicationDate": "2012-11-28T10:00:00Z", "webTitle": "An all-weather pitch: street food in winter", "webUrl": "https://www.theguardian.com/lifeandstyle/wordofmouth/2012/nov/28/street-food-traders-in-winter", "apiUrl": "https://content.guardianapis.com/lifeandstyle/wordofmouth/2012/nov/28/street-food-traders-in-winter", "isHosted": false, "pillarId": "pillar/lifestyle", "pillarName": "Lifestyle"}, {"id": "travel/2012/nov/28/seoul-south-korea-food-guide-dishes", "type": "article", "sectionId": "travel", "sectionName": "Travel", "webPublicationDate": "2012-11-28T09:24:00Z", "webTitle": "Seoul food: a guide to the top 10 dishes and where to try them", "webUrl": "https://www.theguardian.com/travel/2012/nov/28/seoul-south-korea-food-guide-dishes", "apiUrl": "https://content.guardianapis.com/travel/2012/nov/28/seoul-south-korea-food-guide-dishes", "isHosted": false, "pillarId": "pillar/lifestyle", "pillarName": "Lifestyle"}, {"id": "money/2012/nov/27/tax-avoidance-fairtax-label-reward", "type": "article", "sectionId": "money", "sectionName": "Money", "webPublicationDate": "2012-11-27T15:09:04Z", "webTitle": "Tax avoidance: time for a FairTax logo to reward the good guys | Michael White", "webUrl": "https://www.theguardian.com/money/2012/nov/27/tax-avoidance-fairtax-label-reward", "apiUrl": "https://content.guardianapis.com/money/2012/nov/27/tax-avoidance-fairtax-label-reward", "isHosted": false, "pillarId": "pillar/lifestyle", "pillarName": "Lifestyle"}, {"id": "environment/2012/nov/27/christmas-shoppers-winter-vegetable-shortages", "type": "article", "sectionId": "environment", "sectionName": "Environment", "webPublicationDate": "2012-11-27T15:05:01Z", "webTitle": "Christmas shoppers told to expect potato and sprouts shortages", "webUrl": "https://www.theguardian.com/environment/2012/nov/27/christmas-shoppers-winter-vegetable-shortages", "apiUrl": "https://content.guardianapis.com/environment/2012/nov/27/christmas-shoppers-winter-vegetable-shortages", "isHosted": false, "pillarId": "pillar/news", "pillarName": "News"}, {"id": "uk/the-northerner/2012/nov/27/food-food-and-drink-leeds-horticulture-gardening-cities-urban-life", "type": "article", "sectionId": "uk-news", "sectionName": "UK news", "webPublicationDate": "2012-11-27T10:00:00Z", "webTitle": "There was a young lady of Leeds...", "webUrl": "https://www.theguardian.com/uk/the-northerner/2012/nov/27/food-food-and-drink-leeds-horticulture-gardening-cities-urban-life", "apiUrl": "https://content.guardianapis.com/uk/the-northerner/2012/nov/27/food-food-and-drink-leeds-horticulture-gardening-cities-urban-life", "isHosted": false, "pillarId": "pillar/news", "pillarName": "News"}, {"id": "lifeandstyle/2012/nov/27/bruno-loubet-chia-chocolate-cake-caramel-recipe", "type": "article", "sectionId": "food", "sectionName": "Food", "webPublicationDate": "2012-11-27T07:00:00Z", "webTitle": "Bruno Loubet's chia chocolate cake with orange and caramel sauce recipe", "webUrl": "https://www.theguardian.com/lifeandstyle/2012/nov/27/bruno-loubet-chia-chocolate-cake-caramel-recipe", "apiUrl": "https://content.guardianapis.com/lifeandstyle/2012/nov/27/bruno-loubet-chia-chocolate-cake-caramel-recipe", "isHosted": false, "pillarId": "pillar/lifestyle", "pillarName": "Lifestyle"}, {"id": "lifeandstyle/video/2012/nov/27/bruno-loubet-christmas-wine-video", "type": "video", "sectionId": "food", "sectionName": "Food", "webPublicationDate": "2012-11-27T07:00:00Z", "webTitle": "Bruno Loubet's Christmas recipes with suggested wines - video", "webUrl": "https://www.theguardian.com/lifeandstyle/video/2012/nov/27/bruno-loubet-christmas-wine-video", "apiUrl": "https://content.guardianapis.com/lifeandstyle/video/2012/nov/27/bruno-loubet-christmas-wine-video", "isHosted": false, "pillarId": "pillar/lifestyle", "pillarName": "Lifestyle"}, {"id": "lifeandstyle/2012/nov/27/bruno-loubet-roast-partridge-with-all-the-trimmings-recipe", "type": "article", "sectionId": "lifeandstyle", "sectionName": "Life and style", "webPublicationDate": "2012-11-27T07:00:00Z", "webTitle": "Bruno Loubet's roast partridge with all the trimmings recipe", "webUrl": "https://www.theguardian.com/lifeandstyle/2012/nov/27/bruno-loubet-roast-partridge-with-all-the-trimmings-recipe", "apiUrl": "https://content.guardianapis.com/lifeandstyle/2012/nov/27/bruno-loubet-roast-partridge-with-all-the-trimmings-recipe", "isHosted": false, "pillarId": "pillar/lifestyle", "pillarName": "Lifestyle"}, {"id": "lifeandstyle/2012/nov/27/bruno-loubet-salmon-beetroot-horseradish-recipe", "type": "article", "sectionId": "lifeandstyle", "sectionName": "Life and style", "webPublicationDate": "2012-11-27T07:00:00Z", "webTitle": "Bruno Loubet's cured salmon with beetroot and horseradish snow recipe", "webUrl": "https://www.theguardian.com/lifeandstyle/2012/nov/27/bruno-loubet-salmon-beetroot-horseradish-recipe", "apiUrl": "https://content.guardianapis.com/lifeandstyle/2012/nov/27/bruno-loubet-salmon-beetroot-horseradish-recipe", "isHosted": false, "pillarId": "pillar/lifestyle", "pillarName": "Lifestyle"}, {"id": "lifeandstyle/wordofmouth/2012/nov/26/cooking-techniques-back-to-the-future", "type": "article", "sectionId": "lifeandstyle", "sectionName": "Life and style", "webPublicationDate": "2012-11-26T11:30:00Z", "webTitle": "Cooking techniques: back to the future", "webUrl": "https://www.theguardian.com/lifeandstyle/wordofmouth/2012/nov/26/cooking-techniques-back-to-the-future", "apiUrl": "https://content.guardianapis.com/lifeandstyle/wordofmouth/2012/nov/26/cooking-techniques-back-to-the-future", "isHosted": false, "pillarId": "pillar/lifestyle", "pillarName": "Lifestyle"}, {"id": "lifeandstyle/2012/nov/25/boring-festival-brings-unexpected-intrigue", "type": "article", "sectionId": "lifeandstyle", "sectionName": "Life and style", "webPublicationDate": "2012-11-25T19:53:11Z", "webTitle": "Boring festival brings unexpected intrigue", "webUrl": "https://www.theguardian.com/lifeandstyle/2012/nov/25/boring-festival-brings-unexpected-intrigue", "apiUrl": "https://content.guardianapis.com/lifeandstyle/2012/nov/25/boring-festival-brings-unexpected-intrigue", "isHosted": false, "pillarId": "pillar/lifestyle", "pillarName": "Lifestyle"}, {"id": "film/2012/nov/25/how-dogme-built-denmark", "type": "article", "sectionId": "film", "sectionName": "Film", "webPublicationDate": "2012-11-25T19:00:00Z", "webTitle": "How the Dogme manifesto reinvented Denmark", "webUrl": "https://www.theguardian.com/film/2012/nov/25/how-dogme-built-denmark", "apiUrl": "https://content.guardianapis.com/film/2012/nov/25/how-dogme-built-denmark", "isHosted": false, "pillarId": "pillar/arts", "pillarName": "Arts"}, {"id": "society/2012/nov/25/cameron-choices-alcohol-minimum-price", "type": "article", "sectionId": "society", "sectionName": "Society", "webPublicationDate": "2012-11-25T15:36:52Z", "webTitle": "Alcohol at 40p, 45p or 50p a unit to be Cameron choices for minimum price", "webUrl": "https://www.theguardian.com/society/2012/nov/25/cameron-choices-alcohol-minimum-price", "apiUrl": "https://content.guardianapis.com/society/2012/nov/25/cameron-choices-alcohol-minimum-price", "isHosted": false, "pillarId": "pillar/news", "pillarName": "News"}, {"id": "lifeandstyle/2012/nov/25/tonkotsu-restaurant-review-jay-rayner", "type": "article", "sectionId": "food", "sectionName": "Food", "webPublicationDate": "2012-11-25T00:07:01Z", "webTitle": "Restaurant review: Tonkotsu, London", "webUrl": "https://www.theguardian.com/lifeandstyle/2012/nov/25/tonkotsu-restaurant-review-jay-rayner", "apiUrl": "https://content.guardianapis.com/lifeandstyle/2012/nov/25/tonkotsu-restaurant-review-jay-rayner", "isHosted": false, "pillarId": "pillar/lifestyle", "pillarName": "Lifestyle"}, {"id": "lifeandstyle/2012/nov/25/wines-of-the-week-david-williams", "type": "article", "sectionId": "food", "sectionName": "Food", "webPublicationDate": "2012-11-25T00:05:00Z", "webTitle": "Wines of the week | David Williams", "webUrl": "https://www.theguardian.com/lifeandstyle/2012/nov/25/wines-of-the-week-david-williams", "apiUrl": "https://content.guardianapis.com/lifeandstyle/2012/nov/25/wines-of-the-week-david-williams", "isHosted": false, "pillarId": "pillar/lifestyle", "pillarName": "Lifestyle"}, {"id": "lifeandstyle/2012/nov/24/readers-favourite-photographs-songs-recipes", "type": "article", "sectionId": "lifeandstyle", "sectionName": "Life and style", "webPublicationDate": "2012-11-24T00:04:01Z", "webTitle": "Family life", "webUrl": "https://www.theguardian.com/lifeandstyle/2012/nov/24/readers-favourite-photographs-songs-recipes", "apiUrl": "https://content.guardianapis.com/lifeandstyle/2012/nov/24/readers-favourite-photographs-songs-recipes", "isHosted": false, "pillarId": "pillar/lifestyle", "pillarName": "Lifestyle"}, {"id": "lifeandstyle/2012/nov/23/port-recommendations-christmas-fiona-beckett", "type": "article", "sectionId": "food", "sectionName": "Food", "webPublicationDate": "2012-11-23T22:59:17Z", "webTitle": "Wine: pass the port", "webUrl": "https://www.theguardian.com/lifeandstyle/2012/nov/23/port-recommendations-christmas-fiona-beckett", "apiUrl": "https://content.guardianapis.com/lifeandstyle/2012/nov/23/port-recommendations-christmas-fiona-beckett", "isHosted": false, "pillarId": "pillar/lifestyle", "pillarName": "Lifestyle"}, {"id": "lifeandstyle/2012/nov/23/rose-garden-manchester-restaurant-review", "type": "article", "sectionId": "lifeandstyle", "sectionName": "Life and style", "webPublicationDate": "2012-11-23T22:58:00Z", "webTitle": "Restaurant: The Rose Garden, Manchester", "webUrl": "https://www.theguardian.com/lifeandstyle/2012/nov/23/rose-garden-manchester-restaurant-review", "apiUrl": "https://content.guardianapis.com/lifeandstyle/2012/nov/23/rose-garden-manchester-restaurant-review", "isHosted": false, "pillarId": "pillar/lifestyle", "pillarName": "Lifestyle"}, {"id": "travel/2012/nov/23/barcelona-cheap-tapas-bars-restaurants", "type": "article", "sectionId": "travel", "sectionName": "Travel", "webPublicationDate": "2012-11-23T22:45:09Z", "webTitle": "Cheap tapas bars in Barcelona", "webUrl": "https://www.theguardian.com/travel/2012/nov/23/barcelona-cheap-tapas-bars-restaurants", "apiUrl": "https://content.guardianapis.com/travel/2012/nov/23/barcelona-cheap-tapas-bars-restaurants", "isHosted": false, "pillarId": "pillar/lifestyle", "pillarName": "Lifestyle"}, {"id": "travel/2012/nov/23/catalonia-el-penedes-red-wine-trail", "type": "article", "sectionId": "travel", "sectionName": "Travel", "webPublicationDate": "2012-11-23T22:45:04Z", "webTitle": "In search of Catalonia's red wine secrets", "webUrl": "https://www.theguardian.com/travel/2012/nov/23/catalonia-el-penedes-red-wine-trail", "apiUrl": "https://content.guardianapis.com/travel/2012/nov/23/catalonia-el-penedes-red-wine-trail", "isHosted": false, "pillarId": "pillar/lifestyle", "pillarName": "Lifestyle"}, {"id": "travel/2012/nov/23/ebrington-arms-cotwolds-hotel-pub-review", "type": "article", "sectionId": "travel", "sectionName": "Travel", "webPublicationDate": "2012-11-23T22:45:00Z", "webTitle": "The Ebrington Arms, the Cotswolds: hotel review", "webUrl": "https://www.theguardian.com/travel/2012/nov/23/ebrington-arms-cotwolds-hotel-pub-review", "apiUrl": "https://content.guardianapis.com/travel/2012/nov/23/ebrington-arms-cotwolds-hotel-pub-review", "isHosted": false, "pillarId": "pillar/lifestyle", "pillarName": "Lifestyle"}, {"id": "commentisfree/2012/nov/23/rich-poor-food-nutrition-gap-ian-jack", "type": "article", "sectionId": "commentisfree", "sectionName": "Opinion", "webPublicationDate": "2012-11-23T22:30:01Z", "webTitle": "The gulf between rich and poor in terms of diet is still vast, and that's wicked | Ian Jack", "webUrl": "https://www.theguardian.com/commentisfree/2012/nov/23/rich-poor-food-nutrition-gap-ian-jack", "apiUrl": "https://content.guardianapis.com/commentisfree/2012/nov/23/rich-poor-food-nutrition-gap-ian-jack", "isHosted": false, "pillarId": "pillar/opinion", "pillarName": "Opinion"}, {"id": "society/2012/nov/23/food-thought-poor-nutrition", "type": "article", "sectionId": "society", "sectionName": "Society", "webPublicationDate": "2012-11-23T21:00:03Z", "webTitle": "Letters: Food for thought on poor nutrition", "webUrl": "https://www.theguardian.com/society/2012/nov/23/food-thought-poor-nutrition", "apiUrl": "https://content.guardianapis.com/society/2012/nov/23/food-thought-poor-nutrition", "isHosted": false, "pillarId": "pillar/news", "pillarName": "News"}, {"id": "lifeandstyle/2012/nov/23/urban-chicken-keepers-doing-harm", "type": "article", "sectionId": "lifeandstyle", "sectionName": "Life and style", "webPublicationDate": "2012-11-23T19:26:49Z", "webTitle": "Are urban chicken-keepers doing more harm than good?", "webUrl": "https://www.theguardian.com/lifeandstyle/2012/nov/23/urban-chicken-keepers-doing-harm", "apiUrl": "https://content.guardianapis.com/lifeandstyle/2012/nov/23/urban-chicken-keepers-doing-harm", "isHosted": false, "pillarId": "pillar/lifestyle", "pillarName": "Lifestyle"}, {"id": "news/datablog/2012/nov/23/mapping-thanksgiving-food-preferences-using-twitter", "type": "article", "sectionId": "news", "sectionName": "News", "webPublicationDate": "2012-11-23T16:52:00Z", "webTitle": "Mashed turnips, anyone? Using social media to map Thanksgiving foods", "webUrl": "https://www.theguardian.com/news/datablog/2012/nov/23/mapping-thanksgiving-food-preferences-using-twitter", "apiUrl": "https://content.guardianapis.com/news/datablog/2012/nov/23/mapping-thanksgiving-food-preferences-using-twitter", "isHosted": false, "pillarId": "pillar/news", "pillarName": "News"}, {"id": "lifeandstyle/wordofmouth/2012/nov/23/guinness-crisps-the-ultimate-pub-snack", "type": "article", "sectionId": "food", "sectionName": "Food", "webPublicationDate": "2012-11-23T07:00:00Z", "webTitle": "Guiness crisps: the ultimate pub snack?", "webUrl": "https://www.theguardian.com/lifeandstyle/wordofmouth/2012/nov/23/guinness-crisps-the-ultimate-pub-snack", "apiUrl": "https://content.guardianapis.com/lifeandstyle/wordofmouth/2012/nov/23/guinness-crisps-the-ultimate-pub-snack", "isHosted": false, "pillarId": "pillar/lifestyle", "pillarName": "Lifestyle"}, {"id": "lifeandstyle/2012/nov/22/cornwall-seaweed-capital-europe", "type": "article", "sectionId": "food", "sectionName": "Food", "webPublicationDate": "2012-11-22T21:33:22Z", "webTitle": "Cornwall pioneer aims to make Lizard the seaweed capital of Europe", "webUrl": "https://www.theguardian.com/lifeandstyle/2012/nov/22/cornwall-seaweed-capital-europe", "apiUrl": "https://content.guardianapis.com/lifeandstyle/2012/nov/22/cornwall-seaweed-capital-europe", "isHosted": false, "pillarId": "pillar/lifestyle", "pillarName": "Lifestyle"}, {"id": "business/2012/nov/22/supermarket-sweep-tesco", "type": "article", "sectionId": "business", "sectionName": "Business", "webPublicationDate": "2012-11-22T20:59:02Z", "webTitle": "Letters: Supermarket sweep", "webUrl": "https://www.theguardian.com/business/2012/nov/22/supermarket-sweep-tesco", "apiUrl": "https://content.guardianapis.com/business/2012/nov/22/supermarket-sweep-tesco", "isHosted": false, "pillarId": "pillar/news", "pillarName": "News"}, {"id": "education/2012/nov/22/kit-for-a-student-kitchen", "type": "article", "sectionId": "education", "sectionName": "Education", "webPublicationDate": "2012-11-22T14:40:15Z", "webTitle": "What kit do you need in a student kitchen?", "webUrl": "https://www.theguardian.com/education/2012/nov/22/kit-for-a-student-kitchen", "apiUrl": "https://content.guardianapis.com/education/2012/nov/22/kit-for-a-student-kitchen", "isHosted": false, "pillarId": "pillar/news", "pillarName": "News"}, {"id": "lifeandstyle/2012/nov/22/how-to-cook-christmas-turkey", "type": "article", "sectionId": "food", "sectionName": "Food", "webPublicationDate": "2012-11-22T11:19:00Z", "webTitle": "How to cook a Christmas turkey", "webUrl": "https://www.theguardian.com/lifeandstyle/2012/nov/22/how-to-cook-christmas-turkey", "apiUrl": "https://content.guardianapis.com/lifeandstyle/2012/nov/22/how-to-cook-christmas-turkey", "isHosted": false, "pillarId": "pillar/lifestyle", "pillarName": "Lifestyle"}]}}