{"response": {"status": "ok", "userTier": "developer", "total": 89859, "startIndex": 1, "pageSize": 50, "currentPage": 1, "pages": 1798, "orderBy": "newest", "results": [{"id": "football/2013/nov/30/saturday-sundae", "type": "article", "sectionId": "football", "sectionName": "Football", "webPublicationDate": "2013-11-30T23:06:55Z", "webTitle": "Saturday Sundae: big day for owners of squirrel outfits in Scunthorpe", "webUrl": "https://www.theguardian.com/football/2013/nov/30/saturday-sundae", "apiUrl": "https://content.guardianapis.com/football/2013/nov/30/saturday-sundae", "isHosted": false, "pillarId": "pillar/sport", "pillarName": "Sport"}, {"id": "football/2013/nov/30/david-moyes-manchester-united-de-gea", "type": "article", "sectionId": "football", "sectionName": "Football", "webPublicationDate": "2013-11-30T23:00:02Z", "webTitle": "David Moyes confident in David de Gea's role with Manchester United", "webUrl": "https://www.theguardian.com/football/2013/nov/30/david-moyes-manchester-united-de-gea", "apiUrl": "https://content.guardianapis.com/football/2013/nov/30/david-moyes-manchester-united-de-gea", "isHosted": false, "pillarId": "pillar/sport", "pillarName": "Sport"}, {"id": "football/2013/nov/30/hearts-fans-administration-scottish-football", "type": "article", "sectionId": "football", "sectionName": "Football", "webPublicationDate": "2013-11-30T23:00:01Z", "webTitle": "Fans' help finally gives Hearts reason to believe in a brighter future", "webUrl": "https://www.theguardian.com/football/2013/nov/30/hearts-fans-administration-scottish-football", "apiUrl": "https://content.guardianapis.com/football/2013/nov/30/hearts-fans-administration-scottish-football", "isHosted": false, "pillarId": "pillar/sport", "pillarName": "Sport"}, {"id": "football/2013/nov/30/tottenham-hotspur-spurs-signings", "type": "article", "sectionId": "football", "sectionName": "Football", "webPublicationDate": "2013-11-30T23:00:00Z", "webTitle": "Tottenham Hotspur's seven signings struggle to light up the Lane", "webUrl": "https://www.theguardian.com/football/2013/nov/30/tottenham-hotspur-spurs-signings", "apiUrl": "https://content.guardianapis.com/football/2013/nov/30/tottenham-hotspur-spurs-signings", "isHosted": false, "pillarId": "pillar/sport", "pillarName": "Sport"}, {"id": "football/blog/2013/nov/30/bristol-city-safe-standing-british-football-grounds", "type": "article", "sectionId": "football", "sectionName": "Football", "webPublicationDate": "2013-11-30T23:00:00Z", "webTitle": "Bristol City open door to safe standing at British football grounds | Owen Gibson", "webUrl": "https://www.theguardian.com/football/blog/2013/nov/30/bristol-city-safe-standing-british-football-grounds", "apiUrl": "https://content.guardianapis.com/football/blog/2013/nov/30/bristol-city-safe-standing-british-football-grounds", "isHosted": false, "pillarId": "pillar/sport", "pillarName": "Sport"}, {"id": "football/2013/nov/30/dejan-lovren-southampton-croatia-chelsea", "type": "article", "sectionId": "football", "sectionName": "Football", "webPublicationDate": "2013-11-30T22:59:00Z", "webTitle": "Dejan Lovren puts traumas behind him to enjoy Southampton high life", "webUrl": "https://www.theguardian.com/football/2013/nov/30/dejan-lovren-southampton-croatia-chelsea", "apiUrl": "https://content.guardianapis.com/football/2013/nov/30/dejan-lovren-southampton-croatia-chelsea", "isHosted": false, "pillarId": "pillar/sport", "pillarName": "Sport"}, {"id": "football/2013/nov/30/championship-roundup-middlesbrough-bolton", "type": "article", "sectionId": "football", "sectionName": "Football", "webPublicationDate": "2013-11-30T22:56:48Z", "webTitle": "Championship roundup: Middlesbrough lucky to beat Bolton", "webUrl": "https://www.theguardian.com/football/2013/nov/30/championship-roundup-middlesbrough-bolton", "apiUrl": "https://content.guardianapis.com/football/2013/nov/30/championship-roundup-middlesbrough-bolton", "isHosted": false, "pillarId": "pillar/sport", "pillarName": "Sport"}, {"id": "football/2013/nov/30/england-roy-hodgson-world-cup-2014-draw", "type": "article", "sectionId": "football", "sectionName": "Football", "webPublicationDate": "2013-11-30T22:00:03Z", "webTitle": "A difficult World Cup draw may be better for Roy Hodgson and England", "webUrl": "https://www.theguardian.com/football/2013/nov/30/england-roy-hodgson-world-cup-2014-draw", "apiUrl": "https://content.guardianapis.com/football/2013/nov/30/england-roy-hodgson-world-cup-2014-draw", "isHosted": false, "pillarId": "pillar/sport", "pillarName": "Sport"}, {"id": "football/2013/nov/30/said-and-done-george-osborne", "type": "article", "sectionId": "football", "sectionName": "Football", "webPublicationDate": "2013-11-30T21:48:51Z", "webTitle": "Said & Done \u2013 the week in football: Real Madrid, Maradona and Loulou", "webUrl": "https://www.theguardian.com/football/2013/nov/30/said-and-done-george-osborne", "apiUrl": "https://content.guardianapis.com/football/2013/nov/30/said-and-done-george-osborne", "isHosted": false, "pillarId": "pillar/sport", "pillarName": "Sport"}, {"id": "football/blog/2013/nov/30/fa-cup-romance-shortwood-town", "type": "article", "sectionId": "football", "sectionName": "Football", "webPublicationDate": "2013-11-30T21:00:00Z", "webTitle": "Since retiring I have discovered the true magic of the FA Cup | David James", "webUrl": "https://www.theguardian.com/football/blog/2013/nov/30/fa-cup-romance-shortwood-town", "apiUrl": "https://content.guardianapis.com/football/blog/2013/nov/30/fa-cup-romance-shortwood-town", "isHosted": false, "pillarId": "pillar/sport", "pillarName": "Sport"}, {"id": "football/2013/nov/30/martin-jol-fulham-west-ham", "type": "article", "sectionId": "football", "sectionName": "Football", "webPublicationDate": "2013-11-30T19:50:06Z", "webTitle": "Fulham's Martin Jol admits he could be sacked after West Ham defeat", "webUrl": "https://www.theguardian.com/football/2013/nov/30/martin-jol-fulham-west-ham", "apiUrl": "https://content.guardianapis.com/football/2013/nov/30/martin-jol-fulham-west-ham", "isHosted": false, "pillarId": "pillar/sport", "pillarName": "Sport"}, {"id": "sport/2013/nov/30/tackle-africa-aids-sex-education-soccer", "type": "article", "sectionId": "sport", "sectionName": "Sport", "webPublicationDate": "2013-11-30T19:41:00Z", "webTitle": "Football coaches determined to improve young Africans' sex education", "webUrl": "https://www.theguardian.com/sport/2013/nov/30/tackle-africa-aids-sex-education-soccer", "apiUrl": "https://content.guardianapis.com/sport/2013/nov/30/tackle-africa-aids-sex-education-soccer", "isHosted": false, "pillarId": "pillar/sport", "pillarName": "Sport"}, {"id": "football/2013/nov/30/newcastle-west-bromwich-albion-premier-league", "type": "article", "sectionId": "football", "sectionName": "Football", "webPublicationDate": "2013-11-30T19:35:04Z", "webTitle": "Newcastle United 2-1 West Bromwich Albion | Premier League match report", "webUrl": "https://www.theguardian.com/football/2013/nov/30/newcastle-west-bromwich-albion-premier-league", "apiUrl": "https://content.guardianapis.com/football/2013/nov/30/newcastle-west-bromwich-albion-premier-league", "isHosted": false, "pillarId": "pillar/sport", "pillarName": "Sport"}, {"id": "football/2013/nov/30/newcastle-united-v-west-bromwich-albion-live-mbm", "type": "liveblog", "sectionId": "football", "sectionName": "Football", "webPublicationDate": "2013-11-30T19:28:00Z", "webTitle": "Newcastle United v West Bromwich Albion \u2013\u00a0as it happened | Scott Murray", "webUrl": "https://www.theguardian.com/football/2013/nov/30/newcastle-united-v-west-bromwich-albion-live-mbm", "apiUrl": "https://content.guardianapis.com/football/2013/nov/30/newcastle-united-v-west-bromwich-albion-live-mbm", "isHosted": false, "pillarId": "pillar/sport", "pillarName": "Sport"}, {"id": "football/2013/nov/30/motherwell-hibernian-inverness-scottish-cup", "type": "article", "sectionId": "football", "sectionName": "Football", "webPublicationDate": "2013-11-30T19:18:16Z", "webTitle": "Gary Phillips' late strike for Albion knocks Motherwell out of Cup", "webUrl": "https://www.theguardian.com/football/2013/nov/30/motherwell-hibernian-inverness-scottish-cup", "apiUrl": "https://content.guardianapis.com/football/2013/nov/30/motherwell-hibernian-inverness-scottish-cup", "isHosted": false, "pillarId": "pillar/sport", "pillarName": "Sport"}, {"id": "football/football-league-blog/2013/nov/30/football-league-your-thoughts", "type": "article", "sectionId": "football", "sectionName": "Football", "webPublicationDate": "2013-11-30T18:49:12Z", "webTitle": "Football League: your thoughts | John Ashdown", "webUrl": "https://www.theguardian.com/football/football-league-blog/2013/nov/30/football-league-your-thoughts", "apiUrl": "https://content.guardianapis.com/football/football-league-blog/2013/nov/30/football-league-your-thoughts", "isHosted": false, "pillarId": "pillar/sport", "pillarName": "Sport"}, {"id": "football/2013/nov/30/watford-yeovil-town-championship", "type": "article", "sectionId": "football", "sectionName": "Football", "webPublicationDate": "2013-11-30T18:01:23Z", "webTitle": "Watford 0-3 Yeovil Town | Championship match report", "webUrl": "https://www.theguardian.com/football/2013/nov/30/watford-yeovil-town-championship", "apiUrl": "https://content.guardianapis.com/football/2013/nov/30/watford-yeovil-town-championship", "isHosted": false, "pillarId": "pillar/sport", "pillarName": "Sport"}, {"id": "football/2013/nov/30/aston-villa-sunderland-premier-league", "type": "article", "sectionId": "football", "sectionName": "Football", "webPublicationDate": "2013-11-30T17:12:41Z", "webTitle": "Aston Villa 0-0 Sunderland | Premier League match report", "webUrl": "https://www.theguardian.com/football/2013/nov/30/aston-villa-sunderland-premier-league", "apiUrl": "https://content.guardianapis.com/football/2013/nov/30/aston-villa-sunderland-premier-league", "isHosted": false, "pillarId": "pillar/sport", "pillarName": "Sport"}, {"id": "football/2013/nov/30/norwich-city-crystal-palace-premier-league", "type": "article", "sectionId": "football", "sectionName": "Football", "webPublicationDate": "2013-11-30T17:08:30Z", "webTitle": "Norwich City 1-0 Crystal Palace | Premier League match report", "webUrl": "https://www.theguardian.com/football/2013/nov/30/norwich-city-crystal-palace-premier-league", "apiUrl": "https://content.guardianapis.com/football/2013/nov/30/norwich-city-crystal-palace-premier-league", "isHosted": false, "pillarId": "pillar/sport", "pillarName": "Sport"}, {"id": "football/2013/nov/30/everton-stoke-city-premier-league", "type": "article", "sectionId": "football", "sectionName": "Football", "webPublicationDate": "2013-11-30T17:07:15Z", "webTitle": "Everton 4-0 Stoke City | Premier League match report", "webUrl": "https://www.theguardian.com/football/2013/nov/30/everton-stoke-city-premier-league", "apiUrl": "https://content.guardianapis.com/football/2013/nov/30/everton-stoke-city-premier-league", "isHosted": false, "pillarId": "pillar/sport", "pillarName": "Sport"}, {"id": "football/2013/nov/30/west-ham-united-fulham-premier-league", "type": "article", "sectionId": "football", "sectionName": "Football", "webPublicationDate": "2013-11-30T17:07:00Z", "webTitle": "West Ham United 3-0 Fulham | Premier League match report", "webUrl": "https://www.theguardian.com/football/2013/nov/30/west-ham-united-fulham-premier-league", "apiUrl": "https://content.guardianapis.com/football/2013/nov/30/west-ham-united-fulham-premier-league", "isHosted": false, "pillarId": "pillar/sport", "pillarName": "Sport"}, {"id": "football/2013/nov/30/cardiff-city-arsenal-premier-league", "type": "article", "sectionId": "football", "sectionName": "Football", "webPublicationDate": "2013-11-30T17:06:48Z", "webTitle": "Cardiff City 0-3 Arsenal | Premier League match report", "webUrl": "https://www.theguardian.com/football/2013/nov/30/cardiff-city-arsenal-premier-league", "apiUrl": "https://content.guardianapis.com/football/2013/nov/30/cardiff-city-arsenal-premier-league", "isHosted": false, "pillarId": "pillar/sport", "pillarName": "Sport"}, {"id": "football/2013/nov/30/premier-league-clockwatch-live", "type": "liveblog", "sectionId": "football", "sectionName": "Football", "webPublicationDate": "2013-11-30T16:58:24Z", "webTitle": "Premier League clockwatch \u2013 as it happened!| Ian McCourt", "webUrl": "https://www.theguardian.com/football/2013/nov/30/premier-league-clockwatch-live", "apiUrl": "https://content.guardianapis.com/football/2013/nov/30/premier-league-clockwatch-live", "isHosted": false, "pillarId": "pillar/sport", "pillarName": "Sport"}, {"id": "football/2013/nov/29/sam-allardyce-west-ham-strugglers-andy-carroll", "type": "article", "sectionId": "football", "sectionName": "Football", "webPublicationDate": "2013-11-30T00:18:00Z", "webTitle": "Sam Allardyce urges his West Ham strugglers to show true spirit", "webUrl": "https://www.theguardian.com/football/2013/nov/29/sam-allardyce-west-ham-strugglers-andy-carroll", "apiUrl": "https://content.guardianapis.com/football/2013/nov/29/sam-allardyce-west-ham-strugglers-andy-carroll", "isHosted": false, "pillarId": "pillar/sport", "pillarName": "Sport"}, {"id": "football/2013/nov/29/roberto-martinez-romelu-lukaku-everton-chelsea", "type": "article", "sectionId": "football", "sectionName": "Football", "webPublicationDate": "2013-11-29T23:00:02Z", "webTitle": "Roberto Mart\u00ednez on borrowed time with Chelsea's Romelu Lukaku", "webUrl": "https://www.theguardian.com/football/2013/nov/29/roberto-martinez-romelu-lukaku-everton-chelsea", "apiUrl": "https://content.guardianapis.com/football/2013/nov/29/roberto-martinez-romelu-lukaku-everton-chelsea", "isHosted": false, "pillarId": "pillar/sport", "pillarName": "Sport"}, {"id": "football/blog/2013/nov/29/andre-villas-boas-tottenham-manchester-united", "type": "article", "sectionId": "football", "sectionName": "Football", "webPublicationDate": "2013-11-29T23:00:02Z", "webTitle": "Andr\u00e9 Villas-Boas has history against him in Manchester United acid test | David Hytner", "webUrl": "https://www.theguardian.com/football/blog/2013/nov/29/andre-villas-boas-tottenham-manchester-united", "apiUrl": "https://content.guardianapis.com/football/blog/2013/nov/29/andre-villas-boas-tottenham-manchester-united", "isHosted": false, "pillarId": "pillar/sport", "pillarName": "Sport"}, {"id": "football/2013/nov/29/jose-mourinho-romelu-lukaku-chelsea-everton", "type": "article", "sectionId": "football", "sectionName": "Football", "webPublicationDate": "2013-11-29T22:59:00Z", "webTitle": "Romelu Lukaku asked Chelsea for transfer before joining Everton", "webUrl": "https://www.theguardian.com/football/2013/nov/29/jose-mourinho-romelu-lukaku-chelsea-everton", "apiUrl": "https://content.guardianapis.com/football/2013/nov/29/jose-mourinho-romelu-lukaku-chelsea-everton", "isHosted": false, "pillarId": "pillar/sport", "pillarName": "Sport"}, {"id": "football/2013/nov/29/wayne-rooney-david-moyes-durabilty", "type": "article", "sectionId": "football", "sectionName": "Football", "webPublicationDate": "2013-11-29T22:30:02Z", "webTitle": "Wayne Rooney could play every game all season, says David Moyes", "webUrl": "https://www.theguardian.com/football/2013/nov/29/wayne-rooney-david-moyes-durabilty", "apiUrl": "https://content.guardianapis.com/football/2013/nov/29/wayne-rooney-david-moyes-durabilty", "isHosted": false, "pillarId": "pillar/sport", "pillarName": "Sport"}, {"id": "football/2013/nov/29/joleon-lescott-manuel-pellegrini-manchester-city", "type": "article", "sectionId": "football", "sectionName": "Football", "webPublicationDate": "2013-11-29T22:30:02Z", "webTitle": "Joleon Lescott's frustration at Manchester City could lead to move", "webUrl": "https://www.theguardian.com/football/2013/nov/29/joleon-lescott-manuel-pellegrini-manchester-city", "apiUrl": "https://content.guardianapis.com/football/2013/nov/29/joleon-lescott-manuel-pellegrini-manchester-city", "isHosted": false, "pillarId": "pillar/sport", "pillarName": "Sport"}, {"id": "football/2013/nov/29/daniel-sturridge-injured-liverpool-hull", "type": "article", "sectionId": "football", "sectionName": "Football", "webPublicationDate": "2013-11-29T22:30:01Z", "webTitle": "Daniel Sturridge injured in training as Liverpool enter crunch month", "webUrl": "https://www.theguardian.com/football/2013/nov/29/daniel-sturridge-injured-liverpool-hull", "apiUrl": "https://content.guardianapis.com/football/2013/nov/29/daniel-sturridge-injured-liverpool-hull", "isHosted": false, "pillarId": "pillar/sport", "pillarName": "Sport"}, {"id": "football/2013/nov/29/everton-aiden-mcgeady-landon-donovan", "type": "article", "sectionId": "football", "sectionName": "Football", "webPublicationDate": "2013-11-29T22:30:01Z", "webTitle": "Everton put Aiden McGeady and Landon Donovan on shopping list", "webUrl": "https://www.theguardian.com/football/2013/nov/29/everton-aiden-mcgeady-landon-donovan", "apiUrl": "https://content.guardianapis.com/football/2013/nov/29/everton-aiden-mcgeady-landon-donovan", "isHosted": false, "pillarId": "pillar/sport", "pillarName": "Sport"}, {"id": "football/2013/nov/29/arsenal-arsene-wenger-marseille-match-fixing", "type": "article", "sectionId": "football", "sectionName": "Football", "webPublicationDate": "2013-11-29T22:30:00Z", "webTitle": "Scandal reminds Arsenal's Ars\u00e8ne Wenger of Marseille misgivings", "webUrl": "https://www.theguardian.com/football/2013/nov/29/arsenal-arsene-wenger-marseille-match-fixing", "apiUrl": "https://content.guardianapis.com/football/2013/nov/29/arsenal-arsene-wenger-marseille-match-fixing", "isHosted": false, "pillarId": "pillar/sport", "pillarName": "Sport"}, {"id": "football/2013/nov/29/aston-villa-sunderland-squad-sheets", "type": "article", "sectionId": "football", "sectionName": "Football", "webPublicationDate": "2013-11-29T20:25:00Z", "webTitle": "Aston Villa v Sunderland: Squad sheets", "webUrl": "https://www.theguardian.com/football/2013/nov/29/aston-villa-sunderland-squad-sheets", "apiUrl": "https://content.guardianapis.com/football/2013/nov/29/aston-villa-sunderland-squad-sheets", "isHosted": false, "pillarId": "pillar/sport", "pillarName": "Sport"}, {"id": "football/2013/nov/29/cardiff-city-arsenal-squad-sheets", "type": "article", "sectionId": "football", "sectionName": "Football", "webPublicationDate": "2013-11-29T20:23:00Z", "webTitle": "Cardiff City v Arsenal: Squad sheets", "webUrl": "https://www.theguardian.com/football/2013/nov/29/cardiff-city-arsenal-squad-sheets", "apiUrl": "https://content.guardianapis.com/football/2013/nov/29/cardiff-city-arsenal-squad-sheets", "isHosted": false, "pillarId": "pillar/sport", "pillarName": "Sport"}, {"id": "football/2013/nov/29/newcastle-west-brom-squad-sheets", "type": "article", "sectionId": "football", "sectionName": "Football", "webPublicationDate": "2013-11-29T20:22:00Z", "webTitle": "Newcastle v West Brom: Squad sheets", "webUrl": "https://www.theguardian.com/football/2013/nov/29/newcastle-west-brom-squad-sheets", "apiUrl": "https://content.guardianapis.com/football/2013/nov/29/newcastle-west-brom-squad-sheets", "isHosted": false, "pillarId": "pillar/sport", "pillarName": "Sport"}, {"id": "football/2013/nov/29/manchester-city-swansea-squad-sheets", "type": "article", "sectionId": "football", "sectionName": "Football", "webPublicationDate": "2013-11-29T20:21:00Z", "webTitle": "Manchester City v Swansea: Squad sheets", "webUrl": "https://www.theguardian.com/football/2013/nov/29/manchester-city-swansea-squad-sheets", "apiUrl": "https://content.guardianapis.com/football/2013/nov/29/manchester-city-swansea-squad-sheets", "isHosted": false, "pillarId": "pillar/sport", "pillarName": "Sport"}, {"id": "football/2013/nov/29/chelsea-ladies-japan-iwcc-reception", "type": "article", "sectionId": "football", "sectionName": "Football", "webPublicationDate": "2013-11-29T19:07:07Z", "webTitle": "Chelsea Ladies anticipate 'mind-blowing' reception in Japan for IWCC", "webUrl": "https://www.theguardian.com/football/2013/nov/29/chelsea-ladies-japan-iwcc-reception", "apiUrl": "https://content.guardianapis.com/football/2013/nov/29/chelsea-ladies-japan-iwcc-reception", "isHosted": false, "pillarId": "pillar/sport", "pillarName": "Sport"}, {"id": "football/2013/nov/29/shane-long-west-bromwich-albion-interview", "type": "article", "sectionId": "football", "sectionName": "Football", "webPublicationDate": "2013-11-29T19:02:45Z", "webTitle": "Shane Long determined to build on wonder goal for West Bromwich Albion", "webUrl": "https://www.theguardian.com/football/2013/nov/29/shane-long-west-bromwich-albion-interview", "apiUrl": "https://content.guardianapis.com/football/2013/nov/29/shane-long-west-bromwich-albion-interview", "isHosted": false, "pillarId": "pillar/sport", "pillarName": "Sport"}, {"id": "football/2013/nov/29/tottenham-manchester-united-squad-sheets", "type": "article", "sectionId": "football", "sectionName": "Football", "webPublicationDate": "2013-11-29T17:49:00Z", "webTitle": "Tottenham v Manchester United: Squad sheets", "webUrl": "https://www.theguardian.com/football/2013/nov/29/tottenham-manchester-united-squad-sheets", "apiUrl": "https://content.guardianapis.com/football/2013/nov/29/tottenham-manchester-united-squad-sheets", "isHosted": false, "pillarId": "pillar/sport", "pillarName": "Sport"}, {"id": "football/2013/nov/29/everton-stoke-city-squad-sheets", "type": "article", "sectionId": "football", "sectionName": "Football", "webPublicationDate": "2013-11-29T17:16:09Z", "webTitle": "Everton v Stoke City: Squad sheets", "webUrl": "https://www.theguardian.com/football/2013/nov/29/everton-stoke-city-squad-sheets", "apiUrl": "https://content.guardianapis.com/football/2013/nov/29/everton-stoke-city-squad-sheets", "isHosted": false, "pillarId": "pillar/sport", "pillarName": "Sport"}, {"id": "football/2013/nov/29/west-ham-fulham-squad-sheets", "type": "article", "sectionId": "football", "sectionName": "Football", "webPublicationDate": "2013-11-29T17:04:47Z", "webTitle": "West Ham United v Fulham: Squad sheets", "webUrl": "https://www.theguardian.com/football/2013/nov/29/west-ham-fulham-squad-sheets", "apiUrl": "https://content.guardianapis.com/football/2013/nov/29/west-ham-fulham-squad-sheets", "isHosted": false, "pillarId": "pillar/sport", "pillarName": "Sport"}, {"id": "football/video/2013/nov/29/david-moyes-40-year-old-ryan-giggs-video", "type": "video", "sectionId": "football", "sectionName": "Football", "webPublicationDate": "2013-11-29T16:57:00Z", "webTitle": "David Moyes: 40-year old Ryan Giggs an example for all footballers \u2013 video", "webUrl": "https://www.theguardian.com/football/video/2013/nov/29/david-moyes-40-year-old-ryan-giggs-video", "apiUrl": "https://content.guardianapis.com/football/video/2013/nov/29/david-moyes-40-year-old-ryan-giggs-video", "isHosted": false, "pillarId": "pillar/sport", "pillarName": "Sport"}, {"id": "football/video/2013/nov/29/michael-laudrup-swansea-city-manchester-city-video", "type": "video", "sectionId": "football", "sectionName": "Football", "webPublicationDate": "2013-11-29T16:52:00Z", "webTitle": "Michael Laudrup hopes his Swansea City side can surprise Manchester City \u2013 video", "webUrl": "https://www.theguardian.com/football/video/2013/nov/29/michael-laudrup-swansea-city-manchester-city-video", "apiUrl": "https://content.guardianapis.com/football/video/2013/nov/29/michael-laudrup-swansea-city-manchester-city-video", "isHosted": false, "pillarId": "pillar/sport", "pillarName": "Sport"}, {"id": "football/2013/nov/29/mls-cup-sporting-kc-real-salt-lake", "type": "article", "sectionId": "football", "sectionName": "Football", "webPublicationDate": "2013-11-29T16:51:49Z", "webTitle": "The final letdown: five US soccer showpieces that failed to achieve lift-off", "webUrl": "https://www.theguardian.com/football/2013/nov/29/mls-cup-sporting-kc-real-salt-lake", "apiUrl": "https://content.guardianapis.com/football/2013/nov/29/mls-cup-sporting-kc-real-salt-lake", "isHosted": false, "pillarId": "pillar/sport", "pillarName": "Sport"}, {"id": "football/video/2013/nov/29/sam-allardyce-delroy-facey-match-fixing-arrest-video", "type": "video", "sectionId": "football", "sectionName": "Football", "webPublicationDate": "2013-11-29T16:46:00Z", "webTitle": "Sam Allardyce shocked by Delroy Facey match-fixing arrest \u2013 video", "webUrl": "https://www.theguardian.com/football/video/2013/nov/29/sam-allardyce-delroy-facey-match-fixing-arrest-video", "apiUrl": "https://content.guardianapis.com/football/video/2013/nov/29/sam-allardyce-delroy-facey-match-fixing-arrest-video", "isHosted": false, "pillarId": "pillar/sport", "pillarName": "Sport"}, {"id": "football/2013/nov/29/the-fiver-andre-villas-boas-tromso-fan", "type": "article", "sectionId": "football", "sectionName": "Football", "webPublicationDate": "2013-11-29T16:44:25Z", "webTitle": "The Fiver | No country for thin-skinned men | Scott Murray", "webUrl": "https://www.theguardian.com/football/2013/nov/29/the-fiver-andre-villas-boas-tromso-fan", "apiUrl": "https://content.guardianapis.com/football/2013/nov/29/the-fiver-andre-villas-boas-tromso-fan", "isHosted": false, "pillarId": "pillar/sport", "pillarName": "Sport"}, {"id": "football/2013/nov/29/hull-liverpool-squad-sheets", "type": "article", "sectionId": "football", "sectionName": "Football", "webPublicationDate": "2013-11-29T16:22:00Z", "webTitle": "Hull v Liverpool: Squad sheets", "webUrl": "https://www.theguardian.com/football/2013/nov/29/hull-liverpool-squad-sheets", "apiUrl": "https://content.guardianapis.com/football/2013/nov/29/hull-liverpool-squad-sheets", "isHosted": false, "pillarId": "pillar/sport", "pillarName": "Sport"}, {"id": "football/video/2013/nov/29/newcastle-united-manager-alan-pardew-winter-fixtures-video", "type": "video", "sectionId": "football", "sectionName": "Football", "webPublicationDate": "2013-11-29T16:10:00Z", "webTitle": "Newcastle United manager Alan Pardew criticises busy winter fixtures \u2013 video", "webUrl": "https://www.theguardian.com/football/video/2013/nov/29/newcastle-united-manager-alan-pardew-winter-fixtures-video", "apiUrl": "https://content.guardianapis.com/football/video/2013/nov/29/newcastle-united-manager-alan-pardew-winter-fixtures-video", "isHosted": false, "pillarId": "pillar/sport", "pillarName": "Sport"}, {"id": "football/2013/nov/29/chelsea-southampton-squad-sheets", "type": "article", "sectionId": "football", "sectionName": "Football", "webPublicationDate": "2013-11-29T14:54:33Z", "webTitle": "Chelsea v Southampton: Squad sheets", "webUrl": "https://www.theguardian.com/football/2013/nov/29/chelsea-southampton-squad-sheets", "apiUrl": "https://content.guardianapis.com/football/2013/nov/29/chelsea-southampton-squad-sheets", "isHosted": false, "pillarId": "pillar/sport", "pillarName": "Sport"}, {"id": "football/video/2013/nov/29/norwich-city-crystal-palace-chris-hughton-premier-league-video", "type": "video", "sectionId": "football", "sectionName": "Football", "webPublicationDate": "2013-11-29T14:52:00Z", "webTitle": "Norwich City v Crystal Palace: Chris Hughton looks ahead to Premier League clash \u2013 video", "webUrl": "https://www.theguardian.com/football/video/2013/nov/29/norwich-city-crystal-palace-chris-hughton-premier-league-video", "apiUrl": "https://content.guardianapis.com/football/video/2013/nov/29/norwich-city-crystal-palace-chris-hughton-premier-league-video", "isHosted": false, "pillarId": "pillar/sport", "pillarName": "Sport"}]}}