{"response": {"status": "ok", "userTier": "developer", "total": 15658, "startIndex": 1, "pageSize": 50, "currentPage": 1, "pages": 314, "orderBy": "newest", "results": [{"id": "politics/2010/nov/30/tax-high-strength-beer-up", "type": "article", "sectionId": "politics", "sectionName": "Politics", "webPublicationDate": "2010-11-30T12:27:22Z", "webTitle": "Tax on high-strength beer to go up", "webUrl": "https://www.theguardian.com/politics/2010/nov/30/tax-high-strength-beer-up", "apiUrl": "https://content.guardianapis.com/politics/2010/nov/30/tax-high-strength-beer-up", "isHosted": false, "pillarId": "pillar/news", "pillarName": "News"}, {"id": "lifeandstyle/wordofmouth/2010/nov/30/consider-ginger", "type": "article", "sectionId": "lifeandstyle", "sectionName": "Life and style", "webPublicationDate": "2010-11-30T11:30:00Z", "webTitle": "Consider ginger", "webUrl": "https://www.theguardian.com/lifeandstyle/wordofmouth/2010/nov/30/consider-ginger", "apiUrl": "https://content.guardianapis.com/lifeandstyle/wordofmouth/2010/nov/30/consider-ginger", "isHosted": false, "pillarId": "pillar/lifestyle", "pillarName": "Lifestyle"}, {"id": "lifeandstyle/wordofmouth/2010/nov/30/stornoway-black-pudding-bible", "type": "article", "sectionId": "lifeandstyle", "sectionName": "Life and style", "webPublicationDate": "2010-11-30T10:20:00Z", "webTitle": "The Stornoway black pudding bible", "webUrl": "https://www.theguardian.com/lifeandstyle/wordofmouth/2010/nov/30/stornoway-black-pudding-bible", "apiUrl": "https://content.guardianapis.com/lifeandstyle/wordofmouth/2010/nov/30/stornoway-black-pudding-bible", "isHosted": false, "pillarId": "pillar/lifestyle", "pillarName": "Lifestyle"}, {"id": "lifeandstyle/2010/nov/30/stornoway-black-pudding-recipes", "type": "article", "sectionId": "food", "sectionName": "Food", "webPublicationDate": "2010-11-30T10:00:00Z", "webTitle": "Stornoway black pudding recipes", "webUrl": "https://www.theguardian.com/lifeandstyle/2010/nov/30/stornoway-black-pudding-recipes", "apiUrl": "https://content.guardianapis.com/lifeandstyle/2010/nov/30/stornoway-black-pudding-recipes", "isHosted": false, "pillarId": "pillar/lifestyle", "pillarName": "Lifestyle"}, {"id": "media/2010/nov/30/gordon-ramsay-shark-bait-channel-4", "type": "article", "sectionId": "media", "sectionName": "Media", "webPublicationDate": "2010-11-30T08:00:04Z", "webTitle": "Gordon Ramsay to be thrown to the sharks", "webUrl": "https://www.theguardian.com/media/2010/nov/30/gordon-ramsay-shark-bait-channel-4", "apiUrl": "https://content.guardianapis.com/media/2010/nov/30/gordon-ramsay-shark-bait-channel-4", "isHosted": false, "pillarId": "pillar/news", "pillarName": "News"}, {"id": "uk/2010/nov/30/food-hygiene-national-scheme", "type": "article", "sectionId": "world", "sectionName": "World news", "webPublicationDate": "2010-11-30T00:01:03Z", "webTitle": "National scheme to grade the hygiene of food outlets aims to cut rates of illness", "webUrl": "https://www.theguardian.com/uk/2010/nov/30/food-hygiene-national-scheme", "apiUrl": "https://content.guardianapis.com/uk/2010/nov/30/food-hygiene-national-scheme", "isHosted": false, "pillarId": "pillar/news", "pillarName": "News"}, {"id": "education/2010/nov/29/student-cooking-tv", "type": "article", "sectionId": "education", "sectionName": "Education", "webPublicationDate": "2010-11-29T16:30:02Z", "webTitle": "Better-cooking students, coming soon to a screen near you", "webUrl": "https://www.theguardian.com/education/2010/nov/29/student-cooking-tv", "apiUrl": "https://content.guardianapis.com/education/2010/nov/29/student-cooking-tv", "isHosted": false, "pillarId": "pillar/news", "pillarName": "News"}, {"id": "lifeandstyle/wordofmouth/2010/nov/29/slow-cookers", "type": "article", "sectionId": "lifeandstyle", "sectionName": "Life and style", "webPublicationDate": "2010-11-29T12:00:00Z", "webTitle": "Cooking slow and steady", "webUrl": "https://www.theguardian.com/lifeandstyle/wordofmouth/2010/nov/29/slow-cookers", "apiUrl": "https://content.guardianapis.com/lifeandstyle/wordofmouth/2010/nov/29/slow-cookers", "isHosted": false, "pillarId": "pillar/lifestyle", "pillarName": "Lifestyle"}, {"id": "lifeandstyle/2010/nov/29/mexican-barbecue-ribs-recipe", "type": "article", "sectionId": "food", "sectionName": "Food", "webPublicationDate": "2010-11-29T09:30:00Z", "webTitle": "Mexican barbecue ribs recipe", "webUrl": "https://www.theguardian.com/lifeandstyle/2010/nov/29/mexican-barbecue-ribs-recipe", "apiUrl": "https://content.guardianapis.com/lifeandstyle/2010/nov/29/mexican-barbecue-ribs-recipe", "isHosted": false, "pillarId": "pillar/lifestyle", "pillarName": "Lifestyle"}, {"id": "lifeandstyle/video/2010/nov/29/thomasina-miers-mexican-ribs-recipe", "type": "video", "sectionId": "food", "sectionName": "Food", "webPublicationDate": "2010-11-29T07:00:00Z", "webTitle": "Video | Thomasina Miers' Mexican BBQ ribs", "webUrl": "https://www.theguardian.com/lifeandstyle/video/2010/nov/29/thomasina-miers-mexican-ribs-recipe", "apiUrl": "https://content.guardianapis.com/lifeandstyle/video/2010/nov/29/thomasina-miers-mexican-ribs-recipe", "isHosted": false, "pillarId": "pillar/lifestyle", "pillarName": "Lifestyle"}, {"id": "lifeandstyle/wordofmouth/2010/nov/28/christmas-pudding-heston-blumenthal-ebay", "type": "article", "sectionId": "lifeandstyle", "sectionName": "Life and style", "webPublicationDate": "2010-11-28T20:00:03Z", "webTitle": "The new black market for Christmas puds", "webUrl": "https://www.theguardian.com/lifeandstyle/wordofmouth/2010/nov/28/christmas-pudding-heston-blumenthal-ebay", "apiUrl": "https://content.guardianapis.com/lifeandstyle/wordofmouth/2010/nov/28/christmas-pudding-heston-blumenthal-ebay", "isHosted": false, "pillarId": "pillar/lifestyle", "pillarName": "Lifestyle"}, {"id": "lifeandstyle/2010/nov/28/jay-rayner-brasserie-toulouse-lautrec-review", "type": "article", "sectionId": "food", "sectionName": "Food", "webPublicationDate": "2010-11-28T00:05:21Z", "webTitle": "Restaurant review: Brasserie Toulouse Lautrec", "webUrl": "https://www.theguardian.com/lifeandstyle/2010/nov/28/jay-rayner-brasserie-toulouse-lautrec-review", "apiUrl": "https://content.guardianapis.com/lifeandstyle/2010/nov/28/jay-rayner-brasserie-toulouse-lautrec-review", "isHosted": false, "pillarId": "pillar/lifestyle", "pillarName": "Lifestyle"}, {"id": "travel/2010/nov/27/the-trip-northern-england-restaurants", "type": "article", "sectionId": "travel", "sectionName": "Travel", "webPublicationDate": "2010-11-27T00:08:18Z", "webTitle": "How to do The Trip on the cheap", "webUrl": "https://www.theguardian.com/travel/2010/nov/27/the-trip-northern-england-restaurants", "apiUrl": "https://content.guardianapis.com/travel/2010/nov/27/the-trip-northern-england-restaurants", "isHosted": false, "pillarId": "pillar/lifestyle", "pillarName": "Lifestyle"}, {"id": "lifeandstyle/2010/nov/27/readers-favourite-photographs-songs-recipes", "type": "article", "sectionId": "lifeandstyle", "sectionName": "Life and style", "webPublicationDate": "2010-11-27T00:06:19Z", "webTitle": "Family life", "webUrl": "https://www.theguardian.com/lifeandstyle/2010/nov/27/readers-favourite-photographs-songs-recipes", "apiUrl": "https://content.guardianapis.com/lifeandstyle/2010/nov/27/readers-favourite-photographs-songs-recipes", "isHosted": false, "pillarId": "pillar/lifestyle", "pillarName": "Lifestyle"}, {"id": "lifeandstyle/2010/nov/27/horseradish-recipes-hugh-fearnley-whittingstall", "type": "article", "sectionId": "lifeandstyle", "sectionName": "Life and style", "webPublicationDate": "2010-11-27T00:02:58Z", "webTitle": "Horseradish recipes | Hugh Fearnley-Whittingstall | Food and drink", "webUrl": "https://www.theguardian.com/lifeandstyle/2010/nov/27/horseradish-recipes-hugh-fearnley-whittingstall", "apiUrl": "https://content.guardianapis.com/lifeandstyle/2010/nov/27/horseradish-recipes-hugh-fearnley-whittingstall", "isHosted": false, "pillarId": "pillar/lifestyle", "pillarName": "Lifestyle"}, {"id": "lifeandstyle/2010/nov/27/sourdough-recipe-dan-lepard", "type": "article", "sectionId": "lifeandstyle", "sectionName": "Life and style", "webPublicationDate": "2010-11-27T00:02:53Z", "webTitle": "Sourdough recipe | Dan Lepard | Baking | Food and drink", "webUrl": "https://www.theguardian.com/lifeandstyle/2010/nov/27/sourdough-recipe-dan-lepard", "apiUrl": "https://content.guardianapis.com/lifeandstyle/2010/nov/27/sourdough-recipe-dan-lepard", "isHosted": false, "pillarId": "pillar/lifestyle", "pillarName": "Lifestyle"}, {"id": "lifeandstyle/2010/nov/27/christmas-cake-quince-matthew-fort", "type": "article", "sectionId": "lifeandstyle", "sectionName": "Life and style", "webPublicationDate": "2010-11-27T00:02:46Z", "webTitle": "Food for Fort: Booze-free Christmas cake and other culinary stories | Matthew Fort", "webUrl": "https://www.theguardian.com/lifeandstyle/2010/nov/27/christmas-cake-quince-matthew-fort", "apiUrl": "https://content.guardianapis.com/lifeandstyle/2010/nov/27/christmas-cake-quince-matthew-fort", "isHosted": false, "pillarId": "pillar/lifestyle", "pillarName": "Lifestyle"}, {"id": "lifeandstyle/2010/nov/27/caramel-christmas-cake-recipe", "type": "article", "sectionId": "lifeandstyle", "sectionName": "Life and style", "webPublicationDate": "2010-11-27T00:02:18Z", "webTitle": "Caramel Christmas cake recipe | Dan Lepard | How to bake | Food and drink", "webUrl": "https://www.theguardian.com/lifeandstyle/2010/nov/27/caramel-christmas-cake-recipe", "apiUrl": "https://content.guardianapis.com/lifeandstyle/2010/nov/27/caramel-christmas-cake-recipe", "isHosted": false, "pillarId": "pillar/lifestyle", "pillarName": "Lifestyle"}, {"id": "lifeandstyle/2010/nov/27/apple-and-celeriac-salad-recipe", "type": "article", "sectionId": "lifeandstyle", "sectionName": "Life and style", "webPublicationDate": "2010-11-27T00:02:12Z", "webTitle": "Tart apple and celeriac salad | Yotam Ottolenghi | Food and drink", "webUrl": "https://www.theguardian.com/lifeandstyle/2010/nov/27/apple-and-celeriac-salad-recipe", "apiUrl": "https://content.guardianapis.com/lifeandstyle/2010/nov/27/apple-and-celeriac-salad-recipe", "isHosted": false, "pillarId": "pillar/lifestyle", "pillarName": "Lifestyle"}, {"id": "lifeandstyle/2010/nov/27/independent-wine-merchants-review", "type": "article", "sectionId": "food", "sectionName": "Food", "webPublicationDate": "2010-11-27T00:02:10Z", "webTitle": "Wine: Local heroes | Fiona Beckett | Food and drink", "webUrl": "https://www.theguardian.com/lifeandstyle/2010/nov/27/independent-wine-merchants-review", "apiUrl": "https://content.guardianapis.com/lifeandstyle/2010/nov/27/independent-wine-merchants-review", "isHosted": false, "pillarId": "pillar/lifestyle", "pillarName": "Lifestyle"}, {"id": "lifeandstyle/2010/nov/27/polpetto-london-w1-review", "type": "article", "sectionId": "lifeandstyle", "sectionName": "Life and style", "webPublicationDate": "2010-11-27T00:02:08Z", "webTitle": "Restaurant: Polpetto, London W1 | John Lanchester | Food and drink", "webUrl": "https://www.theguardian.com/lifeandstyle/2010/nov/27/polpetto-london-w1-review", "apiUrl": "https://content.guardianapis.com/lifeandstyle/2010/nov/27/polpetto-london-w1-review", "isHosted": false, "pillarId": "pillar/lifestyle", "pillarName": "Lifestyle"}, {"id": "lifeandstyle/cartoon/2010/nov/27/1", "type": "picture", "sectionId": "lifeandstyle", "sectionName": "Life and style", "webPublicationDate": "2010-11-27T00:02:00Z", "webTitle": "Berger & Wyse", "webUrl": "https://www.theguardian.com/lifeandstyle/cartoon/2010/nov/27/1", "apiUrl": "https://content.guardianapis.com/lifeandstyle/cartoon/2010/nov/27/1", "isHosted": false, "pillarId": "pillar/lifestyle", "pillarName": "Lifestyle"}, {"id": "business/2010/nov/26/balls-brothers-administration", "type": "article", "sectionId": "business", "sectionName": "Business", "webPublicationDate": "2010-11-26T19:56:39Z", "webTitle": "Balls Brothers goes into administration", "webUrl": "https://www.theguardian.com/business/2010/nov/26/balls-brothers-administration", "apiUrl": "https://content.guardianapis.com/business/2010/nov/26/balls-brothers-administration", "isHosted": false, "pillarId": "pillar/news", "pillarName": "News"}, {"id": "business/2010/nov/26/bernard-matthews-obituary", "type": "article", "sectionId": "business", "sectionName": "Business", "webPublicationDate": "2010-11-26T18:41:09Z", "webTitle": "Bernard Matthews obituary", "webUrl": "https://www.theguardian.com/business/2010/nov/26/bernard-matthews-obituary", "apiUrl": "https://content.guardianapis.com/business/2010/nov/26/bernard-matthews-obituary", "isHosted": false, "pillarId": "pillar/news", "pillarName": "News"}, {"id": "artanddesign/video/2010/nov/26/camera-club-food-photography", "type": "video", "sectionId": "artanddesign", "sectionName": "Art and design", "webPublicationDate": "2010-11-26T16:32:00Z", "webTitle": "Camera club video: food", "webUrl": "https://www.theguardian.com/artanddesign/video/2010/nov/26/camera-club-food-photography", "apiUrl": "https://content.guardianapis.com/artanddesign/video/2010/nov/26/camera-club-food-photography", "isHosted": false, "pillarId": "pillar/arts", "pillarName": "Arts"}, {"id": "artanddesign/gallery/2010/nov/26/camera-club-food-photography", "type": "gallery", "sectionId": "artanddesign", "sectionName": "Art and design", "webPublicationDate": "2010-11-26T16:30:58Z", "webTitle": "Guardian Camera Club: food photography", "webUrl": "https://www.theguardian.com/artanddesign/gallery/2010/nov/26/camera-club-food-photography", "apiUrl": "https://content.guardianapis.com/artanddesign/gallery/2010/nov/26/camera-club-food-photography", "isHosted": false, "pillarId": "pillar/arts", "pillarName": "Arts"}, {"id": "artanddesign/2010/nov/26/camera-club-food-photography-tips", "type": "article", "sectionId": "artanddesign", "sectionName": "Art and design", "webPublicationDate": "2010-11-26T16:30:41Z", "webTitle": "Top tips: food photography", "webUrl": "https://www.theguardian.com/artanddesign/2010/nov/26/camera-club-food-photography-tips", "apiUrl": "https://content.guardianapis.com/artanddesign/2010/nov/26/camera-club-food-photography-tips", "isHosted": false, "pillarId": "pillar/arts", "pillarName": "Arts"}, {"id": "artanddesign/2010/nov/25/camera-club-food-photography-assignment", "type": "article", "sectionId": "artanddesign", "sectionName": "Art and design", "webPublicationDate": "2010-11-26T16:27:21Z", "webTitle": "December assignment: food photography", "webUrl": "https://www.theguardian.com/artanddesign/2010/nov/25/camera-club-food-photography-assignment", "apiUrl": "https://content.guardianapis.com/artanddesign/2010/nov/25/camera-club-food-photography-assignment", "isHosted": false, "pillarId": "pillar/arts", "pillarName": "Arts"}, {"id": "lifeandstyle/2010/nov/26/bernard-matthews-remembered", "type": "article", "sectionId": "food", "sectionName": "Food", "webPublicationDate": "2010-11-26T15:55:00Z", "webTitle": "Bernard Matthews remembered", "webUrl": "https://www.theguardian.com/lifeandstyle/2010/nov/26/bernard-matthews-remembered", "apiUrl": "https://content.guardianapis.com/lifeandstyle/2010/nov/26/bernard-matthews-remembered", "isHosted": false, "pillarId": "pillar/lifestyle", "pillarName": "Lifestyle"}, {"id": "uk/gallery/2010/nov/26/bernard-matthews-pictures", "type": "gallery", "sectionId": "business", "sectionName": "Business", "webPublicationDate": "2010-11-26T12:50:45Z", "webTitle": "Bernard Matthews: life in pictures", "webUrl": "https://www.theguardian.com/uk/gallery/2010/nov/26/bernard-matthews-pictures", "apiUrl": "https://content.guardianapis.com/uk/gallery/2010/nov/26/bernard-matthews-pictures", "isHosted": false, "pillarId": "pillar/news", "pillarName": "News"}, {"id": "lifeandstyle/2010/nov/26/bernard-matthews-timeline", "type": "article", "sectionId": "food", "sectionName": "Food", "webPublicationDate": "2010-11-26T12:41:29Z", "webTitle": "Bernard Matthews: timeline", "webUrl": "https://www.theguardian.com/lifeandstyle/2010/nov/26/bernard-matthews-timeline", "apiUrl": "https://content.guardianapis.com/lifeandstyle/2010/nov/26/bernard-matthews-timeline", "isHosted": false, "pillarId": "pillar/lifestyle", "pillarName": "Lifestyle"}, {"id": "uk/2010/nov/26/bernard-matthews-turkey-tycoon-dies", "type": "article", "sectionId": "uk-news", "sectionName": "UK news", "webPublicationDate": "2010-11-26T11:16:54Z", "webTitle": "Bernard Matthews dies aged 80", "webUrl": "https://www.theguardian.com/uk/2010/nov/26/bernard-matthews-turkey-tycoon-dies", "apiUrl": "https://content.guardianapis.com/uk/2010/nov/26/bernard-matthews-turkey-tycoon-dies", "isHosted": false, "pillarId": "pillar/news", "pillarName": "News"}, {"id": "lifeandstyle/wordofmouth/2010/nov/26/good-tip-carry-cash", "type": "article", "sectionId": "food", "sectionName": "Food", "webPublicationDate": "2010-11-26T09:45:00Z", "webTitle": "Good tip? Carry cash", "webUrl": "https://www.theguardian.com/lifeandstyle/wordofmouth/2010/nov/26/good-tip-carry-cash", "apiUrl": "https://content.guardianapis.com/lifeandstyle/wordofmouth/2010/nov/26/good-tip-carry-cash", "isHosted": false, "pillarId": "pillar/lifestyle", "pillarName": "Lifestyle"}, {"id": "lifeandstyle/2010/nov/26/where-buy-best-puddings-cakes", "type": "article", "sectionId": "food", "sectionName": "Food", "webPublicationDate": "2010-11-26T08:15:00Z", "webTitle": "Where to buy Britain's best puddings and cakes", "webUrl": "https://www.theguardian.com/lifeandstyle/2010/nov/26/where-buy-best-puddings-cakes", "apiUrl": "https://content.guardianapis.com/lifeandstyle/2010/nov/26/where-buy-best-puddings-cakes", "isHosted": false, "pillarId": "pillar/lifestyle", "pillarName": "Lifestyle"}, {"id": "lifeandstyle/2010/nov/26/where-find-best-delis-cheese", "type": "article", "sectionId": "food", "sectionName": "Food", "webPublicationDate": "2010-11-26T08:00:00Z", "webTitle": "Where to find Britain's best delis and cheesemongers", "webUrl": "https://www.theguardian.com/lifeandstyle/2010/nov/26/where-find-best-delis-cheese", "apiUrl": "https://content.guardianapis.com/lifeandstyle/2010/nov/26/where-find-best-delis-cheese", "isHosted": false, "pillarId": "pillar/lifestyle", "pillarName": "Lifestyle"}, {"id": "lifeandstyle/2010/nov/26/where-buy-britains-best-cheese", "type": "article", "sectionId": "food", "sectionName": "Food", "webPublicationDate": "2010-11-26T07:45:00Z", "webTitle": "Where to buy Britain's best cheese", "webUrl": "https://www.theguardian.com/lifeandstyle/2010/nov/26/where-buy-britains-best-cheese", "apiUrl": "https://content.guardianapis.com/lifeandstyle/2010/nov/26/where-buy-britains-best-cheese", "isHosted": false, "pillarId": "pillar/lifestyle", "pillarName": "Lifestyle"}, {"id": "lifeandstyle/2010/nov/26/where-buy-best-christmas-veg", "type": "article", "sectionId": "lifeandstyle", "sectionName": "Life and style", "webPublicationDate": "2010-11-26T07:30:00Z", "webTitle": "Where to buy Britain's best Christmas vegetables and extras", "webUrl": "https://www.theguardian.com/lifeandstyle/2010/nov/26/where-buy-best-christmas-veg", "apiUrl": "https://content.guardianapis.com/lifeandstyle/2010/nov/26/where-buy-best-christmas-veg", "isHosted": false, "pillarId": "pillar/lifestyle", "pillarName": "Lifestyle"}, {"id": "lifeandstyle/2010/nov/26/where-buy-britains-best-seafood", "type": "article", "sectionId": "lifeandstyle", "sectionName": "Life and style", "webPublicationDate": "2010-11-26T07:15:00Z", "webTitle": "Where to buy Britain's best seafood", "webUrl": "https://www.theguardian.com/lifeandstyle/2010/nov/26/where-buy-britains-best-seafood", "apiUrl": "https://content.guardianapis.com/lifeandstyle/2010/nov/26/where-buy-britains-best-seafood", "isHosted": false, "pillarId": "pillar/lifestyle", "pillarName": "Lifestyle"}, {"id": "uk/2010/nov/26/scientists-all-clear-cloned-meat", "type": "article", "sectionId": "world", "sectionName": "World news", "webPublicationDate": "2010-11-26T00:31:50Z", "webTitle": "Scientists give all-clear for meat and milk from cloned cattle", "webUrl": "https://www.theguardian.com/uk/2010/nov/26/scientists-all-clear-cloned-meat", "apiUrl": "https://content.guardianapis.com/uk/2010/nov/26/scientists-all-clear-cloned-meat", "isHosted": false, "pillarId": "pillar/news", "pillarName": "News"}, {"id": "travel/video/2010/nov/25/italy-ravenna-food-tour", "type": "video", "sectionId": "travel", "sectionName": "Travel", "webPublicationDate": "2010-11-25T17:38:00Z", "webTitle": "Video | My City: Angela Schiavina's food tour of Ravenna, Italy", "webUrl": "https://www.theguardian.com/travel/video/2010/nov/25/italy-ravenna-food-tour", "apiUrl": "https://content.guardianapis.com/travel/video/2010/nov/25/italy-ravenna-food-tour", "isHosted": false, "pillarId": "pillar/lifestyle", "pillarName": "Lifestyle"}, {"id": "lifeandstyle/wordofmouth/2010/nov/25/thanksgiving", "type": "article", "sectionId": "lifeandstyle", "sectionName": "Life and style", "webPublicationDate": "2010-11-25T17:00:00Z", "webTitle": "Serving up Thanksgiving", "webUrl": "https://www.theguardian.com/lifeandstyle/wordofmouth/2010/nov/25/thanksgiving", "apiUrl": "https://content.guardianapis.com/lifeandstyle/wordofmouth/2010/nov/25/thanksgiving", "isHosted": false, "pillarId": "pillar/lifestyle", "pillarName": "Lifestyle"}, {"id": "lifeandstyle/wordofmouth/2010/nov/25/cornish-blue-greatest-cheese", "type": "article", "sectionId": "lifeandstyle", "sectionName": "Life and style", "webPublicationDate": "2010-11-25T12:00:00Z", "webTitle": "Cornish blue: the greatest of cheese", "webUrl": "https://www.theguardian.com/lifeandstyle/wordofmouth/2010/nov/25/cornish-blue-greatest-cheese", "apiUrl": "https://content.guardianapis.com/lifeandstyle/wordofmouth/2010/nov/25/cornish-blue-greatest-cheese", "isHosted": false, "pillarId": "pillar/lifestyle", "pillarName": "Lifestyle"}, {"id": "lifeandstyle/wordofmouth/2010/nov/25/how-to-make-perfect-bolognese", "type": "article", "sectionId": "lifeandstyle", "sectionName": "Life and style", "webPublicationDate": "2010-11-25T07:00:00Z", "webTitle": "How to make perfect bolognese", "webUrl": "https://www.theguardian.com/lifeandstyle/wordofmouth/2010/nov/25/how-to-make-perfect-bolognese", "apiUrl": "https://content.guardianapis.com/lifeandstyle/wordofmouth/2010/nov/25/how-to-make-perfect-bolognese", "isHosted": false, "pillarId": "pillar/lifestyle", "pillarName": "Lifestyle"}, {"id": "money/2010/nov/25/supermarket-champagnes-outperform-big-brands", "type": "article", "sectionId": "money", "sectionName": "Money", "webPublicationDate": "2010-11-25T06:35:00Z", "webTitle": "Hot fizz: supermarket Champagnes outperform big brands", "webUrl": "https://www.theguardian.com/money/2010/nov/25/supermarket-champagnes-outperform-big-brands", "apiUrl": "https://content.guardianapis.com/money/2010/nov/25/supermarket-champagnes-outperform-big-brands", "isHosted": false, "pillarId": "pillar/lifestyle", "pillarName": "Lifestyle"}, {"id": "lifeandstyle/2010/nov/25/cornish-blue-world-cheese-awards", "type": "article", "sectionId": "food", "sectionName": "Food", "webPublicationDate": "2010-11-25T01:02:39Z", "webTitle": "Cornish blue reigns supreme at World Cheese Awards", "webUrl": "https://www.theguardian.com/lifeandstyle/2010/nov/25/cornish-blue-world-cheese-awards", "apiUrl": "https://content.guardianapis.com/lifeandstyle/2010/nov/25/cornish-blue-world-cheese-awards", "isHosted": false, "pillarId": "pillar/lifestyle", "pillarName": "Lifestyle"}, {"id": "lifeandstyle/2010/nov/24/how-buy-cheap-supermarket-wine", "type": "article", "sectionId": "food", "sectionName": "Food", "webPublicationDate": "2010-11-24T21:00:01Z", "webTitle": "How to buy cheap supermarket wine", "webUrl": "https://www.theguardian.com/lifeandstyle/2010/nov/24/how-buy-cheap-supermarket-wine", "apiUrl": "https://content.guardianapis.com/lifeandstyle/2010/nov/24/how-buy-cheap-supermarket-wine", "isHosted": false, "pillarId": "pillar/lifestyle", "pillarName": "Lifestyle"}, {"id": "lifeandstyle/wordofmouth/2010/nov/24/consider-foie-gras", "type": "article", "sectionId": "lifeandstyle", "sectionName": "Life and style", "webPublicationDate": "2010-11-24T12:30:00Z", "webTitle": "Consider foie gras", "webUrl": "https://www.theguardian.com/lifeandstyle/wordofmouth/2010/nov/24/consider-foie-gras", "apiUrl": "https://content.guardianapis.com/lifeandstyle/wordofmouth/2010/nov/24/consider-foie-gras", "isHosted": false, "pillarId": "pillar/lifestyle", "pillarName": "Lifestyle"}, {"id": "lifeandstyle/2010/nov/24/make-own-edible-christmas-gifts", "type": "article", "sectionId": "lifeandstyle", "sectionName": "Life and style", "webPublicationDate": "2010-11-24T07:59:05Z", "webTitle": "Make your own edible Christmas gifts", "webUrl": "https://www.theguardian.com/lifeandstyle/2010/nov/24/make-own-edible-christmas-gifts", "apiUrl": "https://content.guardianapis.com/lifeandstyle/2010/nov/24/make-own-edible-christmas-gifts", "isHosted": false, "pillarId": "pillar/lifestyle", "pillarName": "Lifestyle"}, {"id": "commentisfree/2010/nov/23/food-industry-health-claims-andrew-lansley", "type": "article", "sectionId": "commentisfree", "sectionName": "Opinion", "webPublicationDate": "2010-11-23T13:24:17Z", "webTitle": "Flogging foods with the help of junk science | Felicity Lawrence", "webUrl": "https://www.theguardian.com/commentisfree/2010/nov/23/food-industry-health-claims-andrew-lansley", "apiUrl": "https://content.guardianapis.com/commentisfree/2010/nov/23/food-industry-health-claims-andrew-lansley", "isHosted": false, "pillarId": "pillar/opinion", "pillarName": "Opinion"}, {"id": "commentisfree/2010/nov/23/obesity-india-affluent-affliction", "type": "article", "sectionId": "commentisfree", "sectionName": "Opinion", "webPublicationDate": "2010-11-23T12:34:09Z", "webTitle": "Obesity: India's affluent affliction | Nina Martyris", "webUrl": "https://www.theguardian.com/commentisfree/2010/nov/23/obesity-india-affluent-affliction", "apiUrl": "https://content.guardianapis.com/commentisfree/2010/nov/23/obesity-india-affluent-affliction", "isHosted": false, "pillarId": "pillar/opinion", "pillarName": "Opinion"}]}}