{"response": {"status": "ok", "userTier": "developer", "total": 38273, "startIndex": 1, "pageSize": 50, "currentPage": 1, "pages": 766, "orderBy": "newest", "results": [{"id": "politics/2013/nov/30/tory-mp-tim-yeo-ballot-green-conservative", "type": "article", "sectionId": "politics", "sectionName": "Politics", "webPublicationDate": "2013-11-30T18:58:01Z", "webTitle": "Tim Yeo MP will seek local party ballot as he fights to retain his seat", "webUrl": "https://www.theguardian.com/politics/2013/nov/30/tory-mp-tim-yeo-ballot-green-conservative", "apiUrl": "https://content.guardianapis.com/politics/2013/nov/30/tory-mp-tim-yeo-ballot-green-conservative", "isHosted": false, "pillarId": "pillar/news", "pillarName": "News"}, {"id": "tv-and-radio/2013/nov/30/strange-days-legacy-farm-kitchen-tudor-monastery", "type": "article", "sectionId": "tv-and-radio", "sectionName": "Television & radio", "webPublicationDate": "2013-11-30T18:00:00Z", "webTitle": "Rewind TV: Strange Days: Cold War Britain; Legacy; Nigel and Adam's Farm Kitchen; Tudor Monastery Farm \u2013 review", "webUrl": "https://www.theguardian.com/tv-and-radio/2013/nov/30/strange-days-legacy-farm-kitchen-tudor-monastery", "apiUrl": "https://content.guardianapis.com/tv-and-radio/2013/nov/30/strange-days-legacy-farm-kitchen-tudor-monastery", "isHosted": false, "pillarId": "pillar/arts", "pillarName": "Arts"}, {"id": "uk-news/2013/nov/30/chilterns-blighted-by-hs2-spoil", "type": "article", "sectionId": "uk-news", "sectionName": "UK news", "webPublicationDate": "2013-11-30T12:48:35Z", "webTitle": "HS2 construction will blight Chilterns, conservationists fear", "webUrl": "https://www.theguardian.com/uk-news/2013/nov/30/chilterns-blighted-by-hs2-spoil", "apiUrl": "https://content.guardianapis.com/uk-news/2013/nov/30/chilterns-blighted-by-hs2-spoil", "isHosted": false, "pillarId": "pillar/news", "pillarName": "News"}, {"id": "environment/2013/nov/29/sandy-bedfordshire-tap-tap-tapping", "type": "article", "sectionId": "environment", "sectionName": "Environment", "webPublicationDate": "2013-11-29T21:00:01Z", "webTitle": "Sandy, Bedfordshire: I hear a tap, tap, tap, but who is doing the tapping?", "webUrl": "https://www.theguardian.com/environment/2013/nov/29/sandy-bedfordshire-tap-tap-tapping", "apiUrl": "https://content.guardianapis.com/environment/2013/nov/29/sandy-bedfordshire-tap-tap-tapping", "isHosted": false, "pillarId": "pillar/news", "pillarName": "News"}, {"id": "environment/2013/nov/29/arctic-30-activist-harris-jail-devon", "type": "article", "sectionId": "environment", "sectionName": "Environment", "webPublicationDate": "2013-11-29T19:36:40Z", "webTitle": "Arctic 30: unlikely activist forced to find strength in Murmansk jail", "webUrl": "https://www.theguardian.com/environment/2013/nov/29/arctic-30-activist-harris-jail-devon", "apiUrl": "https://content.guardianapis.com/environment/2013/nov/29/arctic-30-activist-harris-jail-devon", "isHosted": false, "pillarId": "pillar/news", "pillarName": "News"}, {"id": "business/2013/nov/29/sse-rwe-energy-windfarm-greater-gabbard-high-voltage-link", "type": "article", "sectionId": "business", "sectionName": "Business", "webPublicationDate": "2013-11-29T19:15:30Z", "webTitle": "Two of Britain's big six sell windfarm high-voltage link for \u00a3317m", "webUrl": "https://www.theguardian.com/business/2013/nov/29/sse-rwe-energy-windfarm-greater-gabbard-high-voltage-link", "apiUrl": "https://content.guardianapis.com/business/2013/nov/29/sse-rwe-energy-windfarm-greater-gabbard-high-voltage-link", "isHosted": false, "pillarId": "pillar/news", "pillarName": "News"}, {"id": "environment/2013/nov/29/biofuels-worse-fossil-fuels-food-crops-greenhouse-gases", "type": "liveblog", "sectionId": "environment", "sectionName": "Environment", "webPublicationDate": "2013-11-29T19:13:37Z", "webTitle": "Are biofuels worse than fossil fuels?", "webUrl": "https://www.theguardian.com/environment/2013/nov/29/biofuels-worse-fossil-fuels-food-crops-greenhouse-gases", "apiUrl": "https://content.guardianapis.com/environment/2013/nov/29/biofuels-worse-fossil-fuels-food-crops-greenhouse-gases", "isHosted": false, "pillarId": "pillar/news", "pillarName": "News"}, {"id": "world/2013/nov/29/britons-protest-israel-plan-remove-palestinian-bedouin", "type": "article", "sectionId": "world", "sectionName": "World news", "webPublicationDate": "2013-11-29T18:49:25Z", "webTitle": "Britons protest over Israel plan to remove up to 70,000 Palestinian Bedouins", "webUrl": "https://www.theguardian.com/world/2013/nov/29/britons-protest-israel-plan-remove-palestinian-bedouin", "apiUrl": "https://content.guardianapis.com/world/2013/nov/29/britons-protest-israel-plan-remove-palestinian-bedouin", "isHosted": false, "pillarId": "pillar/news", "pillarName": "News"}, {"id": "environment/2013/nov/29/paddy-ashdown-warns-climate-change-risks-extreme-weather", "type": "article", "sectionId": "environment", "sectionName": "Environment", "webPublicationDate": "2013-11-29T18:37:19Z", "webTitle": "Paddy Ashdown warns lack of action in climate change risks extreme weather", "webUrl": "https://www.theguardian.com/environment/2013/nov/29/paddy-ashdown-warns-climate-change-risks-extreme-weather", "apiUrl": "https://content.guardianapis.com/environment/2013/nov/29/paddy-ashdown-warns-climate-change-risks-extreme-weather", "isHosted": false, "pillarId": "pillar/news", "pillarName": "News"}, {"id": "money/2013/nov/29/government-energy-firms-freeze-prices-green-cuts", "type": "article", "sectionId": "money", "sectionName": "Money", "webPublicationDate": "2013-11-29T18:13:03Z", "webTitle": "Government did ask energy firms to freeze prices in return for green cuts", "webUrl": "https://www.theguardian.com/money/2013/nov/29/government-energy-firms-freeze-prices-green-cuts", "apiUrl": "https://content.guardianapis.com/money/2013/nov/29/government-energy-firms-freeze-prices-green-cuts", "isHosted": false, "pillarId": "pillar/lifestyle", "pillarName": "Lifestyle"}, {"id": "environment/damian-carrington-blog/2013/nov/29/uk-homes-most-expensive-heat-eu-fuel-poverty", "type": "article", "sectionId": "environment", "sectionName": "Environment", "webPublicationDate": "2013-11-29T18:12:22Z", "webTitle": "Britain's damp, leaky homes among Europe's most costly to heat", "webUrl": "https://www.theguardian.com/environment/damian-carrington-blog/2013/nov/29/uk-homes-most-expensive-heat-eu-fuel-poverty", "apiUrl": "https://content.guardianapis.com/environment/damian-carrington-blog/2013/nov/29/uk-homes-most-expensive-heat-eu-fuel-poverty", "isHosted": false, "pillarId": "pillar/news", "pillarName": "News"}, {"id": "environment/blog/2013/nov/29/climate-change-extreme-weather-philippines-typhoon-haiyan", "type": "article", "sectionId": "environment", "sectionName": "Environment", "webPublicationDate": "2013-11-29T16:52:48Z", "webTitle": "Typhoon Haiyan: climate change is increasing the intensity of extreme weather events | Paddy Ashdown", "webUrl": "https://www.theguardian.com/environment/blog/2013/nov/29/climate-change-extreme-weather-philippines-typhoon-haiyan", "apiUrl": "https://content.guardianapis.com/environment/blog/2013/nov/29/climate-change-extreme-weather-philippines-typhoon-haiyan", "isHosted": false, "pillarId": "pillar/news", "pillarName": "News"}, {"id": "uk-news/2013/nov/29/hs2-planning-documents-high-speed-rail-councils", "type": "article", "sectionId": "uk-news", "sectionName": "UK news", "webPublicationDate": "2013-11-29T16:31:25Z", "webTitle": "HS2 planning: 'How on earth is the public meant to make sense of this?'", "webUrl": "https://www.theguardian.com/uk-news/2013/nov/29/hs2-planning-documents-high-speed-rail-councils", "apiUrl": "https://content.guardianapis.com/uk-news/2013/nov/29/hs2-planning-documents-high-speed-rail-councils", "isHosted": false, "pillarId": "pillar/news", "pillarName": "News"}, {"id": "environment/2013/nov/29/china-largest-desert-freshwater-lake-shrinking-hongjiannao", "type": "article", "sectionId": "environment", "sectionName": "Environment", "webPublicationDate": "2013-11-29T16:06:50Z", "webTitle": "China's largest desert freshwater lake shrinking faster than ever", "webUrl": "https://www.theguardian.com/environment/2013/nov/29/china-largest-desert-freshwater-lake-shrinking-hongjiannao", "apiUrl": "https://content.guardianapis.com/environment/2013/nov/29/china-largest-desert-freshwater-lake-shrinking-hongjiannao", "isHosted": false, "pillarId": "pillar/news", "pillarName": "News"}, {"id": "environment/gallery/2013/nov/29/week-in-wildlife-in-pictures", "type": "gallery", "sectionId": "environment", "sectionName": "Environment", "webPublicationDate": "2013-11-29T15:33:00Z", "webTitle": "The week in wildlife \u2013 in pictures", "webUrl": "https://www.theguardian.com/environment/gallery/2013/nov/29/week-in-wildlife-in-pictures", "apiUrl": "https://content.guardianapis.com/environment/gallery/2013/nov/29/week-in-wildlife-in-pictures", "isHosted": false, "pillarId": "pillar/news", "pillarName": "News"}, {"id": "environment/2013/nov/29/food-based-biofuels-rise-european-union-crops", "type": "article", "sectionId": "environment", "sectionName": "Environment", "webPublicationDate": "2013-11-29T12:53:02Z", "webTitle": "Food-based biofuels allowance to rise by 50% under EU plans", "webUrl": "https://www.theguardian.com/environment/2013/nov/29/food-based-biofuels-rise-european-union-crops", "apiUrl": "https://content.guardianapis.com/environment/2013/nov/29/food-based-biofuels-rise-european-union-crops", "isHosted": false, "pillarId": "pillar/news", "pillarName": "News"}, {"id": "environment/2013/nov/29/st-jude-storm-killed-10-million-trees-forestry-commission", "type": "article", "sectionId": "environment", "sectionName": "Environment", "webPublicationDate": "2013-11-29T11:28:50Z", "webTitle": "St Jude storm may have killed around 10 million trees", "webUrl": "https://www.theguardian.com/environment/2013/nov/29/st-jude-storm-killed-10-million-trees-forestry-commission", "apiUrl": "https://content.guardianapis.com/environment/2013/nov/29/st-jude-storm-killed-10-million-trees-forestry-commission", "isHosted": false, "pillarId": "pillar/news", "pillarName": "News"}, {"id": "environment/2013/nov/29/badger-cull-called-off-gloucestershire", "type": "article", "sectionId": "environment", "sectionName": "Environment", "webPublicationDate": "2013-11-29T11:06:57Z", "webTitle": "Badger cull called off in Gloucestershire", "webUrl": "https://www.theguardian.com/environment/2013/nov/29/badger-cull-called-off-gloucestershire", "apiUrl": "https://content.guardianapis.com/environment/2013/nov/29/badger-cull-called-off-gloucestershire", "isHosted": false, "pillarId": "pillar/news", "pillarName": "News"}, {"id": "money/2013/nov/29/co-op-ecotricity-fixed-deals-pressure", "type": "article", "sectionId": "money", "sectionName": "Money", "webPublicationDate": "2013-11-29T10:26:14Z", "webTitle": "Co-op and Ecotricity fixed deals pile pressure on Big Six", "webUrl": "https://www.theguardian.com/money/2013/nov/29/co-op-ecotricity-fixed-deals-pressure", "apiUrl": "https://content.guardianapis.com/money/2013/nov/29/co-op-ecotricity-fixed-deals-pressure", "isHosted": false, "pillarId": "pillar/lifestyle", "pillarName": "Lifestyle"}, {"id": "environment/2013/nov/29/browne-fracking-not-reduce-uk-gas-prices-shale-energy-bills", "type": "article", "sectionId": "environment", "sectionName": "Environment", "webPublicationDate": "2013-11-29T06:00:00Z", "webTitle": "Lord Browne: fracking will not reduce UK gas prices", "webUrl": "https://www.theguardian.com/environment/2013/nov/29/browne-fracking-not-reduce-uk-gas-prices-shale-energy-bills", "apiUrl": "https://content.guardianapis.com/environment/2013/nov/29/browne-fracking-not-reduce-uk-gas-prices-shale-energy-bills", "isHosted": false, "pillarId": "pillar/news", "pillarName": "News"}, {"id": "environment/2013/nov/29/arctic-30-prisoner-alex-harris-interview", "type": "article", "sectionId": "environment", "sectionName": "Environment", "webPublicationDate": "2013-11-29T01:20:33Z", "webTitle": "Arctic 30 prisoners sent messages to each other on pipes, says Alex Harris", "webUrl": "https://www.theguardian.com/environment/2013/nov/29/arctic-30-prisoner-alex-harris-interview", "apiUrl": "https://content.guardianapis.com/environment/2013/nov/29/arctic-30-prisoner-alex-harris-interview", "isHosted": false, "pillarId": "pillar/news", "pillarName": "News"}, {"id": "commentisfree/2013/nov/29/surfer-shark-attack-culls", "type": "article", "sectionId": "commentisfree", "sectionName": "Opinion", "webPublicationDate": "2013-11-29T00:54:16Z", "webTitle": "I'm a surfer, but oppose culling sharks | Jock Serong", "webUrl": "https://www.theguardian.com/commentisfree/2013/nov/29/surfer-shark-attack-culls", "apiUrl": "https://content.guardianapis.com/commentisfree/2013/nov/29/surfer-shark-attack-culls", "isHosted": false, "pillarId": "pillar/opinion", "pillarName": "Opinion"}, {"id": "film/2013/nov/28/leviathan-film-review", "type": "article", "sectionId": "film", "sectionName": "Film", "webPublicationDate": "2013-11-28T22:31:00Z", "webTitle": "Leviathan \u2013 review", "webUrl": "https://www.theguardian.com/film/2013/nov/28/leviathan-film-review", "apiUrl": "https://content.guardianapis.com/film/2013/nov/28/leviathan-film-review", "isHosted": false, "pillarId": "pillar/arts", "pillarName": "Arts"}, {"id": "environment/2013/nov/28/south-uist-landscape-painted-gold", "type": "article", "sectionId": "environment", "sectionName": "Environment", "webPublicationDate": "2013-11-28T21:00:02Z", "webTitle": "Country diary: South Uist: The expanse of sunlight widens until the landscape is painted with gold", "webUrl": "https://www.theguardian.com/environment/2013/nov/28/south-uist-landscape-painted-gold", "apiUrl": "https://content.guardianapis.com/environment/2013/nov/28/south-uist-landscape-painted-gold", "isHosted": false, "pillarId": "pillar/news", "pillarName": "News"}, {"id": "environment/2013/nov/28/green-levies-consumer-bills-energy-efficiency", "type": "article", "sectionId": "environment", "sectionName": "Environment", "webPublicationDate": "2013-11-28T18:04:05Z", "webTitle": "Green levies face being watered down as ministers move to cut consumer bills", "webUrl": "https://www.theguardian.com/environment/2013/nov/28/green-levies-consumer-bills-energy-efficiency", "apiUrl": "https://content.guardianapis.com/environment/2013/nov/28/green-levies-consumer-bills-energy-efficiency", "isHosted": false, "pillarId": "pillar/news", "pillarName": "News"}, {"id": "environment/2013/nov/28/households-lose-improvements-eco-reform", "type": "article", "sectionId": "environment", "sectionName": "Environment", "webPublicationDate": "2013-11-28T17:55:06Z", "webTitle": "Hundreds of homes lose out amid ECO reform uncertainty", "webUrl": "https://www.theguardian.com/environment/2013/nov/28/households-lose-improvements-eco-reform", "apiUrl": "https://content.guardianapis.com/environment/2013/nov/28/households-lose-improvements-eco-reform", "isHosted": false, "pillarId": "pillar/news", "pillarName": "News"}, {"id": "environment/2013/nov/28/energy-efficiency-cold-house-case-study", "type": "article", "sectionId": "environment", "sectionName": "Environment", "webPublicationDate": "2013-11-28T17:39:34Z", "webTitle": "Energy efficiency case study: from cold, leaky house to cosy home", "webUrl": "https://www.theguardian.com/environment/2013/nov/28/energy-efficiency-cold-house-case-study", "apiUrl": "https://content.guardianapis.com/environment/2013/nov/28/energy-efficiency-cold-house-case-study", "isHosted": false, "pillarId": "pillar/news", "pillarName": "News"}, {"id": "society/patrick-butler-cuts-blog/2013/nov/28/poverty-mps-call-for-delayed-food-banks-report-to-be-published", "type": "article", "sectionId": "society", "sectionName": "Society", "webPublicationDate": "2013-11-28T16:47:39Z", "webTitle": "Food poverty: MPs call for 'delayed' food banks report to be published", "webUrl": "https://www.theguardian.com/society/patrick-butler-cuts-blog/2013/nov/28/poverty-mps-call-for-delayed-food-banks-report-to-be-published", "apiUrl": "https://content.guardianapis.com/society/patrick-butler-cuts-blog/2013/nov/28/poverty-mps-call-for-delayed-food-banks-report-to-be-published", "isHosted": false, "pillarId": "pillar/news", "pillarName": "News"}, {"id": "environment/earth-insight/2013/nov/28/war-on-democracy-corporations-spy-profit-activism", "type": "article", "sectionId": "environment", "sectionName": "Environment", "webPublicationDate": "2013-11-28T16:46:48Z", "webTitle": "The war on democracy | Nafeez Ahmed", "webUrl": "https://www.theguardian.com/environment/earth-insight/2013/nov/28/war-on-democracy-corporations-spy-profit-activism", "apiUrl": "https://content.guardianapis.com/environment/earth-insight/2013/nov/28/war-on-democracy-corporations-spy-profit-activism", "isHosted": false, "pillarId": "pillar/news", "pillarName": "News"}, {"id": "business/2013/nov/28/renewableuk-george-osborne-windfarms", "type": "article", "sectionId": "environment", "sectionName": "Environment", "webPublicationDate": "2013-11-28T13:50:01Z", "webTitle": "RenewableUK urges Osborne to restore investor confidence in windfarms", "webUrl": "https://www.theguardian.com/business/2013/nov/28/renewableuk-george-osborne-windfarms", "apiUrl": "https://content.guardianapis.com/business/2013/nov/28/renewableuk-george-osborne-windfarms", "isHosted": false, "pillarId": "pillar/news", "pillarName": "News"}, {"id": "environment/2013/nov/28/canadian-arctic-port-and-rail-company-pins-hope-on-oil-exports", "type": "article", "sectionId": "environment", "sectionName": "Environment", "webPublicationDate": "2013-11-28T13:04:57Z", "webTitle": "Canadian Arctic port and rail company pins hope for revival on oil exports", "webUrl": "https://www.theguardian.com/environment/2013/nov/28/canadian-arctic-port-and-rail-company-pins-hope-on-oil-exports", "apiUrl": "https://content.guardianapis.com/environment/2013/nov/28/canadian-arctic-port-and-rail-company-pins-hope-on-oil-exports", "isHosted": false, "pillarId": "pillar/news", "pillarName": "News"}, {"id": "environment/2013/nov/28/tory-donor-chair-natural-england-andrew-sells", "type": "article", "sectionId": "environment", "sectionName": "Environment", "webPublicationDate": "2013-11-28T13:04:47Z", "webTitle": "Major Tory party donor  chosen as chair of government nature watchdog", "webUrl": "https://www.theguardian.com/environment/2013/nov/28/tory-donor-chair-natural-england-andrew-sells", "apiUrl": "https://content.guardianapis.com/environment/2013/nov/28/tory-donor-chair-natural-england-andrew-sells", "isHosted": false, "pillarId": "pillar/news", "pillarName": "News"}, {"id": "environment/blog/2013/nov/28/can-we-play-our-way-to-a-greener-life", "type": "article", "sectionId": "environment", "sectionName": "Environment", "webPublicationDate": "2013-11-28T12:54:01Z", "webTitle": "Can we play our way to a greener life? | Luke Holland", "webUrl": "https://www.theguardian.com/environment/blog/2013/nov/28/can-we-play-our-way-to-a-greener-life", "apiUrl": "https://content.guardianapis.com/environment/blog/2013/nov/28/can-we-play-our-way-to-a-greener-life", "isHosted": false, "pillarId": "pillar/news", "pillarName": "News"}, {"id": "music/2013/nov/28/barenaked-ladies-cancel-seaworld-following-blackfish-documentary", "type": "article", "sectionId": "music", "sectionName": "Music", "webPublicationDate": "2013-11-28T12:39:00Z", "webTitle": "Barenaked Ladies cancel SeaWorld gig following Blackfish documentary", "webUrl": "https://www.theguardian.com/music/2013/nov/28/barenaked-ladies-cancel-seaworld-following-blackfish-documentary", "apiUrl": "https://content.guardianapis.com/music/2013/nov/28/barenaked-ladies-cancel-seaworld-following-blackfish-documentary", "isHosted": false, "pillarId": "pillar/arts", "pillarName": "Arts"}, {"id": "money/2013/nov/28/energy-bills-falls-autumn-statement", "type": "article", "sectionId": "environment", "sectionName": "Environment", "webPublicationDate": "2013-11-28T12:24:00Z", "webTitle": "Energy bills could fall by \u00a350 in autumn statement measures", "webUrl": "https://www.theguardian.com/money/2013/nov/28/energy-bills-falls-autumn-statement", "apiUrl": "https://content.guardianapis.com/money/2013/nov/28/energy-bills-falls-autumn-statement", "isHosted": false, "pillarId": "pillar/news", "pillarName": "News"}, {"id": "global-development/2013/nov/28/afghanistan-mining-safeguards-campaigners-global-witness", "type": "article", "sectionId": "global-development", "sectionName": "Global development", "webPublicationDate": "2013-11-28T12:11:22Z", "webTitle": "Afghanistan mining sector lacks safeguards, warn campaigners", "webUrl": "https://www.theguardian.com/global-development/2013/nov/28/afghanistan-mining-safeguards-campaigners-global-witness", "apiUrl": "https://content.guardianapis.com/global-development/2013/nov/28/afghanistan-mining-safeguards-campaigners-global-witness", "isHosted": false, "pillarId": "pillar/news", "pillarName": "News"}, {"id": "environment/2013/nov/28/sainsburys-admits-new-zealand-jellied-eels-sold-as-british", "type": "article", "sectionId": "environment", "sectionName": "Environment", "webPublicationDate": "2013-11-28T11:26:48Z", "webTitle": "Sainsbury's admits New Zealand jellied eels were mislabelled as British", "webUrl": "https://www.theguardian.com/environment/2013/nov/28/sainsburys-admits-new-zealand-jellied-eels-sold-as-british", "apiUrl": "https://content.guardianapis.com/environment/2013/nov/28/sainsburys-admits-new-zealand-jellied-eels-sold-as-british", "isHosted": false, "pillarId": "pillar/news", "pillarName": "News"}, {"id": "environment/2013/nov/28/vested-interests-are-harming-efforts-to-save-the-leadbeaters-possum", "type": "article", "sectionId": "environment", "sectionName": "Environment", "webPublicationDate": "2013-11-28T03:24:26Z", "webTitle": "'Vested interests' are harming efforts to save the Leadbeater's possum", "webUrl": "https://www.theguardian.com/environment/2013/nov/28/vested-interests-are-harming-efforts-to-save-the-leadbeaters-possum", "apiUrl": "https://content.guardianapis.com/environment/2013/nov/28/vested-interests-are-harming-efforts-to-save-the-leadbeaters-possum", "isHosted": false, "pillarId": "pillar/news", "pillarName": "News"}, {"id": "environment/2013/nov/28/marine-plastic-pollution-the-threat-pervading-australias-waters", "type": "article", "sectionId": "environment", "sectionName": "Environment", "webPublicationDate": "2013-11-27T21:38:53Z", "webTitle": "Marine plastic pollution: the threat pervading Australia's waters", "webUrl": "https://www.theguardian.com/environment/2013/nov/28/marine-plastic-pollution-the-threat-pervading-australias-waters", "apiUrl": "https://content.guardianapis.com/environment/2013/nov/28/marine-plastic-pollution-the-threat-pervading-australias-waters", "isHosted": false, "pillarId": "pillar/news", "pillarName": "News"}, {"id": "environment/2013/nov/27/titchmarsh-northamptonshire-pink-slime-mould", "type": "article", "sectionId": "environment", "sectionName": "Environment", "webPublicationDate": "2013-11-27T20:59:00Z", "webTitle": "Country diary: Titchmarsh, Northamptonshire: Under a fallen log is a pink slime mould", "webUrl": "https://www.theguardian.com/environment/2013/nov/27/titchmarsh-northamptonshire-pink-slime-mould", "apiUrl": "https://content.guardianapis.com/environment/2013/nov/27/titchmarsh-northamptonshire-pink-slime-mould", "isHosted": false, "pillarId": "pillar/news", "pillarName": "News"}, {"id": "environment/2013/nov/27/four-antifracking-protest-arrested-blocking-lorry-salford-site", "type": "article", "sectionId": "environment", "sectionName": "Environment", "webPublicationDate": "2013-11-27T19:44:33Z", "webTitle": "Four arrested for blocking lorry on way to Salford methane test-drilling site", "webUrl": "https://www.theguardian.com/environment/2013/nov/27/four-antifracking-protest-arrested-blocking-lorry-salford-site", "apiUrl": "https://content.guardianapis.com/environment/2013/nov/27/four-antifracking-protest-arrested-blocking-lorry-salford-site", "isHosted": false, "pillarId": "pillar/news", "pillarName": "News"}, {"id": "environment/2013/nov/27/water-shortages-fracking-impractical-uk", "type": "article", "sectionId": "environment", "sectionName": "Environment", "webPublicationDate": "2013-11-27T16:50:39Z", "webTitle": "Water shortages may make fracking impractical, industry says", "webUrl": "https://www.theguardian.com/environment/2013/nov/27/water-shortages-fracking-impractical-uk", "apiUrl": "https://content.guardianapis.com/environment/2013/nov/27/water-shortages-fracking-impractical-uk", "isHosted": false, "pillarId": "pillar/news", "pillarName": "News"}, {"id": "environment/2013/nov/27/google-earth-persian-gulf-fish-catch", "type": "article", "sectionId": "environment", "sectionName": "Environment", "webPublicationDate": "2013-11-27T16:35:37Z", "webTitle": "Google Earth reveals Persian gulf fish catch is six times larger than thought", "webUrl": "https://www.theguardian.com/environment/2013/nov/27/google-earth-persian-gulf-fish-catch", "apiUrl": "https://content.guardianapis.com/environment/2013/nov/27/google-earth-persian-gulf-fish-catch", "isHosted": false, "pillarId": "pillar/news", "pillarName": "News"}, {"id": "environment/2013/nov/27/1-in-10-uk-adults-environmental-group", "type": "article", "sectionId": "environment", "sectionName": "Environment", "webPublicationDate": "2013-11-27T15:19:40Z", "webTitle": "One in 10 UK adults involved in an environmental group, figures show", "webUrl": "https://www.theguardian.com/environment/2013/nov/27/1-in-10-uk-adults-environmental-group", "apiUrl": "https://content.guardianapis.com/environment/2013/nov/27/1-in-10-uk-adults-environmental-group", "isHosted": false, "pillarId": "pillar/news", "pillarName": "News"}, {"id": "commentisfree/2013/nov/27/al-gore-veganism-eating-words-sceptical-meat-eating", "type": "article", "sectionId": "commentisfree", "sectionName": "Opinion", "webPublicationDate": "2013-11-27T14:58:55Z", "webTitle": "Why I'm eating my words on veganism \u2013 again | George Monbiot", "webUrl": "https://www.theguardian.com/commentisfree/2013/nov/27/al-gore-veganism-eating-words-sceptical-meat-eating", "apiUrl": "https://content.guardianapis.com/commentisfree/2013/nov/27/al-gore-veganism-eating-words-sceptical-meat-eating", "isHosted": false, "pillarId": "pillar/opinion", "pillarName": "Opinion"}, {"id": "world/video/2013/nov/27/sperm-whale-explodes-man-opens-stomach-video", "type": "video", "sectionId": "world", "sectionName": "World news", "webPublicationDate": "2013-11-27T14:48:00Z", "webTitle": "Sperm whale explodes as man tries to open stomach - video", "webUrl": "https://www.theguardian.com/world/video/2013/nov/27/sperm-whale-explodes-man-opens-stomach-video", "apiUrl": "https://content.guardianapis.com/world/video/2013/nov/27/sperm-whale-explodes-man-opens-stomach-video", "isHosted": false, "pillarId": "pillar/news", "pillarName": "News"}, {"id": "environment/2013/nov/27/polar-bears-climate-change-canada-hudson-bay", "type": "article", "sectionId": "environment", "sectionName": "Environment", "webPublicationDate": "2013-11-27T14:18:05Z", "webTitle": "Polar bear numbers in Hudson Bay of Canada on verge of collapse", "webUrl": "https://www.theguardian.com/environment/2013/nov/27/polar-bears-climate-change-canada-hudson-bay", "apiUrl": "https://content.guardianapis.com/environment/2013/nov/27/polar-bears-climate-change-canada-hudson-bay", "isHosted": false, "pillarId": "pillar/news", "pillarName": "News"}, {"id": "environment/2013/nov/27/canada-living-with-polar-bears-climate-change", "type": "article", "sectionId": "environment", "sectionName": "Environment", "webPublicationDate": "2013-11-27T14:16:48Z", "webTitle": "For Canada's remote towns, living with polar bears is growing more risky", "webUrl": "https://www.theguardian.com/environment/2013/nov/27/canada-living-with-polar-bears-climate-change", "apiUrl": "https://content.guardianapis.com/environment/2013/nov/27/canada-living-with-polar-bears-climate-change", "isHosted": false, "pillarId": "pillar/news", "pillarName": "News"}, {"id": "environment/2013/nov/27/90000-porsche-low-carbon-government-grant", "type": "article", "sectionId": "environment", "sectionName": "Environment", "webPublicationDate": "2013-11-27T13:50:14Z", "webTitle": "\u00a390,000 Porsche gets low-carbon government grant", "webUrl": "https://www.theguardian.com/environment/2013/nov/27/90000-porsche-low-carbon-government-grant", "apiUrl": "https://content.guardianapis.com/environment/2013/nov/27/90000-porsche-low-carbon-government-grant", "isHosted": false, "pillarId": "pillar/news", "pillarName": "News"}, {"id": "environment/2013/nov/27/wildlife-risk-ban-pesticide-bee-death-neonicotinoids", "type": "article", "sectionId": "environment", "sectionName": "Environment", "webPublicationDate": "2013-11-27T12:00:09Z", "webTitle": "'Wildlife at risk' from incoming ban on pesticide linked to bee deaths", "webUrl": "https://www.theguardian.com/environment/2013/nov/27/wildlife-risk-ban-pesticide-bee-death-neonicotinoids", "apiUrl": "https://content.guardianapis.com/environment/2013/nov/27/wildlife-risk-ban-pesticide-bee-death-neonicotinoids", "isHosted": false, "pillarId": "pillar/news", "pillarName": "News"}]}}