{"response": {"status": "ok", "userTier": "developer", "total": 34785, "startIndex": 1, "pageSize": 50, "currentPage": 1, "pages": 696, "orderBy": "newest", "results": [{"id": "environment/2012/nov/30/windfarms-bitter-fight-dividing-uk", "type": "article", "sectionId": "environment", "sectionName": "Environment", "webPublicationDate": "2012-11-30T23:00:00Z", "webTitle": "Windfarms: the bitter fight dividing the UK", "webUrl": "https://www.theguardian.com/environment/2012/nov/30/windfarms-bitter-fight-dividing-uk", "apiUrl": "https://content.guardianapis.com/environment/2012/nov/30/windfarms-bitter-fight-dividing-uk", "isHosted": false, "pillarId": "pillar/news", "pillarName": "News"}, {"id": "environment/2012/nov/30/waresley-wood-cambridgeshire-church-broad-nave", "type": "article", "sectionId": "environment", "sectionName": "Environment", "webPublicationDate": "2012-11-30T21:00:03Z", "webTitle": "Country diary: Waresley Wood, Cambridgeshire: There was something of a church about the woods, the main ride like a nave", "webUrl": "https://www.theguardian.com/environment/2012/nov/30/waresley-wood-cambridgeshire-church-broad-nave", "apiUrl": "https://content.guardianapis.com/environment/2012/nov/30/waresley-wood-cambridgeshire-church-broad-nave", "isHosted": false, "pillarId": "pillar/news", "pillarName": "News"}, {"id": "environment/2012/nov/30/climate-change-you-cant-ignore-it", "type": "article", "sectionId": "environment", "sectionName": "Environment", "webPublicationDate": "2012-11-30T20:23:34Z", "webTitle": "Climate change: you can't ignore it | Anne Karpf", "webUrl": "https://www.theguardian.com/environment/2012/nov/30/climate-change-you-cant-ignore-it", "apiUrl": "https://content.guardianapis.com/environment/2012/nov/30/climate-change-you-cant-ignore-it", "isHosted": false, "pillarId": "pillar/news", "pillarName": "News"}, {"id": "world/2012/nov/30/italy-ilva-steel-factory-cancer", "type": "article", "sectionId": "world", "sectionName": "World news", "webPublicationDate": "2012-11-30T20:14:53Z", "webTitle": "Italian steelworks accused over cancers wins reprieve", "webUrl": "https://www.theguardian.com/world/2012/nov/30/italy-ilva-steel-factory-cancer", "apiUrl": "https://content.guardianapis.com/world/2012/nov/30/italy-ilva-steel-factory-cancer", "isHosted": false, "pillarId": "pillar/news", "pillarName": "News"}, {"id": "environment/2012/nov/30/somerset-flood-victim-return-home", "type": "article", "sectionId": "environment", "sectionName": "Environment", "webPublicationDate": "2012-11-30T18:06:19Z", "webTitle": "Somerset flood victim: 'I don't know when, or if, I'll go back home'", "webUrl": "https://www.theguardian.com/environment/2012/nov/30/somerset-flood-victim-return-home", "apiUrl": "https://content.guardianapis.com/environment/2012/nov/30/somerset-flood-victim-return-home", "isHosted": false, "pillarId": "pillar/news", "pillarName": "News"}, {"id": "environment/damian-carrington-blog/2012/nov/30/energy-climate-change-cameron-kennedy", "type": "article", "sectionId": "environment", "sectionName": "Environment", "webPublicationDate": "2012-11-30T16:28:36Z", "webTitle": "David Cameron turns hit man over top energy and climate job | Damian Carrington", "webUrl": "https://www.theguardian.com/environment/damian-carrington-blog/2012/nov/30/energy-climate-change-cameron-kennedy", "apiUrl": "https://content.guardianapis.com/environment/damian-carrington-blog/2012/nov/30/energy-climate-change-cameron-kennedy", "isHosted": false, "pillarId": "pillar/news", "pillarName": "News"}, {"id": "world/2012/nov/30/italy-resort-island-plan-adriatic", "type": "article", "sectionId": "world", "sectionName": "World news", "webPublicationDate": "2012-11-30T15:47:20Z", "webTitle": "\u20ac1bn resort island planned for Italy's Adriatic coast", "webUrl": "https://www.theguardian.com/world/2012/nov/30/italy-resort-island-plan-adriatic", "apiUrl": "https://content.guardianapis.com/world/2012/nov/30/italy-resort-island-plan-adriatic", "isHosted": false, "pillarId": "pillar/news", "pillarName": "News"}, {"id": "environment/2012/nov/30/flooding-120m-defence-spending", "type": "article", "sectionId": "environment", "sectionName": "Environment", "webPublicationDate": "2012-11-30T15:12:45Z", "webTitle": "David Cameron forced into U-turn on flood defence spending cuts", "webUrl": "https://www.theguardian.com/environment/2012/nov/30/flooding-120m-defence-spending", "apiUrl": "https://content.guardianapis.com/environment/2012/nov/30/flooding-120m-defence-spending", "isHosted": false, "pillarId": "pillar/news", "pillarName": "News"}, {"id": "environment/gallery/2012/nov/30/week-in-wildlife-in-pictures", "type": "gallery", "sectionId": "environment", "sectionName": "Environment", "webPublicationDate": "2012-11-30T15:06:00Z", "webTitle": "The week in wildlife \u2013 in pictures", "webUrl": "https://www.theguardian.com/environment/gallery/2012/nov/30/week-in-wildlife-in-pictures", "apiUrl": "https://content.guardianapis.com/environment/gallery/2012/nov/30/week-in-wildlife-in-pictures", "isHosted": false, "pillarId": "pillar/news", "pillarName": "News"}, {"id": "world/picture/2012/nov/30/eyewitness-new-guinea-birds-of-paradise", "type": "picture", "sectionId": "world", "sectionName": "World news", "webPublicationDate": "2012-11-30T13:38:27Z", "webTitle": "Eyewitness: New Guinea", "webUrl": "https://www.theguardian.com/world/picture/2012/nov/30/eyewitness-new-guinea-birds-of-paradise", "apiUrl": "https://content.guardianapis.com/world/picture/2012/nov/30/eyewitness-new-guinea-birds-of-paradise", "isHosted": false, "pillarId": "pillar/news", "pillarName": "News"}, {"id": "commentisfree/2012/nov/30/sea-of-red-algae", "type": "article", "sectionId": "commentisfree", "sectionName": "Opinion", "webPublicationDate": "2012-11-30T13:20:02Z", "webTitle": "A sea of red that evokes thoughts of more than just algae | Jonathan Jones", "webUrl": "https://www.theguardian.com/commentisfree/2012/nov/30/sea-of-red-algae", "apiUrl": "https://content.guardianapis.com/commentisfree/2012/nov/30/sea-of-red-algae", "isHosted": false, "pillarId": "pillar/opinion", "pillarName": "Opinion"}, {"id": "environment/gallery/2012/nov/30/birds-of-paradise-in-pictures", "type": "gallery", "sectionId": "environment", "sectionName": "Environment", "webPublicationDate": "2012-11-30T12:03:00Z", "webTitle": "Birds of paradise \u2013 in pictures", "webUrl": "https://www.theguardian.com/environment/gallery/2012/nov/30/birds-of-paradise-in-pictures", "apiUrl": "https://content.guardianapis.com/environment/gallery/2012/nov/30/birds-of-paradise-in-pictures", "isHosted": false, "pillarId": "pillar/news", "pillarName": "News"}, {"id": "politics/2012/nov/29/ely-cathedral-panorama-threat-development", "type": "article", "sectionId": "politics", "sectionName": "Politics", "webPublicationDate": "2012-11-29T21:00:06Z", "webTitle": "Letters: Ely cathedral's majestic panorama threatened by development", "webUrl": "https://www.theguardian.com/politics/2012/nov/29/ely-cathedral-panorama-threat-development", "apiUrl": "https://content.guardianapis.com/politics/2012/nov/29/ely-cathedral-panorama-threat-development", "isHosted": false, "pillarId": "pillar/news", "pillarName": "News"}, {"id": "environment/2012/nov/29/south-uist-surrealist-habits-goose-barnacle", "type": "article", "sectionId": "environment", "sectionName": "Environment", "webPublicationDate": "2012-11-29T20:59:01Z", "webTitle": "Country diary: South Uist: Surrealist habits of the goose barnacle", "webUrl": "https://www.theguardian.com/environment/2012/nov/29/south-uist-surrealist-habits-goose-barnacle", "apiUrl": "https://content.guardianapis.com/environment/2012/nov/29/south-uist-surrealist-habits-goose-barnacle", "isHosted": false, "pillarId": "pillar/news", "pillarName": "News"}, {"id": "environment/2012/nov/29/greenland-antarctica-4-trillion-tonnes-ice", "type": "article", "sectionId": "environment", "sectionName": "Environment", "webPublicationDate": "2012-11-29T19:04:00Z", "webTitle": "Greenland and Antarctica 'have lost four trillion tonnes of ice' in 20 years", "webUrl": "https://www.theguardian.com/environment/2012/nov/29/greenland-antarctica-4-trillion-tonnes-ice", "apiUrl": "https://content.guardianapis.com/environment/2012/nov/29/greenland-antarctica-4-trillion-tonnes-ice", "isHosted": false, "pillarId": "pillar/news", "pillarName": "News"}, {"id": "environment/gallery/2012/nov/29/polar-ice-sheets-losing-mass-in-pictures", "type": "gallery", "sectionId": "environment", "sectionName": "Environment", "webPublicationDate": "2012-11-29T19:00:02Z", "webTitle": "Polar ice sheets melting - in pictures", "webUrl": "https://www.theguardian.com/environment/gallery/2012/nov/29/polar-ice-sheets-losing-mass-in-pictures", "apiUrl": "https://content.guardianapis.com/environment/gallery/2012/nov/29/polar-ice-sheets-losing-mass-in-pictures", "isHosted": false, "pillarId": "pillar/news", "pillarName": "News"}, {"id": "environment/2012/nov/29/fish-barack-obama-presidents", "type": "article", "sectionId": "environment", "sectionName": "Environment", "webPublicationDate": "2012-11-29T18:45:12Z", "webTitle": "Spawned in the USA: new fish named after Barack Obama", "webUrl": "https://www.theguardian.com/environment/2012/nov/29/fish-barack-obama-presidents", "apiUrl": "https://content.guardianapis.com/environment/2012/nov/29/fish-barack-obama-presidents", "isHosted": false, "pillarId": "pillar/news", "pillarName": "News"}, {"id": "environment/2012/nov/29/ed-davey-energy-reforms", "type": "article", "sectionId": "environment", "sectionName": "Environment", "webPublicationDate": "2012-11-29T18:06:17Z", "webTitle": "Ed Davey: energy reforms yield 'once-in-a-generation' opportunities", "webUrl": "https://www.theguardian.com/environment/2012/nov/29/ed-davey-energy-reforms", "apiUrl": "https://content.guardianapis.com/environment/2012/nov/29/ed-davey-energy-reforms", "isHosted": false, "pillarId": "pillar/news", "pillarName": "News"}, {"id": "global/blog/2012/nov/29/energy-bill-published-electricity-emissions", "type": "liveblog", "sectionId": "environment", "sectionName": "Environment", "webPublicationDate": "2012-11-29T17:04:00Z", "webTitle": "Energy bill published \u2013 as it happened", "webUrl": "https://www.theguardian.com/global/blog/2012/nov/29/energy-bill-published-electricity-emissions", "apiUrl": "https://content.guardianapis.com/global/blog/2012/nov/29/energy-bill-published-electricity-emissions", "isHosted": false, "pillarId": "pillar/news", "pillarName": "News"}, {"id": "world/2012/nov/29/burma-riot-police-mine-protest", "type": "article", "sectionId": "world", "sectionName": "World news", "webPublicationDate": "2012-11-29T14:40:51Z", "webTitle": "Burma: riot police move in to break up copper mine protest", "webUrl": "https://www.theguardian.com/world/2012/nov/29/burma-riot-police-mine-protest", "apiUrl": "https://content.guardianapis.com/world/2012/nov/29/burma-riot-police-mine-protest", "isHosted": false, "pillarId": "pillar/news", "pillarName": "News"}, {"id": "commentisfree/2012/nov/29/energy-bill-renewables-industry", "type": "article", "sectionId": "commentisfree", "sectionName": "Opinion", "webPublicationDate": "2012-11-29T14:22:42Z", "webTitle": "This energy bill will fire up the renewables industry | Gordon Edge", "webUrl": "https://www.theguardian.com/commentisfree/2012/nov/29/energy-bill-renewables-industry", "apiUrl": "https://content.guardianapis.com/commentisfree/2012/nov/29/energy-bill-renewables-industry", "isHosted": false, "pillarId": "pillar/opinion", "pillarName": "Opinion"}, {"id": "environment/2012/nov/29/climate-change-carbon-price", "type": "article", "sectionId": "environment", "sectionName": "Environment", "webPublicationDate": "2012-11-29T14:00:00Z", "webTitle": "Climate change is happening now \u2013 a carbon price must follow | James E Hansen", "webUrl": "https://www.theguardian.com/environment/2012/nov/29/climate-change-carbon-price", "apiUrl": "https://content.guardianapis.com/environment/2012/nov/29/climate-change-carbon-price", "isHosted": false, "pillarId": "pillar/news", "pillarName": "News"}, {"id": "environment/video/2012/nov/29/energy-bill-ed-davey-video", "type": "video", "sectionId": "environment", "sectionName": "Environment", "webPublicationDate": "2012-11-29T13:21:00Z", "webTitle": "Energy bill: investment will boost economy, says Ed Davey - video", "webUrl": "https://www.theguardian.com/environment/video/2012/nov/29/energy-bill-ed-davey-video", "apiUrl": "https://content.guardianapis.com/environment/video/2012/nov/29/energy-bill-ed-davey-video", "isHosted": false, "pillarId": "pillar/news", "pillarName": "News"}, {"id": "environment/damian-carrington-blog/2012/nov/29/energy-bill-efficiency-davey", "type": "article", "sectionId": "environment", "sectionName": "Environment", "webPublicationDate": "2012-11-29T12:24:00Z", "webTitle": "Energy saving finally gets serious as alarm bells wake ministers | Damian Carrington", "webUrl": "https://www.theguardian.com/environment/damian-carrington-blog/2012/nov/29/energy-bill-efficiency-davey", "apiUrl": "https://content.guardianapis.com/environment/damian-carrington-blog/2012/nov/29/energy-bill-efficiency-davey", "isHosted": false, "pillarId": "pillar/news", "pillarName": "News"}, {"id": "environment/2012/nov/29/planting-trees-climate-change", "type": "article", "sectionId": "environment", "sectionName": "Environment", "webPublicationDate": "2012-11-29T11:36:00Z", "webTitle": "To what extent could planting trees help solve climate change?", "webUrl": "https://www.theguardian.com/environment/2012/nov/29/planting-trees-climate-change", "apiUrl": "https://content.guardianapis.com/environment/2012/nov/29/planting-trees-climate-change", "isHosted": false, "pillarId": "pillar/news", "pillarName": "News"}, {"id": "environment/2012/nov/29/energy-bill-lib-dems-tories", "type": "article", "sectionId": "environment", "sectionName": "Environment", "webPublicationDate": "2012-11-29T11:22:18Z", "webTitle": "The result of the energy bill bunfight is Lib Dems 4, Tories 0 | Tom Burke", "webUrl": "https://www.theguardian.com/environment/2012/nov/29/energy-bill-lib-dems-tories", "apiUrl": "https://content.guardianapis.com/environment/2012/nov/29/energy-bill-lib-dems-tories", "isHosted": false, "pillarId": "pillar/news", "pillarName": "News"}, {"id": "environment/2012/nov/29/green-news-roundup", "type": "article", "sectionId": "environment", "sectionName": "Environment", "webPublicationDate": "2012-11-29T11:14:31Z", "webTitle": "Green news roundup: Doha talks, ivory industry and pesticides", "webUrl": "https://www.theguardian.com/environment/2012/nov/29/green-news-roundup", "apiUrl": "https://content.guardianapis.com/environment/2012/nov/29/green-news-roundup", "isHosted": false, "pillarId": "pillar/news", "pillarName": "News"}, {"id": "world/2012/nov/29/haiti-cholera-plan-un", "type": "article", "sectionId": "world", "sectionName": "World news", "webPublicationDate": "2012-11-29T10:57:49Z", "webTitle": "Haiti seeks $2bn to fight cholera outbreak blamed on UN soldiers", "webUrl": "https://www.theguardian.com/world/2012/nov/29/haiti-cholera-plan-un", "apiUrl": "https://content.guardianapis.com/world/2012/nov/29/haiti-cholera-plan-un", "isHosted": false, "pillarId": "pillar/news", "pillarName": "News"}, {"id": "social-enterprise-network/2012/nov/23/social-enterprise-live-debate-food", "type": "article", "sectionId": "sustainable-business", "sectionName": "Guardian Sustainable Business", "webPublicationDate": "2012-11-29T10:00:00Z", "webTitle": "Live debate: Social enterprise and food, 30 November 2012, 12-1pm", "webUrl": "https://www.theguardian.com/social-enterprise-network/2012/nov/23/social-enterprise-live-debate-food", "apiUrl": "https://content.guardianapis.com/social-enterprise-network/2012/nov/23/social-enterprise-live-debate-food", "isHosted": false}, {"id": "environment/2012/nov/29/vestas-boss-government-jeopardising-energy-investment", "type": "article", "sectionId": "environment", "sectionName": "Environment", "webPublicationDate": "2012-11-29T07:00:00Z", "webTitle": "Vestas boss warns UK government is jeopardising energy investment", "webUrl": "https://www.theguardian.com/environment/2012/nov/29/vestas-boss-government-jeopardising-energy-investment", "apiUrl": "https://content.guardianapis.com/environment/2012/nov/29/vestas-boss-government-jeopardising-energy-investment", "isHosted": false, "pillarId": "pillar/news", "pillarName": "News"}, {"id": "global-development/2012/nov/29/straw-western-kenya-water-carbon", "type": "article", "sectionId": "global-development", "sectionName": "Global development", "webPublicationDate": "2012-11-29T06:59:00Z", "webTitle": "Straw poll finds in favour of western Kenya's water and carbon solution | Clar Ni Chonghaile", "webUrl": "https://www.theguardian.com/global-development/2012/nov/29/straw-western-kenya-water-carbon", "apiUrl": "https://content.guardianapis.com/global-development/2012/nov/29/straw-western-kenya-water-carbon", "isHosted": false, "pillarId": "pillar/news", "pillarName": "News"}, {"id": "environment/2012/nov/29/lack-political-consensus-stifling-green-investment", "type": "article", "sectionId": "environment", "sectionName": "Environment", "webPublicationDate": "2012-11-29T06:00:00Z", "webTitle": "Lack of political consensus is stifling green investment in the UK | Ditlev Engel", "webUrl": "https://www.theguardian.com/environment/2012/nov/29/lack-political-consensus-stifling-green-investment", "apiUrl": "https://content.guardianapis.com/environment/2012/nov/29/lack-political-consensus-stifling-green-investment", "isHosted": false, "pillarId": "pillar/news", "pillarName": "News"}, {"id": "environment/2012/nov/28/epa-suspends-bp-oil-spill", "type": "article", "sectionId": "environment", "sectionName": "Environment", "webPublicationDate": "2012-11-28T22:34:00Z", "webTitle": "BP suspended from US federal contracts over 'lack of business integrity'", "webUrl": "https://www.theguardian.com/environment/2012/nov/28/epa-suspends-bp-oil-spill", "apiUrl": "https://content.guardianapis.com/environment/2012/nov/28/epa-suspends-bp-oil-spill", "isHosted": false, "pillarId": "pillar/news", "pillarName": "News"}, {"id": "environment/2012/nov/28/right-targets-eu-subidies", "type": "article", "sectionId": "environment", "sectionName": "Environment", "webPublicationDate": "2012-11-28T21:00:02Z", "webTitle": "Letters: The right targets for EU subsidies", "webUrl": "https://www.theguardian.com/environment/2012/nov/28/right-targets-eu-subidies", "apiUrl": "https://content.guardianapis.com/environment/2012/nov/28/right-targets-eu-subidies", "isHosted": false, "pillarId": "pillar/news", "pillarName": "News"}, {"id": "environment/2012/nov/28/udale-bay-buoyed-drake-wigeon", "type": "article", "sectionId": "environment", "sectionName": "Environment", "webPublicationDate": "2012-11-28T20:59:01Z", "webTitle": "Country diary: Udale Bay: Buoyed up by children's interest and the whistling of the drake wigeon", "webUrl": "https://www.theguardian.com/environment/2012/nov/28/udale-bay-buoyed-drake-wigeon", "apiUrl": "https://content.guardianapis.com/environment/2012/nov/28/udale-bay-buoyed-drake-wigeon", "isHosted": false, "pillarId": "pillar/news", "pillarName": "News"}, {"id": "environment/2012/nov/28/shale-gas-era-cheap", "type": "article", "sectionId": "environment", "sectionName": "Environment", "webPublicationDate": "2012-11-28T19:24:06Z", "webTitle": "Energy secretary says shale exploration won't lead to era of cheap gas", "webUrl": "https://www.theguardian.com/environment/2012/nov/28/shale-gas-era-cheap", "apiUrl": "https://content.guardianapis.com/environment/2012/nov/28/shale-gas-era-cheap", "isHosted": false, "pillarId": "pillar/news", "pillarName": "News"}, {"id": "commentisfree/2012/nov/28/nick-boles-housing-build-on-countryside", "type": "article", "sectionId": "commentisfree", "sectionName": "Opinion", "webPublicationDate": "2012-11-28T19:00:02Z", "webTitle": "Nick Boles's fait accompli: for housing you like, build on the countryside | Owen Hatherley", "webUrl": "https://www.theguardian.com/commentisfree/2012/nov/28/nick-boles-housing-build-on-countryside", "apiUrl": "https://content.guardianapis.com/commentisfree/2012/nov/28/nick-boles-housing-build-on-countryside", "isHosted": false, "pillarId": "pillar/opinion", "pillarName": "Opinion"}, {"id": "uk/2012/nov/28/flooding-clearup-whitby-homes-demolition", "type": "article", "sectionId": "uk-news", "sectionName": "UK news", "webPublicationDate": "2012-11-28T18:58:43Z", "webTitle": "Flooding clearup continues as Whitby homes face demolition", "webUrl": "https://www.theguardian.com/uk/2012/nov/28/flooding-clearup-whitby-homes-demolition", "apiUrl": "https://content.guardianapis.com/uk/2012/nov/28/flooding-clearup-whitby-homes-demolition", "isHosted": false, "pillarId": "pillar/news", "pillarName": "News"}, {"id": "environment/2012/nov/28/green-investment-bank-emissions", "type": "article", "sectionId": "environment", "sectionName": "Environment", "webPublicationDate": "2012-11-28T18:12:17Z", "webTitle": "Green investment bank to set itself emissions targets", "webUrl": "https://www.theguardian.com/environment/2012/nov/28/green-investment-bank-emissions", "apiUrl": "https://content.guardianapis.com/environment/2012/nov/28/green-investment-bank-emissions", "isHosted": false, "pillarId": "pillar/news", "pillarName": "News"}, {"id": "uk/gallery/2012/nov/28/wales-flooding", "type": "gallery", "sectionId": "uk-news", "sectionName": "UK news", "webPublicationDate": "2012-11-28T18:05:00Z", "webTitle": "Flooding clear-up begins - in pictures", "webUrl": "https://www.theguardian.com/uk/gallery/2012/nov/28/wales-flooding", "apiUrl": "https://content.guardianapis.com/uk/gallery/2012/nov/28/wales-flooding", "isHosted": false, "pillarId": "pillar/news", "pillarName": "News"}, {"id": "uk/video/2012/nov/28/welsh-first-minister-flooding-video", "type": "video", "sectionId": "uk-news", "sectionName": "UK news", "webPublicationDate": "2012-11-28T17:51:00Z", "webTitle": "Welsh first minister visits families affected by flooding \u2013 video", "webUrl": "https://www.theguardian.com/uk/video/2012/nov/28/welsh-first-minister-flooding-video", "apiUrl": "https://content.guardianapis.com/uk/video/2012/nov/28/welsh-first-minister-flooding-video", "isHosted": false, "pillarId": "pillar/news", "pillarName": "News"}, {"id": "uk/blog/2012/nov/28/uk-floods-severe-warnings-live", "type": "liveblog", "sectionId": "uk-news", "sectionName": "UK news", "webPublicationDate": "2012-11-28T16:24:00Z", "webTitle": "UK flooding latest \u2013 Wednesday 28 November", "webUrl": "https://www.theguardian.com/uk/blog/2012/nov/28/uk-floods-severe-warnings-live", "apiUrl": "https://content.guardianapis.com/uk/blog/2012/nov/28/uk-floods-severe-warnings-live", "isHosted": false, "pillarId": "pillar/news", "pillarName": "News"}, {"id": "politics/shortcuts/2012/nov/28/buildings-more-beautiful-than-nature", "type": "article", "sectionId": "politics", "sectionName": "Politics", "webPublicationDate": "2012-11-28T16:12:39Z", "webTitle": "Can buildings really be more beautiful than nature?", "webUrl": "https://www.theguardian.com/politics/shortcuts/2012/nov/28/buildings-more-beautiful-than-nature", "apiUrl": "https://content.guardianapis.com/politics/shortcuts/2012/nov/28/buildings-more-beautiful-than-nature", "isHosted": false, "pillarId": "pillar/news", "pillarName": "News"}, {"id": "environment/2012/nov/28/nuclear-lobbyists-senior-civil-servants", "type": "article", "sectionId": "environment", "sectionName": "Environment", "webPublicationDate": "2012-11-28T15:03:38Z", "webTitle": "Nuclear lobbyists wined and dined senior civil servants, documents show", "webUrl": "https://www.theguardian.com/environment/2012/nov/28/nuclear-lobbyists-senior-civil-servants", "apiUrl": "https://content.guardianapis.com/environment/2012/nov/28/nuclear-lobbyists-senior-civil-servants", "isHosted": false, "pillarId": "pillar/news", "pillarName": "News"}, {"id": "uk/video/2012/nov/28/flooding-victims-david-cameron-video", "type": "video", "sectionId": "uk-news", "sectionName": "UK news", "webPublicationDate": "2012-11-28T15:02:00Z", "webTitle": "Flooding victims receive David Cameron's sympathy at PMQs - video", "webUrl": "https://www.theguardian.com/uk/video/2012/nov/28/flooding-victims-david-cameron-video", "apiUrl": "https://content.guardianapis.com/uk/video/2012/nov/28/flooding-victims-david-cameron-video", "isHosted": false, "pillarId": "pillar/news", "pillarName": "News"}, {"id": "news/datablog/2012/nov/28/data-shadows-twitter-uk-floods-mapped", "type": "article", "sectionId": "news", "sectionName": "News", "webPublicationDate": "2012-11-28T15:02:00Z", "webTitle": "Digital trails of the UK floods - how well do tweets match observations?", "webUrl": "https://www.theguardian.com/news/datablog/2012/nov/28/data-shadows-twitter-uk-floods-mapped", "apiUrl": "https://content.guardianapis.com/news/datablog/2012/nov/28/data-shadows-twitter-uk-floods-mapped", "isHosted": false, "pillarId": "pillar/news", "pillarName": "News"}, {"id": "environment/gallery/2012/nov/28/pitcairn-islands-underwater-treasures-in-pictures", "type": "gallery", "sectionId": "environment", "sectionName": "Environment", "webPublicationDate": "2012-11-28T14:13:12Z", "webTitle": "Pitcairn Islands' underwater treasures revealed - in pictures", "webUrl": "https://www.theguardian.com/environment/gallery/2012/nov/28/pitcairn-islands-underwater-treasures-in-pictures", "apiUrl": "https://content.guardianapis.com/environment/gallery/2012/nov/28/pitcairn-islands-underwater-treasures-in-pictures", "isHosted": false, "pillarId": "pillar/news", "pillarName": "News"}, {"id": "music/2012/nov/28/notes-queries-hawkwind-best-least-successful-band", "type": "article", "sectionId": "lifeandstyle", "sectionName": "Life and style", "webPublicationDate": "2012-11-28T14:00:00Z", "webTitle": "Notes & Queries: Are Hawkwind the best least-successful chart band ever?", "webUrl": "https://www.theguardian.com/music/2012/nov/28/notes-queries-hawkwind-best-least-successful-band", "apiUrl": "https://content.guardianapis.com/music/2012/nov/28/notes-queries-hawkwind-best-least-successful-band", "isHosted": false, "pillarId": "pillar/lifestyle", "pillarName": "Lifestyle"}, {"id": "commentisfree/2012/nov/28/floods-rebuild-homes-differently", "type": "article", "sectionId": "commentisfree", "sectionName": "Opinion", "webPublicationDate": "2012-11-28T13:24:53Z", "webTitle": "After the floods, we must rebuild homes differently | Sue Blackmore", "webUrl": "https://www.theguardian.com/commentisfree/2012/nov/28/floods-rebuild-homes-differently", "apiUrl": "https://content.guardianapis.com/commentisfree/2012/nov/28/floods-rebuild-homes-differently", "isHosted": false, "pillarId": "pillar/opinion", "pillarName": "Opinion"}, {"id": "environment/2012/nov/28/lake-district-radioactive-waste-grave", "type": "article", "sectionId": "environment", "sectionName": "Environment", "webPublicationDate": "2012-11-28T12:41:17Z", "webTitle": "Lake District park authority 'concerned' over radioactive waste burial", "webUrl": "https://www.theguardian.com/environment/2012/nov/28/lake-district-radioactive-waste-grave", "apiUrl": "https://content.guardianapis.com/environment/2012/nov/28/lake-district-radioactive-waste-grave", "isHosted": false, "pillarId": "pillar/news", "pillarName": "News"}]}}