{"response": {"status": "ok", "userTier": "developer", "total": 132765, "startIndex": 1, "pageSize": 50, "currentPage": 1, "pages": 2656, "orderBy": "newest", "results": [{"id": "business/2013/nov/30/europe-austerity-eu-prophets-suffering-growth", "type": "article", "sectionId": "business", "sectionName": "Business", "webPublicationDate": "2013-11-30T23:54:05Z", "webTitle": "Europe's prophets of austerity brought suffering, not growth", "webUrl": "https://www.theguardian.com/business/2013/nov/30/europe-austerity-eu-prophets-suffering-growth", "apiUrl": "https://content.guardianapis.com/business/2013/nov/30/europe-austerity-eu-prophets-suffering-growth", "isHosted": false, "pillarId": "pillar/news", "pillarName": "News"}, {"id": "commentisfree/2013/nov/30/george-osborne-autumn-statement-economy", "type": "article", "sectionId": "commentisfree", "sectionName": "Opinion", "webPublicationDate": "2013-11-30T23:40:19Z", "webTitle": "Let no one be fooled: this is not the triumph of austerity, Mr Osborne | Will Hutton", "webUrl": "https://www.theguardian.com/commentisfree/2013/nov/30/george-osborne-autumn-statement-economy", "apiUrl": "https://content.guardianapis.com/commentisfree/2013/nov/30/george-osborne-autumn-statement-economy", "isHosted": false, "pillarId": "pillar/opinion", "pillarName": "Opinion"}, {"id": "uk-news/2013/nov/30/economy-osborne-autumn-statement-prosperity", "type": "article", "sectionId": "uk-news", "sectionName": "UK news", "webPublicationDate": "2013-11-30T23:12:02Z", "webTitle": "Is Britain's economy really on the path to prosperity?", "webUrl": "https://www.theguardian.com/uk-news/2013/nov/30/economy-osborne-autumn-statement-prosperity", "apiUrl": "https://content.guardianapis.com/uk-news/2013/nov/30/economy-osborne-autumn-statement-prosperity", "isHosted": false, "pillarId": "pillar/news", "pillarName": "News"}, {"id": "uk-news/2013/nov/30/george-osborne-autumn-statement", "type": "article", "sectionId": "uk-news", "sectionName": "UK news", "webPublicationDate": "2013-11-30T23:11:07Z", "webTitle": "George Osborne set to focus on fuel bills and NHS in autumn statement", "webUrl": "https://www.theguardian.com/uk-news/2013/nov/30/george-osborne-autumn-statement", "apiUrl": "https://content.guardianapis.com/uk-news/2013/nov/30/george-osborne-autumn-statement", "isHosted": false, "pillarId": "pillar/news", "pillarName": "News"}, {"id": "politics/2013/nov/30/obama-miliband-no-10-mitt-romney-labour-campaign", "type": "article", "sectionId": "politics", "sectionName": "Politics", "webPublicationDate": "2013-11-30T22:32:26Z", "webTitle": "Obama's tech wizard hones his media weapons to help Miliband get to No 10", "webUrl": "https://www.theguardian.com/politics/2013/nov/30/obama-miliband-no-10-mitt-romney-labour-campaign", "apiUrl": "https://content.guardianapis.com/politics/2013/nov/30/obama-miliband-no-10-mitt-romney-labour-campaign", "isHosted": false, "pillarId": "pillar/news", "pillarName": "News"}, {"id": "politics/2013/nov/30/labour-lead-tories-cut-poll", "type": "article", "sectionId": "politics", "sectionName": "Politics", "webPublicationDate": "2013-11-30T21:50:24Z", "webTitle": "Labour's lead over Tories cut as Ukip enjoys new surge \u2013 poll", "webUrl": "https://www.theguardian.com/politics/2013/nov/30/labour-lead-tories-cut-poll", "apiUrl": "https://content.guardianapis.com/politics/2013/nov/30/labour-lead-tories-cut-poll", "isHosted": false, "pillarId": "pillar/news", "pillarName": "News"}, {"id": "world/2013/nov/30/britain-european-exit-poll-gulf-eu-attitudes", "type": "article", "sectionId": "politics", "sectionName": "Politics", "webPublicationDate": "2013-11-30T21:09:00Z", "webTitle": "Is Britain sleepwalking towards a European exit?", "webUrl": "https://www.theguardian.com/world/2013/nov/30/britain-european-exit-poll-gulf-eu-attitudes", "apiUrl": "https://content.guardianapis.com/world/2013/nov/30/britain-european-exit-poll-gulf-eu-attitudes", "isHosted": false, "pillarId": "pillar/news", "pillarName": "News"}, {"id": "commentisfree/2013/nov/30/the-rules-smoking-etiquette", "type": "article", "sectionId": "commentisfree", "sectionName": "Opinion", "webPublicationDate": "2013-11-30T20:04:00Z", "webTitle": "The rules | Rafael Behr", "webUrl": "https://www.theguardian.com/commentisfree/2013/nov/30/the-rules-smoking-etiquette", "apiUrl": "https://content.guardianapis.com/commentisfree/2013/nov/30/the-rules-smoking-etiquette", "isHosted": false, "pillarId": "pillar/opinion", "pillarName": "Opinion"}, {"id": "commentisfree/2013/nov/30/better-together-scottish-independence-paper", "type": "article", "sectionId": "commentisfree", "sectionName": "Opinion", "webPublicationDate": "2013-11-30T19:30:00Z", "webTitle": "The poverty of the Better Together campaign | Kevin McKenna", "webUrl": "https://www.theguardian.com/commentisfree/2013/nov/30/better-together-scottish-independence-paper", "apiUrl": "https://content.guardianapis.com/commentisfree/2013/nov/30/better-together-scottish-independence-paper", "isHosted": false, "pillarId": "pillar/opinion", "pillarName": "Opinion"}, {"id": "uk-news/2013/nov/30/theresa-may-hunger-striker-ifa-muaza-asylum-uk", "type": "article", "sectionId": "uk-news", "sectionName": "UK news", "webPublicationDate": "2013-11-30T19:19:08Z", "webTitle": "Theresa May under fire for bid to fly out hunger striker Isa Muazu", "webUrl": "https://www.theguardian.com/uk-news/2013/nov/30/theresa-may-hunger-striker-ifa-muaza-asylum-uk", "apiUrl": "https://content.guardianapis.com/uk-news/2013/nov/30/theresa-may-hunger-striker-ifa-muaza-asylum-uk", "isHosted": false, "pillarId": "pillar/news", "pillarName": "News"}, {"id": "commentisfree/2013/nov/30/voter-apathy-political-engagement", "type": "article", "sectionId": "commentisfree", "sectionName": "Opinion", "webPublicationDate": "2013-11-30T19:05:00Z", "webTitle": "British society is bursting with creativity. Except at Westminster | Henry Porter", "webUrl": "https://www.theguardian.com/commentisfree/2013/nov/30/voter-apathy-political-engagement", "apiUrl": "https://content.guardianapis.com/commentisfree/2013/nov/30/voter-apathy-political-engagement", "isHosted": false, "pillarId": "pillar/opinion", "pillarName": "Opinion"}, {"id": "politics/2013/nov/30/tory-mp-tim-yeo-ballot-green-conservative", "type": "article", "sectionId": "politics", "sectionName": "Politics", "webPublicationDate": "2013-11-30T18:58:01Z", "webTitle": "Tim Yeo MP will seek local party ballot as he fights to retain his seat", "webUrl": "https://www.theguardian.com/politics/2013/nov/30/tory-mp-tim-yeo-ballot-green-conservative", "apiUrl": "https://content.guardianapis.com/politics/2013/nov/30/tory-mp-tim-yeo-ballot-green-conservative", "isHosted": false, "pillarId": "pillar/news", "pillarName": "News"}, {"id": "uk-news/2013/nov/30/councils-home-office-begging-romanian-bulgarian", "type": "article", "sectionId": "uk-news", "sectionName": "UK news", "webPublicationDate": "2013-11-30T18:40:29Z", "webTitle": "Councils call for tougher laws to police 'aggressive beggars'", "webUrl": "https://www.theguardian.com/uk-news/2013/nov/30/councils-home-office-begging-romanian-bulgarian", "apiUrl": "https://content.guardianapis.com/uk-news/2013/nov/30/councils-home-office-begging-romanian-bulgarian", "isHosted": false, "pillarId": "pillar/news", "pillarName": "News"}, {"id": "commentisfree/2013/nov/30/leadership-cults-and-ceos", "type": "article", "sectionId": "commentisfree", "sectionName": "Opinion", "webPublicationDate": "2013-11-30T18:04:00Z", "webTitle": "The real cultists are not Maoists, they're CEOs | Nick Cohen", "webUrl": "https://www.theguardian.com/commentisfree/2013/nov/30/leadership-cults-and-ceos", "apiUrl": "https://content.guardianapis.com/commentisfree/2013/nov/30/leadership-cults-and-ceos", "isHosted": false, "pillarId": "pillar/opinion", "pillarName": "Opinion"}, {"id": "local-government-network/2013/nov/30/poorer-areas-government-cuts-austerity-plans", "type": "article", "sectionId": "public-leaders-network", "sectionName": "Public Leaders Network", "webPublicationDate": "2013-11-30T09:59:00Z", "webTitle": "Poorest areas bear the brunt of government cuts", "webUrl": "https://www.theguardian.com/local-government-network/2013/nov/30/poorer-areas-government-cuts-austerity-plans", "apiUrl": "https://content.guardianapis.com/local-government-network/2013/nov/30/poorer-areas-government-cuts-austerity-plans", "isHosted": false, "pillarId": "pillar/news", "pillarName": "News"}, {"id": "commentisfree/2013/nov/30/labour-election-success-economic-credibility-election", "type": "article", "sectionId": "commentisfree", "sectionName": "Opinion", "webPublicationDate": "2013-11-30T08:00:22Z", "webTitle": "Labour's election success depends on its ability to prove its economic credibility | Patrick Diamond", "webUrl": "https://www.theguardian.com/commentisfree/2013/nov/30/labour-election-success-economic-credibility-election", "apiUrl": "https://content.guardianapis.com/commentisfree/2013/nov/30/labour-election-success-economic-credibility-election", "isHosted": false, "pillarId": "pillar/opinion", "pillarName": "Opinion"}, {"id": "politics/2013/nov/30/david-cameron-distance-britain-dalai-lama-china-visit", "type": "article", "sectionId": "politics", "sectionName": "Politics", "webPublicationDate": "2013-11-30T07:00:49Z", "webTitle": "David Cameron to distance Britain from Dalai Lama during China visit", "webUrl": "https://www.theguardian.com/politics/2013/nov/30/david-cameron-distance-britain-dalai-lama-china-visit", "apiUrl": "https://content.guardianapis.com/politics/2013/nov/30/david-cameron-distance-britain-dalai-lama-china-visit", "isHosted": false, "pillarId": "pillar/news", "pillarName": "News"}, {"id": "politics/2013/nov/30/david-cameron-chinese-twitter-weibo-mandarin", "type": "article", "sectionId": "politics", "sectionName": "Politics", "webPublicationDate": "2013-11-30T00:01:05Z", "webTitle": "David Cameron's first Mandarin tweet: 'Hello my friends in China'", "webUrl": "https://www.theguardian.com/politics/2013/nov/30/david-cameron-chinese-twitter-weibo-mandarin", "apiUrl": "https://content.guardianapis.com/politics/2013/nov/30/david-cameron-chinese-twitter-weibo-mandarin", "isHosted": false, "pillarId": "pillar/news", "pillarName": "News"}, {"id": "theguardian/2013/nov/30/simon-hoggarts-week-ed-miliband", "type": "article", "sectionId": "theguardian", "sectionName": "From the Guardian", "webPublicationDate": "2013-11-30T00:01:03Z", "webTitle": "Simon Hoggart's week: let's end this obsession over Ed Miliband", "webUrl": "https://www.theguardian.com/theguardian/2013/nov/30/simon-hoggarts-week-ed-miliband", "apiUrl": "https://content.guardianapis.com/theguardian/2013/nov/30/simon-hoggarts-week-ed-miliband", "isHosted": false, "pillarId": "pillar/news", "pillarName": "News"}, {"id": "commentisfree/2013/nov/29/european-union-britain-and-the-larger-view", "type": "article", "sectionId": "commentisfree", "sectionName": "Opinion", "webPublicationDate": "2013-11-29T22:57:03Z", "webTitle": "European Union: Britain and the larger view", "webUrl": "https://www.theguardian.com/commentisfree/2013/nov/29/european-union-britain-and-the-larger-view", "apiUrl": "https://content.guardianapis.com/commentisfree/2013/nov/29/european-union-britain-and-the-larger-view", "isHosted": false, "pillarId": "pillar/opinion", "pillarName": "Opinion"}, {"id": "commentisfree/2013/nov/29/adhoc-o-nomics-the-market-and-the-state", "type": "article", "sectionId": "commentisfree", "sectionName": "Opinion", "webPublicationDate": "2013-11-29T22:51:06Z", "webTitle": "Adhoc-o-nomics: the market and the state", "webUrl": "https://www.theguardian.com/commentisfree/2013/nov/29/adhoc-o-nomics-the-market-and-the-state", "apiUrl": "https://content.guardianapis.com/commentisfree/2013/nov/29/adhoc-o-nomics-the-market-and-the-state", "isHosted": false, "pillarId": "pillar/opinion", "pillarName": "Opinion"}, {"id": "politics/2013/nov/29/david-cameron-green-energy-fears", "type": "article", "sectionId": "politics", "sectionName": "Politics", "webPublicationDate": "2013-11-29T22:27:50Z", "webTitle": "David Cameron to argue in favour of green jobs in new year", "webUrl": "https://www.theguardian.com/politics/2013/nov/29/david-cameron-green-energy-fears", "apiUrl": "https://content.guardianapis.com/politics/2013/nov/29/david-cameron-green-energy-fears", "isHosted": false, "pillarId": "pillar/news", "pillarName": "News"}, {"id": "society/2013/nov/29/low-pay-commission-tours-uk-minimum-wage", "type": "article", "sectionId": "society", "sectionName": "Society", "webPublicationDate": "2013-11-29T21:02:48Z", "webTitle": "Low pay commission talks to UK workers to advise on minimum wage", "webUrl": "https://www.theguardian.com/society/2013/nov/29/low-pay-commission-tours-uk-minimum-wage", "apiUrl": "https://content.guardianapis.com/society/2013/nov/29/low-pay-commission-tours-uk-minimum-wage", "isHosted": false, "pillarId": "pillar/news", "pillarName": "News"}, {"id": "world/2013/nov/29/london-slave-group-maoist-radical-underground", "type": "article", "sectionId": "world", "sectionName": "World news", "webPublicationDate": "2013-11-29T20:36:23Z", "webTitle": "London 'slave' group went from figures of fun to tiny underground commune", "webUrl": "https://www.theguardian.com/world/2013/nov/29/london-slave-group-maoist-radical-underground", "apiUrl": "https://content.guardianapis.com/world/2013/nov/29/london-slave-group-maoist-radical-underground", "isHosted": false, "pillarId": "pillar/news", "pillarName": "News"}, {"id": "politics/2013/nov/29/labour-weak-economic-strategy-warns-brown-adviser-patrick-diamond", "type": "article", "sectionId": "politics", "sectionName": "Politics", "webPublicationDate": "2013-11-29T20:30:00Z", "webTitle": "Labour is still weak on economic strategy, warns former Brown adviser", "webUrl": "https://www.theguardian.com/politics/2013/nov/29/labour-weak-economic-strategy-warns-brown-adviser-patrick-diamond", "apiUrl": "https://content.guardianapis.com/politics/2013/nov/29/labour-weak-economic-strategy-warns-brown-adviser-patrick-diamond", "isHosted": false, "pillarId": "pillar/news", "pillarName": "News"}, {"id": "commentisfree/2013/nov/29/end-gutter-debate-britains-immigration-policy", "type": "article", "sectionId": "commentisfree", "sectionName": "Opinion", "webPublicationDate": "2013-11-29T20:00:00Z", "webTitle": "End this gutter debate about Britain's immigration policy | Ian Birrell", "webUrl": "https://www.theguardian.com/commentisfree/2013/nov/29/end-gutter-debate-britains-immigration-policy", "apiUrl": "https://content.guardianapis.com/commentisfree/2013/nov/29/end-gutter-debate-britains-immigration-policy", "isHosted": false, "pillarId": "pillar/opinion", "pillarName": "Opinion"}, {"id": "politics/2013/nov/29/prescott-blair-straw-next-generation-uk-politics", "type": "article", "sectionId": "politics", "sectionName": "Politics", "webPublicationDate": "2013-11-29T19:58:18Z", "webTitle": "Prescott, Blair, Straw \u2013 the next generation of UK politics?", "webUrl": "https://www.theguardian.com/politics/2013/nov/29/prescott-blair-straw-next-generation-uk-politics", "apiUrl": "https://content.guardianapis.com/politics/2013/nov/29/prescott-blair-straw-next-generation-uk-politics", "isHosted": false, "pillarId": "pillar/news", "pillarName": "News"}, {"id": "society/2013/nov/29/universal-credit-scheme-claimants-debt-uk-unemployment", "type": "article", "sectionId": "society", "sectionName": "Society", "webPublicationDate": "2013-11-29T19:51:04Z", "webTitle": "More borrowing under universal credit scheme", "webUrl": "https://www.theguardian.com/society/2013/nov/29/universal-credit-scheme-claimants-debt-uk-unemployment", "apiUrl": "https://content.guardianapis.com/society/2013/nov/29/universal-credit-scheme-claimants-debt-uk-unemployment", "isHosted": false, "pillarId": "pillar/news", "pillarName": "News"}, {"id": "business/2013/nov/29/labour-bt-cut-charges-helen-goodman-great-phone-ripoff", "type": "article", "sectionId": "business", "sectionName": "Business", "webPublicationDate": "2013-11-29T19:42:52Z", "webTitle": "Labour calls for BT to cut line rental charges as part of eight-point plan", "webUrl": "https://www.theguardian.com/business/2013/nov/29/labour-bt-cut-charges-helen-goodman-great-phone-ripoff", "apiUrl": "https://content.guardianapis.com/business/2013/nov/29/labour-bt-cut-charges-helen-goodman-great-phone-ripoff", "isHosted": false, "pillarId": "pillar/news", "pillarName": "News"}, {"id": "politics/2013/nov/29/house-of-cards-eu-referendum-lord-dobbs-conservative", "type": "article", "sectionId": "politics", "sectionName": "Politics", "webPublicationDate": "2013-11-29T19:16:15Z", "webTitle": "House of Cards writer to present EU referendum bill into the House of Lords", "webUrl": "https://www.theguardian.com/politics/2013/nov/29/house-of-cards-eu-referendum-lord-dobbs-conservative", "apiUrl": "https://content.guardianapis.com/politics/2013/nov/29/house-of-cards-eu-referendum-lord-dobbs-conservative", "isHosted": false, "pillarId": "pillar/news", "pillarName": "News"}, {"id": "business/2013/nov/29/sse-rwe-energy-windfarm-greater-gabbard-high-voltage-link", "type": "article", "sectionId": "business", "sectionName": "Business", "webPublicationDate": "2013-11-29T19:15:30Z", "webTitle": "Two of Britain's big six sell windfarm high-voltage link for \u00a3317m", "webUrl": "https://www.theguardian.com/business/2013/nov/29/sse-rwe-energy-windfarm-greater-gabbard-high-voltage-link", "apiUrl": "https://content.guardianapis.com/business/2013/nov/29/sse-rwe-energy-windfarm-greater-gabbard-high-voltage-link", "isHosted": false, "pillarId": "pillar/news", "pillarName": "News"}, {"id": "commentisfree/2013/nov/29/british-scottish-passport-scotland-independence", "type": "article", "sectionId": "commentisfree", "sectionName": "Opinion", "webPublicationDate": "2013-11-29T19:00:00Z", "webTitle": "Would I choose a British or Scottish passport? It's fast becoming a reality| Ian Jack", "webUrl": "https://www.theguardian.com/commentisfree/2013/nov/29/british-scottish-passport-scotland-independence", "apiUrl": "https://content.guardianapis.com/commentisfree/2013/nov/29/british-scottish-passport-scotland-independence", "isHosted": false, "pillarId": "pillar/opinion", "pillarName": "Opinion"}, {"id": "environment/2013/nov/29/paddy-ashdown-warns-climate-change-risks-extreme-weather", "type": "article", "sectionId": "environment", "sectionName": "Environment", "webPublicationDate": "2013-11-29T18:37:19Z", "webTitle": "Paddy Ashdown warns lack of action in climate change risks extreme weather", "webUrl": "https://www.theguardian.com/environment/2013/nov/29/paddy-ashdown-warns-climate-change-risks-extreme-weather", "apiUrl": "https://content.guardianapis.com/environment/2013/nov/29/paddy-ashdown-warns-climate-change-risks-extreme-weather", "isHosted": false, "pillarId": "pillar/news", "pillarName": "News"}, {"id": "politics/2013/nov/29/opium-war-human-rights-china-cameron", "type": "article", "sectionId": "politics", "sectionName": "Politics", "webPublicationDate": "2013-11-29T18:34:51Z", "webTitle": "Analysis: don't mention opium war \u2013 or human rights", "webUrl": "https://www.theguardian.com/politics/2013/nov/29/opium-war-human-rights-china-cameron", "apiUrl": "https://content.guardianapis.com/politics/2013/nov/29/opium-war-human-rights-china-cameron", "isHosted": false, "pillarId": "pillar/news", "pillarName": "News"}, {"id": "commentisfree/2013/nov/29/old-style-politics-collapse-like-berlin-wall-westminster", "type": "article", "sectionId": "commentisfree", "sectionName": "Opinion", "webPublicationDate": "2013-11-29T18:30:28Z", "webTitle": "Old-style politics will collapse like the Berlin wall | Neal Lawson", "webUrl": "https://www.theguardian.com/commentisfree/2013/nov/29/old-style-politics-collapse-like-berlin-wall-westminster", "apiUrl": "https://content.guardianapis.com/commentisfree/2013/nov/29/old-style-politics-collapse-like-berlin-wall-westminster", "isHosted": false, "pillarId": "pillar/opinion", "pillarName": "Opinion"}, {"id": "money/2013/nov/29/government-energy-firms-freeze-prices-green-cuts", "type": "article", "sectionId": "money", "sectionName": "Money", "webPublicationDate": "2013-11-29T18:13:03Z", "webTitle": "Government did ask energy firms to freeze prices in return for green cuts", "webUrl": "https://www.theguardian.com/money/2013/nov/29/government-energy-firms-freeze-prices-green-cuts", "apiUrl": "https://content.guardianapis.com/money/2013/nov/29/government-energy-firms-freeze-prices-green-cuts", "isHosted": false, "pillarId": "pillar/lifestyle", "pillarName": "Lifestyle"}, {"id": "environment/damian-carrington-blog/2013/nov/29/uk-homes-most-expensive-heat-eu-fuel-poverty", "type": "article", "sectionId": "environment", "sectionName": "Environment", "webPublicationDate": "2013-11-29T18:12:22Z", "webTitle": "Britain's damp, leaky homes among Europe's most costly to heat", "webUrl": "https://www.theguardian.com/environment/damian-carrington-blog/2013/nov/29/uk-homes-most-expensive-heat-eu-fuel-poverty", "apiUrl": "https://content.guardianapis.com/environment/damian-carrington-blog/2013/nov/29/uk-homes-most-expensive-heat-eu-fuel-poverty", "isHosted": false, "pillarId": "pillar/news", "pillarName": "News"}, {"id": "education/2013/nov/29/primary-schools-parents-fined-term-time-holidays", "type": "article", "sectionId": "education", "sectionName": "Education", "webPublicationDate": "2013-11-29T18:05:34Z", "webTitle": "Quarter of primary schools have fined parents for term-time holidays, survey says", "webUrl": "https://www.theguardian.com/education/2013/nov/29/primary-schools-parents-fined-term-time-holidays", "apiUrl": "https://content.guardianapis.com/education/2013/nov/29/primary-schools-parents-fined-term-time-holidays", "isHosted": false, "pillarId": "pillar/news", "pillarName": "News"}, {"id": "media/2013/nov/29/martha-lane-fox-uk-digital-champion-lastminute-com", "type": "article", "sectionId": "media", "sectionName": "Media", "webPublicationDate": "2013-11-29T17:21:53Z", "webTitle": "Martha Lane Fox stands down as UK digital champion", "webUrl": "https://www.theguardian.com/media/2013/nov/29/martha-lane-fox-uk-digital-champion-lastminute-com", "apiUrl": "https://content.guardianapis.com/media/2013/nov/29/martha-lane-fox-uk-digital-champion-lastminute-com", "isHosted": false, "pillarId": "pillar/news", "pillarName": "News"}, {"id": "commentisfree/2013/nov/29/parliament-v20-e-dialogue-young-people-john-bercow", "type": "article", "sectionId": "commentisfree", "sectionName": "Opinion", "webPublicationDate": "2013-11-29T16:53:25Z", "webTitle": "Parliament v2.0? It'll take more than 'e-dialogue' to gain young people's trust | Emma Howard", "webUrl": "https://www.theguardian.com/commentisfree/2013/nov/29/parliament-v20-e-dialogue-young-people-john-bercow", "apiUrl": "https://content.guardianapis.com/commentisfree/2013/nov/29/parliament-v20-e-dialogue-young-people-john-bercow", "isHosted": false, "pillarId": "pillar/opinion", "pillarName": "Opinion"}, {"id": "society/2013/nov/29/poll-public-disaffection-private-healthcare-nhs", "type": "article", "sectionId": "society", "sectionName": "Society", "webPublicationDate": "2013-11-29T16:50:54Z", "webTitle": "Poll shows growing disaffection over private healthcare providers", "webUrl": "https://www.theguardian.com/society/2013/nov/29/poll-public-disaffection-private-healthcare-nhs", "apiUrl": "https://content.guardianapis.com/society/2013/nov/29/poll-public-disaffection-private-healthcare-nhs", "isHosted": false, "pillarId": "pillar/news", "pillarName": "News"}, {"id": "politics/2013/nov/29/george-osborne-rejection-keynes-recovery-budget-recession-autumn-statement", "type": "article", "sectionId": "politics", "sectionName": "Politics", "webPublicationDate": "2013-11-29T16:49:58Z", "webTitle": "George Osborne's rejection of Keynes vindicated by recovery, say allies", "webUrl": "https://www.theguardian.com/politics/2013/nov/29/george-osborne-rejection-keynes-recovery-budget-recession-autumn-statement", "apiUrl": "https://content.guardianapis.com/politics/2013/nov/29/george-osborne-rejection-keynes-recovery-budget-recession-autumn-statement", "isHosted": false, "pillarId": "pillar/news", "pillarName": "News"}, {"id": "uk-news/2013/nov/29/hs2-planning-documents-high-speed-rail-councils", "type": "article", "sectionId": "uk-news", "sectionName": "UK news", "webPublicationDate": "2013-11-29T16:31:25Z", "webTitle": "HS2 planning: 'How on earth is the public meant to make sense of this?'", "webUrl": "https://www.theguardian.com/uk-news/2013/nov/29/hs2-planning-documents-high-speed-rail-councils", "apiUrl": "https://content.guardianapis.com/uk-news/2013/nov/29/hs2-planning-documents-high-speed-rail-councils", "isHosted": false, "pillarId": "pillar/news", "pillarName": "News"}, {"id": "politics/video/2013/nov/29/ed-miliband-energy-companies-video", "type": "video", "sectionId": "politics", "sectionName": "Politics", "webPublicationDate": "2013-11-29T16:11:00Z", "webTitle": "Ed Miliband on energy companies: who is Britain being run for? - video", "webUrl": "https://www.theguardian.com/politics/video/2013/nov/29/ed-miliband-energy-companies-video", "apiUrl": "https://content.guardianapis.com/politics/video/2013/nov/29/ed-miliband-energy-companies-video", "isHosted": false, "pillarId": "pillar/news", "pillarName": "News"}, {"id": "commentisfree/2013/nov/29/independent-scotland-britons-salmond-moderate-social-democracy", "type": "article", "sectionId": "commentisfree", "sectionName": "Opinion", "webPublicationDate": "2013-11-29T15:45:00Z", "webTitle": "Could an independent Scotland liberate all Britons? | Neal Ascherson", "webUrl": "https://www.theguardian.com/commentisfree/2013/nov/29/independent-scotland-britons-salmond-moderate-social-democracy", "apiUrl": "https://content.guardianapis.com/commentisfree/2013/nov/29/independent-scotland-britons-salmond-moderate-social-democracy", "isHosted": false, "pillarId": "pillar/opinion", "pillarName": "Opinion"}, {"id": "world/2013/nov/29/nsa-files-live-coverage-developments-reaction", "type": "liveblog", "sectionId": "world", "sectionName": "World news", "webPublicationDate": "2013-11-29T14:25:40Z", "webTitle": "NSA files \u2013\u00a0live coverage of all developments and reaction", "webUrl": "https://www.theguardian.com/world/2013/nov/29/nsa-files-live-coverage-developments-reaction", "apiUrl": "https://content.guardianapis.com/world/2013/nov/29/nsa-files-live-coverage-developments-reaction", "isHosted": false, "pillarId": "pillar/news", "pillarName": "News"}, {"id": "world/2013/nov/29/hetty-bower", "type": "article", "sectionId": "world", "sectionName": "World news", "webPublicationDate": "2013-11-29T13:54:53Z", "webTitle": "Hetty Bower obituary", "webUrl": "https://www.theguardian.com/world/2013/nov/29/hetty-bower", "apiUrl": "https://content.guardianapis.com/world/2013/nov/29/hetty-bower", "isHosted": false, "pillarId": "pillar/news", "pillarName": "News"}, {"id": "society/2013/nov/29/asbo-carol-singers-nonsense-norman-baker", "type": "article", "sectionId": "society", "sectionName": "Society", "webPublicationDate": "2013-11-29T13:49:38Z", "webTitle": "New asbo threat to carol singers is 'complete nonsense', says minister", "webUrl": "https://www.theguardian.com/society/2013/nov/29/asbo-carol-singers-nonsense-norman-baker", "apiUrl": "https://content.guardianapis.com/society/2013/nov/29/asbo-carol-singers-nonsense-norman-baker", "isHosted": false, "pillarId": "pillar/news", "pillarName": "News"}, {"id": "commentisfree/2013/nov/29/scotland-belongs-eu-independence-change", "type": "article", "sectionId": "commentisfree", "sectionName": "Opinion", "webPublicationDate": "2013-11-29T13:42:51Z", "webTitle": "Scotland belongs in the EU, and independence won't change that | John Palmer", "webUrl": "https://www.theguardian.com/commentisfree/2013/nov/29/scotland-belongs-eu-independence-change", "apiUrl": "https://content.guardianapis.com/commentisfree/2013/nov/29/scotland-belongs-eu-independence-change", "isHosted": false, "pillarId": "pillar/opinion", "pillarName": "Opinion"}, {"id": "money/video/2013/nov/29/nick-clegg-parental-leave-changes-video", "type": "video", "sectionId": "money", "sectionName": "Money", "webPublicationDate": "2013-11-29T13:28:00Z", "webTitle": "Nick Clegg welcomes parental leave changes - video", "webUrl": "https://www.theguardian.com/money/video/2013/nov/29/nick-clegg-parental-leave-changes-video", "apiUrl": "https://content.guardianapis.com/money/video/2013/nov/29/nick-clegg-parental-leave-changes-video", "isHosted": false, "pillarId": "pillar/lifestyle", "pillarName": "Lifestyle"}]}}