{"response": {"status": "ok", "userTier": "developer", "total": 133941, "startIndex": 1, "pageSize": 50, "currentPage": 1, "pages": 2679, "orderBy": "newest", "results": [{"id": "politics/2012/dec/30/irvine-patnick-dies", "type": "article", "sectionId": "politics", "sectionName": "Politics", "webPublicationDate": "2012-12-30T22:55:49Z", "webTitle": "Former Tory MP Irvine Patnick dies aged 83", "webUrl": "https://www.theguardian.com/politics/2012/dec/30/irvine-patnick-dies", "apiUrl": "https://content.guardianapis.com/politics/2012/dec/30/irvine-patnick-dies", "isHosted": false, "pillarId": "pillar/news", "pillarName": "News"}, {"id": "politics/2012/dec/30/clegg-libdems-coalition-welfare", "type": "article", "sectionId": "politics", "sectionName": "Politics", "webPublicationDate": "2012-12-30T21:00:03Z", "webTitle": "Letters: Scene two: exit Clegg, pursued by Lib Dems?", "webUrl": "https://www.theguardian.com/politics/2012/dec/30/clegg-libdems-coalition-welfare", "apiUrl": "https://content.guardianapis.com/politics/2012/dec/30/clegg-libdems-coalition-welfare", "isHosted": false, "pillarId": "pillar/news", "pillarName": "News"}, {"id": "commentisfree/2012/dec/30/cycling-bikes-wiggins-environment-transport", "type": "article", "sectionId": "commentisfree", "sectionName": "Opinion", "webPublicationDate": "2012-12-30T21:00:01Z", "webTitle": "2012 was the year of cycling. Now we need a revolution | Jackie Ashley", "webUrl": "https://www.theguardian.com/commentisfree/2012/dec/30/cycling-bikes-wiggins-environment-transport", "apiUrl": "https://content.guardianapis.com/commentisfree/2012/dec/30/cycling-bikes-wiggins-environment-transport", "isHosted": false, "pillarId": "pillar/opinion", "pillarName": "Opinion"}, {"id": "commentisfree/2012/dec/30/david-cameron-practical-problems", "type": "article", "sectionId": "commentisfree", "sectionName": "Opinion", "webPublicationDate": "2012-12-30T20:00:00Z", "webTitle": "David Cameron: practical problems | Editorial", "webUrl": "https://www.theguardian.com/commentisfree/2012/dec/30/david-cameron-practical-problems", "apiUrl": "https://content.guardianapis.com/commentisfree/2012/dec/30/david-cameron-practical-problems", "isHosted": false, "pillarId": "pillar/opinion", "pillarName": "Opinion"}, {"id": "commentisfree/2012/dec/30/global-economy-2013-no-picnic", "type": "article", "sectionId": "commentisfree", "sectionName": "Opinion", "webPublicationDate": "2012-12-30T19:00:00Z", "webTitle": "We avoided the apocalypse \u2013 but 2013 will be no picnic | Ha-Joon Chang", "webUrl": "https://www.theguardian.com/commentisfree/2012/dec/30/global-economy-2013-no-picnic", "apiUrl": "https://content.guardianapis.com/commentisfree/2012/dec/30/global-economy-2013-no-picnic", "isHosted": false, "pillarId": "pillar/opinion", "pillarName": "Opinion"}, {"id": "law/2012/dec/30/magistrates-courts-weekend-damian-green", "type": "article", "sectionId": "law", "sectionName": "Law", "webPublicationDate": "2012-12-30T18:46:39Z", "webTitle": "Weekend courts may be ditched in favour of longer weekdays", "webUrl": "https://www.theguardian.com/law/2012/dec/30/magistrates-courts-weekend-damian-green", "apiUrl": "https://content.guardianapis.com/law/2012/dec/30/magistrates-courts-weekend-damian-green", "isHosted": false, "pillarId": "pillar/news", "pillarName": "News"}, {"id": "environment/2012/dec/30/energy-companies-climate-ministry-decc", "type": "article", "sectionId": "environment", "sectionName": "Environment", "webPublicationDate": "2012-12-30T18:42:10Z", "webTitle": "Energy company staff working at climate ministry", "webUrl": "https://www.theguardian.com/environment/2012/dec/30/energy-companies-climate-ministry-decc", "apiUrl": "https://content.guardianapis.com/environment/2012/dec/30/energy-companies-climate-ministry-decc", "isHosted": false, "pillarId": "pillar/news", "pillarName": "News"}, {"id": "politics/2012/dec/30/conservative-modernisers-relaunch-reform-programme", "type": "article", "sectionId": "politics", "sectionName": "Politics", "webPublicationDate": "2012-12-30T18:29:20Z", "webTitle": "Leading Conservative modernisers relaunch reform programme", "webUrl": "https://www.theguardian.com/politics/2012/dec/30/conservative-modernisers-relaunch-reform-programme", "apiUrl": "https://content.guardianapis.com/politics/2012/dec/30/conservative-modernisers-relaunch-reform-programme", "isHosted": false, "pillarId": "pillar/news", "pillarName": "News"}, {"id": "politics/2012/dec/30/paralympians-honours-david-weir", "type": "article", "sectionId": "politics", "sectionName": "Politics", "webPublicationDate": "2012-12-30T17:26:37Z", "webTitle": "Paralympic honours row: David Weir should have got a knighthood, says MP", "webUrl": "https://www.theguardian.com/politics/2012/dec/30/paralympians-honours-david-weir", "apiUrl": "https://content.guardianapis.com/politics/2012/dec/30/paralympians-honours-david-weir", "isHosted": false, "pillarId": "pillar/news", "pillarName": "News"}, {"id": "uk/2012/dec/30/police-royal-commission-keith-vaz", "type": "article", "sectionId": "uk-news", "sectionName": "UK news", "webPublicationDate": "2012-12-30T17:04:44Z", "webTitle": "Police royal commission needed to rejuvenate confidence, says Keith Vaz", "webUrl": "https://www.theguardian.com/uk/2012/dec/30/police-royal-commission-keith-vaz", "apiUrl": "https://content.guardianapis.com/uk/2012/dec/30/police-royal-commission-keith-vaz", "isHosted": false, "pillarId": "pillar/news", "pillarName": "News"}, {"id": "society/2012/dec/30/majority-of-doctors-disciplined-trained-abroad", "type": "article", "sectionId": "society", "sectionName": "Society", "webPublicationDate": "2012-12-30T16:40:48Z", "webTitle": "Majority of UK doctors struck off have been trained abroad", "webUrl": "https://www.theguardian.com/society/2012/dec/30/majority-of-doctors-disciplined-trained-abroad", "apiUrl": "https://content.guardianapis.com/society/2012/dec/30/majority-of-doctors-disciplined-trained-abroad", "isHosted": false, "pillarId": "pillar/news", "pillarName": "News"}, {"id": "politics/video/2012/dec/30/david-cameron-uk-right-direction-video", "type": "video", "sectionId": "politics", "sectionName": "Politics", "webPublicationDate": "2012-12-30T14:16:00Z", "webTitle": "David Cameron: the UK is heading in the right direction \u2013 video", "webUrl": "https://www.theguardian.com/politics/video/2012/dec/30/david-cameron-uk-right-direction-video", "apiUrl": "https://content.guardianapis.com/politics/video/2012/dec/30/david-cameron-uk-right-direction-video", "isHosted": false, "pillarId": "pillar/news", "pillarName": "News"}, {"id": "politics/2012/dec/30/nick-clegg-lib-dem-worst-year", "type": "article", "sectionId": "politics", "sectionName": "Politics", "webPublicationDate": "2012-12-30T14:09:26Z", "webTitle": "Nick Clegg tops Lib Dem poll \u2013 as minister who's had the worst year", "webUrl": "https://www.theguardian.com/politics/2012/dec/30/nick-clegg-lib-dem-worst-year", "apiUrl": "https://content.guardianapis.com/politics/2012/dec/30/nick-clegg-lib-dem-worst-year", "isHosted": false, "pillarId": "pillar/news", "pillarName": "News"}, {"id": "commentisfree/2012/dec/30/coalition-resistance-local-council-cuts", "type": "article", "sectionId": "commentisfree", "sectionName": "Opinion", "webPublicationDate": "2012-12-30T14:05:01Z", "webTitle": "We need a coalition of resistance against local council cuts | Ted Knight", "webUrl": "https://www.theguardian.com/commentisfree/2012/dec/30/coalition-resistance-local-council-cuts", "apiUrl": "https://content.guardianapis.com/commentisfree/2012/dec/30/coalition-resistance-local-council-cuts", "isHosted": false, "pillarId": "pillar/opinion", "pillarName": "Opinion"}, {"id": "commentisfree/2012/dec/30/ed-miliband-heal-north-south-divide", "type": "article", "sectionId": "commentisfree", "sectionName": "Opinion", "webPublicationDate": "2012-12-30T00:06:13Z", "webTitle": "We ignore the growing north-south divide at our peril | Observer editorial", "webUrl": "https://www.theguardian.com/commentisfree/2012/dec/30/ed-miliband-heal-north-south-divide", "apiUrl": "https://content.guardianapis.com/commentisfree/2012/dec/30/ed-miliband-heal-north-south-divide", "isHosted": false, "pillarId": "pillar/opinion", "pillarName": "Opinion"}, {"id": "books/2012/dec/30/bang-history-1980s-stewart-review", "type": "article", "sectionId": "books", "sectionName": "Books", "webPublicationDate": "2012-12-30T00:05:09Z", "webTitle": "Bang! A History of Britain in the 1980s by Graham Stewart \u2013 review", "webUrl": "https://www.theguardian.com/books/2012/dec/30/bang-history-1980s-stewart-review", "apiUrl": "https://content.guardianapis.com/books/2012/dec/30/bang-history-1980s-stewart-review", "isHosted": false, "pillarId": "pillar/arts", "pillarName": "Arts"}, {"id": "commentisfree/2012/dec/30/cameron-miliband-clegg-predictions-for-2013", "type": "article", "sectionId": "commentisfree", "sectionName": "Opinion", "webPublicationDate": "2012-12-30T00:04:13Z", "webTitle": "Political predictions: as the year ends, what does 2013 hold for the main party leaders? | Andrew Rawnsley", "webUrl": "https://www.theguardian.com/commentisfree/2012/dec/30/cameron-miliband-clegg-predictions-for-2013", "apiUrl": "https://content.guardianapis.com/commentisfree/2012/dec/30/cameron-miliband-clegg-predictions-for-2013", "isHosted": false, "pillarId": "pillar/opinion", "pillarName": "Opinion"}, {"id": "theobserver/2012/dec/30/police-accountability-plebgate-the-big-issue", "type": "article", "sectionId": "news", "sectionName": "News", "webPublicationDate": "2012-12-30T00:03:03Z", "webTitle": "Police accountability: the fuss about Plebgate is a sad contrast to Hillsborough | the big issue", "webUrl": "https://www.theguardian.com/theobserver/2012/dec/30/police-accountability-plebgate-the-big-issue", "apiUrl": "https://content.guardianapis.com/theobserver/2012/dec/30/police-accountability-plebgate-the-big-issue", "isHosted": false, "pillarId": "pillar/news", "pillarName": "News"}, {"id": "commentisfree/2012/dec/30/national-archives-1982-margaret-thatcher", "type": "article", "sectionId": "commentisfree", "sectionName": "Opinion", "webPublicationDate": "2012-12-30T00:02:00Z", "webTitle": "National archive papers 1982: memory, prejudice and the occasional shock\u2026 30 years on | Rachel Cooke", "webUrl": "https://www.theguardian.com/commentisfree/2012/dec/30/national-archives-1982-margaret-thatcher", "apiUrl": "https://content.guardianapis.com/commentisfree/2012/dec/30/national-archives-1982-margaret-thatcher", "isHosted": false, "pillarId": "pillar/opinion", "pillarName": "Opinion"}, {"id": "business/2012/dec/30/eu-exit-will-not-help-uk-economy", "type": "article", "sectionId": "business", "sectionName": "Business", "webPublicationDate": "2012-12-30T00:01:06Z", "webTitle": "EU exit will not shelter UK from the economic storm", "webUrl": "https://www.theguardian.com/business/2012/dec/30/eu-exit-will-not-help-uk-economy", "apiUrl": "https://content.guardianapis.com/business/2012/dec/30/eu-exit-will-not-help-uk-economy", "isHosted": false, "pillarId": "pillar/news", "pillarName": "News"}, {"id": "politics/2012/dec/30/david-cameron-poll-finances", "type": "article", "sectionId": "politics", "sectionName": "Politics", "webPublicationDate": "2012-12-30T00:01:00Z", "webTitle": "David Cameron urges optimism as poll shows 43% expect finances to get worse", "webUrl": "https://www.theguardian.com/politics/2012/dec/30/david-cameron-poll-finances", "apiUrl": "https://content.guardianapis.com/politics/2012/dec/30/david-cameron-poll-finances", "isHosted": false, "pillarId": "pillar/news", "pillarName": "News"}, {"id": "uk/2012/dec/29/2012-review-best-worst", "type": "article", "sectionId": "uk-news", "sectionName": "UK news", "webPublicationDate": "2012-12-29T23:46:00Z", "webTitle": "2012 review: it was the best of times. It was the worst of times \u2026", "webUrl": "https://www.theguardian.com/uk/2012/dec/29/2012-review-best-worst", "apiUrl": "https://content.guardianapis.com/uk/2012/dec/29/2012-review-best-worst", "isHosted": false, "pillarId": "pillar/news", "pillarName": "News"}, {"id": "world/2012/dec/29/tax-rise-heathrow-gatwick-airports", "type": "article", "sectionId": "world", "sectionName": "World news", "webPublicationDate": "2012-12-29T23:38:55Z", "webTitle": "Tax rise at Heathrow and Gatwick 'will force flyers to use provincial airports'", "webUrl": "https://www.theguardian.com/world/2012/dec/29/tax-rise-heathrow-gatwick-airports", "apiUrl": "https://content.guardianapis.com/world/2012/dec/29/tax-rise-heathrow-gatwick-airports", "isHosted": false, "pillarId": "pillar/news", "pillarName": "News"}, {"id": "politics/2012/dec/29/opinium-observer-poll-labour-conservatives", "type": "article", "sectionId": "politics", "sectionName": "Politics", "webPublicationDate": "2012-12-29T21:53:00Z", "webTitle": "Labour keeps lead over Tories and Ukip gains point in Opinium/Observer poll", "webUrl": "https://www.theguardian.com/politics/2012/dec/29/opinium-observer-poll-labour-conservatives", "apiUrl": "https://content.guardianapis.com/politics/2012/dec/29/opinium-observer-poll-labour-conservatives", "isHosted": false, "pillarId": "pillar/news", "pillarName": "News"}, {"id": "society/2012/dec/29/universal-credit-poses-debt-threat", "type": "article", "sectionId": "society", "sectionName": "Society", "webPublicationDate": "2012-12-29T20:30:23Z", "webTitle": "Direct housing benefit credits 'could push a million into debt'", "webUrl": "https://www.theguardian.com/society/2012/dec/29/universal-credit-poses-debt-threat", "apiUrl": "https://content.guardianapis.com/society/2012/dec/29/universal-credit-poses-debt-threat", "isHosted": false, "pillarId": "pillar/news", "pillarName": "News"}, {"id": "politics/2012/dec/29/cuts-councils-newcastle-liverpool-sheffield", "type": "article", "sectionId": "society", "sectionName": "Society", "webPublicationDate": "2012-12-29T20:12:00Z", "webTitle": "City council leaders say deeper cuts will spark civil unrest", "webUrl": "https://www.theguardian.com/politics/2012/dec/29/cuts-councils-newcastle-liverpool-sheffield", "apiUrl": "https://content.guardianapis.com/politics/2012/dec/29/cuts-councils-newcastle-liverpool-sheffield", "isHosted": false, "pillarId": "pillar/news", "pillarName": "News"}, {"id": "education/2012/dec/29/fears-school-sports-ofsted-probe", "type": "article", "sectionId": "education", "sectionName": "Education", "webPublicationDate": "2012-12-29T19:52:49Z", "webTitle": "Fresh fears for school sports as crucial Ofsted probe is held up", "webUrl": "https://www.theguardian.com/education/2012/dec/29/fears-school-sports-ofsted-probe", "apiUrl": "https://content.guardianapis.com/education/2012/dec/29/fears-school-sports-ofsted-probe", "isHosted": false, "pillarId": "pillar/news", "pillarName": "News"}, {"id": "politics/2012/dec/30/jobseekers-dole-nudge-unit-psychology", "type": "article", "sectionId": "politics", "sectionName": "Politics", "webPublicationDate": "2012-12-29T19:48:47Z", "webTitle": "Writing exercises help jobseekers find work, claims government's nudge unit", "webUrl": "https://www.theguardian.com/politics/2012/dec/30/jobseekers-dole-nudge-unit-psychology", "apiUrl": "https://content.guardianapis.com/politics/2012/dec/30/jobseekers-dole-nudge-unit-psychology", "isHosted": false, "pillarId": "pillar/news", "pillarName": "News"}, {"id": "media/2012/dec/29/william-rees-mogg-times-editor-dies", "type": "article", "sectionId": "media", "sectionName": "Media", "webPublicationDate": "2012-12-29T17:04:17Z", "webTitle": "Former Times editor William Rees-Mogg dies at 84", "webUrl": "https://www.theguardian.com/media/2012/dec/29/william-rees-mogg-times-editor-dies", "apiUrl": "https://content.guardianapis.com/media/2012/dec/29/william-rees-mogg-times-editor-dies", "isHosted": false, "pillarId": "pillar/news", "pillarName": "News"}, {"id": "media/2012/dec/29/former-times-editor-rees-mogg-dies", "type": "article", "sectionId": "media", "sectionName": "Media", "webPublicationDate": "2012-12-29T13:30:42Z", "webTitle": "Former Times editor Lord Rees-Mogg dies", "webUrl": "https://www.theguardian.com/media/2012/dec/29/former-times-editor-rees-mogg-dies", "apiUrl": "https://content.guardianapis.com/media/2012/dec/29/former-times-editor-rees-mogg-dies", "isHosted": false, "pillarId": "pillar/news", "pillarName": "News"}, {"id": "world/2012/dec/28/hillary-clinton-run-for-president-2016", "type": "article", "sectionId": "us-news", "sectionName": "US news", "webPublicationDate": "2012-12-29T12:34:00Z", "webTitle": "Should Hillary Clinton run for president in 2016? | Suzanne Goldenberg", "webUrl": "https://www.theguardian.com/world/2012/dec/28/hillary-clinton-run-for-president-2016", "apiUrl": "https://content.guardianapis.com/world/2012/dec/28/hillary-clinton-run-for-president-2016", "isHosted": false, "pillarId": "pillar/news", "pillarName": "News"}, {"id": "politics/video/2012/dec/29/michael-white-political-year-video", "type": "video", "sectionId": "politics", "sectionName": "Politics", "webPublicationDate": "2012-12-29T09:00:00Z", "webTitle": "Michael White's political year \u2013 video", "webUrl": "https://www.theguardian.com/politics/video/2012/dec/29/michael-white-political-year-video", "apiUrl": "https://content.guardianapis.com/politics/video/2012/dec/29/michael-white-political-year-video", "isHosted": false, "pillarId": "pillar/news", "pillarName": "News"}, {"id": "uk/2012/dec/29/met-bernard-hogan-howe-knighted", "type": "article", "sectionId": "uk-news", "sectionName": "UK news", "webPublicationDate": "2012-12-29T00:01:00Z", "webTitle": "Met chief Bernard Hogan-Howe knighted in New Year honours", "webUrl": "https://www.theguardian.com/uk/2012/dec/29/met-bernard-hogan-howe-knighted", "apiUrl": "https://content.guardianapis.com/uk/2012/dec/29/met-bernard-hogan-howe-knighted", "isHosted": false, "pillarId": "pillar/news", "pillarName": "News"}, {"id": "commentisfree/2012/dec/29/new-year-honours-postcard-pomp", "type": "article", "sectionId": "commentisfree", "sectionName": "Opinion", "webPublicationDate": "2012-12-29T00:01:00Z", "webTitle": "New year honours are little more than postcard pomp | Tanya Gold", "webUrl": "https://www.theguardian.com/commentisfree/2012/dec/29/new-year-honours-postcard-pomp", "apiUrl": "https://content.guardianapis.com/commentisfree/2012/dec/29/new-year-honours-postcard-pomp", "isHosted": false, "pillarId": "pillar/opinion", "pillarName": "Opinion"}, {"id": "money/2012/dec/28/worst-ideas-2012-tax-avoidance", "type": "article", "sectionId": "money", "sectionName": "Money", "webPublicationDate": "2012-12-28T22:58:12Z", "webTitle": "Worst ideas of 2012: thinking you're above tax", "webUrl": "https://www.theguardian.com/money/2012/dec/28/worst-ideas-2012-tax-avoidance", "apiUrl": "https://content.guardianapis.com/money/2012/dec/28/worst-ideas-2012-tax-avoidance", "isHosted": false, "pillarId": "pillar/lifestyle", "pillarName": "Lifestyle"}, {"id": "world/2012/dec/28/worst-ideas-of-2012-introduction", "type": "article", "sectionId": "world", "sectionName": "World news", "webPublicationDate": "2012-12-28T22:58:09Z", "webTitle": "Worst ideas of 2012: introduction", "webUrl": "https://www.theguardian.com/world/2012/dec/28/worst-ideas-of-2012-introduction", "apiUrl": "https://content.guardianapis.com/world/2012/dec/28/worst-ideas-of-2012-introduction", "isHosted": false, "pillarId": "pillar/news", "pillarName": "News"}, {"id": "society/2012/dec/28/labour-defensive-over-cuts", "type": "article", "sectionId": "society", "sectionName": "Society", "webPublicationDate": "2012-12-28T20:59:02Z", "webTitle": "Letters: Labour on the defensive over cuts", "webUrl": "https://www.theguardian.com/society/2012/dec/28/labour-defensive-over-cuts", "apiUrl": "https://content.guardianapis.com/society/2012/dec/28/labour-defensive-over-cuts", "isHosted": false, "pillarId": "pillar/news", "pillarName": "News"}, {"id": "commentisfree/2012/dec/28/david-cameron-eurovision", "type": "article", "sectionId": "commentisfree", "sectionName": "Opinion", "webPublicationDate": "2012-12-28T20:21:14Z", "webTitle": "David Cameron: eurovision | Editorial", "webUrl": "https://www.theguardian.com/commentisfree/2012/dec/28/david-cameron-eurovision", "apiUrl": "https://content.guardianapis.com/commentisfree/2012/dec/28/david-cameron-eurovision", "isHosted": false, "pillarId": "pillar/opinion", "pillarName": "Opinion"}, {"id": "commentisfree/cartoon/2012/dec/28/david-cameron-nick-clegg-cartoon", "type": "picture", "sectionId": "commentisfree", "sectionName": "Opinion", "webPublicationDate": "2012-12-28T19:55:05Z", "webTitle": "Ben Jennings on David Cameron and Nick Clegg's new year's resolutions \u2013 cartoon", "webUrl": "https://www.theguardian.com/commentisfree/cartoon/2012/dec/28/david-cameron-nick-clegg-cartoon", "apiUrl": "https://content.guardianapis.com/commentisfree/cartoon/2012/dec/28/david-cameron-nick-clegg-cartoon", "isHosted": false, "pillarId": "pillar/opinion", "pillarName": "Opinion"}, {"id": "world/2012/dec/28/mandelson-austerity-eu-decade-unpopularity", "type": "article", "sectionId": "world", "sectionName": "World news", "webPublicationDate": "2012-12-28T19:17:00Z", "webTitle": "Lord Mandelson: austerity means EU faces decade of unpopularity", "webUrl": "https://www.theguardian.com/world/2012/dec/28/mandelson-austerity-eu-decade-unpopularity", "apiUrl": "https://content.guardianapis.com/world/2012/dec/28/mandelson-austerity-eu-decade-unpopularity", "isHosted": false, "pillarId": "pillar/news", "pillarName": "News"}, {"id": "books/2012/dec/28/benjamin-zephaniah-anger-politics-interview", "type": "article", "sectionId": "books", "sectionName": "Books", "webPublicationDate": "2012-12-28T19:00:00Z", "webTitle": "Benjamin Zephaniah: 'There isn't enough anger in politics'", "webUrl": "https://www.theguardian.com/books/2012/dec/28/benjamin-zephaniah-anger-politics-interview", "apiUrl": "https://content.guardianapis.com/books/2012/dec/28/benjamin-zephaniah-anger-politics-interview", "isHosted": false, "pillarId": "pillar/arts", "pillarName": "Arts"}, {"id": "world/2012/dec/28/eu-veterans-hopes-pm-speech", "type": "article", "sectionId": "world", "sectionName": "World news", "webPublicationDate": "2012-12-28T18:00:02Z", "webTitle": "EU veterans explain their hopes for PM's landmark speech on Europe", "webUrl": "https://www.theguardian.com/world/2012/dec/28/eu-veterans-hopes-pm-speech", "apiUrl": "https://content.guardianapis.com/world/2012/dec/28/eu-veterans-hopes-pm-speech", "isHosted": false, "pillarId": "pillar/news", "pillarName": "News"}, {"id": "world/2012/dec/28/david-cameron-britain-eu-accident", "type": "article", "sectionId": "world", "sectionName": "World news", "webPublicationDate": "2012-12-28T17:59:01Z", "webTitle": "David Cameron 'risks leading Britain out of EU by accident'", "webUrl": "https://www.theguardian.com/world/2012/dec/28/david-cameron-britain-eu-accident", "apiUrl": "https://content.guardianapis.com/world/2012/dec/28/david-cameron-britain-eu-accident", "isHosted": false, "pillarId": "pillar/news", "pillarName": "News"}, {"id": "uk/video/2012/dec/28/thatcher-surprised-by-falklands-invasion-video", "type": "video", "sectionId": "uk-news", "sectionName": "UK news", "webPublicationDate": "2012-12-28T17:35:00Z", "webTitle": "Thatcher surprised by Falklands invasion - video", "webUrl": "https://www.theguardian.com/uk/video/2012/dec/28/thatcher-surprised-by-falklands-invasion-video", "apiUrl": "https://content.guardianapis.com/uk/video/2012/dec/28/thatcher-surprised-by-falklands-invasion-video", "isHosted": false, "pillarId": "pillar/news", "pillarName": "News"}, {"id": "politics/2012/dec/28/michael-gove-exams-reforms", "type": "article", "sectionId": "politics", "sectionName": "Politics", "webPublicationDate": "2012-12-28T16:53:05Z", "webTitle": "Education expert cautions Michael Gove over heavy reliance on exams", "webUrl": "https://www.theguardian.com/politics/2012/dec/28/michael-gove-exams-reforms", "apiUrl": "https://content.guardianapis.com/politics/2012/dec/28/michael-gove-exams-reforms", "isHosted": false, "pillarId": "pillar/news", "pillarName": "News"}, {"id": "commentisfree/2012/dec/28/britain-new-right-cash-chaos-profits", "type": "article", "sectionId": "commentisfree", "sectionName": "Opinion", "webPublicationDate": "2012-12-28T16:27:44Z", "webTitle": "How Britain's new right seeks to make cash out of chaos | Neal Lawson", "webUrl": "https://www.theguardian.com/commentisfree/2012/dec/28/britain-new-right-cash-chaos-profits", "apiUrl": "https://content.guardianapis.com/commentisfree/2012/dec/28/britain-new-right-cash-chaos-profits", "isHosted": false, "pillarId": "pillar/opinion", "pillarName": "Opinion"}, {"id": "politics/2012/dec/28/snooper-charter-fail-treasury-backing", "type": "article", "sectionId": "politics", "sectionName": "Politics", "webPublicationDate": "2012-12-28T15:39:51Z", "webTitle": "\u00a31.8bn 'snooper's charter' fails to get Treasury backing", "webUrl": "https://www.theguardian.com/politics/2012/dec/28/snooper-charter-fail-treasury-backing", "apiUrl": "https://content.guardianapis.com/politics/2012/dec/28/snooper-charter-fail-treasury-backing", "isHosted": false, "pillarId": "pillar/news", "pillarName": "News"}, {"id": "uk/2012/dec/28/prince-charles-private-meetings-ministers", "type": "article", "sectionId": "uk-news", "sectionName": "UK news", "webPublicationDate": "2012-12-28T15:28:19Z", "webTitle": "Prince Charles held private meetings with eight ministers in 12 months", "webUrl": "https://www.theguardian.com/uk/2012/dec/28/prince-charles-private-meetings-ministers", "apiUrl": "https://content.guardianapis.com/uk/2012/dec/28/prince-charles-private-meetings-ministers", "isHosted": false, "pillarId": "pillar/news", "pillarName": "News"}, {"id": "politics/2012/dec/28/eu-deal-britons-comfortable-membership", "type": "article", "sectionId": "politics", "sectionName": "Politics", "webPublicationDate": "2012-12-28T15:18:08Z", "webTitle": "Any EU deal must make Britons feel comfortable, says Europe minister", "webUrl": "https://www.theguardian.com/politics/2012/dec/28/eu-deal-britons-comfortable-membership", "apiUrl": "https://content.guardianapis.com/politics/2012/dec/28/eu-deal-britons-comfortable-membership", "isHosted": false, "pillarId": "pillar/news", "pillarName": "News"}, {"id": "commentisfree/2012/dec/28/margaret-thatcher-government-1982-papers", "type": "article", "sectionId": "commentisfree", "sectionName": "Opinion", "webPublicationDate": "2012-12-28T13:31:38Z", "webTitle": "Thatcher's government in 1982: your thoughts on the newly released papers | Open thread", "webUrl": "https://www.theguardian.com/commentisfree/2012/dec/28/margaret-thatcher-government-1982-papers", "apiUrl": "https://content.guardianapis.com/commentisfree/2012/dec/28/margaret-thatcher-government-1982-papers", "isHosted": false, "pillarId": "pillar/opinion", "pillarName": "Opinion"}]}}