{"response": {"status": "ok", "userTier": "developer", "total": 132302, "startIndex": 1, "pageSize": 50, "currentPage": 1, "pages": 2647, "orderBy": "newest", "results": [{"id": "commentisfree/cartoon/2013/dec/30/ben-jennings-plans-charge-health-tourism", "type": "picture", "sectionId": "commentisfree", "sectionName": "Opinion", "webPublicationDate": "2013-12-30T23:44:33Z", "webTitle": "Ben Jennings on plans to charge tourists and migrants for NHS emergency services \u2013 cartoon", "webUrl": "https://www.theguardian.com/commentisfree/cartoon/2013/dec/30/ben-jennings-plans-charge-health-tourism", "apiUrl": "https://content.guardianapis.com/commentisfree/cartoon/2013/dec/30/ben-jennings-plans-charge-health-tourism", "isHosted": false, "pillarId": "pillar/opinion", "pillarName": "Opinion"}, {"id": "politics/2013/dec/30/syria-vote-westminster-foreign-policy", "type": "article", "sectionId": "politics", "sectionName": "Politics", "webPublicationDate": "2013-12-30T23:17:00Z", "webTitle": "Syria vote: a week of accidents and errors", "webUrl": "https://www.theguardian.com/politics/2013/dec/30/syria-vote-westminster-foreign-policy", "apiUrl": "https://content.guardianapis.com/politics/2013/dec/30/syria-vote-westminster-foreign-policy", "isHosted": false, "pillarId": "pillar/news", "pillarName": "News"}, {"id": "commentisfree/2013/dec/30/migration-politics-fear-syria-refugees", "type": "article", "sectionId": "commentisfree", "sectionName": "Opinion", "webPublicationDate": "2013-12-30T23:00:51Z", "webTitle": "Migration: politics of fear | Editorial", "webUrl": "https://www.theguardian.com/commentisfree/2013/dec/30/migration-politics-fear-syria-refugees", "apiUrl": "https://content.guardianapis.com/commentisfree/2013/dec/30/migration-politics-fear-syria-refugees", "isHosted": false, "pillarId": "pillar/opinion", "pillarName": "Opinion"}, {"id": "uk-news/2013/dec/30/new-year-honours-list-2014-women", "type": "article", "sectionId": "uk-news", "sectionName": "UK news", "webPublicationDate": "2013-12-30T22:30:00Z", "webTitle": "New Year honours list recognises more women than men for first time", "webUrl": "https://www.theguardian.com/uk-news/2013/dec/30/new-year-honours-list-2014-women", "apiUrl": "https://content.guardianapis.com/uk-news/2013/dec/30/new-year-honours-list-2014-women", "isHosted": false, "pillarId": "pillar/news", "pillarName": "News"}, {"id": "politics/2013/dec/30/labour-atatcks-cameron-osborne-bank-levy-shortfall", "type": "article", "sectionId": "politics", "sectionName": "Politics", "webPublicationDate": "2013-12-30T22:00:00Z", "webTitle": "Labour attacks Cameron and Osborne over \u00a32.1bn bank levy shortfall", "webUrl": "https://www.theguardian.com/politics/2013/dec/30/labour-atatcks-cameron-osborne-bank-levy-shortfall", "apiUrl": "https://content.guardianapis.com/politics/2013/dec/30/labour-atatcks-cameron-osborne-bank-levy-shortfall", "isHosted": false, "pillarId": "pillar/news", "pillarName": "News"}, {"id": "politics/2013/dec/30/parliamentarians-look-sound-bankers-salespeople", "type": "article", "sectionId": "politics", "sectionName": "Politics", "webPublicationDate": "2013-12-30T21:00:00Z", "webTitle": "Parliamentarians look \u2013 and sound \u2013 too much like bankers and salespeople | @guardianletters", "webUrl": "https://www.theguardian.com/politics/2013/dec/30/parliamentarians-look-sound-bankers-salespeople", "apiUrl": "https://content.guardianapis.com/politics/2013/dec/30/parliamentarians-look-sound-bankers-salespeople", "isHosted": false, "pillarId": "pillar/news", "pillarName": "News"}, {"id": "theguardian/2013/dec/30/labour-answer-to-voter-apathy", "type": "article", "sectionId": "global", "sectionName": "Global", "webPublicationDate": "2013-12-30T21:00:00Z", "webTitle": "Labour's answer to voter apathy | @guardianletters", "webUrl": "https://www.theguardian.com/theguardian/2013/dec/30/labour-answer-to-voter-apathy", "apiUrl": "https://content.guardianapis.com/theguardian/2013/dec/30/labour-answer-to-voter-apathy", "isHosted": false}, {"id": "politics/2013/dec/30/media-more-support-voters-uk", "type": "article", "sectionId": "politics", "sectionName": "Politics", "webPublicationDate": "2013-12-30T20:59:01Z", "webTitle": "Media could do more to support voters in Britain | @guardianletters", "webUrl": "https://www.theguardian.com/politics/2013/dec/30/media-more-support-voters-uk", "apiUrl": "https://content.guardianapis.com/politics/2013/dec/30/media-more-support-voters-uk", "isHosted": false, "pillarId": "pillar/news", "pillarName": "News"}, {"id": "politics/2013/dec/30/national-convention-political-system", "type": "article", "sectionId": "politics", "sectionName": "Politics", "webPublicationDate": "2013-12-30T20:59:01Z", "webTitle": "A national convention on the political system | @guardianletters", "webUrl": "https://www.theguardian.com/politics/2013/dec/30/national-convention-political-system", "apiUrl": "https://content.guardianapis.com/politics/2013/dec/30/national-convention-political-system", "isHosted": false, "pillarId": "pillar/news", "pillarName": "News"}, {"id": "environment/2013/dec/30/number-households-insulation-lofts-plummets-green-deal", "type": "article", "sectionId": "environment", "sectionName": "Environment", "webPublicationDate": "2013-12-30T20:01:30Z", "webTitle": "Number of households getting help with insulation plummets", "webUrl": "https://www.theguardian.com/environment/2013/dec/30/number-households-insulation-lofts-plummets-green-deal", "apiUrl": "https://content.guardianapis.com/environment/2013/dec/30/number-households-insulation-lofts-plummets-green-deal", "isHosted": false, "pillarId": "pillar/news", "pillarName": "News"}, {"id": "politics/2013/dec/30/alistair-burt-anger-syria-westminster", "type": "article", "sectionId": "politics", "sectionName": "Politics", "webPublicationDate": "2013-12-30T20:00:01Z", "webTitle": "Alistair Burt reveals anger over Syria vote at Westminster", "webUrl": "https://www.theguardian.com/politics/2013/dec/30/alistair-burt-anger-syria-westminster", "apiUrl": "https://content.guardianapis.com/politics/2013/dec/30/alistair-burt-anger-syria-westminster", "isHosted": false, "pillarId": "pillar/news", "pillarName": "News"}, {"id": "society/2013/dec/30/liver-disease-deaths-starved-nhs-funds", "type": "article", "sectionId": "society", "sectionName": "Society", "webPublicationDate": "2013-12-30T19:00:01Z", "webTitle": "Liver disease deaths: areas with highest levels 'most starved of NHS funds'", "webUrl": "https://www.theguardian.com/society/2013/dec/30/liver-disease-deaths-starved-nhs-funds", "apiUrl": "https://content.guardianapis.com/society/2013/dec/30/liver-disease-deaths-starved-nhs-funds", "isHosted": false, "pillarId": "pillar/news", "pillarName": "News"}, {"id": "commentisfree/2013/dec/30/share-blame-for-useless-politicians", "type": "article", "sectionId": "commentisfree", "sectionName": "Opinion", "webPublicationDate": "2013-12-30T19:00:00Z", "webTitle": "We must all share the blame for our 'useless' politicians | Polly Toynbee", "webUrl": "https://www.theguardian.com/commentisfree/2013/dec/30/share-blame-for-useless-politicians", "apiUrl": "https://content.guardianapis.com/commentisfree/2013/dec/30/share-blame-for-useless-politicians", "isHosted": false, "pillarId": "pillar/opinion", "pillarName": "Opinion"}, {"id": "uk-news/2013/dec/30/grayling-lib-dem-blocked-immigration-controls", "type": "article", "sectionId": "uk-news", "sectionName": "UK news", "webPublicationDate": "2013-12-30T18:39:31Z", "webTitle": "Chris Grayling accuses Lib Dems of blocking tougher immigration controls", "webUrl": "https://www.theguardian.com/uk-news/2013/dec/30/grayling-lib-dem-blocked-immigration-controls", "apiUrl": "https://content.guardianapis.com/uk-news/2013/dec/30/grayling-lib-dem-blocked-immigration-controls", "isHosted": false, "pillarId": "pillar/news", "pillarName": "News"}, {"id": "commentisfree/2013/dec/30/nick-clegg-prize-is-2020-not-2015", "type": "article", "sectionId": "commentisfree", "sectionName": "Opinion", "webPublicationDate": "2013-12-30T17:59:00Z", "webTitle": "For Nick Clegg the real prize will be in 2020, not 2015 | Richard Reeves", "webUrl": "https://www.theguardian.com/commentisfree/2013/dec/30/nick-clegg-prize-is-2020-not-2015", "apiUrl": "https://content.guardianapis.com/commentisfree/2013/dec/30/nick-clegg-prize-is-2020-not-2015", "isHosted": false, "pillarId": "pillar/opinion", "pillarName": "Opinion"}, {"id": "commentisfree/2013/dec/30/2013-year-coalition-climbdown-uturns", "type": "article", "sectionId": "commentisfree", "sectionName": "Opinion", "webPublicationDate": "2013-12-30T17:47:44Z", "webTitle": "2013, year of the coalition climbdown | Alex Andreou", "webUrl": "https://www.theguardian.com/commentisfree/2013/dec/30/2013-year-coalition-climbdown-uturns", "apiUrl": "https://content.guardianapis.com/commentisfree/2013/dec/30/2013-year-coalition-climbdown-uturns", "isHosted": false, "pillarId": "pillar/opinion", "pillarName": "Opinion"}, {"id": "uk-news/2013/dec/30/northern-ireland-troubles-talks-richard-haass", "type": "article", "sectionId": "uk-news", "sectionName": "UK news", "webPublicationDate": "2013-12-30T17:15:02Z", "webTitle": "Northern Ireland parties win more time to agree Troubles deal", "webUrl": "https://www.theguardian.com/uk-news/2013/dec/30/northern-ireland-troubles-talks-richard-haass", "apiUrl": "https://content.guardianapis.com/uk-news/2013/dec/30/northern-ireland-troubles-talks-richard-haass", "isHosted": false, "pillarId": "pillar/news", "pillarName": "News"}, {"id": "lifeandstyle/video/2013/dec/30/ed-miliband-new-year-message-cost-living-crisis-video", "type": "video", "sectionId": "lifeandstyle", "sectionName": "Life and style", "webPublicationDate": "2013-12-30T17:13:00Z", "webTitle": "Ed Miliband's New Year message on 'cost of living crisis' - video", "webUrl": "https://www.theguardian.com/lifeandstyle/video/2013/dec/30/ed-miliband-new-year-message-cost-living-crisis-video", "apiUrl": "https://content.guardianapis.com/lifeandstyle/video/2013/dec/30/ed-miliband-new-year-message-cost-living-crisis-video", "isHosted": false, "pillarId": "pillar/lifestyle", "pillarName": "Lifestyle"}, {"id": "commentisfree/2013/dec/30/hypothermia-exmoor-bicycle-ride", "type": "article", "sectionId": "commentisfree", "sectionName": "Opinion", "webPublicationDate": "2013-12-30T16:00:00Z", "webTitle": "Cold fact: humans aren't as resilient as Exmoor ponies | George Monbiot", "webUrl": "https://www.theguardian.com/commentisfree/2013/dec/30/hypothermia-exmoor-bicycle-ride", "apiUrl": "https://content.guardianapis.com/commentisfree/2013/dec/30/hypothermia-exmoor-bicycle-ride", "isHosted": false, "pillarId": "pillar/opinion", "pillarName": "Opinion"}, {"id": "politics/2013/dec/30/nigel-farage-asylum-syrian-refugees-christians", "type": "article", "sectionId": "politics", "sectionName": "Politics", "webPublicationDate": "2013-12-30T14:39:00Z", "webTitle": "Nigel Farage rows back on call to grant asylum to Syrian refugees", "webUrl": "https://www.theguardian.com/politics/2013/dec/30/nigel-farage-asylum-syrian-refugees-christians", "apiUrl": "https://content.guardianapis.com/politics/2013/dec/30/nigel-farage-asylum-syrian-refugees-christians", "isHosted": false, "pillarId": "pillar/news", "pillarName": "News"}, {"id": "global-development/2013/dec/30/susan-george-secret-capitalist-cabal-behind-european-austerity", "type": "article", "sectionId": "global-development", "sectionName": "Global development", "webPublicationDate": "2013-12-30T12:24:45Z", "webTitle": "Susan George on the secret capitalist cabal behind European austerity", "webUrl": "https://www.theguardian.com/global-development/2013/dec/30/susan-george-secret-capitalist-cabal-behind-european-austerity", "apiUrl": "https://content.guardianapis.com/global-development/2013/dec/30/susan-george-secret-capitalist-cabal-behind-european-austerity", "isHosted": false, "pillarId": "pillar/news", "pillarName": "News"}, {"id": "uk-news/2013/dec/30/northern-ireland-talks-nearing-climax-haass-troubles", "type": "article", "sectionId": "uk-news", "sectionName": "UK news", "webPublicationDate": "2013-12-30T11:33:41Z", "webTitle": "Northern Ireland talks nearing climax", "webUrl": "https://www.theguardian.com/uk-news/2013/dec/30/northern-ireland-talks-nearing-climax-haass-troubles", "apiUrl": "https://content.guardianapis.com/uk-news/2013/dec/30/northern-ireland-talks-nearing-climax-haass-troubles", "isHosted": false, "pillarId": "pillar/news", "pillarName": "News"}, {"id": "law/2013/dec/30/grayling-european-court-human-rights-legitimacy", "type": "article", "sectionId": "law", "sectionName": "Law", "webPublicationDate": "2013-12-30T10:47:00Z", "webTitle": "Grayling says European court of human rights has lost legitimacy", "webUrl": "https://www.theguardian.com/law/2013/dec/30/grayling-european-court-human-rights-legitimacy", "apiUrl": "https://content.guardianapis.com/law/2013/dec/30/grayling-european-court-human-rights-legitimacy", "isHosted": false, "pillarId": "pillar/news", "pillarName": "News"}, {"id": "politics/blog/2013/dec/30/politics-live-readers-edition", "type": "article", "sectionId": "politics", "sectionName": "Politics", "webPublicationDate": "2013-12-30T10:03:25Z", "webTitle": "Politics live: readers' edition - Monday 30 December", "webUrl": "https://www.theguardian.com/politics/blog/2013/dec/30/politics-live-readers-edition", "apiUrl": "https://content.guardianapis.com/politics/blog/2013/dec/30/politics-live-readers-edition", "isHosted": false, "pillarId": "pillar/news", "pillarName": "News"}, {"id": "uk-news/2013/dec/30/energy-firms-electricity-blackouts", "type": "article", "sectionId": "uk-news", "sectionName": "UK news", "webPublicationDate": "2013-12-30T08:52:55Z", "webTitle": "Energy firms let down customers over electricity blackouts, says minister", "webUrl": "https://www.theguardian.com/uk-news/2013/dec/30/energy-firms-electricity-blackouts", "apiUrl": "https://content.guardianapis.com/uk-news/2013/dec/30/energy-firms-electricity-blackouts", "isHosted": false, "pillarId": "pillar/news", "pillarName": "News"}, {"id": "commentisfree/2013/dec/30/globalised-world-foreign-office-outlived-usefulness", "type": "article", "sectionId": "commentisfree", "sectionName": "Opinion", "webPublicationDate": "2013-12-30T08:01:00Z", "webTitle": "In a globalised, connected world, do we still need the Foreign Office? | Mary Dejevsky", "webUrl": "https://www.theguardian.com/commentisfree/2013/dec/30/globalised-world-foreign-office-outlived-usefulness", "apiUrl": "https://content.guardianapis.com/commentisfree/2013/dec/30/globalised-world-foreign-office-outlived-usefulness", "isHosted": false, "pillarId": "pillar/opinion", "pillarName": "Opinion"}, {"id": "politics/2013/dec/30/ed-miliband-new-year-message-economy", "type": "article", "sectionId": "politics", "sectionName": "Politics", "webPublicationDate": "2013-12-30T00:05:02Z", "webTitle": "Ed Miliband's New Year message: 'We'll make big changes in our economy'", "webUrl": "https://www.theguardian.com/politics/2013/dec/30/ed-miliband-new-year-message-economy", "apiUrl": "https://content.guardianapis.com/politics/2013/dec/30/ed-miliband-new-year-message-economy", "isHosted": false, "pillarId": "pillar/news", "pillarName": "News"}, {"id": "society/2013/dec/30/manchester-joined-up-childcare-strategy", "type": "article", "sectionId": "society", "sectionName": "Society", "webPublicationDate": "2013-12-30T00:05:01Z", "webTitle": "Manchester pioneering joined-up childcare strategy", "webUrl": "https://www.theguardian.com/society/2013/dec/30/manchester-joined-up-childcare-strategy", "apiUrl": "https://content.guardianapis.com/society/2013/dec/30/manchester-joined-up-childcare-strategy", "isHosted": false, "pillarId": "pillar/news", "pillarName": "News"}, {"id": "politics/2013/dec/30/labour-free-universal-childcare-miliband", "type": "article", "sectionId": "politics", "sectionName": "Politics", "webPublicationDate": "2013-12-30T00:01:04Z", "webTitle": "Labour sets its sights on free childcare for all", "webUrl": "https://www.theguardian.com/politics/2013/dec/30/labour-free-universal-childcare-miliband", "apiUrl": "https://content.guardianapis.com/politics/2013/dec/30/labour-free-universal-childcare-miliband", "isHosted": false, "pillarId": "pillar/news", "pillarName": "News"}, {"id": "society/2013/dec/30/tourists-migrants-to-be-charged-emergency-care-nhs", "type": "article", "sectionId": "society", "sectionName": "Society", "webPublicationDate": "2013-12-30T00:01:00Z", "webTitle": "Tourists and migrants to be charged to use NHS emergency services", "webUrl": "https://www.theguardian.com/society/2013/dec/30/tourists-migrants-to-be-charged-emergency-care-nhs", "apiUrl": "https://content.guardianapis.com/society/2013/dec/30/tourists-migrants-to-be-charged-emergency-care-nhs", "isHosted": false, "pillarId": "pillar/news", "pillarName": "News"}, {"id": "uk-news/2013/dec/29/chilcot-inquiry-iraq-war-new-year", "type": "article", "sectionId": "uk-news", "sectionName": "UK news", "webPublicationDate": "2013-12-29T22:30:00Z", "webTitle": "Chilcot inquiry into Iraq war set to publish findings in new year", "webUrl": "https://www.theguardian.com/uk-news/2013/dec/29/chilcot-inquiry-iraq-war-new-year", "apiUrl": "https://content.guardianapis.com/uk-news/2013/dec/29/chilcot-inquiry-iraq-war-new-year", "isHosted": false, "pillarId": "pillar/news", "pillarName": "News"}, {"id": "business/2013/dec/29/outsourcing-under-investigation", "type": "article", "sectionId": "business", "sectionName": "Business", "webPublicationDate": "2013-12-29T21:00:01Z", "webTitle": "Outsourcing again under investigation | @guardianletters", "webUrl": "https://www.theguardian.com/business/2013/dec/29/outsourcing-under-investigation", "apiUrl": "https://content.guardianapis.com/business/2013/dec/29/outsourcing-under-investigation", "isHosted": false, "pillarId": "pillar/news", "pillarName": "News"}, {"id": "uk-news/2013/dec/29/intimidation-problems-northern-ireland", "type": "article", "sectionId": "uk-news", "sectionName": "UK news", "webPublicationDate": "2013-12-29T20:59:00Z", "webTitle": "Intimidation flags up continuing problems in Northern Ireland | @guardianletters", "webUrl": "https://www.theguardian.com/uk-news/2013/dec/29/intimidation-problems-northern-ireland", "apiUrl": "https://content.guardianapis.com/uk-news/2013/dec/29/intimidation-problems-northern-ireland", "isHosted": false, "pillarId": "pillar/news", "pillarName": "News"}, {"id": "politics/2013/dec/29/nigel-farage-ukip-syria-refugees", "type": "article", "sectionId": "politics", "sectionName": "Politics", "webPublicationDate": "2013-12-29T19:15:13Z", "webTitle": "Ukip's Nigel Farage shocks own party with call to let in Syrian refugees", "webUrl": "https://www.theguardian.com/politics/2013/dec/29/nigel-farage-ukip-syria-refugees", "apiUrl": "https://content.guardianapis.com/politics/2013/dec/29/nigel-farage-ukip-syria-refugees", "isHosted": false, "pillarId": "pillar/news", "pillarName": "News"}, {"id": "lifeandstyle/2013/dec/29/slapdowns-2013-insults-jibes", "type": "article", "sectionId": "lifeandstyle", "sectionName": "Life and style", "webPublicationDate": "2013-12-29T19:00:01Z", "webTitle": "Slapdowns of 2013", "webUrl": "https://www.theguardian.com/lifeandstyle/2013/dec/29/slapdowns-2013-insults-jibes", "apiUrl": "https://content.guardianapis.com/lifeandstyle/2013/dec/29/slapdowns-2013-insults-jibes", "isHosted": false, "pillarId": "pillar/lifestyle", "pillarName": "Lifestyle"}, {"id": "lifeandstyle/picture/2013/dec/29/michael-gove-random-policy-generator", "type": "picture", "sectionId": "lifeandstyle", "sectionName": "Life and style", "webPublicationDate": "2013-12-29T19:00:00Z", "webTitle": "The Michael Gove random policy generator", "webUrl": "https://www.theguardian.com/lifeandstyle/picture/2013/dec/29/michael-gove-random-policy-generator", "apiUrl": "https://content.guardianapis.com/lifeandstyle/picture/2013/dec/29/michael-gove-random-policy-generator", "isHosted": false, "pillarId": "pillar/lifestyle", "pillarName": "Lifestyle"}, {"id": "lifeandstyle/2013/dec/29/unreliable-statistics-of-2013", "type": "article", "sectionId": "lifeandstyle", "sectionName": "Life and style", "webPublicationDate": "2013-12-29T19:00:00Z", "webTitle": "Unreliable statistics of 2013", "webUrl": "https://www.theguardian.com/lifeandstyle/2013/dec/29/unreliable-statistics-of-2013", "apiUrl": "https://content.guardianapis.com/lifeandstyle/2013/dec/29/unreliable-statistics-of-2013", "isHosted": false, "pillarId": "pillar/lifestyle", "pillarName": "Lifestyle"}, {"id": "commentisfree/2013/dec/29/miliband-at-strongest-when-he-defies-convention", "type": "article", "sectionId": "commentisfree", "sectionName": "Opinion", "webPublicationDate": "2013-12-29T18:00:00Z", "webTitle": "Ed Miliband is at his strongest when he defies convention | Steve Richards", "webUrl": "https://www.theguardian.com/commentisfree/2013/dec/29/miliband-at-strongest-when-he-defies-convention", "apiUrl": "https://content.guardianapis.com/commentisfree/2013/dec/29/miliband-at-strongest-when-he-defies-convention", "isHosted": false, "pillarId": "pillar/opinion", "pillarName": "Opinion"}, {"id": "society/2013/dec/29/cable-hunt-nhs-privatised-plasma", "type": "article", "sectionId": "society", "sectionName": "Society", "webPublicationDate": "2013-12-29T17:56:32Z", "webTitle": "Cable questions Hunt over risk to NHS from privatised plasma firm", "webUrl": "https://www.theguardian.com/society/2013/dec/29/cable-hunt-nhs-privatised-plasma", "apiUrl": "https://content.guardianapis.com/society/2013/dec/29/cable-hunt-nhs-privatised-plasma", "isHosted": false, "pillarId": "pillar/news", "pillarName": "News"}, {"id": "lifeandstyle/gallery/2013/dec/29/steve-bells-five-favourite-cartoons-of-2013", "type": "gallery", "sectionId": "lifeandstyle", "sectionName": "Life and style", "webPublicationDate": "2013-12-29T17:00:48Z", "webTitle": "Steve Bell's five favourite cartoons of 2013", "webUrl": "https://www.theguardian.com/lifeandstyle/gallery/2013/dec/29/steve-bells-five-favourite-cartoons-of-2013", "apiUrl": "https://content.guardianapis.com/lifeandstyle/gallery/2013/dec/29/steve-bells-five-favourite-cartoons-of-2013", "isHosted": false, "pillarId": "pillar/lifestyle", "pillarName": "Lifestyle"}, {"id": "business/2013/dec/29/andrew-tyrie-banking-reform-industry-stronger", "type": "article", "sectionId": "business", "sectionName": "Business", "webPublicationDate": "2013-12-29T16:56:24Z", "webTitle": "Andrew Tyrie on banking reform: 'If we get it right the industry will be stronger'", "webUrl": "https://www.theguardian.com/business/2013/dec/29/andrew-tyrie-banking-reform-industry-stronger", "apiUrl": "https://content.guardianapis.com/business/2013/dec/29/andrew-tyrie-banking-reform-industry-stronger", "isHosted": false, "pillarId": "pillar/news", "pillarName": "News"}, {"id": "commentisfree/2013/dec/29/comprehensive-schooling-system-divided-class", "type": "article", "sectionId": "commentisfree", "sectionName": "Opinion", "webPublicationDate": "2013-12-29T15:00:00Z", "webTitle": "Our nominally comprehensive education system is still divided by class | Lynsey Hanley", "webUrl": "https://www.theguardian.com/commentisfree/2013/dec/29/comprehensive-schooling-system-divided-class", "apiUrl": "https://content.guardianapis.com/commentisfree/2013/dec/29/comprehensive-schooling-system-divided-class", "isHosted": false, "pillarId": "pillar/opinion", "pillarName": "Opinion"}, {"id": "politics/2013/dec/29/northern-ireland-haass-talks-resume", "type": "article", "sectionId": "politics", "sectionName": "Politics", "webPublicationDate": "2013-12-29T14:37:55Z", "webTitle": "Northern Ireland talks resume for 'one final effort'", "webUrl": "https://www.theguardian.com/politics/2013/dec/29/northern-ireland-haass-talks-resume", "apiUrl": "https://content.guardianapis.com/politics/2013/dec/29/northern-ireland-haass-talks-resume", "isHosted": false, "pillarId": "pillar/news", "pillarName": "News"}, {"id": "money/2013/dec/29/why-britain-needs-pay-rise", "type": "article", "sectionId": "business", "sectionName": "Business", "webPublicationDate": "2013-12-29T14:34:58Z", "webTitle": "Why Britain needs a pay rise", "webUrl": "https://www.theguardian.com/money/2013/dec/29/why-britain-needs-pay-rise", "apiUrl": "https://content.guardianapis.com/money/2013/dec/29/why-britain-needs-pay-rise", "isHosted": false, "pillarId": "pillar/news", "pillarName": "News"}, {"id": "books/2013/dec/29/readers-books-of-year-2013-part-3", "type": "article", "sectionId": "books", "sectionName": "Books", "webPublicationDate": "2013-12-29T08:30:00Z", "webTitle": "Readers' books of the year 2013: part 3", "webUrl": "https://www.theguardian.com/books/2013/dec/29/readers-books-of-year-2013-part-3", "apiUrl": "https://content.guardianapis.com/books/2013/dec/29/readers-books-of-year-2013-part-3", "isHosted": false, "pillarId": "pillar/arts", "pillarName": "Arts"}, {"id": "commentisfree/2013/dec/29/worlds-largest-economies-and-their-future", "type": "article", "sectionId": "commentisfree", "sectionName": "Opinion", "webPublicationDate": "2013-12-29T06:00:00Z", "webTitle": "Which will be the big economies in 15 years? It's not a done deal | Will Hutton", "webUrl": "https://www.theguardian.com/commentisfree/2013/dec/29/worlds-largest-economies-and-their-future", "apiUrl": "https://content.guardianapis.com/commentisfree/2013/dec/29/worlds-largest-economies-and-their-future", "isHosted": false, "pillarId": "pillar/opinion", "pillarName": "Opinion"}, {"id": "politics/2013/dec/29/grant-shapps-small-business-social-mobility", "type": "article", "sectionId": "politics", "sectionName": "Politics", "webPublicationDate": "2013-12-29T00:06:05Z", "webTitle": "Grant Shapps says small firms are the key to social mobility", "webUrl": "https://www.theguardian.com/politics/2013/dec/29/grant-shapps-small-business-social-mobility", "apiUrl": "https://content.guardianapis.com/politics/2013/dec/29/grant-shapps-small-business-social-mobility", "isHosted": false, "pillarId": "pillar/news", "pillarName": "News"}, {"id": "commentisfree/2013/dec/29/europe-british-politicians-stand-up-anti-eu-populism", "type": "article", "sectionId": "commentisfree", "sectionName": "Opinion", "webPublicationDate": "2013-12-29T00:06:03Z", "webTitle": "Beware this populism sweeping across Europe | Observer editorial", "webUrl": "https://www.theguardian.com/commentisfree/2013/dec/29/europe-british-politicians-stand-up-anti-eu-populism", "apiUrl": "https://content.guardianapis.com/commentisfree/2013/dec/29/europe-british-politicians-stand-up-anti-eu-populism", "isHosted": false, "pillarId": "pillar/opinion", "pillarName": "Opinion"}, {"id": "commentisfree/2013/dec/29/small-businesses-lead-british-prosperity", "type": "article", "sectionId": "commentisfree", "sectionName": "Opinion", "webPublicationDate": "2013-12-29T00:06:02Z", "webTitle": "Small businesses can lead Britain back to prosperity | Grant Shapps", "webUrl": "https://www.theguardian.com/commentisfree/2013/dec/29/small-businesses-lead-british-prosperity", "apiUrl": "https://content.guardianapis.com/commentisfree/2013/dec/29/small-businesses-lead-british-prosperity", "isHosted": false, "pillarId": "pillar/opinion", "pillarName": "Opinion"}, {"id": "business/2013/dec/29/big-society-cutting-welfare-coalition-big-lie", "type": "article", "sectionId": "business", "sectionName": "Business", "webPublicationDate": "2013-12-29T00:05:53Z", "webTitle": "Big society? Cutting welfare to 'aid recovery' is just a big lie", "webUrl": "https://www.theguardian.com/business/2013/dec/29/big-society-cutting-welfare-coalition-big-lie", "apiUrl": "https://content.guardianapis.com/business/2013/dec/29/big-society-cutting-welfare-coalition-big-lie", "isHosted": false, "pillarId": "pillar/news", "pillarName": "News"}]}}