{"response": {"status": "ok", "userTier": "developer", "total": 129398, "startIndex": 1, "pageSize": 50, "currentPage": 1, "pages": 2588, "orderBy": "newest", "results": [{"id": "uk-news/2014/dec/30/tory-donor-knighted-new-year-honours", "type": "article", "sectionId": "uk-news", "sectionName": "UK news", "webPublicationDate": "2014-12-30T22:30:09Z", "webTitle": "Tory donor knighted in New Year honours", "webUrl": "https://www.theguardian.com/uk-news/2014/dec/30/tory-donor-knighted-new-year-honours", "apiUrl": "https://content.guardianapis.com/uk-news/2014/dec/30/tory-donor-knighted-new-year-honours", "isHosted": false, "pillarId": "pillar/news", "pillarName": "News"}, {"id": "politics/2014/dec/30/labour-andrew-lansley-un-job-humanitarian", "type": "article", "sectionId": "politics", "sectionName": "Politics", "webPublicationDate": "2014-12-30T20:36:19Z", "webTitle": "Labour hits out as Andrew Lansley confirms nomination for top UN job", "webUrl": "https://www.theguardian.com/politics/2014/dec/30/labour-andrew-lansley-un-job-humanitarian", "apiUrl": "https://content.guardianapis.com/politics/2014/dec/30/labour-andrew-lansley-un-job-humanitarian", "isHosted": false, "pillarId": "pillar/news", "pillarName": "News"}, {"id": "politics/2014/dec/30/rightwing-thinktank-pulls-funds-commons-groups-disclosure-rules", "type": "article", "sectionId": "politics", "sectionName": "Politics", "webPublicationDate": "2014-12-30T19:53:01Z", "webTitle": "Rightwing thinktank pulls funds for Commons groups after disclosure row", "webUrl": "https://www.theguardian.com/politics/2014/dec/30/rightwing-thinktank-pulls-funds-commons-groups-disclosure-rules", "apiUrl": "https://content.guardianapis.com/politics/2014/dec/30/rightwing-thinktank-pulls-funds-commons-groups-disclosure-rules", "isHosted": false, "pillarId": "pillar/news", "pillarName": "News"}, {"id": "politics/2014/dec/30/david-cameron-ed-miliband-trust-nhs-survey", "type": "article", "sectionId": "politics", "sectionName": "Politics", "webPublicationDate": "2014-12-30T19:38:00Z", "webTitle": "David Cameron still more trusted on NHS than Ed Miliband, survey shows", "webUrl": "https://www.theguardian.com/politics/2014/dec/30/david-cameron-ed-miliband-trust-nhs-survey", "apiUrl": "https://content.guardianapis.com/politics/2014/dec/30/david-cameron-ed-miliband-trust-nhs-survey", "isHosted": false, "pillarId": "pillar/news", "pillarName": "News"}, {"id": "politics/2014/dec/30/david-cameron-criticised-lobbying-watchdog-angela-browning", "type": "article", "sectionId": "politics", "sectionName": "Politics", "webPublicationDate": "2014-12-30T19:05:05Z", "webTitle": "Prime minister criticised for appointing Tory peer as lobbying watchdog chair", "webUrl": "https://www.theguardian.com/politics/2014/dec/30/david-cameron-criticised-lobbying-watchdog-angela-browning", "apiUrl": "https://content.guardianapis.com/politics/2014/dec/30/david-cameron-criticised-lobbying-watchdog-angela-browning", "isHosted": false, "pillarId": "pillar/news", "pillarName": "News"}, {"id": "commentisfree/2014/dec/30/guardian-view-on-northern-ireland-latest-deal-glass-half-full", "type": "article", "sectionId": "commentisfree", "sectionName": "Opinion", "webPublicationDate": "2014-12-30T19:02:49Z", "webTitle": "The Guardian view on Northern Ireland\u2019s latest deal: the glass is half-full | Editorial", "webUrl": "https://www.theguardian.com/commentisfree/2014/dec/30/guardian-view-on-northern-ireland-latest-deal-glass-half-full", "apiUrl": "https://content.guardianapis.com/commentisfree/2014/dec/30/guardian-view-on-northern-ireland-latest-deal-glass-half-full", "isHosted": false, "pillarId": "pillar/opinion", "pillarName": "Opinion"}, {"id": "commentisfree/2014/dec/30/britain-new-breed-populists-fail-tony-blair-test", "type": "article", "sectionId": "commentisfree", "sectionName": "Opinion", "webPublicationDate": "2014-12-30T18:40:42Z", "webTitle": "Britain\u2019s new breed of populists fail the Tony Blair test\r\n| Anne McElvoy", "webUrl": "https://www.theguardian.com/commentisfree/2014/dec/30/britain-new-breed-populists-fail-tony-blair-test", "apiUrl": "https://content.guardianapis.com/commentisfree/2014/dec/30/britain-new-breed-populists-fail-tony-blair-test", "isHosted": false, "pillarId": "pillar/opinion", "pillarName": "Opinion"}, {"id": "politics/2014/dec/30/paying-taxes-should-be-seen-privilege", "type": "article", "sectionId": "politics", "sectionName": "Politics", "webPublicationDate": "2014-12-30T18:32:44Z", "webTitle": "Paying taxes should be seen as a privilege | Letters", "webUrl": "https://www.theguardian.com/politics/2014/dec/30/paying-taxes-should-be-seen-privilege", "apiUrl": "https://content.guardianapis.com/politics/2014/dec/30/paying-taxes-should-be-seen-privilege", "isHosted": false, "pillarId": "pillar/news", "pillarName": "News"}, {"id": "business/2014/dec/30/barbour-strike-warehouse-staff-union-workers-hours", "type": "article", "sectionId": "business", "sectionName": "Business", "webPublicationDate": "2014-12-30T18:23:51Z", "webTitle": "Barbour faces four-week strike by warehouse staff", "webUrl": "https://www.theguardian.com/business/2014/dec/30/barbour-strike-warehouse-staff-union-workers-hours", "apiUrl": "https://content.guardianapis.com/business/2014/dec/30/barbour-strike-warehouse-staff-union-workers-hours", "isHosted": false, "pillarId": "pillar/news", "pillarName": "News"}, {"id": "commentisfree/2014/dec/30/gcse-coursework-qualification-education-margaret-thatcher", "type": "article", "sectionId": "commentisfree", "sectionName": "Opinion", "webPublicationDate": "2014-12-30T16:48:16Z", "webTitle": "Thirty years on, how have GCSEs performed? | Phil Beadle", "webUrl": "https://www.theguardian.com/commentisfree/2014/dec/30/gcse-coursework-qualification-education-margaret-thatcher", "apiUrl": "https://content.guardianapis.com/commentisfree/2014/dec/30/gcse-coursework-qualification-education-margaret-thatcher", "isHosted": false, "pillarId": "pillar/opinion", "pillarName": "Opinion"}, {"id": "news/datablog/2014/dec/30/2014-a-good-year-for-democracy", "type": "article", "sectionId": "news", "sectionName": "News", "webPublicationDate": "2014-12-30T16:39:40Z", "webTitle": "2014: a good year for democracy?", "webUrl": "https://www.theguardian.com/news/datablog/2014/dec/30/2014-a-good-year-for-democracy", "apiUrl": "https://content.guardianapis.com/news/datablog/2014/dec/30/2014-a-good-year-for-democracy", "isHosted": false, "pillarId": "pillar/news", "pillarName": "News"}, {"id": "politics/2014/dec/30/labour-revolt-consultants-coach-election-candidates-labour-people", "type": "article", "sectionId": "politics", "sectionName": "Politics", "webPublicationDate": "2014-12-30T14:45:34Z", "webTitle": "Labour faces revolt after consultants brought in to coach election candidates", "webUrl": "https://www.theguardian.com/politics/2014/dec/30/labour-revolt-consultants-coach-election-candidates-labour-people", "apiUrl": "https://content.guardianapis.com/politics/2014/dec/30/labour-revolt-consultants-coach-election-candidates-labour-people", "isHosted": false, "pillarId": "pillar/news", "pillarName": "News"}, {"id": "cities/2014/dec/30/what-i-want-from-our-cities-in-2015-public-spaces-that-are-truly-public-boris-johnson-london", "type": "article", "sectionId": "cities", "sectionName": "Cities", "webPublicationDate": "2014-12-30T13:26:04Z", "webTitle": "What I want from our cities in 2015: public spaces that are truly public", "webUrl": "https://www.theguardian.com/cities/2014/dec/30/what-i-want-from-our-cities-in-2015-public-spaces-that-are-truly-public-boris-johnson-london", "apiUrl": "https://content.guardianapis.com/cities/2014/dec/30/what-i-want-from-our-cities-in-2015-public-spaces-that-are-truly-public-boris-johnson-london", "isHosted": false, "pillarId": "pillar/news", "pillarName": "News"}, {"id": "politics/2014/dec/30/gerry-adams-sinn-fein-president", "type": "article", "sectionId": "politics", "sectionName": "Politics", "webPublicationDate": "2014-12-30T12:30:14Z", "webTitle": "Gerry Adams says he has no plans to step aside as Sinn F\u00e9in leader", "webUrl": "https://www.theguardian.com/politics/2014/dec/30/gerry-adams-sinn-fein-president", "apiUrl": "https://content.guardianapis.com/politics/2014/dec/30/gerry-adams-sinn-fein-president", "isHosted": false, "pillarId": "pillar/news", "pillarName": "News"}, {"id": "commentisfree/2014/dec/30/unsubscribe-avaaz-change-38-degrees-pointless-e-petitions", "type": "article", "sectionId": "commentisfree", "sectionName": "Opinion", "webPublicationDate": "2014-12-30T12:03:00Z", "webTitle": "I only subscribe to this: no more pointless e-petitions | Alex Andreou", "webUrl": "https://www.theguardian.com/commentisfree/2014/dec/30/unsubscribe-avaaz-change-38-degrees-pointless-e-petitions", "apiUrl": "https://content.guardianapis.com/commentisfree/2014/dec/30/unsubscribe-avaaz-change-38-degrees-pointless-e-petitions", "isHosted": false, "pillarId": "pillar/opinion", "pillarName": "Opinion"}, {"id": "commentisfree/2014/dec/30/heroes-2014-margaret-hodge-public-accounts-committee-hmrc-google-tax-avoidance", "type": "article", "sectionId": "commentisfree", "sectionName": "Opinion", "webPublicationDate": "2014-12-30T12:00:11Z", "webTitle": "Heroes of 2014: Margaret Hodge | Polly Toynbee", "webUrl": "https://www.theguardian.com/commentisfree/2014/dec/30/heroes-2014-margaret-hodge-public-accounts-committee-hmrc-google-tax-avoidance", "apiUrl": "https://content.guardianapis.com/commentisfree/2014/dec/30/heroes-2014-margaret-hodge-public-accounts-committee-hmrc-google-tax-avoidance", "isHosted": false, "pillarId": "pillar/opinion", "pillarName": "Opinion"}, {"id": "politics/2014/dec/30/media-learn-business-world-diversity-sajid-javid", "type": "article", "sectionId": "politics", "sectionName": "Politics", "webPublicationDate": "2014-12-30T11:28:00Z", "webTitle": "Media could learn from business world on diversity, says UK culture secretary", "webUrl": "https://www.theguardian.com/politics/2014/dec/30/media-learn-business-world-diversity-sajid-javid", "apiUrl": "https://content.guardianapis.com/politics/2014/dec/30/media-learn-business-world-diversity-sajid-javid", "isHosted": false, "pillarId": "pillar/news", "pillarName": "News"}, {"id": "commentisfree/2014/dec/30/debbie-purdy-death-legalise-assisted-dying-lord-falconer-bill", "type": "article", "sectionId": "commentisfree", "sectionName": "Opinion", "webPublicationDate": "2014-12-30T10:47:46Z", "webTitle": "Let\u2019s mark Debbie Purdy\u2019s death by legalising assisted dying | Simon Jenkins", "webUrl": "https://www.theguardian.com/commentisfree/2014/dec/30/debbie-purdy-death-legalise-assisted-dying-lord-falconer-bill", "apiUrl": "https://content.guardianapis.com/commentisfree/2014/dec/30/debbie-purdy-death-legalise-assisted-dying-lord-falconer-bill", "isHosted": false, "pillarId": "pillar/opinion", "pillarName": "Opinion"}, {"id": "commentisfree/2014/dec/30/europe-2015-elections-eu-britain", "type": "article", "sectionId": "commentisfree", "sectionName": "Opinion", "webPublicationDate": "2014-12-30T10:00:09Z", "webTitle": "Will Europe survive 2015, the year of all elections? | Denis MacShane", "webUrl": "https://www.theguardian.com/commentisfree/2014/dec/30/europe-2015-elections-eu-britain", "apiUrl": "https://content.guardianapis.com/commentisfree/2014/dec/30/europe-2015-elections-eu-britain", "isHosted": false, "pillarId": "pillar/opinion", "pillarName": "Opinion"}, {"id": "politics/blog/live/2014/dec/30/politics-live-blog-readers-edition-tuesday-30-december", "type": "liveblog", "sectionId": "politics", "sectionName": "Politics", "webPublicationDate": "2014-12-30T09:26:28Z", "webTitle": "Politics Live blog - readers' edition: Tuesday 30 December", "webUrl": "https://www.theguardian.com/politics/blog/live/2014/dec/30/politics-live-blog-readers-edition-tuesday-30-december", "apiUrl": "https://content.guardianapis.com/politics/blog/live/2014/dec/30/politics-live-blog-readers-edition-tuesday-30-december", "isHosted": false, "pillarId": "pillar/news", "pillarName": "News"}, {"id": "politics/2014/dec/30/austerity-ukip-indyref-year-politics-digested-david-cameron-george-osborne-westminster-2014", "type": "article", "sectionId": "politics", "sectionName": "Politics", "webPublicationDate": "2014-12-30T08:30:07Z", "webTitle": "Austerity, Ukip and the Indyref: the year in politics - digested", "webUrl": "https://www.theguardian.com/politics/2014/dec/30/austerity-ukip-indyref-year-politics-digested-david-cameron-george-osborne-westminster-2014", "apiUrl": "https://content.guardianapis.com/politics/2014/dec/30/austerity-ukip-indyref-year-politics-digested-david-cameron-george-osborne-westminster-2014", "isHosted": false, "pillarId": "pillar/news", "pillarName": "News"}, {"id": "commentisfree/2014/dec/30/2015-year-political-election", "type": "article", "sectionId": "commentisfree", "sectionName": "Opinion", "webPublicationDate": "2014-12-30T06:00:04Z", "webTitle": "2015 will be a year of political thrills \u2013 and colossal dangers | Polly Toynbee", "webUrl": "https://www.theguardian.com/commentisfree/2014/dec/30/2015-year-political-election", "apiUrl": "https://content.guardianapis.com/commentisfree/2014/dec/30/2015-year-political-election", "isHosted": false, "pillarId": "pillar/opinion", "pillarName": "Opinion"}, {"id": "uk-news/2014/dec/30/national-archives-thatcher-vetoes-anglo-irish-agreement", "type": "article", "sectionId": "uk-news", "sectionName": "UK news", "webPublicationDate": "2014-12-30T00:04:07Z", "webTitle": "Archive files show how Thatcher vetoes shaped 1985 Anglo-Irish agreement", "webUrl": "https://www.theguardian.com/uk-news/2014/dec/30/national-archives-thatcher-vetoes-anglo-irish-agreement", "apiUrl": "https://content.guardianapis.com/uk-news/2014/dec/30/national-archives-thatcher-vetoes-anglo-irish-agreement", "isHosted": false, "pillarId": "pillar/news", "pillarName": "News"}, {"id": "money/2014/dec/30/british-workers-decade-wages-recover-tuc", "type": "article", "sectionId": "money", "sectionName": "Money", "webPublicationDate": "2014-12-30T00:01:07Z", "webTitle": "British workers may wait a decade for wages to recover, says TUC boss", "webUrl": "https://www.theguardian.com/money/2014/dec/30/british-workers-decade-wages-recover-tuc", "apiUrl": "https://content.guardianapis.com/money/2014/dec/30/british-workers-decade-wages-recover-tuc", "isHosted": false, "pillarId": "pillar/lifestyle", "pillarName": "Lifestyle"}, {"id": "uk-news/2014/dec/30/national-archives-revelations-released-documents", "type": "article", "sectionId": "uk-news", "sectionName": "UK news", "webPublicationDate": "2014-12-30T00:01:07Z", "webTitle": "National Archives: revelations from the released documents", "webUrl": "https://www.theguardian.com/uk-news/2014/dec/30/national-archives-revelations-released-documents", "apiUrl": "https://content.guardianapis.com/uk-news/2014/dec/30/national-archives-revelations-released-documents", "isHosted": false, "pillarId": "pillar/news", "pillarName": "News"}, {"id": "uk-news/2014/dec/30/thatcher-chemical-weapons-national-archives", "type": "article", "sectionId": "uk-news", "sectionName": "UK news", "webPublicationDate": "2014-12-30T00:01:07Z", "webTitle": "Thatcher considered UK chemical weapons programme, documents show", "webUrl": "https://www.theguardian.com/uk-news/2014/dec/30/thatcher-chemical-weapons-national-archives", "apiUrl": "https://content.guardianapis.com/uk-news/2014/dec/30/thatcher-chemical-weapons-national-archives", "isHosted": false, "pillarId": "pillar/news", "pillarName": "News"}, {"id": "commentisfree/2014/dec/30/guardian-view-poll-tax-papers-judgment-oliver-letwin", "type": "article", "sectionId": "commentisfree", "sectionName": "Opinion", "webPublicationDate": "2014-12-30T00:01:07Z", "webTitle": "The Guardian view of the poll tax papers: judgment on Oliver Letwin | Editorial", "webUrl": "https://www.theguardian.com/commentisfree/2014/dec/30/guardian-view-poll-tax-papers-judgment-oliver-letwin", "apiUrl": "https://content.guardianapis.com/commentisfree/2014/dec/30/guardian-view-poll-tax-papers-judgment-oliver-letwin", "isHosted": false, "pillarId": "pillar/opinion", "pillarName": "Opinion"}, {"id": "world/2014/dec/30/home-office-nuclear-winter-threat-scaremongering-war", "type": "article", "sectionId": "world", "sectionName": "World news", "webPublicationDate": "2014-12-30T00:01:07Z", "webTitle": "Home Office dismissed nuclear winter threat as scaremongering, files show", "webUrl": "https://www.theguardian.com/world/2014/dec/30/home-office-nuclear-winter-threat-scaremongering-war", "apiUrl": "https://content.guardianapis.com/world/2014/dec/30/home-office-nuclear-winter-threat-scaremongering-war", "isHosted": false, "pillarId": "pillar/news", "pillarName": "News"}, {"id": "politics/2014/dec/30/downing-street-files-oliver-letwin-poll-tax", "type": "article", "sectionId": "politics", "sectionName": "Politics", "webPublicationDate": "2014-12-30T00:01:07Z", "webTitle": "Downing Street files reveal how Oliver Letwin kept poll tax plans alive", "webUrl": "https://www.theguardian.com/politics/2014/dec/30/downing-street-files-oliver-letwin-poll-tax", "apiUrl": "https://content.guardianapis.com/politics/2014/dec/30/downing-street-files-oliver-letwin-poll-tax", "isHosted": false, "pillarId": "pillar/news", "pillarName": "News"}, {"id": "uk-news/2014/dec/30/cabinet-papers-national-archives-thatcher-heseltine-westland", "type": "article", "sectionId": "uk-news", "sectionName": "UK news", "webPublicationDate": "2014-12-30T00:00:07Z", "webTitle": "Cabinet papers show Thatcher advisers\u2019 \u2018struggle\u2019 with Heseltine over Westland", "webUrl": "https://www.theguardian.com/uk-news/2014/dec/30/cabinet-papers-national-archives-thatcher-heseltine-westland", "apiUrl": "https://content.guardianapis.com/uk-news/2014/dec/30/cabinet-papers-national-archives-thatcher-heseltine-westland", "isHosted": false, "pillarId": "pillar/news", "pillarName": "News"}, {"id": "education/2014/dec/29/more-than-400000-schoolchildren-taught-unqualified-teachers-tristram-hunt-gove", "type": "article", "sectionId": "education", "sectionName": "Education", "webPublicationDate": "2014-12-29T20:30:03Z", "webTitle": "More than 400,000 schoolchildren being taught by unqualified teachers", "webUrl": "https://www.theguardian.com/education/2014/dec/29/more-than-400000-schoolchildren-taught-unqualified-teachers-tristram-hunt-gove", "apiUrl": "https://content.guardianapis.com/education/2014/dec/29/more-than-400000-schoolchildren-taught-unqualified-teachers-tristram-hunt-gove", "isHosted": false, "pillarId": "pillar/news", "pillarName": "News"}, {"id": "politics/2014/dec/29/uk-david-cameron-european-union-barroso", "type": "article", "sectionId": "politics", "sectionName": "Politics", "webPublicationDate": "2014-12-29T18:56:21Z", "webTitle": "UK under David Cameron no longer at heart of EU, says Jos\u00e9 Manuel Barroso", "webUrl": "https://www.theguardian.com/politics/2014/dec/29/uk-david-cameron-european-union-barroso", "apiUrl": "https://content.guardianapis.com/politics/2014/dec/29/uk-david-cameron-european-union-barroso", "isHosted": false, "pillarId": "pillar/news", "pillarName": "News"}, {"id": "politics/2014/dec/29/david-cameron-great-brook-run", "type": "article", "sectionId": "politics", "sectionName": "Politics", "webPublicationDate": "2014-12-29T17:11:41Z", "webTitle": "David Cameron runs, gets wet and has a pint at Great Brook Run", "webUrl": "https://www.theguardian.com/politics/2014/dec/29/david-cameron-great-brook-run", "apiUrl": "https://content.guardianapis.com/politics/2014/dec/29/david-cameron-great-brook-run", "isHosted": false, "pillarId": "pillar/news", "pillarName": "News"}, {"id": "uk-news/2014/dec/29/city-link-private-equity-firm-hopes-recover-20m-despite-job-losses", "type": "article", "sectionId": "uk-news", "sectionName": "UK news", "webPublicationDate": "2014-12-29T16:50:41Z", "webTitle": "City Link private equity firm hopes to recover \u00a320m despite job losses", "webUrl": "https://www.theguardian.com/uk-news/2014/dec/29/city-link-private-equity-firm-hopes-recover-20m-despite-job-losses", "apiUrl": "https://content.guardianapis.com/uk-news/2014/dec/29/city-link-private-equity-firm-hopes-recover-20m-despite-job-losses", "isHosted": false, "pillarId": "pillar/news", "pillarName": "News"}, {"id": "business/2014/dec/29/labour-government-not-responsible-crash-bank-england-governor-mervyn-king", "type": "article", "sectionId": "business", "sectionName": "Business", "webPublicationDate": "2014-12-29T12:36:41Z", "webTitle": "Labour not responsible for crash, says former Bank of England governor", "webUrl": "https://www.theguardian.com/business/2014/dec/29/labour-government-not-responsible-crash-bank-england-governor-mervyn-king", "apiUrl": "https://content.guardianapis.com/business/2014/dec/29/labour-government-not-responsible-crash-bank-england-governor-mervyn-king", "isHosted": false, "pillarId": "pillar/news", "pillarName": "News"}, {"id": "cities/2014/dec/29/what-i-want-cities-2015-severe-tax-on-empty-homes", "type": "article", "sectionId": "cities", "sectionName": "Cities", "webPublicationDate": "2014-12-29T12:11:55Z", "webTitle": "What I want from our cities in 2015: a severe tax on empty homes", "webUrl": "https://www.theguardian.com/cities/2014/dec/29/what-i-want-cities-2015-severe-tax-on-empty-homes", "apiUrl": "https://content.guardianapis.com/cities/2014/dec/29/what-i-want-cities-2015-severe-tax-on-empty-homes", "isHosted": false, "pillarId": "pillar/news", "pillarName": "News"}, {"id": "commentisfree/2014/dec/29/russell-brand-comedian-turned-activist", "type": "article", "sectionId": "commentisfree", "sectionName": "Opinion", "webPublicationDate": "2014-12-29T11:29:04Z", "webTitle": "Heroes of 2014: Russell Brand | George Monbiot", "webUrl": "https://www.theguardian.com/commentisfree/2014/dec/29/russell-brand-comedian-turned-activist", "apiUrl": "https://content.guardianapis.com/commentisfree/2014/dec/29/russell-brand-comedian-turned-activist", "isHosted": false, "pillarId": "pillar/opinion", "pillarName": "Opinion"}, {"id": "politics/blog/live/2014/dec/29/politics-live-blog-readers-edition-monday-29-december", "type": "liveblog", "sectionId": "politics", "sectionName": "Politics", "webPublicationDate": "2014-12-29T09:02:49Z", "webTitle": "Politics Live blog - readers' edition: Monday 29 December", "webUrl": "https://www.theguardian.com/politics/blog/live/2014/dec/29/politics-live-blog-readers-edition-monday-29-december", "apiUrl": "https://content.guardianapis.com/politics/blog/live/2014/dec/29/politics-live-blog-readers-edition-monday-29-december", "isHosted": false, "pillarId": "pillar/news", "pillarName": "News"}, {"id": "commentisfree/2014/dec/29/love-paying-taxes-tax-policy", "type": "article", "sectionId": "commentisfree", "sectionName": "Opinion", "webPublicationDate": "2014-12-29T07:00:09Z", "webTitle": "Why we should all\u00a0learn to love paying our taxes | Zoe Williams", "webUrl": "https://www.theguardian.com/commentisfree/2014/dec/29/love-paying-taxes-tax-policy", "apiUrl": "https://content.guardianapis.com/commentisfree/2014/dec/29/love-paying-taxes-tax-policy", "isHosted": false, "pillarId": "pillar/opinion", "pillarName": "Opinion"}, {"id": "politics/2014/dec/29/young-voters-undecided-poll", "type": "article", "sectionId": "politics", "sectionName": "Politics", "webPublicationDate": "2014-12-29T06:00:08Z", "webTitle": "Poll suggests 3m young voters undecided", "webUrl": "https://www.theguardian.com/politics/2014/dec/29/young-voters-undecided-poll", "apiUrl": "https://content.guardianapis.com/politics/2014/dec/29/young-voters-undecided-poll", "isHosted": false, "pillarId": "pillar/news", "pillarName": "News"}, {"id": "politics/2014/dec/29/whitehall-women-representation-fail-employment-targets-data", "type": "article", "sectionId": "politics", "sectionName": "Politics", "webPublicationDate": "2014-12-29T00:26:58Z", "webTitle": "Whitehall failing to meet targets for women\u2019s employment at the top", "webUrl": "https://www.theguardian.com/politics/2014/dec/29/whitehall-women-representation-fail-employment-targets-data", "apiUrl": "https://content.guardianapis.com/politics/2014/dec/29/whitehall-women-representation-fail-employment-targets-data", "isHosted": false, "pillarId": "pillar/news", "pillarName": "News"}, {"id": "society/2014/dec/28/nhs-management-system-complex-rose-report", "type": "article", "sectionId": "society", "sectionName": "Society", "webPublicationDate": "2014-12-28T20:27:49Z", "webTitle": "NHS hampered by poor management structure, Rose report claims", "webUrl": "https://www.theguardian.com/society/2014/dec/28/nhs-management-system-complex-rose-report", "apiUrl": "https://content.guardianapis.com/society/2014/dec/28/nhs-management-system-complex-rose-report", "isHosted": false, "pillarId": "pillar/news", "pillarName": "News"}, {"id": "uk-news/2014/dec/28/city-link-underlines-agency-work-problem", "type": "article", "sectionId": "uk-news", "sectionName": "UK news", "webPublicationDate": "2014-12-28T18:37:04Z", "webTitle": "City Link underlines agency work problem | Letters", "webUrl": "https://www.theguardian.com/uk-news/2014/dec/28/city-link-underlines-agency-work-problem", "apiUrl": "https://content.guardianapis.com/uk-news/2014/dec/28/city-link-underlines-agency-work-problem", "isHosted": false, "pillarId": "pillar/news", "pillarName": "News"}, {"id": "law/2014/dec/28/local-courts-run-by-local-people", "type": "article", "sectionId": "law", "sectionName": "Law", "webPublicationDate": "2014-12-28T18:33:06Z", "webTitle": "Local courts pop up for local people | Letters", "webUrl": "https://www.theguardian.com/law/2014/dec/28/local-courts-run-by-local-people", "apiUrl": "https://content.guardianapis.com/law/2014/dec/28/local-courts-run-by-local-people", "isHosted": false, "pillarId": "pillar/news", "pillarName": "News"}, {"id": "world/2014/dec/28/greek-presidential-election-exposes-threat-to-democracy", "type": "article", "sectionId": "world", "sectionName": "World news", "webPublicationDate": "2014-12-28T18:28:54Z", "webTitle": "Greek presidential election exposes real threat to democracy | Letters", "webUrl": "https://www.theguardian.com/world/2014/dec/28/greek-presidential-election-exposes-threat-to-democracy", "apiUrl": "https://content.guardianapis.com/world/2014/dec/28/greek-presidential-election-exposes-threat-to-democracy", "isHosted": false, "pillarId": "pillar/news", "pillarName": "News"}, {"id": "commentisfree/2014/dec/28/year-grassroots-powerful-elites-democracy", "type": "article", "sectionId": "commentisfree", "sectionName": "Opinion", "webPublicationDate": "2014-12-28T16:26:35Z", "webTitle": "The year the grassroots took on the powerful \u2013 and won | Owen Jones", "webUrl": "https://www.theguardian.com/commentisfree/2014/dec/28/year-grassroots-powerful-elites-democracy", "apiUrl": "https://content.guardianapis.com/commentisfree/2014/dec/28/year-grassroots-powerful-elites-democracy", "isHosted": false, "pillarId": "pillar/opinion", "pillarName": "Opinion"}, {"id": "uk-news/2014/dec/28/network-rail-must-sack-management-christmas-disruptions-says-nicholas-soames-tory", "type": "article", "sectionId": "uk-news", "sectionName": "UK news", "webPublicationDate": "2014-12-28T12:08:15Z", "webTitle": "Network Rail must sack management over Christmas disruptions \u2013 Tory MP", "webUrl": "https://www.theguardian.com/uk-news/2014/dec/28/network-rail-must-sack-management-christmas-disruptions-says-nicholas-soames-tory", "apiUrl": "https://content.guardianapis.com/uk-news/2014/dec/28/network-rail-must-sack-management-christmas-disruptions-says-nicholas-soames-tory", "isHosted": false, "pillarId": "pillar/news", "pillarName": "News"}, {"id": "politics/2014/dec/28/george-osborne-public-spending-plans-political-suicide-note-says-david-laws", "type": "article", "sectionId": "politics", "sectionName": "Politics", "webPublicationDate": "2014-12-28T11:34:03Z", "webTitle": "George Osborne public spending plan \u2018a political suicide note\u2019, says David Laws", "webUrl": "https://www.theguardian.com/politics/2014/dec/28/george-osborne-public-spending-plans-political-suicide-note-says-david-laws", "apiUrl": "https://content.guardianapis.com/politics/2014/dec/28/george-osborne-public-spending-plans-political-suicide-note-says-david-laws", "isHosted": false, "pillarId": "pillar/news", "pillarName": "News"}, {"id": "books/2014/dec/28/nye-political-life-of-aneurin-bevan-review-nicklaus-thomas-symonds-chris-mullin", "type": "article", "sectionId": "books", "sectionName": "Books", "webPublicationDate": "2014-12-28T10:00:11Z", "webTitle": "Nye: The Political Life of Aneurin Bevan review \u2013 lucid account of a flawed hero", "webUrl": "https://www.theguardian.com/books/2014/dec/28/nye-political-life-of-aneurin-bevan-review-nicklaus-thomas-symonds-chris-mullin", "apiUrl": "https://content.guardianapis.com/books/2014/dec/28/nye-political-life-of-aneurin-bevan-review-nicklaus-thomas-symonds-chris-mullin", "isHosted": false, "pillarId": "pillar/arts", "pillarName": "Arts"}, {"id": "business/2014/dec/28/challenging-party-games-greece-debt-crisis", "type": "article", "sectionId": "business", "sectionName": "Business", "webPublicationDate": "2014-12-28T09:05:10Z", "webTitle": "Challenging party games ahead as Greece threatens second debt crisis", "webUrl": "https://www.theguardian.com/business/2014/dec/28/challenging-party-games-greece-debt-crisis", "apiUrl": "https://content.guardianapis.com/business/2014/dec/28/challenging-party-games-greece-debt-crisis", "isHosted": false, "pillarId": "pillar/news", "pillarName": "News"}]}}