{"response": {"status": "ok", "userTier": "developer", "total": 94265, "startIndex": 1, "pageSize": 50, "currentPage": 1, "pages": 1886, "orderBy": "newest", "results": [{"id": "football/2016/dec/30/pep-guardiola-learned-from-jurgen-klopp-praise-attacking", "type": "article", "sectionId": "football", "sectionName": "Football", "webPublicationDate": "2016-12-30T22:30:11Z", "webTitle": "Pep Guardiola says he learned from J\u00fcrgen Klopp and praises attacking style", "webUrl": "https://www.theguardian.com/football/2016/dec/30/pep-guardiola-learned-from-jurgen-klopp-praise-attacking", "apiUrl": "https://content.guardianapis.com/football/2016/dec/30/pep-guardiola-learned-from-jurgen-klopp-praise-attacking", "isHosted": false, "pillarId": "pillar/sport", "pillarName": "Sport"}, {"id": "football/2016/dec/30/chelsea-thibaut-courtois-batshuayi-stoke-city", "type": "article", "sectionId": "football", "sectionName": "Football", "webPublicationDate": "2016-12-30T22:30:11Z", "webTitle": "Chelsea ready to reward Thibaut Courtois and retain Michy Batshuayi", "webUrl": "https://www.theguardian.com/football/2016/dec/30/chelsea-thibaut-courtois-batshuayi-stoke-city", "apiUrl": "https://content.guardianapis.com/football/2016/dec/30/chelsea-thibaut-courtois-batshuayi-stoke-city", "isHosted": false, "pillarId": "pillar/sport", "pillarName": "Sport"}, {"id": "football/2016/dec/30/manchester-city-sergio-aguero-jink-liverpool-anfield-pep-guardiola", "type": "article", "sectionId": "football", "sectionName": "Football", "webPublicationDate": "2016-12-30T22:30:11Z", "webTitle": "Manchester City rely on Sergio Ag\u00fcero to end his jinx at Liverpool", "webUrl": "https://www.theguardian.com/football/2016/dec/30/manchester-city-sergio-aguero-jink-liverpool-anfield-pep-guardiola", "apiUrl": "https://content.guardianapis.com/football/2016/dec/30/manchester-city-sergio-aguero-jink-liverpool-anfield-pep-guardiola", "isHosted": false, "pillarId": "pillar/sport", "pillarName": "Sport"}, {"id": "football/2016/dec/30/jose-mourinho-zlatan-ibrahimovic-injury-disaster-manchester-united", "type": "article", "sectionId": "football", "sectionName": "Football", "webPublicationDate": "2016-12-30T22:30:11Z", "webTitle": "Jos\u00e9 Mourinho: Zlatan Ibrahimovic injury would be a disaster for United\r\n", "webUrl": "https://www.theguardian.com/football/2016/dec/30/jose-mourinho-zlatan-ibrahimovic-injury-disaster-manchester-united", "apiUrl": "https://content.guardianapis.com/football/2016/dec/30/jose-mourinho-zlatan-ibrahimovic-injury-disaster-manchester-united", "isHosted": false, "pillarId": "pillar/sport", "pillarName": "Sport"}, {"id": "football/2016/dec/30/jurgen-klopp-liverpool-pep-guardiola-manchester-city", "type": "article", "sectionId": "football", "sectionName": "Football", "webPublicationDate": "2016-12-30T22:30:11Z", "webTitle": "J\u00fcrgen Klopp finally gets a chance to face Pep Guardiola on level playing field | Andy Hunter", "webUrl": "https://www.theguardian.com/football/2016/dec/30/jurgen-klopp-liverpool-pep-guardiola-manchester-city", "apiUrl": "https://content.guardianapis.com/football/2016/dec/30/jurgen-klopp-liverpool-pep-guardiola-manchester-city", "isHosted": false, "pillarId": "pillar/sport", "pillarName": "Sport"}, {"id": "football/2016/dec/30/swansea-stay-up-or-struggle-warning-alan-curtis-caretaker-football", "type": "article", "sectionId": "football", "sectionName": "Football", "webPublicationDate": "2016-12-30T22:29:10Z", "webTitle": "Swansea must stay up or face struggle to get back, says Alan Curtis", "webUrl": "https://www.theguardian.com/football/2016/dec/30/swansea-stay-up-or-struggle-warning-alan-curtis-caretaker-football", "apiUrl": "https://content.guardianapis.com/football/2016/dec/30/swansea-stay-up-or-struggle-warning-alan-curtis-caretaker-football", "isHosted": false, "pillarId": "pillar/sport", "pillarName": "Sport"}, {"id": "football/2016/dec/30/newcastle-united-nottingham-forest-championship-match-report", "type": "article", "sectionId": "football", "sectionName": "Football", "webPublicationDate": "2016-12-30T22:02:33Z", "webTitle": "Newcastle back at top as Dwight Gayle brace sees off Nottingham Forest", "webUrl": "https://www.theguardian.com/football/2016/dec/30/newcastle-united-nottingham-forest-championship-match-report", "apiUrl": "https://content.guardianapis.com/football/2016/dec/30/newcastle-united-nottingham-forest-championship-match-report", "isHosted": false, "pillarId": "pillar/sport", "pillarName": "Sport"}, {"id": "football/2016/dec/30/hull-city-everton-premier-league-match-report", "type": "article", "sectionId": "football", "sectionName": "Football", "webPublicationDate": "2016-12-30T22:01:54Z", "webTitle": "Everton\u2019s Ross Barkley denies Hull rare win after Robert Snodgrass magic", "webUrl": "https://www.theguardian.com/football/2016/dec/30/hull-city-everton-premier-league-match-report", "apiUrl": "https://content.guardianapis.com/football/2016/dec/30/hull-city-everton-premier-league-match-report", "isHosted": false, "pillarId": "pillar/sport", "pillarName": "Sport"}, {"id": "sport/2016/dec/31/australias-sporting-year-in-review-fairytales-flops-and-fiascos-of-2016", "type": "article", "sectionId": "sport", "sectionName": "Sport", "webPublicationDate": "2016-12-30T21:59:45Z", "webTitle": "Australia's sporting year in review\u00a0\u2013 fairytales, flops and fiascos of 2016", "webUrl": "https://www.theguardian.com/sport/2016/dec/31/australias-sporting-year-in-review-fairytales-flops-and-fiascos-of-2016", "apiUrl": "https://content.guardianapis.com/sport/2016/dec/31/australias-sporting-year-in-review-fairytales-flops-and-fiascos-of-2016", "isHosted": false, "pillarId": "pillar/sport", "pillarName": "Sport"}, {"id": "football/live/2016/dec/30/hull-city-v-everton-premier-league-live", "type": "liveblog", "sectionId": "football", "sectionName": "Football", "webPublicationDate": "2016-12-30T21:51:06Z", "webTitle": "Hull City 2-2 Everton: Premier League \u2013as it happened", "webUrl": "https://www.theguardian.com/football/live/2016/dec/30/hull-city-v-everton-premier-league-live", "apiUrl": "https://content.guardianapis.com/football/live/2016/dec/30/hull-city-v-everton-premier-league-live", "isHosted": false, "pillarId": "pillar/sport", "pillarName": "Sport"}, {"id": "football/2016/dec/30/watford-tottenham-hotspur-match-preview", "type": "article", "sectionId": "football", "sectionName": "Football", "webPublicationDate": "2016-12-30T18:34:25Z", "webTitle": "Watford v Tottenham Hotspur: match preview", "webUrl": "https://www.theguardian.com/football/2016/dec/30/watford-tottenham-hotspur-match-preview", "apiUrl": "https://content.guardianapis.com/football/2016/dec/30/watford-tottenham-hotspur-match-preview", "isHosted": false, "pillarId": "pillar/sport", "pillarName": "Sport"}, {"id": "football/2016/dec/30/arsenal-crystal-palace-match-preview", "type": "article", "sectionId": "football", "sectionName": "Football", "webPublicationDate": "2016-12-30T18:08:33Z", "webTitle": "Arsenal v Crystal Palace: match preview", "webUrl": "https://www.theguardian.com/football/2016/dec/30/arsenal-crystal-palace-match-preview", "apiUrl": "https://content.guardianapis.com/football/2016/dec/30/arsenal-crystal-palace-match-preview", "isHosted": false, "pillarId": "pillar/sport", "pillarName": "Sport"}, {"id": "football/2016/dec/30/manchester-united-middlesbrough-match-preview", "type": "article", "sectionId": "football", "sectionName": "Football", "webPublicationDate": "2016-12-30T17:17:47Z", "webTitle": "Manchester United v Middlesbrough: match preview", "webUrl": "https://www.theguardian.com/football/2016/dec/30/manchester-united-middlesbrough-match-preview", "apiUrl": "https://content.guardianapis.com/football/2016/dec/30/manchester-united-middlesbrough-match-preview", "isHosted": false, "pillarId": "pillar/sport", "pillarName": "Sport"}, {"id": "politics/2016/dec/30/family-chords-and-discord", "type": "article", "sectionId": "politics", "sectionName": "Politics", "webPublicationDate": "2016-12-30T17:12:20Z", "webTitle": "Family chords and discord | Brief letters", "webUrl": "https://www.theguardian.com/politics/2016/dec/30/family-chords-and-discord", "apiUrl": "https://content.guardianapis.com/politics/2016/dec/30/family-chords-and-discord", "isHosted": false, "pillarId": "pillar/news", "pillarName": "News"}, {"id": "football/2016/dec/30/liverpool-manchester-city-match-preview", "type": "article", "sectionId": "football", "sectionName": "Football", "webPublicationDate": "2016-12-30T16:57:57Z", "webTitle": "Liverpool v Manchester City: match preview", "webUrl": "https://www.theguardian.com/football/2016/dec/30/liverpool-manchester-city-match-preview", "apiUrl": "https://content.guardianapis.com/football/2016/dec/30/liverpool-manchester-city-match-preview", "isHosted": false, "pillarId": "pillar/sport", "pillarName": "Sport"}, {"id": "football/2016/dec/30/burnley-sunderland-match-preview", "type": "article", "sectionId": "football", "sectionName": "Football", "webPublicationDate": "2016-12-30T16:18:44Z", "webTitle": "Burnley v Sunderland: match preview", "webUrl": "https://www.theguardian.com/football/2016/dec/30/burnley-sunderland-match-preview", "apiUrl": "https://content.guardianapis.com/football/2016/dec/30/burnley-sunderland-match-preview", "isHosted": false, "pillarId": "pillar/sport", "pillarName": "Sport"}, {"id": "football/2016/dec/30/swansea-city-bournemouth-match-preview", "type": "article", "sectionId": "football", "sectionName": "Football", "webPublicationDate": "2016-12-30T15:42:35Z", "webTitle": "Swansea City v Bournemouth: match preview", "webUrl": "https://www.theguardian.com/football/2016/dec/30/swansea-city-bournemouth-match-preview", "apiUrl": "https://content.guardianapis.com/football/2016/dec/30/swansea-city-bournemouth-match-preview", "isHosted": false, "pillarId": "pillar/sport", "pillarName": "Sport"}, {"id": "football/2016/dec/30/southampton-west-bromwich-albion-match-preview", "type": "article", "sectionId": "football", "sectionName": "Football", "webPublicationDate": "2016-12-30T15:36:15Z", "webTitle": "Southampton v West Bromwich Albion: match preview", "webUrl": "https://www.theguardian.com/football/2016/dec/30/southampton-west-bromwich-albion-match-preview", "apiUrl": "https://content.guardianapis.com/football/2016/dec/30/southampton-west-bromwich-albion-match-preview", "isHosted": false, "pillarId": "pillar/sport", "pillarName": "Sport"}, {"id": "football/2016/dec/30/leicester-city-west-ham-united-match-preview", "type": "article", "sectionId": "football", "sectionName": "Football", "webPublicationDate": "2016-12-30T15:26:53Z", "webTitle": "Leicester City v West Ham United: match preview", "webUrl": "https://www.theguardian.com/football/2016/dec/30/leicester-city-west-ham-united-match-preview", "apiUrl": "https://content.guardianapis.com/football/2016/dec/30/leicester-city-west-ham-united-match-preview", "isHosted": false, "pillarId": "pillar/sport", "pillarName": "Sport"}, {"id": "football/2016/dec/30/chelsea-stoke-city-match-preview", "type": "article", "sectionId": "football", "sectionName": "Football", "webPublicationDate": "2016-12-30T15:10:38Z", "webTitle": "Chelsea v Stoke City: match preview", "webUrl": "https://www.theguardian.com/football/2016/dec/30/chelsea-stoke-city-match-preview", "apiUrl": "https://content.guardianapis.com/football/2016/dec/30/chelsea-stoke-city-match-preview", "isHosted": false, "pillarId": "pillar/sport", "pillarName": "Sport"}, {"id": "football/2016/dec/30/morgan-schneiderlin-manchester-united-west-brom-jose-mourinho-anthony-martial", "type": "article", "sectionId": "football", "sectionName": "Football", "webPublicationDate": "2016-12-30T14:46:59Z", "webTitle": "West Brom bid for Morgan Schneiderlin has been rejected, says Jos\u00e9 Mourinho", "webUrl": "https://www.theguardian.com/football/2016/dec/30/morgan-schneiderlin-manchester-united-west-brom-jose-mourinho-anthony-martial", "apiUrl": "https://content.guardianapis.com/football/2016/dec/30/morgan-schneiderlin-manchester-united-west-brom-jose-mourinho-anthony-martial", "isHosted": false, "pillarId": "pillar/sport", "pillarName": "Sport"}, {"id": "football/blog/2016/dec/30/yaya-toure-reborn-star-manchester-city-league-title", "type": "article", "sectionId": "football", "sectionName": "Football", "webPublicationDate": "2016-12-30T13:50:05Z", "webTitle": "Yaya Tour\u00e9 the reborn star in Manchester City\u2019s war to win league | Barney Ronay", "webUrl": "https://www.theguardian.com/football/blog/2016/dec/30/yaya-toure-reborn-star-manchester-city-league-title", "apiUrl": "https://content.guardianapis.com/football/blog/2016/dec/30/yaya-toure-reborn-star-manchester-city-league-title", "isHosted": false, "pillarId": "pillar/sport", "pillarName": "Sport"}, {"id": "football/2016/dec/30/old-firm-derby-sideshow-season-rangers-develop-talent-celtic", "type": "article", "sectionId": "football", "sectionName": "Football", "webPublicationDate": "2016-12-30T13:30:14Z", "webTitle": "Old Firm game a sideshow to season as Rangers need time to develop talent | Ewan Murray", "webUrl": "https://www.theguardian.com/football/2016/dec/30/old-firm-derby-sideshow-season-rangers-develop-talent-celtic", "apiUrl": "https://content.guardianapis.com/football/2016/dec/30/old-firm-derby-sideshow-season-rangers-develop-talent-celtic", "isHosted": false, "pillarId": "pillar/sport", "pillarName": "Sport"}, {"id": "football/2016/dec/30/premier-league-club-by-club-guide-to-transfer-window", "type": "article", "sectionId": "football", "sectionName": "Football", "webPublicationDate": "2016-12-30T12:15:45Z", "webTitle": "Premier League club-by-club guide to the January transfer window", "webUrl": "https://www.theguardian.com/football/2016/dec/30/premier-league-club-by-club-guide-to-transfer-window", "apiUrl": "https://content.guardianapis.com/football/2016/dec/30/premier-league-club-by-club-guide-to-transfer-window", "isHosted": false, "pillarId": "pillar/sport", "pillarName": "Sport"}, {"id": "football/2016/dec/30/brazil-football-olympic-gold-rio-neymar-2016", "type": "article", "sectionId": "football", "sectionName": "Football", "webPublicationDate": "2016-12-30T11:59:40Z", "webTitle": "A 2016 football moment to remember: Brazil finally win Olympic gold | Barry Glendenning", "webUrl": "https://www.theguardian.com/football/2016/dec/30/brazil-football-olympic-gold-rio-neymar-2016", "apiUrl": "https://content.guardianapis.com/football/2016/dec/30/brazil-football-olympic-gold-rio-neymar-2016", "isHosted": false, "pillarId": "pillar/sport", "pillarName": "Sport"}, {"id": "football/2016/dec/30/wilfried-zaha-crystal-palace-tottenham-hotspur", "type": "article", "sectionId": "football", "sectionName": "Football", "webPublicationDate": "2016-12-30T10:31:34Z", "webTitle": "Crystal Palace to reject any offers from Tottenham for Wilfried Zaha", "webUrl": "https://www.theguardian.com/football/2016/dec/30/wilfried-zaha-crystal-palace-tottenham-hotspur", "apiUrl": "https://content.guardianapis.com/football/2016/dec/30/wilfried-zaha-crystal-palace-tottenham-hotspur", "isHosted": false, "pillarId": "pillar/sport", "pillarName": "Sport"}, {"id": "football/2016/dec/30/football-quiz-the-noughties", "type": "article", "sectionId": "football", "sectionName": "Football", "webPublicationDate": "2016-12-30T10:00:30Z", "webTitle": "Football quiz: the noughties", "webUrl": "https://www.theguardian.com/football/2016/dec/30/football-quiz-the-noughties", "apiUrl": "https://content.guardianapis.com/football/2016/dec/30/football-quiz-the-noughties", "isHosted": false, "pillarId": "pillar/sport", "pillarName": "Sport"}, {"id": "football/2016/dec/30/football-transfer-rumours-london-calling-for-ross-barkley", "type": "article", "sectionId": "football", "sectionName": "Football", "webPublicationDate": "2016-12-30T09:35:42Z", "webTitle": "Football transfer rumours: London calling for Ross Barkley?", "webUrl": "https://www.theguardian.com/football/2016/dec/30/football-transfer-rumours-london-calling-for-ross-barkley", "apiUrl": "https://content.guardianapis.com/football/2016/dec/30/football-transfer-rumours-london-calling-for-ross-barkley", "isHosted": false, "pillarId": "pillar/sport", "pillarName": "Sport"}, {"id": "football/2016/dec/30/premier-league-10-things-to-look-out-for-this-weekend", "type": "article", "sectionId": "football", "sectionName": "Football", "webPublicationDate": "2016-12-30T08:55:46Z", "webTitle": "Premier League: 10 things to look out for this weekend", "webUrl": "https://www.theguardian.com/football/2016/dec/30/premier-league-10-things-to-look-out-for-this-weekend", "apiUrl": "https://content.guardianapis.com/football/2016/dec/30/premier-league-10-things-to-look-out-for-this-weekend", "isHosted": false, "pillarId": "pillar/sport", "pillarName": "Sport"}, {"id": "football/2016/dec/29/real-madrid-cristiano-ronaldo-transfer-china", "type": "article", "sectionId": "football", "sectionName": "Football", "webPublicationDate": "2016-12-29T23:40:06Z", "webTitle": "Chinese club offered Real Madrid \u20ac300m for Cristiano Ronaldo, says agent", "webUrl": "https://www.theguardian.com/football/2016/dec/29/real-madrid-cristiano-ronaldo-transfer-china", "apiUrl": "https://content.guardianapis.com/football/2016/dec/29/real-madrid-cristiano-ronaldo-transfer-china", "isHosted": false, "pillarId": "pillar/sport", "pillarName": "Sport"}, {"id": "football/2016/dec/29/harry-kane-tottenham-title-hopes-watford-chelsea", "type": "article", "sectionId": "football", "sectionName": "Football", "webPublicationDate": "2016-12-29T22:30:16Z", "webTitle": "Harry Kane says midfield goals have boosted Tottenham\u2019s title hopes", "webUrl": "https://www.theguardian.com/football/2016/dec/29/harry-kane-tottenham-title-hopes-watford-chelsea", "apiUrl": "https://content.guardianapis.com/football/2016/dec/29/harry-kane-tottenham-title-hopes-watford-chelsea", "isHosted": false, "pillarId": "pillar/sport", "pillarName": "Sport"}, {"id": "football/2016/dec/29/jurgen-klopp-hails-pep-guardiola-liverpool-manchester-city", "type": "article", "sectionId": "football", "sectionName": "Football", "webPublicationDate": "2016-12-29T22:30:16Z", "webTitle": "J\u00fcrgen Klopp hails Pep Guardiola for choosing \u2018difficult\u2019 Premier League", "webUrl": "https://www.theguardian.com/football/2016/dec/29/jurgen-klopp-hails-pep-guardiola-liverpool-manchester-city", "apiUrl": "https://content.guardianapis.com/football/2016/dec/29/jurgen-klopp-hails-pep-guardiola-liverpool-manchester-city", "isHosted": false, "pillarId": "pillar/sport", "pillarName": "Sport"}, {"id": "football/2016/dec/29/aitor-karanka-good-friends-jose-mourinho-middlesbrough-manchester-united", "type": "article", "sectionId": "football", "sectionName": "Football", "webPublicationDate": "2016-12-29T22:29:16Z", "webTitle": "Boro\u2019s Karanka: I\u2019m good friends with Mourinho but for 90 minutes cannot be | Louise Taylor", "webUrl": "https://www.theguardian.com/football/2016/dec/29/aitor-karanka-good-friends-jose-mourinho-middlesbrough-manchester-united", "apiUrl": "https://content.guardianapis.com/football/2016/dec/29/aitor-karanka-good-friends-jose-mourinho-middlesbrough-manchester-united", "isHosted": false, "pillarId": "pillar/sport", "pillarName": "Sport"}, {"id": "football/2016/dec/29/aston-villa-leeds-united-championship-match-report", "type": "article", "sectionId": "football", "sectionName": "Football", "webPublicationDate": "2016-12-29T21:52:16Z", "webTitle": "Jonathan Kodjia spot-kick helps Aston Villa save point against Leeds", "webUrl": "https://www.theguardian.com/football/2016/dec/29/aston-villa-leeds-united-championship-match-report", "apiUrl": "https://content.guardianapis.com/football/2016/dec/29/aston-villa-leeds-united-championship-match-report", "isHosted": false, "pillarId": "pillar/sport", "pillarName": "Sport"}, {"id": "football/live/2016/dec/29/aston-villa-v-leeds-united-championship-live", "type": "liveblog", "sectionId": "football", "sectionName": "Football", "webPublicationDate": "2016-12-29T21:46:35Z", "webTitle": "Aston Villa v Leeds United: Championship \u2013 as it happened", "webUrl": "https://www.theguardian.com/football/live/2016/dec/29/aston-villa-v-leeds-united-championship-live", "apiUrl": "https://content.guardianapis.com/football/live/2016/dec/29/aston-villa-v-leeds-united-championship-live", "isHosted": false, "pillarId": "pillar/sport", "pillarName": "Sport"}, {"id": "football/2016/dec/29/chris-coleman-wife-rules-him-out-swansea-city-managerial-job", "type": "article", "sectionId": "football", "sectionName": "Football", "webPublicationDate": "2016-12-29T20:28:40Z", "webTitle": "Paul Clement and Gary Rowett left as Swansea City frontrunners", "webUrl": "https://www.theguardian.com/football/2016/dec/29/chris-coleman-wife-rules-him-out-swansea-city-managerial-job", "apiUrl": "https://content.guardianapis.com/football/2016/dec/29/chris-coleman-wife-rules-him-out-swansea-city-managerial-job", "isHosted": false, "pillarId": "pillar/sport", "pillarName": "Sport"}, {"id": "society/2016/dec/29/therapy-of-the-terraces", "type": "article", "sectionId": "society", "sectionName": "Society", "webPublicationDate": "2016-12-29T18:13:15Z", "webTitle": "Therapy of the terraces | Letters", "webUrl": "https://www.theguardian.com/society/2016/dec/29/therapy-of-the-terraces", "apiUrl": "https://content.guardianapis.com/society/2016/dec/29/therapy-of-the-terraces", "isHosted": false, "pillarId": "pillar/news", "pillarName": "News"}, {"id": "football/2016/dec/29/fa-child-protection-work-celia-brackenridge", "type": "article", "sectionId": "football", "sectionName": "Football", "webPublicationDate": "2016-12-29T17:00:09Z", "webTitle": "Child abuse in sport and the progress made towards eradicating it", "webUrl": "https://www.theguardian.com/football/2016/dec/29/fa-child-protection-work-celia-brackenridge", "apiUrl": "https://content.guardianapis.com/football/2016/dec/29/fa-child-protection-work-celia-brackenridge", "isHosted": false, "pillarId": "pillar/sport", "pillarName": "Sport"}, {"id": "football/2016/dec/29/2016-football-moment-to-remember-iceland-euro-2016", "type": "article", "sectionId": "football", "sectionName": "Football", "webPublicationDate": "2016-12-29T16:23:00Z", "webTitle": "A 2016 football moment to remember: Iceland light up Euro 2016", "webUrl": "https://www.theguardian.com/football/2016/dec/29/2016-football-moment-to-remember-iceland-euro-2016", "apiUrl": "https://content.guardianapis.com/football/2016/dec/29/2016-football-moment-to-remember-iceland-euro-2016", "isHosted": false, "pillarId": "pillar/sport", "pillarName": "Sport"}, {"id": "football/2016/dec/29/liverpool-jurgen-klopp-philippe-coutinho", "type": "article", "sectionId": "football", "sectionName": "Football", "webPublicationDate": "2016-12-29T15:14:22Z", "webTitle": "Liverpool\u2019s J\u00fcrgen Klopp confirms Coutinho will miss Manchester City game", "webUrl": "https://www.theguardian.com/football/2016/dec/29/liverpool-jurgen-klopp-philippe-coutinho", "apiUrl": "https://content.guardianapis.com/football/2016/dec/29/liverpool-jurgen-klopp-philippe-coutinho", "isHosted": false, "pillarId": "pillar/sport", "pillarName": "Sport"}, {"id": "football/2016/dec/29/cazorla-terry-toure-expiring-contracts-premier-league", "type": "article", "sectionId": "football", "sectionName": "Football", "webPublicationDate": "2016-12-29T14:54:35Z", "webTitle": "Cazorla, Terry, Tour\u00e9: the Premier League players with expiring contracts", "webUrl": "https://www.theguardian.com/football/2016/dec/29/cazorla-terry-toure-expiring-contracts-premier-league", "apiUrl": "https://content.guardianapis.com/football/2016/dec/29/cazorla-terry-toure-expiring-contracts-premier-league", "isHosted": false, "pillarId": "pillar/sport", "pillarName": "Sport"}, {"id": "football/2016/dec/29/vibrac-jg-funding-riverdance-everton-shadow-investor-mystery", "type": "article", "sectionId": "football", "sectionName": "Football", "webPublicationDate": "2016-12-29T14:28:00Z", "webTitle": "Philip Green, Vibrac and Riverdance: the mystery of Everton\u2019s \u2018shadow investor\u2019", "webUrl": "https://www.theguardian.com/football/2016/dec/29/vibrac-jg-funding-riverdance-everton-shadow-investor-mystery", "apiUrl": "https://content.guardianapis.com/football/2016/dec/29/vibrac-jg-funding-riverdance-everton-shadow-investor-mystery", "isHosted": false, "pillarId": "pillar/sport", "pillarName": "Sport"}, {"id": "football/blog/2016/dec/29/2016-year-football-sam-allardyce-zlatan-ibrahimovic", "type": "article", "sectionId": "football", "sectionName": "Football", "webPublicationDate": "2016-12-29T12:06:00Z", "webTitle": "The year in football: highs and lows of 2016 \u2013 from Allardyce to Zlatan", "webUrl": "https://www.theguardian.com/football/blog/2016/dec/29/2016-year-football-sam-allardyce-zlatan-ibrahimovic", "apiUrl": "https://content.guardianapis.com/football/blog/2016/dec/29/2016-year-football-sam-allardyce-zlatan-ibrahimovic", "isHosted": false, "pillarId": "pillar/sport", "pillarName": "Sport"}, {"id": "football/blog/2016/dec/29/fabio-pisacane-guardian-footballer-of-year-award", "type": "article", "sectionId": "sport", "sectionName": "Sport", "webPublicationDate": "2016-12-29T11:28:00Z", "webTitle": "The Guardian\u2019s inaugural Footballer of the Year: Cagliari\u2019s Fabio Pisacane", "webUrl": "https://www.theguardian.com/football/blog/2016/dec/29/fabio-pisacane-guardian-footballer-of-year-award", "apiUrl": "https://content.guardianapis.com/football/blog/2016/dec/29/fabio-pisacane-guardian-footballer-of-year-award", "isHosted": false, "pillarId": "pillar/sport", "pillarName": "Sport"}, {"id": "football/blog/2016/dec/29/us-soccer-year-in-review-2016-jurgen-klinsmann-hope-solo", "type": "article", "sectionId": "football", "sectionName": "Football", "webPublicationDate": "2016-12-29T11:00:02Z", "webTitle": "Solo's cowards to Klinsmann's exit: a review of 2016 in US soccer", "webUrl": "https://www.theguardian.com/football/blog/2016/dec/29/us-soccer-year-in-review-2016-jurgen-klinsmann-hope-solo", "apiUrl": "https://content.guardianapis.com/football/blog/2016/dec/29/us-soccer-year-in-review-2016-jurgen-klinsmann-hope-solo", "isHosted": false, "pillarId": "pillar/sport", "pillarName": "Sport"}, {"id": "football/2016/dec/29/football-transfer-rumours-harry-redknapp-and-john-terry-at-swansea", "type": "article", "sectionId": "football", "sectionName": "Football", "webPublicationDate": "2016-12-29T09:32:57Z", "webTitle": "Football transfer rumours: Harry Redknapp and John Terry at Swansea?", "webUrl": "https://www.theguardian.com/football/2016/dec/29/football-transfer-rumours-harry-redknapp-and-john-terry-at-swansea", "apiUrl": "https://content.guardianapis.com/football/2016/dec/29/football-transfer-rumours-harry-redknapp-and-john-terry-at-swansea", "isHosted": false, "pillarId": "pillar/sport", "pillarName": "Sport"}, {"id": "football/2016/dec/28/liverpool-consider-january-move-arsenal-alex-oxlade-chamberlain", "type": "article", "sectionId": "football", "sectionName": "Football", "webPublicationDate": "2016-12-28T22:30:47Z", "webTitle": "Liverpool consider January move for Arsenal\u2019s Alex Oxlade-Chamberlain", "webUrl": "https://www.theguardian.com/football/2016/dec/28/liverpool-consider-january-move-arsenal-alex-oxlade-chamberlain", "apiUrl": "https://content.guardianapis.com/football/2016/dec/28/liverpool-consider-january-move-arsenal-alex-oxlade-chamberlain", "isHosted": false, "pillarId": "pillar/sport", "pillarName": "Sport"}, {"id": "football/2016/dec/28/celtic-ross-county-rangers-st-johnstone-scottish-premiership", "type": "article", "sectionId": "football", "sectionName": "Football", "webPublicationDate": "2016-12-28T22:14:32Z", "webTitle": "Celtic ease past Ross County but Rangers draw before Old Firm meeting", "webUrl": "https://www.theguardian.com/football/2016/dec/28/celtic-ross-county-rangers-st-johnstone-scottish-premiership", "apiUrl": "https://content.guardianapis.com/football/2016/dec/28/celtic-ross-county-rangers-st-johnstone-scottish-premiership", "isHosted": false, "pillarId": "pillar/sport", "pillarName": "Sport"}, {"id": "football/2016/dec/28/southampton-tottenham-hotspur-premier-league-match-report", "type": "article", "sectionId": "football", "sectionName": "Football", "webPublicationDate": "2016-12-28T22:00:46Z", "webTitle": "Tottenham beat 10-man Southampton as Dele Alli hits double to lead fightback", "webUrl": "https://www.theguardian.com/football/2016/dec/28/southampton-tottenham-hotspur-premier-league-match-report", "apiUrl": "https://content.guardianapis.com/football/2016/dec/28/southampton-tottenham-hotspur-premier-league-match-report", "isHosted": false, "pillarId": "pillar/sport", "pillarName": "Sport"}, {"id": "football/live/2016/dec/28/southampton-tottenham-hotspur-premier-league-live", "type": "liveblog", "sectionId": "football", "sectionName": "Football", "webPublicationDate": "2016-12-28T21:40:01Z", "webTitle": "Southampton 1-4 Tottenham Hotspur: Premier League \u2013 as it happened!", "webUrl": "https://www.theguardian.com/football/live/2016/dec/28/southampton-tottenham-hotspur-premier-league-live", "apiUrl": "https://content.guardianapis.com/football/live/2016/dec/28/southampton-tottenham-hotspur-premier-league-live", "isHosted": false, "pillarId": "pillar/sport", "pillarName": "Sport"}]}}