{"response": {"status": "ok", "userTier": "developer", "total": 38527, "startIndex": 1, "pageSize": 50, "currentPage": 1, "pages": 771, "orderBy": "newest", "results": [{"id": "environment/2013/dec/30/conies-dale-derbyshire-courting-ravens", "type": "article", "sectionId": "environment", "sectionName": "Environment", "webPublicationDate": "2013-12-30T20:59:00Z", "webTitle": "Country diary: Conies Dale, Derbyshire: Courting ravens show their mastery of the skies", "webUrl": "https://www.theguardian.com/environment/2013/dec/30/conies-dale-derbyshire-courting-ravens", "apiUrl": "https://content.guardianapis.com/environment/2013/dec/30/conies-dale-derbyshire-courting-ravens", "isHosted": false, "pillarId": "pillar/news", "pillarName": "News"}, {"id": "environment/2013/dec/30/number-households-insulation-lofts-plummets-green-deal", "type": "article", "sectionId": "environment", "sectionName": "Environment", "webPublicationDate": "2013-12-30T20:01:30Z", "webTitle": "Number of households getting help with insulation plummets", "webUrl": "https://www.theguardian.com/environment/2013/dec/30/number-households-insulation-lofts-plummets-green-deal", "apiUrl": "https://content.guardianapis.com/environment/2013/dec/30/number-households-insulation-lofts-plummets-green-deal", "isHosted": false, "pillarId": "pillar/news", "pillarName": "News"}, {"id": "artanddesign/picture/2013/dec/30/shackleton-endurance-antarctica-pack-ice-photography", "type": "picture", "sectionId": "artanddesign", "sectionName": "Art and design", "webPublicationDate": "2013-12-30T12:44:00Z", "webTitle": "Shackleton's Endurance trapped in pack ice - a picture from the past", "webUrl": "https://www.theguardian.com/artanddesign/picture/2013/dec/30/shackleton-endurance-antarctica-pack-ice-photography", "apiUrl": "https://content.guardianapis.com/artanddesign/picture/2013/dec/30/shackleton-endurance-antarctica-pack-ice-photography", "isHosted": false, "pillarId": "pillar/arts", "pillarName": "Arts"}, {"id": "world/2013/dec/30/antarctic-rescue-mission-fails", "type": "article", "sectionId": "world", "sectionName": "World news", "webPublicationDate": "2013-12-30T11:37:00Z", "webTitle": "Antarctic rescue mission fails to reach trapped ship", "webUrl": "https://www.theguardian.com/world/2013/dec/30/antarctic-rescue-mission-fails", "apiUrl": "https://content.guardianapis.com/world/2013/dec/30/antarctic-rescue-mission-fails", "isHosted": false, "pillarId": "pillar/news", "pillarName": "News"}, {"id": "world/video/2013/dec/30/el-salvador-chaparrastique-volcano-erupts-evacuation-video", "type": "video", "sectionId": "world", "sectionName": "World news", "webPublicationDate": "2013-12-30T11:15:00Z", "webTitle": "El Salvador's Chaparrastique volcano erupts prompting evacuation - video", "webUrl": "https://www.theguardian.com/world/video/2013/dec/30/el-salvador-chaparrastique-volcano-erupts-evacuation-video", "apiUrl": "https://content.guardianapis.com/world/video/2013/dec/30/el-salvador-chaparrastique-volcano-erupts-evacuation-video", "isHosted": false, "pillarId": "pillar/news", "pillarName": "News"}, {"id": "global-development/poverty-matters/2013/dec/30/global-public-water-alliance-evaporate-gwopa", "type": "article", "sectionId": "global-development", "sectionName": "Global development", "webPublicationDate": "2013-12-30T07:01:03Z", "webTitle": "Global public water alliance must not be allowed to evaporate", "webUrl": "https://www.theguardian.com/global-development/poverty-matters/2013/dec/30/global-public-water-alliance-evaporate-gwopa", "apiUrl": "https://content.guardianapis.com/global-development/poverty-matters/2013/dec/30/global-public-water-alliance-evaporate-gwopa", "isHosted": false, "pillarId": "pillar/news", "pillarName": "News"}, {"id": "environment/2013/dec/29/country-diary-ploughman-frost-new-year-1913", "type": "article", "sectionId": "environment", "sectionName": "Environment", "webPublicationDate": "2013-12-29T22:30:00Z", "webTitle": "Frost spoils the ploughman's chance: Country diary 100 years ago", "webUrl": "https://www.theguardian.com/environment/2013/dec/29/country-diary-ploughman-frost-new-year-1913", "apiUrl": "https://content.guardianapis.com/environment/2013/dec/29/country-diary-ploughman-frost-new-year-1913", "isHosted": false, "pillarId": "pillar/news", "pillarName": "News"}, {"id": "commentisfree/2013/dec/29/weather-natural-disaster-climate", "type": "article", "sectionId": "commentisfree", "sectionName": "Opinion", "webPublicationDate": "2013-12-29T22:22:59Z", "webTitle": "The weather: be prepared | Editorial", "webUrl": "https://www.theguardian.com/commentisfree/2013/dec/29/weather-natural-disaster-climate", "apiUrl": "https://content.guardianapis.com/commentisfree/2013/dec/29/weather-natural-disaster-climate", "isHosted": false, "pillarId": "pillar/opinion", "pillarName": "Opinion"}, {"id": "environment/2013/dec/29/lake-district-shepherds-flocks-4x4s", "type": "article", "sectionId": "environment", "sectionName": "Environment", "webPublicationDate": "2013-12-29T21:00:00Z", "webTitle": "Country diary: Lake District: Shepherds watch their flocks at night, all seated in their 4x4s", "webUrl": "https://www.theguardian.com/environment/2013/dec/29/lake-district-shepherds-flocks-4x4s", "apiUrl": "https://content.guardianapis.com/environment/2013/dec/29/lake-district-shepherds-flocks-4x4s", "isHosted": false, "pillarId": "pillar/news", "pillarName": "News"}, {"id": "world/2013/dec/29/antarctic-passengers-air-evacuation-icebreaker", "type": "article", "sectionId": "global", "sectionName": "Global", "webPublicationDate": "2013-12-29T17:57:35Z", "webTitle": "Antarctic passengers ponder logistics of air rescue as second icebreaker closes in", "webUrl": "https://www.theguardian.com/world/2013/dec/29/antarctic-passengers-air-evacuation-icebreaker", "apiUrl": "https://content.guardianapis.com/world/2013/dec/29/antarctic-passengers-air-evacuation-icebreaker", "isHosted": false}, {"id": "uk-news/2013/dec/29/gales-heavy-rain-christmas-weather-forecast", "type": "article", "sectionId": "uk-news", "sectionName": "UK news", "webPublicationDate": "2013-12-29T17:04:09Z", "webTitle": "Gales and heavy rain forecast to prolong Christmas weather misery", "webUrl": "https://www.theguardian.com/uk-news/2013/dec/29/gales-heavy-rain-christmas-weather-forecast", "apiUrl": "https://content.guardianapis.com/uk-news/2013/dec/29/gales-heavy-rain-christmas-weather-forecast", "isHosted": false, "pillarId": "pillar/news", "pillarName": "News"}, {"id": "commentisfree/2013/dec/29/poorer-countries-climate-change-case", "type": "article", "sectionId": "commentisfree", "sectionName": "Opinion", "webPublicationDate": "2013-12-29T17:00:00Z", "webTitle": "It won't be long before the victims of climate change make the west pay | Chris Huhne", "webUrl": "https://www.theguardian.com/commentisfree/2013/dec/29/poorer-countries-climate-change-case", "apiUrl": "https://content.guardianapis.com/commentisfree/2013/dec/29/poorer-countries-climate-change-case", "isHosted": false, "pillarId": "pillar/opinion", "pillarName": "Opinion"}, {"id": "world/antarctica-live/video/2013/dec/29/akademik-shokalskiy-evacuated-helicopter-improve-video", "type": "video", "sectionId": "world", "sectionName": "World news", "webPublicationDate": "2013-12-29T15:53:00Z", "webTitle": "Akademik Shokalskiy could be evacuated by helicopter in 48 hours if situation does not improve \u2013 video", "webUrl": "https://www.theguardian.com/world/antarctica-live/video/2013/dec/29/akademik-shokalskiy-evacuated-helicopter-improve-video", "apiUrl": "https://content.guardianapis.com/world/antarctica-live/video/2013/dec/29/akademik-shokalskiy-evacuated-helicopter-improve-video", "isHosted": false, "pillarId": "pillar/news", "pillarName": "News"}, {"id": "global-development/poverty-matters/2013/dec/29/waterwheel-burden-women-water-container", "type": "article", "sectionId": "global-development", "sectionName": "Global development", "webPublicationDate": "2013-12-29T09:00:00Z", "webTitle": "WaterWheel to ease burden on women | Mark Tran", "webUrl": "https://www.theguardian.com/global-development/poverty-matters/2013/dec/29/waterwheel-burden-women-water-container", "apiUrl": "https://content.guardianapis.com/global-development/poverty-matters/2013/dec/29/waterwheel-burden-women-water-container", "isHosted": false, "pillarId": "pillar/news", "pillarName": "News"}, {"id": "environment/2013/dec/29/is-bartering-better-swapping-good-services", "type": "article", "sectionId": "environment", "sectionName": "Environment", "webPublicationDate": "2013-12-29T08:29:00Z", "webTitle": "Is bartering better? | Lucy Siegle", "webUrl": "https://www.theguardian.com/environment/2013/dec/29/is-bartering-better-swapping-good-services", "apiUrl": "https://content.guardianapis.com/environment/2013/dec/29/is-bartering-better-swapping-good-services", "isHosted": false, "pillarId": "pillar/news", "pillarName": "News"}, {"id": "money/2013/dec/29/currys-promised-recycle-old-tv-but-refused", "type": "article", "sectionId": "money", "sectionName": "Money", "webPublicationDate": "2013-12-29T06:59:00Z", "webTitle": "Currys promised to recycle my old TV, but refused to take it", "webUrl": "https://www.theguardian.com/money/2013/dec/29/currys-promised-recycle-old-tv-but-refused", "apiUrl": "https://content.guardianapis.com/money/2013/dec/29/currys-promised-recycle-old-tv-but-refused", "isHosted": false, "pillarId": "pillar/lifestyle", "pillarName": "Lifestyle"}, {"id": "world/antarctica-live/2013/dec/29/trapped-antarctic-passengers-air-evacuation", "type": "article", "sectionId": "world", "sectionName": "World news", "webPublicationDate": "2013-12-29T05:54:27Z", "webTitle": "Icebound Antarctic passengers face air rescue if ship cannot reach them soon", "webUrl": "https://www.theguardian.com/world/antarctica-live/2013/dec/29/trapped-antarctic-passengers-air-evacuation", "apiUrl": "https://content.guardianapis.com/world/antarctica-live/2013/dec/29/trapped-antarctic-passengers-air-evacuation", "isHosted": false, "pillarId": "pillar/news", "pillarName": "News"}, {"id": "world/2013/dec/29/ugandans-oil-blight-pearl-africa", "type": "article", "sectionId": "world", "sectionName": "World news", "webPublicationDate": "2013-12-29T00:06:02Z", "webTitle": "Ugandans fear curse of oil wealth as it threatens to blight 'pearl of Africa'", "webUrl": "https://www.theguardian.com/world/2013/dec/29/ugandans-oil-blight-pearl-africa", "apiUrl": "https://content.guardianapis.com/world/2013/dec/29/ugandans-oil-blight-pearl-africa", "isHosted": false, "pillarId": "pillar/news", "pillarName": "News"}, {"id": "books/2013/dec/29/happy-city-charles-montgomery-review", "type": "article", "sectionId": "books", "sectionName": "Books", "webPublicationDate": "2013-12-29T00:05:31Z", "webTitle": "Happy City by Charles Montgomery \u2013 review", "webUrl": "https://www.theguardian.com/books/2013/dec/29/happy-city-charles-montgomery-review", "apiUrl": "https://content.guardianapis.com/books/2013/dec/29/happy-city-charles-montgomery-review", "isHosted": false, "pillarId": "pillar/arts", "pillarName": "Arts"}, {"id": "world/2013/dec/29/2013-eyewitness-accounts-horsemeat-scandal-erupts", "type": "article", "sectionId": "world", "sectionName": "World news", "webPublicationDate": "2013-12-29T00:05:23Z", "webTitle": "The horsemeat scandal erupts", "webUrl": "https://www.theguardian.com/world/2013/dec/29/2013-eyewitness-accounts-horsemeat-scandal-erupts", "apiUrl": "https://content.guardianapis.com/world/2013/dec/29/2013-eyewitness-accounts-horsemeat-scandal-erupts", "isHosted": false, "pillarId": "pillar/news", "pillarName": "News"}, {"id": "world/2013/dec/29/observer-interviews-reports-highlights-of-year", "type": "article", "sectionId": "world", "sectionName": "World news", "webPublicationDate": "2013-12-29T00:05:00Z", "webTitle": "From Google to Lady Gaga and social mobility:   how the Observer saw 2013", "webUrl": "https://www.theguardian.com/world/2013/dec/29/observer-interviews-reports-highlights-of-year", "apiUrl": "https://content.guardianapis.com/world/2013/dec/29/observer-interviews-reports-highlights-of-year", "isHosted": false, "pillarId": "pillar/news", "pillarName": "News"}, {"id": "uk-news/2013/dec/28/storms-bad-weather-flood-damage", "type": "article", "sectionId": "uk-news", "sectionName": "UK news", "webPublicationDate": "2013-12-28T21:49:16Z", "webTitle": "More storms on the way across Britain", "webUrl": "https://www.theguardian.com/uk-news/2013/dec/28/storms-bad-weather-flood-damage", "apiUrl": "https://content.guardianapis.com/uk-news/2013/dec/28/storms-bad-weather-flood-damage", "isHosted": false, "pillarId": "pillar/news", "pillarName": "News"}, {"id": "world/video/2013/dec/28/trapped-akademik-shokalskiy-international-rescue-operation-video", "type": "video", "sectionId": "science", "sectionName": "Science", "webPublicationDate": "2013-12-28T15:07:00Z", "webTitle": "What will happen to the trapped Akademik Shokalskiy if the international rescue operation can't get through? - video", "webUrl": "https://www.theguardian.com/world/video/2013/dec/28/trapped-akademik-shokalskiy-international-rescue-operation-video", "apiUrl": "https://content.guardianapis.com/world/video/2013/dec/28/trapped-akademik-shokalskiy-international-rescue-operation-video", "isHosted": false, "pillarId": "pillar/news", "pillarName": "News"}, {"id": "science/2013/dec/28/four-new-species-scottish-coast-atlantic", "type": "article", "sectionId": "science", "sectionName": "Science", "webPublicationDate": "2013-12-28T06:00:00Z", "webTitle": "Four new species found off Scottish coast", "webUrl": "https://www.theguardian.com/science/2013/dec/28/four-new-species-scottish-coast-atlantic", "apiUrl": "https://content.guardianapis.com/science/2013/dec/28/four-new-species-scottish-coast-atlantic", "isHosted": false, "pillarId": "pillar/news", "pillarName": "News"}, {"id": "science/2013/dec/27/plantwatch-mild-winter-flowers-berries", "type": "article", "sectionId": "science", "sectionName": "Science", "webPublicationDate": "2013-12-27T21:30:06Z", "webTitle": "Plantwatch: Mild weather brings late flowers, and early ones", "webUrl": "https://www.theguardian.com/science/2013/dec/27/plantwatch-mild-winter-flowers-berries", "apiUrl": "https://content.guardianapis.com/science/2013/dec/27/plantwatch-mild-winter-flowers-berries", "isHosted": false, "pillarId": "pillar/news", "pillarName": "News"}, {"id": "environment/2013/dec/27/sandy-bedfordshire-river-guiding-light", "type": "article", "sectionId": "environment", "sectionName": "Environment", "webPublicationDate": "2013-12-27T21:00:06Z", "webTitle": "Country diary: Sandy, Bedfordshire: The river is my guiding light", "webUrl": "https://www.theguardian.com/environment/2013/dec/27/sandy-bedfordshire-river-guiding-light", "apiUrl": "https://content.guardianapis.com/environment/2013/dec/27/sandy-bedfordshire-river-guiding-light", "isHosted": false, "pillarId": "pillar/news", "pillarName": "News"}, {"id": "uk-news/2013/dec/27/david-cameron-confronted-residents-flooded-village", "type": "article", "sectionId": "uk-news", "sectionName": "UK news", "webPublicationDate": "2013-12-27T18:33:39Z", "webTitle": "David Cameron confronted by angry residents of flooded village", "webUrl": "https://www.theguardian.com/uk-news/2013/dec/27/david-cameron-confronted-residents-flooded-village", "apiUrl": "https://content.guardianapis.com/uk-news/2013/dec/27/david-cameron-confronted-residents-flooded-village", "isHosted": false, "pillarId": "pillar/news", "pillarName": "News"}, {"id": "uk-news/2013/dec/27/uk-storm-thousands-homes-without-power", "type": "article", "sectionId": "uk-news", "sectionName": "UK news", "webPublicationDate": "2013-12-27T18:04:26Z", "webTitle": "UK's second major storm in days leaves thousands of homes without power", "webUrl": "https://www.theguardian.com/uk-news/2013/dec/27/uk-storm-thousands-homes-without-power", "apiUrl": "https://content.guardianapis.com/uk-news/2013/dec/27/uk-storm-thousands-homes-without-power", "isHosted": false, "pillarId": "pillar/news", "pillarName": "News"}, {"id": "environment/2013/dec/27/arctic-30-five-britons-home-russia-greenpeace", "type": "article", "sectionId": "environment", "sectionName": "Environment", "webPublicationDate": "2013-12-27T17:53:00Z", "webTitle": "Arctic 30: five Britons arrive back in UK from Russia", "webUrl": "https://www.theguardian.com/environment/2013/dec/27/arctic-30-five-britons-home-russia-greenpeace", "apiUrl": "https://content.guardianapis.com/environment/2013/dec/27/arctic-30-five-britons-home-russia-greenpeace", "isHosted": false, "pillarId": "pillar/news", "pillarName": "News"}, {"id": "environment/video/2013/dec/27/severe-weather-warning-heavy-rain-flooding-kent-video", "type": "video", "sectionId": "environment", "sectionName": "Environment", "webPublicationDate": "2013-12-27T15:19:00Z", "webTitle": "Severe weather warning as heavy rain causes flooding in Kent \u2013 video", "webUrl": "https://www.theguardian.com/environment/video/2013/dec/27/severe-weather-warning-heavy-rain-flooding-kent-video", "apiUrl": "https://content.guardianapis.com/environment/video/2013/dec/27/severe-weather-warning-heavy-rain-flooding-kent-video", "isHosted": false, "pillarId": "pillar/news", "pillarName": "News"}, {"id": "commentisfree/2013/dec/27/silenced-by-winter-storms-listen", "type": "article", "sectionId": "commentisfree", "sectionName": "Opinion", "webPublicationDate": "2013-12-27T15:00:01Z", "webTitle": "Silenced by winter's violent storms | Philip Hoare", "webUrl": "https://www.theguardian.com/commentisfree/2013/dec/27/silenced-by-winter-storms-listen", "apiUrl": "https://content.guardianapis.com/commentisfree/2013/dec/27/silenced-by-winter-storms-listen", "isHosted": false, "pillarId": "pillar/opinion", "pillarName": "Opinion"}, {"id": "environment/2013/dec/27/david-cameron-heckled-flood-yalding-kent", "type": "article", "sectionId": "politics", "sectionName": "Politics", "webPublicationDate": "2013-12-27T14:27:42Z", "webTitle": "David Cameron heckled on visit to flood-hit Yalding", "webUrl": "https://www.theguardian.com/environment/2013/dec/27/david-cameron-heckled-flood-yalding-kent", "apiUrl": "https://content.guardianapis.com/environment/2013/dec/27/david-cameron-heckled-flood-yalding-kent", "isHosted": false, "pillarId": "pillar/news", "pillarName": "News"}, {"id": "environment/video/2013/dec/27/arctic-30-greenpeace-activists-fly-home-russia-video", "type": "video", "sectionId": "environment", "sectionName": "Environment", "webPublicationDate": "2013-12-27T13:35:00Z", "webTitle": "Greenpeace Arctic 30 activists fly home from Russia \u2013 video", "webUrl": "https://www.theguardian.com/environment/video/2013/dec/27/arctic-30-greenpeace-activists-fly-home-russia-video", "apiUrl": "https://content.guardianapis.com/environment/video/2013/dec/27/arctic-30-greenpeace-activists-fly-home-russia-video", "isHosted": false, "pillarId": "pillar/news", "pillarName": "News"}, {"id": "uk-news/2013/dec/27/thousands-homes-without-power-uk-storms", "type": "article", "sectionId": "uk-news", "sectionName": "UK news", "webPublicationDate": "2013-12-27T12:15:47Z", "webTitle": "Thousands of homes left without power as UK storms continue", "webUrl": "https://www.theguardian.com/uk-news/2013/dec/27/thousands-homes-without-power-uk-storms", "apiUrl": "https://content.guardianapis.com/uk-news/2013/dec/27/thousands-homes-without-power-uk-storms", "isHosted": false, "pillarId": "pillar/news", "pillarName": "News"}, {"id": "books/2013/dec/27/nan-shepherd-vision-cairngorms-robert-macfarlane", "type": "article", "sectionId": "books", "sectionName": "Books", "webPublicationDate": "2013-12-27T10:00:00Z", "webTitle": "How Nan Shepherd remade my vision of the Cairngorms", "webUrl": "https://www.theguardian.com/books/2013/dec/27/nan-shepherd-vision-cairngorms-robert-macfarlane", "apiUrl": "https://content.guardianapis.com/books/2013/dec/27/nan-shepherd-vision-cairngorms-robert-macfarlane", "isHosted": false, "pillarId": "pillar/arts", "pillarName": "Arts"}, {"id": "global-development/poverty-matters/2013/dec/27/middle-income-countries-future-of-development", "type": "article", "sectionId": "global-development", "sectionName": "Global development", "webPublicationDate": "2013-12-27T09:58:00Z", "webTitle": "Middle-income countries to have the casting vote on future of development | Alex Evans", "webUrl": "https://www.theguardian.com/global-development/poverty-matters/2013/dec/27/middle-income-countries-future-of-development", "apiUrl": "https://content.guardianapis.com/global-development/poverty-matters/2013/dec/27/middle-income-countries-future-of-development", "isHosted": false, "pillarId": "pillar/news", "pillarName": "News"}, {"id": "environment/2013/dec/27/weather-year-for-wildlife-britain-ireland", "type": "article", "sectionId": "environment", "sectionName": "Environment", "webPublicationDate": "2013-12-27T08:00:04Z", "webTitle": "Turned out nice: hot summer makes it a vintage year for wildlife across the UK", "webUrl": "https://www.theguardian.com/environment/2013/dec/27/weather-year-for-wildlife-britain-ireland", "apiUrl": "https://content.guardianapis.com/environment/2013/dec/27/weather-year-for-wildlife-britain-ireland", "isHosted": false, "pillarId": "pillar/news", "pillarName": "News"}, {"id": "environment/2013/dec/26/arctic-30-protester-litvinov-release", "type": "article", "sectionId": "environment", "sectionName": "Environment", "webPublicationDate": "2013-12-26T22:32:53Z", "webTitle": "Arctic 30 protester: 'Russia owes me a medal'", "webUrl": "https://www.theguardian.com/environment/2013/dec/26/arctic-30-protester-litvinov-release", "apiUrl": "https://content.guardianapis.com/environment/2013/dec/26/arctic-30-protester-litvinov-release", "isHosted": false, "pillarId": "pillar/news", "pillarName": "News"}, {"id": "environment/2013/dec/26/south-uist-gathering-winter-fuel", "type": "article", "sectionId": "environment", "sectionName": "Environment", "webPublicationDate": "2013-12-26T20:59:00Z", "webTitle": "Country diary: South Uist: Gathering winter fuel", "webUrl": "https://www.theguardian.com/environment/2013/dec/26/south-uist-gathering-winter-fuel", "apiUrl": "https://content.guardianapis.com/environment/2013/dec/26/south-uist-gathering-winter-fuel", "isHosted": false, "pillarId": "pillar/news", "pillarName": "News"}, {"id": "uk-news/2013/dec/26/uk-braced-more-storms-and-floods", "type": "article", "sectionId": "uk-news", "sectionName": "UK news", "webPublicationDate": "2013-12-26T20:54:00Z", "webTitle": "UK braced for more storms and floods", "webUrl": "https://www.theguardian.com/uk-news/2013/dec/26/uk-braced-more-storms-and-floods", "apiUrl": "https://content.guardianapis.com/uk-news/2013/dec/26/uk-braced-more-storms-and-floods", "isHosted": false, "pillarId": "pillar/news", "pillarName": "News"}, {"id": "business/2013/dec/26/toshiba-stake-uk-nuclear-consortium", "type": "article", "sectionId": "business", "sectionName": "Business", "webPublicationDate": "2013-12-26T19:24:55Z", "webTitle": "Toshiba to buy majority stake in UK nuclear consortium", "webUrl": "https://www.theguardian.com/business/2013/dec/26/toshiba-stake-uk-nuclear-consortium", "apiUrl": "https://content.guardianapis.com/business/2013/dec/26/toshiba-stake-uk-nuclear-consortium", "isHosted": false, "pillarId": "pillar/news", "pillarName": "News"}, {"id": "environment/2013/dec/26/christmas-flooding-weybridge-river-wey-surrey", "type": "article", "sectionId": "uk-news", "sectionName": "UK news", "webPublicationDate": "2013-12-26T19:05:00Z", "webTitle": "Christmas tears as UK floods leave Surrey swamped", "webUrl": "https://www.theguardian.com/environment/2013/dec/26/christmas-flooding-weybridge-river-wey-surrey", "apiUrl": "https://content.guardianapis.com/environment/2013/dec/26/christmas-flooding-weybridge-river-wey-surrey", "isHosted": false, "pillarId": "pillar/news", "pillarName": "News"}, {"id": "world/2013/dec/26/antarctica-icebound-ship-rescue", "type": "article", "sectionId": "world", "sectionName": "World news", "webPublicationDate": "2013-12-26T18:50:03Z", "webTitle": "Icebound ship awaits Antarctic rescue", "webUrl": "https://www.theguardian.com/world/2013/dec/26/antarctica-icebound-ship-rescue", "apiUrl": "https://content.guardianapis.com/world/2013/dec/26/antarctica-icebound-ship-rescue", "isHosted": false, "pillarId": "pillar/news", "pillarName": "News"}, {"id": "environment/2013/dec/26/salford-anti-fracking-camp", "type": "article", "sectionId": "environment", "sectionName": "Environment", "webPublicationDate": "2013-12-26T18:20:50Z", "webTitle": "Salford anti-fracking camp enjoys local support", "webUrl": "https://www.theguardian.com/environment/2013/dec/26/salford-anti-fracking-camp", "apiUrl": "https://content.guardianapis.com/environment/2013/dec/26/salford-anti-fracking-camp", "isHosted": false, "pillarId": "pillar/news", "pillarName": "News"}, {"id": "science/antarctica-live/2013/dec/26/stuck-in-antarcticas-white-christmas", "type": "article", "sectionId": "science", "sectionName": "Science", "webPublicationDate": "2013-12-26T10:16:11Z", "webTitle": "Antarctica Live day 18: stuck in a white Christmas", "webUrl": "https://www.theguardian.com/science/antarctica-live/2013/dec/26/stuck-in-antarcticas-white-christmas", "apiUrl": "https://content.guardianapis.com/science/antarctica-live/2013/dec/26/stuck-in-antarcticas-white-christmas", "isHosted": false, "pillarId": "pillar/news", "pillarName": "News"}, {"id": "commentisfree/2013/dec/26/australias-heroes-of-2013-an-ode-to-the-often-unsung", "type": "article", "sectionId": "commentisfree", "sectionName": "Opinion", "webPublicationDate": "2013-12-26T01:33:15Z", "webTitle": "Australia's heroes of 2013: an ode to the often unsung | Van Badham", "webUrl": "https://www.theguardian.com/commentisfree/2013/dec/26/australias-heroes-of-2013-an-ode-to-the-often-unsung", "apiUrl": "https://content.guardianapis.com/commentisfree/2013/dec/26/australias-heroes-of-2013-an-ode-to-the-often-unsung", "isHosted": false, "pillarId": "pillar/opinion", "pillarName": "Opinion"}, {"id": "environment/2013/dec/25/southwold-suffolk-cusp-land-sea", "type": "article", "sectionId": "environment", "sectionName": "Environment", "webPublicationDate": "2013-12-25T20:59:00Z", "webTitle": "Country diary: Southwold, Suffolk: A fragile existence on the dynamic cusp of land and sea", "webUrl": "https://www.theguardian.com/environment/2013/dec/25/southwold-suffolk-cusp-land-sea", "apiUrl": "https://content.guardianapis.com/environment/2013/dec/25/southwold-suffolk-cusp-land-sea", "isHosted": false, "pillarId": "pillar/news", "pillarName": "News"}, {"id": "business/2013/dec/25/business-year-in-review-alice-in-wongaland", "type": "article", "sectionId": "business", "sectionName": "Business", "webPublicationDate": "2013-12-25T19:00:00Z", "webTitle": "The business year in review: Alice in Wongaland", "webUrl": "https://www.theguardian.com/business/2013/dec/25/business-year-in-review-alice-in-wongaland", "apiUrl": "https://content.guardianapis.com/business/2013/dec/25/business-year-in-review-alice-in-wongaland", "isHosted": false, "pillarId": "pillar/news", "pillarName": "News"}, {"id": "world/2013/dec/25/antarctic-expedition-scientists-trapped-ice", "type": "article", "sectionId": "world", "sectionName": "World news", "webPublicationDate": "2013-12-25T13:12:59Z", "webTitle": "Antarctic expedition scientists trapped in ice", "webUrl": "https://www.theguardian.com/world/2013/dec/25/antarctic-expedition-scientists-trapped-ice", "apiUrl": "https://content.guardianapis.com/world/2013/dec/25/antarctic-expedition-scientists-trapped-ice", "isHosted": false, "pillarId": "pillar/news", "pillarName": "News"}, {"id": "science/antarctica-live/video/2013/dec/25/mawsons-huts-journey-antarctica-video", "type": "video", "sectionId": "science", "sectionName": "Science", "webPublicationDate": "2013-12-25T11:37:00Z", "webTitle": "Expedition to Mawson's Huts: a journey into Antarctica \u2013 video", "webUrl": "https://www.theguardian.com/science/antarctica-live/video/2013/dec/25/mawsons-huts-journey-antarctica-video", "apiUrl": "https://content.guardianapis.com/science/antarctica-live/video/2013/dec/25/mawsons-huts-journey-antarctica-video", "isHosted": false, "pillarId": "pillar/news", "pillarName": "News"}]}}