{"response": {"status": "ok", "userTier": "developer", "total": 17211, "startIndex": 1, "pageSize": 50, "currentPage": 1, "pages": 345, "orderBy": "newest", "results": [{"id": "lifeandstyle/2011/dec/30/brandy-recipes-hugh-fearnley-whittingstall", "type": "article", "sectionId": "lifeandstyle", "sectionName": "Life and style", "webPublicationDate": "2011-12-30T22:59:29Z", "webTitle": "Brandy recipes | Hugh Fearnley-Whittingstall", "webUrl": "https://www.theguardian.com/lifeandstyle/2011/dec/30/brandy-recipes-hugh-fearnley-whittingstall", "apiUrl": "https://content.guardianapis.com/lifeandstyle/2011/dec/30/brandy-recipes-hugh-fearnley-whittingstall", "isHosted": false, "pillarId": "pillar/lifestyle", "pillarName": "Lifestyle"}, {"id": "lifeandstyle/2011/dec/30/soif-london-sw11-restaurant-review", "type": "article", "sectionId": "lifeandstyle", "sectionName": "Life and style", "webPublicationDate": "2011-12-30T22:59:21Z", "webTitle": "Restaurant review: Soif, London SW11", "webUrl": "https://www.theguardian.com/lifeandstyle/2011/dec/30/soif-london-sw11-restaurant-review", "apiUrl": "https://content.guardianapis.com/lifeandstyle/2011/dec/30/soif-london-sw11-restaurant-review", "isHosted": false, "pillarId": "pillar/lifestyle", "pillarName": "Lifestyle"}, {"id": "lifeandstyle/2011/dec/30/pithivier-rice-noodle-ottolenghi-recipes", "type": "article", "sectionId": "food", "sectionName": "Food", "webPublicationDate": "2011-12-30T22:59:04Z", "webTitle": "Potato and jerusalem artichoke pithivier, plus rice noodle salad recipe | Yotam Ottolenghi", "webUrl": "https://www.theguardian.com/lifeandstyle/2011/dec/30/pithivier-rice-noodle-ottolenghi-recipes", "apiUrl": "https://content.guardianapis.com/lifeandstyle/2011/dec/30/pithivier-rice-noodle-ottolenghi-recipes", "isHosted": false, "pillarId": "pillar/lifestyle", "pillarName": "Lifestyle"}, {"id": "lifeandstyle/2011/dec/30/marmalade-authentic-bolognese-sauce-recipe", "type": "article", "sectionId": "lifeandstyle", "sectionName": "Life and style", "webPublicationDate": "2011-12-30T22:59:01Z", "webTitle": "Food for Fort: On marmalade and bolognese", "webUrl": "https://www.theguardian.com/lifeandstyle/2011/dec/30/marmalade-authentic-bolognese-sauce-recipe", "apiUrl": "https://content.guardianapis.com/lifeandstyle/2011/dec/30/marmalade-authentic-bolognese-sauce-recipe", "isHosted": false, "pillarId": "pillar/lifestyle", "pillarName": "Lifestyle"}, {"id": "lifeandstyle/2011/dec/30/2011-roundup-wine-review", "type": "article", "sectionId": "food", "sectionName": "Food", "webPublicationDate": "2011-12-30T22:59:01Z", "webTitle": "Wine: was 2011 a good year or a bad year?", "webUrl": "https://www.theguardian.com/lifeandstyle/2011/dec/30/2011-roundup-wine-review", "apiUrl": "https://content.guardianapis.com/lifeandstyle/2011/dec/30/2011-roundup-wine-review", "isHosted": false, "pillarId": "pillar/lifestyle", "pillarName": "Lifestyle"}, {"id": "uk/2011/dec/30/2011-end-of-year-review", "type": "article", "sectionId": "uk-news", "sectionName": "UK news", "webPublicationDate": "2011-12-30T22:59:00Z", "webTitle": "2011: the year in review", "webUrl": "https://www.theguardian.com/uk/2011/dec/30/2011-end-of-year-review", "apiUrl": "https://content.guardianapis.com/uk/2011/dec/30/2011-end-of-year-review", "isHosted": false, "pillarId": "pillar/news", "pillarName": "News"}, {"id": "lifeandstyle/wordofmouth/2011/dec/30/tour-of-the-world-in-whisky", "type": "article", "sectionId": "lifeandstyle", "sectionName": "Life and style", "webPublicationDate": "2011-12-30T10:00:00Z", "webTitle": "A tour of the world - in whisky", "webUrl": "https://www.theguardian.com/lifeandstyle/wordofmouth/2011/dec/30/tour-of-the-world-in-whisky", "apiUrl": "https://content.guardianapis.com/lifeandstyle/wordofmouth/2011/dec/30/tour-of-the-world-in-whisky", "isHosted": false, "pillarId": "pillar/lifestyle", "pillarName": "Lifestyle"}, {"id": "commentisfree/2011/dec/29/in-praise-of-stew", "type": "article", "sectionId": "commentisfree", "sectionName": "Opinion", "webPublicationDate": "2011-12-29T20:55:00Z", "webTitle": "In praise of ... stew", "webUrl": "https://www.theguardian.com/commentisfree/2011/dec/29/in-praise-of-stew", "apiUrl": "https://content.guardianapis.com/commentisfree/2011/dec/29/in-praise-of-stew", "isHosted": false, "pillarId": "pillar/opinion", "pillarName": "Opinion"}, {"id": "lifeandstyle/2011/dec/29/philadelphia-pepper-pot-soup-revolutionary-war", "type": "article", "sectionId": "food", "sectionName": "Food", "webPublicationDate": "2011-12-29T18:05:00Z", "webTitle": "Philadelphia pepper pot: the soup that won the American Revolution?", "webUrl": "https://www.theguardian.com/lifeandstyle/2011/dec/29/philadelphia-pepper-pot-soup-revolutionary-war", "apiUrl": "https://content.guardianapis.com/lifeandstyle/2011/dec/29/philadelphia-pepper-pot-soup-revolutionary-war", "isHosted": false, "pillarId": "pillar/lifestyle", "pillarName": "Lifestyle"}, {"id": "lifeandstyle/wordofmouth/2011/dec/29/how-to-cook-perfect-blinis", "type": "article", "sectionId": "food", "sectionName": "Food", "webPublicationDate": "2011-12-29T00:10:00Z", "webTitle": "How to cook perfect blinis", "webUrl": "https://www.theguardian.com/lifeandstyle/wordofmouth/2011/dec/29/how-to-cook-perfect-blinis", "apiUrl": "https://content.guardianapis.com/lifeandstyle/wordofmouth/2011/dec/29/how-to-cook-perfect-blinis", "isHosted": false, "pillarId": "pillar/lifestyle", "pillarName": "Lifestyle"}, {"id": "commentisfree/2011/dec/28/food-recipes-disaster", "type": "article", "sectionId": "commentisfree", "sectionName": "Opinion", "webPublicationDate": "2011-12-28T18:11:07Z", "webTitle": "Recipes for disaster | Felicity Cloake", "webUrl": "https://www.theguardian.com/commentisfree/2011/dec/28/food-recipes-disaster", "apiUrl": "https://content.guardianapis.com/commentisfree/2011/dec/28/food-recipes-disaster", "isHosted": false, "pillarId": "pillar/opinion", "pillarName": "Opinion"}, {"id": "lifeandstyle/wordofmouth/2011/dec/28/sensational-snacks-and-canape-calamities", "type": "article", "sectionId": "food", "sectionName": "Food", "webPublicationDate": "2011-12-28T10:00:00Z", "webTitle": "Sensational snacks and canap\u00e9 calamities", "webUrl": "https://www.theguardian.com/lifeandstyle/wordofmouth/2011/dec/28/sensational-snacks-and-canape-calamities", "apiUrl": "https://content.guardianapis.com/lifeandstyle/wordofmouth/2011/dec/28/sensational-snacks-and-canape-calamities", "isHosted": false, "pillarId": "pillar/lifestyle", "pillarName": "Lifestyle"}, {"id": "lifeandstyle/wordofmouth/2011/dec/30/cocktails-vacation-libation-inspiration", "type": "article", "sectionId": "food", "sectionName": "Food", "webPublicationDate": "2011-12-28T10:00:00Z", "webTitle": "Cocktails: vacation libation inspiration", "webUrl": "https://www.theguardian.com/lifeandstyle/wordofmouth/2011/dec/30/cocktails-vacation-libation-inspiration", "apiUrl": "https://content.guardianapis.com/lifeandstyle/wordofmouth/2011/dec/30/cocktails-vacation-libation-inspiration", "isHosted": false, "pillarId": "pillar/lifestyle", "pillarName": "Lifestyle"}, {"id": "lifeandstyle/2011/dec/25/english-sparkling-wine-french-champagne", "type": "article", "sectionId": "food", "sectionName": "Food", "webPublicationDate": "2011-12-25T21:20:11Z", "webTitle": "English sparkling wine comes of age with French boost", "webUrl": "https://www.theguardian.com/lifeandstyle/2011/dec/25/english-sparkling-wine-french-champagne", "apiUrl": "https://content.guardianapis.com/lifeandstyle/2011/dec/25/english-sparkling-wine-french-champagne", "isHosted": false, "pillarId": "pillar/lifestyle", "pillarName": "Lifestyle"}, {"id": "lifeandstyle/2011/dec/23/australasia-manchester-restaurant-review", "type": "article", "sectionId": "lifeandstyle", "sectionName": "Life and style", "webPublicationDate": "2011-12-23T22:59:12Z", "webTitle": "Restaurant review: Australasia, Manchester | John Lanchester", "webUrl": "https://www.theguardian.com/lifeandstyle/2011/dec/23/australasia-manchester-restaurant-review", "apiUrl": "https://content.guardianapis.com/lifeandstyle/2011/dec/23/australasia-manchester-restaurant-review", "isHosted": false, "pillarId": "pillar/lifestyle", "pillarName": "Lifestyle"}, {"id": "lifeandstyle/2011/dec/23/haddock-bean-salad-cauliflower-recipe", "type": "article", "sectionId": "food", "sectionName": "Food", "webPublicationDate": "2011-12-23T22:59:05Z", "webTitle": "Recipes for haricot bean and smoked haddock salad, plus roasted cauliflower and hazelnut salad | Yotam Ottolenghi", "webUrl": "https://www.theguardian.com/lifeandstyle/2011/dec/23/haddock-bean-salad-cauliflower-recipe", "apiUrl": "https://content.guardianapis.com/lifeandstyle/2011/dec/23/haddock-bean-salad-cauliflower-recipe", "isHosted": false, "pillarId": "pillar/lifestyle", "pillarName": "Lifestyle"}, {"id": "lifeandstyle/2011/dec/23/white-christmas-pudding-edible-gifts", "type": "article", "sectionId": "lifeandstyle", "sectionName": "Life and style", "webPublicationDate": "2011-12-23T22:59:03Z", "webTitle": "Food for Fort: white Christmas pudding and edible gift storage", "webUrl": "https://www.theguardian.com/lifeandstyle/2011/dec/23/white-christmas-pudding-edible-gifts", "apiUrl": "https://content.guardianapis.com/lifeandstyle/2011/dec/23/white-christmas-pudding-edible-gifts", "isHosted": false, "pillarId": "pillar/lifestyle", "pillarName": "Lifestyle"}, {"id": "lifeandstyle/2011/dec/23/olive-wine-pie-crust-recipe", "type": "article", "sectionId": "lifeandstyle", "sectionName": "Life and style", "webPublicationDate": "2011-12-23T22:59:02Z", "webTitle": "Olive and wine pie crust recipe | Dan Lepard", "webUrl": "https://www.theguardian.com/lifeandstyle/2011/dec/23/olive-wine-pie-crust-recipe", "apiUrl": "https://content.guardianapis.com/lifeandstyle/2011/dec/23/olive-wine-pie-crust-recipe", "isHosted": false, "pillarId": "pillar/lifestyle", "pillarName": "Lifestyle"}, {"id": "lifeandstyle/2011/dec/23/last-minute-christmas-wine-bargains", "type": "article", "sectionId": "food", "sectionName": "Food", "webPublicationDate": "2011-12-23T22:59:01Z", "webTitle": "Wine: last-minute Christmas buys", "webUrl": "https://www.theguardian.com/lifeandstyle/2011/dec/23/last-minute-christmas-wine-bargains", "apiUrl": "https://content.guardianapis.com/lifeandstyle/2011/dec/23/last-minute-christmas-wine-bargains", "isHosted": false, "pillarId": "pillar/lifestyle", "pillarName": "Lifestyle"}, {"id": "technology/gamesblog/2011/dec/23/six-video-game-cocktails", "type": "article", "sectionId": "technology", "sectionName": "Technology", "webPublicationDate": "2011-12-23T14:01:00Z", "webTitle": "Six video game cocktails", "webUrl": "https://www.theguardian.com/technology/gamesblog/2011/dec/23/six-video-game-cocktails", "apiUrl": "https://content.guardianapis.com/technology/gamesblog/2011/dec/23/six-video-game-cocktails", "isHosted": false, "pillarId": "pillar/news", "pillarName": "News"}, {"id": "lifeandstyle/wordofmouth/2011/dec/23/best-place-christmas-pub-crawl", "type": "article", "sectionId": "lifeandstyle", "sectionName": "Life and style", "webPublicationDate": "2011-12-23T10:00:00Z", "webTitle": "Where's the best place for a Christmas pub crawl?", "webUrl": "https://www.theguardian.com/lifeandstyle/wordofmouth/2011/dec/23/best-place-christmas-pub-crawl", "apiUrl": "https://content.guardianapis.com/lifeandstyle/wordofmouth/2011/dec/23/best-place-christmas-pub-crawl", "isHosted": false, "pillarId": "pillar/lifestyle", "pillarName": "Lifestyle"}, {"id": "lifeandstyle/video/2011/dec/23/christmas-at-petersham-nurseries-video", "type": "video", "sectionId": "lifeandstyle", "sectionName": "Life and style", "webPublicationDate": "2011-12-23T09:00:00Z", "webTitle": "Christmas at Petersham Nurseries - video", "webUrl": "https://www.theguardian.com/lifeandstyle/video/2011/dec/23/christmas-at-petersham-nurseries-video", "apiUrl": "https://content.guardianapis.com/lifeandstyle/video/2011/dec/23/christmas-at-petersham-nurseries-video", "isHosted": false, "pillarId": "pillar/lifestyle", "pillarName": "Lifestyle"}, {"id": "lifeandstyle/2011/dec/23/skye-gyngell-christmas-recipes", "type": "article", "sectionId": "lifeandstyle", "sectionName": "Life and style", "webPublicationDate": "2011-12-23T09:00:00Z", "webTitle": "Skye Gyngell's Christmas recipes", "webUrl": "https://www.theguardian.com/lifeandstyle/2011/dec/23/skye-gyngell-christmas-recipes", "apiUrl": "https://content.guardianapis.com/lifeandstyle/2011/dec/23/skye-gyngell-christmas-recipes", "isHosted": false, "pillarId": "pillar/lifestyle", "pillarName": "Lifestyle"}, {"id": "travel/2011/dec/22/favourite-british-pub-walks", "type": "article", "sectionId": "travel", "sectionName": "Travel", "webPublicationDate": "2011-12-22T10:55:00Z", "webTitle": "My favourite country pub walk", "webUrl": "https://www.theguardian.com/travel/2011/dec/22/favourite-british-pub-walks", "apiUrl": "https://content.guardianapis.com/travel/2011/dec/22/favourite-british-pub-walks", "isHosted": false, "pillarId": "pillar/lifestyle", "pillarName": "Lifestyle"}, {"id": "lifeandstyle/wordofmouth/2011/dec/22/how-to-make-perfect-trifle", "type": "article", "sectionId": "food", "sectionName": "Food", "webPublicationDate": "2011-12-22T00:10:00Z", "webTitle": "How to make perfect trifle", "webUrl": "https://www.theguardian.com/lifeandstyle/wordofmouth/2011/dec/22/how-to-make-perfect-trifle", "apiUrl": "https://content.guardianapis.com/lifeandstyle/wordofmouth/2011/dec/22/how-to-make-perfect-trifle", "isHosted": false, "pillarId": "pillar/lifestyle", "pillarName": "Lifestyle"}, {"id": "business/2011/dec/21/supermarkets-plan-build-thousands-stores", "type": "article", "sectionId": "business", "sectionName": "Business", "webPublicationDate": "2011-12-21T20:55:49Z", "webTitle": "Supermarkets' plan to build thousands more stores revealed", "webUrl": "https://www.theguardian.com/business/2011/dec/21/supermarkets-plan-build-thousands-stores", "apiUrl": "https://content.guardianapis.com/business/2011/dec/21/supermarkets-plan-build-thousands-stores", "isHosted": false, "pillarId": "pillar/news", "pillarName": "News"}, {"id": "lifeandstyle/2011/dec/21/christmas-dinner-tasteless-turkey", "type": "article", "sectionId": "lifeandstyle", "sectionName": "Life and style", "webPublicationDate": "2011-12-21T20:00:00Z", "webTitle": "Christmas dinner: Overpriced, overrated and just horrible", "webUrl": "https://www.theguardian.com/lifeandstyle/2011/dec/21/christmas-dinner-tasteless-turkey", "apiUrl": "https://content.guardianapis.com/lifeandstyle/2011/dec/21/christmas-dinner-tasteless-turkey", "isHosted": false, "pillarId": "pillar/lifestyle", "pillarName": "Lifestyle"}, {"id": "lifeandstyle/shortcuts/2011/dec/21/jamie-olivers-britain-christmas-bestseller", "type": "article", "sectionId": "food", "sectionName": "Food", "webPublicationDate": "2011-12-21T20:00:00Z", "webTitle": "Pass notes No 3,100: Jamie Oliver", "webUrl": "https://www.theguardian.com/lifeandstyle/shortcuts/2011/dec/21/jamie-olivers-britain-christmas-bestseller", "apiUrl": "https://content.guardianapis.com/lifeandstyle/shortcuts/2011/dec/21/jamie-olivers-britain-christmas-bestseller", "isHosted": false, "pillarId": "pillar/lifestyle", "pillarName": "Lifestyle"}, {"id": "society/2011/dec/21/sugary-soft-drinks-obesity-tax", "type": "article", "sectionId": "society", "sectionName": "Society", "webPublicationDate": "2011-12-21T16:59:34Z", "webTitle": "Experts call for 10% 'fat tax' on soft drinks to prevent obesity", "webUrl": "https://www.theguardian.com/society/2011/dec/21/sugary-soft-drinks-obesity-tax", "apiUrl": "https://content.guardianapis.com/society/2011/dec/21/sugary-soft-drinks-obesity-tax", "isHosted": false, "pillarId": "pillar/news", "pillarName": "News"}, {"id": "lifeandstyle/wordofmouth/2011/dec/21/the-year-in-cookbooks", "type": "article", "sectionId": "lifeandstyle", "sectionName": "Life and style", "webPublicationDate": "2011-12-21T14:30:00Z", "webTitle": "The year in cookbooks", "webUrl": "https://www.theguardian.com/lifeandstyle/wordofmouth/2011/dec/21/the-year-in-cookbooks", "apiUrl": "https://content.guardianapis.com/lifeandstyle/wordofmouth/2011/dec/21/the-year-in-cookbooks", "isHosted": false, "pillarId": "pillar/lifestyle", "pillarName": "Lifestyle"}, {"id": "tv-and-radio/tvandradioblog/2011/dec/21/felicity-cloake-christmas-food-tv", "type": "article", "sectionId": "tv-and-radio", "sectionName": "Television & radio", "webPublicationDate": "2011-12-21T13:58:00Z", "webTitle": "Felicity Cloake's perfect Christmas food television", "webUrl": "https://www.theguardian.com/tv-and-radio/tvandradioblog/2011/dec/21/felicity-cloake-christmas-food-tv", "apiUrl": "https://content.guardianapis.com/tv-and-radio/tvandradioblog/2011/dec/21/felicity-cloake-christmas-food-tv", "isHosted": false, "pillarId": "pillar/arts", "pillarName": "Arts"}, {"id": "lifeandstyle/wordofmouth/2011/dec/21/how-to-make-mulled-cider", "type": "article", "sectionId": "food", "sectionName": "Food", "webPublicationDate": "2011-12-21T09:20:00Z", "webTitle": "How to make mulled cider", "webUrl": "https://www.theguardian.com/lifeandstyle/wordofmouth/2011/dec/21/how-to-make-mulled-cider", "apiUrl": "https://content.guardianapis.com/lifeandstyle/wordofmouth/2011/dec/21/how-to-make-mulled-cider", "isHosted": false, "pillarId": "pillar/lifestyle", "pillarName": "Lifestyle"}, {"id": "lifeandstyle/wordofmouth/2011/dec/20/how-cook-christmas-turkey-barbecue", "type": "article", "sectionId": "food", "sectionName": "Food", "webPublicationDate": "2011-12-20T10:00:00Z", "webTitle": "How to cook Christmas turkey. On the barbecue", "webUrl": "https://www.theguardian.com/lifeandstyle/wordofmouth/2011/dec/20/how-cook-christmas-turkey-barbecue", "apiUrl": "https://content.guardianapis.com/lifeandstyle/wordofmouth/2011/dec/20/how-cook-christmas-turkey-barbecue", "isHosted": false, "pillarId": "pillar/lifestyle", "pillarName": "Lifestyle"}, {"id": "lifeandstyle/gallery/2011/dec/20/how-to-carve-turkey-pictures", "type": "gallery", "sectionId": "lifeandstyle", "sectionName": "Life and style", "webPublicationDate": "2011-12-20T10:00:00Z", "webTitle": "How to carve a turkey - in pictures", "webUrl": "https://www.theguardian.com/lifeandstyle/gallery/2011/dec/20/how-to-carve-turkey-pictures", "apiUrl": "https://content.guardianapis.com/lifeandstyle/gallery/2011/dec/20/how-to-carve-turkey-pictures", "isHosted": false, "pillarId": "pillar/lifestyle", "pillarName": "Lifestyle"}, {"id": "global-development/poverty-matters/2011/dec/20/speculative-scrum-driving-food-prices", "type": "article", "sectionId": "global-development", "sectionName": "Global development", "webPublicationDate": "2011-12-20T07:00:00Z", "webTitle": "The speculative scrum driving up food prices | Frederick Kaufman", "webUrl": "https://www.theguardian.com/global-development/poverty-matters/2011/dec/20/speculative-scrum-driving-food-prices", "apiUrl": "https://content.guardianapis.com/global-development/poverty-matters/2011/dec/20/speculative-scrum-driving-food-prices", "isHosted": false, "pillarId": "pillar/news", "pillarName": "News"}, {"id": "lifeandstyle/2011/dec/19/how-make-christmas-preserves", "type": "article", "sectionId": "lifeandstyle", "sectionName": "Life and style", "webPublicationDate": "2011-12-19T15:00:00Z", "webTitle": "How to make Christmas preserves", "webUrl": "https://www.theguardian.com/lifeandstyle/2011/dec/19/how-make-christmas-preserves", "apiUrl": "https://content.guardianapis.com/lifeandstyle/2011/dec/19/how-make-christmas-preserves", "isHosted": false, "pillarId": "pillar/lifestyle", "pillarName": "Lifestyle"}, {"id": "lifeandstyle/2011/dec/19/christmas-hampers-lowdown", "type": "article", "sectionId": "lifeandstyle", "sectionName": "Life and style", "webPublicationDate": "2011-12-19T11:45:00Z", "webTitle": "Christmas hampers: the lowdown (and the adding-up)", "webUrl": "https://www.theguardian.com/lifeandstyle/2011/dec/19/christmas-hampers-lowdown", "apiUrl": "https://content.guardianapis.com/lifeandstyle/2011/dec/19/christmas-hampers-lowdown", "isHosted": false, "pillarId": "pillar/lifestyle", "pillarName": "Lifestyle"}, {"id": "lifeandstyle/video/2011/dec/19/jose-pizarro-partridge-stew", "type": "video", "sectionId": "lifeandstyle", "sectionName": "Life and style", "webPublicationDate": "2011-12-19T10:00:00Z", "webTitle": "How to cook partridge stew with olives and chorizo - video", "webUrl": "https://www.theguardian.com/lifeandstyle/video/2011/dec/19/jose-pizarro-partridge-stew", "apiUrl": "https://content.guardianapis.com/lifeandstyle/video/2011/dec/19/jose-pizarro-partridge-stew", "isHosted": false, "pillarId": "pillar/lifestyle", "pillarName": "Lifestyle"}, {"id": "lifeandstyle/2011/dec/19/partridge-with-chorizo-recipe", "type": "article", "sectionId": "food", "sectionName": "Food", "webPublicationDate": "2011-12-19T10:00:00Z", "webTitle": "Partridge with chorizo recipe", "webUrl": "https://www.theguardian.com/lifeandstyle/2011/dec/19/partridge-with-chorizo-recipe", "apiUrl": "https://content.guardianapis.com/lifeandstyle/2011/dec/19/partridge-with-chorizo-recipe", "isHosted": false, "pillarId": "pillar/lifestyle", "pillarName": "Lifestyle"}, {"id": "lifeandstyle/wordofmouth/2011/dec/19/christmas-hampers", "type": "article", "sectionId": "lifeandstyle", "sectionName": "Life and style", "webPublicationDate": "2011-12-19T10:00:00Z", "webTitle": "Christmas hampers and their wicker ways", "webUrl": "https://www.theguardian.com/lifeandstyle/wordofmouth/2011/dec/19/christmas-hampers", "apiUrl": "https://content.guardianapis.com/lifeandstyle/wordofmouth/2011/dec/19/christmas-hampers", "isHosted": false, "pillarId": "pillar/lifestyle", "pillarName": "Lifestyle"}, {"id": "travel/2011/dec/19/travelfoodanddrink-food-and-drink", "type": "article", "sectionId": "travel", "sectionName": "Travel", "webPublicationDate": "2011-12-19T09:17:51Z", "webTitle": "Readers' tips: festive food and drink", "webUrl": "https://www.theguardian.com/travel/2011/dec/19/travelfoodanddrink-food-and-drink", "apiUrl": "https://content.guardianapis.com/travel/2011/dec/19/travelfoodanddrink-food-and-drink", "isHosted": false, "pillarId": "pillar/lifestyle", "pillarName": "Lifestyle"}, {"id": "commentisfree/2011/dec/19/preserved-lemons-through-winter", "type": "article", "sectionId": "commentisfree", "sectionName": "Opinion", "webPublicationDate": "2011-12-19T08:00:03Z", "webTitle": "The secret to surviving winter? Preserved lemons | Julian Glover", "webUrl": "https://www.theguardian.com/commentisfree/2011/dec/19/preserved-lemons-through-winter", "apiUrl": "https://content.guardianapis.com/commentisfree/2011/dec/19/preserved-lemons-through-winter", "isHosted": false, "pillarId": "pillar/opinion", "pillarName": "Opinion"}, {"id": "commentisfree/2011/dec/18/in-praise-of-porridge", "type": "article", "sectionId": "commentisfree", "sectionName": "Opinion", "webPublicationDate": "2011-12-18T22:48:37Z", "webTitle": "In praise of \u2026 porridge | Editorial", "webUrl": "https://www.theguardian.com/commentisfree/2011/dec/18/in-praise-of-porridge", "apiUrl": "https://content.guardianapis.com/commentisfree/2011/dec/18/in-praise-of-porridge", "isHosted": false, "pillarId": "pillar/opinion", "pillarName": "Opinion"}, {"id": "commentisfree/2011/dec/18/celebrity-cookbook-recession-proof", "type": "article", "sectionId": "commentisfree", "sectionName": "Opinion", "webPublicationDate": "2011-12-18T22:30:03Z", "webTitle": "A culinary nativity with Jamie, Hugh and Lorraine | Joe Moran", "webUrl": "https://www.theguardian.com/commentisfree/2011/dec/18/celebrity-cookbook-recession-proof", "apiUrl": "https://content.guardianapis.com/commentisfree/2011/dec/18/celebrity-cookbook-recession-proof", "isHosted": false, "pillarId": "pillar/opinion", "pillarName": "Opinion"}, {"id": "commentisfree/2011/dec/18/no-butter-norway-swedes-enjoy", "type": "article", "sectionId": "commentisfree", "sectionName": "Opinion", "webPublicationDate": "2011-12-18T16:00:00Z", "webTitle": "No butter in Norway? Swedes will enjoy Christmas even more | Karin Olsson", "webUrl": "https://www.theguardian.com/commentisfree/2011/dec/18/no-butter-norway-swedes-enjoy", "apiUrl": "https://content.guardianapis.com/commentisfree/2011/dec/18/no-butter-norway-swedes-enjoy", "isHosted": false, "pillarId": "pillar/opinion", "pillarName": "Opinion"}, {"id": "lifeandstyle/2011/dec/18/jay-rayner-aurelia-restaurant-review", "type": "article", "sectionId": "food", "sectionName": "Food", "webPublicationDate": "2011-12-18T00:07:02Z", "webTitle": "Restaurant review: Aurelia", "webUrl": "https://www.theguardian.com/lifeandstyle/2011/dec/18/jay-rayner-aurelia-restaurant-review", "apiUrl": "https://content.guardianapis.com/lifeandstyle/2011/dec/18/jay-rayner-aurelia-restaurant-review", "isHosted": false, "pillarId": "pillar/lifestyle", "pillarName": "Lifestyle"}, {"id": "world/2011/dec/18/fortnum-mason-foie-gras-protest", "type": "article", "sectionId": "world", "sectionName": "World news", "webPublicationDate": "2011-12-18T00:06:23Z", "webTitle": "Fortnum and Mason faces celebrity battle over its sale of 'cruel' foie gras", "webUrl": "https://www.theguardian.com/world/2011/dec/18/fortnum-mason-foie-gras-protest", "apiUrl": "https://content.guardianapis.com/world/2011/dec/18/fortnum-mason-foie-gras-protest", "isHosted": false, "pillarId": "pillar/news", "pillarName": "News"}, {"id": "lifeandstyle/2011/dec/18/giant-lobster-seafood-christmas-dinner", "type": "article", "sectionId": "lifeandstyle", "sectionName": "Life and style", "webPublicationDate": "2011-12-18T00:06:00Z", "webTitle": "Seafood in vogue at Christmas as diners seek taste adventure", "webUrl": "https://www.theguardian.com/lifeandstyle/2011/dec/18/giant-lobster-seafood-christmas-dinner", "apiUrl": "https://content.guardianapis.com/lifeandstyle/2011/dec/18/giant-lobster-seafood-christmas-dinner", "isHosted": false, "pillarId": "pillar/lifestyle", "pillarName": "Lifestyle"}, {"id": "lifeandstyle/2011/dec/18/david-williams-wines-of-the-week", "type": "article", "sectionId": "food", "sectionName": "Food", "webPublicationDate": "2011-12-18T00:05:19Z", "webTitle": "Wines of the week: David Williams", "webUrl": "https://www.theguardian.com/lifeandstyle/2011/dec/18/david-williams-wines-of-the-week", "apiUrl": "https://content.guardianapis.com/lifeandstyle/2011/dec/18/david-williams-wines-of-the-week", "isHosted": false, "pillarId": "pillar/lifestyle", "pillarName": "Lifestyle"}, {"id": "lifeandstyle/gallery/2011/dec/17/last-christmas-gift-food-drink", "type": "gallery", "sectionId": "lifeandstyle", "sectionName": "Life and style", "webPublicationDate": "2011-12-17T00:06:00Z", "webTitle": "Last-minute Christmas gifts: food and drink", "webUrl": "https://www.theguardian.com/lifeandstyle/gallery/2011/dec/17/last-christmas-gift-food-drink", "apiUrl": "https://content.guardianapis.com/lifeandstyle/gallery/2011/dec/17/last-christmas-gift-food-drink", "isHosted": false, "pillarId": "pillar/lifestyle", "pillarName": "Lifestyle"}]}}