{"response": {"status": "ok", "userTier": "developer", "total": 84180, "startIndex": 1, "pageSize": 50, "currentPage": 1, "pages": 1684, "orderBy": "newest", "results": [{"id": "football/2010/dec/30/roy-hodgson-liverpool-fans-owners", "type": "article", "sectionId": "football", "sectionName": "Football", "webPublicationDate": "2010-12-30T21:59:33Z", "webTitle": "Roy Hodgson in peril as anger of Liverpool fans alarms owners", "webUrl": "https://www.theguardian.com/football/2010/dec/30/roy-hodgson-liverpool-fans-owners", "apiUrl": "https://content.guardianapis.com/football/2010/dec/30/roy-hodgson-liverpool-fans-owners", "isHosted": false, "pillarId": "pillar/sport", "pillarName": "Sport"}, {"id": "football/2010/dec/30/chelsea-david-luiz-benfica", "type": "article", "sectionId": "football", "sectionName": "Football", "webPublicationDate": "2010-12-30T20:52:55Z", "webTitle": "Chelsea's \u00a317m bid for defender David Luiz is rejected by Benfica", "webUrl": "https://www.theguardian.com/football/2010/dec/30/chelsea-david-luiz-benfica", "apiUrl": "https://content.guardianapis.com/football/2010/dec/30/chelsea-david-luiz-benfica", "isHosted": false, "pillarId": "pillar/sport", "pillarName": "Sport"}, {"id": "football/2010/dec/30/scott-parker-west-ham-wolves", "type": "article", "sectionId": "football", "sectionName": "Football", "webPublicationDate": "2010-12-30T18:37:00Z", "webTitle": "Scott Parker says West Ham's fate hinges on result at Wolves", "webUrl": "https://www.theguardian.com/football/2010/dec/30/scott-parker-west-ham-wolves", "apiUrl": "https://content.guardianapis.com/football/2010/dec/30/scott-parker-west-ham-wolves", "isHosted": false, "pillarId": "pillar/sport", "pillarName": "Sport"}, {"id": "football/2010/dec/30/avi-cohen-obituary", "type": "article", "sectionId": "football", "sectionName": "Football", "webPublicationDate": "2010-12-30T18:30:13Z", "webTitle": "Avi Cohen obituary", "webUrl": "https://www.theguardian.com/football/2010/dec/30/avi-cohen-obituary", "apiUrl": "https://content.guardianapis.com/football/2010/dec/30/avi-cohen-obituary", "isHosted": false, "pillarId": "pillar/sport", "pillarName": "Sport"}, {"id": "football/2010/dec/30/sir-alex-ferguson-darren-preston", "type": "article", "sectionId": "football", "sectionName": "Football", "webPublicationDate": "2010-12-30T18:02:00Z", "webTitle": "Miffed Sir Alex Ferguson recalls two United players from Preston", "webUrl": "https://www.theguardian.com/football/2010/dec/30/sir-alex-ferguson-darren-preston", "apiUrl": "https://content.guardianapis.com/football/2010/dec/30/sir-alex-ferguson-darren-preston", "isHosted": false, "pillarId": "pillar/sport", "pillarName": "Sport"}, {"id": "football/blog/2010/dec/30/liverpool-roy-hodgson", "type": "article", "sectionId": "football", "sectionName": "Football", "webPublicationDate": "2010-12-30T17:44:23Z", "webTitle": "Liverpool's gold standard has been debased by army of tin soldiers | Paul Hayward", "webUrl": "https://www.theguardian.com/football/blog/2010/dec/30/liverpool-roy-hodgson", "apiUrl": "https://content.guardianapis.com/football/blog/2010/dec/30/liverpool-roy-hodgson", "isHosted": false, "pillarId": "pillar/sport", "pillarName": "Sport"}, {"id": "football/2010/dec/30/mark-hughes-christopher-samba-blackburn-fulham", "type": "article", "sectionId": "football", "sectionName": "Football", "webPublicationDate": "2010-12-30T16:24:23Z", "webTitle": "Mark Hughes hopes to lure Christopher Samba from Blackburn to Fulham", "webUrl": "https://www.theguardian.com/football/2010/dec/30/mark-hughes-christopher-samba-blackburn-fulham", "apiUrl": "https://content.guardianapis.com/football/2010/dec/30/mark-hughes-christopher-samba-blackburn-fulham", "isHosted": false, "pillarId": "pillar/sport", "pillarName": "Sport"}, {"id": "sport/gallery/2010/dec/30/tom-jenkins-best-shots-2010", "type": "gallery", "sectionId": "sport", "sectionName": "Sport", "webPublicationDate": "2010-12-30T15:58:55Z", "webTitle": "In pictures: Tom Jenkins's best shots of 2010", "webUrl": "https://www.theguardian.com/sport/gallery/2010/dec/30/tom-jenkins-best-shots-2010", "apiUrl": "https://content.guardianapis.com/sport/gallery/2010/dec/30/tom-jenkins-best-shots-2010", "isHosted": false, "pillarId": "pillar/sport", "pillarName": "Sport"}, {"id": "football/audio/2010/dec/30/football-weekly", "type": "audio", "sectionId": "football", "sectionName": "Football", "webPublicationDate": "2010-12-30T15:55:01Z", "webTitle": "Football Weekly Extra: Roy Hodgson's woes", "webUrl": "https://www.theguardian.com/football/audio/2010/dec/30/football-weekly", "apiUrl": "https://content.guardianapis.com/football/audio/2010/dec/30/football-weekly", "isHosted": false, "pillarId": "pillar/sport", "pillarName": "Sport"}, {"id": "football/video/2010/dec/30/manchester-city-brian-kidd-roberto-mancini-mario-balotelli", "type": "video", "sectionId": "football", "sectionName": "Football", "webPublicationDate": "2010-12-30T15:35:00Z", "webTitle": "Brian Kidd claims players empathise with homesick Mario Balotelli", "webUrl": "https://www.theguardian.com/football/video/2010/dec/30/manchester-city-brian-kidd-roberto-mancini-mario-balotelli", "apiUrl": "https://content.guardianapis.com/football/video/2010/dec/30/manchester-city-brian-kidd-roberto-mancini-mario-balotelli", "isHosted": false, "pillarId": "pillar/sport", "pillarName": "Sport"}, {"id": "football/2010/dec/30/liverpool-fans-react-roy-hodgson", "type": "article", "sectionId": "football", "sectionName": "Football", "webPublicationDate": "2010-12-30T14:07:03Z", "webTitle": "'Roy Hodgson outburst is the straw that broke the camel's back'", "webUrl": "https://www.theguardian.com/football/2010/dec/30/liverpool-fans-react-roy-hodgson", "apiUrl": "https://content.guardianapis.com/football/2010/dec/30/liverpool-fans-react-roy-hodgson", "isHosted": false, "pillarId": "pillar/sport", "pillarName": "Sport"}, {"id": "football/2010/dec/30/sam-allardyce-burnley-preston", "type": "article", "sectionId": "football", "sectionName": "Football", "webPublicationDate": "2010-12-30T12:49:38Z", "webTitle": "Sam Allardyce rules himself out of Burnley and Preston jobs", "webUrl": "https://www.theguardian.com/football/2010/dec/30/sam-allardyce-burnley-preston", "apiUrl": "https://content.guardianapis.com/football/2010/dec/30/sam-allardyce-burnley-preston", "isHosted": false, "pillarId": "pillar/sport", "pillarName": "Sport"}, {"id": "football/blog/2010/dec/30/five-things-learned-premier-league", "type": "article", "sectionId": "football", "sectionName": "Football", "webPublicationDate": "2010-12-30T12:42:21Z", "webTitle": "Five things we learned from watching the Premier League this week", "webUrl": "https://www.theguardian.com/football/blog/2010/dec/30/five-things-learned-premier-league", "apiUrl": "https://content.guardianapis.com/football/blog/2010/dec/30/five-things-learned-premier-league", "isHosted": false, "pillarId": "pillar/sport", "pillarName": "Sport"}, {"id": "football/2010/dec/30/roy-hodgson-daniel-agger", "type": "article", "sectionId": "football", "sectionName": "Football", "webPublicationDate": "2010-12-30T12:30:34Z", "webTitle": "Roy Hodgson denies that Liverpool's Daniel Agger is up for sale", "webUrl": "https://www.theguardian.com/football/2010/dec/30/roy-hodgson-daniel-agger", "apiUrl": "https://content.guardianapis.com/football/2010/dec/30/roy-hodgson-daniel-agger", "isHosted": false, "pillarId": "pillar/sport", "pillarName": "Sport"}, {"id": "football/2010/dec/30/rumour-mill-beckham-spurs", "type": "article", "sectionId": "football", "sectionName": "Football", "webPublicationDate": "2010-12-30T09:31:54Z", "webTitle": "Football transfer rumours: David Beckham to Spurs?", "webUrl": "https://www.theguardian.com/football/2010/dec/30/rumour-mill-beckham-spurs", "apiUrl": "https://content.guardianapis.com/football/2010/dec/30/rumour-mill-beckham-spurs", "isHosted": false, "pillarId": "pillar/sport", "pillarName": "Sport"}, {"id": "football/2010/dec/30/liverpool-roy-hodgson-support", "type": "article", "sectionId": "football", "sectionName": "Football", "webPublicationDate": "2010-12-30T00:34:02Z", "webTitle": "Roy Hodgson laments lack of 'famous support' at Liverpool", "webUrl": "https://www.theguardian.com/football/2010/dec/30/liverpool-roy-hodgson-support", "apiUrl": "https://content.guardianapis.com/football/2010/dec/30/liverpool-roy-hodgson-support", "isHosted": false, "pillarId": "pillar/sport", "pillarName": "Sport"}, {"id": "football/gallery/2010/dec/29/premierleague-arsenal", "type": "gallery", "sectionId": "football", "sectionName": "Football", "webPublicationDate": "2010-12-30T00:04:57Z", "webTitle": "In pictures - Wednesday night's Premier League action", "webUrl": "https://www.theguardian.com/football/gallery/2010/dec/29/premierleague-arsenal", "apiUrl": "https://content.guardianapis.com/football/gallery/2010/dec/29/premierleague-arsenal", "isHosted": false, "pillarId": "pillar/sport", "pillarName": "Sport"}, {"id": "football/2010/dec/29/nottingham-forest-derby-county-championship", "type": "article", "sectionId": "football", "sectionName": "Football", "webPublicationDate": "2010-12-29T23:16:05Z", "webTitle": "Nottingham Forest 5-2 Derby County | Championship match report", "webUrl": "https://www.theguardian.com/football/2010/dec/29/nottingham-forest-derby-county-championship", "apiUrl": "https://content.guardianapis.com/football/2010/dec/29/nottingham-forest-derby-county-championship", "isHosted": false, "pillarId": "pillar/sport", "pillarName": "Sport"}, {"id": "football/2010/dec/29/tottenham-title-gareth-bale", "type": "article", "sectionId": "football", "sectionName": "Football", "webPublicationDate": "2010-12-29T22:30:00Z", "webTitle": "Tottenham are now 'serious title contenders', claims Gareth Bale", "webUrl": "https://www.theguardian.com/football/2010/dec/29/tottenham-title-gareth-bale", "apiUrl": "https://content.guardianapis.com/football/2010/dec/29/tottenham-title-gareth-bale", "isHosted": false, "pillarId": "pillar/sport", "pillarName": "Sport"}, {"id": "football/2010/dec/29/celtic-motherwell-scottish-premier-league", "type": "article", "sectionId": "football", "sectionName": "Football", "webPublicationDate": "2010-12-29T22:05:37Z", "webTitle": "Celtic 1-0 Motherwell | Scottish Premier League match report", "webUrl": "https://www.theguardian.com/football/2010/dec/29/celtic-motherwell-scottish-premier-league", "apiUrl": "https://content.guardianapis.com/football/2010/dec/29/celtic-motherwell-scottish-premier-league", "isHosted": false, "pillarId": "pillar/sport", "pillarName": "Sport"}, {"id": "football/2010/dec/29/liverpool-wolverhampton-wanderers-premier-league", "type": "article", "sectionId": "football", "sectionName": "Football", "webPublicationDate": "2010-12-29T22:05:11Z", "webTitle": "Liverpool 0-1 Wolverhampton Wanderers | Premier League match report", "webUrl": "https://www.theguardian.com/football/2010/dec/29/liverpool-wolverhampton-wanderers-premier-league", "apiUrl": "https://content.guardianapis.com/football/2010/dec/29/liverpool-wolverhampton-wanderers-premier-league", "isHosted": false, "pillarId": "pillar/sport", "pillarName": "Sport"}, {"id": "football/2010/dec/29/wigan-athletic-arsenal-premier-league", "type": "article", "sectionId": "football", "sectionName": "Football", "webPublicationDate": "2010-12-29T22:04:30Z", "webTitle": "Wigan Athletic 2-2 Arsenal | Premier League match report", "webUrl": "https://www.theguardian.com/football/2010/dec/29/wigan-athletic-arsenal-premier-league", "apiUrl": "https://content.guardianapis.com/football/2010/dec/29/wigan-athletic-arsenal-premier-league", "isHosted": false, "pillarId": "pillar/sport", "pillarName": "Sport"}, {"id": "football/2010/dec/29/chelsea-bolton-wanderers-premier-league", "type": "article", "sectionId": "football", "sectionName": "Football", "webPublicationDate": "2010-12-29T21:56:53Z", "webTitle": "Chelsea 1-0 Bolton Wanderers | Premier League match report", "webUrl": "https://www.theguardian.com/football/2010/dec/29/chelsea-bolton-wanderers-premier-league", "apiUrl": "https://content.guardianapis.com/football/2010/dec/29/chelsea-bolton-wanderers-premier-league", "isHosted": false, "pillarId": "pillar/sport", "pillarName": "Sport"}, {"id": "football/2010/dec/29/phil-brown-brian-laws-burnley", "type": "article", "sectionId": "football", "sectionName": "Football", "webPublicationDate": "2010-12-29T20:27:33Z", "webTitle": "Phil Brown in pole position to replace sacked Brian Laws at Burnley", "webUrl": "https://www.theguardian.com/football/2010/dec/29/phil-brown-brian-laws-burnley", "apiUrl": "https://content.guardianapis.com/football/2010/dec/29/phil-brown-brian-laws-burnley", "isHosted": false, "pillarId": "pillar/sport", "pillarName": "Sport"}, {"id": "football/2010/dec/29/manchester-united-premier-league", "type": "article", "sectionId": "football", "sectionName": "Football", "webPublicationDate": "2010-12-29T19:08:56Z", "webTitle": "Home form enough to win title for Manchester United, says Alex McLeish", "webUrl": "https://www.theguardian.com/football/2010/dec/29/manchester-united-premier-league", "apiUrl": "https://content.guardianapis.com/football/2010/dec/29/manchester-united-premier-league", "isHosted": false, "pillarId": "pillar/sport", "pillarName": "Sport"}, {"id": "football/2010/dec/29/premier-league-liverpool-wolves-live", "type": "article", "sectionId": "football", "sectionName": "Football", "webPublicationDate": "2010-12-29T19:04:42Z", "webTitle": "Liverpool v Wolves \u2013 as it happened | Paolo Bandini", "webUrl": "https://www.theguardian.com/football/2010/dec/29/premier-league-liverpool-wolves-live", "apiUrl": "https://content.guardianapis.com/football/2010/dec/29/premier-league-liverpool-wolves-live", "isHosted": false, "pillarId": "pillar/sport", "pillarName": "Sport"}, {"id": "sport/2010/dec/29/sporting-deaths-2010", "type": "article", "sectionId": "sport", "sectionName": "Sport", "webPublicationDate": "2010-12-29T18:55:16Z", "webTitle": "Sporting deaths in 2010: 'The greatest coach this country ever had'", "webUrl": "https://www.theguardian.com/sport/2010/dec/29/sporting-deaths-2010", "apiUrl": "https://content.guardianapis.com/sport/2010/dec/29/sporting-deaths-2010", "isHosted": false, "pillarId": "pillar/sport", "pillarName": "Sport"}, {"id": "football/2010/dec/29/avram-grant-west-ham-job-safe", "type": "article", "sectionId": "football", "sectionName": "Football", "webPublicationDate": "2010-12-29T18:49:00Z", "webTitle": "West Ham's three-match unbeaten run ensures Avram Grant's job is safe", "webUrl": "https://www.theguardian.com/football/2010/dec/29/avram-grant-west-ham-job-safe", "apiUrl": "https://content.guardianapis.com/football/2010/dec/29/avram-grant-west-ham-job-safe", "isHosted": false, "pillarId": "pillar/sport", "pillarName": "Sport"}, {"id": "football/2010/dec/29/everton-yakubu-west-ham-transfer", "type": "article", "sectionId": "football", "sectionName": "Football", "webPublicationDate": "2010-12-29T18:17:00Z", "webTitle": "Everton valuation of Yakubu Ayegbeni scuppers West Ham move", "webUrl": "https://www.theguardian.com/football/2010/dec/29/everton-yakubu-west-ham-transfer", "apiUrl": "https://content.guardianapis.com/football/2010/dec/29/everton-yakubu-west-ham-transfer", "isHosted": false, "pillarId": "pillar/sport", "pillarName": "Sport"}, {"id": "football/2010/dec/29/burnley-brian-laws", "type": "article", "sectionId": "football", "sectionName": "Football", "webPublicationDate": "2010-12-29T16:18:00Z", "webTitle": "Burnley part company with manager Brian Laws", "webUrl": "https://www.theguardian.com/football/2010/dec/29/burnley-brian-laws", "apiUrl": "https://content.guardianapis.com/football/2010/dec/29/burnley-brian-laws", "isHosted": false, "pillarId": "pillar/sport", "pillarName": "Sport"}, {"id": "football/football-league-blog/2010/dec/29/brian-laws-burnley-who-next", "type": "article", "sectionId": "football", "sectionName": "Football", "webPublicationDate": "2010-12-29T16:07:46Z", "webTitle": "The Brian Laws experiment: was it always doomed to fail at Burnley? | James Dart", "webUrl": "https://www.theguardian.com/football/football-league-blog/2010/dec/29/brian-laws-burnley-who-next", "apiUrl": "https://content.guardianapis.com/football/football-league-blog/2010/dec/29/brian-laws-burnley-who-next", "isHosted": false, "pillarId": "pillar/sport", "pillarName": "Sport"}, {"id": "football/2010/dec/29/carlo-ancelotti-chelsea-backing", "type": "article", "sectionId": "football", "sectionName": "Football", "webPublicationDate": "2010-12-29T11:32:34Z", "webTitle": "Carlo Ancelotti gets Chelsea backing despite miserable run", "webUrl": "https://www.theguardian.com/football/2010/dec/29/carlo-ancelotti-chelsea-backing", "apiUrl": "https://content.guardianapis.com/football/2010/dec/29/carlo-ancelotti-chelsea-backing", "isHosted": false, "pillarId": "pillar/sport", "pillarName": "Sport"}, {"id": "football/2010/dec/29/transfer-rumours-robbie-keane-wolves", "type": "article", "sectionId": "football", "sectionName": "Football", "webPublicationDate": "2010-12-29T09:19:03Z", "webTitle": "Football transfer rumours: Robbie Keane to Wolves?", "webUrl": "https://www.theguardian.com/football/2010/dec/29/transfer-rumours-robbie-keane-wolves", "apiUrl": "https://content.guardianapis.com/football/2010/dec/29/transfer-rumours-robbie-keane-wolves", "isHosted": false, "pillarId": "pillar/sport", "pillarName": "Sport"}, {"id": "football/2010/dec/29/alex-ferguson-manchester-united-foul", "type": "article", "sectionId": "football", "sectionName": "Football", "webPublicationDate": "2010-12-29T00:28:01Z", "webTitle": "Sir Alex Ferguson cries foul after controversial strike costs United", "webUrl": "https://www.theguardian.com/football/2010/dec/29/alex-ferguson-manchester-united-foul", "apiUrl": "https://content.guardianapis.com/football/2010/dec/29/alex-ferguson-manchester-united-foul", "isHosted": false, "pillarId": "pillar/sport", "pillarName": "Sport"}, {"id": "football/2010/dec/29/roberto-mancini-mario-balotelli-manchester-city", "type": "article", "sectionId": "football", "sectionName": "Football", "webPublicationDate": "2010-12-29T00:14:42Z", "webTitle": "Mario Balotelli is homesick but won't leave City, says Roberto Mancini", "webUrl": "https://www.theguardian.com/football/2010/dec/29/roberto-mancini-mario-balotelli-manchester-city", "apiUrl": "https://content.guardianapis.com/football/2010/dec/29/roberto-mancini-mario-balotelli-manchester-city", "isHosted": false, "pillarId": "pillar/sport", "pillarName": "Sport"}, {"id": "football/2010/dec/29/wolves-liverpool-mick-mccarthy", "type": "article", "sectionId": "football", "sectionName": "Football", "webPublicationDate": "2010-12-29T00:06:01Z", "webTitle": "Wolves don't need sympathy for relegation fight, says Mick McCarthy", "webUrl": "https://www.theguardian.com/football/2010/dec/29/wolves-liverpool-mick-mccarthy", "apiUrl": "https://content.guardianapis.com/football/2010/dec/29/wolves-liverpool-mick-mccarthy", "isHosted": false, "pillarId": "pillar/sport", "pillarName": "Sport"}, {"id": "football/2010/dec/28/theo-walcott-arsenal-wigan", "type": "article", "sectionId": "football", "sectionName": "Football", "webPublicationDate": "2010-12-28T22:31:01Z", "webTitle": "Theo Walcott urges Arsenal to forget win over Chelsea as Wigan beckon", "webUrl": "https://www.theguardian.com/football/2010/dec/28/theo-walcott-arsenal-wigan", "apiUrl": "https://content.guardianapis.com/football/2010/dec/28/theo-walcott-arsenal-wigan", "isHosted": false, "pillarId": "pillar/sport", "pillarName": "Sport"}, {"id": "football/2010/dec/28/birmingham-city-manchester-united-premier-league", "type": "article", "sectionId": "football", "sectionName": "Football", "webPublicationDate": "2010-12-28T22:04:39Z", "webTitle": "Birmingham City 1-1 Manchester United | Premier League match report", "webUrl": "https://www.theguardian.com/football/2010/dec/28/birmingham-city-manchester-united-premier-league", "apiUrl": "https://content.guardianapis.com/football/2010/dec/28/birmingham-city-manchester-united-premier-league", "isHosted": false, "pillarId": "pillar/sport", "pillarName": "Sport"}, {"id": "football/2010/dec/28/west-ham-united-everton-premier-league", "type": "article", "sectionId": "football", "sectionName": "Football", "webPublicationDate": "2010-12-28T21:22:00Z", "webTitle": "West Ham United 1-1 Everton | Premier League match report", "webUrl": "https://www.theguardian.com/football/2010/dec/28/west-ham-united-everton-premier-league", "apiUrl": "https://content.guardianapis.com/football/2010/dec/28/west-ham-united-everton-premier-league", "isHosted": false, "pillarId": "pillar/sport", "pillarName": "Sport"}, {"id": "football/2010/dec/28/tottenham-hotspur-newcastle-united-premier-league", "type": "article", "sectionId": "football", "sectionName": "Football", "webPublicationDate": "2010-12-28T21:12:00Z", "webTitle": "Tottenham Hotspur 2-0 Newcastle United | Premier League match report", "webUrl": "https://www.theguardian.com/football/2010/dec/28/tottenham-hotspur-newcastle-united-premier-league", "apiUrl": "https://content.guardianapis.com/football/2010/dec/28/tottenham-hotspur-newcastle-united-premier-league", "isHosted": false, "pillarId": "pillar/sport", "pillarName": "Sport"}, {"id": "football/2010/dec/28/west-bromwich-albion-blackburn-rovers-premier-league", "type": "article", "sectionId": "football", "sectionName": "Football", "webPublicationDate": "2010-12-28T21:10:00Z", "webTitle": "West Bromwich Albion 1-3 Blackburn Rovers | Premier League match report", "webUrl": "https://www.theguardian.com/football/2010/dec/28/west-bromwich-albion-blackburn-rovers-premier-league", "apiUrl": "https://content.guardianapis.com/football/2010/dec/28/west-bromwich-albion-blackburn-rovers-premier-league", "isHosted": false, "pillarId": "pillar/sport", "pillarName": "Sport"}, {"id": "football/2010/dec/28/sunderland-blackpool-premier-league-match-report", "type": "article", "sectionId": "football", "sectionName": "Football", "webPublicationDate": "2010-12-28T21:07:00Z", "webTitle": "Sunderland 0-2 Blackpool | Premier League match report", "webUrl": "https://www.theguardian.com/football/2010/dec/28/sunderland-blackpool-premier-league-match-report", "apiUrl": "https://content.guardianapis.com/football/2010/dec/28/sunderland-blackpool-premier-league-match-report", "isHosted": false, "pillarId": "pillar/sport", "pillarName": "Sport"}, {"id": "football/2010/dec/28/stoke-city-fulham-premier-league", "type": "article", "sectionId": "football", "sectionName": "Football", "webPublicationDate": "2010-12-28T21:05:00Z", "webTitle": "Stoke City 0-2 Fulham | Premier League match report", "webUrl": "https://www.theguardian.com/football/2010/dec/28/stoke-city-fulham-premier-league", "apiUrl": "https://content.guardianapis.com/football/2010/dec/28/stoke-city-fulham-premier-league", "isHosted": false, "pillarId": "pillar/sport", "pillarName": "Sport"}, {"id": "football/gallery/2010/dec/28/premierleague-manchestercity", "type": "gallery", "sectionId": "football", "sectionName": "Football", "webPublicationDate": "2010-12-28T20:02:58Z", "webTitle": "In pictures - Tuesday's Premier League action", "webUrl": "https://www.theguardian.com/football/gallery/2010/dec/28/premierleague-manchestercity", "apiUrl": "https://content.guardianapis.com/football/gallery/2010/dec/28/premierleague-manchestercity", "isHosted": false, "pillarId": "pillar/sport", "pillarName": "Sport"}, {"id": "football/2010/dec/28/premier-league-birmingham-manchester-united", "type": "article", "sectionId": "football", "sectionName": "Football", "webPublicationDate": "2010-12-28T18:55:03Z", "webTitle": "Birmingham City v Manchester United - live!", "webUrl": "https://www.theguardian.com/football/2010/dec/28/premier-league-birmingham-manchester-united", "apiUrl": "https://content.guardianapis.com/football/2010/dec/28/premier-league-birmingham-manchester-united", "isHosted": false, "pillarId": "pillar/sport", "pillarName": "Sport"}, {"id": "world/2010/dec/28/colombia-football-drug-cartels", "type": "article", "sectionId": "world", "sectionName": "World news", "webPublicationDate": "2010-12-28T18:32:08Z", "webTitle": "Colombian football seeks to escape grip of drug cartels", "webUrl": "https://www.theguardian.com/world/2010/dec/28/colombia-football-drug-cartels", "apiUrl": "https://content.guardianapis.com/world/2010/dec/28/colombia-football-drug-cartels", "isHosted": false, "pillarId": "pillar/news", "pillarName": "News"}, {"id": "football/2010/dec/28/ralph-coates-obituary", "type": "article", "sectionId": "football", "sectionName": "Football", "webPublicationDate": "2010-12-28T18:25:16Z", "webTitle": "Ralph Coates obituary", "webUrl": "https://www.theguardian.com/football/2010/dec/28/ralph-coates-obituary", "apiUrl": "https://content.guardianapis.com/football/2010/dec/28/ralph-coates-obituary", "isHosted": false, "pillarId": "pillar/sport", "pillarName": "Sport"}, {"id": "football/2010/dec/28/manchester-city-aston-villa-premier-league", "type": "article", "sectionId": "football", "sectionName": "Football", "webPublicationDate": "2010-12-28T16:56:32Z", "webTitle": "Manchester City 4-0 Aston Villa | Premier League match report", "webUrl": "https://www.theguardian.com/football/2010/dec/28/manchester-city-aston-villa-premier-league", "apiUrl": "https://content.guardianapis.com/football/2010/dec/28/manchester-city-aston-villa-premier-league", "isHosted": false, "pillarId": "pillar/sport", "pillarName": "Sport"}, {"id": "football/2010/dec/28/premier-league-west-ham-everton-live", "type": "article", "sectionId": "football", "sectionName": "Football", "webPublicationDate": "2010-12-28T16:55:32Z", "webTitle": "West Ham v Everton - as it happened! | John Ashdown", "webUrl": "https://www.theguardian.com/football/2010/dec/28/premier-league-west-ham-everton-live", "apiUrl": "https://content.guardianapis.com/football/2010/dec/28/premier-league-west-ham-everton-live", "isHosted": false, "pillarId": "pillar/sport", "pillarName": "Sport"}, {"id": "football/gallery/2010/dec/28/in-pictures-arsenal-chelsea", "type": "gallery", "sectionId": "football", "sectionName": "Football", "webPublicationDate": "2010-12-28T14:35:10Z", "webTitle": "In pictures - Arsenal v Chelsea", "webUrl": "https://www.theguardian.com/football/gallery/2010/dec/28/in-pictures-arsenal-chelsea", "apiUrl": "https://content.guardianapis.com/football/gallery/2010/dec/28/in-pictures-arsenal-chelsea", "isHosted": false, "pillarId": "pillar/sport", "pillarName": "Sport"}]}}