{"response": {"status": "ok", "userTier": "developer", "total": 87755, "startIndex": 1, "pageSize": 50, "currentPage": 1, "pages": 1756, "orderBy": "newest", "results": [{"id": "football/2012/dec/30/everton-chelsea-premier-league-report", "type": "article", "sectionId": "football", "sectionName": "Football", "webPublicationDate": "2012-12-30T23:54:00Z", "webTitle": "Everton 1-2 Chelsea | Premier League match report", "webUrl": "https://www.theguardian.com/football/2012/dec/30/everton-chelsea-premier-league-report", "apiUrl": "https://content.guardianapis.com/football/2012/dec/30/everton-chelsea-premier-league-report", "isHosted": false, "pillarId": "pillar/sport", "pillarName": "Sport"}, {"id": "football/2012/dec/30/week-ahead-muddy-romance-fa-cup", "type": "article", "sectionId": "football", "sectionName": "Football", "webPublicationDate": "2012-12-30T23:12:00Z", "webTitle": "Week ahead: our muddy romance with the FA Cup", "webUrl": "https://www.theguardian.com/football/2012/dec/30/week-ahead-muddy-romance-fa-cup", "apiUrl": "https://content.guardianapis.com/football/2012/dec/30/week-ahead-muddy-romance-fa-cup", "isHosted": false, "pillarId": "pillar/sport", "pillarName": "Sport"}, {"id": "football/2012/dec/30/arsenal-newcastle-premier-league-report", "type": "article", "sectionId": "football", "sectionName": "Football", "webPublicationDate": "2012-12-30T23:00:00Z", "webTitle": "Theo Walcott answers critics but Arsenal's striking questions remain", "webUrl": "https://www.theguardian.com/football/2012/dec/30/arsenal-newcastle-premier-league-report", "apiUrl": "https://content.guardianapis.com/football/2012/dec/30/arsenal-newcastle-premier-league-report", "isHosted": false, "pillarId": "pillar/sport", "pillarName": "Sport"}, {"id": "football/2012/dec/30/sunderland-tottenham-hotspur-premier-league-report", "type": "article", "sectionId": "football", "sectionName": "Football", "webPublicationDate": "2012-12-30T23:00:00Z", "webTitle": "Sandro talks up title push after Tottenham swamp Sunderland", "webUrl": "https://www.theguardian.com/football/2012/dec/30/sunderland-tottenham-hotspur-premier-league-report", "apiUrl": "https://content.guardianapis.com/football/2012/dec/30/sunderland-tottenham-hotspur-premier-league-report", "isHosted": false, "pillarId": "pillar/sport", "pillarName": "Sport"}, {"id": "football/2012/dec/30/stoke-southampton-premier-league-report", "type": "article", "sectionId": "football", "sectionName": "Football", "webPublicationDate": "2012-12-30T23:00:00Z", "webTitle": "Stoke City's team spirit means we'll never give up, says Kenwyne Jones", "webUrl": "https://www.theguardian.com/football/2012/dec/30/stoke-southampton-premier-league-report", "apiUrl": "https://content.guardianapis.com/football/2012/dec/30/stoke-southampton-premier-league-report", "isHosted": false, "pillarId": "pillar/sport", "pillarName": "Sport"}, {"id": "football/2012/dec/30/aston-villa-wigan-athletic-report", "type": "article", "sectionId": "football", "sectionName": "Football", "webPublicationDate": "2012-12-30T23:00:00Z", "webTitle": "Paul Lambert sees the light after dark clouds descend on Aston Villa", "webUrl": "https://www.theguardian.com/football/2012/dec/30/aston-villa-wigan-athletic-report", "apiUrl": "https://content.guardianapis.com/football/2012/dec/30/aston-villa-wigan-athletic-report", "isHosted": false, "pillarId": "pillar/sport", "pillarName": "Sport"}, {"id": "football/2012/dec/30/reading-west-ham-premier-league-report", "type": "article", "sectionId": "football", "sectionName": "Football", "webPublicationDate": "2012-12-30T23:00:00Z", "webTitle": "Reading's revival exposes West Ham United to gravity's pull", "webUrl": "https://www.theguardian.com/football/2012/dec/30/reading-west-ham-premier-league-report", "apiUrl": "https://content.guardianapis.com/football/2012/dec/30/reading-west-ham-premier-league-report", "isHosted": false, "pillarId": "pillar/sport", "pillarName": "Sport"}, {"id": "football/2012/dec/30/manchester-united-west-brom-premier-league", "type": "article", "sectionId": "football", "sectionName": "Football", "webPublicationDate": "2012-12-30T23:00:00Z", "webTitle": "Manchester United's clean sheet gives Ferguson an early birthday present", "webUrl": "https://www.theguardian.com/football/2012/dec/30/manchester-united-west-brom-premier-league", "apiUrl": "https://content.guardianapis.com/football/2012/dec/30/manchester-united-west-brom-premier-league", "isHosted": false, "pillarId": "pillar/sport", "pillarName": "Sport"}, {"id": "football/2012/dec/30/norwich-manchester-city-premier-league-report", "type": "article", "sectionId": "football", "sectionName": "Football", "webPublicationDate": "2012-12-30T22:59:00Z", "webTitle": "Roberto Mancini at ease with Manchester City's breached defence", "webUrl": "https://www.theguardian.com/football/2012/dec/30/norwich-manchester-city-premier-league-report", "apiUrl": "https://content.guardianapis.com/football/2012/dec/30/norwich-manchester-city-premier-league-report", "isHosted": false, "pillarId": "pillar/sport", "pillarName": "Sport"}, {"id": "football/blog/2012/dec/30/the-best-goals-of-2012", "type": "article", "sectionId": "football", "sectionName": "Football", "webPublicationDate": "2012-12-30T22:00:00Z", "webTitle": "The best goals of 2012", "webUrl": "https://www.theguardian.com/football/blog/2012/dec/30/the-best-goals-of-2012", "apiUrl": "https://content.guardianapis.com/football/blog/2012/dec/30/the-best-goals-of-2012", "isHosted": false, "pillarId": "pillar/sport", "pillarName": "Sport"}, {"id": "football/2012/dec/30/qpr-harry-redknapp-liverpool", "type": "article", "sectionId": "football", "sectionName": "Football", "webPublicationDate": "2012-12-30T20:16:41Z", "webTitle": "Harry Redknapp backs QPR to survive despite hammering by Liverpool", "webUrl": "https://www.theguardian.com/football/2012/dec/30/qpr-harry-redknapp-liverpool", "apiUrl": "https://content.guardianapis.com/football/2012/dec/30/qpr-harry-redknapp-liverpool", "isHosted": false, "pillarId": "pillar/sport", "pillarName": "Sport"}, {"id": "football/2012/dec/30/qpr-liverpool-premier-league-report", "type": "article", "sectionId": "football", "sectionName": "Football", "webPublicationDate": "2012-12-30T20:13:00Z", "webTitle": "Queens Park Rangers 0-3 Liverpool | Premier League match report", "webUrl": "https://www.theguardian.com/football/2012/dec/30/qpr-liverpool-premier-league-report", "apiUrl": "https://content.guardianapis.com/football/2012/dec/30/qpr-liverpool-premier-league-report", "isHosted": false, "pillarId": "pillar/sport", "pillarName": "Sport"}, {"id": "football/2012/dec/30/qpr-liverpool-live-mbm-report", "type": "liveblog", "sectionId": "football", "sectionName": "Football", "webPublicationDate": "2012-12-30T17:52:00Z", "webTitle": "QPR v Liverpool \u2013 as it happened!", "webUrl": "https://www.theguardian.com/football/2012/dec/30/qpr-liverpool-live-mbm-report", "apiUrl": "https://content.guardianapis.com/football/2012/dec/30/qpr-liverpool-live-mbm-report", "isHosted": false, "pillarId": "pillar/sport", "pillarName": "Sport"}, {"id": "football/blog/2012/dec/30/steven-pienaar-everton-chelsea-michael-cox", "type": "article", "sectionId": "football", "sectionName": "Football", "webPublicationDate": "2012-12-30T17:51:37Z", "webTitle": "Steven Pienaar sparkles then fades as Everton lose to Chelsea | Michael Cox", "webUrl": "https://www.theguardian.com/football/blog/2012/dec/30/steven-pienaar-everton-chelsea-michael-cox", "apiUrl": "https://content.guardianapis.com/football/blog/2012/dec/30/steven-pienaar-everton-chelsea-michael-cox", "isHosted": false, "pillarId": "pillar/sport", "pillarName": "Sport"}, {"id": "football/blog/2012/dec/30/frank-lampard-chelsea", "type": "article", "sectionId": "football", "sectionName": "Football", "webPublicationDate": "2012-12-30T17:39:24Z", "webTitle": "Frank Lampard shows Chelsea his predatory instincts are undimmed | Richard Williams", "webUrl": "https://www.theguardian.com/football/blog/2012/dec/30/frank-lampard-chelsea", "apiUrl": "https://content.guardianapis.com/football/blog/2012/dec/30/frank-lampard-chelsea", "isHosted": false, "pillarId": "pillar/sport", "pillarName": "Sport"}, {"id": "sport/gallery/2012/dec/30/premierleague-qpr", "type": "gallery", "sectionId": "football", "sectionName": "Football", "webPublicationDate": "2012-12-30T16:33:00Z", "webTitle": "Premier League: the best of Sunday's matches \u2013 in pictures", "webUrl": "https://www.theguardian.com/sport/gallery/2012/dec/30/premierleague-qpr", "apiUrl": "https://content.guardianapis.com/sport/gallery/2012/dec/30/premierleague-qpr", "isHosted": false, "pillarId": "pillar/sport", "pillarName": "Sport"}, {"id": "football/2012/dec/30/everton-chelsea-live-mbm-report", "type": "liveblog", "sectionId": "football", "sectionName": "Football", "webPublicationDate": "2012-12-30T15:30:00Z", "webTitle": "Everton v Chelsea \u2013 as it happened | Rob Bagchi", "webUrl": "https://www.theguardian.com/football/2012/dec/30/everton-chelsea-live-mbm-report", "apiUrl": "https://content.guardianapis.com/football/2012/dec/30/everton-chelsea-live-mbm-report", "isHosted": false, "pillarId": "pillar/sport", "pillarName": "Sport"}, {"id": "football/2012/dec/30/nani-manchester-united-rumours-rubbished", "type": "article", "sectionId": "football", "sectionName": "Football", "webPublicationDate": "2012-12-30T10:40:07Z", "webTitle": "Nani Manchester United exit rumours denied by Sir Alex Ferguson", "webUrl": "https://www.theguardian.com/football/2012/dec/30/nani-manchester-united-rumours-rubbished", "apiUrl": "https://content.guardianapis.com/football/2012/dec/30/nani-manchester-united-rumours-rubbished", "isHosted": false, "pillarId": "pillar/sport", "pillarName": "Sport"}, {"id": "commentisfree/2012/dec/30/salute-scottish-2012-heroes", "type": "article", "sectionId": "commentisfree", "sectionName": "Opinion", "webPublicationDate": "2012-12-30T00:06:09Z", "webTitle": "Salute Scotland's great and good of 2012 | Kevin McKenna", "webUrl": "https://www.theguardian.com/commentisfree/2012/dec/30/salute-scottish-2012-heroes", "apiUrl": "https://content.guardianapis.com/commentisfree/2012/dec/30/salute-scottish-2012-heroes", "isHosted": false, "pillarId": "pillar/opinion", "pillarName": "Opinion"}, {"id": "football/2012/dec/29/championship-roundup-middlesbrough-blackpool", "type": "article", "sectionId": "football", "sectionName": "Football", "webPublicationDate": "2012-12-29T23:27:52Z", "webTitle": "Championship roundup: Middlesbrough hold their nerve", "webUrl": "https://www.theguardian.com/football/2012/dec/29/championship-roundup-middlesbrough-blackpool", "apiUrl": "https://content.guardianapis.com/football/2012/dec/29/championship-roundup-middlesbrough-blackpool", "isHosted": false, "pillarId": "pillar/sport", "pillarName": "Sport"}, {"id": "football/2012/dec/29/saturday-sundae", "type": "article", "sectionId": "football", "sectionName": "Football", "webPublicationDate": "2012-12-29T23:18:41Z", "webTitle": "Saturday Sundae: Theo Walcott stars in his favoured central role", "webUrl": "https://www.theguardian.com/football/2012/dec/29/saturday-sundae", "apiUrl": "https://content.guardianapis.com/football/2012/dec/29/saturday-sundae", "isHosted": false, "pillarId": "pillar/sport", "pillarName": "Sport"}, {"id": "football/2012/dec/29/david-moyes-everton-starstruck-europe", "type": "article", "sectionId": "football", "sectionName": "Football", "webPublicationDate": "2012-12-29T23:00:01Z", "webTitle": "David Moyes keen to be starstruck again as Everton pursue Euro dream", "webUrl": "https://www.theguardian.com/football/2012/dec/29/david-moyes-everton-starstruck-europe", "apiUrl": "https://content.guardianapis.com/football/2012/dec/29/david-moyes-everton-starstruck-europe", "isHosted": false, "pillarId": "pillar/sport", "pillarName": "Sport"}, {"id": "football/2012/dec/29/arsene-wenger-theo-walcott-arsenal", "type": "article", "sectionId": "football", "sectionName": "Football", "webPublicationDate": "2012-12-29T22:03:55Z", "webTitle": "Ars\u00e8ne Wenger rules out Theo Walcott leaving Arsenal in January", "webUrl": "https://www.theguardian.com/football/2012/dec/29/arsene-wenger-theo-walcott-arsenal", "apiUrl": "https://content.guardianapis.com/football/2012/dec/29/arsene-wenger-theo-walcott-arsenal", "isHosted": false, "pillarId": "pillar/sport", "pillarName": "Sport"}, {"id": "football/2012/dec/29/stephane-mbia-qpr-interview", "type": "article", "sectionId": "football", "sectionName": "Football", "webPublicationDate": "2012-12-29T22:00:03Z", "webTitle": "St\u00e9phane Mbia puts his shirt on QPR's Premier League survival | Dominic Fifield", "webUrl": "https://www.theguardian.com/football/2012/dec/29/stephane-mbia-qpr-interview", "apiUrl": "https://content.guardianapis.com/football/2012/dec/29/stephane-mbia-qpr-interview", "isHosted": false, "pillarId": "pillar/sport", "pillarName": "Sport"}, {"id": "football/blog/2012/dec/29/transfer-window-premier-league", "type": "article", "sectionId": "football", "sectionName": "Football", "webPublicationDate": "2012-12-29T22:00:02Z", "webTitle": "Successful January signings are a rarity \u2013 but they are out there | Paul Wilson", "webUrl": "https://www.theguardian.com/football/blog/2012/dec/29/transfer-window-premier-league", "apiUrl": "https://content.guardianapis.com/football/blog/2012/dec/29/transfer-window-premier-league", "isHosted": false, "pillarId": "pillar/sport", "pillarName": "Sport"}, {"id": "sport/gallery/2012/dec/29/1", "type": "gallery", "sectionId": "sport", "sectionName": "Sport", "webPublicationDate": "2012-12-29T20:45:37Z", "webTitle": "Saturday Football: In pictures", "webUrl": "https://www.theguardian.com/sport/gallery/2012/dec/29/1", "apiUrl": "https://content.guardianapis.com/sport/gallery/2012/dec/29/1", "isHosted": false, "pillarId": "pillar/sport", "pillarName": "Sport"}, {"id": "football/2012/dec/29/paul-lambert-aston-villa", "type": "article", "sectionId": "football", "sectionName": "Football", "webPublicationDate": "2012-12-29T19:39:49Z", "webTitle": "Paul Lambert admits Aston Villa are in a dogfight against relegation", "webUrl": "https://www.theguardian.com/football/2012/dec/29/paul-lambert-aston-villa", "apiUrl": "https://content.guardianapis.com/football/2012/dec/29/paul-lambert-aston-villa", "isHosted": false, "pillarId": "pillar/sport", "pillarName": "Sport"}, {"id": "football/football-league-blog/2012/dec/29/football-league-your-thoughts", "type": "article", "sectionId": "football", "sectionName": "Football", "webPublicationDate": "2012-12-29T19:38:50Z", "webTitle": "Football League: your thoughts | Ian McCourt", "webUrl": "https://www.theguardian.com/football/football-league-blog/2012/dec/29/football-league-your-thoughts", "apiUrl": "https://content.guardianapis.com/football/football-league-blog/2012/dec/29/football-league-your-thoughts", "isHosted": false, "pillarId": "pillar/sport", "pillarName": "Sport"}, {"id": "football/2012/dec/29/arsenal-newcastle-united-premier-league", "type": "article", "sectionId": "football", "sectionName": "Football", "webPublicationDate": "2012-12-29T19:34:07Z", "webTitle": "Arsenal 7-3 Newcastle United | Premier League match report", "webUrl": "https://www.theguardian.com/football/2012/dec/29/arsenal-newcastle-united-premier-league", "apiUrl": "https://content.guardianapis.com/football/2012/dec/29/arsenal-newcastle-united-premier-league", "isHosted": false, "pillarId": "pillar/sport", "pillarName": "Sport"}, {"id": "football/2012/dec/29/arsenal-newcastle-live-premier-league", "type": "liveblog", "sectionId": "football", "sectionName": "Football", "webPublicationDate": "2012-12-29T19:22:00Z", "webTitle": "Arsenal v Newcastle \u2013 as it happened", "webUrl": "https://www.theguardian.com/football/2012/dec/29/arsenal-newcastle-live-premier-league", "apiUrl": "https://content.guardianapis.com/football/2012/dec/29/arsenal-newcastle-live-premier-league", "isHosted": false, "pillarId": "pillar/sport", "pillarName": "Sport"}, {"id": "football/2012/dec/29/dundee-aberdeen-motherwell-kilmarnock-scottish-premier", "type": "article", "sectionId": "football", "sectionName": "Football", "webPublicationDate": "2012-12-29T18:45:25Z", "webTitle": "SPL round-up: Niall McGinn scores a hat-trick as Aberdeen beat Dundee", "webUrl": "https://www.theguardian.com/football/2012/dec/29/dundee-aberdeen-motherwell-kilmarnock-scottish-premier", "apiUrl": "https://content.guardianapis.com/football/2012/dec/29/dundee-aberdeen-motherwell-kilmarnock-scottish-premier", "isHosted": false, "pillarId": "pillar/sport", "pillarName": "Sport"}, {"id": "football/2012/dec/29/nottingham-forest-crystal-palace-championship", "type": "article", "sectionId": "football", "sectionName": "Football", "webPublicationDate": "2012-12-29T18:05:59Z", "webTitle": "Nottingham Forest 2-2 Crystal Palace | Championship match report", "webUrl": "https://www.theguardian.com/football/2012/dec/29/nottingham-forest-crystal-palace-championship", "apiUrl": "https://content.guardianapis.com/football/2012/dec/29/nottingham-forest-crystal-palace-championship", "isHosted": false, "pillarId": "pillar/sport", "pillarName": "Sport"}, {"id": "football/2012/dec/29/norwich-city-manchester-city-premier-league", "type": "article", "sectionId": "football", "sectionName": "Football", "webPublicationDate": "2012-12-29T17:12:12Z", "webTitle": "Norwich City 3-4 Manchester City | Premier League match report", "webUrl": "https://www.theguardian.com/football/2012/dec/29/norwich-city-manchester-city-premier-league", "apiUrl": "https://content.guardianapis.com/football/2012/dec/29/norwich-city-manchester-city-premier-league", "isHosted": false, "pillarId": "pillar/sport", "pillarName": "Sport"}, {"id": "football/2012/dec/29/aston-villa-wigan-athletic-premier-league", "type": "article", "sectionId": "football", "sectionName": "Football", "webPublicationDate": "2012-12-29T17:09:54Z", "webTitle": "Aston Villa 0-3 Wigan Athletic | Premier League match report", "webUrl": "https://www.theguardian.com/football/2012/dec/29/aston-villa-wigan-athletic-premier-league", "apiUrl": "https://content.guardianapis.com/football/2012/dec/29/aston-villa-wigan-athletic-premier-league", "isHosted": false, "pillarId": "pillar/sport", "pillarName": "Sport"}, {"id": "football/2012/dec/29/stoke-city-southampton-premier-league", "type": "article", "sectionId": "football", "sectionName": "Football", "webPublicationDate": "2012-12-29T17:06:14Z", "webTitle": "Stoke City 3-3 Southampton | Premier League match report", "webUrl": "https://www.theguardian.com/football/2012/dec/29/stoke-city-southampton-premier-league", "apiUrl": "https://content.guardianapis.com/football/2012/dec/29/stoke-city-southampton-premier-league", "isHosted": false, "pillarId": "pillar/sport", "pillarName": "Sport"}, {"id": "football/2012/dec/29/manchester-united-west-bromwich-albion-premier-league", "type": "article", "sectionId": "football", "sectionName": "Football", "webPublicationDate": "2012-12-29T17:01:43Z", "webTitle": "Manchester United 2-0 West Bromwich Albion | Premier League match report", "webUrl": "https://www.theguardian.com/football/2012/dec/29/manchester-united-west-bromwich-albion-premier-league", "apiUrl": "https://content.guardianapis.com/football/2012/dec/29/manchester-united-west-bromwich-albion-premier-league", "isHosted": false, "pillarId": "pillar/sport", "pillarName": "Sport"}, {"id": "football/2012/dec/29/reading-west-ham-united-premier-league", "type": "article", "sectionId": "football", "sectionName": "Football", "webPublicationDate": "2012-12-29T16:59:46Z", "webTitle": "Reading 1-0 West Ham United | Premier League match report", "webUrl": "https://www.theguardian.com/football/2012/dec/29/reading-west-ham-united-premier-league", "apiUrl": "https://content.guardianapis.com/football/2012/dec/29/reading-west-ham-united-premier-league", "isHosted": false, "pillarId": "pillar/sport", "pillarName": "Sport"}, {"id": "football/2012/dec/29/premier-league-clockwatch-live", "type": "liveblog", "sectionId": "football", "sectionName": "Football", "webPublicationDate": "2012-12-29T16:56:00Z", "webTitle": "Premier League clockwatch \u2013 as it happened | Ian McCourt", "webUrl": "https://www.theguardian.com/football/2012/dec/29/premier-league-clockwatch-live", "apiUrl": "https://content.guardianapis.com/football/2012/dec/29/premier-league-clockwatch-live", "isHosted": false, "pillarId": "pillar/sport", "pillarName": "Sport"}, {"id": "football/2012/dec/29/sunderland-tottenham-hotspur-premier-league", "type": "article", "sectionId": "football", "sectionName": "Football", "webPublicationDate": "2012-12-29T14:56:21Z", "webTitle": "Sunderland 1-2 Tottenham Hotspur | Premier League match report", "webUrl": "https://www.theguardian.com/football/2012/dec/29/sunderland-tottenham-hotspur-premier-league", "apiUrl": "https://content.guardianapis.com/football/2012/dec/29/sunderland-tottenham-hotspur-premier-league", "isHosted": false, "pillarId": "pillar/sport", "pillarName": "Sport"}, {"id": "football/2012/dec/29/sunderland-tottenham-live-premier-league", "type": "liveblog", "sectionId": "football", "sectionName": "Football", "webPublicationDate": "2012-12-29T14:50:36Z", "webTitle": "Sunderland v Tottenham \u2013 as it happened | Rob Smyth", "webUrl": "https://www.theguardian.com/football/2012/dec/29/sunderland-tottenham-live-premier-league", "apiUrl": "https://content.guardianapis.com/football/2012/dec/29/sunderland-tottenham-live-premier-league", "isHosted": false, "pillarId": "pillar/sport", "pillarName": "Sport"}, {"id": "football/2012/dec/29/everton-david-moyes-rafael-benitez", "type": "article", "sectionId": "football", "sectionName": "Football", "webPublicationDate": "2012-12-29T00:45:00Z", "webTitle": "Everton's David Moyes downplays rift as Rafael Ben\u00edtez visits Goodison", "webUrl": "https://www.theguardian.com/football/2012/dec/29/everton-david-moyes-rafael-benitez", "apiUrl": "https://content.guardianapis.com/football/2012/dec/29/everton-david-moyes-rafael-benitez", "isHosted": false, "pillarId": "pillar/sport", "pillarName": "Sport"}, {"id": "football/2012/dec/29/liverpool-brendan-rodgers-transfer-window", "type": "article", "sectionId": "football", "sectionName": "Football", "webPublicationDate": "2012-12-29T00:08:03Z", "webTitle": "Liverpool's Brendan Rodgers plans to bring in experience next month", "webUrl": "https://www.theguardian.com/football/2012/dec/29/liverpool-brendan-rodgers-transfer-window", "apiUrl": "https://content.guardianapis.com/football/2012/dec/29/liverpool-brendan-rodgers-transfer-window", "isHosted": false, "pillarId": "pillar/sport", "pillarName": "Sport"}, {"id": "football/2012/dec/28/nottingham-forest-alex-mcleish1", "type": "article", "sectionId": "football", "sectionName": "Football", "webPublicationDate": "2012-12-28T23:00:17Z", "webTitle": "Nottingham Forest's Alex McLeish defends his record as a manager", "webUrl": "https://www.theguardian.com/football/2012/dec/28/nottingham-forest-alex-mcleish1", "apiUrl": "https://content.guardianapis.com/football/2012/dec/28/nottingham-forest-alex-mcleish1", "isHosted": false, "pillarId": "pillar/sport", "pillarName": "Sport"}, {"id": "football/2012/dec/28/theo-walcott-thierry-henry-arsene-wenger", "type": "article", "sectionId": "football", "sectionName": "Football", "webPublicationDate": "2012-12-28T23:00:16Z", "webTitle": "Theo Walcott could be the next Thierry Henry, says Ars\u00e8ne Wenger", "webUrl": "https://www.theguardian.com/football/2012/dec/28/theo-walcott-thierry-henry-arsene-wenger", "apiUrl": "https://content.guardianapis.com/football/2012/dec/28/theo-walcott-thierry-henry-arsene-wenger", "isHosted": false, "pillarId": "pillar/sport", "pillarName": "Sport"}, {"id": "football/2012/dec/28/worst-ideas-2012-football-pay", "type": "article", "sectionId": "football", "sectionName": "Football", "webPublicationDate": "2012-12-28T23:00:00Z", "webTitle": "Worst ideas of 2012: paying footballers more than \u00a31m a month", "webUrl": "https://www.theguardian.com/football/2012/dec/28/worst-ideas-2012-football-pay", "apiUrl": "https://content.guardianapis.com/football/2012/dec/28/worst-ideas-2012-football-pay", "isHosted": false, "pillarId": "pillar/sport", "pillarName": "Sport"}, {"id": "football/2012/dec/28/2012-petr-cech-champions-league", "type": "article", "sectionId": "football", "sectionName": "Football", "webPublicationDate": "2012-12-28T22:00:00Z", "webTitle": "2012: A remarkable sporting year \u2013 Petr Cech on the Champions League", "webUrl": "https://www.theguardian.com/football/2012/dec/28/2012-petr-cech-champions-league", "apiUrl": "https://content.guardianapis.com/football/2012/dec/28/2012-petr-cech-champions-league", "isHosted": false, "pillarId": "pillar/sport", "pillarName": "Sport"}, {"id": "football/2012/dec/28/blackburn-rovers-bollywood-manager", "type": "article", "sectionId": "football", "sectionName": "Football", "webPublicationDate": "2012-12-28T18:25:23Z", "webTitle": "Blackburn Rovers deny former Bollywood star is to be next head coach", "webUrl": "https://www.theguardian.com/football/2012/dec/28/blackburn-rovers-bollywood-manager", "apiUrl": "https://content.guardianapis.com/football/2012/dec/28/blackburn-rovers-bollywood-manager", "isHosted": false, "pillarId": "pillar/sport", "pillarName": "Sport"}, {"id": "football/2012/dec/28/premier-league-match-previews", "type": "article", "sectionId": "football", "sectionName": "Football", "webPublicationDate": "2012-12-28T18:19:10Z", "webTitle": "Premier League: match previews for this weekend's fixtures", "webUrl": "https://www.theguardian.com/football/2012/dec/28/premier-league-match-previews", "apiUrl": "https://content.guardianapis.com/football/2012/dec/28/premier-league-match-previews", "isHosted": false, "pillarId": "pillar/sport", "pillarName": "Sport"}, {"id": "football/2012/dec/28/laws-of-football", "type": "article", "sectionId": "football", "sectionName": "Football", "webPublicationDate": "2012-12-28T17:00:00Z", "webTitle": "You are the Ref: Keith Hackett", "webUrl": "https://www.theguardian.com/football/2012/dec/28/laws-of-football", "apiUrl": "https://content.guardianapis.com/football/2012/dec/28/laws-of-football", "isHosted": false, "pillarId": "pillar/sport", "pillarName": "Sport"}, {"id": "sport/gallery/2012/dec/28/best-sports-photos-of-2012", "type": "gallery", "sectionId": "sport", "sectionName": "Sport", "webPublicationDate": "2012-12-28T16:42:00Z", "webTitle": "Tom Jenkins's best sports photos of 2012", "webUrl": "https://www.theguardian.com/sport/gallery/2012/dec/28/best-sports-photos-of-2012", "apiUrl": "https://content.guardianapis.com/sport/gallery/2012/dec/28/best-sports-photos-of-2012", "isHosted": false, "pillarId": "pillar/sport", "pillarName": "Sport"}]}}