{"response": {"status": "ok", "userTier": "developer", "total": 92523, "startIndex": 1, "pageSize": 50, "currentPage": 1, "pages": 1851, "orderBy": "newest", "results": [{"id": "football/2014/dec/30/chelsea-afc-wimbledon-kingsmeadow-kingstonian", "type": "article", "sectionId": "football", "sectionName": "Football", "webPublicationDate": "2014-12-30T23:02:53Z", "webTitle": "Chelsea in discussions over buying AFC Wimbledon\u2019s Kingsmeadow Stadium", "webUrl": "https://www.theguardian.com/football/2014/dec/30/chelsea-afc-wimbledon-kingsmeadow-kingstonian", "apiUrl": "https://content.guardianapis.com/football/2014/dec/30/chelsea-afc-wimbledon-kingsmeadow-kingstonian", "isHosted": false, "pillarId": "pillar/sport", "pillarName": "Sport"}, {"id": "football/2014/dec/30/sam-allardyce-qpr-loan-target-mauro-zarate-not-good-enough-west-ham", "type": "article", "sectionId": "football", "sectionName": "Football", "webPublicationDate": "2014-12-30T22:29:09Z", "webTitle": "Sam Allardyce: QPR loan target Mauro Z\u00e1rate not good enough for West Ham", "webUrl": "https://www.theguardian.com/football/2014/dec/30/sam-allardyce-qpr-loan-target-mauro-zarate-not-good-enough-west-ham", "apiUrl": "https://content.guardianapis.com/football/2014/dec/30/sam-allardyce-qpr-loan-target-mauro-zarate-not-good-enough-west-ham", "isHosted": false, "pillarId": "pillar/sport", "pillarName": "Sport"}, {"id": "football/2014/dec/30/roberto-martinez-not-alter-everton-playing-style-poor-form", "type": "article", "sectionId": "football", "sectionName": "Football", "webPublicationDate": "2014-12-30T22:29:09Z", "webTitle": "Roberto Mart\u00ednez will not alter Everton playing style despite poor form", "webUrl": "https://www.theguardian.com/football/2014/dec/30/roberto-martinez-not-alter-everton-playing-style-poor-form", "apiUrl": "https://content.guardianapis.com/football/2014/dec/30/roberto-martinez-not-alter-everton-playing-style-poor-form", "isHosted": false, "pillarId": "pillar/sport", "pillarName": "Sport"}, {"id": "football/2014/dec/30/chosen-one-banner-manchester-united-auction-david-moyes", "type": "article", "sectionId": "football", "sectionName": "Football", "webPublicationDate": "2014-12-30T20:10:29Z", "webTitle": "Manchester United fans to auction \u2018The Chosen One\u2019 banner for charity", "webUrl": "https://www.theguardian.com/football/2014/dec/30/chosen-one-banner-manchester-united-auction-david-moyes", "apiUrl": "https://content.guardianapis.com/football/2014/dec/30/chosen-one-banner-manchester-united-auction-david-moyes", "isHosted": false, "pillarId": "pillar/sport", "pillarName": "Sport"}, {"id": "football/2014/dec/30/alan-pardew-crystal-palace-manager", "type": "article", "sectionId": "football", "sectionName": "Football", "webPublicationDate": "2014-12-30T19:38:38Z", "webTitle": "Alan Pardew wants to take charge of Crystal Palace on New Year\u2019s Day", "webUrl": "https://www.theguardian.com/football/2014/dec/30/alan-pardew-crystal-palace-manager", "apiUrl": "https://content.guardianapis.com/football/2014/dec/30/alan-pardew-crystal-palace-manager", "isHosted": false, "pillarId": "pillar/sport", "pillarName": "Sport"}, {"id": "football/2014/dec/30/tony-pulis-west-brom-manager-tim-sherwood", "type": "article", "sectionId": "football", "sectionName": "Football", "webPublicationDate": "2014-12-30T19:31:05Z", "webTitle": "Tony Pulis demands control as condition of taking West Brom job", "webUrl": "https://www.theguardian.com/football/2014/dec/30/tony-pulis-west-brom-manager-tim-sherwood", "apiUrl": "https://content.guardianapis.com/football/2014/dec/30/tony-pulis-west-brom-manager-tim-sherwood", "isHosted": false, "pillarId": "pillar/sport", "pillarName": "Sport"}, {"id": "football/2014/dec/30/louis-van-gaal-gruelling-fixture-list-deprives-fans-attractive-games-manchester-united", "type": "article", "sectionId": "football", "sectionName": "Football", "webPublicationDate": "2014-12-30T18:16:28Z", "webTitle": "Louis van Gaal: gruelling fixture list deprives fans of attractive games", "webUrl": "https://www.theguardian.com/football/2014/dec/30/louis-van-gaal-gruelling-fixture-list-deprives-fans-attractive-games-manchester-united", "apiUrl": "https://content.guardianapis.com/football/2014/dec/30/louis-van-gaal-gruelling-fixture-list-deprives-fans-attractive-games-manchester-united", "isHosted": false, "pillarId": "pillar/sport", "pillarName": "Sport"}, {"id": "football/2014/dec/30/newcastle-manager-john-carver-alan-pardew", "type": "article", "sectionId": "football", "sectionName": "Football", "webPublicationDate": "2014-12-30T18:03:08Z", "webTitle": "Who is John Carver? The caretaker left holding the baby at Newcastle", "webUrl": "https://www.theguardian.com/football/2014/dec/30/newcastle-manager-john-carver-alan-pardew", "apiUrl": "https://content.guardianapis.com/football/2014/dec/30/newcastle-manager-john-carver-alan-pardew", "isHosted": false, "pillarId": "pillar/sport", "pillarName": "Sport"}, {"id": "football/2014/dec/30/arsene-wenger-arsenal-midfield-transfer-window", "type": "article", "sectionId": "football", "sectionName": "Football", "webPublicationDate": "2014-12-30T17:46:46Z", "webTitle": "Ars\u00e8ne Wenger to make Arsenal midfield a priority in transfer window", "webUrl": "https://www.theguardian.com/football/2014/dec/30/arsene-wenger-arsenal-midfield-transfer-window", "apiUrl": "https://content.guardianapis.com/football/2014/dec/30/arsene-wenger-arsenal-midfield-transfer-window", "isHosted": false, "pillarId": "pillar/sport", "pillarName": "Sport"}, {"id": "football/2014/dec/30/arsenals-gedion-zelalem-takes-step-towards-committing-to-usa", "type": "article", "sectionId": "football", "sectionName": "Football", "webPublicationDate": "2014-12-30T17:36:24Z", "webTitle": "Arsenal's Gedion Zelalem takes step towards committing to USA", "webUrl": "https://www.theguardian.com/football/2014/dec/30/arsenals-gedion-zelalem-takes-step-towards-committing-to-usa", "apiUrl": "https://content.guardianapis.com/football/2014/dec/30/arsenals-gedion-zelalem-takes-step-towards-committing-to-usa", "isHosted": false, "pillarId": "pillar/sport", "pillarName": "Sport"}, {"id": "sport/2014/dec/30/2014-a-year-in-sport-on-twitter", "type": "article", "sectionId": "sport", "sectionName": "Sport", "webPublicationDate": "2014-12-30T15:41:04Z", "webTitle": "2014: a year in sport \u2026 on Twitter", "webUrl": "https://www.theguardian.com/sport/2014/dec/30/2014-a-year-in-sport-on-twitter", "apiUrl": "https://content.guardianapis.com/sport/2014/dec/30/2014-a-year-in-sport-on-twitter", "isHosted": false, "pillarId": "pillar/sport", "pillarName": "Sport"}, {"id": "football/2014/dec/30/qpr-mauro-zarate-loan-west-ham", "type": "article", "sectionId": "football", "sectionName": "Football", "webPublicationDate": "2014-12-30T12:24:51Z", "webTitle": "QPR to sign Mauro Z\u00e1rate on loan from West Ham until end of season", "webUrl": "https://www.theguardian.com/football/2014/dec/30/qpr-mauro-zarate-loan-west-ham", "apiUrl": "https://content.guardianapis.com/football/2014/dec/30/qpr-mauro-zarate-loan-west-ham", "isHosted": false, "pillarId": "pillar/sport", "pillarName": "Sport"}, {"id": "football/blog/2014/dec/30/holland-spain-world-cup-5-1-humbling", "type": "article", "sectionId": "football", "sectionName": "Football", "webPublicationDate": "2014-12-30T12:23:00Z", "webTitle": "Eyewitness: Holland shook up the World Cup with 5-1 humbling of Spain", "webUrl": "https://www.theguardian.com/football/blog/2014/dec/30/holland-spain-world-cup-5-1-humbling", "apiUrl": "https://content.guardianapis.com/football/blog/2014/dec/30/holland-spain-world-cup-5-1-humbling", "isHosted": false, "pillarId": "pillar/sport", "pillarName": "Sport"}, {"id": "football/2014/dec/30/looking-back-at-germany-v-brazil-world-cup-semi-final", "type": "article", "sectionId": "football", "sectionName": "Football", "webPublicationDate": "2014-12-30T12:22:00Z", "webTitle": "Looking back at Germany v Brazil, World Cup semi-final", "webUrl": "https://www.theguardian.com/football/2014/dec/30/looking-back-at-germany-v-brazil-world-cup-semi-final", "apiUrl": "https://content.guardianapis.com/football/2014/dec/30/looking-back-at-germany-v-brazil-world-cup-semi-final", "isHosted": false, "pillarId": "pillar/sport", "pillarName": "Sport"}, {"id": "football/blog/2014/dec/30/brazil-world-cup-fell-short-barney-ronay", "type": "article", "sectionId": "football", "sectionName": "Football", "webPublicationDate": "2014-12-30T12:20:00Z", "webTitle": "Brazil\u2019s World Cup hinted at a return to past glories but fell short | Barney Ronay", "webUrl": "https://www.theguardian.com/football/blog/2014/dec/30/brazil-world-cup-fell-short-barney-ronay", "apiUrl": "https://content.guardianapis.com/football/blog/2014/dec/30/brazil-world-cup-fell-short-barney-ronay", "isHosted": false, "pillarId": "pillar/sport", "pillarName": "Sport"}, {"id": "football/blog/2014/dec/30/tactical-review-of-2014-tiki-taka-exile-counter-counterattack", "type": "article", "sectionId": "football", "sectionName": "Football", "webPublicationDate": "2014-12-30T11:42:11Z", "webTitle": "Tactical review of 2014 part two: tiki-taka\u2019s exile and counter-counters | Jonathan Wilson", "webUrl": "https://www.theguardian.com/football/blog/2014/dec/30/tactical-review-of-2014-tiki-taka-exile-counter-counterattack", "apiUrl": "https://content.guardianapis.com/football/blog/2014/dec/30/tactical-review-of-2014-tiki-taka-exile-counter-counterattack", "isHosted": false, "pillarId": "pillar/sport", "pillarName": "Sport"}, {"id": "football/blog/2014/dec/30/us-soccer-2014-10-memorable-moments-klinsmann-altidore-world-cup", "type": "article", "sectionId": "football", "sectionName": "Football", "webPublicationDate": "2014-12-30T11:30:11Z", "webTitle": "The US national soccer teams in 2014: 10 memorable moments", "webUrl": "https://www.theguardian.com/football/blog/2014/dec/30/us-soccer-2014-10-memorable-moments-klinsmann-altidore-world-cup", "apiUrl": "https://content.guardianapis.com/football/blog/2014/dec/30/us-soccer-2014-10-memorable-moments-klinsmann-altidore-world-cup", "isHosted": false, "pillarId": "pillar/sport", "pillarName": "Sport"}, {"id": "football/blog/2014/dec/30/alan-pardew-noisy-distraction-newcastle-real-issues-mike-ashley", "type": "article", "sectionId": "football", "sectionName": "Football", "webPublicationDate": "2014-12-30T11:12:47Z", "webTitle": "Alan Pardew, the River Island Tony Pulis, disguised Newcastle\u2019s real issues | Barney Ronay", "webUrl": "https://www.theguardian.com/football/blog/2014/dec/30/alan-pardew-noisy-distraction-newcastle-real-issues-mike-ashley", "apiUrl": "https://content.guardianapis.com/football/blog/2014/dec/30/alan-pardew-noisy-distraction-newcastle-real-issues-mike-ashley", "isHosted": false, "pillarId": "pillar/sport", "pillarName": "Sport"}, {"id": "football/blog/2014/dec/30/a-league-five-things-we-learned-from-round-12", "type": "article", "sectionId": "football", "sectionName": "Football", "webPublicationDate": "2014-12-29T22:30:10Z", "webTitle": "A-League: five things we learned from round 12", "webUrl": "https://www.theguardian.com/football/blog/2014/dec/30/a-league-five-things-we-learned-from-round-12", "apiUrl": "https://content.guardianapis.com/football/blog/2014/dec/30/a-league-five-things-we-learned-from-round-12", "isHosted": false, "pillarId": "pillar/sport", "pillarName": "Sport"}, {"id": "football/2014/dec/29/manchester-city-premier-league-title-samir-nasri", "type": "article", "sectionId": "football", "sectionName": "Football", "webPublicationDate": "2014-12-29T22:30:05Z", "webTitle": "Manchester City have mental strength to defend title, says Samir Nasri", "webUrl": "https://www.theguardian.com/football/2014/dec/29/manchester-city-premier-league-title-samir-nasri", "apiUrl": "https://content.guardianapis.com/football/2014/dec/29/manchester-city-premier-league-title-samir-nasri", "isHosted": false, "pillarId": "pillar/sport", "pillarName": "Sport"}, {"id": "football/2014/dec/29/wayne-rooney-change-crowded-christmas-fixture-list", "type": "article", "sectionId": "football", "sectionName": "Football", "webPublicationDate": "2014-12-29T22:30:05Z", "webTitle": "Wayne Rooney calls for change in gruelling Christmas fixture list", "webUrl": "https://www.theguardian.com/football/2014/dec/29/wayne-rooney-change-crowded-christmas-fixture-list", "apiUrl": "https://content.guardianapis.com/football/2014/dec/29/wayne-rooney-change-crowded-christmas-fixture-list", "isHosted": false, "pillarId": "pillar/sport", "pillarName": "Sport"}, {"id": "football/blog/2014/dec/29/liverpool-emre-can-brendan-rodgers-year", "type": "article", "sectionId": "football", "sectionName": "Football", "webPublicationDate": "2014-12-29T22:20:36Z", "webTitle": "Liverpool\u2019s Emre Can shows what he can do as Liverpool end year on a high | Paul Wilson", "webUrl": "https://www.theguardian.com/football/blog/2014/dec/29/liverpool-emre-can-brendan-rodgers-year", "apiUrl": "https://content.guardianapis.com/football/blog/2014/dec/29/liverpool-emre-can-brendan-rodgers-year", "isHosted": false, "pillarId": "pillar/sport", "pillarName": "Sport"}, {"id": "football/2014/dec/29/liverpool-swansea-city-premier-league-match-report", "type": "article", "sectionId": "football", "sectionName": "Football", "webPublicationDate": "2014-12-29T22:07:00Z", "webTitle": "Liverpool 4-1 Swansea City | Premier League match report", "webUrl": "https://www.theguardian.com/football/2014/dec/29/liverpool-swansea-city-premier-league-match-report", "apiUrl": "https://content.guardianapis.com/football/2014/dec/29/liverpool-swansea-city-premier-league-match-report", "isHosted": false, "pillarId": "pillar/sport", "pillarName": "Sport"}, {"id": "football/live/2014/dec/29/liverpool-v-swansea-city-premier-league-live", "type": "liveblog", "sectionId": "football", "sectionName": "Football", "webPublicationDate": "2014-12-29T21:51:44Z", "webTitle": "Liverpool v Swansea City: Premier League \u2013 as it happened | Jacob Steinberg", "webUrl": "https://www.theguardian.com/football/live/2014/dec/29/liverpool-v-swansea-city-premier-league-live", "apiUrl": "https://content.guardianapis.com/football/live/2014/dec/29/liverpool-v-swansea-city-premier-league-live", "isHosted": false, "pillarId": "pillar/sport", "pillarName": "Sport"}, {"id": "football/2014/dec/29/zlatan-ibrahimovic-500kg-moose-hunting", "type": "article", "sectionId": "football", "sectionName": "Football", "webPublicationDate": "2014-12-29T21:25:56Z", "webTitle": "Zlatan Ibrahimovic angers animal rights groups after 'shooting' moose", "webUrl": "https://www.theguardian.com/football/2014/dec/29/zlatan-ibrahimovic-500kg-moose-hunting", "apiUrl": "https://content.guardianapis.com/football/2014/dec/29/zlatan-ibrahimovic-500kg-moose-hunting", "isHosted": false, "pillarId": "pillar/sport", "pillarName": "Sport"}, {"id": "football/2014/dec/29/alan-pardew-newcastle-leave-crystal-palace", "type": "article", "sectionId": "football", "sectionName": "Football", "webPublicationDate": "2014-12-29T21:25:39Z", "webTitle": "Alan Pardew tells Newcastle he wants to leave for Crystal Palace", "webUrl": "https://www.theguardian.com/football/2014/dec/29/alan-pardew-newcastle-leave-crystal-palace", "apiUrl": "https://content.guardianapis.com/football/2014/dec/29/alan-pardew-newcastle-leave-crystal-palace", "isHosted": false, "pillarId": "pillar/sport", "pillarName": "Sport"}, {"id": "football/blog/2014/dec/29/newcastle-questions-alan-pardew-frank-de-boer", "type": "article", "sectionId": "football", "sectionName": "Football", "webPublicationDate": "2014-12-29T21:18:49Z", "webTitle": "What next for Newcastle? Four questions to set St James\u2019 talking | Louise Taylor", "webUrl": "https://www.theguardian.com/football/blog/2014/dec/29/newcastle-questions-alan-pardew-frank-de-boer", "apiUrl": "https://content.guardianapis.com/football/blog/2014/dec/29/newcastle-questions-alan-pardew-frank-de-boer", "isHosted": false, "pillarId": "pillar/sport", "pillarName": "Sport"}, {"id": "football/blog/2014/dec/29/alan-pardew-crystal-palace-return-newcastle-united", "type": "article", "sectionId": "football", "sectionName": "Football", "webPublicationDate": "2014-12-29T19:34:04Z", "webTitle": "Alan Pardew wasn\u2019t always loved at Crystal Palace but will be if he returns | Dominic Fifield", "webUrl": "https://www.theguardian.com/football/blog/2014/dec/29/alan-pardew-crystal-palace-return-newcastle-united", "apiUrl": "https://content.guardianapis.com/football/blog/2014/dec/29/alan-pardew-crystal-palace-return-newcastle-united", "isHosted": false, "pillarId": "pillar/sport", "pillarName": "Sport"}, {"id": "football/2014/dec/29/jacob-murphy-blackpool-snapchat-apology", "type": "article", "sectionId": "football", "sectionName": "Football", "webPublicationDate": "2014-12-29T19:26:50Z", "webTitle": "Blackpool\u2019s Jacob Murphy apologises for social media post mocking club", "webUrl": "https://www.theguardian.com/football/2014/dec/29/jacob-murphy-blackpool-snapchat-apology", "apiUrl": "https://content.guardianapis.com/football/2014/dec/29/jacob-murphy-blackpool-snapchat-apology", "isHosted": false, "pillarId": "pillar/sport", "pillarName": "Sport"}, {"id": "football/2014/dec/29/alan-pardew-crystal-palace-manager-newcastle-united", "type": "article", "sectionId": "football", "sectionName": "Football", "webPublicationDate": "2014-12-29T17:27:30Z", "webTitle": "Alan Pardew set to leave Newcastle United for Crystal Palace", "webUrl": "https://www.theguardian.com/football/2014/dec/29/alan-pardew-crystal-palace-manager-newcastle-united", "apiUrl": "https://content.guardianapis.com/football/2014/dec/29/alan-pardew-crystal-palace-manager-newcastle-united", "isHosted": false, "pillarId": "pillar/sport", "pillarName": "Sport"}, {"id": "football/2014/dec/29/newcastle-papiss-cisse-charged-violent-conduct", "type": "article", "sectionId": "football", "sectionName": "Football", "webPublicationDate": "2014-12-29T17:06:09Z", "webTitle": "Newcastle\u2019s Papiss Ciss\u00e9 charged with violent conduct by FA", "webUrl": "https://www.theguardian.com/football/2014/dec/29/newcastle-papiss-cisse-charged-violent-conduct", "apiUrl": "https://content.guardianapis.com/football/2014/dec/29/newcastle-papiss-cisse-charged-violent-conduct", "isHosted": false, "pillarId": "pillar/sport", "pillarName": "Sport"}, {"id": "football/blog/2014/dec/29/tactical-review-of-2014-three-at-the-back-back-in-fashion-football", "type": "article", "sectionId": "football", "sectionName": "Football", "webPublicationDate": "2014-12-29T16:01:09Z", "webTitle": "Tactical review of 2014: three at the back is back in fashion | Jonathan Wilson", "webUrl": "https://www.theguardian.com/football/blog/2014/dec/29/tactical-review-of-2014-three-at-the-back-back-in-fashion-football", "apiUrl": "https://content.guardianapis.com/football/blog/2014/dec/29/tactical-review-of-2014-three-at-the-back-back-in-fashion-football", "isHosted": false, "pillarId": "pillar/sport", "pillarName": "Sport"}, {"id": "football/blog/2014/dec/29/top-10-players-world-cup-2014-brazil", "type": "article", "sectionId": "football", "sectionName": "Football", "webPublicationDate": "2014-12-29T13:25:42Z", "webTitle": "Top 10 World Cup stars from 2014: What happened next? | Paul Doyle", "webUrl": "https://www.theguardian.com/football/blog/2014/dec/29/top-10-players-world-cup-2014-brazil", "apiUrl": "https://content.guardianapis.com/football/blog/2014/dec/29/top-10-players-world-cup-2014-brazil", "isHosted": false, "pillarId": "pillar/sport", "pillarName": "Sport"}, {"id": "football/blog/2014/dec/29/fernando-torres-atletico-madrid-milan-chelsea-liverpool", "type": "article", "sectionId": "football", "sectionName": "Football", "webPublicationDate": "2014-12-29T13:13:13Z", "webTitle": "Why Fernando Torres\u2019 return to Atl\u00e9tico Madrid can revitalise the Kid | Sid Lowe", "webUrl": "https://www.theguardian.com/football/blog/2014/dec/29/fernando-torres-atletico-madrid-milan-chelsea-liverpool", "apiUrl": "https://content.guardianapis.com/football/blog/2014/dec/29/fernando-torres-atletico-madrid-milan-chelsea-liverpool", "isHosted": false, "pillarId": "pillar/sport", "pillarName": "Sport"}, {"id": "football/blog/2014/dec/29/brazil-after-world-cup", "type": "article", "sectionId": "football", "sectionName": "Football", "webPublicationDate": "2014-12-29T12:55:20Z", "webTitle": "Brazil after the World Cup: almost back to business as usual", "webUrl": "https://www.theguardian.com/football/blog/2014/dec/29/brazil-after-world-cup", "apiUrl": "https://content.guardianapis.com/football/blog/2014/dec/29/brazil-after-world-cup", "isHosted": false, "pillarId": "pillar/sport", "pillarName": "Sport"}, {"id": "football/blog/2014/dec/29/premier-league-ten-talking-points", "type": "article", "sectionId": "football", "sectionName": "Football", "webPublicationDate": "2014-12-29T08:59:01Z", "webTitle": "Premier League: 10 talking points from the weekend\u2019s action", "webUrl": "https://www.theguardian.com/football/blog/2014/dec/29/premier-league-ten-talking-points", "apiUrl": "https://content.guardianapis.com/football/blog/2014/dec/29/premier-league-ten-talking-points", "isHosted": false, "pillarId": "pillar/sport", "pillarName": "Sport"}, {"id": "football/2014/dec/28/danny-ings-england-under21-burnley-premier-league", "type": "article", "sectionId": "football", "sectionName": "Football", "webPublicationDate": "2014-12-28T23:00:12Z", "webTitle": "Danny Ings keen to build England career on development at Burnley | Face for 2015", "webUrl": "https://www.theguardian.com/football/2014/dec/28/danny-ings-england-under21-burnley-premier-league", "apiUrl": "https://content.guardianapis.com/football/2014/dec/28/danny-ings-england-under21-burnley-premier-league", "isHosted": false, "pillarId": "pillar/sport", "pillarName": "Sport"}, {"id": "football/2014/dec/28/swansea-garry-monk-jonjo-shelvey", "type": "article", "sectionId": "football", "sectionName": "Football", "webPublicationDate": "2014-12-28T22:29:11Z", "webTitle": "Swansea\u2019s Garry Monk warns \u2018lazy\u2019 Jonjo Shelvey his place is at risk", "webUrl": "https://www.theguardian.com/football/2014/dec/28/swansea-garry-monk-jonjo-shelvey", "apiUrl": "https://content.guardianapis.com/football/2014/dec/28/swansea-garry-monk-jonjo-shelvey", "isHosted": false, "pillarId": "pillar/sport", "pillarName": "Sport"}, {"id": "football/2014/dec/28/alan-pardew-crystal-palace-newcastle", "type": "article", "sectionId": "football", "sectionName": "Football", "webPublicationDate": "2014-12-28T20:26:18Z", "webTitle": "Crystal Palace set to approach Newcastle\u2019s manager Alan Pardew", "webUrl": "https://www.theguardian.com/football/2014/dec/28/alan-pardew-crystal-palace-newcastle", "apiUrl": "https://content.guardianapis.com/football/2014/dec/28/alan-pardew-crystal-palace-newcastle", "isHosted": false, "pillarId": "pillar/sport", "pillarName": "Sport"}, {"id": "football/2014/dec/28/manuel-pellegrini-manchester-city-burnley", "type": "article", "sectionId": "football", "sectionName": "Football", "webPublicationDate": "2014-12-28T19:04:16Z", "webTitle": "Manuel Pellegrini bemoans Manchester City\u2019s complacency after Burnley draw", "webUrl": "https://www.theguardian.com/football/2014/dec/28/manuel-pellegrini-manchester-city-burnley", "apiUrl": "https://content.guardianapis.com/football/2014/dec/28/manuel-pellegrini-manchester-city-burnley", "isHosted": false, "pillarId": "pillar/sport", "pillarName": "Sport"}, {"id": "football/2014/dec/28/jose-mourinho-cesc-fabregas-card-dive-southampton-scandal", "type": "article", "sectionId": "football", "sectionName": "Football", "webPublicationDate": "2014-12-28T18:57:33Z", "webTitle": "Jos\u00e9 Mourinho calls F\u00e0bregas\u2019s card for dive at Southampton \u2018a scandal\u2019", "webUrl": "https://www.theguardian.com/football/2014/dec/28/jose-mourinho-cesc-fabregas-card-dive-southampton-scandal", "apiUrl": "https://content.guardianapis.com/football/2014/dec/28/jose-mourinho-cesc-fabregas-card-dive-southampton-scandal", "isHosted": false, "pillarId": "pillar/sport", "pillarName": "Sport"}, {"id": "football/2014/dec/28/newcastle-united-everton-premier-league-match-report", "type": "article", "sectionId": "football", "sectionName": "Football", "webPublicationDate": "2014-12-28T18:32:50Z", "webTitle": "Newcastle United 3-2 Everton | Premier League match report", "webUrl": "https://www.theguardian.com/football/2014/dec/28/newcastle-united-everton-premier-league-match-report", "apiUrl": "https://content.guardianapis.com/football/2014/dec/28/newcastle-united-everton-premier-league-match-report", "isHosted": false, "pillarId": "pillar/sport", "pillarName": "Sport"}, {"id": "football/live/2014/dec/28/newcastle-v-everton-premier-league-live", "type": "liveblog", "sectionId": "football", "sectionName": "Football", "webPublicationDate": "2014-12-28T18:12:21Z", "webTitle": "Newcastle v Everton: Premier League \u2013 as it happened", "webUrl": "https://www.theguardian.com/football/live/2014/dec/28/newcastle-v-everton-premier-league-live", "apiUrl": "https://content.guardianapis.com/football/live/2014/dec/28/newcastle-v-everton-premier-league-live", "isHosted": false, "pillarId": "pillar/sport", "pillarName": "Sport"}, {"id": "football/2014/dec/28/qpr-crystal-palace-premier-league-match-report", "type": "article", "sectionId": "football", "sectionName": "Football", "webPublicationDate": "2014-12-28T17:21:45Z", "webTitle": "QPR 0-0 Crystal Palace | Premier League match report", "webUrl": "https://www.theguardian.com/football/2014/dec/28/qpr-crystal-palace-premier-league-match-report", "apiUrl": "https://content.guardianapis.com/football/2014/dec/28/qpr-crystal-palace-premier-league-match-report", "isHosted": false, "pillarId": "pillar/sport", "pillarName": "Sport"}, {"id": "football/2014/dec/28/aston-villa-sunderland-premier-league-match-report", "type": "article", "sectionId": "football", "sectionName": "Football", "webPublicationDate": "2014-12-28T17:13:53Z", "webTitle": "Aston Villa 0-0 Sunderland | Premier League match report", "webUrl": "https://www.theguardian.com/football/2014/dec/28/aston-villa-sunderland-premier-league-match-report", "apiUrl": "https://content.guardianapis.com/football/2014/dec/28/aston-villa-sunderland-premier-league-match-report", "isHosted": false, "pillarId": "pillar/sport", "pillarName": "Sport"}, {"id": "football/2014/dec/28/manchester-city-burnley-premier-league-match-report", "type": "article", "sectionId": "football", "sectionName": "Football", "webPublicationDate": "2014-12-28T17:11:11Z", "webTitle": "Manchester City 2-2 Burnley | Premier League match report", "webUrl": "https://www.theguardian.com/football/2014/dec/28/manchester-city-burnley-premier-league-match-report", "apiUrl": "https://content.guardianapis.com/football/2014/dec/28/manchester-city-burnley-premier-league-match-report", "isHosted": false, "pillarId": "pillar/sport", "pillarName": "Sport"}, {"id": "football/live/2014/dec/28/premier-league-clockwatch-live", "type": "liveblog", "sectionId": "football", "sectionName": "Football", "webPublicationDate": "2014-12-28T17:10:57Z", "webTitle": "Premier League clockwatch \u2013 as it happened | Niall McVeigh", "webUrl": "https://www.theguardian.com/football/live/2014/dec/28/premier-league-clockwatch-live", "apiUrl": "https://content.guardianapis.com/football/live/2014/dec/28/premier-league-clockwatch-live", "isHosted": false, "pillarId": "pillar/sport", "pillarName": "Sport"}, {"id": "football/2014/dec/28/west-ham-united-arsenal-premier-league-match-report", "type": "article", "sectionId": "football", "sectionName": "Football", "webPublicationDate": "2014-12-28T17:07:34Z", "webTitle": "West Ham United 1-2 Arsenal | Premier League match report", "webUrl": "https://www.theguardian.com/football/2014/dec/28/west-ham-united-arsenal-premier-league-match-report", "apiUrl": "https://content.guardianapis.com/football/2014/dec/28/west-ham-united-arsenal-premier-league-match-report", "isHosted": false, "pillarId": "pillar/sport", "pillarName": "Sport"}, {"id": "football/2014/dec/28/hull-city-leicester-city-premier-league-match-report", "type": "article", "sectionId": "football", "sectionName": "Football", "webPublicationDate": "2014-12-28T17:06:49Z", "webTitle": "Hull City 0-1 Leicester City | Premier League match report", "webUrl": "https://www.theguardian.com/football/2014/dec/28/hull-city-leicester-city-premier-league-match-report", "apiUrl": "https://content.guardianapis.com/football/2014/dec/28/hull-city-leicester-city-premier-league-match-report", "isHosted": false, "pillarId": "pillar/sport", "pillarName": "Sport"}, {"id": "football/blog/2014/dec/28/spurs-louis-van-gaal-harry-kane-manchester-united-wayne-rooney", "type": "article", "sectionId": "football", "sectionName": "Football", "webPublicationDate": "2014-12-28T16:54:17Z", "webTitle": "Wayne v Kane showdown falls flat in stalemate at Spurs | Barney Ronay", "webUrl": "https://www.theguardian.com/football/blog/2014/dec/28/spurs-louis-van-gaal-harry-kane-manchester-united-wayne-rooney", "apiUrl": "https://content.guardianapis.com/football/blog/2014/dec/28/spurs-louis-van-gaal-harry-kane-manchester-united-wayne-rooney", "isHosted": false, "pillarId": "pillar/sport", "pillarName": "Sport"}]}}