{"response": {"status": "ok", "userTier": "developer", "total": 20997, "startIndex": 1, "pageSize": 50, "currentPage": 1, "pages": 420, "orderBy": "newest", "results": [{"id": "science/2014/dec/30/science-magic-mulled-wine-recipe", "type": "article", "sectionId": "science", "sectionName": "Science", "webPublicationDate": "2014-12-30T14:47:23Z", "webTitle": "The science and magic of mulled wine | Andy Connelly", "webUrl": "https://www.theguardian.com/science/2014/dec/30/science-magic-mulled-wine-recipe", "apiUrl": "https://content.guardianapis.com/science/2014/dec/30/science-magic-mulled-wine-recipe", "isHosted": false, "pillarId": "pillar/news", "pillarName": "News"}, {"id": "business/2014/dec/30/how-start-small-business-new-year-resolution", "type": "article", "sectionId": "business", "sectionName": "Business", "webPublicationDate": "2014-12-30T13:30:01Z", "webTitle": "Dreaming of starting a business? Learn from popcorn and bacon salt pros", "webUrl": "https://www.theguardian.com/business/2014/dec/30/how-start-small-business-new-year-resolution", "apiUrl": "https://content.guardianapis.com/business/2014/dec/30/how-start-small-business-new-year-resolution", "isHosted": false, "pillarId": "pillar/news", "pillarName": "News"}, {"id": "travel/2014/dec/30/new-orleans-hotel-concierge-john-fitzpatrick", "type": "article", "sectionId": "travel", "sectionName": "Travel", "webPublicationDate": "2014-12-30T12:00:11Z", "webTitle": "Concierge John Fitzpatrick on New Orleans", "webUrl": "https://www.theguardian.com/travel/2014/dec/30/new-orleans-hotel-concierge-john-fitzpatrick", "apiUrl": "https://content.guardianapis.com/travel/2014/dec/30/new-orleans-hotel-concierge-john-fitzpatrick", "isHosted": false, "pillarId": "pillar/lifestyle", "pillarName": "Lifestyle"}, {"id": "lifeandstyle/wordofmouth/2014/dec/30/new-years-eve-cocktails-five-easy-ways-to-wow", "type": "article", "sectionId": "food", "sectionName": "Food", "webPublicationDate": "2014-12-30T10:00:09Z", "webTitle": "New Year's Eve cocktails: five easy ways to wow", "webUrl": "https://www.theguardian.com/lifeandstyle/wordofmouth/2014/dec/30/new-years-eve-cocktails-five-easy-ways-to-wow", "apiUrl": "https://content.guardianapis.com/lifeandstyle/wordofmouth/2014/dec/30/new-years-eve-cocktails-five-easy-ways-to-wow", "isHosted": false, "pillarId": "pillar/lifestyle", "pillarName": "Lifestyle"}, {"id": "lifeandstyle/australia-food-blog/2014/dec/30/the-mcdonalds-lab-disguised-as-a-hipster-cafe", "type": "article", "sectionId": "food", "sectionName": "Food", "webPublicationDate": "2014-12-30T06:08:08Z", "webTitle": "The McDonald's disguised as a hipster cafe", "webUrl": "https://www.theguardian.com/lifeandstyle/australia-food-blog/2014/dec/30/the-mcdonalds-lab-disguised-as-a-hipster-cafe", "apiUrl": "https://content.guardianapis.com/lifeandstyle/australia-food-blog/2014/dec/30/the-mcdonalds-lab-disguised-as-a-hipster-cafe", "isHosted": false, "pillarId": "pillar/lifestyle", "pillarName": "Lifestyle"}, {"id": "lifeandstyle/australia-food-blog/2014/nov/18/the-gold-coast-eating-and-drinking-beyond-the-strip", "type": "article", "sectionId": "food", "sectionName": "Food", "webPublicationDate": "2014-12-30T00:13:18Z", "webTitle": "The Gold Coast \u2013 eating and drinking beyond the strip", "webUrl": "https://www.theguardian.com/lifeandstyle/australia-food-blog/2014/nov/18/the-gold-coast-eating-and-drinking-beyond-the-strip", "apiUrl": "https://content.guardianapis.com/lifeandstyle/australia-food-blog/2014/nov/18/the-gold-coast-eating-and-drinking-beyond-the-strip", "isHosted": false, "pillarId": "pillar/lifestyle", "pillarName": "Lifestyle"}, {"id": "business/2014/dec/30/e-cigarettes-sports-nutrition-supermarkets-sales-rise-uk", "type": "article", "sectionId": "business", "sectionName": "Business", "webPublicationDate": "2014-12-30T00:05:07Z", "webTitle": "E-cigarettes and sports nutrition products lead grocery sales boost", "webUrl": "https://www.theguardian.com/business/2014/dec/30/e-cigarettes-sports-nutrition-supermarkets-sales-rise-uk", "apiUrl": "https://content.guardianapis.com/business/2014/dec/30/e-cigarettes-sports-nutrition-supermarkets-sales-rise-uk", "isHosted": false, "pillarId": "pillar/news", "pillarName": "News"}, {"id": "business/2014/dec/29/shake-shack-100m-ipo-filing", "type": "article", "sectionId": "business", "sectionName": "Business", "webPublicationDate": "2014-12-29T19:11:58Z", "webTitle": "Get in line: popular burger joint Shake Shack files for $100m IPO", "webUrl": "https://www.theguardian.com/business/2014/dec/29/shake-shack-100m-ipo-filing", "apiUrl": "https://content.guardianapis.com/business/2014/dec/29/shake-shack-100m-ipo-filing", "isHosted": false, "pillarId": "pillar/news", "pillarName": "News"}, {"id": "lifeandstyle/wordofmouth/2014/dec/29/make-your-own-gin-tonic-homemade-gandt", "type": "article", "sectionId": "food", "sectionName": "Food", "webPublicationDate": "2014-12-29T10:00:02Z", "webTitle": "Make your own gin and tonic", "webUrl": "https://www.theguardian.com/lifeandstyle/wordofmouth/2014/dec/29/make-your-own-gin-tonic-homemade-gandt", "apiUrl": "https://content.guardianapis.com/lifeandstyle/wordofmouth/2014/dec/29/make-your-own-gin-tonic-homemade-gandt", "isHosted": false, "pillarId": "pillar/lifestyle", "pillarName": "Lifestyle"}, {"id": "lifeandstyle/australia-food-blog/2014/dec/29/what-we-ate-in-2014-our-appetite-for-kale-hipster-asian-gluten-free-and-paleo", "type": "article", "sectionId": "lifeandstyle", "sectionName": "Life and style", "webPublicationDate": "2014-12-28T23:14:32Z", "webTitle": "What we ate in 2014: our appetite for kale, hipster Asian, gluten-free and paleo", "webUrl": "https://www.theguardian.com/lifeandstyle/australia-food-blog/2014/dec/29/what-we-ate-in-2014-our-appetite-for-kale-hipster-asian-gluten-free-and-paleo", "apiUrl": "https://content.guardianapis.com/lifeandstyle/australia-food-blog/2014/dec/29/what-we-ate-in-2014-our-appetite-for-kale-hipster-asian-gluten-free-and-paleo", "isHosted": false, "pillarId": "pillar/lifestyle", "pillarName": "Lifestyle"}, {"id": "education/2014/dec/28/healthy-hangover-sweet-potato-wedges", "type": "article", "sectionId": "education", "sectionName": "Education", "webPublicationDate": "2014-12-28T13:26:07Z", "webTitle": "How to have a healthy hangover: sweet potato wedges", "webUrl": "https://www.theguardian.com/education/2014/dec/28/healthy-hangover-sweet-potato-wedges", "apiUrl": "https://content.guardianapis.com/education/2014/dec/28/healthy-hangover-sweet-potato-wedges", "isHosted": false, "pillarId": "pillar/news", "pillarName": "News"}, {"id": "culture/2014/dec/28/chef-olia-hercules-rising-stars-2015", "type": "article", "sectionId": "culture", "sectionName": "Culture", "webPublicationDate": "2014-12-28T09:00:10Z", "webTitle": "Rising stars of 2015: chef Olia Hercules", "webUrl": "https://www.theguardian.com/culture/2014/dec/28/chef-olia-hercules-rising-stars-2015", "apiUrl": "https://content.guardianapis.com/culture/2014/dec/28/chef-olia-hercules-rising-stars-2015", "isHosted": false, "pillarId": "pillar/arts", "pillarName": "Arts"}, {"id": "travel/2014/dec/28/foodie-traveller-paris-cocktail-bar-a-la-francaise", "type": "article", "sectionId": "travel", "sectionName": "Travel", "webPublicationDate": "2014-12-28T07:00:08Z", "webTitle": "The foodie traveller on \u2026 cocktails in Paris", "webUrl": "https://www.theguardian.com/travel/2014/dec/28/foodie-traveller-paris-cocktail-bar-a-la-francaise", "apiUrl": "https://content.guardianapis.com/travel/2014/dec/28/foodie-traveller-paris-cocktail-bar-a-la-francaise", "isHosted": false, "pillarId": "pillar/lifestyle", "pillarName": "Lifestyle"}, {"id": "lifeandstyle/2014/dec/28/dorchester-grill-restaurant-review-jay-rayner", "type": "article", "sectionId": "food", "sectionName": "Food", "webPublicationDate": "2014-12-28T06:00:06Z", "webTitle": "Dorchester Grill: restaurant review | Jay Rayner", "webUrl": "https://www.theguardian.com/lifeandstyle/2014/dec/28/dorchester-grill-restaurant-review-jay-rayner", "apiUrl": "https://content.guardianapis.com/lifeandstyle/2014/dec/28/dorchester-grill-restaurant-review-jay-rayner", "isHosted": false, "pillarId": "pillar/lifestyle", "pillarName": "Lifestyle"}, {"id": "lifeandstyle/2014/dec/28/three-of-2014-best-white-wines", "type": "article", "sectionId": "food", "sectionName": "Food", "webPublicationDate": "2014-12-28T06:00:06Z", "webTitle": "Three of 2014\u2019s best whites | David Williams", "webUrl": "https://www.theguardian.com/lifeandstyle/2014/dec/28/three-of-2014-best-white-wines", "apiUrl": "https://content.guardianapis.com/lifeandstyle/2014/dec/28/three-of-2014-best-white-wines", "isHosted": false, "pillarId": "pillar/lifestyle", "pillarName": "Lifestyle"}, {"id": "australia-news/2014/dec/28/victoria-launches-crackdown-on-sale-of-raw-unpasteurised-milk", "type": "article", "sectionId": "australia-news", "sectionName": "Australia news", "webPublicationDate": "2014-12-28T02:16:48Z", "webTitle": "Victoria launches crackdown on sale of 'raw' unpasteurised milk", "webUrl": "https://www.theguardian.com/australia-news/2014/dec/28/victoria-launches-crackdown-on-sale-of-raw-unpasteurised-milk", "apiUrl": "https://content.guardianapis.com/australia-news/2014/dec/28/victoria-launches-crackdown-on-sale-of-raw-unpasteurised-milk", "isHosted": false, "pillarId": "pillar/news", "pillarName": "News"}, {"id": "business/2014/dec/27/toms-founder-there-is-real-opportunity-to-address-the-worlds-needs", "type": "article", "sectionId": "business", "sectionName": "Business", "webPublicationDate": "2014-12-27T13:00:08Z", "webTitle": "Toms founder: 'There is real opportunity to address the world's needs'", "webUrl": "https://www.theguardian.com/business/2014/dec/27/toms-founder-there-is-real-opportunity-to-address-the-worlds-needs", "apiUrl": "https://content.guardianapis.com/business/2014/dec/27/toms-founder-there-is-real-opportunity-to-address-the-worlds-needs", "isHosted": false, "pillarId": "pillar/news", "pillarName": "News"}, {"id": "commentisfree/2014/dec/27/i-never-thought-my-vegetarian-vow-would-be-easy", "type": "article", "sectionId": "commentisfree", "sectionName": "Opinion", "webPublicationDate": "2014-12-27T08:00:02Z", "webTitle": "I never thought my vegetarian vow would be easy \u2013 but I thought I could resist a pork pie | Ian Jack", "webUrl": "https://www.theguardian.com/commentisfree/2014/dec/27/i-never-thought-my-vegetarian-vow-would-be-easy", "apiUrl": "https://content.guardianapis.com/commentisfree/2014/dec/27/i-never-thought-my-vegetarian-vow-would-be-easy", "isHosted": false, "pillarId": "pillar/opinion", "pillarName": "Opinion"}, {"id": "lifeandstyle/2014/dec/27/last-new-year-jim-joni-mitchell-grannys-lentil-soup", "type": "article", "sectionId": "lifeandstyle", "sectionName": "Life and style", "webPublicationDate": "2014-12-27T06:44:00Z", "webTitle": "Our last New Year toast with son Jim, River by Joni Mitchell, and my granny\u2019s lentil soup", "webUrl": "https://www.theguardian.com/lifeandstyle/2014/dec/27/last-new-year-jim-joni-mitchell-grannys-lentil-soup", "apiUrl": "https://content.guardianapis.com/lifeandstyle/2014/dec/27/last-new-year-jim-joni-mitchell-grannys-lentil-soup", "isHosted": false, "pillarId": "pillar/lifestyle", "pillarName": "Lifestyle"}, {"id": "lifeandstyle/2014/dec/27/low-abv-wine-drink-less-new-year-resolutions", "type": "article", "sectionId": "food", "sectionName": "Food", "webPublicationDate": "2014-12-27T06:00:11Z", "webTitle": "Wine: how to cut down the smart way", "webUrl": "https://www.theguardian.com/lifeandstyle/2014/dec/27/low-abv-wine-drink-less-new-year-resolutions", "apiUrl": "https://content.guardianapis.com/lifeandstyle/2014/dec/27/low-abv-wine-drink-less-new-year-resolutions", "isHosted": false, "pillarId": "pillar/lifestyle", "pillarName": "Lifestyle"}, {"id": "lifeandstyle/2014/dec/27/gosnells-london-mead-brewing-tom-gosnell-behind-the-scenes", "type": "article", "sectionId": "food", "sectionName": "Food", "webPublicationDate": "2014-12-27T06:00:10Z", "webTitle": "A taste of honey: meet the mead-maker | Behind the Scenes", "webUrl": "https://www.theguardian.com/lifeandstyle/2014/dec/27/gosnells-london-mead-brewing-tom-gosnell-behind-the-scenes", "apiUrl": "https://content.guardianapis.com/lifeandstyle/2014/dec/27/gosnells-london-mead-brewing-tom-gosnell-behind-the-scenes", "isHosted": false, "pillarId": "pillar/lifestyle", "pillarName": "Lifestyle"}, {"id": "lifeandstyle/2014/dec/27/good-food-for-your-table-review-by-melrose-and-morgan-cookworm-book-review", "type": "article", "sectionId": "lifeandstyle", "sectionName": "Life and style", "webPublicationDate": "2014-12-27T06:00:10Z", "webTitle": "Good Food for Your Table by Melrose and Morgan | Cookworm", "webUrl": "https://www.theguardian.com/lifeandstyle/2014/dec/27/good-food-for-your-table-review-by-melrose-and-morgan-cookworm-book-review", "apiUrl": "https://content.guardianapis.com/lifeandstyle/2014/dec/27/good-food-for-your-table-review-by-melrose-and-morgan-cookworm-book-review", "isHosted": false, "pillarId": "pillar/lifestyle", "pillarName": "Lifestyle"}, {"id": "lifeandstyle/2014/dec/27/chutney-recipes-banana-chilli-readers-recipe-swap", "type": "article", "sectionId": "lifeandstyle", "sectionName": "Life and style", "webPublicationDate": "2014-12-27T06:00:10Z", "webTitle": "Readers\u2019 recipe swap: chutney", "webUrl": "https://www.theguardian.com/lifeandstyle/2014/dec/27/chutney-recipes-banana-chilli-readers-recipe-swap", "apiUrl": "https://content.guardianapis.com/lifeandstyle/2014/dec/27/chutney-recipes-banana-chilli-readers-recipe-swap", "isHosted": false, "pillarId": "pillar/lifestyle", "pillarName": "Lifestyle"}, {"id": "lifeandstyle/2014/dec/27/breakfast-baking-pikelets-croissant-recipes-ruby-tandoh", "type": "article", "sectionId": "lifeandstyle", "sectionName": "Life and style", "webPublicationDate": "2014-12-27T05:59:10Z", "webTitle": "Bake up early: breakfast recipes | Ruby Bakes", "webUrl": "https://www.theguardian.com/lifeandstyle/2014/dec/27/breakfast-baking-pikelets-croissant-recipes-ruby-tandoh", "apiUrl": "https://content.guardianapis.com/lifeandstyle/2014/dec/27/breakfast-baking-pikelets-croissant-recipes-ruby-tandoh", "isHosted": false, "pillarId": "pillar/lifestyle", "pillarName": "Lifestyle"}, {"id": "lifeandstyle/2014/dec/27/christmas-leftovers-theres-more-than-one-way-to-eat-a-turkey", "type": "article", "sectionId": "lifeandstyle", "sectionName": "Life and style", "webPublicationDate": "2014-12-27T01:09:23Z", "webTitle": "Christmas leftovers: there's more than one way to eat a turkey", "webUrl": "https://www.theguardian.com/lifeandstyle/2014/dec/27/christmas-leftovers-theres-more-than-one-way-to-eat-a-turkey", "apiUrl": "https://content.guardianapis.com/lifeandstyle/2014/dec/27/christmas-leftovers-theres-more-than-one-way-to-eat-a-turkey", "isHosted": false, "pillarId": "pillar/lifestyle", "pillarName": "Lifestyle"}, {"id": "world/2014/dec/26/spanish-wine-researchers-diversity-local-rare-grapes", "type": "article", "sectionId": "world", "sectionName": "World news", "webPublicationDate": "2014-12-26T19:15:28Z", "webTitle": "Spanish wine researchers work to preserve rare grape varieties", "webUrl": "https://www.theguardian.com/world/2014/dec/26/spanish-wine-researchers-diversity-local-rare-grapes", "apiUrl": "https://content.guardianapis.com/world/2014/dec/26/spanish-wine-researchers-diversity-local-rare-grapes", "isHosted": false, "pillarId": "pillar/news", "pillarName": "News"}, {"id": "theguardian/2014/dec/26/zoe-williams-what-i-learned-calories-gay-marriage-bake-off", "type": "article", "sectionId": "theguardian", "sectionName": "From the Guardian", "webPublicationDate": "2014-12-26T18:57:49Z", "webTitle": "What I learned this year: the insanity of the obesity era | Zoe Williams", "webUrl": "https://www.theguardian.com/theguardian/2014/dec/26/zoe-williams-what-i-learned-calories-gay-marriage-bake-off", "apiUrl": "https://content.guardianapis.com/theguardian/2014/dec/26/zoe-williams-what-i-learned-calories-gay-marriage-bake-off", "isHosted": false, "pillarId": "pillar/news", "pillarName": "News"}, {"id": "lifeandstyle/2014/dec/26/noma-restaurant-tokyo-japan", "type": "article", "sectionId": "food", "sectionName": "Food", "webPublicationDate": "2014-12-26T18:25:48Z", "webTitle": "Noma goes to Tokyo: \u2018this is a great opportunity to show off what we can do\u2019", "webUrl": "https://www.theguardian.com/lifeandstyle/2014/dec/26/noma-restaurant-tokyo-japan", "apiUrl": "https://content.guardianapis.com/lifeandstyle/2014/dec/26/noma-restaurant-tokyo-japan", "isHosted": false, "pillarId": "pillar/lifestyle", "pillarName": "Lifestyle"}, {"id": "lifeandstyle/2014/dec/26/new-year-champagne-cocktail-recipe", "type": "article", "sectionId": "food", "sectionName": "Food", "webPublicationDate": "2014-12-26T18:00:08Z", "webTitle": "The good mixer: Out With The Old\u2026 cocktail recipe", "webUrl": "https://www.theguardian.com/lifeandstyle/2014/dec/26/new-year-champagne-cocktail-recipe", "apiUrl": "https://content.guardianapis.com/lifeandstyle/2014/dec/26/new-year-champagne-cocktail-recipe", "isHosted": false, "pillarId": "pillar/lifestyle", "pillarName": "Lifestyle"}, {"id": "lifeandstyle/2014/dec/26/leftover-roast-turkey-christmas-recipes-thomasina-miers", "type": "article", "sectionId": "food", "sectionName": "Food", "webPublicationDate": "2014-12-26T17:00:07Z", "webTitle": "The weekend cook: Thomasina Miers\u2019 recipes for leftover Christmas turkey", "webUrl": "https://www.theguardian.com/lifeandstyle/2014/dec/26/leftover-roast-turkey-christmas-recipes-thomasina-miers", "apiUrl": "https://content.guardianapis.com/lifeandstyle/2014/dec/26/leftover-roast-turkey-christmas-recipes-thomasina-miers", "isHosted": false, "pillarId": "pillar/lifestyle", "pillarName": "Lifestyle"}, {"id": "lifeandstyle/2014/dec/26/the-goring-restaurant-review-london-marina-oloughlin", "type": "article", "sectionId": "lifeandstyle", "sectionName": "Life and style", "webPublicationDate": "2014-12-26T15:00:05Z", "webTitle": "The Goring, London SW1 \u2013 restaurant review | Marina O\u2019Loughlin", "webUrl": "https://www.theguardian.com/lifeandstyle/2014/dec/26/the-goring-restaurant-review-london-marina-oloughlin", "apiUrl": "https://content.guardianapis.com/lifeandstyle/2014/dec/26/the-goring-restaurant-review-london-marina-oloughlin", "isHosted": false, "pillarId": "pillar/lifestyle", "pillarName": "Lifestyle"}, {"id": "lifeandstyle/2014/dec/26/twixtmas-lunch-ideas-sophie-craig-caroline-missing", "type": "article", "sectionId": "lifeandstyle", "sectionName": "Life and style", "webPublicationDate": "2014-12-26T12:30:02Z", "webTitle": "Top lunch ideas this Twixtmas | The lunch box", "webUrl": "https://www.theguardian.com/lifeandstyle/2014/dec/26/twixtmas-lunch-ideas-sophie-craig-caroline-missing", "apiUrl": "https://content.guardianapis.com/lifeandstyle/2014/dec/26/twixtmas-lunch-ideas-sophie-craig-caroline-missing", "isHosted": false, "pillarId": "pillar/lifestyle", "pillarName": "Lifestyle"}, {"id": "lifeandstyle/2014/dec/26/bone-broth-chicken-soup-recipe", "type": "article", "sectionId": "lifeandstyle", "sectionName": "Life and style", "webPublicationDate": "2014-12-26T12:30:02Z", "webTitle": "How to make bone broth", "webUrl": "https://www.theguardian.com/lifeandstyle/2014/dec/26/bone-broth-chicken-soup-recipe", "apiUrl": "https://content.guardianapis.com/lifeandstyle/2014/dec/26/bone-broth-chicken-soup-recipe", "isHosted": false, "pillarId": "pillar/lifestyle", "pillarName": "Lifestyle"}, {"id": "lifeandstyle/2014/dec/26/last-bites-margot-henderson-wild-lamb-barbecue", "type": "article", "sectionId": "lifeandstyle", "sectionName": "Life and style", "webPublicationDate": "2014-12-26T12:30:02Z", "webTitle": "Heavenly shore: Margot Henderson\u2019s final meal | Last Bites", "webUrl": "https://www.theguardian.com/lifeandstyle/2014/dec/26/last-bites-margot-henderson-wild-lamb-barbecue", "apiUrl": "https://content.guardianapis.com/lifeandstyle/2014/dec/26/last-bites-margot-henderson-wild-lamb-barbecue", "isHosted": false, "pillarId": "pillar/lifestyle", "pillarName": "Lifestyle"}, {"id": "commentisfree/2014/dec/26/food-enjoyed-not-instagrammed-bragging-oligarch", "type": "article", "sectionId": "commentisfree", "sectionName": "Opinion", "webPublicationDate": "2014-12-26T11:00:00Z", "webTitle": "Food is to be enjoyed, not Instagrammed | Anne Perkins", "webUrl": "https://www.theguardian.com/commentisfree/2014/dec/26/food-enjoyed-not-instagrammed-bragging-oligarch", "apiUrl": "https://content.guardianapis.com/commentisfree/2014/dec/26/food-enjoyed-not-instagrammed-bragging-oligarch", "isHosted": false, "pillarId": "pillar/opinion", "pillarName": "Opinion"}, {"id": "lifeandstyle/2014/dec/26/baked-potato-skins-christmas-ham-apple-slaw-recipe", "type": "article", "sectionId": "lifeandstyle", "sectionName": "Life and style", "webPublicationDate": "2014-12-26T09:00:00Z", "webTitle": "Baked potato skins with Christmas ham and apple slaw \u2013 recipe", "webUrl": "https://www.theguardian.com/lifeandstyle/2014/dec/26/baked-potato-skins-christmas-ham-apple-slaw-recipe", "apiUrl": "https://content.guardianapis.com/lifeandstyle/2014/dec/26/baked-potato-skins-christmas-ham-apple-slaw-recipe", "isHosted": false, "pillarId": "pillar/lifestyle", "pillarName": "Lifestyle"}, {"id": "lifeandstyle/2014/dec/26/wine-trends-2014-drink-aloud", "type": "article", "sectionId": "food", "sectionName": "Food", "webPublicationDate": "2014-12-26T06:00:09Z", "webTitle": "Wine trends that made us gulp in 2014 | Drink Aloud", "webUrl": "https://www.theguardian.com/lifeandstyle/2014/dec/26/wine-trends-2014-drink-aloud", "apiUrl": "https://content.guardianapis.com/lifeandstyle/2014/dec/26/wine-trends-2014-drink-aloud", "isHosted": false, "pillarId": "pillar/lifestyle", "pillarName": "Lifestyle"}, {"id": "travel/2014/dec/26/hangover-cures-around-world-new-year-remedies", "type": "article", "sectionId": "travel", "sectionName": "Travel", "webPublicationDate": "2014-12-26T05:59:09Z", "webTitle": "Anyone for ant tea? Hangover remedies from around the world", "webUrl": "https://www.theguardian.com/travel/2014/dec/26/hangover-cures-around-world-new-year-remedies", "apiUrl": "https://content.guardianapis.com/travel/2014/dec/26/hangover-cures-around-world-new-year-remedies", "isHosted": false, "pillarId": "pillar/lifestyle", "pillarName": "Lifestyle"}, {"id": "travel/2014/dec/25/unusual-drinking-experiences-around-the-world", "type": "article", "sectionId": "travel", "sectionName": "Travel", "webPublicationDate": "2014-12-25T08:00:04Z", "webTitle": "Unusual drinking experiences: readers' travel tips", "webUrl": "https://www.theguardian.com/travel/2014/dec/25/unusual-drinking-experiences-around-the-world", "apiUrl": "https://content.guardianapis.com/travel/2014/dec/25/unusual-drinking-experiences-around-the-world", "isHosted": false, "pillarId": "pillar/lifestyle", "pillarName": "Lifestyle"}, {"id": "travel/2014/dec/24/10-best-new-years-eve-pubs-readers-travel-tips", "type": "article", "sectionId": "travel", "sectionName": "Travel", "webPublicationDate": "2014-12-24T11:00:05Z", "webTitle": "10 of the best New Year\u2019s Eve pubs: readers\u2019 travel tips", "webUrl": "https://www.theguardian.com/travel/2014/dec/24/10-best-new-years-eve-pubs-readers-travel-tips", "apiUrl": "https://content.guardianapis.com/travel/2014/dec/24/10-best-new-years-eve-pubs-readers-travel-tips", "isHosted": false, "pillarId": "pillar/lifestyle", "pillarName": "Lifestyle"}, {"id": "commentisfree/2014/dec/24/christmas-wouldnt-be-same-without-traditions", "type": "article", "sectionId": "commentisfree", "sectionName": "Opinion", "webPublicationDate": "2014-12-24T09:00:01Z", "webTitle": "Christmas wouldn't be the same without \u2026 | Guardian writers", "webUrl": "https://www.theguardian.com/commentisfree/2014/dec/24/christmas-wouldnt-be-same-without-traditions", "apiUrl": "https://content.guardianapis.com/commentisfree/2014/dec/24/christmas-wouldnt-be-same-without-traditions", "isHosted": false, "pillarId": "pillar/opinion", "pillarName": "Opinion"}, {"id": "lifeandstyle/wordofmouth/2014/dec/24/christmas-dinner-abroad-what-expats-miss-most", "type": "article", "sectionId": "food", "sectionName": "Food", "webPublicationDate": "2014-12-24T08:00:01Z", "webTitle": "Christmas dinner abroad: what expats miss most", "webUrl": "https://www.theguardian.com/lifeandstyle/wordofmouth/2014/dec/24/christmas-dinner-abroad-what-expats-miss-most", "apiUrl": "https://content.guardianapis.com/lifeandstyle/wordofmouth/2014/dec/24/christmas-dinner-abroad-what-expats-miss-most", "isHosted": false, "pillarId": "pillar/lifestyle", "pillarName": "Lifestyle"}, {"id": "science/2014/dec/23/space-food-italy-female-astronaut-christmas-meal-samantha-cristoforetti", "type": "article", "sectionId": "science", "sectionName": "Science", "webPublicationDate": "2014-12-23T20:08:35Z", "webTitle": "Space cuisine: the final frontier", "webUrl": "https://www.theguardian.com/science/2014/dec/23/space-food-italy-female-astronaut-christmas-meal-samantha-cristoforetti", "apiUrl": "https://content.guardianapis.com/science/2014/dec/23/space-food-italy-female-astronaut-christmas-meal-samantha-cristoforetti", "isHosted": false, "pillarId": "pillar/news", "pillarName": "News"}, {"id": "tv-and-radio/tvandradioblog/2014/dec/23/who-should-win-this-years-masterchef-the-professionals-final", "type": "article", "sectionId": "tv-and-radio", "sectionName": "Television & radio", "webPublicationDate": "2014-12-23T12:00:03Z", "webTitle": "Who should win this year's MasterChef: The Professionals final?", "webUrl": "https://www.theguardian.com/tv-and-radio/tvandradioblog/2014/dec/23/who-should-win-this-years-masterchef-the-professionals-final", "apiUrl": "https://content.guardianapis.com/tv-and-radio/tvandradioblog/2014/dec/23/who-should-win-this-years-masterchef-the-professionals-final", "isHosted": false, "pillarId": "pillar/arts", "pillarName": "Arts"}, {"id": "lifeandstyle/wordofmouth/2014/dec/23/truth-about-alcohol-gin-tears-champagne-hangovers", "type": "article", "sectionId": "lifeandstyle", "sectionName": "Life and style", "webPublicationDate": "2014-12-23T10:59:25Z", "webTitle": "The truth about alcohol, from gin tears to champagne hangovers", "webUrl": "https://www.theguardian.com/lifeandstyle/wordofmouth/2014/dec/23/truth-about-alcohol-gin-tears-champagne-hangovers", "apiUrl": "https://content.guardianapis.com/lifeandstyle/wordofmouth/2014/dec/23/truth-about-alcohol-gin-tears-champagne-hangovers", "isHosted": false, "pillarId": "pillar/lifestyle", "pillarName": "Lifestyle"}, {"id": "lifeandstyle/wordofmouth/2014/dec/23/christmas-leftovers-seven-stages", "type": "article", "sectionId": "food", "sectionName": "Food", "webPublicationDate": "2014-12-23T10:00:02Z", "webTitle": "The seven stages of Christmas leftovers", "webUrl": "https://www.theguardian.com/lifeandstyle/wordofmouth/2014/dec/23/christmas-leftovers-seven-stages", "apiUrl": "https://content.guardianapis.com/lifeandstyle/wordofmouth/2014/dec/23/christmas-leftovers-seven-stages", "isHosted": false, "pillarId": "pillar/lifestyle", "pillarName": "Lifestyle"}, {"id": "commentisfree/2014/dec/22/behind-the-restaurant-boom-urban-delusion", "type": "article", "sectionId": "commentisfree", "sectionName": "Opinion", "webPublicationDate": "2014-12-22T19:28:22Z", "webTitle": "Behind the restaurant boom: the urban delusion consuming our cities | Aditya Chakrabortty", "webUrl": "https://www.theguardian.com/commentisfree/2014/dec/22/behind-the-restaurant-boom-urban-delusion", "apiUrl": "https://content.guardianapis.com/commentisfree/2014/dec/22/behind-the-restaurant-boom-urban-delusion", "isHosted": false, "pillarId": "pillar/opinion", "pillarName": "Opinion"}, {"id": "business/2014/dec/22/maple-syrup-heist-quebec-canada", "type": "article", "sectionId": "business", "sectionName": "Business", "webPublicationDate": "2014-12-22T16:48:44Z", "webTitle": "Maple syrup heist: Quebec producers bounce back from sticky situation", "webUrl": "https://www.theguardian.com/business/2014/dec/22/maple-syrup-heist-quebec-canada", "apiUrl": "https://content.guardianapis.com/business/2014/dec/22/maple-syrup-heist-quebec-canada", "isHosted": false, "pillarId": "pillar/news", "pillarName": "News"}, {"id": "lifeandstyle/2014/dec/22/claudia-roden-final-meal-last-bites-chicken-recipe", "type": "article", "sectionId": "food", "sectionName": "Food", "webPublicationDate": "2014-12-22T11:01:09Z", "webTitle": "Flying the coop: Claudia Roden\u2019s final meal | Last Bites", "webUrl": "https://www.theguardian.com/lifeandstyle/2014/dec/22/claudia-roden-final-meal-last-bites-chicken-recipe", "apiUrl": "https://content.guardianapis.com/lifeandstyle/2014/dec/22/claudia-roden-final-meal-last-bites-chicken-recipe", "isHosted": false, "pillarId": "pillar/lifestyle", "pillarName": "Lifestyle"}, {"id": "lifeandstyle/2014/dec/22/cooking-up-a-storm-katharine-whitehorn", "type": "article", "sectionId": "lifeandstyle", "sectionName": "Life and style", "webPublicationDate": "2014-12-22T11:01:09Z", "webTitle": "Cooking up a storm | Katharine Whitehorn", "webUrl": "https://www.theguardian.com/lifeandstyle/2014/dec/22/cooking-up-a-storm-katharine-whitehorn", "apiUrl": "https://content.guardianapis.com/lifeandstyle/2014/dec/22/cooking-up-a-storm-katharine-whitehorn", "isHosted": false, "pillarId": "pillar/lifestyle", "pillarName": "Lifestyle"}]}}