{"response": {"status": "ok", "userTier": "developer", "total": 15783, "startIndex": 1, "pageSize": 50, "currentPage": 1, "pages": 316, "orderBy": "newest", "results": [{"id": "lifeandstyle/wordofmouth/2010/dec/31/how-buy-scotch-whisky-present", "type": "article", "sectionId": "lifeandstyle", "sectionName": "Life and style", "webPublicationDate": "2010-12-30T16:00:00Z", "webTitle": "Buying whisky for Hogmanay", "webUrl": "https://www.theguardian.com/lifeandstyle/wordofmouth/2010/dec/31/how-buy-scotch-whisky-present", "apiUrl": "https://content.guardianapis.com/lifeandstyle/wordofmouth/2010/dec/31/how-buy-scotch-whisky-present", "isHosted": false, "pillarId": "pillar/lifestyle", "pillarName": "Lifestyle"}, {"id": "lifeandstyle/wordofmouth/2010/dec/30/cookery-books-of-the-year", "type": "article", "sectionId": "lifeandstyle", "sectionName": "Life and style", "webPublicationDate": "2010-12-30T15:43:00Z", "webTitle": "Cookery books of the year", "webUrl": "https://www.theguardian.com/lifeandstyle/wordofmouth/2010/dec/30/cookery-books-of-the-year", "apiUrl": "https://content.guardianapis.com/lifeandstyle/wordofmouth/2010/dec/30/cookery-books-of-the-year", "isHosted": false, "pillarId": "pillar/lifestyle", "pillarName": "Lifestyle"}, {"id": "lifeandstyle/2010/dec/30/port-wine-food-and-drink", "type": "article", "sectionId": "food", "sectionName": "Food", "webPublicationDate": "2010-12-30T15:29:00Z", "webTitle": "A beginner's guide to port", "webUrl": "https://www.theguardian.com/lifeandstyle/2010/dec/30/port-wine-food-and-drink", "apiUrl": "https://content.guardianapis.com/lifeandstyle/2010/dec/30/port-wine-food-and-drink", "isHosted": false, "pillarId": "pillar/lifestyle", "pillarName": "Lifestyle"}, {"id": "travel/2010/dec/29/mornington-peninsula-australia", "type": "article", "sectionId": "travel", "sectionName": "Travel", "webPublicationDate": "2010-12-29T18:51:00Z", "webTitle": "Ashes fans' guide: beyond Melbourne", "webUrl": "https://www.theguardian.com/travel/2010/dec/29/mornington-peninsula-australia", "apiUrl": "https://content.guardianapis.com/travel/2010/dec/29/mornington-peninsula-australia", "isHosted": false, "pillarId": "pillar/lifestyle", "pillarName": "Lifestyle"}, {"id": "lifeandstyle/wordofmouth/2010/dec/29/food-and-drink-christmas", "type": "article", "sectionId": "lifeandstyle", "sectionName": "Life and style", "webPublicationDate": "2010-12-29T14:52:25Z", "webTitle": "Feasting on Christmas dinner leftovers", "webUrl": "https://www.theguardian.com/lifeandstyle/wordofmouth/2010/dec/29/food-and-drink-christmas", "apiUrl": "https://content.guardianapis.com/lifeandstyle/wordofmouth/2010/dec/29/food-and-drink-christmas", "isHosted": false, "pillarId": "pillar/lifestyle", "pillarName": "Lifestyle"}, {"id": "lifeandstyle/wordofmouth/2010/dec/28/malaysia-travel-food-and-drink", "type": "article", "sectionId": "lifeandstyle", "sectionName": "Life and style", "webPublicationDate": "2010-12-28T11:30:00Z", "webTitle": "Malaysian food: too much of a good thing?", "webUrl": "https://www.theguardian.com/lifeandstyle/wordofmouth/2010/dec/28/malaysia-travel-food-and-drink", "apiUrl": "https://content.guardianapis.com/lifeandstyle/wordofmouth/2010/dec/28/malaysia-travel-food-and-drink", "isHosted": false, "pillarId": "pillar/lifestyle", "pillarName": "Lifestyle"}, {"id": "travel/2010/dec/29/malaysia-travel-food-and-drink", "type": "article", "sectionId": "travel", "sectionName": "Travel", "webPublicationDate": "2010-12-28T11:06:09Z", "webTitle": "Malaysia on a plate", "webUrl": "https://www.theguardian.com/travel/2010/dec/29/malaysia-travel-food-and-drink", "apiUrl": "https://content.guardianapis.com/travel/2010/dec/29/malaysia-travel-food-and-drink", "isHosted": false, "pillarId": "pillar/lifestyle", "pillarName": "Lifestyle"}, {"id": "lifeandstyle/2010/dec/28/rendang-daging-beef-rendang-recipe", "type": "article", "sectionId": "food", "sectionName": "Food", "webPublicationDate": "2010-12-28T09:44:00Z", "webTitle": "Rendang daging (beef rendang) recipe", "webUrl": "https://www.theguardian.com/lifeandstyle/2010/dec/28/rendang-daging-beef-rendang-recipe", "apiUrl": "https://content.guardianapis.com/lifeandstyle/2010/dec/28/rendang-daging-beef-rendang-recipe", "isHosted": false, "pillarId": "pillar/lifestyle", "pillarName": "Lifestyle"}, {"id": "lifeandstyle/2010/dec/28/nasi-lemak-coconut-rice-recipe", "type": "article", "sectionId": "food", "sectionName": "Food", "webPublicationDate": "2010-12-28T09:29:00Z", "webTitle": "Nasi lemak (coconut rice) recipe", "webUrl": "https://www.theguardian.com/lifeandstyle/2010/dec/28/nasi-lemak-coconut-rice-recipe", "apiUrl": "https://content.guardianapis.com/lifeandstyle/2010/dec/28/nasi-lemak-coconut-rice-recipe", "isHosted": false, "pillarId": "pillar/lifestyle", "pillarName": "Lifestyle"}, {"id": "lifeandstyle/2010/dec/28/essential-malaysian-ingredients", "type": "article", "sectionId": "food", "sectionName": "Food", "webPublicationDate": "2010-12-28T09:00:00Z", "webTitle": "Essential Malaysian ingredients", "webUrl": "https://www.theguardian.com/lifeandstyle/2010/dec/28/essential-malaysian-ingredients", "apiUrl": "https://content.guardianapis.com/lifeandstyle/2010/dec/28/essential-malaysian-ingredients", "isHosted": false, "pillarId": "pillar/lifestyle", "pillarName": "Lifestyle"}, {"id": "lifeandstyle/2010/dec/26/winter-reds-wine-of-the-week", "type": "article", "sectionId": "food", "sectionName": "Food", "webPublicationDate": "2010-12-26T00:05:03Z", "webTitle": "Wines of the week", "webUrl": "https://www.theguardian.com/lifeandstyle/2010/dec/26/winter-reds-wine-of-the-week", "apiUrl": "https://content.guardianapis.com/lifeandstyle/2010/dec/26/winter-reds-wine-of-the-week", "isHosted": false, "pillarId": "pillar/lifestyle", "pillarName": "Lifestyle"}, {"id": "commentisfree/cifamerica/2010/dec/25/sarahpalin-michelleobama", "type": "article", "sectionId": "commentisfree", "sectionName": "Opinion", "webPublicationDate": "2010-12-25T19:01:02Z", "webTitle": "Obesity: America's big problem | Abdulrahman El-Sayed", "webUrl": "https://www.theguardian.com/commentisfree/cifamerica/2010/dec/25/sarahpalin-michelleobama", "apiUrl": "https://content.guardianapis.com/commentisfree/cifamerica/2010/dec/25/sarahpalin-michelleobama", "isHosted": false, "pillarId": "pillar/opinion", "pillarName": "Opinion"}, {"id": "commentisfree/2010/dec/24/christmas-dinner-excess-trimmings-consume", "type": "article", "sectionId": "commentisfree", "sectionName": "Opinion", "webPublicationDate": "2010-12-24T06:59:00Z", "webTitle": "Christmas dinner with an excess of trimmings | Jonathan Meades", "webUrl": "https://www.theguardian.com/commentisfree/2010/dec/24/christmas-dinner-excess-trimmings-consume", "apiUrl": "https://content.guardianapis.com/commentisfree/2010/dec/24/christmas-dinner-excess-trimmings-consume", "isHosted": false, "pillarId": "pillar/opinion", "pillarName": "Opinion"}, {"id": "world/2010/dec/23/la-times-food-critic-outed", "type": "article", "sectionId": "us-news", "sectionName": "US news", "webPublicationDate": "2010-12-23T19:52:25Z", "webTitle": "LA Times food critic has cover blown by restaurateur", "webUrl": "https://www.theguardian.com/world/2010/dec/23/la-times-food-critic-outed", "apiUrl": "https://content.guardianapis.com/world/2010/dec/23/la-times-food-critic-outed", "isHosted": false, "pillarId": "pillar/news", "pillarName": "News"}, {"id": "environment/2010/dec/23/fish-industry-celebrity-chefs-campaign", "type": "article", "sectionId": "environment", "sectionName": "Environment", "webPublicationDate": "2010-12-23T15:47:40Z", "webTitle": "Fish industry next target for celebrity chefs' campaign", "webUrl": "https://www.theguardian.com/environment/2010/dec/23/fish-industry-celebrity-chefs-campaign", "apiUrl": "https://content.guardianapis.com/environment/2010/dec/23/fish-industry-celebrity-chefs-campaign", "isHosted": false, "pillarId": "pillar/news", "pillarName": "News"}, {"id": "lifeandstyle/wordofmouth/2010/dec/23/olives-from-spain", "type": "article", "sectionId": "lifeandstyle", "sectionName": "Life and style", "webPublicationDate": "2010-12-23T11:15:00Z", "webTitle": "Olives from Spain. Ol\u00e9!", "webUrl": "https://www.theguardian.com/lifeandstyle/wordofmouth/2010/dec/23/olives-from-spain", "apiUrl": "https://content.guardianapis.com/lifeandstyle/wordofmouth/2010/dec/23/olives-from-spain", "isHosted": false, "pillarId": "pillar/lifestyle", "pillarName": "Lifestyle"}, {"id": "lifeandstyle/video/2010/dec/23/food-olive-oil-harvest", "type": "video", "sectionId": "food", "sectionName": "Food", "webPublicationDate": "2010-12-23T10:05:00Z", "webTitle": "Video | The olive harvest in Italy", "webUrl": "https://www.theguardian.com/lifeandstyle/video/2010/dec/23/food-olive-oil-harvest", "apiUrl": "https://content.guardianapis.com/lifeandstyle/video/2010/dec/23/food-olive-oil-harvest", "isHosted": false, "pillarId": "pillar/lifestyle", "pillarName": "Lifestyle"}, {"id": "lifeandstyle/wordofmouth/2010/dec/23/when-should-wine-be-decanted", "type": "article", "sectionId": "food", "sectionName": "Food", "webPublicationDate": "2010-12-23T09:55:00Z", "webTitle": "When should wine be decanted?", "webUrl": "https://www.theguardian.com/lifeandstyle/wordofmouth/2010/dec/23/when-should-wine-be-decanted", "apiUrl": "https://content.guardianapis.com/lifeandstyle/wordofmouth/2010/dec/23/when-should-wine-be-decanted", "isHosted": false, "pillarId": "pillar/lifestyle", "pillarName": "Lifestyle"}, {"id": "lifeandstyle/2010/dec/23/marinated-lamb-chops-potato-recipe", "type": "article", "sectionId": "food", "sectionName": "Food", "webPublicationDate": "2010-12-23T09:00:00Z", "webTitle": "Marinated lamb chops with baked potatoes and apples recipe", "webUrl": "https://www.theguardian.com/lifeandstyle/2010/dec/23/marinated-lamb-chops-potato-recipe", "apiUrl": "https://content.guardianapis.com/lifeandstyle/2010/dec/23/marinated-lamb-chops-potato-recipe", "isHosted": false, "pillarId": "pillar/lifestyle", "pillarName": "Lifestyle"}, {"id": "lifeandstyle/2010/dec/23/sea-bass-black-olive-recipe", "type": "article", "sectionId": "food", "sectionName": "Food", "webPublicationDate": "2010-12-23T08:30:00Z", "webTitle": "Pan-fried sea bass with fennel and black olive salad recipe", "webUrl": "https://www.theguardian.com/lifeandstyle/2010/dec/23/sea-bass-black-olive-recipe", "apiUrl": "https://content.guardianapis.com/lifeandstyle/2010/dec/23/sea-bass-black-olive-recipe", "isHosted": false, "pillarId": "pillar/lifestyle", "pillarName": "Lifestyle"}, {"id": "tv-and-radio/2010/dec/23/last-nights-tv-gordon-ramsay-nigella-lawson", "type": "article", "sectionId": "tv-and-radio", "sectionName": "Television & radio", "webPublicationDate": "2010-12-23T07:59:01Z", "webTitle": "Last night's TV: Christmas with Gordon; Come Dine with Me: Celebrity Christmas Special; Jimmy's Food Factory; Nigella Kitchen; Nigel Slater's Simple Suppers", "webUrl": "https://www.theguardian.com/tv-and-radio/2010/dec/23/last-nights-tv-gordon-ramsay-nigella-lawson", "apiUrl": "https://content.guardianapis.com/tv-and-radio/2010/dec/23/last-nights-tv-gordon-ramsay-nigella-lawson", "isHosted": false, "pillarId": "pillar/arts", "pillarName": "Arts"}, {"id": "commentisfree/2010/dec/22/jamie-oliver-30-minute-meals", "type": "article", "sectionId": "commentisfree", "sectionName": "Opinion", "webPublicationDate": "2010-12-22T13:30:00Z", "webTitle": "Jamie Oliver's 30-minute meals are an affront to cooking | Julie Bindel", "webUrl": "https://www.theguardian.com/commentisfree/2010/dec/22/jamie-oliver-30-minute-meals", "apiUrl": "https://content.guardianapis.com/commentisfree/2010/dec/22/jamie-oliver-30-minute-meals", "isHosted": false, "pillarId": "pillar/opinion", "pillarName": "Opinion"}, {"id": "lifeandstyle/wordofmouth/2010/dec/22/eating-restaurant-christmas-day", "type": "article", "sectionId": "lifeandstyle", "sectionName": "Life and style", "webPublicationDate": "2010-12-22T10:00:00Z", "webTitle": "Eating out on Christmas Day? Crackers!", "webUrl": "https://www.theguardian.com/lifeandstyle/wordofmouth/2010/dec/22/eating-restaurant-christmas-day", "apiUrl": "https://content.guardianapis.com/lifeandstyle/wordofmouth/2010/dec/22/eating-restaurant-christmas-day", "isHosted": false, "pillarId": "pillar/lifestyle", "pillarName": "Lifestyle"}, {"id": "lifeandstyle/video/2010/dec/21/christmas-lunch-recipes", "type": "video", "sectionId": "lifeandstyle", "sectionName": "Life and style", "webPublicationDate": "2010-12-21T14:10:00Z", "webTitle": "Christmas lunch in an hour", "webUrl": "https://www.theguardian.com/lifeandstyle/video/2010/dec/21/christmas-lunch-recipes", "apiUrl": "https://content.guardianapis.com/lifeandstyle/video/2010/dec/21/christmas-lunch-recipes", "isHosted": false, "pillarId": "pillar/lifestyle", "pillarName": "Lifestyle"}, {"id": "lifeandstyle/wordofmouth/2010/dec/21/consider-christmas-pudding", "type": "article", "sectionId": "lifeandstyle", "sectionName": "Life and style", "webPublicationDate": "2010-12-21T09:00:00Z", "webTitle": "Consider Christmas pudding", "webUrl": "https://www.theguardian.com/lifeandstyle/wordofmouth/2010/dec/21/consider-christmas-pudding", "apiUrl": "https://content.guardianapis.com/lifeandstyle/wordofmouth/2010/dec/21/consider-christmas-pudding", "isHosted": false, "pillarId": "pillar/lifestyle", "pillarName": "Lifestyle"}, {"id": "environment/2010/dec/20/co-op-marks-spencer-greenest-supermarkets", "type": "article", "sectionId": "environment", "sectionName": "Environment", "webPublicationDate": "2010-12-20T16:24:25Z", "webTitle": "Co-op and Marks & Spencer named UK's 'greenest' supermarkets", "webUrl": "https://www.theguardian.com/environment/2010/dec/20/co-op-marks-spencer-greenest-supermarkets", "apiUrl": "https://content.guardianapis.com/environment/2010/dec/20/co-op-marks-spencer-greenest-supermarkets", "isHosted": false, "pillarId": "pillar/news", "pillarName": "News"}, {"id": "lifeandstyle/video/2010/dec/20/christmas-bucks-fizz-cocktails", "type": "video", "sectionId": "lifeandstyle", "sectionName": "Life and style", "webPublicationDate": "2010-12-20T10:50:00Z", "webTitle": "Video: Christmas Buck's Fizz", "webUrl": "https://www.theguardian.com/lifeandstyle/video/2010/dec/20/christmas-bucks-fizz-cocktails", "apiUrl": "https://content.guardianapis.com/lifeandstyle/video/2010/dec/20/christmas-bucks-fizz-cocktails", "isHosted": false, "pillarId": "pillar/lifestyle", "pillarName": "Lifestyle"}, {"id": "lifeandstyle/video/2010/dec/20/christmas-turkey", "type": "video", "sectionId": "lifeandstyle", "sectionName": "Life and style", "webPublicationDate": "2010-12-20T10:30:00Z", "webTitle": "Video | Christmas turkeys on the farm", "webUrl": "https://www.theguardian.com/lifeandstyle/video/2010/dec/20/christmas-turkey", "apiUrl": "https://content.guardianapis.com/lifeandstyle/video/2010/dec/20/christmas-turkey", "isHosted": false, "pillarId": "pillar/lifestyle", "pillarName": "Lifestyle"}, {"id": "lifeandstyle/wordofmouth/2010/dec/20/how-to-cook-perfect-christmas-dinner", "type": "article", "sectionId": "lifeandstyle", "sectionName": "Life and style", "webPublicationDate": "2010-12-20T09:45:00Z", "webTitle": "How to cook the perfect Christmas dinner", "webUrl": "https://www.theguardian.com/lifeandstyle/wordofmouth/2010/dec/20/how-to-cook-perfect-christmas-dinner", "apiUrl": "https://content.guardianapis.com/lifeandstyle/wordofmouth/2010/dec/20/how-to-cook-perfect-christmas-dinner", "isHosted": false, "pillarId": "pillar/lifestyle", "pillarName": "Lifestyle"}, {"id": "lifeandstyle/2010/dec/19/jay-rayner-restaurant-review-north-road", "type": "article", "sectionId": "food", "sectionName": "Food", "webPublicationDate": "2010-12-19T00:05:08Z", "webTitle": "Restaurant review: North Road", "webUrl": "https://www.theguardian.com/lifeandstyle/2010/dec/19/jay-rayner-restaurant-review-north-road", "apiUrl": "https://content.guardianapis.com/lifeandstyle/2010/dec/19/jay-rayner-restaurant-review-north-road", "isHosted": false, "pillarId": "pillar/lifestyle", "pillarName": "Lifestyle"}, {"id": "environment/2010/dec/19/philipp-kauffmann-innovator-rainforest-chocolate", "type": "article", "sectionId": "environment", "sectionName": "Environment", "webPublicationDate": "2010-12-19T00:05:06Z", "webTitle": "Philipp Kauffmann's innovation: rainforest-sourced chocolate", "webUrl": "https://www.theguardian.com/environment/2010/dec/19/philipp-kauffmann-innovator-rainforest-chocolate", "apiUrl": "https://content.guardianapis.com/environment/2010/dec/19/philipp-kauffmann-innovator-rainforest-chocolate", "isHosted": false, "pillarId": "pillar/news", "pillarName": "News"}, {"id": "lifeandstyle/2010/dec/19/wine-food-and-drink", "type": "article", "sectionId": "food", "sectionName": "Food", "webPublicationDate": "2010-12-19T00:04:06Z", "webTitle": "Wines of the week", "webUrl": "https://www.theguardian.com/lifeandstyle/2010/dec/19/wine-food-and-drink", "apiUrl": "https://content.guardianapis.com/lifeandstyle/2010/dec/19/wine-food-and-drink", "isHosted": false, "pillarId": "pillar/lifestyle", "pillarName": "Lifestyle"}, {"id": "lifeandstyle/2010/dec/18/readers-favourite-photographs-songs-recipes", "type": "article", "sectionId": "lifeandstyle", "sectionName": "Life and style", "webPublicationDate": "2010-12-18T00:06:01Z", "webTitle": "Family life", "webUrl": "https://www.theguardian.com/lifeandstyle/2010/dec/18/readers-favourite-photographs-songs-recipes", "apiUrl": "https://content.guardianapis.com/lifeandstyle/2010/dec/18/readers-favourite-photographs-songs-recipes", "isHosted": false, "pillarId": "pillar/lifestyle", "pillarName": "Lifestyle"}, {"id": "lifeandstyle/2010/dec/18/christmas-dinner-trivia", "type": "article", "sectionId": "food", "sectionName": "Food", "webPublicationDate": "2010-12-18T00:05:09Z", "webTitle": "Turkey with all the trivia", "webUrl": "https://www.theguardian.com/lifeandstyle/2010/dec/18/christmas-dinner-trivia", "apiUrl": "https://content.guardianapis.com/lifeandstyle/2010/dec/18/christmas-dinner-trivia", "isHosted": false, "pillarId": "pillar/lifestyle", "pillarName": "Lifestyle"}, {"id": "lifeandstyle/2010/dec/18/christmas-starters-stuffing-recipes", "type": "article", "sectionId": "lifeandstyle", "sectionName": "Life and style", "webPublicationDate": "2010-12-18T00:03:46Z", "webTitle": "Christmas starters and stuffing recipes | Hugh Fearnley-Whittingstall", "webUrl": "https://www.theguardian.com/lifeandstyle/2010/dec/18/christmas-starters-stuffing-recipes", "apiUrl": "https://content.guardianapis.com/lifeandstyle/2010/dec/18/christmas-starters-stuffing-recipes", "isHosted": false, "pillarId": "pillar/lifestyle", "pillarName": "Lifestyle"}, {"id": "lifeandstyle/2010/dec/18/turkey-christmas-cake-fruit-cake", "type": "article", "sectionId": "lifeandstyle", "sectionName": "Life and style", "webPublicationDate": "2010-12-18T00:03:26Z", "webTitle": "Food for Fort: Your Christmas cooking dilemmas answered | Matthew Fort", "webUrl": "https://www.theguardian.com/lifeandstyle/2010/dec/18/turkey-christmas-cake-fruit-cake", "apiUrl": "https://content.guardianapis.com/lifeandstyle/2010/dec/18/turkey-christmas-cake-fruit-cake", "isHosted": false, "pillarId": "pillar/lifestyle", "pillarName": "Lifestyle"}, {"id": "lifeandstyle/2010/dec/18/fizz-for-christmas-wine-review", "type": "article", "sectionId": "food", "sectionName": "Food", "webPublicationDate": "2010-12-18T00:03:23Z", "webTitle": "Wine: Make your Christmas go with a fizz | Fiona Beckett", "webUrl": "https://www.theguardian.com/lifeandstyle/2010/dec/18/fizz-for-christmas-wine-review", "apiUrl": "https://content.guardianapis.com/lifeandstyle/2010/dec/18/fizz-for-christmas-wine-review", "isHosted": false, "pillarId": "pillar/lifestyle", "pillarName": "Lifestyle"}, {"id": "lifeandstyle/2010/dec/18/green-onion-sage-loaf-recipe", "type": "article", "sectionId": "lifeandstyle", "sectionName": "Life and style", "webPublicationDate": "2010-12-18T00:03:20Z", "webTitle": "Green onion and sage loaf recipe | Dan Lepard | Baking", "webUrl": "https://www.theguardian.com/lifeandstyle/2010/dec/18/green-onion-sage-loaf-recipe", "apiUrl": "https://content.guardianapis.com/lifeandstyle/2010/dec/18/green-onion-sage-loaf-recipe", "isHosted": false, "pillarId": "pillar/lifestyle", "pillarName": "Lifestyle"}, {"id": "lifeandstyle/2010/dec/18/mont-blanc-layer-cake-recipe", "type": "article", "sectionId": "lifeandstyle", "sectionName": "Life and style", "webPublicationDate": "2010-12-18T00:03:16Z", "webTitle": "Mont Blanc layer cake recipe | Dan Lepard | Baking", "webUrl": "https://www.theguardian.com/lifeandstyle/2010/dec/18/mont-blanc-layer-cake-recipe", "apiUrl": "https://content.guardianapis.com/lifeandstyle/2010/dec/18/mont-blanc-layer-cake-recipe", "isHosted": false, "pillarId": "pillar/lifestyle", "pillarName": "Lifestyle"}, {"id": "lifeandstyle/2010/dec/18/hot-sour-mushroom-soup-recipe", "type": "article", "sectionId": "lifeandstyle", "sectionName": "Life and style", "webPublicationDate": "2010-12-18T00:03:12Z", "webTitle": "Hot and sour mushroom soup recipe | Yotam Ottolenghi", "webUrl": "https://www.theguardian.com/lifeandstyle/2010/dec/18/hot-sour-mushroom-soup-recipe", "apiUrl": "https://content.guardianapis.com/lifeandstyle/2010/dec/18/hot-sour-mushroom-soup-recipe", "isHosted": false, "pillarId": "pillar/lifestyle", "pillarName": "Lifestyle"}, {"id": "lifeandstyle/2010/dec/18/purnells-birmingham-restaurant-review", "type": "article", "sectionId": "lifeandstyle", "sectionName": "Life and style", "webPublicationDate": "2010-12-18T00:03:09Z", "webTitle": "Restaurant: Purnell's, Birmingham | John Lanchester", "webUrl": "https://www.theguardian.com/lifeandstyle/2010/dec/18/purnells-birmingham-restaurant-review", "apiUrl": "https://content.guardianapis.com/lifeandstyle/2010/dec/18/purnells-birmingham-restaurant-review", "isHosted": false, "pillarId": "pillar/lifestyle", "pillarName": "Lifestyle"}, {"id": "lifeandstyle/cartoon/2010/dec/18/1", "type": "picture", "sectionId": "lifeandstyle", "sectionName": "Life and style", "webPublicationDate": "2010-12-18T00:02:00Z", "webTitle": "Berger & Wyse", "webUrl": "https://www.theguardian.com/lifeandstyle/cartoon/2010/dec/18/1", "apiUrl": "https://content.guardianapis.com/lifeandstyle/cartoon/2010/dec/18/1", "isHosted": false, "pillarId": "pillar/lifestyle", "pillarName": "Lifestyle"}, {"id": "business/2010/dec/17/confectionery-companies-downsizing-vat", "type": "article", "sectionId": "business", "sectionName": "Business", "webPublicationDate": "2010-12-17T22:22:24Z", "webTitle": "Confectionery companies downsizing to beat VAT rise", "webUrl": "https://www.theguardian.com/business/2010/dec/17/confectionery-companies-downsizing-vat", "apiUrl": "https://content.guardianapis.com/business/2010/dec/17/confectionery-companies-downsizing-vat", "isHosted": false, "pillarId": "pillar/news", "pillarName": "News"}, {"id": "media/2010/dec/17/product-placement-allowed-british-television", "type": "article", "sectionId": "media", "sectionName": "Media", "webPublicationDate": "2010-12-17T19:32:16Z", "webTitle": "Product placement to be allowed on British television", "webUrl": "https://www.theguardian.com/media/2010/dec/17/product-placement-allowed-british-television", "apiUrl": "https://content.guardianapis.com/media/2010/dec/17/product-placement-allowed-british-television", "isHosted": false, "pillarId": "pillar/news", "pillarName": "News"}, {"id": "commentisfree/cifamerica/2010/dec/17/healthcare-talk-radio", "type": "article", "sectionId": "commentisfree", "sectionName": "Opinion", "webPublicationDate": "2010-12-17T17:12:00Z", "webTitle": "The Right Word: Repeal healthcare or die | Sadhbh Walshe", "webUrl": "https://www.theguardian.com/commentisfree/cifamerica/2010/dec/17/healthcare-talk-radio", "apiUrl": "https://content.guardianapis.com/commentisfree/cifamerica/2010/dec/17/healthcare-talk-radio", "isHosted": false, "pillarId": "pillar/opinion", "pillarName": "Opinion"}, {"id": "lifeandstyle/2010/dec/13/buy-of-the-day", "type": "article", "sectionId": "lifeandstyle", "sectionName": "Life and style", "webPublicationDate": "2010-12-17T16:12:00Z", "webTitle": "Buy of the day", "webUrl": "https://www.theguardian.com/lifeandstyle/2010/dec/13/buy-of-the-day", "apiUrl": "https://content.guardianapis.com/lifeandstyle/2010/dec/13/buy-of-the-day", "isHosted": false, "pillarId": "pillar/lifestyle", "pillarName": "Lifestyle"}, {"id": "lifeandstyle/wordofmouth/2010/dec/16/gluten-free-christmas", "type": "article", "sectionId": "lifeandstyle", "sectionName": "Life and style", "webPublicationDate": "2010-12-17T13:00:00Z", "webTitle": "A gluten-free Christmas", "webUrl": "https://www.theguardian.com/lifeandstyle/wordofmouth/2010/dec/16/gluten-free-christmas", "apiUrl": "https://content.guardianapis.com/lifeandstyle/wordofmouth/2010/dec/16/gluten-free-christmas", "isHosted": false, "pillarId": "pillar/lifestyle", "pillarName": "Lifestyle"}, {"id": "lifeandstyle/2010/dec/17/gluten-free-christmas-taste-test", "type": "article", "sectionId": "lifeandstyle", "sectionName": "Life and style", "webPublicationDate": "2010-12-17T10:00:00Z", "webTitle": "Taste test: gluten free Christmas cakes, puds and pies", "webUrl": "https://www.theguardian.com/lifeandstyle/2010/dec/17/gluten-free-christmas-taste-test", "apiUrl": "https://content.guardianapis.com/lifeandstyle/2010/dec/17/gluten-free-christmas-taste-test", "isHosted": false, "pillarId": "pillar/lifestyle", "pillarName": "Lifestyle"}, {"id": "business/2010/dec/16/bankers-send-turkey-price-soaring", "type": "article", "sectionId": "business", "sectionName": "Business", "webPublicationDate": "2010-12-16T17:41:15Z", "webTitle": "Investment bankers blamed for driving up the price of turkeys", "webUrl": "https://www.theguardian.com/business/2010/dec/16/bankers-send-turkey-price-soaring", "apiUrl": "https://content.guardianapis.com/business/2010/dec/16/bankers-send-turkey-price-soaring", "isHosted": false, "pillarId": "pillar/news", "pillarName": "News"}, {"id": "travel/video/2010/dec/16/christmas-in-norway-food-tour", "type": "video", "sectionId": "travel", "sectionName": "Travel", "webPublicationDate": "2010-12-16T10:13:00Z", "webTitle": "Video: Moose steak and blueberry soup in Norway", "webUrl": "https://www.theguardian.com/travel/video/2010/dec/16/christmas-in-norway-food-tour", "apiUrl": "https://content.guardianapis.com/travel/video/2010/dec/16/christmas-in-norway-food-tour", "isHosted": false, "pillarId": "pillar/lifestyle", "pillarName": "Lifestyle"}]}}