{"response": {"status": "ok", "userTier": "developer", "total": 34976, "startIndex": 1, "pageSize": 50, "currentPage": 1, "pages": 700, "orderBy": "newest", "results": [{"id": "commentisfree/2012/dec/30/cycling-bikes-wiggins-environment-transport", "type": "article", "sectionId": "commentisfree", "sectionName": "Opinion", "webPublicationDate": "2012-12-30T21:00:01Z", "webTitle": "2012 was the year of cycling. Now we need a revolution | Jackie Ashley", "webUrl": "https://www.theguardian.com/commentisfree/2012/dec/30/cycling-bikes-wiggins-environment-transport", "apiUrl": "https://content.guardianapis.com/commentisfree/2012/dec/30/cycling-bikes-wiggins-environment-transport", "isHosted": false, "pillarId": "pillar/opinion", "pillarName": "Opinion"}, {"id": "environment/2012/dec/30/buttermere-lake-district-see-off-normans", "type": "article", "sectionId": "environment", "sectionName": "Environment", "webPublicationDate": "2012-12-30T20:59:01Z", "webTitle": "Country diary: Buttermere, Lake District: A perfect spot to see off the storming Normans", "webUrl": "https://www.theguardian.com/environment/2012/dec/30/buttermere-lake-district-see-off-normans", "apiUrl": "https://content.guardianapis.com/environment/2012/dec/30/buttermere-lake-district-see-off-normans", "isHosted": false, "pillarId": "pillar/news", "pillarName": "News"}, {"id": "environment/2012/dec/30/energy-companies-climate-ministry-decc", "type": "article", "sectionId": "environment", "sectionName": "Environment", "webPublicationDate": "2012-12-30T18:42:10Z", "webTitle": "Energy company staff working at climate ministry", "webUrl": "https://www.theguardian.com/environment/2012/dec/30/energy-companies-climate-ministry-decc", "apiUrl": "https://content.guardianapis.com/environment/2012/dec/30/energy-companies-climate-ministry-decc", "isHosted": false, "pillarId": "pillar/news", "pillarName": "News"}, {"id": "society/2012/dec/30/green-belt-housing-gamble", "type": "article", "sectionId": "business", "sectionName": "Business", "webPublicationDate": "2012-12-30T15:04:54Z", "webTitle": "Green belt housing gamble \u2013 a bet too far?", "webUrl": "https://www.theguardian.com/society/2012/dec/30/green-belt-housing-gamble", "apiUrl": "https://content.guardianapis.com/society/2012/dec/30/green-belt-housing-gamble", "isHosted": false, "pillarId": "pillar/news", "pillarName": "News"}, {"id": "uk/2012/dec/29/national-trust-giants-causeway-golf-course", "type": "article", "sectionId": "uk-news", "sectionName": "UK news", "webPublicationDate": "2012-12-29T23:25:17Z", "webTitle": "National Trust attempts to block \u00a3100m Giant's Causeway golf course", "webUrl": "https://www.theguardian.com/uk/2012/dec/29/national-trust-giants-causeway-golf-course", "apiUrl": "https://content.guardianapis.com/uk/2012/dec/29/national-trust-giants-causeway-golf-course", "isHosted": false, "pillarId": "pillar/news", "pillarName": "News"}, {"id": "environment/2012/dec/29/single-men-rubbish-at-recycling", "type": "article", "sectionId": "environment", "sectionName": "Environment", "webPublicationDate": "2012-12-29T23:24:11Z", "webTitle": "Single men found to be rubbish at putting out the recycling", "webUrl": "https://www.theguardian.com/environment/2012/dec/29/single-men-rubbish-at-recycling", "apiUrl": "https://content.guardianapis.com/environment/2012/dec/29/single-men-rubbish-at-recycling", "isHosted": false, "pillarId": "pillar/news", "pillarName": "News"}, {"id": "uk/2012/dec/29/rains-pours-weather", "type": "article", "sectionId": "uk-news", "sectionName": "UK news", "webPublicationDate": "2012-12-29T22:27:05Z", "webTitle": "It never rains and then it pours. What is going on with our weather?", "webUrl": "https://www.theguardian.com/uk/2012/dec/29/rains-pours-weather", "apiUrl": "https://content.guardianapis.com/uk/2012/dec/29/rains-pours-weather", "isHosted": false, "pillarId": "pillar/news", "pillarName": "News"}, {"id": "uk/2012/dec/29/britain-drought-deluge-south-west", "type": "article", "sectionId": "uk-news", "sectionName": "UK news", "webPublicationDate": "2012-12-29T22:14:11Z", "webTitle": "How Britain went from a drought to a deluge as south-west is drenched again", "webUrl": "https://www.theguardian.com/uk/2012/dec/29/britain-drought-deluge-south-west", "apiUrl": "https://content.guardianapis.com/uk/2012/dec/29/britain-drought-deluge-south-west", "isHosted": false, "pillarId": "pillar/news", "pillarName": "News"}, {"id": "environment/2012/dec/29/electric-car-sales-prices", "type": "article", "sectionId": "environment", "sectionName": "Environment", "webPublicationDate": "2012-12-29T22:04:58Z", "webTitle": "Electric car sales in UK expected to double in 2013 as prices start to fall", "webUrl": "https://www.theguardian.com/environment/2012/dec/29/electric-car-sales-prices", "apiUrl": "https://content.guardianapis.com/environment/2012/dec/29/electric-car-sales-prices", "isHosted": false, "pillarId": "pillar/news", "pillarName": "News"}, {"id": "environment/2012/dec/29/japan-whalers-sea-shepherd-activists", "type": "article", "sectionId": "environment", "sectionName": "Environment", "webPublicationDate": "2012-12-29T16:55:38Z", "webTitle": "Meet the woman battling Japan's whaling fleet in Antarctic ocean", "webUrl": "https://www.theguardian.com/environment/2012/dec/29/japan-whalers-sea-shepherd-activists", "apiUrl": "https://content.guardianapis.com/environment/2012/dec/29/japan-whalers-sea-shepherd-activists", "isHosted": false, "pillarId": "pillar/news", "pillarName": "News"}, {"id": "technology/2012/dec/28/seat-ibiza-ecomotive-car-review", "type": "article", "sectionId": "technology", "sectionName": "Technology", "webPublicationDate": "2012-12-28T22:58:02Z", "webTitle": "On the road: Seat Ibiza ST SE 1.2 TDI CR Ecomotive 75 PS | Sam Wollaston", "webUrl": "https://www.theguardian.com/technology/2012/dec/28/seat-ibiza-ecomotive-car-review", "apiUrl": "https://content.guardianapis.com/technology/2012/dec/28/seat-ibiza-ecomotive-car-review", "isHosted": false, "pillarId": "pillar/news", "pillarName": "News"}, {"id": "environment/2012/dec/28/life-dead-winter-garden", "type": "article", "sectionId": "environment", "sectionName": "Environment", "webPublicationDate": "2012-12-28T21:00:01Z", "webTitle": "Country diary: Sandy Bedfordshire: Life in a dead, end of year garden", "webUrl": "https://www.theguardian.com/environment/2012/dec/28/life-dead-winter-garden", "apiUrl": "https://content.guardianapis.com/environment/2012/dec/28/life-dead-winter-garden", "isHosted": false, "pillarId": "pillar/news", "pillarName": "News"}, {"id": "commentisfree/2012/dec/28/britain-pulling-plug-flood-defences", "type": "article", "sectionId": "commentisfree", "sectionName": "Opinion", "webPublicationDate": "2012-12-28T20:30:01Z", "webTitle": "The rain falls \u2013 while the government pulls the plug on flood defences | John Vidal", "webUrl": "https://www.theguardian.com/commentisfree/2012/dec/28/britain-pulling-plug-flood-defences", "apiUrl": "https://content.guardianapis.com/commentisfree/2012/dec/28/britain-pulling-plug-flood-defences", "isHosted": false, "pillarId": "pillar/opinion", "pillarName": "Opinion"}, {"id": "environment/2012/dec/28/uk-flooding-house-died", "type": "article", "sectionId": "uk-news", "sectionName": "UK news", "webPublicationDate": "2012-12-28T15:57:03Z", "webTitle": "UK flooding: 'It felt as if my house had died'", "webUrl": "https://www.theguardian.com/environment/2012/dec/28/uk-flooding-house-died", "apiUrl": "https://content.guardianapis.com/environment/2012/dec/28/uk-flooding-house-died", "isHosted": false, "pillarId": "pillar/news", "pillarName": "News"}, {"id": "uk/video/2012/dec/28/flooding-hits-yorkshire-houses-shops-underwater-video", "type": "video", "sectionId": "uk-news", "sectionName": "UK news", "webPublicationDate": "2012-12-28T13:38:00Z", "webTitle": "Flooding hits Yorkshire with houses and shops underwater - video", "webUrl": "https://www.theguardian.com/uk/video/2012/dec/28/flooding-hits-yorkshire-houses-shops-underwater-video", "apiUrl": "https://content.guardianapis.com/uk/video/2012/dec/28/flooding-hits-yorkshire-houses-shops-underwater-video", "isHosted": false, "pillarId": "pillar/news", "pillarName": "News"}, {"id": "artanddesign/picture/2012/dec/28/elephant-festival-nepal", "type": "picture", "sectionId": "artanddesign", "sectionName": "Art and design", "webPublicationDate": "2012-12-28T12:27:06Z", "webTitle": "Elephant football, Nepal - picture of the day", "webUrl": "https://www.theguardian.com/artanddesign/picture/2012/dec/28/elephant-festival-nepal", "apiUrl": "https://content.guardianapis.com/artanddesign/picture/2012/dec/28/elephant-festival-nepal", "isHosted": false, "pillarId": "pillar/arts", "pillarName": "Arts"}, {"id": "environment/picture/2012/dec/28/water-droplets-eyewitness", "type": "picture", "sectionId": "environment", "sectionName": "Environment", "webPublicationDate": "2012-12-28T11:28:00Z", "webTitle": "Eyewitness: Waterworld", "webUrl": "https://www.theguardian.com/environment/picture/2012/dec/28/water-droplets-eyewitness", "apiUrl": "https://content.guardianapis.com/environment/picture/2012/dec/28/water-droplets-eyewitness", "isHosted": false, "pillarId": "pillar/news", "pillarName": "News"}, {"id": "global-development/poverty-matters/2012/dec/28/solar-powered-lamp-post-mali", "type": "article", "sectionId": "global-development", "sectionName": "Global development", "webPublicationDate": "2012-12-28T09:00:00Z", "webTitle": "Solar-powered lamp-post provides ray of light for Mali | Tamasin Ford", "webUrl": "https://www.theguardian.com/global-development/poverty-matters/2012/dec/28/solar-powered-lamp-post-mali", "apiUrl": "https://content.guardianapis.com/global-development/poverty-matters/2012/dec/28/solar-powered-lamp-post-mali", "isHosted": false, "pillarId": "pillar/news", "pillarName": "News"}, {"id": "environment/2012/dec/28/coaltion-energy-policy-insulation-job-loss", "type": "article", "sectionId": "environment", "sectionName": "Environment", "webPublicationDate": "2012-12-28T07:00:01Z", "webTitle": "Coalition's energy policy blamed for insulation job losses", "webUrl": "https://www.theguardian.com/environment/2012/dec/28/coaltion-energy-policy-insulation-job-loss", "apiUrl": "https://content.guardianapis.com/environment/2012/dec/28/coaltion-energy-policy-insulation-job-loss", "isHosted": false, "pillarId": "pillar/news", "pillarName": "News"}, {"id": "environment/2012/dec/28/top-10-green-energy", "type": "article", "sectionId": "environment", "sectionName": "Environment", "webPublicationDate": "2012-12-28T07:00:00Z", "webTitle": "Top 10 green energy bright spots of 2012", "webUrl": "https://www.theguardian.com/environment/2012/dec/28/top-10-green-energy", "apiUrl": "https://content.guardianapis.com/environment/2012/dec/28/top-10-green-energy", "isHosted": false, "pillarId": "pillar/news", "pillarName": "News"}, {"id": "environment/gallery/2012/dec/28/beauty-of-water-droplets-in-pictures", "type": "gallery", "sectionId": "environment", "sectionName": "Environment", "webPublicationDate": "2012-12-28T00:50:20Z", "webTitle": "The beauty of water droplets \u2013 in pictures", "webUrl": "https://www.theguardian.com/environment/gallery/2012/dec/28/beauty-of-water-droplets-in-pictures", "apiUrl": "https://content.guardianapis.com/environment/gallery/2012/dec/28/beauty-of-water-droplets-in-pictures", "isHosted": false, "pillarId": "pillar/news", "pillarName": "News"}, {"id": "environment/2012/dec/27/perfect-winter-day-for-walk", "type": "article", "sectionId": "environment", "sectionName": "Environment", "webPublicationDate": "2012-12-27T21:00:03Z", "webTitle": "Country diary: South Uist: A perfect winter's day for a walk", "webUrl": "https://www.theguardian.com/environment/2012/dec/27/perfect-winter-day-for-walk", "apiUrl": "https://content.guardianapis.com/environment/2012/dec/27/perfect-winter-day-for-walk", "isHosted": false, "pillarId": "pillar/news", "pillarName": "News"}, {"id": "environment/2012/dec/27/fukushima-radiation-child-obesity-fears", "type": "article", "sectionId": "environment", "sectionName": "Environment", "webPublicationDate": "2012-12-27T18:48:12Z", "webTitle": "Fukushima radiation fears are linked to increase in obesity among children", "webUrl": "https://www.theguardian.com/environment/2012/dec/27/fukushima-radiation-child-obesity-fears", "apiUrl": "https://content.guardianapis.com/environment/2012/dec/27/fukushima-radiation-child-obesity-fears", "isHosted": false, "pillarId": "pillar/news", "pillarName": "News"}, {"id": "world/video/2012/dec/27/finback-whale-stranded-new-york-video", "type": "video", "sectionId": "us-news", "sectionName": "US news", "webPublicationDate": "2012-12-27T16:33:00Z", "webTitle": "60-foot finback whale stranded on New York beach - video", "webUrl": "https://www.theguardian.com/world/video/2012/dec/27/finback-whale-stranded-new-york-video", "apiUrl": "https://content.guardianapis.com/world/video/2012/dec/27/finback-whale-stranded-new-york-video", "isHosted": false, "pillarId": "pillar/news", "pillarName": "News"}, {"id": "world/2012/dec/27/antarctic-lake-research-abandon", "type": "article", "sectionId": "world", "sectionName": "World news", "webPublicationDate": "2012-12-27T14:55:00Z", "webTitle": "Antarctic lake research abandoned", "webUrl": "https://www.theguardian.com/world/2012/dec/27/antarctic-lake-research-abandon", "apiUrl": "https://content.guardianapis.com/world/2012/dec/27/antarctic-lake-research-abandon", "isHosted": false, "pillarId": "pillar/news", "pillarName": "News"}, {"id": "environment/gallery/2012/dec/27/2012-through-lens-green-shoots-in-pictures", "type": "gallery", "sectionId": "environment", "sectionName": "Environment", "webPublicationDate": "2012-12-27T12:59:51Z", "webTitle": "2012 through the lens of Green shoots - in pictures", "webUrl": "https://www.theguardian.com/environment/gallery/2012/dec/27/2012-through-lens-green-shoots-in-pictures", "apiUrl": "https://content.guardianapis.com/environment/gallery/2012/dec/27/2012-through-lens-green-shoots-in-pictures", "isHosted": false, "pillarId": "pillar/news", "pillarName": "News"}, {"id": "global-development/poverty-matters/2012/dec/27/global-summits-help-tackle-poverty", "type": "article", "sectionId": "global-development", "sectionName": "Global development", "webPublicationDate": "2012-12-27T11:14:25Z", "webTitle": "Do global summits help to tackle poverty? | Stephen Hale", "webUrl": "https://www.theguardian.com/global-development/poverty-matters/2012/dec/27/global-summits-help-tackle-poverty", "apiUrl": "https://content.guardianapis.com/global-development/poverty-matters/2012/dec/27/global-summits-help-tackle-poverty", "isHosted": false, "pillarId": "pillar/news", "pillarName": "News"}, {"id": "environment/2012/dec/20/conservation-good-news-stories", "type": "article", "sectionId": "environment", "sectionName": "Environment", "webPublicationDate": "2012-12-27T11:09:00Z", "webTitle": "Top 10 conservation good news stories of 2012", "webUrl": "https://www.theguardian.com/environment/2012/dec/20/conservation-good-news-stories", "apiUrl": "https://content.guardianapis.com/environment/2012/dec/20/conservation-good-news-stories", "isHosted": false, "pillarId": "pillar/news", "pillarName": "News"}, {"id": "commentisfree/cartoon/2012/dec/26/nick-hayes-guardian-cartoon", "type": "picture", "sectionId": "commentisfree", "sectionName": "Opinion", "webPublicationDate": "2012-12-26T23:29:00Z", "webTitle": "Nick Hayes on fox hunting ban vote \u2013 cartoon", "webUrl": "https://www.theguardian.com/commentisfree/cartoon/2012/dec/26/nick-hayes-guardian-cartoon", "apiUrl": "https://content.guardianapis.com/commentisfree/cartoon/2012/dec/26/nick-hayes-guardian-cartoon", "isHosted": false, "pillarId": "pillar/opinion", "pillarName": "Opinion"}, {"id": "environment/2012/dec/26/achvaneran-highlands-tracks-snow-night-visitors", "type": "article", "sectionId": "environment", "sectionName": "Environment", "webPublicationDate": "2012-12-26T20:59:01Z", "webTitle": "Country diary: Achvaneran, Highlands: The tracks in the snow revealed the secrets of these night visitors", "webUrl": "https://www.theguardian.com/environment/2012/dec/26/achvaneran-highlands-tracks-snow-night-visitors", "apiUrl": "https://content.guardianapis.com/environment/2012/dec/26/achvaneran-highlands-tracks-snow-night-visitors", "isHosted": false, "pillarId": "pillar/news", "pillarName": "News"}, {"id": "uk/2012/dec/26/wildlife-2012-orchids-slugs-blossom", "type": "article", "sectionId": "environment", "sectionName": "Environment", "webPublicationDate": "2012-12-26T19:39:42Z", "webTitle": "Wildlife 2012: slugs and orchids thrive but blossom and bees are washed out", "webUrl": "https://www.theguardian.com/uk/2012/dec/26/wildlife-2012-orchids-slugs-blossom", "apiUrl": "https://content.guardianapis.com/uk/2012/dec/26/wildlife-2012-orchids-slugs-blossom", "isHosted": false, "pillarId": "pillar/news", "pillarName": "News"}, {"id": "environment/2012/dec/26/sellafield-emergency-readiness-nuclear-watchdog", "type": "article", "sectionId": "environment", "sectionName": "Environment", "webPublicationDate": "2012-12-26T18:43:09Z", "webTitle": "Nuclear safety watchdog criticises Sellafield's emergency readiness", "webUrl": "https://www.theguardian.com/environment/2012/dec/26/sellafield-emergency-readiness-nuclear-watchdog", "apiUrl": "https://content.guardianapis.com/environment/2012/dec/26/sellafield-emergency-readiness-nuclear-watchdog", "isHosted": false, "pillarId": "pillar/news", "pillarName": "News"}, {"id": "commentisfree/2012/dec/26/open-thread-wet-christmas-flooding", "type": "article", "sectionId": "commentisfree", "sectionName": "Opinion", "webPublicationDate": "2012-12-26T17:32:51Z", "webTitle": "Open thread | Wet Christmas: have you been affected by the floods?", "webUrl": "https://www.theguardian.com/commentisfree/2012/dec/26/open-thread-wet-christmas-flooding", "apiUrl": "https://content.guardianapis.com/commentisfree/2012/dec/26/open-thread-wet-christmas-flooding", "isHosted": false, "pillarId": "pillar/opinion", "pillarName": "Opinion"}, {"id": "commentisfree/2012/dec/26/save-trees-souls-british-identify-ash", "type": "article", "sectionId": "commentisfree", "sectionName": "Opinion", "webPublicationDate": "2012-12-26T09:00:09Z", "webTitle": "If we save our trees, we save our souls | Hannah Betts", "webUrl": "https://www.theguardian.com/commentisfree/2012/dec/26/save-trees-souls-british-identify-ash", "apiUrl": "https://content.guardianapis.com/commentisfree/2012/dec/26/save-trees-souls-british-identify-ash", "isHosted": false, "pillarId": "pillar/opinion", "pillarName": "Opinion"}, {"id": "environment/2012/dec/26/top-10-environment-videos", "type": "article", "sectionId": "environment", "sectionName": "Environment", "webPublicationDate": "2012-12-26T07:00:00Z", "webTitle": "Top 10 most viewed environment videos of 2012", "webUrl": "https://www.theguardian.com/environment/2012/dec/26/top-10-environment-videos", "apiUrl": "https://content.guardianapis.com/environment/2012/dec/26/top-10-environment-videos", "isHosted": false, "pillarId": "pillar/news", "pillarName": "News"}, {"id": "environment/2012/dec/25/co-op-supermarkets-extend-fridge-door-scheme", "type": "article", "sectionId": "environment", "sectionName": "Environment", "webPublicationDate": "2012-12-25T22:34:20Z", "webTitle": "Co-op supermarkets extend fridge door scheme", "webUrl": "https://www.theguardian.com/environment/2012/dec/25/co-op-supermarkets-extend-fridge-door-scheme", "apiUrl": "https://content.guardianapis.com/environment/2012/dec/25/co-op-supermarkets-extend-fridge-door-scheme", "isHosted": false, "pillarId": "pillar/news", "pillarName": "News"}, {"id": "environment/2012/dec/25/saving-the-rhino-with-surveillance-drones", "type": "article", "sectionId": "environment", "sectionName": "Environment", "webPublicationDate": "2012-12-25T22:10:57Z", "webTitle": "Saving the rhino with surveillance drones", "webUrl": "https://www.theguardian.com/environment/2012/dec/25/saving-the-rhino-with-surveillance-drones", "apiUrl": "https://content.guardianapis.com/environment/2012/dec/25/saving-the-rhino-with-surveillance-drones", "isHosted": false, "pillarId": "pillar/news", "pillarName": "News"}, {"id": "environment/2012/dec/25/brown-willy-bodmin-moor-cornwall", "type": "article", "sectionId": "environment", "sectionName": "Environment", "webPublicationDate": "2012-12-25T20:59:01Z", "webTitle": "Country diary: Brown Willy, Bodmin Moor: Sun, mist and rain sweep across Cornwall's highest hill", "webUrl": "https://www.theguardian.com/environment/2012/dec/25/brown-willy-bodmin-moor-cornwall", "apiUrl": "https://content.guardianapis.com/environment/2012/dec/25/brown-willy-bodmin-moor-cornwall", "isHosted": false, "pillarId": "pillar/news", "pillarName": "News"}, {"id": "world/2012/dec/25/car-pollution-noise-accidents-eu", "type": "article", "sectionId": "world", "sectionName": "World news", "webPublicationDate": "2012-12-25T19:00:02Z", "webTitle": "Car pollution, noise and accidents 'cost every EU citizen \u00a3600 a year'", "webUrl": "https://www.theguardian.com/world/2012/dec/25/car-pollution-noise-accidents-eu", "apiUrl": "https://content.guardianapis.com/world/2012/dec/25/car-pollution-noise-accidents-eu", "isHosted": false, "pillarId": "pillar/news", "pillarName": "News"}, {"id": "world/gallery/2012/dec/25/living-on-island-in-pictures", "type": "gallery", "sectionId": "world", "sectionName": "World news", "webPublicationDate": "2012-12-25T16:22:19Z", "webTitle": "Living on an island \u2013 in pictures", "webUrl": "https://www.theguardian.com/world/gallery/2012/dec/25/living-on-island-in-pictures", "apiUrl": "https://content.guardianapis.com/world/gallery/2012/dec/25/living-on-island-in-pictures", "isHosted": false, "pillarId": "pillar/news", "pillarName": "News"}, {"id": "books/2012/dec/25/book-barely-imagined-beings-caspar-henderson-review", "type": "article", "sectionId": "books", "sectionName": "Books", "webPublicationDate": "2012-12-25T07:00:00Z", "webTitle": "The Book of Barely Imagined Beings by Caspar Henderson - review", "webUrl": "https://www.theguardian.com/books/2012/dec/25/book-barely-imagined-beings-caspar-henderson-review", "apiUrl": "https://content.guardianapis.com/books/2012/dec/25/book-barely-imagined-beings-caspar-henderson-review", "isHosted": false, "pillarId": "pillar/arts", "pillarName": "Arts"}, {"id": "environment/2012/dec/25/top-10-wackiest-stories", "type": "article", "sectionId": "environment", "sectionName": "Environment", "webPublicationDate": "2012-12-25T07:00:00Z", "webTitle": "Top 10 wackiest environment stories of 2012", "webUrl": "https://www.theguardian.com/environment/2012/dec/25/top-10-wackiest-stories", "apiUrl": "https://content.guardianapis.com/environment/2012/dec/25/top-10-wackiest-stories", "isHosted": false, "pillarId": "pillar/news", "pillarName": "News"}, {"id": "uk/2012/dec/24/heavy-rain-christmas-eve-flooding", "type": "article", "sectionId": "uk-news", "sectionName": "UK news", "webPublicationDate": "2012-12-24T22:33:00Z", "webTitle": "Heavy rain raises threat of Christmas Day flooding", "webUrl": "https://www.theguardian.com/uk/2012/dec/24/heavy-rain-christmas-eve-flooding", "apiUrl": "https://content.guardianapis.com/uk/2012/dec/24/heavy-rain-christmas-eve-flooding", "isHosted": false, "pillarId": "pillar/news", "pillarName": "News"}, {"id": "environment/video/2012/dec/24/flood-warnings-rain-south-west-england", "type": "video", "sectionId": "environment", "sectionName": "Environment", "webPublicationDate": "2012-12-24T13:47:00Z", "webTitle": "Flood warnings after more rain in south-west England - video", "webUrl": "https://www.theguardian.com/environment/video/2012/dec/24/flood-warnings-rain-south-west-england", "apiUrl": "https://content.guardianapis.com/environment/video/2012/dec/24/flood-warnings-rain-south-west-england", "isHosted": false, "pillarId": "pillar/news", "pillarName": "News"}, {"id": "uk/gallery/2012/dec/23/floods-christmas-disruption-pictures", "type": "gallery", "sectionId": "uk-news", "sectionName": "UK news", "webPublicationDate": "2012-12-24T11:45:00Z", "webTitle": "Floods cause pre-Christmas disruption \u2013 in pictures", "webUrl": "https://www.theguardian.com/uk/gallery/2012/dec/23/floods-christmas-disruption-pictures", "apiUrl": "https://content.guardianapis.com/uk/gallery/2012/dec/23/floods-christmas-disruption-pictures", "isHosted": false, "pillarId": "pillar/news", "pillarName": "News"}, {"id": "lifeandstyle/gardening-blog/2012/dec/24/holly-new-forest-christmas", "type": "article", "sectionId": "lifeandstyle", "sectionName": "Life and style", "webPublicationDate": "2012-12-24T10:08:00Z", "webTitle": "Holly: the meaning of the festive tree", "webUrl": "https://www.theguardian.com/lifeandstyle/gardening-blog/2012/dec/24/holly-new-forest-christmas", "apiUrl": "https://content.guardianapis.com/lifeandstyle/gardening-blog/2012/dec/24/holly-new-forest-christmas", "isHosted": false, "pillarId": "pillar/lifestyle", "pillarName": "Lifestyle"}, {"id": "environment/gallery/2012/dec/24/best-wildlife-photography-2012-in-pictures", "type": "gallery", "sectionId": "environment", "sectionName": "Environment", "webPublicationDate": "2012-12-24T09:00:00Z", "webTitle": "Star-gazing deer and a prowling jaguar: the best of 2012's wildlife photography", "webUrl": "https://www.theguardian.com/environment/gallery/2012/dec/24/best-wildlife-photography-2012-in-pictures", "apiUrl": "https://content.guardianapis.com/environment/gallery/2012/dec/24/best-wildlife-photography-2012-in-pictures", "isHosted": false, "pillarId": "pillar/news", "pillarName": "News"}, {"id": "environment/2012/dec/24/top-10-environment-stories", "type": "article", "sectionId": "environment", "sectionName": "Environment", "webPublicationDate": "2012-12-24T07:00:00Z", "webTitle": "Top 10 most popular environment stories of 2012", "webUrl": "https://www.theguardian.com/environment/2012/dec/24/top-10-environment-stories", "apiUrl": "https://content.guardianapis.com/environment/2012/dec/24/top-10-environment-stories", "isHosted": false, "pillarId": "pillar/news", "pillarName": "News"}, {"id": "environment/the-northerner/2012/dec/23/hard-won-negotiations-railway-engineers-landscape", "type": "article", "sectionId": "environment", "sectionName": "Environment", "webPublicationDate": "2012-12-23T21:00:01Z", "webTitle": "Country diary: Chee Dale, Derbyshire: Hard-won negotiations between the railway builders and the landscape", "webUrl": "https://www.theguardian.com/environment/the-northerner/2012/dec/23/hard-won-negotiations-railway-engineers-landscape", "apiUrl": "https://content.guardianapis.com/environment/the-northerner/2012/dec/23/hard-won-negotiations-railway-engineers-landscape", "isHosted": false, "pillarId": "pillar/news", "pillarName": "News"}, {"id": "uk/2012/dec/23/woman-rescued-floodwaters-bad-weather", "type": "article", "sectionId": "uk-news", "sectionName": "UK news", "webPublicationDate": "2012-12-23T16:59:32Z", "webTitle": "Woman rescued from floodwaters as Britain braces for more bad weather", "webUrl": "https://www.theguardian.com/uk/2012/dec/23/woman-rescued-floodwaters-bad-weather", "apiUrl": "https://content.guardianapis.com/uk/2012/dec/23/woman-rescued-floodwaters-bad-weather", "isHosted": false, "pillarId": "pillar/news", "pillarName": "News"}]}}