{"response": {"status": "ok", "userTier": "developer", "total": 90066, "startIndex": 1, "pageSize": 50, "currentPage": 1, "pages": 1802, "orderBy": "newest", "results": [{"id": "football/2013/dec/30/tottenham-hotspur-christian-eriksen-tim-sherwood-manchester-united", "type": "article", "sectionId": "football", "sectionName": "Football", "webPublicationDate": "2013-12-30T23:00:00Z", "webTitle": "Tottenham Hotspur's Christian Eriksen revitalised under Tim Sherwood", "webUrl": "https://www.theguardian.com/football/2013/dec/30/tottenham-hotspur-christian-eriksen-tim-sherwood-manchester-united", "apiUrl": "https://content.guardianapis.com/football/2013/dec/30/tottenham-hotspur-christian-eriksen-tim-sherwood-manchester-united", "isHosted": false, "pillarId": "pillar/sport", "pillarName": "Sport"}, {"id": "football/blog/2013/dec/30/west-ham-sam-allardyce-relegation", "type": "article", "sectionId": "football", "sectionName": "Football", "webPublicationDate": "2013-12-30T22:31:00Z", "webTitle": "Sam Allardyce short of bodies and excuses in battle to keep West Ham up | Jacob Steinberg", "webUrl": "https://www.theguardian.com/football/blog/2013/dec/30/west-ham-sam-allardyce-relegation", "apiUrl": "https://content.guardianapis.com/football/blog/2013/dec/30/west-ham-sam-allardyce-relegation", "isHosted": false, "pillarId": "pillar/sport", "pillarName": "Sport"}, {"id": "football/2013/dec/30/manchester-city-manuel-pellegrini-edin-dzeko-jack-rodwell-transfer-window", "type": "article", "sectionId": "football", "sectionName": "Football", "webPublicationDate": "2013-12-30T22:30:01Z", "webTitle": "Manchester City's Manuel Pellegrini: Edin Dzeko will not be sold in January", "webUrl": "https://www.theguardian.com/football/2013/dec/30/manchester-city-manuel-pellegrini-edin-dzeko-jack-rodwell-transfer-window", "apiUrl": "https://content.guardianapis.com/football/2013/dec/30/manchester-city-manuel-pellegrini-edin-dzeko-jack-rodwell-transfer-window", "isHosted": false, "pillarId": "pillar/sport", "pillarName": "Sport"}, {"id": "football/2013/dec/30/liverpool-daniel-sturridge-steven-gerrard-early-injury-return", "type": "article", "sectionId": "football", "sectionName": "Football", "webPublicationDate": "2013-12-30T22:30:01Z", "webTitle": "Liverpool's Daniel Sturridge and Steven Gerrard set for early injury returns", "webUrl": "https://www.theguardian.com/football/2013/dec/30/liverpool-daniel-sturridge-steven-gerrard-early-injury-return", "apiUrl": "https://content.guardianapis.com/football/2013/dec/30/liverpool-daniel-sturridge-steven-gerrard-early-injury-return", "isHosted": false, "pillarId": "pillar/sport", "pillarName": "Sport"}, {"id": "football/2013/dec/30/manchester-united-leighton-baines-luke-shaw-david-moyes", "type": "article", "sectionId": "football", "sectionName": "Football", "webPublicationDate": "2013-12-30T22:30:00Z", "webTitle": "Manchester United fear failure over bid for Leighton Baines or Luke Shaw", "webUrl": "https://www.theguardian.com/football/2013/dec/30/manchester-united-leighton-baines-luke-shaw-david-moyes", "apiUrl": "https://content.guardianapis.com/football/2013/dec/30/manchester-united-leighton-baines-luke-shaw-david-moyes", "isHosted": false, "pillarId": "pillar/sport", "pillarName": "Sport"}, {"id": "uk-news/2013/dec/30/new-year-honours-list-2014-women", "type": "article", "sectionId": "uk-news", "sectionName": "UK news", "webPublicationDate": "2013-12-30T22:30:00Z", "webTitle": "New Year honours list recognises more women than men for first time", "webUrl": "https://www.theguardian.com/uk-news/2013/dec/30/new-year-honours-list-2014-women", "apiUrl": "https://content.guardianapis.com/uk-news/2013/dec/30/new-year-honours-list-2014-women", "isHosted": false, "pillarId": "pillar/news", "pillarName": "News"}, {"id": "football/2013/dec/30/chelsea-gary-cahill-yet-to-click", "type": "article", "sectionId": "football", "sectionName": "Football", "webPublicationDate": "2013-12-30T22:01:00Z", "webTitle": "Chelsea yet to click but expect 'good things' when we do \u2013 Gary Cahill", "webUrl": "https://www.theguardian.com/football/2013/dec/30/chelsea-gary-cahill-yet-to-click", "apiUrl": "https://content.guardianapis.com/football/2013/dec/30/chelsea-gary-cahill-yet-to-click", "isHosted": false, "pillarId": "pillar/sport", "pillarName": "Sport"}, {"id": "football/2013/dec/30/everton-romelu-lukaku-top-four", "type": "article", "sectionId": "football", "sectionName": "Football", "webPublicationDate": "2013-12-30T22:00:01Z", "webTitle": "Everton can make top four if they are more ruthless, says Romelu Lukaku", "webUrl": "https://www.theguardian.com/football/2013/dec/30/everton-romelu-lukaku-top-four", "apiUrl": "https://content.guardianapis.com/football/2013/dec/30/everton-romelu-lukaku-top-four", "isHosted": false, "pillarId": "pillar/sport", "pillarName": "Sport"}, {"id": "football/2013/dec/30/nicolas-anelka-quenelle-gesture-west-brom-fa", "type": "article", "sectionId": "football", "sectionName": "Football", "webPublicationDate": "2013-12-30T22:00:00Z", "webTitle": "West Brom on the defensive over Nicolas Anelka's quenelle gesture", "webUrl": "https://www.theguardian.com/football/2013/dec/30/nicolas-anelka-quenelle-gesture-west-brom-fa", "apiUrl": "https://content.guardianapis.com/football/2013/dec/30/nicolas-anelka-quenelle-gesture-west-brom-fa", "isHosted": false, "pillarId": "pillar/sport", "pillarName": "Sport"}, {"id": "football/blog/2013/dec/31/melbourne-victory-dual-10s-tactical-review", "type": "article", "sectionId": "football", "sectionName": "Football", "webPublicationDate": "2013-12-30T20:51:59Z", "webTitle": "Why the hate for Melbourne Victory\u2019s strikerless system?", "webUrl": "https://www.theguardian.com/football/blog/2013/dec/31/melbourne-victory-dual-10s-tactical-review", "apiUrl": "https://content.guardianapis.com/football/blog/2013/dec/31/melbourne-victory-dual-10s-tactical-review", "isHosted": false, "pillarId": "pillar/sport", "pillarName": "Sport"}, {"id": "football/blog/2013/dec/30/sunderland-form-relegation-odds-villa-crystal-palace-fulham", "type": "article", "sectionId": "football", "sectionName": "Football", "webPublicationDate": "2013-12-30T18:25:00Z", "webTitle": "Sunderland's form fires hope they can beat history's relegation odds", "webUrl": "https://www.theguardian.com/football/blog/2013/dec/30/sunderland-form-relegation-odds-villa-crystal-palace-fulham", "apiUrl": "https://content.guardianapis.com/football/blog/2013/dec/30/sunderland-form-relegation-odds-villa-crystal-palace-fulham", "isHosted": false, "pillarId": "pillar/sport", "pillarName": "Sport"}, {"id": "football/blog/audio/2013/dec/30/football-weekly-podcast-arsenal-chelsea-manchester-city", "type": "audio", "sectionId": "football", "sectionName": "Football", "webPublicationDate": "2013-12-30T14:56:29Z", "webTitle": "Football Weekly: Arsenal return to the top as City and Chelsea close in", "webUrl": "https://www.theguardian.com/football/blog/audio/2013/dec/30/football-weekly-podcast-arsenal-chelsea-manchester-city", "apiUrl": "https://content.guardianapis.com/football/blog/audio/2013/dec/30/football-weekly-podcast-arsenal-chelsea-manchester-city", "isHosted": false, "pillarId": "pillar/sport", "pillarName": "Sport"}, {"id": "football/2013/dec/30/jonathan-wilson-tactical-review-of-2013", "type": "article", "sectionId": "football", "sectionName": "Football", "webPublicationDate": "2013-12-30T14:00:00Z", "webTitle": "The false nine is an accepted role but with different interpretations", "webUrl": "https://www.theguardian.com/football/2013/dec/30/jonathan-wilson-tactical-review-of-2013", "apiUrl": "https://content.guardianapis.com/football/2013/dec/30/jonathan-wilson-tactical-review-of-2013", "isHosted": false, "pillarId": "pillar/sport", "pillarName": "Sport"}, {"id": "football/2013/dec/30/andy-cole-racially-abused-aer-lingus-flight-manchester-united", "type": "article", "sectionId": "football", "sectionName": "Football", "webPublicationDate": "2013-12-30T13:54:52Z", "webTitle": "Ex-Manchester United star Andy Cole 'racially abused on Aer Lingus flight'", "webUrl": "https://www.theguardian.com/football/2013/dec/30/andy-cole-racially-abused-aer-lingus-flight-manchester-united", "apiUrl": "https://content.guardianapis.com/football/2013/dec/30/andy-cole-racially-abused-aer-lingus-flight-manchester-united", "isHosted": false, "pillarId": "pillar/sport", "pillarName": "Sport"}, {"id": "football/2013/dec/30/football-introduce-time-outs-open-thread", "type": "article", "sectionId": "football", "sectionName": "Football", "webPublicationDate": "2013-12-30T11:06:16Z", "webTitle": "Should football introduce time-outs? \u2013 open thread", "webUrl": "https://www.theguardian.com/football/2013/dec/30/football-introduce-time-outs-open-thread", "apiUrl": "https://content.guardianapis.com/football/2013/dec/30/football-introduce-time-outs-open-thread", "isHosted": false, "pillarId": "pillar/sport", "pillarName": "Sport"}, {"id": "football/blog/2013/dec/30/premier-league-10-talking-points", "type": "article", "sectionId": "football", "sectionName": "Football", "webPublicationDate": "2013-12-30T09:00:00Z", "webTitle": "Premier League: 10 talking points from the weekend's action", "webUrl": "https://www.theguardian.com/football/blog/2013/dec/30/premier-league-10-talking-points", "apiUrl": "https://content.guardianapis.com/football/blog/2013/dec/30/premier-league-10-talking-points", "isHosted": false, "pillarId": "pillar/sport", "pillarName": "Sport"}, {"id": "football/football-league-blog/2013/dec/29/football-league-championship-leicester-derby", "type": "article", "sectionId": "football", "sectionName": "Football", "webPublicationDate": "2013-12-30T00:35:00Z", "webTitle": "Football League: your thoughts | Michael Butler", "webUrl": "https://www.theguardian.com/football/football-league-blog/2013/dec/29/football-league-championship-leicester-derby", "apiUrl": "https://content.guardianapis.com/football/football-league-blog/2013/dec/29/football-league-championship-leicester-derby", "isHosted": false, "pillarId": "pillar/sport", "pillarName": "Sport"}, {"id": "football/2013/dec/29/nicolas-anelka-10-match-ban-quenelle-gesture", "type": "article", "sectionId": "football", "sectionName": "Football", "webPublicationDate": "2013-12-29T23:47:00Z", "webTitle": "Nicolas Anelka faces lengthy ban after controversial quenelle gesture", "webUrl": "https://www.theguardian.com/football/2013/dec/29/nicolas-anelka-10-match-ban-quenelle-gesture", "apiUrl": "https://content.guardianapis.com/football/2013/dec/29/nicolas-anelka-10-match-ban-quenelle-gesture", "isHosted": false, "pillarId": "pillar/sport", "pillarName": "Sport"}, {"id": "football/2013/dec/29/premier-league-west-ham-west-browm-matchreport", "type": "article", "sectionId": "football", "sectionName": "Football", "webPublicationDate": "2013-12-29T23:45:00Z", "webTitle": "Nicolas Anelka's controversial salute could prove beginning of the end", "webUrl": "https://www.theguardian.com/football/2013/dec/29/premier-league-west-ham-west-browm-matchreport", "apiUrl": "https://content.guardianapis.com/football/2013/dec/29/premier-league-west-ham-west-browm-matchreport", "isHosted": false, "pillarId": "pillar/sport", "pillarName": "Sport"}, {"id": "football/2013/dec/29/cardiffcity-sunderland-pantomime-ole-gunnar-solskjaer", "type": "article", "sectionId": "football", "sectionName": "Football", "webPublicationDate": "2013-12-29T23:14:00Z", "webTitle": "Cardiff's pantomime set to run without Ole Gunnar Solskjaer as lead", "webUrl": "https://www.theguardian.com/football/2013/dec/29/cardiffcity-sunderland-pantomime-ole-gunnar-solskjaer", "apiUrl": "https://content.guardianapis.com/football/2013/dec/29/cardiffcity-sunderland-pantomime-ole-gunnar-solskjaer", "isHosted": false, "pillarId": "pillar/sport", "pillarName": "Sport"}, {"id": "football/2013/dec/29/chelsea-liverpool-tactics-jose-mourinho-david-luiz", "type": "article", "sectionId": "football", "sectionName": "Football", "webPublicationDate": "2013-12-29T23:02:00Z", "webTitle": "Jos\u00e9 Mourinho's use of David Luiz in Chelsea middle has mixed results", "webUrl": "https://www.theguardian.com/football/2013/dec/29/chelsea-liverpool-tactics-jose-mourinho-david-luiz", "apiUrl": "https://content.guardianapis.com/football/2013/dec/29/chelsea-liverpool-tactics-jose-mourinho-david-luiz", "isHosted": false, "pillarId": "pillar/sport", "pillarName": "Sport"}, {"id": "football/2013/dec/29/premier-league-tottenham-stoke-match-report", "type": "article", "sectionId": "football", "sectionName": "Football", "webPublicationDate": "2013-12-29T22:37:00Z", "webTitle": "Tottenham Hotspur 3-0 Stoke City | Premier League match report", "webUrl": "https://www.theguardian.com/football/2013/dec/29/premier-league-tottenham-stoke-match-report", "apiUrl": "https://content.guardianapis.com/football/2013/dec/29/premier-league-tottenham-stoke-match-report", "isHosted": false, "pillarId": "pillar/sport", "pillarName": "Sport"}, {"id": "football/2013/dec/29/premier-league-manchester-city-crystal-palace-matchreport", "type": "article", "sectionId": "football", "sectionName": "Football", "webPublicationDate": "2013-12-29T22:03:00Z", "webTitle": "Joe Hart supershow earns Manchester City a 1-0 win over Crystal Palace", "webUrl": "https://www.theguardian.com/football/2013/dec/29/premier-league-manchester-city-crystal-palace-matchreport", "apiUrl": "https://content.guardianapis.com/football/2013/dec/29/premier-league-manchester-city-crystal-palace-matchreport", "isHosted": false, "pillarId": "pillar/sport", "pillarName": "Sport"}, {"id": "football/blog/2013/dec/29/liverpool-luis-suarez-chelsea", "type": "article", "sectionId": "football", "sectionName": "Football", "webPublicationDate": "2013-12-29T22:02:00Z", "webTitle": "Liverpool's Luis Su\u00e1rez finds route to goal blocked by Chelsea | David Hytner", "webUrl": "https://www.theguardian.com/football/blog/2013/dec/29/liverpool-luis-suarez-chelsea", "apiUrl": "https://content.guardianapis.com/football/blog/2013/dec/29/liverpool-luis-suarez-chelsea", "isHosted": false, "pillarId": "pillar/sport", "pillarName": "Sport"}, {"id": "football/2013/dec/29/aston-villa-swansea-premier-league-matchreport", "type": "article", "sectionId": "football", "sectionName": "Football", "webPublicationDate": "2013-12-29T22:00:00Z", "webTitle": "Aston Villa's Paul Lambert: chairman Randy Lerner understands predicament", "webUrl": "https://www.theguardian.com/football/2013/dec/29/aston-villa-swansea-premier-league-matchreport", "apiUrl": "https://content.guardianapis.com/football/2013/dec/29/aston-villa-swansea-premier-league-matchreport", "isHosted": false, "pillarId": "pillar/sport", "pillarName": "Sport"}, {"id": "football/2013/dec/29/manchester-united-david-moyes-danny-welbeck-norwich-city-chris-hughton", "type": "article", "sectionId": "football", "sectionName": "Football", "webPublicationDate": "2013-12-29T21:59:00Z", "webTitle": "Manchester United's David Moyes: Danny Welbeck has regular spot chance", "webUrl": "https://www.theguardian.com/football/2013/dec/29/manchester-united-david-moyes-danny-welbeck-norwich-city-chris-hughton", "apiUrl": "https://content.guardianapis.com/football/2013/dec/29/manchester-united-david-moyes-danny-welbeck-norwich-city-chris-hughton", "isHosted": false, "pillarId": "pillar/sport", "pillarName": "Sport"}, {"id": "football/2013/dec/29/jose-mourinho-chelsea-luis-suarez", "type": "article", "sectionId": "football", "sectionName": "Football", "webPublicationDate": "2013-12-29T21:43:00Z", "webTitle": "Chelsea's manager Jos\u00e9 Mourinho slams Luis Su\u00e1rez 'swimming pool jump'", "webUrl": "https://www.theguardian.com/football/2013/dec/29/jose-mourinho-chelsea-luis-suarez", "apiUrl": "https://content.guardianapis.com/football/2013/dec/29/jose-mourinho-chelsea-luis-suarez", "isHosted": false, "pillarId": "pillar/sport", "pillarName": "Sport"}, {"id": "football/2013/dec/29/chelsea-liverpool-premier-league-match-report", "type": "article", "sectionId": "football", "sectionName": "Football", "webPublicationDate": "2013-12-29T21:32:00Z", "webTitle": "Chelsea 2-1 Liverpool | Premier League match report", "webUrl": "https://www.theguardian.com/football/2013/dec/29/chelsea-liverpool-premier-league-match-report", "apiUrl": "https://content.guardianapis.com/football/2013/dec/29/chelsea-liverpool-premier-league-match-report", "isHosted": false, "pillarId": "pillar/sport", "pillarName": "Sport"}, {"id": "football/2013/dec/29/scottish-premiership-celtic-inverness", "type": "article", "sectionId": "football", "sectionName": "Football", "webPublicationDate": "2013-12-29T21:22:00Z", "webTitle": "Inverness 0-1 Celtic | Scottish Premiership match report", "webUrl": "https://www.theguardian.com/football/2013/dec/29/scottish-premiership-celtic-inverness", "apiUrl": "https://content.guardianapis.com/football/2013/dec/29/scottish-premiership-celtic-inverness", "isHosted": false, "pillarId": "pillar/sport", "pillarName": "Sport"}, {"id": "football/2013/dec/29/watford-qpr-championship-match-report", "type": "article", "sectionId": "football", "sectionName": "Football", "webPublicationDate": "2013-12-29T21:13:00Z", "webTitle": "Watford 0-0 QPR | Championship match report", "webUrl": "https://www.theguardian.com/football/2013/dec/29/watford-qpr-championship-match-report", "apiUrl": "https://content.guardianapis.com/football/2013/dec/29/watford-qpr-championship-match-report", "isHosted": false, "pillarId": "pillar/sport", "pillarName": "Sport"}, {"id": "football/2013/dec/29/phil-jagielka-hamstring-everton-captain", "type": "article", "sectionId": "football", "sectionName": "Football", "webPublicationDate": "2013-12-29T18:06:14Z", "webTitle": "Phil Jagielka's hamstring puts him out of the Everton team for a month", "webUrl": "https://www.theguardian.com/football/2013/dec/29/phil-jagielka-hamstring-everton-captain", "apiUrl": "https://content.guardianapis.com/football/2013/dec/29/phil-jagielka-hamstring-everton-captain", "isHosted": false, "pillarId": "pillar/sport", "pillarName": "Sport"}, {"id": "football/2013/dec/29/chelsea-liverpool-live-mbm", "type": "liveblog", "sectionId": "football", "sectionName": "Football", "webPublicationDate": "2013-12-29T17:59:14Z", "webTitle": "Chelsea v Liverpool \u2013 live! | Jacob Steinberg", "webUrl": "https://www.theguardian.com/football/2013/dec/29/chelsea-liverpool-live-mbm", "apiUrl": "https://content.guardianapis.com/football/2013/dec/29/chelsea-liverpool-live-mbm", "isHosted": false, "pillarId": "pillar/sport", "pillarName": "Sport"}, {"id": "football/video/2013/dec/29/paul-lambert-injuries-aston-villa-squad-video", "type": "video", "sectionId": "football", "sectionName": "Football", "webPublicationDate": "2013-12-29T17:24:00Z", "webTitle": "Paul Lambert: Aston Villa injuries responsible for poor form \u2013 video", "webUrl": "https://www.theguardian.com/football/video/2013/dec/29/paul-lambert-injuries-aston-villa-squad-video", "apiUrl": "https://content.guardianapis.com/football/video/2013/dec/29/paul-lambert-injuries-aston-villa-squad-video", "isHosted": false, "pillarId": "pillar/sport", "pillarName": "Sport"}, {"id": "football/video/2013/dec/29/tony-pulis-crystal-palace-sign-players-january-video", "type": "video", "sectionId": "football", "sectionName": "Football", "webPublicationDate": "2013-12-29T16:32:00Z", "webTitle": "Tony Pulis: Crystal Palace will sign players in January \u2013 video", "webUrl": "https://www.theguardian.com/football/video/2013/dec/29/tony-pulis-crystal-palace-sign-players-january-video", "apiUrl": "https://content.guardianapis.com/football/video/2013/dec/29/tony-pulis-crystal-palace-sign-players-january-video", "isHosted": false, "pillarId": "pillar/sport", "pillarName": "Sport"}, {"id": "global/2013/dec/29/bill-foulkes-maria-devillota-steve-prescott-cliff-morgan", "type": "article", "sectionId": "sport", "sectionName": "Sport", "webPublicationDate": "2013-12-29T16:24:26Z", "webTitle": "Sporting stars we lost in 2013", "webUrl": "https://www.theguardian.com/global/2013/dec/29/bill-foulkes-maria-devillota-steve-prescott-cliff-morgan", "apiUrl": "https://content.guardianapis.com/global/2013/dec/29/bill-foulkes-maria-devillota-steve-prescott-cliff-morgan", "isHosted": false, "pillarId": "pillar/sport", "pillarName": "Sport"}, {"id": "football/gallery/2013/dec/29/premier-league-chelsea-liverpool-pictures-gallery", "type": "gallery", "sectionId": "football", "sectionName": "Football", "webPublicationDate": "2013-12-29T16:23:00Z", "webTitle": "Premier League: Chelsea v Liverpool \u2013 in pictures", "webUrl": "https://www.theguardian.com/football/gallery/2013/dec/29/premier-league-chelsea-liverpool-pictures-gallery", "apiUrl": "https://content.guardianapis.com/football/gallery/2013/dec/29/premier-league-chelsea-liverpool-pictures-gallery", "isHosted": false, "pillarId": "pillar/sport", "pillarName": "Sport"}, {"id": "football/2013/dec/29/newcastle-united-arsenal-premier-league-match-report", "type": "article", "sectionId": "football", "sectionName": "Football", "webPublicationDate": "2013-12-29T15:38:29Z", "webTitle": "Newcastle United 0-1 Arsenal | Premier League match report", "webUrl": "https://www.theguardian.com/football/2013/dec/29/newcastle-united-arsenal-premier-league-match-report", "apiUrl": "https://content.guardianapis.com/football/2013/dec/29/newcastle-united-arsenal-premier-league-match-report", "isHosted": false, "pillarId": "pillar/sport", "pillarName": "Sport"}, {"id": "football/2013/dec/29/premier-league-everton-southampton-matchreport", "type": "article", "sectionId": "football", "sectionName": "Football", "webPublicationDate": "2013-12-29T15:32:03Z", "webTitle": "Everton 2-1 Southampton | Premier League match report", "webUrl": "https://www.theguardian.com/football/2013/dec/29/premier-league-everton-southampton-matchreport", "apiUrl": "https://content.guardianapis.com/football/2013/dec/29/premier-league-everton-southampton-matchreport", "isHosted": false, "pillarId": "pillar/sport", "pillarName": "Sport"}, {"id": "football/2013/dec/29/newcastle-united-v-arsenal-live-premier-league-report", "type": "liveblog", "sectionId": "football", "sectionName": "Football", "webPublicationDate": "2013-12-29T15:30:17Z", "webTitle": "Newcastle United v Arsenal \u2013 as it happened", "webUrl": "https://www.theguardian.com/football/2013/dec/29/newcastle-united-v-arsenal-live-premier-league-report", "apiUrl": "https://content.guardianapis.com/football/2013/dec/29/newcastle-united-v-arsenal-live-premier-league-report", "isHosted": false, "pillarId": "pillar/sport", "pillarName": "Sport"}, {"id": "world/2013/dec/29/french-comedian-nicolas-anelka-ban-dieudonne", "type": "article", "sectionId": "world", "sectionName": "World news", "webPublicationDate": "2013-12-29T13:57:54Z", "webTitle": "French comedian at centre of Nicolas Anelka row faces ban", "webUrl": "https://www.theguardian.com/world/2013/dec/29/french-comedian-nicolas-anelka-ban-dieudonne", "apiUrl": "https://content.guardianapis.com/world/2013/dec/29/french-comedian-nicolas-anelka-ban-dieudonne", "isHosted": false, "pillarId": "pillar/news", "pillarName": "News"}, {"id": "football/video/2013/dec/29/cardiff-city-caretaker-manager-david-kerslake-video", "type": "video", "sectionId": "football", "sectionName": "Football", "webPublicationDate": "2013-12-29T13:36:00Z", "webTitle": "Cardiff City caretaker manager David Kerslake distances himself from vacant job \u2013 video", "webUrl": "https://www.theguardian.com/football/video/2013/dec/29/cardiff-city-caretaker-manager-david-kerslake-video", "apiUrl": "https://content.guardianapis.com/football/video/2013/dec/29/cardiff-city-caretaker-manager-david-kerslake-video", "isHosted": false, "pillarId": "pillar/sport", "pillarName": "Sport"}, {"id": "football/video/2013/dec/29/steve-bruce-hull-tom-huddlestone-masterclass-video", "type": "video", "sectionId": "football", "sectionName": "Football", "webPublicationDate": "2013-12-29T12:14:00Z", "webTitle": "Steve Bruce hails Tom Huddlestone 'midfield masterclass' for Hull \u2013 video", "webUrl": "https://www.theguardian.com/football/video/2013/dec/29/steve-bruce-hull-tom-huddlestone-masterclass-video", "apiUrl": "https://content.guardianapis.com/football/video/2013/dec/29/steve-bruce-hull-tom-huddlestone-masterclass-video", "isHosted": false, "pillarId": "pillar/sport", "pillarName": "Sport"}, {"id": "football/video/2013/dec/29/manuel-pellegrini-manchester-city-win-crystal-palace-video", "type": "video", "sectionId": "football", "sectionName": "Football", "webPublicationDate": "2013-12-29T11:15:00Z", "webTitle": "Manchester City's Manuel Pellegrini criticises congested schedule after win over Crystal Palace \u2013 video", "webUrl": "https://www.theguardian.com/football/video/2013/dec/29/manuel-pellegrini-manchester-city-win-crystal-palace-video", "apiUrl": "https://content.guardianapis.com/football/video/2013/dec/29/manuel-pellegrini-manchester-city-win-crystal-palace-video", "isHosted": false, "pillarId": "pillar/sport", "pillarName": "Sport"}, {"id": "football/blog/2013/dec/29/a-league-what-we-learned-in-round-12", "type": "article", "sectionId": "football", "sectionName": "Football", "webPublicationDate": "2013-12-29T11:04:32Z", "webTitle": "A-League: what we learned in round 12", "webUrl": "https://www.theguardian.com/football/blog/2013/dec/29/a-league-what-we-learned-in-round-12", "apiUrl": "https://content.guardianapis.com/football/blog/2013/dec/29/a-league-what-we-learned-in-round-12", "isHosted": false, "pillarId": "pillar/sport", "pillarName": "Sport"}, {"id": "world/2013/dec/29/2013-eyewitness-accounts-alex-ferguson-retires", "type": "article", "sectionId": "world", "sectionName": "World news", "webPublicationDate": "2013-12-29T00:06:08Z", "webTitle": "Sir Alex Ferguson retires as manager of Manchester United", "webUrl": "https://www.theguardian.com/world/2013/dec/29/2013-eyewitness-accounts-alex-ferguson-retires", "apiUrl": "https://content.guardianapis.com/world/2013/dec/29/2013-eyewitness-accounts-alex-ferguson-retires", "isHosted": false, "pillarId": "pillar/news", "pillarName": "News"}, {"id": "football/2013/dec/29/casey-stoney-interview-england-captain-homosexuality", "type": "article", "sectionId": "football", "sectionName": "Football", "webPublicationDate": "2013-12-29T00:05:06Z", "webTitle": "Casey Stoney interview: 'I'd like to see a day when male footballers aren't afraid to come out'", "webUrl": "https://www.theguardian.com/football/2013/dec/29/casey-stoney-interview-england-captain-homosexuality", "apiUrl": "https://content.guardianapis.com/football/2013/dec/29/casey-stoney-interview-england-captain-homosexuality", "isHosted": false, "pillarId": "pillar/sport", "pillarName": "Sport"}, {"id": "world/2013/dec/29/2014-prediction-news-headlines", "type": "article", "sectionId": "world", "sectionName": "World news", "webPublicationDate": "2013-12-29T00:04:04Z", "webTitle": "From privacy to food security: what will hit the headlines in 2014", "webUrl": "https://www.theguardian.com/world/2013/dec/29/2014-prediction-news-headlines", "apiUrl": "https://content.guardianapis.com/world/2013/dec/29/2014-prediction-news-headlines", "isHosted": false, "pillarId": "pillar/news", "pillarName": "News"}, {"id": "football/2013/dec/28/sport-2013-alternative-awards", "type": "article", "sectionId": "sport", "sectionName": "Sport", "webPublicationDate": "2013-12-28T23:55:00Z", "webTitle": "Sport in 2013: the alternative awards", "webUrl": "https://www.theguardian.com/football/2013/dec/28/sport-2013-alternative-awards", "apiUrl": "https://content.guardianapis.com/football/2013/dec/28/sport-2013-alternative-awards", "isHosted": false, "pillarId": "pillar/sport", "pillarName": "Sport"}, {"id": "football/2013/dec/28/brendan-rodgers-liverpool-chelsea-jose-mourinho", "type": "article", "sectionId": "football", "sectionName": "Football", "webPublicationDate": "2013-12-28T23:00:00Z", "webTitle": "Brendan Rodgers: 'I wouldn't be where I am now but for Jos\u00e9 Mourinho' | Paul Wilson", "webUrl": "https://www.theguardian.com/football/2013/dec/28/brendan-rodgers-liverpool-chelsea-jose-mourinho", "apiUrl": "https://content.guardianapis.com/football/2013/dec/28/brendan-rodgers-liverpool-chelsea-jose-mourinho", "isHosted": false, "pillarId": "pillar/sport", "pillarName": "Sport"}, {"id": "football/2013/dec/28/saturday-sundae-danny-welbeck-rene-meulensteen", "type": "article", "sectionId": "football", "sectionName": "Football", "webPublicationDate": "2013-12-28T22:02:45Z", "webTitle": "Saturday Sundae: Danny Welbeck awakens United; Fulham spiked at Hull", "webUrl": "https://www.theguardian.com/football/2013/dec/28/saturday-sundae-danny-welbeck-rene-meulensteen", "apiUrl": "https://content.guardianapis.com/football/2013/dec/28/saturday-sundae-danny-welbeck-rene-meulensteen", "isHosted": false, "pillarId": "pillar/sport", "pillarName": "Sport"}]}}