{"response": {"status": "ok", "userTier": "developer", "total": 18230, "startIndex": 1, "pageSize": 50, "currentPage": 1, "pages": 365, "orderBy": "newest", "results": [{"id": "lifeandstyle/2012/dec/30/wines-week-champagne-new-year", "type": "article", "sectionId": "food", "sectionName": "Food", "webPublicationDate": "2012-12-30T00:06:26Z", "webTitle": "Champagnes for New Year's Eve", "webUrl": "https://www.theguardian.com/lifeandstyle/2012/dec/30/wines-week-champagne-new-year", "apiUrl": "https://content.guardianapis.com/lifeandstyle/2012/dec/30/wines-week-champagne-new-year", "isHosted": false, "pillarId": "pillar/lifestyle", "pillarName": "Lifestyle"}, {"id": "lifeandstyle/2012/dec/30/gails-kitchen-london-restaurant-review", "type": "article", "sectionId": "food", "sectionName": "Food", "webPublicationDate": "2012-12-30T00:05:35Z", "webTitle": "Restaurant review: Gail's Kitchen", "webUrl": "https://www.theguardian.com/lifeandstyle/2012/dec/30/gails-kitchen-london-restaurant-review", "apiUrl": "https://content.guardianapis.com/lifeandstyle/2012/dec/30/gails-kitchen-london-restaurant-review", "isHosted": false, "pillarId": "pillar/lifestyle", "pillarName": "Lifestyle"}, {"id": "lifeandstyle/2012/dec/29/readers-favourite-photographs-songs-recipes", "type": "article", "sectionId": "lifeandstyle", "sectionName": "Life and style", "webPublicationDate": "2012-12-29T00:05:00Z", "webTitle": "Family life", "webUrl": "https://www.theguardian.com/lifeandstyle/2012/dec/29/readers-favourite-photographs-songs-recipes", "apiUrl": "https://content.guardianapis.com/lifeandstyle/2012/dec/29/readers-favourite-photographs-songs-recipes", "isHosted": false, "pillarId": "pillar/lifestyle", "pillarName": "Lifestyle"}, {"id": "lifeandstyle/2012/dec/28/worst-idea-2012-gourmet-junk-food", "type": "article", "sectionId": "food", "sectionName": "Food", "webPublicationDate": "2012-12-28T23:00:00Z", "webTitle": "Worst ideas of 2012: gourmet junk food", "webUrl": "https://www.theguardian.com/lifeandstyle/2012/dec/28/worst-idea-2012-gourmet-junk-food", "apiUrl": "https://content.guardianapis.com/lifeandstyle/2012/dec/28/worst-idea-2012-gourmet-junk-food", "isHosted": false, "pillarId": "pillar/lifestyle", "pillarName": "Lifestyle"}, {"id": "lifeandstyle/2012/dec/28/zoilo-london-w1-restaurant-review", "type": "article", "sectionId": "lifeandstyle", "sectionName": "Life and style", "webPublicationDate": "2012-12-28T22:59:07Z", "webTitle": "Restaurant: Zoilo, London W1", "webUrl": "https://www.theguardian.com/lifeandstyle/2012/dec/28/zoilo-london-w1-restaurant-review", "apiUrl": "https://content.guardianapis.com/lifeandstyle/2012/dec/28/zoilo-london-w1-restaurant-review", "isHosted": false, "pillarId": "pillar/lifestyle", "pillarName": "Lifestyle"}, {"id": "lifeandstyle/2012/dec/28/champagne-price-wine-fiona-beckett", "type": "article", "sectionId": "food", "sectionName": "Food", "webPublicationDate": "2012-12-28T22:58:01Z", "webTitle": "Wine: how to prick the price bubble of champagne", "webUrl": "https://www.theguardian.com/lifeandstyle/2012/dec/28/champagne-price-wine-fiona-beckett", "apiUrl": "https://content.guardianapis.com/lifeandstyle/2012/dec/28/champagne-price-wine-fiona-beckett", "isHosted": false, "pillarId": "pillar/lifestyle", "pillarName": "Lifestyle"}, {"id": "lifeandstyle/2012/dec/28/experience-my-tongue-worth-million-pounds", "type": "article", "sectionId": "food", "sectionName": "Food", "webPublicationDate": "2012-12-28T22:58:00Z", "webTitle": "Experience: my tongue is worth \u00a31m", "webUrl": "https://www.theguardian.com/lifeandstyle/2012/dec/28/experience-my-tongue-worth-million-pounds", "apiUrl": "https://content.guardianapis.com/lifeandstyle/2012/dec/28/experience-my-tongue-worth-million-pounds", "isHosted": false, "pillarId": "pillar/lifestyle", "pillarName": "Lifestyle"}, {"id": "lifeandstyle/wordofmouth/2012/dec/28/spam-processed-meat-posh", "type": "article", "sectionId": "food", "sectionName": "Food", "webPublicationDate": "2012-12-28T10:00:00Z", "webTitle": "Spam: the processed meat goes posh", "webUrl": "https://www.theguardian.com/lifeandstyle/wordofmouth/2012/dec/28/spam-processed-meat-posh", "apiUrl": "https://content.guardianapis.com/lifeandstyle/wordofmouth/2012/dec/28/spam-processed-meat-posh", "isHosted": false, "pillarId": "pillar/lifestyle", "pillarName": "Lifestyle"}, {"id": "business/2012/dec/28/prosecco-sales-grow-fizz-champagne", "type": "article", "sectionId": "business", "sectionName": "Business", "webPublicationDate": "2012-12-28T00:01:08Z", "webTitle": "Prosecco sales grow as fizz goes out of champagne market", "webUrl": "https://www.theguardian.com/business/2012/dec/28/prosecco-sales-grow-fizz-champagne", "apiUrl": "https://content.guardianapis.com/business/2012/dec/28/prosecco-sales-grow-fizz-champagne", "isHosted": false, "pillarId": "pillar/news", "pillarName": "News"}, {"id": "lifeandstyle/wordofmouth/2012/dec/27/best-food-books-year-2012", "type": "article", "sectionId": "food", "sectionName": "Food", "webPublicationDate": "2012-12-27T16:44:00Z", "webTitle": "The best food books of the year 2012", "webUrl": "https://www.theguardian.com/lifeandstyle/wordofmouth/2012/dec/27/best-food-books-year-2012", "apiUrl": "https://content.guardianapis.com/lifeandstyle/wordofmouth/2012/dec/27/best-food-books-year-2012", "isHosted": false, "pillarId": "pillar/lifestyle", "pillarName": "Lifestyle"}, {"id": "lifeandstyle/wordofmouth/2012/dec/24/christmas-food-and-drink", "type": "article", "sectionId": "lifeandstyle", "sectionName": "Life and style", "webPublicationDate": "2012-12-24T16:59:00Z", "webTitle": "Family traditions at the Christmas table", "webUrl": "https://www.theguardian.com/lifeandstyle/wordofmouth/2012/dec/24/christmas-food-and-drink", "apiUrl": "https://content.guardianapis.com/lifeandstyle/wordofmouth/2012/dec/24/christmas-food-and-drink", "isHosted": false, "pillarId": "pillar/lifestyle", "pillarName": "Lifestyle"}, {"id": "technology/gamesblog/2012/dec/24/five-festive-video-game-cocktails", "type": "article", "sectionId": "technology", "sectionName": "Technology", "webPublicationDate": "2012-12-24T15:43:21Z", "webTitle": "Five festive video game cocktails", "webUrl": "https://www.theguardian.com/technology/gamesblog/2012/dec/24/five-festive-video-game-cocktails", "apiUrl": "https://content.guardianapis.com/technology/gamesblog/2012/dec/24/five-festive-video-game-cocktails", "isHosted": false, "pillarId": "pillar/news", "pillarName": "News"}, {"id": "travel/gallery/2012/dec/24/readers-travel-photography-competition-food", "type": "gallery", "sectionId": "travel", "sectionName": "Travel", "webPublicationDate": "2012-12-24T12:46:00Z", "webTitle": "Readers' travel photograph competition: December \u2013 food", "webUrl": "https://www.theguardian.com/travel/gallery/2012/dec/24/readers-travel-photography-competition-food", "apiUrl": "https://content.guardianapis.com/travel/gallery/2012/dec/24/readers-travel-photography-competition-food", "isHosted": false, "pillarId": "pillar/lifestyle", "pillarName": "Lifestyle"}, {"id": "lifeandstyle/2012/dec/23/france-cheddar-cheese-sales-boom", "type": "article", "sectionId": "food", "sectionName": "Food", "webPublicationDate": "2012-12-23T14:24:14Z", "webTitle": "France develops a taste for British cheddar", "webUrl": "https://www.theguardian.com/lifeandstyle/2012/dec/23/france-cheddar-cheese-sales-boom", "apiUrl": "https://content.guardianapis.com/lifeandstyle/2012/dec/23/france-cheddar-cheese-sales-boom", "isHosted": false, "pillarId": "pillar/lifestyle", "pillarName": "Lifestyle"}, {"id": "world/2012/dec/23/french-truffle-thieves-military-threat", "type": "article", "sectionId": "world", "sectionName": "World news", "webPublicationDate": "2012-12-23T13:18:57Z", "webTitle": "Truffle thieves face paramilitary threat", "webUrl": "https://www.theguardian.com/world/2012/dec/23/french-truffle-thieves-military-threat", "apiUrl": "https://content.guardianapis.com/world/2012/dec/23/french-truffle-thieves-military-threat", "isHosted": false, "pillarId": "pillar/news", "pillarName": "News"}, {"id": "lifeandstyle/2012/dec/23/polish-restaurant-karczma-birmingham-review", "type": "article", "sectionId": "food", "sectionName": "Food", "webPublicationDate": "2012-12-23T00:10:03Z", "webTitle": "The Karczma, Birmingham: restaurant review", "webUrl": "https://www.theguardian.com/lifeandstyle/2012/dec/23/polish-restaurant-karczma-birmingham-review", "apiUrl": "https://content.guardianapis.com/lifeandstyle/2012/dec/23/polish-restaurant-karczma-birmingham-review", "isHosted": false, "pillarId": "pillar/lifestyle", "pillarName": "Lifestyle"}, {"id": "lifeandstyle/2012/dec/23/last-minute-christmas-wine-choices", "type": "article", "sectionId": "food", "sectionName": "Food", "webPublicationDate": "2012-12-23T00:05:41Z", "webTitle": "Last-minute Christmas wine choices", "webUrl": "https://www.theguardian.com/lifeandstyle/2012/dec/23/last-minute-christmas-wine-choices", "apiUrl": "https://content.guardianapis.com/lifeandstyle/2012/dec/23/last-minute-christmas-wine-choices", "isHosted": false, "pillarId": "pillar/lifestyle", "pillarName": "Lifestyle"}, {"id": "lifeandstyle/2012/dec/22/pubs-coffee-shops", "type": "article", "sectionId": "food", "sectionName": "Food", "webPublicationDate": "2012-12-22T23:19:39Z", "webTitle": "While last orders ring for struggling pubs, coffee shops are booming", "webUrl": "https://www.theguardian.com/lifeandstyle/2012/dec/22/pubs-coffee-shops", "apiUrl": "https://content.guardianapis.com/lifeandstyle/2012/dec/22/pubs-coffee-shops", "isHosted": false, "pillarId": "pillar/lifestyle", "pillarName": "Lifestyle"}, {"id": "lifeandstyle/2012/dec/22/christmas-cooks-goose", "type": "article", "sectionId": "food", "sectionName": "Food", "webPublicationDate": "2012-12-22T22:29:00Z", "webTitle": "Christmas cooks are plumping for goose", "webUrl": "https://www.theguardian.com/lifeandstyle/2012/dec/22/christmas-cooks-goose", "apiUrl": "https://content.guardianapis.com/lifeandstyle/2012/dec/22/christmas-cooks-goose", "isHosted": false, "pillarId": "pillar/lifestyle", "pillarName": "Lifestyle"}, {"id": "society/2012/dec/23/food-bank-salisbury-christmas", "type": "article", "sectionId": "society", "sectionName": "Society", "webPublicationDate": "2012-12-22T20:32:22Z", "webTitle": "The Trussell Trust: the food bank keeping families from going hungry this Christmas", "webUrl": "https://www.theguardian.com/society/2012/dec/23/food-bank-salisbury-christmas", "apiUrl": "https://content.guardianapis.com/society/2012/dec/23/food-bank-salisbury-christmas", "isHosted": false, "pillarId": "pillar/news", "pillarName": "News"}, {"id": "culture/gallery/2012/dec/22/10-best-christmas-lunches", "type": "gallery", "sectionId": "culture", "sectionName": "Culture", "webPublicationDate": "2012-12-22T16:00:00Z", "webTitle": "The 10 best Christmas lunches", "webUrl": "https://www.theguardian.com/culture/gallery/2012/dec/22/10-best-christmas-lunches", "apiUrl": "https://content.guardianapis.com/culture/gallery/2012/dec/22/10-best-christmas-lunches", "isHosted": false, "pillarId": "pillar/arts", "pillarName": "Arts"}, {"id": "commentisfree/2012/dec/22/eating-excess-christmas-british-tradition", "type": "article", "sectionId": "commentisfree", "sectionName": "Opinion", "webPublicationDate": "2012-12-22T12:00:01Z", "webTitle": "Eating to excess at Christmas is an old British tradition | Oliver Thring", "webUrl": "https://www.theguardian.com/commentisfree/2012/dec/22/eating-excess-christmas-british-tradition", "apiUrl": "https://content.guardianapis.com/commentisfree/2012/dec/22/eating-excess-christmas-british-tradition", "isHosted": false, "pillarId": "pillar/opinion", "pillarName": "Opinion"}, {"id": "lifeandstyle/2012/dec/22/readers-favourite-photographs-songs-recipes", "type": "article", "sectionId": "lifeandstyle", "sectionName": "Life and style", "webPublicationDate": "2012-12-22T00:04:00Z", "webTitle": "Family life", "webUrl": "https://www.theguardian.com/lifeandstyle/2012/dec/22/readers-favourite-photographs-songs-recipes", "apiUrl": "https://content.guardianapis.com/lifeandstyle/2012/dec/22/readers-favourite-photographs-songs-recipes", "isHosted": false, "pillarId": "pillar/lifestyle", "pillarName": "Lifestyle"}, {"id": "lifeandstyle/2012/dec/21/wine-christmas-treats-liqueurs-spirits", "type": "article", "sectionId": "food", "sectionName": "Food", "webPublicationDate": "2012-12-21T23:00:03Z", "webTitle": "Wine: Christmas treats", "webUrl": "https://www.theguardian.com/lifeandstyle/2012/dec/21/wine-christmas-treats-liqueurs-spirits", "apiUrl": "https://content.guardianapis.com/lifeandstyle/2012/dec/21/wine-christmas-treats-liqueurs-spirits", "isHosted": false, "pillarId": "pillar/lifestyle", "pillarName": "Lifestyle"}, {"id": "lifeandstyle/2012/dec/21/parsnip-recipes-hugh-fearnley-whittingstall", "type": "article", "sectionId": "lifeandstyle", "sectionName": "Life and style", "webPublicationDate": "2012-12-21T22:59:00Z", "webTitle": "Parsnip recipes | Hugh Fearnley-Whittingstall", "webUrl": "https://www.theguardian.com/lifeandstyle/2012/dec/21/parsnip-recipes-hugh-fearnley-whittingstall", "apiUrl": "https://content.guardianapis.com/lifeandstyle/2012/dec/21/parsnip-recipes-hugh-fearnley-whittingstall", "isHosted": false, "pillarId": "pillar/lifestyle", "pillarName": "Lifestyle"}, {"id": "lifeandstyle/2012/dec/21/shoryu-ramen-bone-daddies-restaurant-reviews", "type": "article", "sectionId": "lifeandstyle", "sectionName": "Life and style", "webPublicationDate": "2012-12-21T22:58:00Z", "webTitle": "Restaurants: Shoryu Ramen and Bone Daddies, London | Marina O'Loughlin", "webUrl": "https://www.theguardian.com/lifeandstyle/2012/dec/21/shoryu-ramen-bone-daddies-restaurant-reviews", "apiUrl": "https://content.guardianapis.com/lifeandstyle/2012/dec/21/shoryu-ramen-bone-daddies-restaurant-reviews", "isHosted": false, "pillarId": "pillar/lifestyle", "pillarName": "Lifestyle"}, {"id": "travel/2012/dec/21/food-course-gift-vouchers", "type": "article", "sectionId": "travel", "sectionName": "Travel", "webPublicationDate": "2012-12-21T22:45:09Z", "webTitle": "Food and cookery courses for last-minute Christmas gifts", "webUrl": "https://www.theguardian.com/travel/2012/dec/21/food-course-gift-vouchers", "apiUrl": "https://content.guardianapis.com/travel/2012/dec/21/food-course-gift-vouchers", "isHosted": false, "pillarId": "pillar/lifestyle", "pillarName": "Lifestyle"}, {"id": "travel/2012/dec/21/cooking-foraging-course-cornwall", "type": "article", "sectionId": "travel", "sectionName": "Travel", "webPublicationDate": "2012-12-21T22:45:01Z", "webTitle": "A foraging and cooking course for castaways in Cornwall", "webUrl": "https://www.theguardian.com/travel/2012/dec/21/cooking-foraging-course-cornwall", "apiUrl": "https://content.guardianapis.com/travel/2012/dec/21/cooking-foraging-course-cornwall", "isHosted": false, "pillarId": "pillar/lifestyle", "pillarName": "Lifestyle"}, {"id": "travel/2012/dec/21/how-make-sausages-smallholding-courses", "type": "article", "sectionId": "travel", "sectionName": "Travel", "webPublicationDate": "2012-12-21T22:45:00Z", "webTitle": "How to make sausages or run a smallholding \u2013 courses on Kate Humble's farm", "webUrl": "https://www.theguardian.com/travel/2012/dec/21/how-make-sausages-smallholding-courses", "apiUrl": "https://content.guardianapis.com/travel/2012/dec/21/how-make-sausages-smallholding-courses", "isHosted": false, "pillarId": "pillar/lifestyle", "pillarName": "Lifestyle"}, {"id": "lifeandstyle/gallery/2012/dec/21/christmas-dinner-food-and-drink", "type": "gallery", "sectionId": "lifeandstyle", "sectionName": "Life and style", "webPublicationDate": "2012-12-21T16:30:00Z", "webTitle": "Lunch is served: Christmas dinners \u2013 in pictures", "webUrl": "https://www.theguardian.com/lifeandstyle/gallery/2012/dec/21/christmas-dinner-food-and-drink", "apiUrl": "https://content.guardianapis.com/lifeandstyle/gallery/2012/dec/21/christmas-dinner-food-and-drink", "isHosted": false, "pillarId": "pillar/lifestyle", "pillarName": "Lifestyle"}, {"id": "lifeandstyle/wordofmouth/2012/dec/21/louis-cole-ate-goldfish-rspca", "type": "article", "sectionId": "food", "sectionName": "Food", "webPublicationDate": "2012-12-21T11:12:00Z", "webTitle": "Should the RSPCA have pursued the man who ate a live goldfish?", "webUrl": "https://www.theguardian.com/lifeandstyle/wordofmouth/2012/dec/21/louis-cole-ate-goldfish-rspca", "apiUrl": "https://content.guardianapis.com/lifeandstyle/wordofmouth/2012/dec/21/louis-cole-ate-goldfish-rspca", "isHosted": false, "pillarId": "pillar/lifestyle", "pillarName": "Lifestyle"}, {"id": "lifeandstyle/wordofmouth/2012/dec/21/how-perfect-christmas-dinner-guest", "type": "article", "sectionId": "lifeandstyle", "sectionName": "Life and style", "webPublicationDate": "2012-12-21T11:07:00Z", "webTitle": "How to be the perfect Christmas dinner guest", "webUrl": "https://www.theguardian.com/lifeandstyle/wordofmouth/2012/dec/21/how-perfect-christmas-dinner-guest", "apiUrl": "https://content.guardianapis.com/lifeandstyle/wordofmouth/2012/dec/21/how-perfect-christmas-dinner-guest", "isHosted": false, "pillarId": "pillar/lifestyle", "pillarName": "Lifestyle"}, {"id": "science/blog/2012/dec/21/christmas-dinner-chemistry-party-tricks", "type": "article", "sectionId": "science", "sectionName": "Science", "webPublicationDate": "2012-12-21T06:00:00Z", "webTitle": "Christmas dinner chemistry: wow your guests with these party tricks", "webUrl": "https://www.theguardian.com/science/blog/2012/dec/21/christmas-dinner-chemistry-party-tricks", "apiUrl": "https://content.guardianapis.com/science/blog/2012/dec/21/christmas-dinner-chemistry-party-tricks", "isHosted": false, "pillarId": "pillar/news", "pillarName": "News"}, {"id": "environment/2012/dec/20/eu-fishing-quotas-conservationists", "type": "article", "sectionId": "environment", "sectionName": "Environment", "webPublicationDate": "2012-12-20T20:14:55Z", "webTitle": "EU fishing quotas defy scientific advice, say conservationists", "webUrl": "https://www.theguardian.com/environment/2012/dec/20/eu-fishing-quotas-conservationists", "apiUrl": "https://content.guardianapis.com/environment/2012/dec/20/eu-fishing-quotas-conservationists", "isHosted": false, "pillarId": "pillar/news", "pillarName": "News"}, {"id": "lifeandstyle/2012/dec/20/stuffed-saddle-lamb-christmas-spices-recipe", "type": "article", "sectionId": "food", "sectionName": "Food", "webPublicationDate": "2012-12-20T16:02:52Z", "webTitle": "Stuffed saddle of lamb with Christmas spices recipe", "webUrl": "https://www.theguardian.com/lifeandstyle/2012/dec/20/stuffed-saddle-lamb-christmas-spices-recipe", "apiUrl": "https://content.guardianapis.com/lifeandstyle/2012/dec/20/stuffed-saddle-lamb-christmas-spices-recipe", "isHosted": false, "pillarId": "pillar/lifestyle", "pillarName": "Lifestyle"}, {"id": "environment/blog/2012/dec/20/obscene-amount-christmas-food-waste", "type": "article", "sectionId": "environment", "sectionName": "Environment", "webPublicationDate": "2012-12-20T12:39:00Z", "webTitle": "It's time to cut the obscene amount of Christmas food waste", "webUrl": "https://www.theguardian.com/environment/blog/2012/dec/20/obscene-amount-christmas-food-waste", "apiUrl": "https://content.guardianapis.com/environment/blog/2012/dec/20/obscene-amount-christmas-food-waste", "isHosted": false, "pillarId": "pillar/news", "pillarName": "News"}, {"id": "lifeandstyle/video/2012/dec/20/perfect-christmas-leftovers-christmas-pudding-trifle-video", "type": "video", "sectionId": "food", "sectionName": "Food", "webPublicationDate": "2012-12-20T07:00:00Z", "webTitle": "The perfect Christmas leftovers recipes: Christmas pudding trifle - video", "webUrl": "https://www.theguardian.com/lifeandstyle/video/2012/dec/20/perfect-christmas-leftovers-christmas-pudding-trifle-video", "apiUrl": "https://content.guardianapis.com/lifeandstyle/video/2012/dec/20/perfect-christmas-leftovers-christmas-pudding-trifle-video", "isHosted": false, "pillarId": "pillar/lifestyle", "pillarName": "Lifestyle"}, {"id": "lifeandstyle/wordofmouth/2012/dec/20/cooking-christmas-leftovers-surplus-sumptious", "type": "article", "sectionId": "food", "sectionName": "Food", "webPublicationDate": "2012-12-20T07:00:00Z", "webTitle": "Cooking Christmas leftovers: from surplus to sumptuous", "webUrl": "https://www.theguardian.com/lifeandstyle/wordofmouth/2012/dec/20/cooking-christmas-leftovers-surplus-sumptious", "apiUrl": "https://content.guardianapis.com/lifeandstyle/wordofmouth/2012/dec/20/cooking-christmas-leftovers-surplus-sumptious", "isHosted": false, "pillarId": "pillar/lifestyle", "pillarName": "Lifestyle"}, {"id": "lifeandstyle/2012/dec/19/christmas-leftovers-christmas-pudding-trifle-recipe", "type": "article", "sectionId": "food", "sectionName": "Food", "webPublicationDate": "2012-12-19T17:20:00Z", "webTitle": "Christmas leftovers: Christmas pudding trifle recipe", "webUrl": "https://www.theguardian.com/lifeandstyle/2012/dec/19/christmas-leftovers-christmas-pudding-trifle-recipe", "apiUrl": "https://content.guardianapis.com/lifeandstyle/2012/dec/19/christmas-leftovers-christmas-pudding-trifle-recipe", "isHosted": false, "pillarId": "pillar/lifestyle", "pillarName": "Lifestyle"}, {"id": "business/2012/dec/19/mcdonalds-christmas-day-profits", "type": "article", "sectionId": "business", "sectionName": "Business", "webPublicationDate": "2012-12-19T17:12:00Z", "webTitle": "McDonald's puts Christmas Day takings at $5,500 in urging stores to open", "webUrl": "https://www.theguardian.com/business/2012/dec/19/mcdonalds-christmas-day-profits", "apiUrl": "https://content.guardianapis.com/business/2012/dec/19/mcdonalds-christmas-day-profits", "isHosted": false, "pillarId": "pillar/news", "pillarName": "News"}, {"id": "lifeandstyle/2012/dec/19/turkey-ham-pie-brussels-sprout-salad-recipe", "type": "article", "sectionId": "lifeandstyle", "sectionName": "Life and style", "webPublicationDate": "2012-12-19T15:55:00Z", "webTitle": "Christmas leftovers: turkey and ham pie with brussels sprout salad and cranberry vinaigrette recipe", "webUrl": "https://www.theguardian.com/lifeandstyle/2012/dec/19/turkey-ham-pie-brussels-sprout-salad-recipe", "apiUrl": "https://content.guardianapis.com/lifeandstyle/2012/dec/19/turkey-ham-pie-brussels-sprout-salad-recipe", "isHosted": false, "pillarId": "pillar/lifestyle", "pillarName": "Lifestyle"}, {"id": "lifeandstyle/video/2012/dec/19/christmas-leftovers-ham-turkey-pie-video", "type": "video", "sectionId": "food", "sectionName": "Food", "webPublicationDate": "2012-12-19T15:50:00Z", "webTitle": "The perfect Christmas leftovers: ham and turkey pie with brussels salad - video", "webUrl": "https://www.theguardian.com/lifeandstyle/video/2012/dec/19/christmas-leftovers-ham-turkey-pie-video", "apiUrl": "https://content.guardianapis.com/lifeandstyle/video/2012/dec/19/christmas-leftovers-ham-turkey-pie-video", "isHosted": false, "pillarId": "pillar/lifestyle", "pillarName": "Lifestyle"}, {"id": "lifeandstyle/2012/dec/19/bubble-and-squeak-cakes-salmon-recipe", "type": "article", "sectionId": "food", "sectionName": "Food", "webPublicationDate": "2012-12-19T15:00:00Z", "webTitle": "Christmas leftovers: bubble and squeak cakes with smoked salmon and creme fraiche recipe", "webUrl": "https://www.theguardian.com/lifeandstyle/2012/dec/19/bubble-and-squeak-cakes-salmon-recipe", "apiUrl": "https://content.guardianapis.com/lifeandstyle/2012/dec/19/bubble-and-squeak-cakes-salmon-recipe", "isHosted": false, "pillarId": "pillar/lifestyle", "pillarName": "Lifestyle"}, {"id": "lifeandstyle/2012/dec/19/rosie-sykes-beef-stout-prune-pie-recipe", "type": "article", "sectionId": "food", "sectionName": "Food", "webPublicationDate": "2012-12-19T13:30:00Z", "webTitle": "Rosie Sykes' shin of beef, stout and prune pie recipe", "webUrl": "https://www.theguardian.com/lifeandstyle/2012/dec/19/rosie-sykes-beef-stout-prune-pie-recipe", "apiUrl": "https://content.guardianapis.com/lifeandstyle/2012/dec/19/rosie-sykes-beef-stout-prune-pie-recipe", "isHosted": false, "pillarId": "pillar/lifestyle", "pillarName": "Lifestyle"}, {"id": "lifeandstyle/gallery/2012/dec/19/jamon-iberico-field-plate-in-pictures", "type": "gallery", "sectionId": "food", "sectionName": "Food", "webPublicationDate": "2012-12-19T12:49:24Z", "webTitle": "The story of jam\u00f3n ib\u00e9rico - in pictures", "webUrl": "https://www.theguardian.com/lifeandstyle/gallery/2012/dec/19/jamon-iberico-field-plate-in-pictures", "apiUrl": "https://content.guardianapis.com/lifeandstyle/gallery/2012/dec/19/jamon-iberico-field-plate-in-pictures", "isHosted": false, "pillarId": "pillar/lifestyle", "pillarName": "Lifestyle"}, {"id": "lifeandstyle/video/2012/dec/19/perfect-christmas-recipe-bubble-squeak-recipe-video", "type": "video", "sectionId": "lifeandstyle", "sectionName": "Life and style", "webPublicationDate": "2012-12-19T12:20:00Z", "webTitle": "The perfect Christmas leftovers recipes: bubble-and-squeak cakes - video", "webUrl": "https://www.theguardian.com/lifeandstyle/video/2012/dec/19/perfect-christmas-recipe-bubble-squeak-recipe-video", "apiUrl": "https://content.guardianapis.com/lifeandstyle/video/2012/dec/19/perfect-christmas-recipe-bubble-squeak-recipe-video", "isHosted": false, "pillarId": "pillar/lifestyle", "pillarName": "Lifestyle"}, {"id": "world/wordofmouth/2012/dec/19/apocalypse-chow-food-end-world", "type": "article", "sectionId": "lifeandstyle", "sectionName": "Life and style", "webPublicationDate": "2012-12-19T11:30:00Z", "webTitle": "Apocalypse chow: food for the end of the world", "webUrl": "https://www.theguardian.com/world/wordofmouth/2012/dec/19/apocalypse-chow-food-end-world", "apiUrl": "https://content.guardianapis.com/world/wordofmouth/2012/dec/19/apocalypse-chow-food-end-world", "isHosted": false, "pillarId": "pillar/lifestyle", "pillarName": "Lifestyle"}, {"id": "lifeandstyle/2012/dec/19/hot-coffee-britain-fell-in-love-with-bean", "type": "article", "sectionId": "food", "sectionName": "Food", "webPublicationDate": "2012-12-19T07:00:00Z", "webTitle": "Hot coffee: how Britain fell in love with the bean", "webUrl": "https://www.theguardian.com/lifeandstyle/2012/dec/19/hot-coffee-britain-fell-in-love-with-bean", "apiUrl": "https://content.guardianapis.com/lifeandstyle/2012/dec/19/hot-coffee-britain-fell-in-love-with-bean", "isHosted": false, "pillarId": "pillar/lifestyle", "pillarName": "Lifestyle"}, {"id": "lifeandstyle/2012/dec/19/whats-best-way-to-drink-coffee", "type": "article", "sectionId": "food", "sectionName": "Food", "webPublicationDate": "2012-12-19T07:00:00Z", "webTitle": "What's the best way to drink coffee? Writers on their caffeine habits", "webUrl": "https://www.theguardian.com/lifeandstyle/2012/dec/19/whats-best-way-to-drink-coffee", "apiUrl": "https://content.guardianapis.com/lifeandstyle/2012/dec/19/whats-best-way-to-drink-coffee", "isHosted": false, "pillarId": "pillar/lifestyle", "pillarName": "Lifestyle"}, {"id": "lifeandstyle/2012/dec/19/how-to-make-great-coffee-home", "type": "article", "sectionId": "food", "sectionName": "Food", "webPublicationDate": "2012-12-19T07:00:00Z", "webTitle": "How to make great coffee at home", "webUrl": "https://www.theguardian.com/lifeandstyle/2012/dec/19/how-to-make-great-coffee-home", "apiUrl": "https://content.guardianapis.com/lifeandstyle/2012/dec/19/how-to-make-great-coffee-home", "isHosted": false, "pillarId": "pillar/lifestyle", "pillarName": "Lifestyle"}]}}