{"response": {"status": "ok", "userTier": "developer", "total": 132808, "startIndex": 1, "pageSize": 50, "currentPage": 1, "pages": 2657, "orderBy": "newest", "results": [{"id": "society/2011/dec/30/patients-with-unhealthy-lifestyles", "type": "article", "sectionId": "society", "sectionName": "Society", "webPublicationDate": "2011-12-30T21:00:03Z", "webTitle": "Patients with unhealthy lifestyles must be warned, say experts", "webUrl": "https://www.theguardian.com/society/2011/dec/30/patients-with-unhealthy-lifestyles", "apiUrl": "https://content.guardianapis.com/society/2011/dec/30/patients-with-unhealthy-lifestyles", "isHosted": false, "pillarId": "pillar/news", "pillarName": "News"}, {"id": "politics/2011/dec/30/brotherly-advice-ed-miliband", "type": "article", "sectionId": "politics", "sectionName": "Politics", "webPublicationDate": "2011-12-30T21:00:02Z", "webTitle": "Letters: Brotherly advice for Ed Miliband", "webUrl": "https://www.theguardian.com/politics/2011/dec/30/brotherly-advice-ed-miliband", "apiUrl": "https://content.guardianapis.com/politics/2011/dec/30/brotherly-advice-ed-miliband", "isHosted": false, "pillarId": "pillar/news", "pillarName": "News"}, {"id": "politics/2011/dec/30/labour-break-out-tory-trap", "type": "article", "sectionId": "politics", "sectionName": "Politics", "webPublicationDate": "2011-12-30T20:59:00Z", "webTitle": "Letters: How Labour can break out of the Tory trap", "webUrl": "https://www.theguardian.com/politics/2011/dec/30/labour-break-out-tory-trap", "apiUrl": "https://content.guardianapis.com/politics/2011/dec/30/labour-break-out-tory-trap", "isHosted": false, "pillarId": "pillar/news", "pillarName": "News"}, {"id": "commentisfree/2011/dec/30/cameron-brutal-cuts-bleed", "type": "article", "sectionId": "commentisfree", "sectionName": "Opinion", "webPublicationDate": "2011-12-30T20:30:01Z", "webTitle": "As the cuts bleed harder, the cruel Tory truth will emerge | Polly Toynbee", "webUrl": "https://www.theguardian.com/commentisfree/2011/dec/30/cameron-brutal-cuts-bleed", "apiUrl": "https://content.guardianapis.com/commentisfree/2011/dec/30/cameron-brutal-cuts-bleed", "isHosted": false, "pillarId": "pillar/opinion", "pillarName": "Opinion"}, {"id": "commentisfree/2011/dec/30/doing-it-german-way", "type": "article", "sectionId": "commentisfree", "sectionName": "Opinion", "webPublicationDate": "2011-12-30T20:00:01Z", "webTitle": "Why Britain should think about doing things the German way | Jonathan Glancey", "webUrl": "https://www.theguardian.com/commentisfree/2011/dec/30/doing-it-german-way", "apiUrl": "https://content.guardianapis.com/commentisfree/2011/dec/30/doing-it-german-way", "isHosted": false, "pillarId": "pillar/opinion", "pillarName": "Opinion"}, {"id": "artanddesign/2011/dec/30/summits-shard-could-host-world-leaders", "type": "article", "sectionId": "artanddesign", "sectionName": "Art and design", "webPublicationDate": "2011-12-30T19:48:50Z", "webTitle": "Summits at the summit: the Shard could host talks for world leaders", "webUrl": "https://www.theguardian.com/artanddesign/2011/dec/30/summits-shard-could-host-world-leaders", "apiUrl": "https://content.guardianapis.com/artanddesign/2011/dec/30/summits-shard-could-host-world-leaders", "isHosted": false, "pillarId": "pillar/arts", "pillarName": "Arts"}, {"id": "environment/2011/dec/30/uk-investment-green-energy", "type": "article", "sectionId": "environment", "sectionName": "Environment", "webPublicationDate": "2011-12-30T14:07:17Z", "webTitle": "UK investment in green energy stagnates at \u00a32.5bn", "webUrl": "https://www.theguardian.com/environment/2011/dec/30/uk-investment-green-energy", "apiUrl": "https://content.guardianapis.com/environment/2011/dec/30/uk-investment-green-energy", "isHosted": false, "pillarId": "pillar/news", "pillarName": "News"}, {"id": "uk/the-northerner/2011/dec/30/liberaldemocrats-nhs", "type": "article", "sectionId": "uk-news", "sectionName": "UK news", "webPublicationDate": "2011-12-30T11:00:00Z", "webTitle": "Fighting for jobs and health care - and against second-home council tax perks", "webUrl": "https://www.theguardian.com/uk/the-northerner/2011/dec/30/liberaldemocrats-nhs", "apiUrl": "https://content.guardianapis.com/uk/the-northerner/2011/dec/30/liberaldemocrats-nhs", "isHosted": false, "pillarId": "pillar/news", "pillarName": "News"}, {"id": "commentisfree/2011/dec/30/trident-thatcher-ministers-against", "type": "article", "sectionId": "commentisfree", "sectionName": "Opinion", "webPublicationDate": "2011-12-30T10:00:00Z", "webTitle": "How many ministers are questioning the plan to replace Trident? | Richard Norton-Taylor", "webUrl": "https://www.theguardian.com/commentisfree/2011/dec/30/trident-thatcher-ministers-against", "apiUrl": "https://content.guardianapis.com/commentisfree/2011/dec/30/trident-thatcher-ministers-against", "isHosted": false, "pillarId": "pillar/opinion", "pillarName": "Opinion"}, {"id": "politics/2011/dec/30/politics-live-readers-edition-friday-30-december", "type": "article", "sectionId": "politics", "sectionName": "Politics", "webPublicationDate": "2011-12-30T09:48:10Z", "webTitle": "Politics live: readers' edition - Friday 30 December", "webUrl": "https://www.theguardian.com/politics/2011/dec/30/politics-live-readers-edition-friday-30-december", "apiUrl": "https://content.guardianapis.com/politics/2011/dec/30/politics-live-readers-edition-friday-30-december", "isHosted": false, "pillarId": "pillar/news", "pillarName": "News"}, {"id": "news/datablog/2011/dec/30/top-data-stories-2011", "type": "article", "sectionId": "news", "sectionName": "News", "webPublicationDate": "2011-12-30T09:00:00Z", "webTitle": "2011: the year in data, journalism (and charts) | Datablog", "webUrl": "https://www.theguardian.com/news/datablog/2011/dec/30/top-data-stories-2011", "apiUrl": "https://content.guardianapis.com/news/datablog/2011/dec/30/top-data-stories-2011", "isHosted": false, "pillarId": "pillar/news", "pillarName": "News"}, {"id": "commentisfree/2011/dec/30/thatcher-unmasked-meryl-streep-legacy", "type": "article", "sectionId": "commentisfree", "sectionName": "Opinion", "webPublicationDate": "2011-12-30T08:00:00Z", "webTitle": "Margaret Thatcher unmasked: the lady was for turning | Martin Kettle", "webUrl": "https://www.theguardian.com/commentisfree/2011/dec/30/thatcher-unmasked-meryl-streep-legacy", "apiUrl": "https://content.guardianapis.com/commentisfree/2011/dec/30/thatcher-unmasked-meryl-streep-legacy", "isHosted": false, "pillarId": "pillar/opinion", "pillarName": "Opinion"}, {"id": "society/2011/dec/29/patients-choose-gp-work-trial", "type": "article", "sectionId": "society", "sectionName": "Society", "webPublicationDate": "2011-12-30T00:50:00Z", "webTitle": "Patients can choose GP near work or school under trial scheme", "webUrl": "https://www.theguardian.com/society/2011/dec/29/patients-choose-gp-work-trial", "apiUrl": "https://content.guardianapis.com/society/2011/dec/29/patients-choose-gp-work-trial", "isHosted": false, "pillarId": "pillar/news", "pillarName": "News"}, {"id": "business/2011/dec/30/boost-exports-and-investment-cbi-report", "type": "article", "sectionId": "business", "sectionName": "Business", "webPublicationDate": "2011-12-30T00:01:07Z", "webTitle": "CBI warns UK must focus on exports and business investment", "webUrl": "https://www.theguardian.com/business/2011/dec/30/boost-exports-and-investment-cbi-report", "apiUrl": "https://content.guardianapis.com/business/2011/dec/30/boost-exports-and-investment-cbi-report", "isHosted": false, "pillarId": "pillar/news", "pillarName": "News"}, {"id": "uk/2011/dec/30/pope-speech-parliament-vetoed-archives", "type": "article", "sectionId": "uk-news", "sectionName": "UK news", "webPublicationDate": "2011-12-30T00:01:05Z", "webTitle": "Pope's address to parliament vetoed, National Archives files reveal", "webUrl": "https://www.theguardian.com/uk/2011/dec/30/pope-speech-parliament-vetoed-archives", "apiUrl": "https://content.guardianapis.com/uk/2011/dec/30/pope-speech-parliament-vetoed-archives", "isHosted": false, "pillarId": "pillar/news", "pillarName": "News"}, {"id": "politics/2011/dec/30/thatchers-thrift-ironing-board", "type": "article", "sectionId": "politics", "sectionName": "Politics", "webPublicationDate": "2011-12-30T00:01:04Z", "webTitle": "Thatcher's thrift surfaced in war of words over No 10 ironing board", "webUrl": "https://www.theguardian.com/politics/2011/dec/30/thatchers-thrift-ironing-board", "apiUrl": "https://content.guardianapis.com/politics/2011/dec/30/thatchers-thrift-ironing-board", "isHosted": false, "pillarId": "pillar/news", "pillarName": "News"}, {"id": "uk/2011/dec/30/thatcher-battled-cabinet-wets-national-archives", "type": "article", "sectionId": "uk-news", "sectionName": "UK news", "webPublicationDate": "2011-12-30T00:01:03Z", "webTitle": "Thatcher battled cabinet 'wets' over Howe austerity plans", "webUrl": "https://www.theguardian.com/uk/2011/dec/30/thatcher-battled-cabinet-wets-national-archives", "apiUrl": "https://content.guardianapis.com/uk/2011/dec/30/thatcher-battled-cabinet-wets-national-archives", "isHosted": false, "pillarId": "pillar/news", "pillarName": "News"}, {"id": "uk/2011/dec/30/thatcher-veto-bbc-programme-mi5-mi6", "type": "article", "sectionId": "uk-news", "sectionName": "UK news", "webPublicationDate": "2011-12-30T00:01:02Z", "webTitle": "Margaret Thatcher threatened to veto BBC programme about MI5 and MI6", "webUrl": "https://www.theguardian.com/uk/2011/dec/30/thatcher-veto-bbc-programme-mi5-mi6", "apiUrl": "https://content.guardianapis.com/uk/2011/dec/30/thatcher-veto-bbc-programme-mi5-mi6", "isHosted": false, "pillarId": "pillar/news", "pillarName": "News"}, {"id": "uk/2011/dec/30/thatcher-government-liverpool-riots-1981", "type": "article", "sectionId": "uk-news", "sectionName": "UK news", "webPublicationDate": "2011-12-30T00:01:00Z", "webTitle": "Thatcher government toyed with evacuating Liverpool after 1981 riots", "webUrl": "https://www.theguardian.com/uk/2011/dec/30/thatcher-government-liverpool-riots-1981", "apiUrl": "https://content.guardianapis.com/uk/2011/dec/30/thatcher-government-liverpool-riots-1981", "isHosted": false, "pillarId": "pillar/news", "pillarName": "News"}, {"id": "uk/2011/dec/30/thatcher-warned-defence-cuts-falklands", "type": "article", "sectionId": "uk-news", "sectionName": "UK news", "webPublicationDate": "2011-12-30T00:01:00Z", "webTitle": "Thatcher warned of defence cuts dangers before Falklands war", "webUrl": "https://www.theguardian.com/uk/2011/dec/30/thatcher-warned-defence-cuts-falklands", "apiUrl": "https://content.guardianapis.com/uk/2011/dec/30/thatcher-warned-defence-cuts-falklands", "isHosted": false, "pillarId": "pillar/news", "pillarName": "News"}, {"id": "uk/2011/dec/30/thatcher-cabinet-opposed-trident-purchase", "type": "article", "sectionId": "uk-news", "sectionName": "UK news", "webPublicationDate": "2011-12-30T00:01:00Z", "webTitle": "Thatcher went behind cabinet's back with Trident purchase", "webUrl": "https://www.theguardian.com/uk/2011/dec/30/thatcher-cabinet-opposed-trident-purchase", "apiUrl": "https://content.guardianapis.com/uk/2011/dec/30/thatcher-cabinet-opposed-trident-purchase", "isHosted": false, "pillarId": "pillar/news", "pillarName": "News"}, {"id": "uk/2011/dec/30/national-archives-1981-riots-parallels", "type": "article", "sectionId": "uk-news", "sectionName": "UK news", "webPublicationDate": "2011-12-30T00:00:00Z", "webTitle": "National Archives reveals historic parallels between 2011 and 1981 riots", "webUrl": "https://www.theguardian.com/uk/2011/dec/30/national-archives-1981-riots-parallels", "apiUrl": "https://content.guardianapis.com/uk/2011/dec/30/national-archives-1981-riots-parallels", "isHosted": false, "pillarId": "pillar/news", "pillarName": "News"}, {"id": "commentisfree/2011/dec/29/economy-the-failure-of-osbornomics", "type": "article", "sectionId": "commentisfree", "sectionName": "Opinion", "webPublicationDate": "2011-12-29T21:20:19Z", "webTitle": "Economy: the failure of Osbornomics", "webUrl": "https://www.theguardian.com/commentisfree/2011/dec/29/economy-the-failure-of-osbornomics", "apiUrl": "https://content.guardianapis.com/commentisfree/2011/dec/29/economy-the-failure-of-osbornomics", "isHosted": false, "pillarId": "pillar/opinion", "pillarName": "Opinion"}, {"id": "politics/2011/dec/29/inquest-for-david-kelly", "type": "article", "sectionId": "politics", "sectionName": "Politics", "webPublicationDate": "2011-12-29T21:00:03Z", "webTitle": "Letters: Inquest for Kelly", "webUrl": "https://www.theguardian.com/politics/2011/dec/29/inquest-for-david-kelly", "apiUrl": "https://content.guardianapis.com/politics/2011/dec/29/inquest-for-david-kelly", "isHosted": false, "pillarId": "pillar/news", "pillarName": "News"}, {"id": "education/2011/dec/29/guarding-the-guardians-academy-schools", "type": "article", "sectionId": "education", "sectionName": "Education", "webPublicationDate": "2011-12-29T21:00:03Z", "webTitle": "Letters: Guarding the guardians of academy schools", "webUrl": "https://www.theguardian.com/education/2011/dec/29/guarding-the-guardians-academy-schools", "apiUrl": "https://content.guardianapis.com/education/2011/dec/29/guarding-the-guardians-academy-schools", "isHosted": false, "pillarId": "pillar/news", "pillarName": "News"}, {"id": "politics/2011/dec/29/labour-working-to-avoid-trap", "type": "article", "sectionId": "politics", "sectionName": "Politics", "webPublicationDate": "2011-12-29T21:00:02Z", "webTitle": "Letters: Labour is working to avoid the trap", "webUrl": "https://www.theguardian.com/politics/2011/dec/29/labour-working-to-avoid-trap", "apiUrl": "https://content.guardianapis.com/politics/2011/dec/29/labour-working-to-avoid-trap", "isHosted": false, "pillarId": "pillar/news", "pillarName": "News"}, {"id": "society/2011/dec/29/grown-up-debate-health-service", "type": "article", "sectionId": "society", "sectionName": "Society", "webPublicationDate": "2011-12-29T21:00:00Z", "webTitle": "Letters: Grown-up debate about the health service", "webUrl": "https://www.theguardian.com/society/2011/dec/29/grown-up-debate-health-service", "apiUrl": "https://content.guardianapis.com/society/2011/dec/29/grown-up-debate-health-service", "isHosted": false, "pillarId": "pillar/news", "pillarName": "News"}, {"id": "commentisfree/2011/dec/29/civil-unrest-riot-acts", "type": "article", "sectionId": "commentisfree", "sectionName": "Opinion", "webPublicationDate": "2011-12-29T20:30:14Z", "webTitle": "Civil unrest: riot acts", "webUrl": "https://www.theguardian.com/commentisfree/2011/dec/29/civil-unrest-riot-acts", "apiUrl": "https://content.guardianapis.com/commentisfree/2011/dec/29/civil-unrest-riot-acts", "isHosted": false, "pillarId": "pillar/opinion", "pillarName": "Opinion"}, {"id": "politics/wintour-and-watt/2011/dec/29/alexsalmond-scotland", "type": "article", "sectionId": "politics", "sectionName": "Politics", "webPublicationDate": "2011-12-29T20:05:09Z", "webTitle": "UK's future lies in hands of Labour party as it falls asleep in Scotland", "webUrl": "https://www.theguardian.com/politics/wintour-and-watt/2011/dec/29/alexsalmond-scotland", "apiUrl": "https://content.guardianapis.com/politics/wintour-and-watt/2011/dec/29/alexsalmond-scotland", "isHosted": false, "pillarId": "pillar/news", "pillarName": "News"}, {"id": "politics/2011/dec/29/labour-leadership-too-narrow-miliband", "type": "article", "sectionId": "politics", "sectionName": "Politics", "webPublicationDate": "2011-12-29T19:42:02Z", "webTitle": "Labour leadership 'too narrow' says Ed Miliband's guru", "webUrl": "https://www.theguardian.com/politics/2011/dec/29/labour-leadership-too-narrow-miliband", "apiUrl": "https://content.guardianapis.com/politics/2011/dec/29/labour-leadership-too-narrow-miliband", "isHosted": false, "pillarId": "pillar/news", "pillarName": "News"}, {"id": "society/2011/dec/29/children-temporary-accommodation-charity", "type": "article", "sectionId": "society", "sectionName": "Society", "webPublicationDate": "2011-12-29T18:56:15Z", "webTitle": "70,000 children living in temporary accommodation, says charity", "webUrl": "https://www.theguardian.com/society/2011/dec/29/children-temporary-accommodation-charity", "apiUrl": "https://content.guardianapis.com/society/2011/dec/29/children-temporary-accommodation-charity", "isHosted": false, "pillarId": "pillar/news", "pillarName": "News"}, {"id": "politics/2011/dec/29/dear-leaders-michael-white-blog", "type": "article", "sectionId": "politics", "sectionName": "Politics", "webPublicationDate": "2011-12-29T16:44:14Z", "webTitle": "Dear leaders, sometimes you have to lose to win | Michael White", "webUrl": "https://www.theguardian.com/politics/2011/dec/29/dear-leaders-michael-white-blog", "apiUrl": "https://content.guardianapis.com/politics/2011/dec/29/dear-leaders-michael-white-blog", "isHosted": false, "pillarId": "pillar/news", "pillarName": "News"}, {"id": "commentisfree/2011/dec/29/working-class-leaders-politicians", "type": "article", "sectionId": "commentisfree", "sectionName": "Opinion", "webPublicationDate": "2011-12-29T14:00:28Z", "webTitle": "Where have all the working-class leaders gone? | David Skelton", "webUrl": "https://www.theguardian.com/commentisfree/2011/dec/29/working-class-leaders-politicians", "apiUrl": "https://content.guardianapis.com/commentisfree/2011/dec/29/working-class-leaders-politicians", "isHosted": false, "pillarId": "pillar/opinion", "pillarName": "Opinion"}, {"id": "commentisfree/2011/dec/29/patients-recovering-at-home-nhs", "type": "article", "sectionId": "commentisfree", "sectionName": "Opinion", "webPublicationDate": "2011-12-29T10:39:01Z", "webTitle": "Should more patients recover at home? | Open thread", "webUrl": "https://www.theguardian.com/commentisfree/2011/dec/29/patients-recovering-at-home-nhs", "apiUrl": "https://content.guardianapis.com/commentisfree/2011/dec/29/patients-recovering-at-home-nhs", "isHosted": false, "pillarId": "pillar/opinion", "pillarName": "Opinion"}, {"id": "politics/2011/dec/29/politics-live-readers-edition-thursday-29-december1", "type": "article", "sectionId": "politics", "sectionName": "Politics", "webPublicationDate": "2011-12-29T09:55:52Z", "webTitle": "Politics live: readers' edition - Thursday 29 December", "webUrl": "https://www.theguardian.com/politics/2011/dec/29/politics-live-readers-edition-thursday-29-december1", "apiUrl": "https://content.guardianapis.com/politics/2011/dec/29/politics-live-readers-edition-thursday-29-december1", "isHosted": false, "pillarId": "pillar/news", "pillarName": "News"}, {"id": "media/2011/dec/29/panda-row-bbc-top-women", "type": "article", "sectionId": "media", "sectionName": "Media", "webPublicationDate": "2011-12-29T09:07:43Z", "webTitle": "BBC in panda row as Tian Tian named among year's top women", "webUrl": "https://www.theguardian.com/media/2011/dec/29/panda-row-bbc-top-women", "apiUrl": "https://content.guardianapis.com/media/2011/dec/29/panda-row-bbc-top-women", "isHosted": false, "pillarId": "pillar/news", "pillarName": "News"}, {"id": "film/2011/dec/29/iron-lady-margaret-thatcher-reel-history", "type": "article", "sectionId": "film", "sectionName": "Film", "webPublicationDate": "2011-12-29T09:00:00Z", "webTitle": "The Iron Lady was more than just a fabulous blowdry", "webUrl": "https://www.theguardian.com/film/2011/dec/29/iron-lady-margaret-thatcher-reel-history", "apiUrl": "https://content.guardianapis.com/film/2011/dec/29/iron-lady-margaret-thatcher-reel-history", "isHosted": false, "pillarId": "pillar/arts", "pillarName": "Arts"}, {"id": "politics/2011/dec/29/ed-miliband-david-cameron-depression-despair", "type": "article", "sectionId": "politics", "sectionName": "Politics", "webPublicationDate": "2011-12-29T06:30:08Z", "webTitle": "Ed Miliband uses New Year message to accuse PM of Depression-era 'despair'", "webUrl": "https://www.theguardian.com/politics/2011/dec/29/ed-miliband-david-cameron-depression-despair", "apiUrl": "https://content.guardianapis.com/politics/2011/dec/29/ed-miliband-david-cameron-depression-despair", "isHosted": false, "pillarId": "pillar/news", "pillarName": "News"}, {"id": "politics/wintour-and-watt/2011/dec/29/edmiliband-davidcameron", "type": "article", "sectionId": "politics", "sectionName": "Politics", "webPublicationDate": "2011-12-29T02:18:13Z", "webTitle": "Is David Cameron turning into the Stanley Baldwin of the 21st century?", "webUrl": "https://www.theguardian.com/politics/wintour-and-watt/2011/dec/29/edmiliband-davidcameron", "apiUrl": "https://content.guardianapis.com/politics/wintour-and-watt/2011/dec/29/edmiliband-davidcameron", "isHosted": false, "pillarId": "pillar/news", "pillarName": "News"}, {"id": "politics/2011/dec/28/ed-miliband-tory-public-spending", "type": "article", "sectionId": "politics", "sectionName": "Politics", "webPublicationDate": "2011-12-29T01:12:00Z", "webTitle": "Ed Miliband risks Tory trap on public spending, says shadow minister", "webUrl": "https://www.theguardian.com/politics/2011/dec/28/ed-miliband-tory-public-spending", "apiUrl": "https://content.guardianapis.com/politics/2011/dec/28/ed-miliband-tory-public-spending", "isHosted": false, "pillarId": "pillar/news", "pillarName": "News"}, {"id": "society/2011/dec/29/disabled-spending-cut-homes-frank-field", "type": "article", "sectionId": "society", "sectionName": "Society", "webPublicationDate": "2011-12-29T01:03:02Z", "webTitle": "Disabled people pay price for cuts to mortgage relief", "webUrl": "https://www.theguardian.com/society/2011/dec/29/disabled-spending-cut-homes-frank-field", "apiUrl": "https://content.guardianapis.com/society/2011/dec/29/disabled-spending-cut-homes-frank-field", "isHosted": false, "pillarId": "pillar/news", "pillarName": "News"}, {"id": "commentisfree/cartoon/2011/dec/29/david-cameron-nhs-cartoon", "type": "picture", "sectionId": "commentisfree", "sectionName": "Opinion", "webPublicationDate": "2011-12-29T00:36:00Z", "webTitle": "Ben Jennings on David Cameron and the NHS \u2013 cartoon", "webUrl": "https://www.theguardian.com/commentisfree/cartoon/2011/dec/29/david-cameron-nhs-cartoon", "apiUrl": "https://content.guardianapis.com/commentisfree/cartoon/2011/dec/29/david-cameron-nhs-cartoon", "isHosted": false, "pillarId": "pillar/opinion", "pillarName": "Opinion"}, {"id": "lifeandstyle/gallery/2011/dec/28/steve-bell-political-cartoons-2011", "type": "gallery", "sectionId": "lifeandstyle", "sectionName": "Life and style", "webPublicationDate": "2011-12-28T21:30:00Z", "webTitle": "Steve Bell's political cartoons of 2011 \u2013 in pictures", "webUrl": "https://www.theguardian.com/lifeandstyle/gallery/2011/dec/28/steve-bell-political-cartoons-2011", "apiUrl": "https://content.guardianapis.com/lifeandstyle/gallery/2011/dec/28/steve-bell-political-cartoons-2011", "isHosted": false, "pillarId": "pillar/lifestyle", "pillarName": "Lifestyle"}, {"id": "politics/2011/dec/28/freedom-information-access-ministers-emails", "type": "article", "sectionId": "politics", "sectionName": "Politics", "webPublicationDate": "2011-12-28T21:13:54Z", "webTitle": "Freedom of information access to ministers' emails to be scrutinised", "webUrl": "https://www.theguardian.com/politics/2011/dec/28/freedom-information-access-ministers-emails", "apiUrl": "https://content.guardianapis.com/politics/2011/dec/28/freedom-information-access-ministers-emails", "isHosted": false, "pillarId": "pillar/news", "pillarName": "News"}, {"id": "education/2011/dec/28/schools-careers-service-crisis", "type": "article", "sectionId": "education", "sectionName": "Education", "webPublicationDate": "2011-12-28T21:00:04Z", "webTitle": "Schools' careers crisis", "webUrl": "https://www.theguardian.com/education/2011/dec/28/schools-careers-service-crisis", "apiUrl": "https://content.guardianapis.com/education/2011/dec/28/schools-careers-service-crisis", "isHosted": false, "pillarId": "pillar/news", "pillarName": "News"}, {"id": "commentisfree/2011/dec/28/labour-avoid-tory-trap-growth", "type": "article", "sectionId": "commentisfree", "sectionName": "Opinion", "webPublicationDate": "2011-12-28T21:00:00Z", "webTitle": "How Labour can avoid the Tory trap | Gregg McClymont and Ben Jackson", "webUrl": "https://www.theguardian.com/commentisfree/2011/dec/28/labour-avoid-tory-trap-growth", "apiUrl": "https://content.guardianapis.com/commentisfree/2011/dec/28/labour-avoid-tory-trap-growth", "isHosted": false, "pillarId": "pillar/opinion", "pillarName": "Opinion"}, {"id": "lifeandstyle/2011/dec/28/the-people-who-ruined-2011", "type": "article", "sectionId": "lifeandstyle", "sectionName": "Life and style", "webPublicationDate": "2011-12-28T20:59:04Z", "webTitle": "2011: The people who ruined it", "webUrl": "https://www.theguardian.com/lifeandstyle/2011/dec/28/the-people-who-ruined-2011", "apiUrl": "https://content.guardianapis.com/lifeandstyle/2011/dec/28/the-people-who-ruined-2011", "isHosted": false, "pillarId": "pillar/lifestyle", "pillarName": "Lifestyle"}, {"id": "politics/2011/dec/28/did-i-say-that-gaffes-year", "type": "article", "sectionId": "politics", "sectionName": "Politics", "webPublicationDate": "2011-12-28T20:45:00Z", "webTitle": "Did I really say that? Gaffes of the year", "webUrl": "https://www.theguardian.com/politics/2011/dec/28/did-i-say-that-gaffes-year", "apiUrl": "https://content.guardianapis.com/politics/2011/dec/28/did-i-say-that-gaffes-year", "isHosted": false, "pillarId": "pillar/news", "pillarName": "News"}, {"id": "commentisfree/2011/dec/28/alex-salmond-end-of-great-britain", "type": "article", "sectionId": "commentisfree", "sectionName": "Opinion", "webPublicationDate": "2011-12-28T20:00:00Z", "webTitle": "Alex Salmond's spell could swing it for Scottish independence | Jonathan Freedland", "webUrl": "https://www.theguardian.com/commentisfree/2011/dec/28/alex-salmond-end-of-great-britain", "apiUrl": "https://content.guardianapis.com/commentisfree/2011/dec/28/alex-salmond-end-of-great-britain", "isHosted": false, "pillarId": "pillar/opinion", "pillarName": "Opinion"}, {"id": "politics/2011/dec/28/2011-in-politics-david-cameron-ahead", "type": "article", "sectionId": "politics", "sectionName": "Politics", "webPublicationDate": "2011-12-28T19:47:31Z", "webTitle": "2011 in politics: David Cameron comes out ahead despite year of U-turns", "webUrl": "https://www.theguardian.com/politics/2011/dec/28/2011-in-politics-david-cameron-ahead", "apiUrl": "https://content.guardianapis.com/politics/2011/dec/28/2011-in-politics-david-cameron-ahead", "isHosted": false, "pillarId": "pillar/news", "pillarName": "News"}]}}