{"response": {"status": "ok", "userTier": "developer", "total": 27771, "startIndex": 1, "pageSize": 50, "currentPage": 1, "pages": 556, "orderBy": "newest", "results": [{"id": "world/2010/dec/30/faulluja-birth-defects-iraq", "type": "article", "sectionId": "world", "sectionName": "World news", "webPublicationDate": "2010-12-30T21:34:32Z", "webTitle": "Research links rise in Falluja birth defects and cancers to US assault", "webUrl": "https://www.theguardian.com/world/2010/dec/30/faulluja-birth-defects-iraq", "apiUrl": "https://content.guardianapis.com/world/2010/dec/30/faulluja-birth-defects-iraq", "isHosted": false, "pillarId": "pillar/news", "pillarName": "News"}, {"id": "world/2010/dec/30/italian-shops-bin-plastic-bags", "type": "article", "sectionId": "world", "sectionName": "World news", "webPublicationDate": "2010-12-30T18:37:07Z", "webTitle": "Italian shops to bin plastic bags from New Year's Day", "webUrl": "https://www.theguardian.com/world/2010/dec/30/italian-shops-bin-plastic-bags", "apiUrl": "https://content.guardianapis.com/world/2010/dec/30/italian-shops-bin-plastic-bags", "isHosted": false, "pillarId": "pillar/news", "pillarName": "News"}, {"id": "commentisfree/2010/dec/30/beware-fairies-david-cameron-forests-sale", "type": "article", "sectionId": "commentisfree", "sectionName": "Opinion", "webPublicationDate": "2010-12-30T16:00:06Z", "webTitle": "Beware the forest fairies, David Cameron | Louise Ingram", "webUrl": "https://www.theguardian.com/commentisfree/2010/dec/30/beware-fairies-david-cameron-forests-sale", "apiUrl": "https://content.guardianapis.com/commentisfree/2010/dec/30/beware-fairies-david-cameron-forests-sale", "isHosted": false, "pillarId": "pillar/opinion", "pillarName": "Opinion"}, {"id": "commentisfree/2010/dec/30/northern-ireland-water-crisis-stormont-neglect", "type": "article", "sectionId": "commentisfree", "sectionName": "Opinion", "webPublicationDate": "2010-12-30T15:07:07Z", "webTitle": "Decades of neglect led to this Northern Ireland water crisis | Ruth Collins", "webUrl": "https://www.theguardian.com/commentisfree/2010/dec/30/northern-ireland-water-crisis-stormont-neglect", "apiUrl": "https://content.guardianapis.com/commentisfree/2010/dec/30/northern-ireland-water-crisis-stormont-neglect", "isHosted": false, "pillarId": "pillar/opinion", "pillarName": "Opinion"}, {"id": "environment/gallery/2010/dec/29/conservation-stories-2010", "type": "gallery", "sectionId": "environment", "sectionName": "Environment", "webPublicationDate": "2010-12-30T15:05:00Z", "webTitle": "Conservation stories of 2010", "webUrl": "https://www.theguardian.com/environment/gallery/2010/dec/29/conservation-stories-2010", "apiUrl": "https://content.guardianapis.com/environment/gallery/2010/dec/29/conservation-stories-2010", "isHosted": false, "pillarId": "pillar/news", "pillarName": "News"}, {"id": "uk/2010/dec/30/northern-ireland-water-crisis-talks", "type": "article", "sectionId": "uk-news", "sectionName": "UK news", "webPublicationDate": "2010-12-30T13:25:00Z", "webTitle": "Northern Ireland water crisis will continue into next week", "webUrl": "https://www.theguardian.com/uk/2010/dec/30/northern-ireland-water-crisis-talks", "apiUrl": "https://content.guardianapis.com/uk/2010/dec/30/northern-ireland-water-crisis-talks", "isHosted": false, "pillarId": "pillar/news", "pillarName": "News"}, {"id": "commentisfree/cifamerica/2010/dec/30/coal-energy-industry", "type": "article", "sectionId": "commentisfree", "sectionName": "Opinion", "webPublicationDate": "2010-12-30T11:30:01Z", "webTitle": "China's green gift to the world | Frank Wolak and Richard Morse", "webUrl": "https://www.theguardian.com/commentisfree/cifamerica/2010/dec/30/coal-energy-industry", "apiUrl": "https://content.guardianapis.com/commentisfree/cifamerica/2010/dec/30/coal-energy-industry", "isHosted": false, "pillarId": "pillar/opinion", "pillarName": "Opinion"}, {"id": "global-development/poverty-matters/2010/dec/30/climate-change-cancun-optimism", "type": "article", "sectionId": "global-development", "sectionName": "Global development", "webPublicationDate": "2010-12-30T09:00:03Z", "webTitle": "The climate change wake-up call", "webUrl": "https://www.theguardian.com/global-development/poverty-matters/2010/dec/30/climate-change-cancun-optimism", "apiUrl": "https://content.guardianapis.com/global-development/poverty-matters/2010/dec/30/climate-change-cancun-optimism", "isHosted": false, "pillarId": "pillar/news", "pillarName": "News"}, {"id": "environment/2010/dec/30/humans-causing-global-warming", "type": "article", "sectionId": "environment", "sectionName": "Environment", "webPublicationDate": "2010-12-30T09:00:00Z", "webTitle": "Are humans definitely causing global warming?", "webUrl": "https://www.theguardian.com/environment/2010/dec/30/humans-causing-global-warming", "apiUrl": "https://content.guardianapis.com/environment/2010/dec/30/humans-causing-global-warming", "isHosted": false, "pillarId": "pillar/news", "pillarName": "News"}, {"id": "tv-and-radio/2010/dec/30/tv-review-polar-bears-spy-on-ice", "type": "article", "sectionId": "tv-and-radio", "sectionName": "Television & radio", "webPublicationDate": "2010-12-30T08:00:07Z", "webTitle": "TV review: Polar Bear \u2013 Spy on the Ice | Rock and Chips", "webUrl": "https://www.theguardian.com/tv-and-radio/2010/dec/30/tv-review-polar-bears-spy-on-ice", "apiUrl": "https://content.guardianapis.com/tv-and-radio/2010/dec/30/tv-review-polar-bears-spy-on-ice", "isHosted": false, "pillarId": "pillar/arts", "pillarName": "Arts"}, {"id": "environment/2010/dec/30/country-diary-highlands-strathnairn", "type": "article", "sectionId": "environment", "sectionName": "Environment", "webPublicationDate": "2010-12-30T00:05:07Z", "webTitle": "Country diary: Strathnairn", "webUrl": "https://www.theguardian.com/environment/2010/dec/30/country-diary-highlands-strathnairn", "apiUrl": "https://content.guardianapis.com/environment/2010/dec/30/country-diary-highlands-strathnairn", "isHosted": false, "pillarId": "pillar/news", "pillarName": "News"}, {"id": "environment/2010/dec/30/ethical-living-fair-trade", "type": "article", "sectionId": "environment", "sectionName": "Environment", "webPublicationDate": "2010-12-30T00:04:02Z", "webTitle": "Ethical consumer spending bucks recession with 18% growth", "webUrl": "https://www.theguardian.com/environment/2010/dec/30/ethical-living-fair-trade", "apiUrl": "https://content.guardianapis.com/environment/2010/dec/30/ethical-living-fair-trade", "isHosted": false, "pillarId": "pillar/news", "pillarName": "News"}, {"id": "uk/2010/dec/29/northern-ireland-water-crisis-health", "type": "article", "sectionId": "uk-news", "sectionName": "UK news", "webPublicationDate": "2010-12-29T21:13:55Z", "webTitle": "Northen Ireland water shortage hits thousands of households", "webUrl": "https://www.theguardian.com/uk/2010/dec/29/northern-ireland-water-crisis-health", "apiUrl": "https://content.guardianapis.com/uk/2010/dec/29/northern-ireland-water-crisis-health", "isHosted": false, "pillarId": "pillar/news", "pillarName": "News"}, {"id": "business/2010/dec/29/desire-petroleum-oil-falklands-drilling", "type": "article", "sectionId": "business", "sectionName": "Business", "webPublicationDate": "2010-12-29T15:59:11Z", "webTitle": "Desire Petroleum reports another dry well in Falklands", "webUrl": "https://www.theguardian.com/business/2010/dec/29/desire-petroleum-oil-falklands-drilling", "apiUrl": "https://content.guardianapis.com/business/2010/dec/29/desire-petroleum-oil-falklands-drilling", "isHosted": false, "pillarId": "pillar/news", "pillarName": "News"}, {"id": "world/2010/dec/29/australia-queensland-flooding-evacuations", "type": "article", "sectionId": "australia-news", "sectionName": "Australia news", "webPublicationDate": "2010-12-29T14:04:52Z", "webTitle": "Hundreds of Australians evacuated in Queensland's worst floods for decades", "webUrl": "https://www.theguardian.com/world/2010/dec/29/australia-queensland-flooding-evacuations", "apiUrl": "https://content.guardianapis.com/world/2010/dec/29/australia-queensland-flooding-evacuations", "isHosted": false, "pillarId": "pillar/news", "pillarName": "News"}, {"id": "environment/gallery/2010/dec/29/2010-green-technologies", "type": "gallery", "sectionId": "environment", "sectionName": "Environment", "webPublicationDate": "2010-12-29T13:09:00Z", "webTitle": "2010 review of green technologies", "webUrl": "https://www.theguardian.com/environment/gallery/2010/dec/29/2010-green-technologies", "apiUrl": "https://content.guardianapis.com/environment/gallery/2010/dec/29/2010-green-technologies", "isHosted": false, "pillarId": "pillar/news", "pillarName": "News"}, {"id": "science/gallery/2010/dec/16/2010-scientific-discoveries", "type": "gallery", "sectionId": "science", "sectionName": "Science", "webPublicationDate": "2010-12-29T12:37:54Z", "webTitle": "Science 2010 in pictures: Zombie ants, Neanderthal humans and synthetic life", "webUrl": "https://www.theguardian.com/science/gallery/2010/dec/16/2010-scientific-discoveries", "apiUrl": "https://content.guardianapis.com/science/gallery/2010/dec/16/2010-scientific-discoveries", "isHosted": false, "pillarId": "pillar/news", "pillarName": "News"}, {"id": "global-development/poverty-matters/2010/dec/29/financial-crisis-developing-economies", "type": "article", "sectionId": "global-development", "sectionName": "Global development", "webPublicationDate": "2010-12-29T12:00:02Z", "webTitle": "The next financial crisis is not far off", "webUrl": "https://www.theguardian.com/global-development/poverty-matters/2010/dec/29/financial-crisis-developing-economies", "apiUrl": "https://content.guardianapis.com/global-development/poverty-matters/2010/dec/29/financial-crisis-developing-economies", "isHosted": false, "pillarId": "pillar/news", "pillarName": "News"}, {"id": "environment/2010/dec/29/country-diary-wenlock-edge", "type": "article", "sectionId": "environment", "sectionName": "Environment", "webPublicationDate": "2010-12-29T00:05:06Z", "webTitle": "Country diary: Wenlock Edge", "webUrl": "https://www.theguardian.com/environment/2010/dec/29/country-diary-wenlock-edge", "apiUrl": "https://content.guardianapis.com/environment/2010/dec/29/country-diary-wenlock-edge", "isHosted": false, "pillarId": "pillar/news", "pillarName": "News"}, {"id": "world/2010/dec/28/china-130-bn-economic-growth", "type": "article", "sectionId": "world", "sectionName": "World news", "webPublicationDate": "2010-12-28T19:56:32Z", "webTitle": "China counts \u00a3130bn cost of economic growth", "webUrl": "https://www.theguardian.com/world/2010/dec/28/china-130-bn-economic-growth", "apiUrl": "https://content.guardianapis.com/world/2010/dec/28/china-130-bn-economic-growth", "isHosted": false, "pillarId": "pillar/news", "pillarName": "News"}, {"id": "environment/2010/dec/28/spain-renewables-energy-electricity-france", "type": "article", "sectionId": "environment", "sectionName": "Environment", "webPublicationDate": "2010-12-28T16:29:20Z", "webTitle": "Spain helps out neighbour France in green power surge", "webUrl": "https://www.theguardian.com/environment/2010/dec/28/spain-renewables-energy-electricity-france", "apiUrl": "https://content.guardianapis.com/environment/2010/dec/28/spain-renewables-energy-electricity-france", "isHosted": false, "pillarId": "pillar/news", "pillarName": "News"}, {"id": "environment/2010/dec/28/country-diary-somerset-sheep", "type": "article", "sectionId": "environment", "sectionName": "Environment", "webPublicationDate": "2010-12-28T00:05:04Z", "webTitle": "Country diary: Somerset", "webUrl": "https://www.theguardian.com/environment/2010/dec/28/country-diary-somerset-sheep", "apiUrl": "https://content.guardianapis.com/environment/2010/dec/28/country-diary-somerset-sheep", "isHosted": false, "pillarId": "pillar/news", "pillarName": "News"}, {"id": "commentisfree/2010/dec/27/energy-companies-fuel-poverty", "type": "article", "sectionId": "commentisfree", "sectionName": "Opinion", "webPublicationDate": "2010-12-27T20:00:00Z", "webTitle": "The cold claims lives while energy companies get rich | George Monbiot", "webUrl": "https://www.theguardian.com/commentisfree/2010/dec/27/energy-companies-fuel-poverty", "apiUrl": "https://content.guardianapis.com/commentisfree/2010/dec/27/energy-companies-fuel-poverty", "isHosted": false, "pillarId": "pillar/opinion", "pillarName": "Opinion"}, {"id": "uk/2010/dec/27/condensing-boilers-freeze-uk", "type": "article", "sectionId": "uk-news", "sectionName": "UK news", "webPublicationDate": "2010-12-27T18:28:01Z", "webTitle": "Big freeze presents old problem for modern boilers", "webUrl": "https://www.theguardian.com/uk/2010/dec/27/condensing-boilers-freeze-uk", "apiUrl": "https://content.guardianapis.com/uk/2010/dec/27/condensing-boilers-freeze-uk", "isHosted": false, "pillarId": "pillar/news", "pillarName": "News"}, {"id": "business/2010/dec/27/lng-transforms-uk-gas-supplies", "type": "article", "sectionId": "business", "sectionName": "Business", "webPublicationDate": "2010-12-27T17:27:36Z", "webTitle": "Liquid gas expands to fill Britain's energy gap", "webUrl": "https://www.theguardian.com/business/2010/dec/27/lng-transforms-uk-gas-supplies", "apiUrl": "https://content.guardianapis.com/business/2010/dec/27/lng-transforms-uk-gas-supplies", "isHosted": false, "pillarId": "pillar/news", "pillarName": "News"}, {"id": "environment/2010/dec/27/world-warming", "type": "article", "sectionId": "environment", "sectionName": "Environment", "webPublicationDate": "2010-12-27T09:00:00Z", "webTitle": "Is the world really getting warmer?", "webUrl": "https://www.theguardian.com/environment/2010/dec/27/world-warming", "apiUrl": "https://content.guardianapis.com/environment/2010/dec/27/world-warming", "isHosted": false, "pillarId": "pillar/news", "pillarName": "News"}, {"id": "lifeandstyle/2010/dec/27/pakistan-floods-millions-still-homeless", "type": "article", "sectionId": "lifeandstyle", "sectionName": "Life and style", "webPublicationDate": "2010-12-27T08:00:32Z", "webTitle": "What happened next? Pakistan floods", "webUrl": "https://www.theguardian.com/lifeandstyle/2010/dec/27/pakistan-floods-millions-still-homeless", "apiUrl": "https://content.guardianapis.com/lifeandstyle/2010/dec/27/pakistan-floods-millions-still-homeless", "isHosted": false, "pillarId": "pillar/lifestyle", "pillarName": "Lifestyle"}, {"id": "lifeandstyle/2010/dec/27/10-10-environment-campaign", "type": "article", "sectionId": "lifeandstyle", "sectionName": "Life and style", "webPublicationDate": "2010-12-27T08:00:23Z", "webTitle": "What happened next? 10:10", "webUrl": "https://www.theguardian.com/lifeandstyle/2010/dec/27/10-10-environment-campaign", "apiUrl": "https://content.guardianapis.com/lifeandstyle/2010/dec/27/10-10-environment-campaign", "isHosted": false, "pillarId": "pillar/lifestyle", "pillarName": "Lifestyle"}, {"id": "lifeandstyle/2010/dec/27/otters-make-a-resurgence", "type": "article", "sectionId": "lifeandstyle", "sectionName": "Life and style", "webPublicationDate": "2010-12-27T08:00:19Z", "webTitle": "What happened next? The otter resurgence", "webUrl": "https://www.theguardian.com/lifeandstyle/2010/dec/27/otters-make-a-resurgence", "apiUrl": "https://content.guardianapis.com/lifeandstyle/2010/dec/27/otters-make-a-resurgence", "isHosted": false, "pillarId": "pillar/lifestyle", "pillarName": "Lifestyle"}, {"id": "lifeandstyle/2010/dec/27/bed-bugs-in-new-york", "type": "article", "sectionId": "lifeandstyle", "sectionName": "Life and style", "webPublicationDate": "2010-12-27T08:00:12Z", "webTitle": "What happened next? New York's bedbugs", "webUrl": "https://www.theguardian.com/lifeandstyle/2010/dec/27/bed-bugs-in-new-york", "apiUrl": "https://content.guardianapis.com/lifeandstyle/2010/dec/27/bed-bugs-in-new-york", "isHosted": false, "pillarId": "pillar/lifestyle", "pillarName": "Lifestyle"}, {"id": "lifeandstyle/2010/dec/27/torrey-canyon-oil-spill-guernsey", "type": "article", "sectionId": "lifeandstyle", "sectionName": "Life and style", "webPublicationDate": "2010-12-27T08:00:06Z", "webTitle": "What happened next? Torrey Canyon oil clean-up, Guernsey", "webUrl": "https://www.theguardian.com/lifeandstyle/2010/dec/27/torrey-canyon-oil-spill-guernsey", "apiUrl": "https://content.guardianapis.com/lifeandstyle/2010/dec/27/torrey-canyon-oil-spill-guernsey", "isHosted": false, "pillarId": "pillar/lifestyle", "pillarName": "Lifestyle"}, {"id": "environment/blog/2010/dec/27/2010-environment-year-review", "type": "article", "sectionId": "environment", "sectionName": "Environment", "webPublicationDate": "2010-12-27T08:00:01Z", "webTitle": "2010: The environment year in review", "webUrl": "https://www.theguardian.com/environment/blog/2010/dec/27/2010-environment-year-review", "apiUrl": "https://content.guardianapis.com/environment/blog/2010/dec/27/2010-environment-year-review", "isHosted": false, "pillarId": "pillar/news", "pillarName": "News"}, {"id": "environment/2010/dec/27/country-diary-claxton-norfolk", "type": "article", "sectionId": "environment", "sectionName": "Environment", "webPublicationDate": "2010-12-27T00:05:08Z", "webTitle": "Country diary: Claxton, Norfolk", "webUrl": "https://www.theguardian.com/environment/2010/dec/27/country-diary-claxton-norfolk", "apiUrl": "https://content.guardianapis.com/environment/2010/dec/27/country-diary-claxton-norfolk", "isHosted": false, "pillarId": "pillar/news", "pillarName": "News"}, {"id": "environment/2010/dec/27/wrong-policy-on-renewable-energy", "type": "article", "sectionId": "environment", "sectionName": "Environment", "webPublicationDate": "2010-12-27T00:05:05Z", "webTitle": "Letters: Wrong policy on renewable energy", "webUrl": "https://www.theguardian.com/environment/2010/dec/27/wrong-policy-on-renewable-energy", "apiUrl": "https://content.guardianapis.com/environment/2010/dec/27/wrong-policy-on-renewable-energy", "isHosted": false, "pillarId": "pillar/news", "pillarName": "News"}, {"id": "environment/2010/dec/27/british-wildlife-benefits-traditional-seasons", "type": "article", "sectionId": "environment", "sectionName": "Environment", "webPublicationDate": "2010-12-27T00:01:48Z", "webTitle": "British wildlife benefits from return to 'traditional' seasonal weather", "webUrl": "https://www.theguardian.com/environment/2010/dec/27/british-wildlife-benefits-traditional-seasons", "apiUrl": "https://content.guardianapis.com/environment/2010/dec/27/british-wildlife-benefits-traditional-seasons", "isHosted": false, "pillarId": "pillar/news", "pillarName": "News"}, {"id": "commentisfree/2010/dec/26/eurosceptics-subsidies-cap-cameron", "type": "article", "sectionId": "commentisfree", "sectionName": "Opinion", "webPublicationDate": "2010-12-26T20:00:00Z", "webTitle": "The silence on EU subsidies is a gift to Eurosceptics | Julian Glover", "webUrl": "https://www.theguardian.com/commentisfree/2010/dec/26/eurosceptics-subsidies-cap-cameron", "apiUrl": "https://content.guardianapis.com/commentisfree/2010/dec/26/eurosceptics-subsidies-cap-cameron", "isHosted": false, "pillarId": "pillar/opinion", "pillarName": "Opinion"}, {"id": "environment/2010/dec/26/climate-change-assam-tea", "type": "article", "sectionId": "environment", "sectionName": "Environment", "webPublicationDate": "2010-12-26T18:44:16Z", "webTitle": "Climate change leaves Assam tea growers in hot water", "webUrl": "https://www.theguardian.com/environment/2010/dec/26/climate-change-assam-tea", "apiUrl": "https://content.guardianapis.com/environment/2010/dec/26/climate-change-assam-tea", "isHosted": false, "pillarId": "pillar/news", "pillarName": "News"}, {"id": "tv-and-radio/2010/dec/26/elisabeth-beresford-obituary", "type": "article", "sectionId": "tv-and-radio", "sectionName": "Television & radio", "webPublicationDate": "2010-12-26T18:18:00Z", "webTitle": "Elisabeth Beresford obituary", "webUrl": "https://www.theguardian.com/tv-and-radio/2010/dec/26/elisabeth-beresford-obituary", "apiUrl": "https://content.guardianapis.com/tv-and-radio/2010/dec/26/elisabeth-beresford-obituary", "isHosted": false, "pillarId": "pillar/arts", "pillarName": "Arts"}, {"id": "environment/2010/dec/26/rare-earth-metals-us", "type": "article", "sectionId": "environment", "sectionName": "Environment", "webPublicationDate": "2010-12-26T16:54:01Z", "webTitle": "Rare earth metals mine is key to US control over hi-tech future", "webUrl": "https://www.theguardian.com/environment/2010/dec/26/rare-earth-metals-us", "apiUrl": "https://content.guardianapis.com/environment/2010/dec/26/rare-earth-metals-us", "isHosted": false, "pillarId": "pillar/news", "pillarName": "News"}, {"id": "commentisfree/cifamerica/2010/dec/25/pollution-chemistry", "type": "article", "sectionId": "commentisfree", "sectionName": "Opinion", "webPublicationDate": "2010-12-26T14:00:01Z", "webTitle": "Diluting the 'chromium-6 in water' panic | Henry Miller", "webUrl": "https://www.theguardian.com/commentisfree/cifamerica/2010/dec/25/pollution-chemistry", "apiUrl": "https://content.guardianapis.com/commentisfree/cifamerica/2010/dec/25/pollution-chemistry", "isHosted": false, "pillarId": "pillar/opinion", "pillarName": "Opinion"}, {"id": "environment/2010/dec/26/biodiversity-loss-climate-change", "type": "article", "sectionId": "environment", "sectionName": "Environment", "webPublicationDate": "2010-12-26T08:00:04Z", "webTitle": "Why biodiversity loss and climate change are equal threats | Robert Bloomfield", "webUrl": "https://www.theguardian.com/environment/2010/dec/26/biodiversity-loss-climate-change", "apiUrl": "https://content.guardianapis.com/environment/2010/dec/26/biodiversity-loss-climate-change", "isHosted": false, "pillarId": "pillar/news", "pillarName": "News"}, {"id": "environment/gallery/2010/dec/26/2010-wildlife-photographic-awards", "type": "gallery", "sectionId": "environment", "sectionName": "Environment", "webPublicationDate": "2010-12-26T08:00:00Z", "webTitle": "Review of 2010 wildlife photographic awards", "webUrl": "https://www.theguardian.com/environment/gallery/2010/dec/26/2010-wildlife-photographic-awards", "apiUrl": "https://content.guardianapis.com/environment/gallery/2010/dec/26/2010-wildlife-photographic-awards", "isHosted": false, "pillarId": "pillar/news", "pillarName": "News"}, {"id": "commentisfree/2010/dec/26/robin-mckie-carbon-emissions-up", "type": "article", "sectionId": "commentisfree", "sectionName": "Opinion", "webPublicationDate": "2010-12-26T00:10:00Z", "webTitle": "After a wasted year, climate change must once again be our priority | Robin McKie", "webUrl": "https://www.theguardian.com/commentisfree/2010/dec/26/robin-mckie-carbon-emissions-up", "apiUrl": "https://content.guardianapis.com/commentisfree/2010/dec/26/robin-mckie-carbon-emissions-up", "isHosted": false, "pillarId": "pillar/opinion", "pillarName": "Opinion"}, {"id": "world/2010/dec/26/20-things-we-learned-2010", "type": "article", "sectionId": "world", "sectionName": "World news", "webPublicationDate": "2010-12-26T00:05:53Z", "webTitle": "20 things we learned in 2010", "webUrl": "https://www.theguardian.com/world/2010/dec/26/20-things-we-learned-2010", "apiUrl": "https://content.guardianapis.com/world/2010/dec/26/20-things-we-learned-2010", "isHosted": false, "pillarId": "pillar/news", "pillarName": "News"}, {"id": "environment/2010/dec/26/eagle-owl-cull-rspb", "type": "article", "sectionId": "environment", "sectionName": "Environment", "webPublicationDate": "2010-12-26T00:05:41Z", "webTitle": "Eagle owl spreads across British Isles and divides conservationists", "webUrl": "https://www.theguardian.com/environment/2010/dec/26/eagle-owl-cull-rspb", "apiUrl": "https://content.guardianapis.com/environment/2010/dec/26/eagle-owl-cull-rspb", "isHosted": false, "pillarId": "pillar/news", "pillarName": "News"}, {"id": "environment/gallery/2010/dec/25/new-species-discovered-2010", "type": "gallery", "sectionId": "environment", "sectionName": "Environment", "webPublicationDate": "2010-12-25T13:00:00Z", "webTitle": "New species discovered in 2010", "webUrl": "https://www.theguardian.com/environment/gallery/2010/dec/25/new-species-discovered-2010", "apiUrl": "https://content.guardianapis.com/environment/gallery/2010/dec/25/new-species-discovered-2010", "isHosted": false, "pillarId": "pillar/news", "pillarName": "News"}, {"id": "global-development/poverty-matters/2010/dec/24/displaced-indigenous-people", "type": "article", "sectionId": "global-development", "sectionName": "Global development", "webPublicationDate": "2010-12-24T09:00:01Z", "webTitle": "Avatar story was so true to life | Jonathan Glennie", "webUrl": "https://www.theguardian.com/global-development/poverty-matters/2010/dec/24/displaced-indigenous-people", "apiUrl": "https://content.guardianapis.com/global-development/poverty-matters/2010/dec/24/displaced-indigenous-people", "isHosted": false, "pillarId": "pillar/news", "pillarName": "News"}, {"id": "environment/damian-carrington-blog/2010/dec/24/environment-adverts", "type": "article", "sectionId": "environment", "sectionName": "Environment", "webPublicationDate": "2010-12-24T07:00:00Z", "webTitle": "The best environmental advertisement: Mr W | Damian Carrington", "webUrl": "https://www.theguardian.com/environment/damian-carrington-blog/2010/dec/24/environment-adverts", "apiUrl": "https://content.guardianapis.com/environment/damian-carrington-blog/2010/dec/24/environment-adverts", "isHosted": false, "pillarId": "pillar/news", "pillarName": "News"}, {"id": "politics/2010/dec/24/libdem-fallout-over-cable-affair", "type": "article", "sectionId": "politics", "sectionName": "Politics", "webPublicationDate": "2010-12-24T00:05:04Z", "webTitle": "Letters: Fallout for the Lib Dems over the Cable affair", "webUrl": "https://www.theguardian.com/politics/2010/dec/24/libdem-fallout-over-cable-affair", "apiUrl": "https://content.guardianapis.com/politics/2010/dec/24/libdem-fallout-over-cable-affair", "isHosted": false, "pillarId": "pillar/news", "pillarName": "News"}, {"id": "uk/2010/dec/24/costs-of-high-speed-rail-line", "type": "article", "sectionId": "uk-news", "sectionName": "UK news", "webPublicationDate": "2010-12-24T00:05:03Z", "webTitle": "Letters: Environmental and economic costs of the high-speed rail line", "webUrl": "https://www.theguardian.com/uk/2010/dec/24/costs-of-high-speed-rail-line", "apiUrl": "https://content.guardianapis.com/uk/2010/dec/24/costs-of-high-speed-rail-line", "isHosted": false, "pillarId": "pillar/news", "pillarName": "News"}]}}