{"response": {"status": "ok", "userTier": "developer", "total": 90054, "startIndex": 1, "pageSize": 50, "currentPage": 1, "pages": 1802, "orderBy": "newest", "results": [{"id": "football/2018/dec/30/jurgen-klopp-liverpool-mohamed-salah-dive-claims-arsenal", "type": "article", "sectionId": "football", "sectionName": "Football", "webPublicationDate": "2018-12-30T22:29:10Z", "webTitle": "\u2018Do we need blood?\u2019 J\u00fcrgen Klopp defends Mohamed Salah over \u2018dive\u2019", "webUrl": "https://www.theguardian.com/football/2018/dec/30/jurgen-klopp-liverpool-mohamed-salah-dive-claims-arsenal", "apiUrl": "https://content.guardianapis.com/football/2018/dec/30/jurgen-klopp-liverpool-mohamed-salah-dive-claims-arsenal", "isHosted": false, "pillarId": "pillar/sport", "pillarName": "Sport"}, {"id": "football/2018/dec/30/brighton-chris-hughton-win-against-everton-proves-progress", "type": "article", "sectionId": "football", "sectionName": "Football", "webPublicationDate": "2018-12-30T22:29:10Z", "webTitle": "Brighton\u2019s Chris Hughton warns against \u2018looking upwards\u2019 after Everton win", "webUrl": "https://www.theguardian.com/football/2018/dec/30/brighton-chris-hughton-win-against-everton-proves-progress", "apiUrl": "https://content.guardianapis.com/football/2018/dec/30/brighton-chris-hughton-win-against-everton-proves-progress", "isHosted": false, "pillarId": "pillar/sport", "pillarName": "Sport"}, {"id": "football/2018/dec/30/manchester-city-pep-guardiola-liverpool", "type": "article", "sectionId": "football", "sectionName": "Football", "webPublicationDate": "2018-12-30T19:52:36Z", "webTitle": "Pep Guardiola: Title race would be over had Manchester City not won", "webUrl": "https://www.theguardian.com/football/2018/dec/30/manchester-city-pep-guardiola-liverpool", "apiUrl": "https://content.guardianapis.com/football/2018/dec/30/manchester-city-pep-guardiola-liverpool", "isHosted": false, "pillarId": "pillar/sport", "pillarName": "Sport"}, {"id": "football/2018/dec/30/susanna-dinnage-pulls-out-of-becoming-new-premier-league-chief-executive", "type": "article", "sectionId": "football", "sectionName": "Football", "webPublicationDate": "2018-12-30T18:56:51Z", "webTitle": "Susanna Dinnage pulls out of becoming Premier League chief executive", "webUrl": "https://www.theguardian.com/football/2018/dec/30/susanna-dinnage-pulls-out-of-becoming-new-premier-league-chief-executive", "apiUrl": "https://content.guardianapis.com/football/2018/dec/30/susanna-dinnage-pulls-out-of-becoming-new-premier-league-chief-executive", "isHosted": false, "pillarId": "pillar/sport", "pillarName": "Sport"}, {"id": "football/live/2018/dec/30/manchester-united-v-bournemouth-premier-league-live", "type": "liveblog", "sectionId": "football", "sectionName": "Football", "webPublicationDate": "2018-12-30T18:33:47Z", "webTitle": "Manchester United 4-1 Bournemouth: Premier League \u2013 as it happened", "webUrl": "https://www.theguardian.com/football/live/2018/dec/30/manchester-united-v-bournemouth-premier-league-live", "apiUrl": "https://content.guardianapis.com/football/live/2018/dec/30/manchester-united-v-bournemouth-premier-league-live", "isHosted": false, "pillarId": "pillar/sport", "pillarName": "Sport"}, {"id": "football/2018/dec/30/manchester-united-bournemouth-premier-league-match-report", "type": "article", "sectionId": "football", "sectionName": "Football", "webPublicationDate": "2018-12-30T18:30:10Z", "webTitle": "Paul Pogba shines as Manchester United swat aside lacklustre Bournemouth", "webUrl": "https://www.theguardian.com/football/2018/dec/30/manchester-united-bournemouth-premier-league-match-report", "apiUrl": "https://content.guardianapis.com/football/2018/dec/30/manchester-united-bournemouth-premier-league-match-report", "isHosted": false, "pillarId": "pillar/sport", "pillarName": "Sport"}, {"id": "football/2018/dec/30/female-footballers-list-is-a-massive-win", "type": "article", "sectionId": "football", "sectionName": "Football", "webPublicationDate": "2018-12-30T17:07:23Z", "webTitle": "Female footballers list is a massive win | Brief letters", "webUrl": "https://www.theguardian.com/football/2018/dec/30/female-footballers-list-is-a-massive-win", "apiUrl": "https://content.guardianapis.com/football/2018/dec/30/female-footballers-list-is-a-massive-win", "isHosted": false, "pillarId": "pillar/sport", "pillarName": "Sport"}, {"id": "football/live/2018/dec/30/southampton-v-manchester-city-premier-league-live", "type": "liveblog", "sectionId": "football", "sectionName": "Football", "webPublicationDate": "2018-12-30T16:30:11Z", "webTitle": "Southampton 1-3 Manchester City: Premier League \u2013 as it happened", "webUrl": "https://www.theguardian.com/football/live/2018/dec/30/southampton-v-manchester-city-premier-league-live", "apiUrl": "https://content.guardianapis.com/football/live/2018/dec/30/southampton-v-manchester-city-premier-league-live", "isHosted": false, "pillarId": "pillar/sport", "pillarName": "Sport"}, {"id": "football/2018/dec/30/southampton-manchester-city-premier-league-match-report", "type": "article", "sectionId": "football", "sectionName": "Football", "webPublicationDate": "2018-12-30T16:22:52Z", "webTitle": "Ag\u00fcero strikes as City survive Saints scare and return to winning ways", "webUrl": "https://www.theguardian.com/football/2018/dec/30/southampton-manchester-city-premier-league-match-report", "apiUrl": "https://content.guardianapis.com/football/2018/dec/30/southampton-manchester-city-premier-league-match-report", "isHosted": false, "pillarId": "pillar/sport", "pillarName": "Sport"}, {"id": "football/2018/dec/30/burnley-west-ham-united-premier-league-match-report", "type": "article", "sectionId": "football", "sectionName": "Football", "webPublicationDate": "2018-12-30T16:12:30Z", "webTitle": "Young McNeil confirms old Burnley\u2019s dominance of West Ham", "webUrl": "https://www.theguardian.com/football/2018/dec/30/burnley-west-ham-united-premier-league-match-report", "apiUrl": "https://content.guardianapis.com/football/2018/dec/30/burnley-west-ham-united-premier-league-match-report", "isHosted": false, "pillarId": "pillar/sport", "pillarName": "Sport"}, {"id": "sport/2018/dec/30/heavyweight-boxing-tiger-woods-caster-semenya-russia-sporting-predictions-2019", "type": "article", "sectionId": "sport", "sectionName": "Sport", "webPublicationDate": "2018-12-30T15:03:08Z", "webTitle": "Semenya\u2019s Cas case and Tiger\u2019s 15th \u2013 resolutions and predictions for 2019 | Sean Ingle", "webUrl": "https://www.theguardian.com/sport/2018/dec/30/heavyweight-boxing-tiger-woods-caster-semenya-russia-sporting-predictions-2019", "apiUrl": "https://content.guardianapis.com/sport/2018/dec/30/heavyweight-boxing-tiger-woods-caster-semenya-russia-sporting-predictions-2019", "isHosted": false, "pillarId": "pillar/sport", "pillarName": "Sport"}, {"id": "football/2018/dec/30/liverpool-jurgen-klopp-arsenal-manchester-city", "type": "article", "sectionId": "football", "sectionName": "Football", "webPublicationDate": "2018-12-30T14:07:21Z", "webTitle": "Liverpool\u2019s raggedness in swatting aside Arsenal may yet give rivals hope | Jonathan Wilson", "webUrl": "https://www.theguardian.com/football/2018/dec/30/liverpool-jurgen-klopp-arsenal-manchester-city", "apiUrl": "https://content.guardianapis.com/football/2018/dec/30/liverpool-jurgen-klopp-arsenal-manchester-city", "isHosted": false, "pillarId": "pillar/sport", "pillarName": "Sport"}, {"id": "football/live/2018/dec/30/crystal-palace-v-chelsea-premier-league-live", "type": "liveblog", "sectionId": "football", "sectionName": "Football", "webPublicationDate": "2018-12-30T14:04:15Z", "webTitle": "Crystal Palace 0-1 Chelsea: Premier League \u2013 as it happened", "webUrl": "https://www.theguardian.com/football/live/2018/dec/30/crystal-palace-v-chelsea-premier-league-live", "apiUrl": "https://content.guardianapis.com/football/live/2018/dec/30/crystal-palace-v-chelsea-premier-league-live", "isHosted": false, "pillarId": "pillar/sport", "pillarName": "Sport"}, {"id": "football/2018/dec/30/crystal-palace-chelsea-premier-league-match-report", "type": "article", "sectionId": "football", "sectionName": "Football", "webPublicationDate": "2018-12-30T14:02:09Z", "webTitle": "N\u2019Golo Kant\u00e9 tightens Chelsea\u2019s grip on top four with winner at Crystal Palace", "webUrl": "https://www.theguardian.com/football/2018/dec/30/crystal-palace-chelsea-premier-league-match-report", "apiUrl": "https://content.guardianapis.com/football/2018/dec/30/crystal-palace-chelsea-premier-league-match-report", "isHosted": false, "pillarId": "pillar/sport", "pillarName": "Sport"}, {"id": "football/blog/2018/dec/30/roberto-firmino-liverpool-peak-premier-league-title-jurgen-klopp", "type": "article", "sectionId": "football", "sectionName": "Football", "webPublicationDate": "2018-12-30T09:00:20Z", "webTitle": "Roberto Firmino and Reds' striking trinity give rivals cause for concern | Andy Hunter", "webUrl": "https://www.theguardian.com/football/blog/2018/dec/30/roberto-firmino-liverpool-peak-premier-league-title-jurgen-klopp", "apiUrl": "https://content.guardianapis.com/football/blog/2018/dec/30/roberto-firmino-liverpool-peak-premier-league-title-jurgen-klopp", "isHosted": false, "pillarId": "pillar/sport", "pillarName": "Sport"}, {"id": "football/blog/2018/dec/30/manchester-uniteds-old-rites-of-passage-built-some-characters-but-broke-others", "type": "article", "sectionId": "football", "sectionName": "Football", "webPublicationDate": "2018-12-30T09:00:20Z", "webTitle": "Manchester United\u2019s old rites of passage built some characters but broke others | Daniel Taylor", "webUrl": "https://www.theguardian.com/football/blog/2018/dec/30/manchester-uniteds-old-rites-of-passage-built-some-characters-but-broke-others", "apiUrl": "https://content.guardianapis.com/football/blog/2018/dec/30/manchester-uniteds-old-rites-of-passage-built-some-characters-but-broke-others", "isHosted": false, "pillarId": "pillar/sport", "pillarName": "Sport"}, {"id": "football/2018/dec/30/how-leeds-fell-in-love-with-marcelo-bielsa", "type": "article", "sectionId": "football", "sectionName": "Football", "webPublicationDate": "2018-12-30T08:00:16Z", "webTitle": "How Leeds fell in love with Marcelo Bielsa, the man on a blue bucket", "webUrl": "https://www.theguardian.com/football/2018/dec/30/how-leeds-fell-in-love-with-marcelo-bielsa", "apiUrl": "https://content.guardianapis.com/football/2018/dec/30/how-leeds-fell-in-love-with-marcelo-bielsa", "isHosted": false, "pillarId": "pillar/sport", "pillarName": "Sport"}, {"id": "football/2018/dec/29/hearts-hibernian-kilmarnock-scottish-premiership", "type": "article", "sectionId": "football", "sectionName": "Football", "webPublicationDate": "2018-12-30T00:29:28Z", "webTitle": "Roundup: Police arrest man over abuse of Hearts defender Cl\u00e9vid Dikamona", "webUrl": "https://www.theguardian.com/football/2018/dec/29/hearts-hibernian-kilmarnock-scottish-premiership", "apiUrl": "https://content.guardianapis.com/football/2018/dec/29/hearts-hibernian-kilmarnock-scottish-premiership", "isHosted": false, "pillarId": "pillar/sport", "pillarName": "Sport"}, {"id": "football/2018/dec/29/maurizio-sarri-chelsea-manager-intensity-english-game-culture-shock", "type": "article", "sectionId": "football", "sectionName": "Football", "webPublicationDate": "2018-12-29T22:30:04Z", "webTitle": "Maurizio Sarri admits intensity of English game was culture shock", "webUrl": "https://www.theguardian.com/football/2018/dec/29/maurizio-sarri-chelsea-manager-intensity-english-game-culture-shock", "apiUrl": "https://content.guardianapis.com/football/2018/dec/29/maurizio-sarri-chelsea-manager-intensity-english-game-culture-shock", "isHosted": false, "pillarId": "pillar/sport", "pillarName": "Sport"}, {"id": "football/2018/dec/29/jurgen-klopp-liverpool-nine-points-ahead-manchester-city", "type": "article", "sectionId": "football", "sectionName": "Football", "webPublicationDate": "2018-12-29T21:23:38Z", "webTitle": "J\u00fcrgen Klopp: \u2018We may be nine points in front but we have to go to City\u2019", "webUrl": "https://www.theguardian.com/football/2018/dec/29/jurgen-klopp-liverpool-nine-points-ahead-manchester-city", "apiUrl": "https://content.guardianapis.com/football/2018/dec/29/jurgen-klopp-liverpool-nine-points-ahead-manchester-city", "isHosted": false, "pillarId": "pillar/sport", "pillarName": "Sport"}, {"id": "australia-news/2018/dec/30/asian-football-confederation-accused-of-dismissive-statement-on-hakeem-al-araibi", "type": "article", "sectionId": "australia-news", "sectionName": "Australia news", "webPublicationDate": "2018-12-29T20:57:43Z", "webTitle": "Asian Football Confederation accused of 'dismissive' statement on Hakeem al-Araibi", "webUrl": "https://www.theguardian.com/australia-news/2018/dec/30/asian-football-confederation-accused-of-dismissive-statement-on-hakeem-al-araibi", "apiUrl": "https://content.guardianapis.com/australia-news/2018/dec/30/asian-football-confederation-accused-of-dismissive-statement-on-hakeem-al-araibi", "isHosted": false, "pillarId": "pillar/news", "pillarName": "News"}, {"id": "football/live/2018/dec/29/liverpool-v-arsenal-premier-league-live", "type": "liveblog", "sectionId": "football", "sectionName": "Football", "webPublicationDate": "2018-12-29T19:44:56Z", "webTitle": "Liverpool 5-1 Arsenal: Premier League \u2013 as it happened", "webUrl": "https://www.theguardian.com/football/live/2018/dec/29/liverpool-v-arsenal-premier-league-live", "apiUrl": "https://content.guardianapis.com/football/live/2018/dec/29/liverpool-v-arsenal-premier-league-live", "isHosted": false, "pillarId": "pillar/sport", "pillarName": "Sport"}, {"id": "football/2018/dec/29/liverpool-arsenal-premier-league-match-report", "type": "article", "sectionId": "football", "sectionName": "Football", "webPublicationDate": "2018-12-29T19:35:53Z", "webTitle": "Roberto Firmino hits hat-trick as Liverpool rout shambolic Arsenal", "webUrl": "https://www.theguardian.com/football/2018/dec/29/liverpool-arsenal-premier-league-match-report", "apiUrl": "https://content.guardianapis.com/football/2018/dec/29/liverpool-arsenal-premier-league-match-report", "isHosted": false, "pillarId": "pillar/sport", "pillarName": "Sport"}, {"id": "football/2018/dec/29/mauricio-pochettino-tottenham-wolves", "type": "article", "sectionId": "football", "sectionName": "Football", "webPublicationDate": "2018-12-29T19:12:56Z", "webTitle": "Mauricio Pochettino says Tottenham lost their heads against Wolves", "webUrl": "https://www.theguardian.com/football/2018/dec/29/mauricio-pochettino-tottenham-wolves", "apiUrl": "https://content.guardianapis.com/football/2018/dec/29/mauricio-pochettino-tottenham-wolves", "isHosted": false, "pillarId": "pillar/sport", "pillarName": "Sport"}, {"id": "football/2018/dec/29/football-league-leeds-portsmouth", "type": "article", "sectionId": "football", "sectionName": "Football", "webPublicationDate": "2018-12-29T17:59:14Z", "webTitle": "Football League: Leeds sink to shock defeat as Portsmouth win thriller", "webUrl": "https://www.theguardian.com/football/2018/dec/29/football-league-leeds-portsmouth", "apiUrl": "https://content.guardianapis.com/football/2018/dec/29/football-league-leeds-portsmouth", "isHosted": false, "pillarId": "pillar/sport", "pillarName": "Sport"}, {"id": "football/live/2018/dec/29/spurs-v-wolves-watford-v-newcastle-and-more-premier-league-clockwatch-live", "type": "liveblog", "sectionId": "football", "sectionName": "Football", "webPublicationDate": "2018-12-29T17:21:45Z", "webTitle": "Spurs 1-3 Wolves, Fulham 1-0 Huddersfield and more: Premier League clockwatch \u2013\u00a0as it happened", "webUrl": "https://www.theguardian.com/football/live/2018/dec/29/spurs-v-wolves-watford-v-newcastle-and-more-premier-league-clockwatch-live", "apiUrl": "https://content.guardianapis.com/football/live/2018/dec/29/spurs-v-wolves-watford-v-newcastle-and-more-premier-league-clockwatch-live", "isHosted": false, "pillarId": "pillar/sport", "pillarName": "Sport"}, {"id": "football/2018/dec/29/leicester-city-cardiff-city-premier-league-match-report", "type": "article", "sectionId": "football", "sectionName": "Football", "webPublicationDate": "2018-12-29T17:19:06Z", "webTitle": "V\u00edctor Camarasa\u2019s injury-time wonder goal gives Cardiff win at Leicester", "webUrl": "https://www.theguardian.com/football/2018/dec/29/leicester-city-cardiff-city-premier-league-match-report", "apiUrl": "https://content.guardianapis.com/football/2018/dec/29/leicester-city-cardiff-city-premier-league-match-report", "isHosted": false, "pillarId": "pillar/sport", "pillarName": "Sport"}, {"id": "football/2018/dec/29/tottenham-wolves-premier-league-match-report", "type": "article", "sectionId": "football", "sectionName": "Football", "webPublicationDate": "2018-12-29T17:17:10Z", "webTitle": "Ra\u00fal Jim\u00e9nez and H\u00e9lder Costa stun Spurs as Wolves seal late comeback win", "webUrl": "https://www.theguardian.com/football/2018/dec/29/tottenham-wolves-premier-league-match-report", "apiUrl": "https://content.guardianapis.com/football/2018/dec/29/tottenham-wolves-premier-league-match-report", "isHosted": false, "pillarId": "pillar/sport", "pillarName": "Sport"}, {"id": "football/2018/dec/29/watford-newcastle-united-premier-league-match-report", "type": "article", "sectionId": "football", "sectionName": "Football", "webPublicationDate": "2018-12-29T17:10:16Z", "webTitle": "Abdoulaye Doucour\u00e9 rescues point for Watford against Newcastle", "webUrl": "https://www.theguardian.com/football/2018/dec/29/watford-newcastle-united-premier-league-match-report", "apiUrl": "https://content.guardianapis.com/football/2018/dec/29/watford-newcastle-united-premier-league-match-report", "isHosted": false, "pillarId": "pillar/sport", "pillarName": "Sport"}, {"id": "football/2018/dec/29/fulham-huddersfield-town-premier-league-match-report", "type": "article", "sectionId": "football", "sectionName": "Football", "webPublicationDate": "2018-12-29T17:09:49Z", "webTitle": "Fulham\u2019s Mitrovic makes late difference in basement clash with Huddersfield", "webUrl": "https://www.theguardian.com/football/2018/dec/29/fulham-huddersfield-town-premier-league-match-report", "apiUrl": "https://content.guardianapis.com/football/2018/dec/29/fulham-huddersfield-town-premier-league-match-report", "isHosted": false, "pillarId": "pillar/sport", "pillarName": "Sport"}, {"id": "football/2018/dec/29/brighton-hove-albion-everton-premier-league-match-report", "type": "article", "sectionId": "football", "sectionName": "Football", "webPublicationDate": "2018-12-29T17:02:34Z", "webTitle": "J\u00fcrgen Locadia strike enough to steer Brighton to victory over Everton", "webUrl": "https://www.theguardian.com/football/2018/dec/29/brighton-hove-albion-everton-premier-league-match-report", "apiUrl": "https://content.guardianapis.com/football/2018/dec/29/brighton-hove-albion-everton-premier-league-match-report", "isHosted": false, "pillarId": "pillar/sport", "pillarName": "Sport"}, {"id": "football/blog/2018/dec/29/fernandinho-manchester-city-pep-guardiola-flaw-in-masterplan", "type": "article", "sectionId": "football", "sectionName": "Football", "webPublicationDate": "2018-12-29T15:36:00Z", "webTitle": "Fernandinho\u2019s glaring absence reveals flaw in Manchester City masterplan | Jamie Jackson", "webUrl": "https://www.theguardian.com/football/blog/2018/dec/29/fernandinho-manchester-city-pep-guardiola-flaw-in-masterplan", "apiUrl": "https://content.guardianapis.com/football/blog/2018/dec/29/fernandinho-manchester-city-pep-guardiola-flaw-in-masterplan", "isHosted": false, "pillarId": "pillar/sport", "pillarName": "Sport"}, {"id": "football/live/2018/dec/29/rangers-v-celtic-scottish-premiership-live", "type": "liveblog", "sectionId": "football", "sectionName": "Football", "webPublicationDate": "2018-12-29T14:36:21Z", "webTitle": "Rangers 1-0 Celtic: Scottish Premiership \u2013\u00a0as it happened", "webUrl": "https://www.theguardian.com/football/live/2018/dec/29/rangers-v-celtic-scottish-premiership-live", "apiUrl": "https://content.guardianapis.com/football/live/2018/dec/29/rangers-v-celtic-scottish-premiership-live", "isHosted": false, "pillarId": "pillar/sport", "pillarName": "Sport"}, {"id": "football/2018/dec/29/rangers-celtic-scottish-premiership-match-report", "type": "article", "sectionId": "football", "sectionName": "Football", "webPublicationDate": "2018-12-29T14:33:22Z", "webTitle": "Ryan Jack strike helps Rangers end Old Firm winless run against Celtic", "webUrl": "https://www.theguardian.com/football/2018/dec/29/rangers-celtic-scottish-premiership-match-report", "apiUrl": "https://content.guardianapis.com/football/2018/dec/29/rangers-celtic-scottish-premiership-match-report", "isHosted": false, "pillarId": "pillar/sport", "pillarName": "Sport"}, {"id": "commentisfree/2018/dec/29/fascism-italy-racist-abuse-kalidou-koulibaly-italian-football", "type": "article", "sectionId": "commentisfree", "sectionName": "Opinion", "webPublicationDate": "2018-12-29T10:00:16Z", "webTitle": "Fascism is thriving again in Italy \u2013 and finding its home on the terraces | Tobias Jones", "webUrl": "https://www.theguardian.com/commentisfree/2018/dec/29/fascism-italy-racist-abuse-kalidou-koulibaly-italian-football", "apiUrl": "https://content.guardianapis.com/commentisfree/2018/dec/29/fascism-italy-racist-abuse-kalidou-koulibaly-italian-football", "isHosted": false, "pillarId": "pillar/opinion", "pillarName": "Opinion"}, {"id": "sport/2018/dec/29/the-joy-of-six-unsung-sporting-heroes-2018", "type": "article", "sectionId": "sport", "sectionName": "Sport", "webPublicationDate": "2018-12-29T09:57:00Z", "webTitle": "The Joy of Six: unsung sporting heroes of 2018", "webUrl": "https://www.theguardian.com/sport/2018/dec/29/the-joy-of-six-unsung-sporting-heroes-2018", "apiUrl": "https://content.guardianapis.com/sport/2018/dec/29/the-joy-of-six-unsung-sporting-heroes-2018", "isHosted": false, "pillarId": "pillar/sport", "pillarName": "Sport"}, {"id": "football/2018/dec/29/manchester-united-bournemouth-match-preview", "type": "article", "sectionId": "football", "sectionName": "Football", "webPublicationDate": "2018-12-29T09:00:15Z", "webTitle": "Manchester United v Bournemouth: match preview", "webUrl": "https://www.theguardian.com/football/2018/dec/29/manchester-united-bournemouth-match-preview", "apiUrl": "https://content.guardianapis.com/football/2018/dec/29/manchester-united-bournemouth-match-preview", "isHosted": false, "pillarId": "pillar/sport", "pillarName": "Sport"}, {"id": "football/2018/dec/29/crystal-palace-chelsea-match-preview", "type": "article", "sectionId": "football", "sectionName": "Football", "webPublicationDate": "2018-12-29T09:00:15Z", "webTitle": "Crystal Palace v Chelsea: match preview", "webUrl": "https://www.theguardian.com/football/2018/dec/29/crystal-palace-chelsea-match-preview", "apiUrl": "https://content.guardianapis.com/football/2018/dec/29/crystal-palace-chelsea-match-preview", "isHosted": false, "pillarId": "pillar/sport", "pillarName": "Sport"}, {"id": "football/2018/dec/29/southampton-manchester-city-match-preview", "type": "article", "sectionId": "football", "sectionName": "Football", "webPublicationDate": "2018-12-29T09:00:14Z", "webTitle": "Southampton v Manchester City: match preview", "webUrl": "https://www.theguardian.com/football/2018/dec/29/southampton-manchester-city-match-preview", "apiUrl": "https://content.guardianapis.com/football/2018/dec/29/southampton-manchester-city-match-preview", "isHosted": false, "pillarId": "pillar/sport", "pillarName": "Sport"}, {"id": "football/2018/dec/29/burnley-west-ham-match-preview", "type": "article", "sectionId": "football", "sectionName": "Football", "webPublicationDate": "2018-12-29T08:59:14Z", "webTitle": "Burnley v West Ham: match preview", "webUrl": "https://www.theguardian.com/football/2018/dec/29/burnley-west-ham-match-preview", "apiUrl": "https://content.guardianapis.com/football/2018/dec/29/burnley-west-ham-match-preview", "isHosted": false, "pillarId": "pillar/sport", "pillarName": "Sport"}, {"id": "football/2018/dec/28/crystal-palace-liverpool-dominic-solanke-loan", "type": "article", "sectionId": "football", "sectionName": "Football", "webPublicationDate": "2018-12-28T22:30:06Z", "webTitle": "Dominic Solanke set to opt for Crystal Palace ahead of Brighton in loan move", "webUrl": "https://www.theguardian.com/football/2018/dec/28/crystal-palace-liverpool-dominic-solanke-loan", "apiUrl": "https://content.guardianapis.com/football/2018/dec/28/crystal-palace-liverpool-dominic-solanke-loan", "isHosted": false, "pillarId": "pillar/sport", "pillarName": "Sport"}, {"id": "football/2018/dec/28/old-firm-derby-steven-gerrard-rangers-celtic", "type": "article", "sectionId": "football", "sectionName": "Football", "webPublicationDate": "2018-12-28T22:30:06Z", "webTitle": "Old Firm derby: Steven Gerrard urges Rangers to go for one last push", "webUrl": "https://www.theguardian.com/football/2018/dec/28/old-firm-derby-steven-gerrard-rangers-celtic", "apiUrl": "https://content.guardianapis.com/football/2018/dec/28/old-firm-derby-steven-gerrard-rangers-celtic", "isHosted": false, "pillarId": "pillar/sport", "pillarName": "Sport"}, {"id": "football/2018/dec/28/everton-marco-silva-striker-richarlison-transfer-window", "type": "article", "sectionId": "football", "sectionName": "Football", "webPublicationDate": "2018-12-28T22:30:06Z", "webTitle": "Marco Silva says he is tired of being told he must buy a striker for Everton", "webUrl": "https://www.theguardian.com/football/2018/dec/28/everton-marco-silva-striker-richarlison-transfer-window", "apiUrl": "https://content.guardianapis.com/football/2018/dec/28/everton-marco-silva-striker-richarlison-transfer-window", "isHosted": false, "pillarId": "pillar/sport", "pillarName": "Sport"}, {"id": "sport/2018/dec/28/19-for-19-unmissable-sporting-events-to-mark-in-your-diary", "type": "article", "sectionId": "sport", "sectionName": "Sport", "webPublicationDate": "2018-12-28T18:22:09Z", "webTitle": "19 for '19: unmissable sporting events to mark in your diary", "webUrl": "https://www.theguardian.com/sport/2018/dec/28/19-for-19-unmissable-sporting-events-to-mark-in-your-diary", "apiUrl": "https://content.guardianapis.com/sport/2018/dec/28/19-for-19-unmissable-sporting-events-to-mark-in-your-diary", "isHosted": false, "pillarId": "pillar/sport", "pillarName": "Sport"}, {"id": "football/blog/2018/dec/28/pierre-emerick-aubamayeng", "type": "article", "sectionId": "football", "sectionName": "Football", "webPublicationDate": "2018-12-28T18:02:38Z", "webTitle": "Pierre-Emerick Aubameyang: The gloss-finished striker we hardly notice | Barney Ronay", "webUrl": "https://www.theguardian.com/football/blog/2018/dec/28/pierre-emerick-aubamayeng", "apiUrl": "https://content.guardianapis.com/football/blog/2018/dec/28/pierre-emerick-aubamayeng", "isHosted": false, "pillarId": "pillar/sport", "pillarName": "Sport"}, {"id": "football/live/2018/dec/28/weekend-football-countdown-arsenal-v-liverpool-solskjr-and-more-live", "type": "liveblog", "sectionId": "football", "sectionName": "Football", "webPublicationDate": "2018-12-28T17:59:38Z", "webTitle": "Weekend football countdown: Liverpool v Arsenal, Solskj\u00e6r and more \u2013 as it happened", "webUrl": "https://www.theguardian.com/football/live/2018/dec/28/weekend-football-countdown-arsenal-v-liverpool-solskjr-and-more-live", "apiUrl": "https://content.guardianapis.com/football/live/2018/dec/28/weekend-football-countdown-arsenal-v-liverpool-solskjr-and-more-live", "isHosted": false, "pillarId": "pillar/sport", "pillarName": "Sport"}, {"id": "football/2018/dec/28/watford-newcastle-match-preview", "type": "article", "sectionId": "football", "sectionName": "Football", "webPublicationDate": "2018-12-28T17:22:29Z", "webTitle": "Watford v Newcastle: match preview", "webUrl": "https://www.theguardian.com/football/2018/dec/28/watford-newcastle-match-preview", "apiUrl": "https://content.guardianapis.com/football/2018/dec/28/watford-newcastle-match-preview", "isHosted": false, "pillarId": "pillar/sport", "pillarName": "Sport"}, {"id": "football/2018/dec/28/rafael-benitez-newcastle-jonjo-shelvey-not-for-sale", "type": "article", "sectionId": "football", "sectionName": "Football", "webPublicationDate": "2018-12-28T17:10:00Z", "webTitle": "Rafael Ben\u00edtez: no chance of Newcastle selling Jonjo Shelvey in January", "webUrl": "https://www.theguardian.com/football/2018/dec/28/rafael-benitez-newcastle-jonjo-shelvey-not-for-sale", "apiUrl": "https://content.guardianapis.com/football/2018/dec/28/rafael-benitez-newcastle-jonjo-shelvey-not-for-sale", "isHosted": false, "pillarId": "pillar/sport", "pillarName": "Sport"}, {"id": "football/2018/dec/28/liverpool-arsenal-match-preview", "type": "article", "sectionId": "football", "sectionName": "Football", "webPublicationDate": "2018-12-28T16:13:21Z", "webTitle": "Liverpool v Arsenal: match preview", "webUrl": "https://www.theguardian.com/football/2018/dec/28/liverpool-arsenal-match-preview", "apiUrl": "https://content.guardianapis.com/football/2018/dec/28/liverpool-arsenal-match-preview", "isHosted": false, "pillarId": "pillar/sport", "pillarName": "Sport"}, {"id": "football/2018/dec/28/jurgen-klopp-liverpool-arsenal-oxlade-chamberlain", "type": "article", "sectionId": "football", "sectionName": "Football", "webPublicationDate": "2018-12-28T16:13:20Z", "webTitle": "Liverpool\u2019s J\u00fcrgen Klopp: you have not seen the best of us yet", "webUrl": "https://www.theguardian.com/football/2018/dec/28/jurgen-klopp-liverpool-arsenal-oxlade-chamberlain", "apiUrl": "https://content.guardianapis.com/football/2018/dec/28/jurgen-klopp-liverpool-arsenal-oxlade-chamberlain", "isHosted": false, "pillarId": "pillar/sport", "pillarName": "Sport"}]}}