{"response": {"status": "ok", "userTier": "developer", "total": 19635, "startIndex": 1, "pageSize": 50, "currentPage": 1, "pages": 393, "orderBy": "newest", "results": [{"id": "business/2013/dec/30/prosecco-champagne-sparkling-tesco-italian-wine", "type": "article", "sectionId": "business", "sectionName": "Business", "webPublicationDate": "2013-12-30T18:30:34Z", "webTitle": "Prosecco topples champagne as top sparkling tipple", "webUrl": "https://www.theguardian.com/business/2013/dec/30/prosecco-champagne-sparkling-tesco-italian-wine", "apiUrl": "https://content.guardianapis.com/business/2013/dec/30/prosecco-champagne-sparkling-tesco-italian-wine", "isHosted": false, "pillarId": "pillar/news", "pillarName": "News"}, {"id": "lifeandstyle/video/2013/dec/30/jack-monroes-festive-feast-recipe-lebanese-video", "type": "video", "sectionId": "lifeandstyle", "sectionName": "Life and style", "webPublicationDate": "2013-12-30T15:27:00Z", "webTitle": "Jack Monroe's festive feast inspired by the Middle East - video", "webUrl": "https://www.theguardian.com/lifeandstyle/video/2013/dec/30/jack-monroes-festive-feast-recipe-lebanese-video", "apiUrl": "https://content.guardianapis.com/lifeandstyle/video/2013/dec/30/jack-monroes-festive-feast-recipe-lebanese-video", "isHosted": false, "pillarId": "pillar/lifestyle", "pillarName": "Lifestyle"}, {"id": "tv-and-radio/tvandradioblog/2013/dec/30/my-day-with-nigella-lawson-the-taste", "type": "article", "sectionId": "tv-and-radio", "sectionName": "Television & radio", "webPublicationDate": "2013-12-30T10:00:00Z", "webTitle": "My day with Nigella Lawson", "webUrl": "https://www.theguardian.com/tv-and-radio/tvandradioblog/2013/dec/30/my-day-with-nigella-lawson-the-taste", "apiUrl": "https://content.guardianapis.com/tv-and-radio/tvandradioblog/2013/dec/30/my-day-with-nigella-lawson-the-taste", "isHosted": false, "pillarId": "pillar/arts", "pillarName": "Arts"}, {"id": "lifeandstyle/2013/dec/30/why-cinnamon-is-good-for-you", "type": "article", "sectionId": "lifeandstyle", "sectionName": "Life and style", "webPublicationDate": "2013-12-30T07:00:00Z", "webTitle": "Why cinnamon is good for you", "webUrl": "https://www.theguardian.com/lifeandstyle/2013/dec/30/why-cinnamon-is-good-for-you", "apiUrl": "https://content.guardianapis.com/lifeandstyle/2013/dec/30/why-cinnamon-is-good-for-you", "isHosted": false, "pillarId": "pillar/lifestyle", "pillarName": "Lifestyle"}, {"id": "world/2013/dec/30/japan-new-year-mochi-death-technology", "type": "article", "sectionId": "world", "sectionName": "World news", "webPublicationDate": "2013-12-30T04:59:14Z", "webTitle": "Japan confronts mochi rice-cake death-trap with technological solution", "webUrl": "https://www.theguardian.com/world/2013/dec/30/japan-new-year-mochi-death-technology", "apiUrl": "https://content.guardianapis.com/world/2013/dec/30/japan-new-year-mochi-death-technology", "isHosted": false, "pillarId": "pillar/news", "pillarName": "News"}, {"id": "commentisfree/2013/dec/29/in-praise-of-christmas-leftovers", "type": "article", "sectionId": "commentisfree", "sectionName": "Opinion", "webPublicationDate": "2013-12-29T22:57:47Z", "webTitle": "In praise of \u2026 Christmas leftovers | Editorial", "webUrl": "https://www.theguardian.com/commentisfree/2013/dec/29/in-praise-of-christmas-leftovers", "apiUrl": "https://content.guardianapis.com/commentisfree/2013/dec/29/in-praise-of-christmas-leftovers", "isHosted": false, "pillarId": "pillar/opinion", "pillarName": "Opinion"}, {"id": "lifeandstyle/2013/dec/29/foxlow-restaurant-review-jay-rayner-hawksmoor", "type": "article", "sectionId": "food", "sectionName": "Food", "webPublicationDate": "2013-12-29T07:29:00Z", "webTitle": "Foxlow: restaurant review | Jay Rayner", "webUrl": "https://www.theguardian.com/lifeandstyle/2013/dec/29/foxlow-restaurant-review-jay-rayner-hawksmoor", "apiUrl": "https://content.guardianapis.com/lifeandstyle/2013/dec/29/foxlow-restaurant-review-jay-rayner-hawksmoor", "isHosted": false, "pillarId": "pillar/lifestyle", "pillarName": "Lifestyle"}, {"id": "world/2013/dec/29/2013-eyewitness-accounts-horsemeat-scandal-erupts", "type": "article", "sectionId": "world", "sectionName": "World news", "webPublicationDate": "2013-12-29T00:05:23Z", "webTitle": "The horsemeat scandal erupts", "webUrl": "https://www.theguardian.com/world/2013/dec/29/2013-eyewitness-accounts-horsemeat-scandal-erupts", "apiUrl": "https://content.guardianapis.com/world/2013/dec/29/2013-eyewitness-accounts-horsemeat-scandal-erupts", "isHosted": false, "pillarId": "pillar/news", "pillarName": "News"}, {"id": "lifeandstyle/2013/dec/28/sparkling-wines-for-new-years-eve", "type": "article", "sectionId": "food", "sectionName": "Food", "webPublicationDate": "2013-12-28T13:00:00Z", "webTitle": "Three great sparkling wines for New Year's Eve | David Williams", "webUrl": "https://www.theguardian.com/lifeandstyle/2013/dec/28/sparkling-wines-for-new-years-eve", "apiUrl": "https://content.guardianapis.com/lifeandstyle/2013/dec/28/sparkling-wines-for-new-years-eve", "isHosted": false, "pillarId": "pillar/lifestyle", "pillarName": "Lifestyle"}, {"id": "culture/2013/dec/28/what-we-liked-2013-food-chains", "type": "article", "sectionId": "culture", "sectionName": "Culture", "webPublicationDate": "2013-12-28T09:01:00Z", "webTitle": "What we liked in 2013: food chains", "webUrl": "https://www.theguardian.com/culture/2013/dec/28/what-we-liked-2013-food-chains", "apiUrl": "https://content.guardianapis.com/culture/2013/dec/28/what-we-liked-2013-food-chains", "isHosted": false, "pillarId": "pillar/arts", "pillarName": "Arts"}, {"id": "lifeandstyle/2013/dec/28/merchants-tavern-london-restaurant-review", "type": "article", "sectionId": "lifeandstyle", "sectionName": "Life and style", "webPublicationDate": "2013-12-28T09:00:04Z", "webTitle": "Restaurant review: Merchants Tavern, London EC2", "webUrl": "https://www.theguardian.com/lifeandstyle/2013/dec/28/merchants-tavern-london-restaurant-review", "apiUrl": "https://content.guardianapis.com/lifeandstyle/2013/dec/28/merchants-tavern-london-restaurant-review", "isHosted": false, "pillarId": "pillar/lifestyle", "pillarName": "Lifestyle"}, {"id": "lifeandstyle/2013/dec/28/wine-new-for-2014", "type": "article", "sectionId": "food", "sectionName": "Food", "webPublicationDate": "2013-12-28T09:00:00Z", "webTitle": "Wine: what's new for 2014?", "webUrl": "https://www.theguardian.com/lifeandstyle/2013/dec/28/wine-new-for-2014", "apiUrl": "https://content.guardianapis.com/lifeandstyle/2013/dec/28/wine-new-for-2014", "isHosted": false, "pillarId": "pillar/lifestyle", "pillarName": "Lifestyle"}, {"id": "lifeandstyle/2013/dec/28/irish-nun-lima-puff-magic-dragon", "type": "article", "sectionId": "lifeandstyle", "sectionName": "Life and style", "webPublicationDate": "2013-12-28T08:00:13Z", "webTitle": "Family Life: An Irish nun's death in Lima, Peter, Paul and Mary's Puff the Magic Dragon and Mum's winter beetroot dish", "webUrl": "https://www.theguardian.com/lifeandstyle/2013/dec/28/irish-nun-lima-puff-magic-dragon", "apiUrl": "https://content.guardianapis.com/lifeandstyle/2013/dec/28/irish-nun-lima-puff-magic-dragon", "isHosted": false, "pillarId": "pillar/lifestyle", "pillarName": "Lifestyle"}, {"id": "lifeandstyle/2013/dec/28/cornish-chef-beach-barbecue-get-togethers", "type": "article", "sectionId": "lifeandstyle", "sectionName": "Life and style", "webPublicationDate": "2013-12-28T07:00:00Z", "webTitle": "A Cornish coastal cook-up | Get-togethers", "webUrl": "https://www.theguardian.com/lifeandstyle/2013/dec/28/cornish-chef-beach-barbecue-get-togethers", "apiUrl": "https://content.guardianapis.com/lifeandstyle/2013/dec/28/cornish-chef-beach-barbecue-get-togethers", "isHosted": false, "pillarId": "pillar/lifestyle", "pillarName": "Lifestyle"}, {"id": "lifeandstyle/2013/dec/28/hangover-cures-recipe-swap", "type": "article", "sectionId": "lifeandstyle", "sectionName": "Life and style", "webPublicationDate": "2013-12-28T07:00:00Z", "webTitle": "Hangover cure recipes | Felicity Cloake", "webUrl": "https://www.theguardian.com/lifeandstyle/2013/dec/28/hangover-cures-recipe-swap", "apiUrl": "https://content.guardianapis.com/lifeandstyle/2013/dec/28/hangover-cures-recipe-swap", "isHosted": false, "pillarId": "pillar/lifestyle", "pillarName": "Lifestyle"}, {"id": "lifeandstyle/2013/dec/28/christmas-leftover-recipes-10-best", "type": "article", "sectionId": "lifeandstyle", "sectionName": "Life and style", "webPublicationDate": "2013-12-28T07:00:00Z", "webTitle": "The 10 best Christmas leftovers recipes", "webUrl": "https://www.theguardian.com/lifeandstyle/2013/dec/28/christmas-leftover-recipes-10-best", "apiUrl": "https://content.guardianapis.com/lifeandstyle/2013/dec/28/christmas-leftover-recipes-10-best", "isHosted": false, "pillarId": "pillar/lifestyle", "pillarName": "Lifestyle"}, {"id": "lifeandstyle/2013/dec/28/ruby-tandoh-rosemary-pecan-pie-farinata-recipe", "type": "article", "sectionId": "lifeandstyle", "sectionName": "Life and style", "webPublicationDate": "2013-12-28T07:00:00Z", "webTitle": "Ruby Tandoh's rosemary pecan pie and farinata recipes | Ruby bakes", "webUrl": "https://www.theguardian.com/lifeandstyle/2013/dec/28/ruby-tandoh-rosemary-pecan-pie-farinata-recipe", "apiUrl": "https://content.guardianapis.com/lifeandstyle/2013/dec/28/ruby-tandoh-rosemary-pecan-pie-farinata-recipe", "isHosted": false, "pillarId": "pillar/lifestyle", "pillarName": "Lifestyle"}, {"id": "lifeandstyle/2013/dec/28/lancashire-cheese-dewlay-meet-the-producer", "type": "article", "sectionId": "lifeandstyle", "sectionName": "Life and style", "webPublicationDate": "2013-12-28T07:00:00Z", "webTitle": "Meet the cheese producer: 'We want every piece to be sold in peak condition'", "webUrl": "https://www.theguardian.com/lifeandstyle/2013/dec/28/lancashire-cheese-dewlay-meet-the-producer", "apiUrl": "https://content.guardianapis.com/lifeandstyle/2013/dec/28/lancashire-cheese-dewlay-meet-the-producer", "isHosted": false, "pillarId": "pillar/lifestyle", "pillarName": "Lifestyle"}, {"id": "lifeandstyle/2013/dec/28/make-your-own-fernet-branca-hangover-cure", "type": "article", "sectionId": "lifeandstyle", "sectionName": "Life and style", "webPublicationDate": "2013-12-28T07:00:00Z", "webTitle": "Make your own Fernet Branca hangover cure | Drinks", "webUrl": "https://www.theguardian.com/lifeandstyle/2013/dec/28/make-your-own-fernet-branca-hangover-cure", "apiUrl": "https://content.guardianapis.com/lifeandstyle/2013/dec/28/make-your-own-fernet-branca-hangover-cure", "isHosted": false, "pillarId": "pillar/lifestyle", "pillarName": "Lifestyle"}, {"id": "travel/2013/dec/27/faroe-islands-food-frontier-denmark", "type": "article", "sectionId": "travel", "sectionName": "Travel", "webPublicationDate": "2013-12-27T21:00:00Z", "webTitle": "Faroe Islands: the new Nordic food frontier", "webUrl": "https://www.theguardian.com/travel/2013/dec/27/faroe-islands-food-frontier-denmark", "apiUrl": "https://content.guardianapis.com/travel/2013/dec/27/faroe-islands-food-frontier-denmark", "isHosted": false, "pillarId": "pillar/lifestyle", "pillarName": "Lifestyle"}, {"id": "lifeandstyle/2013/dec/27/egg-free-vegetable-rosti-damson-chutney-recipe", "type": "article", "sectionId": "lifeandstyle", "sectionName": "Life and style", "webPublicationDate": "2013-12-27T12:30:00Z", "webTitle": "Egg-free root vegetable rosti with damson chutney | Just as tasty", "webUrl": "https://www.theguardian.com/lifeandstyle/2013/dec/27/egg-free-vegetable-rosti-damson-chutney-recipe", "apiUrl": "https://content.guardianapis.com/lifeandstyle/2013/dec/27/egg-free-vegetable-rosti-damson-chutney-recipe", "isHosted": false, "pillarId": "pillar/lifestyle", "pillarName": "Lifestyle"}, {"id": "commentisfree/2013/dec/26/diet-fail-quietly-self-improvement-cold-turkey", "type": "article", "sectionId": "commentisfree", "sectionName": "Opinion", "webPublicationDate": "2013-12-26T18:30:00Z", "webTitle": "If you're going to diet, fail quietly  | Rhiannon Lucy Cosslett", "webUrl": "https://www.theguardian.com/commentisfree/2013/dec/26/diet-fail-quietly-self-improvement-cold-turkey", "apiUrl": "https://content.guardianapis.com/commentisfree/2013/dec/26/diet-fail-quietly-self-improvement-cold-turkey", "isHosted": false, "pillarId": "pillar/opinion", "pillarName": "Opinion"}, {"id": "lifeandstyle/wordofmouth/2013/dec/26/christmas-leftovers-recipe-ideas-turkey-curry", "type": "article", "sectionId": "food", "sectionName": "Food", "webPublicationDate": "2013-12-26T08:00:00Z", "webTitle": "Christmas leftovers: recipe ideas from chefs and food writers", "webUrl": "https://www.theguardian.com/lifeandstyle/wordofmouth/2013/dec/26/christmas-leftovers-recipe-ideas-turkey-curry", "apiUrl": "https://content.guardianapis.com/lifeandstyle/wordofmouth/2013/dec/26/christmas-leftovers-recipe-ideas-turkey-curry", "isHosted": false, "pillarId": "pillar/lifestyle", "pillarName": "Lifestyle"}, {"id": "lifeandstyle/2013/dec/25/leftover-christmas-pudding-recipe", "type": "article", "sectionId": "lifeandstyle", "sectionName": "Life and style", "webPublicationDate": "2013-12-25T07:59:00Z", "webTitle": "Leftover Christmas pudding recipe", "webUrl": "https://www.theguardian.com/lifeandstyle/2013/dec/25/leftover-christmas-pudding-recipe", "apiUrl": "https://content.guardianapis.com/lifeandstyle/2013/dec/25/leftover-christmas-pudding-recipe", "isHosted": false, "pillarId": "pillar/lifestyle", "pillarName": "Lifestyle"}, {"id": "commentisfree/2013/dec/24/panettone-festive-delicacy-italian-monstrosity", "type": "article", "sectionId": "commentisfree", "sectionName": "Opinion", "webPublicationDate": "2013-12-24T14:00:00Z", "webTitle": "Save us from panettone \u2013 the festive delicacy nobody likes | Julie Bindel", "webUrl": "https://www.theguardian.com/commentisfree/2013/dec/24/panettone-festive-delicacy-italian-monstrosity", "apiUrl": "https://content.guardianapis.com/commentisfree/2013/dec/24/panettone-festive-delicacy-italian-monstrosity", "isHosted": false, "pillarId": "pillar/opinion", "pillarName": "Opinion"}, {"id": "lifeandstyle/2013/dec/24/christmas-family-dinners-change-over-years", "type": "article", "sectionId": "food", "sectionName": "Food", "webPublicationDate": "2013-12-24T09:15:00Z", "webTitle": "How family Christmas dinners have changed over the years", "webUrl": "https://www.theguardian.com/lifeandstyle/2013/dec/24/christmas-family-dinners-change-over-years", "apiUrl": "https://content.guardianapis.com/lifeandstyle/2013/dec/24/christmas-family-dinners-change-over-years", "isHosted": false, "pillarId": "pillar/lifestyle", "pillarName": "Lifestyle"}, {"id": "commentisfree/2013/dec/24/christmas-at-the-cakehole-memories-bakers-shop-greggs", "type": "article", "sectionId": "commentisfree", "sectionName": "Opinion", "webPublicationDate": "2013-12-24T06:00:00Z", "webTitle": "Christmas at the cakehole | Lynsey Hanley", "webUrl": "https://www.theguardian.com/commentisfree/2013/dec/24/christmas-at-the-cakehole-memories-bakers-shop-greggs", "apiUrl": "https://content.guardianapis.com/commentisfree/2013/dec/24/christmas-at-the-cakehole-memories-bakers-shop-greggs", "isHosted": false, "pillarId": "pillar/opinion", "pillarName": "Opinion"}, {"id": "lifeandstyle/video/2013/dec/23/money-spent-christmas-video", "type": "video", "sectionId": "lifeandstyle", "sectionName": "Life and style", "webPublicationDate": "2013-12-23T15:07:00Z", "webTitle": "How much money is spent over Christmas - video", "webUrl": "https://www.theguardian.com/lifeandstyle/video/2013/dec/23/money-spent-christmas-video", "apiUrl": "https://content.guardianapis.com/lifeandstyle/video/2013/dec/23/money-spent-christmas-video", "isHosted": false, "pillarId": "pillar/lifestyle", "pillarName": "Lifestyle"}, {"id": "travel/2013/dec/23/chocolate-tour-of-london", "type": "article", "sectionId": "travel", "sectionName": "Travel", "webPublicationDate": "2013-12-23T13:48:57Z", "webTitle": "A chocolate tour of London: a taste of the past", "webUrl": "https://www.theguardian.com/travel/2013/dec/23/chocolate-tour-of-london", "apiUrl": "https://content.guardianapis.com/travel/2013/dec/23/chocolate-tour-of-london", "isHosted": false, "pillarId": "pillar/lifestyle", "pillarName": "Lifestyle"}, {"id": "lifeandstyle/wordofmouth/2013/dec/23/christmas-eve-food-traditions", "type": "article", "sectionId": "lifeandstyle", "sectionName": "Life and style", "webPublicationDate": "2013-12-23T11:49:00Z", "webTitle": "Festive food: what do you eat on Christmas Eve?", "webUrl": "https://www.theguardian.com/lifeandstyle/wordofmouth/2013/dec/23/christmas-eve-food-traditions", "apiUrl": "https://content.guardianapis.com/lifeandstyle/wordofmouth/2013/dec/23/christmas-eve-food-traditions", "isHosted": false, "pillarId": "pillar/lifestyle", "pillarName": "Lifestyle"}, {"id": "global-development/2013/dec/23/healthy-eating-food", "type": "article", "sectionId": "global-development", "sectionName": "Global development", "webPublicationDate": "2013-12-23T10:23:00Z", "webTitle": "Healthy eating: nutritious indigenous foods you may never have heard of", "webUrl": "https://www.theguardian.com/global-development/2013/dec/23/healthy-eating-food", "apiUrl": "https://content.guardianapis.com/global-development/2013/dec/23/healthy-eating-food", "isHosted": false, "pillarId": "pillar/news", "pillarName": "News"}, {"id": "lifeandstyle/2013/dec/23/why-raw-honey-is-good-for-you", "type": "article", "sectionId": "lifeandstyle", "sectionName": "Life and style", "webPublicationDate": "2013-12-23T07:00:00Z", "webTitle": "Why raw honey is good for you", "webUrl": "https://www.theguardian.com/lifeandstyle/2013/dec/23/why-raw-honey-is-good-for-you", "apiUrl": "https://content.guardianapis.com/lifeandstyle/2013/dec/23/why-raw-honey-is-good-for-you", "isHosted": false, "pillarId": "pillar/lifestyle", "pillarName": "Lifestyle"}, {"id": "lifeandstyle/australia-food-blog/2013/dec/23/what-are-you-cooking-for-christmas-this-summer-open-thread", "type": "article", "sectionId": "lifeandstyle", "sectionName": "Life and style", "webPublicationDate": "2013-12-23T01:01:30Z", "webTitle": "What are you cooking for Christmas this summer? Open thread", "webUrl": "https://www.theguardian.com/lifeandstyle/australia-food-blog/2013/dec/23/what-are-you-cooking-for-christmas-this-summer-open-thread", "apiUrl": "https://content.guardianapis.com/lifeandstyle/australia-food-blog/2013/dec/23/what-are-you-cooking-for-christmas-this-summer-open-thread", "isHosted": false, "pillarId": "pillar/lifestyle", "pillarName": "Lifestyle"}, {"id": "lifeandstyle/2013/dec/22/keepers-house-restaurant-review-jay-rayner", "type": "article", "sectionId": "food", "sectionName": "Food", "webPublicationDate": "2013-12-22T07:30:04Z", "webTitle": "The Keeper's House: restaurant review", "webUrl": "https://www.theguardian.com/lifeandstyle/2013/dec/22/keepers-house-restaurant-review-jay-rayner", "apiUrl": "https://content.guardianapis.com/lifeandstyle/2013/dec/22/keepers-house-restaurant-review-jay-rayner", "isHosted": false, "pillarId": "pillar/lifestyle", "pillarName": "Lifestyle"}, {"id": "travel/gallery/2013/dec/22/christmas-walks", "type": "gallery", "sectionId": "travel", "sectionName": "Travel", "webPublicationDate": "2013-12-22T00:04:00Z", "webTitle": "The great Christmas walk - in pictures", "webUrl": "https://www.theguardian.com/travel/gallery/2013/dec/22/christmas-walks", "apiUrl": "https://content.guardianapis.com/travel/gallery/2013/dec/22/christmas-walks", "isHosted": false, "pillarId": "pillar/lifestyle", "pillarName": "Lifestyle"}, {"id": "lifeandstyle/australia-food-blog/2013/dec/22/australian-christmas-feasts-guy-grossi", "type": "article", "sectionId": "lifeandstyle", "sectionName": "Life and style", "webPublicationDate": "2013-12-21T23:08:30Z", "webTitle": "Australian Christmas feasts: Guy Grossi\u2019s Christmas", "webUrl": "https://www.theguardian.com/lifeandstyle/australia-food-blog/2013/dec/22/australian-christmas-feasts-guy-grossi", "apiUrl": "https://content.guardianapis.com/lifeandstyle/australia-food-blog/2013/dec/22/australian-christmas-feasts-guy-grossi", "isHosted": false, "pillarId": "pillar/lifestyle", "pillarName": "Lifestyle"}, {"id": "lifeandstyle/2013/dec/21/last-minute-christmas-wines-supermarkets", "type": "article", "sectionId": "food", "sectionName": "Food", "webPublicationDate": "2013-12-21T13:00:00Z", "webTitle": "Last-minute supermarket Christmas wine choices | David Williams", "webUrl": "https://www.theguardian.com/lifeandstyle/2013/dec/21/last-minute-christmas-wines-supermarkets", "apiUrl": "https://content.guardianapis.com/lifeandstyle/2013/dec/21/last-minute-christmas-wines-supermarkets", "isHosted": false, "pillarId": "pillar/lifestyle", "pillarName": "Lifestyle"}, {"id": "lifeandstyle/2013/dec/21/rex-whistler-tate-restaurant-review", "type": "article", "sectionId": "lifeandstyle", "sectionName": "Life and style", "webPublicationDate": "2013-12-21T09:01:26Z", "webTitle": "Restaurant: Rex Whistler Restaurant, London SW1", "webUrl": "https://www.theguardian.com/lifeandstyle/2013/dec/21/rex-whistler-tate-restaurant-review", "apiUrl": "https://content.guardianapis.com/lifeandstyle/2013/dec/21/rex-whistler-tate-restaurant-review", "isHosted": false, "pillarId": "pillar/lifestyle", "pillarName": "Lifestyle"}, {"id": "lifeandstyle/2013/dec/21/drink-wine-beer-christmas-fiona-beckett", "type": "article", "sectionId": "food", "sectionName": "Food", "webPublicationDate": "2013-12-21T09:00:00Z", "webTitle": "Drink: Christmas is here, but don't panic", "webUrl": "https://www.theguardian.com/lifeandstyle/2013/dec/21/drink-wine-beer-christmas-fiona-beckett", "apiUrl": "https://content.guardianapis.com/lifeandstyle/2013/dec/21/drink-wine-beer-christmas-fiona-beckett", "isHosted": false, "pillarId": "pillar/lifestyle", "pillarName": "Lifestyle"}, {"id": "lifeandstyle/2013/dec/21/christmas-1945-coat-many-colours-walnut-cheese-cake", "type": "article", "sectionId": "lifeandstyle", "sectionName": "Life and style", "webPublicationDate": "2013-12-21T07:30:06Z", "webTitle": "Family life: Christmas, 1945, A Coat of Many Colours and Auntie's walnut cheese cake", "webUrl": "https://www.theguardian.com/lifeandstyle/2013/dec/21/christmas-1945-coat-many-colours-walnut-cheese-cake", "apiUrl": "https://content.guardianapis.com/lifeandstyle/2013/dec/21/christmas-1945-coat-many-colours-walnut-cheese-cake", "isHosted": false, "pillarId": "pillar/lifestyle", "pillarName": "Lifestyle"}, {"id": "lifeandstyle/2013/dec/21/healthy-christmas-recipes-readers-recipe-swap", "type": "article", "sectionId": "lifeandstyle", "sectionName": "Life and style", "webPublicationDate": "2013-12-21T07:00:00Z", "webTitle": "Readers' recipe swap \u2013 healthy Christmas | Felicity Cloake", "webUrl": "https://www.theguardian.com/lifeandstyle/2013/dec/21/healthy-christmas-recipes-readers-recipe-swap", "apiUrl": "https://content.guardianapis.com/lifeandstyle/2013/dec/21/healthy-christmas-recipes-readers-recipe-swap", "isHosted": false, "pillarId": "pillar/lifestyle", "pillarName": "Lifestyle"}, {"id": "lifeandstyle/2013/dec/21/meet-the-blackcurrant-producer-cassis", "type": "article", "sectionId": "food", "sectionName": "Food", "webPublicationDate": "2013-12-21T07:00:00Z", "webTitle": "Meet the cassis producer: 'We used to have 1,000 pickers at a time' | Meet the producer", "webUrl": "https://www.theguardian.com/lifeandstyle/2013/dec/21/meet-the-blackcurrant-producer-cassis", "apiUrl": "https://content.guardianapis.com/lifeandstyle/2013/dec/21/meet-the-blackcurrant-producer-cassis", "isHosted": false, "pillarId": "pillar/lifestyle", "pillarName": "Lifestyle"}, {"id": "lifeandstyle/2013/dec/21/quick-and-easy-christmas-recipes-10-best", "type": "article", "sectionId": "lifeandstyle", "sectionName": "Life and style", "webPublicationDate": "2013-12-21T07:00:00Z", "webTitle": "The 10 best quick and easy Christmas recipes", "webUrl": "https://www.theguardian.com/lifeandstyle/2013/dec/21/quick-and-easy-christmas-recipes-10-best", "apiUrl": "https://content.guardianapis.com/lifeandstyle/2013/dec/21/quick-and-easy-christmas-recipes-10-best", "isHosted": false, "pillarId": "pillar/lifestyle", "pillarName": "Lifestyle"}, {"id": "lifeandstyle/2013/dec/21/family-christmas-brunch-get-togethers-bath-buns-recipe", "type": "article", "sectionId": "lifeandstyle", "sectionName": "Life and style", "webPublicationDate": "2013-12-21T06:59:00Z", "webTitle": "A festive Christmas brunch | Get-togethers", "webUrl": "https://www.theguardian.com/lifeandstyle/2013/dec/21/family-christmas-brunch-get-togethers-bath-buns-recipe", "apiUrl": "https://content.guardianapis.com/lifeandstyle/2013/dec/21/family-christmas-brunch-get-togethers-bath-buns-recipe", "isHosted": false, "pillarId": "pillar/lifestyle", "pillarName": "Lifestyle"}, {"id": "lifeandstyle/2013/dec/21/make-your-own-advocaat-christmas-recipe", "type": "article", "sectionId": "lifeandstyle", "sectionName": "Life and style", "webPublicationDate": "2013-12-21T06:59:00Z", "webTitle": "Make your own advocaat this Christmas", "webUrl": "https://www.theguardian.com/lifeandstyle/2013/dec/21/make-your-own-advocaat-christmas-recipe", "apiUrl": "https://content.guardianapis.com/lifeandstyle/2013/dec/21/make-your-own-advocaat-christmas-recipe", "isHosted": false, "pillarId": "pillar/lifestyle", "pillarName": "Lifestyle"}, {"id": "world/2013/dec/20/cinnamon-intake-food-argument-denmark", "type": "article", "sectionId": "world", "sectionName": "World news", "webPublicationDate": "2013-12-20T15:15:30Z", "webTitle": "Cinnamon sparks spicy debate between Danish bakers and food authorities", "webUrl": "https://www.theguardian.com/world/2013/dec/20/cinnamon-intake-food-argument-denmark", "apiUrl": "https://content.guardianapis.com/world/2013/dec/20/cinnamon-intake-food-argument-denmark", "isHosted": false, "pillarId": "pillar/news", "pillarName": "News"}, {"id": "business/2013/dec/20/marmite-best-selling-spread-honey-love-hate", "type": "article", "sectionId": "business", "sectionName": "Business", "webPublicationDate": "2013-12-20T14:10:25Z", "webTitle": "Marmite loses bestselling spread title to Rowse Honey", "webUrl": "https://www.theguardian.com/business/2013/dec/20/marmite-best-selling-spread-honey-love-hate", "apiUrl": "https://content.guardianapis.com/business/2013/dec/20/marmite-best-selling-spread-honey-love-hate", "isHosted": false, "pillarId": "pillar/news", "pillarName": "News"}, {"id": "world/2013/dec/20/germans-lebkuchen-production-christmas-treat", "type": "article", "sectionId": "world", "sectionName": "World news", "webPublicationDate": "2013-12-20T13:44:02Z", "webTitle": "Germans fall out of love with Lebkuchen", "webUrl": "https://www.theguardian.com/world/2013/dec/20/germans-lebkuchen-production-christmas-treat", "apiUrl": "https://content.guardianapis.com/world/2013/dec/20/germans-lebkuchen-production-christmas-treat", "isHosted": false, "pillarId": "pillar/news", "pillarName": "News"}, {"id": "lifeandstyle/2013/dec/20/vegan-vegetarian-filo-pastries-leeks-mushrooms-white-wine-sauce-recipe", "type": "article", "sectionId": "lifeandstyle", "sectionName": "Life and style", "webPublicationDate": "2013-12-20T12:30:00Z", "webTitle": "Vegan filo parcels with leeks and mushrooms in a white wine sauce | Just as tasty", "webUrl": "https://www.theguardian.com/lifeandstyle/2013/dec/20/vegan-vegetarian-filo-pastries-leeks-mushrooms-white-wine-sauce-recipe", "apiUrl": "https://content.guardianapis.com/lifeandstyle/2013/dec/20/vegan-vegetarian-filo-pastries-leeks-mushrooms-white-wine-sauce-recipe", "isHosted": false, "pillarId": "pillar/lifestyle", "pillarName": "Lifestyle"}, {"id": "lifeandstyle/2013/dec/20/how-to-make-devils-on-horseback", "type": "article", "sectionId": "lifeandstyle", "sectionName": "Life and style", "webPublicationDate": "2013-12-20T09:00:01Z", "webTitle": "How to make devils on horseback and orange, cranberry and walnut salad", "webUrl": "https://www.theguardian.com/lifeandstyle/2013/dec/20/how-to-make-devils-on-horseback", "apiUrl": "https://content.guardianapis.com/lifeandstyle/2013/dec/20/how-to-make-devils-on-horseback", "isHosted": false, "pillarId": "pillar/lifestyle", "pillarName": "Lifestyle"}]}}