{"response": {"status": "ok", "userTier": "developer", "total": 87063, "startIndex": 1, "pageSize": 50, "currentPage": 1, "pages": 1742, "orderBy": "newest", "results": [{"id": "football/2011/dec/30/liverpool-newcastle-united-premier-league", "type": "article", "sectionId": "football", "sectionName": "Football", "webPublicationDate": "2011-12-30T23:24:00Z", "webTitle": "Liverpool 3-1 Newcastle United | Premier League match report", "webUrl": "https://www.theguardian.com/football/2011/dec/30/liverpool-newcastle-united-premier-league", "apiUrl": "https://content.guardianapis.com/football/2011/dec/30/liverpool-newcastle-united-premier-league", "isHosted": false, "pillarId": "pillar/sport", "pillarName": "Sport"}, {"id": "football/2011/dec/30/manchester-city-mario-balotelli", "type": "article", "sectionId": "football", "sectionName": "Football", "webPublicationDate": "2011-12-30T23:01:02Z", "webTitle": "Manchester City manager relaxed over Mario Balotelli's smoking habit", "webUrl": "https://www.theguardian.com/football/2011/dec/30/manchester-city-mario-balotelli", "apiUrl": "https://content.guardianapis.com/football/2011/dec/30/manchester-city-mario-balotelli", "isHosted": false, "pillarId": "pillar/sport", "pillarName": "Sport"}, {"id": "football/2011/dec/30/thierry-henry-arsenal-return-wenger", "type": "article", "sectionId": "football", "sectionName": "Football", "webPublicationDate": "2011-12-30T23:01:02Z", "webTitle": "Thierry Henry's Arsenal return has no downside, insists Ars\u00e8ne Wenger", "webUrl": "https://www.theguardian.com/football/2011/dec/30/thierry-henry-arsenal-return-wenger", "apiUrl": "https://content.guardianapis.com/football/2011/dec/30/thierry-henry-arsenal-return-wenger", "isHosted": false, "pillarId": "pillar/sport", "pillarName": "Sport"}, {"id": "football/2011/dec/30/chelsea-gary-cahill-transfer", "type": "article", "sectionId": "football", "sectionName": "Football", "webPublicationDate": "2011-12-30T23:01:02Z", "webTitle": "Chelsea confident of Gary Cahill deal despite delay over salary", "webUrl": "https://www.theguardian.com/football/2011/dec/30/chelsea-gary-cahill-transfer", "apiUrl": "https://content.guardianapis.com/football/2011/dec/30/chelsea-gary-cahill-transfer", "isHosted": false, "pillarId": "pillar/sport", "pillarName": "Sport"}, {"id": "football/2011/dec/30/phil-jagielka-mikel-arteta-everton", "type": "article", "sectionId": "football", "sectionName": "Football", "webPublicationDate": "2011-12-30T23:01:01Z", "webTitle": "Phil Jagielka: 'It was difficult to see Mikel Arteta leave Everton'", "webUrl": "https://www.theguardian.com/football/2011/dec/30/phil-jagielka-mikel-arteta-everton", "apiUrl": "https://content.guardianapis.com/football/2011/dec/30/phil-jagielka-mikel-arteta-everton", "isHosted": false, "pillarId": "pillar/sport", "pillarName": "Sport"}, {"id": "football/2011/dec/30/fantasy-mbm-richard-keys-gray-talksport", "type": "article", "sectionId": "football", "sectionName": "Football", "webPublicationDate": "2011-12-30T23:01:01Z", "webTitle": "MBMs we wish we'd done in 2011 \u2013 No6: Keys' and Gray's TalkSport debut", "webUrl": "https://www.theguardian.com/football/2011/dec/30/fantasy-mbm-richard-keys-gray-talksport", "apiUrl": "https://content.guardianapis.com/football/2011/dec/30/fantasy-mbm-richard-keys-gray-talksport", "isHosted": false, "pillarId": "pillar/sport", "pillarName": "Sport"}, {"id": "football/blog/2011/dec/30/secret-footballer-new-year-wishes", "type": "article", "sectionId": "football", "sectionName": "Football", "webPublicationDate": "2011-12-30T23:00:16Z", "webTitle": "The Secret Footballer: Five new year wishes to revamp the game", "webUrl": "https://www.theguardian.com/football/blog/2011/dec/30/secret-footballer-new-year-wishes", "apiUrl": "https://content.guardianapis.com/football/blog/2011/dec/30/secret-footballer-new-year-wishes", "isHosted": false, "pillarId": "pillar/sport", "pillarName": "Sport"}, {"id": "football/gallery/2011/dec/30/premier-league-liverpool-newcastle-pictures", "type": "gallery", "sectionId": "football", "sectionName": "Football", "webPublicationDate": "2011-12-30T22:40:00Z", "webTitle": "Premier League: Liverpool v Newcastle - in pictures", "webUrl": "https://www.theguardian.com/football/gallery/2011/dec/30/premier-league-liverpool-newcastle-pictures", "apiUrl": "https://content.guardianapis.com/football/gallery/2011/dec/30/premier-league-liverpool-newcastle-pictures", "isHosted": false, "pillarId": "pillar/sport", "pillarName": "Sport"}, {"id": "football/2011/dec/30/manchester-united-blackburn-rovers", "type": "article", "sectionId": "football", "sectionName": "Football", "webPublicationDate": "2011-12-30T22:30:01Z", "webTitle": "Sir Alex Ferguson fires Premier League title warning at Manchester City", "webUrl": "https://www.theguardian.com/football/2011/dec/30/manchester-united-blackburn-rovers", "apiUrl": "https://content.guardianapis.com/football/2011/dec/30/manchester-united-blackburn-rovers", "isHosted": false, "pillarId": "pillar/sport", "pillarName": "Sport"}, {"id": "football/2011/dec/30/martin-oneill-sunderland-relegation", "type": "article", "sectionId": "football", "sectionName": "Football", "webPublicationDate": "2011-12-30T22:00:01Z", "webTitle": "Martin O'Neill may seek recruits to ease Sunderland relegation fears", "webUrl": "https://www.theguardian.com/football/2011/dec/30/martin-oneill-sunderland-relegation", "apiUrl": "https://content.guardianapis.com/football/2011/dec/30/martin-oneill-sunderland-relegation", "isHosted": false, "pillarId": "pillar/sport", "pillarName": "Sport"}, {"id": "football/2011/dec/30/rangers-nikica-jelavic-ally-mccoist", "type": "article", "sectionId": "football", "sectionName": "Football", "webPublicationDate": "2011-12-30T18:28:41Z", "webTitle": "Ally McCoist says he is unaware of any interest in Nikica Jelavic", "webUrl": "https://www.theguardian.com/football/2011/dec/30/rangers-nikica-jelavic-ally-mccoist", "apiUrl": "https://content.guardianapis.com/football/2011/dec/30/rangers-nikica-jelavic-ally-mccoist", "isHosted": false, "pillarId": "pillar/sport", "pillarName": "Sport"}, {"id": "football/2011/dec/30/squad-sheets-west-brom-everton", "type": "article", "sectionId": "football", "sectionName": "Football", "webPublicationDate": "2011-12-30T17:33:49Z", "webTitle": "Squad sheets: West Bromwich Albion v Everton", "webUrl": "https://www.theguardian.com/football/2011/dec/30/squad-sheets-west-brom-everton", "apiUrl": "https://content.guardianapis.com/football/2011/dec/30/squad-sheets-west-brom-everton", "isHosted": false, "pillarId": "pillar/sport", "pillarName": "Sport"}, {"id": "football/2011/dec/30/squad-sheets-stoke-wigan", "type": "article", "sectionId": "football", "sectionName": "Football", "webPublicationDate": "2011-12-30T16:48:28Z", "webTitle": "Squad Sheets: Stoke City v Wigan Athletic", "webUrl": "https://www.theguardian.com/football/2011/dec/30/squad-sheets-stoke-wigan", "apiUrl": "https://content.guardianapis.com/football/2011/dec/30/squad-sheets-stoke-wigan", "isHosted": false, "pillarId": "pillar/sport", "pillarName": "Sport"}, {"id": "football/2011/dec/30/squad-sheets-swansea-tottenham", "type": "article", "sectionId": "football", "sectionName": "Football", "webPublicationDate": "2011-12-30T16:26:31Z", "webTitle": "Squad sheets: Swansea City v Tottenham Hotspur", "webUrl": "https://www.theguardian.com/football/2011/dec/30/squad-sheets-swansea-tottenham", "apiUrl": "https://content.guardianapis.com/football/2011/dec/30/squad-sheets-swansea-tottenham", "isHosted": false, "pillarId": "pillar/sport", "pillarName": "Sport"}, {"id": "football/video/2011/dec/30/chile-football-riot-video", "type": "video", "sectionId": "football", "sectionName": "Football", "webPublicationDate": "2011-12-30T16:18:00Z", "webTitle": "Chilean football fans clash with police - video", "webUrl": "https://www.theguardian.com/football/video/2011/dec/30/chile-football-riot-video", "apiUrl": "https://content.guardianapis.com/football/video/2011/dec/30/chile-football-riot-video", "isHosted": false, "pillarId": "pillar/sport", "pillarName": "Sport"}, {"id": "football/2011/dec/30/squad-sheets-arsenal-qpr", "type": "article", "sectionId": "football", "sectionName": "Football", "webPublicationDate": "2011-12-30T16:08:20Z", "webTitle": "Squad sheets: Arsenal v Queens Park Rangers", "webUrl": "https://www.theguardian.com/football/2011/dec/30/squad-sheets-arsenal-qpr", "apiUrl": "https://content.guardianapis.com/football/2011/dec/30/squad-sheets-arsenal-qpr", "isHosted": false, "pillarId": "pillar/sport", "pillarName": "Sport"}, {"id": "football/2011/dec/30/squad-sheets-norwich-fulham", "type": "article", "sectionId": "football", "sectionName": "Football", "webPublicationDate": "2011-12-30T15:58:47Z", "webTitle": "Squad Sheets: Norwich City v Fulham", "webUrl": "https://www.theguardian.com/football/2011/dec/30/squad-sheets-norwich-fulham", "apiUrl": "https://content.guardianapis.com/football/2011/dec/30/squad-sheets-norwich-fulham", "isHosted": false, "pillarId": "pillar/sport", "pillarName": "Sport"}, {"id": "football/blog/2011/dec/30/alex-ferguson-birthday", "type": "article", "sectionId": "football", "sectionName": "Football", "webPublicationDate": "2011-12-30T15:56:35Z", "webTitle": "Sir Alex Ferguson's craving for honours shows no sign of abating | Kevin McCarra", "webUrl": "https://www.theguardian.com/football/blog/2011/dec/30/alex-ferguson-birthday", "apiUrl": "https://content.guardianapis.com/football/blog/2011/dec/30/alex-ferguson-birthday", "isHosted": false, "pillarId": "pillar/sport", "pillarName": "Sport"}, {"id": "football/2011/dec/30/squad-sheets-bolton-wolves", "type": "article", "sectionId": "football", "sectionName": "Football", "webPublicationDate": "2011-12-30T15:45:12Z", "webTitle": "Squad sheets: Bolton Wanderers v Wolverhampton Wanderers", "webUrl": "https://www.theguardian.com/football/2011/dec/30/squad-sheets-bolton-wolves", "apiUrl": "https://content.guardianapis.com/football/2011/dec/30/squad-sheets-bolton-wolves", "isHosted": false, "pillarId": "pillar/sport", "pillarName": "Sport"}, {"id": "football/2011/dec/30/squad-sheets-chelsea-aston-villa", "type": "article", "sectionId": "football", "sectionName": "Football", "webPublicationDate": "2011-12-30T15:33:16Z", "webTitle": "Squad sheets: Chelsea v Aston Villa", "webUrl": "https://www.theguardian.com/football/2011/dec/30/squad-sheets-chelsea-aston-villa", "apiUrl": "https://content.guardianapis.com/football/2011/dec/30/squad-sheets-chelsea-aston-villa", "isHosted": false, "pillarId": "pillar/sport", "pillarName": "Sport"}, {"id": "football/2011/dec/30/squad-sheets-sunderland-manchester-city", "type": "article", "sectionId": "football", "sectionName": "Football", "webPublicationDate": "2011-12-30T14:45:24Z", "webTitle": "Squad sheets: Sunderland v Manchester City", "webUrl": "https://www.theguardian.com/football/2011/dec/30/squad-sheets-sunderland-manchester-city", "apiUrl": "https://content.guardianapis.com/football/2011/dec/30/squad-sheets-sunderland-manchester-city", "isHosted": false, "pillarId": "pillar/sport", "pillarName": "Sport"}, {"id": "football/video/2011/dec/30/thierry-henry-re-signs-for-arsenal-video", "type": "video", "sectionId": "football", "sectionName": "Football", "webPublicationDate": "2011-12-30T14:25:00Z", "webTitle": "Wenger on Henry: 'He has an exceptional talent, he's a very intelligent man' - video", "webUrl": "https://www.theguardian.com/football/video/2011/dec/30/thierry-henry-re-signs-for-arsenal-video", "apiUrl": "https://content.guardianapis.com/football/video/2011/dec/30/thierry-henry-re-signs-for-arsenal-video", "isHosted": false, "pillarId": "pillar/sport", "pillarName": "Sport"}, {"id": "commentisfree/2011/dec/30/person-of-2011-writers-verdict", "type": "article", "sectionId": "commentisfree", "sectionName": "Opinion", "webPublicationDate": "2011-12-30T14:00:00Z", "webTitle": "Your person of 2011: writers' verdict | The panel", "webUrl": "https://www.theguardian.com/commentisfree/2011/dec/30/person-of-2011-writers-verdict", "apiUrl": "https://content.guardianapis.com/commentisfree/2011/dec/30/person-of-2011-writers-verdict", "isHosted": false, "pillarId": "pillar/opinion", "pillarName": "Opinion"}, {"id": "football/blog/2011/dec/30/managers-forced-january-sales", "type": "article", "sectionId": "football", "sectionName": "Football", "webPublicationDate": "2011-12-30T13:42:58Z", "webTitle": "Managers are rightly wary of being forced into the January sales | David Lacey", "webUrl": "https://www.theguardian.com/football/blog/2011/dec/30/managers-forced-january-sales", "apiUrl": "https://content.guardianapis.com/football/blog/2011/dec/30/managers-forced-january-sales", "isHosted": false, "pillarId": "pillar/sport", "pillarName": "Sport"}, {"id": "football/2011/dec/30/squad-sheets-manchester-united-blackburn", "type": "article", "sectionId": "football", "sectionName": "Football", "webPublicationDate": "2011-12-30T12:22:01Z", "webTitle": "Squad sheets: Manchester United v Blackburn Rovers", "webUrl": "https://www.theguardian.com/football/2011/dec/30/squad-sheets-manchester-united-blackburn", "apiUrl": "https://content.guardianapis.com/football/2011/dec/30/squad-sheets-manchester-united-blackburn", "isHosted": false, "pillarId": "pillar/sport", "pillarName": "Sport"}, {"id": "football/football-league-blog/2011/dec/30/football-league-james-dart", "type": "article", "sectionId": "football", "sectionName": "Football", "webPublicationDate": "2011-12-30T10:53:49Z", "webTitle": "Football League weekender | James Dart", "webUrl": "https://www.theguardian.com/football/football-league-blog/2011/dec/30/football-league-james-dart", "apiUrl": "https://content.guardianapis.com/football/football-league-blog/2011/dec/30/football-league-james-dart", "isHosted": false, "pillarId": "pillar/sport", "pillarName": "Sport"}, {"id": "sport/blog/2011/dec/30/joy-of-six-new-year-fixtures", "type": "article", "sectionId": "sport", "sectionName": "Sport", "webPublicationDate": "2011-12-30T10:19:24Z", "webTitle": "The Joy of Six: new year football fixtures | Scott Murray", "webUrl": "https://www.theguardian.com/sport/blog/2011/dec/30/joy-of-six-new-year-fixtures", "apiUrl": "https://content.guardianapis.com/sport/blog/2011/dec/30/joy-of-six-new-year-fixtures", "isHosted": false, "pillarId": "pillar/sport", "pillarName": "Sport"}, {"id": "football/2011/dec/30/football-transfer-rumours-gareth-bale", "type": "article", "sectionId": "football", "sectionName": "Football", "webPublicationDate": "2011-12-30T08:39:47Z", "webTitle": "Football transfer rumours: Gareth Bale to Barcelona? | Scott Murray", "webUrl": "https://www.theguardian.com/football/2011/dec/30/football-transfer-rumours-gareth-bale", "apiUrl": "https://content.guardianapis.com/football/2011/dec/30/football-transfer-rumours-gareth-bale", "isHosted": false, "pillarId": "pillar/sport", "pillarName": "Sport"}, {"id": "football/2011/dec/30/michael-dawson-full-training-tottenham", "type": "article", "sectionId": "football", "sectionName": "Football", "webPublicationDate": "2011-12-30T00:21:10Z", "webTitle": "Michael Dawson returns to full training at Tottenham", "webUrl": "https://www.theguardian.com/football/2011/dec/30/michael-dawson-full-training-tottenham", "apiUrl": "https://content.guardianapis.com/football/2011/dec/30/michael-dawson-full-training-tottenham", "isHosted": false, "pillarId": "pillar/sport", "pillarName": "Sport"}, {"id": "football/2011/dec/29/football-news-in-brief", "type": "article", "sectionId": "football", "sectionName": "Football", "webPublicationDate": "2011-12-29T23:58:32Z", "webTitle": "Football news in brief", "webUrl": "https://www.theguardian.com/football/2011/dec/29/football-news-in-brief", "apiUrl": "https://content.guardianapis.com/football/2011/dec/29/football-news-in-brief", "isHosted": false, "pillarId": "pillar/sport", "pillarName": "Sport"}, {"id": "football/2011/dec/29/jack-warner-sepp-blatter", "type": "article", "sectionId": "football", "sectionName": "Football", "webPublicationDate": "2011-12-29T23:06:18Z", "webTitle": "Jack Warner claims he bought World Cup rights for $1", "webUrl": "https://www.theguardian.com/football/2011/dec/29/jack-warner-sepp-blatter", "apiUrl": "https://content.guardianapis.com/football/2011/dec/29/jack-warner-sepp-blatter", "isHosted": false, "pillarId": "pillar/sport", "pillarName": "Sport"}, {"id": "sport/2011/dec/29/fantasy-minute-by-minute-olympic-stadium", "type": "article", "sectionId": "sport", "sectionName": "Sport", "webPublicationDate": "2011-12-29T23:01:01Z", "webTitle": "MBMs we wish we'd done in 2011 \u2013 No5: Olympic Park stadium decision", "webUrl": "https://www.theguardian.com/sport/2011/dec/29/fantasy-minute-by-minute-olympic-stadium", "apiUrl": "https://content.guardianapis.com/sport/2011/dec/29/fantasy-minute-by-minute-olympic-stadium", "isHosted": false, "pillarId": "pillar/sport", "pillarName": "Sport"}, {"id": "football/2011/dec/29/trevillion-hackett-ref-david-moyes", "type": "article", "sectionId": "football", "sectionName": "Football", "webPublicationDate": "2011-12-29T22:30:00Z", "webTitle": "You are the Ref: David Moyes, Everton", "webUrl": "https://www.theguardian.com/football/2011/dec/29/trevillion-hackett-ref-david-moyes", "apiUrl": "https://content.guardianapis.com/football/2011/dec/29/trevillion-hackett-ref-david-moyes", "isHosted": false, "pillarId": "pillar/sport", "pillarName": "Sport"}, {"id": "football/2011/dec/29/kenny-dalglish-steven-gerrard", "type": "article", "sectionId": "football", "sectionName": "Football", "webPublicationDate": "2011-12-29T22:00:01Z", "webTitle": "Kenny Dalglish warns against too great expectations of Steven Gerrard", "webUrl": "https://www.theguardian.com/football/2011/dec/29/kenny-dalglish-steven-gerrard", "apiUrl": "https://content.guardianapis.com/football/2011/dec/29/kenny-dalglish-steven-gerrard", "isHosted": false, "pillarId": "pillar/sport", "pillarName": "Sport"}, {"id": "football/2011/dec/29/transfer-window-club-guide-premier-league", "type": "article", "sectionId": "football", "sectionName": "Football", "webPublicationDate": "2011-12-29T22:00:00Z", "webTitle": "Transfer window shopping: Premier League club-by-club guide", "webUrl": "https://www.theguardian.com/football/2011/dec/29/transfer-window-club-guide-premier-league", "apiUrl": "https://content.guardianapis.com/football/2011/dec/29/transfer-window-club-guide-premier-league", "isHosted": false, "pillarId": "pillar/sport", "pillarName": "Sport"}, {"id": "sport/2011/dec/29/sport-deaths-2011", "type": "article", "sectionId": "sport", "sectionName": "Sport", "webPublicationDate": "2011-12-29T21:59:01Z", "webTitle": "From Seve to D'Oliveira: The sportsmen and women we lost in 2011", "webUrl": "https://www.theguardian.com/sport/2011/dec/29/sport-deaths-2011", "apiUrl": "https://content.guardianapis.com/sport/2011/dec/29/sport-deaths-2011", "isHosted": false, "pillarId": "pillar/sport", "pillarName": "Sport"}, {"id": "football/2011/dec/29/tottenham-luka-modric-chelsea-manchester-united", "type": "article", "sectionId": "football", "sectionName": "Football", "webPublicationDate": "2011-12-29T20:00:43Z", "webTitle": "Tottenham's Luka Modric admits a move to Chelsea 'is possible'", "webUrl": "https://www.theguardian.com/football/2011/dec/29/tottenham-luka-modric-chelsea-manchester-united", "apiUrl": "https://content.guardianapis.com/football/2011/dec/29/tottenham-luka-modric-chelsea-manchester-united", "isHosted": false, "pillarId": "pillar/sport", "pillarName": "Sport"}, {"id": "football/blog/2011/dec/29/andy-carroll-newcastle-liverpool", "type": "article", "sectionId": "football", "sectionName": "Football", "webPublicationDate": "2011-12-29T19:25:16Z", "webTitle": "Newcastle have moved on but Liverpool's Andy Carroll pines for home | Louise Taylor", "webUrl": "https://www.theguardian.com/football/blog/2011/dec/29/andy-carroll-newcastle-liverpool", "apiUrl": "https://content.guardianapis.com/football/blog/2011/dec/29/andy-carroll-newcastle-liverpool", "isHosted": false, "pillarId": "pillar/sport", "pillarName": "Sport"}, {"id": "football/blog/2011/dec/29/january-transfer-spending-curbed-ffp", "type": "article", "sectionId": "football", "sectionName": "Football", "webPublicationDate": "2011-12-29T18:38:22Z", "webTitle": "January transfer spending set to be curbed by FFP and financial reality | Jamie Jackson", "webUrl": "https://www.theguardian.com/football/blog/2011/dec/29/january-transfer-spending-curbed-ffp", "apiUrl": "https://content.guardianapis.com/football/blog/2011/dec/29/january-transfer-spending-curbed-ffp", "isHosted": false, "pillarId": "pillar/sport", "pillarName": "Sport"}, {"id": "football/2011/dec/29/rangers-celtic-neil-lennon", "type": "article", "sectionId": "football", "sectionName": "Football", "webPublicationDate": "2011-12-29T18:27:56Z", "webTitle": "Neil Lennon warns that Rangers must not be written off after defeat", "webUrl": "https://www.theguardian.com/football/2011/dec/29/rangers-celtic-neil-lennon", "apiUrl": "https://content.guardianapis.com/football/2011/dec/29/rangers-celtic-neil-lennon", "isHosted": false, "pillarId": "pillar/sport", "pillarName": "Sport"}, {"id": "football/blog/2011/dec/29/thierry-henry-arsenal", "type": "article", "sectionId": "football", "sectionName": "Football", "webPublicationDate": "2011-12-29T17:40:42Z", "webTitle": "Thierry Henry is not the egocentric striker who left Arsenal behind | David Hytner", "webUrl": "https://www.theguardian.com/football/blog/2011/dec/29/thierry-henry-arsenal", "apiUrl": "https://content.guardianapis.com/football/blog/2011/dec/29/thierry-henry-arsenal", "isHosted": false, "pillarId": "pillar/sport", "pillarName": "Sport"}, {"id": "football/2011/dec/29/deloittes-january-transfer-window", "type": "article", "sectionId": "football", "sectionName": "Football", "webPublicationDate": "2011-12-29T15:45:16Z", "webTitle": "Deloitte: January transfer spending will be less than half 2011 record", "webUrl": "https://www.theguardian.com/football/2011/dec/29/deloittes-january-transfer-window", "apiUrl": "https://content.guardianapis.com/football/2011/dec/29/deloittes-january-transfer-window", "isHosted": false, "pillarId": "pillar/sport", "pillarName": "Sport"}, {"id": "football/blog/2011/dec/29/guardian-readers-team-season-so-far", "type": "article", "sectionId": "football", "sectionName": "Football", "webPublicationDate": "2011-12-29T15:05:23Z", "webTitle": "Guardian readers' Premier League team of the season so far | Paul Doyle", "webUrl": "https://www.theguardian.com/football/blog/2011/dec/29/guardian-readers-team-season-so-far", "apiUrl": "https://content.guardianapis.com/football/blog/2011/dec/29/guardian-readers-team-season-so-far", "isHosted": false, "pillarId": "pillar/sport", "pillarName": "Sport"}, {"id": "football/blog/2011/dec/29/ally-mccoist-rangers-celtic", "type": "article", "sectionId": "football", "sectionName": "Football", "webPublicationDate": "2011-12-29T13:24:57Z", "webTitle": "Ally McCoist begins to feel the heat at Rangers after Old Firm setback | Ewan Murray", "webUrl": "https://www.theguardian.com/football/blog/2011/dec/29/ally-mccoist-rangers-celtic", "apiUrl": "https://content.guardianapis.com/football/blog/2011/dec/29/ally-mccoist-rangers-celtic", "isHosted": false, "pillarId": "pillar/sport", "pillarName": "Sport"}, {"id": "football/blog/audio/2011/dec/29/football-weekly-extra-podcast", "type": "audio", "sectionId": "football", "sectionName": "Football", "webPublicationDate": "2011-12-29T12:39:00Z", "webTitle": "Football Weekly Extra: Henry back to Arsenal and Chris Whelpdale's scrotum", "webUrl": "https://www.theguardian.com/football/blog/audio/2011/dec/29/football-weekly-extra-podcast", "apiUrl": "https://content.guardianapis.com/football/blog/audio/2011/dec/29/football-weekly-extra-podcast", "isHosted": false, "pillarId": "pillar/sport", "pillarName": "Sport"}, {"id": "media/2011/dec/29/bbc-football-league-show-faces-axe", "type": "article", "sectionId": "media", "sectionName": "Media", "webPublicationDate": "2011-12-29T12:12:04Z", "webTitle": "BBC's Football League Show faces axe", "webUrl": "https://www.theguardian.com/media/2011/dec/29/bbc-football-league-show-faces-axe", "apiUrl": "https://content.guardianapis.com/media/2011/dec/29/bbc-football-league-show-faces-axe", "isHosted": false, "pillarId": "pillar/news", "pillarName": "News"}, {"id": "uk/the-northerner/2011/dec/29/liverpool-everton-anfield-footballquarter", "type": "article", "sectionId": "uk-news", "sectionName": "UK news", "webPublicationDate": "2011-12-29T11:00:00Z", "webTitle": "Liverpool's reds and blues supporters plan a joint Football Quarter", "webUrl": "https://www.theguardian.com/uk/the-northerner/2011/dec/29/liverpool-everton-anfield-footballquarter", "apiUrl": "https://content.guardianapis.com/uk/the-northerner/2011/dec/29/liverpool-everton-anfield-footballquarter", "isHosted": false, "pillarId": "pillar/news", "pillarName": "News"}, {"id": "football/2011/dec/28/celtic-rangers-scottish-premier-league", "type": "article", "sectionId": "football", "sectionName": "Football", "webPublicationDate": "2011-12-28T23:49:00Z", "webTitle": "Celtic 1-0 Rangers | Scottish Premier League match report", "webUrl": "https://www.theguardian.com/football/2011/dec/28/celtic-rangers-scottish-premier-league", "apiUrl": "https://content.guardianapis.com/football/2011/dec/28/celtic-rangers-scottish-premier-league", "isHosted": false, "pillarId": "pillar/sport", "pillarName": "Sport"}, {"id": "football/2011/dec/28/thierry-henry-arsenal-per-mertesacker", "type": "article", "sectionId": "football", "sectionName": "Football", "webPublicationDate": "2011-12-28T23:01:01Z", "webTitle": "Thierry Henry still has the quality for Arsenal, says Per Mertesacker", "webUrl": "https://www.theguardian.com/football/2011/dec/28/thierry-henry-arsenal-per-mertesacker", "apiUrl": "https://content.guardianapis.com/football/2011/dec/28/thierry-henry-arsenal-per-mertesacker", "isHosted": false, "pillarId": "pillar/sport", "pillarName": "Sport"}, {"id": "football/2011/dec/28/wolves-arsenal-referee-red-card", "type": "article", "sectionId": "football", "sectionName": "Football", "webPublicationDate": "2011-12-28T23:01:01Z", "webTitle": "Wolves midfielder accuses Arsenal of forcing referee to show red card", "webUrl": "https://www.theguardian.com/football/2011/dec/28/wolves-arsenal-referee-red-card", "apiUrl": "https://content.guardianapis.com/football/2011/dec/28/wolves-arsenal-referee-red-card", "isHosted": false, "pillarId": "pillar/sport", "pillarName": "Sport"}]}}