{"response": {"status": "ok", "userTier": "developer", "total": 31589, "startIndex": 1, "pageSize": 50, "currentPage": 1, "pages": 632, "orderBy": "newest", "results": [{"id": "books/2011/dec/30/my-hero-peter-scott-louisa-young", "type": "article", "sectionId": "books", "sectionName": "Books", "webPublicationDate": "2011-12-30T22:55:04Z", "webTitle": "My hero: Peter Scott", "webUrl": "https://www.theguardian.com/books/2011/dec/30/my-hero-peter-scott-louisa-young", "apiUrl": "https://content.guardianapis.com/books/2011/dec/30/my-hero-peter-scott-louisa-young", "isHosted": false, "pillarId": "pillar/arts", "pillarName": "Arts"}, {"id": "artanddesign/gallery/2011/dec/30/yosemite-photographs-carleton-watkins-in-pictures", "type": "gallery", "sectionId": "artanddesign", "sectionName": "Art and design", "webPublicationDate": "2011-12-30T22:54:01Z", "webTitle": "National park life: the 1861 photographs that safeguarded Yosemite \u2013 in pictures", "webUrl": "https://www.theguardian.com/artanddesign/gallery/2011/dec/30/yosemite-photographs-carleton-watkins-in-pictures", "apiUrl": "https://content.guardianapis.com/artanddesign/gallery/2011/dec/30/yosemite-photographs-carleton-watkins-in-pictures", "isHosted": false, "pillarId": "pillar/arts", "pillarName": "Arts"}, {"id": "environment/2011/dec/30/country-diary-sandy-bedfordshire", "type": "article", "sectionId": "environment", "sectionName": "Environment", "webPublicationDate": "2011-12-30T21:00:01Z", "webTitle": "Country diary: Sandy, Bedfordshire", "webUrl": "https://www.theguardian.com/environment/2011/dec/30/country-diary-sandy-bedfordshire", "apiUrl": "https://content.guardianapis.com/environment/2011/dec/30/country-diary-sandy-bedfordshire", "isHosted": false, "pillarId": "pillar/news", "pillarName": "News"}, {"id": "environment/gallery/2011/dec/30/yasuni-national-park-ecuador-rainforest", "type": "gallery", "sectionId": "environment", "sectionName": "Environment", "webPublicationDate": "2011-12-30T16:05:29Z", "webTitle": "The biological riches of Ecuador's Yasun&iacute; national park", "webUrl": "https://www.theguardian.com/environment/gallery/2011/dec/30/yasuni-national-park-ecuador-rainforest", "apiUrl": "https://content.guardianapis.com/environment/gallery/2011/dec/30/yasuni-national-park-ecuador-rainforest", "isHosted": false, "pillarId": "pillar/news", "pillarName": "News"}, {"id": "environment/2011/dec/30/ecuador-paid-rainforest-oil-alliance", "type": "article", "sectionId": "environment", "sectionName": "Environment", "webPublicationDate": "2011-12-30T15:32:14Z", "webTitle": "World pays Ecuador not to extract oil from rainforest", "webUrl": "https://www.theguardian.com/environment/2011/dec/30/ecuador-paid-rainforest-oil-alliance", "apiUrl": "https://content.guardianapis.com/environment/2011/dec/30/ecuador-paid-rainforest-oil-alliance", "isHosted": false, "pillarId": "pillar/news", "pillarName": "News"}, {"id": "science/video/2011/dec/30/panda-caught-eating-meat-video", "type": "video", "sectionId": "science", "sectionName": "Science", "webPublicationDate": "2011-12-30T15:04:00Z", "webTitle": "Panda caught eating meat on camera \u2013 video", "webUrl": "https://www.theguardian.com/science/video/2011/dec/30/panda-caught-eating-meat-video", "apiUrl": "https://content.guardianapis.com/science/video/2011/dec/30/panda-caught-eating-meat-video", "isHosted": false, "pillarId": "pillar/news", "pillarName": "News"}, {"id": "environment/2011/dec/30/uk-investment-green-energy", "type": "article", "sectionId": "environment", "sectionName": "Environment", "webPublicationDate": "2011-12-30T14:07:17Z", "webTitle": "UK investment in green energy stagnates at \u00a32.5bn", "webUrl": "https://www.theguardian.com/environment/2011/dec/30/uk-investment-green-energy", "apiUrl": "https://content.guardianapis.com/environment/2011/dec/30/uk-investment-green-energy", "isHosted": false, "pillarId": "pillar/news", "pillarName": "News"}, {"id": "news/datablog/2011/dec/30/top-data-stories-2011", "type": "article", "sectionId": "news", "sectionName": "News", "webPublicationDate": "2011-12-30T09:00:00Z", "webTitle": "2011: the year in data, journalism (and charts) | Datablog", "webUrl": "https://www.theguardian.com/news/datablog/2011/dec/30/top-data-stories-2011", "apiUrl": "https://content.guardianapis.com/news/datablog/2011/dec/30/top-data-stories-2011", "isHosted": false, "pillarId": "pillar/news", "pillarName": "News"}, {"id": "environment/2011/dec/29/country-diary-south-uist", "type": "article", "sectionId": "environment", "sectionName": "Environment", "webPublicationDate": "2011-12-29T21:00:01Z", "webTitle": "Country diary: South Uist", "webUrl": "https://www.theguardian.com/environment/2011/dec/29/country-diary-south-uist", "apiUrl": "https://content.guardianapis.com/environment/2011/dec/29/country-diary-south-uist", "isHosted": false, "pillarId": "pillar/news", "pillarName": "News"}, {"id": "environment/2011/dec/29/foam-seaside-town-lather-cleveleys", "type": "article", "sectionId": "environment", "sectionName": "Environment", "webPublicationDate": "2011-12-29T18:31:45Z", "webTitle": "Mystery foam engulfs northern seaside town", "webUrl": "https://www.theguardian.com/environment/2011/dec/29/foam-seaside-town-lather-cleveleys", "apiUrl": "https://content.guardianapis.com/environment/2011/dec/29/foam-seaside-town-lather-cleveleys", "isHosted": false, "pillarId": "pillar/news", "pillarName": "News"}, {"id": "environment/2011/dec/29/last-battery-hen-home-liberty", "type": "article", "sectionId": "environment", "sectionName": "Environment", "webPublicationDate": "2011-12-29T17:52:37Z", "webTitle": "Last battery hen given a new home", "webUrl": "https://www.theguardian.com/environment/2011/dec/29/last-battery-hen-home-liberty", "apiUrl": "https://content.guardianapis.com/environment/2011/dec/29/last-battery-hen-home-liberty", "isHosted": false, "pillarId": "pillar/news", "pillarName": "News"}, {"id": "business/2011/dec/29/indian-essar-eight-coal-fired-power-plants", "type": "article", "sectionId": "business", "sectionName": "Business", "webPublicationDate": "2011-12-29T17:48:18Z", "webTitle": "Indian generator Essar Energy to build eight coal-fired power plants", "webUrl": "https://www.theguardian.com/business/2011/dec/29/indian-essar-eight-coal-fired-power-plants", "apiUrl": "https://content.guardianapis.com/business/2011/dec/29/indian-essar-eight-coal-fired-power-plants", "isHosted": false, "pillarId": "pillar/news", "pillarName": "News"}, {"id": "world/2011/dec/29/fda-u-turn-antibiotics-animal-feed", "type": "article", "sectionId": "us-news", "sectionName": "US news", "webPublicationDate": "2011-12-29T16:39:00Z", "webTitle": "FDA draws criticism after U-turn on antibiotics in animal feed", "webUrl": "https://www.theguardian.com/world/2011/dec/29/fda-u-turn-antibiotics-animal-feed", "apiUrl": "https://content.guardianapis.com/world/2011/dec/29/fda-u-turn-antibiotics-animal-feed", "isHosted": false, "pillarId": "pillar/news", "pillarName": "News"}, {"id": "environment/2011/dec/29/guantanamo-bay-green-regime-limits", "type": "article", "sectionId": "environment", "sectionName": "Environment", "webPublicationDate": "2011-12-29T15:57:46Z", "webTitle": "Guant\u00e1namo Bay's green regime has prison limits", "webUrl": "https://www.theguardian.com/environment/2011/dec/29/guantanamo-bay-green-regime-limits", "apiUrl": "https://content.guardianapis.com/environment/2011/dec/29/guantanamo-bay-green-regime-limits", "isHosted": false, "pillarId": "pillar/news", "pillarName": "News"}, {"id": "environment/2011/dec/29/plastic-packaging-waste-solution", "type": "article", "sectionId": "environment", "sectionName": "Environment", "webPublicationDate": "2011-12-29T15:09:00Z", "webTitle": "Global hunger for plastic packaging leaves waste solution a long way off", "webUrl": "https://www.theguardian.com/environment/2011/dec/29/plastic-packaging-waste-solution", "apiUrl": "https://content.guardianapis.com/environment/2011/dec/29/plastic-packaging-waste-solution", "isHosted": false, "pillarId": "pillar/news", "pillarName": "News"}, {"id": "environment/2011/dec/29/japan-leads-field-plastic-recycling", "type": "article", "sectionId": "environment", "sectionName": "Environment", "webPublicationDate": "2011-12-29T11:27:06Z", "webTitle": "Japan streets ahead in global plastic recycling race", "webUrl": "https://www.theguardian.com/environment/2011/dec/29/japan-leads-field-plastic-recycling", "apiUrl": "https://content.guardianapis.com/environment/2011/dec/29/japan-leads-field-plastic-recycling", "isHosted": false, "pillarId": "pillar/news", "pillarName": "News"}, {"id": "environment/2011/dec/29/plastic-bags-pacific-waste-revulsion", "type": "article", "sectionId": "environment", "sectionName": "Environment", "webPublicationDate": "2011-12-29T11:26:23Z", "webTitle": "Tide of plastic bags that started wave of revulsion", "webUrl": "https://www.theguardian.com/environment/2011/dec/29/plastic-bags-pacific-waste-revulsion", "apiUrl": "https://content.guardianapis.com/environment/2011/dec/29/plastic-bags-pacific-waste-revulsion", "isHosted": false, "pillarId": "pillar/news", "pillarName": "News"}, {"id": "world/2011/dec/29/eu-environmental-resources-new-recession", "type": "article", "sectionId": "environment", "sectionName": "Environment", "webPublicationDate": "2011-12-29T10:34:42Z", "webTitle": "EU warns wasting environmental resources could spark new recession", "webUrl": "https://www.theguardian.com/world/2011/dec/29/eu-environmental-resources-new-recession", "apiUrl": "https://content.guardianapis.com/world/2011/dec/29/eu-environmental-resources-new-recession", "isHosted": false, "pillarId": "pillar/news", "pillarName": "News"}, {"id": "media/2011/dec/29/panda-row-bbc-top-women", "type": "article", "sectionId": "media", "sectionName": "Media", "webPublicationDate": "2011-12-29T09:07:43Z", "webTitle": "BBC in panda row as Tian Tian named among year's top women", "webUrl": "https://www.theguardian.com/media/2011/dec/29/panda-row-bbc-top-women", "apiUrl": "https://content.guardianapis.com/media/2011/dec/29/panda-row-bbc-top-women", "isHosted": false, "pillarId": "pillar/news", "pillarName": "News"}, {"id": "environment/2011/dec/28/country-diary-drummossie-muir", "type": "article", "sectionId": "environment", "sectionName": "Environment", "webPublicationDate": "2011-12-28T20:59:02Z", "webTitle": "Country diary: Drummossie Muir", "webUrl": "https://www.theguardian.com/environment/2011/dec/28/country-diary-drummossie-muir", "apiUrl": "https://content.guardianapis.com/environment/2011/dec/28/country-diary-drummossie-muir", "isHosted": false, "pillarId": "pillar/news", "pillarName": "News"}, {"id": "science/gallery/2011/dec/28/denizens-dragon-vent", "type": "gallery", "sectionId": "science", "sectionName": "Science", "webPublicationDate": "2011-12-28T17:49:00Z", "webTitle": "Denizens of the Dragon Vent \u2013 in pictures", "webUrl": "https://www.theguardian.com/science/gallery/2011/dec/28/denizens-dragon-vent", "apiUrl": "https://content.guardianapis.com/science/gallery/2011/dec/28/denizens-dragon-vent", "isHosted": false, "pillarId": "pillar/news", "pillarName": "News"}, {"id": "science/2011/dec/28/exotic-creatures-deep-sea-vent", "type": "article", "sectionId": "science", "sectionName": "Science", "webPublicationDate": "2011-12-28T16:37:11Z", "webTitle": "Exotic creatures discovered living at deep-sea vent in Indian Ocean", "webUrl": "https://www.theguardian.com/science/2011/dec/28/exotic-creatures-deep-sea-vent", "apiUrl": "https://content.guardianapis.com/science/2011/dec/28/exotic-creatures-deep-sea-vent", "isHosted": false, "pillarId": "pillar/news", "pillarName": "News"}, {"id": "science/video/2011/dec/28/deep-sea-creatures-volcanic-vent-video", "type": "video", "sectionId": "science", "sectionName": "Science", "webPublicationDate": "2011-12-28T15:47:00Z", "webTitle": "Deep-sea creatures at volcanic vent - video", "webUrl": "https://www.theguardian.com/science/video/2011/dec/28/deep-sea-creatures-volcanic-vent-video", "apiUrl": "https://content.guardianapis.com/science/video/2011/dec/28/deep-sea-creatures-volcanic-vent-video", "isHosted": false, "pillarId": "pillar/news", "pillarName": "News"}, {"id": "environment/2011/dec/28/wood-trading-exchange-green-energy", "type": "article", "sectionId": "environment", "sectionName": "Environment", "webPublicationDate": "2011-12-28T15:11:40Z", "webTitle": "Wood trading exchange stokes green energy row", "webUrl": "https://www.theguardian.com/environment/2011/dec/28/wood-trading-exchange-green-energy", "apiUrl": "https://content.guardianapis.com/environment/2011/dec/28/wood-trading-exchange-green-energy", "isHosted": false, "pillarId": "pillar/news", "pillarName": "News"}, {"id": "media/2011/dec/28/pandagate-bbc-tian-tian-december", "type": "article", "sectionId": "media", "sectionName": "Media", "webPublicationDate": "2011-12-28T13:59:12Z", "webTitle": "Pandagate: anger as BBC chooses Tian Tian as December woman 2011", "webUrl": "https://www.theguardian.com/media/2011/dec/28/pandagate-bbc-tian-tian-december", "apiUrl": "https://content.guardianapis.com/media/2011/dec/28/pandagate-bbc-tian-tian-december", "isHosted": false, "pillarId": "pillar/news", "pillarName": "News"}, {"id": "environment/2011/dec/28/uk-switch-low-carbon-energy", "type": "article", "sectionId": "environment", "sectionName": "Environment", "webPublicationDate": "2011-12-28T12:34:48Z", "webTitle": "UK switch to low-carbon energy 'no dearer than doing nothing'", "webUrl": "https://www.theguardian.com/environment/2011/dec/28/uk-switch-low-carbon-energy", "apiUrl": "https://content.guardianapis.com/environment/2011/dec/28/uk-switch-low-carbon-energy", "isHosted": false, "pillarId": "pillar/news", "pillarName": "News"}, {"id": "world/picture/2011/dec/28/hiking-in-bavaria", "type": "picture", "sectionId": "world", "sectionName": "World news", "webPublicationDate": "2011-12-28T10:51:00Z", "webTitle": "Eyewitness: Hiking in Bavaria", "webUrl": "https://www.theguardian.com/world/picture/2011/dec/28/hiking-in-bavaria", "apiUrl": "https://content.guardianapis.com/world/picture/2011/dec/28/hiking-in-bavaria", "isHosted": false, "pillarId": "pillar/news", "pillarName": "News"}, {"id": "books/2011/dec/28/green-philosophy-roger-scruton-review", "type": "article", "sectionId": "books", "sectionName": "Books", "webPublicationDate": "2011-12-28T09:00:05Z", "webTitle": "Green Philosophy by Roger Scruton \u2013 review", "webUrl": "https://www.theguardian.com/books/2011/dec/28/green-philosophy-roger-scruton-review", "apiUrl": "https://content.guardianapis.com/books/2011/dec/28/green-philosophy-roger-scruton-review", "isHosted": false, "pillarId": "pillar/arts", "pillarName": "Arts"}, {"id": "artanddesign/2011/dec/28/japan-women-sea-ama-nina-poppe", "type": "article", "sectionId": "artanddesign", "sectionName": "Art and design", "webPublicationDate": "2011-12-28T09:00:00Z", "webTitle": "Is the tide about to turn for Japan's 'women of the sea'?", "webUrl": "https://www.theguardian.com/artanddesign/2011/dec/28/japan-women-sea-ama-nina-poppe", "apiUrl": "https://content.guardianapis.com/artanddesign/2011/dec/28/japan-women-sea-ama-nina-poppe", "isHosted": false, "pillarId": "pillar/arts", "pillarName": "Arts"}, {"id": "uk/2011/dec/28/scotts-last-expedition-south-pole", "type": "article", "sectionId": "uk-news", "sectionName": "UK news", "webPublicationDate": "2011-12-28T07:30:00Z", "webTitle": "Scott's Last Expedition marks centenary of explorer reaching pole", "webUrl": "https://www.theguardian.com/uk/2011/dec/28/scotts-last-expedition-south-pole", "apiUrl": "https://content.guardianapis.com/uk/2011/dec/28/scotts-last-expedition-south-pole", "isHosted": false, "pillarId": "pillar/news", "pillarName": "News"}, {"id": "environment/video/2011/dec/28/fishing-quota-video", "type": "video", "sectionId": "environment", "sectionName": "Environment", "webPublicationDate": "2011-12-28T07:30:00Z", "webTitle": "Who should have the right to catch fish? - video", "webUrl": "https://www.theguardian.com/environment/video/2011/dec/28/fishing-quota-video", "apiUrl": "https://content.guardianapis.com/environment/video/2011/dec/28/fishing-quota-video", "isHosted": false, "pillarId": "pillar/news", "pillarName": "News"}, {"id": "science/2011/dec/27/plantwatch-holly-hawthorn-trees", "type": "article", "sectionId": "science", "sectionName": "Science", "webPublicationDate": "2011-12-27T22:30:01Z", "webTitle": "Plantwatch: Traveller's joy and old man's beard herald Father Christmas", "webUrl": "https://www.theguardian.com/science/2011/dec/27/plantwatch-holly-hawthorn-trees", "apiUrl": "https://content.guardianapis.com/science/2011/dec/27/plantwatch-holly-hawthorn-trees", "isHosted": false, "pillarId": "pillar/news", "pillarName": "News"}, {"id": "commentisfree/2011/dec/27/business-plan-stop-ecocide-nature", "type": "article", "sectionId": "commentisfree", "sectionName": "Opinion", "webPublicationDate": "2011-12-27T21:00:03Z", "webTitle": "The business plan to stop ecocide | Juliette Jowit", "webUrl": "https://www.theguardian.com/commentisfree/2011/dec/27/business-plan-stop-ecocide-nature", "apiUrl": "https://content.guardianapis.com/commentisfree/2011/dec/27/business-plan-stop-ecocide-nature", "isHosted": false, "pillarId": "pillar/opinion", "pillarName": "Opinion"}, {"id": "environment/2011/dec/27/country-diary-wenlock-edge", "type": "article", "sectionId": "environment", "sectionName": "Environment", "webPublicationDate": "2011-12-27T21:00:00Z", "webTitle": "Country diary: Wenlock Edge", "webUrl": "https://www.theguardian.com/environment/2011/dec/27/country-diary-wenlock-edge", "apiUrl": "https://content.guardianapis.com/environment/2011/dec/27/country-diary-wenlock-edge", "isHosted": false, "pillarId": "pillar/news", "pillarName": "News"}, {"id": "world/2011/dec/27/pictures-of-the-year-2011", "type": "article", "sectionId": "world", "sectionName": "World news", "webPublicationDate": "2011-12-27T20:59:00Z", "webTitle": "Pictures of 2011", "webUrl": "https://www.theguardian.com/world/2011/dec/27/pictures-of-the-year-2011", "apiUrl": "https://content.guardianapis.com/world/2011/dec/27/pictures-of-the-year-2011", "isHosted": false, "pillarId": "pillar/news", "pillarName": "News"}, {"id": "environment/2011/dec/27/spending-cuts-scotland-endangered-species", "type": "article", "sectionId": "environment", "sectionName": "Environment", "webPublicationDate": "2011-12-27T20:22:24Z", "webTitle": "Spending cuts threaten Scotland's endangered species", "webUrl": "https://www.theguardian.com/environment/2011/dec/27/spending-cuts-scotland-endangered-species", "apiUrl": "https://content.guardianapis.com/environment/2011/dec/27/spending-cuts-scotland-endangered-species", "isHosted": false, "pillarId": "pillar/news", "pillarName": "News"}, {"id": "environment/2011/dec/27/confusing-year-weather-britain-wildlife", "type": "article", "sectionId": "environment", "sectionName": "Environment", "webPublicationDate": "2011-12-27T12:19:47Z", "webTitle": "Confusing year of weather for Britain's wildlife", "webUrl": "https://www.theguardian.com/environment/2011/dec/27/confusing-year-weather-britain-wildlife", "apiUrl": "https://content.guardianapis.com/environment/2011/dec/27/confusing-year-weather-britain-wildlife", "isHosted": false, "pillarId": "pillar/news", "pillarName": "News"}, {"id": "environment/2011/dec/26/country-diary-windsor-hill", "type": "article", "sectionId": "environment", "sectionName": "Environment", "webPublicationDate": "2011-12-26T20:59:01Z", "webTitle": "Country diary: Windsor Hill, Somerset", "webUrl": "https://www.theguardian.com/environment/2011/dec/26/country-diary-windsor-hill", "apiUrl": "https://content.guardianapis.com/environment/2011/dec/26/country-diary-windsor-hill", "isHosted": false, "pillarId": "pillar/news", "pillarName": "News"}, {"id": "law/2011/dec/26/lawyers-crack-case-unlawful-eggs", "type": "article", "sectionId": "law", "sectionName": "Law", "webPublicationDate": "2011-12-26T18:30:48Z", "webTitle": "Lawyers crack case of 'unlawful' eggs", "webUrl": "https://www.theguardian.com/law/2011/dec/26/lawyers-crack-case-unlawful-eggs", "apiUrl": "https://content.guardianapis.com/law/2011/dec/26/lawyers-crack-case-unlawful-eggs", "isHosted": false, "pillarId": "pillar/news", "pillarName": "News"}, {"id": "environment/2011/dec/26/fukushima-disaster-nuclear-japan", "type": "article", "sectionId": "environment", "sectionName": "Environment", "webPublicationDate": "2011-12-26T16:00:01Z", "webTitle": "The fallout from the Fukushima disaster", "webUrl": "https://www.theguardian.com/environment/2011/dec/26/fukushima-disaster-nuclear-japan", "apiUrl": "https://content.guardianapis.com/environment/2011/dec/26/fukushima-disaster-nuclear-japan", "isHosted": false, "pillarId": "pillar/news", "pillarName": "News"}, {"id": "world/2011/dec/26/thailand-flood-plan", "type": "article", "sectionId": "world", "sectionName": "World news", "webPublicationDate": "2011-12-26T15:02:43Z", "webTitle": "Thailand seeks flood prevention plan as Bangkok clean-up operation continues", "webUrl": "https://www.theguardian.com/world/2011/dec/26/thailand-flood-plan", "apiUrl": "https://content.guardianapis.com/world/2011/dec/26/thailand-flood-plan", "isHosted": false, "pillarId": "pillar/news", "pillarName": "News"}, {"id": "environment/2011/dec/25/solar-energy-feed-in-tariff", "type": "article", "sectionId": "environment", "sectionName": "Environment", "webPublicationDate": "2011-12-25T21:00:04Z", "webTitle": "Letters: Bright future for solar dims after feed-in tariff cut", "webUrl": "https://www.theguardian.com/environment/2011/dec/25/solar-energy-feed-in-tariff", "apiUrl": "https://content.guardianapis.com/environment/2011/dec/25/solar-energy-feed-in-tariff", "isHosted": false, "pillarId": "pillar/news", "pillarName": "News"}, {"id": "environment/2011/dec/25/country-diary-welney-norfolk", "type": "article", "sectionId": "environment", "sectionName": "Environment", "webPublicationDate": "2011-12-25T21:00:00Z", "webTitle": "Country Diary: Welney, Norfolk", "webUrl": "https://www.theguardian.com/environment/2011/dec/25/country-diary-welney-norfolk", "apiUrl": "https://content.guardianapis.com/environment/2011/dec/25/country-diary-welney-norfolk", "isHosted": false, "pillarId": "pillar/news", "pillarName": "News"}, {"id": "commentisfree/cartoon/2011/dec/23/cameron-eu-business-martin-rowson", "type": "picture", "sectionId": "commentisfree", "sectionName": "Opinion", "webPublicationDate": "2011-12-23T21:00:00Z", "webTitle": "Martin Rowson's coalition and City nativity \u2013 cartoon", "webUrl": "https://www.theguardian.com/commentisfree/cartoon/2011/dec/23/cameron-eu-business-martin-rowson", "apiUrl": "https://content.guardianapis.com/commentisfree/cartoon/2011/dec/23/cameron-eu-business-martin-rowson", "isHosted": false, "pillarId": "pillar/opinion", "pillarName": "Opinion"}, {"id": "environment/2011/dec/23/country-diary-pinnick-wood-new-forest", "type": "article", "sectionId": "environment", "sectionName": "Environment", "webPublicationDate": "2011-12-23T19:00:00Z", "webTitle": "Country diary: Pinnick Wood, New Forest", "webUrl": "https://www.theguardian.com/environment/2011/dec/23/country-diary-pinnick-wood-new-forest", "apiUrl": "https://content.guardianapis.com/environment/2011/dec/23/country-diary-pinnick-wood-new-forest", "isHosted": false, "pillarId": "pillar/news", "pillarName": "News"}, {"id": "business/2011/dec/23/sellafield-pays-9m-pound-bonus", "type": "article", "sectionId": "business", "sectionName": "Business", "webPublicationDate": "2011-12-23T17:29:53Z", "webTitle": "Sellafield gives nuclear workers \u00a31,000 bonus \u2013 for attending meetings", "webUrl": "https://www.theguardian.com/business/2011/dec/23/sellafield-pays-9m-pound-bonus", "apiUrl": "https://content.guardianapis.com/business/2011/dec/23/sellafield-pays-9m-pound-bonus", "isHosted": false, "pillarId": "pillar/news", "pillarName": "News"}, {"id": "environment/2011/dec/23/farming-food", "type": "article", "sectionId": "environment", "sectionName": "Environment", "webPublicationDate": "2011-12-23T16:32:00Z", "webTitle": "Traditional farming can save threatened species, study finds", "webUrl": "https://www.theguardian.com/environment/2011/dec/23/farming-food", "apiUrl": "https://content.guardianapis.com/environment/2011/dec/23/farming-food", "isHosted": false, "pillarId": "pillar/news", "pillarName": "News"}, {"id": "environment/gallery/2011/dec/23/week-wildlife-in-pictures-dec-23", "type": "gallery", "sectionId": "environment", "sectionName": "Environment", "webPublicationDate": "2011-12-23T13:28:18Z", "webTitle": "The week in wildlife - in pictures", "webUrl": "https://www.theguardian.com/environment/gallery/2011/dec/23/week-wildlife-in-pictures-dec-23", "apiUrl": "https://content.guardianapis.com/environment/gallery/2011/dec/23/week-wildlife-in-pictures-dec-23", "isHosted": false, "pillarId": "pillar/news", "pillarName": "News"}, {"id": "environment/2011/dec/23/2011-environmental-year-review", "type": "article", "sectionId": "environment", "sectionName": "Environment", "webPublicationDate": "2011-12-23T12:31:09Z", "webTitle": "2011: Britain's environmental year in review", "webUrl": "https://www.theguardian.com/environment/2011/dec/23/2011-environmental-year-review", "apiUrl": "https://content.guardianapis.com/environment/2011/dec/23/2011-environmental-year-review", "isHosted": false, "pillarId": "pillar/news", "pillarName": "News"}, {"id": "commentisfree/2011/dec/23/solar-panel-cowboys-subsidies", "type": "article", "sectionId": "commentisfree", "sectionName": "Opinion", "webPublicationDate": "2011-12-23T12:09:26Z", "webTitle": "Beware of the solar panel cowboys | John Vidal", "webUrl": "https://www.theguardian.com/commentisfree/2011/dec/23/solar-panel-cowboys-subsidies", "apiUrl": "https://content.guardianapis.com/commentisfree/2011/dec/23/solar-panel-cowboys-subsidies", "isHosted": false, "pillarId": "pillar/opinion", "pillarName": "Opinion"}]}}