{"response": {"status": "ok", "userTier": "developer", "total": 130023, "startIndex": 1, "pageSize": 50, "currentPage": 1, "pages": 2601, "orderBy": "newest", "results": [{"id": "commentisfree/2010/dec/30/nhs-privatisation-lansley-change-course", "type": "article", "sectionId": "commentisfree", "sectionName": "Opinion", "webPublicationDate": "2010-12-30T22:00:10Z", "webTitle": "To avoid NHS privatisation, Lansley must change course | Sarah Wollaston", "webUrl": "https://www.theguardian.com/commentisfree/2010/dec/30/nhs-privatisation-lansley-change-course", "apiUrl": "https://content.guardianapis.com/commentisfree/2010/dec/30/nhs-privatisation-lansley-change-course", "isHosted": false, "pillarId": "pillar/opinion", "pillarName": "Opinion"}, {"id": "uk/2010/dec/30/london-gang-deaths-david-cameron", "type": "article", "sectionId": "uk-news", "sectionName": "UK news", "webPublicationDate": "2010-12-30T21:57:42Z", "webTitle": "London fears new wave of gang deaths", "webUrl": "https://www.theguardian.com/uk/2010/dec/30/london-gang-deaths-david-cameron", "apiUrl": "https://content.guardianapis.com/uk/2010/dec/30/london-gang-deaths-david-cameron", "isHosted": false, "pillarId": "pillar/news", "pillarName": "News"}, {"id": "politics/2010/dec/30/andrew-lansley-nhs-reform", "type": "article", "sectionId": "politics", "sectionName": "Politics", "webPublicationDate": "2010-12-30T21:13:14Z", "webTitle": "Speed of NHS reform means Andrew Lansley has faced a bumpy ride", "webUrl": "https://www.theguardian.com/politics/2010/dec/30/andrew-lansley-nhs-reform", "apiUrl": "https://content.guardianapis.com/politics/2010/dec/30/andrew-lansley-nhs-reform", "isHosted": false, "pillarId": "pillar/news", "pillarName": "News"}, {"id": "commentisfree/2010/dec/30/harold-macmillan-teach-david-cameron", "type": "article", "sectionId": "commentisfree", "sectionName": "Opinion", "webPublicationDate": "2010-12-30T21:00:01Z", "webTitle": "What Harold Macmillan could teach David Cameron | Martin Kettle", "webUrl": "https://www.theguardian.com/commentisfree/2010/dec/30/harold-macmillan-teach-david-cameron", "apiUrl": "https://content.guardianapis.com/commentisfree/2010/dec/30/harold-macmillan-teach-david-cameron", "isHosted": false, "pillarId": "pillar/opinion", "pillarName": "Opinion"}, {"id": "uk/2010/dec/30/northern-ireland-water-crisis-hospitals", "type": "article", "sectionId": "uk-news", "sectionName": "UK news", "webPublicationDate": "2010-12-30T20:39:47Z", "webTitle": "Northern Ireland water crisis to run into next week", "webUrl": "https://www.theguardian.com/uk/2010/dec/30/northern-ireland-water-crisis-hospitals", "apiUrl": "https://content.guardianapis.com/uk/2010/dec/30/northern-ireland-water-crisis-hospitals", "isHosted": false, "pillarId": "pillar/news", "pillarName": "News"}, {"id": "politics/2010/dec/30/wikileaks-freedom-information-ministers-government", "type": "article", "sectionId": "politics", "sectionName": "Politics", "webPublicationDate": "2010-12-30T20:13:45Z", "webTitle": "Ministers must 'wise up not clam up' after WikiLeaks disclosures", "webUrl": "https://www.theguardian.com/politics/2010/dec/30/wikileaks-freedom-information-ministers-government", "apiUrl": "https://content.guardianapis.com/politics/2010/dec/30/wikileaks-freedom-information-ministers-government", "isHosted": false, "pillarId": "pillar/news", "pillarName": "News"}, {"id": "politics/2010/dec/30/brendan-barber-tuc-horrible-year", "type": "article", "sectionId": "politics", "sectionName": "Politics", "webPublicationDate": "2010-12-30T19:46:40Z", "webTitle": "TUC chief Brendan Barber predicts 'horrible year' as spending cuts kick in", "webUrl": "https://www.theguardian.com/politics/2010/dec/30/brendan-barber-tuc-horrible-year", "apiUrl": "https://content.guardianapis.com/politics/2010/dec/30/brendan-barber-tuc-horrible-year", "isHosted": false, "pillarId": "pillar/news", "pillarName": "News"}, {"id": "society/2010/dec/30/bishop-big-society-faith-groups", "type": "article", "sectionId": "society", "sectionName": "Society", "webPublicationDate": "2010-12-30T19:03:52Z", "webTitle": "Faith groups will not fill gaps left by spending cuts, warns Anglican bishop", "webUrl": "https://www.theguardian.com/society/2010/dec/30/bishop-big-society-faith-groups", "apiUrl": "https://content.guardianapis.com/society/2010/dec/30/bishop-big-society-faith-groups", "isHosted": false, "pillarId": "pillar/news", "pillarName": "News"}, {"id": "commentisfree/2010/dec/30/beware-fairies-david-cameron-forests-sale", "type": "article", "sectionId": "commentisfree", "sectionName": "Opinion", "webPublicationDate": "2010-12-30T16:00:06Z", "webTitle": "Beware the forest fairies, David Cameron | Louise Ingram", "webUrl": "https://www.theguardian.com/commentisfree/2010/dec/30/beware-fairies-david-cameron-forests-sale", "apiUrl": "https://content.guardianapis.com/commentisfree/2010/dec/30/beware-fairies-david-cameron-forests-sale", "isHosted": false, "pillarId": "pillar/opinion", "pillarName": "Opinion"}, {"id": "uk/blog/2010/dec/30/supermac-was-right-1980-and-right-now", "type": "article", "sectionId": "uk-news", "sectionName": "UK news", "webPublicationDate": "2010-12-30T14:17:17Z", "webTitle": "Supermac was right in 1980 and he's right today | Michael White", "webUrl": "https://www.theguardian.com/uk/blog/2010/dec/30/supermac-was-right-1980-and-right-now", "apiUrl": "https://content.guardianapis.com/uk/blog/2010/dec/30/supermac-was-right-1980-and-right-now", "isHosted": false, "pillarId": "pillar/news", "pillarName": "News"}, {"id": "society/2010/dec/30/community-links-big-society-letter", "type": "article", "sectionId": "society", "sectionName": "Society", "webPublicationDate": "2010-12-30T12:10:00Z", "webTitle": "Open letter from David Robinson to David Cameron", "webUrl": "https://www.theguardian.com/society/2010/dec/30/community-links-big-society-letter", "apiUrl": "https://content.guardianapis.com/society/2010/dec/30/community-links-big-society-letter", "isHosted": false, "pillarId": "pillar/news", "pillarName": "News"}, {"id": "society/joepublic/2010/dec/30/nhs-older-people", "type": "article", "sectionId": "society", "sectionName": "Society", "webPublicationDate": "2010-12-30T10:05:00Z", "webTitle": "We need an NHS for later life", "webUrl": "https://www.theguardian.com/society/joepublic/2010/dec/30/nhs-older-people", "apiUrl": "https://content.guardianapis.com/society/joepublic/2010/dec/30/nhs-older-people", "isHosted": false, "pillarId": "pillar/news", "pillarName": "News"}, {"id": "lifeandstyle/2010/dec/30/gaffes-of-the-year", "type": "article", "sectionId": "lifeandstyle", "sectionName": "Life and style", "webPublicationDate": "2010-12-30T08:00:12Z", "webTitle": "Gaffes of the year", "webUrl": "https://www.theguardian.com/lifeandstyle/2010/dec/30/gaffes-of-the-year", "apiUrl": "https://content.guardianapis.com/lifeandstyle/2010/dec/30/gaffes-of-the-year", "isHosted": false, "pillarId": "pillar/lifestyle", "pillarName": "Lifestyle"}, {"id": "lifeandstyle/2010/dec/30/g2-2010-review-wikileaks-glossary", "type": "article", "sectionId": "lifeandstyle", "sectionName": "Life and style", "webPublicationDate": "2010-12-30T08:00:04Z", "webTitle": "Tom Meltzer's WikiLeaks glossary", "webUrl": "https://www.theguardian.com/lifeandstyle/2010/dec/30/g2-2010-review-wikileaks-glossary", "apiUrl": "https://content.guardianapis.com/lifeandstyle/2010/dec/30/g2-2010-review-wikileaks-glossary", "isHosted": false, "pillarId": "pillar/lifestyle", "pillarName": "Lifestyle"}, {"id": "lifeandstyle/2010/dec/30/westminster-digested-politics", "type": "article", "sectionId": "lifeandstyle", "sectionName": "Life and style", "webPublicationDate": "2010-12-30T08:00:00Z", "webTitle": "Westminster digested", "webUrl": "https://www.theguardian.com/lifeandstyle/2010/dec/30/westminster-digested-politics", "apiUrl": "https://content.guardianapis.com/lifeandstyle/2010/dec/30/westminster-digested-politics", "isHosted": false, "pillarId": "pillar/lifestyle", "pillarName": "Lifestyle"}, {"id": "lifeandstyle/gallery/2010/dec/30/g2-2010-review-logos", "type": "gallery", "sectionId": "lifeandstyle", "sectionName": "Life and style", "webPublicationDate": "2010-12-30T08:00:00Z", "webTitle": "Five logos that changed in 2010", "webUrl": "https://www.theguardian.com/lifeandstyle/gallery/2010/dec/30/g2-2010-review-logos", "apiUrl": "https://content.guardianapis.com/lifeandstyle/gallery/2010/dec/30/g2-2010-review-logos", "isHosted": false, "pillarId": "pillar/lifestyle", "pillarName": "Lifestyle"}, {"id": "lifeandstyle/gallery/2010/dec/30/steve-bell-cartoons-of-year", "type": "gallery", "sectionId": "lifeandstyle", "sectionName": "Life and style", "webPublicationDate": "2010-12-30T08:00:00Z", "webTitle": "Steve Bell's political cartoons of the year", "webUrl": "https://www.theguardian.com/lifeandstyle/gallery/2010/dec/30/steve-bell-cartoons-of-year", "apiUrl": "https://content.guardianapis.com/lifeandstyle/gallery/2010/dec/30/steve-bell-cartoons-of-year", "isHosted": false, "pillarId": "pillar/lifestyle", "pillarName": "Lifestyle"}, {"id": "tv-and-radio/2010/dec/30/tv-matters-mark-lawson-david-cameron", "type": "article", "sectionId": "tv-and-radio", "sectionName": "Television & radio", "webPublicationDate": "2010-12-30T07:59:02Z", "webTitle": "TV matters: David Cameron", "webUrl": "https://www.theguardian.com/tv-and-radio/2010/dec/30/tv-matters-mark-lawson-david-cameron", "apiUrl": "https://content.guardianapis.com/tv-and-radio/2010/dec/30/tv-matters-mark-lawson-david-cameron", "isHosted": false, "pillarId": "pillar/arts", "pillarName": "Arts"}, {"id": "society/2010/dec/29/david-cameron-big-society-criticism", "type": "article", "sectionId": "society", "sectionName": "Society", "webPublicationDate": "2010-12-30T00:24:00Z", "webTitle": "Charity chief says cuts could destroy David Cameron's 'big society'", "webUrl": "https://www.theguardian.com/society/2010/dec/29/david-cameron-big-society-criticism", "apiUrl": "https://content.guardianapis.com/society/2010/dec/29/david-cameron-big-society-criticism", "isHosted": false, "pillarId": "pillar/news", "pillarName": "News"}, {"id": "commentisfree/2010/dec/30/liberal-democrats-year-living-dangerously", "type": "article", "sectionId": "commentisfree", "sectionName": "Opinion", "webPublicationDate": "2010-12-30T00:05:08Z", "webTitle": "Liberal Democrats: A year of living dangerously | Editorial", "webUrl": "https://www.theguardian.com/commentisfree/2010/dec/30/liberal-democrats-year-living-dangerously", "apiUrl": "https://content.guardianapis.com/commentisfree/2010/dec/30/liberal-democrats-year-living-dangerously", "isHosted": false, "pillarId": "pillar/opinion", "pillarName": "Opinion"}, {"id": "world/2010/dec/30/irish-influx-conservative-migration-pledge", "type": "article", "sectionId": "world", "sectionName": "World news", "webPublicationDate": "2010-12-30T00:05:05Z", "webTitle": "Irish influx to thwart Conservative election pledge on migration", "webUrl": "https://www.theguardian.com/world/2010/dec/30/irish-influx-conservative-migration-pledge", "apiUrl": "https://content.guardianapis.com/world/2010/dec/30/irish-influx-conservative-migration-pledge", "isHosted": false, "pillarId": "pillar/news", "pillarName": "News"}, {"id": "politics/2010/dec/30/alternative-view-on-oldham-byelection", "type": "article", "sectionId": "politics", "sectionName": "Politics", "webPublicationDate": "2010-12-30T00:05:05Z", "webTitle": "Letters: Alternative view on the Oldham byelection", "webUrl": "https://www.theguardian.com/politics/2010/dec/30/alternative-view-on-oldham-byelection", "apiUrl": "https://content.guardianapis.com/politics/2010/dec/30/alternative-view-on-oldham-byelection", "isHosted": false, "pillarId": "pillar/news", "pillarName": "News"}, {"id": "politics/2010/dec/30/jayaben-desai-grunwick-picket-ford", "type": "article", "sectionId": "politics", "sectionName": "Politics", "webPublicationDate": "2010-12-30T00:05:04Z", "webTitle": "Letters: Jayaben Desai's lead", "webUrl": "https://www.theguardian.com/politics/2010/dec/30/jayaben-desai-grunwick-picket-ford", "apiUrl": "https://content.guardianapis.com/politics/2010/dec/30/jayaben-desai-grunwick-picket-ford", "isHosted": false, "pillarId": "pillar/news", "pillarName": "News"}, {"id": "uk/2010/dec/30/national-archives-1980-margaret-thatcher", "type": "article", "sectionId": "uk-news", "sectionName": "UK news", "webPublicationDate": "2010-12-30T00:05:02Z", "webTitle": "National Archives 1980: Margaret Thatcher and her handbag diplomacy", "webUrl": "https://www.theguardian.com/uk/2010/dec/30/national-archives-1980-margaret-thatcher", "apiUrl": "https://content.guardianapis.com/uk/2010/dec/30/national-archives-1980-margaret-thatcher", "isHosted": false, "pillarId": "pillar/news", "pillarName": "News"}, {"id": "uk/2010/dec/30/iranian-embassy-siege-sas-policy", "type": "article", "sectionId": "uk-news", "sectionName": "UK news", "webPublicationDate": "2010-12-30T00:05:01Z", "webTitle": "National Archives 1980: SAS to be given immunity for killing foreigners", "webUrl": "https://www.theguardian.com/uk/2010/dec/30/iranian-embassy-siege-sas-policy", "apiUrl": "https://content.guardianapis.com/uk/2010/dec/30/iranian-embassy-siege-sas-policy", "isHosted": false, "pillarId": "pillar/news", "pillarName": "News"}, {"id": "uk/2010/dec/30/national-archives-pope-ira-hunger", "type": "article", "sectionId": "uk-news", "sectionName": "UK news", "webPublicationDate": "2010-12-30T00:05:01Z", "webTitle": "National Archives: Britain lobbied pope to intervene in IRA hunger strike", "webUrl": "https://www.theguardian.com/uk/2010/dec/30/national-archives-pope-ira-hunger", "apiUrl": "https://content.guardianapis.com/uk/2010/dec/30/national-archives-pope-ira-hunger", "isHosted": false, "pillarId": "pillar/news", "pillarName": "News"}, {"id": "commentisfree/cartoon/2010/dec/30/david-cameron-ashes", "type": "picture", "sectionId": "commentisfree", "sectionName": "Opinion", "webPublicationDate": "2010-12-30T00:05:00Z", "webTitle": "Phil Disley on David Cameron's relationship with senior Lib Dems", "webUrl": "https://www.theguardian.com/commentisfree/cartoon/2010/dec/30/david-cameron-ashes", "apiUrl": "https://content.guardianapis.com/commentisfree/cartoon/2010/dec/30/david-cameron-ashes", "isHosted": false, "pillarId": "pillar/opinion", "pillarName": "Opinion"}, {"id": "society/2010/dec/30/big-society-beggar-my-neighbour", "type": "article", "sectionId": "society", "sectionName": "Society", "webPublicationDate": "2010-12-30T00:04:02Z", "webTitle": "Letters: Big society or beggar my neighbour?", "webUrl": "https://www.theguardian.com/society/2010/dec/30/big-society-beggar-my-neighbour", "apiUrl": "https://content.guardianapis.com/society/2010/dec/30/big-society-beggar-my-neighbour", "isHosted": false, "pillarId": "pillar/news", "pillarName": "News"}, {"id": "politics/2010/dec/30/margaret-thatcher-spying-john-stonehouse", "type": "article", "sectionId": "politics", "sectionName": "Politics", "webPublicationDate": "2010-12-30T00:02:01Z", "webTitle": "Margaret Thatcher in cover-up after Czech spy exposed John Stonehouse", "webUrl": "https://www.theguardian.com/politics/2010/dec/30/margaret-thatcher-spying-john-stonehouse", "apiUrl": "https://content.guardianapis.com/politics/2010/dec/30/margaret-thatcher-spying-john-stonehouse", "isHosted": false, "pillarId": "pillar/news", "pillarName": "News"}, {"id": "uk/2010/dec/30/uk-mujahideen-afghanistan-soviet-invasion", "type": "article", "sectionId": "uk-news", "sectionName": "UK news", "webPublicationDate": "2010-12-30T00:01:01Z", "webTitle": "UK discussed plans to help mujahideen weeks after Soviet invasion of Afghanistan", "webUrl": "https://www.theguardian.com/uk/2010/dec/30/uk-mujahideen-afghanistan-soviet-invasion", "apiUrl": "https://content.guardianapis.com/uk/2010/dec/30/uk-mujahideen-afghanistan-soviet-invasion", "isHosted": false, "pillarId": "pillar/news", "pillarName": "News"}, {"id": "politics/2010/dec/30/state-pension-geoffrey-howe-margaret-thatcher", "type": "article", "sectionId": "uk-news", "sectionName": "UK news", "webPublicationDate": "2010-12-30T00:01:01Z", "webTitle": "Ministers feared 1980 plan to cut state pension would cause riots, papers show", "webUrl": "https://www.theguardian.com/politics/2010/dec/30/state-pension-geoffrey-howe-margaret-thatcher", "apiUrl": "https://content.guardianapis.com/politics/2010/dec/30/state-pension-geoffrey-howe-margaret-thatcher", "isHosted": false, "pillarId": "pillar/news", "pillarName": "News"}, {"id": "politics/2010/dec/29/alternative-vote-labour-no-camp", "type": "article", "sectionId": "politics", "sectionName": "Politics", "webPublicationDate": "2010-12-29T21:46:11Z", "webTitle": "Ed Miliband's pro-AV stance opposed by 114 Labour MPs", "webUrl": "https://www.theguardian.com/politics/2010/dec/29/alternative-vote-labour-no-camp", "apiUrl": "https://content.guardianapis.com/politics/2010/dec/29/alternative-vote-labour-no-camp", "isHosted": false, "pillarId": "pillar/news", "pillarName": "News"}, {"id": "society/2010/dec/29/lord-fowler-hiv-aids", "type": "article", "sectionId": "society", "sectionName": "Society", "webPublicationDate": "2010-12-29T21:45:21Z", "webTitle": "Thatcher stalwart Lord Fowler to head new Aids inquiry", "webUrl": "https://www.theguardian.com/society/2010/dec/29/lord-fowler-hiv-aids", "apiUrl": "https://content.guardianapis.com/society/2010/dec/29/lord-fowler-hiv-aids", "isHosted": false, "pillarId": "pillar/news", "pillarName": "News"}, {"id": "uk/2010/dec/29/northern-ireland-water-crisis-health", "type": "article", "sectionId": "uk-news", "sectionName": "UK news", "webPublicationDate": "2010-12-29T21:13:55Z", "webTitle": "Northen Ireland water shortage hits thousands of households", "webUrl": "https://www.theguardian.com/uk/2010/dec/29/northern-ireland-water-crisis-health", "apiUrl": "https://content.guardianapis.com/uk/2010/dec/29/northern-ireland-water-crisis-health", "isHosted": false, "pillarId": "pillar/news", "pillarName": "News"}, {"id": "commentisfree/2010/dec/29/michael-heseltine-conservatives", "type": "article", "sectionId": "commentisfree", "sectionName": "Opinion", "webPublicationDate": "2010-12-29T21:00:01Z", "webTitle": "Why Michael Heseltine has returned | Anne McElvoy", "webUrl": "https://www.theguardian.com/commentisfree/2010/dec/29/michael-heseltine-conservatives", "apiUrl": "https://content.guardianapis.com/commentisfree/2010/dec/29/michael-heseltine-conservatives", "isHosted": false, "pillarId": "pillar/opinion", "pillarName": "Opinion"}, {"id": "uk/2010/dec/29/police-stop-and-search-powers", "type": "article", "sectionId": "law", "sectionName": "Law", "webPublicationDate": "2010-12-29T21:00:00Z", "webTitle": "Police demand new powers to stop and search terror suspects", "webUrl": "https://www.theguardian.com/uk/2010/dec/29/police-stop-and-search-powers", "apiUrl": "https://content.guardianapis.com/uk/2010/dec/29/police-stop-and-search-powers", "isHosted": false, "pillarId": "pillar/news", "pillarName": "News"}, {"id": "politics/2010/dec/29/nick-clegg-house-of-lords", "type": "article", "sectionId": "politics", "sectionName": "Politics", "webPublicationDate": "2010-12-29T20:40:35Z", "webTitle": "Nick Clegg to front plan for mainly elected House of Lords", "webUrl": "https://www.theguardian.com/politics/2010/dec/29/nick-clegg-house-of-lords", "apiUrl": "https://content.guardianapis.com/politics/2010/dec/29/nick-clegg-house-of-lords", "isHosted": false, "pillarId": "pillar/news", "pillarName": "News"}, {"id": "commentisfree/2010/dec/29/cameron-clegg-coalition-fragile-economy", "type": "article", "sectionId": "commentisfree", "sectionName": "Opinion", "webPublicationDate": "2010-12-29T20:00:01Z", "webTitle": "Cameron and Clegg have shown they are for turning | Seumas Milne", "webUrl": "https://www.theguardian.com/commentisfree/2010/dec/29/cameron-clegg-coalition-fragile-economy", "apiUrl": "https://content.guardianapis.com/commentisfree/2010/dec/29/cameron-clegg-coalition-fragile-economy", "isHosted": false, "pillarId": "pillar/opinion", "pillarName": "Opinion"}, {"id": "media/2010/dec/29/ofcom-rupert-murdoch-bskyb-buyout", "type": "article", "sectionId": "media", "sectionName": "Media", "webPublicationDate": "2010-12-29T19:45:55Z", "webTitle": "Ofcom to demand further inquiry of Rupert Murdoch's BSkyB buyout", "webUrl": "https://www.theguardian.com/media/2010/dec/29/ofcom-rupert-murdoch-bskyb-buyout", "apiUrl": "https://content.guardianapis.com/media/2010/dec/29/ofcom-rupert-murdoch-bskyb-buyout", "isHosted": false, "pillarId": "pillar/news", "pillarName": "News"}, {"id": "politics/2010/dec/29/heinz-beans-strike-wigan-pay", "type": "article", "sectionId": "uk-news", "sectionName": "UK news", "webPublicationDate": "2010-12-29T18:50:40Z", "webTitle": "Heinz meanz strikez as Wigan workers push for better pay", "webUrl": "https://www.theguardian.com/politics/2010/dec/29/heinz-beans-strike-wigan-pay", "apiUrl": "https://content.guardianapis.com/politics/2010/dec/29/heinz-beans-strike-wigan-pay", "isHosted": false, "pillarId": "pillar/news", "pillarName": "News"}, {"id": "media/2010/dec/29/bbc-trust-chair-must-be-independent", "type": "article", "sectionId": "media", "sectionName": "Media", "webPublicationDate": "2010-12-29T15:19:19Z", "webTitle": "Parliament should have say in chair of BBC Trust, says Labour frontbencher", "webUrl": "https://www.theguardian.com/media/2010/dec/29/bbc-trust-chair-must-be-independent", "apiUrl": "https://content.guardianapis.com/media/2010/dec/29/bbc-trust-chair-must-be-independent", "isHosted": false, "pillarId": "pillar/news", "pillarName": "News"}, {"id": "commentisfree/cartoon/2010/dec/28/benefit-fraud-abroad", "type": "picture", "sectionId": "commentisfree", "sectionName": "Opinion", "webPublicationDate": "2010-12-29T15:00:00Z", "webTitle": "Cartoon: Beware the benefit fraud abroad | Iain Green", "webUrl": "https://www.theguardian.com/commentisfree/cartoon/2010/dec/28/benefit-fraud-abroad", "apiUrl": "https://content.guardianapis.com/commentisfree/cartoon/2010/dec/28/benefit-fraud-abroad", "isHosted": false, "pillarId": "pillar/opinion", "pillarName": "Opinion"}, {"id": "politics/blog/2010/dec/29/why-simon-hughes-is-wrong-coalition-job", "type": "article", "sectionId": "politics", "sectionName": "Politics", "webPublicationDate": "2010-12-29T14:17:32Z", "webTitle": "Why Simon Hughes is wrong to accept coalition job| Michael White", "webUrl": "https://www.theguardian.com/politics/blog/2010/dec/29/why-simon-hughes-is-wrong-coalition-job", "apiUrl": "https://content.guardianapis.com/politics/blog/2010/dec/29/why-simon-hughes-is-wrong-coalition-job", "isHosted": false, "pillarId": "pillar/news", "pillarName": "News"}, {"id": "commentisfree/2010/dec/29/giving-green-paper-money-charity", "type": "article", "sectionId": "commentisfree", "sectionName": "Opinion", "webPublicationDate": "2010-12-29T12:00:03Z", "webTitle": "What's the best way to encourage giving? | Open thread", "webUrl": "https://www.theguardian.com/commentisfree/2010/dec/29/giving-green-paper-money-charity", "apiUrl": "https://content.guardianapis.com/commentisfree/2010/dec/29/giving-green-paper-money-charity", "isHosted": false, "pillarId": "pillar/opinion", "pillarName": "Opinion"}, {"id": "commentisfree/2010/dec/29/nhs-white-paper-gps", "type": "article", "sectionId": "commentisfree", "sectionName": "Opinion", "webPublicationDate": "2010-12-29T11:00:00Z", "webTitle": "Give GPs a chance to implement the government's health proposals | Anuradha Arasu", "webUrl": "https://www.theguardian.com/commentisfree/2010/dec/29/nhs-white-paper-gps", "apiUrl": "https://content.guardianapis.com/commentisfree/2010/dec/29/nhs-white-paper-gps", "isHosted": false, "pillarId": "pillar/opinion", "pillarName": "Opinion"}, {"id": "commentisfree/2010/dec/29/petitions-politics-editorial", "type": "article", "sectionId": "commentisfree", "sectionName": "Opinion", "webPublicationDate": "2010-12-29T00:05:09Z", "webTitle": "Petitions and politics: A little more reality | Editorial", "webUrl": "https://www.theguardian.com/commentisfree/2010/dec/29/petitions-politics-editorial", "apiUrl": "https://content.guardianapis.com/commentisfree/2010/dec/29/petitions-politics-editorial", "isHosted": false, "pillarId": "pillar/opinion", "pillarName": "Opinion"}, {"id": "society/2010/dec/29/affordable-homes-target-short-19000", "type": "article", "sectionId": "society", "sectionName": "Society", "webPublicationDate": "2010-12-29T00:05:05Z", "webTitle": "Affordable homes target 'will fall short by 19,000' new-builds", "webUrl": "https://www.theguardian.com/society/2010/dec/29/affordable-homes-target-short-19000", "apiUrl": "https://content.guardianapis.com/society/2010/dec/29/affordable-homes-target-short-19000", "isHosted": false, "pillarId": "pillar/news", "pillarName": "News"}, {"id": "business/2010/dec/29/nudge-in-the-wrong-direction", "type": "article", "sectionId": "business", "sectionName": "Business", "webPublicationDate": "2010-12-29T00:05:02Z", "webTitle": "Letters: Political nudge in the wrong direction", "webUrl": "https://www.theguardian.com/business/2010/dec/29/nudge-in-the-wrong-direction", "apiUrl": "https://content.guardianapis.com/business/2010/dec/29/nudge-in-the-wrong-direction", "isHosted": false, "pillarId": "pillar/news", "pillarName": "News"}, {"id": "politics/2010/dec/29/simon-hughes-higher-education-role", "type": "article", "sectionId": "politics", "sectionName": "Politics", "webPublicationDate": "2010-12-29T00:01:09Z", "webTitle": "Simon Hughes gets higher education role", "webUrl": "https://www.theguardian.com/politics/2010/dec/29/simon-hughes-higher-education-role", "apiUrl": "https://content.guardianapis.com/politics/2010/dec/29/simon-hughes-higher-education-role", "isHosted": false, "pillarId": "pillar/news", "pillarName": "News"}, {"id": "politics/2010/dec/28/coalition-charity-donations-cash-machines", "type": "article", "sectionId": "politics", "sectionName": "Politics", "webPublicationDate": "2010-12-28T22:48:49Z", "webTitle": "Coalition to propose automatic charity donations at cash machines", "webUrl": "https://www.theguardian.com/politics/2010/dec/28/coalition-charity-donations-cash-machines", "apiUrl": "https://content.guardianapis.com/politics/2010/dec/28/coalition-charity-donations-cash-machines", "isHosted": false, "pillarId": "pillar/news", "pillarName": "News"}]}}