{"response": {"status": "ok", "userTier": "developer", "total": 92775, "startIndex": 1, "pageSize": 50, "currentPage": 1, "pages": 1856, "orderBy": "newest", "results": [{"id": "football/2017/dec/30/alan-pardew-arsene-wenger-west-brom-arsenal", "type": "article", "sectionId": "football", "sectionName": "Football", "webPublicationDate": "2017-12-30T22:30:13Z", "webTitle": "Alan Pardew praises Ars\u00e8ne Wenger and hopes to reinforce West Brom\u2019s arsenal", "webUrl": "https://www.theguardian.com/football/2017/dec/30/alan-pardew-arsene-wenger-west-brom-arsenal", "apiUrl": "https://content.guardianapis.com/football/2017/dec/30/alan-pardew-arsene-wenger-west-brom-arsenal", "isHosted": false, "pillarId": "pillar/sport", "pillarName": "Sport"}, {"id": "football/2017/dec/30/arsene-wenger-jack-wilshere-alexis-sanchez-arsenal", "type": "article", "sectionId": "football", "sectionName": "Football", "webPublicationDate": "2017-12-30T22:30:13Z", "webTitle": "Ars\u00e8ne Wenger marvels at Wilshere but despairs over S\u00e1nchez questions", "webUrl": "https://www.theguardian.com/football/2017/dec/30/arsene-wenger-jack-wilshere-alexis-sanchez-arsenal", "apiUrl": "https://content.guardianapis.com/football/2017/dec/30/arsene-wenger-jack-wilshere-alexis-sanchez-arsenal", "isHosted": false, "pillarId": "pillar/sport", "pillarName": "Sport"}, {"id": "football/2017/dec/30/football-league-derby-go-second-with-sam-winnall-double-at-ipswich", "type": "article", "sectionId": "football", "sectionName": "Football", "webPublicationDate": "2017-12-30T20:16:54Z", "webTitle": "Football League: Derby go second while nine-man MK Dons stun Posh", "webUrl": "https://www.theguardian.com/football/2017/dec/30/football-league-derby-go-second-with-sam-winnall-double-at-ipswich", "apiUrl": "https://content.guardianapis.com/football/2017/dec/30/football-league-derby-go-second-with-sam-winnall-double-at-ipswich", "isHosted": false, "pillarId": "pillar/sport", "pillarName": "Sport"}, {"id": "football/blog/2017/dec/30/rhian-brewster-racial-abuse-daniel-taylor-column-liverpool", "type": "article", "sectionId": "football", "sectionName": "Football", "webPublicationDate": "2017-12-30T20:00:10Z", "webTitle": "That Rhian Brewster issued a wake-up call is both worrying and inspiring | Daniel Taylor", "webUrl": "https://www.theguardian.com/football/blog/2017/dec/30/rhian-brewster-racial-abuse-daniel-taylor-column-liverpool", "apiUrl": "https://content.guardianapis.com/football/blog/2017/dec/30/rhian-brewster-racial-abuse-daniel-taylor-column-liverpool", "isHosted": false, "pillarId": "pillar/sport", "pillarName": "Sport"}, {"id": "football/2017/dec/30/manchester-united-southampton-premier-league-match-report", "type": "article", "sectionId": "football", "sectionName": "Football", "webPublicationDate": "2017-12-30T19:37:19Z", "webTitle": "Mourinho hits out at referee after Southampton hold Manchester United", "webUrl": "https://www.theguardian.com/football/2017/dec/30/manchester-united-southampton-premier-league-match-report", "apiUrl": "https://content.guardianapis.com/football/2017/dec/30/manchester-united-southampton-premier-league-match-report", "isHosted": false, "pillarId": "pillar/sport", "pillarName": "Sport"}, {"id": "football/live/2017/dec/30/manchester-united-v-southampton-premier-league-live", "type": "liveblog", "sectionId": "football", "sectionName": "Football", "webPublicationDate": "2017-12-30T19:28:29Z", "webTitle": "Manchester United 0-0 Southampton: Premier League \u2013 as it happened", "webUrl": "https://www.theguardian.com/football/live/2017/dec/30/manchester-united-v-southampton-premier-league-live", "apiUrl": "https://content.guardianapis.com/football/live/2017/dec/30/manchester-united-v-southampton-premier-league-live", "isHosted": false, "pillarId": "pillar/sport", "pillarName": "Sport"}, {"id": "football/2017/dec/30/mark-hughes-weakened-stoke-team-rout-chelsea", "type": "article", "sectionId": "football", "sectionName": "Football", "webPublicationDate": "2017-12-30T19:18:28Z", "webTitle": "Mark Hughes defends decision to field weakened Stoke team in rout by Chelsea", "webUrl": "https://www.theguardian.com/football/2017/dec/30/mark-hughes-weakened-stoke-team-rout-chelsea", "apiUrl": "https://content.guardianapis.com/football/2017/dec/30/mark-hughes-weakened-stoke-team-rout-chelsea", "isHosted": false, "pillarId": "pillar/sport", "pillarName": "Sport"}, {"id": "football/blog/2017/dec/30/pep-guardiola-manchester-city-bayern-munich", "type": "article", "sectionId": "football", "sectionName": "Football", "webPublicationDate": "2017-12-30T19:00:09Z", "webTitle": "The Bayern blueprint: how Pep Guardiola honed Manchester City\u2019s unbeatables | Michael Butler", "webUrl": "https://www.theguardian.com/football/blog/2017/dec/30/pep-guardiola-manchester-city-bayern-munich", "apiUrl": "https://content.guardianapis.com/football/blog/2017/dec/30/pep-guardiola-manchester-city-bayern-munich", "isHosted": false, "pillarId": "pillar/sport", "pillarName": "Sport"}, {"id": "football/2017/dec/30/liverpool-leicester-premier-league-match-report", "type": "article", "sectionId": "football", "sectionName": "Football", "webPublicationDate": "2017-12-30T18:58:00Z", "webTitle": "Mohamed Salah double inspires Liverpool fightback after Vardy opener", "webUrl": "https://www.theguardian.com/football/2017/dec/30/liverpool-leicester-premier-league-match-report", "apiUrl": "https://content.guardianapis.com/football/2017/dec/30/liverpool-leicester-premier-league-match-report", "isHosted": false, "pillarId": "pillar/sport", "pillarName": "Sport"}, {"id": "football/2017/dec/30/middlesbrough-aston-villa-championship-match-report", "type": "article", "sectionId": "football", "sectionName": "Football", "webPublicationDate": "2017-12-30T17:50:42Z", "webTitle": "Robert Snodgrass swoops to nod winner for Aston Villa at Middlesbrough", "webUrl": "https://www.theguardian.com/football/2017/dec/30/middlesbrough-aston-villa-championship-match-report", "apiUrl": "https://content.guardianapis.com/football/2017/dec/30/middlesbrough-aston-villa-championship-match-report", "isHosted": false, "pillarId": "pillar/sport", "pillarName": "Sport"}, {"id": "football/2017/dec/30/newcastle-brighton-premier-league-match-report", "type": "article", "sectionId": "football", "sectionName": "Football", "webPublicationDate": "2017-12-30T17:30:17Z", "webTitle": "Anthony Knockaert the only spark in Newcastle and Brighton\u2019s gloomy draw", "webUrl": "https://www.theguardian.com/football/2017/dec/30/newcastle-brighton-premier-league-match-report", "apiUrl": "https://content.guardianapis.com/football/2017/dec/30/newcastle-brighton-premier-league-match-report", "isHosted": false, "pillarId": "pillar/sport", "pillarName": "Sport"}, {"id": "football/live/2017/dec/30/liverpool-v-leicester-chelsea-v-stoke-and-more-premier-league-live", "type": "liveblog", "sectionId": "football", "sectionName": "Football", "webPublicationDate": "2017-12-30T17:24:30Z", "webTitle": "Liverpool 2-1 Leicester, Chelsea 5-0 Stoke and more: Premier League \u2013 as it happened", "webUrl": "https://www.theguardian.com/football/live/2017/dec/30/liverpool-v-leicester-chelsea-v-stoke-and-more-premier-league-live", "apiUrl": "https://content.guardianapis.com/football/live/2017/dec/30/liverpool-v-leicester-chelsea-v-stoke-and-more-premier-league-live", "isHosted": false, "pillarId": "pillar/sport", "pillarName": "Sport"}, {"id": "football/2017/dec/30/watford-swansea-premier-league-match-report", "type": "article", "sectionId": "football", "sectionName": "Football", "webPublicationDate": "2017-12-30T17:20:49Z", "webTitle": "Swansea beat Watford with two late goals from Ayew and Narsingh", "webUrl": "https://www.theguardian.com/football/2017/dec/30/watford-swansea-premier-league-match-report", "apiUrl": "https://content.guardianapis.com/football/2017/dec/30/watford-swansea-premier-league-match-report", "isHosted": false, "pillarId": "pillar/sport", "pillarName": "Sport"}, {"id": "football/2017/dec/30/huddersfield-burnley-premier-league-match-report", "type": "article", "sectionId": "football", "sectionName": "Football", "webPublicationDate": "2017-12-30T17:15:54Z", "webTitle": "Jeff Hendrick denied penalty for Burnley in Huddersfield stalemate", "webUrl": "https://www.theguardian.com/football/2017/dec/30/huddersfield-burnley-premier-league-match-report", "apiUrl": "https://content.guardianapis.com/football/2017/dec/30/huddersfield-burnley-premier-league-match-report", "isHosted": false, "pillarId": "pillar/sport", "pillarName": "Sport"}, {"id": "football/2017/dec/30/bournemouth-everton-premier-league-match-report", "type": "article", "sectionId": "football", "sectionName": "Football", "webPublicationDate": "2017-12-30T17:15:29Z", "webTitle": "Ryan Fraser at the double for Bournemouth to see off Everton", "webUrl": "https://www.theguardian.com/football/2017/dec/30/bournemouth-everton-premier-league-match-report", "apiUrl": "https://content.guardianapis.com/football/2017/dec/30/bournemouth-everton-premier-league-match-report", "isHosted": false, "pillarId": "pillar/sport", "pillarName": "Sport"}, {"id": "football/2017/dec/30/chelsea-stoke-premier-league-match-report", "type": "article", "sectionId": "football", "sectionName": "Football", "webPublicationDate": "2017-12-30T17:11:17Z", "webTitle": "Chelsea\u2019s Davide Zappacosta completes crushing of dire Stoke", "webUrl": "https://www.theguardian.com/football/2017/dec/30/chelsea-stoke-premier-league-match-report", "apiUrl": "https://content.guardianapis.com/football/2017/dec/30/chelsea-stoke-premier-league-match-report", "isHosted": false, "pillarId": "pillar/sport", "pillarName": "Sport"}, {"id": "football/2017/dec/30/celtic-rangers-scottish-premiership-match-report", "type": "article", "sectionId": "football", "sectionName": "Football", "webPublicationDate": "2017-12-30T14:04:16Z", "webTitle": "Craig Gordon saves Celtic as Rangers impress in goalless Old Firm derby", "webUrl": "https://www.theguardian.com/football/2017/dec/30/celtic-rangers-scottish-premiership-match-report", "apiUrl": "https://content.guardianapis.com/football/2017/dec/30/celtic-rangers-scottish-premiership-match-report", "isHosted": false, "pillarId": "pillar/sport", "pillarName": "Sport"}, {"id": "football/live/2017/dec/30/celtic-v-rangers-scottish-premiership-live", "type": "liveblog", "sectionId": "football", "sectionName": "Football", "webPublicationDate": "2017-12-30T13:54:49Z", "webTitle": "Celtic 0-0 Rangers: Scottish Premiership \u2013\u00a0as it happened", "webUrl": "https://www.theguardian.com/football/live/2017/dec/30/celtic-v-rangers-scottish-premiership-live", "apiUrl": "https://content.guardianapis.com/football/live/2017/dec/30/celtic-v-rangers-scottish-premiership-live", "isHosted": false, "pillarId": "pillar/sport", "pillarName": "Sport"}, {"id": "football/2017/dec/30/premier-league-fans-january-transfer-window", "type": "article", "sectionId": "football", "sectionName": "Football", "webPublicationDate": "2017-12-30T12:28:32Z", "webTitle": "Premier League: fans from all 20 clubs make their transfer window selections", "webUrl": "https://www.theguardian.com/football/2017/dec/30/premier-league-fans-january-transfer-window", "apiUrl": "https://content.guardianapis.com/football/2017/dec/30/premier-league-fans-january-transfer-window", "isHosted": false, "pillarId": "pillar/sport", "pillarName": "Sport"}, {"id": "football/2017/dec/30/west-bromwich-albion-arsenal-match-preview", "type": "article", "sectionId": "football", "sectionName": "Football", "webPublicationDate": "2017-12-30T09:00:08Z", "webTitle": "West Bromwich Albion v Arsenal: match preview", "webUrl": "https://www.theguardian.com/football/2017/dec/30/west-bromwich-albion-arsenal-match-preview", "apiUrl": "https://content.guardianapis.com/football/2017/dec/30/west-bromwich-albion-arsenal-match-preview", "isHosted": false, "pillarId": "pillar/sport", "pillarName": "Sport"}, {"id": "football/2017/dec/30/crystal-palace-manchester-city-match-preview", "type": "article", "sectionId": "football", "sectionName": "Football", "webPublicationDate": "2017-12-30T09:00:08Z", "webTitle": "Crystal Palace v Manchester City: match preview", "webUrl": "https://www.theguardian.com/football/2017/dec/30/crystal-palace-manchester-city-match-preview", "apiUrl": "https://content.guardianapis.com/football/2017/dec/30/crystal-palace-manchester-city-match-preview", "isHosted": false, "pillarId": "pillar/sport", "pillarName": "Sport"}, {"id": "football/blog/2017/dec/30/harry-kane-english-clubs-real-madrid-january-transfer-window", "type": "article", "sectionId": "football", "sectionName": "Football", "webPublicationDate": "2017-12-30T09:00:08Z", "webTitle": "Harry Kane race set for summer but will English clubs steal march on Real?", "webUrl": "https://www.theguardian.com/football/blog/2017/dec/30/harry-kane-english-clubs-real-madrid-january-transfer-window", "apiUrl": "https://content.guardianapis.com/football/blog/2017/dec/30/harry-kane-english-clubs-real-madrid-january-transfer-window", "isHosted": false, "pillarId": "pillar/sport", "pillarName": "Sport"}, {"id": "football/2017/dec/30/goals-of-2017-carroll-giroud-torres-lemar-kane", "type": "article", "sectionId": "football", "sectionName": "Football", "webPublicationDate": "2017-12-30T07:50:04Z", "webTitle": "The best goals of 2017, from a Carroll cracker to a non-league nod to Bergkamp", "webUrl": "https://www.theguardian.com/football/2017/dec/30/goals-of-2017-carroll-giroud-torres-lemar-kane", "apiUrl": "https://content.guardianapis.com/football/2017/dec/30/goals-of-2017-carroll-giroud-torres-lemar-kane", "isHosted": false, "pillarId": "pillar/sport", "pillarName": "Sport"}, {"id": "football/2017/dec/29/jose-mourinho-jurgen-klopp-van-dijk", "type": "article", "sectionId": "football", "sectionName": "Football", "webPublicationDate": "2017-12-29T22:31:56Z", "webTitle": "Jos\u00e9 Mourinho reminds Klopp of Pogba fee comment after \u00a375m Van Dijk deal", "webUrl": "https://www.theguardian.com/football/2017/dec/29/jose-mourinho-jurgen-klopp-van-dijk", "apiUrl": "https://content.guardianapis.com/football/2017/dec/29/jose-mourinho-jurgen-klopp-van-dijk", "isHosted": false, "pillarId": "pillar/sport", "pillarName": "Sport"}, {"id": "football/2017/dec/29/chelsea-eden-hazard-antonio-conte-real-madrid", "type": "article", "sectionId": "football", "sectionName": "Football", "webPublicationDate": "2017-12-29T22:30:10Z", "webTitle": "Chelsea\u2019s Conte confident of new Eden Hazard deal despite Real interest", "webUrl": "https://www.theguardian.com/football/2017/dec/29/chelsea-eden-hazard-antonio-conte-real-madrid", "apiUrl": "https://content.guardianapis.com/football/2017/dec/29/chelsea-eden-hazard-antonio-conte-real-madrid", "isHosted": false, "pillarId": "pillar/sport", "pillarName": "Sport"}, {"id": "football/2017/dec/29/jurgen-klopp-hails-brave-rhian-brewster-speaking-out-about-racism", "type": "article", "sectionId": "football", "sectionName": "Football", "webPublicationDate": "2017-12-29T22:30:10Z", "webTitle": "J\u00fcrgen Klopp hails \u2018brave\u2019 Rhian Brewster for speaking out about racism", "webUrl": "https://www.theguardian.com/football/2017/dec/29/jurgen-klopp-hails-brave-rhian-brewster-speaking-out-about-racism", "apiUrl": "https://content.guardianapis.com/football/2017/dec/29/jurgen-klopp-hails-brave-rhian-brewster-speaking-out-about-racism", "isHosted": false, "pillarId": "pillar/sport", "pillarName": "Sport"}, {"id": "football/2017/dec/29/virgil-van-dijk-fee-jurgen-klopp-liverpool-southampton", "type": "article", "sectionId": "football", "sectionName": "Football", "webPublicationDate": "2017-12-29T22:30:09Z", "webTitle": "\u2018Not nice\u2019 Virgil van Dijk fee a reality of modern game, says J\u00fcrgen Klopp", "webUrl": "https://www.theguardian.com/football/2017/dec/29/virgil-van-dijk-fee-jurgen-klopp-liverpool-southampton", "apiUrl": "https://content.guardianapis.com/football/2017/dec/29/virgil-van-dijk-fee-jurgen-klopp-liverpool-southampton", "isHosted": false, "pillarId": "pillar/sport", "pillarName": "Sport"}, {"id": "football/2017/dec/29/west-ham-reece-oxford-loan-david-moyes", "type": "article", "sectionId": "football", "sectionName": "Football", "webPublicationDate": "2017-12-29T22:30:09Z", "webTitle": "West Ham recall Reece Oxford from loan after attempts to sign defender", "webUrl": "https://www.theguardian.com/football/2017/dec/29/west-ham-reece-oxford-loan-david-moyes", "apiUrl": "https://content.guardianapis.com/football/2017/dec/29/west-ham-reece-oxford-loan-david-moyes", "isHosted": false, "pillarId": "pillar/sport", "pillarName": "Sport"}, {"id": "sport/2017/dec/30/this-moment-is-for-you-how-womens-sport-rocked-2017-and-pointed-to-the-future", "type": "article", "sectionId": "sport", "sectionName": "Sport", "webPublicationDate": "2017-12-29T21:59:09Z", "webTitle": "'This moment is for you': how women's sport rocked 2017 and pointed to the future", "webUrl": "https://www.theguardian.com/sport/2017/dec/30/this-moment-is-for-you-how-womens-sport-rocked-2017-and-pointed-to-the-future", "apiUrl": "https://content.guardianapis.com/sport/2017/dec/30/this-moment-is-for-you-how-womens-sport-rocked-2017-and-pointed-to-the-future", "isHosted": false, "pillarId": "pillar/sport", "pillarName": "Sport"}, {"id": "football/blog/2017/dec/29/arsene-wenger-arsenal-record-games-in-charge-alex-ferguson", "type": "article", "sectionId": "football", "sectionName": "Football", "webPublicationDate": "2017-12-29T20:02:00Z", "webTitle": "Ars\u00e8ne Wenger overhauls Ferguson but legacy may prove a millstone", "webUrl": "https://www.theguardian.com/football/blog/2017/dec/29/arsene-wenger-arsenal-record-games-in-charge-alex-ferguson", "apiUrl": "https://content.guardianapis.com/football/blog/2017/dec/29/arsene-wenger-arsenal-record-games-in-charge-alex-ferguson", "isHosted": false, "pillarId": "pillar/sport", "pillarName": "Sport"}, {"id": "football/2017/dec/29/watford-swansea-match-preview", "type": "article", "sectionId": "football", "sectionName": "Football", "webPublicationDate": "2017-12-29T18:36:01Z", "webTitle": "Watford v Swansea City: match preview", "webUrl": "https://www.theguardian.com/football/2017/dec/29/watford-swansea-match-preview", "apiUrl": "https://content.guardianapis.com/football/2017/dec/29/watford-swansea-match-preview", "isHosted": false, "pillarId": "pillar/sport", "pillarName": "Sport"}, {"id": "football/2017/dec/29/huddersfield-burnley-match-preview", "type": "article", "sectionId": "football", "sectionName": "Football", "webPublicationDate": "2017-12-29T18:10:48Z", "webTitle": "Huddersfield Town v Burnley: match preview", "webUrl": "https://www.theguardian.com/football/2017/dec/29/huddersfield-burnley-match-preview", "apiUrl": "https://content.guardianapis.com/football/2017/dec/29/huddersfield-burnley-match-preview", "isHosted": false, "pillarId": "pillar/sport", "pillarName": "Sport"}, {"id": "football/2017/dec/29/liverpool-leicester-match-preview", "type": "article", "sectionId": "football", "sectionName": "Football", "webPublicationDate": "2017-12-29T17:44:02Z", "webTitle": "Liverpool v Leicester City: match preview", "webUrl": "https://www.theguardian.com/football/2017/dec/29/liverpool-leicester-match-preview", "apiUrl": "https://content.guardianapis.com/football/2017/dec/29/liverpool-leicester-match-preview", "isHosted": false, "pillarId": "pillar/sport", "pillarName": "Sport"}, {"id": "football/2017/dec/29/old-firm-derby-brendan-rodgers-celtic", "type": "article", "sectionId": "football", "sectionName": "Football", "webPublicationDate": "2017-12-29T17:28:43Z", "webTitle": "Old Firm derby: Brendan Rodgers hopes Celtic can hit last season\u2019s heights | Ewan Murray", "webUrl": "https://www.theguardian.com/football/2017/dec/29/old-firm-derby-brendan-rodgers-celtic", "apiUrl": "https://content.guardianapis.com/football/2017/dec/29/old-firm-derby-brendan-rodgers-celtic", "isHosted": false, "pillarId": "pillar/sport", "pillarName": "Sport"}, {"id": "football/2017/dec/29/road-safety-tips-from-half-man-half-biscuit", "type": "article", "sectionId": "football", "sectionName": "Football", "webPublicationDate": "2017-12-29T17:02:48Z", "webTitle": "Road safety tips from Half Man Half Biscuit | Letters", "webUrl": "https://www.theguardian.com/football/2017/dec/29/road-safety-tips-from-half-man-half-biscuit", "apiUrl": "https://content.guardianapis.com/football/2017/dec/29/road-safety-tips-from-half-man-half-biscuit", "isHosted": false, "pillarId": "pillar/sport", "pillarName": "Sport"}, {"id": "football/2017/dec/29/manchester-united-southampton-match-preview", "type": "article", "sectionId": "football", "sectionName": "Football", "webPublicationDate": "2017-12-29T16:31:28Z", "webTitle": "Manchester United v Southampton: match preview", "webUrl": "https://www.theguardian.com/football/2017/dec/29/manchester-united-southampton-match-preview", "apiUrl": "https://content.guardianapis.com/football/2017/dec/29/manchester-united-southampton-match-preview", "isHosted": false, "pillarId": "pillar/sport", "pillarName": "Sport"}, {"id": "football/2017/dec/29/alexis-sanchez-frustration-dressing-room-bust-up", "type": "article", "sectionId": "football", "sectionName": "Football", "webPublicationDate": "2017-12-29T16:22:56Z", "webTitle": "Arsenal players\u2019 frustrations with Alexis S\u00e1nchez led to dressing room bust-up", "webUrl": "https://www.theguardian.com/football/2017/dec/29/alexis-sanchez-frustration-dressing-room-bust-up", "apiUrl": "https://content.guardianapis.com/football/2017/dec/29/alexis-sanchez-frustration-dressing-room-bust-up", "isHosted": false, "pillarId": "pillar/sport", "pillarName": "Sport"}, {"id": "football/2017/dec/29/huw-jenkins-swansea-biggest-regret-brendan-rodgers", "type": "article", "sectionId": "football", "sectionName": "Football", "webPublicationDate": "2017-12-29T16:00:53Z", "webTitle": "The biggest regret is not getting Brendan Rodgers back, says Swansea\u2019s Huw Jenkins", "webUrl": "https://www.theguardian.com/football/2017/dec/29/huw-jenkins-swansea-biggest-regret-brendan-rodgers", "apiUrl": "https://content.guardianapis.com/football/2017/dec/29/huw-jenkins-swansea-biggest-regret-brendan-rodgers", "isHosted": false, "pillarId": "pillar/sport", "pillarName": "Sport"}, {"id": "football/2017/dec/29/former-leeds-manager-neil-redfearn-doncaster-rovers-belles-head-coach", "type": "article", "sectionId": "football", "sectionName": "Football", "webPublicationDate": "2017-12-29T15:30:58Z", "webTitle": "Ex-Leeds manager Neil Redfearn named Doncaster Rovers Belles head coach", "webUrl": "https://www.theguardian.com/football/2017/dec/29/former-leeds-manager-neil-redfearn-doncaster-rovers-belles-head-coach", "apiUrl": "https://content.guardianapis.com/football/2017/dec/29/former-leeds-manager-neil-redfearn-doncaster-rovers-belles-head-coach", "isHosted": false, "pillarId": "pillar/sport", "pillarName": "Sport"}, {"id": "football/2017/dec/29/cenk-tosun-everton-delegation-turkey-", "type": "article", "sectionId": "football", "sectionName": "Football", "webPublicationDate": "2017-12-29T15:22:42Z", "webTitle": "Everton officials in Turkey to wrap up Cenk Tosun deal before rivals act", "webUrl": "https://www.theguardian.com/football/2017/dec/29/cenk-tosun-everton-delegation-turkey-", "apiUrl": "https://content.guardianapis.com/football/2017/dec/29/cenk-tosun-everton-delegation-turkey-", "isHosted": false, "pillarId": "pillar/sport", "pillarName": "Sport"}, {"id": "football/2017/dec/29/chelsea-stoke-match-preview", "type": "article", "sectionId": "football", "sectionName": "Football", "webPublicationDate": "2017-12-29T14:41:43Z", "webTitle": "Chelsea v Stoke City: match preview", "webUrl": "https://www.theguardian.com/football/2017/dec/29/chelsea-stoke-match-preview", "apiUrl": "https://content.guardianapis.com/football/2017/dec/29/chelsea-stoke-match-preview", "isHosted": false, "pillarId": "pillar/sport", "pillarName": "Sport"}, {"id": "football/2017/dec/29/newcastle-brighton-match-preview", "type": "article", "sectionId": "football", "sectionName": "Football", "webPublicationDate": "2017-12-29T14:26:52Z", "webTitle": "Newcastle United v Brighton & Hove Albion: match preview", "webUrl": "https://www.theguardian.com/football/2017/dec/29/newcastle-brighton-match-preview", "apiUrl": "https://content.guardianapis.com/football/2017/dec/29/newcastle-brighton-match-preview", "isHosted": false, "pillarId": "pillar/sport", "pillarName": "Sport"}, {"id": "football/2017/dec/29/david-moss-celtic-huddersfield-town-player-recruitment-expert", "type": "article", "sectionId": "football", "sectionName": "Football", "webPublicationDate": "2017-12-29T14:25:03Z", "webTitle": "\u2018I used to say to clubs Virgil van Dijk had it all, and then they\u2019d buy someone else. I\u2019d despair\u2019", "webUrl": "https://www.theguardian.com/football/2017/dec/29/david-moss-celtic-huddersfield-town-player-recruitment-expert", "apiUrl": "https://content.guardianapis.com/football/2017/dec/29/david-moss-celtic-huddersfield-town-player-recruitment-expert", "isHosted": false, "pillarId": "pillar/sport", "pillarName": "Sport"}, {"id": "football/blog/2017/dec/29/tactical-review-2017-pep-guardiola-manchester-city", "type": "article", "sectionId": "football", "sectionName": "Football", "webPublicationDate": "2017-12-29T13:11:15Z", "webTitle": "Tactical review of 2017: Pep Guardiola reasserts his version of post-Cruyffianism | Jonathan Wilson", "webUrl": "https://www.theguardian.com/football/blog/2017/dec/29/tactical-review-2017-pep-guardiola-manchester-city", "apiUrl": "https://content.guardianapis.com/football/blog/2017/dec/29/tactical-review-2017-pep-guardiola-manchester-city", "isHosted": false, "pillarId": "pillar/sport", "pillarName": "Sport"}, {"id": "football/2017/dec/29/bournemouth-everton-match-preview", "type": "article", "sectionId": "football", "sectionName": "Football", "webPublicationDate": "2017-12-29T12:58:12Z", "webTitle": "Bournemouth v Everton: match preview", "webUrl": "https://www.theguardian.com/football/2017/dec/29/bournemouth-everton-match-preview", "apiUrl": "https://content.guardianapis.com/football/2017/dec/29/bournemouth-everton-match-preview", "isHosted": false, "pillarId": "pillar/sport", "pillarName": "Sport"}, {"id": "sport/blog/2017/dec/29/broken-records-harry-kane-alan-shearer-pete-sampras-roger-federer", "type": "article", "sectionId": "sport", "sectionName": "Sport", "webPublicationDate": "2017-12-29T12:33:43Z", "webTitle": "Sporting greats learn to greet broken records with generous fanfare | Simon Burnton", "webUrl": "https://www.theguardian.com/sport/blog/2017/dec/29/broken-records-harry-kane-alan-shearer-pete-sampras-roger-federer", "apiUrl": "https://content.guardianapis.com/sport/blog/2017/dec/29/broken-records-harry-kane-alan-shearer-pete-sampras-roger-federer", "isHosted": false, "pillarId": "pillar/sport", "pillarName": "Sport"}, {"id": "world/2017/dec/29/russia-2018-putin-re-election-world-cup", "type": "article", "sectionId": "world", "sectionName": "World news", "webPublicationDate": "2017-12-29T10:59:31Z", "webTitle": "Russia in 2018: Putin's re-election and a World Cup, but what else?", "webUrl": "https://www.theguardian.com/world/2017/dec/29/russia-2018-putin-re-election-world-cup", "apiUrl": "https://content.guardianapis.com/world/2017/dec/29/russia-2018-putin-re-election-world-cup", "isHosted": false, "pillarId": "pillar/news", "pillarName": "News"}, {"id": "football/2017/dec/29/football-transfer-rumours-sturridge-and-walcott-to-join-southampton", "type": "article", "sectionId": "football", "sectionName": "Football", "webPublicationDate": "2017-12-29T08:47:16Z", "webTitle": "Football transfer rumours: Sturridge and Walcott to join Southampton?", "webUrl": "https://www.theguardian.com/football/2017/dec/29/football-transfer-rumours-sturridge-and-walcott-to-join-southampton", "apiUrl": "https://content.guardianapis.com/football/2017/dec/29/football-transfer-rumours-sturridge-and-walcott-to-join-southampton", "isHosted": false, "pillarId": "pillar/sport", "pillarName": "Sport"}, {"id": "football/blog/2017/dec/29/premier-league-10-things-to-look-out-for-this-weekend", "type": "article", "sectionId": "football", "sectionName": "Football", "webPublicationDate": "2017-12-29T07:53:50Z", "webTitle": "Premier League: 10 things to look out for this weekend", "webUrl": "https://www.theguardian.com/football/blog/2017/dec/29/premier-league-10-things-to-look-out-for-this-weekend", "apiUrl": "https://content.guardianapis.com/football/blog/2017/dec/29/premier-league-10-things-to-look-out-for-this-weekend", "isHosted": false, "pillarId": "pillar/sport", "pillarName": "Sport"}, {"id": "football/2017/dec/28/jack-wilshere-new-arsenal-contract-arsene-wenger-crystal-palace", "type": "article", "sectionId": "football", "sectionName": "Football", "webPublicationDate": "2017-12-28T23:15:34Z", "webTitle": "Jack Wilshere \u2018sure\u2019 of new Arsenal contract after Ars\u00e8ne Wenger talks", "webUrl": "https://www.theguardian.com/football/2017/dec/28/jack-wilshere-new-arsenal-contract-arsene-wenger-crystal-palace", "apiUrl": "https://content.guardianapis.com/football/2017/dec/28/jack-wilshere-new-arsenal-contract-arsene-wenger-crystal-palace", "isHosted": false, "pillarId": "pillar/sport", "pillarName": "Sport"}]}}