{"response": {"status": "ok", "userTier": "developer", "total": 16199, "startIndex": 1, "pageSize": 50, "currentPage": 1, "pages": 324, "orderBy": "newest", "results": [{"id": "lifeandstyle/wordofmouth/2011/mar/30/mystery-diner", "type": "article", "sectionId": "lifeandstyle", "sectionName": "Life and style", "webPublicationDate": "2011-03-30T11:00:00Z", "webTitle": "Would you be a mystery diner?", "webUrl": "https://www.theguardian.com/lifeandstyle/wordofmouth/2011/mar/30/mystery-diner", "apiUrl": "https://content.guardianapis.com/lifeandstyle/wordofmouth/2011/mar/30/mystery-diner", "isHosted": false, "pillarId": "pillar/lifestyle", "pillarName": "Lifestyle"}, {"id": "commentisfree/2011/mar/30/in-praise-of-porridge-editorial", "type": "article", "sectionId": "commentisfree", "sectionName": "Opinion", "webPublicationDate": "2011-03-29T23:05:04Z", "webTitle": "In praise of\u2026 porridge | Editorial", "webUrl": "https://www.theguardian.com/commentisfree/2011/mar/30/in-praise-of-porridge-editorial", "apiUrl": "https://content.guardianapis.com/commentisfree/2011/mar/30/in-praise-of-porridge-editorial", "isHosted": false, "pillarId": "pillar/opinion", "pillarName": "Opinion"}, {"id": "business/2011/mar/29/pret-a-manger-sales-porridge", "type": "article", "sectionId": "business", "sectionName": "Business", "webPublicationDate": "2011-03-29T19:20:45Z", "webTitle": "Pret A Manger boosted by sales of 50,000 porridge pots a week", "webUrl": "https://www.theguardian.com/business/2011/mar/29/pret-a-manger-sales-porridge", "apiUrl": "https://content.guardianapis.com/business/2011/mar/29/pret-a-manger-sales-porridge", "isHosted": false, "pillarId": "pillar/news", "pillarName": "News"}, {"id": "lifeandstyle/2011/mar/29/pass-notes-2950-porridge", "type": "article", "sectionId": "food", "sectionName": "Food", "webPublicationDate": "2011-03-29T19:00:00Z", "webTitle": "Pass notes No 2,950: Porridge", "webUrl": "https://www.theguardian.com/lifeandstyle/2011/mar/29/pass-notes-2950-porridge", "apiUrl": "https://content.guardianapis.com/lifeandstyle/2011/mar/29/pass-notes-2950-porridge", "isHosted": false, "pillarId": "pillar/lifestyle", "pillarName": "Lifestyle"}, {"id": "travel/2011/mar/29/extremadura-spain-food-jose-pizarro", "type": "article", "sectionId": "travel", "sectionName": "Travel", "webPublicationDate": "2011-03-29T12:06:00Z", "webTitle": "Six of the best places to eat out in Extremadura", "webUrl": "https://www.theguardian.com/travel/2011/mar/29/extremadura-spain-food-jose-pizarro", "apiUrl": "https://content.guardianapis.com/travel/2011/mar/29/extremadura-spain-food-jose-pizarro", "isHosted": false, "pillarId": "pillar/lifestyle", "pillarName": "Lifestyle"}, {"id": "lifeandstyle/wordofmouth/2011/mar/29/consider-pizza", "type": "article", "sectionId": "food", "sectionName": "Food", "webPublicationDate": "2011-03-29T08:00:00Z", "webTitle": "Consider pizza", "webUrl": "https://www.theguardian.com/lifeandstyle/wordofmouth/2011/mar/29/consider-pizza", "apiUrl": "https://content.guardianapis.com/lifeandstyle/wordofmouth/2011/mar/29/consider-pizza", "isHosted": false, "pillarId": "pillar/lifestyle", "pillarName": "Lifestyle"}, {"id": "lifeandstyle/2011/mar/29/sara-cox-organic-food", "type": "article", "sectionId": "lifeandstyle", "sectionName": "Life and style", "webPublicationDate": "2011-03-29T07:30:00Z", "webTitle": "Sara Cox's other passion: organic food", "webUrl": "https://www.theguardian.com/lifeandstyle/2011/mar/29/sara-cox-organic-food", "apiUrl": "https://content.guardianapis.com/lifeandstyle/2011/mar/29/sara-cox-organic-food", "isHosted": false, "pillarId": "pillar/lifestyle", "pillarName": "Lifestyle"}, {"id": "uk/2011/mar/28/biscuits-royal-wedding-cake-william", "type": "article", "sectionId": "uk-news", "sectionName": "UK news", "webPublicationDate": "2011-03-28T19:00:00Z", "webTitle": "Pass notes No 2,949: Rich Tea biscuits", "webUrl": "https://www.theguardian.com/uk/2011/mar/28/biscuits-royal-wedding-cake-william", "apiUrl": "https://content.guardianapis.com/uk/2011/mar/28/biscuits-royal-wedding-cake-william", "isHosted": false, "pillarId": "pillar/news", "pillarName": "News"}, {"id": "media/pda/2011/mar/28/lovefresh-startup-local-food", "type": "article", "sectionId": "media", "sectionName": "Media", "webPublicationDate": "2011-03-28T13:10:32Z", "webTitle": "Elevator Pitch: Lovefre.sh and the local food revolution", "webUrl": "https://www.theguardian.com/media/pda/2011/mar/28/lovefresh-startup-local-food", "apiUrl": "https://content.guardianapis.com/media/pda/2011/mar/28/lovefresh-startup-local-food", "isHosted": false, "pillarId": "pillar/news", "pillarName": "News"}, {"id": "lifeandstyle/2011/mar/28/childrens-clothes-fashion", "type": "article", "sectionId": "lifeandstyle", "sectionName": "Life and style", "webPublicationDate": "2011-03-28T10:56:00Z", "webTitle": "Buy of the day", "webUrl": "https://www.theguardian.com/lifeandstyle/2011/mar/28/childrens-clothes-fashion", "apiUrl": "https://content.guardianapis.com/lifeandstyle/2011/mar/28/childrens-clothes-fashion", "isHosted": false, "pillarId": "pillar/lifestyle", "pillarName": "Lifestyle"}, {"id": "lifeandstyle/wordofmouth/2011/mar/28/supermarket-dining", "type": "article", "sectionId": "lifeandstyle", "sectionName": "Life and style", "webPublicationDate": "2011-03-28T10:00:00Z", "webTitle": "Supermarkets: dining out on reputation", "webUrl": "https://www.theguardian.com/lifeandstyle/wordofmouth/2011/mar/28/supermarket-dining", "apiUrl": "https://content.guardianapis.com/lifeandstyle/wordofmouth/2011/mar/28/supermarket-dining", "isHosted": false, "pillarId": "pillar/lifestyle", "pillarName": "Lifestyle"}, {"id": "lifeandstyle/2011/mar/28/crab-cakes-recipe", "type": "article", "sectionId": "food", "sectionName": "Food", "webPublicationDate": "2011-03-28T08:45:00Z", "webTitle": "Crab cakes recipe", "webUrl": "https://www.theguardian.com/lifeandstyle/2011/mar/28/crab-cakes-recipe", "apiUrl": "https://content.guardianapis.com/lifeandstyle/2011/mar/28/crab-cakes-recipe", "isHosted": false, "pillarId": "pillar/lifestyle", "pillarName": "Lifestyle"}, {"id": "world/2011/mar/28/europe-poll-best-cooks-drivers-looks", "type": "article", "sectionId": "world", "sectionName": "World news", "webPublicationDate": "2011-03-28T06:29:00Z", "webTitle": "Europe's best cooks, best drivers and best looking revealed \u2013 maybe", "webUrl": "https://www.theguardian.com/world/2011/mar/28/europe-poll-best-cooks-drivers-looks", "apiUrl": "https://content.guardianapis.com/world/2011/mar/28/europe-poll-best-cooks-drivers-looks", "isHosted": false, "pillarId": "pillar/news", "pillarName": "News"}, {"id": "world/2011/mar/27/obamas-dinner-secret-service", "type": "article", "sectionId": "us-news", "sectionName": "US news", "webPublicationDate": "2011-03-27T19:00:01Z", "webTitle": "When the Obamas go out for dinner ...", "webUrl": "https://www.theguardian.com/world/2011/mar/27/obamas-dinner-secret-service", "apiUrl": "https://content.guardianapis.com/world/2011/mar/27/obamas-dinner-secret-service", "isHosted": false, "pillarId": "pillar/news", "pillarName": "News"}, {"id": "world/2011/mar/27/italy-unesco-neapolitan-pizza", "type": "article", "sectionId": "world", "sectionName": "World news", "webPublicationDate": "2011-03-27T14:07:41Z", "webTitle": "Italy seeks Unesco protection for Neapolitan pizza", "webUrl": "https://www.theguardian.com/world/2011/mar/27/italy-unesco-neapolitan-pizza", "apiUrl": "https://content.guardianapis.com/world/2011/mar/27/italy-unesco-neapolitan-pizza", "isHosted": false, "pillarId": "pillar/news", "pillarName": "News"}, {"id": "lifeandstyle/2011/mar/27/wines-of-week-david-williams", "type": "article", "sectionId": "food", "sectionName": "Food", "webPublicationDate": "2011-03-27T00:04:03Z", "webTitle": "Wines of the week by David Williams", "webUrl": "https://www.theguardian.com/lifeandstyle/2011/mar/27/wines-of-week-david-williams", "apiUrl": "https://content.guardianapis.com/lifeandstyle/2011/mar/27/wines-of-week-david-williams", "isHosted": false, "pillarId": "pillar/lifestyle", "pillarName": "Lifestyle"}, {"id": "lifeandstyle/2011/mar/27/jay-rayner-devonshire-arms-beeley-derbyshire", "type": "article", "sectionId": "food", "sectionName": "Food", "webPublicationDate": "2011-03-27T00:04:01Z", "webTitle": "Restaurant review: The Devonshire Arms", "webUrl": "https://www.theguardian.com/lifeandstyle/2011/mar/27/jay-rayner-devonshire-arms-beeley-derbyshire", "apiUrl": "https://content.guardianapis.com/lifeandstyle/2011/mar/27/jay-rayner-devonshire-arms-beeley-derbyshire", "isHosted": false, "pillarId": "pillar/lifestyle", "pillarName": "Lifestyle"}, {"id": "lifeandstyle/2011/mar/26/saffron-recipes-hugh-fearnley-whittingstall", "type": "article", "sectionId": "lifeandstyle", "sectionName": "Life and style", "webPublicationDate": "2011-03-26T00:03:20Z", "webTitle": "Saffron recipes | Hugh Fearnley-Whittingstall | Food and drink", "webUrl": "https://www.theguardian.com/lifeandstyle/2011/mar/26/saffron-recipes-hugh-fearnley-whittingstall", "apiUrl": "https://content.guardianapis.com/lifeandstyle/2011/mar/26/saffron-recipes-hugh-fearnley-whittingstall", "isHosted": false, "pillarId": "pillar/lifestyle", "pillarName": "Lifestyle"}, {"id": "lifeandstyle/2011/mar/26/vegan-glaze-mostarda-cremona", "type": "article", "sectionId": "lifeandstyle", "sectionName": "Life and style", "webPublicationDate": "2011-03-26T00:03:13Z", "webTitle": "Food for Fort: A vegan glaze and a spicy Italian condiment | Matthew Fort", "webUrl": "https://www.theguardian.com/lifeandstyle/2011/mar/26/vegan-glaze-mostarda-cremona", "apiUrl": "https://content.guardianapis.com/lifeandstyle/2011/mar/26/vegan-glaze-mostarda-cremona", "isHosted": false, "pillarId": "pillar/lifestyle", "pillarName": "Lifestyle"}, {"id": "lifeandstyle/2011/mar/26/spring-onion-soup-brik-recipes", "type": "article", "sectionId": "food", "sectionName": "Food", "webPublicationDate": "2011-03-26T00:03:01Z", "webTitle": "Spring onion recipes | Yotam Ottolenghi | Food and drink | Vegetarian", "webUrl": "https://www.theguardian.com/lifeandstyle/2011/mar/26/spring-onion-soup-brik-recipes", "apiUrl": "https://content.guardianapis.com/lifeandstyle/2011/mar/26/spring-onion-soup-brik-recipes", "isHosted": false, "pillarId": "pillar/lifestyle", "pillarName": "Lifestyle"}, {"id": "lifeandstyle/2011/mar/26/banana-bread-recipe-dan-lepard", "type": "article", "sectionId": "lifeandstyle", "sectionName": "Life and style", "webPublicationDate": "2011-03-26T00:03:01Z", "webTitle": "Banana bread recipe | Dan Lepard | Baking | Food and drink", "webUrl": "https://www.theguardian.com/lifeandstyle/2011/mar/26/banana-bread-recipe-dan-lepard", "apiUrl": "https://content.guardianapis.com/lifeandstyle/2011/mar/26/banana-bread-recipe-dan-lepard", "isHosted": false, "pillarId": "pillar/lifestyle", "pillarName": "Lifestyle"}, {"id": "lifeandstyle/2011/mar/26/food-wine-matching-review", "type": "article", "sectionId": "food", "sectionName": "Food", "webPublicationDate": "2011-03-26T00:03:00Z", "webTitle": "Wine: The right combination | Fiona Beckett | Food and drink", "webUrl": "https://www.theguardian.com/lifeandstyle/2011/mar/26/food-wine-matching-review", "apiUrl": "https://content.guardianapis.com/lifeandstyle/2011/mar/26/food-wine-matching-review", "isHosted": false, "pillarId": "pillar/lifestyle", "pillarName": "Lifestyle"}, {"id": "lifeandstyle/cartoon/2011/mar/26/1", "type": "picture", "sectionId": "lifeandstyle", "sectionName": "Life and style", "webPublicationDate": "2011-03-26T00:02:00Z", "webTitle": "Berger & Wyse", "webUrl": "https://www.theguardian.com/lifeandstyle/cartoon/2011/mar/26/1", "apiUrl": "https://content.guardianapis.com/lifeandstyle/cartoon/2011/mar/26/1", "isHosted": false, "pillarId": "pillar/lifestyle", "pillarName": "Lifestyle"}, {"id": "lifeandstyle/2011/mar/26/yak-yeti-yak-restaurant-review", "type": "article", "sectionId": "lifeandstyle", "sectionName": "Life and style", "webPublicationDate": "2011-03-26T00:01:04Z", "webTitle": "Restaurant: Yak Yeti Yak, Bath, Somerset | John Lanchester | Food and drink", "webUrl": "https://www.theguardian.com/lifeandstyle/2011/mar/26/yak-yeti-yak-restaurant-review", "apiUrl": "https://content.guardianapis.com/lifeandstyle/2011/mar/26/yak-yeti-yak-restaurant-review", "isHosted": false, "pillarId": "pillar/lifestyle", "pillarName": "Lifestyle"}, {"id": "environment/2011/mar/25/food-political-leadership", "type": "article", "sectionId": "environment", "sectionName": "Environment", "webPublicationDate": "2011-03-25T14:36:14Z", "webTitle": "The UK needs political leadership on food | Mary Creagh", "webUrl": "https://www.theguardian.com/environment/2011/mar/25/food-political-leadership", "apiUrl": "https://content.guardianapis.com/environment/2011/mar/25/food-political-leadership", "isHosted": false, "pillarId": "pillar/news", "pillarName": "News"}, {"id": "lifeandstyle/wordofmouth/2011/mar/25/eating-east-london-budget", "type": "article", "sectionId": "lifeandstyle", "sectionName": "Life and style", "webPublicationDate": "2011-03-25T13:00:00Z", "webTitle": "Eating east London... on a budget", "webUrl": "https://www.theguardian.com/lifeandstyle/wordofmouth/2011/mar/25/eating-east-london-budget", "apiUrl": "https://content.guardianapis.com/lifeandstyle/wordofmouth/2011/mar/25/eating-east-london-budget", "isHosted": false, "pillarId": "pillar/lifestyle", "pillarName": "Lifestyle"}, {"id": "travel/2011/mar/25/east-london-cheap-eats-restaurants", "type": "article", "sectionId": "travel", "sectionName": "Travel", "webPublicationDate": "2011-03-25T12:50:00Z", "webTitle": "East London's top 10 budget restaurants", "webUrl": "https://www.theguardian.com/travel/2011/mar/25/east-london-cheap-eats-restaurants", "apiUrl": "https://content.guardianapis.com/travel/2011/mar/25/east-london-cheap-eats-restaurants", "isHosted": false, "pillarId": "pillar/lifestyle", "pillarName": "Lifestyle"}, {"id": "lifeandstyle/wordofmouth/2011/mar/25/cooks-bible", "type": "article", "sectionId": "lifeandstyle", "sectionName": "Life and style", "webPublicationDate": "2011-03-25T10:00:00Z", "webTitle": "The cook's bible", "webUrl": "https://www.theguardian.com/lifeandstyle/wordofmouth/2011/mar/25/cooks-bible", "apiUrl": "https://content.guardianapis.com/lifeandstyle/wordofmouth/2011/mar/25/cooks-bible", "isHosted": false, "pillarId": "pillar/lifestyle", "pillarName": "Lifestyle"}, {"id": "lifeandstyle/wordofmouth/2011/mar/24/how-perfect-coq-au-vin", "type": "article", "sectionId": "food", "sectionName": "Food", "webPublicationDate": "2011-03-24T07:00:00Z", "webTitle": "How to cook perfect coq au vin", "webUrl": "https://www.theguardian.com/lifeandstyle/wordofmouth/2011/mar/24/how-perfect-coq-au-vin", "apiUrl": "https://content.guardianapis.com/lifeandstyle/wordofmouth/2011/mar/24/how-perfect-coq-au-vin", "isHosted": false, "pillarId": "pillar/lifestyle", "pillarName": "Lifestyle"}, {"id": "lifeandstyle/2011/mar/24/classic-french-cooking-harry-eastwood", "type": "article", "sectionId": "food", "sectionName": "Food", "webPublicationDate": "2011-03-24T07:00:00Z", "webTitle": "How to enjoy classic French cuisine without widening your waistband", "webUrl": "https://www.theguardian.com/lifeandstyle/2011/mar/24/classic-french-cooking-harry-eastwood", "apiUrl": "https://content.guardianapis.com/lifeandstyle/2011/mar/24/classic-french-cooking-harry-eastwood", "isHosted": false, "pillarId": "pillar/lifestyle", "pillarName": "Lifestyle"}, {"id": "lifeandstyle/2011/mar/24/beetroot-sweet-potato-salad-recipe", "type": "article", "sectionId": "lifeandstyle", "sectionName": "Life and style", "webPublicationDate": "2011-03-24T07:00:00Z", "webTitle": "Angela Hartnett's beetroot and sweet potato salad", "webUrl": "https://www.theguardian.com/lifeandstyle/2011/mar/24/beetroot-sweet-potato-salad-recipe", "apiUrl": "https://content.guardianapis.com/lifeandstyle/2011/mar/24/beetroot-sweet-potato-salad-recipe", "isHosted": false, "pillarId": "pillar/lifestyle", "pillarName": "Lifestyle"}, {"id": "lifeandstyle/2011/mar/24/confit-de-canard-recipe", "type": "article", "sectionId": "food", "sectionName": "Food", "webPublicationDate": "2011-03-24T06:30:00Z", "webTitle": "Confit de canard recipe", "webUrl": "https://www.theguardian.com/lifeandstyle/2011/mar/24/confit-de-canard-recipe", "apiUrl": "https://content.guardianapis.com/lifeandstyle/2011/mar/24/confit-de-canard-recipe", "isHosted": false, "pillarId": "pillar/lifestyle", "pillarName": "Lifestyle"}, {"id": "lifeandstyle/2011/mar/24/endive-walnut-apple-salad-recipe", "type": "article", "sectionId": "food", "sectionName": "Food", "webPublicationDate": "2011-03-24T06:00:00Z", "webTitle": "Endive, walnut and apple salad with Roquefort dressing recipe", "webUrl": "https://www.theguardian.com/lifeandstyle/2011/mar/24/endive-walnut-apple-salad-recipe", "apiUrl": "https://content.guardianapis.com/lifeandstyle/2011/mar/24/endive-walnut-apple-salad-recipe", "isHosted": false, "pillarId": "pillar/lifestyle", "pillarName": "Lifestyle"}, {"id": "lifeandstyle/2011/mar/24/chocolate-mousse-recipe", "type": "article", "sectionId": "food", "sectionName": "Food", "webPublicationDate": "2011-03-24T05:00:00Z", "webTitle": "Mousse au chocolat recipe", "webUrl": "https://www.theguardian.com/lifeandstyle/2011/mar/24/chocolate-mousse-recipe", "apiUrl": "https://content.guardianapis.com/lifeandstyle/2011/mar/24/chocolate-mousse-recipe", "isHosted": false, "pillarId": "pillar/lifestyle", "pillarName": "Lifestyle"}, {"id": "lifeandstyle/video/2011/mar/24/recipe-perfect-coq-au-vin", "type": "video", "sectionId": "food", "sectionName": "Food", "webPublicationDate": "2011-03-24T04:00:00Z", "webTitle": "Perfect coq au vin recipe - video", "webUrl": "https://www.theguardian.com/lifeandstyle/video/2011/mar/24/recipe-perfect-coq-au-vin", "apiUrl": "https://content.guardianapis.com/lifeandstyle/video/2011/mar/24/recipe-perfect-coq-au-vin", "isHosted": false, "pillarId": "pillar/lifestyle", "pillarName": "Lifestyle"}, {"id": "uk/2011/mar/23/budget-2011-brewing-and-pubs-under-threat", "type": "article", "sectionId": "uk-news", "sectionName": "UK news", "webPublicationDate": "2011-03-23T19:22:19Z", "webTitle": "Budget 2011: Extra tax on beer attacked by brewers and publicans", "webUrl": "https://www.theguardian.com/uk/2011/mar/23/budget-2011-brewing-and-pubs-under-threat", "apiUrl": "https://content.guardianapis.com/uk/2011/mar/23/budget-2011-brewing-and-pubs-under-threat", "isHosted": false, "pillarId": "pillar/news", "pillarName": "News"}, {"id": "lifeandstyle/wordofmouth/2011/mar/23/food-comedy-funny-taste", "type": "article", "sectionId": "lifeandstyle", "sectionName": "Life and style", "webPublicationDate": "2011-03-23T11:10:00Z", "webTitle": "Food and comedy: a funny taste", "webUrl": "https://www.theguardian.com/lifeandstyle/wordofmouth/2011/mar/23/food-comedy-funny-taste", "apiUrl": "https://content.guardianapis.com/lifeandstyle/wordofmouth/2011/mar/23/food-comedy-funny-taste", "isHosted": false, "pillarId": "pillar/lifestyle", "pillarName": "Lifestyle"}, {"id": "lifeandstyle/2011/mar/23/bordeaux-vineyards-welcome-chinese-buyers", "type": "article", "sectionId": "food", "sectionName": "Food", "webPublicationDate": "2011-03-23T08:00:03Z", "webTitle": "Bordeaux vineyards acquire taste for Chinese buyers", "webUrl": "https://www.theguardian.com/lifeandstyle/2011/mar/23/bordeaux-vineyards-welcome-chinese-buyers", "apiUrl": "https://content.guardianapis.com/lifeandstyle/2011/mar/23/bordeaux-vineyards-welcome-chinese-buyers", "isHosted": false, "pillarId": "pillar/lifestyle", "pillarName": "Lifestyle"}, {"id": "tv-and-radio/2011/mar/23/great-british-food-revival", "type": "article", "sectionId": "tv-and-radio", "sectionName": "Television & radio", "webPublicationDate": "2011-03-23T08:00:02Z", "webTitle": "Great British Food Revival | Wolves Of Yellowstone | Meet The  Elephant Man | Jamie's Dream School | The Model Agency | Republic Of Doyle | Tonight's TV highlights", "webUrl": "https://www.theguardian.com/tv-and-radio/2011/mar/23/great-british-food-revival", "apiUrl": "https://content.guardianapis.com/tv-and-radio/2011/mar/23/great-british-food-revival", "isHosted": false, "pillarId": "pillar/arts", "pillarName": "Arts"}, {"id": "travel/video/2011/mar/23/lyon-bocuse-d-or-french-food-video", "type": "video", "sectionId": "travel", "sectionName": "Travel", "webPublicationDate": "2011-03-23T05:05:00Z", "webTitle": "The Bocuse d'Or, France's food world cup - video", "webUrl": "https://www.theguardian.com/travel/video/2011/mar/23/lyon-bocuse-d-or-french-food-video", "apiUrl": "https://content.guardianapis.com/travel/video/2011/mar/23/lyon-bocuse-d-or-french-food-video", "isHosted": false, "pillarId": "pillar/lifestyle", "pillarName": "Lifestyle"}, {"id": "travel/2011/mar/22/bordeaux-restaurants-vineyards-wine-france", "type": "article", "sectionId": "travel", "sectionName": "Travel", "webPublicationDate": "2011-03-22T12:30:00Z", "webTitle": "Bordeaux uncorked", "webUrl": "https://www.theguardian.com/travel/2011/mar/22/bordeaux-restaurants-vineyards-wine-france", "apiUrl": "https://content.guardianapis.com/travel/2011/mar/22/bordeaux-restaurants-vineyards-wine-france", "isHosted": false, "pillarId": "pillar/lifestyle", "pillarName": "Lifestyle"}, {"id": "commentisfree/video/2011/mar/22/union-moreton-burtons-factory-jobs-video", "type": "video", "sectionId": "commentisfree", "sectionName": "Opinion", "webPublicationDate": "2011-03-22T12:17:00Z", "webTitle": "How do you save a biscuit factory when it's not even clear who owns it? \u2013 video", "webUrl": "https://www.theguardian.com/commentisfree/video/2011/mar/22/union-moreton-burtons-factory-jobs-video", "apiUrl": "https://content.guardianapis.com/commentisfree/video/2011/mar/22/union-moreton-burtons-factory-jobs-video", "isHosted": false, "pillarId": "pillar/opinion", "pillarName": "Opinion"}, {"id": "money/2011/mar/22/easter-egg-prices-soar", "type": "article", "sectionId": "money", "sectionName": "Money", "webPublicationDate": "2011-03-22T12:12:54Z", "webTitle": "Easter egg prices soar by up to 140%", "webUrl": "https://www.theguardian.com/money/2011/mar/22/easter-egg-prices-soar", "apiUrl": "https://content.guardianapis.com/money/2011/mar/22/easter-egg-prices-soar", "isHosted": false, "pillarId": "pillar/lifestyle", "pillarName": "Lifestyle"}, {"id": "lifeandstyle/wordofmouth/2011/mar/22/consider-smoked-foods", "type": "article", "sectionId": "lifeandstyle", "sectionName": "Life and style", "webPublicationDate": "2011-03-22T09:30:00Z", "webTitle": "Consider smoked foods", "webUrl": "https://www.theguardian.com/lifeandstyle/wordofmouth/2011/mar/22/consider-smoked-foods", "apiUrl": "https://content.guardianapis.com/lifeandstyle/wordofmouth/2011/mar/22/consider-smoked-foods", "isHosted": false, "pillarId": "pillar/lifestyle", "pillarName": "Lifestyle"}, {"id": "world/2011/mar/22/french-stereotype-best-food-in-world", "type": "article", "sectionId": "world", "sectionName": "World news", "webPublicationDate": "2011-03-22T08:00:01Z", "webTitle": "Stereotypes: the best food in the world", "webUrl": "https://www.theguardian.com/world/2011/mar/22/french-stereotype-best-food-in-world", "apiUrl": "https://content.guardianapis.com/world/2011/mar/22/french-stereotype-best-food-in-world", "isHosted": false, "pillarId": "pillar/news", "pillarName": "News"}, {"id": "environment/2011/mar/22/binning-food-wastes-lots-of-water", "type": "article", "sectionId": "environment", "sectionName": "Environment", "webPublicationDate": "2011-03-22T08:00:00Z", "webTitle": "Throwing food away sends world's scarce water gushing down the plughole", "webUrl": "https://www.theguardian.com/environment/2011/mar/22/binning-food-wastes-lots-of-water", "apiUrl": "https://content.guardianapis.com/environment/2011/mar/22/binning-food-wastes-lots-of-water", "isHosted": false, "pillarId": "pillar/news", "pillarName": "News"}, {"id": "lifeandstyle/2011/mar/21/chicken-feed-prices", "type": "article", "sectionId": "food", "sectionName": "Food", "webPublicationDate": "2011-03-21T12:04:00Z", "webTitle": "When is a price rise chicken feed?", "webUrl": "https://www.theguardian.com/lifeandstyle/2011/mar/21/chicken-feed-prices", "apiUrl": "https://content.guardianapis.com/lifeandstyle/2011/mar/21/chicken-feed-prices", "isHosted": false, "pillarId": "pillar/lifestyle", "pillarName": "Lifestyle"}, {"id": "lifeandstyle/2011/mar/21/pork-chops-mashed-potatoes-recipe", "type": "article", "sectionId": "food", "sectionName": "Food", "webPublicationDate": "2011-03-21T09:30:00Z", "webTitle": "Pork chops with saut\u00e9ed cavolo nero, mashed potatoes and caper and anchovy oil recipe", "webUrl": "https://www.theguardian.com/lifeandstyle/2011/mar/21/pork-chops-mashed-potatoes-recipe", "apiUrl": "https://content.guardianapis.com/lifeandstyle/2011/mar/21/pork-chops-mashed-potatoes-recipe", "isHosted": false, "pillarId": "pillar/lifestyle", "pillarName": "Lifestyle"}, {"id": "lifeandstyle/2011/mar/20/bono-bent-forks-best-beef", "type": "article", "sectionId": "food", "sectionName": "Food", "webPublicationDate": "2011-03-20T20:00:01Z", "webTitle": "Bono, bent forks and brilliant beef: the Argentinian restaurant wooing the stars", "webUrl": "https://www.theguardian.com/lifeandstyle/2011/mar/20/bono-bent-forks-best-beef", "apiUrl": "https://content.guardianapis.com/lifeandstyle/2011/mar/20/bono-bent-forks-best-beef", "isHosted": false, "pillarId": "pillar/lifestyle", "pillarName": "Lifestyle"}, {"id": "lifeandstyle/2011/mar/20/wines-of-the-week", "type": "article", "sectionId": "food", "sectionName": "Food", "webPublicationDate": "2011-03-20T00:04:06Z", "webTitle": "Wines of the week: David Williams", "webUrl": "https://www.theguardian.com/lifeandstyle/2011/mar/20/wines-of-the-week", "apiUrl": "https://content.guardianapis.com/lifeandstyle/2011/mar/20/wines-of-the-week", "isHosted": false, "pillarId": "pillar/lifestyle", "pillarName": "Lifestyle"}]}}