{"response": {"status": "ok", "userTier": "developer", "total": 85115, "startIndex": 1, "pageSize": 50, "currentPage": 1, "pages": 1703, "orderBy": "newest", "results": [{"id": "football/2011/mar/31/football-association-gareth-southgate", "type": "article", "sectionId": "football", "sectionName": "Football", "webPublicationDate": "2011-03-30T23:06:03Z", "webTitle": "Gareth Southgate to build bridges between club and country for FA", "webUrl": "https://www.theguardian.com/football/2011/mar/31/football-association-gareth-southgate", "apiUrl": "https://content.guardianapis.com/football/2011/mar/31/football-association-gareth-southgate", "isHosted": false, "pillarId": "pillar/sport", "pillarName": "Sport"}, {"id": "sport/2011/mar/31/ray-ranson-cardiff-city", "type": "article", "sectionId": "sport", "sectionName": "Sport", "webPublicationDate": "2011-03-30T23:06:02Z", "webTitle": "Ray Ranson's resignation will not end probe into Cardiff City loan", "webUrl": "https://www.theguardian.com/sport/2011/mar/31/ray-ranson-cardiff-city", "apiUrl": "https://content.guardianapis.com/sport/2011/mar/31/ray-ranson-cardiff-city", "isHosted": false, "pillarId": "pillar/sport", "pillarName": "Sport"}, {"id": "football/2011/mar/31/lee-camp-northern-ireland-euro-2012", "type": "article", "sectionId": "football", "sectionName": "Football", "webPublicationDate": "2011-03-30T23:06:02Z", "webTitle": "Lee Camp believes Northern Ireland can qualify for Euro 2012", "webUrl": "https://www.theguardian.com/football/2011/mar/31/lee-camp-northern-ireland-euro-2012", "apiUrl": "https://content.guardianapis.com/football/2011/mar/31/lee-camp-northern-ireland-euro-2012", "isHosted": false, "pillarId": "pillar/sport", "pillarName": "Sport"}, {"id": "football/2011/mar/31/giovanni-trapattoni-ireland-brazil-world-cup", "type": "article", "sectionId": "football", "sectionName": "Football", "webPublicationDate": "2011-03-30T23:06:01Z", "webTitle": "Giovanni Trapattoni keen to stay on and gain revenge at 2014 World Cup", "webUrl": "https://www.theguardian.com/football/2011/mar/31/giovanni-trapattoni-ireland-brazil-world-cup", "apiUrl": "https://content.guardianapis.com/football/2011/mar/31/giovanni-trapattoni-ireland-brazil-world-cup", "isHosted": false, "pillarId": "pillar/sport", "pillarName": "Sport"}, {"id": "football/2011/mar/31/football-association-david-conn-gareth-southgate", "type": "article", "sectionId": "football", "sectionName": "Football", "webPublicationDate": "2011-03-30T23:06:00Z", "webTitle": "Gareth Southgate: 'We can't keep producing the English-style player'", "webUrl": "https://www.theguardian.com/football/2011/mar/31/football-association-david-conn-gareth-southgate", "apiUrl": "https://content.guardianapis.com/football/2011/mar/31/football-association-david-conn-gareth-southgate", "isHosted": false, "pillarId": "pillar/sport", "pillarName": "Sport"}, {"id": "football/2011/mar/30/capello-england-bright-future", "type": "article", "sectionId": "football", "sectionName": "Football", "webPublicationDate": "2011-03-30T22:00:01Z", "webTitle": "Fabio Capello says young emerging players give England a bright future", "webUrl": "https://www.theguardian.com/football/2011/mar/30/capello-england-bright-future", "apiUrl": "https://content.guardianapis.com/football/2011/mar/30/capello-england-bright-future", "isHosted": false, "pillarId": "pillar/sport", "pillarName": "Sport"}, {"id": "football/2011/mar/30/robin-van-persie-arsenal-injury", "type": "article", "sectionId": "football", "sectionName": "Football", "webPublicationDate": "2011-03-30T19:41:03Z", "webTitle": "Robin van Persie could be fit to face Blackburn despite thigh injury", "webUrl": "https://www.theguardian.com/football/2011/mar/30/robin-van-persie-arsenal-injury", "apiUrl": "https://content.guardianapis.com/football/2011/mar/30/robin-van-persie-arsenal-injury", "isHosted": false, "pillarId": "pillar/sport", "pillarName": "Sport"}, {"id": "world/2011/mar/30/prince-charles-madrid-news-spain", "type": "article", "sectionId": "world", "sectionName": "World news", "webPublicationDate": "2011-03-30T17:51:24Z", "webTitle": "Prince Charles touches down in Madrid \u2013 and other news from Spain", "webUrl": "https://www.theguardian.com/world/2011/mar/30/prince-charles-madrid-news-spain", "apiUrl": "https://content.guardianapis.com/world/2011/mar/30/prince-charles-madrid-news-spain", "isHosted": false, "pillarId": "pillar/news", "pillarName": "News"}, {"id": "football/2011/mar/30/alex-ferguson-fair-comment-referees", "type": "article", "sectionId": "football", "sectionName": "Football", "webPublicationDate": "2011-03-30T17:48:00Z", "webTitle": "Sir Alex Ferguson claims criticism of referee was 'fair comment'", "webUrl": "https://www.theguardian.com/football/2011/mar/30/alex-ferguson-fair-comment-referees", "apiUrl": "https://content.guardianapis.com/football/2011/mar/30/alex-ferguson-fair-comment-referees", "isHosted": false, "pillarId": "pillar/sport", "pillarName": "Sport"}, {"id": "football/2011/mar/30/the-fiver-england-drogba-adriano", "type": "article", "sectionId": "football", "sectionName": "Football", "webPublicationDate": "2011-03-30T15:16:36Z", "webTitle": "The Fiver | Rollercoaster madness; and Adriano | Simon Burnton and Tom Bryant", "webUrl": "https://www.theguardian.com/football/2011/mar/30/the-fiver-england-drogba-adriano", "apiUrl": "https://content.guardianapis.com/football/2011/mar/30/the-fiver-england-drogba-adriano", "isHosted": false, "pillarId": "pillar/sport", "pillarName": "Sport"}, {"id": "sport/2011/mar/30/tottenham-hotspur-olympic-stadium", "type": "article", "sectionId": "sport", "sectionName": "Sport", "webPublicationDate": "2011-03-30T14:46:16Z", "webTitle": "Tottenham's lawyers seek clarification over Olympic Stadium decision", "webUrl": "https://www.theguardian.com/sport/2011/mar/30/tottenham-hotspur-olympic-stadium", "apiUrl": "https://content.guardianapis.com/sport/2011/mar/30/tottenham-hotspur-olympic-stadium", "isHosted": false, "pillarId": "pillar/sport", "pillarName": "Sport"}, {"id": "football/2011/mar/30/diego-forlan-return-premier-league", "type": "article", "sectionId": "football", "sectionName": "Football", "webPublicationDate": "2011-03-30T14:28:04Z", "webTitle": "Diego Forl\u00e1n refuses to rule out return to Premier League", "webUrl": "https://www.theguardian.com/football/2011/mar/30/diego-forlan-return-premier-league", "apiUrl": "https://content.guardianapis.com/football/2011/mar/30/diego-forlan-return-premier-league", "isHosted": false, "pillarId": "pillar/sport", "pillarName": "Sport"}, {"id": "football/2011/mar/30/football-transfer-rumours", "type": "article", "sectionId": "football", "sectionName": "Football", "webPublicationDate": "2011-03-30T08:37:21Z", "webTitle": "Football transfer rumours: Jan Vertonghen to Manchester United | Simon Burnton", "webUrl": "https://www.theguardian.com/football/2011/mar/30/football-transfer-rumours", "apiUrl": "https://content.guardianapis.com/football/2011/mar/30/football-transfer-rumours", "isHosted": false, "pillarId": "pillar/sport", "pillarName": "Sport"}, {"id": "world/2011/mar/30/costa-rica-football-stadium-china", "type": "article", "sectionId": "world", "sectionName": "World news", "webPublicationDate": "2011-03-30T07:52:08Z", "webTitle": "Costa Rican football fans celebrate opening of stadium built by China", "webUrl": "https://www.theguardian.com/world/2011/mar/30/costa-rica-football-stadium-china", "apiUrl": "https://content.guardianapis.com/world/2011/mar/30/costa-rica-football-stadium-china", "isHosted": false, "pillarId": "pillar/news", "pillarName": "News"}, {"id": "football/2011/mar/30/fabio-capello-england-ghana1", "type": "article", "sectionId": "football", "sectionName": "Football", "webPublicationDate": "2011-03-30T07:01:00Z", "webTitle": "Fabio Capello: 'I saw a fantastic game, not an England friendly'", "webUrl": "https://www.theguardian.com/football/2011/mar/30/fabio-capello-england-ghana1", "apiUrl": "https://content.guardianapis.com/football/2011/mar/30/fabio-capello-england-ghana1", "isHosted": false, "pillarId": "pillar/sport", "pillarName": "Sport"}, {"id": "football/david-conn-inside-sport-blog/2011/mar/30/walsall-stadium-sale", "type": "article", "sectionId": "football", "sectionName": "Football", "webPublicationDate": "2011-03-30T07:00:00Z", "webTitle": "Walsall fans do not see the money we have spent, says Jeff Bonser | David Conn", "webUrl": "https://www.theguardian.com/football/david-conn-inside-sport-blog/2011/mar/30/walsall-stadium-sale", "apiUrl": "https://content.guardianapis.com/football/david-conn-inside-sport-blog/2011/mar/30/walsall-stadium-sale", "isHosted": false, "pillarId": "pillar/sport", "pillarName": "Sport"}, {"id": "sport/gallery/2011/mar/30/englandfootballteam-ghana", "type": "gallery", "sectionId": "football", "sectionName": "Football", "webPublicationDate": "2011-03-30T00:44:00Z", "webTitle": "Football: England v Ghana friendly - in pictures", "webUrl": "https://www.theguardian.com/sport/gallery/2011/mar/30/englandfootballteam-ghana", "apiUrl": "https://content.guardianapis.com/sport/gallery/2011/mar/30/englandfootballteam-ghana", "isHosted": false, "pillarId": "pillar/sport", "pillarName": "Sport"}, {"id": "football/2011/mar/30/jonathan-woodgate-injury-tottenham-hotspur", "type": "article", "sectionId": "football", "sectionName": "Football", "webPublicationDate": "2011-03-30T00:42:48Z", "webTitle": "Jonathan Woodgate's injury jinx strikes again in Tottenham friendly", "webUrl": "https://www.theguardian.com/football/2011/mar/30/jonathan-woodgate-injury-tottenham-hotspur", "apiUrl": "https://content.guardianapis.com/football/2011/mar/30/jonathan-woodgate-injury-tottenham-hotspur", "isHosted": false, "pillarId": "pillar/sport", "pillarName": "Sport"}, {"id": "football/2011/mar/30/chelsea-didier-drogba-luiz-felipe-scolari", "type": "article", "sectionId": "football", "sectionName": "Football", "webPublicationDate": "2011-03-30T00:39:06Z", "webTitle": "I wanted Chelsea to sell Didier Drogba, says Luiz Felipe Scolari", "webUrl": "https://www.theguardian.com/football/2011/mar/30/chelsea-didier-drogba-luiz-felipe-scolari", "apiUrl": "https://content.guardianapis.com/football/2011/mar/30/chelsea-didier-drogba-luiz-felipe-scolari", "isHosted": false, "pillarId": "pillar/sport", "pillarName": "Sport"}, {"id": "football/2011/mar/30/the-knowledge-april-fools-special", "type": "article", "sectionId": "football", "sectionName": "Football", "webPublicationDate": "2011-03-29T23:10:01Z", "webTitle": "The Knowledge: April fool! | Scott Murray", "webUrl": "https://www.theguardian.com/football/2011/mar/30/the-knowledge-april-fools-special", "apiUrl": "https://content.guardianapis.com/football/2011/mar/30/the-knowledge-april-fools-special", "isHosted": false, "pillarId": "pillar/sport", "pillarName": "Sport"}, {"id": "football/2011/mar/30/roma-thomas-dibenedetto-liverpool", "type": "article", "sectionId": "football", "sectionName": "Football", "webPublicationDate": "2011-03-29T23:06:01Z", "webTitle": "Liverpool could face a conflict of interest in Europe next season", "webUrl": "https://www.theguardian.com/football/2011/mar/30/roma-thomas-dibenedetto-liverpool", "apiUrl": "https://content.guardianapis.com/football/2011/mar/30/roma-thomas-dibenedetto-liverpool", "isHosted": false, "pillarId": "pillar/sport", "pillarName": "Sport"}, {"id": "football/blog/2011/mar/30/andy-carroll-england-ghana", "type": "article", "sectionId": "football", "sectionName": "Football", "webPublicationDate": "2011-03-29T23:06:01Z", "webTitle": "England fans are given a glimpse of the future by Fabio Capello | Paul Hayward", "webUrl": "https://www.theguardian.com/football/blog/2011/mar/30/andy-carroll-england-ghana", "apiUrl": "https://content.guardianapis.com/football/blog/2011/mar/30/andy-carroll-england-ghana", "isHosted": false, "pillarId": "pillar/sport", "pillarName": "Sport"}, {"id": "football/2011/mar/29/republic-ireland-uruguay", "type": "article", "sectionId": "football", "sectionName": "Football", "webPublicationDate": "2011-03-29T21:05:26Z", "webTitle": "Republic of Ireland 2-3 Uruguay | International friendly match report", "webUrl": "https://www.theguardian.com/football/2011/mar/29/republic-ireland-uruguay", "apiUrl": "https://content.guardianapis.com/football/2011/mar/29/republic-ireland-uruguay", "isHosted": false, "pillarId": "pillar/sport", "pillarName": "Sport"}, {"id": "football/blog/2011/mar/29/england-ghana-winners-losers", "type": "article", "sectionId": "football", "sectionName": "Football", "webPublicationDate": "2011-03-29T21:04:45Z", "webTitle": "England v Ghana: Winners and losers | Sachin Nakrani", "webUrl": "https://www.theguardian.com/football/blog/2011/mar/29/england-ghana-winners-losers", "apiUrl": "https://content.guardianapis.com/football/blog/2011/mar/29/england-ghana-winners-losers", "isHosted": false, "pillarId": "pillar/sport", "pillarName": "Sport"}, {"id": "football/2011/mar/29/england-ghana-international-friendly", "type": "article", "sectionId": "football", "sectionName": "Football", "webPublicationDate": "2011-03-29T21:03:45Z", "webTitle": "England 1-1 Ghana | International friendly match report", "webUrl": "https://www.theguardian.com/football/2011/mar/29/england-ghana-international-friendly", "apiUrl": "https://content.guardianapis.com/football/2011/mar/29/england-ghana-international-friendly", "isHosted": false, "pillarId": "pillar/sport", "pillarName": "Sport"}, {"id": "football/2011/mar/29/northern-ireland-slovenia-euro-2012", "type": "article", "sectionId": "football", "sectionName": "Football", "webPublicationDate": "2011-03-29T21:02:38Z", "webTitle": "Northern Ireland 0-0 Slovenia | Euro 2012 qualifier match report", "webUrl": "https://www.theguardian.com/football/2011/mar/29/northern-ireland-slovenia-euro-2012", "apiUrl": "https://content.guardianapis.com/football/2011/mar/29/northern-ireland-slovenia-euro-2012", "isHosted": false, "pillarId": "pillar/sport", "pillarName": "Sport"}, {"id": "football/2011/mar/29/tottenham-hotspur-aaron-lennon-hamstring", "type": "article", "sectionId": "football", "sectionName": "Football", "webPublicationDate": "2011-03-29T20:21:43Z", "webTitle": "Tottenham upbeat over Aaron Lennon's recovery to face Real Madrid", "webUrl": "https://www.theguardian.com/football/2011/mar/29/tottenham-hotspur-aaron-lennon-hamstring", "apiUrl": "https://content.guardianapis.com/football/2011/mar/29/tottenham-hotspur-aaron-lennon-hamstring", "isHosted": false, "pillarId": "pillar/sport", "pillarName": "Sport"}, {"id": "football/2011/mar/29/language-lessons-fabio-capello", "type": "article", "sectionId": "football", "sectionName": "Football", "webPublicationDate": "2011-03-29T19:00:01Z", "webTitle": "Language lessons with Fabio Capello", "webUrl": "https://www.theguardian.com/football/2011/mar/29/language-lessons-fabio-capello", "apiUrl": "https://content.guardianapis.com/football/2011/mar/29/language-lessons-fabio-capello", "isHosted": false, "pillarId": "pillar/sport", "pillarName": "Sport"}, {"id": "football/2011/mar/29/fa-fabio-capello-contract-world-cup", "type": "article", "sectionId": "football", "sectionName": "Football", "webPublicationDate": "2011-03-29T18:23:35Z", "webTitle": "Removal of Fabio Capello's break clause a mistake, says FA", "webUrl": "https://www.theguardian.com/football/2011/mar/29/fa-fabio-capello-contract-world-cup", "apiUrl": "https://content.guardianapis.com/football/2011/mar/29/fa-fabio-capello-contract-world-cup", "isHosted": false, "pillarId": "pillar/sport", "pillarName": "Sport"}, {"id": "football/2011/mar/29/fa-premier-league-uefa-financial-fair-play", "type": "article", "sectionId": "football", "sectionName": "Football", "webPublicationDate": "2011-03-29T18:04:31Z", "webTitle": "David Bernstein says FA could follow Uefa's Financial Fair Play rules", "webUrl": "https://www.theguardian.com/football/2011/mar/29/fa-premier-league-uefa-financial-fair-play", "apiUrl": "https://content.guardianapis.com/football/2011/mar/29/fa-premier-league-uefa-financial-fair-play", "isHosted": false, "pillarId": "pillar/sport", "pillarName": "Sport"}, {"id": "football/2011/mar/29/international-friendlies-premier-league", "type": "article", "sectionId": "football", "sectionName": "Football", "webPublicationDate": "2011-03-29T17:07:21Z", "webTitle": "International friendlies leave managers with mixed feelings | Jamie Jackson", "webUrl": "https://www.theguardian.com/football/2011/mar/29/international-friendlies-premier-league", "apiUrl": "https://content.guardianapis.com/football/2011/mar/29/international-friendlies-premier-league", "isHosted": false, "pillarId": "pillar/sport", "pillarName": "Sport"}, {"id": "football/2011/mar/29/england-ghana-live-international-friendly", "type": "article", "sectionId": "football", "sectionName": "Football", "webPublicationDate": "2011-03-29T17:07:00Z", "webTitle": "England v Ghana \u2013 live! | Barney Ronay", "webUrl": "https://www.theguardian.com/football/2011/mar/29/england-ghana-live-international-friendly", "apiUrl": "https://content.guardianapis.com/football/2011/mar/29/england-ghana-live-international-friendly", "isHosted": false, "pillarId": "pillar/sport", "pillarName": "Sport"}, {"id": "football/2011/mar/29/the-fiver-england-ghana", "type": "article", "sectionId": "football", "sectionName": "Football", "webPublicationDate": "2011-03-29T15:25:10Z", "webTitle": "Can a match be so pointless it becomes paradoxically filled with point? | Barney Ronay", "webUrl": "https://www.theguardian.com/football/2011/mar/29/the-fiver-england-ghana", "apiUrl": "https://content.guardianapis.com/football/2011/mar/29/the-fiver-england-ghana", "isHosted": false, "pillarId": "pillar/sport", "pillarName": "Sport"}, {"id": "football/2011/mar/29/german-teenager-banana-brazil", "type": "article", "sectionId": "football", "sectionName": "Football", "webPublicationDate": "2011-03-29T15:07:07Z", "webTitle": "German teenager admits throwing banana during Brazil v Scotland match", "webUrl": "https://www.theguardian.com/football/2011/mar/29/german-teenager-banana-brazil", "apiUrl": "https://content.guardianapis.com/football/2011/mar/29/german-teenager-banana-brazil", "isHosted": false, "pillarId": "pillar/sport", "pillarName": "Sport"}, {"id": "sport/david-conn-inside-sport-blog/2011/mar/29/fa", "type": "article", "sectionId": "football", "sectionName": "Football", "webPublicationDate": "2011-03-29T13:54:00Z", "webTitle": "The FA has proved why football needs the government's help | David Conn", "webUrl": "https://www.theguardian.com/sport/david-conn-inside-sport-blog/2011/mar/29/fa", "apiUrl": "https://content.guardianapis.com/sport/david-conn-inside-sport-blog/2011/mar/29/fa", "isHosted": false, "pillarId": "pillar/sport", "pillarName": "Sport"}, {"id": "sport/blog/2011/mar/29/club-deportivo-pereira-winless-year", "type": "article", "sectionId": "football", "sectionName": "Football", "webPublicationDate": "2011-03-29T12:20:13Z", "webTitle": "From kicking a lucky owl to a winless year | Will O'Doherty", "webUrl": "https://www.theguardian.com/sport/blog/2011/mar/29/club-deportivo-pereira-winless-year", "apiUrl": "https://content.guardianapis.com/sport/blog/2011/mar/29/club-deportivo-pereira-winless-year", "isHosted": false, "pillarId": "pillar/sport", "pillarName": "Sport"}, {"id": "football/2011/mar/29/andrey-arshavin-russia-euro-2012", "type": "article", "sectionId": "football", "sectionName": "Football", "webPublicationDate": "2011-03-29T10:27:09Z", "webTitle": "Russia seem to be going backwards as the sun sets on 'golden age' | Jonathan Wilson", "webUrl": "https://www.theguardian.com/football/2011/mar/29/andrey-arshavin-russia-euro-2012", "apiUrl": "https://content.guardianapis.com/football/2011/mar/29/andrey-arshavin-russia-euro-2012", "isHosted": false, "pillarId": "pillar/sport", "pillarName": "Sport"}, {"id": "football/2011/mar/29/alex-ferguson-manchester-united-fa-cup", "type": "article", "sectionId": "football", "sectionName": "Football", "webPublicationDate": "2011-03-29T10:08:08Z", "webTitle": "Sir Alex Ferguson predicts 'absolute chaos' for FA Cup semi-finals", "webUrl": "https://www.theguardian.com/football/2011/mar/29/alex-ferguson-manchester-united-fa-cup", "apiUrl": "https://content.guardianapis.com/football/2011/mar/29/alex-ferguson-manchester-united-fa-cup", "isHosted": false, "pillarId": "pillar/sport", "pillarName": "Sport"}, {"id": "football/2011/mar/29/football-transfer-rumours", "type": "article", "sectionId": "football", "sectionName": "Football", "webPublicationDate": "2011-03-29T08:12:11Z", "webTitle": "Football transfer rumours: Neymar and Wesley Sneijder to England? | Scott Murray", "webUrl": "https://www.theguardian.com/football/2011/mar/29/football-transfer-rumours", "apiUrl": "https://content.guardianapis.com/football/2011/mar/29/football-transfer-rumours", "isHosted": false, "pillarId": "pillar/sport", "pillarName": "Sport"}, {"id": "football/video/2011/mar/29/international-friendly-england-ghana-video", "type": "video", "sectionId": "football", "sectionName": "Football", "webPublicationDate": "2011-03-29T07:28:00Z", "webTitle": "International friendly preview: England v Ghana - video", "webUrl": "https://www.theguardian.com/football/video/2011/mar/29/international-friendly-england-ghana-video", "apiUrl": "https://content.guardianapis.com/football/video/2011/mar/29/international-friendly-england-ghana-video", "isHosted": false, "pillarId": "pillar/sport", "pillarName": "Sport"}, {"id": "football/2011/mar/29/anton-hysen-afraid-coming-out", "type": "article", "sectionId": "football", "sectionName": "Football", "webPublicationDate": "2011-03-29T06:59:00Z", "webTitle": "Anton Hys\u00e9n: 'Anyone afraid of coming out should give me a call'", "webUrl": "https://www.theguardian.com/football/2011/mar/29/anton-hysen-afraid-coming-out", "apiUrl": "https://content.guardianapis.com/football/2011/mar/29/anton-hysen-afraid-coming-out", "isHosted": false, "pillarId": "pillar/sport", "pillarName": "Sport"}, {"id": "football/blog/2011/mar/29/andy-carroll-englandfootballteam", "type": "article", "sectionId": "football", "sectionName": "Football", "webPublicationDate": "2011-03-29T06:00:00Z", "webTitle": "Andy Carroll has been quick to reach prominence \u2013 now he can earn it", "webUrl": "https://www.theguardian.com/football/blog/2011/mar/29/andy-carroll-englandfootballteam", "apiUrl": "https://content.guardianapis.com/football/blog/2011/mar/29/andy-carroll-englandfootballteam", "isHosted": false, "pillarId": "pillar/sport", "pillarName": "Sport"}, {"id": "football/gallery/2011/mar/29/mario-balotelli-manchester-city-gallery", "type": "gallery", "sectionId": "football", "sectionName": "Football", "webPublicationDate": "2011-03-28T23:10:00Z", "webTitle": "Mario Balotelli | The Gallery", "webUrl": "https://www.theguardian.com/football/gallery/2011/mar/29/mario-balotelli-manchester-city-gallery", "apiUrl": "https://content.guardianapis.com/football/gallery/2011/mar/29/mario-balotelli-manchester-city-gallery", "isHosted": false, "pillarId": "pillar/sport", "pillarName": "Sport"}, {"id": "football/blog/2011/mar/29/fabio-capello-england-ghana-friendly", "type": "article", "sectionId": "football", "sectionName": "Football", "webPublicationDate": "2011-03-28T23:06:01Z", "webTitle": "Fabio Capello's cast of extras shows regime has lost the plot", "webUrl": "https://www.theguardian.com/football/blog/2011/mar/29/fabio-capello-england-ghana-friendly", "apiUrl": "https://content.guardianapis.com/football/blog/2011/mar/29/fabio-capello-england-ghana-friendly", "isHosted": false, "pillarId": "pillar/sport", "pillarName": "Sport"}, {"id": "sport/2011/mar/29/clubs-licensing-select-committee", "type": "article", "sectionId": "sport", "sectionName": "Sport", "webPublicationDate": "2011-03-28T23:04:01Z", "webTitle": "Clubs face licensing system in wake of parliamentary inquiry", "webUrl": "https://www.theguardian.com/sport/2011/mar/29/clubs-licensing-select-committee", "apiUrl": "https://content.guardianapis.com/sport/2011/mar/29/clubs-licensing-select-committee", "isHosted": false, "pillarId": "pillar/sport", "pillarName": "Sport"}, {"id": "football/2011/mar/28/fabio-capello-jose-mourinho-england", "type": "article", "sectionId": "football", "sectionName": "Football", "webPublicationDate": "2011-03-28T22:47:00Z", "webTitle": "Fabio Capello hits out at Jos\u00e9 Mourinho over England job claim", "webUrl": "https://www.theguardian.com/football/2011/mar/28/fabio-capello-jose-mourinho-england", "apiUrl": "https://content.guardianapis.com/football/2011/mar/28/fabio-capello-jose-mourinho-england", "isHosted": false, "pillarId": "pillar/sport", "pillarName": "Sport"}, {"id": "football/2011/mar/28/england-jack-cork-hospital", "type": "article", "sectionId": "football", "sectionName": "Football", "webPublicationDate": "2011-03-28T22:23:26Z", "webTitle": "England midfielder Jack Cork taken to hospital suffering palpitations", "webUrl": "https://www.theguardian.com/football/2011/mar/28/england-jack-cork-hospital", "apiUrl": "https://content.guardianapis.com/football/2011/mar/28/england-jack-cork-hospital", "isHosted": false, "pillarId": "pillar/sport", "pillarName": "Sport"}, {"id": "football/2011/mar/28/neymar-love-london-chelsea-move", "type": "article", "sectionId": "football", "sectionName": "Football", "webPublicationDate": "2011-03-28T22:00:00Z", "webTitle": "Neymar's love of London gives Chelsea hope of summer move", "webUrl": "https://www.theguardian.com/football/2011/mar/28/neymar-love-london-chelsea-move", "apiUrl": "https://content.guardianapis.com/football/2011/mar/28/neymar-love-london-chelsea-move", "isHosted": false, "pillarId": "pillar/sport", "pillarName": "Sport"}, {"id": "football/2011/mar/28/england-under-21-stuart-pearce-iceland", "type": "article", "sectionId": "football", "sectionName": "Football", "webPublicationDate": "2011-03-28T21:27:22Z", "webTitle": "England 1-2 Iceland | Under-21 friendly match report", "webUrl": "https://www.theguardian.com/football/2011/mar/28/england-under-21-stuart-pearce-iceland", "apiUrl": "https://content.guardianapis.com/football/2011/mar/28/england-under-21-stuart-pearce-iceland", "isHosted": false, "pillarId": "pillar/sport", "pillarName": "Sport"}, {"id": "football/2011/mar/28/ghana-new-generation-africa-top", "type": "article", "sectionId": "football", "sectionName": "Football", "webPublicationDate": "2011-03-28T20:49:57Z", "webTitle": "Ghana graft new generation on to Africa's top side", "webUrl": "https://www.theguardian.com/football/2011/mar/28/ghana-new-generation-africa-top", "apiUrl": "https://content.guardianapis.com/football/2011/mar/28/ghana-new-generation-africa-top", "isHosted": false, "pillarId": "pillar/sport", "pillarName": "Sport"}]}}