{"response": {"status": "ok", "userTier": "developer", "total": 81523, "startIndex": 1, "pageSize": 50, "currentPage": 1, "pages": 1631, "orderBy": "newest", "results": [{"id": "football/2010/mar/31/bayern-munich-manchester-united-david-pleat", "type": "article", "sectionId": "football", "sectionName": "Football", "webPublicationDate": "2010-03-30T23:44:44Z", "webTitle": "Bayern Munich v Manchester United: David Pleat's analysis", "webUrl": "https://www.theguardian.com/football/2010/mar/31/bayern-munich-manchester-united-david-pleat", "apiUrl": "https://content.guardianapis.com/football/2010/mar/31/bayern-munich-manchester-united-david-pleat", "isHosted": false, "pillarId": "pillar/sport", "pillarName": "Sport"}, {"id": "football/blog/2010/mar/31/wayne-rooney-injury-munich", "type": "article", "sectionId": "football", "sectionName": "Football", "webPublicationDate": "2010-03-30T23:35:57Z", "webTitle": "Wayne Rooney's injury pain adds to litany of late-season calamities", "webUrl": "https://www.theguardian.com/football/blog/2010/mar/31/wayne-rooney-injury-munich", "apiUrl": "https://content.guardianapis.com/football/blog/2010/mar/31/wayne-rooney-injury-munich", "isHosted": false, "pillarId": "pillar/sport", "pillarName": "Sport"}, {"id": "football/2010/mar/31/wayne-rooney-manchester-united-injury", "type": "article", "sectionId": "football", "sectionName": "Football", "webPublicationDate": "2010-03-30T23:18:15Z", "webTitle": "Wayne Rooney injury caps bleak night for Manchester United at Bayern", "webUrl": "https://www.theguardian.com/football/2010/mar/31/wayne-rooney-manchester-united-injury", "apiUrl": "https://content.guardianapis.com/football/2010/mar/31/wayne-rooney-manchester-united-injury", "isHosted": false, "pillarId": "pillar/sport", "pillarName": "Sport"}, {"id": "football/2010/mar/31/have-former-footballers-become-referees", "type": "article", "sectionId": "football", "sectionName": "Football", "webPublicationDate": "2010-03-30T23:10:02Z", "webTitle": "Have any former professional footballers become referees? | The Knowledge", "webUrl": "https://www.theguardian.com/football/2010/mar/31/have-former-footballers-become-referees", "apiUrl": "https://content.guardianapis.com/football/2010/mar/31/have-former-footballers-become-referees", "isHosted": false, "pillarId": "pillar/sport", "pillarName": "Sport"}, {"id": "sport/2010/mar/31/manchester-united-drop-revenue", "type": "article", "sectionId": "sport", "sectionName": "Sport", "webPublicationDate": "2010-03-30T23:10:00Z", "webTitle": "Manchester United told to expect \u00a324m drop in projected revenue", "webUrl": "https://www.theguardian.com/sport/2010/mar/31/manchester-united-drop-revenue", "apiUrl": "https://content.guardianapis.com/sport/2010/mar/31/manchester-united-drop-revenue", "isHosted": false, "pillarId": "pillar/sport", "pillarName": "Sport"}, {"id": "football/2010/mar/31/arsene-wenger-arsenal-barcelona", "type": "article", "sectionId": "football", "sectionName": "Football", "webPublicationDate": "2010-03-30T23:05:05Z", "webTitle": "Ars\u00e8ne Wenger challenges Arsenal to make  history against Barcelona", "webUrl": "https://www.theguardian.com/football/2010/mar/31/arsene-wenger-arsenal-barcelona", "apiUrl": "https://content.guardianapis.com/football/2010/mar/31/arsene-wenger-arsenal-barcelona", "isHosted": false, "pillarId": "pillar/sport", "pillarName": "Sport"}, {"id": "football/2010/mar/30/bayern-munich-manchester-united-champions-league", "type": "article", "sectionId": "football", "sectionName": "Football", "webPublicationDate": "2010-03-30T23:02:00Z", "webTitle": "Bayern Munich 2-1 Manchester United | Champions League match report", "webUrl": "https://www.theguardian.com/football/2010/mar/30/bayern-munich-manchester-united-champions-league", "apiUrl": "https://content.guardianapis.com/football/2010/mar/30/bayern-munich-manchester-united-champions-league", "isHosted": false, "pillarId": "pillar/sport", "pillarName": "Sport"}, {"id": "football/quiz/2010/mar/31/football-quiz-arsenal-barcelona", "type": "article", "sectionId": "global", "sectionName": "Global", "webPublicationDate": "2010-03-30T23:01:00Z", "webTitle": "Football quiz: Arsenal and Barcelona", "webUrl": "https://www.theguardian.com/football/quiz/2010/mar/31/football-quiz-arsenal-barcelona", "apiUrl": "https://content.guardianapis.com/football/quiz/2010/mar/31/football-quiz-arsenal-barcelona", "isHosted": false}, {"id": "football/2010/mar/30/st-johnstone-rangers-spl", "type": "article", "sectionId": "football", "sectionName": "Football", "webPublicationDate": "2010-03-30T22:33:00Z", "webTitle": "St Johnstone 4-1 Rangers | Scottish Premier League match report", "webUrl": "https://www.theguardian.com/football/2010/mar/30/st-johnstone-rangers-spl", "apiUrl": "https://content.guardianapis.com/football/2010/mar/30/st-johnstone-rangers-spl", "isHosted": false, "pillarId": "pillar/sport", "pillarName": "Sport"}, {"id": "football/2010/mar/30/jose-mourinho-attacks-italy", "type": "article", "sectionId": "football", "sectionName": "Football", "webPublicationDate": "2010-03-30T22:02:05Z", "webTitle": "Jos\u00e9 Mourinho admits he misses England and attacks Italian football", "webUrl": "https://www.theguardian.com/football/2010/mar/30/jose-mourinho-attacks-italy", "apiUrl": "https://content.guardianapis.com/football/2010/mar/30/jose-mourinho-attacks-italy", "isHosted": false, "pillarId": "pillar/sport", "pillarName": "Sport"}, {"id": "football/2010/mar/31/zlatan-ibrahimovic-barcelona-arsenal", "type": "article", "sectionId": "football", "sectionName": "Football", "webPublicationDate": "2010-03-30T21:31:57Z", "webTitle": "Zlatan Ibrahimovic out to end reputation as sulker who cannot score", "webUrl": "https://www.theguardian.com/football/2010/mar/31/zlatan-ibrahimovic-barcelona-arsenal", "apiUrl": "https://content.guardianapis.com/football/2010/mar/31/zlatan-ibrahimovic-barcelona-arsenal", "isHosted": false, "pillarId": "pillar/sport", "pillarName": "Sport"}, {"id": "football/2010/mar/30/crystal-palace-sale-selhurst-park", "type": "article", "sectionId": "football", "sectionName": "Football", "webPublicationDate": "2010-03-30T21:22:00Z", "webTitle": "Crystal Palace sale hinges on joint deal for club and Selhurst Park", "webUrl": "https://www.theguardian.com/football/2010/mar/30/crystal-palace-sale-selhurst-park", "apiUrl": "https://content.guardianapis.com/football/2010/mar/30/crystal-palace-sale-selhurst-park", "isHosted": false, "pillarId": "pillar/sport", "pillarName": "Sport"}, {"id": "football/gallery/2010/mar/30/champions-league-bayern-munich-manchester-united", "type": "gallery", "sectionId": "football", "sectionName": "Football", "webPublicationDate": "2010-03-30T20:07:13Z", "webTitle": "Football: Bayern Munich v Manchester United", "webUrl": "https://www.theguardian.com/football/gallery/2010/mar/30/champions-league-bayern-munich-manchester-united", "apiUrl": "https://content.guardianapis.com/football/gallery/2010/mar/30/champions-league-bayern-munich-manchester-united", "isHosted": false, "pillarId": "pillar/sport", "pillarName": "Sport"}, {"id": "football/2010/mar/30/david-sullivan-west-ham-united", "type": "article", "sectionId": "football", "sectionName": "Football", "webPublicationDate": "2010-03-30T20:01:00Z", "webTitle": "David Sullivan flies to Dubai in search of new investors for West Ham", "webUrl": "https://www.theguardian.com/football/2010/mar/30/david-sullivan-west-ham-united", "apiUrl": "https://content.guardianapis.com/football/2010/mar/30/david-sullivan-west-ham-united", "isHosted": false, "pillarId": "pillar/sport", "pillarName": "Sport"}, {"id": "football/2010/mar/30/bayern-munich-manchester-united-live", "type": "article", "sectionId": "football", "sectionName": "Football", "webPublicationDate": "2010-03-30T17:44:20Z", "webTitle": "Bayern Munich v Manchester United - as it happened | Rob Smyth", "webUrl": "https://www.theguardian.com/football/2010/mar/30/bayern-munich-manchester-united-live", "apiUrl": "https://content.guardianapis.com/football/2010/mar/30/bayern-munich-manchester-united-live", "isHosted": false, "pillarId": "pillar/sport", "pillarName": "Sport"}, {"id": "football/2010/mar/30/lyon-bordeaux-champions-league-live", "type": "article", "sectionId": "football", "sectionName": "Football", "webPublicationDate": "2010-03-30T17:41:25Z", "webTitle": "Lyon v Bordeaux - as it happened | Jacob Steinberg", "webUrl": "https://www.theguardian.com/football/2010/mar/30/lyon-bordeaux-champions-league-live", "apiUrl": "https://content.guardianapis.com/football/2010/mar/30/lyon-bordeaux-champions-league-live", "isHosted": false, "pillarId": "pillar/sport", "pillarName": "Sport"}, {"id": "football/2010/mar/30/didier-drogba-chelsea-uefa", "type": "article", "sectionId": "football", "sectionName": "Football", "webPublicationDate": "2010-03-30T17:12:14Z", "webTitle": "Chelsea will not appeal against Didier Drogba's two-match Uefa ban", "webUrl": "https://www.theguardian.com/football/2010/mar/30/didier-drogba-chelsea-uefa", "apiUrl": "https://content.guardianapis.com/football/2010/mar/30/didier-drogba-chelsea-uefa", "isHosted": false, "pillarId": "pillar/sport", "pillarName": "Sport"}, {"id": "football/2010/mar/30/hull-city-russell-bartlett-loans", "type": "article", "sectionId": "football", "sectionName": "Football", "webPublicationDate": "2010-03-30T16:02:17Z", "webTitle": "Hull City owner Russell Bartlett has traded \u00a34m in loans with club", "webUrl": "https://www.theguardian.com/football/2010/mar/30/hull-city-russell-bartlett-loans", "apiUrl": "https://content.guardianapis.com/football/2010/mar/30/hull-city-russell-bartlett-loans", "isHosted": false, "pillarId": "pillar/sport", "pillarName": "Sport"}, {"id": "football/2010/mar/30/the-fiver-champions-league-manchester-united", "type": "article", "sectionId": "football", "sectionName": "Football", "webPublicationDate": "2010-03-30T15:36:28Z", "webTitle": "The Fiver | Hertz Doughnuts; and Jimmy Jump | Rob Smyth and Paolo Bandini", "webUrl": "https://www.theguardian.com/football/2010/mar/30/the-fiver-champions-league-manchester-united", "apiUrl": "https://content.guardianapis.com/football/2010/mar/30/the-fiver-champions-league-manchester-united", "isHosted": false, "pillarId": "pillar/sport", "pillarName": "Sport"}, {"id": "football/2010/mar/30/diego-maradona-bitten-dog-surgery", "type": "article", "sectionId": "football", "sectionName": "Football", "webPublicationDate": "2010-03-30T15:10:23Z", "webTitle": "Diego Maradona has surgery after being bitten by his dog", "webUrl": "https://www.theguardian.com/football/2010/mar/30/diego-maradona-bitten-dog-surgery", "apiUrl": "https://content.guardianapis.com/football/2010/mar/30/diego-maradona-bitten-dog-surgery", "isHosted": false, "pillarId": "pillar/sport", "pillarName": "Sport"}, {"id": "football/blog/2010/mar/30/bayern-munich-manchester-united-david-pleat", "type": "article", "sectionId": "football", "sectionName": "Football", "webPublicationDate": "2010-03-30T13:46:15Z", "webTitle": "Bayern Munich v Manchester United: David Pleat's key clashes", "webUrl": "https://www.theguardian.com/football/blog/2010/mar/30/bayern-munich-manchester-united-david-pleat", "apiUrl": "https://content.guardianapis.com/football/blog/2010/mar/30/bayern-munich-manchester-united-david-pleat", "isHosted": false, "pillarId": "pillar/sport", "pillarName": "Sport"}, {"id": "sport/gallery/2010/mar/30/sport-24-hours-in-pictures", "type": "gallery", "sectionId": "sport", "sectionName": "Sport", "webPublicationDate": "2010-03-30T13:04:40Z", "webTitle": "Sport: 24 hours in pictures", "webUrl": "https://www.theguardian.com/sport/gallery/2010/mar/30/sport-24-hours-in-pictures", "apiUrl": "https://content.guardianapis.com/sport/gallery/2010/mar/30/sport-24-hours-in-pictures", "isHosted": false, "pillarId": "pillar/sport", "pillarName": "Sport"}, {"id": "football/blog/2010/mar/30/lyon-bordeaux-champions-league", "type": "article", "sectionId": "football", "sectionName": "Football", "webPublicationDate": "2010-03-30T12:30:15Z", "webTitle": "Lyon and Bordeaux united in Champions League fear and optimism | Paul Doyle", "webUrl": "https://www.theguardian.com/football/blog/2010/mar/30/lyon-bordeaux-champions-league", "apiUrl": "https://content.guardianapis.com/football/blog/2010/mar/30/lyon-bordeaux-champions-league", "isHosted": false, "pillarId": "pillar/sport", "pillarName": "Sport"}, {"id": "football/gallery/2010/mar/24/manchester-united-bayern-munich-1999", "type": "gallery", "sectionId": "football", "sectionName": "Football", "webPublicationDate": "2010-03-30T11:51:42Z", "webTitle": "Football: How Manchester United won the Champions League in 1999", "webUrl": "https://www.theguardian.com/football/gallery/2010/mar/24/manchester-united-bayern-munich-1999", "apiUrl": "https://content.guardianapis.com/football/gallery/2010/mar/24/manchester-united-bayern-munich-1999", "isHosted": false, "pillarId": "pillar/sport", "pillarName": "Sport"}, {"id": "football/blog/2010/mar/30/millwall-leeds-swindon-football-league", "type": "article", "sectionId": "football", "sectionName": "Football", "webPublicationDate": "2010-03-30T11:39:51Z", "webTitle": "Millwall continue to make merry with Kenny Jackett pulling the strings | Louise Taylor", "webUrl": "https://www.theguardian.com/football/blog/2010/mar/30/millwall-leeds-swindon-football-league", "apiUrl": "https://content.guardianapis.com/football/blog/2010/mar/30/millwall-leeds-swindon-football-league", "isHosted": false, "pillarId": "pillar/sport", "pillarName": "Sport"}, {"id": "football/2010/mar/30/didier-drogba-chelsea-suspended", "type": "article", "sectionId": "football", "sectionName": "Football", "webPublicationDate": "2010-03-30T11:36:48Z", "webTitle": "Didier Drogba suspended for Chelsea's next two European matches", "webUrl": "https://www.theguardian.com/football/2010/mar/30/didier-drogba-chelsea-suspended", "apiUrl": "https://content.guardianapis.com/football/2010/mar/30/didier-drogba-chelsea-suspended", "isHosted": false, "pillarId": "pillar/sport", "pillarName": "Sport"}, {"id": "football/video/2010/mar/30/alex-ferguson-bayern-manchester-united", "type": "video", "sectionId": "football", "sectionName": "Football", "webPublicationDate": "2010-03-30T11:31:00Z", "webTitle": "Sir Alex Ferguson warns Bayern Munich that Manchester United are right in form", "webUrl": "https://www.theguardian.com/football/video/2010/mar/30/alex-ferguson-bayern-manchester-united", "apiUrl": "https://content.guardianapis.com/football/video/2010/mar/30/alex-ferguson-bayern-manchester-united", "isHosted": false, "pillarId": "pillar/sport", "pillarName": "Sport"}, {"id": "football/2010/mar/30/mark-hughes-celtic-manager-job", "type": "article", "sectionId": "football", "sectionName": "Football", "webPublicationDate": "2010-03-30T09:44:10Z", "webTitle": "Mark Hughes being linked with Celtic is a 'pleasant expectation'", "webUrl": "https://www.theguardian.com/football/2010/mar/30/mark-hughes-celtic-manager-job", "apiUrl": "https://content.guardianapis.com/football/2010/mar/30/mark-hughes-celtic-manager-job", "isHosted": false, "pillarId": "pillar/sport", "pillarName": "Sport"}, {"id": "football/2010/mar/30/football-tranfer-rumours", "type": "article", "sectionId": "football", "sectionName": "Football", "webPublicationDate": "2010-03-30T08:05:10Z", "webTitle": "Football transfer rumours: Nadir Belhadj to CSKA Moscow?", "webUrl": "https://www.theguardian.com/football/2010/mar/30/football-tranfer-rumours", "apiUrl": "https://content.guardianapis.com/football/2010/mar/30/football-tranfer-rumours", "isHosted": false, "pillarId": "pillar/sport", "pillarName": "Sport"}, {"id": "football/2010/mar/30/fa-alex-horne-lord-triesman", "type": "article", "sectionId": "football", "sectionName": "Football", "webPublicationDate": "2010-03-29T23:25:00Z", "webTitle": "FA's acting chief executive Alex Horne was twice rejected for the job", "webUrl": "https://www.theguardian.com/football/2010/mar/30/fa-alex-horne-lord-triesman", "apiUrl": "https://content.guardianapis.com/football/2010/mar/30/fa-alex-horne-lord-triesman", "isHosted": false, "pillarId": "pillar/sport", "pillarName": "Sport"}, {"id": "football/gallery/2010/mar/30/iain-dowie-gallery", "type": "gallery", "sectionId": "football", "sectionName": "Football", "webPublicationDate": "2010-03-29T23:01:00Z", "webTitle": "Iain Dowie | The Gallery", "webUrl": "https://www.theguardian.com/football/gallery/2010/mar/30/iain-dowie-gallery", "apiUrl": "https://content.guardianapis.com/football/gallery/2010/mar/30/iain-dowie-gallery", "isHosted": false, "pillarId": "pillar/sport", "pillarName": "Sport"}, {"id": "football/quiz/2010/mar/30/football-quiz-gianfranco-zola-west-ham", "type": "article", "sectionId": "global", "sectionName": "Global", "webPublicationDate": "2010-03-29T23:01:00Z", "webTitle": "Football quiz: Gianfranco Zola", "webUrl": "https://www.theguardian.com/football/quiz/2010/mar/30/football-quiz-gianfranco-zola-west-ham", "apiUrl": "https://content.guardianapis.com/football/quiz/2010/mar/30/football-quiz-gianfranco-zola-west-ham", "isHosted": false}, {"id": "football/2010/mar/29/newcastle-united-nottingham-forest-championship", "type": "article", "sectionId": "football", "sectionName": "Football", "webPublicationDate": "2010-03-29T22:38:00Z", "webTitle": "Newcastle United 2-0 Nottingham Forest | Championship match report", "webUrl": "https://www.theguardian.com/football/2010/mar/29/newcastle-united-nottingham-forest-championship", "apiUrl": "https://content.guardianapis.com/football/2010/mar/29/newcastle-united-nottingham-forest-championship", "isHosted": false, "pillarId": "pillar/sport", "pillarName": "Sport"}, {"id": "football/2010/mar/29/fans-being-heart-game", "type": "article", "sectionId": "football", "sectionName": "Football", "webPublicationDate": "2010-03-29T20:25:00Z", "webTitle": "'We look forward to fans being at the heart of the game'", "webUrl": "https://www.theguardian.com/football/2010/mar/29/fans-being-heart-game", "apiUrl": "https://content.guardianapis.com/football/2010/mar/29/fans-being-heart-game", "isHosted": false, "pillarId": "pillar/sport", "pillarName": "Sport"}, {"id": "football/2010/mar/29/alex-ferguson-manchester-united-bayern", "type": "article", "sectionId": "football", "sectionName": "Football", "webPublicationDate": "2010-03-29T19:42:20Z", "webTitle": "Alex Ferguson warns Bayern that Manchester United are near their peak", "webUrl": "https://www.theguardian.com/football/2010/mar/29/alex-ferguson-manchester-united-bayern", "apiUrl": "https://content.guardianapis.com/football/2010/mar/29/alex-ferguson-manchester-united-bayern", "isHosted": false, "pillarId": "pillar/sport", "pillarName": "Sport"}, {"id": "football/2010/mar/29/michel-platini-uefa-fan-power", "type": "article", "sectionId": "football", "sectionName": "Football", "webPublicationDate": "2010-03-29T19:39:00Z", "webTitle": "Michel Platini weighs in behind Labour plans for fan power", "webUrl": "https://www.theguardian.com/football/2010/mar/29/michel-platini-uefa-fan-power", "apiUrl": "https://content.guardianapis.com/football/2010/mar/29/michel-platini-uefa-fan-power", "isHosted": false, "pillarId": "pillar/sport", "pillarName": "Sport"}, {"id": "football/2010/mar/29/arsenal-cesc-fabregas-fit-barcelona", "type": "article", "sectionId": "football", "sectionName": "Football", "webPublicationDate": "2010-03-29T19:32:17Z", "webTitle": "Arsenal confident Cesc F\u00e1bregas will be fit to face Barcelona", "webUrl": "https://www.theguardian.com/football/2010/mar/29/arsenal-cesc-fabregas-fit-barcelona", "apiUrl": "https://content.guardianapis.com/football/2010/mar/29/arsenal-cesc-fabregas-fit-barcelona", "isHosted": false, "pillarId": "pillar/sport", "pillarName": "Sport"}, {"id": "football/2010/mar/29/fa-blackburn-burnley-crowd-trouble", "type": "article", "sectionId": "football", "sectionName": "Football", "webPublicationDate": "2010-03-29T19:30:34Z", "webTitle": "FA asks Burnley and Blackburn for accounts of derby crowd trouble", "webUrl": "https://www.theguardian.com/football/2010/mar/29/fa-blackburn-burnley-crowd-trouble", "apiUrl": "https://content.guardianapis.com/football/2010/mar/29/fa-blackburn-burnley-crowd-trouble", "isHosted": false, "pillarId": "pillar/sport", "pillarName": "Sport"}, {"id": "football/2010/mar/29/manchester-city-wigan-live", "type": "article", "sectionId": "football", "sectionName": "Football", "webPublicationDate": "2010-03-29T18:05:51Z", "webTitle": "Manchester City v Wigan - as it happened | Jacob Steinberg", "webUrl": "https://www.theguardian.com/football/2010/mar/29/manchester-city-wigan-live", "apiUrl": "https://content.guardianapis.com/football/2010/mar/29/manchester-city-wigan-live", "isHosted": false, "pillarId": "pillar/sport", "pillarName": "Sport"}, {"id": "football/2010/mar/29/gianfranco-zola-west-ham", "type": "article", "sectionId": "football", "sectionName": "Football", "webPublicationDate": "2010-03-29T17:45:55Z", "webTitle": "Gianfranco Zola pledges to stay on and steer West Ham to safety", "webUrl": "https://www.theguardian.com/football/2010/mar/29/gianfranco-zola-west-ham", "apiUrl": "https://content.guardianapis.com/football/2010/mar/29/gianfranco-zola-west-ham", "isHosted": false, "pillarId": "pillar/sport", "pillarName": "Sport"}, {"id": "football/2010/mar/29/louis-van-gaal-manchester-united", "type": "article", "sectionId": "football", "sectionName": "Football", "webPublicationDate": "2010-03-29T17:21:00Z", "webTitle": "Louis van Gaal admits being 'jealous' of Manchester United set-up", "webUrl": "https://www.theguardian.com/football/2010/mar/29/louis-van-gaal-manchester-united", "apiUrl": "https://content.guardianapis.com/football/2010/mar/29/louis-van-gaal-manchester-united", "isHosted": false, "pillarId": "pillar/sport", "pillarName": "Sport"}, {"id": "football/blog/2010/mar/29/alex-ferguson-manchester-united", "type": "article", "sectionId": "football", "sectionName": "Football", "webPublicationDate": "2010-03-29T17:03:56Z", "webTitle": "Alex Ferguson holds a winning hand despite shuffling his pack | Kevin McCarra", "webUrl": "https://www.theguardian.com/football/blog/2010/mar/29/alex-ferguson-manchester-united", "apiUrl": "https://content.guardianapis.com/football/blog/2010/mar/29/alex-ferguson-manchester-united", "isHosted": false, "pillarId": "pillar/sport", "pillarName": "Sport"}, {"id": "football/blog/audio/2010/mar/29/football-weekly-podcast-chelsea-liverpool-barcelona", "type": "audio", "sectionId": "football", "sectionName": "Football", "webPublicationDate": "2010-03-29T16:27:08Z", "webTitle": "Football Weekly podcast: Top two in tip-top form and Torres looking tasty", "webUrl": "https://www.theguardian.com/football/blog/audio/2010/mar/29/football-weekly-podcast-chelsea-liverpool-barcelona", "apiUrl": "https://content.guardianapis.com/football/blog/audio/2010/mar/29/football-weekly-podcast-chelsea-liverpool-barcelona", "isHosted": false, "pillarId": "pillar/sport", "pillarName": "Sport"}, {"id": "football/2010/mar/29/the-fiver-government-fans-clubs", "type": "article", "sectionId": "football", "sectionName": "Football", "webPublicationDate": "2010-03-29T15:41:23Z", "webTitle": "The Fiver | An Unworkable, Vote-Grabbing Ruse; and Sven Taking Charge Of Ivory Coast | Barry Glendenning and Tom Lutz", "webUrl": "https://www.theguardian.com/football/2010/mar/29/the-fiver-government-fans-clubs", "apiUrl": "https://content.guardianapis.com/football/2010/mar/29/the-fiver-government-fans-clubs", "isHosted": false, "pillarId": "pillar/sport", "pillarName": "Sport"}, {"id": "sport/blog/2010/mar/29/five-things-learned-football-weekend", "type": "article", "sectionId": "football", "sectionName": "Football", "webPublicationDate": "2010-03-29T12:19:25Z", "webTitle": "Five things we learned from the Premier League this weekend | John Ashdown", "webUrl": "https://www.theguardian.com/sport/blog/2010/mar/29/five-things-learned-football-weekend", "apiUrl": "https://content.guardianapis.com/sport/blog/2010/mar/29/five-things-learned-football-weekend", "isHosted": false, "pillarId": "pillar/sport", "pillarName": "Sport"}, {"id": "football/2010/mar/29/nemanja-vidic-elbow-johan-elmander-punishment", "type": "article", "sectionId": "football", "sectionName": "Football", "webPublicationDate": "2010-03-29T11:37:17Z", "webTitle": "Nemanja Vidic in the clear for elbow on Bolton's Johan Elmander", "webUrl": "https://www.theguardian.com/football/2010/mar/29/nemanja-vidic-elbow-johan-elmander-punishment", "apiUrl": "https://content.guardianapis.com/football/2010/mar/29/nemanja-vidic-elbow-johan-elmander-punishment", "isHosted": false, "pillarId": "pillar/sport", "pillarName": "Sport"}, {"id": "football/blog/2010/mar/29/claudio-ranieri-roma-inter", "type": "article", "sectionId": "football", "sectionName": "Football", "webPublicationDate": "2010-03-29T11:37:03Z", "webTitle": "Claudio Ranieri completes Roma renaissance with win over Inter | Paolo Bandini", "webUrl": "https://www.theguardian.com/football/blog/2010/mar/29/claudio-ranieri-roma-inter", "apiUrl": "https://content.guardianapis.com/football/blog/2010/mar/29/claudio-ranieri-roma-inter", "isHosted": false, "pillarId": "pillar/sport", "pillarName": "Sport"}, {"id": "football/2010/mar/29/football-league-premier-league-portsmouth-dossier", "type": "article", "sectionId": "football", "sectionName": "Football", "webPublicationDate": "2010-03-29T10:40:16Z", "webTitle": "Football League to be sent Pompey dossier following their relegation", "webUrl": "https://www.theguardian.com/football/2010/mar/29/football-league-premier-league-portsmouth-dossier", "apiUrl": "https://content.guardianapis.com/football/2010/mar/29/football-league-premier-league-portsmouth-dossier", "isHosted": false, "pillarId": "pillar/sport", "pillarName": "Sport"}, {"id": "football/blog/2010/mar/29/kevin-kuranyi-joachim-low-germany", "type": "article", "sectionId": "football", "sectionName": "Football", "webPublicationDate": "2010-03-29T10:10:30Z", "webTitle": "Kevin Kuranyi is a major headache for Joachim L\u00f6w \u2013 even the hair is better | Raphael Honigstein", "webUrl": "https://www.theguardian.com/football/blog/2010/mar/29/kevin-kuranyi-joachim-low-germany", "apiUrl": "https://content.guardianapis.com/football/blog/2010/mar/29/kevin-kuranyi-joachim-low-germany", "isHosted": false, "pillarId": "pillar/sport", "pillarName": "Sport"}, {"id": "football/2010/mar/29/football-transfer-rumours", "type": "article", "sectionId": "football", "sectionName": "Football", "webPublicationDate": "2010-03-29T07:57:00Z", "webTitle": "Football transfer rumours: Belhadj and Boateng to leave Portsmouth?", "webUrl": "https://www.theguardian.com/football/2010/mar/29/football-transfer-rumours", "apiUrl": "https://content.guardianapis.com/football/2010/mar/29/football-transfer-rumours", "isHosted": false, "pillarId": "pillar/sport", "pillarName": "Sport"}]}}