{"response": {"status": "ok", "userTier": "developer", "total": 133743, "startIndex": 1, "pageSize": 50, "currentPage": 1, "pages": 2675, "orderBy": "newest", "results": [{"id": "society/2013/mar/30/david-simon-americas-war-on-drugs", "type": "article", "sectionId": "film", "sectionName": "Film", "webPublicationDate": "2013-03-30T23:00:00Z", "webTitle": "David Simon on America's war on drugs and The House I Live In", "webUrl": "https://www.theguardian.com/society/2013/mar/30/david-simon-americas-war-on-drugs", "apiUrl": "https://content.guardianapis.com/society/2013/mar/30/david-simon-americas-war-on-drugs", "isHosted": false, "pillarId": "pillar/arts", "pillarName": "Arts"}, {"id": "commentisfree/2013/mar/31/immigration-politicians-dont-stoke-fears", "type": "article", "sectionId": "commentisfree", "sectionName": "Opinion", "webPublicationDate": "2013-03-30T22:19:15Z", "webTitle": "Political rhetoric ignores immigration facts| Observer editorial", "webUrl": "https://www.theguardian.com/commentisfree/2013/mar/31/immigration-politicians-dont-stoke-fears", "apiUrl": "https://content.guardianapis.com/commentisfree/2013/mar/31/immigration-politicians-dont-stoke-fears", "isHosted": false, "pillarId": "pillar/opinion", "pillarName": "Opinion"}, {"id": "society/2013/mar/30/bedroom-tax-disaster-housing-chief", "type": "article", "sectionId": "society", "sectionName": "Society", "webPublicationDate": "2013-03-30T20:30:03Z", "webTitle": "Bedroom tax will be costly disaster, says housing chief", "webUrl": "https://www.theguardian.com/society/2013/mar/30/bedroom-tax-disaster-housing-chief", "apiUrl": "https://content.guardianapis.com/society/2013/mar/30/bedroom-tax-disaster-housing-chief", "isHosted": false, "pillarId": "pillar/news", "pillarName": "News"}, {"id": "society/2013/mar/30/housing-policy-mess", "type": "article", "sectionId": "society", "sectionName": "Society", "webPublicationDate": "2013-03-30T20:30:01Z", "webTitle": "Housing policy is a mess \u2013 and the budget's 'mortgage guarantee' will not change that", "webUrl": "https://www.theguardian.com/society/2013/mar/30/housing-policy-mess", "apiUrl": "https://content.guardianapis.com/society/2013/mar/30/housing-policy-mess", "isHosted": false, "pillarId": "pillar/news", "pillarName": "News"}, {"id": "society/2013/mar/30/solution-to-housing-crisis-experts", "type": "article", "sectionId": "society", "sectionName": "Society", "webPublicationDate": "2013-03-30T20:30:00Z", "webTitle": "What's the solution to the housing crisis?", "webUrl": "https://www.theguardian.com/society/2013/mar/30/solution-to-housing-crisis-experts", "apiUrl": "https://content.guardianapis.com/society/2013/mar/30/solution-to-housing-crisis-experts", "isHosted": false, "pillarId": "pillar/news", "pillarName": "News"}, {"id": "education/2013/mar/30/teachers-strike-action-curriculum-reforms", "type": "article", "sectionId": "education", "sectionName": "Education", "webPublicationDate": "2013-03-30T19:42:32Z", "webTitle": "Irate teachers threaten 'civil disobedience'", "webUrl": "https://www.theguardian.com/education/2013/mar/30/teachers-strike-action-curriculum-reforms", "apiUrl": "https://content.guardianapis.com/education/2013/mar/30/teachers-strike-action-curriculum-reforms", "isHosted": false, "pillarId": "pillar/news", "pillarName": "News"}, {"id": "society/2013/mar/30/bedroom-tax-welfare-cuts-protests", "type": "article", "sectionId": "society", "sectionName": "Society", "webPublicationDate": "2013-03-30T15:51:25Z", "webTitle": "'Bedroom tax' and welfare cuts protesters take to streets across UK", "webUrl": "https://www.theguardian.com/society/2013/mar/30/bedroom-tax-welfare-cuts-protests", "apiUrl": "https://content.guardianapis.com/society/2013/mar/30/bedroom-tax-welfare-cuts-protests", "isHosted": false, "pillarId": "pillar/news", "pillarName": "News"}, {"id": "education/2013/mar/30/teachers-threaten-boycott-ofsted-inspections", "type": "article", "sectionId": "education", "sectionName": "Education", "webPublicationDate": "2013-03-30T14:39:23Z", "webTitle": "Teachers threaten to boycott Ofsted school inspections", "webUrl": "https://www.theguardian.com/education/2013/mar/30/teachers-threaten-boycott-ofsted-inspections", "apiUrl": "https://content.guardianapis.com/education/2013/mar/30/teachers-threaten-boycott-ofsted-inspections", "isHosted": false, "pillarId": "pillar/news", "pillarName": "News"}, {"id": "commentisfree/2013/mar/30/health-act-means-death-of-nhs", "type": "article", "sectionId": "commentisfree", "sectionName": "Opinion", "webPublicationDate": "2013-03-30T11:00:01Z", "webTitle": "Health act means the death of the NHS as we know it", "webUrl": "https://www.theguardian.com/commentisfree/2013/mar/30/health-act-means-death-of-nhs", "apiUrl": "https://content.guardianapis.com/commentisfree/2013/mar/30/health-act-means-death-of-nhs", "isHosted": false, "pillarId": "pillar/opinion", "pillarName": "Opinion"}, {"id": "commentisfree/2013/mar/30/poverty-benefits-not-lifestyle-choice", "type": "article", "sectionId": "commentisfree", "sectionName": "Opinion", "webPublicationDate": "2013-03-30T08:00:24Z", "webTitle": "Poverty feels like a stone in your belly | Rhiannon Lucy Cosslett", "webUrl": "https://www.theguardian.com/commentisfree/2013/mar/30/poverty-benefits-not-lifestyle-choice", "apiUrl": "https://content.guardianapis.com/commentisfree/2013/mar/30/poverty-benefits-not-lifestyle-choice", "isHosted": false, "pillarId": "pillar/opinion", "pillarName": "Opinion"}, {"id": "education/2013/mar/30/parents-dont-trust-coalition-education", "type": "article", "sectionId": "education", "sectionName": "Education", "webPublicationDate": "2013-03-30T00:05:06Z", "webTitle": "Parents don't trust coalition on education, poll shows", "webUrl": "https://www.theguardian.com/education/2013/mar/30/parents-dont-trust-coalition-education", "apiUrl": "https://content.guardianapis.com/education/2013/mar/30/parents-dont-trust-coalition-education", "isHosted": false, "pillarId": "pillar/news", "pillarName": "News"}, {"id": "society/2013/mar/29/asda-welfare-scheme-birmingham", "type": "article", "sectionId": "society", "sectionName": "Society", "webPublicationDate": "2013-03-29T22:16:12Z", "webTitle": "Asda welfare cards to be given to Birmingham's poor", "webUrl": "https://www.theguardian.com/society/2013/mar/29/asda-welfare-scheme-birmingham", "apiUrl": "https://content.guardianapis.com/society/2013/mar/29/asda-welfare-scheme-birmingham", "isHosted": false, "pillarId": "pillar/news", "pillarName": "News"}, {"id": "commentisfree/2013/mar/29/unthinkable-boris-leaving-politics-editorial", "type": "article", "sectionId": "commentisfree", "sectionName": "Opinion", "webPublicationDate": "2013-03-29T21:58:31Z", "webTitle": "Unthinkable? Boris leaving politics | Editorial", "webUrl": "https://www.theguardian.com/commentisfree/2013/mar/29/unthinkable-boris-leaving-politics-editorial", "apiUrl": "https://content.guardianapis.com/commentisfree/2013/mar/29/unthinkable-boris-leaving-politics-editorial", "isHosted": false, "pillarId": "pillar/opinion", "pillarName": "Opinion"}, {"id": "business/2013/mar/29/blair-brown-invest-growth", "type": "article", "sectionId": "business", "sectionName": "Business", "webPublicationDate": "2013-03-29T21:00:33Z", "webTitle": "Letters: Blair and Brown invested for growth", "webUrl": "https://www.theguardian.com/business/2013/mar/29/blair-brown-invest-growth", "apiUrl": "https://content.guardianapis.com/business/2013/mar/29/blair-brown-invest-growth", "isHosted": false, "pillarId": "pillar/news", "pillarName": "News"}, {"id": "society/2013/mar/29/figuring-out-jobseeker-sanctions", "type": "article", "sectionId": "society", "sectionName": "Society", "webPublicationDate": "2013-03-29T20:59:02Z", "webTitle": "Letters: Figuring out jobseeker sanctions", "webUrl": "https://www.theguardian.com/society/2013/mar/29/figuring-out-jobseeker-sanctions", "apiUrl": "https://content.guardianapis.com/society/2013/mar/29/figuring-out-jobseeker-sanctions", "isHosted": false, "pillarId": "pillar/news", "pillarName": "News"}, {"id": "media/2013/mar/29/eddie-mair-boris-johnson-journalism", "type": "article", "sectionId": "media", "sectionName": "Media", "webPublicationDate": "2013-03-29T20:30:00Z", "webTitle": "Eddie Mair on Boris Johnson interview: a lesson in student journalism", "webUrl": "https://www.theguardian.com/media/2013/mar/29/eddie-mair-boris-johnson-journalism", "apiUrl": "https://content.guardianapis.com/media/2013/mar/29/eddie-mair-boris-johnson-journalism", "isHosted": false, "pillarId": "pillar/news", "pillarName": "News"}, {"id": "theguardian/2013/mar/29/hoggart-miliband-hubris", "type": "article", "sectionId": "theguardian", "sectionName": "From the Guardian", "webPublicationDate": "2013-03-29T20:27:25Z", "webTitle": "Simon Hoggart's week: hubris and the house of Miliband", "webUrl": "https://www.theguardian.com/theguardian/2013/mar/29/hoggart-miliband-hubris", "apiUrl": "https://content.guardianapis.com/theguardian/2013/mar/29/hoggart-miliband-hubris", "isHosted": false, "pillarId": "pillar/news", "pillarName": "News"}, {"id": "society/2013/mar/29/david-miliband-ed-miliband", "type": "article", "sectionId": "society", "sectionName": "Society", "webPublicationDate": "2013-03-29T19:57:41Z", "webTitle": "David Miliband would shun shadow cabinet job, says brother Ed", "webUrl": "https://www.theguardian.com/society/2013/mar/29/david-miliband-ed-miliband", "apiUrl": "https://content.guardianapis.com/society/2013/mar/29/david-miliband-ed-miliband", "isHosted": false, "pillarId": "pillar/news", "pillarName": "News"}, {"id": "politics/2013/mar/29/nick-clegg-pressure-mike-hancock", "type": "article", "sectionId": "politics", "sectionName": "Politics", "webPublicationDate": "2013-03-29T19:42:47Z", "webTitle": "Nick Clegg under pressure over complaint letter about Mike Hancock", "webUrl": "https://www.theguardian.com/politics/2013/mar/29/nick-clegg-pressure-mike-hancock", "apiUrl": "https://content.guardianapis.com/politics/2013/mar/29/nick-clegg-pressure-mike-hancock", "isHosted": false, "pillarId": "pillar/news", "pillarName": "News"}, {"id": "society/2013/mar/29/bedroom-tax-worthy-stalin-poverty-tsar", "type": "article", "sectionId": "society", "sectionName": "Society", "webPublicationDate": "2013-03-29T19:41:30Z", "webTitle": "Bedroom tax is worthy of Stalin, says government's poverty tsar", "webUrl": "https://www.theguardian.com/society/2013/mar/29/bedroom-tax-worthy-stalin-poverty-tsar", "apiUrl": "https://content.guardianapis.com/society/2013/mar/29/bedroom-tax-worthy-stalin-poverty-tsar", "isHosted": false, "pillarId": "pillar/news", "pillarName": "News"}, {"id": "uk/2013/mar/29/eu-watchdog-britain-shameful-rhetoric-migrants", "type": "article", "sectionId": "uk-news", "sectionName": "UK news", "webPublicationDate": "2013-03-29T19:08:50Z", "webTitle": "European watchdog accuses Britain of shameful rhetoric on migrants", "webUrl": "https://www.theguardian.com/uk/2013/mar/29/eu-watchdog-britain-shameful-rhetoric-migrants", "apiUrl": "https://content.guardianapis.com/uk/2013/mar/29/eu-watchdog-britain-shameful-rhetoric-migrants", "isHosted": false, "pillarId": "pillar/news", "pillarName": "News"}, {"id": "media/2013/mar/29/court-newspaper-name-councillor-drunk", "type": "article", "sectionId": "media", "sectionName": "Media", "webPublicationDate": "2013-03-29T18:09:20Z", "webTitle": "Court upholds newspapers' right to name councillor drunk with infant", "webUrl": "https://www.theguardian.com/media/2013/mar/29/court-newspaper-name-councillor-drunk", "apiUrl": "https://content.guardianapis.com/media/2013/mar/29/court-newspaper-name-councillor-drunk", "isHosted": false, "pillarId": "pillar/news", "pillarName": "News"}, {"id": "commentisfree/2013/mar/29/andrew-mitchell-focus-police-not-press", "type": "article", "sectionId": "commentisfree", "sectionName": "Opinion", "webPublicationDate": "2013-03-29T17:47:15Z", "webTitle": "Andrew Mitchell should focus on police, not the press | Andrew Gimson", "webUrl": "https://www.theguardian.com/commentisfree/2013/mar/29/andrew-mitchell-focus-police-not-press", "apiUrl": "https://content.guardianapis.com/commentisfree/2013/mar/29/andrew-mitchell-focus-police-not-press", "isHosted": false, "pillarId": "pillar/opinion", "pillarName": "Opinion"}, {"id": "politics/2013/mar/29/former-minister-caution-universal-credit", "type": "article", "sectionId": "politics", "sectionName": "Politics", "webPublicationDate": "2013-03-29T16:44:05Z", "webTitle": "Former Conservative welfare minister urges caution over universal credit", "webUrl": "https://www.theguardian.com/politics/2013/mar/29/former-minister-caution-universal-credit", "apiUrl": "https://content.guardianapis.com/politics/2013/mar/29/former-minister-caution-universal-credit", "isHosted": false, "pillarId": "pillar/news", "pillarName": "News"}, {"id": "commentisfree/2013/mar/29/tory-assault-welfare-scotland-north", "type": "article", "sectionId": "commentisfree", "sectionName": "Opinion", "webPublicationDate": "2013-03-29T15:00:02Z", "webTitle": "This Tory-led assault on welfare is battering Scotland and the north again | Peter Lazenby", "webUrl": "https://www.theguardian.com/commentisfree/2013/mar/29/tory-assault-welfare-scotland-north", "apiUrl": "https://content.guardianapis.com/commentisfree/2013/mar/29/tory-assault-welfare-scotland-north", "isHosted": false, "pillarId": "pillar/opinion", "pillarName": "Opinion"}, {"id": "money/2013/mar/29/fsa-inaction-morgtage-rate-hikes-row", "type": "article", "sectionId": "money", "sectionName": "Money", "webPublicationDate": "2013-03-29T10:18:11Z", "webTitle": "FSA inaction over mortgage rate hikes sparks row with MPs", "webUrl": "https://www.theguardian.com/money/2013/mar/29/fsa-inaction-morgtage-rate-hikes-row", "apiUrl": "https://content.guardianapis.com/money/2013/mar/29/fsa-inaction-morgtage-rate-hikes-row", "isHosted": false, "pillarId": "pillar/lifestyle", "pillarName": "Lifestyle"}, {"id": "commentisfree/2013/mar/29/protesting-trident-replacement-aldermaston", "type": "article", "sectionId": "commentisfree", "sectionName": "Opinion", "webPublicationDate": "2013-03-29T10:02:49Z", "webTitle": "Why I'll be protesting against a Trident replacement at Aldermaston | Natalie Bennett", "webUrl": "https://www.theguardian.com/commentisfree/2013/mar/29/protesting-trident-replacement-aldermaston", "apiUrl": "https://content.guardianapis.com/commentisfree/2013/mar/29/protesting-trident-replacement-aldermaston", "isHosted": false, "pillarId": "pillar/opinion", "pillarName": "Opinion"}, {"id": "politics/2013/mar/29/politics-live-readers-edition-friday-29-march", "type": "article", "sectionId": "politics", "sectionName": "Politics", "webPublicationDate": "2013-03-29T09:00:04Z", "webTitle": "Politics live: readers' edition - Friday 29 March", "webUrl": "https://www.theguardian.com/politics/2013/mar/29/politics-live-readers-edition-friday-29-march", "apiUrl": "https://content.guardianapis.com/politics/2013/mar/29/politics-live-readers-edition-friday-29-march", "isHosted": false, "pillarId": "pillar/news", "pillarName": "News"}, {"id": "commentisfree/2013/mar/29/michael-gove-teachers", "type": "article", "sectionId": "commentisfree", "sectionName": "Opinion", "webPublicationDate": "2013-03-29T08:00:00Z", "webTitle": "In Michael Gove's world who needs teachers? | Peter Wilby", "webUrl": "https://www.theguardian.com/commentisfree/2013/mar/29/michael-gove-teachers", "apiUrl": "https://content.guardianapis.com/commentisfree/2013/mar/29/michael-gove-teachers", "isHosted": false, "pillarId": "pillar/opinion", "pillarName": "Opinion"}, {"id": "commentisfree/2013/mar/29/in-bed-with-charles-ii-george-iii", "type": "article", "sectionId": "commentisfree", "sectionName": "Opinion", "webPublicationDate": "2013-03-29T07:00:11Z", "webTitle": "In bed with Charles II and George III | Hannah Betts", "webUrl": "https://www.theguardian.com/commentisfree/2013/mar/29/in-bed-with-charles-ii-george-iii", "apiUrl": "https://content.guardianapis.com/commentisfree/2013/mar/29/in-bed-with-charles-ii-george-iii", "isHosted": false, "pillarId": "pillar/opinion", "pillarName": "Opinion"}, {"id": "commentisfree/cartoon/2013/mar/29/steve-bell-cameron-reshuffle-cartoon", "type": "picture", "sectionId": "commentisfree", "sectionName": "Opinion", "webPublicationDate": "2013-03-29T00:46:08Z", "webTitle": "Steve Bell on David Cameron's mini-reshuffle - cartoon", "webUrl": "https://www.theguardian.com/commentisfree/cartoon/2013/mar/29/steve-bell-cameron-reshuffle-cartoon", "apiUrl": "https://content.guardianapis.com/commentisfree/cartoon/2013/mar/29/steve-bell-cameron-reshuffle-cartoon", "isHosted": false, "pillarId": "pillar/opinion", "pillarName": "Opinion"}, {"id": "commentisfree/2013/mar/29/scotland-uk-state-of-union", "type": "article", "sectionId": "commentisfree", "sectionName": "Opinion", "webPublicationDate": "2013-03-29T00:06:12Z", "webTitle": "Scotland and the UK: state of the union | Editorial", "webUrl": "https://www.theguardian.com/commentisfree/2013/mar/29/scotland-uk-state-of-union", "apiUrl": "https://content.guardianapis.com/commentisfree/2013/mar/29/scotland-uk-state-of-union", "isHosted": false, "pillarId": "pillar/opinion", "pillarName": "Opinion"}, {"id": "uk/2013/mar/29/2011-riots-panel-proposals-unimplemented", "type": "article", "sectionId": "uk-news", "sectionName": "UK news", "webPublicationDate": "2013-03-29T00:03:01Z", "webTitle": "2011 riots inquiry recommendations ignored by government, says Lammy", "webUrl": "https://www.theguardian.com/uk/2013/mar/29/2011-riots-panel-proposals-unimplemented", "apiUrl": "https://content.guardianapis.com/uk/2013/mar/29/2011-riots-panel-proposals-unimplemented", "isHosted": false, "pillarId": "pillar/news", "pillarName": "News"}, {"id": "politics/2013/mar/29/rum-talk-tower-hamlets-police", "type": "article", "sectionId": "politics", "sectionName": "Politics", "webPublicationDate": "2013-03-29T00:01:02Z", "webTitle": "Hugh Muir's diary: Revolver-gate and the mayor. The cops move in", "webUrl": "https://www.theguardian.com/politics/2013/mar/29/rum-talk-tower-hamlets-police", "apiUrl": "https://content.guardianapis.com/politics/2013/mar/29/rum-talk-tower-hamlets-police", "isHosted": false, "pillarId": "pillar/news", "pillarName": "News"}, {"id": "politics/2013/mar/28/lebgate-file-contains-no-evidence-that-police-lied", "type": "article", "sectionId": "politics", "sectionName": "Politics", "webPublicationDate": "2013-03-28T21:16:00Z", "webTitle": "'Plebgate' file passed to prosecutors contains no evidence that police lied", "webUrl": "https://www.theguardian.com/politics/2013/mar/28/lebgate-file-contains-no-evidence-that-police-lied", "apiUrl": "https://content.guardianapis.com/politics/2013/mar/28/lebgate-file-contains-no-evidence-that-police-lied", "isHosted": false, "pillarId": "pillar/news", "pillarName": "News"}, {"id": "politics/2013/mar/28/energy-minister-john-hayes-no10", "type": "article", "sectionId": "politics", "sectionName": "Politics", "webPublicationDate": "2013-03-28T21:07:00Z", "webTitle": "Energy minister John Hayes switches to No 10 role in surprise reshuffle", "webUrl": "https://www.theguardian.com/politics/2013/mar/28/energy-minister-john-hayes-no10", "apiUrl": "https://content.guardianapis.com/politics/2013/mar/28/energy-minister-john-hayes-no10", "isHosted": false, "pillarId": "pillar/news", "pillarName": "News"}, {"id": "society/2013/mar/28/charity-figleaf-local-services-cut", "type": "article", "sectionId": "society", "sectionName": "Society", "webPublicationDate": "2013-03-28T21:00:02Z", "webTitle": "Letters: High expectations of charity fig-leaf as local services cut", "webUrl": "https://www.theguardian.com/society/2013/mar/28/charity-figleaf-local-services-cut", "apiUrl": "https://content.guardianapis.com/society/2013/mar/28/charity-figleaf-local-services-cut", "isHosted": false, "pillarId": "pillar/news", "pillarName": "News"}, {"id": "environment/2013/mar/28/non-nuclear-future", "type": "article", "sectionId": "environment", "sectionName": "Environment", "webPublicationDate": "2013-03-28T21:00:02Z", "webTitle": "Letters: Non-nuclear future", "webUrl": "https://www.theguardian.com/environment/2013/mar/28/non-nuclear-future", "apiUrl": "https://content.guardianapis.com/environment/2013/mar/28/non-nuclear-future", "isHosted": false, "pillarId": "pillar/news", "pillarName": "News"}, {"id": "politics/2013/mar/28/brothers-in-arms-no-longer", "type": "article", "sectionId": "politics", "sectionName": "Politics", "webPublicationDate": "2013-03-28T20:59:02Z", "webTitle": "Letters: Brothers in arms no longer", "webUrl": "https://www.theguardian.com/politics/2013/mar/28/brothers-in-arms-no-longer", "apiUrl": "https://content.guardianapis.com/politics/2013/mar/28/brothers-in-arms-no-longer", "isHosted": false, "pillarId": "pillar/news", "pillarName": "News"}, {"id": "uk/2013/mar/28/hillsborough-disaster-officer-norman-bettison", "type": "article", "sectionId": "uk-news", "sectionName": "UK news", "webPublicationDate": "2013-03-28T20:48:39Z", "webTitle": "Hillsborough police officer faces fresh criticism from watchdog", "webUrl": "https://www.theguardian.com/uk/2013/mar/28/hillsborough-disaster-officer-norman-bettison", "apiUrl": "https://content.guardianapis.com/uk/2013/mar/28/hillsborough-disaster-officer-norman-bettison", "isHosted": false, "pillarId": "pillar/news", "pillarName": "News"}, {"id": "commentisfree/2013/mar/28/michael-fallon-green-credentials", "type": "article", "sectionId": "commentisfree", "sectionName": "Opinion", "webPublicationDate": "2013-03-28T19:44:00Z", "webTitle": "What Michael Fallon can do to prove his green credentials | Barry Gardiner", "webUrl": "https://www.theguardian.com/commentisfree/2013/mar/28/michael-fallon-green-credentials", "apiUrl": "https://content.guardianapis.com/commentisfree/2013/mar/28/michael-fallon-green-credentials", "isHosted": false, "pillarId": "pillar/opinion", "pillarName": "Opinion"}, {"id": "commentisfree/2013/mar/28/abu-qatada-why-save-him", "type": "article", "sectionId": "commentisfree", "sectionName": "Opinion", "webPublicationDate": "2013-03-28T19:05:01Z", "webTitle": "Abu Qatada: the law won | Conor Gearty", "webUrl": "https://www.theguardian.com/commentisfree/2013/mar/28/abu-qatada-why-save-him", "apiUrl": "https://content.guardianapis.com/commentisfree/2013/mar/28/abu-qatada-why-save-him", "isHosted": false, "pillarId": "pillar/opinion", "pillarName": "Opinion"}, {"id": "politics/2013/mar/28/nick-clegg-bedroom-tax-fostering", "type": "article", "sectionId": "politics", "sectionName": "Politics", "webPublicationDate": "2013-03-28T18:51:19Z", "webTitle": "Nick Clegg criticises council's bedroom tax appeal for foster carers", "webUrl": "https://www.theguardian.com/politics/2013/mar/28/nick-clegg-bedroom-tax-fostering", "apiUrl": "https://content.guardianapis.com/politics/2013/mar/28/nick-clegg-bedroom-tax-fostering", "isHosted": false, "pillarId": "pillar/news", "pillarName": "News"}, {"id": "uk/video/2013/mar/28/hillsborough-norman-bettison-video", "type": "video", "sectionId": "uk-news", "sectionName": "UK news", "webPublicationDate": "2013-03-28T17:31:00Z", "webTitle": "Hillsborough family support group responds to Norman Bettison allegations - video", "webUrl": "https://www.theguardian.com/uk/video/2013/mar/28/hillsborough-norman-bettison-video", "apiUrl": "https://content.guardianapis.com/uk/video/2013/mar/28/hillsborough-norman-bettison-video", "isHosted": false, "pillarId": "pillar/news", "pillarName": "News"}, {"id": "books/2013/mar/28/democracy-project-david-graeber-review", "type": "article", "sectionId": "books", "sectionName": "Books", "webPublicationDate": "2013-03-28T16:10:18Z", "webTitle": "The Democracy Project: a History, a Crisis, a Movement by David Graeber \u2013 review", "webUrl": "https://www.theguardian.com/books/2013/mar/28/democracy-project-david-graeber-review", "apiUrl": "https://content.guardianapis.com/books/2013/mar/28/democracy-project-david-graeber-review", "isHosted": false, "pillarId": "pillar/arts", "pillarName": "Arts"}, {"id": "commentisfree/2013/mar/28/new-labour-david-miliband", "type": "article", "sectionId": "commentisfree", "sectionName": "Opinion", "webPublicationDate": "2013-03-28T16:05:03Z", "webTitle": "What New Labour will do \u2026 when it rises from the dead | Hopi Sen", "webUrl": "https://www.theguardian.com/commentisfree/2013/mar/28/new-labour-david-miliband", "apiUrl": "https://content.guardianapis.com/commentisfree/2013/mar/28/new-labour-david-miliband", "isHosted": false, "pillarId": "pillar/opinion", "pillarName": "Opinion"}, {"id": "politics/video/2013/mar/28/cameron-british-manufacturing-nissan-video", "type": "video", "sectionId": "politics", "sectionName": "Politics", "webPublicationDate": "2013-03-28T15:54:00Z", "webTitle": "Cameron applauds British manufacturing during visit to Nissan plant - video", "webUrl": "https://www.theguardian.com/politics/video/2013/mar/28/cameron-british-manufacturing-nissan-video", "apiUrl": "https://content.guardianapis.com/politics/video/2013/mar/28/cameron-british-manufacturing-nissan-video", "isHosted": false, "pillarId": "pillar/news", "pillarName": "News"}, {"id": "politics/blog/2013/mar/28/counci-tax-bedroom-tax-live", "type": "liveblog", "sectionId": "politics", "sectionName": "Politics", "webPublicationDate": "2013-03-28T15:50:53Z", "webTitle": "Cameron moves John Hayes in mini reshuffle: Politics live blog", "webUrl": "https://www.theguardian.com/politics/blog/2013/mar/28/counci-tax-bedroom-tax-live", "apiUrl": "https://content.guardianapis.com/politics/blog/2013/mar/28/counci-tax-bedroom-tax-live", "isHosted": false, "pillarId": "pillar/news", "pillarName": "News"}, {"id": "politics/davehillblog/2013/mar/28/regenerating-london-to-think-big-think-small", "type": "article", "sectionId": "politics", "sectionName": "Politics", "webPublicationDate": "2013-03-28T15:12:20Z", "webTitle": "Regenerating London: to think big, think small", "webUrl": "https://www.theguardian.com/politics/davehillblog/2013/mar/28/regenerating-london-to-think-big-think-small", "apiUrl": "https://content.guardianapis.com/politics/davehillblog/2013/mar/28/regenerating-london-to-think-big-think-small", "isHosted": false, "pillarId": "pillar/news", "pillarName": "News"}, {"id": "commentisfree/2013/mar/28/problem-food-stamps", "type": "article", "sectionId": "commentisfree", "sectionName": "Opinion", "webPublicationDate": "2013-03-28T14:59:23Z", "webTitle": "The problem with food stamps is that people need more than food | Claudia Wood", "webUrl": "https://www.theguardian.com/commentisfree/2013/mar/28/problem-food-stamps", "apiUrl": "https://content.guardianapis.com/commentisfree/2013/mar/28/problem-food-stamps", "isHosted": false, "pillarId": "pillar/opinion", "pillarName": "Opinion"}]}}