{"response": {"status": "ok", "userTier": "developer", "total": 87677, "startIndex": 1, "pageSize": 50, "currentPage": 1, "pages": 1754, "orderBy": "newest", "results": [{"id": "football/2012/mar/30/david-moyes-europe-everton-fa-cup", "type": "article", "sectionId": "football", "sectionName": "Football", "webPublicationDate": "2012-03-30T22:27:28Z", "webTitle": "David Moyes says Europe dream gives Everton Cup semi-final incentive", "webUrl": "https://www.theguardian.com/football/2012/mar/30/david-moyes-europe-everton-fa-cup", "apiUrl": "https://content.guardianapis.com/football/2012/mar/30/david-moyes-europe-everton-fa-cup", "isHosted": false, "pillarId": "pillar/sport", "pillarName": "Sport"}, {"id": "football/2012/mar/30/sergio-aguero-manchester-city", "type": "article", "sectionId": "football", "sectionName": "Football", "webPublicationDate": "2012-03-30T22:02:06Z", "webTitle": "Sergio Ag\u00fcero injury leaves Manchester City with striking dilemma", "webUrl": "https://www.theguardian.com/football/2012/mar/30/sergio-aguero-manchester-city", "apiUrl": "https://content.guardianapis.com/football/2012/mar/30/sergio-aguero-manchester-city", "isHosted": false, "pillarId": "pillar/sport", "pillarName": "Sport"}, {"id": "football/blog/2012/mar/30/the-secret-footballer-twitter", "type": "article", "sectionId": "football", "sectionName": "Football", "webPublicationDate": "2012-03-30T22:02:02Z", "webTitle": "The Secret Footballer: The tweet police should let us get on with it", "webUrl": "https://www.theguardian.com/football/blog/2012/mar/30/the-secret-footballer-twitter", "apiUrl": "https://content.guardianapis.com/football/blog/2012/mar/30/the-secret-footballer-twitter", "isHosted": false, "pillarId": "pillar/sport", "pillarName": "Sport"}, {"id": "football/2012/mar/30/arsene-wenger-appeal-uefa-ban", "type": "article", "sectionId": "football", "sectionName": "Football", "webPublicationDate": "2012-03-30T22:02:02Z", "webTitle": "Ars\u00e8ne Wenger to appeal after being handed three-match ban by Uefa", "webUrl": "https://www.theguardian.com/football/2012/mar/30/arsene-wenger-appeal-uefa-ban", "apiUrl": "https://content.guardianapis.com/football/2012/mar/30/arsene-wenger-appeal-uefa-ban", "isHosted": false, "pillarId": "pillar/sport", "pillarName": "Sport"}, {"id": "football/2012/mar/30/chelsea-fa-cup-semi-final", "type": "article", "sectionId": "football", "sectionName": "Football", "webPublicationDate": "2012-03-30T22:02:02Z", "webTitle": "Chelsea fear FA Cup semi-final may harm their Champions League chances", "webUrl": "https://www.theguardian.com/football/2012/mar/30/chelsea-fa-cup-semi-final", "apiUrl": "https://content.guardianapis.com/football/2012/mar/30/chelsea-fa-cup-semi-final", "isHosted": false, "pillarId": "pillar/sport", "pillarName": "Sport"}, {"id": "football/blog/2012/mar/30/dalglish-liverpool-newcastle-signings", "type": "article", "sectionId": "football", "sectionName": "Football", "webPublicationDate": "2012-03-30T21:30:01Z", "webTitle": "Liverpool's cup success cannot paper over cracks of failed signings | Andy Hunter", "webUrl": "https://www.theguardian.com/football/blog/2012/mar/30/dalglish-liverpool-newcastle-signings", "apiUrl": "https://content.guardianapis.com/football/blog/2012/mar/30/dalglish-liverpool-newcastle-signings", "isHosted": false, "pillarId": "pillar/sport", "pillarName": "Sport"}, {"id": "football/2012/mar/30/manchester-city-united-roberto-mancini", "type": "article", "sectionId": "football", "sectionName": "Football", "webPublicationDate": "2012-03-30T21:30:00Z", "webTitle": "Manchester City feel the heat as relentless United grind them down", "webUrl": "https://www.theguardian.com/football/2012/mar/30/manchester-city-united-roberto-mancini", "apiUrl": "https://content.guardianapis.com/football/2012/mar/30/manchester-city-united-roberto-mancini", "isHosted": false, "pillarId": "pillar/sport", "pillarName": "Sport"}, {"id": "football/2012/mar/30/independent-committee-fifa", "type": "article", "sectionId": "football", "sectionName": "Football", "webPublicationDate": "2012-03-30T19:13:37Z", "webTitle": "Independent committee deems Fifa's current procedures 'insufficient'", "webUrl": "https://www.theguardian.com/football/2012/mar/30/independent-committee-fifa", "apiUrl": "https://content.guardianapis.com/football/2012/mar/30/independent-committee-fifa", "isHosted": false, "pillarId": "pillar/sport", "pillarName": "Sport"}, {"id": "football/2012/mar/30/squad-sheets-tottenham-hotspur-swansea-city", "type": "article", "sectionId": "football", "sectionName": "Football", "webPublicationDate": "2012-03-30T17:10:52Z", "webTitle": "Squad sheets: Tottenham Hotspur v Swansea City", "webUrl": "https://www.theguardian.com/football/2012/mar/30/squad-sheets-tottenham-hotspur-swansea-city", "apiUrl": "https://content.guardianapis.com/football/2012/mar/30/squad-sheets-tottenham-hotspur-swansea-city", "isHosted": false, "pillarId": "pillar/sport", "pillarName": "Sport"}, {"id": "football/2012/mar/30/squad-sheets-queens-park-rangers-arsenal", "type": "article", "sectionId": "football", "sectionName": "Football", "webPublicationDate": "2012-03-30T16:43:38Z", "webTitle": "Squad sheets: Queens Park Rangers v Arsenal", "webUrl": "https://www.theguardian.com/football/2012/mar/30/squad-sheets-queens-park-rangers-arsenal", "apiUrl": "https://content.guardianapis.com/football/2012/mar/30/squad-sheets-queens-park-rangers-arsenal", "isHosted": false, "pillarId": "pillar/sport", "pillarName": "Sport"}, {"id": "football/2012/mar/30/squad-sheets-everton-west-bromwich-albion", "type": "article", "sectionId": "football", "sectionName": "Football", "webPublicationDate": "2012-03-30T16:10:55Z", "webTitle": "Everton v West Bromwich Albion", "webUrl": "https://www.theguardian.com/football/2012/mar/30/squad-sheets-everton-west-bromwich-albion", "apiUrl": "https://content.guardianapis.com/football/2012/mar/30/squad-sheets-everton-west-bromwich-albion", "isHosted": false, "pillarId": "pillar/sport", "pillarName": "Sport"}, {"id": "uk/2012/mar/30/bomb-plot-scottish-catholic-anti-terror", "type": "article", "sectionId": "uk-news", "sectionName": "UK news", "webPublicationDate": "2012-03-30T15:58:00Z", "webTitle": "The amateur bomb plot that sparked huge Scottish anti-terror operation", "webUrl": "https://www.theguardian.com/uk/2012/mar/30/bomb-plot-scottish-catholic-anti-terror", "apiUrl": "https://content.guardianapis.com/uk/2012/mar/30/bomb-plot-scottish-catholic-anti-terror", "isHosted": false, "pillarId": "pillar/news", "pillarName": "News"}, {"id": "football/2012/mar/30/rio-ferdinand-manchester-united-china", "type": "article", "sectionId": "football", "sectionName": "Football", "webPublicationDate": "2012-03-30T15:55:42Z", "webTitle": "Rio Ferdinand considering leaving Manchester United for China", "webUrl": "https://www.theguardian.com/football/2012/mar/30/rio-ferdinand-manchester-united-china", "apiUrl": "https://content.guardianapis.com/football/2012/mar/30/rio-ferdinand-manchester-united-china", "isHosted": false, "pillarId": "pillar/sport", "pillarName": "Sport"}, {"id": "football/2012/mar/30/squad-sheets-aston-villa-chelsea", "type": "article", "sectionId": "football", "sectionName": "Football", "webPublicationDate": "2012-03-30T15:42:05Z", "webTitle": "Squad sheets: Aston Villa v Chelsea", "webUrl": "https://www.theguardian.com/football/2012/mar/30/squad-sheets-aston-villa-chelsea", "apiUrl": "https://content.guardianapis.com/football/2012/mar/30/squad-sheets-aston-villa-chelsea", "isHosted": false, "pillarId": "pillar/sport", "pillarName": "Sport"}, {"id": "football/2012/mar/30/squad-sheets-wigan-athletic-stoke-city", "type": "article", "sectionId": "football", "sectionName": "Football", "webPublicationDate": "2012-03-30T15:14:27Z", "webTitle": "Squad sheets: Wigan Athletic v Stoke City", "webUrl": "https://www.theguardian.com/football/2012/mar/30/squad-sheets-wigan-athletic-stoke-city", "apiUrl": "https://content.guardianapis.com/football/2012/mar/30/squad-sheets-wigan-athletic-stoke-city", "isHosted": false, "pillarId": "pillar/sport", "pillarName": "Sport"}, {"id": "football/2012/mar/30/squad-sheets-fulham-norwich-city", "type": "article", "sectionId": "football", "sectionName": "Football", "webPublicationDate": "2012-03-30T14:57:31Z", "webTitle": "Squad sheets: Fulham v Norwich City", "webUrl": "https://www.theguardian.com/football/2012/mar/30/squad-sheets-fulham-norwich-city", "apiUrl": "https://content.guardianapis.com/football/2012/mar/30/squad-sheets-fulham-norwich-city", "isHosted": false, "pillarId": "pillar/sport", "pillarName": "Sport"}, {"id": "football/2012/mar/30/football-fiver-manchester-city-sergio-aguero", "type": "article", "sectionId": "football", "sectionName": "Football", "webPublicationDate": "2012-03-30T14:50:51Z", "webTitle": "The Fiver | A Tap-Dancing Monk, A Minotaur, The 1986 Panini Sticker Album And A Birdbath | Tom Lutz", "webUrl": "https://www.theguardian.com/football/2012/mar/30/football-fiver-manchester-city-sergio-aguero", "apiUrl": "https://content.guardianapis.com/football/2012/mar/30/football-fiver-manchester-city-sergio-aguero", "isHosted": false, "pillarId": "pillar/sport", "pillarName": "Sport"}, {"id": "uk/2012/mar/30/celtic-bomb-plot-timeline-devices", "type": "article", "sectionId": "uk-news", "sectionName": "UK news", "webPublicationDate": "2012-03-30T14:47:50Z", "webTitle": "Celtic bomb plot \u2013 a timeline of devices", "webUrl": "https://www.theguardian.com/uk/2012/mar/30/celtic-bomb-plot-timeline-devices", "apiUrl": "https://content.guardianapis.com/uk/2012/mar/30/celtic-bomb-plot-timeline-devices", "isHosted": false, "pillarId": "pillar/news", "pillarName": "News"}, {"id": "uk/2012/mar/30/neil-lennon-bomb-plot-guilty", "type": "article", "sectionId": "uk-news", "sectionName": "UK news", "webPublicationDate": "2012-03-30T14:36:56Z", "webTitle": "Neil Lennon bomb plot: two men found guilty", "webUrl": "https://www.theguardian.com/uk/2012/mar/30/neil-lennon-bomb-plot-guilty", "apiUrl": "https://content.guardianapis.com/uk/2012/mar/30/neil-lennon-bomb-plot-guilty", "isHosted": false, "pillarId": "pillar/news", "pillarName": "News"}, {"id": "football/2012/mar/30/squad-sheets-wolverhampton-wanderers-bolton-wanderers", "type": "article", "sectionId": "football", "sectionName": "Football", "webPublicationDate": "2012-03-30T14:34:37Z", "webTitle": "Squad sheets: Wolverhampton Wanderers v Bolton Wanderers", "webUrl": "https://www.theguardian.com/football/2012/mar/30/squad-sheets-wolverhampton-wanderers-bolton-wanderers", "apiUrl": "https://content.guardianapis.com/football/2012/mar/30/squad-sheets-wolverhampton-wanderers-bolton-wanderers", "isHosted": false, "pillarId": "pillar/sport", "pillarName": "Sport"}, {"id": "football/2012/mar/30/squad-sheets-manchester-city-sunderland", "type": "article", "sectionId": "football", "sectionName": "Football", "webPublicationDate": "2012-03-30T14:10:39Z", "webTitle": "Squad sheets: Manchester City v Sunderland", "webUrl": "https://www.theguardian.com/football/2012/mar/30/squad-sheets-manchester-city-sunderland", "apiUrl": "https://content.guardianapis.com/football/2012/mar/30/squad-sheets-manchester-city-sunderland", "isHosted": false, "pillarId": "pillar/sport", "pillarName": "Sport"}, {"id": "football/2012/mar/30/squad-sheets-newcastle-united-liverpool", "type": "article", "sectionId": "football", "sectionName": "Football", "webPublicationDate": "2012-03-30T13:11:33Z", "webTitle": "Squad sheets: Newcastle United v Liverpool", "webUrl": "https://www.theguardian.com/football/2012/mar/30/squad-sheets-newcastle-united-liverpool", "apiUrl": "https://content.guardianapis.com/football/2012/mar/30/squad-sheets-newcastle-united-liverpool", "isHosted": false, "pillarId": "pillar/sport", "pillarName": "Sport"}, {"id": "football/blog/2012/mar/30/mls-le-toux-philadelphia-union-vancouver", "type": "article", "sectionId": "football", "sectionName": "Football", "webPublicationDate": "2012-03-30T13:00:00Z", "webTitle": "MLS week four - fan previews", "webUrl": "https://www.theguardian.com/football/blog/2012/mar/30/mls-le-toux-philadelphia-union-vancouver", "apiUrl": "https://content.guardianapis.com/football/blog/2012/mar/30/mls-le-toux-philadelphia-union-vancouver", "isHosted": false, "pillarId": "pillar/sport", "pillarName": "Sport"}, {"id": "football/blog/2012/mar/30/sam-allardyce-west-ham", "type": "article", "sectionId": "football", "sectionName": "Football", "webPublicationDate": "2012-03-30T12:34:16Z", "webTitle": "West Ham's labour of love with long passes is holding forwards back | Paul Doyle", "webUrl": "https://www.theguardian.com/football/blog/2012/mar/30/sam-allardyce-west-ham", "apiUrl": "https://content.guardianapis.com/football/blog/2012/mar/30/sam-allardyce-west-ham", "isHosted": false, "pillarId": "pillar/sport", "pillarName": "Sport"}, {"id": "football/2012/mar/30/squad-sheets-blackburn-rovers-manchester-united", "type": "article", "sectionId": "football", "sectionName": "Football", "webPublicationDate": "2012-03-30T12:22:14Z", "webTitle": "Squad sheets: Blackburn Rovers v Manchester United", "webUrl": "https://www.theguardian.com/football/2012/mar/30/squad-sheets-blackburn-rovers-manchester-united", "apiUrl": "https://content.guardianapis.com/football/2012/mar/30/squad-sheets-blackburn-rovers-manchester-united", "isHosted": false, "pillarId": "pillar/sport", "pillarName": "Sport"}, {"id": "football/2012/mar/30/nedum-onuoha-manchester-city-qpr", "type": "article", "sectionId": "football", "sectionName": "Football", "webPublicationDate": "2012-03-30T11:07:57Z", "webTitle": "Nedum Onuoha: Of course I would like Manchester City to win the title", "webUrl": "https://www.theguardian.com/football/2012/mar/30/nedum-onuoha-manchester-city-qpr", "apiUrl": "https://content.guardianapis.com/football/2012/mar/30/nedum-onuoha-manchester-city-qpr", "isHosted": false, "pillarId": "pillar/sport", "pillarName": "Sport"}, {"id": "football/blog/2012/mar/30/peter-crouch-wonder-goal-stoke-city", "type": "article", "sectionId": "football", "sectionName": "Football", "webPublicationDate": "2012-03-30T10:41:02Z", "webTitle": "Peter Crouch wonder goal more a case of flight one than route one | David Lacey", "webUrl": "https://www.theguardian.com/football/blog/2012/mar/30/peter-crouch-wonder-goal-stoke-city", "apiUrl": "https://content.guardianapis.com/football/blog/2012/mar/30/peter-crouch-wonder-goal-stoke-city", "isHosted": false, "pillarId": "pillar/sport", "pillarName": "Sport"}, {"id": "football/football-league-blog/2012/mar/30/football-league-blog-james-dart", "type": "article", "sectionId": "football", "sectionName": "Football", "webPublicationDate": "2012-03-30T10:34:02Z", "webTitle": "Football League Weekender | James Dart", "webUrl": "https://www.theguardian.com/football/football-league-blog/2012/mar/30/football-league-blog-james-dart", "apiUrl": "https://content.guardianapis.com/football/football-league-blog/2012/mar/30/football-league-blog-james-dart", "isHosted": false, "pillarId": "pillar/sport", "pillarName": "Sport"}, {"id": "football/2012/mar/30/rumour-mill-fernando-torres", "type": "article", "sectionId": "football", "sectionName": "Football", "webPublicationDate": "2012-03-30T08:42:49Z", "webTitle": "Football transfer rumours: Fernando Torres to Anzhi Makhachkala?", "webUrl": "https://www.theguardian.com/football/2012/mar/30/rumour-mill-fernando-torres", "apiUrl": "https://content.guardianapis.com/football/2012/mar/30/rumour-mill-fernando-torres", "isHosted": false, "pillarId": "pillar/sport", "pillarName": "Sport"}, {"id": "football/2012/mar/30/walter-smith-rangers-craig-whyte", "type": "article", "sectionId": "football", "sectionName": "Football", "webPublicationDate": "2012-03-29T23:27:04Z", "webTitle": "Walter Smith: Rangers were debt free when Craig Whyte took over", "webUrl": "https://www.theguardian.com/football/2012/mar/30/walter-smith-rangers-craig-whyte", "apiUrl": "https://content.guardianapis.com/football/2012/mar/30/walter-smith-rangers-craig-whyte", "isHosted": false, "pillarId": "pillar/sport", "pillarName": "Sport"}, {"id": "football/2012/mar/30/andy-carroll-liverpool-newcastle", "type": "article", "sectionId": "football", "sectionName": "Football", "webPublicationDate": "2012-03-29T23:08:52Z", "webTitle": "Andy Carroll does not deserve abuse from Newcastle says Kenny Dalglish", "webUrl": "https://www.theguardian.com/football/2012/mar/30/andy-carroll-liverpool-newcastle", "apiUrl": "https://content.guardianapis.com/football/2012/mar/30/andy-carroll-liverpool-newcastle", "isHosted": false, "pillarId": "pillar/sport", "pillarName": "Sport"}, {"id": "football/video/2012/mar/30/james-richardsons-european-football-papers-review", "type": "video", "sectionId": "football", "sectionName": "Football", "webPublicationDate": "2012-03-29T22:05:00Z", "webTitle": "James Richardson's European football papers review \u2013 video", "webUrl": "https://www.theguardian.com/football/video/2012/mar/30/james-richardsons-european-football-papers-review", "apiUrl": "https://content.guardianapis.com/football/video/2012/mar/30/james-richardsons-european-football-papers-review", "isHosted": false, "pillarId": "pillar/sport", "pillarName": "Sport"}, {"id": "football/2012/mar/29/sir-alex-ferguson-manchester-united-referees", "type": "article", "sectionId": "football", "sectionName": "Football", "webPublicationDate": "2012-03-29T21:00:03Z", "webTitle": "Sir Alex Ferguson denies Manchester United have profited from referees", "webUrl": "https://www.theguardian.com/football/2012/mar/29/sir-alex-ferguson-manchester-united-referees", "apiUrl": "https://content.guardianapis.com/football/2012/mar/29/sir-alex-ferguson-manchester-united-referees", "isHosted": false, "pillarId": "pillar/sport", "pillarName": "Sport"}, {"id": "football/2012/mar/29/you-ref-trevillion-hackett-stoke", "type": "article", "sectionId": "football", "sectionName": "Football", "webPublicationDate": "2012-03-29T21:00:00Z", "webTitle": "You are the Ref: Tony Pulis, Stoke City", "webUrl": "https://www.theguardian.com/football/2012/mar/29/you-ref-trevillion-hackett-stoke", "apiUrl": "https://content.guardianapis.com/football/2012/mar/29/you-ref-trevillion-hackett-stoke", "isHosted": false, "pillarId": "pillar/sport", "pillarName": "Sport"}, {"id": "football/2012/mar/29/manchester-united-city-referees", "type": "article", "sectionId": "football", "sectionName": "Football", "webPublicationDate": "2012-03-29T16:35:25Z", "webTitle": "Have Man City or Man Utd benefited more from referees this season?", "webUrl": "https://www.theguardian.com/football/2012/mar/29/manchester-united-city-referees", "apiUrl": "https://content.guardianapis.com/football/2012/mar/29/manchester-united-city-referees", "isHosted": false, "pillarId": "pillar/sport", "pillarName": "Sport"}, {"id": "law/2012/mar/29/cps-football-racist-chants", "type": "article", "sectionId": "law", "sectionName": "Law", "webPublicationDate": "2012-03-29T16:33:36Z", "webTitle": "Can the CPS really crack down on football clubs for racist chants by fans? | David Banks", "webUrl": "https://www.theguardian.com/law/2012/mar/29/cps-football-racist-chants", "apiUrl": "https://content.guardianapis.com/law/2012/mar/29/cps-football-racist-chants", "isHosted": false, "pillarId": "pillar/news", "pillarName": "News"}, {"id": "football/audio/2012/mar/29/football-weekly-extra-podcast-milan-barcelona", "type": "audio", "sectionId": "football", "sectionName": "Football", "webPublicationDate": "2012-03-29T15:57:41Z", "webTitle": "Football Weekly Extra: Milan, Barcelona and a punch-up in Bradford", "webUrl": "https://www.theguardian.com/football/audio/2012/mar/29/football-weekly-extra-podcast-milan-barcelona", "apiUrl": "https://content.guardianapis.com/football/audio/2012/mar/29/football-weekly-extra-podcast-milan-barcelona", "isHosted": false, "pillarId": "pillar/sport", "pillarName": "Sport"}, {"id": "football/2012/mar/29/1", "type": "article", "sectionId": "football", "sectionName": "Football", "webPublicationDate": "2012-03-29T15:43:43Z", "webTitle": "The Fiver | Incredibly Tedious Mind Games Sub-plot | Scott Murray and Evan Fanning", "webUrl": "https://www.theguardian.com/football/2012/mar/29/1", "apiUrl": "https://content.guardianapis.com/football/2012/mar/29/1", "isHosted": false, "pillarId": "pillar/sport", "pillarName": "Sport"}, {"id": "football/2012/mar/29/milan-italian-press-reaction-champions-league", "type": "article", "sectionId": "football", "sectionName": "Football", "webPublicationDate": "2012-03-29T15:19:56Z", "webTitle": "Italian press reaction: Milan's perfect match ended in third minute", "webUrl": "https://www.theguardian.com/football/2012/mar/29/milan-italian-press-reaction-champions-league", "apiUrl": "https://content.guardianapis.com/football/2012/mar/29/milan-italian-press-reaction-champions-league", "isHosted": false, "pillarId": "pillar/sport", "pillarName": "Sport"}, {"id": "football/2012/mar/29/petr-cech-chelsea-andre-villas-boas", "type": "article", "sectionId": "football", "sectionName": "Football", "webPublicationDate": "2012-03-29T15:13:35Z", "webTitle": "Petr Cech can extend Chelsea career after Andr\u00e9 Villas-Boas exit", "webUrl": "https://www.theguardian.com/football/2012/mar/29/petr-cech-chelsea-andre-villas-boas", "apiUrl": "https://content.guardianapis.com/football/2012/mar/29/petr-cech-chelsea-andre-villas-boas", "isHosted": false, "pillarId": "pillar/sport", "pillarName": "Sport"}, {"id": "football/blog/2012/mar/29/champions-league-milan-barcelona", "type": "article", "sectionId": "football", "sectionName": "Football", "webPublicationDate": "2012-03-29T14:49:35Z", "webTitle": "Champions League goalless draw gives Milan hope for Barcelona leg | Richard Williams", "webUrl": "https://www.theguardian.com/football/blog/2012/mar/29/champions-league-milan-barcelona", "apiUrl": "https://content.guardianapis.com/football/blog/2012/mar/29/champions-league-milan-barcelona", "isHosted": false, "pillarId": "pillar/sport", "pillarName": "Sport"}, {"id": "football/2012/mar/29/manchester-united-t-shirts-20th-title", "type": "article", "sectionId": "football", "sectionName": "Football", "webPublicationDate": "2012-03-29T10:14:39Z", "webTitle": "Manchester United fans already selling T\u2011shirts hailing 20th title", "webUrl": "https://www.theguardian.com/football/2012/mar/29/manchester-united-t-shirts-20th-title", "apiUrl": "https://content.guardianapis.com/football/2012/mar/29/manchester-united-t-shirts-20th-title", "isHosted": false, "pillarId": "pillar/sport", "pillarName": "Sport"}, {"id": "football/2012/mar/29/football-transfer-rumours-manchester-city", "type": "article", "sectionId": "football", "sectionName": "Football", "webPublicationDate": "2012-03-29T08:02:02Z", "webTitle": "Football transfer rumours: Radamel Falcao to Manchester City?", "webUrl": "https://www.theguardian.com/football/2012/mar/29/football-transfer-rumours-manchester-city", "apiUrl": "https://content.guardianapis.com/football/2012/mar/29/football-transfer-rumours-manchester-city", "isHosted": false, "pillarId": "pillar/sport", "pillarName": "Sport"}, {"id": "sport/blog/2012/mar/29/classic-youtube-sport-clips", "type": "article", "sectionId": "sport", "sectionName": "Sport", "webPublicationDate": "2012-03-29T07:44:00Z", "webTitle": "Classic YouTube | Liverpool v Newcastle, stunning volleys and Tim Tebow is excited", "webUrl": "https://www.theguardian.com/sport/blog/2012/mar/29/classic-youtube-sport-clips", "apiUrl": "https://content.guardianapis.com/sport/blog/2012/mar/29/classic-youtube-sport-clips", "isHosted": false, "pillarId": "pillar/sport", "pillarName": "Sport"}, {"id": "football/2012/mar/29/patrick-vieira-manchester-united-referees-bbc", "type": "article", "sectionId": "football", "sectionName": "Football", "webPublicationDate": "2012-03-28T23:22:22Z", "webTitle": "Patrick Vieira says Manchester United get helping hand from referees", "webUrl": "https://www.theguardian.com/football/2012/mar/29/patrick-vieira-manchester-united-referees-bbc", "apiUrl": "https://content.guardianapis.com/football/2012/mar/29/patrick-vieira-manchester-united-referees-bbc", "isHosted": false, "pillarId": "pillar/sport", "pillarName": "Sport"}, {"id": "football/2012/mar/28/stuart-pearce-making-plans-england", "type": "article", "sectionId": "football", "sectionName": "Football", "webPublicationDate": "2012-03-28T21:59:01Z", "webTitle": "Stuart Pearce making plans as though he will be England manager", "webUrl": "https://www.theguardian.com/football/2012/mar/28/stuart-pearce-making-plans-england", "apiUrl": "https://content.guardianapis.com/football/2012/mar/28/stuart-pearce-making-plans-england", "isHosted": false, "pillarId": "pillar/sport", "pillarName": "Sport"}, {"id": "football/2012/mar/28/tottenham-third-place-arsenal", "type": "article", "sectionId": "football", "sectionName": "Football", "webPublicationDate": "2012-03-28T21:59:00Z", "webTitle": "Rejuvenated Tottenham ready to reclaim third place from Arsenal", "webUrl": "https://www.theguardian.com/football/2012/mar/28/tottenham-third-place-arsenal", "apiUrl": "https://content.guardianapis.com/football/2012/mar/28/tottenham-third-place-arsenal", "isHosted": false, "pillarId": "pillar/sport", "pillarName": "Sport"}, {"id": "football/2012/mar/28/everton-wembley-liverpool-fa-cup", "type": "article", "sectionId": "football", "sectionName": "Football", "webPublicationDate": "2012-03-28T21:30:00Z", "webTitle": "Everton find blueprint for ending Wembley heartache against Liverpool", "webUrl": "https://www.theguardian.com/football/2012/mar/28/everton-wembley-liverpool-fa-cup", "apiUrl": "https://content.guardianapis.com/football/2012/mar/28/everton-wembley-liverpool-fa-cup", "isHosted": false, "pillarId": "pillar/sport", "pillarName": "Sport"}, {"id": "football/2012/mar/28/milan-barcelona-champions-league-report", "type": "article", "sectionId": "football", "sectionName": "Football", "webPublicationDate": "2012-03-28T21:03:00Z", "webTitle": "Milan 0-0 Barcelona | Champions League quarter-final first leg report", "webUrl": "https://www.theguardian.com/football/2012/mar/28/milan-barcelona-champions-league-report", "apiUrl": "https://content.guardianapis.com/football/2012/mar/28/milan-barcelona-champions-league-report", "isHosted": false, "pillarId": "pillar/sport", "pillarName": "Sport"}, {"id": "football/2012/mar/28/marseille-bayern-munich-mbm", "type": "article", "sectionId": "football", "sectionName": "Football", "webPublicationDate": "2012-03-28T20:40:00Z", "webTitle": "Marseille v Bayern Munich - as it happened | Evan Fanning", "webUrl": "https://www.theguardian.com/football/2012/mar/28/marseille-bayern-munich-mbm", "apiUrl": "https://content.guardianapis.com/football/2012/mar/28/marseille-bayern-munich-mbm", "isHosted": false, "pillarId": "pillar/sport", "pillarName": "Sport"}]}}