{"response": {"status": "ok", "userTier": "developer", "total": 35761, "startIndex": 1, "pageSize": 50, "currentPage": 1, "pages": 716, "orderBy": "newest", "results": [{"id": "environment/2013/mar/30/wildlife-suffering-freezing-weather", "type": "article", "sectionId": "environment", "sectionName": "Environment", "webPublicationDate": "2013-03-30T19:50:53Z", "webTitle": "Freezing weather brings fresh perils for British wildlife", "webUrl": "https://www.theguardian.com/environment/2013/mar/30/wildlife-suffering-freezing-weather", "apiUrl": "https://content.guardianapis.com/environment/2013/mar/30/wildlife-suffering-freezing-weather", "isHosted": false, "pillarId": "pillar/news", "pillarName": "News"}, {"id": "world/2013/mar/30/maasai-game-hunting-tanzania", "type": "article", "sectionId": "world", "sectionName": "World news", "webPublicationDate": "2013-03-30T14:00:00Z", "webTitle": "Maasai fury as plan to lure Arabian Gulf tourists threatens their ancestral land", "webUrl": "https://www.theguardian.com/world/2013/mar/30/maasai-game-hunting-tanzania", "apiUrl": "https://content.guardianapis.com/world/2013/mar/30/maasai-game-hunting-tanzania", "isHosted": false, "pillarId": "pillar/news", "pillarName": "News"}, {"id": "world/video/2013/mar/30/tibet-landslide-miners-rescuers-video", "type": "video", "sectionId": "world", "sectionName": "World news", "webPublicationDate": "2013-03-30T13:18:00Z", "webTitle": "Tibet landslide leaves miners buried as rescuers search for survivors - video", "webUrl": "https://www.theguardian.com/world/video/2013/mar/30/tibet-landslide-miners-rescuers-video", "apiUrl": "https://content.guardianapis.com/world/video/2013/mar/30/tibet-landslide-miners-rescuers-video", "isHosted": false, "pillarId": "pillar/news", "pillarName": "News"}, {"id": "lifeandstyle/2013/mar/30/ask-alys-wildlife-pond-mosquito", "type": "article", "sectionId": "lifeandstyle", "sectionName": "Life and style", "webPublicationDate": "2013-03-30T09:00:00Z", "webTitle": "Ask Alys: your gardening questions answered", "webUrl": "https://www.theguardian.com/lifeandstyle/2013/mar/30/ask-alys-wildlife-pond-mosquito", "apiUrl": "https://content.guardianapis.com/lifeandstyle/2013/mar/30/ask-alys-wildlife-pond-mosquito", "isHosted": false, "pillarId": "pillar/lifestyle", "pillarName": "Lifestyle"}, {"id": "environment/2013/mar/30/spring-where-has-it-gone", "type": "article", "sectionId": "environment", "sectionName": "Environment", "webPublicationDate": "2013-03-30T08:00:00Z", "webTitle": "Spring: where has it gone?", "webUrl": "https://www.theguardian.com/environment/2013/mar/30/spring-where-has-it-gone", "apiUrl": "https://content.guardianapis.com/environment/2013/mar/30/spring-where-has-it-gone", "isHosted": false, "pillarId": "pillar/news", "pillarName": "News"}, {"id": "environment/2013/mar/29/animals-free-captivity-saving-species", "type": "article", "sectionId": "environment", "sectionName": "Environment", "webPublicationDate": "2013-03-29T21:00:31Z", "webTitle": "Letters: Are animals born free or in captivity the key to saving species?", "webUrl": "https://www.theguardian.com/environment/2013/mar/29/animals-free-captivity-saving-species", "apiUrl": "https://content.guardianapis.com/environment/2013/mar/29/animals-free-captivity-saving-species", "isHosted": false, "pillarId": "pillar/news", "pillarName": "News"}, {"id": "environment/2013/mar/29/menai-bridge-ariege-red-squirrels", "type": "article", "sectionId": "environment", "sectionName": "Environment", "webPublicationDate": "2013-03-29T21:00:28Z", "webTitle": "Country diary: Menai Bridge/Ariege: Red squirrels are intensely curious creatures, and extraordinarily pretty", "webUrl": "https://www.theguardian.com/environment/2013/mar/29/menai-bridge-ariege-red-squirrels", "apiUrl": "https://content.guardianapis.com/environment/2013/mar/29/menai-bridge-ariege-red-squirrels", "isHosted": false, "pillarId": "pillar/news", "pillarName": "News"}, {"id": "society/2013/mar/29/electrosensitivity-is-technology-killing-us", "type": "article", "sectionId": "society", "sectionName": "Society", "webPublicationDate": "2013-03-29T19:00:00Z", "webTitle": "Electrosensitivity: is technology killing us?", "webUrl": "https://www.theguardian.com/society/2013/mar/29/electrosensitivity-is-technology-killing-us", "apiUrl": "https://content.guardianapis.com/society/2013/mar/29/electrosensitivity-is-technology-killing-us", "isHosted": false, "pillarId": "pillar/news", "pillarName": "News"}, {"id": "environment/2013/mar/29/nightingales-lodge-hill-mod-site", "type": "article", "sectionId": "environment", "sectionName": "Environment", "webPublicationDate": "2013-03-29T18:35:40Z", "webTitle": "Row over \u00a31bn development plan on nightingale habitat site in Kent", "webUrl": "https://www.theguardian.com/environment/2013/mar/29/nightingales-lodge-hill-mod-site", "apiUrl": "https://content.guardianapis.com/environment/2013/mar/29/nightingales-lodge-hill-mod-site", "isHosted": false, "pillarId": "pillar/news", "pillarName": "News"}, {"id": "society/gallery/2013/mar/29/electrosensitivity-technology-killing-us-photographs", "type": "gallery", "sectionId": "society", "sectionName": "Society", "webPublicationDate": "2013-03-29T16:30:00Z", "webTitle": "Electrosensitivity: is technology killing us? - in pictures", "webUrl": "https://www.theguardian.com/society/gallery/2013/mar/29/electrosensitivity-technology-killing-us-photographs", "apiUrl": "https://content.guardianapis.com/society/gallery/2013/mar/29/electrosensitivity-technology-killing-us-photographs", "isHosted": false, "pillarId": "pillar/news", "pillarName": "News"}, {"id": "environment/2013/mar/29/obama-epa-rules-gasoline-car-emissions", "type": "article", "sectionId": "environment", "sectionName": "Environment", "webPublicationDate": "2013-03-29T16:27:19Z", "webTitle": "Obama proposes new rules to clean up gas and reduce car emissions", "webUrl": "https://www.theguardian.com/environment/2013/mar/29/obama-epa-rules-gasoline-car-emissions", "apiUrl": "https://content.guardianapis.com/environment/2013/mar/29/obama-epa-rules-gasoline-car-emissions", "isHosted": false, "pillarId": "pillar/news", "pillarName": "News"}, {"id": "world/2013/mar/29/dead-pigs-china-water-supply", "type": "article", "sectionId": "world", "sectionName": "World news", "webPublicationDate": "2013-03-29T16:09:53Z", "webTitle": "Rivers of blood: the dead pigs rotting in China's water supply", "webUrl": "https://www.theguardian.com/world/2013/mar/29/dead-pigs-china-water-supply", "apiUrl": "https://content.guardianapis.com/world/2013/mar/29/dead-pigs-china-water-supply", "isHosted": false, "pillarId": "pillar/news", "pillarName": "News"}, {"id": "science/video/2013/mar/29/electrosensitivity-is-technology-killing-us-video", "type": "video", "sectionId": "science", "sectionName": "Science", "webPublicationDate": "2013-03-29T16:00:00Z", "webTitle": "Electrosensitivity: is technology killing us? \u2013 video", "webUrl": "https://www.theguardian.com/science/video/2013/mar/29/electrosensitivity-is-technology-killing-us-video", "apiUrl": "https://content.guardianapis.com/science/video/2013/mar/29/electrosensitivity-is-technology-killing-us-video", "isHosted": false, "pillarId": "pillar/news", "pillarName": "News"}, {"id": "environment/video/2013/mar/29/hurricane-sandy-housing-boom-video", "type": "video", "sectionId": "environment", "sectionName": "Environment", "webPublicationDate": "2013-03-29T15:47:00Z", "webTitle": "Hurricane Sandy: The post-disaster housing boom \u2013 video", "webUrl": "https://www.theguardian.com/environment/video/2013/mar/29/hurricane-sandy-housing-boom-video", "apiUrl": "https://content.guardianapis.com/environment/video/2013/mar/29/hurricane-sandy-housing-boom-video", "isHosted": false, "pillarId": "pillar/news", "pillarName": "News"}, {"id": "world/2013/mar/29/epa-review-flame-retardants-safety", "type": "article", "sectionId": "us-news", "sectionName": "US news", "webPublicationDate": "2013-03-29T14:17:00Z", "webTitle": "EPA to review flame retardants amid growing safety concerns", "webUrl": "https://www.theguardian.com/world/2013/mar/29/epa-review-flame-retardants-safety", "apiUrl": "https://content.guardianapis.com/world/2013/mar/29/epa-review-flame-retardants-safety", "isHosted": false, "pillarId": "pillar/news", "pillarName": "News"}, {"id": "commentisfree/2013/mar/29/protesting-trident-replacement-aldermaston", "type": "article", "sectionId": "commentisfree", "sectionName": "Opinion", "webPublicationDate": "2013-03-29T10:02:49Z", "webTitle": "Why I'll be protesting against a Trident replacement at Aldermaston | Natalie Bennett", "webUrl": "https://www.theguardian.com/commentisfree/2013/mar/29/protesting-trident-replacement-aldermaston", "apiUrl": "https://content.guardianapis.com/commentisfree/2013/mar/29/protesting-trident-replacement-aldermaston", "isHosted": false, "pillarId": "pillar/opinion", "pillarName": "Opinion"}, {"id": "education/2013/mar/29/kent-students-get-eco-toilets", "type": "article", "sectionId": "education", "sectionName": "Education", "webPublicationDate": "2013-03-29T09:37:00Z", "webTitle": "Students go green in the gents", "webUrl": "https://www.theguardian.com/education/2013/mar/29/kent-students-get-eco-toilets", "apiUrl": "https://content.guardianapis.com/education/2013/mar/29/kent-students-get-eco-toilets", "isHosted": false, "pillarId": "pillar/news", "pillarName": "News"}, {"id": "environment/2013/mar/28/solar-powered-plane-us-tour", "type": "article", "sectionId": "environment", "sectionName": "Environment", "webPublicationDate": "2013-03-28T21:43:21Z", "webTitle": "Solar-powered plane to make coast-to-coast US tour in scientific first", "webUrl": "https://www.theguardian.com/environment/2013/mar/28/solar-powered-plane-us-tour", "apiUrl": "https://content.guardianapis.com/environment/2013/mar/28/solar-powered-plane-us-tour", "isHosted": false, "pillarId": "pillar/news", "pillarName": "News"}, {"id": "politics/2013/mar/28/energy-minister-john-hayes-no10", "type": "article", "sectionId": "politics", "sectionName": "Politics", "webPublicationDate": "2013-03-28T21:07:00Z", "webTitle": "Energy minister John Hayes switches to No 10 role in surprise reshuffle", "webUrl": "https://www.theguardian.com/politics/2013/mar/28/energy-minister-john-hayes-no10", "apiUrl": "https://content.guardianapis.com/politics/2013/mar/28/energy-minister-john-hayes-no10", "isHosted": false, "pillarId": "pillar/news", "pillarName": "News"}, {"id": "environment/2013/mar/28/non-nuclear-future", "type": "article", "sectionId": "environment", "sectionName": "Environment", "webPublicationDate": "2013-03-28T21:00:02Z", "webTitle": "Letters: Non-nuclear future", "webUrl": "https://www.theguardian.com/environment/2013/mar/28/non-nuclear-future", "apiUrl": "https://content.guardianapis.com/environment/2013/mar/28/non-nuclear-future", "isHosted": false, "pillarId": "pillar/news", "pillarName": "News"}, {"id": "world/2013/mar/28/haiti-plant-millions-trees-deforestation", "type": "article", "sectionId": "world", "sectionName": "World news", "webPublicationDate": "2013-03-28T20:59:58Z", "webTitle": "Haiti to plant millions of trees to boost forests and help tackle poverty", "webUrl": "https://www.theguardian.com/world/2013/mar/28/haiti-plant-millions-trees-deforestation", "apiUrl": "https://content.guardianapis.com/world/2013/mar/28/haiti-plant-millions-trees-deforestation", "isHosted": false, "pillarId": "pillar/news", "pillarName": "News"}, {"id": "environment/2013/mar/28/warden-hill-northumberland-stinking-hellebores", "type": "article", "sectionId": "environment", "sectionName": "Environment", "webPublicationDate": "2013-03-28T20:59:01Z", "webTitle": "Country diary: Warden Hill, Northumberland: Stinking hellebores bob in the wind, green flowers delicately edged in purple", "webUrl": "https://www.theguardian.com/environment/2013/mar/28/warden-hill-northumberland-stinking-hellebores", "apiUrl": "https://content.guardianapis.com/environment/2013/mar/28/warden-hill-northumberland-stinking-hellebores", "isHosted": false, "pillarId": "pillar/news", "pillarName": "News"}, {"id": "commentisfree/2013/mar/28/michael-fallon-green-credentials", "type": "article", "sectionId": "commentisfree", "sectionName": "Opinion", "webPublicationDate": "2013-03-28T19:44:00Z", "webTitle": "What Michael Fallon can do to prove his green credentials | Barry Gardiner", "webUrl": "https://www.theguardian.com/commentisfree/2013/mar/28/michael-fallon-green-credentials", "apiUrl": "https://content.guardianapis.com/commentisfree/2013/mar/28/michael-fallon-green-credentials", "isHosted": false, "pillarId": "pillar/opinion", "pillarName": "Opinion"}, {"id": "environment/gallery/2013/mar/28/week-in-wildlife-in-pictures", "type": "gallery", "sectionId": "environment", "sectionName": "Environment", "webPublicationDate": "2013-03-28T18:09:00Z", "webTitle": "The week in wildlife \u2013 in pictures", "webUrl": "https://www.theguardian.com/environment/gallery/2013/mar/28/week-in-wildlife-in-pictures", "apiUrl": "https://content.guardianapis.com/environment/gallery/2013/mar/28/week-in-wildlife-in-pictures", "isHosted": false, "pillarId": "pillar/news", "pillarName": "News"}, {"id": "environment/2013/mar/28/uk-co2-emissions-up-2012", "type": "article", "sectionId": "environment", "sectionName": "Environment", "webPublicationDate": "2013-03-28T16:48:47Z", "webTitle": "UK's CO2 emissions up 4.5% in 2012", "webUrl": "https://www.theguardian.com/environment/2013/mar/28/uk-co2-emissions-up-2012", "apiUrl": "https://content.guardianapis.com/environment/2013/mar/28/uk-co2-emissions-up-2012", "isHosted": false, "pillarId": "pillar/news", "pillarName": "News"}, {"id": "commentisfree/2013/mar/28/how-government-end-long-winter", "type": "article", "sectionId": "commentisfree", "sectionName": "Opinion", "webPublicationDate": "2013-03-28T14:33:25Z", "webTitle": "How the government could end this long winter at a stroke | John Vidal", "webUrl": "https://www.theguardian.com/commentisfree/2013/mar/28/how-government-end-long-winter", "apiUrl": "https://content.guardianapis.com/commentisfree/2013/mar/28/how-government-end-long-winter", "isHosted": false, "pillarId": "pillar/opinion", "pillarName": "Opinion"}, {"id": "environment/blog/2013/mar/28/pursuit-of-spring-edward-thomas", "type": "article", "sectionId": "environment", "sectionName": "Environment", "webPublicationDate": "2013-03-28T13:57:39Z", "webTitle": "Our pursuit of spring continues, 100 years after Edward Thomas's | Matthew Oates", "webUrl": "https://www.theguardian.com/environment/blog/2013/mar/28/pursuit-of-spring-edward-thomas", "apiUrl": "https://content.guardianapis.com/environment/blog/2013/mar/28/pursuit-of-spring-edward-thomas", "isHosted": false, "pillarId": "pillar/news", "pillarName": "News"}, {"id": "environment/blog/2013/mar/28/prince-charles-admired-loved-wangari-maathai", "type": "article", "sectionId": "environment", "sectionName": "Environment", "webPublicationDate": "2013-03-28T12:47:11Z", "webTitle": "Prince Charles: 'I admired and loved Wangari Maathai' | John Vidal", "webUrl": "https://www.theguardian.com/environment/blog/2013/mar/28/prince-charles-admired-loved-wangari-maathai", "apiUrl": "https://content.guardianapis.com/environment/blog/2013/mar/28/prince-charles-admired-loved-wangari-maathai", "isHosted": false, "pillarId": "pillar/news", "pillarName": "News"}, {"id": "environment/2013/mar/28/green-light", "type": "article", "sectionId": "environment", "sectionName": "Environment", "webPublicationDate": "2013-03-28T12:24:34Z", "webTitle": "Green news roundup: garden birds, energy bills and Earth Hour celebrations", "webUrl": "https://www.theguardian.com/environment/2013/mar/28/green-light", "apiUrl": "https://content.guardianapis.com/environment/2013/mar/28/green-light", "isHosted": false, "pillarId": "pillar/news", "pillarName": "News"}, {"id": "environment/2013/mar/28/john-hayes-public-energy-department", "type": "article", "sectionId": "environment", "sectionName": "Environment", "webPublicationDate": "2013-03-28T11:55:34Z", "webTitle": "John Hayes move follows public rows at troubled energy department", "webUrl": "https://www.theguardian.com/environment/2013/mar/28/john-hayes-public-energy-department", "apiUrl": "https://content.guardianapis.com/environment/2013/mar/28/john-hayes-public-energy-department", "isHosted": false, "pillarId": "pillar/news", "pillarName": "News"}, {"id": "lifeandstyle/2013/mar/28/ethical-way-buy-fish", "type": "article", "sectionId": "food", "sectionName": "Food", "webPublicationDate": "2013-03-28T07:00:10Z", "webTitle": "A new, ethical way to buy fish \u2013 from the fisherman", "webUrl": "https://www.theguardian.com/lifeandstyle/2013/mar/28/ethical-way-buy-fish", "apiUrl": "https://content.guardianapis.com/lifeandstyle/2013/mar/28/ethical-way-buy-fish", "isHosted": false, "pillarId": "pillar/lifestyle", "pillarName": "Lifestyle"}, {"id": "environment/2013/mar/28/rsbp-garden-birdwatch-survey", "type": "article", "sectionId": "environment", "sectionName": "Environment", "webPublicationDate": "2013-03-28T06:30:01Z", "webTitle": "Endangered garden birds continuing to decline in the UK, RSPB survey shows", "webUrl": "https://www.theguardian.com/environment/2013/mar/28/rsbp-garden-birdwatch-survey", "apiUrl": "https://content.guardianapis.com/environment/2013/mar/28/rsbp-garden-birdwatch-survey", "isHosted": false, "pillarId": "pillar/news", "pillarName": "News"}, {"id": "environment/2013/mar/28/electric-cars-free-parking-call", "type": "article", "sectionId": "environment", "sectionName": "Environment", "webPublicationDate": "2013-03-28T06:00:01Z", "webTitle": "Call for 'green badges' and free parking for electric cars", "webUrl": "https://www.theguardian.com/environment/2013/mar/28/electric-cars-free-parking-call", "apiUrl": "https://content.guardianapis.com/environment/2013/mar/28/electric-cars-free-parking-call", "isHosted": false, "pillarId": "pillar/news", "pillarName": "News"}, {"id": "environment/2013/mar/28/eu-energy-chief-oettinger-taxes", "type": "article", "sectionId": "environment", "sectionName": "Environment", "webPublicationDate": "2013-03-28T00:16:48Z", "webTitle": "EU energy chief warns against new taxes if sector to remain competitive", "webUrl": "https://www.theguardian.com/environment/2013/mar/28/eu-energy-chief-oettinger-taxes", "apiUrl": "https://content.guardianapis.com/environment/2013/mar/28/eu-energy-chief-oettinger-taxes", "isHosted": false, "pillarId": "pillar/news", "pillarName": "News"}, {"id": "world/2013/mar/27/greenland-halts-oil-drilling-licences", "type": "article", "sectionId": "world", "sectionName": "World news", "webPublicationDate": "2013-03-27T22:47:42Z", "webTitle": "Greenland halts new oil drilling licences", "webUrl": "https://www.theguardian.com/world/2013/mar/27/greenland-halts-oil-drilling-licences", "apiUrl": "https://content.guardianapis.com/world/2013/mar/27/greenland-halts-oil-drilling-licences", "isHosted": false, "pillarId": "pillar/news", "pillarName": "News"}, {"id": "business/2013/mar/27/centrica-16m-gas-price-rise", "type": "article", "sectionId": "business", "sectionName": "Business", "webPublicationDate": "2013-03-27T21:53:50Z", "webTitle": "Centrica bosses split \u00a316m pay pot as customers face 6% gas price rise", "webUrl": "https://www.theguardian.com/business/2013/mar/27/centrica-16m-gas-price-rise", "apiUrl": "https://content.guardianapis.com/business/2013/mar/27/centrica-16m-gas-price-rise", "isHosted": false, "pillarId": "pillar/news", "pillarName": "News"}, {"id": "environment/the-northerner/2013/mar/27/roker-pier-sunderland-grey-seal-contentment", "type": "article", "sectionId": "environment", "sectionName": "Environment", "webPublicationDate": "2013-03-27T21:00:01Z", "webTitle": "Country diary: Roker Pier, Sunderland: The grey seal's bewhiskered face bore an expression of pure contentment", "webUrl": "https://www.theguardian.com/environment/the-northerner/2013/mar/27/roker-pier-sunderland-grey-seal-contentment", "apiUrl": "https://content.guardianapis.com/environment/the-northerner/2013/mar/27/roker-pier-sunderland-grey-seal-contentment", "isHosted": false, "pillarId": "pillar/news", "pillarName": "News"}, {"id": "environment/2013/mar/27/fukushima-google-street-view-meltdown-tsunami", "type": "article", "sectionId": "environment", "sectionName": "Environment", "webPublicationDate": "2013-03-27T19:36:09Z", "webTitle": "Fukushima town revealed in Google Street View two years after tsunami", "webUrl": "https://www.theguardian.com/environment/2013/mar/27/fukushima-google-street-view-meltdown-tsunami", "apiUrl": "https://content.guardianapis.com/environment/2013/mar/27/fukushima-google-street-view-meltdown-tsunami", "isHosted": false, "pillarId": "pillar/news", "pillarName": "News"}, {"id": "environment/2013/mar/27/pesticide-bees-scent-food-neocotinoid", "type": "article", "sectionId": "environment", "sectionName": "Environment", "webPublicationDate": "2013-03-27T18:30:45Z", "webTitle": "Pesticide makes bees forget the scent for food, new study finds", "webUrl": "https://www.theguardian.com/environment/2013/mar/27/pesticide-bees-scent-food-neocotinoid", "apiUrl": "https://content.guardianapis.com/environment/2013/mar/27/pesticide-bees-scent-food-neocotinoid", "isHosted": false, "pillarId": "pillar/news", "pillarName": "News"}, {"id": "environment/blog/2013/mar/27/climate-policies-lower-energy-bills", "type": "liveblog", "sectionId": "environment", "sectionName": "Environment", "webPublicationDate": "2013-03-27T17:17:55Z", "webTitle": "Will the UK's climate policies really help to lower energy bills?", "webUrl": "https://www.theguardian.com/environment/blog/2013/mar/27/climate-policies-lower-energy-bills", "apiUrl": "https://content.guardianapis.com/environment/blog/2013/mar/27/climate-policies-lower-energy-bills", "isHosted": false, "pillarId": "pillar/news", "pillarName": "News"}, {"id": "environment/2013/mar/27/climate-change-model-global-warming", "type": "article", "sectionId": "environment", "sectionName": "Environment", "webPublicationDate": "2013-03-27T16:56:26Z", "webTitle": "Global warming predictions prove accurate", "webUrl": "https://www.theguardian.com/environment/2013/mar/27/climate-change-model-global-warming", "apiUrl": "https://content.guardianapis.com/environment/2013/mar/27/climate-change-model-global-warming", "isHosted": false, "pillarId": "pillar/news", "pillarName": "News"}, {"id": "environment/2013/mar/27/ec-climate-change-policy-targets", "type": "article", "sectionId": "environment", "sectionName": "Environment", "webPublicationDate": "2013-03-27T16:27:34Z", "webTitle": "EU energy chief calls for no new taxes as talks begin on 2030 climate targets", "webUrl": "https://www.theguardian.com/environment/2013/mar/27/ec-climate-change-policy-targets", "apiUrl": "https://content.guardianapis.com/environment/2013/mar/27/ec-climate-change-policy-targets", "isHosted": false, "pillarId": "pillar/news", "pillarName": "News"}, {"id": "lifeandstyle/2013/mar/27/what-became-of-titanic-iceberg", "type": "article", "sectionId": "lifeandstyle", "sectionName": "Life and style", "webPublicationDate": "2013-03-27T16:00:01Z", "webTitle": "What became of the Titanic iceberg?", "webUrl": "https://www.theguardian.com/lifeandstyle/2013/mar/27/what-became-of-titanic-iceberg", "apiUrl": "https://content.guardianapis.com/lifeandstyle/2013/mar/27/what-became-of-titanic-iceberg", "isHosted": false, "pillarId": "pillar/lifestyle", "pillarName": "Lifestyle"}, {"id": "environment/2013/mar/27/ranger-corruption-impeding-fight-poaching", "type": "article", "sectionId": "environment", "sectionName": "Environment", "webPublicationDate": "2013-03-27T15:28:58Z", "webTitle": "Ranger corruption 'impeding global fight against poaching'", "webUrl": "https://www.theguardian.com/environment/2013/mar/27/ranger-corruption-impeding-fight-poaching", "apiUrl": "https://content.guardianapis.com/environment/2013/mar/27/ranger-corruption-impeding-fight-poaching", "isHosted": false, "pillarId": "pillar/news", "pillarName": "News"}, {"id": "environment/2013/mar/27/renewable-energy-cost-nuclear-reactors", "type": "article", "sectionId": "environment", "sectionName": "Environment", "webPublicationDate": "2013-03-27T15:01:33Z", "webTitle": "Renewable energy providers to help bear cost of new UK nuclear reactors", "webUrl": "https://www.theguardian.com/environment/2013/mar/27/renewable-energy-cost-nuclear-reactors", "apiUrl": "https://content.guardianapis.com/environment/2013/mar/27/renewable-energy-cost-nuclear-reactors", "isHosted": false, "pillarId": "pillar/news", "pillarName": "News"}, {"id": "lifeandstyle/gardening-blog/2013/mar/27/euphorbia-amygdaloides-wood-spurge", "type": "article", "sectionId": "lifeandstyle", "sectionName": "Life and style", "webPublicationDate": "2013-03-27T14:07:00Z", "webTitle": "Don't be a sap", "webUrl": "https://www.theguardian.com/lifeandstyle/gardening-blog/2013/mar/27/euphorbia-amygdaloides-wood-spurge", "apiUrl": "https://content.guardianapis.com/lifeandstyle/gardening-blog/2013/mar/27/euphorbia-amygdaloides-wood-spurge", "isHosted": false, "pillarId": "pillar/lifestyle", "pillarName": "Lifestyle"}, {"id": "environment/2013/mar/27/uk-beaches-water-quality-washout-2012", "type": "article", "sectionId": "environment", "sectionName": "Environment", "webPublicationDate": "2013-03-27T06:30:02Z", "webTitle": "UK beaches suffer drop in water quality following washout 2012", "webUrl": "https://www.theguardian.com/environment/2013/mar/27/uk-beaches-water-quality-washout-2012", "apiUrl": "https://content.guardianapis.com/environment/2013/mar/27/uk-beaches-water-quality-washout-2012", "isHosted": false, "pillarId": "pillar/news", "pillarName": "News"}, {"id": "environment/2013/mar/27/rising-energy-bills-reduced-climate-policies", "type": "article", "sectionId": "environment", "sectionName": "Environment", "webPublicationDate": "2013-03-27T06:00:00Z", "webTitle": "Rising energy bills will be reduced with climate policies, Ed Davey says", "webUrl": "https://www.theguardian.com/environment/2013/mar/27/rising-energy-bills-reduced-climate-policies", "apiUrl": "https://content.guardianapis.com/environment/2013/mar/27/rising-energy-bills-reduced-climate-policies", "isHosted": false, "pillarId": "pillar/news", "pillarName": "News"}, {"id": "environment/2013/mar/26/wenlock-edge", "type": "article", "sectionId": "environment", "sectionName": "Environment", "webPublicationDate": "2013-03-26T20:59:00Z", "webTitle": "Country diary: Wenlock Edge: Rolling snowballs the size of tumbledriers down the hill", "webUrl": "https://www.theguardian.com/environment/2013/mar/26/wenlock-edge", "apiUrl": "https://content.guardianapis.com/environment/2013/mar/26/wenlock-edge", "isHosted": false, "pillarId": "pillar/news", "pillarName": "News"}, {"id": "world/2013/mar/26/china-latin-america-resources-concern", "type": "article", "sectionId": "world", "sectionName": "World news", "webPublicationDate": "2013-03-26T19:55:38Z", "webTitle": "China's exploitation of Latin American natural resources raises concern", "webUrl": "https://www.theguardian.com/world/2013/mar/26/china-latin-america-resources-concern", "apiUrl": "https://content.guardianapis.com/world/2013/mar/26/china-latin-america-resources-concern", "isHosted": false, "pillarId": "pillar/news", "pillarName": "News"}]}}