{"response": {"status": "ok", "userTier": "developer", "total": 133330, "startIndex": 1, "pageSize": 50, "currentPage": 1, "pages": 2667, "orderBy": "newest", "results": [{"id": "artanddesign/2012/mar/30/patrick-keiller-robinson-tate-exhibition", "type": "article", "sectionId": "artanddesign", "sectionName": "Art and design", "webPublicationDate": "2012-03-30T21:50:00Z", "webTitle": "How Patrick Keiller is mapping the 21st-century landscape", "webUrl": "https://www.theguardian.com/artanddesign/2012/mar/30/patrick-keiller-robinson-tate-exhibition", "apiUrl": "https://content.guardianapis.com/artanddesign/2012/mar/30/patrick-keiller-robinson-tate-exhibition", "isHosted": false, "pillarId": "pillar/arts", "pillarName": "Arts"}, {"id": "commentisfree/cartoon/2012/mar/30/martin-rowson-cartoon-george-galloway", "type": "picture", "sectionId": "commentisfree", "sectionName": "Opinion", "webPublicationDate": "2012-03-30T21:48:45Z", "webTitle": "Martin Rowson on George Galloway's byelection victory \u2013 cartoon", "webUrl": "https://www.theguardian.com/commentisfree/cartoon/2012/mar/30/martin-rowson-cartoon-george-galloway", "apiUrl": "https://content.guardianapis.com/commentisfree/cartoon/2012/mar/30/martin-rowson-cartoon-george-galloway", "isHosted": false, "pillarId": "pillar/opinion", "pillarName": "Opinion"}, {"id": "commentisfree/2012/mar/30/unthinkable-rewriting-road-rules", "type": "article", "sectionId": "commentisfree", "sectionName": "Opinion", "webPublicationDate": "2012-03-30T21:30:02Z", "webTitle": "Unthinkable? Rewriting the rules of the road | Editorial", "webUrl": "https://www.theguardian.com/commentisfree/2012/mar/30/unthinkable-rewriting-road-rules", "apiUrl": "https://content.guardianapis.com/commentisfree/2012/mar/30/unthinkable-rewriting-road-rules", "isHosted": false, "pillarId": "pillar/opinion", "pillarName": "Opinion"}, {"id": "commentisfree/2012/mar/30/bradford-west-george-galloway-respect", "type": "article", "sectionId": "commentisfree", "sectionName": "Opinion", "webPublicationDate": "2012-03-30T21:21:01Z", "webTitle": "Bradford West: a little respect | Editorial", "webUrl": "https://www.theguardian.com/commentisfree/2012/mar/30/bradford-west-george-galloway-respect", "apiUrl": "https://content.guardianapis.com/commentisfree/2012/mar/30/bradford-west-george-galloway-respect", "isHosted": false, "pillarId": "pillar/opinion", "pillarName": "Opinion"}, {"id": "commentisfree/2012/mar/30/falklands-war-argentina-settlement", "type": "article", "sectionId": "commentisfree", "sectionName": "Opinion", "webPublicationDate": "2012-03-30T21:06:59Z", "webTitle": "The Falklands: 30 years on | Editorial", "webUrl": "https://www.theguardian.com/commentisfree/2012/mar/30/falklands-war-argentina-settlement", "apiUrl": "https://content.guardianapis.com/commentisfree/2012/mar/30/falklands-war-argentina-settlement", "isHosted": false, "pillarId": "pillar/opinion", "pillarName": "Opinion"}, {"id": "politics/2012/mar/30/ed-miliband-galloway-bradford-byelection", "type": "article", "sectionId": "politics", "sectionName": "Politics", "webPublicationDate": "2012-03-30T20:53:00Z", "webTitle": "Ed Miliband: we must learn lessons after Bradford West byelection defeat", "webUrl": "https://www.theguardian.com/politics/2012/mar/30/ed-miliband-galloway-bradford-byelection", "apiUrl": "https://content.guardianapis.com/politics/2012/mar/30/ed-miliband-galloway-bradford-byelection", "isHosted": false, "pillarId": "pillar/news", "pillarName": "News"}, {"id": "commentisfree/2012/mar/30/baby-boomers-granny-tax", "type": "article", "sectionId": "commentisfree", "sectionName": "Opinion", "webPublicationDate": "2012-03-30T20:30:01Z", "webTitle": "Did the baby boomers have it all?", "webUrl": "https://www.theguardian.com/commentisfree/2012/mar/30/baby-boomers-granny-tax", "apiUrl": "https://content.guardianapis.com/commentisfree/2012/mar/30/baby-boomers-granny-tax", "isHosted": false, "pillarId": "pillar/opinion", "pillarName": "Opinion"}, {"id": "uk/2012/mar/30/history-repeats-itself-petrol-panic-farce", "type": "article", "sectionId": "uk-news", "sectionName": "UK news", "webPublicationDate": "2012-03-30T20:00:04Z", "webTitle": "Letters: History repeats itself in petrol panic farce", "webUrl": "https://www.theguardian.com/uk/2012/mar/30/history-repeats-itself-petrol-panic-farce", "apiUrl": "https://content.guardianapis.com/uk/2012/mar/30/history-repeats-itself-petrol-panic-farce", "isHosted": false, "pillarId": "pillar/news", "pillarName": "News"}, {"id": "politics/2012/mar/30/galloway-win-and-labour-lesson", "type": "article", "sectionId": "politics", "sectionName": "Politics", "webPublicationDate": "2012-03-30T20:00:03Z", "webTitle": "Letters: Galloway's win and Labour's lesson", "webUrl": "https://www.theguardian.com/politics/2012/mar/30/galloway-win-and-labour-lesson", "apiUrl": "https://content.guardianapis.com/politics/2012/mar/30/galloway-win-and-labour-lesson", "isHosted": false, "pillarId": "pillar/news", "pillarName": "News"}, {"id": "politics/2012/mar/30/politics-poetry-david-cameron-pasty", "type": "article", "sectionId": "politics", "sectionName": "Politics", "webPublicationDate": "2012-03-30T20:00:02Z", "webTitle": "Letters: Politics and poetry to go with your pasty", "webUrl": "https://www.theguardian.com/politics/2012/mar/30/politics-poetry-david-cameron-pasty", "apiUrl": "https://content.guardianapis.com/politics/2012/mar/30/politics-poetry-david-cameron-pasty", "isHosted": false, "pillarId": "pillar/news", "pillarName": "News"}, {"id": "commentisfree/2012/mar/30/george-galloway-labour-tories-detox", "type": "article", "sectionId": "commentisfree", "sectionName": "Opinion", "webPublicationDate": "2012-03-30T20:00:00Z", "webTitle": "George Galloway dented Labour but the Tories still need a detox | Jonathan Freedland", "webUrl": "https://www.theguardian.com/commentisfree/2012/mar/30/george-galloway-labour-tories-detox", "apiUrl": "https://content.guardianapis.com/commentisfree/2012/mar/30/george-galloway-labour-tories-detox", "isHosted": false, "pillarId": "pillar/opinion", "pillarName": "Opinion"}, {"id": "politics/wintour-and-watt/2012/mar/30/georgeosborne-davidcameron", "type": "article", "sectionId": "politics", "sectionName": "Politics", "webPublicationDate": "2012-03-30T19:32:35Z", "webTitle": "Tory MPs turn on George Osborne, England's new Cardinal Wolsey", "webUrl": "https://www.theguardian.com/politics/wintour-and-watt/2012/mar/30/georgeosborne-davidcameron", "apiUrl": "https://content.guardianapis.com/politics/wintour-and-watt/2012/mar/30/georgeosborne-davidcameron", "isHosted": false, "pillarId": "pillar/news", "pillarName": "News"}, {"id": "politics/2012/mar/30/ed-miliband-labour-donor-list-unions", "type": "article", "sectionId": "politics", "sectionName": "Politics", "webPublicationDate": "2012-03-30T19:25:12Z", "webTitle": "Ed Miliband's eight meetings with Unite leader tops Labour donors' list", "webUrl": "https://www.theguardian.com/politics/2012/mar/30/ed-miliband-labour-donor-list-unions", "apiUrl": "https://content.guardianapis.com/politics/2012/mar/30/ed-miliband-labour-donor-list-unions", "isHosted": false, "pillarId": "pillar/news", "pillarName": "News"}, {"id": "society/2012/mar/30/working-tax-credit-changes", "type": "article", "sectionId": "society", "sectionName": "Society", "webPublicationDate": "2012-03-30T19:03:05Z", "webTitle": "Working tax credit changes are ticking timebomb, says campaigners", "webUrl": "https://www.theguardian.com/society/2012/mar/30/working-tax-credit-changes", "apiUrl": "https://content.guardianapis.com/society/2012/mar/30/working-tax-credit-changes", "isHosted": false, "pillarId": "pillar/news", "pillarName": "News"}, {"id": "commentisfree/2012/mar/30/acquire-rich-friends-with-dinner", "type": "article", "sectionId": "commentisfree", "sectionName": "Opinion", "webPublicationDate": "2012-03-30T19:01:00Z", "webTitle": "How do you acquire and keep rich friends? I suggest dinner | Andrew Martin", "webUrl": "https://www.theguardian.com/commentisfree/2012/mar/30/acquire-rich-friends-with-dinner", "apiUrl": "https://content.guardianapis.com/commentisfree/2012/mar/30/acquire-rich-friends-with-dinner", "isHosted": false, "pillarId": "pillar/opinion", "pillarName": "Opinion"}, {"id": "politics/2012/mar/30/pasty-tax-fuel-crisis-tory", "type": "article", "sectionId": "politics", "sectionName": "Politics", "webPublicationDate": "2012-03-30T18:51:45Z", "webTitle": "Pasty tax and fuel crisis expose Tory flaws", "webUrl": "https://www.theguardian.com/politics/2012/mar/30/pasty-tax-fuel-crisis-tory", "apiUrl": "https://content.guardianapis.com/politics/2012/mar/30/pasty-tax-fuel-crisis-tory", "isHosted": false, "pillarId": "pillar/news", "pillarName": "News"}, {"id": "lifeandstyle/2012/mar/30/women-paying-price-osborne-austerity", "type": "article", "sectionId": "inequality", "sectionName": "Inequality", "webPublicationDate": "2012-03-30T18:37:56Z", "webTitle": "Women paying the price for Osborne's austerity package", "webUrl": "https://www.theguardian.com/lifeandstyle/2012/mar/30/women-paying-price-osborne-austerity", "apiUrl": "https://content.guardianapis.com/lifeandstyle/2012/mar/30/women-paying-price-osborne-austerity", "isHosted": false, "pillarId": "pillar/news", "pillarName": "News"}, {"id": "politics/2012/mar/30/george-galloway-bradford-spring-labour", "type": "article", "sectionId": "politics", "sectionName": "Politics", "webPublicationDate": "2012-03-30T18:26:09Z", "webTitle": "George Galloway hails 'Bradford spring' as Labour licks its wounds", "webUrl": "https://www.theguardian.com/politics/2012/mar/30/george-galloway-bradford-spring-labour", "apiUrl": "https://content.guardianapis.com/politics/2012/mar/30/george-galloway-bradford-spring-labour", "isHosted": false, "pillarId": "pillar/news", "pillarName": "News"}, {"id": "commentisfree/2012/mar/30/mayor-birmingham-boost-deserves", "type": "article", "sectionId": "commentisfree", "sectionName": "Opinion", "webPublicationDate": "2012-03-30T18:21:11Z", "webTitle": "A mayor will give Birmingham the boost it deserves | Lynsey Hanley", "webUrl": "https://www.theguardian.com/commentisfree/2012/mar/30/mayor-birmingham-boost-deserves", "apiUrl": "https://content.guardianapis.com/commentisfree/2012/mar/30/mayor-birmingham-boost-deserves", "isHosted": false, "pillarId": "pillar/opinion", "pillarName": "Opinion"}, {"id": "uk/2012/mar/30/petrol-tankers-drivers-safety-costs", "type": "article", "sectionId": "uk-news", "sectionName": "UK news", "webPublicationDate": "2012-03-30T18:20:41Z", "webTitle": "Petrol tanker drivers attack squeeze on safety and training by oil firms", "webUrl": "https://www.theguardian.com/uk/2012/mar/30/petrol-tankers-drivers-safety-costs", "apiUrl": "https://content.guardianapis.com/uk/2012/mar/30/petrol-tankers-drivers-safety-costs", "isHosted": false, "pillarId": "pillar/news", "pillarName": "News"}, {"id": "uk/2012/mar/30/david-cameron-motorists-fuel", "type": "article", "sectionId": "uk-news", "sectionName": "UK news", "webPublicationDate": "2012-03-30T18:18:38Z", "webTitle": "David Cameron seeks to reassure motorists that fuel will not run out", "webUrl": "https://www.theguardian.com/uk/2012/mar/30/david-cameron-motorists-fuel", "apiUrl": "https://content.guardianapis.com/uk/2012/mar/30/david-cameron-motorists-fuel", "isHosted": false, "pillarId": "pillar/news", "pillarName": "News"}, {"id": "politics/2012/mar/30/william-hague-legal-action-sri-lanka", "type": "article", "sectionId": "politics", "sectionName": "Politics", "webPublicationDate": "2012-03-30T17:40:43Z", "webTitle": "William Hague faces legal action over Sri Lankan diplomat war crimes claim", "webUrl": "https://www.theguardian.com/politics/2012/mar/30/william-hague-legal-action-sri-lanka", "apiUrl": "https://content.guardianapis.com/politics/2012/mar/30/william-hague-legal-action-sri-lanka", "isHosted": false, "pillarId": "pillar/news", "pillarName": "News"}, {"id": "commentisfree/2012/mar/30/bradford-version-of-riots", "type": "article", "sectionId": "commentisfree", "sectionName": "Opinion", "webPublicationDate": "2012-03-30T17:08:24Z", "webTitle": "This was Bradford's version of the riots | George Galloway", "webUrl": "https://www.theguardian.com/commentisfree/2012/mar/30/bradford-version-of-riots", "apiUrl": "https://content.guardianapis.com/commentisfree/2012/mar/30/bradford-version-of-riots", "isHosted": false, "pillarId": "pillar/opinion", "pillarName": "Opinion"}, {"id": "media/2012/mar/30/sarah-sands-editor-evening-standard", "type": "article", "sectionId": "media", "sectionName": "Media", "webPublicationDate": "2012-03-30T16:21:28Z", "webTitle": "Sarah Sands is new editor of London Evening Standard", "webUrl": "https://www.theguardian.com/media/2012/mar/30/sarah-sands-editor-evening-standard", "apiUrl": "https://content.guardianapis.com/media/2012/mar/30/sarah-sands-editor-evening-standard", "isHosted": false, "pillarId": "pillar/news", "pillarName": "News"}, {"id": "commentisfree/2012/mar/30/george-osborne-dont-stop-me-now", "type": "article", "sectionId": "commentisfree", "sectionName": "Opinion", "webPublicationDate": "2012-03-30T16:20:01Z", "webTitle": "Don't stop George now: what songs would you match with politicians? | Open thread", "webUrl": "https://www.theguardian.com/commentisfree/2012/mar/30/george-osborne-dont-stop-me-now", "apiUrl": "https://content.guardianapis.com/commentisfree/2012/mar/30/george-osborne-dont-stop-me-now", "isHosted": false, "pillarId": "pillar/opinion", "pillarName": "Opinion"}, {"id": "commentisfree/2012/mar/30/britain-encourage-women-into-work", "type": "article", "sectionId": "commentisfree", "sectionName": "Opinion", "webPublicationDate": "2012-03-30T16:16:21Z", "webTitle": "How can Britain encourage women into work? | Elizabeth Truss", "webUrl": "https://www.theguardian.com/commentisfree/2012/mar/30/britain-encourage-women-into-work", "apiUrl": "https://content.guardianapis.com/commentisfree/2012/mar/30/britain-encourage-women-into-work", "isHosted": false, "pillarId": "pillar/opinion", "pillarName": "Opinion"}, {"id": "politics/2012/mar/30/boris-johnson-olympic-torch-cost", "type": "article", "sectionId": "politics", "sectionName": "Politics", "webPublicationDate": "2012-03-30T16:14:26Z", "webTitle": "Boris Johnson promises to investigate Olympic torch cost", "webUrl": "https://www.theguardian.com/politics/2012/mar/30/boris-johnson-olympic-torch-cost", "apiUrl": "https://content.guardianapis.com/politics/2012/mar/30/boris-johnson-olympic-torch-cost", "isHosted": false, "pillarId": "pillar/news", "pillarName": "News"}, {"id": "society/patrick-butler-cuts-blog/2012/mar/30/working-tax-credit-cuts-marriage-lose-lose-situtation", "type": "article", "sectionId": "society", "sectionName": "Society", "webPublicationDate": "2012-03-30T16:00:50Z", "webTitle": "Working Tax credit cuts: 'I'm married, so I'm in a lose, lose situation'", "webUrl": "https://www.theguardian.com/society/patrick-butler-cuts-blog/2012/mar/30/working-tax-credit-cuts-marriage-lose-lose-situtation", "apiUrl": "https://content.guardianapis.com/society/patrick-butler-cuts-blog/2012/mar/30/working-tax-credit-cuts-marriage-lose-lose-situtation", "isHosted": false, "pillarId": "pillar/news", "pillarName": "News"}, {"id": "commentisfree/2012/mar/30/britain-aid-development-corruption-value", "type": "article", "sectionId": "commentisfree", "sectionName": "Opinion", "webPublicationDate": "2012-03-30T15:56:41Z", "webTitle": "Britain's aid achievements would be impossible if corruption were rife | Adrian Lovett", "webUrl": "https://www.theguardian.com/commentisfree/2012/mar/30/britain-aid-development-corruption-value", "apiUrl": "https://content.guardianapis.com/commentisfree/2012/mar/30/britain-aid-development-corruption-value", "isHosted": false, "pillarId": "pillar/opinion", "pillarName": "Opinion"}, {"id": "politics/video/2012/mar/30/george-galloway-labour-bradford-west-video", "type": "video", "sectionId": "politics", "sectionName": "Politics", "webPublicationDate": "2012-03-30T15:28:00Z", "webTitle": "George Galloway: Labour must learn from Bradford West defeat \u2013 video", "webUrl": "https://www.theguardian.com/politics/video/2012/mar/30/george-galloway-labour-bradford-west-video", "apiUrl": "https://content.guardianapis.com/politics/video/2012/mar/30/george-galloway-labour-bradford-west-video", "isHosted": false, "pillarId": "pillar/news", "pillarName": "News"}, {"id": "politics/gallery/2012/mar/30/george-galloway-bradford-in-pictures", "type": "gallery", "sectionId": "politics", "sectionName": "Politics", "webPublicationDate": "2012-03-30T15:01:00Z", "webTitle": "George Galloway wins Bradford West byelection \u2013 in pictures", "webUrl": "https://www.theguardian.com/politics/gallery/2012/mar/30/george-galloway-bradford-in-pictures", "apiUrl": "https://content.guardianapis.com/politics/gallery/2012/mar/30/george-galloway-bradford-in-pictures", "isHosted": false, "pillarId": "pillar/news", "pillarName": "News"}, {"id": "uk/the-northerner/2012/mar/30/george-galloway-bradford-byelection-simon-danczuk", "type": "article", "sectionId": "politics", "sectionName": "Politics", "webPublicationDate": "2012-03-30T14:51:50Z", "webTitle": "Bradford West: Labour had it coming", "webUrl": "https://www.theguardian.com/uk/the-northerner/2012/mar/30/george-galloway-bradford-byelection-simon-danczuk", "apiUrl": "https://content.guardianapis.com/uk/the-northerner/2012/mar/30/george-galloway-bradford-byelection-simon-danczuk", "isHosted": false, "pillarId": "pillar/news", "pillarName": "News"}, {"id": "politics/2012/mar/30/siobhan-benita-independent-london-mayor", "type": "article", "sectionId": "politics", "sectionName": "Politics", "webPublicationDate": "2012-03-30T14:49:11Z", "webTitle": "Siobhan Benita: the only independent on the London mayoral ballot", "webUrl": "https://www.theguardian.com/politics/2012/mar/30/siobhan-benita-independent-london-mayor", "apiUrl": "https://content.guardianapis.com/politics/2012/mar/30/siobhan-benita-independent-london-mayor", "isHosted": false, "pillarId": "pillar/news", "pillarName": "News"}, {"id": "politics/blog/2012/mar/30/bradford-west-byelection-result-bookmakers", "type": "article", "sectionId": "politics", "sectionName": "Politics", "webPublicationDate": "2012-03-30T14:44:33Z", "webTitle": "Bradford West byelection result costs bookmakers dear", "webUrl": "https://www.theguardian.com/politics/blog/2012/mar/30/bradford-west-byelection-result-bookmakers", "apiUrl": "https://content.guardianapis.com/politics/blog/2012/mar/30/bradford-west-byelection-result-bookmakers", "isHosted": false, "pillarId": "pillar/news", "pillarName": "News"}, {"id": "politics/2012/mar/30/why-george-galloway-bradford-west", "type": "article", "sectionId": "politics", "sectionName": "Politics", "webPublicationDate": "2012-03-30T14:00:52Z", "webTitle": "Why did George Galloway win in Bradford West?", "webUrl": "https://www.theguardian.com/politics/2012/mar/30/why-george-galloway-bradford-west", "apiUrl": "https://content.guardianapis.com/politics/2012/mar/30/why-george-galloway-bradford-west", "isHosted": false, "pillarId": "pillar/news", "pillarName": "News"}, {"id": "politics/2012/mar/30/fewer-investigators-fraud-claims-welfare", "type": "article", "sectionId": "politics", "sectionName": "Politics", "webPublicationDate": "2012-03-30T13:49:19Z", "webTitle": "Fewer DWP staff to investigate fraud claims against welfare contractors", "webUrl": "https://www.theguardian.com/politics/2012/mar/30/fewer-investigators-fraud-claims-welfare", "apiUrl": "https://content.guardianapis.com/politics/2012/mar/30/fewer-investigators-fraud-claims-welfare", "isHosted": false, "pillarId": "pillar/news", "pillarName": "News"}, {"id": "commentisfree/2012/mar/30/george-galloway-bradford-minority-vote", "type": "article", "sectionId": "commentisfree", "sectionName": "Opinion", "webPublicationDate": "2012-03-30T13:36:24Z", "webTitle": "George Galloway's byelection win is a lesson in the power of the minority vote | Tom Clark", "webUrl": "https://www.theguardian.com/commentisfree/2012/mar/30/george-galloway-bradford-minority-vote", "apiUrl": "https://content.guardianapis.com/commentisfree/2012/mar/30/george-galloway-bradford-minority-vote", "isHosted": false, "pillarId": "pillar/opinion", "pillarName": "Opinion"}, {"id": "uk/2012/mar/30/francis-maude-petrol-panic-strike", "type": "article", "sectionId": "uk-news", "sectionName": "UK news", "webPublicationDate": "2012-03-30T12:59:52Z", "webTitle": "Francis Maude urged to quit over petrol panic as union rules out Easter strike", "webUrl": "https://www.theguardian.com/uk/2012/mar/30/francis-maude-petrol-panic-strike", "apiUrl": "https://content.guardianapis.com/uk/2012/mar/30/francis-maude-petrol-panic-strike", "isHosted": false, "pillarId": "pillar/news", "pillarName": "News"}, {"id": "environment/2012/mar/30/mayor-london-air-pollution", "type": "article", "sectionId": "environment", "sectionName": "Environment", "webPublicationDate": "2012-03-30T12:26:01Z", "webTitle": "Which mayoral candidate will tackle London's air pollution? | Simon Less", "webUrl": "https://www.theguardian.com/environment/2012/mar/30/mayor-london-air-pollution", "apiUrl": "https://content.guardianapis.com/environment/2012/mar/30/mayor-london-air-pollution", "isHosted": false, "pillarId": "pillar/news", "pillarName": "News"}, {"id": "politics/audio/2012/mar/30/politics-weekly-podcast-george-galloway", "type": "audio", "sectionId": "politics", "sectionName": "Politics", "webPublicationDate": "2012-03-30T12:20:00Z", "webTitle": "Politics Weekly podcast: George Galloway and the government's worst week", "webUrl": "https://www.theguardian.com/politics/audio/2012/mar/30/politics-weekly-podcast-george-galloway", "apiUrl": "https://content.guardianapis.com/politics/audio/2012/mar/30/politics-weekly-podcast-george-galloway", "isHosted": false, "pillarId": "pillar/news", "pillarName": "News"}, {"id": "commentisfree/2012/mar/30/george-galloway-bradford-west", "type": "article", "sectionId": "commentisfree", "sectionName": "Opinion", "webPublicationDate": "2012-03-30T11:39:10Z", "webTitle": "Will George Galloway bring spring to Bradford? | Lanre Bakare", "webUrl": "https://www.theguardian.com/commentisfree/2012/mar/30/george-galloway-bradford-west", "apiUrl": "https://content.guardianapis.com/commentisfree/2012/mar/30/george-galloway-bradford-west", "isHosted": false, "pillarId": "pillar/opinion", "pillarName": "Opinion"}, {"id": "media/gallery/2012/mar/30/fuel-panic-front-pages", "type": "gallery", "sectionId": "media", "sectionName": "Media", "webPublicationDate": "2012-03-30T11:20:57Z", "webTitle": "Fuel crisis: the front pages", "webUrl": "https://www.theguardian.com/media/gallery/2012/mar/30/fuel-panic-front-pages", "apiUrl": "https://content.guardianapis.com/media/gallery/2012/mar/30/fuel-panic-front-pages", "isHosted": false, "pillarId": "pillar/news", "pillarName": "News"}, {"id": "politics/blog/2012/mar/30/george-galloway-bradford-west-byelection", "type": "article", "sectionId": "politics", "sectionName": "Politics", "webPublicationDate": "2012-03-30T10:56:00Z", "webTitle": "How 'Gorgeous' George Galloway proved me wrong in Bradford West", "webUrl": "https://www.theguardian.com/politics/blog/2012/mar/30/george-galloway-bradford-west-byelection", "apiUrl": "https://content.guardianapis.com/politics/blog/2012/mar/30/george-galloway-bradford-west-byelection", "isHosted": false, "pillarId": "pillar/news", "pillarName": "News"}, {"id": "uk/the-northerner/2012/mar/30/harriet-harman-arts-leeds-northern-ballet-cuts-liz-forgan", "type": "article", "sectionId": "uk-news", "sectionName": "UK news", "webPublicationDate": "2012-03-30T10:42:22Z", "webTitle": "What future for northern arts? Clouds gather as Harriet Harman visits Leeds", "webUrl": "https://www.theguardian.com/uk/the-northerner/2012/mar/30/harriet-harman-arts-leeds-northern-ballet-cuts-liz-forgan", "apiUrl": "https://content.guardianapis.com/uk/the-northerner/2012/mar/30/harriet-harman-arts-leeds-northern-ballet-cuts-liz-forgan", "isHosted": false, "pillarId": "pillar/news", "pillarName": "News"}, {"id": "politics/2012/mar/30/george-galloway-spotlight-ed-miliband", "type": "article", "sectionId": "politics", "sectionName": "Politics", "webPublicationDate": "2012-03-30T10:40:01Z", "webTitle": "George Galloway win puts spotlight back on Ed Miliband", "webUrl": "https://www.theguardian.com/politics/2012/mar/30/george-galloway-spotlight-ed-miliband", "apiUrl": "https://content.guardianapis.com/politics/2012/mar/30/george-galloway-spotlight-ed-miliband", "isHosted": false, "pillarId": "pillar/news", "pillarName": "News"}, {"id": "politics/2012/mar/30/george-galloway-star-power-bradford", "type": "article", "sectionId": "politics", "sectionName": "Politics", "webPublicationDate": "2012-03-30T10:22:52Z", "webTitle": "George Galloway shows his star power in Bradford West", "webUrl": "https://www.theguardian.com/politics/2012/mar/30/george-galloway-star-power-bradford", "apiUrl": "https://content.guardianapis.com/politics/2012/mar/30/george-galloway-star-power-bradford", "isHosted": false, "pillarId": "pillar/news", "pillarName": "News"}, {"id": "media/2012/mar/30/pasty-tax-george-osborne-greggs", "type": "article", "sectionId": "media", "sectionName": "Media", "webPublicationDate": "2012-03-30T10:09:32Z", "webTitle": "A week on the web: the pasty tax", "webUrl": "https://www.theguardian.com/media/2012/mar/30/pasty-tax-george-osborne-greggs", "apiUrl": "https://content.guardianapis.com/media/2012/mar/30/pasty-tax-george-osborne-greggs", "isHosted": false, "pillarId": "pillar/news", "pillarName": "News"}, {"id": "politics/video/2012/mar/30/george-galloway-bradford-spring-video", "type": "video", "sectionId": "politics", "sectionName": "Politics", "webPublicationDate": "2012-03-30T09:58:00Z", "webTitle": "George Galloway hails 'Bradford Spring' byelection victory  - video", "webUrl": "https://www.theguardian.com/politics/video/2012/mar/30/george-galloway-bradford-spring-video", "apiUrl": "https://content.guardianapis.com/politics/video/2012/mar/30/george-galloway-bradford-spring-video", "isHosted": false, "pillarId": "pillar/news", "pillarName": "News"}, {"id": "politics/2012/mar/30/woman-petrol-burns-york-fire", "type": "article", "sectionId": "politics", "sectionName": "Politics", "webPublicationDate": "2012-03-30T09:57:16Z", "webTitle": "Woman suffers serious burns in kitchen petrol accident", "webUrl": "https://www.theguardian.com/politics/2012/mar/30/woman-petrol-burns-york-fire", "apiUrl": "https://content.guardianapis.com/politics/2012/mar/30/woman-petrol-burns-york-fire", "isHosted": false, "pillarId": "pillar/news", "pillarName": "News"}, {"id": "uk/the-northerner/2012/mar/30/harriet-harman", "type": "article", "sectionId": "uk-news", "sectionName": "UK news", "webPublicationDate": "2012-03-30T09:41:00Z", "webTitle": "We have to make the case for culture", "webUrl": "https://www.theguardian.com/uk/the-northerner/2012/mar/30/harriet-harman", "apiUrl": "https://content.guardianapis.com/uk/the-northerner/2012/mar/30/harriet-harman", "isHosted": false, "pillarId": "pillar/news", "pillarName": "News"}]}}