{"response": {"status": "ok", "userTier": "developer", "total": 93066, "startIndex": 1, "pageSize": 50, "currentPage": 1, "pages": 1862, "orderBy": "newest", "results": [{"id": "football/2015/mar/31/republic-of-irelands-martin-oneill-scotland-game-is-the-be-all-and-end-all", "type": "article", "sectionId": "football", "sectionName": "Football", "webPublicationDate": "2015-03-30T23:30:01Z", "webTitle": "Republic of Ireland\u2019s Martin O\u2019Neill: Scotland game is the be all and end all", "webUrl": "https://www.theguardian.com/football/2015/mar/31/republic-of-irelands-martin-oneill-scotland-game-is-the-be-all-and-end-all", "apiUrl": "https://content.guardianapis.com/football/2015/mar/31/republic-of-irelands-martin-oneill-scotland-game-is-the-be-all-and-end-all", "isHosted": false, "pillarId": "pillar/sport", "pillarName": "Sport"}, {"id": "football/2015/mar/30/team-gb-football-teams-2016-rio-olympics", "type": "article", "sectionId": "football", "sectionName": "Football", "webPublicationDate": "2015-03-30T22:53:15Z", "webTitle": "\u2018Team GB will not enter football teams for 2016 Rio Olympics\u2019", "webUrl": "https://www.theguardian.com/football/2015/mar/30/team-gb-football-teams-2016-rio-olympics", "apiUrl": "https://content.guardianapis.com/football/2015/mar/30/team-gb-football-teams-2016-rio-olympics", "isHosted": false, "pillarId": "pillar/sport", "pillarName": "Sport"}, {"id": "football/2015/mar/30/harry-kane-theo-walcott-england-italy", "type": "article", "sectionId": "football", "sectionName": "Football", "webPublicationDate": "2015-03-30T21:30:08Z", "webTitle": "Harry Kane to start up front alongside Theo Walcott for England in Italy", "webUrl": "https://www.theguardian.com/football/2015/mar/30/harry-kane-theo-walcott-england-italy", "apiUrl": "https://content.guardianapis.com/football/2015/mar/30/harry-kane-theo-walcott-england-italy", "isHosted": false, "pillarId": "pillar/sport", "pillarName": "Sport"}, {"id": "football/2015/mar/30/england-harry-kane-wayne-rooney-italy-antonio-conte", "type": "article", "sectionId": "football", "sectionName": "Football", "webPublicationDate": "2015-03-30T21:30:08Z", "webTitle": "Wayne Rooney given surprise midfield role for England against Italy", "webUrl": "https://www.theguardian.com/football/2015/mar/30/england-harry-kane-wayne-rooney-italy-antonio-conte", "apiUrl": "https://content.guardianapis.com/football/2015/mar/30/england-harry-kane-wayne-rooney-italy-antonio-conte", "isHosted": false, "pillarId": "pillar/sport", "pillarName": "Sport"}, {"id": "football/blog/2015/mar/30/italy-antonio-conte-azzurri-england-wembley-friendly", "type": "article", "sectionId": "football", "sectionName": "Football", "webPublicationDate": "2015-03-30T17:27:00Z", "webTitle": "Antonio Conte desperate to end Italy\u2019s wobble against England | Paolo Bandini", "webUrl": "https://www.theguardian.com/football/blog/2015/mar/30/italy-antonio-conte-azzurri-england-wembley-friendly", "apiUrl": "https://content.guardianapis.com/football/blog/2015/mar/30/italy-antonio-conte-azzurri-england-wembley-friendly", "isHosted": false, "pillarId": "pillar/sport", "pillarName": "Sport"}, {"id": "football/2015/mar/30/the-nations-newly-appointed-minister-for-goals", "type": "article", "sectionId": "football", "sectionName": "Football", "webPublicationDate": "2015-03-30T15:21:12Z", "webTitle": "The nation's newly appointed minister for goals", "webUrl": "https://www.theguardian.com/football/2015/mar/30/the-nations-newly-appointed-minister-for-goals", "apiUrl": "https://content.guardianapis.com/football/2015/mar/30/the-nations-newly-appointed-minister-for-goals", "isHosted": false, "pillarId": "pillar/sport", "pillarName": "Sport"}, {"id": "football/2015/mar/30/spartak-moscow-102-year-old-supporter-otto-fischer-life-savings-burglary", "type": "article", "sectionId": "football", "sectionName": "Football", "webPublicationDate": "2015-03-30T12:46:35Z", "webTitle": "Spartak Moscow rally round their 102-year-old fan after theft", "webUrl": "https://www.theguardian.com/football/2015/mar/30/spartak-moscow-102-year-old-supporter-otto-fischer-life-savings-burglary", "apiUrl": "https://content.guardianapis.com/football/2015/mar/30/spartak-moscow-102-year-old-supporter-otto-fischer-life-savings-burglary", "isHosted": false, "pillarId": "pillar/sport", "pillarName": "Sport"}, {"id": "football/2015/mar/30/jack-collinson-west-ham-wales", "type": "article", "sectionId": "football", "sectionName": "Football", "webPublicationDate": "2015-03-30T11:08:00Z", "webTitle": "Former West Ham player Jack Collison still chasing his footballing dream | Jacob Steinberg", "webUrl": "https://www.theguardian.com/football/2015/mar/30/jack-collinson-west-ham-wales", "apiUrl": "https://content.guardianapis.com/football/2015/mar/30/jack-collinson-west-ham-wales", "isHosted": false, "pillarId": "pillar/sport", "pillarName": "Sport"}, {"id": "sport/blog/2015/mar/30/field-notes-englands-football-rivalry-with-italy", "type": "article", "sectionId": "sport", "sectionName": "Sport", "webPublicationDate": "2015-03-30T09:00:10Z", "webTitle": "Field Notes ... England's football rivalry with Italy", "webUrl": "https://www.theguardian.com/sport/blog/2015/mar/30/field-notes-englands-football-rivalry-with-italy", "apiUrl": "https://content.guardianapis.com/sport/blog/2015/mar/30/field-notes-englands-football-rivalry-with-italy", "isHosted": false, "pillarId": "pillar/sport", "pillarName": "Sport"}, {"id": "sport/blog/2015/mar/30/kaka-and-robert-earnshaw-star-but-can-mls-veterans-thrive-over-a-long-season", "type": "article", "sectionId": "football", "sectionName": "Football", "webPublicationDate": "2015-03-30T09:00:10Z", "webTitle": "Kak\u00e1 and Robert Earnshaw star but can MLS veterans thrive over a long season?", "webUrl": "https://www.theguardian.com/sport/blog/2015/mar/30/kaka-and-robert-earnshaw-star-but-can-mls-veterans-thrive-over-a-long-season", "apiUrl": "https://content.guardianapis.com/sport/blog/2015/mar/30/kaka-and-robert-earnshaw-star-but-can-mls-veterans-thrive-over-a-long-season", "isHosted": false, "pillarId": "pillar/sport", "pillarName": "Sport"}, {"id": "football/blog/2015/mar/30/premier-league-stats-chelsea-manchester-united", "type": "article", "sectionId": "football", "sectionName": "Football", "webPublicationDate": "2015-03-30T08:34:52Z", "webTitle": "Premier League stats: what they reveal about the season so far", "webUrl": "https://www.theguardian.com/football/blog/2015/mar/30/premier-league-stats-chelsea-manchester-united", "apiUrl": "https://content.guardianapis.com/football/blog/2015/mar/30/premier-league-stats-chelsea-manchester-united", "isHosted": false, "pillarId": "pillar/sport", "pillarName": "Sport"}, {"id": "football/2015/mar/30/football-transfer-rumours", "type": "article", "sectionId": "football", "sectionName": "Football", "webPublicationDate": "2015-03-30T07:58:07Z", "webTitle": "Football transfer rumours: Emmanuel Adebayor to Chelsea?", "webUrl": "https://www.theguardian.com/football/2015/mar/30/football-transfer-rumours", "apiUrl": "https://content.guardianapis.com/football/2015/mar/30/football-transfer-rumours", "isHosted": false, "pillarId": "pillar/sport", "pillarName": "Sport"}, {"id": "football/live/2015/mar/29/mls-chicago-fire-v-philadelphia-union-live", "type": "liveblog", "sectionId": "football", "sectionName": "Football", "webPublicationDate": "2015-03-29T22:56:38Z", "webTitle": "MLS: Chicago Fire v Philadelphia Union \u2013 as it happened", "webUrl": "https://www.theguardian.com/football/live/2015/mar/29/mls-chicago-fire-v-philadelphia-union-live", "apiUrl": "https://content.guardianapis.com/football/live/2015/mar/29/mls-chicago-fire-v-philadelphia-union-live", "isHosted": false, "pillarId": "pillar/sport", "pillarName": "Sport"}, {"id": "football/2015/mar/29/euro-2016-round-up-portugal-serbia", "type": "article", "sectionId": "football", "sectionName": "Football", "webPublicationDate": "2015-03-29T22:16:44Z", "webTitle": "Euro 2016 round-up: Portugal back on top after battling win over Serbia", "webUrl": "https://www.theguardian.com/football/2015/mar/29/euro-2016-round-up-portugal-serbia", "apiUrl": "https://content.guardianapis.com/football/2015/mar/29/euro-2016-round-up-portugal-serbia", "isHosted": false, "pillarId": "pillar/sport", "pillarName": "Sport"}, {"id": "football/2015/mar/29/fabian-delph-takcles-discipline-england-italy-aston-villa", "type": "article", "sectionId": "football", "sectionName": "Football", "webPublicationDate": "2015-03-29T21:30:06Z", "webTitle": "Fabian Delph tackles questions of discipline for England\u2019s task in Italy", "webUrl": "https://www.theguardian.com/football/2015/mar/29/fabian-delph-takcles-discipline-england-italy-aston-villa", "apiUrl": "https://content.guardianapis.com/football/2015/mar/29/fabian-delph-takcles-discipline-england-italy-aston-villa", "isHosted": false, "pillarId": "pillar/sport", "pillarName": "Sport"}, {"id": "football/2015/mar/29/england-wayne-rooney-captain-harry-kane-italy", "type": "article", "sectionId": "football", "sectionName": "Football", "webPublicationDate": "2015-03-29T21:30:06Z", "webTitle": "There is an excitement about England again, says Wayne Rooney", "webUrl": "https://www.theguardian.com/football/2015/mar/29/england-wayne-rooney-captain-harry-kane-italy", "apiUrl": "https://content.guardianapis.com/football/2015/mar/29/england-wayne-rooney-captain-harry-kane-italy", "isHosted": false, "pillarId": "pillar/sport", "pillarName": "Sport"}, {"id": "football/2015/mar/29/chris-smalling-england-roy-hodgson-manchester-united", "type": "article", "sectionId": "football", "sectionName": "Football", "webPublicationDate": "2015-03-29T21:30:06Z", "webTitle": "Chris Smalling strives to repay enduring faith of England\u2019s Roy Hodgson", "webUrl": "https://www.theguardian.com/football/2015/mar/29/chris-smalling-england-roy-hodgson-manchester-united", "apiUrl": "https://content.guardianapis.com/football/2015/mar/29/chris-smalling-england-roy-hodgson-manchester-united", "isHosted": false, "pillarId": "pillar/sport", "pillarName": "Sport"}, {"id": "football/2015/mar/29/chris-coleman-shenanigans-wales-israel", "type": "article", "sectionId": "football", "sectionName": "Football", "webPublicationDate": "2015-03-29T21:30:06Z", "webTitle": "Chris Coleman laughs off \u2018shenanigans\u2019 as Wales take Israel apart", "webUrl": "https://www.theguardian.com/football/2015/mar/29/chris-coleman-shenanigans-wales-israel", "apiUrl": "https://content.guardianapis.com/football/2015/mar/29/chris-coleman-shenanigans-wales-israel", "isHosted": false, "pillarId": "pillar/sport", "pillarName": "Sport"}, {"id": "football/blog/2015/mar/30/a-league-five-things-we-learned-from-round-23", "type": "article", "sectionId": "football", "sectionName": "Football", "webPublicationDate": "2015-03-29T21:00:05Z", "webTitle": "A-League: five things we learned from round 23 | Pete Smith", "webUrl": "https://www.theguardian.com/football/blog/2015/mar/30/a-league-five-things-we-learned-from-round-23", "apiUrl": "https://content.guardianapis.com/football/blog/2015/mar/30/a-league-five-things-we-learned-from-round-23", "isHosted": false, "pillarId": "pillar/sport", "pillarName": "Sport"}, {"id": "football/2015/mar/29/republic-of-ireland-poland-euro-2016-qualifier", "type": "article", "sectionId": "football", "sectionName": "Football", "webPublicationDate": "2015-03-29T20:58:38Z", "webTitle": "Republic of Ireland 1-1 Poland | Euro 2016 qualifier match report", "webUrl": "https://www.theguardian.com/football/2015/mar/29/republic-of-ireland-poland-euro-2016-qualifier", "apiUrl": "https://content.guardianapis.com/football/2015/mar/29/republic-of-ireland-poland-euro-2016-qualifier", "isHosted": false, "pillarId": "pillar/sport", "pillarName": "Sport"}, {"id": "football/live/2015/mar/29/republic-of-ireland-v-poland-euro-2016-qualifier-live", "type": "liveblog", "sectionId": "football", "sectionName": "Football", "webPublicationDate": "2015-03-29T20:43:18Z", "webTitle": "Republic of Ireland v Poland: Euro 2016 qualifier \u2013 as it happened! | Ian McCourt", "webUrl": "https://www.theguardian.com/football/live/2015/mar/29/republic-of-ireland-v-poland-euro-2016-qualifier-live", "apiUrl": "https://content.guardianapis.com/football/live/2015/mar/29/republic-of-ireland-v-poland-euro-2016-qualifier-live", "isHosted": false, "pillarId": "pillar/sport", "pillarName": "Sport"}, {"id": "football/2015/mar/29/liverpool-fernando-torres-luis-suarez-steven-gerrard-charity-jamie-carragherdidier-drogba-john-terry", "type": "article", "sectionId": "football", "sectionName": "Football", "webPublicationDate": "2015-03-29T18:40:59Z", "webTitle": "Fernando Torres heals his Anfield wounds as Luis Su\u00e1rez makes return", "webUrl": "https://www.theguardian.com/football/2015/mar/29/liverpool-fernando-torres-luis-suarez-steven-gerrard-charity-jamie-carragherdidier-drogba-john-terry", "apiUrl": "https://content.guardianapis.com/football/2015/mar/29/liverpool-fernando-torres-luis-suarez-steven-gerrard-charity-jamie-carragherdidier-drogba-john-terry", "isHosted": false, "pillarId": "pillar/sport", "pillarName": "Sport"}, {"id": "football/2015/mar/29/scotland-gibraltar-euro-2016-qualifier-match-report", "type": "article", "sectionId": "football", "sectionName": "Football", "webPublicationDate": "2015-03-29T18:12:32Z", "webTitle": "Scotland 6-1 Gibraltar | Euro 2016 qualifier match report", "webUrl": "https://www.theguardian.com/football/2015/mar/29/scotland-gibraltar-euro-2016-qualifier-match-report", "apiUrl": "https://content.guardianapis.com/football/2015/mar/29/scotland-gibraltar-euro-2016-qualifier-match-report", "isHosted": false, "pillarId": "pillar/sport", "pillarName": "Sport"}, {"id": "football/2015/mar/29/northern-ireland-finland-euro-2016-qualifier-match-report", "type": "article", "sectionId": "football", "sectionName": "Football", "webPublicationDate": "2015-03-29T18:00:26Z", "webTitle": "Northern Ireland 2-1 Finland | Euro 2016 qualifier match report", "webUrl": "https://www.theguardian.com/football/2015/mar/29/northern-ireland-finland-euro-2016-qualifier-match-report", "apiUrl": "https://content.guardianapis.com/football/2015/mar/29/northern-ireland-finland-euro-2016-qualifier-match-report", "isHosted": false, "pillarId": "pillar/sport", "pillarName": "Sport"}, {"id": "football/blog/2015/mar/29/football-talent-id-sean-ingle-column", "type": "article", "sectionId": "football", "sectionName": "Football", "webPublicationDate": "2015-03-29T18:00:01Z", "webTitle": "Why football\u2019s talent ID needs more than a calendar and a ruler | Sean Ingle", "webUrl": "https://www.theguardian.com/football/blog/2015/mar/29/football-talent-id-sean-ingle-column", "apiUrl": "https://content.guardianapis.com/football/blog/2015/mar/29/football-talent-id-sean-ingle-column", "isHosted": false, "pillarId": "pillar/sport", "pillarName": "Sport"}, {"id": "football/football-league-blog/2015/mar/29/leyton-orient-fabio-liverani-port-vale", "type": "article", "sectionId": "football", "sectionName": "Football", "webPublicationDate": "2015-03-29T16:48:08Z", "webTitle": "Fabio Liverani\u2019s Orient claim lifeline with Port Vale win | Jeremy Alexander", "webUrl": "https://www.theguardian.com/football/football-league-blog/2015/mar/29/leyton-orient-fabio-liverani-port-vale", "apiUrl": "https://content.guardianapis.com/football/football-league-blog/2015/mar/29/leyton-orient-fabio-liverani-port-vale", "isHosted": false, "pillarId": "pillar/sport", "pillarName": "Sport"}, {"id": "football/live/2015/mar/29/brazil-v-chile-international-friendly-live", "type": "liveblog", "sectionId": "football", "sectionName": "Football", "webPublicationDate": "2015-03-29T15:55:48Z", "webTitle": "Brazil v Chile: international friendly \u2013\u00a0as it happened!", "webUrl": "https://www.theguardian.com/football/live/2015/mar/29/brazil-v-chile-international-friendly-live", "apiUrl": "https://content.guardianapis.com/football/live/2015/mar/29/brazil-v-chile-international-friendly-live", "isHosted": false, "pillarId": "pillar/sport", "pillarName": "Sport"}, {"id": "football/2015/mar/29/italy-football-premier-league-gianfranco-zola-mario-balotelli-roberto-di-matteo-rome", "type": "article", "sectionId": "football", "sectionName": "Football", "webPublicationDate": "2015-03-29T12:35:38Z", "webTitle": "Where have all the Italians gone from the Premier League? | Jacob Steinberg", "webUrl": "https://www.theguardian.com/football/2015/mar/29/italy-football-premier-league-gianfranco-zola-mario-balotelli-roberto-di-matteo-rome", "apiUrl": "https://content.guardianapis.com/football/2015/mar/29/italy-football-premier-league-gianfranco-zola-mario-balotelli-roberto-di-matteo-rome", "isHosted": false, "pillarId": "pillar/sport", "pillarName": "Sport"}, {"id": "football/2015/mar/29/gareth-bale-real-madrid-wales", "type": "article", "sectionId": "football", "sectionName": "Football", "webPublicationDate": "2015-03-29T09:32:00Z", "webTitle": "Real Madrid\u2019s Gareth Bale hits back at critics after two-goal Wales display", "webUrl": "https://www.theguardian.com/football/2015/mar/29/gareth-bale-real-madrid-wales", "apiUrl": "https://content.guardianapis.com/football/2015/mar/29/gareth-bale-real-madrid-wales", "isHosted": false, "pillarId": "pillar/sport", "pillarName": "Sport"}, {"id": "football/2015/mar/29/football-news-in-brief", "type": "article", "sectionId": "football", "sectionName": "Football", "webPublicationDate": "2015-03-29T00:46:53Z", "webTitle": "Football news in brief", "webUrl": "https://www.theguardian.com/football/2015/mar/29/football-news-in-brief", "apiUrl": "https://content.guardianapis.com/football/2015/mar/29/football-news-in-brief", "isHosted": false, "pillarId": "pillar/sport", "pillarName": "Sport"}, {"id": "football/2015/mar/28/roy-hodgson-vows-to-handle-harry-kane-carefully", "type": "article", "sectionId": "football", "sectionName": "Football", "webPublicationDate": "2015-03-28T22:30:06Z", "webTitle": "Roy Hodgson vows to handle Harry Kane\u2019s talent carefully", "webUrl": "https://www.theguardian.com/football/2015/mar/28/roy-hodgson-vows-to-handle-harry-kane-carefully", "apiUrl": "https://content.guardianapis.com/football/2015/mar/28/roy-hodgson-vows-to-handle-harry-kane-carefully", "isHosted": false, "pillarId": "pillar/sport", "pillarName": "Sport"}, {"id": "football/2015/mar/28/england-roy-hodgson-urges-caution", "type": "article", "sectionId": "football", "sectionName": "Football", "webPublicationDate": "2015-03-28T22:30:06Z", "webTitle": "England supporters sense exciting future but Roy Hodgson urges caution", "webUrl": "https://www.theguardian.com/football/2015/mar/28/england-roy-hodgson-urges-caution", "apiUrl": "https://content.guardianapis.com/football/2015/mar/28/england-roy-hodgson-urges-caution", "isHosted": false, "pillarId": "pillar/sport", "pillarName": "Sport"}, {"id": "football/2015/mar/28/ireland-martin-oneill-poland", "type": "article", "sectionId": "football", "sectionName": "Football", "webPublicationDate": "2015-03-28T22:00:06Z", "webTitle": "Ireland\u2019s Martin O\u2019Neill seeking landmark home victory over Poland", "webUrl": "https://www.theguardian.com/football/2015/mar/28/ireland-martin-oneill-poland", "apiUrl": "https://content.guardianapis.com/football/2015/mar/28/ireland-martin-oneill-poland", "isHosted": false, "pillarId": "pillar/sport", "pillarName": "Sport"}, {"id": "football/2015/mar/28/patrick-kluivert-world-cup-history-curacao", "type": "article", "sectionId": "football", "sectionName": "Football", "webPublicationDate": "2015-03-28T22:00:06Z", "webTitle": "Patrick Kluivert hopes to make unlikely World Cup history with Cura\u00e7ao | Nick Ames", "webUrl": "https://www.theguardian.com/football/2015/mar/28/patrick-kluivert-world-cup-history-curacao", "apiUrl": "https://content.guardianapis.com/football/2015/mar/28/patrick-kluivert-world-cup-history-curacao", "isHosted": false, "pillarId": "pillar/sport", "pillarName": "Sport"}, {"id": "football/2015/mar/28/referees-football-assessment-performance", "type": "article", "sectionId": "football", "sectionName": "Football", "webPublicationDate": "2015-03-28T22:00:06Z", "webTitle": "Man marking: the complex art of assessing a referee\u2019s performance", "webUrl": "https://www.theguardian.com/football/2015/mar/28/referees-football-assessment-performance", "apiUrl": "https://content.guardianapis.com/football/2015/mar/28/referees-football-assessment-performance", "isHosted": false, "pillarId": "pillar/sport", "pillarName": "Sport"}, {"id": "football/blog/2015/mar/28/premier-league-referees", "type": "article", "sectionId": "football", "sectionName": "Football", "webPublicationDate": "2015-03-28T22:00:06Z", "webTitle": "Meet the new men in black training to make Premier League tough calls | Amy Lawrence", "webUrl": "https://www.theguardian.com/football/blog/2015/mar/28/premier-league-referees", "apiUrl": "https://content.guardianapis.com/football/blog/2015/mar/28/premier-league-referees", "isHosted": false, "pillarId": "pillar/sport", "pillarName": "Sport"}, {"id": "football/blog/2015/mar/28/football-action-network-manifesto-this-game-is-our-game-general-election-premier-league", "type": "article", "sectionId": "football", "sectionName": "Football", "webPublicationDate": "2015-03-28T22:00:06Z", "webTitle": "Reclaiming football for all: presenting the manifesto for a better game | David Goldblatt", "webUrl": "https://www.theguardian.com/football/blog/2015/mar/28/football-action-network-manifesto-this-game-is-our-game-general-election-premier-league", "apiUrl": "https://content.guardianapis.com/football/blog/2015/mar/28/football-action-network-manifesto-this-game-is-our-game-general-election-premier-league", "isHosted": false, "pillarId": "pillar/sport", "pillarName": "Sport"}, {"id": "football/2015/mar/28/referees-football-match-day-routine-sport", "type": "article", "sectionId": "football", "sectionName": "Football", "webPublicationDate": "2015-03-28T22:00:06Z", "webTitle": "A day in the life of a referee: Lee Swabey\u2019s match routine", "webUrl": "https://www.theguardian.com/football/2015/mar/28/referees-football-match-day-routine-sport", "apiUrl": "https://content.guardianapis.com/football/2015/mar/28/referees-football-match-day-routine-sport", "isHosted": false, "pillarId": "pillar/sport", "pillarName": "Sport"}, {"id": "football/blog/2015/mar/28/northern-ireland-finland-european-championship-qualifiers", "type": "article", "sectionId": "football", "sectionName": "Football", "webPublicationDate": "2015-03-28T22:00:06Z", "webTitle": "Northern Ireland dare to dream as biggest night in 30 years awaits | Julian Taylor", "webUrl": "https://www.theguardian.com/football/blog/2015/mar/28/northern-ireland-finland-european-championship-qualifiers", "apiUrl": "https://content.guardianapis.com/football/blog/2015/mar/28/northern-ireland-finland-european-championship-qualifiers", "isHosted": false, "pillarId": "pillar/sport", "pillarName": "Sport"}, {"id": "football/blog/2015/mar/28/gibraltar-visit-scotland-bemusement-european-championship-qualifier", "type": "article", "sectionId": "football", "sectionName": "Football", "webPublicationDate": "2015-03-28T22:00:06Z", "webTitle": "Gibraltar\u2019s visit to Scotland viewed with some bemusement | Ewan Murray", "webUrl": "https://www.theguardian.com/football/blog/2015/mar/28/gibraltar-visit-scotland-bemusement-european-championship-qualifier", "apiUrl": "https://content.guardianapis.com/football/blog/2015/mar/28/gibraltar-visit-scotland-bemusement-european-championship-qualifier", "isHosted": false, "pillarId": "pillar/sport", "pillarName": "Sport"}, {"id": "football/live/2015/mar/28/euro-2016-qualifying-clockwatch-live", "type": "liveblog", "sectionId": "football", "sectionName": "Football", "webPublicationDate": "2015-03-28T21:52:08Z", "webTitle": "Euro 2016 qualifying clockwatch \u2013 as it happened", "webUrl": "https://www.theguardian.com/football/live/2015/mar/28/euro-2016-qualifying-clockwatch-live", "apiUrl": "https://content.guardianapis.com/football/live/2015/mar/28/euro-2016-qualifying-clockwatch-live", "isHosted": false, "pillarId": "pillar/sport", "pillarName": "Sport"}, {"id": "football/2015/mar/28/said-and-done-michel-platini", "type": "article", "sectionId": "football", "sectionName": "Football", "webPublicationDate": "2015-03-28T21:00:04Z", "webTitle": "Said & Done: Michel Platini; mixed birds; and Vampeta\u2019s regrets", "webUrl": "https://www.theguardian.com/football/2015/mar/28/said-and-done-michel-platini", "apiUrl": "https://content.guardianapis.com/football/2015/mar/28/said-and-done-michel-platini", "isHosted": false, "pillarId": "pillar/sport", "pillarName": "Sport"}, {"id": "football/2015/mar/28/israel-wales-euro-2016-qualifying-match-report", "type": "article", "sectionId": "football", "sectionName": "Football", "webPublicationDate": "2015-03-28T19:26:58Z", "webTitle": "Israel 0-3 Wales | Euro 2016 qualifying Group B match report", "webUrl": "https://www.theguardian.com/football/2015/mar/28/israel-wales-euro-2016-qualifying-match-report", "apiUrl": "https://content.guardianapis.com/football/2015/mar/28/israel-wales-euro-2016-qualifying-match-report", "isHosted": false, "pillarId": "pillar/sport", "pillarName": "Sport"}, {"id": "football/live/2015/mar/28/israel-wales-euro-2016-qualifier-live", "type": "liveblog", "sectionId": "football", "sectionName": "Football", "webPublicationDate": "2015-03-28T18:51:16Z", "webTitle": "Israel v Wales: Euro 2016 Group B qualifier \u2013 as it happened", "webUrl": "https://www.theguardian.com/football/live/2015/mar/28/israel-wales-euro-2016-qualifier-live", "apiUrl": "https://content.guardianapis.com/football/live/2015/mar/28/israel-wales-euro-2016-qualifier-live", "isHosted": false, "pillarId": "pillar/sport", "pillarName": "Sport"}, {"id": "football/blog/2015/mar/28/duncan-edwards-original-boy-wonder-greatest", "type": "article", "sectionId": "football", "sectionName": "Football", "webPublicationDate": "2015-03-28T18:00:01Z", "webTitle": "Could Duncan Edwards, the original Boy Wonder, have been the greatest? | Daniel Taylor", "webUrl": "https://www.theguardian.com/football/blog/2015/mar/28/duncan-edwards-original-boy-wonder-greatest", "apiUrl": "https://content.guardianapis.com/football/blog/2015/mar/28/duncan-edwards-original-boy-wonder-greatest", "isHosted": false, "pillarId": "pillar/sport", "pillarName": "Sport"}, {"id": "football/2015/mar/28/sheffield-united-crewe-alexandra-league-one-match-report", "type": "article", "sectionId": "football", "sectionName": "Football", "webPublicationDate": "2015-03-28T17:30:52Z", "webTitle": "Sheffield United 1-2 Crewe Alexandra | League One match report", "webUrl": "https://www.theguardian.com/football/2015/mar/28/sheffield-united-crewe-alexandra-league-one-match-report", "apiUrl": "https://content.guardianapis.com/football/2015/mar/28/sheffield-united-crewe-alexandra-league-one-match-report", "isHosted": false, "pillarId": "pillar/sport", "pillarName": "Sport"}, {"id": "football/football-league-blog/2015/mar/28/football-league-your-thoughts-bristol-city", "type": "article", "sectionId": "football", "sectionName": "Football", "webPublicationDate": "2015-03-28T17:30:25Z", "webTitle": "Football League: your thoughts", "webUrl": "https://www.theguardian.com/football/football-league-blog/2015/mar/28/football-league-your-thoughts-bristol-city", "apiUrl": "https://content.guardianapis.com/football/football-league-blog/2015/mar/28/football-league-your-thoughts-bristol-city", "isHosted": false, "pillarId": "pillar/sport", "pillarName": "Sport"}, {"id": "sport/2015/mar/28/the-agenda-wrexham-fa-trophy-wembley", "type": "article", "sectionId": "sport", "sectionName": "Sport", "webPublicationDate": "2015-03-28T15:17:14Z", "webTitle": "The Agenda: Wrexham set sights on second FA Trophy win in three years", "webUrl": "https://www.theguardian.com/sport/2015/mar/28/the-agenda-wrexham-fa-trophy-wembley", "apiUrl": "https://content.guardianapis.com/sport/2015/mar/28/the-agenda-wrexham-fa-trophy-wembley", "isHosted": false, "pillarId": "pillar/sport", "pillarName": "Sport"}, {"id": "football/2015/mar/28/danny-welbeck-baines-milner-england", "type": "article", "sectionId": "football", "sectionName": "Football", "webPublicationDate": "2015-03-28T13:44:51Z", "webTitle": "Danny Welbeck, Leighton Baines and James Milner out of England squad", "webUrl": "https://www.theguardian.com/football/2015/mar/28/danny-welbeck-baines-milner-england", "apiUrl": "https://content.guardianapis.com/football/2015/mar/28/danny-welbeck-baines-milner-england", "isHosted": false, "pillarId": "pillar/sport", "pillarName": "Sport"}, {"id": "football/live/2015/mar/28/a-league-melbourne-city-v-brisbane-roar-live", "type": "liveblog", "sectionId": "football", "sectionName": "Football", "webPublicationDate": "2015-03-28T10:43:36Z", "webTitle": "A-League: Melbourne City 1-0 Brisbane Roar - as it happened", "webUrl": "https://www.theguardian.com/football/live/2015/mar/28/a-league-melbourne-city-v-brisbane-roar-live", "apiUrl": "https://content.guardianapis.com/football/live/2015/mar/28/a-league-melbourne-city-v-brisbane-roar-live", "isHosted": false, "pillarId": "pillar/sport", "pillarName": "Sport"}]}}