{"response": {"status": "ok", "userTier": "developer", "total": 94038, "startIndex": 1, "pageSize": 50, "currentPage": 1, "pages": 1881, "orderBy": "newest", "results": [{"id": "football/2017/mar/30/brian-kilcline-footballer-coventry-city", "type": "article", "sectionId": "football", "sectionName": "Football", "webPublicationDate": "2017-03-30T21:15:00Z", "webTitle": "Brian Kilcline: \u2018I loved playing but the footballer is not who I am\u2019", "webUrl": "https://www.theguardian.com/football/2017/mar/30/brian-kilcline-footballer-coventry-city", "apiUrl": "https://content.guardianapis.com/football/2017/mar/30/brian-kilcline-footballer-coventry-city", "isHosted": false, "pillarId": "pillar/sport", "pillarName": "Sport"}, {"id": "football/2017/mar/30/manchester-city-fortuna-hjorring-womens-champions-league-match-report", "type": "article", "sectionId": "football", "sectionName": "Football", "webPublicationDate": "2017-03-30T20:56:37Z", "webTitle": "Lucy Bronze gives Manchester City victory and sets up Lyon clash", "webUrl": "https://www.theguardian.com/football/2017/mar/30/manchester-city-fortuna-hjorring-womens-champions-league-match-report", "apiUrl": "https://content.guardianapis.com/football/2017/mar/30/manchester-city-fortuna-hjorring-womens-champions-league-match-report", "isHosted": false, "pillarId": "pillar/sport", "pillarName": "Sport"}, {"id": "football/2017/mar/30/liverpool-transfer-ban-academy-players", "type": "article", "sectionId": "football", "sectionName": "Football", "webPublicationDate": "2017-03-30T20:06:01Z", "webTitle": "Liverpool face fine and transfer ban after tapping up Stoke schoolboy", "webUrl": "https://www.theguardian.com/football/2017/mar/30/liverpool-transfer-ban-academy-players", "apiUrl": "https://content.guardianapis.com/football/2017/mar/30/liverpool-transfer-ban-academy-players", "isHosted": false, "pillarId": "pillar/sport", "pillarName": "Sport"}, {"id": "football/2017/mar/31/canberra-city-a-blueprint-for-current-a-league-expansion-hopefuls", "type": "article", "sectionId": "football", "sectionName": "Football", "webPublicationDate": "2017-03-30T19:00:34Z", "webTitle": "Canberra City: a blueprint for current A-League expansion hopefuls | Joe Gorman", "webUrl": "https://www.theguardian.com/football/2017/mar/31/canberra-city-a-blueprint-for-current-a-league-expansion-hopefuls", "apiUrl": "https://content.guardianapis.com/football/2017/mar/31/canberra-city-a-blueprint-for-current-a-league-expansion-hopefuls", "isHosted": false, "pillarId": "pillar/sport", "pillarName": "Sport"}, {"id": "football/2017/mar/30/everton-striker-romelu-lukaku", "type": "article", "sectionId": "football", "sectionName": "Football", "webPublicationDate": "2017-03-30T17:00:32Z", "webTitle": "Everton\u2019s Romelu Lukaku is a traditional No9 who could play in any era", "webUrl": "https://www.theguardian.com/football/2017/mar/30/everton-striker-romelu-lukaku", "apiUrl": "https://content.guardianapis.com/football/2017/mar/30/everton-striker-romelu-lukaku", "isHosted": false, "pillarId": "pillar/sport", "pillarName": "Sport"}, {"id": "football/2017/mar/30/jose-mourinho-manchester-united-18-match-run", "type": "article", "sectionId": "football", "sectionName": "Football", "webPublicationDate": "2017-03-30T14:55:08Z", "webTitle": "Manchester United's unbeaten run propels them on to testing run-in | Jamie Jackson", "webUrl": "https://www.theguardian.com/football/2017/mar/30/jose-mourinho-manchester-united-18-match-run", "apiUrl": "https://content.guardianapis.com/football/2017/mar/30/jose-mourinho-manchester-united-18-match-run", "isHosted": false, "pillarId": "pillar/sport", "pillarName": "Sport"}, {"id": "football/2017/mar/30/a-valiant-attempt-to-not-do-a-press-interview", "type": "article", "sectionId": "football", "sectionName": "Football", "webPublicationDate": "2017-03-30T14:51:46Z", "webTitle": "A valiant attempt to not do a press interview", "webUrl": "https://www.theguardian.com/football/2017/mar/30/a-valiant-attempt-to-not-do-a-press-interview", "apiUrl": "https://content.guardianapis.com/football/2017/mar/30/a-valiant-attempt-to-not-do-a-press-interview", "isHosted": false, "pillarId": "pillar/sport", "pillarName": "Sport"}, {"id": "football/2017/mar/30/mauricio-pochettino-tottenham-barcelona", "type": "article", "sectionId": "football", "sectionName": "Football", "webPublicationDate": "2017-03-30T13:59:39Z", "webTitle": "Tottenham\u2019s Mauricio Pochettino: I will never manage Barcelona", "webUrl": "https://www.theguardian.com/football/2017/mar/30/mauricio-pochettino-tottenham-barcelona", "apiUrl": "https://content.guardianapis.com/football/2017/mar/30/mauricio-pochettino-tottenham-barcelona", "isHosted": false, "pillarId": "pillar/sport", "pillarName": "Sport"}, {"id": "football/2017/mar/30/southampton-fear-captain-virgil-van-dijk-ruled-out-rest-season", "type": "article", "sectionId": "football", "sectionName": "Football", "webPublicationDate": "2017-03-30T13:23:43Z", "webTitle": "Southampton fear Virgil van Dijk will be ruled out for rest of season", "webUrl": "https://www.theguardian.com/football/2017/mar/30/southampton-fear-captain-virgil-van-dijk-ruled-out-rest-season", "apiUrl": "https://content.guardianapis.com/football/2017/mar/30/southampton-fear-captain-virgil-van-dijk-ruled-out-rest-season", "isHosted": false, "pillarId": "pillar/sport", "pillarName": "Sport"}, {"id": "football/2017/mar/30/expected-goals-big-football-data-leicester-city-norwich", "type": "article", "sectionId": "football", "sectionName": "Football", "webPublicationDate": "2017-03-30T11:30:25Z", "webTitle": "Expected goals and Big Football Data: the statistics revolution that is here to stay", "webUrl": "https://www.theguardian.com/football/2017/mar/30/expected-goals-big-football-data-leicester-city-norwich", "apiUrl": "https://content.guardianapis.com/football/2017/mar/30/expected-goals-big-football-data-leicester-city-norwich", "isHosted": false, "pillarId": "pillar/sport", "pillarName": "Sport"}, {"id": "football/2017/mar/30/borussia-dortmund-mo-dahoud-youth-recruitment", "type": "article", "sectionId": "football", "sectionName": "Football", "webPublicationDate": "2017-03-30T11:29:27Z", "webTitle": "Borussia Dortmund step up recruitment drive with \u00a310.3m Mo Dahoud signing", "webUrl": "https://www.theguardian.com/football/2017/mar/30/borussia-dortmund-mo-dahoud-youth-recruitment", "apiUrl": "https://content.guardianapis.com/football/2017/mar/30/borussia-dortmund-mo-dahoud-youth-recruitment", "isHosted": false, "pillarId": "pillar/sport", "pillarName": "Sport"}, {"id": "football/2017/mar/30/cristiano-ronaldo-sculptor-impossible-everyone", "type": "article", "sectionId": "football", "sectionName": "Football", "webPublicationDate": "2017-03-30T09:40:06Z", "webTitle": "Cristiano Ronaldo sculptor: it is impossible to please everyone", "webUrl": "https://www.theguardian.com/football/2017/mar/30/cristiano-ronaldo-sculptor-impossible-everyone", "apiUrl": "https://content.guardianapis.com/football/2017/mar/30/cristiano-ronaldo-sculptor-impossible-everyone", "isHosted": false, "pillarId": "pillar/sport", "pillarName": "Sport"}, {"id": "football/blog/2017/mar/30/new-york-cosmos-nasl-tryouts", "type": "article", "sectionId": "football", "sectionName": "Football", "webPublicationDate": "2017-03-30T09:00:23Z", "webTitle": "I tried out for the New York Cosmos. Would I make the grade? | Adam Gabbatt", "webUrl": "https://www.theguardian.com/football/blog/2017/mar/30/new-york-cosmos-nasl-tryouts", "apiUrl": "https://content.guardianapis.com/football/blog/2017/mar/30/new-york-cosmos-nasl-tryouts", "isHosted": false, "pillarId": "pillar/sport", "pillarName": "Sport"}, {"id": "sport/2017/mar/30/classic-youtube-best-sports-clips", "type": "article", "sectionId": "sport", "sectionName": "Sport", "webPublicationDate": "2017-03-30T09:00:22Z", "webTitle": "Coventry at Wembley, Boat Race drama and Gigi Buffon at his best | Classic YouTube", "webUrl": "https://www.theguardian.com/sport/2017/mar/30/classic-youtube-best-sports-clips", "apiUrl": "https://content.guardianapis.com/sport/2017/mar/30/classic-youtube-best-sports-clips", "isHosted": false, "pillarId": "pillar/sport", "pillarName": "Sport"}, {"id": "football/2017/mar/30/football-transfer-rumour-mill-chelsea-civil-war-striker-signing", "type": "article", "sectionId": "football", "sectionName": "Football", "webPublicationDate": "2017-03-30T08:03:06Z", "webTitle": "Football transfer rumours: Morata, Lukaku or S\u00e1nchez to Chelsea?", "webUrl": "https://www.theguardian.com/football/2017/mar/30/football-transfer-rumour-mill-chelsea-civil-war-striker-signing", "apiUrl": "https://content.guardianapis.com/football/2017/mar/30/football-transfer-rumour-mill-chelsea-civil-war-striker-signing", "isHosted": false, "pillarId": "pillar/sport", "pillarName": "Sport"}, {"id": "football/2017/mar/30/leyton-orient-manager-danny-webb-quits", "type": "article", "sectionId": "football", "sectionName": "Football", "webPublicationDate": "2017-03-30T07:51:03Z", "webTitle": "Danny Webb quits as Leyton Orient manager after only two months", "webUrl": "https://www.theguardian.com/football/2017/mar/30/leyton-orient-manager-danny-webb-quits", "apiUrl": "https://content.guardianapis.com/football/2017/mar/30/leyton-orient-manager-danny-webb-quits", "isHosted": false, "pillarId": "pillar/sport", "pillarName": "Sport"}, {"id": "football/2017/mar/30/footballers-statues-quiz-cristiano-ronaldo", "type": "article", "sectionId": "football", "sectionName": "Football", "webPublicationDate": "2017-03-30T07:00:20Z", "webTitle": "Who are the footballers celebrated in these statues? \u2013\u00a0quiz", "webUrl": "https://www.theguardian.com/football/2017/mar/30/footballers-statues-quiz-cristiano-ronaldo", "apiUrl": "https://content.guardianapis.com/football/2017/mar/30/footballers-statues-quiz-cristiano-ronaldo", "isHosted": false, "pillarId": "pillar/sport", "pillarName": "Sport"}, {"id": "football/2017/mar/30/cristiano-ronaldo-bust-social-media-madeira-statue-reaction", "type": "article", "sectionId": "football", "sectionName": "Football", "webPublicationDate": "2017-03-30T02:13:10Z", "webTitle": "Ronaldo or bust: social media gives statue of footballer a black eye", "webUrl": "https://www.theguardian.com/football/2017/mar/30/cristiano-ronaldo-bust-social-media-madeira-statue-reaction", "apiUrl": "https://content.guardianapis.com/football/2017/mar/30/cristiano-ronaldo-bust-social-media-madeira-statue-reaction", "isHosted": false, "pillarId": "pillar/sport", "pillarName": "Sport"}, {"id": "football/2017/mar/29/liverpool-hopeful-dejan-lovren-will-extend-stay-anfield", "type": "article", "sectionId": "football", "sectionName": "Football", "webPublicationDate": "2017-03-29T21:30:08Z", "webTitle": "Liverpool hopeful Dejan Lovren will extend stay at Anfield", "webUrl": "https://www.theguardian.com/football/2017/mar/29/liverpool-hopeful-dejan-lovren-will-extend-stay-anfield", "apiUrl": "https://content.guardianapis.com/football/2017/mar/29/liverpool-hopeful-dejan-lovren-will-extend-stay-anfield", "isHosted": false, "pillarId": "pillar/sport", "pillarName": "Sport"}, {"id": "football/2017/mar/29/watford-mbaye-niang", "type": "article", "sectionId": "football", "sectionName": "Football", "webPublicationDate": "2017-03-29T19:52:00Z", "webTitle": "Watford\u2019s M\u2019Baye Niang: \u2018I\u2019m all about strength, skill, pace, taking people on\u2019", "webUrl": "https://www.theguardian.com/football/2017/mar/29/watford-mbaye-niang", "apiUrl": "https://content.guardianapis.com/football/2017/mar/29/watford-mbaye-niang", "isHosted": false, "pillarId": "pillar/sport", "pillarName": "Sport"}, {"id": "football/2017/mar/29/alexis-sanchez-claims-he-wants-to-finish-contract-with-arsenal", "type": "article", "sectionId": "football", "sectionName": "Football", "webPublicationDate": "2017-03-29T19:48:58Z", "webTitle": "Alexis S\u00e1nchez claims he wants to finish his contract with Arsenal", "webUrl": "https://www.theguardian.com/football/2017/mar/29/alexis-sanchez-claims-he-wants-to-finish-contract-with-arsenal", "apiUrl": "https://content.guardianapis.com/football/2017/mar/29/alexis-sanchez-claims-he-wants-to-finish-contract-with-arsenal", "isHosted": false, "pillarId": "pillar/sport", "pillarName": "Sport"}, {"id": "football/2017/mar/29/premier-league-illegal-streaming-tv-audiences", "type": "article", "sectionId": "football", "sectionName": "Football", "webPublicationDate": "2017-03-29T19:38:26Z", "webTitle": "Premier League launches major fightback against illegal streaming", "webUrl": "https://www.theguardian.com/football/2017/mar/29/premier-league-illegal-streaming-tv-audiences", "apiUrl": "https://content.guardianapis.com/football/2017/mar/29/premier-league-illegal-streaming-tv-audiences", "isHosted": false, "pillarId": "pillar/sport", "pillarName": "Sport"}, {"id": "football/ng-interactive/2017/mar/30/david-squires-on-the-socceroos-world-cup-qualifying-campaign", "type": "interactive", "sectionId": "football", "sectionName": "Football", "webPublicationDate": "2017-03-29T19:00:05Z", "webTitle": "David Squires on ... the Socceroos' World Cup qualifying campaign", "webUrl": "https://www.theguardian.com/football/ng-interactive/2017/mar/30/david-squires-on-the-socceroos-world-cup-qualifying-campaign", "apiUrl": "https://content.guardianapis.com/football/ng-interactive/2017/mar/30/david-squires-on-the-socceroos-world-cup-qualifying-campaign", "isHosted": false, "pillarId": "pillar/sport", "pillarName": "Sport"}, {"id": "football/blog/2017/mar/29/wilfried-zaha-england-ivory-coast", "type": "article", "sectionId": "football", "sectionName": "Football", "webPublicationDate": "2017-03-29T17:00:23Z", "webTitle": "Blinkered criticism of Wilfried Zaha shows startling insularity | Barney Ronay", "webUrl": "https://www.theguardian.com/football/blog/2017/mar/29/wilfried-zaha-england-ivory-coast", "apiUrl": "https://content.guardianapis.com/football/blog/2017/mar/29/wilfried-zaha-england-ivory-coast", "isHosted": false, "pillarId": "pillar/sport", "pillarName": "Sport"}, {"id": "football/2017/mar/29/tottenham-erik-lamela-hip-surgery", "type": "article", "sectionId": "football", "sectionName": "Football", "webPublicationDate": "2017-03-29T16:02:15Z", "webTitle": "Erik Lamela may have played last game for Tottenham due to hip injury", "webUrl": "https://www.theguardian.com/football/2017/mar/29/tottenham-erik-lamela-hip-surgery", "apiUrl": "https://content.guardianapis.com/football/2017/mar/29/tottenham-erik-lamela-hip-surgery", "isHosted": false, "pillarId": "pillar/sport", "pillarName": "Sport"}, {"id": "football/2017/mar/29/manchester-city-carli-lloyd-champions-league-quarter-final", "type": "article", "sectionId": "football", "sectionName": "Football", "webPublicationDate": "2017-03-29T15:29:39Z", "webTitle": "Manchester City praise impact of Carli Lloyd before Champions League quarter-final", "webUrl": "https://www.theguardian.com/football/2017/mar/29/manchester-city-carli-lloyd-champions-league-quarter-final", "apiUrl": "https://content.guardianapis.com/football/2017/mar/29/manchester-city-carli-lloyd-champions-league-quarter-final", "isHosted": false, "pillarId": "pillar/sport", "pillarName": "Sport"}, {"id": "football/2017/mar/29/the-fiver-argentina-state-of-world-cup", "type": "article", "sectionId": "football", "sectionName": "Football", "webPublicationDate": "2017-03-29T14:54:00Z", "webTitle": "The Fiver | For the good of us all, it is imperative that Argentina improve", "webUrl": "https://www.theguardian.com/football/2017/mar/29/the-fiver-argentina-state-of-world-cup", "apiUrl": "https://content.guardianapis.com/football/2017/mar/29/the-fiver-argentina-state-of-world-cup", "isHosted": false, "pillarId": "pillar/sport", "pillarName": "Sport"}, {"id": "football/blog/2017/mar/29/usa-world-cup-qualifiers-christian-pulisic-bruce-arena", "type": "article", "sectionId": "football", "sectionName": "Football", "webPublicationDate": "2017-03-29T14:08:42Z", "webTitle": "What we learned from USA's qualifiers: the case for and against Pulisic", "webUrl": "https://www.theguardian.com/football/blog/2017/mar/29/usa-world-cup-qualifiers-christian-pulisic-bruce-arena", "apiUrl": "https://content.guardianapis.com/football/blog/2017/mar/29/usa-world-cup-qualifiers-christian-pulisic-bruce-arena", "isHosted": false, "pillarId": "pillar/sport", "pillarName": "Sport"}, {"id": "football/2017/mar/29/manchester-united-zlatan-ibrahimovic-hints-extend-contract", "type": "article", "sectionId": "football", "sectionName": "Football", "webPublicationDate": "2017-03-29T13:51:50Z", "webTitle": "Zlatan Ibrahimovic hints he will stay at Manchester United beyond summer", "webUrl": "https://www.theguardian.com/football/2017/mar/29/manchester-united-zlatan-ibrahimovic-hints-extend-contract", "apiUrl": "https://content.guardianapis.com/football/2017/mar/29/manchester-united-zlatan-ibrahimovic-hints-extend-contract", "isHosted": false, "pillarId": "pillar/sport", "pillarName": "Sport"}, {"id": "football/2017/mar/29/vauxhall-end-seven-year-sponsorship-football-england-wales-scotland-northern-ireland", "type": "article", "sectionId": "football", "sectionName": "Football", "webPublicationDate": "2017-03-29T12:52:38Z", "webTitle": "Vauxhall to end sponsorship deal with England and other home nations", "webUrl": "https://www.theguardian.com/football/2017/mar/29/vauxhall-end-seven-year-sponsorship-football-england-wales-scotland-northern-ireland", "apiUrl": "https://content.guardianapis.com/football/2017/mar/29/vauxhall-end-seven-year-sponsorship-football-england-wales-scotland-northern-ireland", "isHosted": false, "pillarId": "pillar/sport", "pillarName": "Sport"}, {"id": "football/blog/2017/mar/29/fifa-ban-neil-taylor-lionel-messi-seamus-coleman", "type": "article", "sectionId": "football", "sectionName": "Football", "webPublicationDate": "2017-03-29T11:04:55Z", "webTitle": "If Fifa is serious about reckless play, it must ban Taylor for longer than Messi", "webUrl": "https://www.theguardian.com/football/blog/2017/mar/29/fifa-ban-neil-taylor-lionel-messi-seamus-coleman", "apiUrl": "https://content.guardianapis.com/football/blog/2017/mar/29/fifa-ban-neil-taylor-lionel-messi-seamus-coleman", "isHosted": false, "pillarId": "pillar/sport", "pillarName": "Sport"}, {"id": "football/blog/2017/mar/29/the-joy-of-six-nearly-premier-league-teams", "type": "article", "sectionId": "football", "sectionName": "Football", "webPublicationDate": "2017-03-29T10:41:48Z", "webTitle": "The Joy of Six: nearly Premier League teams | Jacob Steinberg", "webUrl": "https://www.theguardian.com/football/blog/2017/mar/29/the-joy-of-six-nearly-premier-league-teams", "apiUrl": "https://content.guardianapis.com/football/blog/2017/mar/29/the-joy-of-six-nearly-premier-league-teams", "isHosted": false, "pillarId": "pillar/sport", "pillarName": "Sport"}, {"id": "football/2017/mar/29/is-the-merseyside-derby-the-dirtiest-premier-league-game", "type": "article", "sectionId": "football", "sectionName": "Football", "webPublicationDate": "2017-03-29T09:15:18Z", "webTitle": "Is the Merseyside derby the dirtiest Premier League game? | The Knowledge", "webUrl": "https://www.theguardian.com/football/2017/mar/29/is-the-merseyside-derby-the-dirtiest-premier-league-game", "apiUrl": "https://content.guardianapis.com/football/2017/mar/29/is-the-merseyside-derby-the-dirtiest-premier-league-game", "isHosted": false, "pillarId": "pillar/sport", "pillarName": "Sport"}, {"id": "commentisfree/2017/mar/29/veganism-jermain-defoe-plant-diet", "type": "article", "sectionId": "commentisfree", "sectionName": "Opinion", "webPublicationDate": "2017-03-29T08:59:25Z", "webTitle": "Veganism raises your game. Just ask Jermain Defoe | Jamie Berger", "webUrl": "https://www.theguardian.com/commentisfree/2017/mar/29/veganism-jermain-defoe-plant-diet", "apiUrl": "https://content.guardianapis.com/commentisfree/2017/mar/29/veganism-jermain-defoe-plant-diet", "isHosted": false, "pillarId": "pillar/opinion", "pillarName": "Opinion"}, {"id": "football/blog/2017/mar/29/international-football-10-talking-points-from-the-latest-matches", "type": "article", "sectionId": "football", "sectionName": "Football", "webPublicationDate": "2017-03-29T08:58:01Z", "webTitle": "International football: 10 talking points from the latest matches", "webUrl": "https://www.theguardian.com/football/blog/2017/mar/29/international-football-10-talking-points-from-the-latest-matches", "apiUrl": "https://content.guardianapis.com/football/blog/2017/mar/29/international-football-10-talking-points-from-the-latest-matches", "isHosted": false, "pillarId": "pillar/sport", "pillarName": "Sport"}, {"id": "football/2017/mar/29/football-transfer-rumours-manchester-united-to-splash-40m-on-eric-dier", "type": "article", "sectionId": "football", "sectionName": "Football", "webPublicationDate": "2017-03-29T07:31:27Z", "webTitle": "Football transfer rumours: Manchester United to splash \u00a340m on Eric Dier?", "webUrl": "https://www.theguardian.com/football/2017/mar/29/football-transfer-rumours-manchester-united-to-splash-40m-on-eric-dier", "apiUrl": "https://content.guardianapis.com/football/2017/mar/29/football-transfer-rumours-manchester-united-to-splash-40m-on-eric-dier", "isHosted": false, "pillarId": "pillar/sport", "pillarName": "Sport"}, {"id": "football/2017/mar/29/hillsborough-law-could-imprison-police-officers-who-are-not-truthful", "type": "article", "sectionId": "football", "sectionName": "Football", "webPublicationDate": "2017-03-29T05:00:48Z", "webTitle": "'Hillsborough law' could imprison police officers who are not truthful", "webUrl": "https://www.theguardian.com/football/2017/mar/29/hillsborough-law-could-imprison-police-officers-who-are-not-truthful", "apiUrl": "https://content.guardianapis.com/football/2017/mar/29/hillsborough-law-could-imprison-police-officers-who-are-not-truthful", "isHosted": false, "pillarId": "pillar/sport", "pillarName": "Sport"}, {"id": "football/2017/mar/29/usa-world-cup-qualifying-point-panama", "type": "article", "sectionId": "football", "sectionName": "Football", "webPublicationDate": "2017-03-29T04:13:33Z", "webTitle": "USA fail to hit the heights but pick up useful point against Panama", "webUrl": "https://www.theguardian.com/football/2017/mar/29/usa-world-cup-qualifying-point-panama", "apiUrl": "https://content.guardianapis.com/football/2017/mar/29/usa-world-cup-qualifying-point-panama", "isHosted": false, "pillarId": "pillar/sport", "pillarName": "Sport"}, {"id": "football/live/2017/mar/28/panama-usa-world-cup-qualifying-live", "type": "liveblog", "sectionId": "football", "sectionName": "Football", "webPublicationDate": "2017-03-29T04:06:31Z", "webTitle": "Panama 1-1 USA: World Cup qualifying \u2013 as it happened", "webUrl": "https://www.theguardian.com/football/live/2017/mar/28/panama-usa-world-cup-qualifying-live", "apiUrl": "https://content.guardianapis.com/football/live/2017/mar/28/panama-usa-world-cup-qualifying-live", "isHosted": false, "pillarId": "pillar/sport", "pillarName": "Sport"}, {"id": "football/2017/mar/28/international-roundup-france-video-assistant-referee-spain", "type": "article", "sectionId": "football", "sectionName": "Football", "webPublicationDate": "2017-03-28T23:18:36Z", "webTitle": "France foiled by video assistant referee in defeat against Spain", "webUrl": "https://www.theguardian.com/football/2017/mar/28/international-roundup-france-video-assistant-referee-spain", "apiUrl": "https://content.guardianapis.com/football/2017/mar/28/international-roundup-france-video-assistant-referee-spain", "isHosted": false, "pillarId": "pillar/sport", "pillarName": "Sport"}, {"id": "football/2017/mar/28/lionel-messi-banned-four-argentina-matches-insulting-official", "type": "article", "sectionId": "football", "sectionName": "Football", "webPublicationDate": "2017-03-28T23:15:19Z", "webTitle": "Argentina suffer setback in Bolivia after Lionel Messi banned for four games", "webUrl": "https://www.theguardian.com/football/2017/mar/28/lionel-messi-banned-four-argentina-matches-insulting-official", "apiUrl": "https://content.guardianapis.com/football/2017/mar/28/lionel-messi-banned-four-argentina-matches-insulting-official", "isHosted": false, "pillarId": "pillar/sport", "pillarName": "Sport"}, {"id": "tv-and-radio/2017/mar/28/rio-ferdinand-being-mum-and-dad-loss-grief-death-wife", "type": "article", "sectionId": "tv-and-radio", "sectionName": "Television & radio", "webPublicationDate": "2017-03-28T21:00:39Z", "webTitle": "Rio Ferdinand: Being Mum and Dad review \u2013 a moving account of loss", "webUrl": "https://www.theguardian.com/tv-and-radio/2017/mar/28/rio-ferdinand-being-mum-and-dad-loss-grief-death-wife", "apiUrl": "https://content.guardianapis.com/tv-and-radio/2017/mar/28/rio-ferdinand-being-mum-and-dad-loss-grief-death-wife", "isHosted": false, "pillarId": "pillar/arts", "pillarName": "Arts"}, {"id": "football/live/2017/mar/28/france-v-spain-holland-v-italy-and-more-international-clockwatch-live", "type": "liveblog", "sectionId": "football", "sectionName": "Football", "webPublicationDate": "2017-03-28T20:58:03Z", "webTitle": "France 0-2 Spain, Holland 1-2 Italy and more: international clockwatch \u2013 as it happened", "webUrl": "https://www.theguardian.com/football/live/2017/mar/28/france-v-spain-holland-v-italy-and-more-international-clockwatch-live", "apiUrl": "https://content.guardianapis.com/football/live/2017/mar/28/france-v-spain-holland-v-italy-and-more-international-clockwatch-live", "isHosted": false, "pillarId": "pillar/sport", "pillarName": "Sport"}, {"id": "football/2017/mar/28/wilfried-zaha-gareth-southgate-timescale-claim-england-selection", "type": "article", "sectionId": "football", "sectionName": "Football", "webPublicationDate": "2017-03-28T19:38:07Z", "webTitle": "Wilfried Zaha hits back at Southgate\u2019s \u2018timescale\u2019 claim over England selection", "webUrl": "https://www.theguardian.com/football/2017/mar/28/wilfried-zaha-gareth-southgate-timescale-claim-england-selection", "apiUrl": "https://content.guardianapis.com/football/2017/mar/28/wilfried-zaha-gareth-southgate-timescale-claim-england-selection", "isHosted": false, "pillarId": "pillar/sport", "pillarName": "Sport"}, {"id": "football/2017/mar/28/simon-weston-players-trust-footballers-sexual-abuse", "type": "article", "sectionId": "football", "sectionName": "Football", "webPublicationDate": "2017-03-28T17:47:28Z", "webTitle": "Simon Weston launches Players Trust in bid to protect young footballers", "webUrl": "https://www.theguardian.com/football/2017/mar/28/simon-weston-players-trust-footballers-sexual-abuse", "apiUrl": "https://content.guardianapis.com/football/2017/mar/28/simon-weston-players-trust-footballers-sexual-abuse", "isHosted": false, "pillarId": "pillar/sport", "pillarName": "Sport"}, {"id": "football/2017/mar/28/non-league-player-banned-knife-police-sawbridgeworth-town", "type": "article", "sectionId": "football", "sectionName": "Football", "webPublicationDate": "2017-03-28T17:39:48Z", "webTitle": "Non-league player banned after allegedly wielding knife at fan", "webUrl": "https://www.theguardian.com/football/2017/mar/28/non-league-player-banned-knife-police-sawbridgeworth-town", "apiUrl": "https://content.guardianapis.com/football/2017/mar/28/non-league-player-banned-knife-police-sawbridgeworth-town", "isHosted": false, "pillarId": "pillar/sport", "pillarName": "Sport"}, {"id": "football/2017/mar/28/fredi-kanoute-muslims-orphans-mali", "type": "article", "sectionId": "football", "sectionName": "Football", "webPublicationDate": "2017-03-28T16:43:00Z", "webTitle": "Fredi Kanout\u00e9: 'Muslims should not have to prove they are not terrorists before talking'", "webUrl": "https://www.theguardian.com/football/2017/mar/28/fredi-kanoute-muslims-orphans-mali", "apiUrl": "https://content.guardianapis.com/football/2017/mar/28/fredi-kanoute-muslims-orphans-mali", "isHosted": false, "pillarId": "pillar/sport", "pillarName": "Sport"}, {"id": "football/2017/mar/28/liverpool-adam-lallana-merseyside-derby-england", "type": "article", "sectionId": "football", "sectionName": "Football", "webPublicationDate": "2017-03-28T16:14:28Z", "webTitle": "Liverpool\u2019s Adam Lallana to miss Merseyside derby with thigh injury", "webUrl": "https://www.theguardian.com/football/2017/mar/28/liverpool-adam-lallana-merseyside-derby-england", "apiUrl": "https://content.guardianapis.com/football/2017/mar/28/liverpool-adam-lallana-merseyside-derby-england", "isHosted": false, "pillarId": "pillar/sport", "pillarName": "Sport"}, {"id": "football/2017/mar/28/imagine-a-smaller-version-of-shaun-wright-phillips-without-getting-dizzy", "type": "article", "sectionId": "football", "sectionName": "Football", "webPublicationDate": "2017-03-28T16:06:20Z", "webTitle": "The Fiver | Imagine a smaller version of Shaun Wright-Phillips without getting dizzy", "webUrl": "https://www.theguardian.com/football/2017/mar/28/imagine-a-smaller-version-of-shaun-wright-phillips-without-getting-dizzy", "apiUrl": "https://content.guardianapis.com/football/2017/mar/28/imagine-a-smaller-version-of-shaun-wright-phillips-without-getting-dizzy", "isHosted": false, "pillarId": "pillar/sport", "pillarName": "Sport"}, {"id": "football/2017/mar/28/independent-inquiry-millwall-cpo-deal-renewal", "type": "article", "sectionId": "football", "sectionName": "Football", "webPublicationDate": "2017-03-28T14:05:28Z", "webTitle": "Independent inquiry into Millwall CPO deal gets green light to begin", "webUrl": "https://www.theguardian.com/football/2017/mar/28/independent-inquiry-millwall-cpo-deal-renewal", "apiUrl": "https://content.guardianapis.com/football/2017/mar/28/independent-inquiry-millwall-cpo-deal-renewal", "isHosted": false, "pillarId": "pillar/sport", "pillarName": "Sport"}]}}