{"response": {"status": "ok", "userTier": "developer", "total": 14641, "startIndex": 1, "pageSize": 50, "currentPage": 1, "pages": 293, "orderBy": "newest", "results": [{"id": "lifeandstyle/2010/mar/30/eat-dirt-soil-taste", "type": "article", "sectionId": "food", "sectionName": "Food", "webPublicationDate": "2010-03-30T18:35:00Z", "webTitle": "Eat dirt: why foodies are putting mud on the menu", "webUrl": "https://www.theguardian.com/lifeandstyle/2010/mar/30/eat-dirt-soil-taste", "apiUrl": "https://content.guardianapis.com/lifeandstyle/2010/mar/30/eat-dirt-soil-taste", "isHosted": false, "pillarId": "pillar/lifestyle", "pillarName": "Lifestyle"}, {"id": "commentisfree/2010/mar/30/brits-sold-guff-about-coffee", "type": "article", "sectionId": "commentisfree", "sectionName": "Opinion", "webPublicationDate": "2010-03-30T16:30:01Z", "webTitle": "Brits are being sold guff about coffee | Julie Bindel", "webUrl": "https://www.theguardian.com/commentisfree/2010/mar/30/brits-sold-guff-about-coffee", "apiUrl": "https://content.guardianapis.com/commentisfree/2010/mar/30/brits-sold-guff-about-coffee", "isHosted": false, "pillarId": "pillar/opinion", "pillarName": "Opinion"}, {"id": "society/2010/mar/30/chocolate-good-health-cardiovascular-disease", "type": "article", "sectionId": "society", "sectionName": "Society", "webPublicationDate": "2010-03-30T16:04:02Z", "webTitle": "It's official: Chocolate is good for you", "webUrl": "https://www.theguardian.com/society/2010/mar/30/chocolate-good-health-cardiovascular-disease", "apiUrl": "https://content.guardianapis.com/society/2010/mar/30/chocolate-good-health-cardiovascular-disease", "isHosted": false, "pillarId": "pillar/news", "pillarName": "News"}, {"id": "lifeandstyle/2010/mar/30/seasonal-food-watercress", "type": "article", "sectionId": "food", "sectionName": "Food", "webPublicationDate": "2010-03-30T13:50:00Z", "webTitle": "Seasonal food: watercress", "webUrl": "https://www.theguardian.com/lifeandstyle/2010/mar/30/seasonal-food-watercress", "apiUrl": "https://content.guardianapis.com/lifeandstyle/2010/mar/30/seasonal-food-watercress", "isHosted": false, "pillarId": "pillar/lifestyle", "pillarName": "Lifestyle"}, {"id": "lifeandstyle/wordofmouth/2010/mar/30/fine-fun-dining", "type": "article", "sectionId": "lifeandstyle", "sectionName": "Life and style", "webPublicationDate": "2010-03-30T12:10:00Z", "webTitle": "Fine dining or fun dining?", "webUrl": "https://www.theguardian.com/lifeandstyle/wordofmouth/2010/mar/30/fine-fun-dining", "apiUrl": "https://content.guardianapis.com/lifeandstyle/wordofmouth/2010/mar/30/fine-fun-dining", "isHosted": false, "pillarId": "pillar/lifestyle", "pillarName": "Lifestyle"}, {"id": "lifeandstyle/wordofmouth/video/2010/mar/30/birmingham-balti-triangle", "type": "video", "sectionId": "lifeandstyle", "sectionName": "Life and style", "webPublicationDate": "2010-03-30T07:30:00Z", "webTitle": "A square meal in the balti triangle", "webUrl": "https://www.theguardian.com/lifeandstyle/wordofmouth/video/2010/mar/30/birmingham-balti-triangle", "apiUrl": "https://content.guardianapis.com/lifeandstyle/wordofmouth/video/2010/mar/30/birmingham-balti-triangle", "isHosted": false, "pillarId": "pillar/lifestyle", "pillarName": "Lifestyle"}, {"id": "education/2010/mar/30/chocolate-relaxation-scent-studies", "type": "article", "sectionId": "education", "sectionName": "Education", "webPublicationDate": "2010-03-29T23:05:00Z", "webTitle": "Happy Easter", "webUrl": "https://www.theguardian.com/education/2010/mar/30/chocolate-relaxation-scent-studies", "apiUrl": "https://content.guardianapis.com/education/2010/mar/30/chocolate-relaxation-scent-studies", "isHosted": false, "pillarId": "pillar/news", "pillarName": "News"}, {"id": "education/2010/mar/29/jamie-oliver-school-dinners-meals", "type": "article", "sectionId": "education", "sectionName": "Education", "webPublicationDate": "2010-03-29T19:21:16Z", "webTitle": "Jamie Oliver's school dinners shown to have improved academic results", "webUrl": "https://www.theguardian.com/education/2010/mar/29/jamie-oliver-school-dinners-meals", "apiUrl": "https://content.guardianapis.com/education/2010/mar/29/jamie-oliver-school-dinners-meals", "isHosted": false, "pillarId": "pillar/news", "pillarName": "News"}, {"id": "lifeandstyle/wordofmouth/2010/mar/29/salt-beans-casserole-oversalting", "type": "article", "sectionId": "lifeandstyle", "sectionName": "Life and style", "webPublicationDate": "2010-03-29T11:00:00Z", "webTitle": "A pinch of salt", "webUrl": "https://www.theguardian.com/lifeandstyle/wordofmouth/2010/mar/29/salt-beans-casserole-oversalting", "apiUrl": "https://content.guardianapis.com/lifeandstyle/wordofmouth/2010/mar/29/salt-beans-casserole-oversalting", "isHosted": false, "pillarId": "pillar/lifestyle", "pillarName": "Lifestyle"}, {"id": "lifeandstyle/2010/mar/28/cidermakers-darling-tax-rise", "type": "article", "sectionId": "food", "sectionName": "Food", "webPublicationDate": "2010-03-28T21:00:01Z", "webTitle": "Cider tax increase leaves artisan producers fearing for the future", "webUrl": "https://www.theguardian.com/lifeandstyle/2010/mar/28/cidermakers-darling-tax-rise", "apiUrl": "https://content.guardianapis.com/lifeandstyle/2010/mar/28/cidermakers-darling-tax-rise", "isHosted": false, "pillarId": "pillar/lifestyle", "pillarName": "Lifestyle"}, {"id": "lifeandstyle/2010/mar/28/art-du-fromage-chelsea-jay-rayner", "type": "article", "sectionId": "food", "sectionName": "Food", "webPublicationDate": "2010-03-28T00:15:00Z", "webTitle": "Restaurant review: L'Art du Fromage fondue | Jay Rayner", "webUrl": "https://www.theguardian.com/lifeandstyle/2010/mar/28/art-du-fromage-chelsea-jay-rayner", "apiUrl": "https://content.guardianapis.com/lifeandstyle/2010/mar/28/art-du-fromage-chelsea-jay-rayner", "isHosted": false, "pillarId": "pillar/lifestyle", "pillarName": "Lifestyle"}, {"id": "theobserver/2010/mar/28/raising-chickens-eglu-alex-horne", "type": "article", "sectionId": "food", "sectionName": "Food", "webPublicationDate": "2010-03-28T00:05:20Z", "webTitle": "Fowl play: one man's year keeping chickens | Alex Horne", "webUrl": "https://www.theguardian.com/theobserver/2010/mar/28/raising-chickens-eglu-alex-horne", "apiUrl": "https://content.guardianapis.com/theobserver/2010/mar/28/raising-chickens-eglu-alex-horne", "isHosted": false, "pillarId": "pillar/lifestyle", "pillarName": "Lifestyle"}, {"id": "lifeandstyle/2010/mar/27/bibis-italianissimo-leeds-restauarant-review", "type": "article", "sectionId": "lifeandstyle", "sectionName": "Life and style", "webPublicationDate": "2010-03-27T00:35:05Z", "webTitle": "Restaurant: Bibis Italianissimo, Leeds", "webUrl": "https://www.theguardian.com/lifeandstyle/2010/mar/27/bibis-italianissimo-leeds-restauarant-review", "apiUrl": "https://content.guardianapis.com/lifeandstyle/2010/mar/27/bibis-italianissimo-leeds-restauarant-review", "isHosted": false, "pillarId": "pillar/lifestyle", "pillarName": "Lifestyle"}, {"id": "lifeandstyle/2010/mar/27/watercress-recipes-hugh-fearnley-whittingstall", "type": "article", "sectionId": "lifeandstyle", "sectionName": "Life and style", "webPublicationDate": "2010-03-27T00:35:01Z", "webTitle": "Watercress recipes | Hugh Fearnley-Whittingstall", "webUrl": "https://www.theguardian.com/lifeandstyle/2010/mar/27/watercress-recipes-hugh-fearnley-whittingstall", "apiUrl": "https://content.guardianapis.com/lifeandstyle/2010/mar/27/watercress-recipes-hugh-fearnley-whittingstall", "isHosted": false, "pillarId": "pillar/lifestyle", "pillarName": "Lifestyle"}, {"id": "lifeandstyle/2010/mar/27/smoky-polenta-chips-recipe-ottolenghi", "type": "article", "sectionId": "lifeandstyle", "sectionName": "Life and style", "webPublicationDate": "2010-03-27T00:11:00Z", "webTitle": "Smoky polenta chips recipe | Yotam Ottolenghi", "webUrl": "https://www.theguardian.com/lifeandstyle/2010/mar/27/smoky-polenta-chips-recipe-ottolenghi", "apiUrl": "https://content.guardianapis.com/lifeandstyle/2010/mar/27/smoky-polenta-chips-recipe-ottolenghi", "isHosted": false, "pillarId": "pillar/lifestyle", "pillarName": "Lifestyle"}, {"id": "lifeandstyle/2010/mar/27/family-life-photographs-songs-recipes", "type": "article", "sectionId": "lifeandstyle", "sectionName": "Life and style", "webPublicationDate": "2010-03-27T00:07:10Z", "webTitle": "Family life", "webUrl": "https://www.theguardian.com/lifeandstyle/2010/mar/27/family-life-photographs-songs-recipes", "apiUrl": "https://content.guardianapis.com/lifeandstyle/2010/mar/27/family-life-photographs-songs-recipes", "isHosted": false, "pillarId": "pillar/lifestyle", "pillarName": "Lifestyle"}, {"id": "lifeandstyle/2010/mar/27/guinness-dublin-ian-sansom-dynasties", "type": "article", "sectionId": "lifeandstyle", "sectionName": "Life and style", "webPublicationDate": "2010-03-27T00:06:04Z", "webTitle": "Great dynasties of the world: The Guinnesses", "webUrl": "https://www.theguardian.com/lifeandstyle/2010/mar/27/guinness-dublin-ian-sansom-dynasties", "apiUrl": "https://content.guardianapis.com/lifeandstyle/2010/mar/27/guinness-dublin-ian-sansom-dynasties", "isHosted": false, "pillarId": "pillar/lifestyle", "pillarName": "Lifestyle"}, {"id": "uk/2010/mar/26/national-trust-cider-duty-rise", "type": "article", "sectionId": "uk-news", "sectionName": "UK news", "webPublicationDate": "2010-03-26T16:26:31Z", "webTitle": "Cider duty increase condemned by National Trust", "webUrl": "https://www.theguardian.com/uk/2010/mar/26/national-trust-cider-duty-rise", "apiUrl": "https://content.guardianapis.com/uk/2010/mar/26/national-trust-cider-duty-rise", "isHosted": false, "pillarId": "pillar/news", "pillarName": "News"}, {"id": "lifeandstyle/wordofmouth/2010/mar/26/death-nathan-laity-restaurants-chefs", "type": "article", "sectionId": "lifeandstyle", "sectionName": "Life and style", "webPublicationDate": "2010-03-26T11:50:00Z", "webTitle": "The tragic death of chef Nathan Laity", "webUrl": "https://www.theguardian.com/lifeandstyle/wordofmouth/2010/mar/26/death-nathan-laity-restaurants-chefs", "apiUrl": "https://content.guardianapis.com/lifeandstyle/wordofmouth/2010/mar/26/death-nathan-laity-restaurants-chefs", "isHosted": false, "pillarId": "pillar/lifestyle", "pillarName": "Lifestyle"}, {"id": "lifeandstyle/wordofmouth/2010/mar/26/food-presentation", "type": "article", "sectionId": "lifeandstyle", "sectionName": "Life and style", "webPublicationDate": "2010-03-26T09:50:00Z", "webTitle": "All about the presentation", "webUrl": "https://www.theguardian.com/lifeandstyle/wordofmouth/2010/mar/26/food-presentation", "apiUrl": "https://content.guardianapis.com/lifeandstyle/wordofmouth/2010/mar/26/food-presentation", "isHosted": false, "pillarId": "pillar/lifestyle", "pillarName": "Lifestyle"}, {"id": "world/2010/mar/25/us-commander-afghanistan-bans-burger-pizza", "type": "article", "sectionId": "us-news", "sectionName": "US news", "webPublicationDate": "2010-03-25T20:31:10Z", "webTitle": "US commander in Afghanistan bans burger and pizza bars at Kandahar base", "webUrl": "https://www.theguardian.com/world/2010/mar/25/us-commander-afghanistan-bans-burger-pizza", "apiUrl": "https://content.guardianapis.com/world/2010/mar/25/us-commander-afghanistan-bans-burger-pizza", "isHosted": false, "pillarId": "pillar/news", "pillarName": "News"}, {"id": "commentisfree/2010/mar/25/edinburgh-restaurant-horse-meat", "type": "article", "sectionId": "commentisfree", "sectionName": "Opinion", "webPublicationDate": "2010-03-25T16:10:09Z", "webTitle": "Horse on the menu | Open thread", "webUrl": "https://www.theguardian.com/commentisfree/2010/mar/25/edinburgh-restaurant-horse-meat", "apiUrl": "https://content.guardianapis.com/commentisfree/2010/mar/25/edinburgh-restaurant-horse-meat", "isHosted": false, "pillarId": "pillar/opinion", "pillarName": "Opinion"}, {"id": "lifeandstyle/2010/mar/25/seasonal-food-endive", "type": "article", "sectionId": "lifeandstyle", "sectionName": "Life and style", "webPublicationDate": "2010-03-25T11:00:00Z", "webTitle": "Seasonal food: endive", "webUrl": "https://www.theguardian.com/lifeandstyle/2010/mar/25/seasonal-food-endive", "apiUrl": "https://content.guardianapis.com/lifeandstyle/2010/mar/25/seasonal-food-endive", "isHosted": false, "pillarId": "pillar/lifestyle", "pillarName": "Lifestyle"}, {"id": "lifeandstyle/gallery/2010/mar/25/ethical-easter-egg-taste-test", "type": "gallery", "sectionId": "lifeandstyle", "sectionName": "Life and style", "webPublicationDate": "2010-03-25T10:00:00Z", "webTitle": "'Ethical' Easter egg taste test", "webUrl": "https://www.theguardian.com/lifeandstyle/gallery/2010/mar/25/ethical-easter-egg-taste-test", "apiUrl": "https://content.guardianapis.com/lifeandstyle/gallery/2010/mar/25/ethical-easter-egg-taste-test", "isHosted": false, "pillarId": "pillar/lifestyle", "pillarName": "Lifestyle"}, {"id": "lifeandstyle/video/2010/mar/25/fish-fishing-mitch-tonks", "type": "video", "sectionId": "lifeandstyle", "sectionName": "Life and style", "webPublicationDate": "2010-03-25T09:10:00Z", "webTitle": "A day's fishing off Devon", "webUrl": "https://www.theguardian.com/lifeandstyle/video/2010/mar/25/fish-fishing-mitch-tonks", "apiUrl": "https://content.guardianapis.com/lifeandstyle/video/2010/mar/25/fish-fishing-mitch-tonks", "isHosted": false, "pillarId": "pillar/lifestyle", "pillarName": "Lifestyle"}, {"id": "lifeandstyle/2010/mar/25/jamie-oliver-us-healthy-eating", "type": "article", "sectionId": "food", "sectionName": "Food", "webPublicationDate": "2010-03-25T09:00:05Z", "webTitle": "Jamie Oliver's US critics", "webUrl": "https://www.theguardian.com/lifeandstyle/2010/mar/25/jamie-oliver-us-healthy-eating", "apiUrl": "https://content.guardianapis.com/lifeandstyle/2010/mar/25/jamie-oliver-us-healthy-eating", "isHosted": false, "pillarId": "pillar/lifestyle", "pillarName": "Lifestyle"}, {"id": "lifeandstyle/2010/mar/25/british-wary-of-fish", "type": "article", "sectionId": "food", "sectionName": "Food", "webPublicationDate": "2010-03-25T09:00:02Z", "webTitle": "'We British are wary of fish'", "webUrl": "https://www.theguardian.com/lifeandstyle/2010/mar/25/british-wary-of-fish", "apiUrl": "https://content.guardianapis.com/lifeandstyle/2010/mar/25/british-wary-of-fish", "isHosted": false, "pillarId": "pillar/lifestyle", "pillarName": "Lifestyle"}, {"id": "commentisfree/2010/mar/24/cider-tax-malcolm-gluck", "type": "article", "sectionId": "commentisfree", "sectionName": "Opinion", "webPublicationDate": "2010-03-24T19:37:56Z", "webTitle": "Budget 2010: My cider house rules | Malcolm Gluck", "webUrl": "https://www.theguardian.com/commentisfree/2010/mar/24/cider-tax-malcolm-gluck", "apiUrl": "https://content.guardianapis.com/commentisfree/2010/mar/24/cider-tax-malcolm-gluck", "isHosted": false, "pillarId": "pillar/opinion", "pillarName": "Opinion"}, {"id": "lifeandstyle/wordofmouth/2010/mar/24/cider-tax-budget", "type": "article", "sectionId": "lifeandstyle", "sectionName": "Life and style", "webPublicationDate": "2010-03-24T17:30:00Z", "webTitle": "Cider-space in revolt over tax increase", "webUrl": "https://www.theguardian.com/lifeandstyle/wordofmouth/2010/mar/24/cider-tax-budget", "apiUrl": "https://content.guardianapis.com/lifeandstyle/wordofmouth/2010/mar/24/cider-tax-budget", "isHosted": false, "pillarId": "pillar/lifestyle", "pillarName": "Lifestyle"}, {"id": "lifeandstyle/2010/mar/24/pub-food-free-dorset", "type": "article", "sectionId": "food", "sectionName": "Food", "webPublicationDate": "2010-03-24T12:01:15Z", "webTitle": "Free pub meal? He'll flip you for it", "webUrl": "https://www.theguardian.com/lifeandstyle/2010/mar/24/pub-food-free-dorset", "apiUrl": "https://content.guardianapis.com/lifeandstyle/2010/mar/24/pub-food-free-dorset", "isHosted": false, "pillarId": "pillar/lifestyle", "pillarName": "Lifestyle"}, {"id": "lifeandstyle/gallery/2010/mar/24/how-to-knead-dough", "type": "gallery", "sectionId": "food", "sectionName": "Food", "webPublicationDate": "2010-03-24T10:00:00Z", "webTitle": "How to knead dough", "webUrl": "https://www.theguardian.com/lifeandstyle/gallery/2010/mar/24/how-to-knead-dough", "apiUrl": "https://content.guardianapis.com/lifeandstyle/gallery/2010/mar/24/how-to-knead-dough", "isHosted": false, "pillarId": "pillar/lifestyle", "pillarName": "Lifestyle"}, {"id": "lifeandstyle/wordofmouth/2010/mar/24/fondue-cheese-chocolate", "type": "article", "sectionId": "lifeandstyle", "sectionName": "Life and style", "webPublicationDate": "2010-03-24T10:00:00Z", "webTitle": "A fondness for fondue", "webUrl": "https://www.theguardian.com/lifeandstyle/wordofmouth/2010/mar/24/fondue-cheese-chocolate", "apiUrl": "https://content.guardianapis.com/lifeandstyle/wordofmouth/2010/mar/24/fondue-cheese-chocolate", "isHosted": false, "pillarId": "pillar/lifestyle", "pillarName": "Lifestyle"}, {"id": "artanddesign/2010/mar/23/last-supper-supersized-food-paintings", "type": "article", "sectionId": "artanddesign", "sectionName": "Art and design", "webPublicationDate": "2010-03-23T11:28:02Z", "webTitle": "Last Supper gets supersized as art imitates life", "webUrl": "https://www.theguardian.com/artanddesign/2010/mar/23/last-supper-supersized-food-paintings", "apiUrl": "https://content.guardianapis.com/artanddesign/2010/mar/23/last-supper-supersized-food-paintings", "isHosted": false, "pillarId": "pillar/arts", "pillarName": "Arts"}, {"id": "lifeandstyle/wordofmouth/2010/mar/23/local-restaurant-good-food-guide", "type": "article", "sectionId": "lifeandstyle", "sectionName": "Life and style", "webPublicationDate": "2010-03-23T10:30:00Z", "webTitle": "What makes a great local restaurant?", "webUrl": "https://www.theguardian.com/lifeandstyle/wordofmouth/2010/mar/23/local-restaurant-good-food-guide", "apiUrl": "https://content.guardianapis.com/lifeandstyle/wordofmouth/2010/mar/23/local-restaurant-good-food-guide", "isHosted": false, "pillarId": "pillar/lifestyle", "pillarName": "Lifestyle"}, {"id": "lifeandstyle/video/2010/mar/23/allegra-mcevedy-history-recipe-ravioli", "type": "video", "sectionId": "food", "sectionName": "Food", "webPublicationDate": "2010-03-23T09:50:00Z", "webTitle": "Video: Chicken with sweetbread ravioli recipe", "webUrl": "https://www.theguardian.com/lifeandstyle/video/2010/mar/23/allegra-mcevedy-history-recipe-ravioli", "apiUrl": "https://content.guardianapis.com/lifeandstyle/video/2010/mar/23/allegra-mcevedy-history-recipe-ravioli", "isHosted": false, "pillarId": "pillar/lifestyle", "pillarName": "Lifestyle"}, {"id": "lifeandstyle/wordofmouth/2010/mar/22/sustainable-restaurant-association-henry-dimbleby", "type": "article", "sectionId": "lifeandstyle", "sectionName": "Life and style", "webPublicationDate": "2010-03-22T12:00:00Z", "webTitle": "Why the SRA can make a difference", "webUrl": "https://www.theguardian.com/lifeandstyle/wordofmouth/2010/mar/22/sustainable-restaurant-association-henry-dimbleby", "apiUrl": "https://content.guardianapis.com/lifeandstyle/wordofmouth/2010/mar/22/sustainable-restaurant-association-henry-dimbleby", "isHosted": false, "pillarId": "pillar/lifestyle", "pillarName": "Lifestyle"}, {"id": "lifeandstyle/wordofmouth/2010/mar/22/chilli-heat", "type": "article", "sectionId": "lifeandstyle", "sectionName": "Life and style", "webPublicationDate": "2010-03-22T10:40:00Z", "webTitle": "Chilli con carnage", "webUrl": "https://www.theguardian.com/lifeandstyle/wordofmouth/2010/mar/22/chilli-heat", "apiUrl": "https://content.guardianapis.com/lifeandstyle/wordofmouth/2010/mar/22/chilli-heat", "isHosted": false, "pillarId": "pillar/lifestyle", "pillarName": "Lifestyle"}, {"id": "world/audio/2010/mar/22/india-coffee-house-traditional-threat", "type": "audio", "sectionId": "world", "sectionName": "World news", "webPublicationDate": "2010-03-22T09:58:06Z", "webTitle": "Jason Burke on threat to traditional Indian coffee houses", "webUrl": "https://www.theguardian.com/world/audio/2010/mar/22/india-coffee-house-traditional-threat", "apiUrl": "https://content.guardianapis.com/world/audio/2010/mar/22/india-coffee-house-traditional-threat", "isHosted": false, "pillarId": "pillar/news", "pillarName": "News"}, {"id": "lifeandstyle/2010/mar/21/atom-bomb-wine-radioactive-tests", "type": "article", "sectionId": "science", "sectionName": "Science", "webPublicationDate": "2010-03-21T22:00:02Z", "webTitle": "How atom bomb tests could help detect wine fraud", "webUrl": "https://www.theguardian.com/lifeandstyle/2010/mar/21/atom-bomb-wine-radioactive-tests", "apiUrl": "https://content.guardianapis.com/lifeandstyle/2010/mar/21/atom-bomb-wine-radioactive-tests", "isHosted": false, "pillarId": "pillar/news", "pillarName": "News"}, {"id": "lifeandstyle/2010/mar/21/ostrich-egg-for-easter-anyone", "type": "article", "sectionId": "lifeandstyle", "sectionName": "Life and style", "webPublicationDate": "2010-03-21T20:00:02Z", "webTitle": "Ostrich egg for Easter, anyone?", "webUrl": "https://www.theguardian.com/lifeandstyle/2010/mar/21/ostrich-egg-for-easter-anyone", "apiUrl": "https://content.guardianapis.com/lifeandstyle/2010/mar/21/ostrich-egg-for-easter-anyone", "isHosted": false, "pillarId": "pillar/lifestyle", "pillarName": "Lifestyle"}, {"id": "environment/2010/mar/21/whale-california-restaurant-illegal-meat", "type": "article", "sectionId": "environment", "sectionName": "Environment", "webPublicationDate": "2010-03-21T19:47:26Z", "webTitle": "California restaurant shuts after whale meat sting", "webUrl": "https://www.theguardian.com/environment/2010/mar/21/whale-california-restaurant-illegal-meat", "apiUrl": "https://content.guardianapis.com/environment/2010/mar/21/whale-california-restaurant-illegal-meat", "isHosted": false, "pillarId": "pillar/news", "pillarName": "News"}, {"id": "lifeandstyle/2010/mar/20/vanilla-chocolate-layer-cake-recipe", "type": "article", "sectionId": "lifeandstyle", "sectionName": "Life and style", "webPublicationDate": "2010-03-20T00:12:44Z", "webTitle": "Vanilla chocolate layer cake recipe | Dan Lepard | How to bake", "webUrl": "https://www.theguardian.com/lifeandstyle/2010/mar/20/vanilla-chocolate-layer-cake-recipe", "apiUrl": "https://content.guardianapis.com/lifeandstyle/2010/mar/20/vanilla-chocolate-layer-cake-recipe", "isHosted": false, "pillarId": "pillar/lifestyle", "pillarName": "Lifestyle"}, {"id": "lifeandstyle/2010/mar/20/herb-pie-recipe-vegetarian-ottolenghi", "type": "article", "sectionId": "lifeandstyle", "sectionName": "Life and style", "webPublicationDate": "2010-03-20T00:12:35Z", "webTitle": "Herb pie recipe | Yotam Ottolenghi | The new vegetarian", "webUrl": "https://www.theguardian.com/lifeandstyle/2010/mar/20/herb-pie-recipe-vegetarian-ottolenghi", "apiUrl": "https://content.guardianapis.com/lifeandstyle/2010/mar/20/herb-pie-recipe-vegetarian-ottolenghi", "isHosted": false, "pillarId": "pillar/lifestyle", "pillarName": "Lifestyle"}, {"id": "lifeandstyle/2010/mar/20/nutmeg-recipes-hugh-fearnley-whittingstall", "type": "article", "sectionId": "lifeandstyle", "sectionName": "Life and style", "webPublicationDate": "2010-03-20T00:10:45Z", "webTitle": "Nutmeg recipes | Hugh Fearnley-Whittingstall", "webUrl": "https://www.theguardian.com/lifeandstyle/2010/mar/20/nutmeg-recipes-hugh-fearnley-whittingstall", "apiUrl": "https://content.guardianapis.com/lifeandstyle/2010/mar/20/nutmeg-recipes-hugh-fearnley-whittingstall", "isHosted": false, "pillarId": "pillar/lifestyle", "pillarName": "Lifestyle"}, {"id": "lifeandstyle/2010/mar/20/south-africa-wine-review", "type": "article", "sectionId": "lifeandstyle", "sectionName": "Life and style", "webPublicationDate": "2010-03-20T00:10:40Z", "webTitle": "Wine: A South African revolution", "webUrl": "https://www.theguardian.com/lifeandstyle/2010/mar/20/south-africa-wine-review", "apiUrl": "https://content.guardianapis.com/lifeandstyle/2010/mar/20/south-africa-wine-review", "isHosted": false, "pillarId": "pillar/lifestyle", "pillarName": "Lifestyle"}, {"id": "lifeandstyle/2010/mar/20/magdalen-arms-oxford-restaurant-review", "type": "article", "sectionId": "lifeandstyle", "sectionName": "Life and style", "webPublicationDate": "2010-03-20T00:10:06Z", "webTitle": "Restaurant: The Magdalen Arms, Oxford | Matthew Norman", "webUrl": "https://www.theguardian.com/lifeandstyle/2010/mar/20/magdalen-arms-oxford-restaurant-review", "apiUrl": "https://content.guardianapis.com/lifeandstyle/2010/mar/20/magdalen-arms-oxford-restaurant-review", "isHosted": false, "pillarId": "pillar/lifestyle", "pillarName": "Lifestyle"}, {"id": "lifeandstyle/2010/mar/20/family-life-photographs-songs-recipes", "type": "article", "sectionId": "lifeandstyle", "sectionName": "Life and style", "webPublicationDate": "2010-03-20T00:07:21Z", "webTitle": "Family life", "webUrl": "https://www.theguardian.com/lifeandstyle/2010/mar/20/family-life-photographs-songs-recipes", "apiUrl": "https://content.guardianapis.com/lifeandstyle/2010/mar/20/family-life-photographs-songs-recipes", "isHosted": false, "pillarId": "pillar/lifestyle", "pillarName": "Lifestyle"}, {"id": "lifeandstyle/2010/mar/20/raymond-blanc-chef-family-values", "type": "article", "sectionId": "food", "sectionName": "Food", "webPublicationDate": "2010-03-20T00:07:19Z", "webTitle": "Raymond Blanc", "webUrl": "https://www.theguardian.com/lifeandstyle/2010/mar/20/raymond-blanc-chef-family-values", "apiUrl": "https://content.guardianapis.com/lifeandstyle/2010/mar/20/raymond-blanc-chef-family-values", "isHosted": false, "pillarId": "pillar/lifestyle", "pillarName": "Lifestyle"}, {"id": "education/2010/mar/20/student-cooking-food-for-thought", "type": "article", "sectionId": "education", "sectionName": "Education", "webPublicationDate": "2010-03-20T00:05:40Z", "webTitle": "Student cooking offers food for thought", "webUrl": "https://www.theguardian.com/education/2010/mar/20/student-cooking-food-for-thought", "apiUrl": "https://content.guardianapis.com/education/2010/mar/20/student-cooking-food-for-thought", "isHosted": false, "pillarId": "pillar/news", "pillarName": "News"}, {"id": "travel/2010/mar/20/tokyo-paradise-for-whisky-drinkers", "type": "article", "sectionId": "travel", "sectionName": "Travel", "webPublicationDate": "2010-03-20T00:05:12Z", "webTitle": "Tokyo, a whisky drinkers' paradise", "webUrl": "https://www.theguardian.com/travel/2010/mar/20/tokyo-paradise-for-whisky-drinkers", "apiUrl": "https://content.guardianapis.com/travel/2010/mar/20/tokyo-paradise-for-whisky-drinkers", "isHosted": false, "pillarId": "pillar/lifestyle", "pillarName": "Lifestyle"}]}}