{"response": {"status": "ok", "userTier": "developer", "total": 21321, "startIndex": 1, "pageSize": 50, "currentPage": 1, "pages": 427, "orderBy": "newest", "results": [{"id": "business/2015/mar/30/mcdonalds-all-day-breakfast-menu", "type": "article", "sectionId": "business", "sectionName": "Business", "webPublicationDate": "2015-03-30T16:50:29Z", "webTitle": "Egg McMuffins for dinner? McDonald\u2019s considers all-day breakfast menu", "webUrl": "https://www.theguardian.com/business/2015/mar/30/mcdonalds-all-day-breakfast-menu", "apiUrl": "https://content.guardianapis.com/business/2015/mar/30/mcdonalds-all-day-breakfast-menu", "isHosted": false, "pillarId": "pillar/news", "pillarName": "News"}, {"id": "lifeandstyle/shortcuts/2015/mar/30/can-you-ever-have-healthy-fried-chicken-fast-food", "type": "article", "sectionId": "food", "sectionName": "Food", "webPublicationDate": "2015-03-30T16:36:47Z", "webTitle": "Can you ever have 'healthy' fried chicken?", "webUrl": "https://www.theguardian.com/lifeandstyle/shortcuts/2015/mar/30/can-you-ever-have-healthy-fried-chicken-fast-food", "apiUrl": "https://content.guardianapis.com/lifeandstyle/shortcuts/2015/mar/30/can-you-ever-have-healthy-fried-chicken-fast-food", "isHosted": false, "pillarId": "pillar/lifestyle", "pillarName": "Lifestyle"}, {"id": "cities/2015/mar/30/food-for-thought-vegetarian-restaurant-covent-garden-closure", "type": "article", "sectionId": "cities", "sectionName": "Cities", "webPublicationDate": "2015-03-30T12:26:02Z", "webTitle": "Food for Thought: the last vegetarian gasp of alternative Covent Garden", "webUrl": "https://www.theguardian.com/cities/2015/mar/30/food-for-thought-vegetarian-restaurant-covent-garden-closure", "apiUrl": "https://content.guardianapis.com/cities/2015/mar/30/food-for-thought-vegetarian-restaurant-covent-garden-closure", "isHosted": false, "pillarId": "pillar/news", "pillarName": "News"}, {"id": "lifeandstyle/2015/mar/30/recipe-swap-pastry-scrap", "type": "article", "sectionId": "food", "sectionName": "Food", "webPublicationDate": "2015-03-30T12:06:54Z", "webTitle": "Recipe swap: pastry scrap", "webUrl": "https://www.theguardian.com/lifeandstyle/2015/mar/30/recipe-swap-pastry-scrap", "apiUrl": "https://content.guardianapis.com/lifeandstyle/2015/mar/30/recipe-swap-pastry-scrap", "isHosted": false, "pillarId": "pillar/lifestyle", "pillarName": "Lifestyle"}, {"id": "lifeandstyle/2015/mar/30/kumquat-buckwheat-cake-recipe-violet-bakery-claire-ptak", "type": "article", "sectionId": "lifeandstyle", "sectionName": "Life and style", "webPublicationDate": "2015-03-30T11:00:00Z", "webTitle": "A citrus cake to emulate | Cook residency", "webUrl": "https://www.theguardian.com/lifeandstyle/2015/mar/30/kumquat-buckwheat-cake-recipe-violet-bakery-claire-ptak", "apiUrl": "https://content.guardianapis.com/lifeandstyle/2015/mar/30/kumquat-buckwheat-cake-recipe-violet-bakery-claire-ptak", "isHosted": false, "pillarId": "pillar/lifestyle", "pillarName": "Lifestyle"}, {"id": "lifeandstyle/wordofmouth/2015/mar/30/how-to-eat-eggs-benedict", "type": "article", "sectionId": "food", "sectionName": "Food", "webPublicationDate": "2015-03-30T10:23:13Z", "webTitle": "How to eat eggs Benedict", "webUrl": "https://www.theguardian.com/lifeandstyle/wordofmouth/2015/mar/30/how-to-eat-eggs-benedict", "apiUrl": "https://content.guardianapis.com/lifeandstyle/wordofmouth/2015/mar/30/how-to-eat-eggs-benedict", "isHosted": false, "pillarId": "pillar/lifestyle", "pillarName": "Lifestyle"}, {"id": "lifeandstyle/2015/mar/30/cooking-up-excuses-katharine-whitehorn", "type": "article", "sectionId": "lifeandstyle", "sectionName": "Life and style", "webPublicationDate": "2015-03-30T10:00:11Z", "webTitle": "Cooking up excuses | Katharine Whitehorn", "webUrl": "https://www.theguardian.com/lifeandstyle/2015/mar/30/cooking-up-excuses-katharine-whitehorn", "apiUrl": "https://content.guardianapis.com/lifeandstyle/2015/mar/30/cooking-up-excuses-katharine-whitehorn", "isHosted": false, "pillarId": "pillar/lifestyle", "pillarName": "Lifestyle"}, {"id": "lifeandstyle/2015/mar/29/should-i-eat-more-eggs", "type": "article", "sectionId": "lifeandstyle", "sectionName": "Life and style", "webPublicationDate": "2015-03-29T17:30:01Z", "webTitle": "Should I eat more eggs?", "webUrl": "https://www.theguardian.com/lifeandstyle/2015/mar/29/should-i-eat-more-eggs", "apiUrl": "https://content.guardianapis.com/lifeandstyle/2015/mar/29/should-i-eat-more-eggs", "isHosted": false, "pillarId": "pillar/lifestyle", "pillarName": "Lifestyle"}, {"id": "lifeandstyle/2015/mar/29/microwave-lunch-meal-packed-lunch-recipes", "type": "article", "sectionId": "lifeandstyle", "sectionName": "Life and style", "webPublicationDate": "2015-03-29T09:00:01Z", "webTitle": "Hot or not: packed lunch ideas for the microwave | The lunch box", "webUrl": "https://www.theguardian.com/lifeandstyle/2015/mar/29/microwave-lunch-meal-packed-lunch-recipes", "apiUrl": "https://content.guardianapis.com/lifeandstyle/2015/mar/29/microwave-lunch-meal-packed-lunch-recipes", "isHosted": false, "pillarId": "pillar/lifestyle", "pillarName": "Lifestyle"}, {"id": "lifeandstyle/2015/mar/29/the-lamplighter-dining-rooms-restaurant-review", "type": "article", "sectionId": "food", "sectionName": "Food", "webPublicationDate": "2015-03-29T05:00:03Z", "webTitle": "The lamplighter dining rooms: restaurant review", "webUrl": "https://www.theguardian.com/lifeandstyle/2015/mar/29/the-lamplighter-dining-rooms-restaurant-review", "apiUrl": "https://content.guardianapis.com/lifeandstyle/2015/mar/29/the-lamplighter-dining-rooms-restaurant-review", "isHosted": false, "pillarId": "pillar/lifestyle", "pillarName": "Lifestyle"}, {"id": "lifeandstyle/2015/mar/29/toast-of-aldi-wines-david-williams", "type": "article", "sectionId": "food", "sectionName": "Food", "webPublicationDate": "2015-03-29T04:59:03Z", "webTitle": "The toast of Aldi\u2019s wines | David Williams", "webUrl": "https://www.theguardian.com/lifeandstyle/2015/mar/29/toast-of-aldi-wines-david-williams", "apiUrl": "https://content.guardianapis.com/lifeandstyle/2015/mar/29/toast-of-aldi-wines-david-williams", "isHosted": false, "pillarId": "pillar/lifestyle", "pillarName": "Lifestyle"}, {"id": "uk-news/2015/mar/29/chinatown-restaurants-london-threat-rent-rises", "type": "article", "sectionId": "uk-news", "sectionName": "UK news", "webPublicationDate": "2015-03-29T00:05:08Z", "webTitle": "Big trouble in little Chinatown as rent rises force restaurant owners out", "webUrl": "https://www.theguardian.com/uk-news/2015/mar/29/chinatown-restaurants-london-threat-rent-rises", "apiUrl": "https://content.guardianapis.com/uk-news/2015/mar/29/chinatown-restaurants-london-threat-rent-rises", "isHosted": false, "pillarId": "pillar/news", "pillarName": "News"}, {"id": "uk-news/2015/mar/29/jay-rayner-london-chinatown-restaurants-gentrification", "type": "article", "sectionId": "uk-news", "sectionName": "UK news", "webPublicationDate": "2015-03-29T00:04:08Z", "webTitle": "Gentrification is ripping the heart out of communities", "webUrl": "https://www.theguardian.com/uk-news/2015/mar/29/jay-rayner-london-chinatown-restaurants-gentrification", "apiUrl": "https://content.guardianapis.com/uk-news/2015/mar/29/jay-rayner-london-chinatown-restaurants-gentrification", "isHosted": false, "pillarId": "pillar/news", "pillarName": "News"}, {"id": "business/2015/mar/28/food-for-thought-londons-iconic-vegetarian-restaurant-set-for-closure", "type": "article", "sectionId": "business", "sectionName": "Business", "webPublicationDate": "2015-03-28T18:53:10Z", "webTitle": "Food For Thought, London's iconic vegetarian restaurant, set for closure", "webUrl": "https://www.theguardian.com/business/2015/mar/28/food-for-thought-londons-iconic-vegetarian-restaurant-set-for-closure", "apiUrl": "https://content.guardianapis.com/business/2015/mar/28/food-for-thought-londons-iconic-vegetarian-restaurant-set-for-closure", "isHosted": false, "pillarId": "pillar/news", "pillarName": "News"}, {"id": "lifeandstyle/2015/mar/28/tarragon-recipes-chicken-beetroot-thomasina-miers", "type": "article", "sectionId": "food", "sectionName": "Food", "webPublicationDate": "2015-03-28T13:59:06Z", "webTitle": "The weekend cook: Thomasina Miers\u2019 recipes with tarragon", "webUrl": "https://www.theguardian.com/lifeandstyle/2015/mar/28/tarragon-recipes-chicken-beetroot-thomasina-miers", "apiUrl": "https://content.guardianapis.com/lifeandstyle/2015/mar/28/tarragon-recipes-chicken-beetroot-thomasina-miers", "isHosted": false, "pillarId": "pillar/lifestyle", "pillarName": "Lifestyle"}, {"id": "lifeandstyle/2015/mar/28/100-recipes-challenge-cook-shelley-mcalister", "type": "article", "sectionId": "food", "sectionName": "Food", "webPublicationDate": "2015-03-28T12:00:04Z", "webTitle": "When a cook cooked Cook", "webUrl": "https://www.theguardian.com/lifeandstyle/2015/mar/28/100-recipes-challenge-cook-shelley-mcalister", "apiUrl": "https://content.guardianapis.com/lifeandstyle/2015/mar/28/100-recipes-challenge-cook-shelley-mcalister", "isHosted": false, "pillarId": "pillar/lifestyle", "pillarName": "Lifestyle"}, {"id": "lifeandstyle/2015/mar/28/cream-cheese-recipes-10-best-french-toast-baked-eggs-onions", "type": "article", "sectionId": "lifeandstyle", "sectionName": "Life and style", "webPublicationDate": "2015-03-28T12:00:04Z", "webTitle": "Our 10 best cream cheese recipes", "webUrl": "https://www.theguardian.com/lifeandstyle/2015/mar/28/cream-cheese-recipes-10-best-french-toast-baked-eggs-onions", "apiUrl": "https://content.guardianapis.com/lifeandstyle/2015/mar/28/cream-cheese-recipes-10-best-french-toast-baked-eggs-onions", "isHosted": false, "pillarId": "pillar/lifestyle", "pillarName": "Lifestyle"}, {"id": "travel/2015/mar/28/valentine-warner-street-food-mexico-city-tacos", "type": "article", "sectionId": "travel", "sectionName": "Travel", "webPublicationDate": "2015-03-28T07:00:10Z", "webTitle": "The foodie traveller \u2026 chef Valentine Warner in Mexico City", "webUrl": "https://www.theguardian.com/travel/2015/mar/28/valentine-warner-street-food-mexico-city-tacos", "apiUrl": "https://content.guardianapis.com/travel/2015/mar/28/valentine-warner-street-food-mexico-city-tacos", "isHosted": false, "pillarId": "pillar/lifestyle", "pillarName": "Lifestyle"}, {"id": "lifeandstyle/2015/mar/28/family-life-my-policeman-father-dutch-princess-short-people-chunky-pottage", "type": "article", "sectionId": "lifeandstyle", "sectionName": "Life and style", "webPublicationDate": "2015-03-28T06:44:09Z", "webTitle": "Family life: My policeman father and the Dutch princess, Short People and chunky pottage", "webUrl": "https://www.theguardian.com/lifeandstyle/2015/mar/28/family-life-my-policeman-father-dutch-princess-short-people-chunky-pottage", "apiUrl": "https://content.guardianapis.com/lifeandstyle/2015/mar/28/family-life-my-policeman-father-dutch-princess-short-people-chunky-pottage", "isHosted": false, "pillarId": "pillar/lifestyle", "pillarName": "Lifestyle"}, {"id": "lifeandstyle/2015/mar/28/nora-ephron-ricotta-pancakes-breakfast-of-champions", "type": "article", "sectionId": "lifeandstyle", "sectionName": "Life and style", "webPublicationDate": "2015-03-28T06:00:09Z", "webTitle": "Breakfast of champions: Nora Ephron\u2019s ricotta pancakes\r\n", "webUrl": "https://www.theguardian.com/lifeandstyle/2015/mar/28/nora-ephron-ricotta-pancakes-breakfast-of-champions", "apiUrl": "https://content.guardianapis.com/lifeandstyle/2015/mar/28/nora-ephron-ricotta-pancakes-breakfast-of-champions", "isHosted": false, "pillarId": "pillar/lifestyle", "pillarName": "Lifestyle"}, {"id": "lifeandstyle/2015/mar/28/banana-bakes-sesame-fritters-banana-thyme-cake-recipe-ruby-tandoh", "type": "article", "sectionId": "food", "sectionName": "Food", "webPublicationDate": "2015-03-28T05:59:09Z", "webTitle": "All ripe now: recipes for baking with mushy bananas | Ruby bakes", "webUrl": "https://www.theguardian.com/lifeandstyle/2015/mar/28/banana-bakes-sesame-fritters-banana-thyme-cake-recipe-ruby-tandoh", "apiUrl": "https://content.guardianapis.com/lifeandstyle/2015/mar/28/banana-bakes-sesame-fritters-banana-thyme-cake-recipe-ruby-tandoh", "isHosted": false, "pillarId": "pillar/lifestyle", "pillarName": "Lifestyle"}, {"id": "lifeandstyle/2015/mar/27/hop-scotch-cocktail-recipe-giles-looker", "type": "article", "sectionId": "food", "sectionName": "Food", "webPublicationDate": "2015-03-27T18:00:04Z", "webTitle": "The good mixer: hop scotch cocktail recipe", "webUrl": "https://www.theguardian.com/lifeandstyle/2015/mar/27/hop-scotch-cocktail-recipe-giles-looker", "apiUrl": "https://content.guardianapis.com/lifeandstyle/2015/mar/27/hop-scotch-cocktail-recipe-giles-looker", "isHosted": false, "pillarId": "pillar/lifestyle", "pillarName": "Lifestyle"}, {"id": "lifeandstyle/2015/mar/27/artisan-roasters-black-gold-uk-coffee-lovers-coaltown-extract", "type": "article", "sectionId": "business", "sectionName": "Business", "webPublicationDate": "2015-03-27T16:08:30Z", "webTitle": "Artisan roasters strike black gold with UK coffee lovers", "webUrl": "https://www.theguardian.com/lifeandstyle/2015/mar/27/artisan-roasters-black-gold-uk-coffee-lovers-coaltown-extract", "apiUrl": "https://content.guardianapis.com/lifeandstyle/2015/mar/27/artisan-roasters-black-gold-uk-coffee-lovers-coaltown-extract", "isHosted": false, "pillarId": "pillar/news", "pillarName": "News"}, {"id": "lifeandstyle/wordofmouth/2015/mar/27/sriracha-powder-popcorn-ketchup-crisps", "type": "article", "sectionId": "food", "sectionName": "Food", "webPublicationDate": "2015-03-27T15:11:52Z", "webTitle": "Rejoice, rejoice, for sriracha powder is on its way", "webUrl": "https://www.theguardian.com/lifeandstyle/wordofmouth/2015/mar/27/sriracha-powder-popcorn-ketchup-crisps", "apiUrl": "https://content.guardianapis.com/lifeandstyle/wordofmouth/2015/mar/27/sriracha-powder-popcorn-ketchup-crisps", "isHosted": false, "pillarId": "pillar/lifestyle", "pillarName": "Lifestyle"}, {"id": "environment/2015/mar/27/james-rebanks-twitters-favourite-shepherd", "type": "article", "sectionId": "environment", "sectionName": "Environment", "webPublicationDate": "2015-03-27T15:00:00Z", "webTitle": "James Rebanks, Twitter\u2019s favourite shepherd: \u2018Sheep farming is another form of culture, just like Picasso or punk\u2019", "webUrl": "https://www.theguardian.com/environment/2015/mar/27/james-rebanks-twitters-favourite-shepherd", "apiUrl": "https://content.guardianapis.com/environment/2015/mar/27/james-rebanks-twitters-favourite-shepherd", "isHosted": false, "pillarId": "pillar/news", "pillarName": "News"}, {"id": "lifeandstyle/2015/mar/27/bo-drake-restaurant-review-marina-oloughlin", "type": "article", "sectionId": "lifeandstyle", "sectionName": "Life and style", "webPublicationDate": "2015-03-27T13:59:09Z", "webTitle": "B\u00f3 Drake, London W1 \u2013 restaurant review | Marina O\u2019Loughlin", "webUrl": "https://www.theguardian.com/lifeandstyle/2015/mar/27/bo-drake-restaurant-review-marina-oloughlin", "apiUrl": "https://content.guardianapis.com/lifeandstyle/2015/mar/27/bo-drake-restaurant-review-marina-oloughlin", "isHosted": false, "pillarId": "pillar/lifestyle", "pillarName": "Lifestyle"}, {"id": "lifeandstyle/2015/mar/27/brandy-de-jerez-sherry-drink", "type": "article", "sectionId": "food", "sectionName": "Food", "webPublicationDate": "2015-03-27T12:00:07Z", "webTitle": "Brandy de Jerez: a drink for the sherry lover | Empire of drinks", "webUrl": "https://www.theguardian.com/lifeandstyle/2015/mar/27/brandy-de-jerez-sherry-drink", "apiUrl": "https://content.guardianapis.com/lifeandstyle/2015/mar/27/brandy-de-jerez-sherry-drink", "isHosted": false, "pillarId": "pillar/lifestyle", "pillarName": "Lifestyle"}, {"id": "lifeandstyle/2015/mar/27/atul-kochar-final-meal-last-bites", "type": "article", "sectionId": "food", "sectionName": "Food", "webPublicationDate": "2015-03-27T12:00:07Z", "webTitle": "Man-go with a smile: Atul Kochar\u2019s final meal | Last bites", "webUrl": "https://www.theguardian.com/lifeandstyle/2015/mar/27/atul-kochar-final-meal-last-bites", "apiUrl": "https://content.guardianapis.com/lifeandstyle/2015/mar/27/atul-kochar-final-meal-last-bites", "isHosted": false, "pillarId": "pillar/lifestyle", "pillarName": "Lifestyle"}, {"id": "lifeandstyle/2015/mar/27/how-to-make-chutney-back-to-basics-henry-dimbleby", "type": "article", "sectionId": "lifeandstyle", "sectionName": "Life and style", "webPublicationDate": "2015-03-27T12:00:07Z", "webTitle": "When it\u2019s a jar: how to make your own chutney", "webUrl": "https://www.theguardian.com/lifeandstyle/2015/mar/27/how-to-make-chutney-back-to-basics-henry-dimbleby", "apiUrl": "https://content.guardianapis.com/lifeandstyle/2015/mar/27/how-to-make-chutney-back-to-basics-henry-dimbleby", "isHosted": false, "pillarId": "pillar/lifestyle", "pillarName": "Lifestyle"}, {"id": "lifeandstyle/wordofmouth/2015/mar/27/celeriac-chips-more-virtuous-and-less-filling-than-potato", "type": "article", "sectionId": "food", "sectionName": "Food", "webPublicationDate": "2015-03-27T10:53:46Z", "webTitle": "Celeriac chips: 'More virtuous, and less filling, than potato'", "webUrl": "https://www.theguardian.com/lifeandstyle/wordofmouth/2015/mar/27/celeriac-chips-more-virtuous-and-less-filling-than-potato", "apiUrl": "https://content.guardianapis.com/lifeandstyle/wordofmouth/2015/mar/27/celeriac-chips-more-virtuous-and-less-filling-than-potato", "isHosted": false, "pillarId": "pillar/lifestyle", "pillarName": "Lifestyle"}, {"id": "lifeandstyle/2015/mar/27/not-just-for-stews-reinventing-the-slow-cooker", "type": "article", "sectionId": "food", "sectionName": "Food", "webPublicationDate": "2015-03-27T10:46:49Z", "webTitle": "Not just for stews: reinventing the slow cooker", "webUrl": "https://www.theguardian.com/lifeandstyle/2015/mar/27/not-just-for-stews-reinventing-the-slow-cooker", "apiUrl": "https://content.guardianapis.com/lifeandstyle/2015/mar/27/not-just-for-stews-reinventing-the-slow-cooker", "isHosted": false, "pillarId": "pillar/lifestyle", "pillarName": "Lifestyle"}, {"id": "lifeandstyle/2015/mar/27/raspberry-coconut-lemon-syrup-cake-recipe", "type": "article", "sectionId": "lifeandstyle", "sectionName": "Life and style", "webPublicationDate": "2015-03-27T09:00:08Z", "webTitle": "How to make raspberry, coconut and lemon syrup cake \u2013 recipe", "webUrl": "https://www.theguardian.com/lifeandstyle/2015/mar/27/raspberry-coconut-lemon-syrup-cake-recipe", "apiUrl": "https://content.guardianapis.com/lifeandstyle/2015/mar/27/raspberry-coconut-lemon-syrup-cake-recipe", "isHosted": false, "pillarId": "pillar/lifestyle", "pillarName": "Lifestyle"}, {"id": "lifeandstyle/2015/mar/27/sydneys-royal-easter-show-terrible-food-but-a-strangely-good-day-out", "type": "article", "sectionId": "lifeandstyle", "sectionName": "Life and style", "webPublicationDate": "2015-03-27T07:15:06Z", "webTitle": "Sydney's Royal Easter show: terrible food, but a strangely good day out", "webUrl": "https://www.theguardian.com/lifeandstyle/2015/mar/27/sydneys-royal-easter-show-terrible-food-but-a-strangely-good-day-out", "apiUrl": "https://content.guardianapis.com/lifeandstyle/2015/mar/27/sydneys-royal-easter-show-terrible-food-but-a-strangely-good-day-out", "isHosted": false, "pillarId": "pillar/lifestyle", "pillarName": "Lifestyle"}, {"id": "lifeandstyle/2015/mar/26/supermarket-easter-wine-bargain-fiona-beckett", "type": "article", "sectionId": "food", "sectionName": "Food", "webPublicationDate": "2015-03-26T17:59:10Z", "webTitle": "Wine: hop to it for Easter bargains", "webUrl": "https://www.theguardian.com/lifeandstyle/2015/mar/26/supermarket-easter-wine-bargain-fiona-beckett", "apiUrl": "https://content.guardianapis.com/lifeandstyle/2015/mar/26/supermarket-easter-wine-bargain-fiona-beckett", "isHosted": false, "pillarId": "pillar/lifestyle", "pillarName": "Lifestyle"}, {"id": "lifeandstyle/2015/mar/26/food52-genius-recipes-katie-wilon-photographer-prestat-easter-eggs-back-in-time-for-dinner-grazer", "type": "article", "sectionId": "lifeandstyle", "sectionName": "Life and style", "webPublicationDate": "2015-03-26T12:00:07Z", "webTitle": "\u2018Genius\u2019 recipes, chef portraits and Easter eggs | The grazer", "webUrl": "https://www.theguardian.com/lifeandstyle/2015/mar/26/food52-genius-recipes-katie-wilon-photographer-prestat-easter-eggs-back-in-time-for-dinner-grazer", "apiUrl": "https://content.guardianapis.com/lifeandstyle/2015/mar/26/food52-genius-recipes-katie-wilon-photographer-prestat-easter-eggs-back-in-time-for-dinner-grazer", "isHosted": false, "pillarId": "pillar/lifestyle", "pillarName": "Lifestyle"}, {"id": "lifeandstyle/wordofmouth/2015/mar/26/polenta-chips-theres-a-reason-nigella-uses-this-stuff", "type": "article", "sectionId": "food", "sectionName": "Food", "webPublicationDate": "2015-03-26T11:39:09Z", "webTitle": "Polenta chips: 'There's a reason Nigella uses this stuff'", "webUrl": "https://www.theguardian.com/lifeandstyle/wordofmouth/2015/mar/26/polenta-chips-theres-a-reason-nigella-uses-this-stuff", "apiUrl": "https://content.guardianapis.com/lifeandstyle/wordofmouth/2015/mar/26/polenta-chips-theres-a-reason-nigella-uses-this-stuff", "isHosted": false, "pillarId": "pillar/lifestyle", "pillarName": "Lifestyle"}, {"id": "lifeandstyle/2015/mar/26/how-to-cook-the-perfect-sinmel-cake", "type": "article", "sectionId": "food", "sectionName": "Food", "webPublicationDate": "2015-03-26T08:00:02Z", "webTitle": "How to cook the perfect simnel cake", "webUrl": "https://www.theguardian.com/lifeandstyle/2015/mar/26/how-to-cook-the-perfect-sinmel-cake", "apiUrl": "https://content.guardianapis.com/lifeandstyle/2015/mar/26/how-to-cook-the-perfect-sinmel-cake", "isHosted": false, "pillarId": "pillar/lifestyle", "pillarName": "Lifestyle"}, {"id": "commentisfree/2015/mar/26/after-the-onions-theres-no-doubt-tony-abbott-is-a-loose-unit", "type": "article", "sectionId": "commentisfree", "sectionName": "Opinion", "webPublicationDate": "2015-03-26T02:55:38Z", "webTitle": "After the onions, there's no longer any doubt. Tony Abbott is a 'loose unit' | Jason Wilson", "webUrl": "https://www.theguardian.com/commentisfree/2015/mar/26/after-the-onions-theres-no-doubt-tony-abbott-is-a-loose-unit", "apiUrl": "https://content.guardianapis.com/commentisfree/2015/mar/26/after-the-onions-theres-no-doubt-tony-abbott-is-a-loose-unit", "isHosted": false, "pillarId": "pillar/opinion", "pillarName": "Opinion"}, {"id": "lifeandstyle/2015/mar/25/kraft-heinz-ketchup-hot-dog-culture-wars", "type": "article", "sectionId": "food", "sectionName": "Food", "webPublicationDate": "2015-03-25T21:00:09Z", "webTitle": "How the Kraft-Heinz merger will revive the great hot dog culture wars", "webUrl": "https://www.theguardian.com/lifeandstyle/2015/mar/25/kraft-heinz-ketchup-hot-dog-culture-wars", "apiUrl": "https://content.guardianapis.com/lifeandstyle/2015/mar/25/kraft-heinz-ketchup-hot-dog-culture-wars", "isHosted": false, "pillarId": "pillar/lifestyle", "pillarName": "Lifestyle"}, {"id": "lifeandstyle/2015/mar/25/best-easter-eggs-chocolate-hot-cross-buns-simnel-cake-taste-test", "type": "article", "sectionId": "food", "sectionName": "Food", "webPublicationDate": "2015-03-25T13:33:17Z", "webTitle": "The best Easter eggs, chocolate, hot cross buns and simnel cake \u2013 taste test", "webUrl": "https://www.theguardian.com/lifeandstyle/2015/mar/25/best-easter-eggs-chocolate-hot-cross-buns-simnel-cake-taste-test", "apiUrl": "https://content.guardianapis.com/lifeandstyle/2015/mar/25/best-easter-eggs-chocolate-hot-cross-buns-simnel-cake-taste-test", "isHosted": false, "pillarId": "pillar/lifestyle", "pillarName": "Lifestyle"}, {"id": "lifeandstyle/wordofmouth/2015/mar/25/breadfruit-chips-a-decent-enough-chip-if-you-really-cant-find-a-potato", "type": "article", "sectionId": "lifeandstyle", "sectionName": "Life and style", "webPublicationDate": "2015-03-25T11:41:53Z", "webTitle": "Breadfruit chips: 'A decent-enough chip \u2013 if you really can't find a potato'", "webUrl": "https://www.theguardian.com/lifeandstyle/wordofmouth/2015/mar/25/breadfruit-chips-a-decent-enough-chip-if-you-really-cant-find-a-potato", "apiUrl": "https://content.guardianapis.com/lifeandstyle/wordofmouth/2015/mar/25/breadfruit-chips-a-decent-enough-chip-if-you-really-cant-find-a-potato", "isHosted": false, "pillarId": "pillar/lifestyle", "pillarName": "Lifestyle"}, {"id": "lifeandstyle/2015/mar/25/jack-monroe-bunny-bucco-rabbit-stew-recipe", "type": "article", "sectionId": "lifeandstyle", "sectionName": "Life and style", "webPublicationDate": "2015-03-25T11:11:52Z", "webTitle": "Jack Monroe\u2019s bunny bucco recipe", "webUrl": "https://www.theguardian.com/lifeandstyle/2015/mar/25/jack-monroe-bunny-bucco-rabbit-stew-recipe", "apiUrl": "https://content.guardianapis.com/lifeandstyle/2015/mar/25/jack-monroe-bunny-bucco-rabbit-stew-recipe", "isHosted": false, "pillarId": "pillar/lifestyle", "pillarName": "Lifestyle"}, {"id": "lifeandstyle/2015/mar/25/adults-stop-kidding-yourself-fast-food-is-a-fix-for-your-nostalgia-not-hunger", "type": "article", "sectionId": "lifeandstyle", "sectionName": "Life and style", "webPublicationDate": "2015-03-25T06:05:46Z", "webTitle": "Adults, stop kidding yourself: fast food is a fix for your nostalgia, not hunger", "webUrl": "https://www.theguardian.com/lifeandstyle/2015/mar/25/adults-stop-kidding-yourself-fast-food-is-a-fix-for-your-nostalgia-not-hunger", "apiUrl": "https://content.guardianapis.com/lifeandstyle/2015/mar/25/adults-stop-kidding-yourself-fast-food-is-a-fix-for-your-nostalgia-not-hunger", "isHosted": false, "pillarId": "pillar/lifestyle", "pillarName": "Lifestyle"}, {"id": "society/2015/mar/25/ban-fast-food-outlets-nhs-hospitals-mps", "type": "article", "sectionId": "society", "sectionName": "Society", "webPublicationDate": "2015-03-25T00:01:06Z", "webTitle": "Ban fast-food outlets from hospitals, MPs demand", "webUrl": "https://www.theguardian.com/society/2015/mar/25/ban-fast-food-outlets-nhs-hospitals-mps", "apiUrl": "https://content.guardianapis.com/society/2015/mar/25/ban-fast-food-outlets-nhs-hospitals-mps", "isHosted": false, "pillarId": "pillar/news", "pillarName": "News"}, {"id": "uk-news/the-northerner/2015/mar/24/the-roadhouse-closes-the-new-aumbry-opens-mary-ellen-mctague", "type": "article", "sectionId": "uk-news", "sectionName": "UK news", "webPublicationDate": "2015-03-24T17:47:51Z", "webTitle": "New Aumbry to open on Roadhouse site in Manchester", "webUrl": "https://www.theguardian.com/uk-news/the-northerner/2015/mar/24/the-roadhouse-closes-the-new-aumbry-opens-mary-ellen-mctague", "apiUrl": "https://content.guardianapis.com/uk-news/the-northerner/2015/mar/24/the-roadhouse-closes-the-new-aumbry-opens-mary-ellen-mctague", "isHosted": false, "pillarId": "pillar/news", "pillarName": "News"}, {"id": "lifeandstyle/wordofmouth/2015/mar/24/why-meat-free-week-wont-work", "type": "article", "sectionId": "lifeandstyle", "sectionName": "Life and style", "webPublicationDate": "2015-03-24T12:53:17Z", "webTitle": "Why Meat Free Week won't work", "webUrl": "https://www.theguardian.com/lifeandstyle/wordofmouth/2015/mar/24/why-meat-free-week-wont-work", "apiUrl": "https://content.guardianapis.com/lifeandstyle/wordofmouth/2015/mar/24/why-meat-free-week-wont-work", "isHosted": false, "pillarId": "pillar/lifestyle", "pillarName": "Lifestyle"}, {"id": "lifeandstyle/2015/mar/24/my-kitchen-amy-chaplin-kitchen-encounters", "type": "article", "sectionId": "lifeandstyle", "sectionName": "Life and style", "webPublicationDate": "2015-03-24T12:00:01Z", "webTitle": "My kitchen: Amy Chaplin | Kitchen encounters", "webUrl": "https://www.theguardian.com/lifeandstyle/2015/mar/24/my-kitchen-amy-chaplin-kitchen-encounters", "apiUrl": "https://content.guardianapis.com/lifeandstyle/2015/mar/24/my-kitchen-amy-chaplin-kitchen-encounters", "isHosted": false, "pillarId": "pillar/lifestyle", "pillarName": "Lifestyle"}, {"id": "lifeandstyle/wordofmouth/2015/mar/24/porridge-chips-not-coming-to-a-menu-near-you-any-time-soon", "type": "article", "sectionId": "food", "sectionName": "Food", "webPublicationDate": "2015-03-24T10:54:00Z", "webTitle": "Porridge chips: 'Not coming to a menu near you any time soon'", "webUrl": "https://www.theguardian.com/lifeandstyle/wordofmouth/2015/mar/24/porridge-chips-not-coming-to-a-menu-near-you-any-time-soon", "apiUrl": "https://content.guardianapis.com/lifeandstyle/wordofmouth/2015/mar/24/porridge-chips-not-coming-to-a-menu-near-you-any-time-soon", "isHosted": false, "pillarId": "pillar/lifestyle", "pillarName": "Lifestyle"}, {"id": "travel/2015/mar/24/top-10-budget-restaurants-cafes-birmingham", "type": "article", "sectionId": "travel", "sectionName": "Travel", "webPublicationDate": "2015-03-24T06:00:00Z", "webTitle": "Top 10 budget restaurants and cafes in Birmingham", "webUrl": "https://www.theguardian.com/travel/2015/mar/24/top-10-budget-restaurants-cafes-birmingham", "apiUrl": "https://content.guardianapis.com/travel/2015/mar/24/top-10-budget-restaurants-cafes-birmingham", "isHosted": false, "pillarId": "pillar/lifestyle", "pillarName": "Lifestyle"}, {"id": "lifeandstyle/shortcuts/2015/mar/23/gum-control-how-lee-kuan-yew-kept-chewing-gum-off-singapores-streets", "type": "article", "sectionId": "food", "sectionName": "Food", "webPublicationDate": "2015-03-23T18:27:55Z", "webTitle": "Gum control: how Lee Kuan Yew kept chewing gum off Singapore's streets", "webUrl": "https://www.theguardian.com/lifeandstyle/shortcuts/2015/mar/23/gum-control-how-lee-kuan-yew-kept-chewing-gum-off-singapores-streets", "apiUrl": "https://content.guardianapis.com/lifeandstyle/shortcuts/2015/mar/23/gum-control-how-lee-kuan-yew-kept-chewing-gum-off-singapores-streets", "isHosted": false, "pillarId": "pillar/lifestyle", "pillarName": "Lifestyle"}]}}