{"response": {"status": "ok", "userTier": "developer", "total": 39675, "startIndex": 1, "pageSize": 50, "currentPage": 1, "pages": 794, "orderBy": "newest", "results": [{"id": "environment/2014/mar/30/world-pollutionwatch-air-quality-china-satellites", "type": "article", "sectionId": "environment", "sectionName": "Environment", "webPublicationDate": "2014-03-30T20:30:03Z", "webTitle": "World Pollutionwatch", "webUrl": "https://www.theguardian.com/environment/2014/mar/30/world-pollutionwatch-air-quality-china-satellites", "apiUrl": "https://content.guardianapis.com/environment/2014/mar/30/world-pollutionwatch-air-quality-china-satellites", "isHosted": false, "pillarId": "pillar/news", "pillarName": "News"}, {"id": "environment/2014/mar/30/blackwater-carr-norfolk-plague-frogs", "type": "article", "sectionId": "environment", "sectionName": "Environment", "webPublicationDate": "2014-03-30T20:00:00Z", "webTitle": "Country diary: Blackwater Carr, Norfolk: Oh, what I wouldn't give for a plague of frogs!", "webUrl": "https://www.theguardian.com/environment/2014/mar/30/blackwater-carr-norfolk-plague-frogs", "apiUrl": "https://content.guardianapis.com/environment/2014/mar/30/blackwater-carr-norfolk-plague-frogs", "isHosted": false, "pillarId": "pillar/news", "pillarName": "News"}, {"id": "environment/2014/mar/30/james-lovelock-environmentalism-religion", "type": "article", "sectionId": "environment", "sectionName": "Environment", "webPublicationDate": "2014-03-30T17:30:29Z", "webTitle": "James Lovelock: environmentalism has become a religion", "webUrl": "https://www.theguardian.com/environment/2014/mar/30/james-lovelock-environmentalism-religion", "apiUrl": "https://content.guardianapis.com/environment/2014/mar/30/james-lovelock-environmentalism-religion", "isHosted": false, "pillarId": "pillar/news", "pillarName": "News"}, {"id": "environment/2014/mar/30/james-lovelock-robots-taking-over-world", "type": "article", "sectionId": "environment", "sectionName": "Environment", "webPublicationDate": "2014-03-30T17:30:00Z", "webTitle": "James Lovelock: 'Instead of robots taking over the world, what if we join with them?'", "webUrl": "https://www.theguardian.com/environment/2014/mar/30/james-lovelock-robots-taking-over-world", "apiUrl": "https://content.guardianapis.com/environment/2014/mar/30/james-lovelock-robots-taking-over-world", "isHosted": false, "pillarId": "pillar/news", "pillarName": "News"}, {"id": "environment/2014/mar/30/eco-settings-white-goods-any-difference", "type": "article", "sectionId": "environment", "sectionName": "Environment", "webPublicationDate": "2014-03-30T07:30:00Z", "webTitle": "Do eco settings on white goods make any difference? | Lucy Siegle", "webUrl": "https://www.theguardian.com/environment/2014/mar/30/eco-settings-white-goods-any-difference", "apiUrl": "https://content.guardianapis.com/environment/2014/mar/30/eco-settings-white-goods-any-difference", "isHosted": false, "pillarId": "pillar/news", "pillarName": "News"}, {"id": "world/gallery/2014/mar/30/earth-hour-around-the-world-in-pictures", "type": "gallery", "sectionId": "environment", "sectionName": "Environment", "webPublicationDate": "2014-03-30T01:10:02Z", "webTitle": "Earth Hour around the world \u2013 in pictures", "webUrl": "https://www.theguardian.com/world/gallery/2014/mar/30/earth-hour-around-the-world-in-pictures", "apiUrl": "https://content.guardianapis.com/world/gallery/2014/mar/30/earth-hour-around-the-world-in-pictures", "isHosted": false, "pillarId": "pillar/news", "pillarName": "News"}, {"id": "environment/2014/mar/30/uk-global-warming-battle-ed-davey-lib-dem-energy-climate-change", "type": "article", "sectionId": "environment", "sectionName": "Environment", "webPublicationDate": "2014-03-30T00:06:00Z", "webTitle": "Britain must take lead in global warming battle, says Ed Davey", "webUrl": "https://www.theguardian.com/environment/2014/mar/30/uk-global-warming-battle-ed-davey-lib-dem-energy-climate-change", "apiUrl": "https://content.guardianapis.com/environment/2014/mar/30/uk-global-warming-battle-ed-davey-lib-dem-energy-climate-change", "isHosted": false, "pillarId": "pillar/news", "pillarName": "News"}, {"id": "environment/gallery/2014/mar/30/climate-change-coffee-central-america", "type": "gallery", "sectionId": "environment", "sectionName": "Environment", "webPublicationDate": "2014-03-30T00:05:00Z", "webTitle": "Central America coffee workers' stories", "webUrl": "https://www.theguardian.com/environment/gallery/2014/mar/30/climate-change-coffee-central-america", "apiUrl": "https://content.guardianapis.com/environment/gallery/2014/mar/30/climate-change-coffee-central-america", "isHosted": false, "pillarId": "pillar/news", "pillarName": "News"}, {"id": "environment/2014/mar/30/latin-america-climate-change-coffee-crops-rust-fungus-threat-hemileaia-vastatrix", "type": "article", "sectionId": "environment", "sectionName": "Environment", "webPublicationDate": "2014-03-30T00:04:00Z", "webTitle": "Latin America: how climate change will wipe out coffee crops \u2013 and farmers", "webUrl": "https://www.theguardian.com/environment/2014/mar/30/latin-america-climate-change-coffee-crops-rust-fungus-threat-hemileaia-vastatrix", "apiUrl": "https://content.guardianapis.com/environment/2014/mar/30/latin-america-climate-change-coffee-crops-rust-fungus-threat-hemileaia-vastatrix", "isHosted": false, "pillarId": "pillar/news", "pillarName": "News"}, {"id": "environment/2014/mar/28/llanfrothen-quarryman-walks-hills-peace", "type": "article", "sectionId": "environment", "sectionName": "Environment", "webPublicationDate": "2014-03-28T20:59:01Z", "webTitle": "Country diary: Llanfrothen: Quarryman who walked the hills at peace with himself", "webUrl": "https://www.theguardian.com/environment/2014/mar/28/llanfrothen-quarryman-walks-hills-peace", "apiUrl": "https://content.guardianapis.com/environment/2014/mar/28/llanfrothen-quarryman-walks-hills-peace", "isHosted": false, "pillarId": "pillar/news", "pillarName": "News"}, {"id": "environment/earth-insight/2014/mar/28/global-market-shock-oil-crash-2015-peak", "type": "article", "sectionId": "environment", "sectionName": "Environment", "webPublicationDate": "2014-03-28T18:38:00Z", "webTitle": "Ex govt adviser: \"global market shock\" from \"oil crash\" could hit in 2015 | Nafeez Ahmed", "webUrl": "https://www.theguardian.com/environment/earth-insight/2014/mar/28/global-market-shock-oil-crash-2015-peak", "apiUrl": "https://content.guardianapis.com/environment/earth-insight/2014/mar/28/global-market-shock-oil-crash-2015-peak", "isHosted": false, "pillarId": "pillar/news", "pillarName": "News"}, {"id": "environment/2014/mar/28/white-house-strategy-methane-emissions-oil-gas-industry", "type": "article", "sectionId": "environment", "sectionName": "Environment", "webPublicationDate": "2014-03-28T16:45:04Z", "webTitle": "White House opens door to new rules to cut methane emissions", "webUrl": "https://www.theguardian.com/environment/2014/mar/28/white-house-strategy-methane-emissions-oil-gas-industry", "apiUrl": "https://content.guardianapis.com/environment/2014/mar/28/white-house-strategy-methane-emissions-oil-gas-industry", "isHosted": false, "pillarId": "pillar/news", "pillarName": "News"}, {"id": "film/2014/mar/28/inuit-seal-sealfies-selfie-degeneres-oscars", "type": "article", "sectionId": "film", "sectionName": "Film", "webPublicationDate": "2014-03-28T16:34:00Z", "webTitle": "Canadian Inuit post 'sealfies' in protest over Ellen DeGeneres' Oscar-night selfie", "webUrl": "https://www.theguardian.com/film/2014/mar/28/inuit-seal-sealfies-selfie-degeneres-oscars", "apiUrl": "https://content.guardianapis.com/film/2014/mar/28/inuit-seal-sealfies-selfie-degeneres-oscars", "isHosted": false, "pillarId": "pillar/arts", "pillarName": "Arts"}, {"id": "environment/2014/mar/28/climate-change-bad-expensive-coffee-ipcc", "type": "article", "sectionId": "environment", "sectionName": "Environment", "webPublicationDate": "2014-03-28T16:00:00Z", "webTitle": "How climate change will brew a bad-tasting, expensive cup of coffee", "webUrl": "https://www.theguardian.com/environment/2014/mar/28/climate-change-bad-expensive-coffee-ipcc", "apiUrl": "https://content.guardianapis.com/environment/2014/mar/28/climate-change-bad-expensive-coffee-ipcc", "isHosted": false, "pillarId": "pillar/news", "pillarName": "News"}, {"id": "sustainable-business/formula-e-electric-cars-racing-aspirational", "type": "article", "sectionId": "sustainable-business", "sectionName": "Guardian Sustainable Business", "webPublicationDate": "2014-03-28T14:56:00Z", "webTitle": "Electric cars aren't seen as aspirational; new 'Formula E' could help", "webUrl": "https://www.theguardian.com/sustainable-business/formula-e-electric-cars-racing-aspirational", "apiUrl": "https://content.guardianapis.com/sustainable-business/formula-e-electric-cars-racing-aspirational", "isHosted": false}, {"id": "world/iran-blog/2014/mar/28/iran-dirt-gold-mafia-trash-recycling", "type": "article", "sectionId": "world", "sectionName": "World news", "webPublicationDate": "2014-03-28T14:32:22Z", "webTitle": "Recycling Iranian style", "webUrl": "https://www.theguardian.com/world/iran-blog/2014/mar/28/iran-dirt-gold-mafia-trash-recycling", "apiUrl": "https://content.guardianapis.com/world/iran-blog/2014/mar/28/iran-dirt-gold-mafia-trash-recycling", "isHosted": false, "pillarId": "pillar/news", "pillarName": "News"}, {"id": "environment/gallery/2014/mar/28/the-week-in-wildlife-in-pictures", "type": "gallery", "sectionId": "environment", "sectionName": "Environment", "webPublicationDate": "2014-03-28T14:04:29Z", "webTitle": "The week in wildlife - in pictures", "webUrl": "https://www.theguardian.com/environment/gallery/2014/mar/28/the-week-in-wildlife-in-pictures", "apiUrl": "https://content.guardianapis.com/environment/gallery/2014/mar/28/the-week-in-wildlife-in-pictures", "isHosted": false, "pillarId": "pillar/news", "pillarName": "News"}, {"id": "lifeandstyle/video/2014/mar/28/gleaning-network-unwanted-food-waste-video", "type": "video", "sectionId": "lifeandstyle", "sectionName": "Life and style", "webPublicationDate": "2014-03-28T13:03:00Z", "webTitle": "Gleaning up: harvesting tonnes of unwanted food \u2013 video", "webUrl": "https://www.theguardian.com/lifeandstyle/video/2014/mar/28/gleaning-network-unwanted-food-waste-video", "apiUrl": "https://content.guardianapis.com/lifeandstyle/video/2014/mar/28/gleaning-network-unwanted-food-waste-video", "isHosted": false, "pillarId": "pillar/lifestyle", "pillarName": "Lifestyle"}, {"id": "environment/2014/mar/28/ipcc-report-climate-change-report-human-natural-systems", "type": "article", "sectionId": "environment", "sectionName": "Environment", "webPublicationDate": "2014-03-28T12:28:15Z", "webTitle": "IPCC report: climate change felt 'on all continents and across the oceans'", "webUrl": "https://www.theguardian.com/environment/2014/mar/28/ipcc-report-climate-change-report-human-natural-systems", "apiUrl": "https://content.guardianapis.com/environment/2014/mar/28/ipcc-report-climate-change-report-human-natural-systems", "isHosted": false, "pillarId": "pillar/news", "pillarName": "News"}, {"id": "environment/2014/mar/28/ipcc-climate-costs-estimate-meaningless", "type": "article", "sectionId": "environment", "sectionName": "Environment", "webPublicationDate": "2014-03-28T09:10:26Z", "webTitle": "Governments reject IPCC economist's 'meaningless' climate costs estimate", "webUrl": "https://www.theguardian.com/environment/2014/mar/28/ipcc-climate-costs-estimate-meaningless", "apiUrl": "https://content.guardianapis.com/environment/2014/mar/28/ipcc-climate-costs-estimate-meaningless", "isHosted": false, "pillarId": "pillar/news", "pillarName": "News"}, {"id": "environment/2014/mar/28/earth-hour-lights-out-wwf", "type": "article", "sectionId": "environment", "sectionName": "Environment", "webPublicationDate": "2014-03-28T09:00:00Z", "webTitle": "Earth Hour: millions to switch off lights around the world", "webUrl": "https://www.theguardian.com/environment/2014/mar/28/earth-hour-lights-out-wwf", "apiUrl": "https://content.guardianapis.com/environment/2014/mar/28/earth-hour-lights-out-wwf", "isHosted": false, "pillarId": "pillar/news", "pillarName": "News"}, {"id": "world/2014/mar/28/santos-investigated-toxic-water-spill", "type": "article", "sectionId": "world", "sectionName": "World news", "webPublicationDate": "2014-03-28T08:58:44Z", "webTitle": "Santos investigated for another \u2018toxic\u2019 water spill at coal seam gas plant", "webUrl": "https://www.theguardian.com/world/2014/mar/28/santos-investigated-toxic-water-spill", "apiUrl": "https://content.guardianapis.com/world/2014/mar/28/santos-investigated-toxic-water-spill", "isHosted": false, "pillarId": "pillar/news", "pillarName": "News"}, {"id": "world/2014/mar/28/energy-companies-sign-deal-farmers-no-to-coal-seam-gas", "type": "article", "sectionId": "world", "sectionName": "World news", "webPublicationDate": "2014-03-28T06:56:39Z", "webTitle": "Energy companies sign deal allowing NSW farmers to say no to coal seam gas", "webUrl": "https://www.theguardian.com/world/2014/mar/28/energy-companies-sign-deal-farmers-no-to-coal-seam-gas", "apiUrl": "https://content.guardianapis.com/world/2014/mar/28/energy-companies-sign-deal-farmers-no-to-coal-seam-gas", "isHosted": false, "pillarId": "pillar/news", "pillarName": "News"}, {"id": "business/2014/mar/27/ofgem-investigation-consumer-big-six", "type": "article", "sectionId": "business", "sectionName": "Business", "webPublicationDate": "2014-03-27T22:45:45Z", "webTitle": "Investigation is victory for consumer power over big six energy companies", "webUrl": "https://www.theguardian.com/business/2014/mar/27/ofgem-investigation-consumer-big-six", "apiUrl": "https://content.guardianapis.com/business/2014/mar/27/ofgem-investigation-consumer-big-six", "isHosted": false, "pillarId": "pillar/news", "pillarName": "News"}, {"id": "environment/2014/mar/27/allendale-northumberland-oak-beauty-lichened-wood", "type": "article", "sectionId": "environment", "sectionName": "Environment", "webPublicationDate": "2014-03-27T20:59:01Z", "webTitle": "Country diary: Allendale, Northumberland: The oak beauty moth had wings patterned like lichened wood", "webUrl": "https://www.theguardian.com/environment/2014/mar/27/allendale-northumberland-oak-beauty-lichened-wood", "apiUrl": "https://content.guardianapis.com/environment/2014/mar/27/allendale-northumberland-oak-beauty-lichened-wood", "isHosted": false, "pillarId": "pillar/news", "pillarName": "News"}, {"id": "business/2014/mar/27/ofgem-competition-commission-big-six-watchdog-fuel-bills", "type": "article", "sectionId": "business", "sectionName": "Business", "webPublicationDate": "2014-03-27T19:17:00Z", "webTitle": "Big six energy suppliers could be broken up after Ofgem triggers full investigation", "webUrl": "https://www.theguardian.com/business/2014/mar/27/ofgem-competition-commission-big-six-watchdog-fuel-bills", "apiUrl": "https://content.guardianapis.com/business/2014/mar/27/ofgem-competition-commission-big-six-watchdog-fuel-bills", "isHosted": false, "pillarId": "pillar/news", "pillarName": "News"}, {"id": "environment/2014/mar/27/jill-edbrooke", "type": "article", "sectionId": "environment", "sectionName": "Environment", "webPublicationDate": "2014-03-27T18:26:56Z", "webTitle": "Jill Edbrooke obituary", "webUrl": "https://www.theguardian.com/environment/2014/mar/27/jill-edbrooke", "apiUrl": "https://content.guardianapis.com/environment/2014/mar/27/jill-edbrooke", "isHosted": false, "pillarId": "pillar/news", "pillarName": "News"}, {"id": "environment/2014/mar/27/lorna-arnold", "type": "article", "sectionId": "environment", "sectionName": "Environment", "webPublicationDate": "2014-03-27T17:01:30Z", "webTitle": "Lorna Arnold obituary", "webUrl": "https://www.theguardian.com/environment/2014/mar/27/lorna-arnold", "apiUrl": "https://content.guardianapis.com/environment/2014/mar/27/lorna-arnold", "isHosted": false, "pillarId": "pillar/news", "pillarName": "News"}, {"id": "environment/picture/2014/mar/27/lake-kerkini-greece-pelicans-eyewitness", "type": "picture", "sectionId": "environment", "sectionName": "Environment", "webPublicationDate": "2014-03-27T14:41:41Z", "webTitle": "Eyewitness: Lake Kerkini, Greece", "webUrl": "https://www.theguardian.com/environment/picture/2014/mar/27/lake-kerkini-greece-pelicans-eyewitness", "apiUrl": "https://content.guardianapis.com/environment/picture/2014/mar/27/lake-kerkini-greece-pelicans-eyewitness", "isHosted": false, "pillarId": "pillar/news", "pillarName": "News"}, {"id": "environment/2014/mar/27/fracking-protest-village-balcombe-solar-power", "type": "article", "sectionId": "environment", "sectionName": "Environment", "webPublicationDate": "2014-03-27T13:40:07Z", "webTitle": "Fracking protest village Balcombe raises funds for solar power", "webUrl": "https://www.theguardian.com/environment/2014/mar/27/fracking-protest-village-balcombe-solar-power", "apiUrl": "https://content.guardianapis.com/environment/2014/mar/27/fracking-protest-village-balcombe-solar-power", "isHosted": false, "pillarId": "pillar/news", "pillarName": "News"}, {"id": "global-development/poverty-matters/2014/mar/27/waste-egypt-refuse-collectors-zabaleen-cairo", "type": "article", "sectionId": "global-development", "sectionName": "Global development", "webPublicationDate": "2014-03-27T13:14:31Z", "webTitle": "Waste not: Egypt's refuse collectors regain role at heart of Cairo society", "webUrl": "https://www.theguardian.com/global-development/poverty-matters/2014/mar/27/waste-egypt-refuse-collectors-zabaleen-cairo", "apiUrl": "https://content.guardianapis.com/global-development/poverty-matters/2014/mar/27/waste-egypt-refuse-collectors-zabaleen-cairo", "isHosted": false, "pillarId": "pillar/news", "pillarName": "News"}, {"id": "environment/damian-carrington-blog/2014/mar/27/energy-competition-enquiry-ofgem-low-carbon-big-six", "type": "article", "sectionId": "environment", "sectionName": "Environment", "webPublicationDate": "2014-03-27T13:04:08Z", "webTitle": "Why the energy competition enquiry is good for low-carbon energy", "webUrl": "https://www.theguardian.com/environment/damian-carrington-blog/2014/mar/27/energy-competition-enquiry-ofgem-low-carbon-big-six", "apiUrl": "https://content.guardianapis.com/environment/damian-carrington-blog/2014/mar/27/energy-competition-enquiry-ofgem-low-carbon-big-six", "isHosted": false, "pillarId": "pillar/news", "pillarName": "News"}, {"id": "teacher-network/teacher-blog/2014/mar/27/eco-school-games-climate-change", "type": "article", "sectionId": "teacher-network", "sectionName": "Teacher Network", "webPublicationDate": "2014-03-27T07:00:00Z", "webTitle": "Teachers swap climate change scare stories for fun and games", "webUrl": "https://www.theguardian.com/teacher-network/teacher-blog/2014/mar/27/eco-school-games-climate-change", "apiUrl": "https://content.guardianapis.com/teacher-network/teacher-blog/2014/mar/27/eco-school-games-climate-change", "isHosted": false, "pillarId": "pillar/news", "pillarName": "News"}, {"id": "environment/2014/mar/27/rubbish-on-british-beaches-reached-highest-levels-in-two-decades-in-2013", "type": "article", "sectionId": "environment", "sectionName": "Environment", "webPublicationDate": "2014-03-27T06:30:05Z", "webTitle": "Rubbish on British beaches reached highest levels in two decades in 2013", "webUrl": "https://www.theguardian.com/environment/2014/mar/27/rubbish-on-british-beaches-reached-highest-levels-in-two-decades-in-2013", "apiUrl": "https://content.guardianapis.com/environment/2014/mar/27/rubbish-on-british-beaches-reached-highest-levels-in-two-decades-in-2013", "isHosted": false, "pillarId": "pillar/news", "pillarName": "News"}, {"id": "environment/2014/mar/27/big-garden-bird-watch-rspb", "type": "article", "sectionId": "environment", "sectionName": "Environment", "webPublicationDate": "2014-03-27T06:00:00Z", "webTitle": "Blue tits, goldfinches and great spotted woodpeckers thriving in British gardens", "webUrl": "https://www.theguardian.com/environment/2014/mar/27/big-garden-bird-watch-rspb", "apiUrl": "https://content.guardianapis.com/environment/2014/mar/27/big-garden-bird-watch-rspb", "isHosted": false, "pillarId": "pillar/news", "pillarName": "News"}, {"id": "environment/planet-oz/2014/mar/27/climate-science-denial-funding-criminally-negligent-philosopher-hate-campaign", "type": "article", "sectionId": "environment", "sectionName": "Environment", "webPublicationDate": "2014-03-27T04:16:00Z", "webTitle": "Climate science sceptics target philosopher with toxic hate mail | Graham Readfearn", "webUrl": "https://www.theguardian.com/environment/planet-oz/2014/mar/27/climate-science-denial-funding-criminally-negligent-philosopher-hate-campaign", "apiUrl": "https://content.guardianapis.com/environment/planet-oz/2014/mar/27/climate-science-denial-funding-criminally-negligent-philosopher-hate-campaign", "isHosted": false, "pillarId": "pillar/news", "pillarName": "News"}, {"id": "world/2014/mar/27/flawed-direct-action-climate-plan-should-go-says-senate-committee", "type": "article", "sectionId": "australia-news", "sectionName": "Australia news", "webPublicationDate": "2014-03-27T04:03:13Z", "webTitle": "'Flawed' Direct Action climate plan should go, says Senate committee", "webUrl": "https://www.theguardian.com/world/2014/mar/27/flawed-direct-action-climate-plan-should-go-says-senate-committee", "apiUrl": "https://content.guardianapis.com/world/2014/mar/27/flawed-direct-action-climate-plan-should-go-says-senate-committee", "isHosted": false, "pillarId": "pillar/news", "pillarName": "News"}, {"id": "science/2014/mar/27/beaked-whale-new-mammalian-dive-record", "type": "article", "sectionId": "science", "sectionName": "Science", "webPublicationDate": "2014-03-27T00:17:23Z", "webTitle": "Beaked whale sets new mammalian dive record", "webUrl": "https://www.theguardian.com/science/2014/mar/27/beaked-whale-new-mammalian-dive-record", "apiUrl": "https://content.guardianapis.com/science/2014/mar/27/beaked-whale-new-mammalian-dive-record", "isHosted": false, "pillarId": "pillar/news", "pillarName": "News"}, {"id": "environment/2014/mar/26/wolsingham-weardale-wild-flowers-spring-aura-menace", "type": "article", "sectionId": "environment", "sectionName": "Environment", "webPublicationDate": "2014-03-26T21:00:00Z", "webTitle": "Country diary: Wolsingham, Weardale: The wild flowers of spring, with an aura of menace", "webUrl": "https://www.theguardian.com/environment/2014/mar/26/wolsingham-weardale-wild-flowers-spring-aura-menace", "apiUrl": "https://content.guardianapis.com/environment/2014/mar/26/wolsingham-weardale-wild-flowers-spring-aura-menace", "isHosted": false, "pillarId": "pillar/news", "pillarName": "News"}, {"id": "sustainable-business/palau-sharks-ban-commercial-fishing-tuna-industry", "type": "article", "sectionId": "sustainable-business", "sectionName": "Guardian Sustainable Business", "webPublicationDate": "2014-03-26T18:15:00Z", "webTitle": "Palau's plans to ban commercial fishing could set precedent for tuna industry", "webUrl": "https://www.theguardian.com/sustainable-business/palau-sharks-ban-commercial-fishing-tuna-industry", "apiUrl": "https://content.guardianapis.com/sustainable-business/palau-sharks-ban-commercial-fishing-tuna-industry", "isHosted": false}, {"id": "world/2014/mar/26/europe-asks-obama-increased-exports-shale-gas", "type": "article", "sectionId": "world", "sectionName": "World news", "webPublicationDate": "2014-03-26T17:50:38Z", "webTitle": "European leaders ask Obama to allow increased exports of US shale gas", "webUrl": "https://www.theguardian.com/world/2014/mar/26/europe-asks-obama-increased-exports-shale-gas", "apiUrl": "https://content.guardianapis.com/world/2014/mar/26/europe-asks-obama-increased-exports-shale-gas", "isHosted": false, "pillarId": "pillar/news", "pillarName": "News"}, {"id": "environment/2014/mar/26/will-shale-gas-make-europe-less-dependent-on-russian-gas", "type": "liveblog", "sectionId": "environment", "sectionName": "Environment", "webPublicationDate": "2014-03-26T17:42:48Z", "webTitle": "Will fracking make Europe less dependent on Russian gas?", "webUrl": "https://www.theguardian.com/environment/2014/mar/26/will-shale-gas-make-europe-less-dependent-on-russian-gas", "apiUrl": "https://content.guardianapis.com/environment/2014/mar/26/will-shale-gas-make-europe-less-dependent-on-russian-gas", "isHosted": false, "pillarId": "pillar/news", "pillarName": "News"}, {"id": "environment/shortcuts/2014/mar/26/california-juvenile-salmon-migrate-by-truck", "type": "article", "sectionId": "environment", "sectionName": "Environment", "webPublicationDate": "2014-03-26T17:38:22Z", "webTitle": "How California's juvenile salmon are migrating to the sea - in trucks", "webUrl": "https://www.theguardian.com/environment/shortcuts/2014/mar/26/california-juvenile-salmon-migrate-by-truck", "apiUrl": "https://content.guardianapis.com/environment/shortcuts/2014/mar/26/california-juvenile-salmon-migrate-by-truck", "isHosted": false, "pillarId": "pillar/news", "pillarName": "News"}, {"id": "environment/blog/2014/mar/26/bbc-failing-robust-debate-climate-change", "type": "article", "sectionId": "environment", "sectionName": "Environment", "webPublicationDate": "2014-03-26T17:03:55Z", "webTitle": "The BBC is failing to deliver a robust debate on climate change | Alice Bell", "webUrl": "https://www.theguardian.com/environment/blog/2014/mar/26/bbc-failing-robust-debate-climate-change", "apiUrl": "https://content.guardianapis.com/environment/blog/2014/mar/26/bbc-failing-robust-debate-climate-change", "isHosted": false, "pillarId": "pillar/news", "pillarName": "News"}, {"id": "world/video/2014/mar/26/washington-mudslide-four-year-old-child-rescued-video", "type": "video", "sectionId": "world", "sectionName": "World news", "webPublicationDate": "2014-03-26T16:46:00Z", "webTitle": "Washington mudslide: four-year-old child rescued by helicopter - video", "webUrl": "https://www.theguardian.com/world/video/2014/mar/26/washington-mudslide-four-year-old-child-rescued-video", "apiUrl": "https://content.guardianapis.com/world/video/2014/mar/26/washington-mudslide-four-year-old-child-rescued-video", "isHosted": false, "pillarId": "pillar/news", "pillarName": "News"}, {"id": "world/2014/mar/26/spain-oil-deposit-fracking-sites-energy-offshore-gas", "type": "article", "sectionId": "world", "sectionName": "World news", "webPublicationDate": "2014-03-26T16:02:38Z", "webTitle": "Spain's oil deposits and fracking sites trigger energy gold rush", "webUrl": "https://www.theguardian.com/world/2014/mar/26/spain-oil-deposit-fracking-sites-energy-offshore-gas", "apiUrl": "https://content.guardianapis.com/world/2014/mar/26/spain-oil-deposit-fracking-sites-energy-offshore-gas", "isHosted": false, "pillarId": "pillar/news", "pillarName": "News"}, {"id": "lifeandstyle/2014/mar/26/whats-stopping-you-from-cycling", "type": "article", "sectionId": "lifeandstyle", "sectionName": "Life and style", "webPublicationDate": "2014-03-26T14:39:13Z", "webTitle": "What's stopping you from cycling?", "webUrl": "https://www.theguardian.com/lifeandstyle/2014/mar/26/whats-stopping-you-from-cycling", "apiUrl": "https://content.guardianapis.com/lifeandstyle/2014/mar/26/whats-stopping-you-from-cycling", "isHosted": false, "pillarId": "pillar/lifestyle", "pillarName": "Lifestyle"}, {"id": "sustainable-business/rare-earth-metals-upgrade-recycle-ethical-china", "type": "article", "sectionId": "sustainable-business", "sectionName": "Guardian Sustainable Business", "webPublicationDate": "2014-03-26T14:29:00Z", "webTitle": "Rare earth metals: tech manufacturers must think again, and so must users", "webUrl": "https://www.theguardian.com/sustainable-business/rare-earth-metals-upgrade-recycle-ethical-china", "apiUrl": "https://content.guardianapis.com/sustainable-business/rare-earth-metals-upgrade-recycle-ethical-china", "isHosted": false}, {"id": "environment/2014/mar/26/app-deforestation-greenpeace-campaign", "type": "article", "sectionId": "environment", "sectionName": "Environment", "webPublicationDate": "2014-03-26T13:35:29Z", "webTitle": "Is APP's zero deforestation pledge a green villain's dramatic turnaround?", "webUrl": "https://www.theguardian.com/environment/2014/mar/26/app-deforestation-greenpeace-campaign", "apiUrl": "https://content.guardianapis.com/environment/2014/mar/26/app-deforestation-greenpeace-campaign", "isHosted": false, "pillarId": "pillar/news", "pillarName": "News"}, {"id": "environment/blog/2014/mar/26/events-climate-change-extreme-weather", "type": "article", "sectionId": "environment", "sectionName": "Environment", "webPublicationDate": "2014-03-26T12:31:59Z", "webTitle": "'Events, dear boy, events' have put climate change back on the agenda | Tom Burke", "webUrl": "https://www.theguardian.com/environment/blog/2014/mar/26/events-climate-change-extreme-weather", "apiUrl": "https://content.guardianapis.com/environment/blog/2014/mar/26/events-climate-change-extreme-weather", "isHosted": false, "pillarId": "pillar/news", "pillarName": "News"}]}}