{"response": {"status": "ok", "userTier": "developer", "total": 28793, "startIndex": 1, "pageSize": 50, "currentPage": 1, "pages": 576, "orderBy": "newest", "results": [{"id": "environment/2011/mar/31/country-diary-northamptonshire", "type": "article", "sectionId": "environment", "sectionName": "Environment", "webPublicationDate": "2011-03-30T23:05:02Z", "webTitle": "Country diary: Northamptonshire", "webUrl": "https://www.theguardian.com/environment/2011/mar/31/country-diary-northamptonshire", "apiUrl": "https://content.guardianapis.com/environment/2011/mar/31/country-diary-northamptonshire", "isHosted": false, "pillarId": "pillar/news", "pillarName": "News"}, {"id": "world/2011/mar/30/japan-radioactive-contamination-marine-life", "type": "article", "sectionId": "world", "sectionName": "World news", "webPublicationDate": "2011-03-30T17:57:45Z", "webTitle": "Japan fears radioactive contamination of marine life", "webUrl": "https://www.theguardian.com/world/2011/mar/30/japan-radioactive-contamination-marine-life", "apiUrl": "https://content.guardianapis.com/world/2011/mar/30/japan-radioactive-contamination-marine-life", "isHosted": false, "pillarId": "pillar/news", "pillarName": "News"}, {"id": "world/2011/mar/30/new-europe-spain-solar-power", "type": "article", "sectionId": "world", "sectionName": "World news", "webPublicationDate": "2011-03-30T17:37:26Z", "webTitle": "Spain's financial crisis claims another victim: the solar power industry", "webUrl": "https://www.theguardian.com/world/2011/mar/30/new-europe-spain-solar-power", "apiUrl": "https://content.guardianapis.com/world/2011/mar/30/new-europe-spain-solar-power", "isHosted": false, "pillarId": "pillar/news", "pillarName": "News"}, {"id": "environment/blog/2011/mar/30/smart-meters-power-firms", "type": "article", "sectionId": "environment", "sectionName": "Environment", "webPublicationDate": "2011-03-30T16:56:44Z", "webTitle": "Why smart meters could make power firms richer | John Vidal", "webUrl": "https://www.theguardian.com/environment/blog/2011/mar/30/smart-meters-power-firms", "apiUrl": "https://content.guardianapis.com/environment/blog/2011/mar/30/smart-meters-power-firms", "isHosted": false, "pillarId": "pillar/news", "pillarName": "News"}, {"id": "environment/2011/mar/30/1", "type": "article", "sectionId": "environment", "sectionName": "Environment", "webPublicationDate": "2011-03-30T16:25:55Z", "webTitle": "Green news round-up: Nuclear power, adder abnormalities and Earth Hour in pictures", "webUrl": "https://www.theguardian.com/environment/2011/mar/30/1", "apiUrl": "https://content.guardianapis.com/environment/2011/mar/30/1", "isHosted": false, "pillarId": "pillar/news", "pillarName": "News"}, {"id": "environment/blog/2011/mar/30/greenpeace-facebook-unfriend-coal", "type": "article", "sectionId": "environment", "sectionName": "Environment", "webPublicationDate": "2011-03-30T16:03:17Z", "webTitle": "Greenpeace targets Facebook employees in clean energy campaign | Felicity Carus", "webUrl": "https://www.theguardian.com/environment/blog/2011/mar/30/greenpeace-facebook-unfriend-coal", "apiUrl": "https://content.guardianapis.com/environment/blog/2011/mar/30/greenpeace-facebook-unfriend-coal", "isHosted": false, "pillarId": "pillar/news", "pillarName": "News"}, {"id": "environment/2011/mar/30/uk-waterways-charity", "type": "article", "sectionId": "environment", "sectionName": "Environment", "webPublicationDate": "2011-03-30T14:53:57Z", "webTitle": "New charity to take control of English and Welsh canals and waterways", "webUrl": "https://www.theguardian.com/environment/2011/mar/30/uk-waterways-charity", "apiUrl": "https://content.guardianapis.com/environment/2011/mar/30/uk-waterways-charity", "isHosted": false, "pillarId": "pillar/news", "pillarName": "News"}, {"id": "environment/2011/mar/30/senate-vote-obama-climate-change", "type": "article", "sectionId": "environment", "sectionName": "Environment", "webPublicationDate": "2011-03-30T12:54:15Z", "webTitle": "Senate vote may end Obama's climate change ambitions", "webUrl": "https://www.theguardian.com/environment/2011/mar/30/senate-vote-obama-climate-change", "apiUrl": "https://content.guardianapis.com/environment/2011/mar/30/senate-vote-obama-climate-change", "isHosted": false, "pillarId": "pillar/news", "pillarName": "News"}, {"id": "environment/2011/mar/30/tesla-sue-top-gear", "type": "article", "sectionId": "environment", "sectionName": "Environment", "webPublicationDate": "2011-03-30T10:43:08Z", "webTitle": "Tesla sues Top Gear over 'faked' electric car race", "webUrl": "https://www.theguardian.com/environment/2011/mar/30/tesla-sue-top-gear", "apiUrl": "https://content.guardianapis.com/environment/2011/mar/30/tesla-sue-top-gear", "isHosted": false, "pillarId": "pillar/news", "pillarName": "News"}, {"id": "environment/2011/mar/30/smart-meter-uk-household-saving", "type": "article", "sectionId": "environment", "sectionName": "Environment", "webPublicationDate": "2011-03-30T10:28:17Z", "webTitle": "Smart meters predicted to save UK households \u00a323 a year by 2020", "webUrl": "https://www.theguardian.com/environment/2011/mar/30/smart-meter-uk-household-saving", "apiUrl": "https://content.guardianapis.com/environment/2011/mar/30/smart-meter-uk-household-saving", "isHosted": false, "pillarId": "pillar/news", "pillarName": "News"}, {"id": "world/2011/mar/30/radiation-rises-seawater-fukushima-plant", "type": "article", "sectionId": "world", "sectionName": "World news", "webPublicationDate": "2011-03-30T09:51:00Z", "webTitle": "Radiation rises in seawater near Fukushima plant", "webUrl": "https://www.theguardian.com/world/2011/mar/30/radiation-rises-seawater-fukushima-plant", "apiUrl": "https://content.guardianapis.com/world/2011/mar/30/radiation-rises-seawater-fukushima-plant", "isHosted": false, "pillarId": "pillar/news", "pillarName": "News"}, {"id": "sport/london-2012-olympics-blog/2011/mar/30/olympics-london-2012-air-pollution-boris", "type": "article", "sectionId": "sport", "sectionName": "Sport", "webPublicationDate": "2011-03-30T08:00:00Z", "webTitle": "The race for clean Olympic air | H\u00e9l\u00e8ne Mulholland", "webUrl": "https://www.theguardian.com/sport/london-2012-olympics-blog/2011/mar/30/olympics-london-2012-air-pollution-boris", "apiUrl": "https://content.guardianapis.com/sport/london-2012-olympics-blog/2011/mar/30/olympics-london-2012-air-pollution-boris", "isHosted": false, "pillarId": "pillar/sport", "pillarName": "Sport"}, {"id": "society/2011/mar/30/cuts-rubbish-street-repairs", "type": "article", "sectionId": "society", "sectionName": "Society", "webPublicationDate": "2011-03-30T07:30:00Z", "webTitle": "How have the cuts affected rubbish and street repairs?", "webUrl": "https://www.theguardian.com/society/2011/mar/30/cuts-rubbish-street-repairs", "apiUrl": "https://content.guardianapis.com/society/2011/mar/30/cuts-rubbish-street-repairs", "isHosted": false, "pillarId": "pillar/news", "pillarName": "News"}, {"id": "environment/2011/mar/30/gas-emissions-reduced-animal-diet", "type": "article", "sectionId": "environment", "sectionName": "Environment", "webPublicationDate": "2011-03-30T00:30:31Z", "webTitle": "Gas emissions reduced by changing farm animal diet says study", "webUrl": "https://www.theguardian.com/environment/2011/mar/30/gas-emissions-reduced-animal-diet", "apiUrl": "https://content.guardianapis.com/environment/2011/mar/30/gas-emissions-reduced-animal-diet", "isHosted": false, "pillarId": "pillar/news", "pillarName": "News"}, {"id": "environment/2011/mar/30/country-diary-wenlock-edge", "type": "article", "sectionId": "environment", "sectionName": "Environment", "webPublicationDate": "2011-03-29T23:05:00Z", "webTitle": "Country diary: Wenlock Edge", "webUrl": "https://www.theguardian.com/environment/2011/mar/30/country-diary-wenlock-edge", "apiUrl": "https://content.guardianapis.com/environment/2011/mar/30/country-diary-wenlock-edge", "isHosted": false, "pillarId": "pillar/news", "pillarName": "News"}, {"id": "world/2011/mar/29/japan-cell-transplants-nuclear-workers", "type": "article", "sectionId": "world", "sectionName": "World news", "webPublicationDate": "2011-03-29T20:52:58Z", "webTitle": "Japanese officials consider cell transplants for nuclear workers", "webUrl": "https://www.theguardian.com/world/2011/mar/29/japan-cell-transplants-nuclear-workers", "apiUrl": "https://content.guardianapis.com/world/2011/mar/29/japan-cell-transplants-nuclear-workers", "isHosted": false, "pillarId": "pillar/news", "pillarName": "News"}, {"id": "uk/2011/mar/29/osprey-scotland-record-21st-time", "type": "article", "sectionId": "uk-news", "sectionName": "UK news", "webPublicationDate": "2011-03-29T20:14:27Z", "webTitle": "Granny osprey flies back to Scotland from Africa for record 21st time", "webUrl": "https://www.theguardian.com/uk/2011/mar/29/osprey-scotland-record-21st-time", "apiUrl": "https://content.guardianapis.com/uk/2011/mar/29/osprey-scotland-record-21st-time", "isHosted": false, "pillarId": "pillar/news", "pillarName": "News"}, {"id": "environment/2011/mar/29/japan-nuclear-clegg-energy-policy", "type": "article", "sectionId": "environment", "sectionName": "Environment", "webPublicationDate": "2011-03-29T19:55:46Z", "webTitle": "Fukushima disaster causes fallout for nuclear industry worldwide", "webUrl": "https://www.theguardian.com/environment/2011/mar/29/japan-nuclear-clegg-energy-policy", "apiUrl": "https://content.guardianapis.com/environment/2011/mar/29/japan-nuclear-clegg-energy-policy", "isHosted": false, "pillarId": "pillar/news", "pillarName": "News"}, {"id": "world/2011/mar/29/japan-nuclear-plant-us-robots", "type": "article", "sectionId": "world", "sectionName": "World news", "webPublicationDate": "2011-03-29T19:04:48Z", "webTitle": "Japan nuclear plant gets help from US robots", "webUrl": "https://www.theguardian.com/world/2011/mar/29/japan-nuclear-plant-us-robots", "apiUrl": "https://content.guardianapis.com/world/2011/mar/29/japan-nuclear-plant-us-robots", "isHosted": false, "pillarId": "pillar/news", "pillarName": "News"}, {"id": "world/2011/mar/29/japan-lost-race-save-nuclear-reactor", "type": "article", "sectionId": "world", "sectionName": "World news", "webPublicationDate": "2011-03-29T15:53:56Z", "webTitle": "Japan may have lost race to save nuclear reactor", "webUrl": "https://www.theguardian.com/world/2011/mar/29/japan-lost-race-save-nuclear-reactor", "apiUrl": "https://content.guardianapis.com/world/2011/mar/29/japan-lost-race-save-nuclear-reactor", "isHosted": false, "pillarId": "pillar/news", "pillarName": "News"}, {"id": "uk/2011/mar/29/fukushima-raditation-found-across-uk", "type": "article", "sectionId": "uk-news", "sectionName": "UK news", "webPublicationDate": "2011-03-29T15:05:07Z", "webTitle": "Fukushima radiation from Japan's stricken plant detected across UK", "webUrl": "https://www.theguardian.com/uk/2011/mar/29/fukushima-raditation-found-across-uk", "apiUrl": "https://content.guardianapis.com/uk/2011/mar/29/fukushima-raditation-found-across-uk", "isHosted": false, "pillarId": "pillar/news", "pillarName": "News"}, {"id": "environment/2011/mar/29/nuclear-power-safe-sir-david-king", "type": "article", "sectionId": "environment", "sectionName": "Environment", "webPublicationDate": "2011-03-29T14:57:14Z", "webTitle": "Nuclear is the safest form of power, says top UK scientist", "webUrl": "https://www.theguardian.com/environment/2011/mar/29/nuclear-power-safe-sir-david-king", "apiUrl": "https://content.guardianapis.com/environment/2011/mar/29/nuclear-power-safe-sir-david-king", "isHosted": false, "pillarId": "pillar/news", "pillarName": "News"}, {"id": "world/2011/mar/29/plutonium-fukushima", "type": "article", "sectionId": "world", "sectionName": "World news", "webPublicationDate": "2011-03-29T14:15:00Z", "webTitle": "Q&A: Plutonium detected at Fukushima", "webUrl": "https://www.theguardian.com/world/2011/mar/29/plutonium-fukushima", "apiUrl": "https://content.guardianapis.com/world/2011/mar/29/plutonium-fukushima", "isHosted": false, "pillarId": "pillar/news", "pillarName": "News"}, {"id": "business/2011/mar/29/bp-managers-gulf-oil-spill-possible-manslaughter-charges", "type": "article", "sectionId": "business", "sectionName": "Business", "webPublicationDate": "2011-03-29T13:57:14Z", "webTitle": "BP managers could face manslaughter charges over Gulf oil spill", "webUrl": "https://www.theguardian.com/business/2011/mar/29/bp-managers-gulf-oil-spill-possible-manslaughter-charges", "apiUrl": "https://content.guardianapis.com/business/2011/mar/29/bp-managers-gulf-oil-spill-possible-manslaughter-charges", "isHosted": false, "pillarId": "pillar/news", "pillarName": "News"}, {"id": "environment/2011/mar/29/climate-gulf-stream-atlantic-drift-thermohaline", "type": "article", "sectionId": "environment", "sectionName": "Environment", "webPublicationDate": "2011-03-29T13:49:08Z", "webTitle": "Will the Gulf Stream slow down, freezing the UK and northern Europe?", "webUrl": "https://www.theguardian.com/environment/2011/mar/29/climate-gulf-stream-atlantic-drift-thermohaline", "apiUrl": "https://content.guardianapis.com/environment/2011/mar/29/climate-gulf-stream-atlantic-drift-thermohaline", "isHosted": false, "pillarId": "pillar/news", "pillarName": "News"}, {"id": "environment/2011/mar/29/fast-food-litter-uk-streets", "type": "article", "sectionId": "environment", "sectionName": "Environment", "webPublicationDate": "2011-03-29T11:30:04Z", "webTitle": "Fast-food wrappers top list of litter dropped on UK streets", "webUrl": "https://www.theguardian.com/environment/2011/mar/29/fast-food-litter-uk-streets", "apiUrl": "https://content.guardianapis.com/environment/2011/mar/29/fast-food-litter-uk-streets", "isHosted": false, "pillarId": "pillar/news", "pillarName": "News"}, {"id": "environment/video/2011/mar/29/waste-london-bin-men-video", "type": "video", "sectionId": "environment", "sectionName": "Environment", "webPublicationDate": "2011-03-29T10:18:00Z", "webTitle": "Below the waste line: Rolling with London's bin men - video", "webUrl": "https://www.theguardian.com/environment/video/2011/mar/29/waste-london-bin-men-video", "apiUrl": "https://content.guardianapis.com/environment/video/2011/mar/29/waste-london-bin-men-video", "isHosted": false, "pillarId": "pillar/news", "pillarName": "News"}, {"id": "world/gallery/2011/mar/29/japan-disaster-week-three-in-pictures", "type": "gallery", "sectionId": "world", "sectionName": "World news", "webPublicationDate": "2011-03-29T09:17:00Z", "webTitle": "Fukushima nuclear plant emergency: week three - in pictures", "webUrl": "https://www.theguardian.com/world/gallery/2011/mar/29/japan-disaster-week-three-in-pictures", "apiUrl": "https://content.guardianapis.com/world/gallery/2011/mar/29/japan-disaster-week-three-in-pictures", "isHosted": false, "pillarId": "pillar/news", "pillarName": "News"}, {"id": "world/2011/mar/29/japan-mulls-nationalising-fukushima-company", "type": "article", "sectionId": "world", "sectionName": "World news", "webPublicationDate": "2011-03-29T08:53:00Z", "webTitle": "Japan mulls nationalising Fukushima nuclear plant company", "webUrl": "https://www.theguardian.com/world/2011/mar/29/japan-mulls-nationalising-fukushima-company", "apiUrl": "https://content.guardianapis.com/world/2011/mar/29/japan-mulls-nationalising-fukushima-company", "isHosted": false, "pillarId": "pillar/news", "pillarName": "News"}, {"id": "lifeandstyle/2011/mar/29/sara-cox-organic-food", "type": "article", "sectionId": "lifeandstyle", "sectionName": "Life and style", "webPublicationDate": "2011-03-29T07:30:00Z", "webTitle": "Sara Cox's other passion: organic food", "webUrl": "https://www.theguardian.com/lifeandstyle/2011/mar/29/sara-cox-organic-food", "apiUrl": "https://content.guardianapis.com/lifeandstyle/2011/mar/29/sara-cox-organic-food", "isHosted": false, "pillarId": "pillar/lifestyle", "pillarName": "Lifestyle"}, {"id": "environment/gallery/2011/mar/29/agricultural-patterns-space", "type": "gallery", "sectionId": "environment", "sectionName": "Environment", "webPublicationDate": "2011-03-29T06:00:00Z", "webTitle": "Agricultural patterns from space \u2013 in pictures", "webUrl": "https://www.theguardian.com/environment/gallery/2011/mar/29/agricultural-patterns-space", "apiUrl": "https://content.guardianapis.com/environment/gallery/2011/mar/29/agricultural-patterns-space", "isHosted": false, "pillarId": "pillar/news", "pillarName": "News"}, {"id": "environment/2011/mar/29/uk-global-green-investment-rankings", "type": "article", "sectionId": "environment", "sectionName": "Environment", "webPublicationDate": "2011-03-29T04:00:01Z", "webTitle": "UK slips down global green investment rankings", "webUrl": "https://www.theguardian.com/environment/2011/mar/29/uk-global-green-investment-rankings", "apiUrl": "https://content.guardianapis.com/environment/2011/mar/29/uk-global-green-investment-rankings", "isHosted": false, "pillarId": "pillar/news", "pillarName": "News"}, {"id": "world/2011/mar/29/japan-fukushima-plutonium-traces-soil", "type": "article", "sectionId": "world", "sectionName": "World news", "webPublicationDate": "2011-03-29T00:55:07Z", "webTitle": "Fukushima soil contains plutonium traces, according to Japanese officials", "webUrl": "https://www.theguardian.com/world/2011/mar/29/japan-fukushima-plutonium-traces-soil", "apiUrl": "https://content.guardianapis.com/world/2011/mar/29/japan-fukushima-plutonium-traces-soil", "isHosted": false, "pillarId": "pillar/news", "pillarName": "News"}, {"id": "environment/2011/mar/29/nuclear-industry-uk-expansion-king", "type": "article", "sectionId": "environment", "sectionName": "Environment", "webPublicationDate": "2011-03-28T23:29:50Z", "webTitle": "British nuclear industry needs overhaul before it can expand, says top scientist", "webUrl": "https://www.theguardian.com/environment/2011/mar/29/nuclear-industry-uk-expansion-king", "apiUrl": "https://content.guardianapis.com/environment/2011/mar/29/nuclear-industry-uk-expansion-king", "isHosted": false, "pillarId": "pillar/news", "pillarName": "News"}, {"id": "environment/2011/mar/29/country-diary-derbyshire-moles", "type": "article", "sectionId": "environment", "sectionName": "Environment", "webPublicationDate": "2011-03-28T23:05:03Z", "webTitle": "Country diary: North Derbyshire", "webUrl": "https://www.theguardian.com/environment/2011/mar/29/country-diary-derbyshire-moles", "apiUrl": "https://content.guardianapis.com/environment/2011/mar/29/country-diary-derbyshire-moles", "isHosted": false, "pillarId": "pillar/news", "pillarName": "News"}, {"id": "environment/2011/mar/29/national-trust-appeal-snowdonia", "type": "article", "sectionId": "environment", "sectionName": "Environment", "webPublicationDate": "2011-03-28T23:01:00Z", "webTitle": "National Trust launches \u00a31m appeal to buy farm and lake in Snowdonia", "webUrl": "https://www.theguardian.com/environment/2011/mar/29/national-trust-appeal-snowdonia", "apiUrl": "https://content.guardianapis.com/environment/2011/mar/29/national-trust-appeal-snowdonia", "isHosted": false, "pillarId": "pillar/news", "pillarName": "News"}, {"id": "world/2011/mar/28/japan-nuclear-plant-partial-meltdown", "type": "article", "sectionId": "world", "sectionName": "World news", "webPublicationDate": "2011-03-28T19:26:00Z", "webTitle": "Fukushima's partial meltdown increases fears of contaminated seawater and soil", "webUrl": "https://www.theguardian.com/world/2011/mar/28/japan-nuclear-plant-partial-meltdown", "apiUrl": "https://content.guardianapis.com/world/2011/mar/28/japan-nuclear-plant-partial-meltdown", "isHosted": false, "pillarId": "pillar/news", "pillarName": "News"}, {"id": "world/2011/mar/28/japan-fukushima-nuclear-reactors-electricity", "type": "article", "sectionId": "world", "sectionName": "World news", "webPublicationDate": "2011-03-28T19:16:28Z", "webTitle": "Fukushima engineers hampered by lack of power in fight to cool reactors", "webUrl": "https://www.theguardian.com/world/2011/mar/28/japan-fukushima-nuclear-reactors-electricity", "apiUrl": "https://content.guardianapis.com/world/2011/mar/28/japan-fukushima-nuclear-reactors-electricity", "isHosted": false, "pillarId": "pillar/news", "pillarName": "News"}, {"id": "environment/blog/2011/mar/28/global-warming-1993-ad", "type": "article", "sectionId": "environment", "sectionName": "Environment", "webPublicationDate": "2011-03-28T14:53:00Z", "webTitle": "Solved: The mystery of the 1993 global warming TV ad | Leo Hickman", "webUrl": "https://www.theguardian.com/environment/blog/2011/mar/28/global-warming-1993-ad", "apiUrl": "https://content.guardianapis.com/environment/blog/2011/mar/28/global-warming-1993-ad", "isHosted": false, "pillarId": "pillar/news", "pillarName": "News"}, {"id": "commentisfree/2011/mar/28/police-spying-protesters-cuts-protest-undercover", "type": "article", "sectionId": "commentisfree", "sectionName": "Opinion", "webPublicationDate": "2011-03-28T13:30:00Z", "webTitle": "Stop police spying on protesters | Bradley Day", "webUrl": "https://www.theguardian.com/commentisfree/2011/mar/28/police-spying-protesters-cuts-protest-undercover", "apiUrl": "https://content.guardianapis.com/commentisfree/2011/mar/28/police-spying-protesters-cuts-protest-undercover", "isHosted": false, "pillarId": "pillar/opinion", "pillarName": "Opinion"}, {"id": "global/2011/mar/28/oil-reserves-shell-supply", "type": "article", "sectionId": "commentisfree", "sectionName": "Opinion", "webPublicationDate": "2011-03-28T12:00:00Z", "webTitle": "In the dark over oil reserves | Andrew Simms", "webUrl": "https://www.theguardian.com/global/2011/mar/28/oil-reserves-shell-supply", "apiUrl": "https://content.guardianapis.com/global/2011/mar/28/oil-reserves-shell-supply", "isHosted": false, "pillarId": "pillar/opinion", "pillarName": "Opinion"}, {"id": "environment/gallery/2011/mar/28/genetic-survey-adders", "type": "gallery", "sectionId": "environment", "sectionName": "Environment", "webPublicationDate": "2011-03-28T10:49:57Z", "webTitle": "Genetic survey of adders - in pictures", "webUrl": "https://www.theguardian.com/environment/gallery/2011/mar/28/genetic-survey-adders", "apiUrl": "https://content.guardianapis.com/environment/gallery/2011/mar/28/genetic-survey-adders", "isHosted": false, "pillarId": "pillar/news", "pillarName": "News"}, {"id": "environment/2011/mar/25/global-cooling", "type": "article", "sectionId": "environment", "sectionName": "Environment", "webPublicationDate": "2011-03-28T06:36:00Z", "webTitle": "Haven't we had 'global cooling' lately?", "webUrl": "https://www.theguardian.com/environment/2011/mar/25/global-cooling", "apiUrl": "https://content.guardianapis.com/environment/2011/mar/25/global-cooling", "isHosted": false, "pillarId": "pillar/news", "pillarName": "News"}, {"id": "world/2011/mar/27/japan-nuclear-error-radiation-reading", "type": "article", "sectionId": "world", "sectionName": "World news", "webPublicationDate": "2011-03-28T00:10:00Z", "webTitle": "Japanese nuclear firm admits error on radiation reading", "webUrl": "https://www.theguardian.com/world/2011/mar/27/japan-nuclear-error-radiation-reading", "apiUrl": "https://content.guardianapis.com/world/2011/mar/27/japan-nuclear-error-radiation-reading", "isHosted": false, "pillarId": "pillar/news", "pillarName": "News"}, {"id": "environment/2011/mar/28/country-diary-grasmere-lake-district", "type": "article", "sectionId": "environment", "sectionName": "Environment", "webPublicationDate": "2011-03-27T23:05:11Z", "webTitle": "Country diary: Grasmere, Lake District", "webUrl": "https://www.theguardian.com/environment/2011/mar/28/country-diary-grasmere-lake-district", "apiUrl": "https://content.guardianapis.com/environment/2011/mar/28/country-diary-grasmere-lake-district", "isHosted": false, "pillarId": "pillar/news", "pillarName": "News"}, {"id": "environment/2011/mar/28/dwindling-adder-numbers-genetic-survey", "type": "article", "sectionId": "environment", "sectionName": "Environment", "webPublicationDate": "2011-03-27T23:05:00Z", "webTitle": "Adder abnormalities lead to UK's first genetic survey of snakes", "webUrl": "https://www.theguardian.com/environment/2011/mar/28/dwindling-adder-numbers-genetic-survey", "apiUrl": "https://content.guardianapis.com/environment/2011/mar/28/dwindling-adder-numbers-genetic-survey", "isHosted": false, "pillarId": "pillar/news", "pillarName": "News"}, {"id": "world/2011/mar/27/german-green-victory-fukushima", "type": "article", "sectionId": "world", "sectionName": "World news", "webPublicationDate": "2011-03-27T19:11:45Z", "webTitle": "German Greens hail state victory in vote overshadowed by Fukushima", "webUrl": "https://www.theguardian.com/world/2011/mar/27/german-green-victory-fukushima", "apiUrl": "https://content.guardianapis.com/world/2011/mar/27/german-green-victory-fukushima", "isHosted": false, "pillarId": "pillar/news", "pillarName": "News"}, {"id": "environment/2011/mar/27/india-tiger-population-rise-census", "type": "article", "sectionId": "environment", "sectionName": "Environment", "webPublicationDate": "2011-03-27T14:50:15Z", "webTitle": "India's tiger numbers increase for first time in a decade, says census", "webUrl": "https://www.theguardian.com/environment/2011/mar/27/india-tiger-population-rise-census", "apiUrl": "https://content.guardianapis.com/environment/2011/mar/27/india-tiger-population-rise-census", "isHosted": false, "pillarId": "pillar/news", "pillarName": "News"}, {"id": "world/2011/mar/27/japan-nuclear-fukushima-radiation-tsunami", "type": "article", "sectionId": "world", "sectionName": "World news", "webPublicationDate": "2011-03-27T09:42:44Z", "webTitle": "Japan nuclear workers evacuated after radiation levels soar", "webUrl": "https://www.theguardian.com/world/2011/mar/27/japan-nuclear-fukushima-radiation-tsunami", "apiUrl": "https://content.guardianapis.com/world/2011/mar/27/japan-nuclear-fukushima-radiation-tsunami", "isHosted": false, "pillarId": "pillar/news", "pillarName": "News"}, {"id": "world/2011/mar/27/fukushima-crisis-workers-radiation-fears", "type": "article", "sectionId": "world", "sectionName": "World news", "webPublicationDate": "2011-03-27T00:06:31Z", "webTitle": "Fukushima crisis: radiation fears grow for low-paid heroes battling disaster", "webUrl": "https://www.theguardian.com/world/2011/mar/27/fukushima-crisis-workers-radiation-fears", "apiUrl": "https://content.guardianapis.com/world/2011/mar/27/fukushima-crisis-workers-radiation-fears", "isHosted": false, "pillarId": "pillar/news", "pillarName": "News"}]}}