{"response": {"status": "ok", "userTier": "developer", "total": 88448, "startIndex": 1, "pageSize": 50, "currentPage": 1, "pages": 1769, "orderBy": "newest", "results": [{"id": "football/gallery/2013/mar/30/martin-oneill-sunderland-in-pictures", "type": "gallery", "sectionId": "football", "sectionName": "Football", "webPublicationDate": "2013-03-30T23:54:00Z", "webTitle": "Martin O'Neill's career as Sunderland manager \u2013 in pictures", "webUrl": "https://www.theguardian.com/football/gallery/2013/mar/30/martin-oneill-sunderland-in-pictures", "apiUrl": "https://content.guardianapis.com/football/gallery/2013/mar/30/martin-oneill-sunderland-in-pictures", "isHosted": false, "pillarId": "pillar/sport", "pillarName": "Sport"}, {"id": "football/blog/2013/mar/30/harry-redknapp-paul-gascoigne", "type": "article", "sectionId": "football", "sectionName": "Football", "webPublicationDate": "2013-03-30T23:27:00Z", "webTitle": "Yes, Harry Redknapp wheels and he deals but he also delivers | Daniel Taylor", "webUrl": "https://www.theguardian.com/football/blog/2013/mar/30/harry-redknapp-paul-gascoigne", "apiUrl": "https://content.guardianapis.com/football/blog/2013/mar/30/harry-redknapp-paul-gascoigne", "isHosted": false, "pillarId": "pillar/sport", "pillarName": "Sport"}, {"id": "football/2013/mar/30/fatih-terim-galatasaray", "type": "article", "sectionId": "football", "sectionName": "Football", "webPublicationDate": "2013-03-30T22:00:06Z", "webTitle": "Galatasaray's Fatih Terim relishes Jos\u00e9 Mourinho and Real Madrid test", "webUrl": "https://www.theguardian.com/football/2013/mar/30/fatih-terim-galatasaray", "apiUrl": "https://content.guardianapis.com/football/2013/mar/30/fatih-terim-galatasaray", "isHosted": false, "pillarId": "pillar/sport", "pillarName": "Sport"}, {"id": "football/2013/mar/30/rangers-third-division-title", "type": "article", "sectionId": "football", "sectionName": "Football", "webPublicationDate": "2013-03-30T22:00:03Z", "webTitle": "Rangers rejoice in Third Division title but still have much to do", "webUrl": "https://www.theguardian.com/football/2013/mar/30/rangers-third-division-title", "apiUrl": "https://content.guardianapis.com/football/2013/mar/30/rangers-third-division-title", "isHosted": false, "pillarId": "pillar/sport", "pillarName": "Sport"}, {"id": "football/2013/mar/30/martin-oneill-parts-company-sunderland", "type": "article", "sectionId": "football", "sectionName": "Football", "webPublicationDate": "2013-03-30T21:48:22Z", "webTitle": "Sunderland sack Martin O'Neill in bid for Premier League survival", "webUrl": "https://www.theguardian.com/football/2013/mar/30/martin-oneill-parts-company-sunderland", "apiUrl": "https://content.guardianapis.com/football/2013/mar/30/martin-oneill-parts-company-sunderland", "isHosted": false, "pillarId": "pillar/sport", "pillarName": "Sport"}, {"id": "football/2013/mar/30/rafael-benitez-chelsea-southampton", "type": "article", "sectionId": "football", "sectionName": "Football", "webPublicationDate": "2013-03-30T20:00:38Z", "webTitle": "Rafael Ben\u00edtez defends team selection as Chelsea crash to Southampton", "webUrl": "https://www.theguardian.com/football/2013/mar/30/rafael-benitez-chelsea-southampton", "apiUrl": "https://content.guardianapis.com/football/2013/mar/30/rafael-benitez-chelsea-southampton", "isHosted": false, "pillarId": "pillar/sport", "pillarName": "Sport"}, {"id": "football/2013/mar/30/malaga-champions-league-quarter-finals", "type": "article", "sectionId": "football", "sectionName": "Football", "webPublicationDate": "2013-03-30T20:00:00Z", "webTitle": "Champions League quarter-final sees M\u00e1laga looking to make history", "webUrl": "https://www.theguardian.com/football/2013/mar/30/malaga-champions-league-quarter-finals", "apiUrl": "https://content.guardianapis.com/football/2013/mar/30/malaga-champions-league-quarter-finals", "isHosted": false, "pillarId": "pillar/sport", "pillarName": "Sport"}, {"id": "football/2013/mar/30/saturday-sundae-youssouf-mulumbu-majestic-meltdown", "type": "article", "sectionId": "football", "sectionName": "Football", "webPublicationDate": "2013-03-30T19:49:14Z", "webTitle": "Saturday Sundae: Youssouf Mulumbu's majestic meltdown at West Ham", "webUrl": "https://www.theguardian.com/football/2013/mar/30/saturday-sundae-youssouf-mulumbu-majestic-meltdown", "apiUrl": "https://content.guardianapis.com/football/2013/mar/30/saturday-sundae-youssouf-mulumbu-majestic-meltdown", "isHosted": false, "pillarId": "pillar/sport", "pillarName": "Sport"}, {"id": "football/2013/mar/30/everton-stoke-city-live-mbm", "type": "liveblog", "sectionId": "football", "sectionName": "Football", "webPublicationDate": "2013-03-30T19:17:00Z", "webTitle": "Everton v Stoke City \u2013 as it happened | Jacob Steinberg", "webUrl": "https://www.theguardian.com/football/2013/mar/30/everton-stoke-city-live-mbm", "apiUrl": "https://content.guardianapis.com/football/2013/mar/30/everton-stoke-city-live-mbm", "isHosted": false, "pillarId": "pillar/sport", "pillarName": "Sport"}, {"id": "football/football-league-blog/2013/mar/30/football-league-your-thoughts", "type": "article", "sectionId": "football", "sectionName": "Football", "webPublicationDate": "2013-03-30T19:16:20Z", "webTitle": "Football league: your thoughts | John Ashdown", "webUrl": "https://www.theguardian.com/football/football-league-blog/2013/mar/30/football-league-your-thoughts", "apiUrl": "https://content.guardianapis.com/football/football-league-blog/2013/mar/30/football-league-your-thoughts", "isHosted": false, "pillarId": "pillar/sport", "pillarName": "Sport"}, {"id": "football/2013/mar/30/dundee-motherwell-hearts-rangers-scottish-premier", "type": "article", "sectionId": "football", "sectionName": "Football", "webPublicationDate": "2013-03-30T18:56:43Z", "webTitle": "SPL round-up: Nicky Law's goals seal Motherwell win at Dundee", "webUrl": "https://www.theguardian.com/football/2013/mar/30/dundee-motherwell-hearts-rangers-scottish-premier", "apiUrl": "https://content.guardianapis.com/football/2013/mar/30/dundee-motherwell-hearts-rangers-scottish-premier", "isHosted": false, "pillarId": "pillar/sport", "pillarName": "Sport"}, {"id": "football/2013/mar/30/peterborough-cardiff-city-championship", "type": "article", "sectionId": "football", "sectionName": "Football", "webPublicationDate": "2013-03-30T17:51:36Z", "webTitle": "Peterborough 2-1 Cardiff City | Championship match report", "webUrl": "https://www.theguardian.com/football/2013/mar/30/peterborough-cardiff-city-championship", "apiUrl": "https://content.guardianapis.com/football/2013/mar/30/peterborough-cardiff-city-championship", "isHosted": false, "pillarId": "pillar/sport", "pillarName": "Sport"}, {"id": "football/2013/mar/30/manchester-city-newcastle-united-premier-league", "type": "article", "sectionId": "football", "sectionName": "Football", "webPublicationDate": "2013-03-30T17:08:35Z", "webTitle": "Manchester City 4-0 Newcastle United | Premier League match report", "webUrl": "https://www.theguardian.com/football/2013/mar/30/manchester-city-newcastle-united-premier-league", "apiUrl": "https://content.guardianapis.com/football/2013/mar/30/manchester-city-newcastle-united-premier-league", "isHosted": false, "pillarId": "pillar/sport", "pillarName": "Sport"}, {"id": "football/2013/mar/30/southampton-chelsea-premier-league", "type": "article", "sectionId": "football", "sectionName": "Football", "webPublicationDate": "2013-03-30T17:05:25Z", "webTitle": "Southampton 2-1 Chelsea | Premier League match report", "webUrl": "https://www.theguardian.com/football/2013/mar/30/southampton-chelsea-premier-league", "apiUrl": "https://content.guardianapis.com/football/2013/mar/30/southampton-chelsea-premier-league", "isHosted": false, "pillarId": "pillar/sport", "pillarName": "Sport"}, {"id": "football/2013/mar/30/wigan-athletic-norwich-city-premier-league", "type": "article", "sectionId": "football", "sectionName": "Football", "webPublicationDate": "2013-03-30T17:01:52Z", "webTitle": "Wigan Athletic 1-0 Norwich City | Premier League match report", "webUrl": "https://www.theguardian.com/football/2013/mar/30/wigan-athletic-norwich-city-premier-league", "apiUrl": "https://content.guardianapis.com/football/2013/mar/30/wigan-athletic-norwich-city-premier-league", "isHosted": false, "pillarId": "pillar/sport", "pillarName": "Sport"}, {"id": "football/2013/mar/30/swansea-city-tottenham-premier-league", "type": "article", "sectionId": "football", "sectionName": "Football", "webPublicationDate": "2013-03-30T17:01:42Z", "webTitle": "Swansea City 1-2 Tottenham Hotspur | Premier League match report", "webUrl": "https://www.theguardian.com/football/2013/mar/30/swansea-city-tottenham-premier-league", "apiUrl": "https://content.guardianapis.com/football/2013/mar/30/swansea-city-tottenham-premier-league", "isHosted": false, "pillarId": "pillar/sport", "pillarName": "Sport"}, {"id": "football/2013/mar/30/saturday-clockwatch-live-premier-league", "type": "liveblog", "sectionId": "football", "sectionName": "Football", "webPublicationDate": "2013-03-30T16:59:29Z", "webTitle": "Saturday clockwatch \u2013 as it happened | John Ashdown", "webUrl": "https://www.theguardian.com/football/2013/mar/30/saturday-clockwatch-live-premier-league", "apiUrl": "https://content.guardianapis.com/football/2013/mar/30/saturday-clockwatch-live-premier-league", "isHosted": false, "pillarId": "pillar/sport", "pillarName": "Sport"}, {"id": "football/2013/mar/30/sunderland-manchester-united-premier-league", "type": "article", "sectionId": "football", "sectionName": "Football", "webPublicationDate": "2013-03-30T14:48:04Z", "webTitle": "Sunderland 0-1 Manchester United | Premier League match report", "webUrl": "https://www.theguardian.com/football/2013/mar/30/sunderland-manchester-united-premier-league", "apiUrl": "https://content.guardianapis.com/football/2013/mar/30/sunderland-manchester-united-premier-league", "isHosted": false, "pillarId": "pillar/sport", "pillarName": "Sport"}, {"id": "football/2013/mar/30/sunderland-manchester-united-live", "type": "liveblog", "sectionId": "football", "sectionName": "Football", "webPublicationDate": "2013-03-30T11:59:00Z", "webTitle": "Sunderland v Manchester United \u2013 as it happened | Jacob Steinberg", "webUrl": "https://www.theguardian.com/football/2013/mar/30/sunderland-manchester-united-live", "apiUrl": "https://content.guardianapis.com/football/2013/mar/30/sunderland-manchester-united-live", "isHosted": false, "pillarId": "pillar/sport", "pillarName": "Sport"}, {"id": "lifeandstyle/2013/mar/30/michael-owen-motivation-please-dad", "type": "article", "sectionId": "lifeandstyle", "sectionName": "Life and style", "webPublicationDate": "2013-03-30T08:45:00Z", "webTitle": "Michael Owen: 'My motivation was to please Dad'", "webUrl": "https://www.theguardian.com/lifeandstyle/2013/mar/30/michael-owen-motivation-please-dad", "apiUrl": "https://content.guardianapis.com/lifeandstyle/2013/mar/30/michael-owen-motivation-please-dad", "isHosted": false, "pillarId": "pillar/lifestyle", "pillarName": "Lifestyle"}, {"id": "football/2013/mar/29/luis-suarez-liverpool-brendan-rodgers", "type": "article", "sectionId": "football", "sectionName": "Football", "webPublicationDate": "2013-03-29T23:00:02Z", "webTitle": "Luis Su\u00e1rez praised by Liverpool manager for his 'amazing appetite'", "webUrl": "https://www.theguardian.com/football/2013/mar/29/luis-suarez-liverpool-brendan-rodgers", "apiUrl": "https://content.guardianapis.com/football/2013/mar/29/luis-suarez-liverpool-brendan-rodgers", "isHosted": false, "pillarId": "pillar/sport", "pillarName": "Sport"}, {"id": "football/2013/mar/29/rafael-benitez-chelsea-premier-league-fa-cup", "type": "article", "sectionId": "football", "sectionName": "Football", "webPublicationDate": "2013-03-29T22:59:01Z", "webTitle": "Rafael Ben\u00edtez bemoans Chelsea's 'impossible' league and Cup schedule", "webUrl": "https://www.theguardian.com/football/2013/mar/29/rafael-benitez-chelsea-premier-league-fa-cup", "apiUrl": "https://content.guardianapis.com/football/2013/mar/29/rafael-benitez-chelsea-premier-league-fa-cup", "isHosted": false, "pillarId": "pillar/sport", "pillarName": "Sport"}, {"id": "football/2013/mar/29/arsene-wenger-arsenal", "type": "article", "sectionId": "football", "sectionName": "Football", "webPublicationDate": "2013-03-29T22:59:01Z", "webTitle": "Ars\u00e8ne Wenger places players on alert over their future at Arsenal", "webUrl": "https://www.theguardian.com/football/2013/mar/29/arsene-wenger-arsenal", "apiUrl": "https://content.guardianapis.com/football/2013/mar/29/arsene-wenger-arsenal", "isHosted": false, "pillarId": "pillar/sport", "pillarName": "Sport"}, {"id": "football/2013/mar/29/roberto-mancini-fa-cup-premier-league", "type": "article", "sectionId": "football", "sectionName": "Football", "webPublicationDate": "2013-03-29T22:30:01Z", "webTitle": "Roberto Mancini targets FA Cup success after conceding league title", "webUrl": "https://www.theguardian.com/football/2013/mar/29/roberto-mancini-fa-cup-premier-league", "apiUrl": "https://content.guardianapis.com/football/2013/mar/29/roberto-mancini-fa-cup-premier-league", "isHosted": false, "pillarId": "pillar/sport", "pillarName": "Sport"}, {"id": "football/2013/mar/29/sunderland-connor-wickham-danny-graham", "type": "article", "sectionId": "football", "sectionName": "Football", "webPublicationDate": "2013-03-29T22:00:01Z", "webTitle": "Sunderland need heroic goals from Connor Wickham and Danny Graham", "webUrl": "https://www.theguardian.com/football/2013/mar/29/sunderland-connor-wickham-danny-graham", "apiUrl": "https://content.guardianapis.com/football/2013/mar/29/sunderland-connor-wickham-danny-graham", "isHosted": false, "pillarId": "pillar/sport", "pillarName": "Sport"}, {"id": "football/2013/mar/29/watford-burnley-championship-match-report", "type": "article", "sectionId": "football", "sectionName": "Football", "webPublicationDate": "2013-03-29T19:26:00Z", "webTitle": "Watford 3-3 Burnley | Championship match report", "webUrl": "https://www.theguardian.com/football/2013/mar/29/watford-burnley-championship-match-report", "apiUrl": "https://content.guardianapis.com/football/2013/mar/29/watford-burnley-championship-match-report", "isHosted": false, "pillarId": "pillar/sport", "pillarName": "Sport"}, {"id": "football/2013/mar/29/coventry-city-doncaster-rovers-match-report", "type": "article", "sectionId": "football", "sectionName": "Football", "webPublicationDate": "2013-03-29T19:16:00Z", "webTitle": "Coventry City 1-0 Doncaster Rovers | League One match report", "webUrl": "https://www.theguardian.com/football/2013/mar/29/coventry-city-doncaster-rovers-match-report", "apiUrl": "https://content.guardianapis.com/football/2013/mar/29/coventry-city-doncaster-rovers-match-report", "isHosted": false, "pillarId": "pillar/sport", "pillarName": "Sport"}, {"id": "commentisfree/2013/mar/29/english-football-racist-fa-looks-other-way", "type": "article", "sectionId": "commentisfree", "sectionName": "Opinion", "webPublicationDate": "2013-03-29T17:25:00Z", "webTitle": "English football is racist, and the FA looks the other way | Marina Hyde", "webUrl": "https://www.theguardian.com/commentisfree/2013/mar/29/english-football-racist-fa-looks-other-way", "apiUrl": "https://content.guardianapis.com/commentisfree/2013/mar/29/english-football-racist-fa-looks-other-way", "isHosted": false, "pillarId": "pillar/opinion", "pillarName": "Opinion"}, {"id": "football/2013/mar/29/fulham-qpr-squad-sheets", "type": "article", "sectionId": "football", "sectionName": "Football", "webPublicationDate": "2013-03-29T17:23:13Z", "webTitle": "Fulham v QPR: squad sheets", "webUrl": "https://www.theguardian.com/football/2013/mar/29/fulham-qpr-squad-sheets", "apiUrl": "https://content.guardianapis.com/football/2013/mar/29/fulham-qpr-squad-sheets", "isHosted": false, "pillarId": "pillar/sport", "pillarName": "Sport"}, {"id": "football/2013/mar/29/everton-stoke-city-squad-sheets", "type": "article", "sectionId": "football", "sectionName": "Football", "webPublicationDate": "2013-03-29T17:02:18Z", "webTitle": "Everton v Stoke City: squad sheets", "webUrl": "https://www.theguardian.com/football/2013/mar/29/everton-stoke-city-squad-sheets", "apiUrl": "https://content.guardianapis.com/football/2013/mar/29/everton-stoke-city-squad-sheets", "isHosted": false, "pillarId": "pillar/sport", "pillarName": "Sport"}, {"id": "football/gallery/2013/mar/29/robbie-rogers-mls", "type": "gallery", "sectionId": "football", "sectionName": "Football", "webPublicationDate": "2013-03-29T16:46:00Z", "webTitle": "Robbie Rogers on football and sexuality - in pictures", "webUrl": "https://www.theguardian.com/football/gallery/2013/mar/29/robbie-rogers-mls", "apiUrl": "https://content.guardianapis.com/football/gallery/2013/mar/29/robbie-rogers-mls", "isHosted": false, "pillarId": "pillar/sport", "pillarName": "Sport"}, {"id": "football/2013/mar/29/swansea-city-tottenham-hotspur-squad-sheets", "type": "article", "sectionId": "football", "sectionName": "Football", "webPublicationDate": "2013-03-29T16:41:55Z", "webTitle": "Swansea City v Tottenham Hotspur: squad sheets", "webUrl": "https://www.theguardian.com/football/2013/mar/29/swansea-city-tottenham-hotspur-squad-sheets", "apiUrl": "https://content.guardianapis.com/football/2013/mar/29/swansea-city-tottenham-hotspur-squad-sheets", "isHosted": false, "pillarId": "pillar/sport", "pillarName": "Sport"}, {"id": "football/2013/mar/29/wigan-athletic-norwich-city-squad-sheets", "type": "article", "sectionId": "football", "sectionName": "Football", "webPublicationDate": "2013-03-29T16:23:07Z", "webTitle": "Wigan Athletic v Norwich City: squad sheets", "webUrl": "https://www.theguardian.com/football/2013/mar/29/wigan-athletic-norwich-city-squad-sheets", "apiUrl": "https://content.guardianapis.com/football/2013/mar/29/wigan-athletic-norwich-city-squad-sheets", "isHosted": false, "pillarId": "pillar/sport", "pillarName": "Sport"}, {"id": "football/2013/mar/29/arsenal-reading-squad-sheets", "type": "article", "sectionId": "football", "sectionName": "Football", "webPublicationDate": "2013-03-29T15:56:47Z", "webTitle": "Arsenal v Reading: squad sheets", "webUrl": "https://www.theguardian.com/football/2013/mar/29/arsenal-reading-squad-sheets", "apiUrl": "https://content.guardianapis.com/football/2013/mar/29/arsenal-reading-squad-sheets", "isHosted": false, "pillarId": "pillar/sport", "pillarName": "Sport"}, {"id": "football/blog/2013/mar/29/stockport-county-paying-price-chaos", "type": "article", "sectionId": "football", "sectionName": "Football", "webPublicationDate": "2013-03-29T15:45:00Z", "webTitle": "Stockport County still paying the price for instability and chaos | Jamie Jackson", "webUrl": "https://www.theguardian.com/football/blog/2013/mar/29/stockport-county-paying-price-chaos", "apiUrl": "https://content.guardianapis.com/football/blog/2013/mar/29/stockport-county-paying-price-chaos", "isHosted": false, "pillarId": "pillar/sport", "pillarName": "Sport"}, {"id": "football/2013/mar/29/southampton-chelsea-squad-sheets", "type": "article", "sectionId": "football", "sectionName": "Football", "webPublicationDate": "2013-03-29T15:34:14Z", "webTitle": "Southampton v Chelsea: squad sheets", "webUrl": "https://www.theguardian.com/football/2013/mar/29/southampton-chelsea-squad-sheets", "apiUrl": "https://content.guardianapis.com/football/2013/mar/29/southampton-chelsea-squad-sheets", "isHosted": false, "pillarId": "pillar/sport", "pillarName": "Sport"}, {"id": "sport/2013/mar/29/mls-fan-previews-week-5", "type": "article", "sectionId": "sport", "sectionName": "Sport", "webPublicationDate": "2013-03-29T15:16:00Z", "webTitle": "MLS week five: fan previews", "webUrl": "https://www.theguardian.com/sport/2013/mar/29/mls-fan-previews-week-5", "apiUrl": "https://content.guardianapis.com/sport/2013/mar/29/mls-fan-previews-week-5", "isHosted": false, "pillarId": "pillar/sport", "pillarName": "Sport"}, {"id": "football/2013/mar/29/aston-villa-liverpool-squad-sheets", "type": "article", "sectionId": "football", "sectionName": "Football", "webPublicationDate": "2013-03-29T14:59:07Z", "webTitle": "Aston Villa v Liverpool: squad sheets", "webUrl": "https://www.theguardian.com/football/2013/mar/29/aston-villa-liverpool-squad-sheets", "apiUrl": "https://content.guardianapis.com/football/2013/mar/29/aston-villa-liverpool-squad-sheets", "isHosted": false, "pillarId": "pillar/sport", "pillarName": "Sport"}, {"id": "football/blog/2013/mar/29/england-dont-panic-world-cup", "type": "article", "sectionId": "football", "sectionName": "Football", "webPublicationDate": "2013-03-29T14:51:03Z", "webTitle": "England's football team have been here before. Don't panic! | David Lacey", "webUrl": "https://www.theguardian.com/football/blog/2013/mar/29/england-dont-panic-world-cup", "apiUrl": "https://content.guardianapis.com/football/blog/2013/mar/29/england-dont-panic-world-cup", "isHosted": false, "pillarId": "pillar/sport", "pillarName": "Sport"}, {"id": "football/2013/mar/29/west-ham-west-brom-squad-sheets", "type": "article", "sectionId": "football", "sectionName": "Football", "webPublicationDate": "2013-03-29T14:22:48Z", "webTitle": "West Ham United v West Bromwich Albion: squad sheets", "webUrl": "https://www.theguardian.com/football/2013/mar/29/west-ham-west-brom-squad-sheets", "apiUrl": "https://content.guardianapis.com/football/2013/mar/29/west-ham-west-brom-squad-sheets", "isHosted": false, "pillarId": "pillar/sport", "pillarName": "Sport"}, {"id": "football/2013/mar/29/manchester-city-newcastle-united-squad-sheets", "type": "article", "sectionId": "football", "sectionName": "Football", "webPublicationDate": "2013-03-29T13:30:21Z", "webTitle": "Manchester City v Newcastle United: squad sheets", "webUrl": "https://www.theguardian.com/football/2013/mar/29/manchester-city-newcastle-united-squad-sheets", "apiUrl": "https://content.guardianapis.com/football/2013/mar/29/manchester-city-newcastle-united-squad-sheets", "isHosted": false, "pillarId": "pillar/sport", "pillarName": "Sport"}, {"id": "sport/gallery/2013/mar/29/gymnastics-formulaone", "type": "gallery", "sectionId": "sport", "sectionName": "Sport", "webPublicationDate": "2013-03-29T13:09:00Z", "webTitle": "The week in sport \u2013 in pictures", "webUrl": "https://www.theguardian.com/sport/gallery/2013/mar/29/gymnastics-formulaone", "apiUrl": "https://content.guardianapis.com/sport/gallery/2013/mar/29/gymnastics-formulaone", "isHosted": false, "pillarId": "pillar/sport", "pillarName": "Sport"}, {"id": "football/2013/mar/29/sunderland-manchester-united-squad-sheets", "type": "article", "sectionId": "football", "sectionName": "Football", "webPublicationDate": "2013-03-29T12:50:56Z", "webTitle": "Sunderland v Manchester United: squad sheets", "webUrl": "https://www.theguardian.com/football/2013/mar/29/sunderland-manchester-united-squad-sheets", "apiUrl": "https://content.guardianapis.com/football/2013/mar/29/sunderland-manchester-united-squad-sheets", "isHosted": false, "pillarId": "pillar/sport", "pillarName": "Sport"}, {"id": "sport/blog/2013/mar/29/the-joy-of-six-left-handers", "type": "article", "sectionId": "sport", "sectionName": "Sport", "webPublicationDate": "2013-03-29T12:28:47Z", "webTitle": "The Joy of Six: Lefties | Daniel Harris and Georgina Turner", "webUrl": "https://www.theguardian.com/sport/blog/2013/mar/29/the-joy-of-six-left-handers", "apiUrl": "https://content.guardianapis.com/sport/blog/2013/mar/29/the-joy-of-six-left-handers", "isHosted": false, "pillarId": "pillar/sport", "pillarName": "Sport"}, {"id": "football/video/2013/mar/29/robbie-rogers-gay-footballers-video-interview", "type": "video", "sectionId": "football", "sectionName": "Football", "webPublicationDate": "2013-03-29T10:03:00Z", "webTitle": "Robbie Rogers: 'It will take time for more gay footballers to come out' - video interview", "webUrl": "https://www.theguardian.com/football/video/2013/mar/29/robbie-rogers-gay-footballers-video-interview", "apiUrl": "https://content.guardianapis.com/football/video/2013/mar/29/robbie-rogers-gay-footballers-video-interview", "isHosted": false, "pillarId": "pillar/sport", "pillarName": "Sport"}, {"id": "football/2013/mar/29/rumour-mill-christian-eriksen-transfer", "type": "article", "sectionId": "football", "sectionName": "Football", "webPublicationDate": "2013-03-29T09:54:49Z", "webTitle": "Football transfer rumours: Christian Eriksen to Liverpool?", "webUrl": "https://www.theguardian.com/football/2013/mar/29/rumour-mill-christian-eriksen-transfer", "apiUrl": "https://content.guardianapis.com/football/2013/mar/29/rumour-mill-christian-eriksen-transfer", "isHosted": false, "pillarId": "pillar/sport", "pillarName": "Sport"}, {"id": "football/blog/2013/mar/29/premier-league-10-things-weekend", "type": "article", "sectionId": "football", "sectionName": "Football", "webPublicationDate": "2013-03-29T09:00:05Z", "webTitle": "Premier League: 10 things to look out for this weekend", "webUrl": "https://www.theguardian.com/football/blog/2013/mar/29/premier-league-10-things-weekend", "apiUrl": "https://content.guardianapis.com/football/blog/2013/mar/29/premier-league-10-things-weekend", "isHosted": false, "pillarId": "pillar/sport", "pillarName": "Sport"}, {"id": "football/2013/mar/29/robbie-rogers-coming-out-gay", "type": "article", "sectionId": "football", "sectionName": "Football", "webPublicationDate": "2013-03-29T08:00:00Z", "webTitle": "Robbie Rogers: why coming out as gay meant I had to leave football", "webUrl": "https://www.theguardian.com/football/2013/mar/29/robbie-rogers-coming-out-gay", "apiUrl": "https://content.guardianapis.com/football/2013/mar/29/robbie-rogers-coming-out-gay", "isHosted": false, "pillarId": "pillar/sport", "pillarName": "Sport"}, {"id": "football/video/2013/mar/29/james-richardson-european-football-newspaper-review-video", "type": "video", "sectionId": "football", "sectionName": "Football", "webPublicationDate": "2013-03-29T00:01:00Z", "webTitle": "James Richardson's European football newspaper review - video", "webUrl": "https://www.theguardian.com/football/video/2013/mar/29/james-richardson-european-football-newspaper-review-video", "apiUrl": "https://content.guardianapis.com/football/video/2013/mar/29/james-richardson-european-football-newspaper-review-video", "isHosted": false, "pillarId": "pillar/sport", "pillarName": "Sport"}, {"id": "football/2013/mar/28/manchester-united-phil-jones", "type": "article", "sectionId": "football", "sectionName": "Football", "webPublicationDate": "2013-03-28T22:36:00Z", "webTitle": "Manchester United's Phil Jones may be fit to return against Chelsea", "webUrl": "https://www.theguardian.com/football/2013/mar/28/manchester-united-phil-jones", "apiUrl": "https://content.guardianapis.com/football/2013/mar/28/manchester-united-phil-jones", "isHosted": false, "pillarId": "pillar/sport", "pillarName": "Sport"}]}}