{"response": {"status": "ok", "userTier": "developer", "total": 123090, "startIndex": 1, "pageSize": 50, "currentPage": 1, "pages": 2462, "orderBy": "newest", "results": [{"id": "politics/2010/mar/31/hugh-muir-diary-peter-davies-supermayor", "type": "article", "sectionId": "politics", "sectionName": "Politics", "webPublicationDate": "2010-03-30T23:15:00Z", "webTitle": "Hugh Muir's diary", "webUrl": "https://www.theguardian.com/politics/2010/mar/31/hugh-muir-diary-peter-davies-supermayor", "apiUrl": "https://content.guardianapis.com/politics/2010/mar/31/hugh-muir-diary-peter-davies-supermayor", "isHosted": false, "pillarId": "pillar/news", "pillarName": "News"}, {"id": "commentisfree/cartoon/2010/mar/31/tony-blair-swipe-conservatives", "type": "picture", "sectionId": "commentisfree", "sectionName": "Opinion", "webPublicationDate": "2010-03-30T23:06:43Z", "webTitle": "Steve Bell: Tony Blair takes a swipe at changeable Conservatives", "webUrl": "https://www.theguardian.com/commentisfree/cartoon/2010/mar/31/tony-blair-swipe-conservatives", "apiUrl": "https://content.guardianapis.com/commentisfree/cartoon/2010/mar/31/tony-blair-swipe-conservatives", "isHosted": false, "pillarId": "pillar/opinion", "pillarName": "Opinion"}, {"id": "commentisfree/2010/mar/31/national-care-service-death-tax", "type": "article", "sectionId": "commentisfree", "sectionName": "Opinion", "webPublicationDate": "2010-03-30T23:05:46Z", "webTitle": "National Care Service: Death tax RIP | Editorial", "webUrl": "https://www.theguardian.com/commentisfree/2010/mar/31/national-care-service-death-tax", "apiUrl": "https://content.guardianapis.com/commentisfree/2010/mar/31/national-care-service-death-tax", "isHosted": false, "pillarId": "pillar/opinion", "pillarName": "Opinion"}, {"id": "world/audio/2010/mar/31/guardian-daily-podcast-tony-blair-ricky-martin", "type": "audio", "sectionId": "world", "sectionName": "World news", "webPublicationDate": "2010-03-30T23:01:00Z", "webTitle": "Guardian Daily podcast: Former PM dismisses Cameron\u2019s Conservatives; and UK\u2019s shocking cancer misdiagnoses", "webUrl": "https://www.theguardian.com/world/audio/2010/mar/31/guardian-daily-podcast-tony-blair-ricky-martin", "apiUrl": "https://content.guardianapis.com/world/audio/2010/mar/31/guardian-daily-podcast-tony-blair-ricky-martin", "isHosted": false, "pillarId": "pillar/news", "pillarName": "News"}, {"id": "society/2010/mar/30/cancer-blunders-nhs-report", "type": "article", "sectionId": "society", "sectionName": "Society", "webPublicationDate": "2010-03-30T22:17:47Z", "webTitle": "Health of thousands threatened by cancer blunders, NHS report says", "webUrl": "https://www.theguardian.com/society/2010/mar/30/cancer-blunders-nhs-report", "apiUrl": "https://content.guardianapis.com/society/2010/mar/30/cancer-blunders-nhs-report", "isHosted": false, "pillarId": "pillar/news", "pillarName": "News"}, {"id": "society/2010/mar/30/project-transform-blackpool", "type": "article", "sectionId": "society", "sectionName": "Society", "webPublicationDate": "2010-03-30T21:54:15Z", "webTitle": "From faded glory to Europe's most exciting resort: how \u00a340m project aims to transform Blackpool", "webUrl": "https://www.theguardian.com/society/2010/mar/30/project-transform-blackpool", "apiUrl": "https://content.guardianapis.com/society/2010/mar/30/project-transform-blackpool", "isHosted": false, "pillarId": "pillar/news", "pillarName": "News"}, {"id": "uk/2010/mar/30/gordon-brown-curb-immigration", "type": "article", "sectionId": "uk-news", "sectionName": "UK news", "webPublicationDate": "2010-03-30T21:09:43Z", "webTitle": "Gordon Brown to pledge new curb on immigration", "webUrl": "https://www.theguardian.com/uk/2010/mar/30/gordon-brown-curb-immigration", "apiUrl": "https://content.guardianapis.com/uk/2010/mar/30/gordon-brown-curb-immigration", "isHosted": false, "pillarId": "pillar/news", "pillarName": "News"}, {"id": "politics/2010/mar/30/tony-blair-sedgefield-election", "type": "article", "sectionId": "politics", "sectionName": "Politics", "webPublicationDate": "2010-03-30T20:43:56Z", "webTitle": "Tony Blair in Sedgefield was a top dollar show \u2013 but Trimdon got it free | Michael White", "webUrl": "https://www.theguardian.com/politics/2010/mar/30/tony-blair-sedgefield-election", "apiUrl": "https://content.guardianapis.com/politics/2010/mar/30/tony-blair-sedgefield-election", "isHosted": false, "pillarId": "pillar/news", "pillarName": "News"}, {"id": "politics/2010/mar/30/gordon-brown-hung-parliament-pm", "type": "article", "sectionId": "politics", "sectionName": "Politics", "webPublicationDate": "2010-03-30T20:30:00Z", "webTitle": "Gordon Brown likely to stay as PM in hung parliament", "webUrl": "https://www.theguardian.com/politics/2010/mar/30/gordon-brown-hung-parliament-pm", "apiUrl": "https://content.guardianapis.com/politics/2010/mar/30/gordon-brown-hung-parliament-pm", "isHosted": false, "pillarId": "pillar/news", "pillarName": "News"}, {"id": "politics/2010/mar/30/death-tax-haunts-andy-burnham-care-revolution", "type": "article", "sectionId": "politics", "sectionName": "Politics", "webPublicationDate": "2010-03-30T20:24:25Z", "webTitle": "Spectre of 'death tax' haunts Andy Burnham's care revolution", "webUrl": "https://www.theguardian.com/politics/2010/mar/30/death-tax-haunts-andy-burnham-care-revolution", "apiUrl": "https://content.guardianapis.com/politics/2010/mar/30/death-tax-haunts-andy-burnham-care-revolution", "isHosted": false, "pillarId": "pillar/news", "pillarName": "News"}, {"id": "technology/2010/mar/30/digital-economy-bill-digital-britain", "type": "article", "sectionId": "technology", "sectionName": "Technology", "webPublicationDate": "2010-03-30T19:38:37Z", "webTitle": "Liberal Democrats say Digital Economy bill should wait for next government", "webUrl": "https://www.theguardian.com/technology/2010/mar/30/digital-economy-bill-digital-britain", "apiUrl": "https://content.guardianapis.com/technology/2010/mar/30/digital-economy-bill-digital-britain", "isHosted": false, "pillarId": "pillar/news", "pillarName": "News"}, {"id": "politics/2010/mar/30/tony-blair-swipe-conservatives", "type": "article", "sectionId": "politics", "sectionName": "Politics", "webPublicationDate": "2010-03-30T19:33:44Z", "webTitle": "Tony Blair takes a swipe at changeable Conservatives", "webUrl": "https://www.theguardian.com/politics/2010/mar/30/tony-blair-swipe-conservatives", "apiUrl": "https://content.guardianapis.com/politics/2010/mar/30/tony-blair-swipe-conservatives", "isHosted": false, "pillarId": "pillar/news", "pillarName": "News"}, {"id": "commentisfree/2010/mar/30/three-chancellors-banks-the-city", "type": "article", "sectionId": "commentisfree", "sectionName": "Opinion", "webPublicationDate": "2010-03-30T19:30:00Z", "webTitle": "I long for a real Labour voice to slam this City-fearing trio | Simon Jenkins", "webUrl": "https://www.theguardian.com/commentisfree/2010/mar/30/three-chancellors-banks-the-city", "apiUrl": "https://content.guardianapis.com/commentisfree/2010/mar/30/three-chancellors-banks-the-city", "isHosted": false, "pillarId": "pillar/opinion", "pillarName": "Opinion"}, {"id": "society/2010/mar/30/legal-warning-ban-mephedrone", "type": "article", "sectionId": "society", "sectionName": "Society", "webPublicationDate": "2010-03-30T19:14:26Z", "webTitle": "Legal warning over rush to impose ban on mephedrone", "webUrl": "https://www.theguardian.com/society/2010/mar/30/legal-warning-ban-mephedrone", "apiUrl": "https://content.guardianapis.com/society/2010/mar/30/legal-warning-ban-mephedrone", "isHosted": false, "pillarId": "pillar/news", "pillarName": "News"}, {"id": "politics/2010/mar/30/tory-support-crucial-labour-care-old-age", "type": "article", "sectionId": "politics", "sectionName": "Politics", "webPublicationDate": "2010-03-30T18:31:29Z", "webTitle": "Tory support is crucial to Labour's plan for care in old age | Analysis", "webUrl": "https://www.theguardian.com/politics/2010/mar/30/tory-support-crucial-labour-care-old-age", "apiUrl": "https://content.guardianapis.com/politics/2010/mar/30/tory-support-crucial-labour-care-old-age", "isHosted": false, "pillarId": "pillar/news", "pillarName": "News"}, {"id": "commentisfree/libertycentral/2010/mar/30/the-ghost-of-section-28", "type": "article", "sectionId": "commentisfree", "sectionName": "Opinion", "webPublicationDate": "2010-03-30T18:30:02Z", "webTitle": "The ghost of section 28 | Martin Popplewell", "webUrl": "https://www.theguardian.com/commentisfree/libertycentral/2010/mar/30/the-ghost-of-section-28", "apiUrl": "https://content.guardianapis.com/commentisfree/libertycentral/2010/mar/30/the-ghost-of-section-28", "isHosted": false, "pillarId": "pillar/opinion", "pillarName": "Opinion"}, {"id": "uk/2010/mar/30/network-rail-strike-rmt-legal", "type": "article", "sectionId": "uk-news", "sectionName": "UK news", "webPublicationDate": "2010-03-30T18:02:55Z", "webTitle": "Network Rail begins legal action against RMT to try to halt train strike", "webUrl": "https://www.theguardian.com/uk/2010/mar/30/network-rail-strike-rmt-legal", "apiUrl": "https://content.guardianapis.com/uk/2010/mar/30/network-rail-strike-rmt-legal", "isHosted": false, "pillarId": "pillar/news", "pillarName": "News"}, {"id": "business/2010/mar/30/gdp-up-public-spending-car-scrappage", "type": "article", "sectionId": "business", "sectionName": "Business", "webPublicationDate": "2010-03-30T17:59:28Z", "webTitle": "GDP up \u2013 thanks to public spending and car scrappage", "webUrl": "https://www.theguardian.com/business/2010/mar/30/gdp-up-public-spending-car-scrappage", "apiUrl": "https://content.guardianapis.com/business/2010/mar/30/gdp-up-public-spending-car-scrappage", "isHosted": false, "pillarId": "pillar/news", "pillarName": "News"}, {"id": "politics/2010/mar/30/northern-irish-first-minister-peter-robinson-bbc", "type": "article", "sectionId": "politics", "sectionName": "Politics", "webPublicationDate": "2010-03-30T17:54:17Z", "webTitle": "Northern Irish first minister Peter Robinson calls BBC allegations smear and innuendo", "webUrl": "https://www.theguardian.com/politics/2010/mar/30/northern-irish-first-minister-peter-robinson-bbc", "apiUrl": "https://content.guardianapis.com/politics/2010/mar/30/northern-irish-first-minister-peter-robinson-bbc", "isHosted": false, "pillarId": "pillar/news", "pillarName": "News"}, {"id": "politics/2010/mar/30/party-funding-talks-ashcroft-unions", "type": "article", "sectionId": "politics", "sectionName": "Politics", "webPublicationDate": "2010-03-30T17:29:47Z", "webTitle": "Parties warned to restart talks on funding or face crisis of public faith", "webUrl": "https://www.theguardian.com/politics/2010/mar/30/party-funding-talks-ashcroft-unions", "apiUrl": "https://content.guardianapis.com/politics/2010/mar/30/party-funding-talks-ashcroft-unions", "isHosted": false, "pillarId": "pillar/news", "pillarName": "News"}, {"id": "politics/2010/mar/30/burnham-old-people-reforms-concessions", "type": "article", "sectionId": "politics", "sectionName": "Politics", "webPublicationDate": "2010-03-30T16:36:23Z", "webTitle": "Burnham ready to give ground for old people's care reforms", "webUrl": "https://www.theguardian.com/politics/2010/mar/30/burnham-old-people-reforms-concessions", "apiUrl": "https://content.guardianapis.com/politics/2010/mar/30/burnham-old-people-reforms-concessions", "isHosted": false, "pillarId": "pillar/news", "pillarName": "News"}, {"id": "education/2010/mar/30/saturday-lessons-michael-gove", "type": "article", "sectionId": "education", "sectionName": "Education", "webPublicationDate": "2010-03-30T16:26:24Z", "webTitle": "Tories plan to offer lessons on a Saturday to poorer children", "webUrl": "https://www.theguardian.com/education/2010/mar/30/saturday-lessons-michael-gove", "apiUrl": "https://content.guardianapis.com/education/2010/mar/30/saturday-lessons-michael-gove", "isHosted": false, "pillarId": "pillar/news", "pillarName": "News"}, {"id": "politics/2010/mar/26/northern-ireland-general-election-guide", "type": "article", "sectionId": "politics", "sectionName": "Politics", "webPublicationDate": "2010-03-30T16:19:33Z", "webTitle": "Northern Ireland: general election guide", "webUrl": "https://www.theguardian.com/politics/2010/mar/26/northern-ireland-general-election-guide", "apiUrl": "https://content.guardianapis.com/politics/2010/mar/26/northern-ireland-general-election-guide", "isHosted": false, "pillarId": "pillar/news", "pillarName": "News"}, {"id": "commentisfree/2010/mar/30/national-insurance-rise-deficit", "type": "article", "sectionId": "commentisfree", "sectionName": "Opinion", "webPublicationDate": "2010-03-30T16:00:00Z", "webTitle": "National insurance rise won't fix deficit | Philippe Legrain", "webUrl": "https://www.theguardian.com/commentisfree/2010/mar/30/national-insurance-rise-deficit", "apiUrl": "https://content.guardianapis.com/commentisfree/2010/mar/30/national-insurance-rise-deficit", "isHosted": false, "pillarId": "pillar/opinion", "pillarName": "Opinion"}, {"id": "education/2010/mar/30/teachers-bullied-online", "type": "article", "sectionId": "education", "sectionName": "Education", "webPublicationDate": "2010-03-30T15:34:38Z", "webTitle": "Teachers suffer cyberbullying by pupils and parents", "webUrl": "https://www.theguardian.com/education/2010/mar/30/teachers-bullied-online", "apiUrl": "https://content.guardianapis.com/education/2010/mar/30/teachers-bullied-online", "isHosted": false, "pillarId": "pillar/news", "pillarName": "News"}, {"id": "commentisfree/2010/mar/30/elderly-national-social-care", "type": "article", "sectionId": "commentisfree", "sectionName": "Opinion", "webPublicationDate": "2010-03-30T15:30:00Z", "webTitle": "Ringfence funds from a 'care tax' | Yvonne Roberts", "webUrl": "https://www.theguardian.com/commentisfree/2010/mar/30/elderly-national-social-care", "apiUrl": "https://content.guardianapis.com/commentisfree/2010/mar/30/elderly-national-social-care", "isHosted": false, "pillarId": "pillar/opinion", "pillarName": "Opinion"}, {"id": "business/2010/mar/30/ba-strike-staff-relations-dispute", "type": "article", "sectionId": "business", "sectionName": "Business", "webPublicationDate": "2010-03-30T15:28:15Z", "webTitle": "British Airways dispute 'will undermine staff relations for years'", "webUrl": "https://www.theguardian.com/business/2010/mar/30/ba-strike-staff-relations-dispute", "apiUrl": "https://content.guardianapis.com/business/2010/mar/30/ba-strike-staff-relations-dispute", "isHosted": false, "pillarId": "pillar/news", "pillarName": "News"}, {"id": "politics/blog/2010/mar/30/general-election-2010-liberaldemocrats", "type": "article", "sectionId": "politics", "sectionName": "Politics", "webPublicationDate": "2010-03-30T15:24:22Z", "webTitle": "Labservatives - the latest merged party from the Lib Dems | Simon Jeffery", "webUrl": "https://www.theguardian.com/politics/blog/2010/mar/30/general-election-2010-liberaldemocrats", "apiUrl": "https://content.guardianapis.com/politics/blog/2010/mar/30/general-election-2010-liberaldemocrats", "isHosted": false, "pillarId": "pillar/news", "pillarName": "News"}, {"id": "commentisfree/2010/mar/30/kaczynskis-poland-cameron-eu", "type": "article", "sectionId": "commentisfree", "sectionName": "Opinion", "webPublicationDate": "2010-03-30T14:30:01Z", "webTitle": "The marginalisation of Cameron's allies | Jaroslaw Adamowski", "webUrl": "https://www.theguardian.com/commentisfree/2010/mar/30/kaczynskis-poland-cameron-eu", "apiUrl": "https://content.guardianapis.com/commentisfree/2010/mar/30/kaczynskis-poland-cameron-eu", "isHosted": false, "pillarId": "pillar/opinion", "pillarName": "Opinion"}, {"id": "commentisfree/2010/mar/30/blair-in-sedgefield-labour-victory", "type": "article", "sectionId": "commentisfree", "sectionName": "Opinion", "webPublicationDate": "2010-03-30T14:02:31Z", "webTitle": "Blair on the hustings? Coherent and on-message | Lance Price", "webUrl": "https://www.theguardian.com/commentisfree/2010/mar/30/blair-in-sedgefield-labour-victory", "apiUrl": "https://content.guardianapis.com/commentisfree/2010/mar/30/blair-in-sedgefield-labour-victory", "isHosted": false, "pillarId": "pillar/opinion", "pillarName": "Opinion"}, {"id": "global/video/2010/mar/30/tony-blair-praises-brown-leadership", "type": "video", "sectionId": "global", "sectionName": "Global", "webPublicationDate": "2010-03-30T13:48:00Z", "webTitle": "Video: Tony Blair heaps praise on Gordon Brown's leadership", "webUrl": "https://www.theguardian.com/global/video/2010/mar/30/tony-blair-praises-brown-leadership", "apiUrl": "https://content.guardianapis.com/global/video/2010/mar/30/tony-blair-praises-brown-leadership", "isHosted": false}, {"id": "politics/gallery/2010/mar/30/tony-blair-labour-gallery", "type": "gallery", "sectionId": "politics", "sectionName": "Politics", "webPublicationDate": "2010-03-30T13:29:56Z", "webTitle": "Tony Blair campaigns at Trimdon in Sedgefield", "webUrl": "https://www.theguardian.com/politics/gallery/2010/mar/30/tony-blair-labour-gallery", "apiUrl": "https://content.guardianapis.com/politics/gallery/2010/mar/30/tony-blair-labour-gallery", "isHosted": false, "pillarId": "pillar/news", "pillarName": "News"}, {"id": "politics/2010/mar/30/foxhunting-supporters-marginal-seats-election", "type": "article", "sectionId": "politics", "sectionName": "Politics", "webPublicationDate": "2010-03-30T13:25:00Z", "webTitle": "Foxhunting supporters target key marginal seats at general election", "webUrl": "https://www.theguardian.com/politics/2010/mar/30/foxhunting-supporters-marginal-seats-election", "apiUrl": "https://content.guardianapis.com/politics/2010/mar/30/foxhunting-supporters-marginal-seats-election", "isHosted": false, "pillarId": "pillar/news", "pillarName": "News"}, {"id": "media/2010/mar/30/lib-dems-labservatives-guerilla-advertising", "type": "article", "sectionId": "media", "sectionName": "Media", "webPublicationDate": "2010-03-30T12:49:34Z", "webTitle": "Lib Dems target 'Labservatives' with guerilla advertising campaign", "webUrl": "https://www.theguardian.com/media/2010/mar/30/lib-dems-labservatives-guerilla-advertising", "apiUrl": "https://content.guardianapis.com/media/2010/mar/30/lib-dems-labservatives-guerilla-advertising", "isHosted": false, "pillarId": "pillar/news", "pillarName": "News"}, {"id": "uk/2010/mar/30/national-rail-strike-talks-acas", "type": "article", "sectionId": "uk-news", "sectionName": "UK news", "webPublicationDate": "2010-03-30T12:28:37Z", "webTitle": "Talks resume as efforts to avert national rail strike continue", "webUrl": "https://www.theguardian.com/uk/2010/mar/30/national-rail-strike-talks-acas", "apiUrl": "https://content.guardianapis.com/uk/2010/mar/30/national-rail-strike-talks-acas", "isHosted": false, "pillarId": "pillar/news", "pillarName": "News"}, {"id": "politics/wintour-and-watt/2010/mar/30/tony-blair-masterclass-take-apart-tories", "type": "article", "sectionId": "politics", "sectionName": "Politics", "webPublicationDate": "2010-03-30T11:55:20Z", "webTitle": "Tony Blair returns to give masterclass in how to 'take Tories apart' | Nicholas Watt", "webUrl": "https://www.theguardian.com/politics/wintour-and-watt/2010/mar/30/tony-blair-masterclass-take-apart-tories", "apiUrl": "https://content.guardianapis.com/politics/wintour-and-watt/2010/mar/30/tony-blair-masterclass-take-apart-tories", "isHosted": false, "pillarId": "pillar/news", "pillarName": "News"}, {"id": "commentisfree/2010/mar/30/nhs-productivity-patient-satisfaction", "type": "article", "sectionId": "commentisfree", "sectionName": "Opinion", "webPublicationDate": "2010-03-30T11:00:00Z", "webTitle": "Patients not productivity matter in NHS | Anuradha Arasu", "webUrl": "https://www.theguardian.com/commentisfree/2010/mar/30/nhs-productivity-patient-satisfaction", "apiUrl": "https://content.guardianapis.com/commentisfree/2010/mar/30/nhs-productivity-patient-satisfaction", "isHosted": false, "pillarId": "pillar/opinion", "pillarName": "Opinion"}, {"id": "politics/wintour-and-watt/2010/mar/30/louisecasey", "type": "article", "sectionId": "politics", "sectionName": "Politics", "webPublicationDate": "2010-03-30T09:55:21Z", "webTitle": "Louise Casey promoted to role of victims' commissioner | Patrick Wintour", "webUrl": "https://www.theguardian.com/politics/wintour-and-watt/2010/mar/30/louisecasey", "apiUrl": "https://content.guardianapis.com/politics/wintour-and-watt/2010/mar/30/louisecasey", "isHosted": false, "pillarId": "pillar/news", "pillarName": "News"}, {"id": "politics/2010/mar/30/tony-blair-speech-live", "type": "article", "sectionId": "politics", "sectionName": "Politics", "webPublicationDate": "2010-03-30T09:52:53Z", "webTitle": "Tony Blair speech - As it happened", "webUrl": "https://www.theguardian.com/politics/2010/mar/30/tony-blair-speech-live", "apiUrl": "https://content.guardianapis.com/politics/2010/mar/30/tony-blair-speech-live", "isHosted": false, "pillarId": "pillar/news", "pillarName": "News"}, {"id": "politics/blog/2010/mar/30/ask-the-chancellors-reaction-roundup", "type": "article", "sectionId": "politics", "sectionName": "Politics", "webPublicationDate": "2010-03-30T09:30:54Z", "webTitle": "Ask the Chancellors debate: what the papers and blogs are saying | Andrew Sparrow", "webUrl": "https://www.theguardian.com/politics/blog/2010/mar/30/ask-the-chancellors-reaction-roundup", "apiUrl": "https://content.guardianapis.com/politics/blog/2010/mar/30/ask-the-chancellors-reaction-roundup", "isHosted": false, "pillarId": "pillar/news", "pillarName": "News"}, {"id": "business/2010/mar/30/uk-gdp-revised-up", "type": "article", "sectionId": "business", "sectionName": "Business", "webPublicationDate": "2010-03-30T09:29:08Z", "webTitle": "Boost for Darling as UK GDP figures revised upwards again", "webUrl": "https://www.theguardian.com/business/2010/mar/30/uk-gdp-revised-up", "apiUrl": "https://content.guardianapis.com/business/2010/mar/30/uk-gdp-revised-up", "isHosted": false, "pillarId": "pillar/news", "pillarName": "News"}, {"id": "media/2010/mar/30/tv-ratings-ask-the-chancellors", "type": "article", "sectionId": "media", "sectionName": "Media", "webPublicationDate": "2010-03-30T09:24:19Z", "webTitle": "TV ratings \u2013 29 March: Ask the Chancellors brings ratings boost to Channel 4", "webUrl": "https://www.theguardian.com/media/2010/mar/30/tv-ratings-ask-the-chancellors", "apiUrl": "https://content.guardianapis.com/media/2010/mar/30/tv-ratings-ask-the-chancellors", "isHosted": false, "pillarId": "pillar/news", "pillarName": "News"}, {"id": "politics/blog/2010/mar/30/mps-expenses-well-done-kennedy", "type": "article", "sectionId": "politics", "sectionName": "Politics", "webPublicationDate": "2010-03-30T09:12:50Z", "webTitle": "MPs' expenses: Well done Ian Kennedy for ignoring the mob | Michael White", "webUrl": "https://www.theguardian.com/politics/blog/2010/mar/30/mps-expenses-well-done-kennedy", "apiUrl": "https://content.guardianapis.com/politics/blog/2010/mar/30/mps-expenses-well-done-kennedy", "isHosted": false, "pillarId": "pillar/news", "pillarName": "News"}, {"id": "society/2010/mar/30/government-retreat-social-care-plans", "type": "article", "sectionId": "society", "sectionName": "Society", "webPublicationDate": "2010-03-30T08:29:34Z", "webTitle": "Government in 'utter retreat' over social care plans, say Tories", "webUrl": "https://www.theguardian.com/society/2010/mar/30/government-retreat-social-care-plans", "apiUrl": "https://content.guardianapis.com/society/2010/mar/30/government-retreat-social-care-plans", "isHosted": false, "pillarId": "pillar/news", "pillarName": "News"}, {"id": "business/2010/mar/30/alistair-darling-budget-mps-treasury-select-committee", "type": "article", "sectionId": "business", "sectionName": "Business", "webPublicationDate": "2010-03-30T08:27:04Z", "webTitle": "MPs quiz Alistair Darling about the budget - as it happened", "webUrl": "https://www.theguardian.com/business/2010/mar/30/alistair-darling-budget-mps-treasury-select-committee", "apiUrl": "https://content.guardianapis.com/business/2010/mar/30/alistair-darling-budget-mps-treasury-select-committee", "isHosted": false, "pillarId": "pillar/news", "pillarName": "News"}, {"id": "commentisfree/cartoon/2010/mar/30/steve-bell-general-election-gordon-brown", "type": "picture", "sectionId": "commentisfree", "sectionName": "Opinion", "webPublicationDate": "2010-03-30T07:48:40Z", "webTitle": "Steve Bell's If ... Enter the blue rubber knight", "webUrl": "https://www.theguardian.com/commentisfree/cartoon/2010/mar/30/steve-bell-general-election-gordon-brown", "apiUrl": "https://content.guardianapis.com/commentisfree/cartoon/2010/mar/30/steve-bell-general-election-gordon-brown", "isHosted": false, "pillarId": "pillar/opinion", "pillarName": "Opinion"}, {"id": "politics/video/2010/mar/30/tv-debate-ask-the-chancellors", "type": "video", "sectionId": "politics", "sectionName": "Politics", "webPublicationDate": "2010-03-30T07:09:00Z", "webTitle": "VIdeo: Alistair Darling, George Osborne and Vince Cable go head-to-head", "webUrl": "https://www.theguardian.com/politics/video/2010/mar/30/tv-debate-ask-the-chancellors", "apiUrl": "https://content.guardianapis.com/politics/video/2010/mar/30/tv-debate-ask-the-chancellors", "isHosted": false, "pillarId": "pillar/news", "pillarName": "News"}, {"id": "uk/2010/mar/30/prevent-islam-muslim-communities", "type": "article", "sectionId": "law", "sectionName": "Law", "webPublicationDate": "2010-03-30T05:09:52Z", "webTitle": "MPs demand investigation into Muslim 'spy' allegations against Prevent", "webUrl": "https://www.theguardian.com/uk/2010/mar/30/prevent-islam-muslim-communities", "apiUrl": "https://content.guardianapis.com/uk/2010/mar/30/prevent-islam-muslim-communities", "isHosted": false, "pillarId": "pillar/news", "pillarName": "News"}, {"id": "world/2010/mar/30/arms-british-gaza-assault", "type": "article", "sectionId": "world", "sectionName": "World news", "webPublicationDate": "2010-03-30T05:00:01Z", "webTitle": "MPs call for review of arms exports after Israeli assault on Gaza", "webUrl": "https://www.theguardian.com/world/2010/mar/30/arms-british-gaza-assault", "apiUrl": "https://content.guardianapis.com/world/2010/mar/30/arms-british-gaza-assault", "isHosted": false, "pillarId": "pillar/news", "pillarName": "News"}, {"id": "society/2010/mar/30/nhs-management-costs-spending", "type": "article", "sectionId": "society", "sectionName": "Society", "webPublicationDate": "2010-03-30T05:00:00Z", "webTitle": "NHS spends 14% of budget on management, MPs reveal", "webUrl": "https://www.theguardian.com/society/2010/mar/30/nhs-management-costs-spending", "apiUrl": "https://content.guardianapis.com/society/2010/mar/30/nhs-management-costs-spending", "isHosted": false, "pillarId": "pillar/news", "pillarName": "News"}]}}