{"response": {"status": "ok", "userTier": "developer", "total": 19968, "startIndex": 1, "pageSize": 50, "currentPage": 1, "pages": 400, "orderBy": "newest", "results": [{"id": "lifeandstyle/2014/mar/30/avenue-london-restaurant-review-jay-rayner", "type": "article", "sectionId": "food", "sectionName": "Food", "webPublicationDate": "2014-03-30T06:30:00Z", "webTitle": "Avenue: restaurant review | Jay Rayner", "webUrl": "https://www.theguardian.com/lifeandstyle/2014/mar/30/avenue-london-restaurant-review-jay-rayner", "apiUrl": "https://content.guardianapis.com/lifeandstyle/2014/mar/30/avenue-london-restaurant-review-jay-rayner", "isHosted": false, "pillarId": "pillar/lifestyle", "pillarName": "Lifestyle"}, {"id": "theobserver/2014/mar/30/the-big-issue-nutrition-healthy-eating", "type": "article", "sectionId": "news", "sectionName": "News", "webPublicationDate": "2014-03-30T00:09:00Z", "webTitle": "Healthy eating: more studies are needed to end the confusion about food | the big issue", "webUrl": "https://www.theguardian.com/theobserver/2014/mar/30/the-big-issue-nutrition-healthy-eating", "apiUrl": "https://content.guardianapis.com/theobserver/2014/mar/30/the-big-issue-nutrition-healthy-eating", "isHosted": false, "pillarId": "pillar/news", "pillarName": "News"}, {"id": "environment/2014/mar/30/latin-america-climate-change-coffee-crops-rust-fungus-threat-hemileaia-vastatrix", "type": "article", "sectionId": "environment", "sectionName": "Environment", "webPublicationDate": "2014-03-30T00:04:00Z", "webTitle": "Latin America: how climate change will wipe out coffee crops \u2013 and farmers", "webUrl": "https://www.theguardian.com/environment/2014/mar/30/latin-america-climate-change-coffee-crops-rust-fungus-threat-hemileaia-vastatrix", "apiUrl": "https://content.guardianapis.com/environment/2014/mar/30/latin-america-climate-change-coffee-crops-rust-fungus-threat-hemileaia-vastatrix", "isHosted": false, "pillarId": "pillar/news", "pillarName": "News"}, {"id": "lifeandstyle/2014/mar/29/wines-for-mothers-day-david-williams", "type": "article", "sectionId": "food", "sectionName": "Food", "webPublicationDate": "2014-03-29T12:59:00Z", "webTitle": "Good wines for Mother's Day | David Williams", "webUrl": "https://www.theguardian.com/lifeandstyle/2014/mar/29/wines-for-mothers-day-david-williams", "apiUrl": "https://content.guardianapis.com/lifeandstyle/2014/mar/29/wines-for-mothers-day-david-williams", "isHosted": false, "pillarId": "pillar/lifestyle", "pillarName": "Lifestyle"}, {"id": "lifeandstyle/2014/mar/29/wine-what-to-drink-in-spring", "type": "article", "sectionId": "food", "sectionName": "Food", "webPublicationDate": "2014-03-29T09:00:00Z", "webTitle": "Wine: what to drink in spring", "webUrl": "https://www.theguardian.com/lifeandstyle/2014/mar/29/wine-what-to-drink-in-spring", "apiUrl": "https://content.guardianapis.com/lifeandstyle/2014/mar/29/wine-what-to-drink-in-spring", "isHosted": false, "pillarId": "pillar/lifestyle", "pillarName": "Lifestyle"}, {"id": "lifeandstyle/2014/mar/29/bake-with-savoury-spices-recipe-ruby-tandoh", "type": "article", "sectionId": "lifeandstyle", "sectionName": "Life and style", "webPublicationDate": "2014-03-29T07:00:00Z", "webTitle": "How to bake with spices | Ruby bakes", "webUrl": "https://www.theguardian.com/lifeandstyle/2014/mar/29/bake-with-savoury-spices-recipe-ruby-tandoh", "apiUrl": "https://content.guardianapis.com/lifeandstyle/2014/mar/29/bake-with-savoury-spices-recipe-ruby-tandoh", "isHosted": false, "pillarId": "pillar/lifestyle", "pillarName": "Lifestyle"}, {"id": "lifeandstyle/2014/mar/29/foraged-organic-food-catering-wild-rover-behind-the-scenes", "type": "article", "sectionId": "lifeandstyle", "sectionName": "Life and style", "webPublicationDate": "2014-03-29T07:00:00Z", "webTitle": "Rover's repast | Meet the producer", "webUrl": "https://www.theguardian.com/lifeandstyle/2014/mar/29/foraged-organic-food-catering-wild-rover-behind-the-scenes", "apiUrl": "https://content.guardianapis.com/lifeandstyle/2014/mar/29/foraged-organic-food-catering-wild-rover-behind-the-scenes", "isHosted": false, "pillarId": "pillar/lifestyle", "pillarName": "Lifestyle"}, {"id": "lifeandstyle/2014/mar/29/fermented-food-sauerkraut-recipe-get-togethers", "type": "article", "sectionId": "lifeandstyle", "sectionName": "Life and style", "webPublicationDate": "2014-03-29T07:00:00Z", "webTitle": "Fermenting revolution: lessons in health-giving recipes | Get-togethers", "webUrl": "https://www.theguardian.com/lifeandstyle/2014/mar/29/fermented-food-sauerkraut-recipe-get-togethers", "apiUrl": "https://content.guardianapis.com/lifeandstyle/2014/mar/29/fermented-food-sauerkraut-recipe-get-togethers", "isHosted": false, "pillarId": "pillar/lifestyle", "pillarName": "Lifestyle"}, {"id": "lifeandstyle/2014/mar/29/tart-recipes-baking-10-best", "type": "article", "sectionId": "lifeandstyle", "sectionName": "Life and style", "webPublicationDate": "2014-03-29T07:00:00Z", "webTitle": "10 best tart recipes", "webUrl": "https://www.theguardian.com/lifeandstyle/2014/mar/29/tart-recipes-baking-10-best", "apiUrl": "https://content.guardianapis.com/lifeandstyle/2014/mar/29/tart-recipes-baking-10-best", "isHosted": false, "pillarId": "pillar/lifestyle", "pillarName": "Lifestyle"}, {"id": "lifeandstyle/2014/mar/29/garlic-recipes-readers-recipe-swap-felicity-cloake", "type": "article", "sectionId": "lifeandstyle", "sectionName": "Life and style", "webPublicationDate": "2014-03-29T06:59:00Z", "webTitle": "Readers' recipe swap: garlic | Felicity Cloake", "webUrl": "https://www.theguardian.com/lifeandstyle/2014/mar/29/garlic-recipes-readers-recipe-swap-felicity-cloake", "apiUrl": "https://content.guardianapis.com/lifeandstyle/2014/mar/29/garlic-recipes-readers-recipe-swap-felicity-cloake", "isHosted": false, "pillarId": "pillar/lifestyle", "pillarName": "Lifestyle"}, {"id": "lifeandstyle/2014/mar/29/italian-recipes-food-italy-claudia-roden-review", "type": "article", "sectionId": "food", "sectionName": "Food", "webPublicationDate": "2014-03-29T06:59:00Z", "webTitle": "The Food of Italy by Claudia Roden | Cookworm", "webUrl": "https://www.theguardian.com/lifeandstyle/2014/mar/29/italian-recipes-food-italy-claudia-roden-review", "apiUrl": "https://content.guardianapis.com/lifeandstyle/2014/mar/29/italian-recipes-food-italy-claudia-roden-review", "isHosted": false, "pillarId": "pillar/lifestyle", "pillarName": "Lifestyle"}, {"id": "lifeandstyle/2014/mar/28/antidote-london-w1-restaurant-review-marina-oloughlin", "type": "article", "sectionId": "lifeandstyle", "sectionName": "Life and style", "webPublicationDate": "2014-03-28T22:00:05Z", "webTitle": "Antidote, London W1 \u2013 restaurant review", "webUrl": "https://www.theguardian.com/lifeandstyle/2014/mar/28/antidote-london-w1-restaurant-review-marina-oloughlin", "apiUrl": "https://content.guardianapis.com/lifeandstyle/2014/mar/28/antidote-london-w1-restaurant-review-marina-oloughlin", "isHosted": false, "pillarId": "pillar/lifestyle", "pillarName": "Lifestyle"}, {"id": "lifeandstyle/2014/mar/28/puff-pastry-recipes-mary-ellen-mctague", "type": "article", "sectionId": "food", "sectionName": "Food", "webPublicationDate": "2014-03-28T21:00:02Z", "webTitle": "Puff and stuff: Mary-Ellen McTague's flaky pastry recipes", "webUrl": "https://www.theguardian.com/lifeandstyle/2014/mar/28/puff-pastry-recipes-mary-ellen-mctague", "apiUrl": "https://content.guardianapis.com/lifeandstyle/2014/mar/28/puff-pastry-recipes-mary-ellen-mctague", "isHosted": false, "pillarId": "pillar/lifestyle", "pillarName": "Lifestyle"}, {"id": "lifeandstyle/2014/mar/28/how-to-grow-own-salad-alys-fowler", "type": "article", "sectionId": "lifeandstyle", "sectionName": "Life and style", "webPublicationDate": "2014-03-28T16:30:00Z", "webTitle": "Homes and gardens spring special: salad days", "webUrl": "https://www.theguardian.com/lifeandstyle/2014/mar/28/how-to-grow-own-salad-alys-fowler", "apiUrl": "https://content.guardianapis.com/lifeandstyle/2014/mar/28/how-to-grow-own-salad-alys-fowler", "isHosted": false, "pillarId": "pillar/lifestyle", "pillarName": "Lifestyle"}, {"id": "world/2014/mar/28/morsi-overthrow-egypt-pork-farmers-sales-growth-pigs", "type": "article", "sectionId": "world", "sectionName": "World news", "webPublicationDate": "2014-03-28T16:20:39Z", "webTitle": "Morsi's overthrow helps Egypt's pork farmers get their sizzle back", "webUrl": "https://www.theguardian.com/world/2014/mar/28/morsi-overthrow-egypt-pork-farmers-sales-growth-pigs", "apiUrl": "https://content.guardianapis.com/world/2014/mar/28/morsi-overthrow-egypt-pork-farmers-sales-growth-pigs", "isHosted": false, "pillarId": "pillar/news", "pillarName": "News"}, {"id": "environment/2014/mar/28/climate-change-bad-expensive-coffee-ipcc", "type": "article", "sectionId": "environment", "sectionName": "Environment", "webPublicationDate": "2014-03-28T16:00:00Z", "webTitle": "How climate change will brew a bad-tasting, expensive cup of coffee", "webUrl": "https://www.theguardian.com/environment/2014/mar/28/climate-change-bad-expensive-coffee-ipcc", "apiUrl": "https://content.guardianapis.com/environment/2014/mar/28/climate-change-bad-expensive-coffee-ipcc", "isHosted": false, "pillarId": "pillar/news", "pillarName": "News"}, {"id": "lifeandstyle/2014/mar/28/wild-garlic-orzo-minestrone-recipe", "type": "article", "sectionId": "lifeandstyle", "sectionName": "Life and style", "webPublicationDate": "2014-03-28T13:03:48Z", "webTitle": "Wild garlic and orzo minestrone \u2013 recipe", "webUrl": "https://www.theguardian.com/lifeandstyle/2014/mar/28/wild-garlic-orzo-minestrone-recipe", "apiUrl": "https://content.guardianapis.com/lifeandstyle/2014/mar/28/wild-garlic-orzo-minestrone-recipe", "isHosted": false, "pillarId": "pillar/lifestyle", "pillarName": "Lifestyle"}, {"id": "lifeandstyle/video/2014/mar/28/gleaning-network-unwanted-food-waste-video", "type": "video", "sectionId": "lifeandstyle", "sectionName": "Life and style", "webPublicationDate": "2014-03-28T13:03:00Z", "webTitle": "Gleaning up: harvesting tonnes of unwanted food \u2013 video", "webUrl": "https://www.theguardian.com/lifeandstyle/video/2014/mar/28/gleaning-network-unwanted-food-waste-video", "apiUrl": "https://content.guardianapis.com/lifeandstyle/video/2014/mar/28/gleaning-network-unwanted-food-waste-video", "isHosted": false, "pillarId": "pillar/lifestyle", "pillarName": "Lifestyle"}, {"id": "lifeandstyle/2014/mar/28/gluten-free-lamb-butternut-squash-kibbeh-recipe", "type": "article", "sectionId": "lifeandstyle", "sectionName": "Life and style", "webPublicationDate": "2014-03-28T12:30:00Z", "webTitle": "Gluten-free lamb, butternut squash and cinnamon kibbeh recipe | Just as tasty", "webUrl": "https://www.theguardian.com/lifeandstyle/2014/mar/28/gluten-free-lamb-butternut-squash-kibbeh-recipe", "apiUrl": "https://content.guardianapis.com/lifeandstyle/2014/mar/28/gluten-free-lamb-butternut-squash-kibbeh-recipe", "isHosted": false, "pillarId": "pillar/lifestyle", "pillarName": "Lifestyle"}, {"id": "lifeandstyle/2014/mar/28/how-to-make-your-own-chilli-jam-recipe", "type": "article", "sectionId": "lifeandstyle", "sectionName": "Life and style", "webPublicationDate": "2014-03-28T12:30:00Z", "webTitle": "Make your own sweet chilli jam | Make Your Own", "webUrl": "https://www.theguardian.com/lifeandstyle/2014/mar/28/how-to-make-your-own-chilli-jam-recipe", "apiUrl": "https://content.guardianapis.com/lifeandstyle/2014/mar/28/how-to-make-your-own-chilli-jam-recipe", "isHosted": false, "pillarId": "pillar/lifestyle", "pillarName": "Lifestyle"}, {"id": "lifeandstyle/2014/mar/28/how-to-make-queen-of-puddings-recipe-mothers-day", "type": "article", "sectionId": "lifeandstyle", "sectionName": "Life and style", "webPublicationDate": "2014-03-28T12:29:00Z", "webTitle": "How to make a queen of puddings | Back to basics", "webUrl": "https://www.theguardian.com/lifeandstyle/2014/mar/28/how-to-make-queen-of-puddings-recipe-mothers-day", "apiUrl": "https://content.guardianapis.com/lifeandstyle/2014/mar/28/how-to-make-queen-of-puddings-recipe-mothers-day", "isHosted": false, "pillarId": "pillar/lifestyle", "pillarName": "Lifestyle"}, {"id": "sustainable-business/food-waste-eating-out-restaurants", "type": "article", "sectionId": "sustainable-business", "sectionName": "Guardian Sustainable Business", "webPublicationDate": "2014-03-28T11:21:00Z", "webTitle": "Food waste in restaurants: out of home, out of mind?", "webUrl": "https://www.theguardian.com/sustainable-business/food-waste-eating-out-restaurants", "apiUrl": "https://content.guardianapis.com/sustainable-business/food-waste-eating-out-restaurants", "isHosted": false}, {"id": "society/2014/mar/28/women-organic-foods-develop-cancer", "type": "article", "sectionId": "society", "sectionName": "Society", "webPublicationDate": "2014-03-28T00:01:04Z", "webTitle": "Women who eat organic foods no less likely to develop cancer, research finds", "webUrl": "https://www.theguardian.com/society/2014/mar/28/women-organic-foods-develop-cancer", "apiUrl": "https://content.guardianapis.com/society/2014/mar/28/women-organic-foods-develop-cancer", "isHosted": false, "pillarId": "pillar/news", "pillarName": "News"}, {"id": "lifeandstyle/australia-food-blog/2014/mar/28/unsung-food-suburbs-homebush-west-sydney", "type": "article", "sectionId": "lifeandstyle", "sectionName": "Life and style", "webPublicationDate": "2014-03-27T21:12:35Z", "webTitle": "Unsung food suburbs: Homebush West, Sydney", "webUrl": "https://www.theguardian.com/lifeandstyle/australia-food-blog/2014/mar/28/unsung-food-suburbs-homebush-west-sydney", "apiUrl": "https://content.guardianapis.com/lifeandstyle/australia-food-blog/2014/mar/28/unsung-food-suburbs-homebush-west-sydney", "isHosted": false, "pillarId": "pillar/lifestyle", "pillarName": "Lifestyle"}, {"id": "politics/2014/mar/27/chief-medical-officer-criticises-media-acceptance-overweight", "type": "article", "sectionId": "society", "sectionName": "Society", "webPublicationDate": "2014-03-27T20:11:57Z", "webTitle": "Chief medical officer criticises media acceptance of being overweight", "webUrl": "https://www.theguardian.com/politics/2014/mar/27/chief-medical-officer-criticises-media-acceptance-overweight", "apiUrl": "https://content.guardianapis.com/politics/2014/mar/27/chief-medical-officer-criticises-media-acceptance-overweight", "isHosted": false, "pillarId": "pillar/news", "pillarName": "News"}, {"id": "commentisfree/2014/mar/27/can-cook-wont-cook-tv", "type": "article", "sectionId": "commentisfree", "sectionName": "Opinion", "webPublicationDate": "2014-03-27T17:00:00Z", "webTitle": "Can cook, won't cook \u2013 Britons stew in front of the TV instead of on the hob | Felicity Cloake", "webUrl": "https://www.theguardian.com/commentisfree/2014/mar/27/can-cook-wont-cook-tv", "apiUrl": "https://content.guardianapis.com/commentisfree/2014/mar/27/can-cook-wont-cook-tv", "isHosted": false, "pillarId": "pillar/opinion", "pillarName": "Opinion"}, {"id": "society/2014/mar/27/chief-medical-officer-criticises-alcohol-supermarkets-bars-sugar", "type": "article", "sectionId": "society", "sectionName": "Society", "webPublicationDate": "2014-03-27T14:56:43Z", "webTitle": "Chief medical officer criticises alcohol offers in supermarkets, shops and bars", "webUrl": "https://www.theguardian.com/society/2014/mar/27/chief-medical-officer-criticises-alcohol-supermarkets-bars-sugar", "apiUrl": "https://content.guardianapis.com/society/2014/mar/27/chief-medical-officer-criticises-alcohol-supermarkets-bars-sugar", "isHosted": false, "pillarId": "pillar/news", "pillarName": "News"}, {"id": "world/2014/mar/27/swiss-fondue-restuarant-wins-legal-battle-smell-cheese", "type": "article", "sectionId": "world", "sectionName": "World news", "webPublicationDate": "2014-03-27T14:33:33Z", "webTitle": "Swiss fondue restaurant wins legal fight with neighbours over cheesey smells", "webUrl": "https://www.theguardian.com/world/2014/mar/27/swiss-fondue-restuarant-wins-legal-battle-smell-cheese", "apiUrl": "https://content.guardianapis.com/world/2014/mar/27/swiss-fondue-restuarant-wins-legal-battle-smell-cheese", "isHosted": false, "pillarId": "pillar/news", "pillarName": "News"}, {"id": "lifeandstyle/wordofmouth/2014/mar/27/how-to-cook-the-perfect-digestive-biscuit-felicity-cloake", "type": "article", "sectionId": "food", "sectionName": "Food", "webPublicationDate": "2014-03-27T10:23:00Z", "webTitle": "How to cook the perfect digestive biscuit", "webUrl": "https://www.theguardian.com/lifeandstyle/wordofmouth/2014/mar/27/how-to-cook-the-perfect-digestive-biscuit-felicity-cloake", "apiUrl": "https://content.guardianapis.com/lifeandstyle/wordofmouth/2014/mar/27/how-to-cook-the-perfect-digestive-biscuit-felicity-cloake", "isHosted": false, "pillarId": "pillar/lifestyle", "pillarName": "Lifestyle"}, {"id": "travel/2014/mar/27/top-10-budget-restaurants-bars-cafes-liverpool", "type": "article", "sectionId": "travel", "sectionName": "Travel", "webPublicationDate": "2014-03-27T06:00:00Z", "webTitle": "Top 10 budget restaurants, bars and cafes in Liverpool", "webUrl": "https://www.theguardian.com/travel/2014/mar/27/top-10-budget-restaurants-bars-cafes-liverpool", "apiUrl": "https://content.guardianapis.com/travel/2014/mar/27/top-10-budget-restaurants-bars-cafes-liverpool", "isHosted": false, "pillarId": "pillar/lifestyle", "pillarName": "Lifestyle"}, {"id": "lifeandstyle/2014/mar/27/heston-blumenthal-set-to-open-restaurant-at-melbournes-crown-casino", "type": "article", "sectionId": "food", "sectionName": "Food", "webPublicationDate": "2014-03-27T05:44:09Z", "webTitle": "Heston Blumenthal set to open restaurant at Melbourne's Crown casino", "webUrl": "https://www.theguardian.com/lifeandstyle/2014/mar/27/heston-blumenthal-set-to-open-restaurant-at-melbournes-crown-casino", "apiUrl": "https://content.guardianapis.com/lifeandstyle/2014/mar/27/heston-blumenthal-set-to-open-restaurant-at-melbournes-crown-casino", "isHosted": false, "pillarId": "pillar/lifestyle", "pillarName": "Lifestyle"}, {"id": "lifeandstyle/2014/mar/26/jack-monroes-risotto-primavera-recipe", "type": "article", "sectionId": "lifeandstyle", "sectionName": "Life and style", "webPublicationDate": "2014-03-26T15:22:00Z", "webTitle": "Jack Monroe's risotto primavera recipe", "webUrl": "https://www.theguardian.com/lifeandstyle/2014/mar/26/jack-monroes-risotto-primavera-recipe", "apiUrl": "https://content.guardianapis.com/lifeandstyle/2014/mar/26/jack-monroes-risotto-primavera-recipe", "isHosted": false, "pillarId": "pillar/lifestyle", "pillarName": "Lifestyle"}, {"id": "lifeandstyle/2014/mar/26/ten-kitchen-tips-every-cook-should-know-felicity-cloake", "type": "article", "sectionId": "food", "sectionName": "Food", "webPublicationDate": "2014-03-26T12:46:00Z", "webTitle": "Ten kitchen tips every cook should know", "webUrl": "https://www.theguardian.com/lifeandstyle/2014/mar/26/ten-kitchen-tips-every-cook-should-know-felicity-cloake", "apiUrl": "https://content.guardianapis.com/lifeandstyle/2014/mar/26/ten-kitchen-tips-every-cook-should-know-felicity-cloake", "isHosted": false, "pillarId": "pillar/lifestyle", "pillarName": "Lifestyle"}, {"id": "tv-and-radio/tvandradioblog/2014/mar/26/masterchef-invention-test-10th-series-john-torode-gregg-wallace", "type": "article", "sectionId": "tv-and-radio", "sectionName": "Television & radio", "webPublicationDate": "2014-03-26T09:15:00Z", "webTitle": "The new MasterChef invention test - how hard can it be?", "webUrl": "https://www.theguardian.com/tv-and-radio/tvandradioblog/2014/mar/26/masterchef-invention-test-10th-series-john-torode-gregg-wallace", "apiUrl": "https://content.guardianapis.com/tv-and-radio/tvandradioblog/2014/mar/26/masterchef-invention-test-10th-series-john-torode-gregg-wallace", "isHosted": false, "pillarId": "pillar/arts", "pillarName": "Arts"}, {"id": "commentisfree/2014/mar/26/organic-food-industry-food-poverty", "type": "article", "sectionId": "commentisfree", "sectionName": "Opinion", "webPublicationDate": "2014-03-26T09:00:01Z", "webTitle": "Why it's vital the organic food industry is given room to grow | Ally Fogg", "webUrl": "https://www.theguardian.com/commentisfree/2014/mar/26/organic-food-industry-food-poverty", "apiUrl": "https://content.guardianapis.com/commentisfree/2014/mar/26/organic-food-industry-food-poverty", "isHosted": false, "pillarId": "pillar/opinion", "pillarName": "Opinion"}, {"id": "money/2014/mar/25/nyc-restaurants-foodies-enough-about-food-what-about-people", "type": "article", "sectionId": "money", "sectionName": "Money", "webPublicationDate": "2014-03-25T20:11:34Z", "webTitle": "Restaurants to foodies: Enough about food. What about the people?", "webUrl": "https://www.theguardian.com/money/2014/mar/25/nyc-restaurants-foodies-enough-about-food-what-about-people", "apiUrl": "https://content.guardianapis.com/money/2014/mar/25/nyc-restaurants-foodies-enough-about-food-what-about-people", "isHosted": false, "pillarId": "pillar/lifestyle", "pillarName": "Lifestyle"}, {"id": "commentisfree/2014/mar/25/saturated-fat-heart-disease-balanced-diet", "type": "article", "sectionId": "commentisfree", "sectionName": "Opinion", "webPublicationDate": "2014-03-25T17:58:58Z", "webTitle": "Saturated fat is not good for your heart. But eating a balanced diet is | Jeremy Pearson", "webUrl": "https://www.theguardian.com/commentisfree/2014/mar/25/saturated-fat-heart-disease-balanced-diet", "apiUrl": "https://content.guardianapis.com/commentisfree/2014/mar/25/saturated-fat-heart-disease-balanced-diet", "isHosted": false, "pillarId": "pillar/opinion", "pillarName": "Opinion"}, {"id": "sustainable-business/food-blog/information-artworks-words-change-world-douglas-gayeton", "type": "article", "sectionId": "sustainable-business", "sectionName": "Guardian Sustainable Business", "webPublicationDate": "2014-03-25T14:59:24Z", "webTitle": "Information artworks are using words to change the world", "webUrl": "https://www.theguardian.com/sustainable-business/food-blog/information-artworks-words-change-world-douglas-gayeton", "apiUrl": "https://content.guardianapis.com/sustainable-business/food-blog/information-artworks-words-change-world-douglas-gayeton", "isHosted": false}, {"id": "lifeandstyle/wordofmouth/2014/mar/25/wackaging-trend-food-packaging-innocent-language", "type": "article", "sectionId": "food", "sectionName": "Food", "webPublicationDate": "2014-03-25T12:17:00Z", "webTitle": "Wackaging: do we want our food to talk back?", "webUrl": "https://www.theguardian.com/lifeandstyle/wordofmouth/2014/mar/25/wackaging-trend-food-packaging-innocent-language", "apiUrl": "https://content.guardianapis.com/lifeandstyle/wordofmouth/2014/mar/25/wackaging-trend-food-packaging-innocent-language", "isHosted": false, "pillarId": "pillar/lifestyle", "pillarName": "Lifestyle"}, {"id": "film/2014/mar/25/star-trek-warnog-official-klingon-beer", "type": "article", "sectionId": "film", "sectionName": "Film", "webPublicationDate": "2014-03-25T11:51:58Z", "webTitle": "Warnog, official Klingon beer launched by Star Trek, with 'notes of clove, banana and caramel'", "webUrl": "https://www.theguardian.com/film/2014/mar/25/star-trek-warnog-official-klingon-beer", "apiUrl": "https://content.guardianapis.com/film/2014/mar/25/star-trek-warnog-official-klingon-beer", "isHosted": false, "pillarId": "pillar/arts", "pillarName": "Arts"}, {"id": "theobserver/she-said/2014/mar/25/the-power-of-a-well-packed-lunchbox", "type": "article", "sectionId": "theobserver", "sectionName": "From the Observer", "webPublicationDate": "2014-03-25T07:00:57Z", "webTitle": "The power of a well-packed lunchbox", "webUrl": "https://www.theguardian.com/theobserver/she-said/2014/mar/25/the-power-of-a-well-packed-lunchbox", "apiUrl": "https://content.guardianapis.com/theobserver/she-said/2014/mar/25/the-power-of-a-well-packed-lunchbox", "isHosted": false, "pillarId": "pillar/news", "pillarName": "News"}, {"id": "lifeandstyle/australia-food-blog/2014/mar/24/food-in-season-duck-hunting-march", "type": "article", "sectionId": "food", "sectionName": "Food", "webPublicationDate": "2014-03-24T05:21:38Z", "webTitle": "Eating off the land in March: duck hunting", "webUrl": "https://www.theguardian.com/lifeandstyle/australia-food-blog/2014/mar/24/food-in-season-duck-hunting-march", "apiUrl": "https://content.guardianapis.com/lifeandstyle/australia-food-blog/2014/mar/24/food-in-season-duck-hunting-march", "isHosted": false, "pillarId": "pillar/lifestyle", "pillarName": "Lifestyle"}, {"id": "lifeandstyle/2014/mar/23/food-obsessives-perfect-cheese-bread-coffee", "type": "article", "sectionId": "food", "sectionName": "Food", "webPublicationDate": "2014-03-23T19:00:00Z", "webTitle": "Food obsessives: the people searching for the perfect cheese, bread and coffee", "webUrl": "https://www.theguardian.com/lifeandstyle/2014/mar/23/food-obsessives-perfect-cheese-bread-coffee", "apiUrl": "https://content.guardianapis.com/lifeandstyle/2014/mar/23/food-obsessives-perfect-cheese-bread-coffee", "isHosted": false, "pillarId": "pillar/lifestyle", "pillarName": "Lifestyle"}, {"id": "lifeandstyle/2014/mar/23/should-i-go-back-to-saturated-fats", "type": "article", "sectionId": "lifeandstyle", "sectionName": "Life and style", "webPublicationDate": "2014-03-23T18:30:00Z", "webTitle": "Should I go back to saturated fats?", "webUrl": "https://www.theguardian.com/lifeandstyle/2014/mar/23/should-i-go-back-to-saturated-fats", "apiUrl": "https://content.guardianapis.com/lifeandstyle/2014/mar/23/should-i-go-back-to-saturated-fats", "isHosted": false, "pillarId": "pillar/lifestyle", "pillarName": "Lifestyle"}, {"id": "lifeandstyle/2014/mar/23/la-langhe-york-restaurant-review", "type": "article", "sectionId": "food", "sectionName": "Food", "webPublicationDate": "2014-03-23T07:30:00Z", "webTitle": "Le Langhe: restaurant review | Jay Rayner", "webUrl": "https://www.theguardian.com/lifeandstyle/2014/mar/23/la-langhe-york-restaurant-review", "apiUrl": "https://content.guardianapis.com/lifeandstyle/2014/mar/23/la-langhe-york-restaurant-review", "isHosted": false, "pillarId": "pillar/lifestyle", "pillarName": "Lifestyle"}, {"id": "lifeandstyle/2014/mar/23/everything-you-know-about-unhealthy-foods-is-wrong", "type": "article", "sectionId": "lifeandstyle", "sectionName": "Life and style", "webPublicationDate": "2014-03-23T00:05:48Z", "webTitle": "Why almost everything you've been told about unhealthy foods is wrong", "webUrl": "https://www.theguardian.com/lifeandstyle/2014/mar/23/everything-you-know-about-unhealthy-foods-is-wrong", "apiUrl": "https://content.guardianapis.com/lifeandstyle/2014/mar/23/everything-you-know-about-unhealthy-foods-is-wrong", "isHosted": false, "pillarId": "pillar/lifestyle", "pillarName": "Lifestyle"}, {"id": "travel/gallery/2014/mar/23/henry-hargreaves-caitlin-levin-food-maps-world-in-pictures", "type": "gallery", "sectionId": "travel", "sectionName": "Travel", "webPublicationDate": "2014-03-23T00:05:00Z", "webTitle": "Henry Hargreaves and Caitlin Levin's food maps of the world \u2013 in pictures", "webUrl": "https://www.theguardian.com/travel/gallery/2014/mar/23/henry-hargreaves-caitlin-levin-food-maps-world-in-pictures", "apiUrl": "https://content.guardianapis.com/travel/gallery/2014/mar/23/henry-hargreaves-caitlin-levin-food-maps-world-in-pictures", "isHosted": false, "pillarId": "pillar/lifestyle", "pillarName": "Lifestyle"}, {"id": "tv-and-radio/quiz/2014/mar/23/how-much-know-about-masterchef-quiz", "type": "article", "sectionId": "global", "sectionName": "Global", "webPublicationDate": "2014-03-23T00:05:00Z", "webTitle": "How much do you know about MasterChef? \u2013 quiz", "webUrl": "https://www.theguardian.com/tv-and-radio/quiz/2014/mar/23/how-much-know-about-masterchef-quiz", "apiUrl": "https://content.guardianapis.com/tv-and-radio/quiz/2014/mar/23/how-much-know-about-masterchef-quiz", "isHosted": false}, {"id": "lifeandstyle/gallery/2014/mar/22/behind-the-scenes-poppies-fish-and-chips-in-pictures", "type": "gallery", "sectionId": "food", "sectionName": "Food", "webPublicationDate": "2014-03-22T16:30:00Z", "webTitle": "Behind the Scenes in pictures \u2013 Poppies restaurant.", "webUrl": "https://www.theguardian.com/lifeandstyle/gallery/2014/mar/22/behind-the-scenes-poppies-fish-and-chips-in-pictures", "apiUrl": "https://content.guardianapis.com/lifeandstyle/gallery/2014/mar/22/behind-the-scenes-poppies-fish-and-chips-in-pictures", "isHosted": false, "pillarId": "pillar/lifestyle", "pillarName": "Lifestyle"}, {"id": "lifeandstyle/2014/mar/22/wine-food-and-drink", "type": "article", "sectionId": "food", "sectionName": "Food", "webPublicationDate": "2014-03-22T13:00:00Z", "webTitle": "Food-friendly red wines | David Williams", "webUrl": "https://www.theguardian.com/lifeandstyle/2014/mar/22/wine-food-and-drink", "apiUrl": "https://content.guardianapis.com/lifeandstyle/2014/mar/22/wine-food-and-drink", "isHosted": false, "pillarId": "pillar/lifestyle", "pillarName": "Lifestyle"}]}}