{"response": {"status": "ok", "userTier": "developer", "total": 131816, "startIndex": 1, "pageSize": 50, "currentPage": 1, "pages": 2637, "orderBy": "newest", "results": [{"id": "society/2014/mar/30/mean-spirited-ban-on-books-for-prisoners", "type": "article", "sectionId": "society", "sectionName": "Society", "webPublicationDate": "2014-03-30T20:00:02Z", "webTitle": "Mean-spirited ban on books for prisoners | @guardianletters", "webUrl": "https://www.theguardian.com/society/2014/mar/30/mean-spirited-ban-on-books-for-prisoners", "apiUrl": "https://content.guardianapis.com/society/2014/mar/30/mean-spirited-ban-on-books-for-prisoners", "isHosted": false, "pillarId": "pillar/news", "pillarName": "News"}, {"id": "politics/2014/mar/30/realistic-voting-options-for-left", "type": "article", "sectionId": "politics", "sectionName": "Politics", "webPublicationDate": "2014-03-30T20:00:01Z", "webTitle": "Realistic voting options for those on the left | @guardianletters", "webUrl": "https://www.theguardian.com/politics/2014/mar/30/realistic-voting-options-for-left", "apiUrl": "https://content.guardianapis.com/politics/2014/mar/30/realistic-voting-options-for-left", "isHosted": false, "pillarId": "pillar/news", "pillarName": "News"}, {"id": "commentisfree/2014/mar/30/nigel-farage-economic-ukip-european-elections", "type": "article", "sectionId": "commentisfree", "sectionName": "Opinion", "webPublicationDate": "2014-03-30T17:30:02Z", "webTitle": "Nigel Farage's vision of a better yesterday will fade in a brighter future | Chris Huhne", "webUrl": "https://www.theguardian.com/commentisfree/2014/mar/30/nigel-farage-economic-ukip-european-elections", "apiUrl": "https://content.guardianapis.com/commentisfree/2014/mar/30/nigel-farage-economic-ukip-european-elections", "isHosted": false, "pillarId": "pillar/opinion", "pillarName": "Opinion"}, {"id": "money/2014/mar/30/poorest-homes-council-tax-rise-uk", "type": "article", "sectionId": "money", "sectionName": "Money", "webPublicationDate": "2014-03-30T17:25:51Z", "webTitle": "Poorest homes face \u00a3120 council tax rise as safety net goes", "webUrl": "https://www.theguardian.com/money/2014/mar/30/poorest-homes-council-tax-rise-uk", "apiUrl": "https://content.guardianapis.com/money/2014/mar/30/poorest-homes-council-tax-rise-uk", "isHosted": false, "pillarId": "pillar/lifestyle", "pillarName": "Lifestyle"}, {"id": "commentisfree/2014/mar/30/scotland-another-country-westminster-devolution", "type": "article", "sectionId": "commentisfree", "sectionName": "Opinion", "webPublicationDate": "2014-03-30T16:15:38Z", "webTitle": "Scotland is already another country | Ruth Wishart", "webUrl": "https://www.theguardian.com/commentisfree/2014/mar/30/scotland-another-country-westminster-devolution", "apiUrl": "https://content.guardianapis.com/commentisfree/2014/mar/30/scotland-another-country-westminster-devolution", "isHosted": false, "pillarId": "pillar/opinion", "pillarName": "Opinion"}, {"id": "uk-news/2014/mar/30/bbc-panorama-tower-hamlets-mayor-lutfur-rahman", "type": "article", "sectionId": "uk-news", "sectionName": "UK news", "webPublicationDate": "2014-03-30T15:46:02Z", "webTitle": "BBC's Panorama investigates Tower Hamlets mayor Lutfur Rahman", "webUrl": "https://www.theguardian.com/uk-news/2014/mar/30/bbc-panorama-tower-hamlets-mayor-lutfur-rahman", "apiUrl": "https://content.guardianapis.com/uk-news/2014/mar/30/bbc-panorama-tower-hamlets-mayor-lutfur-rahman", "isHosted": false, "pillarId": "pillar/news", "pillarName": "News"}, {"id": "uk-news/2014/mar/30/prince-charles-westminster-campaign-strip-special-legal-privileges", "type": "article", "sectionId": "uk-news", "sectionName": "UK news", "webPublicationDate": "2014-03-30T13:53:31Z", "webTitle": "Prince Charles faces political campaign to strip him of special legal privileges", "webUrl": "https://www.theguardian.com/uk-news/2014/mar/30/prince-charles-westminster-campaign-strip-special-legal-privileges", "apiUrl": "https://content.guardianapis.com/uk-news/2014/mar/30/prince-charles-westminster-campaign-strip-special-legal-privileges", "isHosted": false, "pillarId": "pillar/news", "pillarName": "News"}, {"id": "politics/2014/mar/30/alex-salmond-pound-threat-demolished-minister-currency-scottish-no", "type": "article", "sectionId": "politics", "sectionName": "Politics", "webPublicationDate": "2014-03-30T12:02:54Z", "webTitle": "Alex Salmond: no campaign's pound threat 'demolished' by admission", "webUrl": "https://www.theguardian.com/politics/2014/mar/30/alex-salmond-pound-threat-demolished-minister-currency-scottish-no", "apiUrl": "https://content.guardianapis.com/politics/2014/mar/30/alex-salmond-pound-threat-demolished-minister-currency-scottish-no", "isHosted": false, "pillarId": "pillar/news", "pillarName": "News"}, {"id": "commentisfree/2014/mar/30/labour-party-factions-ed-miliband-ed-balls", "type": "article", "sectionId": "commentisfree", "sectionName": "Opinion", "webPublicationDate": "2014-03-30T06:04:00Z", "webTitle": "The five fault lines that divide Ed Miliband's Labour party | Andrew Rawnsley", "webUrl": "https://www.theguardian.com/commentisfree/2014/mar/30/labour-party-factions-ed-miliband-ed-balls", "apiUrl": "https://content.guardianapis.com/commentisfree/2014/mar/30/labour-party-factions-ed-miliband-ed-balls", "isHosted": false, "pillarId": "pillar/opinion", "pillarName": "Opinion"}, {"id": "commentisfree/2014/mar/30/more-power-glasgow-online-journalists-wings-over-scotland-bella-caledonia", "type": "article", "sectionId": "commentisfree", "sectionName": "Opinion", "webPublicationDate": "2014-03-30T05:40:01Z", "webTitle": "More power to Glasgow's online journalists | Kevin McKenna", "webUrl": "https://www.theguardian.com/commentisfree/2014/mar/30/more-power-glasgow-online-journalists-wings-over-scotland-bella-caledonia", "apiUrl": "https://content.guardianapis.com/commentisfree/2014/mar/30/more-power-glasgow-online-journalists-wings-over-scotland-bella-caledonia", "isHosted": false, "pillarId": "pillar/opinion", "pillarName": "Opinion"}, {"id": "politics/2014/mar/30/tobacco-cigarette-smuggling-scare-plain-packs", "type": "article", "sectionId": "politics", "sectionName": "Politics", "webPublicationDate": "2014-03-30T05:30:00Z", "webTitle": "Tobacco firms hype smuggling fears to avoid plain packaging, finds study", "webUrl": "https://www.theguardian.com/politics/2014/mar/30/tobacco-cigarette-smuggling-scare-plain-packs", "apiUrl": "https://content.guardianapis.com/politics/2014/mar/30/tobacco-cigarette-smuggling-scare-plain-packs", "isHosted": false, "pillarId": "pillar/news", "pillarName": "News"}, {"id": "commentisfree/2014/mar/30/union-belongs-to-scots-cultural-identity-scottish-referendum", "type": "article", "sectionId": "commentisfree", "sectionName": "Opinion", "webPublicationDate": "2014-03-30T05:20:00Z", "webTitle": "The union belongs to the Scots, it's at the heart of our cultural identity | Alex Linklater", "webUrl": "https://www.theguardian.com/commentisfree/2014/mar/30/union-belongs-to-scots-cultural-identity-scottish-referendum", "apiUrl": "https://content.guardianapis.com/commentisfree/2014/mar/30/union-belongs-to-scots-cultural-identity-scottish-referendum", "isHosted": false, "pillarId": "pillar/opinion", "pillarName": "Opinion"}, {"id": "politics/2014/mar/30/generation-yes-scottish-independence-referendum-buzz", "type": "article", "sectionId": "politics", "sectionName": "Politics", "webPublicationDate": "2014-03-30T00:06:04Z", "webTitle": "Generation Yes: they're young, they're fervent \u2026 and they're nudging Scotland closer to independence", "webUrl": "https://www.theguardian.com/politics/2014/mar/30/generation-yes-scottish-independence-referendum-buzz", "apiUrl": "https://content.guardianapis.com/politics/2014/mar/30/generation-yes-scottish-independence-referendum-buzz", "isHosted": false, "pillarId": "pillar/news", "pillarName": "News"}, {"id": "business/2014/mar/30/cycle-mis-selling-compensation-osborne-pensions-revolution", "type": "article", "sectionId": "business", "sectionName": "Business", "webPublicationDate": "2014-03-30T00:05:53Z", "webTitle": "Our history of mis-selling bodes ill for Osborne's pensions revolution", "webUrl": "https://www.theguardian.com/business/2014/mar/30/cycle-mis-selling-compensation-osborne-pensions-revolution", "apiUrl": "https://content.guardianapis.com/business/2014/mar/30/cycle-mis-selling-compensation-osborne-pensions-revolution", "isHosted": false, "pillarId": "pillar/news", "pillarName": "News"}, {"id": "stage/2014/mar/30/union-lyceum-ednburgh-review", "type": "article", "sectionId": "stage", "sectionName": "Stage", "webPublicationDate": "2014-03-30T00:05:28Z", "webTitle": "Union review \u2013 'history as dodgy pantomime'", "webUrl": "https://www.theguardian.com/stage/2014/mar/30/union-lyceum-ednburgh-review", "apiUrl": "https://content.guardianapis.com/stage/2014/mar/30/union-lyceum-ednburgh-review", "isHosted": false, "pillarId": "pillar/arts", "pillarName": "Arts"}, {"id": "politics/2014/mar/30/clegg-farage-europe-debate-left-right", "type": "article", "sectionId": "politics", "sectionName": "Politics", "webPublicationDate": "2014-03-30T00:04:14Z", "webTitle": "Clegg v Farage on Europe isn't left v right", "webUrl": "https://www.theguardian.com/politics/2014/mar/30/clegg-farage-europe-debate-left-right", "apiUrl": "https://content.guardianapis.com/politics/2014/mar/30/clegg-farage-europe-debate-left-right", "isHosted": false, "pillarId": "pillar/news", "pillarName": "News"}, {"id": "cities/2014/mar/29/london-skyline-lack-of-consultation", "type": "article", "sectionId": "cities", "sectionName": "Cities", "webPublicationDate": "2014-03-29T21:46:00Z", "webTitle": "London is being transformed with 230 towers. Why the lack of consultation?", "webUrl": "https://www.theguardian.com/cities/2014/mar/29/london-skyline-lack-of-consultation", "apiUrl": "https://content.guardianapis.com/cities/2014/mar/29/london-skyline-lack-of-consultation", "isHosted": false, "pillarId": "pillar/news", "pillarName": "News"}, {"id": "politics/2014/mar/29/alistair-carmichael-scottish-independence-poll-losing", "type": "article", "sectionId": "politics", "sectionName": "Politics", "webPublicationDate": "2014-03-29T21:30:02Z", "webTitle": "Cabinet minister: we're in danger of losing Scottish independence poll", "webUrl": "https://www.theguardian.com/politics/2014/mar/29/alistair-carmichael-scottish-independence-poll-losing", "apiUrl": "https://content.guardianapis.com/politics/2014/mar/29/alistair-carmichael-scottish-independence-poll-losing", "isHosted": false, "pillarId": "pillar/news", "pillarName": "News"}, {"id": "cities/2014/mar/29/london-skyline-statement-200-towers-letter-full-text", "type": "article", "sectionId": "cities", "sectionName": "Cities", "webPublicationDate": "2014-03-29T21:00:01Z", "webTitle": "London skyline statement: 200 towers that threaten to destroy city's character", "webUrl": "https://www.theguardian.com/cities/2014/mar/29/london-skyline-statement-200-towers-letter-full-text", "apiUrl": "https://content.guardianapis.com/cities/2014/mar/29/london-skyline-statement-200-towers-letter-full-text", "isHosted": false, "pillarId": "pillar/news", "pillarName": "News"}, {"id": "cities/2014/mar/29/campaigners-fight-save-london-skyline", "type": "article", "sectionId": "cities", "sectionName": "Cities", "webPublicationDate": "2014-03-29T21:00:00Z", "webTitle": "Campaigners fight to save London skyline from 230 more skyscrapers", "webUrl": "https://www.theguardian.com/cities/2014/mar/29/campaigners-fight-save-london-skyline", "apiUrl": "https://content.guardianapis.com/cities/2014/mar/29/campaigners-fight-save-london-skyline", "isHosted": false, "pillarId": "pillar/news", "pillarName": "News"}, {"id": "society/2014/mar/29/gp-charges-britons-against-paying-nhs-charges", "type": "article", "sectionId": "society", "sectionName": "Society", "webPublicationDate": "2014-03-29T20:17:56Z", "webTitle": "Britons overwhelmingly against GP charges to help NHS balance books", "webUrl": "https://www.theguardian.com/society/2014/mar/29/gp-charges-britons-against-paying-nhs-charges", "apiUrl": "https://content.guardianapis.com/society/2014/mar/29/gp-charges-britons-against-paying-nhs-charges", "isHosted": false, "pillarId": "pillar/news", "pillarName": "News"}, {"id": "commentisfree/2014/mar/29/etiquette-guide-healthy-competition-rafael-behr", "type": "article", "sectionId": "commentisfree", "sectionName": "Opinion", "webPublicationDate": "2014-03-29T18:30:01Z", "webTitle": "The rules of healthy competition", "webUrl": "https://www.theguardian.com/commentisfree/2014/mar/29/etiquette-guide-healthy-competition-rafael-behr", "apiUrl": "https://content.guardianapis.com/commentisfree/2014/mar/29/etiquette-guide-healthy-competition-rafael-behr", "isHosted": false, "pillarId": "pillar/opinion", "pillarName": "Opinion"}, {"id": "politics/2014/mar/29/labour-support-falls-lowest-2010-observer-opinium-opinion-poll", "type": "article", "sectionId": "politics", "sectionName": "Politics", "webPublicationDate": "2014-03-29T18:21:55Z", "webTitle": "Labour opinion poll support falls to lowest level since 2010 election", "webUrl": "https://www.theguardian.com/politics/2014/mar/29/labour-support-falls-lowest-2010-observer-opinium-opinion-poll", "apiUrl": "https://content.guardianapis.com/politics/2014/mar/29/labour-support-falls-lowest-2010-observer-opinium-opinion-poll", "isHosted": false, "pillarId": "pillar/news", "pillarName": "News"}, {"id": "tv-and-radio/2014/mar/29/leaders-debate-moral-maze-victoria-derbyshire-review", "type": "article", "sectionId": "tv-and-radio", "sectionName": "Television & radio", "webPublicationDate": "2014-03-29T18:04:00Z", "webTitle": "The Leaders' Debate; Moral Maze; Victoria Derbyshire; The Writer's Almanac \u2013 review", "webUrl": "https://www.theguardian.com/tv-and-radio/2014/mar/29/leaders-debate-moral-maze-victoria-derbyshire-review", "apiUrl": "https://content.guardianapis.com/tv-and-radio/2014/mar/29/leaders-debate-moral-maze-victoria-derbyshire-review", "isHosted": false, "pillarId": "pillar/arts", "pillarName": "Arts"}, {"id": "politics/2014/mar/29/general-election-could-hang-on-how-private-tenants-vote", "type": "article", "sectionId": "politics", "sectionName": "Politics", "webPublicationDate": "2014-03-29T12:24:59Z", "webTitle": "Generation rent: housing policy could swing the vote in 2015 election", "webUrl": "https://www.theguardian.com/politics/2014/mar/29/general-election-could-hang-on-how-private-tenants-vote", "apiUrl": "https://content.guardianapis.com/politics/2014/mar/29/general-election-could-hang-on-how-private-tenants-vote", "isHosted": false, "pillarId": "pillar/news", "pillarName": "News"}, {"id": "politics/2014/mar/29/osborne-alexander-quash-currency-union-with-scotland", "type": "article", "sectionId": "politics", "sectionName": "Politics", "webPublicationDate": "2014-03-29T11:57:41Z", "webTitle": "Osborne and Alexander try to quash UK-Scotland currency union suggestion", "webUrl": "https://www.theguardian.com/politics/2014/mar/29/osborne-alexander-quash-currency-union-with-scotland", "apiUrl": "https://content.guardianapis.com/politics/2014/mar/29/osborne-alexander-quash-currency-union-with-scotland", "isHosted": false, "pillarId": "pillar/news", "pillarName": "News"}, {"id": "lifeandstyle/2014/mar/29/bingo-poster-shapps-lucy-mangan", "type": "article", "sectionId": "lifeandstyle", "sectionName": "Life and style", "webPublicationDate": "2014-03-29T09:00:00Z", "webTitle": "Lucy Mangan: After bingogate, we've all got the Tories' number", "webUrl": "https://www.theguardian.com/lifeandstyle/2014/mar/29/bingo-poster-shapps-lucy-mangan", "apiUrl": "https://content.guardianapis.com/lifeandstyle/2014/mar/29/bingo-poster-shapps-lucy-mangan", "isHosted": false, "pillarId": "pillar/lifestyle", "pillarName": "Lifestyle"}, {"id": "lifeandstyle/2014/mar/29/edward-timpson-childrens-minister-parents-fostered", "type": "article", "sectionId": "lifeandstyle", "sectionName": "Life and style", "webPublicationDate": "2014-03-29T07:44:00Z", "webTitle": "Edward Timpson: 'I wouldn't be children's minister if my parents hadn't fostered'", "webUrl": "https://www.theguardian.com/lifeandstyle/2014/mar/29/edward-timpson-childrens-minister-parents-fostered", "apiUrl": "https://content.guardianapis.com/lifeandstyle/2014/mar/29/edward-timpson-childrens-minister-parents-fostered", "isHosted": false, "pillarId": "pillar/lifestyle", "pillarName": "Lifestyle"}, {"id": "commentisfree/2014/mar/29/workers-treated-with-contempt-labour-miliband-deborah-orr", "type": "article", "sectionId": "commentisfree", "sectionName": "Opinion", "webPublicationDate": "2014-03-29T07:30:25Z", "webTitle": "Workers are treated with contempt. This should be Labour's focus | Deborah Orr", "webUrl": "https://www.theguardian.com/commentisfree/2014/mar/29/workers-treated-with-contempt-labour-miliband-deborah-orr", "apiUrl": "https://content.guardianapis.com/commentisfree/2014/mar/29/workers-treated-with-contempt-labour-miliband-deborah-orr", "isHosted": false, "pillarId": "pillar/opinion", "pillarName": "Opinion"}, {"id": "politics/2014/mar/29/childrens-minister-parliament-family-friendly-hours", "type": "article", "sectionId": "politics", "sectionName": "Politics", "webPublicationDate": "2014-03-29T06:30:01Z", "webTitle": "Children's minister wants parliament to make hours more family-friendly", "webUrl": "https://www.theguardian.com/politics/2014/mar/29/childrens-minister-parliament-family-friendly-hours", "apiUrl": "https://content.guardianapis.com/politics/2014/mar/29/childrens-minister-parliament-family-friendly-hours", "isHosted": false, "pillarId": "pillar/news", "pillarName": "News"}, {"id": "politics/2014/mar/29/union-tactics-government-scales-back-review", "type": "article", "sectionId": "politics", "sectionName": "Politics", "webPublicationDate": "2014-03-29T02:19:00Z", "webTitle": "Government scales back review of union tactics", "webUrl": "https://www.theguardian.com/politics/2014/mar/29/union-tactics-government-scales-back-review", "apiUrl": "https://content.guardianapis.com/politics/2014/mar/29/union-tactics-government-scales-back-review", "isHosted": false, "pillarId": "pillar/news", "pillarName": "News"}, {"id": "society/2014/mar/29/clegg-signals-raising-of-discretionary-housing-payments", "type": "article", "sectionId": "society", "sectionName": "Society", "webPublicationDate": "2014-03-29T02:15:07Z", "webTitle": "Nick Clegg: more help to go to those hurt by bedroom tax", "webUrl": "https://www.theguardian.com/society/2014/mar/29/clegg-signals-raising-of-discretionary-housing-payments", "apiUrl": "https://content.guardianapis.com/society/2014/mar/29/clegg-signals-raising-of-discretionary-housing-payments", "isHosted": false, "pillarId": "pillar/news", "pillarName": "News"}, {"id": "politics/2014/mar/28/independent-scotland-may-keep-pound", "type": "article", "sectionId": "politics", "sectionName": "Politics", "webPublicationDate": "2014-03-29T00:39:00Z", "webTitle": "Independent Scotland 'may keep pound' to ensure stability", "webUrl": "https://www.theguardian.com/politics/2014/mar/28/independent-scotland-may-keep-pound", "apiUrl": "https://content.guardianapis.com/politics/2014/mar/28/independent-scotland-may-keep-pound", "isHosted": false, "pillarId": "pillar/news", "pillarName": "News"}, {"id": "commentisfree/cartoon/2014/mar/28/martin-rowson-comment-cartoon-bedroom-tax", "type": "picture", "sectionId": "commentisfree", "sectionName": "Opinion", "webPublicationDate": "2014-03-28T23:22:00Z", "webTitle": "Martin Rowson on Iain Duncan Smith and the bedroom tax \u2013 cartoon", "webUrl": "https://www.theguardian.com/commentisfree/cartoon/2014/mar/28/martin-rowson-comment-cartoon-bedroom-tax", "apiUrl": "https://content.guardianapis.com/commentisfree/cartoon/2014/mar/28/martin-rowson-comment-cartoon-bedroom-tax", "isHosted": false, "pillarId": "pillar/opinion", "pillarName": "Opinion"}, {"id": "commentisfree/2014/mar/28/house-of-lords-rat-race-red-benches", "type": "article", "sectionId": "commentisfree", "sectionName": "Opinion", "webPublicationDate": "2014-03-28T21:18:37Z", "webTitle": "House of Lords: Rat race and red benches", "webUrl": "https://www.theguardian.com/commentisfree/2014/mar/28/house-of-lords-rat-race-red-benches", "apiUrl": "https://content.guardianapis.com/commentisfree/2014/mar/28/house-of-lords-rat-race-red-benches", "isHosted": false, "pillarId": "pillar/opinion", "pillarName": "Opinion"}, {"id": "society/2014/mar/28/nhs-boss-simon-stevens-london", "type": "article", "sectionId": "society", "sectionName": "Society", "webPublicationDate": "2014-03-28T21:07:00Z", "webTitle": "NHS boss Simon Stevens to base himself in London", "webUrl": "https://www.theguardian.com/society/2014/mar/28/nhs-boss-simon-stevens-london", "apiUrl": "https://content.guardianapis.com/society/2014/mar/28/nhs-boss-simon-stevens-london", "isHosted": false, "pillarId": "pillar/news", "pillarName": "News"}, {"id": "society/2014/mar/28/celebrate-our-public-services", "type": "article", "sectionId": "society", "sectionName": "Society", "webPublicationDate": "2014-03-28T21:00:11Z", "webTitle": "Let's celebrate our public services | @guardianletters", "webUrl": "https://www.theguardian.com/society/2014/mar/28/celebrate-our-public-services", "apiUrl": "https://content.guardianapis.com/society/2014/mar/28/celebrate-our-public-services", "isHosted": false, "pillarId": "pillar/news", "pillarName": "News"}, {"id": "politics/2014/mar/28/personal-political-benn-kinnock", "type": "article", "sectionId": "politics", "sectionName": "Politics", "webPublicationDate": "2014-03-28T21:00:11Z", "webTitle": "The personal is political from Benn to Kinnock | @guardianletters", "webUrl": "https://www.theguardian.com/politics/2014/mar/28/personal-political-benn-kinnock", "apiUrl": "https://content.guardianapis.com/politics/2014/mar/28/personal-political-benn-kinnock", "isHosted": false, "pillarId": "pillar/news", "pillarName": "News"}, {"id": "politics/2014/mar/28/britain-new-best-friend-berlin-germany", "type": "article", "sectionId": "politics", "sectionName": "Politics", "webPublicationDate": "2014-03-28T19:15:37Z", "webTitle": "Britain full of beans about new best friend Berlin", "webUrl": "https://www.theguardian.com/politics/2014/mar/28/britain-new-best-friend-berlin-germany", "apiUrl": "https://content.guardianapis.com/politics/2014/mar/28/britain-new-best-friend-berlin-germany", "isHosted": false, "pillarId": "pillar/news", "pillarName": "News"}, {"id": "commentisfree/2014/mar/28/scottish-independence", "type": "article", "sectionId": "commentisfree", "sectionName": "Opinion", "webPublicationDate": "2014-03-28T19:15:01Z", "webTitle": "A no vote in Scotland will be no endorsement of Britain | Jonathan Freedland", "webUrl": "https://www.theguardian.com/commentisfree/2014/mar/28/scottish-independence", "apiUrl": "https://content.guardianapis.com/commentisfree/2014/mar/28/scottish-independence", "isHosted": false, "pillarId": "pillar/opinion", "pillarName": "Opinion"}, {"id": "books/2014/mar/28/critical-eye-book-reviews-roundup", "type": "article", "sectionId": "books", "sectionName": "Books", "webPublicationDate": "2014-03-28T19:00:00Z", "webTitle": "Book reviews roundup: Roy Jenkins: A Well-Rounded Life, Boyhood Island and Northanger Abbey", "webUrl": "https://www.theguardian.com/books/2014/mar/28/critical-eye-book-reviews-roundup", "apiUrl": "https://content.guardianapis.com/books/2014/mar/28/critical-eye-book-reviews-roundup", "isHosted": false, "pillarId": "pillar/arts", "pillarName": "Arts"}, {"id": "small-business-network/2014/mar/28/ed-miliband-osbourne-banks-finance-small-business", "type": "article", "sectionId": "small-business-network", "sectionName": "Guardian Small Business Network", "webPublicationDate": "2014-03-28T17:07:00Z", "webTitle": "George Osborne: help for small firms rejected for a business loan", "webUrl": "https://www.theguardian.com/small-business-network/2014/mar/28/ed-miliband-osbourne-banks-finance-small-business", "apiUrl": "https://content.guardianapis.com/small-business-network/2014/mar/28/ed-miliband-osbourne-banks-finance-small-business", "isHosted": false, "pillarId": "pillar/news", "pillarName": "News"}, {"id": "politics/2014/mar/28/nick-clegg-councils-emergency-funds-bedroom-tax-arrears", "type": "article", "sectionId": "politics", "sectionName": "Politics", "webPublicationDate": "2014-03-28T15:13:26Z", "webTitle": "Clegg: councils to get more emergency funds to help pay bedroom tax arrears", "webUrl": "https://www.theguardian.com/politics/2014/mar/28/nick-clegg-councils-emergency-funds-bedroom-tax-arrears", "apiUrl": "https://content.guardianapis.com/politics/2014/mar/28/nick-clegg-councils-emergency-funds-bedroom-tax-arrears", "isHosted": false, "pillarId": "pillar/news", "pillarName": "News"}, {"id": "commentisfree/2014/mar/28/right-only-economic-solution-austerity", "type": "article", "sectionId": "commentisfree", "sectionName": "Opinion", "webPublicationDate": "2014-03-28T15:00:00Z", "webTitle": "How the right sold austerity as the only economic solution | Richard Seymour", "webUrl": "https://www.theguardian.com/commentisfree/2014/mar/28/right-only-economic-solution-austerity", "apiUrl": "https://content.guardianapis.com/commentisfree/2014/mar/28/right-only-economic-solution-austerity", "isHosted": false, "pillarId": "pillar/opinion", "pillarName": "Opinion"}, {"id": "world/2014/mar/28/french-far-right-front-national-may-win-power-avignon", "type": "article", "sectionId": "world", "sectionName": "World news", "webPublicationDate": "2014-03-28T14:35:41Z", "webTitle": "French far-right Front National party on brink of power in Avignon", "webUrl": "https://www.theguardian.com/world/2014/mar/28/french-far-right-front-national-may-win-power-avignon", "apiUrl": "https://content.guardianapis.com/world/2014/mar/28/french-far-right-front-national-may-win-power-avignon", "isHosted": false, "pillarId": "pillar/news", "pillarName": "News"}, {"id": "commentisfree/2014/mar/28/google-googlies-market-dominance-eu", "type": "article", "sectionId": "commentisfree", "sectionName": "Opinion", "webPublicationDate": "2014-03-28T13:09:21Z", "webTitle": "Google keeps throwing googlies over its market dominance | Tom Watson", "webUrl": "https://www.theguardian.com/commentisfree/2014/mar/28/google-googlies-market-dominance-eu", "apiUrl": "https://content.guardianapis.com/commentisfree/2014/mar/28/google-googlies-market-dominance-eu", "isHosted": false, "pillarId": "pillar/opinion", "pillarName": "Opinion"}, {"id": "uk-news/2014/mar/28/prince-charles-letters-quarter-of-a-million-pounds", "type": "article", "sectionId": "uk-news", "sectionName": "UK news", "webPublicationDate": "2014-03-28T12:20:07Z", "webTitle": "Ministers spend \u00a3250,000 on Prince Charles letters legal row", "webUrl": "https://www.theguardian.com/uk-news/2014/mar/28/prince-charles-letters-quarter-of-a-million-pounds", "apiUrl": "https://content.guardianapis.com/uk-news/2014/mar/28/prince-charles-letters-quarter-of-a-million-pounds", "isHosted": false, "pillarId": "pillar/news", "pillarName": "News"}, {"id": "education/2014/mar/28/grants-taxpayer-backed-loans-private-colleges", "type": "article", "sectionId": "education", "sectionName": "Education", "webPublicationDate": "2014-03-28T12:17:05Z", "webTitle": "Almost \u00a31bn in grants and taxpayer-backed loans to go to private colleges", "webUrl": "https://www.theguardian.com/education/2014/mar/28/grants-taxpayer-backed-loans-private-colleges", "apiUrl": "https://content.guardianapis.com/education/2014/mar/28/grants-taxpayer-backed-loans-private-colleges", "isHosted": false, "pillarId": "pillar/news", "pillarName": "News"}, {"id": "politics/2014/mar/28/scotland-vote-independence-uk-campaign", "type": "article", "sectionId": "politics", "sectionName": "Politics", "webPublicationDate": "2014-03-28T11:43:50Z", "webTitle": "Scotland 'could vote for independence unless pro-UK campaign improves'", "webUrl": "https://www.theguardian.com/politics/2014/mar/28/scotland-vote-independence-uk-campaign", "apiUrl": "https://content.guardianapis.com/politics/2014/mar/28/scotland-vote-independence-uk-campaign", "isHosted": false, "pillarId": "pillar/news", "pillarName": "News"}, {"id": "politics/2014/mar/28/gay-marriage-nigel-farage-ukip", "type": "article", "sectionId": "politics", "sectionName": "Politics", "webPublicationDate": "2014-03-28T11:31:30Z", "webTitle": "Gay marriage: Nigel Farage refuses to say 'I do'", "webUrl": "https://www.theguardian.com/politics/2014/mar/28/gay-marriage-nigel-farage-ukip", "apiUrl": "https://content.guardianapis.com/politics/2014/mar/28/gay-marriage-nigel-farage-ukip", "isHosted": false, "pillarId": "pillar/news", "pillarName": "News"}]}}