{"response": {"status": "ok", "userTier": "developer", "total": 24919, "startIndex": 1, "pageSize": 50, "currentPage": 1, "pages": 499, "orderBy": "newest", "results": [{"id": "environment/2010/mar/31/country-diary-wenlock-edge-spring", "type": "article", "sectionId": "environment", "sectionName": "Environment", "webPublicationDate": "2010-03-30T23:10:00Z", "webTitle": "Country Diary: Wenlock Edge", "webUrl": "https://www.theguardian.com/environment/2010/mar/31/country-diary-wenlock-edge-spring", "apiUrl": "https://content.guardianapis.com/environment/2010/mar/31/country-diary-wenlock-edge-spring", "isHosted": false, "pillarId": "pillar/news", "pillarName": "News"}, {"id": "environment/2010/mar/31/climate-mails-inquiry-jones-cleared", "type": "article", "sectionId": "environment", "sectionName": "Environment", "webPublicationDate": "2010-03-30T23:05:03Z", "webTitle": "Climate researchers 'secrecy' criticised \u2013 but MPs say science remains intact", "webUrl": "https://www.theguardian.com/environment/2010/mar/31/climate-mails-inquiry-jones-cleared", "apiUrl": "https://content.guardianapis.com/environment/2010/mar/31/climate-mails-inquiry-jones-cleared", "isHosted": false, "pillarId": "pillar/news", "pillarName": "News"}, {"id": "world/richard-adams-blog/2010/mar/30/climate-change-scepticism-us-television", "type": "article", "sectionId": "us-news", "sectionName": "US news", "webPublicationDate": "2010-03-30T20:09:38Z", "webTitle": "Climate change sceptics on your TV | Richard Adams", "webUrl": "https://www.theguardian.com/world/richard-adams-blog/2010/mar/30/climate-change-scepticism-us-television", "apiUrl": "https://content.guardianapis.com/world/richard-adams-blog/2010/mar/30/climate-change-scepticism-us-television", "isHosted": false, "pillarId": "pillar/news", "pillarName": "News"}, {"id": "lifeandstyle/2010/mar/30/eat-dirt-soil-taste", "type": "article", "sectionId": "food", "sectionName": "Food", "webPublicationDate": "2010-03-30T18:35:00Z", "webTitle": "Eat dirt: why foodies are putting mud on the menu", "webUrl": "https://www.theguardian.com/lifeandstyle/2010/mar/30/eat-dirt-soil-taste", "apiUrl": "https://content.guardianapis.com/lifeandstyle/2010/mar/30/eat-dirt-soil-taste", "isHosted": false, "pillarId": "pillar/lifestyle", "pillarName": "Lifestyle"}, {"id": "environment/2010/mar/30/satellite-launch-arctic-ice-measurement", "type": "article", "sectionId": "environment", "sectionName": "Environment", "webPublicationDate": "2010-03-30T15:10:35Z", "webTitle": "Scientists hold breath over polar ice satellite launch after 2005 crash", "webUrl": "https://www.theguardian.com/environment/2010/mar/30/satellite-launch-arctic-ice-measurement", "apiUrl": "https://content.guardianapis.com/environment/2010/mar/30/satellite-launch-arctic-ice-measurement", "isHosted": false, "pillarId": "pillar/news", "pillarName": "News"}, {"id": "environment/2010/mar/30/us-oil-donated-millions-climate-sceptics", "type": "article", "sectionId": "environment", "sectionName": "Environment", "webPublicationDate": "2010-03-30T14:32:02Z", "webTitle": "US oil company donated millions to climate sceptic groups, says Greenpeace", "webUrl": "https://www.theguardian.com/environment/2010/mar/30/us-oil-donated-millions-climate-sceptics", "apiUrl": "https://content.guardianapis.com/environment/2010/mar/30/us-oil-donated-millions-climate-sceptics", "isHosted": false, "pillarId": "pillar/news", "pillarName": "News"}, {"id": "environment/2010/mar/30/water-desalination-record-droughts", "type": "article", "sectionId": "environment", "sectionName": "Environment", "webPublicationDate": "2010-03-30T14:20:49Z", "webTitle": "Global water crisis and cheaper technology sparks surge in desalination", "webUrl": "https://www.theguardian.com/environment/2010/mar/30/water-desalination-record-droughts", "apiUrl": "https://content.guardianapis.com/environment/2010/mar/30/water-desalination-record-droughts", "isHosted": false, "pillarId": "pillar/news", "pillarName": "News"}, {"id": "environment/2010/mar/30/british-conservationist-killed-monkeys-ecuador", "type": "article", "sectionId": "environment", "sectionName": "Environment", "webPublicationDate": "2010-03-30T13:45:36Z", "webTitle": "British conservationist was shot dead during monkey study in Ecuador", "webUrl": "https://www.theguardian.com/environment/2010/mar/30/british-conservationist-killed-monkeys-ecuador", "apiUrl": "https://content.guardianapis.com/environment/2010/mar/30/british-conservationist-killed-monkeys-ecuador", "isHosted": false, "pillarId": "pillar/news", "pillarName": "News"}, {"id": "science/video/2010/mar/30/satelittes-climate-change", "type": "video", "sectionId": "science", "sectionName": "Science", "webPublicationDate": "2010-03-30T13:39:00Z", "webTitle": "Video: ESA satellite will measure polar ice melt", "webUrl": "https://www.theguardian.com/science/video/2010/mar/30/satelittes-climate-change", "apiUrl": "https://content.guardianapis.com/science/video/2010/mar/30/satelittes-climate-change", "isHosted": false, "pillarId": "pillar/news", "pillarName": "News"}, {"id": "environment/cif-green/2010/mar/30/green-peer-pressure", "type": "article", "sectionId": "environment", "sectionName": "Environment", "webPublicationDate": "2010-03-30T10:20:46Z", "webTitle": "Peer pressure plays a key role in low-carbon living | Adam Corner", "webUrl": "https://www.theguardian.com/environment/cif-green/2010/mar/30/green-peer-pressure", "apiUrl": "https://content.guardianapis.com/environment/cif-green/2010/mar/30/green-peer-pressure", "isHosted": false, "pillarId": "pillar/news", "pillarName": "News"}, {"id": "environment/2010/mar/30/country-diary-staffordshire-moorlands", "type": "article", "sectionId": "environment", "sectionName": "Environment", "webPublicationDate": "2010-03-29T23:05:16Z", "webTitle": "Country Diary: Staffordshire Moorlands", "webUrl": "https://www.theguardian.com/environment/2010/mar/30/country-diary-staffordshire-moorlands", "apiUrl": "https://content.guardianapis.com/environment/2010/mar/30/country-diary-staffordshire-moorlands", "isHosted": false, "pillarId": "pillar/news", "pillarName": "News"}, {"id": "environment/2010/mar/29/chagos-island-marine-reserve-plans", "type": "article", "sectionId": "world", "sectionName": "World news", "webPublicationDate": "2010-03-29T18:06:47Z", "webTitle": "Chagos Islanders attack plan to turn archipelago into protected area", "webUrl": "https://www.theguardian.com/environment/2010/mar/29/chagos-island-marine-reserve-plans", "apiUrl": "https://content.guardianapis.com/environment/2010/mar/29/chagos-island-marine-reserve-plans", "isHosted": false, "pillarId": "pillar/news", "pillarName": "News"}, {"id": "environment/blog/2010/mar/29/james-lovelock", "type": "article", "sectionId": "environment", "sectionName": "Environment", "webPublicationDate": "2010-03-29T17:31:00Z", "webTitle": "James Lovelock on the value of sceptics and why Copenhagen was doomed", "webUrl": "https://www.theguardian.com/environment/blog/2010/mar/29/james-lovelock", "apiUrl": "https://content.guardianapis.com/environment/blog/2010/mar/29/james-lovelock", "isHosted": false, "pillarId": "pillar/news", "pillarName": "News"}, {"id": "environment/2010/mar/29/green-products-social-status", "type": "article", "sectionId": "environment", "sectionName": "Environment", "webPublicationDate": "2010-03-29T17:16:53Z", "webTitle": "Shoppers choose green products to improve social status, says study", "webUrl": "https://www.theguardian.com/environment/2010/mar/29/green-products-social-status", "apiUrl": "https://content.guardianapis.com/environment/2010/mar/29/green-products-social-status", "isHosted": false, "pillarId": "pillar/news", "pillarName": "News"}, {"id": "environment/2010/mar/29/lighter-later-climate-change-campaign", "type": "article", "sectionId": "environment", "sectionName": "Environment", "webPublicationDate": "2010-03-29T17:03:25Z", "webTitle": "Lighter Later \u2013 the climate change campaign to move Britain forward an hour", "webUrl": "https://www.theguardian.com/environment/2010/mar/29/lighter-later-climate-change-campaign", "apiUrl": "https://content.guardianapis.com/environment/2010/mar/29/lighter-later-climate-change-campaign", "isHosted": false, "pillarId": "pillar/news", "pillarName": "News"}, {"id": "environment/2010/mar/29/james-lovelock", "type": "article", "sectionId": "environment", "sectionName": "Environment", "webPublicationDate": "2010-03-29T16:00:03Z", "webTitle": "James Lovelock: 'Fudging data is a  sin against science'", "webUrl": "https://www.theguardian.com/environment/2010/mar/29/james-lovelock", "apiUrl": "https://content.guardianapis.com/environment/2010/mar/29/james-lovelock", "isHosted": false, "pillarId": "pillar/news", "pillarName": "News"}, {"id": "commentisfree/2010/mar/29/badger-cull-tb-cows", "type": "article", "sectionId": "commentisfree", "sectionName": "Opinion", "webPublicationDate": "2010-03-29T12:30:00Z", "webTitle": "Beyond badgers' furry faces, a hard call | Anne Perkins", "webUrl": "https://www.theguardian.com/commentisfree/2010/mar/29/badger-cull-tb-cows", "apiUrl": "https://content.guardianapis.com/commentisfree/2010/mar/29/badger-cull-tb-cows", "isHosted": false, "pillarId": "pillar/opinion", "pillarName": "Opinion"}, {"id": "science/2010/mar/29/james-lovelock-climate-change", "type": "article", "sectionId": "environment", "sectionName": "Environment", "webPublicationDate": "2010-03-29T12:15:55Z", "webTitle": "James Lovelock: Humans are too stupid to prevent climate change", "webUrl": "https://www.theguardian.com/science/2010/mar/29/james-lovelock-climate-change", "apiUrl": "https://content.guardianapis.com/science/2010/mar/29/james-lovelock-climate-change", "isHosted": false, "pillarId": "pillar/news", "pillarName": "News"}, {"id": "environment/green-living-blog/2010/mar/29/you-ask-they-answer-carbon-trust", "type": "article", "sectionId": "environment", "sectionName": "Environment", "webPublicationDate": "2010-03-29T11:04:29Z", "webTitle": "You ask, they answer: The Carbon Trust", "webUrl": "https://www.theguardian.com/environment/green-living-blog/2010/mar/29/you-ask-they-answer-carbon-trust", "apiUrl": "https://content.guardianapis.com/environment/green-living-blog/2010/mar/29/you-ask-they-answer-carbon-trust", "isHosted": false, "pillarId": "pillar/news", "pillarName": "News"}, {"id": "commentisfree/belief/2010/mar/29/religion-environment-earth-hour-easter", "type": "article", "sectionId": "commentisfree", "sectionName": "Opinion", "webPublicationDate": "2010-03-29T10:00:00Z", "webTitle": "Should we observe Easter or Earth Hour? | Stephen Tomkins", "webUrl": "https://www.theguardian.com/commentisfree/belief/2010/mar/29/religion-environment-earth-hour-easter", "apiUrl": "https://content.guardianapis.com/commentisfree/belief/2010/mar/29/religion-environment-earth-hour-easter", "isHosted": false, "pillarId": "pillar/opinion", "pillarName": "Opinion"}, {"id": "environment/2010/mar/29/country-diary-lake-district", "type": "article", "sectionId": "environment", "sectionName": "Environment", "webPublicationDate": "2010-03-29T06:00:15Z", "webTitle": "Country diary: Lake District", "webUrl": "https://www.theguardian.com/environment/2010/mar/29/country-diary-lake-district", "apiUrl": "https://content.guardianapis.com/environment/2010/mar/29/country-diary-lake-district", "isHosted": false, "pillarId": "pillar/news", "pillarName": "News"}, {"id": "environment/2010/mar/29/small-birds-rspb-winter", "type": "article", "sectionId": "environment", "sectionName": "Environment", "webPublicationDate": "2010-03-29T05:00:00Z", "webTitle": "Small birds suffered during Britain's big chill, RSPB survey reveals", "webUrl": "https://www.theguardian.com/environment/2010/mar/29/small-birds-rspb-winter", "apiUrl": "https://content.guardianapis.com/environment/2010/mar/29/small-birds-rspb-winter", "isHosted": false, "pillarId": "pillar/news", "pillarName": "News"}, {"id": "business/2010/mar/29/european-commission-energy-regulator", "type": "article", "sectionId": "business", "sectionName": "Business", "webPublicationDate": "2010-03-29T00:00:03Z", "webTitle": "European energy agency could form super-regulator", "webUrl": "https://www.theguardian.com/business/2010/mar/29/european-commission-energy-regulator", "apiUrl": "https://content.guardianapis.com/business/2010/mar/29/european-commission-energy-regulator", "isHosted": false, "pillarId": "pillar/news", "pillarName": "News"}, {"id": "business/2010/mar/29/siemens-uk-wind-turbine-plant", "type": "article", "sectionId": "business", "sectionName": "Business", "webPublicationDate": "2010-03-28T23:10:02Z", "webTitle": "Siemens to build UK wind turbine plant", "webUrl": "https://www.theguardian.com/business/2010/mar/29/siemens-uk-wind-turbine-plant", "apiUrl": "https://content.guardianapis.com/business/2010/mar/29/siemens-uk-wind-turbine-plant", "isHosted": false, "pillarId": "pillar/news", "pillarName": "News"}, {"id": "science/blog/audio/2010/mar/29/science-weekly-podcast-vlatko-vedral", "type": "audio", "sectionId": "science", "sectionName": "Science", "webPublicationDate": "2010-03-28T23:01:00Z", "webTitle": "Science Weekly podcast: The UK Space Agency, quantum information and monkeys", "webUrl": "https://www.theguardian.com/science/blog/audio/2010/mar/29/science-weekly-podcast-vlatko-vedral", "apiUrl": "https://content.guardianapis.com/science/blog/audio/2010/mar/29/science-weekly-podcast-vlatko-vedral", "isHosted": false, "pillarId": "pillar/news", "pillarName": "News"}, {"id": "environment/2010/mar/28/labour-tories-back-clock-change", "type": "article", "sectionId": "environment", "sectionName": "Environment", "webPublicationDate": "2010-03-28T00:07:23Z", "webTitle": "Labour and Tories back clock change to give extra hour of daylight", "webUrl": "https://www.theguardian.com/environment/2010/mar/28/labour-tories-back-clock-change", "apiUrl": "https://content.guardianapis.com/environment/2010/mar/28/labour-tories-back-clock-change", "isHosted": false, "pillarId": "pillar/news", "pillarName": "News"}, {"id": "environment/2010/mar/28/un-climate-change-meeting-london", "type": "article", "sectionId": "environment", "sectionName": "Environment", "webPublicationDate": "2010-03-28T00:06:58Z", "webTitle": "The trillion-dollar question is: who will now lead the climate battle?", "webUrl": "https://www.theguardian.com/environment/2010/mar/28/un-climate-change-meeting-london", "apiUrl": "https://content.guardianapis.com/environment/2010/mar/28/un-climate-change-meeting-london", "isHosted": false, "pillarId": "pillar/news", "pillarName": "News"}, {"id": "theobserver/2010/mar/28/new-to-nature-brachycephalus-pitanga", "type": "article", "sectionId": "science", "sectionName": "Science", "webPublicationDate": "2010-03-28T00:05:52Z", "webTitle": "New to nature No 4: Brachycephalus pitanga", "webUrl": "https://www.theguardian.com/theobserver/2010/mar/28/new-to-nature-brachycephalus-pitanga", "apiUrl": "https://content.guardianapis.com/theobserver/2010/mar/28/new-to-nature-brachycephalus-pitanga", "isHosted": false, "pillarId": "pillar/news", "pillarName": "News"}, {"id": "environment/2010/mar/28/lucy-siegle-not-easy-being-green-having-family", "type": "article", "sectionId": "environment", "sectionName": "Environment", "webPublicationDate": "2010-03-28T00:05:29Z", "webTitle": "Can I be green and have a family?", "webUrl": "https://www.theguardian.com/environment/2010/mar/28/lucy-siegle-not-easy-being-green-having-family", "apiUrl": "https://content.guardianapis.com/environment/2010/mar/28/lucy-siegle-not-easy-being-green-having-family", "isHosted": false, "pillarId": "pillar/news", "pillarName": "News"}, {"id": "theobserver/2010/mar/28/raising-chickens-eglu-alex-horne", "type": "article", "sectionId": "food", "sectionName": "Food", "webPublicationDate": "2010-03-28T00:05:20Z", "webTitle": "Fowl play: one man's year keeping chickens | Alex Horne", "webUrl": "https://www.theguardian.com/theobserver/2010/mar/28/raising-chickens-eglu-alex-horne", "apiUrl": "https://content.guardianapis.com/theobserver/2010/mar/28/raising-chickens-eglu-alex-horne", "isHosted": false, "pillarId": "pillar/lifestyle", "pillarName": "Lifestyle"}, {"id": "environment/2010/mar/28/lucy-siegle-innovator-tom-mcmillan", "type": "article", "sectionId": "environment", "sectionName": "Environment", "webPublicationDate": "2010-03-28T00:05:03Z", "webTitle": "The innovator:  Tom McMillan", "webUrl": "https://www.theguardian.com/environment/2010/mar/28/lucy-siegle-innovator-tom-mcmillan", "apiUrl": "https://content.guardianapis.com/environment/2010/mar/28/lucy-siegle-innovator-tom-mcmillan", "isHosted": false, "pillarId": "pillar/news", "pillarName": "News"}, {"id": "world/gallery/2010/mar/27/earth-hour", "type": "gallery", "sectionId": "environment", "sectionName": "Environment", "webPublicationDate": "2010-03-27T16:26:25Z", "webTitle": "In pictures: The world turns the lights off during Earth Hour", "webUrl": "https://www.theguardian.com/world/gallery/2010/mar/27/earth-hour", "apiUrl": "https://content.guardianapis.com/world/gallery/2010/mar/27/earth-hour", "isHosted": false, "pillarId": "pillar/news", "pillarName": "News"}, {"id": "environment/2010/mar/27/country-diary-west-sussex", "type": "article", "sectionId": "environment", "sectionName": "Environment", "webPublicationDate": "2010-03-27T00:11:39Z", "webTitle": "Country diary", "webUrl": "https://www.theguardian.com/environment/2010/mar/27/country-diary-west-sussex", "apiUrl": "https://content.guardianapis.com/environment/2010/mar/27/country-diary-west-sussex", "isHosted": false, "pillarId": "pillar/news", "pillarName": "News"}, {"id": "uk/2010/mar/26/judge-plea-deal-fine-corrupt-innospec", "type": "article", "sectionId": "law", "sectionName": "Law", "webPublicationDate": "2010-03-26T19:29:00Z", "webTitle": "Judge says plea deal tied his hands over fine for corrupt firm", "webUrl": "https://www.theguardian.com/uk/2010/mar/26/judge-plea-deal-fine-corrupt-innospec", "apiUrl": "https://content.guardianapis.com/uk/2010/mar/26/judge-plea-deal-fine-corrupt-innospec", "isHosted": false, "pillarId": "pillar/news", "pillarName": "News"}, {"id": "uk/2010/mar/26/olympic-park-burst-water-pipe", "type": "article", "sectionId": "sport", "sectionName": "Sport", "webPublicationDate": "2010-03-26T19:17:34Z", "webTitle": "East End drought after Olympic pipe bursts", "webUrl": "https://www.theguardian.com/uk/2010/mar/26/olympic-park-burst-water-pipe", "apiUrl": "https://content.guardianapis.com/uk/2010/mar/26/olympic-park-burst-water-pipe", "isHosted": false, "pillarId": "pillar/sport", "pillarName": "Sport"}, {"id": "environment/2010/mar/26/rajendra-pachauri-climate-science-persecution", "type": "article", "sectionId": "environment", "sectionName": "Environment", "webPublicationDate": "2010-03-26T17:00:02Z", "webTitle": "Rajendra Pachauri: Climate scientists face 'new form of persecution'", "webUrl": "https://www.theguardian.com/environment/2010/mar/26/rajendra-pachauri-climate-science-persecution", "apiUrl": "https://content.guardianapis.com/environment/2010/mar/26/rajendra-pachauri-climate-science-persecution", "isHosted": false, "pillarId": "pillar/news", "pillarName": "News"}, {"id": "commentisfree/cif-green/2010/mar/26/dont-hound-the-climate-scientists", "type": "article", "sectionId": "commentisfree", "sectionName": "Opinion", "webPublicationDate": "2010-03-26T17:00:01Z", "webTitle": "Don't hound the climate scientists | Rajendra Pachauri", "webUrl": "https://www.theguardian.com/commentisfree/cif-green/2010/mar/26/dont-hound-the-climate-scientists", "apiUrl": "https://content.guardianapis.com/commentisfree/cif-green/2010/mar/26/dont-hound-the-climate-scientists", "isHosted": false, "pillarId": "pillar/opinion", "pillarName": "Opinion"}, {"id": "money/2010/mar/26/boiler-scrappage-scheme-closes", "type": "article", "sectionId": "money", "sectionName": "Money", "webPublicationDate": "2010-03-26T16:28:31Z", "webTitle": "Boiler scrappage scheme closes to new applications", "webUrl": "https://www.theguardian.com/money/2010/mar/26/boiler-scrappage-scheme-closes", "apiUrl": "https://content.guardianapis.com/money/2010/mar/26/boiler-scrappage-scheme-closes", "isHosted": false, "pillarId": "pillar/lifestyle", "pillarName": "Lifestyle"}, {"id": "uk/2010/mar/26/national-trust-cider-duty-rise", "type": "article", "sectionId": "uk-news", "sectionName": "UK news", "webPublicationDate": "2010-03-26T16:26:31Z", "webTitle": "Cider duty increase condemned by National Trust", "webUrl": "https://www.theguardian.com/uk/2010/mar/26/national-trust-cider-duty-rise", "apiUrl": "https://content.guardianapis.com/uk/2010/mar/26/national-trust-cider-duty-rise", "isHosted": false, "pillarId": "pillar/news", "pillarName": "News"}, {"id": "environment/2010/mar/26/energy-climate-change", "type": "article", "sectionId": "environment", "sectionName": "Environment", "webPublicationDate": "2010-03-26T16:09:07Z", "webTitle": "Earth Hour - climate change campaigners urge global switch-off", "webUrl": "https://www.theguardian.com/environment/2010/mar/26/energy-climate-change", "apiUrl": "https://content.guardianapis.com/environment/2010/mar/26/energy-climate-change", "isHosted": false, "pillarId": "pillar/news", "pillarName": "News"}, {"id": "commentisfree/cif-green/2010/mar/26/heathrow-third-runway-plans", "type": "article", "sectionId": "commentisfree", "sectionName": "Opinion", "webPublicationDate": "2010-03-26T14:13:33Z", "webTitle": "How Heathrow runway plans came unstuck | Chris Ames", "webUrl": "https://www.theguardian.com/commentisfree/cif-green/2010/mar/26/heathrow-third-runway-plans", "apiUrl": "https://content.guardianapis.com/commentisfree/cif-green/2010/mar/26/heathrow-third-runway-plans", "isHosted": false, "pillarId": "pillar/opinion", "pillarName": "Opinion"}, {"id": "environment/cif-green/2010/mar/26/british-summertime-change", "type": "article", "sectionId": "environment", "sectionName": "Environment", "webPublicationDate": "2010-03-26T13:24:04Z", "webTitle": "British summertime - it's time for a rational change | Tim Yeo", "webUrl": "https://www.theguardian.com/environment/cif-green/2010/mar/26/british-summertime-change", "apiUrl": "https://content.guardianapis.com/environment/cif-green/2010/mar/26/british-summertime-change", "isHosted": false, "pillarId": "pillar/news", "pillarName": "News"}, {"id": "environment/2010/mar/26/beijing-rubbish-deodorant", "type": "article", "sectionId": "environment", "sectionName": "Environment", "webPublicationDate": "2010-03-26T12:55:58Z", "webTitle": "Beijing to sweeten stench of rubbish crisis with giant deodorant guns", "webUrl": "https://www.theguardian.com/environment/2010/mar/26/beijing-rubbish-deodorant", "apiUrl": "https://content.guardianapis.com/environment/2010/mar/26/beijing-rubbish-deodorant", "isHosted": false, "pillarId": "pillar/news", "pillarName": "News"}, {"id": "environment/gallery/2010/mar/26/beijing-rubbish-wang-jiuliang-photography", "type": "gallery", "sectionId": "environment", "sectionName": "Environment", "webPublicationDate": "2010-03-26T12:50:00Z", "webTitle": "In pictures: Photographer zooms in on Beijing's waste", "webUrl": "https://www.theguardian.com/environment/gallery/2010/mar/26/beijing-rubbish-wang-jiuliang-photography", "apiUrl": "https://content.guardianapis.com/environment/gallery/2010/mar/26/beijing-rubbish-wang-jiuliang-photography", "isHosted": false, "pillarId": "pillar/news", "pillarName": "News"}, {"id": "environment/video/2010/mar/26/beijing-rubbish", "type": "video", "sectionId": "environment", "sectionName": "Environment", "webPublicationDate": "2010-03-26T12:30:00Z", "webTitle": "Video: Beijing's rubbish dumps: the 'seventh ring' of the city", "webUrl": "https://www.theguardian.com/environment/video/2010/mar/26/beijing-rubbish", "apiUrl": "https://content.guardianapis.com/environment/video/2010/mar/26/beijing-rubbish", "isHosted": false, "pillarId": "pillar/news", "pillarName": "News"}, {"id": "environment/green-living-blog/2010/mar/26/national-geographic-ambi-pur-branding", "type": "article", "sectionId": "environment", "sectionName": "Environment", "webPublicationDate": "2010-03-26T12:21:57Z", "webTitle": "NatGeo cheapens its brand by linking with vile air freshener | Leo Hickman", "webUrl": "https://www.theguardian.com/environment/green-living-blog/2010/mar/26/national-geographic-ambi-pur-branding", "apiUrl": "https://content.guardianapis.com/environment/green-living-blog/2010/mar/26/national-geographic-ambi-pur-branding", "isHosted": false, "pillarId": "pillar/news", "pillarName": "News"}, {"id": "environment/2010/mar/26/endangered-bluefin-tuna-sharks-oceans", "type": "article", "sectionId": "environment", "sectionName": "Environment", "webPublicationDate": "2010-03-26T12:15:00Z", "webTitle": "How Japanese sushi offensive sank move to protect sharks and bluefin tuna", "webUrl": "https://www.theguardian.com/environment/2010/mar/26/endangered-bluefin-tuna-sharks-oceans", "apiUrl": "https://content.guardianapis.com/environment/2010/mar/26/endangered-bluefin-tuna-sharks-oceans", "isHosted": false, "pillarId": "pillar/news", "pillarName": "News"}, {"id": "environment/gallery/2010/mar/26/week-in-wildlife", "type": "gallery", "sectionId": "environment", "sectionName": "Environment", "webPublicationDate": "2010-03-26T12:01:44Z", "webTitle": "In pictures: The week in wildlife", "webUrl": "https://www.theguardian.com/environment/gallery/2010/mar/26/week-in-wildlife", "apiUrl": "https://content.guardianapis.com/environment/gallery/2010/mar/26/week-in-wildlife", "isHosted": false, "pillarId": "pillar/news", "pillarName": "News"}, {"id": "environment/green-living-blog/2010/mar/26/dark-earth-hour", "type": "article", "sectionId": "environment", "sectionName": "Environment", "webPublicationDate": "2010-03-26T07:00:00Z", "webTitle": "Shadow puppets, music and early nights: What will you do in the dark for Earth Hour?", "webUrl": "https://www.theguardian.com/environment/green-living-blog/2010/mar/26/dark-earth-hour", "apiUrl": "https://content.guardianapis.com/environment/green-living-blog/2010/mar/26/dark-earth-hour", "isHosted": false, "pillarId": "pillar/news", "pillarName": "News"}, {"id": "environment/2010/mar/26/litter-increase-britain", "type": "article", "sectionId": "environment", "sectionName": "Environment", "webPublicationDate": "2010-03-26T00:05:04Z", "webTitle": "Blighted beaches: Britain's shores are drowning in litter", "webUrl": "https://www.theguardian.com/environment/2010/mar/26/litter-increase-britain", "apiUrl": "https://content.guardianapis.com/environment/2010/mar/26/litter-increase-britain", "isHosted": false, "pillarId": "pillar/news", "pillarName": "News"}]}}