{"response": {"status": "ok", "userTier": "developer", "total": 18730, "startIndex": 1, "pageSize": 50, "currentPage": 1, "pages": 375, "orderBy": "newest", "results": [{"id": "tv-and-radio/2013/mar/30/british-bake-off-easter-our-girl", "type": "article", "sectionId": "tv-and-radio", "sectionName": "Television & radio", "webPublicationDate": "2013-03-30T22:45:01Z", "webTitle": "Rewind TV: The Great British Bake Off Easter Masterclass; Our Girl; Keeping Britain Alive: The NHS in a Day; Boris Johnson: The Irresistible Rise", "webUrl": "https://www.theguardian.com/tv-and-radio/2013/mar/30/british-bake-off-easter-our-girl", "apiUrl": "https://content.guardianapis.com/tv-and-radio/2013/mar/30/british-bake-off-easter-our-girl", "isHosted": false, "pillarId": "pillar/arts", "pillarName": "Arts"}, {"id": "lifeandstyle/2013/mar/30/gizzi-erskine-cookbook-diets", "type": "article", "sectionId": "food", "sectionName": "Food", "webPublicationDate": "2013-03-30T14:00:02Z", "webTitle": "Gizzi Erskine: 'Arrggh! Don't call me a domestic cook'", "webUrl": "https://www.theguardian.com/lifeandstyle/2013/mar/30/gizzi-erskine-cookbook-diets", "apiUrl": "https://content.guardianapis.com/lifeandstyle/2013/mar/30/gizzi-erskine-cookbook-diets", "isHosted": false, "pillarId": "pillar/lifestyle", "pillarName": "Lifestyle"}, {"id": "lifeandstyle/2013/mar/30/dessert-wine-sauternes-fiona-beckett", "type": "article", "sectionId": "food", "sectionName": "Food", "webPublicationDate": "2013-03-30T09:00:12Z", "webTitle": "Wine: in defence of sweet dessert wine", "webUrl": "https://www.theguardian.com/lifeandstyle/2013/mar/30/dessert-wine-sauternes-fiona-beckett", "apiUrl": "https://content.guardianapis.com/lifeandstyle/2013/mar/30/dessert-wine-sauternes-fiona-beckett", "isHosted": false, "pillarId": "pillar/lifestyle", "pillarName": "Lifestyle"}, {"id": "lifeandstyle/2013/mar/30/maxela-london-sw7-restaurant-review", "type": "article", "sectionId": "lifeandstyle", "sectionName": "Life and style", "webPublicationDate": "2013-03-30T09:00:04Z", "webTitle": "Restaurant: Maxel\u00e2, London SW7", "webUrl": "https://www.theguardian.com/lifeandstyle/2013/mar/30/maxela-london-sw7-restaurant-review", "apiUrl": "https://content.guardianapis.com/lifeandstyle/2013/mar/30/maxela-london-sw7-restaurant-review", "isHosted": false, "pillarId": "pillar/lifestyle", "pillarName": "Lifestyle"}, {"id": "lifeandstyle/2013/mar/30/cushions-right-said-fred-dirt-cakes", "type": "article", "sectionId": "lifeandstyle", "sectionName": "Life and style", "webPublicationDate": "2013-03-30T07:15:00Z", "webTitle": "Family life: Our special 'monstrous' cushions, Right Said Fred, and Mother's dirt cakes", "webUrl": "https://www.theguardian.com/lifeandstyle/2013/mar/30/cushions-right-said-fred-dirt-cakes", "apiUrl": "https://content.guardianapis.com/lifeandstyle/2013/mar/30/cushions-right-said-fred-dirt-cakes", "isHosted": false, "pillarId": "pillar/lifestyle", "pillarName": "Lifestyle"}, {"id": "lifeandstyle/2013/mar/30/best-foods-for-ibs", "type": "article", "sectionId": "lifeandstyle", "sectionName": "Life and style", "webPublicationDate": "2013-03-30T07:00:58Z", "webTitle": "'What can I substitute for onions and garlic to combat IBS?' | Ask Sonya", "webUrl": "https://www.theguardian.com/lifeandstyle/2013/mar/30/best-foods-for-ibs", "apiUrl": "https://content.guardianapis.com/lifeandstyle/2013/mar/30/best-foods-for-ibs", "isHosted": false, "pillarId": "pillar/lifestyle", "pillarName": "Lifestyle"}, {"id": "lifeandstyle/2013/mar/30/readers-recipe-swap-easter", "type": "article", "sectionId": "lifeandstyle", "sectionName": "Life and style", "webPublicationDate": "2013-03-30T07:00:00Z", "webTitle": "Readers' recipe swap: Easter | Felicity Cloake", "webUrl": "https://www.theguardian.com/lifeandstyle/2013/mar/30/readers-recipe-swap-easter", "apiUrl": "https://content.guardianapis.com/lifeandstyle/2013/mar/30/readers-recipe-swap-easter", "isHosted": false, "pillarId": "pillar/lifestyle", "pillarName": "Lifestyle"}, {"id": "lifeandstyle/2013/mar/30/wild-garlic-good-for-you", "type": "article", "sectionId": "lifeandstyle", "sectionName": "Life and style", "webPublicationDate": "2013-03-30T07:00:00Z", "webTitle": "Why wild garlic is good for you", "webUrl": "https://www.theguardian.com/lifeandstyle/2013/mar/30/wild-garlic-good-for-you", "apiUrl": "https://content.guardianapis.com/lifeandstyle/2013/mar/30/wild-garlic-good-for-you", "isHosted": false, "pillarId": "pillar/lifestyle", "pillarName": "Lifestyle"}, {"id": "lifeandstyle/2013/mar/30/how-to-make-moroccan-date-shake", "type": "article", "sectionId": "lifeandstyle", "sectionName": "Life and style", "webPublicationDate": "2013-03-30T07:00:00Z", "webTitle": "How to make a date shake", "webUrl": "https://www.theguardian.com/lifeandstyle/2013/mar/30/how-to-make-moroccan-date-shake", "apiUrl": "https://content.guardianapis.com/lifeandstyle/2013/mar/30/how-to-make-moroccan-date-shake", "isHosted": false, "pillarId": "pillar/lifestyle", "pillarName": "Lifestyle"}, {"id": "lifeandstyle/2013/mar/30/10-best-seed-recipes", "type": "article", "sectionId": "lifeandstyle", "sectionName": "Life and style", "webPublicationDate": "2013-03-30T07:00:00Z", "webTitle": "The 10 best seed recipes", "webUrl": "https://www.theguardian.com/lifeandstyle/2013/mar/30/10-best-seed-recipes", "apiUrl": "https://content.guardianapis.com/lifeandstyle/2013/mar/30/10-best-seed-recipes", "isHosted": false, "pillarId": "pillar/lifestyle", "pillarName": "Lifestyle"}, {"id": "lifeandstyle/2013/mar/30/get-togethers-seder-feast-jewish-passover", "type": "article", "sectionId": "lifeandstyle", "sectionName": "Life and style", "webPublicationDate": "2013-03-30T07:00:00Z", "webTitle": "A Seder feast for the Jewish Passover", "webUrl": "https://www.theguardian.com/lifeandstyle/2013/mar/30/get-togethers-seder-feast-jewish-passover", "apiUrl": "https://content.guardianapis.com/lifeandstyle/2013/mar/30/get-togethers-seder-feast-jewish-passover", "isHosted": false, "pillarId": "pillar/lifestyle", "pillarName": "Lifestyle"}, {"id": "lifeandstyle/2013/mar/30/meet-producer-pembrokeshire-beach-food", "type": "article", "sectionId": "lifeandstyle", "sectionName": "Life and style", "webPublicationDate": "2013-03-30T07:00:00Z", "webTitle": "'Like any good Welshman, laverbread is part of my heritage' | Meet the producer", "webUrl": "https://www.theguardian.com/lifeandstyle/2013/mar/30/meet-producer-pembrokeshire-beach-food", "apiUrl": "https://content.guardianapis.com/lifeandstyle/2013/mar/30/meet-producer-pembrokeshire-beach-food", "isHosted": false, "pillarId": "pillar/lifestyle", "pillarName": "Lifestyle"}, {"id": "lifeandstyle/2013/mar/29/last-minute-easter-recipes-whittingstall", "type": "article", "sectionId": "lifeandstyle", "sectionName": "Life and style", "webPublicationDate": "2013-03-29T21:00:01Z", "webTitle": "The late show: recipes for a last-minute Easter feast | Hugh Fearnley-Whittingstall", "webUrl": "https://www.theguardian.com/lifeandstyle/2013/mar/29/last-minute-easter-recipes-whittingstall", "apiUrl": "https://content.guardianapis.com/lifeandstyle/2013/mar/29/last-minute-easter-recipes-whittingstall", "isHosted": false, "pillarId": "pillar/lifestyle", "pillarName": "Lifestyle"}, {"id": "travel/2013/mar/29/antonio-carluccio-piedmont-regional-cooking", "type": "article", "sectionId": "travel", "sectionName": "Travel", "webPublicationDate": "2013-03-29T21:00:00Z", "webTitle": "Antonio Carluccio's Piedmont: a region rich in food \u2026 and artisan chocolate", "webUrl": "https://www.theguardian.com/travel/2013/mar/29/antonio-carluccio-piedmont-regional-cooking", "apiUrl": "https://content.guardianapis.com/travel/2013/mar/29/antonio-carluccio-piedmont-regional-cooking", "isHosted": false, "pillarId": "pillar/lifestyle", "pillarName": "Lifestyle"}, {"id": "travel/2013/mar/29/angela-hartnett-emilia-romagna-classic-dishes", "type": "article", "sectionId": "travel", "sectionName": "Travel", "webPublicationDate": "2013-03-29T21:00:00Z", "webTitle": "Angela Hartnett's Emilia-Romagna: classic dishes, and a festival of porcini", "webUrl": "https://www.theguardian.com/travel/2013/mar/29/angela-hartnett-emilia-romagna-classic-dishes", "apiUrl": "https://content.guardianapis.com/travel/2013/mar/29/angela-hartnett-emilia-romagna-classic-dishes", "isHosted": false, "pillarId": "pillar/lifestyle", "pillarName": "Lifestyle"}, {"id": "travel/2013/mar/29/italian-cuisine-tuscany-liguria-regional-dishes", "type": "article", "sectionId": "travel", "sectionName": "Travel", "webPublicationDate": "2013-03-29T21:00:00Z", "webTitle": "Italian cuisine: a taste of Tuscany and Liguria's regional dishes", "webUrl": "https://www.theguardian.com/travel/2013/mar/29/italian-cuisine-tuscany-liguria-regional-dishes", "apiUrl": "https://content.guardianapis.com/travel/2013/mar/29/italian-cuisine-tuscany-liguria-regional-dishes", "isHosted": false, "pillarId": "pillar/lifestyle", "pillarName": "Lifestyle"}, {"id": "travel/2013/mar/29/italian-cuisine-amalfi-coast-fish-pasta", "type": "article", "sectionId": "travel", "sectionName": "Travel", "webPublicationDate": "2013-03-29T21:00:00Z", "webTitle": "Italian cuisine: the Amalfi Coast's great fish, pasta \u2013 and views", "webUrl": "https://www.theguardian.com/travel/2013/mar/29/italian-cuisine-amalfi-coast-fish-pasta", "apiUrl": "https://content.guardianapis.com/travel/2013/mar/29/italian-cuisine-amalfi-coast-fish-pasta", "isHosted": false, "pillarId": "pillar/lifestyle", "pillarName": "Lifestyle"}, {"id": "travel/2013/mar/29/mantua-italy-sleeping-beauty-city-break", "type": "article", "sectionId": "travel", "sectionName": "Travel", "webPublicationDate": "2013-03-29T21:00:00Z", "webTitle": "Mantua: Italy's sleeping beauty city", "webUrl": "https://www.theguardian.com/travel/2013/mar/29/mantua-italy-sleeping-beauty-city-break", "apiUrl": "https://content.guardianapis.com/travel/2013/mar/29/mantua-italy-sleeping-beauty-city-break", "isHosted": false, "pillarId": "pillar/lifestyle", "pillarName": "Lifestyle"}, {"id": "lifeandstyle/wordofmouth/2013/mar/29/how-to-cook-lamb", "type": "article", "sectionId": "food", "sectionName": "Food", "webPublicationDate": "2013-03-29T11:02:13Z", "webTitle": "How to cook lamb", "webUrl": "https://www.theguardian.com/lifeandstyle/wordofmouth/2013/mar/29/how-to-cook-lamb", "apiUrl": "https://content.guardianapis.com/lifeandstyle/wordofmouth/2013/mar/29/how-to-cook-lamb", "isHosted": false, "pillarId": "pillar/lifestyle", "pillarName": "Lifestyle"}, {"id": "science/2013/mar/28/high-fibre-diet-stroke-risk", "type": "article", "sectionId": "science", "sectionName": "Science", "webPublicationDate": "2013-03-28T20:00:01Z", "webTitle": "High-fibre diet can cut stroke risk, scientists claim", "webUrl": "https://www.theguardian.com/science/2013/mar/28/high-fibre-diet-stroke-risk", "apiUrl": "https://content.guardianapis.com/science/2013/mar/28/high-fibre-diet-stroke-risk", "isHosted": false, "pillarId": "pillar/news", "pillarName": "News"}, {"id": "commentisfree/2013/mar/28/crisps-pack-a-day", "type": "article", "sectionId": "commentisfree", "sectionName": "Opinion", "webPublicationDate": "2013-03-28T16:38:41Z", "webTitle": "The crisps are all right | James Ramsden", "webUrl": "https://www.theguardian.com/commentisfree/2013/mar/28/crisps-pack-a-day", "apiUrl": "https://content.guardianapis.com/commentisfree/2013/mar/28/crisps-pack-a-day", "isHosted": false, "pillarId": "pillar/opinion", "pillarName": "Opinion"}, {"id": "lifeandstyle/2013/mar/28/cook-food-recipes", "type": "article", "sectionId": "food", "sectionName": "Food", "webPublicationDate": "2013-03-28T11:12:29Z", "webTitle": "Cook | the Guardian's new weekly food section", "webUrl": "https://www.theguardian.com/lifeandstyle/2013/mar/28/cook-food-recipes", "apiUrl": "https://content.guardianapis.com/lifeandstyle/2013/mar/28/cook-food-recipes", "isHosted": false, "pillarId": "pillar/lifestyle", "pillarName": "Lifestyle"}, {"id": "lifeandstyle/wordofmouth/2013/mar/28/how-make-perfect-chocolate-truffles", "type": "article", "sectionId": "food", "sectionName": "Food", "webPublicationDate": "2013-03-28T08:00:00Z", "webTitle": "How to make the perfect chocolate truffles", "webUrl": "https://www.theguardian.com/lifeandstyle/wordofmouth/2013/mar/28/how-make-perfect-chocolate-truffles", "apiUrl": "https://content.guardianapis.com/lifeandstyle/wordofmouth/2013/mar/28/how-make-perfect-chocolate-truffles", "isHosted": false, "pillarId": "pillar/lifestyle", "pillarName": "Lifestyle"}, {"id": "money/blog/2013/mar/28/goodbye-supermarkets-lived-year-without-multinationals", "type": "article", "sectionId": "money", "sectionName": "Money", "webPublicationDate": "2013-03-28T07:30:01Z", "webTitle": "Goodbye supermarkets: how I lived for a year without the multinationals", "webUrl": "https://www.theguardian.com/money/blog/2013/mar/28/goodbye-supermarkets-lived-year-without-multinationals", "apiUrl": "https://content.guardianapis.com/money/blog/2013/mar/28/goodbye-supermarkets-lived-year-without-multinationals", "isHosted": false, "pillarId": "pillar/lifestyle", "pillarName": "Lifestyle"}, {"id": "lifeandstyle/2013/mar/28/ethical-way-buy-fish", "type": "article", "sectionId": "food", "sectionName": "Food", "webPublicationDate": "2013-03-28T07:00:10Z", "webTitle": "A new, ethical way to buy fish \u2013 from the fisherman", "webUrl": "https://www.theguardian.com/lifeandstyle/2013/mar/28/ethical-way-buy-fish", "apiUrl": "https://content.guardianapis.com/lifeandstyle/2013/mar/28/ethical-way-buy-fish", "isHosted": false, "pillarId": "pillar/lifestyle", "pillarName": "Lifestyle"}, {"id": "commentisfree/2013/mar/27/in-praise-of-halloumi-cyprus", "type": "article", "sectionId": "commentisfree", "sectionName": "Opinion", "webPublicationDate": "2013-03-27T22:40:00Z", "webTitle": "In praise of \u2026 halloumi | Editorial", "webUrl": "https://www.theguardian.com/commentisfree/2013/mar/27/in-praise-of-halloumi-cyprus", "apiUrl": "https://content.guardianapis.com/commentisfree/2013/mar/27/in-praise-of-halloumi-cyprus", "isHosted": false, "pillarId": "pillar/opinion", "pillarName": "Opinion"}, {"id": "commentisfree/2013/mar/27/food-class-poor-people-stamps", "type": "article", "sectionId": "commentisfree", "sectionName": "Opinion", "webPublicationDate": "2013-03-27T20:00:01Z", "webTitle": "Food is now the ultimate class signifier | Suzanne Moore", "webUrl": "https://www.theguardian.com/commentisfree/2013/mar/27/food-class-poor-people-stamps", "apiUrl": "https://content.guardianapis.com/commentisfree/2013/mar/27/food-class-poor-people-stamps", "isHosted": false, "pillarId": "pillar/opinion", "pillarName": "Opinion"}, {"id": "lifeandstyle/2013/mar/27/easter-egg-taste-test-adults-chidren-verdict", "type": "article", "sectionId": "food", "sectionName": "Food", "webPublicationDate": "2013-03-27T17:07:00Z", "webTitle": "Easter egg taste test: adults and children give their verdicts", "webUrl": "https://www.theguardian.com/lifeandstyle/2013/mar/27/easter-egg-taste-test-adults-chidren-verdict", "apiUrl": "https://content.guardianapis.com/lifeandstyle/2013/mar/27/easter-egg-taste-test-adults-chidren-verdict", "isHosted": false, "pillarId": "pillar/lifestyle", "pillarName": "Lifestyle"}, {"id": "lifeandstyle/2013/mar/27/angela-hartnetts-spring-lamb-recipe", "type": "article", "sectionId": "food", "sectionName": "Food", "webPublicationDate": "2013-03-27T10:54:00Z", "webTitle": "Angela Hartnett's spring lamb with charlotte potatoes and broccoli \u2013 recipe", "webUrl": "https://www.theguardian.com/lifeandstyle/2013/mar/27/angela-hartnetts-spring-lamb-recipe", "apiUrl": "https://content.guardianapis.com/lifeandstyle/2013/mar/27/angela-hartnetts-spring-lamb-recipe", "isHosted": false, "pillarId": "pillar/lifestyle", "pillarName": "Lifestyle"}, {"id": "uk/2013/mar/27/london-food-poverty-fears-grow", "type": "article", "sectionId": "uk-news", "sectionName": "UK news", "webPublicationDate": "2013-03-27T10:18:34Z", "webTitle": "London food poverty fears grow", "webUrl": "https://www.theguardian.com/uk/2013/mar/27/london-food-poverty-fears-grow", "apiUrl": "https://content.guardianapis.com/uk/2013/mar/27/london-food-poverty-fears-grow", "isHosted": false, "pillarId": "pillar/news", "pillarName": "News"}, {"id": "lifeandstyle/2013/mar/26/kale-hottest-vegetable-this-season", "type": "article", "sectionId": "lifeandstyle", "sectionName": "Life and style", "webPublicationDate": "2013-03-26T18:58:00Z", "webTitle": "Kale: the hottest vegetable this season", "webUrl": "https://www.theguardian.com/lifeandstyle/2013/mar/26/kale-hottest-vegetable-this-season", "apiUrl": "https://content.guardianapis.com/lifeandstyle/2013/mar/26/kale-hottest-vegetable-this-season", "isHosted": false, "pillarId": "pillar/lifestyle", "pillarName": "Lifestyle"}, {"id": "lifeandstyle/2013/mar/26/easter-egg-organic-ethical-test", "type": "article", "sectionId": "food", "sectionName": "Food", "webPublicationDate": "2013-03-26T16:49:00Z", "webTitle": "Easter egg taste test: organic and ethical chocolate eggs", "webUrl": "https://www.theguardian.com/lifeandstyle/2013/mar/26/easter-egg-organic-ethical-test", "apiUrl": "https://content.guardianapis.com/lifeandstyle/2013/mar/26/easter-egg-organic-ethical-test", "isHosted": false, "pillarId": "pillar/lifestyle", "pillarName": "Lifestyle"}, {"id": "lifeandstyle/wordofmouth/2013/mar/26/well-loved-foods-you-hate", "type": "article", "sectionId": "food", "sectionName": "Food", "webPublicationDate": "2013-03-26T12:17:00Z", "webTitle": "Which well-loved foods do you hate?", "webUrl": "https://www.theguardian.com/lifeandstyle/wordofmouth/2013/mar/26/well-loved-foods-you-hate", "apiUrl": "https://content.guardianapis.com/lifeandstyle/wordofmouth/2013/mar/26/well-loved-foods-you-hate", "isHosted": false, "pillarId": "pillar/lifestyle", "pillarName": "Lifestyle"}, {"id": "lifeandstyle/2013/mar/26/easter-taste-test-hot-cross-buns", "type": "article", "sectionId": "lifeandstyle", "sectionName": "Life and style", "webPublicationDate": "2013-03-26T11:51:00Z", "webTitle": "Easter taste test: hot cross buns", "webUrl": "https://www.theguardian.com/lifeandstyle/2013/mar/26/easter-taste-test-hot-cross-buns", "apiUrl": "https://content.guardianapis.com/lifeandstyle/2013/mar/26/easter-taste-test-hot-cross-buns", "isHosted": false, "pillarId": "pillar/lifestyle", "pillarName": "Lifestyle"}, {"id": "lifeandstyle/wordofmouth/2013/mar/25/dangerous-dining-food-related-injuries", "type": "article", "sectionId": "food", "sectionName": "Food", "webPublicationDate": "2013-03-25T16:38:45Z", "webTitle": "Dangerous dining: share your food-related injuries", "webUrl": "https://www.theguardian.com/lifeandstyle/wordofmouth/2013/mar/25/dangerous-dining-food-related-injuries", "apiUrl": "https://content.guardianapis.com/lifeandstyle/wordofmouth/2013/mar/25/dangerous-dining-food-related-injuries", "isHosted": false, "pillarId": "pillar/lifestyle", "pillarName": "Lifestyle"}, {"id": "commentisfree/2013/mar/25/how-i-grew-to-love-passover-jewish-traditions", "type": "article", "sectionId": "commentisfree", "sectionName": "Opinion", "webPublicationDate": "2013-03-25T14:33:00Z", "webTitle": "Passover is an acquired taste I've grown to love | Harry J Enten", "webUrl": "https://www.theguardian.com/commentisfree/2013/mar/25/how-i-grew-to-love-passover-jewish-traditions", "apiUrl": "https://content.guardianapis.com/commentisfree/2013/mar/25/how-i-grew-to-love-passover-jewish-traditions", "isHosted": false, "pillarId": "pillar/opinion", "pillarName": "Opinion"}, {"id": "lifeandstyle/video/2013/mar/25/how-to-beurre-blanc-video", "type": "video", "sectionId": "lifeandstyle", "sectionName": "Life and style", "webPublicationDate": "2013-03-25T10:48:00Z", "webTitle": "How to make beurre blanc - video", "webUrl": "https://www.theguardian.com/lifeandstyle/video/2013/mar/25/how-to-beurre-blanc-video", "apiUrl": "https://content.guardianapis.com/lifeandstyle/video/2013/mar/25/how-to-beurre-blanc-video", "isHosted": false, "pillarId": "pillar/lifestyle", "pillarName": "Lifestyle"}, {"id": "environment/2013/mar/25/easter-eggs-palm-oil", "type": "article", "sectionId": "environment", "sectionName": "Environment", "webPublicationDate": "2013-03-25T10:21:30Z", "webTitle": "Easter eggs rated by palm oil use", "webUrl": "https://www.theguardian.com/environment/2013/mar/25/easter-eggs-palm-oil", "apiUrl": "https://content.guardianapis.com/environment/2013/mar/25/easter-eggs-palm-oil", "isHosted": false, "pillarId": "pillar/news", "pillarName": "News"}, {"id": "lifeandstyle/wordofmouth/2013/mar/25/joys-jam-roly-poly-british-pudding", "type": "article", "sectionId": "food", "sectionName": "Food", "webPublicationDate": "2013-03-25T10:00:00Z", "webTitle": "The joys of jam roly-poly, a very British pudding", "webUrl": "https://www.theguardian.com/lifeandstyle/wordofmouth/2013/mar/25/joys-jam-roly-poly-british-pudding", "apiUrl": "https://content.guardianapis.com/lifeandstyle/wordofmouth/2013/mar/25/joys-jam-roly-poly-british-pudding", "isHosted": false, "pillarId": "pillar/lifestyle", "pillarName": "Lifestyle"}, {"id": "travel/2013/mar/25/norfolk-broads-locals-guide-wherrymans-way", "type": "article", "sectionId": "travel", "sectionName": "Travel", "webPublicationDate": "2013-03-25T08:00:00Z", "webTitle": "Norfolk Broads: a local's guide to the Wherryman's Way", "webUrl": "https://www.theguardian.com/travel/2013/mar/25/norfolk-broads-locals-guide-wherrymans-way", "apiUrl": "https://content.guardianapis.com/travel/2013/mar/25/norfolk-broads-locals-guide-wherrymans-way", "isHosted": false, "pillarId": "pillar/lifestyle", "pillarName": "Lifestyle"}, {"id": "travel/2013/mar/25/lincolnshire-wolds-ramblers-paradise", "type": "article", "sectionId": "travel", "sectionName": "Travel", "webPublicationDate": "2013-03-25T08:00:00Z", "webTitle": "Lincolnshire wolds: a ramblers' paradise", "webUrl": "https://www.theguardian.com/travel/2013/mar/25/lincolnshire-wolds-ramblers-paradise", "apiUrl": "https://content.guardianapis.com/travel/2013/mar/25/lincolnshire-wolds-ramblers-paradise", "isHosted": false, "pillarId": "pillar/lifestyle", "pillarName": "Lifestyle"}, {"id": "books/2013/mar/24/lawrence-osborne-drinkers-journey-review", "type": "article", "sectionId": "books", "sectionName": "Books", "webPublicationDate": "2013-03-24T09:00:04Z", "webTitle": "The Wet and the Dry: A Drinker's Journey by Lawrence Osborne \u2013 review", "webUrl": "https://www.theguardian.com/books/2013/mar/24/lawrence-osborne-drinkers-journey-review", "apiUrl": "https://content.guardianapis.com/books/2013/mar/24/lawrence-osborne-drinkers-journey-review", "isHosted": false, "pillarId": "pillar/arts", "pillarName": "Arts"}, {"id": "lifeandstyle/2013/mar/24/jay-rayner-longroom-restaurant-review", "type": "article", "sectionId": "food", "sectionName": "Food", "webPublicationDate": "2013-03-24T07:30:16Z", "webTitle": "The Longroom: restaurant review", "webUrl": "https://www.theguardian.com/lifeandstyle/2013/mar/24/jay-rayner-longroom-restaurant-review", "apiUrl": "https://content.guardianapis.com/lifeandstyle/2013/mar/24/jay-rayner-longroom-restaurant-review", "isHosted": false, "pillarId": "pillar/lifestyle", "pillarName": "Lifestyle"}, {"id": "commentisfree/2013/mar/23/tv-chefs-sex-symbols-debate", "type": "article", "sectionId": "commentisfree", "sectionName": "Opinion", "webPublicationDate": "2013-03-23T18:00:01Z", "webTitle": "Do today's TV chefs have to be sex symbols too?", "webUrl": "https://www.theguardian.com/commentisfree/2013/mar/23/tv-chefs-sex-symbols-debate", "apiUrl": "https://content.guardianapis.com/commentisfree/2013/mar/23/tv-chefs-sex-symbols-debate", "isHosted": false, "pillarId": "pillar/opinion", "pillarName": "Opinion"}, {"id": "lifeandstyle/2013/mar/23/wines-of-the-week-easter", "type": "article", "sectionId": "food", "sectionName": "Food", "webPublicationDate": "2013-03-23T13:00:01Z", "webTitle": "Wines of the week: a trio for Easter", "webUrl": "https://www.theguardian.com/lifeandstyle/2013/mar/23/wines-of-the-week-easter", "apiUrl": "https://content.guardianapis.com/lifeandstyle/2013/mar/23/wines-of-the-week-easter", "isHosted": false, "pillarId": "pillar/lifestyle", "pillarName": "Lifestyle"}, {"id": "lifeandstyle/2013/mar/23/fraiche-oxton-wirral-restaurant-review", "type": "article", "sectionId": "lifeandstyle", "sectionName": "Life and style", "webPublicationDate": "2013-03-23T09:00:04Z", "webTitle": "Restaurant: Fraiche, Oxton, Wirral", "webUrl": "https://www.theguardian.com/lifeandstyle/2013/mar/23/fraiche-oxton-wirral-restaurant-review", "apiUrl": "https://content.guardianapis.com/lifeandstyle/2013/mar/23/fraiche-oxton-wirral-restaurant-review", "isHosted": false, "pillarId": "pillar/lifestyle", "pillarName": "Lifestyle"}, {"id": "lifeandstyle/2013/mar/23/flying-saucer-irish-pat-badger-seed-goulash", "type": "article", "sectionId": "lifeandstyle", "sectionName": "Life and style", "webPublicationDate": "2013-03-23T07:15:01Z", "webTitle": "Family life | A flying saucer, 'Irish Pat' and badger seed goulash", "webUrl": "https://www.theguardian.com/lifeandstyle/2013/mar/23/flying-saucer-irish-pat-badger-seed-goulash", "apiUrl": "https://content.guardianapis.com/lifeandstyle/2013/mar/23/flying-saucer-irish-pat-badger-seed-goulash", "isHosted": false, "pillarId": "pillar/lifestyle", "pillarName": "Lifestyle"}, {"id": "lifeandstyle/2013/mar/23/good-for-you-tahini", "type": "article", "sectionId": "lifeandstyle", "sectionName": "Life and style", "webPublicationDate": "2013-03-23T07:01:22Z", "webTitle": "Why tahini is good for you", "webUrl": "https://www.theguardian.com/lifeandstyle/2013/mar/23/good-for-you-tahini", "apiUrl": "https://content.guardianapis.com/lifeandstyle/2013/mar/23/good-for-you-tahini", "isHosted": false, "pillarId": "pillar/lifestyle", "pillarName": "Lifestyle"}, {"id": "lifeandstyle/2013/mar/23/readers-recipe-swap-burnt", "type": "article", "sectionId": "lifeandstyle", "sectionName": "Life and style", "webPublicationDate": "2013-03-23T07:01:17Z", "webTitle": "Readers' recipe swap: burnt | Felicity Cloake", "webUrl": "https://www.theguardian.com/lifeandstyle/2013/mar/23/readers-recipe-swap-burnt", "apiUrl": "https://content.guardianapis.com/lifeandstyle/2013/mar/23/readers-recipe-swap-burnt", "isHosted": false, "pillarId": "pillar/lifestyle", "pillarName": "Lifestyle"}, {"id": "lifeandstyle/2013/mar/23/what-meals-freeze-well", "type": "article", "sectionId": "lifeandstyle", "sectionName": "Life and style", "webPublicationDate": "2013-03-23T07:00:49Z", "webTitle": "'What meals freeze well?' | Ask Sonya", "webUrl": "https://www.theguardian.com/lifeandstyle/2013/mar/23/what-meals-freeze-well", "apiUrl": "https://content.guardianapis.com/lifeandstyle/2013/mar/23/what-meals-freeze-well", "isHosted": false, "pillarId": "pillar/lifestyle", "pillarName": "Lifestyle"}]}}