{"response": {"status": "ok", "userTier": "developer", "total": 17510, "startIndex": 1, "pageSize": 50, "currentPage": 1, "pages": 351, "orderBy": "newest", "results": [{"id": "lifeandstyle/2012/mar/31/readers-favourite-photographs-songs-recipes", "type": "article", "sectionId": "lifeandstyle", "sectionName": "Life and style", "webPublicationDate": "2012-03-30T23:05:09Z", "webTitle": "Family life", "webUrl": "https://www.theguardian.com/lifeandstyle/2012/mar/31/readers-favourite-photographs-songs-recipes", "apiUrl": "https://content.guardianapis.com/lifeandstyle/2012/mar/31/readers-favourite-photographs-songs-recipes", "isHosted": false, "pillarId": "pillar/lifestyle", "pillarName": "Lifestyle"}, {"id": "lifeandstyle/2012/mar/31/heston-blumenthal-olympic-airline-meals", "type": "article", "sectionId": "food", "sectionName": "Food", "webPublicationDate": "2012-03-30T23:04:08Z", "webTitle": "'My food is really emotional' | Heston Blumenthal", "webUrl": "https://www.theguardian.com/lifeandstyle/2012/mar/31/heston-blumenthal-olympic-airline-meals", "apiUrl": "https://content.guardianapis.com/lifeandstyle/2012/mar/31/heston-blumenthal-olympic-airline-meals", "isHosted": false, "pillarId": "pillar/lifestyle", "pillarName": "Lifestyle"}, {"id": "fashion/2012/mar/30/the-measure-fashion-ins-outs", "type": "article", "sectionId": "fashion", "sectionName": "Fashion", "webPublicationDate": "2012-03-30T21:59:45Z", "webTitle": "The Measure", "webUrl": "https://www.theguardian.com/fashion/2012/mar/30/the-measure-fashion-ins-outs", "apiUrl": "https://content.guardianapis.com/fashion/2012/mar/30/the-measure-fashion-ins-outs", "isHosted": false, "pillarId": "pillar/lifestyle", "pillarName": "Lifestyle"}, {"id": "lifeandstyle/2012/mar/30/cafe-brovey-lair-restaurant-review", "type": "article", "sectionId": "lifeandstyle", "sectionName": "Life and style", "webPublicationDate": "2012-03-30T21:59:26Z", "webTitle": "Restaurant: The Cafe at Brovey Lair, Ovington, Norfolk", "webUrl": "https://www.theguardian.com/lifeandstyle/2012/mar/30/cafe-brovey-lair-restaurant-review", "apiUrl": "https://content.guardianapis.com/lifeandstyle/2012/mar/30/cafe-brovey-lair-restaurant-review", "isHosted": false, "pillarId": "pillar/lifestyle", "pillarName": "Lifestyle"}, {"id": "lifeandstyle/2012/mar/30/supermarket-easter-wine-bargains", "type": "article", "sectionId": "food", "sectionName": "Food", "webPublicationDate": "2012-03-30T21:59:12Z", "webTitle": "Wine: Easter bargains", "webUrl": "https://www.theguardian.com/lifeandstyle/2012/mar/30/supermarket-easter-wine-bargains", "apiUrl": "https://content.guardianapis.com/lifeandstyle/2012/mar/30/supermarket-easter-wine-bargains", "isHosted": false, "pillarId": "pillar/lifestyle", "pillarName": "Lifestyle"}, {"id": "lifeandstyle/2012/mar/30/nettle-recipes-hugh-fearnley-whittingstall", "type": "article", "sectionId": "lifeandstyle", "sectionName": "Life and style", "webPublicationDate": "2012-03-30T21:59:04Z", "webTitle": "Nettle recipes | Hugh Fearnley-Whittingstall", "webUrl": "https://www.theguardian.com/lifeandstyle/2012/mar/30/nettle-recipes-hugh-fearnley-whittingstall", "apiUrl": "https://content.guardianapis.com/lifeandstyle/2012/mar/30/nettle-recipes-hugh-fearnley-whittingstall", "isHosted": false, "pillarId": "pillar/lifestyle", "pillarName": "Lifestyle"}, {"id": "lifeandstyle/2012/mar/30/truffle-cake-mocha-creams-recipes", "type": "article", "sectionId": "lifeandstyle", "sectionName": "Life and style", "webPublicationDate": "2012-03-30T21:59:02Z", "webTitle": "Layered chocolate truffle cake recipe, plus mocha creams | Dan Lepard", "webUrl": "https://www.theguardian.com/lifeandstyle/2012/mar/30/truffle-cake-mocha-creams-recipes", "apiUrl": "https://content.guardianapis.com/lifeandstyle/2012/mar/30/truffle-cake-mocha-creams-recipes", "isHosted": false, "pillarId": "pillar/lifestyle", "pillarName": "Lifestyle"}, {"id": "lifeandstyle/2012/mar/30/squid-salad-braised-chicory-recipes", "type": "article", "sectionId": "food", "sectionName": "Food", "webPublicationDate": "2012-03-30T21:59:01Z", "webTitle": "Char-grilled squid with pitta croutons recipe, plus braised chicory with shallot sauce | Yotam Ottolenghi", "webUrl": "https://www.theguardian.com/lifeandstyle/2012/mar/30/squid-salad-braised-chicory-recipes", "apiUrl": "https://content.guardianapis.com/lifeandstyle/2012/mar/30/squid-salad-braised-chicory-recipes", "isHosted": false, "pillarId": "pillar/lifestyle", "pillarName": "Lifestyle"}, {"id": "politics/2012/mar/30/politics-poetry-david-cameron-pasty", "type": "article", "sectionId": "politics", "sectionName": "Politics", "webPublicationDate": "2012-03-30T20:00:02Z", "webTitle": "Letters: Politics and poetry to go with your pasty", "webUrl": "https://www.theguardian.com/politics/2012/mar/30/politics-poetry-david-cameron-pasty", "apiUrl": "https://content.guardianapis.com/politics/2012/mar/30/politics-poetry-david-cameron-pasty", "isHosted": false, "pillarId": "pillar/news", "pillarName": "News"}, {"id": "lifeandstyle/gallery/2012/mar/30/best-easter-eggs-for-less-in-pictures", "type": "gallery", "sectionId": "food", "sectionName": "Food", "webPublicationDate": "2012-03-30T14:12:00Z", "webTitle": "The best Easter eggs for less than \u00a310 - in pictures", "webUrl": "https://www.theguardian.com/lifeandstyle/gallery/2012/mar/30/best-easter-eggs-for-less-in-pictures", "apiUrl": "https://content.guardianapis.com/lifeandstyle/gallery/2012/mar/30/best-easter-eggs-for-less-in-pictures", "isHosted": false, "pillarId": "pillar/lifestyle", "pillarName": "Lifestyle"}, {"id": "books/2012/mar/30/cooking-with-poo-oddest-title-prize", "type": "article", "sectionId": "books", "sectionName": "Books", "webPublicationDate": "2012-03-30T08:48:51Z", "webTitle": "Cooking with Poo wins oddest book title prize", "webUrl": "https://www.theguardian.com/books/2012/mar/30/cooking-with-poo-oddest-title-prize", "apiUrl": "https://content.guardianapis.com/books/2012/mar/30/cooking-with-poo-oddest-title-prize", "isHosted": false, "pillarId": "pillar/arts", "pillarName": "Arts"}, {"id": "media/mediamonkeyblog/2012/mar/29/headline-writers-pasty-flap", "type": "article", "sectionId": "media", "sectionName": "Media", "webPublicationDate": "2012-03-29T09:23:21Z", "webTitle": "Pasty row: Fleet Street's punsters make a meal of it", "webUrl": "https://www.theguardian.com/media/mediamonkeyblog/2012/mar/29/headline-writers-pasty-flap", "apiUrl": "https://content.guardianapis.com/media/mediamonkeyblog/2012/mar/29/headline-writers-pasty-flap", "isHosted": false, "pillarId": "pillar/news", "pillarName": "News"}, {"id": "lifeandstyle/wordofmouth/2012/mar/29/how-to-cook-perfect-goan-fish-curry", "type": "article", "sectionId": "food", "sectionName": "Food", "webPublicationDate": "2012-03-28T23:10:00Z", "webTitle": "How to cook perfect Goan fish curry", "webUrl": "https://www.theguardian.com/lifeandstyle/wordofmouth/2012/mar/29/how-to-cook-perfect-goan-fish-curry", "apiUrl": "https://content.guardianapis.com/lifeandstyle/wordofmouth/2012/mar/29/how-to-cook-perfect-goan-fish-curry", "isHosted": false, "pillarId": "pillar/lifestyle", "pillarName": "Lifestyle"}, {"id": "politics/2012/mar/29/pasty-row-david-cameron", "type": "article", "sectionId": "politics", "sectionName": "Politics", "webPublicationDate": "2012-03-28T23:09:41Z", "webTitle": "Pasty row hots up for David Cameron", "webUrl": "https://www.theguardian.com/politics/2012/mar/29/pasty-row-david-cameron", "apiUrl": "https://content.guardianapis.com/politics/2012/mar/29/pasty-row-david-cameron", "isHosted": false, "pillarId": "pillar/news", "pillarName": "News"}, {"id": "politics/2012/mar/28/patrick-kingsley-diary-george-osborne-pasty", "type": "article", "sectionId": "politics", "sectionName": "Politics", "webPublicationDate": "2012-03-28T21:50:01Z", "webTitle": "Patrick Kingsley's diary", "webUrl": "https://www.theguardian.com/politics/2012/mar/28/patrick-kingsley-diary-george-osborne-pasty", "apiUrl": "https://content.guardianapis.com/politics/2012/mar/28/patrick-kingsley-diary-george-osborne-pasty", "isHosted": false, "pillarId": "pillar/news", "pillarName": "News"}, {"id": "politics/video/2012/mar/28/ed-miliband-sausage-rolls-greggs-pasty-video", "type": "video", "sectionId": "food", "sectionName": "Food", "webPublicationDate": "2012-03-28T19:05:00Z", "webTitle": "Ed Miliband goes for sausage rolls at Greggs after pasty tax row \u2013 video", "webUrl": "https://www.theguardian.com/politics/video/2012/mar/28/ed-miliband-sausage-rolls-greggs-pasty-video", "apiUrl": "https://content.guardianapis.com/politics/video/2012/mar/28/ed-miliband-sausage-rolls-greggs-pasty-video", "isHosted": false, "pillarId": "pillar/lifestyle", "pillarName": "Lifestyle"}, {"id": "lifeandstyle/2012/mar/28/pasty-tax-pie-budget", "type": "article", "sectionId": "food", "sectionName": "Food", "webPublicationDate": "2012-03-28T16:37:02Z", "webTitle": "Pasty tax: easy as pie", "webUrl": "https://www.theguardian.com/lifeandstyle/2012/mar/28/pasty-tax-pie-budget", "apiUrl": "https://content.guardianapis.com/lifeandstyle/2012/mar/28/pasty-tax-pie-budget", "isHosted": false, "pillarId": "pillar/lifestyle", "pillarName": "Lifestyle"}, {"id": "uk/2012/mar/28/pastygate-leeds-rail-passengers-views", "type": "article", "sectionId": "food", "sectionName": "Food", "webPublicationDate": "2012-03-28T15:19:34Z", "webTitle": "Pasty tax sends wrong signal for rail passengers at Leeds city station", "webUrl": "https://www.theguardian.com/uk/2012/mar/28/pastygate-leeds-rail-passengers-views", "apiUrl": "https://content.guardianapis.com/uk/2012/mar/28/pastygate-leeds-rail-passengers-views", "isHosted": false, "pillarId": "pillar/lifestyle", "pillarName": "Lifestyle"}, {"id": "politics/video/2012/mar/28/george-osborne-greggs-pasty-video", "type": "video", "sectionId": "politics", "sectionName": "Politics", "webPublicationDate": "2012-03-28T15:09:00Z", "webTitle": "George Osborne: I can't remember the last time I had a Gregg's pasty  \u2013 video", "webUrl": "https://www.theguardian.com/politics/video/2012/mar/28/george-osborne-greggs-pasty-video", "apiUrl": "https://content.guardianapis.com/politics/video/2012/mar/28/george-osborne-greggs-pasty-video", "isHosted": false, "pillarId": "pillar/news", "pillarName": "News"}, {"id": "theguardian/2012/mar/28/why-no-vegetables-french-restaurants", "type": "article", "sectionId": "lifeandstyle", "sectionName": "Life and style", "webPublicationDate": "2012-03-28T14:45:00Z", "webTitle": "Notes and queries: Why don't you get vegetables in restaurants in France?", "webUrl": "https://www.theguardian.com/theguardian/2012/mar/28/why-no-vegetables-french-restaurants", "apiUrl": "https://content.guardianapis.com/theguardian/2012/mar/28/why-no-vegetables-french-restaurants", "isHosted": false, "pillarId": "pillar/lifestyle", "pillarName": "Lifestyle"}, {"id": "politics/video/2012/mar/28/david-cameron-pasty-leeds-video", "type": "video", "sectionId": "politics", "sectionName": "Politics", "webPublicationDate": "2012-03-28T13:35:00Z", "webTitle": "David Cameron: I last ate a pasty at Leeds station \u2013 video", "webUrl": "https://www.theguardian.com/politics/video/2012/mar/28/david-cameron-pasty-leeds-video", "apiUrl": "https://content.guardianapis.com/politics/video/2012/mar/28/david-cameron-pasty-leeds-video", "isHosted": false, "pillarId": "pillar/news", "pillarName": "News"}, {"id": "politics/2012/mar/28/pasty-tax-pm-seeks-heat-hot-pie-row", "type": "article", "sectionId": "food", "sectionName": "Food", "webPublicationDate": "2012-03-28T13:23:33Z", "webTitle": "Pasty tax: PM seeks to take heat out of hot pie row", "webUrl": "https://www.theguardian.com/politics/2012/mar/28/pasty-tax-pm-seeks-heat-hot-pie-row", "apiUrl": "https://content.guardianapis.com/politics/2012/mar/28/pasty-tax-pm-seeks-heat-hot-pie-row", "isHosted": false, "pillarId": "pillar/lifestyle", "pillarName": "Lifestyle"}, {"id": "commentisfree/2012/mar/28/pasties-david-cameron-steps-in", "type": "article", "sectionId": "commentisfree", "sectionName": "Opinion", "webPublicationDate": "2012-03-28T13:12:38Z", "webTitle": "So, David Cameron steps in to praise the pasty | Shelagh McKinlay", "webUrl": "https://www.theguardian.com/commentisfree/2012/mar/28/pasties-david-cameron-steps-in", "apiUrl": "https://content.guardianapis.com/commentisfree/2012/mar/28/pasties-david-cameron-steps-in", "isHosted": false, "pillarId": "pillar/opinion", "pillarName": "Opinion"}, {"id": "lifeandstyle/2012/mar/28/watercress-goats-cheese-tart-recipe", "type": "article", "sectionId": "lifeandstyle", "sectionName": "Life and style", "webPublicationDate": "2012-03-28T11:33:50Z", "webTitle": "Watercress and goat's cheese tart recipe | Angela Hartnett", "webUrl": "https://www.theguardian.com/lifeandstyle/2012/mar/28/watercress-goats-cheese-tart-recipe", "apiUrl": "https://content.guardianapis.com/lifeandstyle/2012/mar/28/watercress-goats-cheese-tart-recipe", "isHosted": false, "pillarId": "pillar/lifestyle", "pillarName": "Lifestyle"}, {"id": "world/2012/mar/28/brooklyn-park-slope-food-coop-vote", "type": "article", "sectionId": "us-news", "sectionName": "US news", "webPublicationDate": "2012-03-28T11:26:53Z", "webTitle": "Park Slope Coop's vote on Israel boycott pits human rights against hummus", "webUrl": "https://www.theguardian.com/world/2012/mar/28/brooklyn-park-slope-food-coop-vote", "apiUrl": "https://content.guardianapis.com/world/2012/mar/28/brooklyn-park-slope-food-coop-vote", "isHosted": false, "pillarId": "pillar/news", "pillarName": "News"}, {"id": "lifeandstyle/wordofmouth/2012/mar/28/budget-eats-lake-district", "type": "article", "sectionId": "food", "sectionName": "Food", "webPublicationDate": "2012-03-28T10:40:00Z", "webTitle": "Budget eats: digesting the Lake District", "webUrl": "https://www.theguardian.com/lifeandstyle/wordofmouth/2012/mar/28/budget-eats-lake-district", "apiUrl": "https://content.guardianapis.com/lifeandstyle/wordofmouth/2012/mar/28/budget-eats-lake-district", "isHosted": false, "pillarId": "pillar/lifestyle", "pillarName": "Lifestyle"}, {"id": "lifeandstyle/wordofmouth/2012/mar/28/street-food-philanthropy", "type": "article", "sectionId": "lifeandstyle", "sectionName": "Life and style", "webPublicationDate": "2012-03-28T10:15:00Z", "webTitle": "Street food philanthropy", "webUrl": "https://www.theguardian.com/lifeandstyle/wordofmouth/2012/mar/28/street-food-philanthropy", "apiUrl": "https://content.guardianapis.com/lifeandstyle/wordofmouth/2012/mar/28/street-food-philanthropy", "isHosted": false, "pillarId": "pillar/lifestyle", "pillarName": "Lifestyle"}, {"id": "travel/2012/mar/28/top-10-lake-district-cheap-restaurants", "type": "article", "sectionId": "travel", "sectionName": "Travel", "webPublicationDate": "2012-03-28T10:10:00Z", "webTitle": "10 of the best budget restaurants in the Lake District and beyond", "webUrl": "https://www.theguardian.com/travel/2012/mar/28/top-10-lake-district-cheap-restaurants", "apiUrl": "https://content.guardianapis.com/travel/2012/mar/28/top-10-lake-district-cheap-restaurants", "isHosted": false, "pillarId": "pillar/lifestyle", "pillarName": "Lifestyle"}, {"id": "lifeandstyle/2012/mar/28/easter-taste-test-hot-cross-buns", "type": "article", "sectionId": "lifeandstyle", "sectionName": "Life and style", "webPublicationDate": "2012-03-28T09:00:00Z", "webTitle": "Easter taste test: hot cross buns", "webUrl": "https://www.theguardian.com/lifeandstyle/2012/mar/28/easter-taste-test-hot-cross-buns", "apiUrl": "https://content.guardianapis.com/lifeandstyle/2012/mar/28/easter-taste-test-hot-cross-buns", "isHosted": false, "pillarId": "pillar/lifestyle", "pillarName": "Lifestyle"}, {"id": "commentisfree/2012/mar/28/in-praise-of-healthy-scepticism-editorial", "type": "article", "sectionId": "commentisfree", "sectionName": "Opinion", "webPublicationDate": "2012-03-27T23:04:26Z", "webTitle": "In praise of \u2026 healthy scepticism", "webUrl": "https://www.theguardian.com/commentisfree/2012/mar/28/in-praise-of-healthy-scepticism-editorial", "apiUrl": "https://content.guardianapis.com/commentisfree/2012/mar/28/in-praise-of-healthy-scepticism-editorial", "isHosted": false, "pillarId": "pillar/opinion", "pillarName": "Opinion"}, {"id": "lifeandstyle/2012/mar/27/food-and-drink-restaurants", "type": "article", "sectionId": "food", "sectionName": "Food", "webPublicationDate": "2012-03-27T21:22:52Z", "webTitle": "Eric Pickles 'curry colleges' and the secret of chopping onions", "webUrl": "https://www.theguardian.com/lifeandstyle/2012/mar/27/food-and-drink-restaurants", "apiUrl": "https://content.guardianapis.com/lifeandstyle/2012/mar/27/food-and-drink-restaurants", "isHosted": false, "pillarId": "pillar/lifestyle", "pillarName": "Lifestyle"}, {"id": "society/2012/mar/27/britain-alcohol-problem-pricing-puritanism", "type": "article", "sectionId": "society", "sectionName": "Society", "webPublicationDate": "2012-03-27T20:00:04Z", "webTitle": "Letters: Britain's alcohol problem, pricing and puritanism", "webUrl": "https://www.theguardian.com/society/2012/mar/27/britain-alcohol-problem-pricing-puritanism", "apiUrl": "https://content.guardianapis.com/society/2012/mar/27/britain-alcohol-problem-pricing-puritanism", "isHosted": false, "pillarId": "pillar/news", "pillarName": "News"}, {"id": "global/2012/mar/27/george-osborne-chokes-pasty-question", "type": "article", "sectionId": "politics", "sectionName": "Politics", "webPublicationDate": "2012-03-27T18:12:53Z", "webTitle": "George Osborne chokes on pasty question", "webUrl": "https://www.theguardian.com/global/2012/mar/27/george-osborne-chokes-pasty-question", "apiUrl": "https://content.guardianapis.com/global/2012/mar/27/george-osborne-chokes-pasty-question", "isHosted": false, "pillarId": "pillar/news", "pillarName": "News"}, {"id": "world/2012/mar/27/greece-breadline-potato-movement-eurozone-crisis", "type": "article", "sectionId": "world", "sectionName": "World news", "webPublicationDate": "2012-03-27T16:46:00Z", "webTitle": "Greece's cut-price potato movement shows Greeks chipping in", "webUrl": "https://www.theguardian.com/world/2012/mar/27/greece-breadline-potato-movement-eurozone-crisis", "apiUrl": "https://content.guardianapis.com/world/2012/mar/27/greece-breadline-potato-movement-eurozone-crisis", "isHosted": false, "pillarId": "pillar/news", "pillarName": "News"}, {"id": "lifeandstyle/wordofmouth/2012/mar/27/cameras-at-the-table-snapping-point", "type": "article", "sectionId": "food", "sectionName": "Food", "webPublicationDate": "2012-03-27T09:00:00Z", "webTitle": "Cameras at the table: snapping point?", "webUrl": "https://www.theguardian.com/lifeandstyle/wordofmouth/2012/mar/27/cameras-at-the-table-snapping-point", "apiUrl": "https://content.guardianapis.com/lifeandstyle/wordofmouth/2012/mar/27/cameras-at-the-table-snapping-point", "isHosted": false, "pillarId": "pillar/lifestyle", "pillarName": "Lifestyle"}, {"id": "lifeandstyle/wordofmouth/2012/mar/26/guardian-open-weekend-felicity-cloake-pancake-recipe", "type": "article", "sectionId": "food", "sectionName": "Food", "webPublicationDate": "2012-03-26T11:00:00Z", "webTitle": "Guardian Open Weekend: Felicity Cloake's buttermilk pancakes with fruit compote recipe", "webUrl": "https://www.theguardian.com/lifeandstyle/wordofmouth/2012/mar/26/guardian-open-weekend-felicity-cloake-pancake-recipe", "apiUrl": "https://content.guardianapis.com/lifeandstyle/wordofmouth/2012/mar/26/guardian-open-weekend-felicity-cloake-pancake-recipe", "isHosted": false, "pillarId": "pillar/lifestyle", "pillarName": "Lifestyle"}, {"id": "lifeandstyle/wordofmouth/2012/mar/26/sticking-up-for-old-school-dinners", "type": "article", "sectionId": "food", "sectionName": "Food", "webPublicationDate": "2012-03-26T09:15:00Z", "webTitle": "Sticking up for old school dinners", "webUrl": "https://www.theguardian.com/lifeandstyle/wordofmouth/2012/mar/26/sticking-up-for-old-school-dinners", "apiUrl": "https://content.guardianapis.com/lifeandstyle/wordofmouth/2012/mar/26/sticking-up-for-old-school-dinners", "isHosted": false, "pillarId": "pillar/lifestyle", "pillarName": "Lifestyle"}, {"id": "lifeandstyle/2012/mar/26/takeaway-pizzas-salt-content-supermarkets", "type": "article", "sectionId": "food", "sectionName": "Food", "webPublicationDate": "2012-03-26T06:00:00Z", "webTitle": "Takeaway pizzas twice as salty as those from supermarkets, study finds", "webUrl": "https://www.theguardian.com/lifeandstyle/2012/mar/26/takeaway-pizzas-salt-content-supermarkets", "apiUrl": "https://content.guardianapis.com/lifeandstyle/2012/mar/26/takeaway-pizzas-salt-content-supermarkets", "isHosted": false, "pillarId": "pillar/lifestyle", "pillarName": "Lifestyle"}, {"id": "environment/2012/mar/25/mackerel-fishing-curbs-imposed", "type": "article", "sectionId": "environment", "sectionName": "Environment", "webPublicationDate": "2012-03-25T15:42:29Z", "webTitle": "Mackerel fishing sanctions imposed after Iceland and Faroes breach quotas", "webUrl": "https://www.theguardian.com/environment/2012/mar/25/mackerel-fishing-curbs-imposed", "apiUrl": "https://content.guardianapis.com/environment/2012/mar/25/mackerel-fishing-curbs-imposed", "isHosted": false, "pillarId": "pillar/news", "pillarName": "News"}, {"id": "lifeandstyle/2012/mar/25/jay-rayner-leeds-kitchen-review", "type": "article", "sectionId": "food", "sectionName": "Food", "webPublicationDate": "2012-03-25T00:09:02Z", "webTitle": "Restaurant review: the Leeds Kitchen", "webUrl": "https://www.theguardian.com/lifeandstyle/2012/mar/25/jay-rayner-leeds-kitchen-review", "apiUrl": "https://content.guardianapis.com/lifeandstyle/2012/mar/25/jay-rayner-leeds-kitchen-review", "isHosted": false, "pillarId": "pillar/lifestyle", "pillarName": "Lifestyle"}, {"id": "lifeandstyle/2012/mar/25/wines-of-the-week-david-williams", "type": "article", "sectionId": "food", "sectionName": "Food", "webPublicationDate": "2012-03-25T00:04:05Z", "webTitle": "Wines of the week: David Williams", "webUrl": "https://www.theguardian.com/lifeandstyle/2012/mar/25/wines-of-the-week-david-williams", "apiUrl": "https://content.guardianapis.com/lifeandstyle/2012/mar/25/wines-of-the-week-david-williams", "isHosted": false, "pillarId": "pillar/lifestyle", "pillarName": "Lifestyle"}, {"id": "lifeandstyle/2012/mar/24/readers-favourite-photographs-songs-recipes", "type": "article", "sectionId": "lifeandstyle", "sectionName": "Life and style", "webPublicationDate": "2012-03-24T00:05:14Z", "webTitle": "Family life", "webUrl": "https://www.theguardian.com/lifeandstyle/2012/mar/24/readers-favourite-photographs-songs-recipes", "apiUrl": "https://content.guardianapis.com/lifeandstyle/2012/mar/24/readers-favourite-photographs-songs-recipes", "isHosted": false, "pillarId": "pillar/lifestyle", "pillarName": "Lifestyle"}, {"id": "lifeandstyle/2012/mar/23/bistro-union-london-sw4-restaurant", "type": "article", "sectionId": "lifeandstyle", "sectionName": "Life and style", "webPublicationDate": "2012-03-23T22:59:10Z", "webTitle": "Restaurant: Bistro Union, London SW4", "webUrl": "https://www.theguardian.com/lifeandstyle/2012/mar/23/bistro-union-london-sw4-restaurant", "apiUrl": "https://content.guardianapis.com/lifeandstyle/2012/mar/23/bistro-union-london-sw4-restaurant", "isHosted": false, "pillarId": "pillar/lifestyle", "pillarName": "Lifestyle"}, {"id": "lifeandstyle/2012/mar/23/hot-cross-buns-recipe-custard-tart", "type": "article", "sectionId": "lifeandstyle", "sectionName": "Life and style", "webPublicationDate": "2012-03-23T22:59:07Z", "webTitle": "Hot cross buns recipe, plus frumenty custard tart | Dan Lepard", "webUrl": "https://www.theguardian.com/lifeandstyle/2012/mar/23/hot-cross-buns-recipe-custard-tart", "apiUrl": "https://content.guardianapis.com/lifeandstyle/2012/mar/23/hot-cross-buns-recipe-custard-tart", "isHosted": false, "pillarId": "pillar/lifestyle", "pillarName": "Lifestyle"}, {"id": "lifeandstyle/2012/mar/23/spelt-barley-recipes-fearnley-whittinstall", "type": "article", "sectionId": "lifeandstyle", "sectionName": "Life and style", "webPublicationDate": "2012-03-23T22:59:05Z", "webTitle": "Barley and spelt recipes | Hugh Fearnley-Whittingstall", "webUrl": "https://www.theguardian.com/lifeandstyle/2012/mar/23/spelt-barley-recipes-fearnley-whittinstall", "apiUrl": "https://content.guardianapis.com/lifeandstyle/2012/mar/23/spelt-barley-recipes-fearnley-whittinstall", "isHosted": false, "pillarId": "pillar/lifestyle", "pillarName": "Lifestyle"}, {"id": "lifeandstyle/2012/mar/23/gewurztraminer-food-matching-wine-review", "type": "article", "sectionId": "food", "sectionName": "Food", "webPublicationDate": "2012-03-23T22:59:03Z", "webTitle": "Wine: gear up for gew\u00fcrztraminer", "webUrl": "https://www.theguardian.com/lifeandstyle/2012/mar/23/gewurztraminer-food-matching-wine-review", "apiUrl": "https://content.guardianapis.com/lifeandstyle/2012/mar/23/gewurztraminer-food-matching-wine-review", "isHosted": false, "pillarId": "pillar/lifestyle", "pillarName": "Lifestyle"}, {"id": "lifeandstyle/2012/mar/23/vegetables-yoghurt-recipe-beef-pie", "type": "article", "sectionId": "food", "sectionName": "Food", "webPublicationDate": "2012-03-23T22:59:01Z", "webTitle": "Mixed vegetables and yoghurt with green chilli oil recipe, plus beef pie | Yotam Ottolenghi", "webUrl": "https://www.theguardian.com/lifeandstyle/2012/mar/23/vegetables-yoghurt-recipe-beef-pie", "apiUrl": "https://content.guardianapis.com/lifeandstyle/2012/mar/23/vegetables-yoghurt-recipe-beef-pie", "isHosted": false, "pillarId": "pillar/lifestyle", "pillarName": "Lifestyle"}, {"id": "travel/2012/mar/23/istanbul-nightlife-bars-breakfast-brunch", "type": "article", "sectionId": "travel", "sectionName": "Travel", "webPublicationDate": "2012-03-23T22:45:04Z", "webTitle": "A big night out in Istanbul \u2013 and a big breakfast the morning after", "webUrl": "https://www.theguardian.com/travel/2012/mar/23/istanbul-nightlife-bars-breakfast-brunch", "apiUrl": "https://content.guardianapis.com/travel/2012/mar/23/istanbul-nightlife-bars-breakfast-brunch", "isHosted": false, "pillarId": "pillar/lifestyle", "pillarName": "Lifestyle"}, {"id": "commentisfree/2012/mar/23/alcohol-pricing-politics-under-influence", "type": "article", "sectionId": "commentisfree", "sectionName": "Opinion", "webPublicationDate": "2012-03-23T19:35:58Z", "webTitle": "Alcohol pricing: politics under the influence | Editorial", "webUrl": "https://www.theguardian.com/commentisfree/2012/mar/23/alcohol-pricing-politics-under-influence", "apiUrl": "https://content.guardianapis.com/commentisfree/2012/mar/23/alcohol-pricing-politics-under-influence", "isHosted": false, "pillarId": "pillar/opinion", "pillarName": "Opinion"}, {"id": "society/2012/mar/23/alcohol-prices-theresa-may", "type": "article", "sectionId": "society", "sectionName": "Society", "webPublicationDate": "2012-03-23T13:12:34Z", "webTitle": "Alcohol prices: Theresa May takes lead as government braces for legal fight", "webUrl": "https://www.theguardian.com/society/2012/mar/23/alcohol-prices-theresa-may", "apiUrl": "https://content.guardianapis.com/society/2012/mar/23/alcohol-prices-theresa-may", "isHosted": false, "pillarId": "pillar/news", "pillarName": "News"}]}}