{"response": {"status": "ok", "userTier": "developer", "total": 32502, "startIndex": 1, "pageSize": 50, "currentPage": 1, "pages": 651, "orderBy": "newest", "results": [{"id": "money/2012/mar/30/next-generation-business-views", "type": "article", "sectionId": "money", "sectionName": "Money", "webPublicationDate": "2012-03-30T22:00:00Z", "webTitle": "What the next generation think about business", "webUrl": "https://www.theguardian.com/money/2012/mar/30/next-generation-business-views", "apiUrl": "https://content.guardianapis.com/money/2012/mar/30/next-generation-business-views", "isHosted": false, "pillarId": "pillar/lifestyle", "pillarName": "Lifestyle"}, {"id": "books/2012/mar/30/moby-duck-toys-donovan-hohn", "type": "article", "sectionId": "books", "sectionName": "Books", "webPublicationDate": "2012-03-30T21:55:00Z", "webTitle": "Moby-Duck: The True Story of 28,800 Bath Toys Lost at Sea by Donovan Hohn \u2013 review", "webUrl": "https://www.theguardian.com/books/2012/mar/30/moby-duck-toys-donovan-hohn", "apiUrl": "https://content.guardianapis.com/books/2012/mar/30/moby-duck-toys-donovan-hohn", "isHosted": false, "pillarId": "pillar/arts", "pillarName": "Arts"}, {"id": "environment/2012/mar/30/climate-change-general-motors-heartland-institute", "type": "article", "sectionId": "environment", "sectionName": "Environment", "webPublicationDate": "2012-03-30T20:00:06Z", "webTitle": "General Motors pulls funding from climate sceptic thinktank Heartland", "webUrl": "https://www.theguardian.com/environment/2012/mar/30/climate-change-general-motors-heartland-institute", "apiUrl": "https://content.guardianapis.com/environment/2012/mar/30/climate-change-general-motors-heartland-institute", "isHosted": false, "pillarId": "pillar/news", "pillarName": "News"}, {"id": "environment/2012/mar/30/cambrian-mountains-wales-moorland-walk", "type": "article", "sectionId": "environment", "sectionName": "Environment", "webPublicationDate": "2012-03-30T20:00:01Z", "webTitle": "Country diary: Cambrian Mountains, Wales: A moorland walk through a stolen landscape", "webUrl": "https://www.theguardian.com/environment/2012/mar/30/cambrian-mountains-wales-moorland-walk", "apiUrl": "https://content.guardianapis.com/environment/2012/mar/30/cambrian-mountains-wales-moorland-walk", "isHosted": false, "pillarId": "pillar/news", "pillarName": "News"}, {"id": "commentisfree/2012/mar/30/nature-deficit-disorder-children", "type": "article", "sectionId": "commentisfree", "sectionName": "Opinion", "webPublicationDate": "2012-03-30T16:44:14Z", "webTitle": "Are modern British children suffering from 'nature deficit disorder'? | Colin Tudge and Aleks Krotoski", "webUrl": "https://www.theguardian.com/commentisfree/2012/mar/30/nature-deficit-disorder-children", "apiUrl": "https://content.guardianapis.com/commentisfree/2012/mar/30/nature-deficit-disorder-children", "isHosted": false, "pillarId": "pillar/opinion", "pillarName": "Opinion"}, {"id": "commentisfree/2012/mar/30/what-is-nuclear-power-future", "type": "article", "sectionId": "commentisfree", "sectionName": "Opinion", "webPublicationDate": "2012-03-30T15:21:39Z", "webTitle": "What is the future of nuclear power in the UK? | Rob Edwards", "webUrl": "https://www.theguardian.com/commentisfree/2012/mar/30/what-is-nuclear-power-future", "apiUrl": "https://content.guardianapis.com/commentisfree/2012/mar/30/what-is-nuclear-power-future", "isHosted": false, "pillarId": "pillar/opinion", "pillarName": "Opinion"}, {"id": "environment/gallery/2012/mar/30/week-in-wildlife-in-pictures", "type": "gallery", "sectionId": "environment", "sectionName": "Environment", "webPublicationDate": "2012-03-30T15:00:00Z", "webTitle": "The week in wildlife \u2013 in pictures", "webUrl": "https://www.theguardian.com/environment/gallery/2012/mar/30/week-in-wildlife-in-pictures", "apiUrl": "https://content.guardianapis.com/environment/gallery/2012/mar/30/week-in-wildlife-in-pictures", "isHosted": false, "pillarId": "pillar/news", "pillarName": "News"}, {"id": "environment/2012/mar/30/earth-hour-from-space", "type": "article", "sectionId": "environment", "sectionName": "Environment", "webPublicationDate": "2012-03-30T13:46:17Z", "webTitle": "Earth Hour will be watched over from space as the lights go out", "webUrl": "https://www.theguardian.com/environment/2012/mar/30/earth-hour-from-space", "apiUrl": "https://content.guardianapis.com/environment/2012/mar/30/earth-hour-from-space", "isHosted": false, "pillarId": "pillar/news", "pillarName": "News"}, {"id": "film/video/2012/mar/30/the-island-president-trailer-video", "type": "video", "sectionId": "film", "sectionName": "Film", "webPublicationDate": "2012-03-30T12:40:00Z", "webTitle": "The Island President: watch the trailer - video", "webUrl": "https://www.theguardian.com/film/video/2012/mar/30/the-island-president-trailer-video", "apiUrl": "https://content.guardianapis.com/film/video/2012/mar/30/the-island-president-trailer-video", "isHosted": false, "pillarId": "pillar/arts", "pillarName": "Arts"}, {"id": "environment/2012/mar/30/mayor-london-air-pollution", "type": "article", "sectionId": "environment", "sectionName": "Environment", "webPublicationDate": "2012-03-30T12:26:01Z", "webTitle": "Which mayoral candidate will tackle London's air pollution? | Simon Less", "webUrl": "https://www.theguardian.com/environment/2012/mar/30/mayor-london-air-pollution", "apiUrl": "https://content.guardianapis.com/environment/2012/mar/30/mayor-london-air-pollution", "isHosted": false, "pillarId": "pillar/news", "pillarName": "News"}, {"id": "environment/damian-carrington-blog/2012/mar/30/nuclear-energy-gas-climate", "type": "article", "sectionId": "environment", "sectionName": "Environment", "webPublicationDate": "2012-03-30T12:25:00Z", "webTitle": "Nuclear and gas blow outs show where the dumb money is | Damian Carrington", "webUrl": "https://www.theguardian.com/environment/damian-carrington-blog/2012/mar/30/nuclear-energy-gas-climate", "apiUrl": "https://content.guardianapis.com/environment/damian-carrington-blog/2012/mar/30/nuclear-energy-gas-climate", "isHosted": false, "pillarId": "pillar/news", "pillarName": "News"}, {"id": "environment/2012/mar/30/small-business-energy-efficient", "type": "article", "sectionId": "environment", "sectionName": "Environment", "webPublicationDate": "2012-03-30T11:04:45Z", "webTitle": "Small businesses 'must do more to be energy efficient'", "webUrl": "https://www.theguardian.com/environment/2012/mar/30/small-business-energy-efficient", "apiUrl": "https://content.guardianapis.com/environment/2012/mar/30/small-business-energy-efficient", "isHosted": false, "pillarId": "pillar/news", "pillarName": "News"}, {"id": "environment/2012/mar/30/belief-climate-change-scepticism", "type": "article", "sectionId": "environment", "sectionName": "Environment", "webPublicationDate": "2012-03-30T10:29:52Z", "webTitle": "Tackling belief is the key to overcoming climate change scepticism  | Adam Corner", "webUrl": "https://www.theguardian.com/environment/2012/mar/30/belief-climate-change-scepticism", "apiUrl": "https://content.guardianapis.com/environment/2012/mar/30/belief-climate-change-scepticism", "isHosted": false, "pillarId": "pillar/news", "pillarName": "News"}, {"id": "business/2012/mar/30/total-helicopter-water-drop-north-sea", "type": "article", "sectionId": "business", "sectionName": "Business", "webPublicationDate": "2012-03-30T07:43:39Z", "webTitle": "Total mulls helicopter water drop to put out flare on North Sea platform", "webUrl": "https://www.theguardian.com/business/2012/mar/30/total-helicopter-water-drop-north-sea", "apiUrl": "https://content.guardianapis.com/business/2012/mar/30/total-helicopter-water-drop-north-sea", "isHosted": false, "pillarId": "pillar/news", "pillarName": "News"}, {"id": "uk/2012/mar/30/national-trust-children-playing-outdoors", "type": "article", "sectionId": "uk-news", "sectionName": "UK news", "webPublicationDate": "2012-03-30T07:30:00Z", "webTitle": "The increasingly rare sight in UK's green spaces \u2013 children playing", "webUrl": "https://www.theguardian.com/uk/2012/mar/30/national-trust-children-playing-outdoors", "apiUrl": "https://content.guardianapis.com/uk/2012/mar/30/national-trust-children-playing-outdoors", "isHosted": false, "pillarId": "pillar/news", "pillarName": "News"}, {"id": "environment/2012/mar/30/birds-eye-sustainable-fish-fingers", "type": "article", "sectionId": "environment", "sectionName": "Environment", "webPublicationDate": "2012-03-30T05:30:02Z", "webTitle": "Birds Eye fish fingers get thumbs up from sustainability body", "webUrl": "https://www.theguardian.com/environment/2012/mar/30/birds-eye-sustainable-fish-fingers", "apiUrl": "https://content.guardianapis.com/environment/2012/mar/30/birds-eye-sustainable-fish-fingers", "isHosted": false, "pillarId": "pillar/news", "pillarName": "News"}, {"id": "environment/2012/mar/29/nuclear-strategy-power-plant", "type": "article", "sectionId": "environment", "sectionName": "Environment", "webPublicationDate": "2012-03-29T21:28:13Z", "webTitle": "A blow for nuclear strategy but not a meltdown", "webUrl": "https://www.theguardian.com/environment/2012/mar/29/nuclear-strategy-power-plant", "apiUrl": "https://content.guardianapis.com/environment/2012/mar/29/nuclear-strategy-power-plant", "isHosted": false, "pillarId": "pillar/news", "pillarName": "News"}, {"id": "environment/2012/mar/29/welshpool-earthworm-casts-good-land", "type": "article", "sectionId": "environment", "sectionName": "Environment", "webPublicationDate": "2012-03-29T20:00:02Z", "webTitle": "Country diary: Welshpool: Earthworm casts on a good piece of land", "webUrl": "https://www.theguardian.com/environment/2012/mar/29/welshpool-earthworm-casts-good-land", "apiUrl": "https://content.guardianapis.com/environment/2012/mar/29/welshpool-earthworm-casts-good-land", "isHosted": false, "pillarId": "pillar/news", "pillarName": "News"}, {"id": "uk/2012/mar/29/north-sea-oil-gas-leak-source-found", "type": "article", "sectionId": "uk-news", "sectionName": "UK news", "webPublicationDate": "2012-03-29T19:29:09Z", "webTitle": "Source of North Sea gas leak found, says Total", "webUrl": "https://www.theguardian.com/uk/2012/mar/29/north-sea-oil-gas-leak-source-found", "apiUrl": "https://content.guardianapis.com/uk/2012/mar/29/north-sea-oil-gas-leak-source-found", "isHosted": false, "pillarId": "pillar/news", "pillarName": "News"}, {"id": "environment/2012/mar/29/crop-pesticides-honeybee-decline", "type": "article", "sectionId": "environment", "sectionName": "Environment", "webPublicationDate": "2012-03-29T18:00:01Z", "webTitle": "Pesticides linked to honeybee decline", "webUrl": "https://www.theguardian.com/environment/2012/mar/29/crop-pesticides-honeybee-decline", "apiUrl": "https://content.guardianapis.com/environment/2012/mar/29/crop-pesticides-honeybee-decline", "isHosted": false, "pillarId": "pillar/news", "pillarName": "News"}, {"id": "environment/2012/mar/29/toxic-pollen-mad-bee-disease", "type": "article", "sectionId": "environment", "sectionName": "Environment", "webPublicationDate": "2012-03-29T18:00:00Z", "webTitle": "Toxic pollen and the mad bee disease disaster | Alison Benjamin", "webUrl": "https://www.theguardian.com/environment/2012/mar/29/toxic-pollen-mad-bee-disease", "apiUrl": "https://content.guardianapis.com/environment/2012/mar/29/toxic-pollen-mad-bee-disease", "isHosted": false, "pillarId": "pillar/news", "pillarName": "News"}, {"id": "business/cartoon/2012/mar/29/kipper-williams-on-nuclear-policy", "type": "picture", "sectionId": "business", "sectionName": "Business", "webPublicationDate": "2012-03-29T17:59:43Z", "webTitle": "Kipper Williams on nuclear policy", "webUrl": "https://www.theguardian.com/business/cartoon/2012/mar/29/kipper-williams-on-nuclear-policy", "apiUrl": "https://content.guardianapis.com/business/cartoon/2012/mar/29/kipper-williams-on-nuclear-policy", "isHosted": false, "pillarId": "pillar/news", "pillarName": "News"}, {"id": "news/datablog/2012/mar/29/wind-map-hint-america", "type": "article", "sectionId": "news", "sectionName": "News", "webPublicationDate": "2012-03-29T15:43:00Z", "webTitle": "The wind map of America | Datablog", "webUrl": "https://www.theguardian.com/news/datablog/2012/mar/29/wind-map-hint-america", "apiUrl": "https://content.guardianapis.com/news/datablog/2012/mar/29/wind-map-hint-america", "isHosted": false, "pillarId": "pillar/news", "pillarName": "News"}, {"id": "business/economics-blog/2012/mar/29/north-sea-oil-revenue-squandered", "type": "article", "sectionId": "business", "sectionName": "Business", "webPublicationDate": "2012-03-29T15:10:50Z", "webTitle": "Britain has squandered the golden opportunity that North Sea oil promised", "webUrl": "https://www.theguardian.com/business/economics-blog/2012/mar/29/north-sea-oil-revenue-squandered", "apiUrl": "https://content.guardianapis.com/business/economics-blog/2012/mar/29/north-sea-oil-revenue-squandered", "isHosted": false, "pillarId": "pillar/news", "pillarName": "News"}, {"id": "environment/2012/mar/29/interpol-environmental-crime-ivory-poaching", "type": "article", "sectionId": "environment", "sectionName": "Environment", "webPublicationDate": "2012-03-29T15:04:53Z", "webTitle": "Interpol demands crackdown on 'serious and organised' eco crime", "webUrl": "https://www.theguardian.com/environment/2012/mar/29/interpol-environmental-crime-ivory-poaching", "apiUrl": "https://content.guardianapis.com/environment/2012/mar/29/interpol-environmental-crime-ivory-poaching", "isHosted": false, "pillarId": "pillar/news", "pillarName": "News"}, {"id": "commentisfree/2012/mar/29/synthetic-biology-best-hope-mankind", "type": "article", "sectionId": "commentisfree", "sectionName": "Opinion", "webPublicationDate": "2012-03-29T12:38:38Z", "webTitle": "Synthetic biology: the best hope for mankind's future? | Johnjoe McFadden", "webUrl": "https://www.theguardian.com/commentisfree/2012/mar/29/synthetic-biology-best-hope-mankind", "apiUrl": "https://content.guardianapis.com/commentisfree/2012/mar/29/synthetic-biology-best-hope-mankind", "isHosted": false, "pillarId": "pillar/opinion", "pillarName": "Opinion"}, {"id": "commentisfree/2012/mar/29/starling-sad-decline", "type": "article", "sectionId": "commentisfree", "sectionName": "Opinion", "webPublicationDate": "2012-03-29T12:10:44Z", "webTitle": "The sad decline of the swirling starling | Stephen Moss", "webUrl": "https://www.theguardian.com/commentisfree/2012/mar/29/starling-sad-decline", "apiUrl": "https://content.guardianapis.com/commentisfree/2012/mar/29/starling-sad-decline", "isHosted": false, "pillarId": "pillar/opinion", "pillarName": "Opinion"}, {"id": "environment/blog/2012/mar/29/met-office-conversations-climate-sceptics", "type": "article", "sectionId": "environment", "sectionName": "Environment", "webPublicationDate": "2012-03-29T12:08:39Z", "webTitle": "Met Office hosts 'conversations' with climate sceptics | Leo Hickman", "webUrl": "https://www.theguardian.com/environment/blog/2012/mar/29/met-office-conversations-climate-sceptics", "apiUrl": "https://content.guardianapis.com/environment/blog/2012/mar/29/met-office-conversations-climate-sceptics", "isHosted": false, "pillarId": "pillar/news", "pillarName": "News"}, {"id": "environment/2012/mar/29/uk-greenhouse-gas-emissions-2011", "type": "article", "sectionId": "environment", "sectionName": "Environment", "webPublicationDate": "2012-03-29T10:34:01Z", "webTitle": "UK greenhouse gas emissions down 7% in 2011", "webUrl": "https://www.theguardian.com/environment/2012/mar/29/uk-greenhouse-gas-emissions-2011", "apiUrl": "https://content.guardianapis.com/environment/2012/mar/29/uk-greenhouse-gas-emissions-2011", "isHosted": false, "pillarId": "pillar/news", "pillarName": "News"}, {"id": "world/2012/mar/29/john-varty-mauled-by-tiger", "type": "article", "sectionId": "world", "sectionName": "World news", "webPublicationDate": "2012-03-29T10:19:55Z", "webTitle": "Wildlife film-maker John Varty mauled by tiger", "webUrl": "https://www.theguardian.com/world/2012/mar/29/john-varty-mauled-by-tiger", "apiUrl": "https://content.guardianapis.com/world/2012/mar/29/john-varty-mauled-by-tiger", "isHosted": false, "pillarId": "pillar/news", "pillarName": "News"}, {"id": "environment/2012/mar/29/nuclear-reactors-rwe-eon-energy", "type": "article", "sectionId": "environment", "sectionName": "Environment", "webPublicationDate": "2012-03-29T09:52:30Z", "webTitle": "Nuclear giants RWE and E.ON drop plans to build new UK reactors", "webUrl": "https://www.theguardian.com/environment/2012/mar/29/nuclear-reactors-rwe-eon-energy", "apiUrl": "https://content.guardianapis.com/environment/2012/mar/29/nuclear-reactors-rwe-eon-energy", "isHosted": false, "pillarId": "pillar/news", "pillarName": "News"}, {"id": "film/2012/mar/29/james-cameron-3d-film-deep-sea-dive", "type": "article", "sectionId": "film", "sectionName": "Film", "webPublicationDate": "2012-03-29T09:39:21Z", "webTitle": "James Cameron to release 3D film of pioneering deep-sea dive", "webUrl": "https://www.theguardian.com/film/2012/mar/29/james-cameron-3d-film-deep-sea-dive", "apiUrl": "https://content.guardianapis.com/film/2012/mar/29/james-cameron-3d-film-deep-sea-dive", "isHosted": false, "pillarId": "pillar/arts", "pillarName": "Arts"}, {"id": "environment/2012/mar/29/wildlife-expert-big-garden-birdwatch", "type": "article", "sectionId": "environment", "sectionName": "Environment", "webPublicationDate": "2012-03-29T09:34:00Z", "webTitle": "Live Q&A: wildlife expert Richard James on the Big Garden Birdwatch", "webUrl": "https://www.theguardian.com/environment/2012/mar/29/wildlife-expert-big-garden-birdwatch", "apiUrl": "https://content.guardianapis.com/environment/2012/mar/29/wildlife-expert-big-garden-birdwatch", "isHosted": false, "pillarId": "pillar/news", "pillarName": "News"}, {"id": "news/datablog/2012/mar/29/heat-map-decc", "type": "article", "sectionId": "news", "sectionName": "News", "webPublicationDate": "2012-03-29T07:30:00Z", "webTitle": "The heat map of England", "webUrl": "https://www.theguardian.com/news/datablog/2012/mar/29/heat-map-decc", "apiUrl": "https://content.guardianapis.com/news/datablog/2012/mar/29/heat-map-decc", "isHosted": false, "pillarId": "pillar/news", "pillarName": "News"}, {"id": "world/2012/mar/29/captain-scott-centenary-memorial-service", "type": "article", "sectionId": "world", "sectionName": "World news", "webPublicationDate": "2012-03-29T06:00:03Z", "webTitle": "Captain Scott's doomed polar expedition remembered at St Paul's", "webUrl": "https://www.theguardian.com/world/2012/mar/29/captain-scott-centenary-memorial-service", "apiUrl": "https://content.guardianapis.com/world/2012/mar/29/captain-scott-centenary-memorial-service", "isHosted": false, "pillarId": "pillar/news", "pillarName": "News"}, {"id": "environment/2012/mar/29/easter-egg-packaging-waste", "type": "article", "sectionId": "environment", "sectionName": "Environment", "webPublicationDate": "2012-03-28T23:02:01Z", "webTitle": "Easter-egg makers not doing enough to cut packaging, says MP", "webUrl": "https://www.theguardian.com/environment/2012/mar/29/easter-egg-packaging-waste", "apiUrl": "https://content.guardianapis.com/environment/2012/mar/29/easter-egg-packaging-waste", "isHosted": false, "pillarId": "pillar/news", "pillarName": "News"}, {"id": "politics/2012/mar/28/judgments-national-planning-policy-framework", "type": "article", "sectionId": "politics", "sectionName": "Politics", "webPublicationDate": "2012-03-28T19:59:02Z", "webTitle": "Letters: Judgments on the planning policy framework", "webUrl": "https://www.theguardian.com/politics/2012/mar/28/judgments-national-planning-policy-framework", "apiUrl": "https://content.guardianapis.com/politics/2012/mar/28/judgments-national-planning-policy-framework", "isHosted": false, "pillarId": "pillar/news", "pillarName": "News"}, {"id": "environment/the-northerner/2012/mar/28/collyweston-quarry-northamptonshire-minibeast-menagerie", "type": "article", "sectionId": "environment", "sectionName": "Environment", "webPublicationDate": "2012-03-28T19:59:00Z", "webTitle": "Country diary: Collyweston quarry, Northamptonshire: Minibeast menagerie", "webUrl": "https://www.theguardian.com/environment/the-northerner/2012/mar/28/collyweston-quarry-northamptonshire-minibeast-menagerie", "apiUrl": "https://content.guardianapis.com/environment/the-northerner/2012/mar/28/collyweston-quarry-northamptonshire-minibeast-menagerie", "isHosted": false, "pillarId": "pillar/news", "pillarName": "News"}, {"id": "stage/theatreblog/2012/mar/28/young-vic-low-carbon-footprint-play", "type": "article", "sectionId": "stage", "sectionName": "Stage", "webPublicationDate": "2012-03-28T16:26:05Z", "webTitle": "Classics for a New Climate: how to produce a low-carbon-footprint play?", "webUrl": "https://www.theguardian.com/stage/theatreblog/2012/mar/28/young-vic-low-carbon-footprint-play", "apiUrl": "https://content.guardianapis.com/stage/theatreblog/2012/mar/28/young-vic-low-carbon-footprint-play", "isHosted": false, "pillarId": "pillar/arts", "pillarName": "Arts"}, {"id": "environment/picture/2012/mar/28/historic-heat-america-big-picture", "type": "picture", "sectionId": "environment", "sectionName": "Environment", "webPublicationDate": "2012-03-28T14:56:29Z", "webTitle": "Historic heat in north America in March 2012 \u2013 big picture", "webUrl": "https://www.theguardian.com/environment/picture/2012/mar/28/historic-heat-america-big-picture", "apiUrl": "https://content.guardianapis.com/environment/picture/2012/mar/28/historic-heat-america-big-picture", "isHosted": false, "pillarId": "pillar/news", "pillarName": "News"}, {"id": "uk/2012/mar/28/captain-scott-antarctic-centenary-profile", "type": "article", "sectionId": "uk-news", "sectionName": "UK news", "webPublicationDate": "2012-03-28T14:54:18Z", "webTitle": "Captain Scott centenary: Storm rages around polar explorer's reputation", "webUrl": "https://www.theguardian.com/uk/2012/mar/28/captain-scott-antarctic-centenary-profile", "apiUrl": "https://content.guardianapis.com/uk/2012/mar/28/captain-scott-antarctic-centenary-profile", "isHosted": false, "pillarId": "pillar/news", "pillarName": "News"}, {"id": "environment/2012/mar/28/green-news-roundup", "type": "article", "sectionId": "environment", "sectionName": "Environment", "webPublicationDate": "2012-03-28T14:43:21Z", "webTitle": "Green news roundup: Gas rig leak, drought and Planning reform", "webUrl": "https://www.theguardian.com/environment/2012/mar/28/green-news-roundup", "apiUrl": "https://content.guardianapis.com/environment/2012/mar/28/green-news-roundup", "isHosted": false, "pillarId": "pillar/news", "pillarName": "News"}, {"id": "environment/2012/mar/28/fears-explosion-leaking-north-sea-gas", "type": "article", "sectionId": "environment", "sectionName": "Environment", "webPublicationDate": "2012-03-28T13:01:02Z", "webTitle": "Fears grow over pollution risk from leaking North Sea gas rig", "webUrl": "https://www.theguardian.com/environment/2012/mar/28/fears-explosion-leaking-north-sea-gas", "apiUrl": "https://content.guardianapis.com/environment/2012/mar/28/fears-explosion-leaking-north-sea-gas", "isHosted": false, "pillarId": "pillar/news", "pillarName": "News"}, {"id": "science/video/2012/mar/28/science-kinetic-sculpture-video", "type": "video", "sectionId": "science", "sectionName": "Science", "webPublicationDate": "2012-03-28T12:01:00Z", "webTitle": "Who says science is boring? Watch the world's most extraordinary 'kinetic sculpture' - video", "webUrl": "https://www.theguardian.com/science/video/2012/mar/28/science-kinetic-sculpture-video", "apiUrl": "https://content.guardianapis.com/science/video/2012/mar/28/science-kinetic-sculpture-video", "isHosted": false, "pillarId": "pillar/news", "pillarName": "News"}, {"id": "news/datablog/2012/mar/28/nasa-animations-perpetual-oceans-moon", "type": "article", "sectionId": "news", "sectionName": "News", "webPublicationDate": "2012-03-28T10:51:23Z", "webTitle": "Nasa's animations: from the perpetual oceans to the surface of the sun and moon", "webUrl": "https://www.theguardian.com/news/datablog/2012/mar/28/nasa-animations-perpetual-oceans-moon", "apiUrl": "https://content.guardianapis.com/news/datablog/2012/mar/28/nasa-animations-perpetual-oceans-moon", "isHosted": false, "pillarId": "pillar/news", "pillarName": "News"}, {"id": "environment/2012/mar/28/carbon-reporting-tories-fail-environment-test", "type": "article", "sectionId": "environment", "sectionName": "Environment", "webPublicationDate": "2012-03-28T10:37:55Z", "webTitle": "No decision on carbon reporting? Tories fail every environment test | Mary Creagh", "webUrl": "https://www.theguardian.com/environment/2012/mar/28/carbon-reporting-tories-fail-environment-test", "apiUrl": "https://content.guardianapis.com/environment/2012/mar/28/carbon-reporting-tories-fail-environment-test", "isHosted": false, "pillarId": "pillar/news", "pillarName": "News"}, {"id": "business/2012/mar/28/flare-burning-north-sea-gas-leak-total", "type": "article", "sectionId": "business", "sectionName": "Business", "webPublicationDate": "2012-03-28T07:47:38Z", "webTitle": "Flare still burning on North Sea gas leak platform", "webUrl": "https://www.theguardian.com/business/2012/mar/28/flare-burning-north-sea-gas-leak-total", "apiUrl": "https://content.guardianapis.com/business/2012/mar/28/flare-burning-north-sea-gas-leak-total", "isHosted": false, "pillarId": "pillar/news", "pillarName": "News"}, {"id": "environment/2012/mar/28/fukushima-reactor-radiation-levels", "type": "article", "sectionId": "environment", "sectionName": "Environment", "webPublicationDate": "2012-03-28T06:44:07Z", "webTitle": "Fukushima reactor shows radiation levels much higher than thought", "webUrl": "https://www.theguardian.com/environment/2012/mar/28/fukushima-reactor-radiation-levels", "apiUrl": "https://content.guardianapis.com/environment/2012/mar/28/fukushima-reactor-radiation-levels", "isHosted": false, "pillarId": "pillar/news", "pillarName": "News"}, {"id": "commentisfree/2012/mar/27/planning-builders-charter-lawyers-delight-editorial", "type": "article", "sectionId": "commentisfree", "sectionName": "Opinion", "webPublicationDate": "2012-03-27T21:58:42Z", "webTitle": "Planning: from builders' charter to lawyers' delight | Editorial", "webUrl": "https://www.theguardian.com/commentisfree/2012/mar/27/planning-builders-charter-lawyers-delight-editorial", "apiUrl": "https://content.guardianapis.com/commentisfree/2012/mar/27/planning-builders-charter-lawyers-delight-editorial", "isHosted": false, "pillarId": "pillar/opinion", "pillarName": "Opinion"}, {"id": "environment/video/2012/mar/27/james-cameron-ocean-deepest-video", "type": "video", "sectionId": "environment", "sectionName": "Environment", "webPublicationDate": "2012-03-27T20:33:00Z", "webTitle": "Footage from James Cameron's journey to the ocean's deepest point - video", "webUrl": "https://www.theguardian.com/environment/video/2012/mar/27/james-cameron-ocean-deepest-video", "apiUrl": "https://content.guardianapis.com/environment/video/2012/mar/27/james-cameron-ocean-deepest-video", "isHosted": false, "pillarId": "pillar/news", "pillarName": "News"}]}}