{"response": {"status": "ok", "userTier": "developer", "total": 90624, "startIndex": 1, "pageSize": 50, "currentPage": 1, "pages": 1813, "orderBy": "newest", "results": [{"id": "football/2014/mar/30/jose-mourinho-chelsea-strikers", "type": "article", "sectionId": "football", "sectionName": "Football", "webPublicationDate": "2014-03-30T22:05:00Z", "webTitle": "Jos\u00e9 Mourinho set for clearout of Chelsea strikers in summer reshuffle", "webUrl": "https://www.theguardian.com/football/2014/mar/30/jose-mourinho-chelsea-strikers", "apiUrl": "https://content.guardianapis.com/football/2014/mar/30/jose-mourinho-chelsea-strikers", "isHosted": false, "pillarId": "pillar/sport", "pillarName": "Sport"}, {"id": "football/2014/mar/30/jose-mourinho-chelsea-crystal-palace", "type": "article", "sectionId": "football", "sectionName": "Football", "webPublicationDate": "2014-03-30T22:02:00Z", "webTitle": "Jos\u00e9 Mourinho: Chelsea's big players went missing against Crystal Palace", "webUrl": "https://www.theguardian.com/football/2014/mar/30/jose-mourinho-chelsea-crystal-palace", "apiUrl": "https://content.guardianapis.com/football/2014/mar/30/jose-mourinho-chelsea-crystal-palace", "isHosted": false, "pillarId": "pillar/sport", "pillarName": "Sport"}, {"id": "football/blog/2014/mar/30/liverpool-tottenham-hotspur-five-talking-points", "type": "article", "sectionId": "football", "sectionName": "Football", "webPublicationDate": "2014-03-30T22:00:00Z", "webTitle": "Liverpool 4-0 Tottenham Hotspur \u2013 five talking points | Sachin Nakrani", "webUrl": "https://www.theguardian.com/football/blog/2014/mar/30/liverpool-tottenham-hotspur-five-talking-points", "apiUrl": "https://content.guardianapis.com/football/blog/2014/mar/30/liverpool-tottenham-hotspur-five-talking-points", "isHosted": false, "pillarId": "pillar/sport", "pillarName": "Sport"}, {"id": "football/football-league-blog/2014/mar/30/york-city-burton", "type": "article", "sectionId": "football", "sectionName": "Football", "webPublicationDate": "2014-03-30T21:58:00Z", "webTitle": "In-form York looking upwards after exhilarating draw with Burton", "webUrl": "https://www.theguardian.com/football/football-league-blog/2014/mar/30/york-city-burton", "apiUrl": "https://content.guardianapis.com/football/football-league-blog/2014/mar/30/york-city-burton", "isHosted": false, "pillarId": "pillar/sport", "pillarName": "Sport"}, {"id": "football/2014/mar/30/manchester-united-aston-villa-match-report", "type": "article", "sectionId": "football", "sectionName": "Football", "webPublicationDate": "2014-03-30T21:48:00Z", "webTitle": "Manchester United stretched to the limit after seeing off Aston Villa", "webUrl": "https://www.theguardian.com/football/2014/mar/30/manchester-united-aston-villa-match-report", "apiUrl": "https://content.guardianapis.com/football/2014/mar/30/manchester-united-aston-villa-match-report", "isHosted": false, "pillarId": "pillar/sport", "pillarName": "Sport"}, {"id": "football/2014/mar/30/brendan-rodgers-liverpool-manchester-city-chelsea-tottenham", "type": "article", "sectionId": "football", "sectionName": "Football", "webPublicationDate": "2014-03-30T21:46:00Z", "webTitle": "Brendan Rodgers fires title warning to Manchester City and Chelsea", "webUrl": "https://www.theguardian.com/football/2014/mar/30/brendan-rodgers-liverpool-manchester-city-chelsea-tottenham", "apiUrl": "https://content.guardianapis.com/football/2014/mar/30/brendan-rodgers-liverpool-manchester-city-chelsea-tottenham", "isHosted": false, "pillarId": "pillar/sport", "pillarName": "Sport"}, {"id": "football/2014/mar/30/swansea-norwich-chris-hughton", "type": "article", "sectionId": "football", "sectionName": "Football", "webPublicationDate": "2014-03-30T21:31:02Z", "webTitle": "Norwich's Chris Hughton feels pressure as slick Swansea turn on style", "webUrl": "https://www.theguardian.com/football/2014/mar/30/swansea-norwich-chris-hughton", "apiUrl": "https://content.guardianapis.com/football/2014/mar/30/swansea-norwich-chris-hughton", "isHosted": false, "pillarId": "pillar/sport", "pillarName": "Sport"}, {"id": "football/2014/mar/30/manchester-city-draw-arsenal-manuel-pellegrini", "type": "article", "sectionId": "football", "sectionName": "Football", "webPublicationDate": "2014-03-30T21:31:00Z", "webTitle": "Manchester City draw at Arsenal calms Manuel Pellegrini's worries", "webUrl": "https://www.theguardian.com/football/2014/mar/30/manchester-city-draw-arsenal-manuel-pellegrini", "apiUrl": "https://content.guardianapis.com/football/2014/mar/30/manchester-city-draw-arsenal-manuel-pellegrini", "isHosted": false, "pillarId": "pillar/sport", "pillarName": "Sport"}, {"id": "football/2014/mar/30/southampton-newcastle-united-premier-league-matchreport", "type": "article", "sectionId": "football", "sectionName": "Football", "webPublicationDate": "2014-03-30T21:29:00Z", "webTitle": "Southampton's Adam Lallana produces masterclass in rout of Newcastle", "webUrl": "https://www.theguardian.com/football/2014/mar/30/southampton-newcastle-united-premier-league-matchreport", "apiUrl": "https://content.guardianapis.com/football/2014/mar/30/southampton-newcastle-united-premier-league-matchreport", "isHosted": false, "pillarId": "pillar/sport", "pillarName": "Sport"}, {"id": "football/2014/mar/30/west-bromwich-cardiff-premier-league", "type": "article", "sectionId": "football", "sectionName": "Football", "webPublicationDate": "2014-03-30T21:00:00Z", "webTitle": "Cardiff's dramatic draw at West Bromwich provides psychological lift", "webUrl": "https://www.theguardian.com/football/2014/mar/30/west-bromwich-cardiff-premier-league", "apiUrl": "https://content.guardianapis.com/football/2014/mar/30/west-bromwich-cardiff-premier-league", "isHosted": false, "pillarId": "pillar/sport", "pillarName": "Sport"}, {"id": "football/blog/2014/mar/30/brendan-rogers-tactics-dominate-tim-sherwood", "type": "article", "sectionId": "football", "sectionName": "Football", "webPublicationDate": "2014-03-30T18:02:27Z", "webTitle": "Brendan Rodgers' clever tactics outfox Tim Sherwood's shambolic Spurs", "webUrl": "https://www.theguardian.com/football/blog/2014/mar/30/brendan-rogers-tactics-dominate-tim-sherwood", "apiUrl": "https://content.guardianapis.com/football/blog/2014/mar/30/brendan-rogers-tactics-dominate-tim-sherwood", "isHosted": false, "pillarId": "pillar/sport", "pillarName": "Sport"}, {"id": "football/2014/mar/30/liverpool-tottenham-hotspur-live", "type": "liveblog", "sectionId": "football", "sectionName": "Football", "webPublicationDate": "2014-03-30T16:53:55Z", "webTitle": "Liverpool v Tottenham Hotspur \u2013 as it happened! | Ian McCourt", "webUrl": "https://www.theguardian.com/football/2014/mar/30/liverpool-tottenham-hotspur-live", "apiUrl": "https://content.guardianapis.com/football/2014/mar/30/liverpool-tottenham-hotspur-live", "isHosted": false, "pillarId": "pillar/sport", "pillarName": "Sport"}, {"id": "football/gallery/2014/mar/30/liverpool-tottenham-hotspur-premier-league-in-pictures", "type": "gallery", "sectionId": "football", "sectionName": "Football", "webPublicationDate": "2014-03-30T15:50:00Z", "webTitle": "Liverpool v Tottenham Hotspur \u2013 in pictures", "webUrl": "https://www.theguardian.com/football/gallery/2014/mar/30/liverpool-tottenham-hotspur-premier-league-in-pictures", "apiUrl": "https://content.guardianapis.com/football/gallery/2014/mar/30/liverpool-tottenham-hotspur-premier-league-in-pictures", "isHosted": false, "pillarId": "pillar/sport", "pillarName": "Sport"}, {"id": "football/2014/mar/30/johnstones-paint-trophy-peterborough-beat-chesterfield", "type": "article", "sectionId": "football", "sectionName": "Football", "webPublicationDate": "2014-03-30T15:43:19Z", "webTitle": "Chesterfield 1-3 Peterborough | Johnstone's Paint Trophy final report", "webUrl": "https://www.theguardian.com/football/2014/mar/30/johnstones-paint-trophy-peterborough-beat-chesterfield", "apiUrl": "https://content.guardianapis.com/football/2014/mar/30/johnstones-paint-trophy-peterborough-beat-chesterfield", "isHosted": false, "pillarId": "pillar/sport", "pillarName": "Sport"}, {"id": "football/2014/mar/30/fulham-everton-premier-league", "type": "article", "sectionId": "football", "sectionName": "Football", "webPublicationDate": "2014-03-30T14:35:17Z", "webTitle": "Fulham 1-3 Everton | Premier League match report", "webUrl": "https://www.theguardian.com/football/2014/mar/30/fulham-everton-premier-league", "apiUrl": "https://content.guardianapis.com/football/2014/mar/30/fulham-everton-premier-league", "isHosted": false, "pillarId": "pillar/sport", "pillarName": "Sport"}, {"id": "football/2014/mar/30/fulham-everton-live-football-mbm", "type": "liveblog", "sectionId": "football", "sectionName": "Football", "webPublicationDate": "2014-03-30T14:35:04Z", "webTitle": "Fulham v Everton \u2013 as it happened | Daniel Harris", "webUrl": "https://www.theguardian.com/football/2014/mar/30/fulham-everton-live-football-mbm", "apiUrl": "https://content.guardianapis.com/football/2014/mar/30/fulham-everton-live-football-mbm", "isHosted": false, "pillarId": "pillar/sport", "pillarName": "Sport"}, {"id": "football/blog/2014/mar/30/a-league-what-we-learned-this-weekend", "type": "article", "sectionId": "football", "sectionName": "Football", "webPublicationDate": "2014-03-30T11:18:39Z", "webTitle": "A-League: what we learned this weekend", "webUrl": "https://www.theguardian.com/football/blog/2014/mar/30/a-league-what-we-learned-this-weekend", "apiUrl": "https://content.guardianapis.com/football/blog/2014/mar/30/a-league-what-we-learned-this-weekend", "isHosted": false, "pillarId": "pillar/sport", "pillarName": "Sport"}, {"id": "culture/2014/mar/30/on-my-radar-simon-stephens", "type": "article", "sectionId": "culture", "sectionName": "Culture", "webPublicationDate": "2014-03-30T00:02:00Z", "webTitle": "On my radar: Simon Stephens' cultural highlights", "webUrl": "https://www.theguardian.com/culture/2014/mar/30/on-my-radar-simon-stephens", "apiUrl": "https://content.guardianapis.com/culture/2014/mar/30/on-my-radar-simon-stephens", "isHosted": false, "pillarId": "pillar/arts", "pillarName": "Arts"}, {"id": "football/2014/mar/29/liverpool-brendan-rodgers-tim-sherwood-spurs", "type": "article", "sectionId": "football", "sectionName": "Football", "webPublicationDate": "2014-03-29T23:00:00Z", "webTitle": "Liverpool's Brendan Rodgers puts pressure back on Tim Sherwood's Spurs", "webUrl": "https://www.theguardian.com/football/2014/mar/29/liverpool-brendan-rodgers-tim-sherwood-spurs", "apiUrl": "https://content.guardianapis.com/football/2014/mar/29/liverpool-brendan-rodgers-tim-sherwood-spurs", "isHosted": false, "pillarId": "pillar/sport", "pillarName": "Sport"}, {"id": "football/blog/2014/mar/29/arsenal-manchester-city-david-silva", "type": "article", "sectionId": "football", "sectionName": "Football", "webPublicationDate": "2014-03-29T22:59:52Z", "webTitle": "Arsenal find energy to counter guile of Manchester City's David Silva | Barney Ronay", "webUrl": "https://www.theguardian.com/football/blog/2014/mar/29/arsenal-manchester-city-david-silva", "apiUrl": "https://content.guardianapis.com/football/blog/2014/mar/29/arsenal-manchester-city-david-silva", "isHosted": false, "pillarId": "pillar/sport", "pillarName": "Sport"}, {"id": "football/blog/2014/mar/29/coventry-city-fans-deserve-better", "type": "article", "sectionId": "football", "sectionName": "Football", "webPublicationDate": "2014-03-29T22:12:52Z", "webTitle": "Coventry City fans deserve better than watching their team from a hill | Daniel Taylor", "webUrl": "https://www.theguardian.com/football/blog/2014/mar/29/coventry-city-fans-deserve-better", "apiUrl": "https://content.guardianapis.com/football/blog/2014/mar/29/coventry-city-fans-deserve-better", "isHosted": false, "pillarId": "pillar/sport", "pillarName": "Sport"}, {"id": "football/2014/mar/29/zlatan-ibrahimovic-top-10-championsleague-goals", "type": "article", "sectionId": "football", "sectionName": "Football", "webPublicationDate": "2014-03-29T22:00:14Z", "webTitle": "Zlatan Ibrahimovic's top 10 Champions League goals \u2026so far", "webUrl": "https://www.theguardian.com/football/2014/mar/29/zlatan-ibrahimovic-top-10-championsleague-goals", "apiUrl": "https://content.guardianapis.com/football/2014/mar/29/zlatan-ibrahimovic-top-10-championsleague-goals", "isHosted": false, "pillarId": "pillar/sport", "pillarName": "Sport"}, {"id": "football/blog/2014/mar/29/david-moyes-everton-ways-manchester-united", "type": "article", "sectionId": "football", "sectionName": "Football", "webPublicationDate": "2014-03-29T22:00:04Z", "webTitle": "David Moyes needs to shrug off his old Everton ways at Manchester United", "webUrl": "https://www.theguardian.com/football/blog/2014/mar/29/david-moyes-everton-ways-manchester-united", "apiUrl": "https://content.guardianapis.com/football/blog/2014/mar/29/david-moyes-everton-ways-manchester-united", "isHosted": false, "pillarId": "pillar/sport", "pillarName": "Sport"}, {"id": "football/2014/mar/29/psg-zlatan-ibrahimovic-king-europe", "type": "article", "sectionId": "football", "sectionName": "Football", "webPublicationDate": "2014-03-29T22:00:04Z", "webTitle": "PSG hail Zlatan Ibrahimovic as the sun king of Europe", "webUrl": "https://www.theguardian.com/football/2014/mar/29/psg-zlatan-ibrahimovic-king-europe", "apiUrl": "https://content.guardianapis.com/football/2014/mar/29/psg-zlatan-ibrahimovic-king-europe", "isHosted": false, "pillarId": "pillar/sport", "pillarName": "Sport"}, {"id": "football/2014/mar/29/johnstones-paint-trophy-final-chesterfield-peterborough", "type": "article", "sectionId": "football", "sectionName": "Football", "webPublicationDate": "2014-03-29T22:00:03Z", "webTitle": "Chesterfield and Peterborough a Johnstone's Paint Trophy final to enjoy", "webUrl": "https://www.theguardian.com/football/2014/mar/29/johnstones-paint-trophy-final-chesterfield-peterborough", "apiUrl": "https://content.guardianapis.com/football/2014/mar/29/johnstones-paint-trophy-final-chesterfield-peterborough", "isHosted": false, "pillarId": "pillar/sport", "pillarName": "Sport"}, {"id": "football/blog/2014/mar/29/david-moyes-manchester-united-bayern-munich", "type": "article", "sectionId": "football", "sectionName": "Football", "webPublicationDate": "2014-03-29T22:00:01Z", "webTitle": "David Moyes' Manchester United face huge task against rampant Bayern", "webUrl": "https://www.theguardian.com/football/blog/2014/mar/29/david-moyes-manchester-united-bayern-munich", "apiUrl": "https://content.guardianapis.com/football/blog/2014/mar/29/david-moyes-manchester-united-bayern-munich", "isHosted": false, "pillarId": "pillar/sport", "pillarName": "Sport"}, {"id": "football/gallery/2014/mar/29/premier-league-arsenal-manchester-city-in-pictures", "type": "gallery", "sectionId": "football", "sectionName": "Football", "webPublicationDate": "2014-03-29T21:43:00Z", "webTitle": "Premier League: Arsenal v Manchester City \u2013 in pictures", "webUrl": "https://www.theguardian.com/football/gallery/2014/mar/29/premier-league-arsenal-manchester-city-in-pictures", "apiUrl": "https://content.guardianapis.com/football/gallery/2014/mar/29/premier-league-arsenal-manchester-city-in-pictures", "isHosted": false, "pillarId": "pillar/sport", "pillarName": "Sport"}, {"id": "football/2014/mar/29/saturday-sundae-pulis-histon-bus", "type": "article", "sectionId": "football", "sectionName": "Football", "webPublicationDate": "2014-03-29T21:19:23Z", "webTitle": "Saturday Sundae: Pulis shines, while Histon's bus takes a wrong turn", "webUrl": "https://www.theguardian.com/football/2014/mar/29/saturday-sundae-pulis-histon-bus", "apiUrl": "https://content.guardianapis.com/football/2014/mar/29/saturday-sundae-pulis-histon-bus", "isHosted": false, "pillarId": "pillar/sport", "pillarName": "Sport"}, {"id": "football/2014/mar/29/said-and-done-ken-bates", "type": "article", "sectionId": "football", "sectionName": "Football", "webPublicationDate": "2014-03-29T21:00:25Z", "webTitle": "Said & Done: the week in football \u2013 Fifa, Leeds and Shakira", "webUrl": "https://www.theguardian.com/football/2014/mar/29/said-and-done-ken-bates", "apiUrl": "https://content.guardianapis.com/football/2014/mar/29/said-and-done-ken-bates", "isHosted": false, "pillarId": "pillar/sport", "pillarName": "Sport"}, {"id": "football/2014/mar/29/arsenal-manchester-city-premier-league", "type": "article", "sectionId": "football", "sectionName": "Football", "webPublicationDate": "2014-03-29T19:45:09Z", "webTitle": "Arsenal 1-1 Manchester City | Premier League match report", "webUrl": "https://www.theguardian.com/football/2014/mar/29/arsenal-manchester-city-premier-league", "apiUrl": "https://content.guardianapis.com/football/2014/mar/29/arsenal-manchester-city-premier-league", "isHosted": false, "pillarId": "pillar/sport", "pillarName": "Sport"}, {"id": "football/2014/mar/29/chelsea-jose-mourinho", "type": "article", "sectionId": "football", "sectionName": "Football", "webPublicationDate": "2014-03-29T19:31:54Z", "webTitle": "Jos\u00e9 Mourinho writes off Chelsea's chances of the Premier League title", "webUrl": "https://www.theguardian.com/football/2014/mar/29/chelsea-jose-mourinho", "apiUrl": "https://content.guardianapis.com/football/2014/mar/29/chelsea-jose-mourinho", "isHosted": false, "pillarId": "pillar/sport", "pillarName": "Sport"}, {"id": "football/football-league-blog/2014/mar/29/football-league-championship", "type": "article", "sectionId": "football", "sectionName": "Football", "webPublicationDate": "2014-03-29T19:30:25Z", "webTitle": "Football League: your thoughts", "webUrl": "https://www.theguardian.com/football/football-league-blog/2014/mar/29/football-league-championship", "apiUrl": "https://content.guardianapis.com/football/football-league-blog/2014/mar/29/football-league-championship", "isHosted": false, "pillarId": "pillar/sport", "pillarName": "Sport"}, {"id": "football/2014/mar/29/arsenal-manchester-city-live-mbm", "type": "liveblog", "sectionId": "football", "sectionName": "Football", "webPublicationDate": "2014-03-29T19:24:21Z", "webTitle": "Arsenal v Manchester City \u2013 as it happened | Scott Murray", "webUrl": "https://www.theguardian.com/football/2014/mar/29/arsenal-manchester-city-live-mbm", "apiUrl": "https://content.guardianapis.com/football/2014/mar/29/arsenal-manchester-city-live-mbm", "isHosted": false, "pillarId": "pillar/sport", "pillarName": "Sport"}, {"id": "football/2014/mar/29/aberdeen-dundee-united-motherwell-scottish-premiership", "type": "article", "sectionId": "football", "sectionName": "Football", "webPublicationDate": "2014-03-29T19:20:10Z", "webTitle": "Niall McGinn's goal earns Dons share of the points against Dundee United", "webUrl": "https://www.theguardian.com/football/2014/mar/29/aberdeen-dundee-united-motherwell-scottish-premiership", "apiUrl": "https://content.guardianapis.com/football/2014/mar/29/aberdeen-dundee-united-motherwell-scottish-premiership", "isHosted": false, "pillarId": "pillar/sport", "pillarName": "Sport"}, {"id": "football/2014/mar/29/david-moyes-manchester-united-banner", "type": "article", "sectionId": "football", "sectionName": "Football", "webPublicationDate": "2014-03-29T19:19:36Z", "webTitle": "Plane sailing for David Moyes as Manchester United fans boo banner", "webUrl": "https://www.theguardian.com/football/2014/mar/29/david-moyes-manchester-united-banner", "apiUrl": "https://content.guardianapis.com/football/2014/mar/29/david-moyes-manchester-united-banner", "isHosted": false, "pillarId": "pillar/sport", "pillarName": "Sport"}, {"id": "football/2014/mar/29/west-bromwich-albion-cardiff-city-premier-league-match-report", "type": "article", "sectionId": "football", "sectionName": "Football", "webPublicationDate": "2014-03-29T17:16:55Z", "webTitle": "West Bromwich Albion 3-3 Cardiff City | Premier League match report", "webUrl": "https://www.theguardian.com/football/2014/mar/29/west-bromwich-albion-cardiff-city-premier-league-match-report", "apiUrl": "https://content.guardianapis.com/football/2014/mar/29/west-bromwich-albion-cardiff-city-premier-league-match-report", "isHosted": false, "pillarId": "pillar/sport", "pillarName": "Sport"}, {"id": "football/2014/mar/29/crystal-palace-chelsea-premier-league-match-report", "type": "article", "sectionId": "football", "sectionName": "Football", "webPublicationDate": "2014-03-29T17:12:59Z", "webTitle": "Crystal Palace 1-0 Chelsea | Premier League match report", "webUrl": "https://www.theguardian.com/football/2014/mar/29/crystal-palace-chelsea-premier-league-match-report", "apiUrl": "https://content.guardianapis.com/football/2014/mar/29/crystal-palace-chelsea-premier-league-match-report", "isHosted": false, "pillarId": "pillar/sport", "pillarName": "Sport"}, {"id": "football/2014/mar/29/premier-league-clockwatch-live", "type": "liveblog", "sectionId": "football", "sectionName": "Football", "webPublicationDate": "2014-03-29T17:08:13Z", "webTitle": "Premier League clockwatch - as it happened | Niall McVeigh", "webUrl": "https://www.theguardian.com/football/2014/mar/29/premier-league-clockwatch-live", "apiUrl": "https://content.guardianapis.com/football/2014/mar/29/premier-league-clockwatch-live", "isHosted": false, "pillarId": "pillar/sport", "pillarName": "Sport"}, {"id": "football/2014/mar/29/southampton-newcastle-united-premier-league-match-report", "type": "article", "sectionId": "football", "sectionName": "Football", "webPublicationDate": "2014-03-29T17:04:27Z", "webTitle": "Southampton 4-0 Newcastle United | Premier League match report", "webUrl": "https://www.theguardian.com/football/2014/mar/29/southampton-newcastle-united-premier-league-match-report", "apiUrl": "https://content.guardianapis.com/football/2014/mar/29/southampton-newcastle-united-premier-league-match-report", "isHosted": false, "pillarId": "pillar/sport", "pillarName": "Sport"}, {"id": "football/2014/mar/29/swansea-city-norwich-city-premier-league-match-report", "type": "article", "sectionId": "football", "sectionName": "Football", "webPublicationDate": "2014-03-29T16:59:33Z", "webTitle": "Swansea City 3-0 Norwich City | Premier League match report", "webUrl": "https://www.theguardian.com/football/2014/mar/29/swansea-city-norwich-city-premier-league-match-report", "apiUrl": "https://content.guardianapis.com/football/2014/mar/29/swansea-city-norwich-city-premier-league-match-report", "isHosted": false, "pillarId": "pillar/sport", "pillarName": "Sport"}, {"id": "football/2014/mar/29/manchester-united-aston-villa-premier-league-match-report", "type": "article", "sectionId": "football", "sectionName": "Football", "webPublicationDate": "2014-03-29T14:47:32Z", "webTitle": "Manchester United 4-1 Aston Villa | Premier League match report", "webUrl": "https://www.theguardian.com/football/2014/mar/29/manchester-united-aston-villa-premier-league-match-report", "apiUrl": "https://content.guardianapis.com/football/2014/mar/29/manchester-united-aston-villa-premier-league-match-report", "isHosted": false, "pillarId": "pillar/sport", "pillarName": "Sport"}, {"id": "football/2014/mar/29/burnley-leicester-city-championship-match-report", "type": "article", "sectionId": "football", "sectionName": "Football", "webPublicationDate": "2014-03-29T14:40:13Z", "webTitle": "Burnley 0-2 Leicester City | Championship match report", "webUrl": "https://www.theguardian.com/football/2014/mar/29/burnley-leicester-city-championship-match-report", "apiUrl": "https://content.guardianapis.com/football/2014/mar/29/burnley-leicester-city-championship-match-report", "isHosted": false, "pillarId": "pillar/sport", "pillarName": "Sport"}, {"id": "football/2014/mar/29/manchester-united-aston-villa-live-mbm", "type": "liveblog", "sectionId": "football", "sectionName": "Football", "webPublicationDate": "2014-03-29T14:39:01Z", "webTitle": "Manchester United v Aston Villa \u2013 as it happened | Scott Murray", "webUrl": "https://www.theguardian.com/football/2014/mar/29/manchester-united-aston-villa-live-mbm", "apiUrl": "https://content.guardianapis.com/football/2014/mar/29/manchester-united-aston-villa-live-mbm", "isHosted": false, "pillarId": "pillar/sport", "pillarName": "Sport"}, {"id": "football/gallery/2014/mar/29/premier-league-saturday-matches-pictures-gallery", "type": "gallery", "sectionId": "football", "sectionName": "Football", "webPublicationDate": "2014-03-29T13:15:00Z", "webTitle": "Premier League: the weekend's matches \u2013 in pictures", "webUrl": "https://www.theguardian.com/football/gallery/2014/mar/29/premier-league-saturday-matches-pictures-gallery", "apiUrl": "https://content.guardianapis.com/football/gallery/2014/mar/29/premier-league-saturday-matches-pictures-gallery", "isHosted": false, "pillarId": "pillar/sport", "pillarName": "Sport"}, {"id": "football/2014/mar/29/manchester-united-david-moyes-out-banner-aston-villa", "type": "article", "sectionId": "football", "sectionName": "Football", "webPublicationDate": "2014-03-29T13:12:59Z", "webTitle": "Manchester United fans boo 'Moyes Out' banner flying at Aston Villa game", "webUrl": "https://www.theguardian.com/football/2014/mar/29/manchester-united-david-moyes-out-banner-aston-villa", "apiUrl": "https://content.guardianapis.com/football/2014/mar/29/manchester-united-david-moyes-out-banner-aston-villa", "isHosted": false, "pillarId": "pillar/sport", "pillarName": "Sport"}, {"id": "theobserver/gallery/2014/mar/29/observer-20-photography-manchester-united-pistorius", "type": "gallery", "sectionId": "artanddesign", "sectionName": "Art and design", "webPublicationDate": "2014-03-29T11:19:55Z", "webTitle": "The 20 photographs of the week", "webUrl": "https://www.theguardian.com/theobserver/gallery/2014/mar/29/observer-20-photography-manchester-united-pistorius", "apiUrl": "https://content.guardianapis.com/theobserver/gallery/2014/mar/29/observer-20-photography-manchester-united-pistorius", "isHosted": false, "pillarId": "pillar/arts", "pillarName": "Arts"}, {"id": "sport/blog/2014/mar/29/the-gifs-that-keep-on-giving-clasico-barcelona-trickshots", "type": "article", "sectionId": "sport", "sectionName": "Sport", "webPublicationDate": "2014-03-29T10:26:41Z", "webTitle": "The gifs that keep on giving: tricky archery, photobombs and Real goals", "webUrl": "https://www.theguardian.com/sport/blog/2014/mar/29/the-gifs-that-keep-on-giving-clasico-barcelona-trickshots", "apiUrl": "https://content.guardianapis.com/sport/blog/2014/mar/29/the-gifs-that-keep-on-giving-clasico-barcelona-trickshots", "isHosted": false, "pillarId": "pillar/sport", "pillarName": "Sport"}, {"id": "football/2014/mar/28/burnley-sean-dyche", "type": "article", "sectionId": "football", "sectionName": "Football", "webPublicationDate": "2014-03-28T23:01:00Z", "webTitle": "Burnley's Sean Dyche stays grounded as Premier League place beckons", "webUrl": "https://www.theguardian.com/football/2014/mar/28/burnley-sean-dyche", "apiUrl": "https://content.guardianapis.com/football/2014/mar/28/burnley-sean-dyche", "isHosted": false, "pillarId": "pillar/sport", "pillarName": "Sport"}, {"id": "football/2014/mar/28/david-moyes-manchester-united-ageing-squad", "type": "article", "sectionId": "football", "sectionName": "Football", "webPublicationDate": "2014-03-28T22:31:03Z", "webTitle": "David Moyes blames 'ageing' squad for Manchester United's poor showing", "webUrl": "https://www.theguardian.com/football/2014/mar/28/david-moyes-manchester-united-ageing-squad", "apiUrl": "https://content.guardianapis.com/football/2014/mar/28/david-moyes-manchester-united-ageing-squad", "isHosted": false, "pillarId": "pillar/sport", "pillarName": "Sport"}, {"id": "football/2014/mar/28/roberto-martinez-everton-champions-league", "type": "article", "sectionId": "football", "sectionName": "Football", "webPublicationDate": "2014-03-28T22:31:02Z", "webTitle": "Roberto Mart\u00ednez says Everton's youth will help grab Champions League spot", "webUrl": "https://www.theguardian.com/football/2014/mar/28/roberto-martinez-everton-champions-league", "apiUrl": "https://content.guardianapis.com/football/2014/mar/28/roberto-martinez-everton-champions-league", "isHosted": false, "pillarId": "pillar/sport", "pillarName": "Sport"}]}}