{"response": {"status": "ok", "userTier": "developer", "total": 131882, "startIndex": 1, "pageSize": 50, "currentPage": 1, "pages": 2638, "orderBy": "newest", "results": [{"id": "politics/2011/mar/31/hugh-muir-diary-jonathan-sedgwick", "type": "article", "sectionId": "politics", "sectionName": "Politics", "webPublicationDate": "2011-03-30T23:13:01Z", "webTitle": "Hugh Muir's diary", "webUrl": "https://www.theguardian.com/politics/2011/mar/31/hugh-muir-diary-jonathan-sedgwick", "apiUrl": "https://content.guardianapis.com/politics/2011/mar/31/hugh-muir-diary-jonathan-sedgwick", "isHosted": false, "pillarId": "pillar/news", "pillarName": "News"}, {"id": "commentisfree/2011/mar/31/arts-funding-creative-tensions-editorial", "type": "article", "sectionId": "commentisfree", "sectionName": "Opinion", "webPublicationDate": "2011-03-30T23:05:03Z", "webTitle": "Arts funding: creative tensions | Editorial", "webUrl": "https://www.theguardian.com/commentisfree/2011/mar/31/arts-funding-creative-tensions-editorial", "apiUrl": "https://content.guardianapis.com/commentisfree/2011/mar/31/arts-funding-creative-tensions-editorial", "isHosted": false, "pillarId": "pillar/opinion", "pillarName": "Opinion"}, {"id": "society/2011/mar/31/informed-debate-on-nhs-pensions", "type": "article", "sectionId": "society", "sectionName": "Society", "webPublicationDate": "2011-03-30T23:05:01Z", "webTitle": "Letter: Informed debate on NHS pensions", "webUrl": "https://www.theguardian.com/society/2011/mar/31/informed-debate-on-nhs-pensions", "apiUrl": "https://content.guardianapis.com/society/2011/mar/31/informed-debate-on-nhs-pensions", "isHosted": false, "pillarId": "pillar/news", "pillarName": "News"}, {"id": "society/2011/mar/31/nhs-confederation-presses-rethink-reforms", "type": "article", "sectionId": "society", "sectionName": "Society", "webPublicationDate": "2011-03-30T23:01:00Z", "webTitle": "NHS Confederation presses ministers to rethink health service reforms", "webUrl": "https://www.theguardian.com/society/2011/mar/31/nhs-confederation-presses-rethink-reforms", "apiUrl": "https://content.guardianapis.com/society/2011/mar/31/nhs-confederation-presses-rethink-reforms", "isHosted": false, "pillarId": "pillar/news", "pillarName": "News"}, {"id": "politics/2011/mar/30/nick-clegg-social-mobility-report", "type": "article", "sectionId": "politics", "sectionName": "Politics", "webPublicationDate": "2011-03-30T21:55:11Z", "webTitle": "Nick Clegg's new 'report card' aims to improve social mobility", "webUrl": "https://www.theguardian.com/politics/2011/mar/30/nick-clegg-social-mobility-report", "apiUrl": "https://content.guardianapis.com/politics/2011/mar/30/nick-clegg-social-mobility-report", "isHosted": false, "pillarId": "pillar/news", "pillarName": "News"}, {"id": "world/2011/mar/30/uganda-kenya", "type": "article", "sectionId": "world", "sectionName": "World news", "webPublicationDate": "2011-03-30T21:50:47Z", "webTitle": "Challenge to Cameron over torture claims", "webUrl": "https://www.theguardian.com/world/2011/mar/30/uganda-kenya", "apiUrl": "https://content.guardianapis.com/world/2011/mar/30/uganda-kenya", "isHosted": false, "pillarId": "pillar/news", "pillarName": "News"}, {"id": "world/2011/mar/30/libya-conflict-sides-short-ammunition", "type": "article", "sectionId": "world", "sectionName": "World news", "webPublicationDate": "2011-03-30T21:02:51Z", "webTitle": "Libya conflict leaves both sides running short of ammunition", "webUrl": "https://www.theguardian.com/world/2011/mar/30/libya-conflict-sides-short-ammunition", "apiUrl": "https://content.guardianapis.com/world/2011/mar/30/libya-conflict-sides-short-ammunition", "isHosted": false, "pillarId": "pillar/news", "pillarName": "News"}, {"id": "culture/charlottehigginsblog/2011/mar/30/arts-cuts-cultural-vandalism", "type": "article", "sectionId": "culture", "sectionName": "Culture", "webPublicationDate": "2011-03-30T20:26:03Z", "webTitle": "Arts cuts are an act of unthinking vandalism to the cultural landscape", "webUrl": "https://www.theguardian.com/culture/charlottehigginsblog/2011/mar/30/arts-cuts-cultural-vandalism", "apiUrl": "https://content.guardianapis.com/culture/charlottehigginsblog/2011/mar/30/arts-cuts-cultural-vandalism", "isHosted": false, "pillarId": "pillar/arts", "pillarName": "Arts"}, {"id": "lifeandstyle/2011/mar/30/mrs-camerons-diary-drawing", "type": "article", "sectionId": "commentisfree", "sectionName": "Opinion", "webPublicationDate": "2011-03-30T20:00:00Z", "webTitle": "Mrs Cameron's diary", "webUrl": "https://www.theguardian.com/lifeandstyle/2011/mar/30/mrs-camerons-diary-drawing", "apiUrl": "https://content.guardianapis.com/lifeandstyle/2011/mar/30/mrs-camerons-diary-drawing", "isHosted": false, "pillarId": "pillar/opinion", "pillarName": "Opinion"}, {"id": "politics/wintour-and-watt/2011/mar/30/davidcameron-arnold-schwarzenegger", "type": "article", "sectionId": "politics", "sectionName": "Politics", "webPublicationDate": "2011-03-30T19:58:00Z", "webTitle": "Arnold Schwarzenegger rallies to defence of David Cameron on Libya", "webUrl": "https://www.theguardian.com/politics/wintour-and-watt/2011/mar/30/davidcameron-arnold-schwarzenegger", "apiUrl": "https://content.guardianapis.com/politics/wintour-and-watt/2011/mar/30/davidcameron-arnold-schwarzenegger", "isHosted": false, "pillarId": "pillar/news", "pillarName": "News"}, {"id": "politics/2011/mar/30/schwarzenegger-cameron-secret-weapon-libya", "type": "article", "sectionId": "politics", "sectionName": "Politics", "webPublicationDate": "2011-03-30T19:53:43Z", "webTitle": "Arnold Schwarzenegger: David Cameron's secret weapon over Libya", "webUrl": "https://www.theguardian.com/politics/2011/mar/30/schwarzenegger-cameron-secret-weapon-libya", "apiUrl": "https://content.guardianapis.com/politics/2011/mar/30/schwarzenegger-cameron-secret-weapon-libya", "isHosted": false, "pillarId": "pillar/news", "pillarName": "News"}, {"id": "society/2011/mar/30/troops-run-prisons-strike", "type": "article", "sectionId": "society", "sectionName": "Society", "webPublicationDate": "2011-03-30T19:40:43Z", "webTitle": "Strikes over privatised prisons could lead to troops running them", "webUrl": "https://www.theguardian.com/society/2011/mar/30/troops-run-prisons-strike", "apiUrl": "https://content.guardianapis.com/society/2011/mar/30/troops-run-prisons-strike", "isHosted": false, "pillarId": "pillar/news", "pillarName": "News"}, {"id": "politics/2011/mar/30/huhne-goebbels-propaganda-av-referendum", "type": "article", "sectionId": "politics", "sectionName": "Politics", "webPublicationDate": "2011-03-30T19:18:33Z", "webTitle": "Chris Huhne accuses cabinet colleague of Nazi tactics over AV referendum", "webUrl": "https://www.theguardian.com/politics/2011/mar/30/huhne-goebbels-propaganda-av-referendum", "apiUrl": "https://content.guardianapis.com/politics/2011/mar/30/huhne-goebbels-propaganda-av-referendum", "isHosted": false, "pillarId": "pillar/news", "pillarName": "News"}, {"id": "media/2011/mar/30/mps-ask-rebekah-brooks-sun-payments-to-police", "type": "article", "sectionId": "media", "sectionName": "Media", "webPublicationDate": "2011-03-30T18:52:54Z", "webTitle": "MPs ask Rebekah Brooks for details of Sun's payments to police", "webUrl": "https://www.theguardian.com/media/2011/mar/30/mps-ask-rebekah-brooks-sun-payments-to-police", "apiUrl": "https://content.guardianapis.com/media/2011/mar/30/mps-ask-rebekah-brooks-sun-payments-to-police", "isHosted": false, "pillarId": "pillar/news", "pillarName": "News"}, {"id": "culture/2011/mar/30/arts-council-funding-cuts", "type": "article", "sectionId": "culture", "sectionName": "Culture", "webPublicationDate": "2011-03-30T17:36:17Z", "webTitle": "Arts Council funding: a day of mixed fortunes as cuts are announced", "webUrl": "https://www.theguardian.com/culture/2011/mar/30/arts-council-funding-cuts", "apiUrl": "https://content.guardianapis.com/culture/2011/mar/30/arts-council-funding-cuts", "isHosted": false, "pillarId": "pillar/arts", "pillarName": "Arts"}, {"id": "media/2011/mar/30/jeremy-hunt-news-corp-bskyb", "type": "article", "sectionId": "media", "sectionName": "Media", "webPublicationDate": "2011-03-30T17:30:48Z", "webTitle": "Jeremy Hunt to give final verdict on News Corp's BSkyB bid on 26 April", "webUrl": "https://www.theguardian.com/media/2011/mar/30/jeremy-hunt-news-corp-bskyb", "apiUrl": "https://content.guardianapis.com/media/2011/mar/30/jeremy-hunt-news-corp-bskyb", "isHosted": false, "pillarId": "pillar/news", "pillarName": "News"}, {"id": "world/2011/mar/30/libya-rebels-gaddafi-troops-brega", "type": "article", "sectionId": "world", "sectionName": "World news", "webPublicationDate": "2011-03-30T16:56:59Z", "webTitle": "Libya rebels flee as Gaddafi retakes Brega", "webUrl": "https://www.theguardian.com/world/2011/mar/30/libya-rebels-gaddafi-troops-brega", "apiUrl": "https://content.guardianapis.com/world/2011/mar/30/libya-rebels-gaddafi-troops-brega", "isHosted": false, "pillarId": "pillar/news", "pillarName": "News"}, {"id": "business/2011/mar/30/baa-forced-to-sell-two-airports", "type": "article", "sectionId": "business", "sectionName": "Business", "webPublicationDate": "2011-03-30T16:33:00Z", "webTitle": "BAA must still sell Stansted despite moratorium on new runways", "webUrl": "https://www.theguardian.com/business/2011/mar/30/baa-forced-to-sell-two-airports", "apiUrl": "https://content.guardianapis.com/business/2011/mar/30/baa-forced-to-sell-two-airports", "isHosted": false, "pillarId": "pillar/news", "pillarName": "News"}, {"id": "politics/audio/2011/mar/30/prime-ministers-questions", "type": "audio", "sectionId": "politics", "sectionName": "Politics", "webPublicationDate": "2011-03-30T15:40:01Z", "webTitle": "Prime minister's questions: 30 March 2011 - audio", "webUrl": "https://www.theguardian.com/politics/audio/2011/mar/30/prime-ministers-questions", "apiUrl": "https://content.guardianapis.com/politics/audio/2011/mar/30/prime-ministers-questions", "isHosted": false, "pillarId": "pillar/news", "pillarName": "News"}, {"id": "culture/2011/mar/30/arts-council-cuts", "type": "article", "sectionId": "culture", "sectionName": "Culture", "webPublicationDate": "2011-03-30T15:33:11Z", "webTitle": "Arts Council cuts spare big cultural institutions", "webUrl": "https://www.theguardian.com/culture/2011/mar/30/arts-council-cuts", "apiUrl": "https://content.guardianapis.com/culture/2011/mar/30/arts-council-cuts", "isHosted": false, "pillarId": "pillar/arts", "pillarName": "Arts"}, {"id": "commentisfree/2011/mar/30/ed-miliband-wedding-vote-winner", "type": "article", "sectionId": "commentisfree", "sectionName": "Opinion", "webPublicationDate": "2011-03-30T15:30:00Z", "webTitle": "Ed Miliband, do you take this woman to be your lawfully wedded vote-winner? | Zoe Williams", "webUrl": "https://www.theguardian.com/commentisfree/2011/mar/30/ed-miliband-wedding-vote-winner", "apiUrl": "https://content.guardianapis.com/commentisfree/2011/mar/30/ed-miliband-wedding-vote-winner", "isHosted": false, "pillarId": "pillar/opinion", "pillarName": "Opinion"}, {"id": "politics/2011/mar/30/david-cameron-questions-backbenchers-libya", "type": "article", "sectionId": "politics", "sectionName": "Politics", "webPublicationDate": "2011-03-30T15:00:00Z", "webTitle": "David Cameron to face questions from Tory backbenchers over Libya", "webUrl": "https://www.theguardian.com/politics/2011/mar/30/david-cameron-questions-backbenchers-libya", "apiUrl": "https://content.guardianapis.com/politics/2011/mar/30/david-cameron-questions-backbenchers-libya", "isHosted": false, "pillarId": "pillar/news", "pillarName": "News"}, {"id": "commentisfree/belief/2011/mar/30/harangued-unemployed-single-mother-jobs", "type": "article", "sectionId": "commentisfree", "sectionName": "Opinion", "webPublicationDate": "2011-03-30T15:00:00Z", "webTitle": "Welfare is an investment by the state | Amelia Shellan", "webUrl": "https://www.theguardian.com/commentisfree/belief/2011/mar/30/harangued-unemployed-single-mother-jobs", "apiUrl": "https://content.guardianapis.com/commentisfree/belief/2011/mar/30/harangued-unemployed-single-mother-jobs", "isHosted": false, "pillarId": "pillar/opinion", "pillarName": "Opinion"}, {"id": "politics/2011/mar/30/ed-miliband-justine-thornton-marry-may", "type": "article", "sectionId": "politics", "sectionName": "Politics", "webPublicationDate": "2011-03-30T14:19:00Z", "webTitle": "Ed Miliband and Justine Thornton to marry in May", "webUrl": "https://www.theguardian.com/politics/2011/mar/30/ed-miliband-justine-thornton-marry-may", "apiUrl": "https://content.guardianapis.com/politics/2011/mar/30/ed-miliband-justine-thornton-marry-may", "isHosted": false, "pillarId": "pillar/news", "pillarName": "News"}, {"id": "politics/video/2011/mar/30/david-cameron-libya-rebels-pmqs", "type": "video", "sectionId": "politics", "sectionName": "Politics", "webPublicationDate": "2011-03-30T13:22:00Z", "webTitle": "David Cameron: We will not rule out arming Libyan rebels - video", "webUrl": "https://www.theguardian.com/politics/video/2011/mar/30/david-cameron-libya-rebels-pmqs", "apiUrl": "https://content.guardianapis.com/politics/video/2011/mar/30/david-cameron-libya-rebels-pmqs", "isHosted": false, "pillarId": "pillar/news", "pillarName": "News"}, {"id": "business/audio/2011/mar/30/trade-union-economics-of-enough", "type": "audio", "sectionId": "business", "sectionName": "Business", "webPublicationDate": "2011-03-30T12:57:00Z", "webTitle": "The Business podcast: Trade unions, strikes and Diane Coyle's Economics of Enough", "webUrl": "https://www.theguardian.com/business/audio/2011/mar/30/trade-union-economics-of-enough", "apiUrl": "https://content.guardianapis.com/business/audio/2011/mar/30/trade-union-economics-of-enough", "isHosted": false, "pillarId": "pillar/news", "pillarName": "News"}, {"id": "politics/video/2011/mar/30/david-cameron-congratulates-ed-miliband-wedding", "type": "video", "sectionId": "politics", "sectionName": "Politics", "webPublicationDate": "2011-03-30T11:16:00Z", "webTitle": "David Cameron congratulates Ed Miliband on forthcoming wedding - video", "webUrl": "https://www.theguardian.com/politics/video/2011/mar/30/david-cameron-congratulates-ed-miliband-wedding", "apiUrl": "https://content.guardianapis.com/politics/video/2011/mar/30/david-cameron-congratulates-ed-miliband-wedding", "isHosted": false, "pillarId": "pillar/news", "pillarName": "News"}, {"id": "money/cartoon/2011/mar/30/kids-economic-cuts", "type": "picture", "sectionId": "money", "sectionName": "Money", "webPublicationDate": "2011-03-30T10:57:00Z", "webTitle": "The kids aren't alright", "webUrl": "https://www.theguardian.com/money/cartoon/2011/mar/30/kids-economic-cuts", "apiUrl": "https://content.guardianapis.com/money/cartoon/2011/mar/30/kids-economic-cuts", "isHosted": false, "pillarId": "pillar/lifestyle", "pillarName": "Lifestyle"}, {"id": "media/greenslade/2011/mar/30/drugspolicy-national-newspapers", "type": "article", "sectionId": "media", "sectionName": "Media", "webPublicationDate": "2011-03-30T10:30:15Z", "webTitle": "How the right-wing press stifles sensible drugs debates", "webUrl": "https://www.theguardian.com/media/greenslade/2011/mar/30/drugspolicy-national-newspapers", "apiUrl": "https://content.guardianapis.com/media/greenslade/2011/mar/30/drugspolicy-national-newspapers", "isHosted": false, "pillarId": "pillar/news", "pillarName": "News"}, {"id": "money/2011/mar/30/shelter-vulnerable-rogue-landlords", "type": "article", "sectionId": "money", "sectionName": "Money", "webPublicationDate": "2011-03-30T08:58:00Z", "webTitle": "Shelter says cuts push vulnerable into hands of rogue landlords", "webUrl": "https://www.theguardian.com/money/2011/mar/30/shelter-vulnerable-rogue-landlords", "apiUrl": "https://content.guardianapis.com/money/2011/mar/30/shelter-vulnerable-rogue-landlords", "isHosted": false, "pillarId": "pillar/lifestyle", "pillarName": "Lifestyle"}, {"id": "law/2011/mar/30/legal-aid-divorce-cases-warning-mps", "type": "article", "sectionId": "law", "sectionName": "Law", "webPublicationDate": "2011-03-30T08:48:45Z", "webTitle": "MPs warn against legal aid reforms in divorce cases", "webUrl": "https://www.theguardian.com/law/2011/mar/30/legal-aid-divorce-cases-warning-mps", "apiUrl": "https://content.guardianapis.com/law/2011/mar/30/legal-aid-divorce-cases-warning-mps", "isHosted": false, "pillarId": "pillar/news", "pillarName": "News"}, {"id": "uk/2011/mar/30/uk-uncut-arrests-protests", "type": "article", "sectionId": "uk-news", "sectionName": "UK news", "webPublicationDate": "2011-03-30T08:05:05Z", "webTitle": "UK Uncut arrests threaten future protests, lawyer warns", "webUrl": "https://www.theguardian.com/uk/2011/mar/30/uk-uncut-arrests-protests", "apiUrl": "https://content.guardianapis.com/uk/2011/mar/30/uk-uncut-arrests-protests", "isHosted": false, "pillarId": "pillar/news", "pillarName": "News"}, {"id": "politics/video/2011/mar/30/ed-miliband-alternative-vote-av", "type": "video", "sectionId": "politics", "sectionName": "Politics", "webPublicationDate": "2011-03-30T07:42:00Z", "webTitle": "Ed Miliband: AV is a chance to change politics as usual - video", "webUrl": "https://www.theguardian.com/politics/video/2011/mar/30/ed-miliband-alternative-vote-av", "apiUrl": "https://content.guardianapis.com/politics/video/2011/mar/30/ed-miliband-alternative-vote-av", "isHosted": false, "pillarId": "pillar/news", "pillarName": "News"}, {"id": "society/2011/mar/30/cuts-nhs", "type": "article", "sectionId": "society", "sectionName": "Society", "webPublicationDate": "2011-03-30T07:35:00Z", "webTitle": "How have the cuts affected the NHS?", "webUrl": "https://www.theguardian.com/society/2011/mar/30/cuts-nhs", "apiUrl": "https://content.guardianapis.com/society/2011/mar/30/cuts-nhs", "isHosted": false, "pillarId": "pillar/news", "pillarName": "News"}, {"id": "world/2011/mar/30/spains-struggling-welfare-system-pensions-panic", "type": "article", "sectionId": "world", "sectionName": "World news", "webPublicationDate": "2011-03-30T07:00:03Z", "webTitle": "Why Spain's struggling welfare system is leading to panic over future pensions", "webUrl": "https://www.theguardian.com/world/2011/mar/30/spains-struggling-welfare-system-pensions-panic", "apiUrl": "https://content.guardianapis.com/world/2011/mar/30/spains-struggling-welfare-system-pensions-panic", "isHosted": false, "pillarId": "pillar/news", "pillarName": "News"}, {"id": "world/2011/mar/30/stereotype-spanish-practices-trades-unions", "type": "article", "sectionId": "world", "sectionName": "World news", "webPublicationDate": "2011-03-30T07:00:00Z", "webTitle": "Debunking stereotypes: Spanish practices", "webUrl": "https://www.theguardian.com/world/2011/mar/30/stereotype-spanish-practices-trades-unions", "apiUrl": "https://content.guardianapis.com/world/2011/mar/30/stereotype-spanish-practices-trades-unions", "isHosted": false, "pillarId": "pillar/news", "pillarName": "News"}, {"id": "law/2011/mar/30/criminal-cases-review-commission-inside", "type": "article", "sectionId": "law", "sectionName": "Law", "webPublicationDate": "2011-03-30T06:59:28Z", "webTitle": "Criminal cases review commission: the last bastion of hope", "webUrl": "https://www.theguardian.com/law/2011/mar/30/criminal-cases-review-commission-inside", "apiUrl": "https://content.guardianapis.com/law/2011/mar/30/criminal-cases-review-commission-inside", "isHosted": false, "pillarId": "pillar/news", "pillarName": "News"}, {"id": "science/2011/mar/30/forensics-cut-disaster", "type": "article", "sectionId": "law", "sectionName": "Law", "webPublicationDate": "2011-03-30T06:00:00Z", "webTitle": "Forensics cut will be 'disastrous' for victims of injustice", "webUrl": "https://www.theguardian.com/science/2011/mar/30/forensics-cut-disaster", "apiUrl": "https://content.guardianapis.com/science/2011/mar/30/forensics-cut-disaster", "isHosted": false, "pillarId": "pillar/news", "pillarName": "News"}, {"id": "environment/2011/mar/30/gas-emissions-reduced-animal-diet", "type": "article", "sectionId": "environment", "sectionName": "Environment", "webPublicationDate": "2011-03-30T00:30:31Z", "webTitle": "Gas emissions reduced by changing farm animal diet says study", "webUrl": "https://www.theguardian.com/environment/2011/mar/30/gas-emissions-reduced-animal-diet", "apiUrl": "https://content.guardianapis.com/environment/2011/mar/30/gas-emissions-reduced-animal-diet", "isHosted": false, "pillarId": "pillar/news", "pillarName": "News"}, {"id": "commentisfree/cartoon/2011/mar/30/steve-bell-david-cameron", "type": "picture", "sectionId": "commentisfree", "sectionName": "Opinion", "webPublicationDate": "2011-03-30T00:00:00Z", "webTitle": "Steve Bell on David Cameron and Libya - cartoon", "webUrl": "https://www.theguardian.com/commentisfree/cartoon/2011/mar/30/steve-bell-david-cameron", "apiUrl": "https://content.guardianapis.com/commentisfree/cartoon/2011/mar/30/steve-bell-david-cameron", "isHosted": false, "pillarId": "pillar/opinion", "pillarName": "Opinion"}, {"id": "politics/2011/mar/30/hugh-muir-diary", "type": "article", "sectionId": "politics", "sectionName": "Politics", "webPublicationDate": "2011-03-29T23:15:01Z", "webTitle": "Hugh Muir's diary", "webUrl": "https://www.theguardian.com/politics/2011/mar/30/hugh-muir-diary", "apiUrl": "https://content.guardianapis.com/politics/2011/mar/30/hugh-muir-diary", "isHosted": false, "pillarId": "pillar/news", "pillarName": "News"}, {"id": "commentisfree/2011/mar/30/av-referendum-building-bridges-editorial", "type": "article", "sectionId": "commentisfree", "sectionName": "Opinion", "webPublicationDate": "2011-03-29T23:06:01Z", "webTitle": "AV referendum: Building bridges | Editorial", "webUrl": "https://www.theguardian.com/commentisfree/2011/mar/30/av-referendum-building-bridges-editorial", "apiUrl": "https://content.guardianapis.com/commentisfree/2011/mar/30/av-referendum-building-bridges-editorial", "isHosted": false, "pillarId": "pillar/opinion", "pillarName": "Opinion"}, {"id": "politics/2011/mar/30/coalitions-sdp-roots", "type": "article", "sectionId": "politics", "sectionName": "Politics", "webPublicationDate": "2011-03-29T23:05:02Z", "webTitle": "Letters: Coalition's SDP roots", "webUrl": "https://www.theguardian.com/politics/2011/mar/30/coalitions-sdp-roots", "apiUrl": "https://content.guardianapis.com/politics/2011/mar/30/coalitions-sdp-roots", "isHosted": false, "pillarId": "pillar/news", "pillarName": "News"}, {"id": "society/2011/mar/30/keep-care-not-custody-promise", "type": "article", "sectionId": "society", "sectionName": "Society", "webPublicationDate": "2011-03-29T23:05:02Z", "webTitle": "Letters: State must keep Care Not Custody promise", "webUrl": "https://www.theguardian.com/society/2011/mar/30/keep-care-not-custody-promise", "apiUrl": "https://content.guardianapis.com/society/2011/mar/30/keep-care-not-custody-promise", "isHosted": false, "pillarId": "pillar/news", "pillarName": "News"}, {"id": "world/2011/mar/30/arrests-of-peaceful-protesters", "type": "article", "sectionId": "world", "sectionName": "World news", "webPublicationDate": "2011-03-29T23:04:01Z", "webTitle": "Letters: Top shop arrests of peaceful protesters", "webUrl": "https://www.theguardian.com/world/2011/mar/30/arrests-of-peaceful-protesters", "apiUrl": "https://content.guardianapis.com/world/2011/mar/30/arrests-of-peaceful-protesters", "isHosted": false, "pillarId": "pillar/news", "pillarName": "News"}, {"id": "politics/2011/mar/30/planning-a-better-future-together", "type": "article", "sectionId": "politics", "sectionName": "Politics", "webPublicationDate": "2011-03-29T23:04:00Z", "webTitle": "Letters: Planning a better future together", "webUrl": "https://www.theguardian.com/politics/2011/mar/30/planning-a-better-future-together", "apiUrl": "https://content.guardianapis.com/politics/2011/mar/30/planning-a-better-future-together", "isHosted": false, "pillarId": "pillar/news", "pillarName": "News"}, {"id": "society/2011/mar/30/nhs-trusts-equipment-funding", "type": "article", "sectionId": "society", "sectionName": "Society", "webPublicationDate": "2011-03-29T23:01:00Z", "webTitle": "NHS trusts faced with \u00a3460m equipment bill over next three years", "webUrl": "https://www.theguardian.com/society/2011/mar/30/nhs-trusts-equipment-funding", "apiUrl": "https://content.guardianapis.com/society/2011/mar/30/nhs-trusts-equipment-funding", "isHosted": false, "pillarId": "pillar/news", "pillarName": "News"}, {"id": "society/2011/mar/30/social-care-cuts-charities", "type": "article", "sectionId": "society", "sectionName": "Society", "webPublicationDate": "2011-03-29T23:01:00Z", "webTitle": "Social care cuts are already biting, say charities", "webUrl": "https://www.theguardian.com/society/2011/mar/30/social-care-cuts-charities", "apiUrl": "https://content.guardianapis.com/society/2011/mar/30/social-care-cuts-charities", "isHosted": false, "pillarId": "pillar/news", "pillarName": "News"}, {"id": "society/2011/mar/30/mutuals-nhs-staff-right-provide", "type": "article", "sectionId": "society", "sectionName": "Society", "webPublicationDate": "2011-03-29T23:01:00Z", "webTitle": "NHS reforms: Mutuals will give staff 'right to provide'", "webUrl": "https://www.theguardian.com/society/2011/mar/30/mutuals-nhs-staff-right-provide", "apiUrl": "https://content.guardianapis.com/society/2011/mar/30/mutuals-nhs-staff-right-provide", "isHosted": false, "pillarId": "pillar/news", "pillarName": "News"}, {"id": "world/2011/mar/29/libya-rebels-armed-by-us-uk", "type": "article", "sectionId": "world", "sectionName": "World news", "webPublicationDate": "2011-03-29T20:30:49Z", "webTitle": "US and Britain may arm Libya rebels if Gaddafi clings to power", "webUrl": "https://www.theguardian.com/world/2011/mar/29/libya-rebels-armed-by-us-uk", "apiUrl": "https://content.guardianapis.com/world/2011/mar/29/libya-rebels-armed-by-us-uk", "isHosted": false, "pillarId": "pillar/news", "pillarName": "News"}]}}