{"response": {"status": "ok", "userTier": "developer", "total": 95229, "startIndex": 1, "pageSize": 50, "currentPage": 1, "pages": 1905, "orderBy": "newest", "results": [{"id": "uk-news/2016/may/01/social-football-leicester-premier-league", "type": "article", "sectionId": "football", "sectionName": "Football", "webPublicationDate": "2016-04-30T23:04:38Z", "webTitle": "Leicester\u2019s blue-collar workers on the verge of greatness", "webUrl": "https://www.theguardian.com/uk-news/2016/may/01/social-football-leicester-premier-league", "apiUrl": "https://content.guardianapis.com/uk-news/2016/may/01/social-football-leicester-premier-league", "isHosted": false, "pillarId": "pillar/sport", "pillarName": "Sport"}, {"id": "football/blog/2016/apr/30/outsiders-brighton-championship-cliffhanger-burnley-middlesbrough", "type": "article", "sectionId": "football", "sectionName": "Football", "webPublicationDate": "2016-04-30T21:30:36Z", "webTitle": "Dangerous outsiders Brighton have the nerve for Championship cliffhanger | Alan Smith", "webUrl": "https://www.theguardian.com/football/blog/2016/apr/30/outsiders-brighton-championship-cliffhanger-burnley-middlesbrough", "apiUrl": "https://content.guardianapis.com/football/blog/2016/apr/30/outsiders-brighton-championship-cliffhanger-burnley-middlesbrough", "isHosted": false, "pillarId": "pillar/sport", "pillarName": "Sport"}, {"id": "football/2016/apr/30/leicester-city-jeffrey-schlupp-claudio-ranieri-title", "type": "article", "sectionId": "football", "sectionName": "Football", "webPublicationDate": "2016-04-30T21:30:36Z", "webTitle": "Leicester\u2019s Jeffrey Schlupp: \u2018Claudio Ranieri said he\u2019d transform us, and he has\u2019", "webUrl": "https://www.theguardian.com/football/2016/apr/30/leicester-city-jeffrey-schlupp-claudio-ranieri-title", "apiUrl": "https://content.guardianapis.com/football/2016/apr/30/leicester-city-jeffrey-schlupp-claudio-ranieri-title", "isHosted": false, "pillarId": "pillar/sport", "pillarName": "Sport"}, {"id": "football/2016/apr/30/kolo-toure-mamadou-sakho-drugs-ban-liverpool", "type": "article", "sectionId": "football", "sectionName": "Football", "webPublicationDate": "2016-04-30T21:30:36Z", "webTitle": "Kolo Tour\u00e9 tells Mamadou Sakho to \u2018stay positive\u2019 through his drugs ban", "webUrl": "https://www.theguardian.com/football/2016/apr/30/kolo-toure-mamadou-sakho-drugs-ban-liverpool", "apiUrl": "https://content.guardianapis.com/football/2016/apr/30/kolo-toure-mamadou-sakho-drugs-ban-liverpool", "isHosted": false, "pillarId": "pillar/sport", "pillarName": "Sport"}, {"id": "football/2016/apr/30/liverpool-jurgen-klopp-villarreal-europa-league-semi-final", "type": "article", "sectionId": "football", "sectionName": "Football", "webPublicationDate": "2016-04-30T21:30:36Z", "webTitle": "Liverpool\u2019s J\u00fcrgen Klopp: Villarreal can be beaten but it won\u2019t be easy", "webUrl": "https://www.theguardian.com/football/2016/apr/30/liverpool-jurgen-klopp-villarreal-europa-league-semi-final", "apiUrl": "https://content.guardianapis.com/football/2016/apr/30/liverpool-jurgen-klopp-villarreal-europa-league-semi-final", "isHosted": false, "pillarId": "pillar/sport", "pillarName": "Sport"}, {"id": "football/2016/apr/30/kyle-walker-tottenham-hotspur-good-foundations-mauricio-pochettino-chelsea-title", "type": "article", "sectionId": "football", "sectionName": "Football", "webPublicationDate": "2016-04-30T21:30:36Z", "webTitle": "Kyle Walker: \u2018Under Pochettino Spurs have good foundations\u2019", "webUrl": "https://www.theguardian.com/football/2016/apr/30/kyle-walker-tottenham-hotspur-good-foundations-mauricio-pochettino-chelsea-title", "apiUrl": "https://content.guardianapis.com/football/2016/apr/30/kyle-walker-tottenham-hotspur-good-foundations-mauricio-pochettino-chelsea-title", "isHosted": false, "pillarId": "pillar/sport", "pillarName": "Sport"}, {"id": "football/blog/2016/apr/30/leicester-city-fantastic-foxes-premier-league-elite-lesson", "type": "article", "sectionId": "football", "sectionName": "Football", "webPublicationDate": "2016-04-30T21:00:36Z", "webTitle": "Leicester\u2019s Fantastic Foxes have taught the Premier League elite a lesson | Daniel Taylor", "webUrl": "https://www.theguardian.com/football/blog/2016/apr/30/leicester-city-fantastic-foxes-premier-league-elite-lesson", "apiUrl": "https://content.guardianapis.com/football/blog/2016/apr/30/leicester-city-fantastic-foxes-premier-league-elite-lesson", "isHosted": false, "pillarId": "pillar/sport", "pillarName": "Sport"}, {"id": "football/2016/apr/30/charlie-stillitano-leicester-city-champions-league-format", "type": "article", "sectionId": "football", "sectionName": "Football", "webPublicationDate": "2016-04-30T21:00:36Z", "webTitle": "Charlie Stillitano sets record straight over Leicester but says change is coming", "webUrl": "https://www.theguardian.com/football/2016/apr/30/charlie-stillitano-leicester-city-champions-league-format", "apiUrl": "https://content.guardianapis.com/football/2016/apr/30/charlie-stillitano-leicester-city-champions-league-format", "isHosted": false, "pillarId": "pillar/sport", "pillarName": "Sport"}, {"id": "football/2016/apr/30/real-betis-barcelona-la-liga-match-report", "type": "article", "sectionId": "football", "sectionName": "Football", "webPublicationDate": "2016-04-30T21:00:24Z", "webTitle": "Barcelona beat 10-man Real Betis to retake summit in La Liga title race", "webUrl": "https://www.theguardian.com/football/2016/apr/30/real-betis-barcelona-la-liga-match-report", "apiUrl": "https://content.guardianapis.com/football/2016/apr/30/real-betis-barcelona-la-liga-match-report", "isHosted": false, "pillarId": "pillar/sport", "pillarName": "Sport"}, {"id": "global/football-league-blog/2016/apr/30/football-league-your-thoughts-sheffield-wednesday", "type": "article", "sectionId": "global", "sectionName": "Global", "webPublicationDate": "2016-04-30T19:25:35Z", "webTitle": "Football League: your thoughts", "webUrl": "https://www.theguardian.com/global/football-league-blog/2016/apr/30/football-league-your-thoughts-sheffield-wednesday", "apiUrl": "https://content.guardianapis.com/global/football-league-blog/2016/apr/30/football-league-your-thoughts-sheffield-wednesday", "isHosted": false}, {"id": "football/2016/apr/30/sam-allardyce-newcastle-united-rafael-benitez-sunderland-premier-league", "type": "article", "sectionId": "football", "sectionName": "Football", "webPublicationDate": "2016-04-30T19:23:33Z", "webTitle": "Sam Allardyce admits pressure from Newcastle may be affecting Sunderland", "webUrl": "https://www.theguardian.com/football/2016/apr/30/sam-allardyce-newcastle-united-rafael-benitez-sunderland-premier-league", "apiUrl": "https://content.guardianapis.com/football/2016/apr/30/sam-allardyce-newcastle-united-rafael-benitez-sunderland-premier-league", "isHosted": false, "pillarId": "pillar/sport", "pillarName": "Sport"}, {"id": "football/2016/apr/30/arsenal-norwich-city-premier-league-match-report", "type": "article", "sectionId": "football", "sectionName": "Football", "webPublicationDate": "2016-04-30T18:40:24Z", "webTitle": "Arsenal climb to third place as Danny Welbeck goal beats Norwich", "webUrl": "https://www.theguardian.com/football/2016/apr/30/arsenal-norwich-city-premier-league-match-report", "apiUrl": "https://content.guardianapis.com/football/2016/apr/30/arsenal-norwich-city-premier-league-match-report", "isHosted": false, "pillarId": "pillar/sport", "pillarName": "Sport"}, {"id": "football/2016/apr/30/aberdeen-motherwell-st-johnstone-scottish-premiership-", "type": "article", "sectionId": "football", "sectionName": "Football", "webPublicationDate": "2016-04-30T18:26:00Z", "webTitle": "Scottish roundup: Adam Rooney scores as Aberdeen thrash Motherwell", "webUrl": "https://www.theguardian.com/football/2016/apr/30/aberdeen-motherwell-st-johnstone-scottish-premiership-", "apiUrl": "https://content.guardianapis.com/football/2016/apr/30/aberdeen-motherwell-st-johnstone-scottish-premiership-", "isHosted": false, "pillarId": "pillar/sport", "pillarName": "Sport"}, {"id": "football/live/2016/apr/30/arsenal-norwich-city-premier-league-live", "type": "liveblog", "sectionId": "football", "sectionName": "Football", "webPublicationDate": "2016-04-30T18:25:08Z", "webTitle": "Arsenal 1-0 Norwich City: Premier League \u2013 as it happened", "webUrl": "https://www.theguardian.com/football/live/2016/apr/30/arsenal-norwich-city-premier-league-live", "apiUrl": "https://content.guardianapis.com/football/live/2016/apr/30/arsenal-norwich-city-premier-league-live", "isHosted": false, "pillarId": "pillar/sport", "pillarName": "Sport"}, {"id": "football/live/2016/apr/30/premier-league-football-league-clockwatch-live", "type": "liveblog", "sectionId": "football", "sectionName": "Football", "webPublicationDate": "2016-04-30T16:24:43Z", "webTitle": "Premier League, Football League and European football: clockwatch \u2013 as it happened", "webUrl": "https://www.theguardian.com/football/live/2016/apr/30/premier-league-football-league-clockwatch-live", "apiUrl": "https://content.guardianapis.com/football/live/2016/apr/30/premier-league-football-league-clockwatch-live", "isHosted": false, "pillarId": "pillar/sport", "pillarName": "Sport"}, {"id": "football/2016/apr/30/west-bromwich-albion-west-ham-united-premier-league-match-report", "type": "article", "sectionId": "football", "sectionName": "Football", "webPublicationDate": "2016-04-30T16:21:51Z", "webTitle": "West Ham and Mark Noble keep European dream alive by beating West Brom", "webUrl": "https://www.theguardian.com/football/2016/apr/30/west-bromwich-albion-west-ham-united-premier-league-match-report", "apiUrl": "https://content.guardianapis.com/football/2016/apr/30/west-bromwich-albion-west-ham-united-premier-league-match-report", "isHosted": false, "pillarId": "pillar/sport", "pillarName": "Sport"}, {"id": "football/2016/apr/30/newcastle-united-crystal-palace-premier-league-match-report", "type": "article", "sectionId": "football", "sectionName": "Football", "webPublicationDate": "2016-04-30T16:13:02Z", "webTitle": "Newcastle and Andros Townsend sink Crystal Palace to pressure rivals", "webUrl": "https://www.theguardian.com/football/2016/apr/30/newcastle-united-crystal-palace-premier-league-match-report", "apiUrl": "https://content.guardianapis.com/football/2016/apr/30/newcastle-united-crystal-palace-premier-league-match-report", "isHosted": false, "pillarId": "pillar/sport", "pillarName": "Sport"}, {"id": "football/2016/apr/30/stoke-city-sunderland-premier-league-match-report", "type": "article", "sectionId": "football", "sectionName": "Football", "webPublicationDate": "2016-04-30T16:09:45Z", "webTitle": "Sunderland into bottom three despite late Jermain Defoe penalty at Stoke", "webUrl": "https://www.theguardian.com/football/2016/apr/30/stoke-city-sunderland-premier-league-match-report", "apiUrl": "https://content.guardianapis.com/football/2016/apr/30/stoke-city-sunderland-premier-league-match-report", "isHosted": false, "pillarId": "pillar/sport", "pillarName": "Sport"}, {"id": "football/2016/apr/30/everton-bournemouth-premier-league-match-report", "type": "article", "sectionId": "football", "sectionName": "Football", "webPublicationDate": "2016-04-30T16:07:34Z", "webTitle": "Leighton Baines finds right chemistry to fire Everton past Bournemouth", "webUrl": "https://www.theguardian.com/football/2016/apr/30/everton-bournemouth-premier-league-match-report", "apiUrl": "https://content.guardianapis.com/football/2016/apr/30/everton-bournemouth-premier-league-match-report", "isHosted": false, "pillarId": "pillar/sport", "pillarName": "Sport"}, {"id": "football/live/2016/apr/30/newcastle-united-v-crystal-palace-premier-league-live", "type": "liveblog", "sectionId": "football", "sectionName": "Football", "webPublicationDate": "2016-04-30T16:06:31Z", "webTitle": "Newcastle United v Crystal Palace: Premier League \u2013 as it happened", "webUrl": "https://www.theguardian.com/football/live/2016/apr/30/newcastle-united-v-crystal-palace-premier-league-live", "apiUrl": "https://content.guardianapis.com/football/live/2016/apr/30/newcastle-united-v-crystal-palace-premier-league-live", "isHosted": false, "pillarId": "pillar/sport", "pillarName": "Sport"}, {"id": "football/2016/apr/30/blackpool-wigan-athletic-league-one-match-report", "type": "article", "sectionId": "football", "sectionName": "Football", "webPublicationDate": "2016-04-30T14:33:24Z", "webTitle": "Wigan win promotion to Championship with crushing win over Blackpool", "webUrl": "https://www.theguardian.com/football/2016/apr/30/blackpool-wigan-athletic-league-one-match-report", "apiUrl": "https://content.guardianapis.com/football/2016/apr/30/blackpool-wigan-athletic-league-one-match-report", "isHosted": false, "pillarId": "pillar/sport", "pillarName": "Sport"}, {"id": "uk-news/2016/apr/30/south-yorkshire-police-scrap-it-and-start-over-hillsborough-miners-strike-rotherham", "type": "article", "sectionId": "uk-news", "sectionName": "UK news", "webPublicationDate": "2016-04-30T13:46:30Z", "webTitle": "\u2018Scrap it and start over\u2019: the people\u2019s verdict on South Yorkshire police", "webUrl": "https://www.theguardian.com/uk-news/2016/apr/30/south-yorkshire-police-scrap-it-and-start-over-hillsborough-miners-strike-rotherham", "apiUrl": "https://content.guardianapis.com/uk-news/2016/apr/30/south-yorkshire-police-scrap-it-and-start-over-hillsborough-miners-strike-rotherham", "isHosted": false, "pillarId": "pillar/news", "pillarName": "News"}, {"id": "football/2016/apr/30/leicester-kasper-schmeichel-peter-old-trafford", "type": "article", "sectionId": "football", "sectionName": "Football", "webPublicationDate": "2016-04-30T12:45:25Z", "webTitle": "Leicester\u2019s Kasper Schmeichel can feel his destiny calling at Old Trafford", "webUrl": "https://www.theguardian.com/football/2016/apr/30/leicester-kasper-schmeichel-peter-old-trafford", "apiUrl": "https://content.guardianapis.com/football/2016/apr/30/leicester-kasper-schmeichel-peter-old-trafford", "isHosted": false, "pillarId": "pillar/sport", "pillarName": "Sport"}, {"id": "media/greenslade/2016/apr/30/why-the-times-changed-its-mind-over-hillsborough-coverage", "type": "article", "sectionId": "media", "sectionName": "Media", "webPublicationDate": "2016-04-30T12:18:21Z", "webTitle": "Why the Times changed its mind over Hillsborough coverage", "webUrl": "https://www.theguardian.com/media/greenslade/2016/apr/30/why-the-times-changed-its-mind-over-hillsborough-coverage", "apiUrl": "https://content.guardianapis.com/media/greenslade/2016/apr/30/why-the-times-changed-its-mind-over-hillsborough-coverage", "isHosted": false, "pillarId": "pillar/news", "pillarName": "News"}, {"id": "football/2016/apr/30/nwsl-womens-soccer-orlando-pride-jeff-plush", "type": "article", "sectionId": "football", "sectionName": "Football", "webPublicationDate": "2016-04-30T10:00:22Z", "webTitle": "NWSL boss Jeff Plush on raising the bar: 'There's so much more we can achieve'", "webUrl": "https://www.theguardian.com/football/2016/apr/30/nwsl-womens-soccer-orlando-pride-jeff-plush", "apiUrl": "https://content.guardianapis.com/football/2016/apr/30/nwsl-womens-soccer-orlando-pride-jeff-plush", "isHosted": false, "pillarId": "pillar/sport", "pillarName": "Sport"}, {"id": "football/blog/2016/apr/30/leicester-city-underdogs-favourite-premier-league-title-claudio-ranieri", "type": "article", "sectionId": "football", "sectionName": "Football", "webPublicationDate": "2016-04-30T10:00:22Z", "webTitle": "Leicester: from unloved underdogs to everybody\u2019s favourite puppy | Kevin Mitchell", "webUrl": "https://www.theguardian.com/football/blog/2016/apr/30/leicester-city-underdogs-favourite-premier-league-title-claudio-ranieri", "apiUrl": "https://content.guardianapis.com/football/blog/2016/apr/30/leicester-city-underdogs-favourite-premier-league-title-claudio-ranieri", "isHosted": false, "pillarId": "pillar/sport", "pillarName": "Sport"}, {"id": "sport/2016/apr/30/gifs-giving-freestyle-football-cricket-baseball-basketball", "type": "article", "sectionId": "sport", "sectionName": "Sport", "webPublicationDate": "2016-04-30T08:45:20Z", "webTitle": "The gifs that keep on giving: freestyle football, Jordan Larsson and a big stretch", "webUrl": "https://www.theguardian.com/sport/2016/apr/30/gifs-giving-freestyle-football-cricket-baseball-basketball", "apiUrl": "https://content.guardianapis.com/sport/2016/apr/30/gifs-giving-freestyle-football-cricket-baseball-basketball", "isHosted": false, "pillarId": "pillar/sport", "pillarName": "Sport"}, {"id": "football/2016/apr/30/leicester-city-premier-league-champions-underdog-story", "type": "article", "sectionId": "football", "sectionName": "Football", "webPublicationDate": "2016-04-30T08:00:20Z", "webTitle": "Leicester City and the greatest underdog story ever told: a primer for Americans", "webUrl": "https://www.theguardian.com/football/2016/apr/30/leicester-city-premier-league-champions-underdog-story", "apiUrl": "https://content.guardianapis.com/football/2016/apr/30/leicester-city-premier-league-champions-underdog-story", "isHosted": false, "pillarId": "pillar/sport", "pillarName": "Sport"}, {"id": "commentisfree/2016/apr/30/leicester-city-rise-premier-league-football-capitalism", "type": "article", "sectionId": "commentisfree", "sectionName": "Opinion", "webPublicationDate": "2016-04-30T08:00:20Z", "webTitle": "The magic of Leicester City goes well beyond football | Ed Smith", "webUrl": "https://www.theguardian.com/commentisfree/2016/apr/30/leicester-city-rise-premier-league-football-capitalism", "apiUrl": "https://content.guardianapis.com/commentisfree/2016/apr/30/leicester-city-rise-premier-league-football-capitalism", "isHosted": false, "pillarId": "pillar/opinion", "pillarName": "Opinion"}, {"id": "football/2016/apr/29/football-liverpool-jurgen-klopp-daniel-sturridge-europa-league", "type": "article", "sectionId": "football", "sectionName": "Football", "webPublicationDate": "2016-04-29T21:54:35Z", "webTitle": "J\u00fcrgen Klopp hits back at his critics over Daniel Sturridge Europa snub", "webUrl": "https://www.theguardian.com/football/2016/apr/29/football-liverpool-jurgen-klopp-daniel-sturridge-europa-league", "apiUrl": "https://content.guardianapis.com/football/2016/apr/29/football-liverpool-jurgen-klopp-daniel-sturridge-europa-league", "isHosted": false, "pillarId": "pillar/sport", "pillarName": "Sport"}, {"id": "football/2016/apr/29/crystal-palace-alan-pardew-newcastle", "type": "article", "sectionId": "football", "sectionName": "Football", "webPublicationDate": "2016-04-29T21:30:07Z", "webTitle": "Crystal Palace\u2019s Alan Pardew unable to escape spotlight on Newcastle return", "webUrl": "https://www.theguardian.com/football/2016/apr/29/crystal-palace-alan-pardew-newcastle", "apiUrl": "https://content.guardianapis.com/football/2016/apr/29/crystal-palace-alan-pardew-newcastle", "isHosted": false, "pillarId": "pillar/sport", "pillarName": "Sport"}, {"id": "football/2016/apr/29/rafael-benitez-newcastle-alan-pardew-crystal-palace", "type": "article", "sectionId": "football", "sectionName": "Football", "webPublicationDate": "2016-04-29T21:30:07Z", "webTitle": "Rafael Ben\u00edtez wants Newcastle fans to focus on team, not Alan Pardew", "webUrl": "https://www.theguardian.com/football/2016/apr/29/rafael-benitez-newcastle-alan-pardew-crystal-palace", "apiUrl": "https://content.guardianapis.com/football/2016/apr/29/rafael-benitez-newcastle-alan-pardew-crystal-palace", "isHosted": false, "pillarId": "pillar/sport", "pillarName": "Sport"}, {"id": "football/2016/apr/29/claudio-ranieri-leicester-city-box-office-manchester-united", "type": "article", "sectionId": "football", "sectionName": "Football", "webPublicationDate": "2016-04-29T21:30:07Z", "webTitle": "Claudio Ranieri savours Leicester\u2019s box office appeal but tells team to focus", "webUrl": "https://www.theguardian.com/football/2016/apr/29/claudio-ranieri-leicester-city-box-office-manchester-united", "apiUrl": "https://content.guardianapis.com/football/2016/apr/29/claudio-ranieri-leicester-city-box-office-manchester-united", "isHosted": false, "pillarId": "pillar/sport", "pillarName": "Sport"}, {"id": "football/2016/apr/29/arsene-wenger-real-barcelona-manchester-city", "type": "article", "sectionId": "football", "sectionName": "Football", "webPublicationDate": "2016-04-29T21:30:07Z", "webTitle": "Ars\u00e8ne Wenger reveals he rejected Real, Barcelona and Manchester City", "webUrl": "https://www.theguardian.com/football/2016/apr/29/arsene-wenger-real-barcelona-manchester-city", "apiUrl": "https://content.guardianapis.com/football/2016/apr/29/arsene-wenger-real-barcelona-manchester-city", "isHosted": false, "pillarId": "pillar/sport", "pillarName": "Sport"}, {"id": "football/2016/apr/29/manuel-pellegrini-premier-league-real-madrid-manchester-city", "type": "article", "sectionId": "football", "sectionName": "Football", "webPublicationDate": "2016-04-29T21:30:07Z", "webTitle": "Manuel Pellegrini rails at league schedule before Real Madrid game", "webUrl": "https://www.theguardian.com/football/2016/apr/29/manuel-pellegrini-premier-league-real-madrid-manchester-city", "apiUrl": "https://content.guardianapis.com/football/2016/apr/29/manuel-pellegrini-premier-league-real-madrid-manchester-city", "isHosted": false, "pillarId": "pillar/sport", "pillarName": "Sport"}, {"id": "football/2016/apr/29/hillsborough-inquest-legal-system-key-part-establishment-failed-families-years", "type": "article", "sectionId": "football", "sectionName": "Football", "webPublicationDate": "2016-04-29T20:20:52Z", "webTitle": "The other villain of  Hillsborough saga: legal system that left families in torment", "webUrl": "https://www.theguardian.com/football/2016/apr/29/hillsborough-inquest-legal-system-key-part-establishment-failed-families-years", "apiUrl": "https://content.guardianapis.com/football/2016/apr/29/hillsborough-inquest-legal-system-key-part-establishment-failed-families-years", "isHosted": false, "pillarId": "pillar/sport", "pillarName": "Sport"}, {"id": "football/2016/apr/29/swansea-city-liverpool-match-preview", "type": "article", "sectionId": "football", "sectionName": "Football", "webPublicationDate": "2016-04-29T17:58:57Z", "webTitle": "Swansea City v Liverpool: match preview", "webUrl": "https://www.theguardian.com/football/2016/apr/29/swansea-city-liverpool-match-preview", "apiUrl": "https://content.guardianapis.com/football/2016/apr/29/swansea-city-liverpool-match-preview", "isHosted": false, "pillarId": "pillar/sport", "pillarName": "Sport"}, {"id": "football/2016/apr/29/everton-bournemouth-match-preview", "type": "article", "sectionId": "football", "sectionName": "Football", "webPublicationDate": "2016-04-29T17:36:33Z", "webTitle": "Everton v Bournemouth: match preview", "webUrl": "https://www.theguardian.com/football/2016/apr/29/everton-bournemouth-match-preview", "apiUrl": "https://content.guardianapis.com/football/2016/apr/29/everton-bournemouth-match-preview", "isHosted": false, "pillarId": "pillar/sport", "pillarName": "Sport"}, {"id": "football/2016/apr/29/newcastle-united-crystal-palace-match-preview", "type": "article", "sectionId": "football", "sectionName": "Football", "webPublicationDate": "2016-04-29T17:17:17Z", "webTitle": "Newcastle United v Crystal Palace: match preview", "webUrl": "https://www.theguardian.com/football/2016/apr/29/newcastle-united-crystal-palace-match-preview", "apiUrl": "https://content.guardianapis.com/football/2016/apr/29/newcastle-united-crystal-palace-match-preview", "isHosted": false, "pillarId": "pillar/sport", "pillarName": "Sport"}, {"id": "commentisfree/2016/apr/29/where-are-asians-leicester-city-stadium", "type": "article", "sectionId": "commentisfree", "sectionName": "Opinion", "webPublicationDate": "2016-04-29T17:15:32Z", "webTitle": "Where are Leicester City\u2019s Asian fans? | Jason Rodrigues", "webUrl": "https://www.theguardian.com/commentisfree/2016/apr/29/where-are-asians-leicester-city-stadium", "apiUrl": "https://content.guardianapis.com/commentisfree/2016/apr/29/where-are-asians-leicester-city-stadium", "isHosted": false, "pillarId": "pillar/opinion", "pillarName": "Opinion"}, {"id": "football/2016/apr/29/manchester-united-leicester-city-match-preview", "type": "article", "sectionId": "football", "sectionName": "Football", "webPublicationDate": "2016-04-29T17:00:30Z", "webTitle": "Manchester United v Leicester City: match preview", "webUrl": "https://www.theguardian.com/football/2016/apr/29/manchester-united-leicester-city-match-preview", "apiUrl": "https://content.guardianapis.com/football/2016/apr/29/manchester-united-leicester-city-match-preview", "isHosted": false, "pillarId": "pillar/sport", "pillarName": "Sport"}, {"id": "football/2016/apr/29/watford-aston-villa-match-preview", "type": "article", "sectionId": "football", "sectionName": "Football", "webPublicationDate": "2016-04-29T16:35:52Z", "webTitle": "Watford v Aston Villa: match preview", "webUrl": "https://www.theguardian.com/football/2016/apr/29/watford-aston-villa-match-preview", "apiUrl": "https://content.guardianapis.com/football/2016/apr/29/watford-aston-villa-match-preview", "isHosted": false, "pillarId": "pillar/sport", "pillarName": "Sport"}, {"id": "football/2016/apr/29/chelsea-tottenham-hotspur-match-preview", "type": "article", "sectionId": "football", "sectionName": "Football", "webPublicationDate": "2016-04-29T16:18:15Z", "webTitle": "Chelsea v Tottenham Hotspur: match preview", "webUrl": "https://www.theguardian.com/football/2016/apr/29/chelsea-tottenham-hotspur-match-preview", "apiUrl": "https://content.guardianapis.com/football/2016/apr/29/chelsea-tottenham-hotspur-match-preview", "isHosted": false, "pillarId": "pillar/sport", "pillarName": "Sport"}, {"id": "commentisfree/2016/apr/29/hillsborough-lie-victims-wrong-class", "type": "article", "sectionId": "commentisfree", "sectionName": "Opinion", "webPublicationDate": "2016-04-29T15:59:36Z", "webTitle": "Why did the Hillsborough lie endure? The victims were the wrong class | Ian Jack", "webUrl": "https://www.theguardian.com/commentisfree/2016/apr/29/hillsborough-lie-victims-wrong-class", "apiUrl": "https://content.guardianapis.com/commentisfree/2016/apr/29/hillsborough-lie-victims-wrong-class", "isHosted": false, "pillarId": "pillar/opinion", "pillarName": "Opinion"}, {"id": "football/2016/apr/29/southampton-manchester-city-match-preview", "type": "article", "sectionId": "football", "sectionName": "Football", "webPublicationDate": "2016-04-29T15:56:57Z", "webTitle": "Southampton v Manchester City: match preview", "webUrl": "https://www.theguardian.com/football/2016/apr/29/southampton-manchester-city-match-preview", "apiUrl": "https://content.guardianapis.com/football/2016/apr/29/southampton-manchester-city-match-preview", "isHosted": false, "pillarId": "pillar/sport", "pillarName": "Sport"}, {"id": "football/2016/apr/29/strange-times-leicester-city-premier-league-biggest-party-ever", "type": "article", "sectionId": "football", "sectionName": "Football", "webPublicationDate": "2016-04-29T15:43:44Z", "webTitle": "Strange times in Leicester: 'If we win the league, you\u2019ll see the biggest party ever'", "webUrl": "https://www.theguardian.com/football/2016/apr/29/strange-times-leicester-city-premier-league-biggest-party-ever", "apiUrl": "https://content.guardianapis.com/football/2016/apr/29/strange-times-leicester-city-premier-league-biggest-party-ever", "isHosted": false, "pillarId": "pillar/sport", "pillarName": "Sport"}, {"id": "football/2016/apr/29/football-league-ups-and-downs", "type": "article", "sectionId": "football", "sectionName": "Football", "webPublicationDate": "2016-04-29T15:27:53Z", "webTitle": "Football League ups and downs: what could happen in this round of games", "webUrl": "https://www.theguardian.com/football/2016/apr/29/football-league-ups-and-downs", "apiUrl": "https://content.guardianapis.com/football/2016/apr/29/football-league-ups-and-downs", "isHosted": false, "pillarId": "pillar/sport", "pillarName": "Sport"}, {"id": "uk-news/2016/apr/29/hillsborough-families-remedial-measures-south-yorkshire-police", "type": "article", "sectionId": "football", "sectionName": "Football", "webPublicationDate": "2016-04-29T15:13:11Z", "webTitle": "Hillsborough families seek remedial measures against police", "webUrl": "https://www.theguardian.com/uk-news/2016/apr/29/hillsborough-families-remedial-measures-south-yorkshire-police", "apiUrl": "https://content.guardianapis.com/uk-news/2016/apr/29/hillsborough-families-remedial-measures-south-yorkshire-police", "isHosted": false, "pillarId": "pillar/sport", "pillarName": "Sport"}, {"id": "football/2016/apr/29/stoke-city-sunderland-match-preview", "type": "article", "sectionId": "football", "sectionName": "Football", "webPublicationDate": "2016-04-29T15:12:02Z", "webTitle": "Stoke City v Sunderland: match preview", "webUrl": "https://www.theguardian.com/football/2016/apr/29/stoke-city-sunderland-match-preview", "apiUrl": "https://content.guardianapis.com/football/2016/apr/29/stoke-city-sunderland-match-preview", "isHosted": false, "pillarId": "pillar/sport", "pillarName": "Sport"}, {"id": "commentisfree/2016/apr/29/the-guardian-view-on-the-hillsborough-inquest-setting-the-story-straight", "type": "article", "sectionId": "commentisfree", "sectionName": "Opinion", "webPublicationDate": "2016-04-29T15:11:50Z", "webTitle": "The Guardian view on the Hillsborough inquest: setting the story straight | Editorial", "webUrl": "https://www.theguardian.com/commentisfree/2016/apr/29/the-guardian-view-on-the-hillsborough-inquest-setting-the-story-straight", "apiUrl": "https://content.guardianapis.com/commentisfree/2016/apr/29/the-guardian-view-on-the-hillsborough-inquest-setting-the-story-straight", "isHosted": false, "pillarId": "pillar/opinion", "pillarName": "Opinion"}]}}