{"response": {"status": "ok", "userTier": "developer", "total": 131416, "startIndex": 1, "pageSize": 50, "currentPage": 1, "pages": 2629, "orderBy": "newest", "results": [{"id": "politics/2014/may/01/third-troubled-families-turned-around-government-scheme", "type": "article", "sectionId": "politics", "sectionName": "Politics", "webPublicationDate": "2014-04-30T23:22:00Z", "webTitle": "Only a third of 'troubled families' turned around by government scheme", "webUrl": "https://www.theguardian.com/politics/2014/may/01/third-troubled-families-turned-around-government-scheme", "apiUrl": "https://content.guardianapis.com/politics/2014/may/01/third-troubled-families-turned-around-government-scheme", "isHosted": false, "pillarId": "pillar/news", "pillarName": "News"}, {"id": "world/2014/may/01/ronald-reagan-perceived-bumbler-uk-diplomats-thatcher-ally", "type": "article", "sectionId": "us-news", "sectionName": "US news", "webPublicationDate": "2014-04-30T23:05:02Z", "webTitle": "Ronald Reagan could become seen as a 'bumbler', Foreign Office warned", "webUrl": "https://www.theguardian.com/world/2014/may/01/ronald-reagan-perceived-bumbler-uk-diplomats-thatcher-ally", "apiUrl": "https://content.guardianapis.com/world/2014/may/01/ronald-reagan-perceived-bumbler-uk-diplomats-thatcher-ally", "isHosted": false, "pillarId": "pillar/news", "pillarName": "News"}, {"id": "society/2014/may/01/nhs-reward-healthy-with-tax-rebates", "type": "article", "sectionId": "society", "sectionName": "Society", "webPublicationDate": "2014-04-30T23:05:00Z", "webTitle": "Reward healthy people with tax rebates to save the NHS, urges thinktank", "webUrl": "https://www.theguardian.com/society/2014/may/01/nhs-reward-healthy-with-tax-rebates", "apiUrl": "https://content.guardianapis.com/society/2014/may/01/nhs-reward-healthy-with-tax-rebates", "isHosted": false, "pillarId": "pillar/news", "pillarName": "News"}, {"id": "business/2014/may/01/women-must-cheer-on-each-other-equal-society-stella-creasy-top-jobs-sexim", "type": "article", "sectionId": "business", "sectionName": "Business", "webPublicationDate": "2014-04-30T23:02:00Z", "webTitle": "Women must cheer each other on to create equal society, says Stella Creasy", "webUrl": "https://www.theguardian.com/business/2014/may/01/women-must-cheer-on-each-other-equal-society-stella-creasy-top-jobs-sexim", "apiUrl": "https://content.guardianapis.com/business/2014/may/01/women-must-cheer-on-each-other-equal-society-stella-creasy-top-jobs-sexim", "isHosted": false, "pillarId": "pillar/news", "pillarName": "News"}, {"id": "uk-news/2014/may/01/huge-increase-workers-zero-hours-contracts", "type": "article", "sectionId": "uk-news", "sectionName": "UK news", "webPublicationDate": "2014-04-30T23:01:00Z", "webTitle": "Number of zero-hours contracts reaches 1.4m", "webUrl": "https://www.theguardian.com/uk-news/2014/may/01/huge-increase-workers-zero-hours-contracts", "apiUrl": "https://content.guardianapis.com/uk-news/2014/may/01/huge-increase-workers-zero-hours-contracts", "isHosted": false, "pillarId": "pillar/news", "pillarName": "News"}, {"id": "uk-news/2014/apr/30/tales-from-the-zero-hours-zone", "type": "article", "sectionId": "uk-news", "sectionName": "UK news", "webPublicationDate": "2014-04-30T22:48:56Z", "webTitle": "Tales from the zero-hours zone: decent standard of living is impossible", "webUrl": "https://www.theguardian.com/uk-news/2014/apr/30/tales-from-the-zero-hours-zone", "apiUrl": "https://content.guardianapis.com/uk-news/2014/apr/30/tales-from-the-zero-hours-zone", "isHosted": false, "pillarId": "pillar/news", "pillarName": "News"}, {"id": "politics/2014/apr/30/diary-hugh-muir-nigel-farage-migrants-ros-taylor", "type": "article", "sectionId": "politics", "sectionName": "Politics", "webPublicationDate": "2014-04-30T22:00:01Z", "webTitle": "Hugh Muir's diary: Mr Farage, let migrants know \u2013 can they stay or must they go?", "webUrl": "https://www.theguardian.com/politics/2014/apr/30/diary-hugh-muir-nigel-farage-migrants-ros-taylor", "apiUrl": "https://content.guardianapis.com/politics/2014/apr/30/diary-hugh-muir-nigel-farage-migrants-ros-taylor", "isHosted": false, "pillarId": "pillar/news", "pillarName": "News"}, {"id": "media/2014/apr/30/jeremy-paxman-newsnight-politicians-relief", "type": "article", "sectionId": "media", "sectionName": "Media", "webPublicationDate": "2014-04-30T21:10:43Z", "webTitle": "Jeremy Paxman: politicians breathe sigh of relief over Newsnight departure", "webUrl": "https://www.theguardian.com/media/2014/apr/30/jeremy-paxman-newsnight-politicians-relief", "apiUrl": "https://content.guardianapis.com/media/2014/apr/30/jeremy-paxman-newsnight-politicians-relief", "isHosted": false, "pillarId": "pillar/news", "pillarName": "News"}, {"id": "commentisfree/2014/apr/30/russia-ukraine-war-kiev-conflict", "type": "article", "sectionId": "commentisfree", "sectionName": "Opinion", "webPublicationDate": "2014-04-30T20:01:10Z", "webTitle": "It's not Russia that's pushed Ukraine to the brink of war | Seumas Milne", "webUrl": "https://www.theguardian.com/commentisfree/2014/apr/30/russia-ukraine-war-kiev-conflict", "apiUrl": "https://content.guardianapis.com/commentisfree/2014/apr/30/russia-ukraine-war-kiev-conflict", "isHosted": false, "pillarId": "pillar/opinion", "pillarName": "Opinion"}, {"id": "politics/2014/apr/30/immigration-doesnt-explain-ukip-rise", "type": "article", "sectionId": "politics", "sectionName": "Politics", "webPublicationDate": "2014-04-30T20:01:08Z", "webTitle": "Immigration alone does not explain Ukip's rise | @guardianletters", "webUrl": "https://www.theguardian.com/politics/2014/apr/30/immigration-doesnt-explain-ukip-rise", "apiUrl": "https://content.guardianapis.com/politics/2014/apr/30/immigration-doesnt-explain-ukip-rise", "isHosted": false, "pillarId": "pillar/news", "pillarName": "News"}, {"id": "business/2014/apr/30/britain-strategic-asset-astrazeneca", "type": "article", "sectionId": "business", "sectionName": "Business", "webPublicationDate": "2014-04-30T20:01:07Z", "webTitle": "Britain must not sacrifice a strategic asset like AstraZeneca | @guardianletters", "webUrl": "https://www.theguardian.com/business/2014/apr/30/britain-strategic-asset-astrazeneca", "apiUrl": "https://content.guardianapis.com/business/2014/apr/30/britain-strategic-asset-astrazeneca", "isHosted": false, "pillarId": "pillar/news", "pillarName": "News"}, {"id": "politics/2014/apr/30/ukip-donor-says-women-cannot-be-raped-by-husbands", "type": "article", "sectionId": "politics", "sectionName": "Politics", "webPublicationDate": "2014-04-30T19:10:00Z", "webTitle": "Ukip donor says women cannot be raped by their husbands", "webUrl": "https://www.theguardian.com/politics/2014/apr/30/ukip-donor-says-women-cannot-be-raped-by-husbands", "apiUrl": "https://content.guardianapis.com/politics/2014/apr/30/ukip-donor-says-women-cannot-be-raped-by-husbands", "isHosted": false, "pillarId": "pillar/news", "pillarName": "News"}, {"id": "commentisfree/2014/apr/30/help-to-work-is-really-punishment-unemployed-people", "type": "article", "sectionId": "commentisfree", "sectionName": "Opinion", "webPublicationDate": "2014-04-30T19:00:00Z", "webTitle": "Let's call Help to Work what it really is: punishment of the undeserving poor | Suzanne Moore", "webUrl": "https://www.theguardian.com/commentisfree/2014/apr/30/help-to-work-is-really-punishment-unemployed-people", "apiUrl": "https://content.guardianapis.com/commentisfree/2014/apr/30/help-to-work-is-really-punishment-unemployed-people", "isHosted": false, "pillarId": "pillar/opinion", "pillarName": "Opinion"}, {"id": "politics/2014/apr/30/pmqs-never-mind-gdp-what-about-gpo", "type": "article", "sectionId": "politics", "sectionName": "Politics", "webPublicationDate": "2014-04-30T18:49:03Z", "webTitle": "PMQs: never mind the GDP, what about the GPO?", "webUrl": "https://www.theguardian.com/politics/2014/apr/30/pmqs-never-mind-gdp-what-about-gpo", "apiUrl": "https://content.guardianapis.com/politics/2014/apr/30/pmqs-never-mind-gdp-what-about-gpo", "isHosted": false, "pillarId": "pillar/news", "pillarName": "News"}, {"id": "politics/2014/apr/30/alex-salmond-vladimir-putin-remarks", "type": "article", "sectionId": "politics", "sectionName": "Politics", "webPublicationDate": "2014-04-30T17:41:26Z", "webTitle": "Alex Salmond defends Vladimir Putin remarks", "webUrl": "https://www.theguardian.com/politics/2014/apr/30/alex-salmond-vladimir-putin-remarks", "apiUrl": "https://content.guardianapis.com/politics/2014/apr/30/alex-salmond-vladimir-putin-remarks", "isHosted": false, "pillarId": "pillar/news", "pillarName": "News"}, {"id": "business/nils-pratley-on-finance/2014/apr/30/alstom-ge-siemens-france-pragmaticism", "type": "article", "sectionId": "business", "sectionName": "Business", "webPublicationDate": "2014-04-30T17:15:35Z", "webTitle": "Alstom clearly favours GE despite government preference for Siemens", "webUrl": "https://www.theguardian.com/business/nils-pratley-on-finance/2014/apr/30/alstom-ge-siemens-france-pragmaticism", "apiUrl": "https://content.guardianapis.com/business/nils-pratley-on-finance/2014/apr/30/alstom-ge-siemens-france-pragmaticism", "isHosted": false, "pillarId": "pillar/news", "pillarName": "News"}, {"id": "politics/2014/apr/30/house-of-commons-scrutinising-government-john-bercow", "type": "article", "sectionId": "politics", "sectionName": "Politics", "webPublicationDate": "2014-04-30T17:08:34Z", "webTitle": "House of Commons 'is scrutinising government more effectively than ever'", "webUrl": "https://www.theguardian.com/politics/2014/apr/30/house-of-commons-scrutinising-government-john-bercow", "apiUrl": "https://content.guardianapis.com/politics/2014/apr/30/house-of-commons-scrutinising-government-john-bercow", "isHosted": false, "pillarId": "pillar/news", "pillarName": "News"}, {"id": "music/2014/apr/30/bez-launches-parliament-bid-eccles-happy-mondays", "type": "article", "sectionId": "music", "sectionName": "Music", "webPublicationDate": "2014-04-30T16:17:48Z", "webTitle": "Step one: Bez promises 'true revolution' as he launches bid for parliament", "webUrl": "https://www.theguardian.com/music/2014/apr/30/bez-launches-parliament-bid-eccles-happy-mondays", "apiUrl": "https://content.guardianapis.com/music/2014/apr/30/bez-launches-parliament-bid-eccles-happy-mondays", "isHosted": false, "pillarId": "pillar/arts", "pillarName": "Arts"}, {"id": "commentisfree/2014/apr/30/royal-mail-sale-lacked-foresight-vince-cable-insidious-misdirection", "type": "article", "sectionId": "commentisfree", "sectionName": "Opinion", "webPublicationDate": "2014-04-30T16:00:04Z", "webTitle": "The disastrous Royal Mail sale didn't lack hindsight, it lacked foresight | Alex Andreou", "webUrl": "https://www.theguardian.com/commentisfree/2014/apr/30/royal-mail-sale-lacked-foresight-vince-cable-insidious-misdirection", "apiUrl": "https://content.guardianapis.com/commentisfree/2014/apr/30/royal-mail-sale-lacked-foresight-vince-cable-insidious-misdirection", "isHosted": false, "pillarId": "pillar/opinion", "pillarName": "Opinion"}, {"id": "business/2014/apr/30/france-alstom-accepts-us-general-electric-energy-bid", "type": "article", "sectionId": "business", "sectionName": "Business", "webPublicationDate": "2014-04-30T15:56:53Z", "webTitle": "France's Alstom accepts GE bid despite government outcry", "webUrl": "https://www.theguardian.com/business/2014/apr/30/france-alstom-accepts-us-general-electric-energy-bid", "apiUrl": "https://content.guardianapis.com/business/2014/apr/30/france-alstom-accepts-us-general-electric-energy-bid", "isHosted": false, "pillarId": "pillar/news", "pillarName": "News"}, {"id": "uk-news/2014/apr/30/maximum-stake-fixed-odds-betting-terminals-restricted", "type": "article", "sectionId": "uk-news", "sectionName": "UK news", "webPublicationDate": "2014-04-30T15:29:00Z", "webTitle": "Maximum cash stake on fixed-odds betting terminals to be restricted", "webUrl": "https://www.theguardian.com/uk-news/2014/apr/30/maximum-stake-fixed-odds-betting-terminals-restricted", "apiUrl": "https://content.guardianapis.com/uk-news/2014/apr/30/maximum-stake-fixed-odds-betting-terminals-restricted", "isHosted": false, "pillarId": "pillar/news", "pillarName": "News"}, {"id": "politics/2014/apr/30/ukip-nigel-farage-top-polls-european-elections", "type": "article", "sectionId": "politics", "sectionName": "Politics", "webPublicationDate": "2014-04-30T15:06:00Z", "webTitle": "Ukip soars to top of polls despite Farage ducking byelection battle", "webUrl": "https://www.theguardian.com/politics/2014/apr/30/ukip-nigel-farage-top-polls-european-elections", "apiUrl": "https://content.guardianapis.com/politics/2014/apr/30/ukip-nigel-farage-top-polls-european-elections", "isHosted": false, "pillarId": "pillar/news", "pillarName": "News"}, {"id": "politics/2014/apr/30/newark-voters-warm-ukip-cold-shoulder-farage", "type": "article", "sectionId": "politics", "sectionName": "Politics", "webPublicationDate": "2014-04-30T14:53:42Z", "webTitle": "Newark voters warm to Ukip message despite cold shoulder from Farage", "webUrl": "https://www.theguardian.com/politics/2014/apr/30/newark-voters-warm-ukip-cold-shoulder-farage", "apiUrl": "https://content.guardianapis.com/politics/2014/apr/30/newark-voters-warm-ukip-cold-shoulder-farage", "isHosted": false, "pillarId": "pillar/news", "pillarName": "News"}, {"id": "business/2014/apr/30/project-syndicate-china-peaceful-rise-biggest-geopolitical-challenge", "type": "article", "sectionId": "business", "sectionName": "Business", "webPublicationDate": "2014-04-30T14:44:50Z", "webTitle": "Keeping China's rise peaceful is our biggest geopolitical challenge", "webUrl": "https://www.theguardian.com/business/2014/apr/30/project-syndicate-china-peaceful-rise-biggest-geopolitical-challenge", "apiUrl": "https://content.guardianapis.com/business/2014/apr/30/project-syndicate-china-peaceful-rise-biggest-geopolitical-challenge", "isHosted": false, "pillarId": "pillar/news", "pillarName": "News"}, {"id": "politics/blog/2014/apr/30/nigel-farage-says-hes-not-standing-in-newark-politics-live-blog", "type": "liveblog", "sectionId": "politics", "sectionName": "Politics", "webPublicationDate": "2014-04-30T14:14:03Z", "webTitle": "Cameron and Milband at PMQs: Politics live blog", "webUrl": "https://www.theguardian.com/politics/blog/2014/apr/30/nigel-farage-says-hes-not-standing-in-newark-politics-live-blog", "apiUrl": "https://content.guardianapis.com/politics/blog/2014/apr/30/nigel-farage-says-hes-not-standing-in-newark-politics-live-blog", "isHosted": false, "pillarId": "pillar/news", "pillarName": "News"}, {"id": "stage/2014/apr/30/michael-attenborough-david-cameron-belarus-free-theatre", "type": "article", "sectionId": "stage", "sectionName": "Stage", "webPublicationDate": "2014-04-30T13:50:29Z", "webTitle": "Michael Attenborough: David Cameron can't ignore Belarus Free Theatre abuse", "webUrl": "https://www.theguardian.com/stage/2014/apr/30/michael-attenborough-david-cameron-belarus-free-theatre", "apiUrl": "https://content.guardianapis.com/stage/2014/apr/30/michael-attenborough-david-cameron-belarus-free-theatre", "isHosted": false, "pillarId": "pillar/arts", "pillarName": "Arts"}, {"id": "law/2014/apr/30/theresa-may-reform-police-stop-and-search-powers", "type": "article", "sectionId": "law", "sectionName": "Law", "webPublicationDate": "2014-04-30T13:31:39Z", "webTitle": "Theresa May announces reform of police stop-and-search powers", "webUrl": "https://www.theguardian.com/law/2014/apr/30/theresa-may-reform-police-stop-and-search-powers", "apiUrl": "https://content.guardianapis.com/law/2014/apr/30/theresa-may-reform-police-stop-and-search-powers", "isHosted": false, "pillarId": "pillar/news", "pillarName": "News"}, {"id": "uk-news/2014/apr/30/ed-miliband-david-cameron-pmqs-royal-mail", "type": "article", "sectionId": "business", "sectionName": "Business", "webPublicationDate": "2014-04-30T13:22:30Z", "webTitle": "Miliband attacks PM over hedge funds that made millions from Royal Mail", "webUrl": "https://www.theguardian.com/uk-news/2014/apr/30/ed-miliband-david-cameron-pmqs-royal-mail", "apiUrl": "https://content.guardianapis.com/uk-news/2014/apr/30/ed-miliband-david-cameron-pmqs-royal-mail", "isHosted": false, "pillarId": "pillar/news", "pillarName": "News"}, {"id": "society/2014/apr/30/minimum-alcohol-price-european-court-scottish-judges", "type": "article", "sectionId": "society", "sectionName": "Society", "webPublicationDate": "2014-04-30T13:16:02Z", "webTitle": "Minimum alcohol price plan referred to European court by Scottish judges", "webUrl": "https://www.theguardian.com/society/2014/apr/30/minimum-alcohol-price-european-court-scottish-judges", "apiUrl": "https://content.guardianapis.com/society/2014/apr/30/minimum-alcohol-price-european-court-scottish-judges", "isHosted": false, "pillarId": "pillar/news", "pillarName": "News"}, {"id": "commentisfree/2014/apr/30/nigel-farage-newark-byelection-good-for-ukip", "type": "article", "sectionId": "commentisfree", "sectionName": "Opinion", "webPublicationDate": "2014-04-30T12:34:35Z", "webTitle": "Forget Nigel Farage \u2013 the Newark byelection can still be good for Ukip | Robert Ford and Matthew Goodwin", "webUrl": "https://www.theguardian.com/commentisfree/2014/apr/30/nigel-farage-newark-byelection-good-for-ukip", "apiUrl": "https://content.guardianapis.com/commentisfree/2014/apr/30/nigel-farage-newark-byelection-good-for-ukip", "isHosted": false, "pillarId": "pillar/opinion", "pillarName": "Opinion"}, {"id": "society/2014/apr/30/labour-scrap-plans-modern-day-borstal-young-offenders", "type": "article", "sectionId": "society", "sectionName": "Society", "webPublicationDate": "2014-04-30T11:04:03Z", "webTitle": "Labour promises to scrap plans for 'modern-day borstal'", "webUrl": "https://www.theguardian.com/society/2014/apr/30/labour-scrap-plans-modern-day-borstal-young-offenders", "apiUrl": "https://content.guardianapis.com/society/2014/apr/30/labour-scrap-plans-modern-day-borstal-young-offenders", "isHosted": false, "pillarId": "pillar/news", "pillarName": "News"}, {"id": "law/2014/apr/30/police-stop-search-powers-commons-statement-consultation", "type": "article", "sectionId": "law", "sectionName": "Law", "webPublicationDate": "2014-04-30T10:57:14Z", "webTitle": "Police stop-and-search powers: May to address Commons after consultation", "webUrl": "https://www.theguardian.com/law/2014/apr/30/police-stop-search-powers-commons-statement-consultation", "apiUrl": "https://content.guardianapis.com/law/2014/apr/30/police-stop-search-powers-commons-statement-consultation", "isHosted": false, "pillarId": "pillar/news", "pillarName": "News"}, {"id": "politics/2014/apr/30/guardian-footage-police-taser-naked-man-lee-birch", "type": "article", "sectionId": "uk-news", "sectionName": "UK news", "webPublicationDate": "2014-04-30T10:50:55Z", "webTitle": "Guardian obtains footage of police officer firing Taser at naked man", "webUrl": "https://www.theguardian.com/politics/2014/apr/30/guardian-footage-police-taser-naked-man-lee-birch", "apiUrl": "https://content.guardianapis.com/politics/2014/apr/30/guardian-footage-police-taser-naked-man-lee-birch", "isHosted": false, "pillarId": "pillar/news", "pillarName": "News"}, {"id": "politics/2014/apr/30/tory-government-ban-wildcat-strikes-underground-boris-johnson", "type": "article", "sectionId": "politics", "sectionName": "Politics", "webPublicationDate": "2014-04-30T10:24:08Z", "webTitle": "Tory government would ban 'wildcat strikes' on tube, says Boris Johnson", "webUrl": "https://www.theguardian.com/politics/2014/apr/30/tory-government-ban-wildcat-strikes-underground-boris-johnson", "apiUrl": "https://content.guardianapis.com/politics/2014/apr/30/tory-government-ban-wildcat-strikes-underground-boris-johnson", "isHosted": false, "pillarId": "pillar/news", "pillarName": "News"}, {"id": "commentisfree/2014/apr/30/nigel-farage-newark-byelection-crushing-disappointment-ukip", "type": "article", "sectionId": "commentisfree", "sectionName": "Opinion", "webPublicationDate": "2014-04-30T10:02:29Z", "webTitle": "Nigel Farage's decision not to stand in Newark is a crushing disappointment", "webUrl": "https://www.theguardian.com/commentisfree/2014/apr/30/nigel-farage-newark-byelection-crushing-disappointment-ukip", "apiUrl": "https://content.guardianapis.com/commentisfree/2014/apr/30/nigel-farage-newark-byelection-crushing-disappointment-ukip", "isHosted": false, "pillarId": "pillar/opinion", "pillarName": "Opinion"}, {"id": "politics/2014/apr/30/nigel-farage-newark-byelection-sensible-decision", "type": "article", "sectionId": "politics", "sectionName": "Politics", "webPublicationDate": "2014-04-30T09:55:52Z", "webTitle": "Nigel Farage made the only sensible decision over Newark byelection", "webUrl": "https://www.theguardian.com/politics/2014/apr/30/nigel-farage-newark-byelection-sensible-decision", "apiUrl": "https://content.guardianapis.com/politics/2014/apr/30/nigel-farage-newark-byelection-sensible-decision", "isHosted": false, "pillarId": "pillar/news", "pillarName": "News"}, {"id": "local-government-network/2014/apr/30/council-freesheets-valuable-local-news-eric-pickles", "type": "article", "sectionId": "public-leaders-network", "sectionName": "Public Leaders Network", "webPublicationDate": "2014-04-30T08:46:57Z", "webTitle": "Eric Pickles says council freesheets are a waste of public money \u2013 I beg to differ", "webUrl": "https://www.theguardian.com/local-government-network/2014/apr/30/council-freesheets-valuable-local-news-eric-pickles", "apiUrl": "https://content.guardianapis.com/local-government-network/2014/apr/30/council-freesheets-valuable-local-news-eric-pickles", "isHosted": false, "pillarId": "pillar/news", "pillarName": "News"}, {"id": "uk-news/2014/apr/30/tube-strike-second-day-london-commuters", "type": "article", "sectionId": "uk-news", "sectionName": "UK news", "webPublicationDate": "2014-04-30T08:40:21Z", "webTitle": "Tube strike brings second day of disruption to London commuters", "webUrl": "https://www.theguardian.com/uk-news/2014/apr/30/tube-strike-second-day-london-commuters", "apiUrl": "https://content.guardianapis.com/uk-news/2014/apr/30/tube-strike-second-day-london-commuters", "isHosted": false, "pillarId": "pillar/news", "pillarName": "News"}, {"id": "business/2014/apr/30/standard-life-annuity-sales-slump-budget-2014", "type": "article", "sectionId": "business", "sectionName": "Business", "webPublicationDate": "2014-04-30T08:40:00Z", "webTitle": "Standard Life annuity sales halved after budget changes", "webUrl": "https://www.theguardian.com/business/2014/apr/30/standard-life-annuity-sales-slump-budget-2014", "apiUrl": "https://content.guardianapis.com/business/2014/apr/30/standard-life-annuity-sales-slump-budget-2014", "isHosted": false, "pillarId": "pillar/news", "pillarName": "News"}, {"id": "global-development/2014/apr/30/uk-aid-richer-countries-poor-mps-dfid", "type": "article", "sectionId": "global-development", "sectionName": "Global development", "webPublicationDate": "2014-04-30T08:08:00Z", "webTitle": "UK aid should not prop up richer countries at expense of poor, say MPs", "webUrl": "https://www.theguardian.com/global-development/2014/apr/30/uk-aid-richer-countries-poor-mps-dfid", "apiUrl": "https://content.guardianapis.com/global-development/2014/apr/30/uk-aid-richer-countries-poor-mps-dfid", "isHosted": false, "pillarId": "pillar/news", "pillarName": "News"}, {"id": "politics/2014/apr/30/nigel-farage-will-not-stand-newark-byelection-ukip", "type": "article", "sectionId": "politics", "sectionName": "Politics", "webPublicationDate": "2014-04-30T08:06:17Z", "webTitle": "Nigel Farage announces he will not stand in Newark byelection", "webUrl": "https://www.theguardian.com/politics/2014/apr/30/nigel-farage-will-not-stand-newark-byelection-ukip", "apiUrl": "https://content.guardianapis.com/politics/2014/apr/30/nigel-farage-will-not-stand-newark-byelection-ukip", "isHosted": false, "pillarId": "pillar/news", "pillarName": "News"}, {"id": "politics/2014/apr/29/labour-rub-out-michael-gove-education-system", "type": "article", "sectionId": "politics", "sectionName": "Politics", "webPublicationDate": "2014-04-30T07:38:00Z", "webTitle": "Labour vows to rub out Michael Gove's education reforms", "webUrl": "https://www.theguardian.com/politics/2014/apr/29/labour-rub-out-michael-gove-education-system", "apiUrl": "https://content.guardianapis.com/politics/2014/apr/29/labour-rub-out-michael-gove-education-system", "isHosted": false, "pillarId": "pillar/news", "pillarName": "News"}, {"id": "commentisfree/2014/apr/30/ukip-europe-racism-david-cameron", "type": "article", "sectionId": "commentisfree", "sectionName": "Opinion", "webPublicationDate": "2014-04-30T07:25:00Z", "webTitle": "The problem isn't Ukip, it is Europe | Simon Jenkins", "webUrl": "https://www.theguardian.com/commentisfree/2014/apr/30/ukip-europe-racism-david-cameron", "apiUrl": "https://content.guardianapis.com/commentisfree/2014/apr/30/ukip-europe-racism-david-cameron", "isHosted": false, "pillarId": "pillar/opinion", "pillarName": "Opinion"}, {"id": "law/2014/apr/30/judicial-review-changes-all-party-committee", "type": "article", "sectionId": "law", "sectionName": "Law", "webPublicationDate": "2014-04-30T07:14:35Z", "webTitle": "Case for judicial review changes not made, all-party committee says | Joshua Rozenberg", "webUrl": "https://www.theguardian.com/law/2014/apr/30/judicial-review-changes-all-party-committee", "apiUrl": "https://content.guardianapis.com/law/2014/apr/30/judicial-review-changes-all-party-committee", "isHosted": false, "pillarId": "pillar/news", "pillarName": "News"}, {"id": "society/2014/apr/30/prisoners-penalised-book-ban-relationships-prison-reform-trust", "type": "article", "sectionId": "society", "sectionName": "Society", "webPublicationDate": "2014-04-30T06:30:01Z", "webTitle": "Prisoners penalised by 'vindictive' book ban", "webUrl": "https://www.theguardian.com/society/2014/apr/30/prisoners-penalised-book-ban-relationships-prison-reform-trust", "apiUrl": "https://content.guardianapis.com/society/2014/apr/30/prisoners-penalised-book-ban-relationships-prison-reform-trust", "isHosted": false, "pillarId": "pillar/news", "pillarName": "News"}, {"id": "society/2014/apr/30/industy-wastelands-work-revival-mining-areas", "type": "article", "sectionId": "society", "sectionName": "Society", "webPublicationDate": "2014-04-30T06:00:02Z", "webTitle": "Can industry's wastelands be made workable again? | Peter Hetherington", "webUrl": "https://www.theguardian.com/society/2014/apr/30/industy-wastelands-work-revival-mining-areas", "apiUrl": "https://content.guardianapis.com/society/2014/apr/30/industy-wastelands-work-revival-mining-areas", "isHosted": false, "pillarId": "pillar/news", "pillarName": "News"}, {"id": "politics/2014/apr/30/real-estate-disrupted-by-impending-scottish-referendum", "type": "article", "sectionId": "politics", "sectionName": "Politics", "webPublicationDate": "2014-04-30T00:56:50Z", "webTitle": "Housebuyers put off by doubt over Scotland's future", "webUrl": "https://www.theguardian.com/politics/2014/apr/30/real-estate-disrupted-by-impending-scottish-referendum", "apiUrl": "https://content.guardianapis.com/politics/2014/apr/30/real-estate-disrupted-by-impending-scottish-referendum", "isHosted": false, "pillarId": "pillar/news", "pillarName": "News"}, {"id": "politics/2014/apr/30/farage-stand-newark-patrick-mercer", "type": "article", "sectionId": "politics", "sectionName": "Politics", "webPublicationDate": "2014-04-30T00:06:56Z", "webTitle": "Nigel Farage to 'think hard' about contesting Newark byelection", "webUrl": "https://www.theguardian.com/politics/2014/apr/30/farage-stand-newark-patrick-mercer", "apiUrl": "https://content.guardianapis.com/politics/2014/apr/30/farage-stand-newark-patrick-mercer", "isHosted": false, "pillarId": "pillar/news", "pillarName": "News"}, {"id": "commentisfree/2014/apr/29/in-praise-of-queens-park-council", "type": "article", "sectionId": "commentisfree", "sectionName": "Opinion", "webPublicationDate": "2014-04-29T22:57:32Z", "webTitle": "In praise of \u2026 Queen's Park council | Editorial", "webUrl": "https://www.theguardian.com/commentisfree/2014/apr/29/in-praise-of-queens-park-council", "apiUrl": "https://content.guardianapis.com/commentisfree/2014/apr/29/in-praise-of-queens-park-council", "isHosted": false, "pillarId": "pillar/opinion", "pillarName": "Opinion"}, {"id": "politics/2014/apr/29/david-cameron-intimations-political-mortality", "type": "article", "sectionId": "commentisfree", "sectionName": "Opinion", "webPublicationDate": "2014-04-29T22:30:01Z", "webTitle": "David Cameron: intimations of political mortality | Editorial", "webUrl": "https://www.theguardian.com/politics/2014/apr/29/david-cameron-intimations-political-mortality", "apiUrl": "https://content.guardianapis.com/politics/2014/apr/29/david-cameron-intimations-political-mortality", "isHosted": false, "pillarId": "pillar/opinion", "pillarName": "Opinion"}]}}