{"response": {"status": "ok", "userTier": "developer", "total": 21434, "startIndex": 1, "pageSize": 50, "currentPage": 1, "pages": 429, "orderBy": "newest", "results": [{"id": "media/2015/apr/30/will-cookery-show-bbq-champ-be-the-next-sizzler-for-itv", "type": "article", "sectionId": "media", "sectionName": "Media", "webPublicationDate": "2015-04-30T17:42:45Z", "webTitle": "Will cookery show BBQ Champ be the next sizzler for ITV?", "webUrl": "https://www.theguardian.com/media/2015/apr/30/will-cookery-show-bbq-champ-be-the-next-sizzler-for-itv", "apiUrl": "https://content.guardianapis.com/media/2015/apr/30/will-cookery-show-bbq-champ-be-the-next-sizzler-for-itv", "isHosted": false, "pillarId": "pillar/news", "pillarName": "News"}, {"id": "lifeandstyle/2015/apr/30/what-to-drink-election-night-fiona-beckett", "type": "article", "sectionId": "food", "sectionName": "Food", "webPublicationDate": "2015-04-30T16:00:07Z", "webTitle": "Wine: what to drink on election night", "webUrl": "https://www.theguardian.com/lifeandstyle/2015/apr/30/what-to-drink-election-night-fiona-beckett", "apiUrl": "https://content.guardianapis.com/lifeandstyle/2015/apr/30/what-to-drink-election-night-fiona-beckett", "isHosted": false, "pillarId": "pillar/lifestyle", "pillarName": "Lifestyle"}, {"id": "sustainable-business/2015/apr/30/urban-food-growing-east-london-sustainability", "type": "article", "sectionId": "sustainable-business", "sectionName": "Guardian Sustainable Business", "webPublicationDate": "2015-04-30T15:59:05Z", "webTitle": "The vegetable patches of east London are the hopes of a new generation", "webUrl": "https://www.theguardian.com/sustainable-business/2015/apr/30/urban-food-growing-east-london-sustainability", "apiUrl": "https://content.guardianapis.com/sustainable-business/2015/apr/30/urban-food-growing-east-london-sustainability", "isHosted": false}, {"id": "sustainable-business/2015/apr/30/raise-a-glass-to-neat-ideas-for-more-eco-friendly-scotch-whisky-scotland", "type": "article", "sectionId": "sustainable-business", "sectionName": "Guardian Sustainable Business", "webPublicationDate": "2015-04-30T14:45:03Z", "webTitle": "Raise a glass to neat ideas for more eco-friendly whisky", "webUrl": "https://www.theguardian.com/sustainable-business/2015/apr/30/raise-a-glass-to-neat-ideas-for-more-eco-friendly-scotch-whisky-scotland", "apiUrl": "https://content.guardianapis.com/sustainable-business/2015/apr/30/raise-a-glass-to-neat-ideas-for-more-eco-friendly-scotch-whisky-scotland", "isHosted": false}, {"id": "lifeandstyle/2015/apr/30/cooking-with-kids-lamb-stuffed-cabbage-leave-hazelnut-cake-recipe-claire-thomson-cook-residency", "type": "article", "sectionId": "lifeandstyle", "sectionName": "Life and style", "webPublicationDate": "2015-04-30T11:28:47Z", "webTitle": "Leisurely weekend cooking with the kids | Cook residency", "webUrl": "https://www.theguardian.com/lifeandstyle/2015/apr/30/cooking-with-kids-lamb-stuffed-cabbage-leave-hazelnut-cake-recipe-claire-thomson-cook-residency", "apiUrl": "https://content.guardianapis.com/lifeandstyle/2015/apr/30/cooking-with-kids-lamb-stuffed-cabbage-leave-hazelnut-cake-recipe-claire-thomson-cook-residency", "isHosted": false, "pillarId": "pillar/lifestyle", "pillarName": "Lifestyle"}, {"id": "lifeandstyle/2015/apr/30/food-gadgets-test-three-course-meal-save-time-trouble", "type": "article", "sectionId": "food", "sectionName": "Food", "webPublicationDate": "2015-04-30T07:00:02Z", "webTitle": "Inspect a gadget: cutting-edge kitchen aids put to the test", "webUrl": "https://www.theguardian.com/lifeandstyle/2015/apr/30/food-gadgets-test-three-course-meal-save-time-trouble", "apiUrl": "https://content.guardianapis.com/lifeandstyle/2015/apr/30/food-gadgets-test-three-course-meal-save-time-trouble", "isHosted": false, "pillarId": "pillar/lifestyle", "pillarName": "Lifestyle"}, {"id": "artanddesign/2015/apr/30/jackson-pollock-master-painter-and-prize-winning-baker-of-apple-pie", "type": "article", "sectionId": "artanddesign", "sectionName": "Art and design", "webPublicationDate": "2015-04-30T04:59:46Z", "webTitle": "Jackson Pollock's secret prize-winning recipe for apple pie discovered", "webUrl": "https://www.theguardian.com/artanddesign/2015/apr/30/jackson-pollock-master-painter-and-prize-winning-baker-of-apple-pie", "apiUrl": "https://content.guardianapis.com/artanddesign/2015/apr/30/jackson-pollock-master-painter-and-prize-winning-baker-of-apple-pie", "isHosted": false, "pillarId": "pillar/arts", "pillarName": "Arts"}, {"id": "business/2015/apr/29/bud-light-slogan-no-means-no", "type": "article", "sectionId": "business", "sectionName": "Business", "webPublicationDate": "2015-04-29T19:12:05Z", "webTitle": "Bud Light sorry for \u2018removing no from your vocabulary for the night\u2019 label", "webUrl": "https://www.theguardian.com/business/2015/apr/29/bud-light-slogan-no-means-no", "apiUrl": "https://content.guardianapis.com/business/2015/apr/29/bud-light-slogan-no-means-no", "isHosted": false, "pillarId": "pillar/news", "pillarName": "News"}, {"id": "lifeandstyle/2015/apr/29/japanese-cheesecake-toronto-cronuts-craze", "type": "article", "sectionId": "food", "sectionName": "Food", "webPublicationDate": "2015-04-29T18:39:46Z", "webTitle": "Move over, cronuts: in Toronto, it's all about Japanese cheesecake", "webUrl": "https://www.theguardian.com/lifeandstyle/2015/apr/29/japanese-cheesecake-toronto-cronuts-craze", "apiUrl": "https://content.guardianapis.com/lifeandstyle/2015/apr/29/japanese-cheesecake-toronto-cronuts-craze", "isHosted": false, "pillarId": "pillar/lifestyle", "pillarName": "Lifestyle"}, {"id": "lifeandstyle/2015/apr/29/spiraliser-courgettes-hero-vegetables-supermarket-sales-soar", "type": "article", "sectionId": "food", "sectionName": "Food", "webPublicationDate": "2015-04-29T16:08:49Z", "webTitle": "Spiraliser turns courgettes into \u2018hero vegetables\u2019 as supermarket sales soar", "webUrl": "https://www.theguardian.com/lifeandstyle/2015/apr/29/spiraliser-courgettes-hero-vegetables-supermarket-sales-soar", "apiUrl": "https://content.guardianapis.com/lifeandstyle/2015/apr/29/spiraliser-courgettes-hero-vegetables-supermarket-sales-soar", "isHosted": false, "pillarId": "pillar/lifestyle", "pillarName": "Lifestyle"}, {"id": "lifeandstyle/2015/apr/29/recipe-swap-packed-breakfast", "type": "article", "sectionId": "food", "sectionName": "Food", "webPublicationDate": "2015-04-29T15:06:33Z", "webTitle": "Recipe swap: packed breakfast", "webUrl": "https://www.theguardian.com/lifeandstyle/2015/apr/29/recipe-swap-packed-breakfast", "apiUrl": "https://content.guardianapis.com/lifeandstyle/2015/apr/29/recipe-swap-packed-breakfast", "isHosted": false, "pillarId": "pillar/lifestyle", "pillarName": "Lifestyle"}, {"id": "lifeandstyle/wordofmouth/2015/apr/29/how-to-cook-perfect-coq-au-riesling-recipe", "type": "article", "sectionId": "food", "sectionName": "Food", "webPublicationDate": "2015-04-29T11:43:41Z", "webTitle": "How to cook the perfect coq au riesling", "webUrl": "https://www.theguardian.com/lifeandstyle/wordofmouth/2015/apr/29/how-to-cook-perfect-coq-au-riesling-recipe", "apiUrl": "https://content.guardianapis.com/lifeandstyle/wordofmouth/2015/apr/29/how-to-cook-perfect-coq-au-riesling-recipe", "isHosted": false, "pillarId": "pillar/lifestyle", "pillarName": "Lifestyle"}, {"id": "cities/2015/apr/29/new-york-beijing-where-world-smoke-bar-smoking-ban", "type": "article", "sectionId": "cities", "sectionName": "Cities", "webPublicationDate": "2015-04-29T10:54:22Z", "webTitle": "From New York to Beijing, where in the world can you still smoke in a bar?", "webUrl": "https://www.theguardian.com/cities/2015/apr/29/new-york-beijing-where-world-smoke-bar-smoking-ban", "apiUrl": "https://content.guardianapis.com/cities/2015/apr/29/new-york-beijing-where-world-smoke-bar-smoking-ban", "isHosted": false, "pillarId": "pillar/news", "pillarName": "News"}, {"id": "lifeandstyle/2015/apr/28/coalition-derailed-programme-to-save-lives-by-reducing-salt-in-food", "type": "article", "sectionId": "lifeandstyle", "sectionName": "Life and style", "webPublicationDate": "2015-04-28T22:30:02Z", "webTitle": "Coalition 'derailed programme to save lives by reducing salt in food'", "webUrl": "https://www.theguardian.com/lifeandstyle/2015/apr/28/coalition-derailed-programme-to-save-lives-by-reducing-salt-in-food", "apiUrl": "https://content.guardianapis.com/lifeandstyle/2015/apr/28/coalition-derailed-programme-to-save-lives-by-reducing-salt-in-food", "isHosted": false, "pillarId": "pillar/lifestyle", "pillarName": "Lifestyle"}, {"id": "lifeandstyle/2015/apr/24/verdis-london-e1-restaurant-review-marina-oloughlin", "type": "article", "sectionId": "lifeandstyle", "sectionName": "Life and style", "webPublicationDate": "2015-04-28T16:55:08Z", "webTitle": "Verdi\u2019s, London E1 \u2013 restaurant review", "webUrl": "https://www.theguardian.com/lifeandstyle/2015/apr/24/verdis-london-e1-restaurant-review-marina-oloughlin", "apiUrl": "https://content.guardianapis.com/lifeandstyle/2015/apr/24/verdis-london-e1-restaurant-review-marina-oloughlin", "isHosted": false, "pillarId": "pillar/lifestyle", "pillarName": "Lifestyle"}, {"id": "world/shortcuts/2015/apr/28/diet-pepsi-dropped-aspatame-in-us-is-artificial-sweetener-dangerous", "type": "article", "sectionId": "world", "sectionName": "World news", "webPublicationDate": "2015-04-28T16:39:25Z", "webTitle": "Diet Pepsi has dropped aspartame in the US, so why not anywhere else?", "webUrl": "https://www.theguardian.com/world/shortcuts/2015/apr/28/diet-pepsi-dropped-aspatame-in-us-is-artificial-sweetener-dangerous", "apiUrl": "https://content.guardianapis.com/world/shortcuts/2015/apr/28/diet-pepsi-dropped-aspatame-in-us-is-artificial-sweetener-dangerous", "isHosted": false, "pillarId": "pillar/news", "pillarName": "News"}, {"id": "lifeandstyle/2015/apr/28/ramps-wild-garlic-seven-things-to-do-spring", "type": "article", "sectionId": "food", "sectionName": "Food", "webPublicationDate": "2015-04-28T15:28:32Z", "webTitle": "Call it ramps, call it wild garlic: seven things to do with the king green of spring", "webUrl": "https://www.theguardian.com/lifeandstyle/2015/apr/28/ramps-wild-garlic-seven-things-to-do-spring", "apiUrl": "https://content.guardianapis.com/lifeandstyle/2015/apr/28/ramps-wild-garlic-seven-things-to-do-spring", "isHosted": false, "pillarId": "pillar/lifestyle", "pillarName": "Lifestyle"}, {"id": "lifeandstyle/2015/apr/28/french-toast-the-pudding-of-2015", "type": "article", "sectionId": "food", "sectionName": "Food", "webPublicationDate": "2015-04-28T10:50:53Z", "webTitle": "French toast: the pudding of 2015?", "webUrl": "https://www.theguardian.com/lifeandstyle/2015/apr/28/french-toast-the-pudding-of-2015", "apiUrl": "https://content.guardianapis.com/lifeandstyle/2015/apr/28/french-toast-the-pudding-of-2015", "isHosted": false, "pillarId": "pillar/lifestyle", "pillarName": "Lifestyle"}, {"id": "lifeandstyle/2015/apr/28/burritos-britain-mexican-food-growth", "type": "article", "sectionId": "food", "sectionName": "Food", "webPublicationDate": "2015-04-28T00:04:56Z", "webTitle": "Burritos with everything as Britain falls for Mexican food", "webUrl": "https://www.theguardian.com/lifeandstyle/2015/apr/28/burritos-britain-mexican-food-growth", "apiUrl": "https://content.guardianapis.com/lifeandstyle/2015/apr/28/burritos-britain-mexican-food-growth", "isHosted": false, "pillarId": "pillar/lifestyle", "pillarName": "Lifestyle"}, {"id": "business/2015/apr/27/punk-brewers-brewdog-admit-mistakes-in-documents-addressed-to-investors", "type": "article", "sectionId": "business", "sectionName": "Business", "webPublicationDate": "2015-04-27T16:55:24Z", "webTitle": "Punk brewers BrewDog admit mistakes in documents addressed to investors", "webUrl": "https://www.theguardian.com/business/2015/apr/27/punk-brewers-brewdog-admit-mistakes-in-documents-addressed-to-investors", "apiUrl": "https://content.guardianapis.com/business/2015/apr/27/punk-brewers-brewdog-admit-mistakes-in-documents-addressed-to-investors", "isHosted": false, "pillarId": "pillar/news", "pillarName": "News"}, {"id": "business/2015/apr/27/chipotle-gmo-food-off-the-menu", "type": "article", "sectionId": "business", "sectionName": "Business", "webPublicationDate": "2015-04-27T16:09:06Z", "webTitle": "Chipotle removes all GMO ingredients from its menu", "webUrl": "https://www.theguardian.com/business/2015/apr/27/chipotle-gmo-food-off-the-menu", "apiUrl": "https://content.guardianapis.com/business/2015/apr/27/chipotle-gmo-food-off-the-menu", "isHosted": false, "pillarId": "pillar/news", "pillarName": "News"}, {"id": "lifeandstyle/2015/apr/27/breakfast-bonanza-rules-of-cereal-eating-cereal-killer-cafe-book", "type": "article", "sectionId": "food", "sectionName": "Food", "webPublicationDate": "2015-04-27T15:05:31Z", "webTitle": "Breakfast bonanza: the rules of cereal-eating revealed in new book", "webUrl": "https://www.theguardian.com/lifeandstyle/2015/apr/27/breakfast-bonanza-rules-of-cereal-eating-cereal-killer-cafe-book", "apiUrl": "https://content.guardianapis.com/lifeandstyle/2015/apr/27/breakfast-bonanza-rules-of-cereal-eating-cereal-killer-cafe-book", "isHosted": false, "pillarId": "pillar/lifestyle", "pillarName": "Lifestyle"}, {"id": "lifeandstyle/2015/apr/27/40-best-restaurants-in-britain-observer-food-monthly", "type": "article", "sectionId": "food", "sectionName": "Food", "webPublicationDate": "2015-04-27T07:00:04Z", "webTitle": "The 40 best restaurants in Britain", "webUrl": "https://www.theguardian.com/lifeandstyle/2015/apr/27/40-best-restaurants-in-britain-observer-food-monthly", "apiUrl": "https://content.guardianapis.com/lifeandstyle/2015/apr/27/40-best-restaurants-in-britain-observer-food-monthly", "isHosted": false, "pillarId": "pillar/lifestyle", "pillarName": "Lifestyle"}, {"id": "business/2015/apr/26/rethinking-how-we-buy-and-eat-our-food", "type": "article", "sectionId": "business", "sectionName": "Business", "webPublicationDate": "2015-04-26T18:36:27Z", "webTitle": "Rethinking how we buy, and eat, our food | Letters", "webUrl": "https://www.theguardian.com/business/2015/apr/26/rethinking-how-we-buy-and-eat-our-food", "apiUrl": "https://content.guardianapis.com/business/2015/apr/26/rethinking-how-we-buy-and-eat-our-food", "isHosted": false, "pillarId": "pillar/news", "pillarName": "News"}, {"id": "business/2015/apr/26/blue-bell-ice-cream-recall-listeria-food-safety", "type": "article", "sectionId": "business", "sectionName": "Business", "webPublicationDate": "2015-04-26T13:00:04Z", "webTitle": "Lesson from Blue Bell recall: producers should 'assume food is not safe'", "webUrl": "https://www.theguardian.com/business/2015/apr/26/blue-bell-ice-cream-recall-listeria-food-safety", "apiUrl": "https://content.guardianapis.com/business/2015/apr/26/blue-bell-ice-cream-recall-listeria-food-safety", "isHosted": false, "pillarId": "pillar/news", "pillarName": "News"}, {"id": "lifeandstyle/2015/apr/26/easy-frittata-recipes-for-your-packed-lunch-box", "type": "article", "sectionId": "lifeandstyle", "sectionName": "Life and style", "webPublicationDate": "2015-04-26T09:00:09Z", "webTitle": "Quick and easy frittata recipes for  your packed lunch | The lunchbox", "webUrl": "https://www.theguardian.com/lifeandstyle/2015/apr/26/easy-frittata-recipes-for-your-packed-lunch-box", "apiUrl": "https://content.guardianapis.com/lifeandstyle/2015/apr/26/easy-frittata-recipes-for-your-packed-lunch-box", "isHosted": false, "pillarId": "pillar/lifestyle", "pillarName": "Lifestyle"}, {"id": "tv-and-radio/2015/apr/26/w1a-review-ballot-monkeys-safe-house-christopher-eccleston-masterchef-final-alex-polizzi-chefs-trial", "type": "article", "sectionId": "tv-and-radio", "sectionName": "Television & radio", "webPublicationDate": "2015-04-26T06:00:06Z", "webTitle": "The week in TV: W1A; Ballot Monkeys; Safe House; MasterChef; Alex Polizzi: Chefs on Trial", "webUrl": "https://www.theguardian.com/tv-and-radio/2015/apr/26/w1a-review-ballot-monkeys-safe-house-christopher-eccleston-masterchef-final-alex-polizzi-chefs-trial", "apiUrl": "https://content.guardianapis.com/tv-and-radio/2015/apr/26/w1a-review-ballot-monkeys-safe-house-christopher-eccleston-masterchef-final-alex-polizzi-chefs-trial", "isHosted": false, "pillarId": "pillar/arts", "pillarName": "Arts"}, {"id": "travel/2015/apr/26/ginseng-coffee-milan-italy", "type": "article", "sectionId": "travel", "sectionName": "Travel", "webPublicationDate": "2015-04-26T06:00:06Z", "webTitle": "The foodie traveller sips ginseng coffee in Milan", "webUrl": "https://www.theguardian.com/travel/2015/apr/26/ginseng-coffee-milan-italy", "apiUrl": "https://content.guardianapis.com/travel/2015/apr/26/ginseng-coffee-milan-italy", "isHosted": false, "pillarId": "pillar/lifestyle", "pillarName": "Lifestyle"}, {"id": "lifeandstyle/2015/apr/26/jinjuu-restaurant-review", "type": "article", "sectionId": "food", "sectionName": "Food", "webPublicationDate": "2015-04-26T05:00:05Z", "webTitle": "Jinjuu: restaurant review", "webUrl": "https://www.theguardian.com/lifeandstyle/2015/apr/26/jinjuu-restaurant-review", "apiUrl": "https://content.guardianapis.com/lifeandstyle/2015/apr/26/jinjuu-restaurant-review", "isHosted": false, "pillarId": "pillar/lifestyle", "pillarName": "Lifestyle"}, {"id": "lifeandstyle/2015/apr/26/fizzy-white-wine-not-champagne", "type": "article", "sectionId": "food", "sectionName": "Food", "webPublicationDate": "2015-04-26T04:59:04Z", "webTitle": "Pop your cork with three delicious bubblies | David Williams", "webUrl": "https://www.theguardian.com/lifeandstyle/2015/apr/26/fizzy-white-wine-not-champagne", "apiUrl": "https://content.guardianapis.com/lifeandstyle/2015/apr/26/fizzy-white-wine-not-champagne", "isHosted": false, "pillarId": "pillar/lifestyle", "pillarName": "Lifestyle"}, {"id": "lifeandstyle/2015/apr/25/chargrilled-leeks-asparagus-recipes-thomasina-miers", "type": "article", "sectionId": "food", "sectionName": "Food", "webPublicationDate": "2015-04-25T13:00:03Z", "webTitle": "The weekend cook: Thomasina Miers\u2019 chargrilled vegetable recipes", "webUrl": "https://www.theguardian.com/lifeandstyle/2015/apr/25/chargrilled-leeks-asparagus-recipes-thomasina-miers", "apiUrl": "https://content.guardianapis.com/lifeandstyle/2015/apr/25/chargrilled-leeks-asparagus-recipes-thomasina-miers", "isHosted": false, "pillarId": "pillar/lifestyle", "pillarName": "Lifestyle"}, {"id": "lifeandstyle/2015/apr/25/cannellini-beans-recipes-batch-cooking-get-ahead", "type": "article", "sectionId": "food", "sectionName": "Food", "webPublicationDate": "2015-04-25T11:00:01Z", "webTitle": "Four canny cannellini recipes: cook once, eat all week | Get ahead", "webUrl": "https://www.theguardian.com/lifeandstyle/2015/apr/25/cannellini-beans-recipes-batch-cooking-get-ahead", "apiUrl": "https://content.guardianapis.com/lifeandstyle/2015/apr/25/cannellini-beans-recipes-batch-cooking-get-ahead", "isHosted": false, "pillarId": "pillar/lifestyle", "pillarName": "Lifestyle"}, {"id": "small-business-network/2015/apr/25/small-business-spotlight-corkers-crisps", "type": "article", "sectionId": "small-business-network", "sectionName": "Guardian Small Business Network", "webPublicationDate": "2015-04-25T07:00:06Z", "webTitle": "Small business in the spotlight ... Corkers Crisps", "webUrl": "https://www.theguardian.com/small-business-network/2015/apr/25/small-business-spotlight-corkers-crisps", "apiUrl": "https://content.guardianapis.com/small-business-network/2015/apr/25/small-business-spotlight-corkers-crisps", "isHosted": false, "pillarId": "pillar/news", "pillarName": "News"}, {"id": "lifeandstyle/2015/apr/25/family-life-a-scotsman-abroad-apache-by-the-shadows-and-roasted-tomato-pinocchi", "type": "article", "sectionId": "lifeandstyle", "sectionName": "Life and style", "webPublicationDate": "2015-04-25T05:45:05Z", "webTitle": "Family life: A Scotsman abroad, Apache by the Shadows and roasted tomato pinocchi", "webUrl": "https://www.theguardian.com/lifeandstyle/2015/apr/25/family-life-a-scotsman-abroad-apache-by-the-shadows-and-roasted-tomato-pinocchi", "apiUrl": "https://content.guardianapis.com/lifeandstyle/2015/apr/25/family-life-a-scotsman-abroad-apache-by-the-shadows-and-roasted-tomato-pinocchi", "isHosted": false, "pillarId": "pillar/lifestyle", "pillarName": "Lifestyle"}, {"id": "lifeandstyle/2015/apr/25/sweet-savoury-bakes-maple-bacon-bun-toffee-apple-pie-recipe", "type": "article", "sectionId": "food", "sectionName": "Food", "webPublicationDate": "2015-04-25T05:00:05Z", "webTitle": "Surprisingly tasty recipes for sweet and savoury bakes | Ruby bakes", "webUrl": "https://www.theguardian.com/lifeandstyle/2015/apr/25/sweet-savoury-bakes-maple-bacon-bun-toffee-apple-pie-recipe", "apiUrl": "https://content.guardianapis.com/lifeandstyle/2015/apr/25/sweet-savoury-bakes-maple-bacon-bun-toffee-apple-pie-recipe", "isHosted": false, "pillarId": "pillar/lifestyle", "pillarName": "Lifestyle"}, {"id": "lifeandstyle/2015/apr/25/cornflake-tart-oat-quiche-ice-cream-sandwich-recipe-swap", "type": "article", "sectionId": "food", "sectionName": "Food", "webPublicationDate": "2015-04-25T05:00:05Z", "webTitle": "Readers\u2019 recipe swap: Cereals | Eve O\u2019Sullivan", "webUrl": "https://www.theguardian.com/lifeandstyle/2015/apr/25/cornflake-tart-oat-quiche-ice-cream-sandwich-recipe-swap", "apiUrl": "https://content.guardianapis.com/lifeandstyle/2015/apr/25/cornflake-tart-oat-quiche-ice-cream-sandwich-recipe-swap", "isHosted": false, "pillarId": "pillar/lifestyle", "pillarName": "Lifestyle"}, {"id": "world/2015/apr/24/olympics-rio-de-janeiro-food-caterer-aramark", "type": "article", "sectionId": "world", "sectionName": "World news", "webPublicationDate": "2015-04-24T20:32:55Z", "webTitle": "Top Olympics caterer threatens to withdraw from Rio de Janeiro games", "webUrl": "https://www.theguardian.com/world/2015/apr/24/olympics-rio-de-janeiro-food-caterer-aramark", "apiUrl": "https://content.guardianapis.com/world/2015/apr/24/olympics-rio-de-janeiro-food-caterer-aramark", "isHosted": false, "pillarId": "pillar/news", "pillarName": "News"}, {"id": "lifeandstyle/2015/apr/24/gin-rhubarb-spring-cocktail-recipe", "type": "article", "sectionId": "food", "sectionName": "Food", "webPublicationDate": "2015-04-24T17:00:00Z", "webTitle": "The good mixer: a gin and rhubarb cocktail recipe that\u2019s perfect for spring", "webUrl": "https://www.theguardian.com/lifeandstyle/2015/apr/24/gin-rhubarb-spring-cocktail-recipe", "apiUrl": "https://content.guardianapis.com/lifeandstyle/2015/apr/24/gin-rhubarb-spring-cocktail-recipe", "isHosted": false, "pillarId": "pillar/lifestyle", "pillarName": "Lifestyle"}, {"id": "business/2015/apr/24/mild-spring-bumper-asparagus-season", "type": "article", "sectionId": "business", "sectionName": "Business", "webPublicationDate": "2015-04-24T16:43:05Z", "webTitle": "Foodies in for a treat as mild spring ushers in bumper asparagus season", "webUrl": "https://www.theguardian.com/business/2015/apr/24/mild-spring-bumper-asparagus-season", "apiUrl": "https://content.guardianapis.com/business/2015/apr/24/mild-spring-bumper-asparagus-season", "isHosted": false, "pillarId": "pillar/news", "pillarName": "News"}, {"id": "lifeandstyle/wordofmouth/2015/apr/24/end-line-why-we-should-stop-queueing-for-restaurants", "type": "article", "sectionId": "food", "sectionName": "Food", "webPublicationDate": "2015-04-24T11:19:04Z", "webTitle": "The end of the line: why we should stop queueing for restaurants", "webUrl": "https://www.theguardian.com/lifeandstyle/wordofmouth/2015/apr/24/end-line-why-we-should-stop-queueing-for-restaurants", "apiUrl": "https://content.guardianapis.com/lifeandstyle/wordofmouth/2015/apr/24/end-line-why-we-should-stop-queueing-for-restaurants", "isHosted": false, "pillarId": "pillar/lifestyle", "pillarName": "Lifestyle"}, {"id": "lifeandstyle/2015/apr/24/how-to-cook-a-chicken-gratin-meal-feasting-henry-dimbleby-jane-baxter", "type": "article", "sectionId": "food", "sectionName": "Food", "webPublicationDate": "2015-04-24T11:00:03Z", "webTitle": "Cook up a spring chicken feast with the trimmings | Feasting", "webUrl": "https://www.theguardian.com/lifeandstyle/2015/apr/24/how-to-cook-a-chicken-gratin-meal-feasting-henry-dimbleby-jane-baxter", "apiUrl": "https://content.guardianapis.com/lifeandstyle/2015/apr/24/how-to-cook-a-chicken-gratin-meal-feasting-henry-dimbleby-jane-baxter", "isHosted": false, "pillarId": "pillar/lifestyle", "pillarName": "Lifestyle"}, {"id": "lifeandstyle/2015/apr/24/uk-alcohol-licencing-laws-late-night-drinking-henry-jeffreys", "type": "article", "sectionId": "lifeandstyle", "sectionName": "Life and style", "webPublicationDate": "2015-04-24T11:00:03Z", "webTitle": "Going for a late-night drink | Empire of Drinks", "webUrl": "https://www.theguardian.com/lifeandstyle/2015/apr/24/uk-alcohol-licencing-laws-late-night-drinking-henry-jeffreys", "apiUrl": "https://content.guardianapis.com/lifeandstyle/2015/apr/24/uk-alcohol-licencing-laws-late-night-drinking-henry-jeffreys", "isHosted": false, "pillarId": "pillar/lifestyle", "pillarName": "Lifestyle"}, {"id": "travel/2015/apr/24/trinidad-lawrence-scott-caribbean-holiday-carnival-ecotourism", "type": "article", "sectionId": "travel", "sectionName": "Travel", "webPublicationDate": "2015-04-24T10:30:02Z", "webTitle": "Tales of Trinidad: writer Lawrence Scott on carnival, calypso and ecotourism", "webUrl": "https://www.theguardian.com/travel/2015/apr/24/trinidad-lawrence-scott-caribbean-holiday-carnival-ecotourism", "apiUrl": "https://content.guardianapis.com/travel/2015/apr/24/trinidad-lawrence-scott-caribbean-holiday-carnival-ecotourism", "isHosted": false, "pillarId": "pillar/lifestyle", "pillarName": "Lifestyle"}, {"id": "lifeandstyle/2015/apr/24/paul-ainsworth-final-meal-last-bites", "type": "article", "sectionId": "food", "sectionName": "Food", "webPublicationDate": "2015-04-24T07:00:08Z", "webTitle": "Paul Ainsworth\u2019s final meal | Last bites", "webUrl": "https://www.theguardian.com/lifeandstyle/2015/apr/24/paul-ainsworth-final-meal-last-bites", "apiUrl": "https://content.guardianapis.com/lifeandstyle/2015/apr/24/paul-ainsworth-final-meal-last-bites", "isHosted": false, "pillarId": "pillar/lifestyle", "pillarName": "Lifestyle"}, {"id": "books/booksblog/2015/apr/23/reading-american-cities-books-about-portland", "type": "article", "sectionId": "books", "sectionName": "Books", "webPublicationDate": "2015-04-23T16:30:07Z", "webTitle": "Reading American cities: books about Portland", "webUrl": "https://www.theguardian.com/books/booksblog/2015/apr/23/reading-american-cities-books-about-portland", "apiUrl": "https://content.guardianapis.com/books/booksblog/2015/apr/23/reading-american-cities-books-about-portland", "isHosted": false, "pillarId": "pillar/arts", "pillarName": "Arts"}, {"id": "lifeandstyle/2015/apr/23/revisit-wines-producers-not-liked-before-fiona-beckett", "type": "article", "sectionId": "food", "sectionName": "Food", "webPublicationDate": "2015-04-23T16:00:06Z", "webTitle": "Wine: don\u2019t judge a bottle by its cover", "webUrl": "https://www.theguardian.com/lifeandstyle/2015/apr/23/revisit-wines-producers-not-liked-before-fiona-beckett", "apiUrl": "https://content.guardianapis.com/lifeandstyle/2015/apr/23/revisit-wines-producers-not-liked-before-fiona-beckett", "isHosted": false, "pillarId": "pillar/lifestyle", "pillarName": "Lifestyle"}, {"id": "commentisfree/2015/apr/23/exercise-health-weight-loss-obesity", "type": "article", "sectionId": "commentisfree", "sectionName": "Opinion", "webPublicationDate": "2015-04-23T15:00:25Z", "webTitle": "Exercise brings me friends, happiness and health. It\u2019s not about losing weight | Rachel Dixon", "webUrl": "https://www.theguardian.com/commentisfree/2015/apr/23/exercise-health-weight-loss-obesity", "apiUrl": "https://content.guardianapis.com/commentisfree/2015/apr/23/exercise-health-weight-loss-obesity", "isHosted": false, "pillarId": "pillar/opinion", "pillarName": "Opinion"}, {"id": "commentisfree/2015/apr/23/power-to-baristas-free-coffee-shop-revolution-pret-a-manger", "type": "article", "sectionId": "commentisfree", "sectionName": "Opinion", "webPublicationDate": "2015-04-23T14:40:31Z", "webTitle": "Power to the baristas. How this coffee shop revolution can benefit everyone | Gaby Hinsliff", "webUrl": "https://www.theguardian.com/commentisfree/2015/apr/23/power-to-baristas-free-coffee-shop-revolution-pret-a-manger", "apiUrl": "https://content.guardianapis.com/commentisfree/2015/apr/23/power-to-baristas-free-coffee-shop-revolution-pret-a-manger", "isHosted": false, "pillarId": "pillar/opinion", "pillarName": "Opinion"}, {"id": "lifeandstyle/2015/apr/23/childrens-teatime-recipes-spaghetti-tortilla-chop-chop-salad", "type": "article", "sectionId": "food", "sectionName": "Food", "webPublicationDate": "2015-04-23T12:00:01Z", "webTitle": "How to add variety to kids' evening meals | Cook residency", "webUrl": "https://www.theguardian.com/lifeandstyle/2015/apr/23/childrens-teatime-recipes-spaghetti-tortilla-chop-chop-salad", "apiUrl": "https://content.guardianapis.com/lifeandstyle/2015/apr/23/childrens-teatime-recipes-spaghetti-tortilla-chop-chop-salad", "isHosted": false, "pillarId": "pillar/lifestyle", "pillarName": "Lifestyle"}, {"id": "sustainable-business/2015/apr/23/seven-days-almost-living-off-grid-in-london", "type": "article", "sectionId": "sustainable-business", "sectionName": "Guardian Sustainable Business", "webPublicationDate": "2015-04-23T11:40:54Z", "webTitle": "Seven days (almost) living off-grid in London", "webUrl": "https://www.theguardian.com/sustainable-business/2015/apr/23/seven-days-almost-living-off-grid-in-london", "apiUrl": "https://content.guardianapis.com/sustainable-business/2015/apr/23/seven-days-almost-living-off-grid-in-london", "isHosted": false}]}}