{"response": {"status": "ok", "userTier": "developer", "total": 40014, "startIndex": 1, "pageSize": 50, "currentPage": 1, "pages": 801, "orderBy": "newest", "results": [{"id": "environment/2014/apr/30/human-litter-european-seafloor-survey-ocean-deep", "type": "article", "sectionId": "environment", "sectionName": "Environment", "webPublicationDate": "2014-04-30T21:00:02Z", "webTitle": "Human litter found in Europe's deepest ocean depths", "webUrl": "https://www.theguardian.com/environment/2014/apr/30/human-litter-european-seafloor-survey-ocean-deep", "apiUrl": "https://content.guardianapis.com/environment/2014/apr/30/human-litter-european-seafloor-survey-ocean-deep", "isHosted": false, "pillarId": "pillar/news", "pillarName": "News"}, {"id": "environment/2014/apr/30/black-isle-red-kites-poisoned", "type": "article", "sectionId": "environment", "sectionName": "Environment", "webPublicationDate": "2014-04-30T20:01:02Z", "webTitle": "Country diary: Black Isle, Highlands: With so many red kites being poisoned, seeing them now fills me with sadness", "webUrl": "https://www.theguardian.com/environment/2014/apr/30/black-isle-red-kites-poisoned", "apiUrl": "https://content.guardianapis.com/environment/2014/apr/30/black-isle-red-kites-poisoned", "isHosted": false, "pillarId": "pillar/news", "pillarName": "News"}, {"id": "sustainable-business/walmart-sustainable-expo-environment-green-impact", "type": "article", "sectionId": "sustainable-business", "sectionName": "Guardian Sustainable Business", "webPublicationDate": "2014-04-30T19:10:00Z", "webTitle": "Walmart spearheads sustainability effort with first supplier expo", "webUrl": "https://www.theguardian.com/sustainable-business/walmart-sustainable-expo-environment-green-impact", "apiUrl": "https://content.guardianapis.com/sustainable-business/walmart-sustainable-expo-environment-green-impact", "isHosted": false}, {"id": "science/small-world/2014/apr/30/nanotech-research-wound-solution-microtube-eyes", "type": "article", "sectionId": "science", "sectionName": "Science", "webPublicationDate": "2014-04-30T17:05:06Z", "webTitle": "Deep wound solution, microtube eyes and solar fuel | Nanotech research roundup", "webUrl": "https://www.theguardian.com/science/small-world/2014/apr/30/nanotech-research-wound-solution-microtube-eyes", "apiUrl": "https://content.guardianapis.com/science/small-world/2014/apr/30/nanotech-research-wound-solution-microtube-eyes", "isHosted": false, "pillarId": "pillar/news", "pillarName": "News"}, {"id": "sustainable-business/blog/best-practices-sustainability-us-corporations-ceres", "type": "article", "sectionId": "sustainable-business", "sectionName": "Guardian Sustainable Business", "webPublicationDate": "2014-04-30T16:27:00Z", "webTitle": "Best practices in sustainability: Ford, Starbucks and more", "webUrl": "https://www.theguardian.com/sustainable-business/blog/best-practices-sustainability-us-corporations-ceres", "apiUrl": "https://content.guardianapis.com/sustainable-business/blog/best-practices-sustainability-us-corporations-ceres", "isHosted": false}, {"id": "lifeandstyle/2014/apr/30/green-apps-and-gadgets-conscious-me", "type": "article", "sectionId": "lifeandstyle", "sectionName": "Life and style", "webPublicationDate": "2014-04-30T16:13:20Z", "webTitle": "Green apps and gadgets: Conscious Me", "webUrl": "https://www.theguardian.com/lifeandstyle/2014/apr/30/green-apps-and-gadgets-conscious-me", "apiUrl": "https://content.guardianapis.com/lifeandstyle/2014/apr/30/green-apps-and-gadgets-conscious-me", "isHosted": false, "pillarId": "pillar/lifestyle", "pillarName": "Lifestyle"}, {"id": "world/2014/apr/30/madrid-smart-parking-metres-polluting-cars", "type": "article", "sectionId": "world", "sectionName": "World news", "webPublicationDate": "2014-04-30T16:12:15Z", "webTitle": "Madrid's smart parking meters to charge more for most polluting cars", "webUrl": "https://www.theguardian.com/world/2014/apr/30/madrid-smart-parking-metres-polluting-cars", "apiUrl": "https://content.guardianapis.com/world/2014/apr/30/madrid-smart-parking-metres-polluting-cars", "isHosted": false, "pillarId": "pillar/news", "pillarName": "News"}, {"id": "sustainable-business/blog/ceres-us-corporations-climate-change-sustainability", "type": "article", "sectionId": "sustainable-business", "sectionName": "Guardian Sustainable Business", "webPublicationDate": "2014-04-30T13:01:00Z", "webTitle": "Ceres report: US corporate progress on sustainability remains incremental", "webUrl": "https://www.theguardian.com/sustainable-business/blog/ceres-us-corporations-climate-change-sustainability", "apiUrl": "https://content.guardianapis.com/sustainable-business/blog/ceres-us-corporations-climate-change-sustainability", "isHosted": false}, {"id": "environment/2014/apr/30/ash-dieback-trees-2018", "type": "article", "sectionId": "environment", "sectionName": "Environment", "webPublicationDate": "2014-04-30T12:39:04Z", "webTitle": "Ash dieback 'could affect 75% of trees in worst-hit areas'", "webUrl": "https://www.theguardian.com/environment/2014/apr/30/ash-dieback-trees-2018", "apiUrl": "https://content.guardianapis.com/environment/2014/apr/30/ash-dieback-trees-2018", "isHosted": false, "pillarId": "pillar/news", "pillarName": "News"}, {"id": "global-development/2014/apr/30/global-battle-clean-air-podcast-transcript", "type": "article", "sectionId": "global-development", "sectionName": "Global development", "webPublicationDate": "2014-04-30T11:49:47Z", "webTitle": "The global battle for clean air \u2013 podcast transcript", "webUrl": "https://www.theguardian.com/global-development/2014/apr/30/global-battle-clean-air-podcast-transcript", "apiUrl": "https://content.guardianapis.com/global-development/2014/apr/30/global-battle-clean-air-podcast-transcript", "isHosted": false, "pillarId": "pillar/news", "pillarName": "News"}, {"id": "lifeandstyle/2014/apr/30/balcombe-energy-co-op-aim-take-power-corporations", "type": "article", "sectionId": "lifeandstyle", "sectionName": "Life and style", "webPublicationDate": "2014-04-30T11:00:08Z", "webTitle": "Balcombe energy co-op: we aim to take power back from the corporations", "webUrl": "https://www.theguardian.com/lifeandstyle/2014/apr/30/balcombe-energy-co-op-aim-take-power-corporations", "apiUrl": "https://content.guardianapis.com/lifeandstyle/2014/apr/30/balcombe-energy-co-op-aim-take-power-corporations", "isHosted": false, "pillarId": "pillar/lifestyle", "pillarName": "Lifestyle"}, {"id": "environment/2014/apr/30/yasuni-campaigners-oil-drilling-petition-results-referendum", "type": "article", "sectionId": "environment", "sectionName": "Environment", "webPublicationDate": "2014-04-30T10:46:29Z", "webTitle": "Yasuni campaigners claim oil drilling petition results are being manipulated", "webUrl": "https://www.theguardian.com/environment/2014/apr/30/yasuni-campaigners-oil-drilling-petition-results-referendum", "apiUrl": "https://content.guardianapis.com/environment/2014/apr/30/yasuni-campaigners-oil-drilling-petition-results-referendum", "isHosted": false, "pillarId": "pillar/news", "pillarName": "News"}, {"id": "global-development/2014/apr/30/solar-power-green-energy-african-development", "type": "article", "sectionId": "global-development", "sectionName": "Global development", "webPublicationDate": "2014-04-30T10:45:14Z", "webTitle": "Solar power to the people: green energy could boost African development", "webUrl": "https://www.theguardian.com/global-development/2014/apr/30/solar-power-green-energy-african-development", "apiUrl": "https://content.guardianapis.com/global-development/2014/apr/30/solar-power-green-energy-african-development", "isHosted": false, "pillarId": "pillar/news", "pillarName": "News"}, {"id": "environment/video/2014/apr/30/rotting-dead-whale-verge-exploding-canada-video", "type": "video", "sectionId": "environment", "sectionName": "Environment", "webPublicationDate": "2014-04-30T10:12:00Z", "webTitle": "Rotting dead whale washes up in Canadian town \u2013 video", "webUrl": "https://www.theguardian.com/environment/video/2014/apr/30/rotting-dead-whale-verge-exploding-canada-video", "apiUrl": "https://content.guardianapis.com/environment/video/2014/apr/30/rotting-dead-whale-verge-exploding-canada-video", "isHosted": false, "pillarId": "pillar/news", "pillarName": "News"}, {"id": "environment/2014/apr/30/uk-solar-farm-subsidies-cut-panels-buildings", "type": "article", "sectionId": "environment", "sectionName": "Environment", "webPublicationDate": "2014-04-30T09:47:13Z", "webTitle": "UK solar farm subsidies to be cut", "webUrl": "https://www.theguardian.com/environment/2014/apr/30/uk-solar-farm-subsidies-cut-panels-buildings", "apiUrl": "https://content.guardianapis.com/environment/2014/apr/30/uk-solar-farm-subsidies-cut-panels-buildings", "isHosted": false, "pillarId": "pillar/news", "pillarName": "News"}, {"id": "environment/2014/apr/30/cash-for-drink-containers-national-plan-dumped-by-state-territory-ministers", "type": "article", "sectionId": "environment", "sectionName": "Environment", "webPublicationDate": "2014-04-30T07:33:46Z", "webTitle": "Cash-for-drink-containers national plan dumped by state, territory ministers", "webUrl": "https://www.theguardian.com/environment/2014/apr/30/cash-for-drink-containers-national-plan-dumped-by-state-territory-ministers", "apiUrl": "https://content.guardianapis.com/environment/2014/apr/30/cash-for-drink-containers-national-plan-dumped-by-state-territory-ministers", "isHosted": false, "pillarId": "pillar/news", "pillarName": "News"}, {"id": "uk-news/scotland-blog/2014/apr/30/scotland-firthofforth-coal", "type": "article", "sectionId": "uk-news", "sectionName": "UK news", "webPublicationDate": "2014-04-30T07:00:00Z", "webTitle": "Scotland's secret tunnel under the Forth, 50 years old and forgotten", "webUrl": "https://www.theguardian.com/uk-news/scotland-blog/2014/apr/30/scotland-firthofforth-coal", "apiUrl": "https://content.guardianapis.com/uk-news/scotland-blog/2014/apr/30/scotland-firthofforth-coal", "isHosted": false, "pillarId": "pillar/news", "pillarName": "News"}, {"id": "lifeandstyle/australia-food-blog/2014/apr/30/can-ben-jerrys-save-the-great-barrier-reef", "type": "article", "sectionId": "lifeandstyle", "sectionName": "Life and style", "webPublicationDate": "2014-04-30T04:06:01Z", "webTitle": "Can Ben & Jerry's save the Great Barrier Reef?", "webUrl": "https://www.theguardian.com/lifeandstyle/australia-food-blog/2014/apr/30/can-ben-jerrys-save-the-great-barrier-reef", "apiUrl": "https://content.guardianapis.com/lifeandstyle/australia-food-blog/2014/apr/30/can-ben-jerrys-save-the-great-barrier-reef", "isHosted": false, "pillarId": "pillar/lifestyle", "pillarName": "Lifestyle"}, {"id": "environment/2014/apr/30/americans-unhealthy-levels-air-pollution", "type": "article", "sectionId": "environment", "sectionName": "Environment", "webPublicationDate": "2014-04-30T00:57:04Z", "webTitle": "Almost half of Americans live with unhealthy levels of air pollution", "webUrl": "https://www.theguardian.com/environment/2014/apr/30/americans-unhealthy-levels-air-pollution", "apiUrl": "https://content.guardianapis.com/environment/2014/apr/30/americans-unhealthy-levels-air-pollution", "isHosted": false, "pillarId": "pillar/news", "pillarName": "News"}, {"id": "environment/2014/apr/30/climate-change-extreme-rainfall-england-flooding", "type": "article", "sectionId": "environment", "sectionName": "Environment", "webPublicationDate": "2014-04-29T23:00:32Z", "webTitle": "Climate change 'making extreme rainfall in England more likely'", "webUrl": "https://www.theguardian.com/environment/2014/apr/30/climate-change-extreme-rainfall-england-flooding", "apiUrl": "https://content.guardianapis.com/environment/2014/apr/30/climate-change-extreme-rainfall-england-flooding", "isHosted": false, "pillarId": "pillar/news", "pillarName": "News"}, {"id": "sustainable-business/systems-change-joe-hsueh-secondmuse", "type": "article", "sectionId": "sustainable-business", "sectionName": "Guardian Sustainable Business", "webPublicationDate": "2014-04-29T21:57:00Z", "webTitle": "The art and science of systems change", "webUrl": "https://www.theguardian.com/sustainable-business/systems-change-joe-hsueh-secondmuse", "apiUrl": "https://content.guardianapis.com/sustainable-business/systems-change-joe-hsueh-secondmuse", "isHosted": false}, {"id": "environment/2014/apr/29/wenlock-edge-ghostly-flower-appearance-macabre", "type": "article", "sectionId": "environment", "sectionName": "Environment", "webPublicationDate": "2014-04-29T20:00:00Z", "webTitle": "Country diary: Wenlock Edge: A ghostly flower makes its appearance, with a touch of the macabre", "webUrl": "https://www.theguardian.com/environment/2014/apr/29/wenlock-edge-ghostly-flower-appearance-macabre", "apiUrl": "https://content.guardianapis.com/environment/2014/apr/29/wenlock-edge-ghostly-flower-appearance-macabre", "isHosted": false, "pillarId": "pillar/news", "pillarName": "News"}, {"id": "environment/2014/apr/29/us-supreme-court-air-pollution-ruling-obama", "type": "article", "sectionId": "environment", "sectionName": "Environment", "webPublicationDate": "2014-04-29T19:11:19Z", "webTitle": "US supreme court's pollution ruling 'a victory for Obama administration'", "webUrl": "https://www.theguardian.com/environment/2014/apr/29/us-supreme-court-air-pollution-ruling-obama", "apiUrl": "https://content.guardianapis.com/environment/2014/apr/29/us-supreme-court-air-pollution-ruling-obama", "isHosted": false, "pillarId": "pillar/news", "pillarName": "News"}, {"id": "world/2014/apr/29/colombia-military-farmers-strike-election", "type": "article", "sectionId": "world", "sectionName": "World news", "webPublicationDate": "2014-04-29T17:33:43Z", "webTitle": "Colombia deploys military might to crush farmers' strike before election", "webUrl": "https://www.theguardian.com/world/2014/apr/29/colombia-military-farmers-strike-election", "apiUrl": "https://content.guardianapis.com/world/2014/apr/29/colombia-military-farmers-strike-election", "isHosted": false, "pillarId": "pillar/news", "pillarName": "News"}, {"id": "sustainable-business/plastic-bag-eu-law-tax-charge-retailers-sustainable", "type": "article", "sectionId": "sustainable-business", "sectionName": "Guardian Sustainable Business", "webPublicationDate": "2014-04-29T16:20:45Z", "webTitle": "EU legislation on plastic bag pricing must be accompanied by retailer action", "webUrl": "https://www.theguardian.com/sustainable-business/plastic-bag-eu-law-tax-charge-retailers-sustainable", "apiUrl": "https://content.guardianapis.com/sustainable-business/plastic-bag-eu-law-tax-charge-retailers-sustainable", "isHosted": false}, {"id": "environment/2014/apr/29/diesel-engine-pollution-premature-deaths-costs-nhs-billions", "type": "article", "sectionId": "environment", "sectionName": "Environment", "webPublicationDate": "2014-04-29T15:40:05Z", "webTitle": "Diesel engine pollution linked to early deaths and costs NHS billions", "webUrl": "https://www.theguardian.com/environment/2014/apr/29/diesel-engine-pollution-premature-deaths-costs-nhs-billions", "apiUrl": "https://content.guardianapis.com/environment/2014/apr/29/diesel-engine-pollution-premature-deaths-costs-nhs-billions", "isHosted": false, "pillarId": "pillar/news", "pillarName": "News"}, {"id": "global-development-professionals-network/2014/apr/29/agbogbloshie-accra-ghana-largest-ewaste-dump", "type": "article", "sectionId": "working-in-development", "sectionName": "Working in development", "webPublicationDate": "2014-04-29T15:14:20Z", "webTitle": "Life in Sodom and Gomorrah: the world's largest digital dump via @gdnglobaldevpro", "webUrl": "https://www.theguardian.com/global-development-professionals-network/2014/apr/29/agbogbloshie-accra-ghana-largest-ewaste-dump", "apiUrl": "https://content.guardianapis.com/global-development-professionals-network/2014/apr/29/agbogbloshie-accra-ghana-largest-ewaste-dump", "isHosted": false}, {"id": "environment/2014/apr/29/abolishing-renewable-energy-target-offers-short-term-gain-long-term-pain", "type": "article", "sectionId": "environment", "sectionName": "Environment", "webPublicationDate": "2014-04-29T14:00:16Z", "webTitle": "Abolishing renewable energy target offers short-term gain, long-term pain", "webUrl": "https://www.theguardian.com/environment/2014/apr/29/abolishing-renewable-energy-target-offers-short-term-gain-long-term-pain", "apiUrl": "https://content.guardianapis.com/environment/2014/apr/29/abolishing-renewable-energy-target-offers-short-term-gain-long-term-pain", "isHosted": false, "pillarId": "pillar/news", "pillarName": "News"}, {"id": "society/2014/apr/29/national-trust-helen-ghosh-preservation-campaigning-fracking", "type": "article", "sectionId": "society", "sectionName": "Society", "webPublicationDate": "2014-04-29T14:00:01Z", "webTitle": "National Trust chief: 'we must focus on things that make a difference' | Anna Bawden", "webUrl": "https://www.theguardian.com/society/2014/apr/29/national-trust-helen-ghosh-preservation-campaigning-fracking", "apiUrl": "https://content.guardianapis.com/society/2014/apr/29/national-trust-helen-ghosh-preservation-campaigning-fracking", "isHosted": false, "pillarId": "pillar/news", "pillarName": "News"}, {"id": "environment/2014/apr/29/cuadrilla-green-light-oil-test-balcombe", "type": "article", "sectionId": "environment", "sectionName": "Environment", "webPublicationDate": "2014-04-29T12:57:12Z", "webTitle": "Cuadrilla gets green light for oil test at Balcombe", "webUrl": "https://www.theguardian.com/environment/2014/apr/29/cuadrilla-green-light-oil-test-balcombe", "apiUrl": "https://content.guardianapis.com/environment/2014/apr/29/cuadrilla-green-light-oil-test-balcombe", "isHosted": false, "pillarId": "pillar/news", "pillarName": "News"}, {"id": "environment/earth-insight/2014/apr/29/climate-denial-oil-addiction-xenophobia-neocons", "type": "article", "sectionId": "politics", "sectionName": "Politics", "webPublicationDate": "2014-04-29T12:23:00Z", "webTitle": "What climate denial, oil addiction and xenophobia have in common: Neocons | Nafeez Ahmed", "webUrl": "https://www.theguardian.com/environment/earth-insight/2014/apr/29/climate-denial-oil-addiction-xenophobia-neocons", "apiUrl": "https://content.guardianapis.com/environment/earth-insight/2014/apr/29/climate-denial-oil-addiction-xenophobia-neocons", "isHosted": false, "pillarId": "pillar/news", "pillarName": "News"}, {"id": "environment/gallery/2014/apr/29/green-shoots-wildlife-spring-into-action-in-pictures", "type": "gallery", "sectionId": "environment", "sectionName": "Environment", "webPublicationDate": "2014-04-29T12:10:52Z", "webTitle": "Green shoots: wildlife spring into action \u2013 in pictures", "webUrl": "https://www.theguardian.com/environment/gallery/2014/apr/29/green-shoots-wildlife-spring-into-action-in-pictures", "apiUrl": "https://content.guardianapis.com/environment/gallery/2014/apr/29/green-shoots-wildlife-spring-into-action-in-pictures", "isHosted": false, "pillarId": "pillar/news", "pillarName": "News"}, {"id": "world/2014/apr/29/french-children-farms-vineyards-exposed-dangerous-cocktail-pesticides", "type": "article", "sectionId": "environment", "sectionName": "Environment", "webPublicationDate": "2014-04-29T11:37:01Z", "webTitle": "French children exposed to dangerous cocktail of pesticides, campaigners say", "webUrl": "https://www.theguardian.com/world/2014/apr/29/french-children-farms-vineyards-exposed-dangerous-cocktail-pesticides", "apiUrl": "https://content.guardianapis.com/world/2014/apr/29/french-children-farms-vineyards-exposed-dangerous-cocktail-pesticides", "isHosted": false, "pillarId": "pillar/news", "pillarName": "News"}, {"id": "environment/2014/apr/29/calves-elephants-killed-kenyan-national-park", "type": "article", "sectionId": "environment", "sectionName": "Environment", "webPublicationDate": "2014-04-29T10:21:52Z", "webTitle": "Four calves among six elephants killed in Kenyan national park", "webUrl": "https://www.theguardian.com/environment/2014/apr/29/calves-elephants-killed-kenyan-national-park", "apiUrl": "https://content.guardianapis.com/environment/2014/apr/29/calves-elephants-killed-kenyan-national-park", "isHosted": false, "pillarId": "pillar/news", "pillarName": "News"}, {"id": "media/2014/apr/29/bbc-masterchef-cod-scotland-sustainable-fish", "type": "article", "sectionId": "media", "sectionName": "Media", "webPublicationDate": "2014-04-29T09:44:33Z", "webTitle": "BBC's Masterchef battered for 'blacklisting' cod | Media Monkey", "webUrl": "https://www.theguardian.com/media/2014/apr/29/bbc-masterchef-cod-scotland-sustainable-fish", "apiUrl": "https://content.guardianapis.com/media/2014/apr/29/bbc-masterchef-cod-scotland-sustainable-fish", "isHosted": false, "pillarId": "pillar/news", "pillarName": "News"}, {"id": "environment/2014/apr/29/stocamine-toxic-waste-repository-france", "type": "article", "sectionId": "environment", "sectionName": "Environment", "webPublicationDate": "2014-04-29T09:00:00Z", "webTitle": "France must dig deep for a solution to the problem of buried toxic material", "webUrl": "https://www.theguardian.com/environment/2014/apr/29/stocamine-toxic-waste-repository-france", "apiUrl": "https://content.guardianapis.com/environment/2014/apr/29/stocamine-toxic-waste-repository-france", "isHosted": false, "pillarId": "pillar/news", "pillarName": "News"}, {"id": "environment/planet-oz/2014/apr/29/great-barrier-reef-dredging-ben-jerrys-ice-cream-climate-change", "type": "article", "sectionId": "environment", "sectionName": "Environment", "webPublicationDate": "2014-04-29T06:02:00Z", "webTitle": "Great Barrier Reef: If the fossil fuel industry made ice cream | Graham Readfearn", "webUrl": "https://www.theguardian.com/environment/planet-oz/2014/apr/29/great-barrier-reef-dredging-ben-jerrys-ice-cream-climate-change", "apiUrl": "https://content.guardianapis.com/environment/planet-oz/2014/apr/29/great-barrier-reef-dredging-ben-jerrys-ice-cream-climate-change", "isHosted": false, "pillarId": "pillar/news", "pillarName": "News"}, {"id": "world/2014/apr/28/gravity-director-alfonso-cuaron-challenges-energy-policy-mexico-president-enrique-pena-nieto", "type": "article", "sectionId": "world", "sectionName": "World news", "webPublicationDate": "2014-04-28T23:47:00Z", "webTitle": "Gravity's Cuar\u00f3n challenges Mexico's Pe\u00f1a Nieto over energy reforms", "webUrl": "https://www.theguardian.com/world/2014/apr/28/gravity-director-alfonso-cuaron-challenges-energy-policy-mexico-president-enrique-pena-nieto", "apiUrl": "https://content.guardianapis.com/world/2014/apr/28/gravity-director-alfonso-cuaron-challenges-energy-policy-mexico-president-enrique-pena-nieto", "isHosted": false, "pillarId": "pillar/news", "pillarName": "News"}, {"id": "environment/2014/apr/28/dunnocks-play-wheel-death-bicycle", "type": "article", "sectionId": "environment", "sectionName": "Environment", "webPublicationDate": "2014-04-28T19:59:03Z", "webTitle": "Country diary: Sandy, Bedfordshire: Dunnocks play the wheel of death with my bike", "webUrl": "https://www.theguardian.com/environment/2014/apr/28/dunnocks-play-wheel-death-bicycle", "apiUrl": "https://content.guardianapis.com/environment/2014/apr/28/dunnocks-play-wheel-death-bicycle", "isHosted": false, "pillarId": "pillar/news", "pillarName": "News"}, {"id": "environment/2014/apr/28/food-and-environment-research-agency-privatisation", "type": "article", "sectionId": "environment", "sectionName": "Environment", "webPublicationDate": "2014-04-28T18:57:20Z", "webTitle": "Warning over 'privatisation' of environmental science research body", "webUrl": "https://www.theguardian.com/environment/2014/apr/28/food-and-environment-research-agency-privatisation", "apiUrl": "https://content.guardianapis.com/environment/2014/apr/28/food-and-environment-research-agency-privatisation", "isHosted": false, "pillarId": "pillar/news", "pillarName": "News"}, {"id": "politics/2014/apr/28/alex-salmond-fisheries-eu-scotland", "type": "article", "sectionId": "politics", "sectionName": "Politics", "webPublicationDate": "2014-04-28T18:14:25Z", "webTitle": "Alex Salmond's fisheries threat to EU alarms industry", "webUrl": "https://www.theguardian.com/politics/2014/apr/28/alex-salmond-fisheries-eu-scotland", "apiUrl": "https://content.guardianapis.com/politics/2014/apr/28/alex-salmond-fisheries-eu-scotland", "isHosted": false, "pillarId": "pillar/news", "pillarName": "News"}, {"id": "sustainable-business/first-fuel-swapnil-shah-energy-efficiency-software-commercial-buildings", "type": "article", "sectionId": "sustainable-business", "sectionName": "Guardian Sustainable Business", "webPublicationDate": "2014-04-28T17:57:46Z", "webTitle": "First Fuel software aims to make energy efficiency easier, quicker", "webUrl": "https://www.theguardian.com/sustainable-business/first-fuel-swapnil-shah-energy-efficiency-software-commercial-buildings", "apiUrl": "https://content.guardianapis.com/sustainable-business/first-fuel-swapnil-shah-energy-efficiency-software-commercial-buildings", "isHosted": false}, {"id": "sustainable-business/hubs-water-climate-change-siting-drought-flood-business", "type": "article", "sectionId": "sustainable-business", "sectionName": "Guardian Sustainable Business", "webPublicationDate": "2014-04-28T16:37:00Z", "webTitle": "Climate change a growing concern for companies expanding their footprint", "webUrl": "https://www.theguardian.com/sustainable-business/hubs-water-climate-change-siting-drought-flood-business", "apiUrl": "https://content.guardianapis.com/sustainable-business/hubs-water-climate-change-siting-drought-flood-business", "isHosted": false}, {"id": "commentisfree/2014/apr/28/heathrows-strange-landscape-more-than-just-airport", "type": "article", "sectionId": "commentisfree", "sectionName": "Opinion", "webPublicationDate": "2014-04-28T16:05:05Z", "webTitle": "Welcome to Heathrow \u2013 a strange landscape, not just an airport | Kathrin B\u00f6hm", "webUrl": "https://www.theguardian.com/commentisfree/2014/apr/28/heathrows-strange-landscape-more-than-just-airport", "apiUrl": "https://content.guardianapis.com/commentisfree/2014/apr/28/heathrows-strange-landscape-more-than-just-airport", "isHosted": false, "pillarId": "pillar/opinion", "pillarName": "Opinion"}, {"id": "environment/2014/apr/28/why-wave-power-has-lagged-far-behind-as-an-energy-source", "type": "article", "sectionId": "environment", "sectionName": "Environment", "webPublicationDate": "2014-04-28T15:01:08Z", "webTitle": "Why wave power has lagged far behind as an energy source", "webUrl": "https://www.theguardian.com/environment/2014/apr/28/why-wave-power-has-lagged-far-behind-as-an-energy-source", "apiUrl": "https://content.guardianapis.com/environment/2014/apr/28/why-wave-power-has-lagged-far-behind-as-an-energy-source", "isHosted": false, "pillarId": "pillar/news", "pillarName": "News"}, {"id": "lifeandstyle/2014/apr/28/top-10-eco-homes-favourite-vote-result", "type": "article", "sectionId": "lifeandstyle", "sectionName": "Life and style", "webPublicationDate": "2014-04-28T12:15:52Z", "webTitle": "Top 10 eco homes: your favourite  is \u2026", "webUrl": "https://www.theguardian.com/lifeandstyle/2014/apr/28/top-10-eco-homes-favourite-vote-result", "apiUrl": "https://content.guardianapis.com/lifeandstyle/2014/apr/28/top-10-eco-homes-favourite-vote-result", "isHosted": false, "pillarId": "pillar/lifestyle", "pillarName": "Lifestyle"}, {"id": "environment/2014/apr/28/ukip-policies-eu-immingration-green-party", "type": "article", "sectionId": "environment", "sectionName": "Environment", "webPublicationDate": "2014-04-28T12:00:49Z", "webTitle": "Ukip has no policies beyond EU and immigration, says Green party leader", "webUrl": "https://www.theguardian.com/environment/2014/apr/28/ukip-policies-eu-immingration-green-party", "apiUrl": "https://content.guardianapis.com/environment/2014/apr/28/ukip-policies-eu-immingration-green-party", "isHosted": false, "pillarId": "pillar/news", "pillarName": "News"}, {"id": "environment/2014/apr/28/chris-packham-malta-is-a-bird-hell", "type": "article", "sectionId": "environment", "sectionName": "Environment", "webPublicationDate": "2014-04-28T10:14:51Z", "webTitle": "Chris Packham: Malta is a bird hell", "webUrl": "https://www.theguardian.com/environment/2014/apr/28/chris-packham-malta-is-a-bird-hell", "apiUrl": "https://content.guardianapis.com/environment/2014/apr/28/chris-packham-malta-is-a-bird-hell", "isHosted": false, "pillarId": "pillar/news", "pillarName": "News"}, {"id": "commentisfree/2014/apr/28/arrested-myself-supporting-nuclear-power-george-monbiot", "type": "article", "sectionId": "commentisfree", "sectionName": "Opinion", "webPublicationDate": "2014-04-28T10:00:01Z", "webTitle": "Today I arrested myself for supporting nuclear power. Now, where's my \u00a3100? | George Monbiot", "webUrl": "https://www.theguardian.com/commentisfree/2014/apr/28/arrested-myself-supporting-nuclear-power-george-monbiot", "apiUrl": "https://content.guardianapis.com/commentisfree/2014/apr/28/arrested-myself-supporting-nuclear-power-george-monbiot", "isHosted": false, "pillarId": "pillar/opinion", "pillarName": "Opinion"}, {"id": "lifeandstyle/2014/apr/28/eco-appliances-energy-saving-hints-when-buying-lightbulbs", "type": "article", "sectionId": "lifeandstyle", "sectionName": "Life and style", "webPublicationDate": "2014-04-28T09:31:30Z", "webTitle": "Eco appliances: energy-saving hints when buying lightbulbs", "webUrl": "https://www.theguardian.com/lifeandstyle/2014/apr/28/eco-appliances-energy-saving-hints-when-buying-lightbulbs", "apiUrl": "https://content.guardianapis.com/lifeandstyle/2014/apr/28/eco-appliances-energy-saving-hints-when-buying-lightbulbs", "isHosted": false, "pillarId": "pillar/lifestyle", "pillarName": "Lifestyle"}]}}