{"response": {"status": "ok", "userTier": "developer", "total": 25220, "startIndex": 1, "pageSize": 50, "currentPage": 1, "pages": 505, "orderBy": "newest", "results": [{"id": "environment/2010/may/01/country-diary-harlech-jim-perrin", "type": "article", "sectionId": "environment", "sectionName": "Environment", "webPublicationDate": "2010-04-30T23:20:25Z", "webTitle": "Country diary: Harlech", "webUrl": "https://www.theguardian.com/environment/2010/may/01/country-diary-harlech-jim-perrin", "apiUrl": "https://content.guardianapis.com/environment/2010/may/01/country-diary-harlech-jim-perrin", "isHosted": false, "pillarId": "pillar/news", "pillarName": "News"}, {"id": "money/video/2010/may/01/cutting-cost-driving-petrol", "type": "video", "sectionId": "money", "sectionName": "Money", "webPublicationDate": "2010-04-30T22:01:00Z", "webTitle": "Video: Cutting the cost of driving", "webUrl": "https://www.theguardian.com/money/video/2010/may/01/cutting-cost-driving-petrol", "apiUrl": "https://content.guardianapis.com/money/video/2010/may/01/cutting-cost-driving-petrol", "isHosted": false, "pillarId": "pillar/lifestyle", "pillarName": "Lifestyle"}, {"id": "environment/2010/apr/30/bp-cost-deepwater-horizon-spill", "type": "article", "sectionId": "environment", "sectionName": "Environment", "webPublicationDate": "2010-04-30T21:49:42Z", "webTitle": "BP's Deepwater Horizon oil spill likely to cost more than Exxon Valdez", "webUrl": "https://www.theguardian.com/environment/2010/apr/30/bp-cost-deepwater-horizon-spill", "apiUrl": "https://content.guardianapis.com/environment/2010/apr/30/bp-cost-deepwater-horizon-spill", "isHosted": false, "pillarId": "pillar/news", "pillarName": "News"}, {"id": "environment/2010/apr/30/chimpanzees-emotions-ethics", "type": "article", "sectionId": "environment", "sectionName": "Environment", "webPublicationDate": "2010-04-30T21:43:35Z", "webTitle": "Can you hurt a chimp's feelings?", "webUrl": "https://www.theguardian.com/environment/2010/apr/30/chimpanzees-emotions-ethics", "apiUrl": "https://content.guardianapis.com/environment/2010/apr/30/chimpanzees-emotions-ethics", "isHosted": false, "pillarId": "pillar/news", "pillarName": "News"}, {"id": "lifeandstyle/2010/apr/30/vegetarian-restaurants-uk-boom", "type": "article", "sectionId": "lifeandstyle", "sectionName": "Life and style", "webPublicationDate": "2010-04-30T21:36:32Z", "webTitle": "Vegetarians gain more options for fine dining with 50% rise in foodie eateries", "webUrl": "https://www.theguardian.com/lifeandstyle/2010/apr/30/vegetarian-restaurants-uk-boom", "apiUrl": "https://content.guardianapis.com/lifeandstyle/2010/apr/30/vegetarian-restaurants-uk-boom", "isHosted": false, "pillarId": "pillar/lifestyle", "pillarName": "Lifestyle"}, {"id": "environment/2010/apr/30/gulf-oil-spill-conservation", "type": "article", "sectionId": "environment", "sectionName": "Environment", "webPublicationDate": "2010-04-30T20:50:09Z", "webTitle": "Oil spill approaches Gulf coast, threatening economy and environment", "webUrl": "https://www.theguardian.com/environment/2010/apr/30/gulf-oil-spill-conservation", "apiUrl": "https://content.guardianapis.com/environment/2010/apr/30/gulf-oil-spill-conservation", "isHosted": false, "pillarId": "pillar/news", "pillarName": "News"}, {"id": "environment/2010/apr/30/white-house-u-turn-offshore-drilling", "type": "article", "sectionId": "environment", "sectionName": "Environment", "webPublicationDate": "2010-04-30T18:39:32Z", "webTitle": "White House U-turn on further offshore drilling after oil spill", "webUrl": "https://www.theguardian.com/environment/2010/apr/30/white-house-u-turn-offshore-drilling", "apiUrl": "https://content.guardianapis.com/environment/2010/apr/30/white-house-u-turn-offshore-drilling", "isHosted": false, "pillarId": "pillar/news", "pillarName": "News"}, {"id": "environment/2010/apr/30/oil-spill-reaches-us-coastline", "type": "article", "sectionId": "environment", "sectionName": "Environment", "webPublicationDate": "2010-04-30T15:17:00Z", "webTitle": "Deepwater Horizon: US bans new drilling in Gulf of Mexico", "webUrl": "https://www.theguardian.com/environment/2010/apr/30/oil-spill-reaches-us-coastline", "apiUrl": "https://content.guardianapis.com/environment/2010/apr/30/oil-spill-reaches-us-coastline", "isHosted": false, "pillarId": "pillar/news", "pillarName": "News"}, {"id": "environment/blog/2010/apr/30/dyson-airblade-kimberly-clark", "type": "article", "sectionId": "environment", "sectionName": "Environment", "webPublicationDate": "2010-04-30T15:05:49Z", "webTitle": "Dyson and Kimberly Clark in hand to hand combat over paper towels | Leo Hickman", "webUrl": "https://www.theguardian.com/environment/blog/2010/apr/30/dyson-airblade-kimberly-clark", "apiUrl": "https://content.guardianapis.com/environment/blog/2010/apr/30/dyson-airblade-kimberly-clark", "isHosted": false, "pillarId": "pillar/news", "pillarName": "News"}, {"id": "commentisfree/2010/apr/30/oil-spill-bp", "type": "article", "sectionId": "commentisfree", "sectionName": "Opinion", "webPublicationDate": "2010-04-30T14:03:47Z", "webTitle": "Oil spill is BP's wake-up call | John Sauven", "webUrl": "https://www.theguardian.com/commentisfree/2010/apr/30/oil-spill-bp", "apiUrl": "https://content.guardianapis.com/commentisfree/2010/apr/30/oil-spill-bp", "isHosted": false, "pillarId": "pillar/opinion", "pillarName": "Opinion"}, {"id": "environment/2010/apr/30/connie-hedegaard-global-climate-talks", "type": "article", "sectionId": "environment", "sectionName": "Environment", "webPublicationDate": "2010-04-30T13:54:51Z", "webTitle": "World must move on from Copenhagen summit, says EU's climate chief", "webUrl": "https://www.theguardian.com/environment/2010/apr/30/connie-hedegaard-global-climate-talks", "apiUrl": "https://content.guardianapis.com/environment/2010/apr/30/connie-hedegaard-global-climate-talks", "isHosted": false, "pillarId": "pillar/news", "pillarName": "News"}, {"id": "environment/gallery/2010/apr/30/wildlife-deepwater-horizon-oil-spill", "type": "gallery", "sectionId": "environment", "sectionName": "Environment", "webPublicationDate": "2010-04-30T12:37:42Z", "webTitle": "In pictures: Wildlife affected by the Deepwater Horizon oil spill", "webUrl": "https://www.theguardian.com/environment/gallery/2010/apr/30/wildlife-deepwater-horizon-oil-spill", "apiUrl": "https://content.guardianapis.com/environment/gallery/2010/apr/30/wildlife-deepwater-horizon-oil-spill", "isHosted": false, "pillarId": "pillar/news", "pillarName": "News"}, {"id": "environment/gallery/2010/apr/30/week-in-wildlife", "type": "gallery", "sectionId": "environment", "sectionName": "Environment", "webPublicationDate": "2010-04-30T11:53:00Z", "webTitle": "In pictures: The week in wildlife", "webUrl": "https://www.theguardian.com/environment/gallery/2010/apr/30/week-in-wildlife", "apiUrl": "https://content.guardianapis.com/environment/gallery/2010/apr/30/week-in-wildlife", "isHosted": false, "pillarId": "pillar/news", "pillarName": "News"}, {"id": "environment/2010/apr/30/japan-whaling-sea-shepherd", "type": "article", "sectionId": "environment", "sectionName": "Environment", "webPublicationDate": "2010-04-30T11:17:14Z", "webTitle": "Japan obtains arrest warrant for anti-whaling group leader", "webUrl": "https://www.theguardian.com/environment/2010/apr/30/japan-whaling-sea-shepherd", "apiUrl": "https://content.guardianapis.com/environment/2010/apr/30/japan-whaling-sea-shepherd", "isHosted": false, "pillarId": "pillar/news", "pillarName": "News"}, {"id": "environment/blog/2010/apr/29/green-election-miliband-armstrong-roadshow", "type": "article", "sectionId": "environment", "sectionName": "Environment", "webPublicationDate": "2010-04-30T10:32:43Z", "webTitle": "Live blog: Ed Miliband and Franny Armstrong's green election road-trip", "webUrl": "https://www.theguardian.com/environment/blog/2010/apr/29/green-election-miliband-armstrong-roadshow", "apiUrl": "https://content.guardianapis.com/environment/blog/2010/apr/29/green-election-miliband-armstrong-roadshow", "isHosted": false, "pillarId": "pillar/news", "pillarName": "News"}, {"id": "news/blog/2010/apr/30/gulf-oil-spill-deepwater-horizon", "type": "article", "sectionId": "environment", "sectionName": "Environment", "webPublicationDate": "2010-04-30T08:48:03Z", "webTitle": "Gulf oil spill: latest updates", "webUrl": "https://www.theguardian.com/news/blog/2010/apr/30/gulf-oil-spill-deepwater-horizon", "apiUrl": "https://content.guardianapis.com/news/blog/2010/apr/30/gulf-oil-spill-deepwater-horizon", "isHosted": false, "pillarId": "pillar/news", "pillarName": "News"}, {"id": "environment/2010/apr/30/oil-spills-worst-exxon-torrey", "type": "article", "sectionId": "environment", "sectionName": "Environment", "webPublicationDate": "2010-04-30T07:00:03Z", "webTitle": "Black moments", "webUrl": "https://www.theguardian.com/environment/2010/apr/30/oil-spills-worst-exxon-torrey", "apiUrl": "https://content.guardianapis.com/environment/2010/apr/30/oil-spills-worst-exxon-torrey", "isHosted": false, "pillarId": "pillar/news", "pillarName": "News"}, {"id": "environment/2010/apr/30/country-diary-northumberland-ospreys", "type": "article", "sectionId": "environment", "sectionName": "Environment", "webPublicationDate": "2010-04-29T23:06:06Z", "webTitle": "Country Diary: Northumberland", "webUrl": "https://www.theguardian.com/environment/2010/apr/30/country-diary-northumberland-ospreys", "apiUrl": "https://content.guardianapis.com/environment/2010/apr/30/country-diary-northumberland-ospreys", "isHosted": false, "pillarId": "pillar/news", "pillarName": "News"}, {"id": "commentisfree/2010/apr/30/gulf-oil-spill-clean", "type": "article", "sectionId": "commentisfree", "sectionName": "Opinion", "webPublicationDate": "2010-04-29T23:05:08Z", "webTitle": "Gulf oil spill: Clean, baby, clean | Editorial", "webUrl": "https://www.theguardian.com/commentisfree/2010/apr/30/gulf-oil-spill-clean", "apiUrl": "https://content.guardianapis.com/commentisfree/2010/apr/30/gulf-oil-spill-clean", "isHosted": false, "pillarId": "pillar/opinion", "pillarName": "Opinion"}, {"id": "business/2010/apr/29/bp-oilspill-mexico-capitol-hill", "type": "article", "sectionId": "business", "sectionName": "Business", "webPublicationDate": "2010-04-29T19:55:41Z", "webTitle": "Gulf of Mexico oilspill spreads all the way to Capitol Hill", "webUrl": "https://www.theguardian.com/business/2010/apr/29/bp-oilspill-mexico-capitol-hill", "apiUrl": "https://content.guardianapis.com/business/2010/apr/29/bp-oilspill-mexico-capitol-hill", "isHosted": false, "pillarId": "pillar/news", "pillarName": "News"}, {"id": "environment/2010/apr/29/deepwater-horizon-oil-slick-us-coast", "type": "article", "sectionId": "environment", "sectionName": "Environment", "webPublicationDate": "2010-04-29T19:16:15Z", "webTitle": "Deepwater Horizon oil slick to hit US coast within hours", "webUrl": "https://www.theguardian.com/environment/2010/apr/29/deepwater-horizon-oil-slick-us-coast", "apiUrl": "https://content.guardianapis.com/environment/2010/apr/29/deepwater-horizon-oil-slick-us-coast", "isHosted": false, "pillarId": "pillar/news", "pillarName": "News"}, {"id": "politics/2010/apr/29/green-party-cambridge-election", "type": "article", "sectionId": "politics", "sectionName": "Politics", "webPublicationDate": "2010-04-29T17:50:50Z", "webTitle": "Green party takes a punt on victory in Cambridge", "webUrl": "https://www.theguardian.com/politics/2010/apr/29/green-party-cambridge-election", "apiUrl": "https://content.guardianapis.com/politics/2010/apr/29/green-party-cambridge-election", "isHosted": false, "pillarId": "pillar/news", "pillarName": "News"}, {"id": "environment/2010/apr/29/wildlife-films-infringe-privacy", "type": "article", "sectionId": "environment", "sectionName": "Environment", "webPublicationDate": "2010-04-29T17:45:00Z", "webTitle": "Wildlife documentaries infringe animals' privacy, says report", "webUrl": "https://www.theguardian.com/environment/2010/apr/29/wildlife-films-infringe-privacy", "apiUrl": "https://content.guardianapis.com/environment/2010/apr/29/wildlife-films-infringe-privacy", "isHosted": false, "pillarId": "pillar/news", "pillarName": "News"}, {"id": "environment/2010/apr/29/international-failure-biodiversity-decline", "type": "article", "sectionId": "environment", "sectionName": "Environment", "webPublicationDate": "2010-04-29T17:13:00Z", "webTitle": "International failure to meet target to reduce biodiversity decline", "webUrl": "https://www.theguardian.com/environment/2010/apr/29/international-failure-biodiversity-decline", "apiUrl": "https://content.guardianapis.com/environment/2010/apr/29/international-failure-biodiversity-decline", "isHosted": false, "pillarId": "pillar/news", "pillarName": "News"}, {"id": "environment/2010/apr/29/bp-shares-plummet-after-oil-spill", "type": "article", "sectionId": "environment", "sectionName": "Environment", "webPublicationDate": "2010-04-29T16:33:56Z", "webTitle": "BP shares plunge over oil spill in Gulf of Mexico", "webUrl": "https://www.theguardian.com/environment/2010/apr/29/bp-shares-plummet-after-oil-spill", "apiUrl": "https://content.guardianapis.com/environment/2010/apr/29/bp-shares-plummet-after-oil-spill", "isHosted": false, "pillarId": "pillar/news", "pillarName": "News"}, {"id": "world/2010/apr/29/chevron-court-crude-footage-amazon", "type": "article", "sectionId": "environment", "sectionName": "Environment", "webPublicationDate": "2010-04-29T15:22:50Z", "webTitle": "Chevron oil demands Crude filmmaker hand over unseen footage", "webUrl": "https://www.theguardian.com/world/2010/apr/29/chevron-court-crude-footage-amazon", "apiUrl": "https://content.guardianapis.com/world/2010/apr/29/chevron-court-crude-footage-amazon", "isHosted": false, "pillarId": "pillar/news", "pillarName": "News"}, {"id": "science/2010/apr/29/green-party-science", "type": "article", "sectionId": "science", "sectionName": "Science", "webPublicationDate": "2010-04-29T14:48:11Z", "webTitle": "Is the Green party still anti-science? | General election 2010", "webUrl": "https://www.theguardian.com/science/2010/apr/29/green-party-science", "apiUrl": "https://content.guardianapis.com/science/2010/apr/29/green-party-science", "isHosted": false, "pillarId": "pillar/news", "pillarName": "News"}, {"id": "environment/2010/apr/29/butterfly-world-conservation-centre-heliconius-chestertonii", "type": "article", "sectionId": "environment", "sectionName": "Environment", "webPublicationDate": "2010-04-29T14:13:00Z", "webTitle": "'Eden Project for butterflies' hopes to become world's biggest", "webUrl": "https://www.theguardian.com/environment/2010/apr/29/butterfly-world-conservation-centre-heliconius-chestertonii", "apiUrl": "https://content.guardianapis.com/environment/2010/apr/29/butterfly-world-conservation-centre-heliconius-chestertonii", "isHosted": false, "pillarId": "pillar/news", "pillarName": "News"}, {"id": "world/2010/apr/29/vladimir-putin-polar-bear-arctic", "type": "article", "sectionId": "world", "sectionName": "World news", "webPublicationDate": "2010-04-29T13:30:32Z", "webTitle": "Vladimir Putin hugs polar bear on Arctic trip", "webUrl": "https://www.theguardian.com/world/2010/apr/29/vladimir-putin-polar-bear-arctic", "apiUrl": "https://content.guardianapis.com/world/2010/apr/29/vladimir-putin-polar-bear-arctic", "isHosted": false, "pillarId": "pillar/news", "pillarName": "News"}, {"id": "travel/blog/2010/apr/29/india-bans-tiger-tourism", "type": "article", "sectionId": "travel", "sectionName": "Travel", "webPublicationDate": "2010-04-29T13:18:00Z", "webTitle": "India bans tiger tourism", "webUrl": "https://www.theguardian.com/travel/blog/2010/apr/29/india-bans-tiger-tourism", "apiUrl": "https://content.guardianapis.com/travel/blog/2010/apr/29/india-bans-tiger-tourism", "isHosted": false, "pillarId": "pillar/lifestyle", "pillarName": "Lifestyle"}, {"id": "environment/2010/apr/29/deepwater-oil-disaster", "type": "article", "sectionId": "environment", "sectionName": "Environment", "webPublicationDate": "2010-04-29T13:17:01Z", "webTitle": "Deepwater oil disaster explained", "webUrl": "https://www.theguardian.com/environment/2010/apr/29/deepwater-oil-disaster", "apiUrl": "https://content.guardianapis.com/environment/2010/apr/29/deepwater-oil-disaster", "isHosted": false, "pillarId": "pillar/news", "pillarName": "News"}, {"id": "environment/gallery/2010/apr/29/readers-spring-blossom", "type": "gallery", "sectionId": "environment", "sectionName": "Environment", "webPublicationDate": "2010-04-29T11:39:51Z", "webTitle": "Readers' blossom photos", "webUrl": "https://www.theguardian.com/environment/gallery/2010/apr/29/readers-spring-blossom", "apiUrl": "https://content.guardianapis.com/environment/gallery/2010/apr/29/readers-spring-blossom", "isHosted": false, "pillarId": "pillar/news", "pillarName": "News"}, {"id": "environment/green-living-blog/2010/apr/29/furry-vengeance-eco-message", "type": "article", "sectionId": "environment", "sectionName": "Environment", "webPublicationDate": "2010-04-29T11:12:18Z", "webTitle": "Eco message in Furry Vengeance film is as subtle as a sledgehammer | Leo Hickman", "webUrl": "https://www.theguardian.com/environment/green-living-blog/2010/apr/29/furry-vengeance-eco-message", "apiUrl": "https://content.guardianapis.com/environment/green-living-blog/2010/apr/29/furry-vengeance-eco-message", "isHosted": false, "pillarId": "pillar/news", "pillarName": "News"}, {"id": "world/2010/apr/29/gulf-oil-spill-larger-estimated", "type": "article", "sectionId": "us-news", "sectionName": "US news", "webPublicationDate": "2010-04-29T08:28:31Z", "webTitle": "Gulf oil spill 'five times' larger than estimated", "webUrl": "https://www.theguardian.com/world/2010/apr/29/gulf-oil-spill-larger-estimated", "apiUrl": "https://content.guardianapis.com/world/2010/apr/29/gulf-oil-spill-larger-estimated", "isHosted": false, "pillarId": "pillar/news", "pillarName": "News"}, {"id": "environment/2010/apr/29/country-diary-the-burren", "type": "article", "sectionId": "environment", "sectionName": "Environment", "webPublicationDate": "2010-04-28T23:05:08Z", "webTitle": "Country diary: The Burren, Ireland", "webUrl": "https://www.theguardian.com/environment/2010/apr/29/country-diary-the-burren", "apiUrl": "https://content.guardianapis.com/environment/2010/apr/29/country-diary-the-burren", "isHosted": false, "pillarId": "pillar/news", "pillarName": "News"}, {"id": "environment/2010/apr/28/arctic-sea-ice-loss-warming", "type": "article", "sectionId": "environment", "sectionName": "Environment", "webPublicationDate": "2010-04-28T18:00:01Z", "webTitle": "Sea ice loss driving Arctic warming cycle, scientists confirm", "webUrl": "https://www.theguardian.com/environment/2010/apr/28/arctic-sea-ice-loss-warming", "apiUrl": "https://content.guardianapis.com/environment/2010/apr/28/arctic-sea-ice-loss-warming", "isHosted": false, "pillarId": "pillar/news", "pillarName": "News"}, {"id": "environment/2010/apr/28/cape-wind-america-offshore-approved", "type": "article", "sectionId": "environment", "sectionName": "Environment", "webPublicationDate": "2010-04-28T16:30:38Z", "webTitle": "Cape Wind to become America's first offshore windfarm", "webUrl": "https://www.theguardian.com/environment/2010/apr/28/cape-wind-america-offshore-approved", "apiUrl": "https://content.guardianapis.com/environment/2010/apr/28/cape-wind-america-offshore-approved", "isHosted": false, "pillarId": "pillar/news", "pillarName": "News"}, {"id": "science/2010/apr/28/conservatives-science-policy", "type": "article", "sectionId": "science", "sectionName": "Science", "webPublicationDate": "2010-04-28T15:17:16Z", "webTitle": "Conservative science policy ticks (nearly) all the right boxes | Martin Robbins | General election", "webUrl": "https://www.theguardian.com/science/2010/apr/28/conservatives-science-policy", "apiUrl": "https://content.guardianapis.com/science/2010/apr/28/conservatives-science-policy", "isHosted": false, "pillarId": "pillar/news", "pillarName": "News"}, {"id": "environment/2010/apr/28/private-water-suppliers", "type": "article", "sectionId": "environment", "sectionName": "Environment", "webPublicationDate": "2010-04-28T13:47:08Z", "webTitle": "Private water suppliers poised to grow as demand set to surge", "webUrl": "https://www.theguardian.com/environment/2010/apr/28/private-water-suppliers", "apiUrl": "https://content.guardianapis.com/environment/2010/apr/28/private-water-suppliers", "isHosted": false, "pillarId": "pillar/news", "pillarName": "News"}, {"id": "environment/2010/apr/28/ninja-slugs-rainforest-climate-debate", "type": "article", "sectionId": "environment", "sectionName": "Environment", "webPublicationDate": "2010-04-28T11:29:16Z", "webTitle": "Green light: Ninja slugs, China's rainforest and climate ministers' debate", "webUrl": "https://www.theguardian.com/environment/2010/apr/28/ninja-slugs-rainforest-climate-debate", "apiUrl": "https://content.guardianapis.com/environment/2010/apr/28/ninja-slugs-rainforest-climate-debate", "isHosted": false, "pillarId": "pillar/news", "pillarName": "News"}, {"id": "environment/blog/2010/apr/28/satino-black-toilet-paper", "type": "article", "sectionId": "environment", "sectionName": "Environment", "webPublicationDate": "2010-04-28T10:42:55Z", "webTitle": "Satino Black rolls out green toilet paper | Leo Hickman", "webUrl": "https://www.theguardian.com/environment/blog/2010/apr/28/satino-black-toilet-paper", "apiUrl": "https://content.guardianapis.com/environment/blog/2010/apr/28/satino-black-toilet-paper", "isHosted": false, "pillarId": "pillar/news", "pillarName": "News"}, {"id": "environment/blog/2010/apr/28/1", "type": "article", "sectionId": "environment", "sectionName": "Environment", "webPublicationDate": "2010-04-28T09:52:00Z", "webTitle": "Environment Today - tell us what to cover", "webUrl": "https://www.theguardian.com/environment/blog/2010/apr/28/1", "apiUrl": "https://content.guardianapis.com/environment/blog/2010/apr/28/1", "isHosted": false, "pillarId": "pillar/news", "pillarName": "News"}, {"id": "environment/video/2010/apr/28/rspb-osprey-poole-dorset", "type": "video", "sectionId": "environment", "sectionName": "Environment", "webPublicationDate": "2010-04-28T05:00:00Z", "webTitle": "Video: RSPB's osprey breeding plan for Poole harbour", "webUrl": "https://www.theguardian.com/environment/video/2010/apr/28/rspb-osprey-poole-dorset", "apiUrl": "https://content.guardianapis.com/environment/video/2010/apr/28/rspb-osprey-poole-dorset", "isHosted": false, "pillarId": "pillar/news", "pillarName": "News"}, {"id": "commentisfree/cifamerica/2010/apr/28/oil-rig-deepwater-horizon-disaster", "type": "article", "sectionId": "commentisfree", "sectionName": "Opinion", "webPublicationDate": "2010-04-27T23:30:00Z", "webTitle": "No more oil on troubled waters | Kate Sheppard", "webUrl": "https://www.theguardian.com/commentisfree/cifamerica/2010/apr/28/oil-rig-deepwater-horizon-disaster", "apiUrl": "https://content.guardianapis.com/commentisfree/cifamerica/2010/apr/28/oil-rig-deepwater-horizon-disaster", "isHosted": false, "pillarId": "pillar/opinion", "pillarName": "Opinion"}, {"id": "environment/2010/apr/28/country-diary-wenlock-edge", "type": "article", "sectionId": "environment", "sectionName": "Environment", "webPublicationDate": "2010-04-27T23:05:51Z", "webTitle": "Country diary: Wenlock Edge", "webUrl": "https://www.theguardian.com/environment/2010/apr/28/country-diary-wenlock-edge", "apiUrl": "https://content.guardianapis.com/environment/2010/apr/28/country-diary-wenlock-edge", "isHosted": false, "pillarId": "pillar/news", "pillarName": "News"}, {"id": "uk/datablog/2010/apr/28/factfile-uk-environment-transport", "type": "article", "sectionId": "uk-news", "sectionName": "UK news", "webPublicationDate": "2010-04-27T23:05:00Z", "webTitle": "Damian Carrington explains: What has happened to the UK's environment and transport policy?", "webUrl": "https://www.theguardian.com/uk/datablog/2010/apr/28/factfile-uk-environment-transport", "apiUrl": "https://content.guardianapis.com/uk/datablog/2010/apr/28/factfile-uk-environment-transport", "isHosted": false, "pillarId": "pillar/news", "pillarName": "News"}, {"id": "business/2010/apr/27/bp-whistleblower-atlantis-rig", "type": "article", "sectionId": "business", "sectionName": "Business", "webPublicationDate": "2010-04-27T19:43:47Z", "webTitle": "Whistleblower accuses BP over rig documents", "webUrl": "https://www.theguardian.com/business/2010/apr/27/bp-whistleblower-atlantis-rig", "apiUrl": "https://content.guardianapis.com/business/2010/apr/27/bp-whistleblower-atlantis-rig", "isHosted": false, "pillarId": "pillar/news", "pillarName": "News"}, {"id": "environment/2010/apr/27/beauty-of-blossom", "type": "article", "sectionId": "environment", "sectionName": "Environment", "webPublicationDate": "2010-04-27T19:00:02Z", "webTitle": "The beauty of the blossom", "webUrl": "https://www.theguardian.com/environment/2010/apr/27/beauty-of-blossom", "apiUrl": "https://content.guardianapis.com/environment/2010/apr/27/beauty-of-blossom", "isHosted": false, "pillarId": "pillar/news", "pillarName": "News"}, {"id": "environment/2010/apr/27/australia-carbon-trading", "type": "article", "sectionId": "environment", "sectionName": "Environment", "webPublicationDate": "2010-04-27T17:09:20Z", "webTitle": "Australia puts carbon trading scheme on hold", "webUrl": "https://www.theguardian.com/environment/2010/apr/27/australia-carbon-trading", "apiUrl": "https://content.guardianapis.com/environment/2010/apr/27/australia-carbon-trading", "isHosted": false, "pillarId": "pillar/news", "pillarName": "News"}, {"id": "environment/2010/apr/27/water-price-rise", "type": "article", "sectionId": "environment", "sectionName": "Environment", "webPublicationDate": "2010-04-27T16:32:44Z", "webTitle": "Experts call for hike in global water price", "webUrl": "https://www.theguardian.com/environment/2010/apr/27/water-price-rise", "apiUrl": "https://content.guardianapis.com/environment/2010/apr/27/water-price-rise", "isHosted": false, "pillarId": "pillar/news", "pillarName": "News"}]}}