{"response": {"status": "ok", "userTier": "developer", "total": 29086, "startIndex": 1, "pageSize": 50, "currentPage": 1, "pages": 582, "orderBy": "newest", "results": [{"id": "science/2011/may/01/new-to-nature-noblella-pygmaea", "type": "article", "sectionId": "science", "sectionName": "Science", "webPublicationDate": "2011-04-30T23:05:10Z", "webTitle": "New to Nature No 40: Noblella pygmaea", "webUrl": "https://www.theguardian.com/science/2011/may/01/new-to-nature-noblella-pygmaea", "apiUrl": "https://content.guardianapis.com/science/2011/may/01/new-to-nature-noblella-pygmaea", "isHosted": false, "pillarId": "pillar/news", "pillarName": "News"}, {"id": "environment/2011/may/01/ethical-living-fairtrade-lucy-siegle", "type": "article", "sectionId": "environment", "sectionName": "Environment", "webPublicationDate": "2011-04-30T23:05:10Z", "webTitle": "How helpful is Fairtrade for the ethical consumer?", "webUrl": "https://www.theguardian.com/environment/2011/may/01/ethical-living-fairtrade-lucy-siegle", "apiUrl": "https://content.guardianapis.com/environment/2011/may/01/ethical-living-fairtrade-lucy-siegle", "isHosted": false, "pillarId": "pillar/news", "pillarName": "News"}, {"id": "artanddesign/2011/may/01/brockholes-preston-review-rowan-moore", "type": "article", "sectionId": "artanddesign", "sectionName": "Art and design", "webPublicationDate": "2011-04-30T23:05:00Z", "webTitle": "Brockholes nature reserve visitor centre \u2013 review", "webUrl": "https://www.theguardian.com/artanddesign/2011/may/01/brockholes-preston-review-rowan-moore", "apiUrl": "https://content.guardianapis.com/artanddesign/2011/may/01/brockholes-preston-review-rowan-moore", "isHosted": false, "pillarId": "pillar/arts", "pillarName": "Arts"}, {"id": "environment/2011/apr/30/country-diary-ariege-woodpecker-birds", "type": "article", "sectionId": "environment", "sectionName": "Environment", "webPublicationDate": "2011-04-29T23:10:00Z", "webTitle": "Country Diary: Ari\u00e8ge", "webUrl": "https://www.theguardian.com/environment/2011/apr/30/country-diary-ariege-woodpecker-birds", "apiUrl": "https://content.guardianapis.com/environment/2011/apr/30/country-diary-ariege-woodpecker-birds", "isHosted": false, "pillarId": "pillar/news", "pillarName": "News"}, {"id": "business/2011/apr/29/total-solar-power-renewables", "type": "article", "sectionId": "business", "sectionName": "Business", "webPublicationDate": "2011-04-29T15:37:13Z", "webTitle": "Total invests \u00a3800m in US solar power firm", "webUrl": "https://www.theguardian.com/business/2011/apr/29/total-solar-power-renewables", "apiUrl": "https://content.guardianapis.com/business/2011/apr/29/total-solar-power-renewables", "isHosted": false, "pillarId": "pillar/news", "pillarName": "News"}, {"id": "environment/2011/apr/29/greenhouse-thanet-earth-workers", "type": "article", "sectionId": "environment", "sectionName": "Environment", "webPublicationDate": "2011-04-29T13:51:18Z", "webTitle": "UK's largest greenhouse complex investigated for 'sweatshop labour'", "webUrl": "https://www.theguardian.com/environment/2011/apr/29/greenhouse-thanet-earth-workers", "apiUrl": "https://content.guardianapis.com/environment/2011/apr/29/greenhouse-thanet-earth-workers", "isHosted": false, "pillarId": "pillar/news", "pillarName": "News"}, {"id": "environment/2011/apr/29/energy-starved-india-nuclear-power", "type": "article", "sectionId": "environment", "sectionName": "Environment", "webPublicationDate": "2011-04-29T13:30:01Z", "webTitle": "Now is not the time for energy-starved India to increase nuclear dependency | Jaswant Singh", "webUrl": "https://www.theguardian.com/environment/2011/apr/29/energy-starved-india-nuclear-power", "apiUrl": "https://content.guardianapis.com/environment/2011/apr/29/energy-starved-india-nuclear-power", "isHosted": false, "pillarId": "pillar/news", "pillarName": "News"}, {"id": "environment/2011/apr/29/rabbit-battery-farms-could-return", "type": "article", "sectionId": "environment", "sectionName": "Environment", "webPublicationDate": "2011-04-29T12:14:40Z", "webTitle": "Rabbit battery farms could return to UK", "webUrl": "https://www.theguardian.com/environment/2011/apr/29/rabbit-battery-farms-could-return", "apiUrl": "https://content.guardianapis.com/environment/2011/apr/29/rabbit-battery-farms-could-return", "isHosted": false, "pillarId": "pillar/news", "pillarName": "News"}, {"id": "environment/gallery/2011/apr/29/wildlife-animals", "type": "gallery", "sectionId": "environment", "sectionName": "Environment", "webPublicationDate": "2011-04-29T11:37:02Z", "webTitle": "The week in wildlife \u2013 in pictures", "webUrl": "https://www.theguardian.com/environment/gallery/2011/apr/29/wildlife-animals", "apiUrl": "https://content.guardianapis.com/environment/gallery/2011/apr/29/wildlife-animals", "isHosted": false, "pillarId": "pillar/news", "pillarName": "News"}, {"id": "commentisfree/2011/apr/29/masdar-city-green", "type": "article", "sectionId": "commentisfree", "sectionName": "Opinion", "webPublicationDate": "2011-04-29T10:30:01Z", "webTitle": "Masdar is just a showcase \u2013 existing cities must forge their own green future | Martin Wright", "webUrl": "https://www.theguardian.com/commentisfree/2011/apr/29/masdar-city-green", "apiUrl": "https://content.guardianapis.com/commentisfree/2011/apr/29/masdar-city-green", "isHosted": false, "pillarId": "pillar/opinion", "pillarName": "Opinion"}, {"id": "environment/blog/2011/apr/29/china-population", "type": "article", "sectionId": "environment", "sectionName": "Environment", "webPublicationDate": "2011-04-29T09:26:00Z", "webTitle": "Will China's rise herald the 'peak human'? | Jonathan Watts", "webUrl": "https://www.theguardian.com/environment/blog/2011/apr/29/china-population", "apiUrl": "https://content.guardianapis.com/environment/blog/2011/apr/29/china-population", "isHosted": false, "pillarId": "pillar/news", "pillarName": "News"}, {"id": "world/picture/2011/apr/29/tornadoes-six-us-states-eyewitness", "type": "picture", "sectionId": "world", "sectionName": "World news", "webPublicationDate": "2011-04-29T09:26:00Z", "webTitle": "Eyewitness: Tornadoes sweep across six US states", "webUrl": "https://www.theguardian.com/world/picture/2011/apr/29/tornadoes-six-us-states-eyewitness", "apiUrl": "https://content.guardianapis.com/world/picture/2011/apr/29/tornadoes-six-us-states-eyewitness", "isHosted": false, "pillarId": "pillar/news", "pillarName": "News"}, {"id": "environment/2011/apr/29/country-diary-south-downs-sussex", "type": "article", "sectionId": "environment", "sectionName": "Environment", "webPublicationDate": "2011-04-28T23:05:07Z", "webTitle": "Country diary: South Downs, West Sussex", "webUrl": "https://www.theguardian.com/environment/2011/apr/29/country-diary-south-downs-sussex", "apiUrl": "https://content.guardianapis.com/environment/2011/apr/29/country-diary-south-downs-sussex", "isHosted": false, "pillarId": "pillar/news", "pillarName": "News"}, {"id": "environment/2011/apr/29/environment-and-business-are-compatible", "type": "article", "sectionId": "environment", "sectionName": "Environment", "webPublicationDate": "2011-04-28T23:05:05Z", "webTitle": "Letters: Environment and business are compatible", "webUrl": "https://www.theguardian.com/environment/2011/apr/29/environment-and-business-are-compatible", "apiUrl": "https://content.guardianapis.com/environment/2011/apr/29/environment-and-business-are-compatible", "isHosted": false, "pillarId": "pillar/news", "pillarName": "News"}, {"id": "world/2011/apr/28/deadliest-tornadoes-hundreds-dead-us", "type": "article", "sectionId": "us-news", "sectionName": "US news", "webPublicationDate": "2011-04-28T19:08:22Z", "webTitle": "Deadliest tornadoes since 1974 rip apart towns and lives in six US states", "webUrl": "https://www.theguardian.com/world/2011/apr/28/deadliest-tornadoes-hundreds-dead-us", "apiUrl": "https://content.guardianapis.com/world/2011/apr/28/deadliest-tornadoes-hundreds-dead-us", "isHosted": false, "pillarId": "pillar/news", "pillarName": "News"}, {"id": "environment/2011/apr/28/electric-car-scheme-500-takers", "type": "article", "sectionId": "environment", "sectionName": "Environment", "webPublicationDate": "2011-04-28T18:02:20Z", "webTitle": "Electric car scheme has only 534 takers", "webUrl": "https://www.theguardian.com/environment/2011/apr/28/electric-car-scheme-500-takers", "apiUrl": "https://content.guardianapis.com/environment/2011/apr/28/electric-car-scheme-500-takers", "isHosted": false, "pillarId": "pillar/news", "pillarName": "News"}, {"id": "world/2011/apr/28/deadly-tornadoes-hit-southern-us", "type": "article", "sectionId": "us-news", "sectionName": "US news", "webPublicationDate": "2011-04-28T15:40:00Z", "webTitle": "Hundreds dead as tornadoes rip through southern US states", "webUrl": "https://www.theguardian.com/world/2011/apr/28/deadly-tornadoes-hit-southern-us", "apiUrl": "https://content.guardianapis.com/world/2011/apr/28/deadly-tornadoes-hit-southern-us", "isHosted": false, "pillarId": "pillar/news", "pillarName": "News"}, {"id": "environment/damian-carrington-blog/2011/apr/28/electric-cars-motorsport-racing", "type": "article", "sectionId": "environment", "sectionName": "Environment", "webPublicationDate": "2011-04-28T15:21:00Z", "webTitle": "Electric motorsport: will 'boost buttons' spark electric cars into life? | Damian Carrington", "webUrl": "https://www.theguardian.com/environment/damian-carrington-blog/2011/apr/28/electric-cars-motorsport-racing", "apiUrl": "https://content.guardianapis.com/environment/damian-carrington-blog/2011/apr/28/electric-cars-motorsport-racing", "isHosted": false, "pillarId": "pillar/news", "pillarName": "News"}, {"id": "environment/2011/apr/28/mystery-granules-close-yorkshire-beach", "type": "article", "sectionId": "environment", "sectionName": "Environment", "webPublicationDate": "2011-04-28T13:27:31Z", "webTitle": "Mystery granules close Yorkshire beach", "webUrl": "https://www.theguardian.com/environment/2011/apr/28/mystery-granules-close-yorkshire-beach", "apiUrl": "https://content.guardianapis.com/environment/2011/apr/28/mystery-granules-close-yorkshire-beach", "isHosted": false, "pillarId": "pillar/news", "pillarName": "News"}, {"id": "environment/2011/apr/28/solar-panel-installations-surge-uk", "type": "article", "sectionId": "environment", "sectionName": "Environment", "webPublicationDate": "2011-04-28T12:50:36Z", "webTitle": "Surge in solar panel installations on UK household roofs", "webUrl": "https://www.theguardian.com/environment/2011/apr/28/solar-panel-installations-surge-uk", "apiUrl": "https://content.guardianapis.com/environment/2011/apr/28/solar-panel-installations-surge-uk", "isHosted": false, "pillarId": "pillar/news", "pillarName": "News"}, {"id": "environment/blog/2011/apr/28/climate-change-denial-skeptical-science", "type": "article", "sectionId": "environment", "sectionName": "Environment", "webPublicationDate": "2011-04-28T11:53:03Z", "webTitle": "How climate change deniers led me to set up Skeptical Science website | John Cook", "webUrl": "https://www.theguardian.com/environment/blog/2011/apr/28/climate-change-denial-skeptical-science", "apiUrl": "https://content.guardianapis.com/environment/blog/2011/apr/28/climate-change-denial-skeptical-science", "isHosted": false, "pillarId": "pillar/news", "pillarName": "News"}, {"id": "environment/2011/apr/28/industries-sectors-carbon-emissions", "type": "article", "sectionId": "environment", "sectionName": "Environment", "webPublicationDate": "2011-04-28T10:10:00Z", "webTitle": "Which industries and activities emit the most carbon?", "webUrl": "https://www.theguardian.com/environment/2011/apr/28/industries-sectors-carbon-emissions", "apiUrl": "https://content.guardianapis.com/environment/2011/apr/28/industries-sectors-carbon-emissions", "isHosted": false, "pillarId": "pillar/news", "pillarName": "News"}, {"id": "environment/2011/apr/28/unregulated-unsafe-pakistan-nuclear-reactors", "type": "article", "sectionId": "environment", "sectionName": "Environment", "webPublicationDate": "2011-04-28T07:00:00Z", "webTitle": "Underpowered and unsafe, Pakistan's nuclear reactors are just big boys' toys | Rina Saeed Khan", "webUrl": "https://www.theguardian.com/environment/2011/apr/28/unregulated-unsafe-pakistan-nuclear-reactors", "apiUrl": "https://content.guardianapis.com/environment/2011/apr/28/unregulated-unsafe-pakistan-nuclear-reactors", "isHosted": false, "pillarId": "pillar/news", "pillarName": "News"}, {"id": "environment/2011/apr/28/country-diary-caterpillars-spiders-oak-trees", "type": "article", "sectionId": "environment", "sectionName": "Environment", "webPublicationDate": "2011-04-27T23:10:01Z", "webTitle": "Country Diary: Cranleigh, Surrey", "webUrl": "https://www.theguardian.com/environment/2011/apr/28/country-diary-caterpillars-spiders-oak-trees", "apiUrl": "https://content.guardianapis.com/environment/2011/apr/28/country-diary-caterpillars-spiders-oak-trees", "isHosted": false, "pillarId": "pillar/news", "pillarName": "News"}, {"id": "politics/2011/apr/28/alternative-vote-referendum-environment", "type": "article", "sectionId": "politics", "sectionName": "Politics", "webPublicationDate": "2011-04-27T23:05:00Z", "webTitle": "Letter: Our only chance to achieve fairer votes", "webUrl": "https://www.theguardian.com/politics/2011/apr/28/alternative-vote-referendum-environment", "apiUrl": "https://content.guardianapis.com/politics/2011/apr/28/alternative-vote-referendum-environment", "isHosted": false, "pillarId": "pillar/news", "pillarName": "News"}, {"id": "business/2011/apr/27/bp-plans-drill-gulf-mexico", "type": "article", "sectionId": "business", "sectionName": "Business", "webPublicationDate": "2011-04-27T20:29:48Z", "webTitle": "BP plans to drill in Gulf of Mexico within months", "webUrl": "https://www.theguardian.com/business/2011/apr/27/bp-plans-drill-gulf-mexico", "apiUrl": "https://content.guardianapis.com/business/2011/apr/27/bp-plans-drill-gulf-mexico", "isHosted": false, "pillarId": "pillar/news", "pillarName": "News"}, {"id": "politics/davehillblog/2011/apr/27/london-air-quality-congestion-charging-kings-college-study", "type": "article", "sectionId": "uk-news", "sectionName": "UK news", "webPublicationDate": "2011-04-27T14:57:00Z", "webTitle": "How can we clean up London's air?", "webUrl": "https://www.theguardian.com/politics/davehillblog/2011/apr/27/london-air-quality-congestion-charging-kings-college-study", "apiUrl": "https://content.guardianapis.com/politics/davehillblog/2011/apr/27/london-air-quality-congestion-charging-kings-college-study", "isHosted": false, "pillarId": "pillar/news", "pillarName": "News"}, {"id": "environment/2011/apr/27/service-station-m6-nature-motorists", "type": "article", "sectionId": "environment", "sectionName": "Environment", "webPublicationDate": "2011-04-27T12:11:20Z", "webTitle": "Scotch eggs and Canada geese \u2013 service station brings nature to motorists", "webUrl": "https://www.theguardian.com/environment/2011/apr/27/service-station-m6-nature-motorists", "apiUrl": "https://content.guardianapis.com/environment/2011/apr/27/service-station-m6-nature-motorists", "isHosted": false, "pillarId": "pillar/news", "pillarName": "News"}, {"id": "environment/2011/apr/27/1", "type": "article", "sectionId": "environment", "sectionName": "Environment", "webPublicationDate": "2011-04-27T11:51:28Z", "webTitle": "Green news round-up: 'Greenest' government, shale gas and Chernobyl anniversary", "webUrl": "https://www.theguardian.com/environment/2011/apr/27/1", "apiUrl": "https://content.guardianapis.com/environment/2011/apr/27/1", "isHosted": false, "pillarId": "pillar/news", "pillarName": "News"}, {"id": "environment/gallery/2011/apr/27/conservation-international-top-20-surprising-species", "type": "gallery", "sectionId": "environment", "sectionName": "Environment", "webPublicationDate": "2011-04-27T11:36:00Z", "webTitle": "Conservation International's top 20 surprising species - in pictures", "webUrl": "https://www.theguardian.com/environment/gallery/2011/apr/27/conservation-international-top-20-surprising-species", "apiUrl": "https://content.guardianapis.com/environment/gallery/2011/apr/27/conservation-international-top-20-surprising-species", "isHosted": false, "pillarId": "pillar/news", "pillarName": "News"}, {"id": "environment/blog/2011/apr/27/peta-poster-laflin-naked-pose", "type": "article", "sectionId": "environment", "sectionName": "Environment", "webPublicationDate": "2011-04-27T11:34:00Z", "webTitle": "Peta's new 'Want My Body?' poster views women as pieces of meat | Leo Hickman", "webUrl": "https://www.theguardian.com/environment/blog/2011/apr/27/peta-poster-laflin-naked-pose", "apiUrl": "https://content.guardianapis.com/environment/blog/2011/apr/27/peta-poster-laflin-naked-pose", "isHosted": false, "pillarId": "pillar/news", "pillarName": "News"}, {"id": "environment/2011/apr/27/co2e-global-warming-potential", "type": "article", "sectionId": "environment", "sectionName": "Environment", "webPublicationDate": "2011-04-27T11:11:00Z", "webTitle": "What are CO2e and global warming potential (GWP)?", "webUrl": "https://www.theguardian.com/environment/2011/apr/27/co2e-global-warming-potential", "apiUrl": "https://content.guardianapis.com/environment/2011/apr/27/co2e-global-warming-potential", "isHosted": false, "pillarId": "pillar/news", "pillarName": "News"}, {"id": "world/picture/2011/apr/27/germany-wildlife-eyewitness", "type": "picture", "sectionId": "world", "sectionName": "World news", "webPublicationDate": "2011-04-27T08:56:00Z", "webTitle": "Eyewitness: Gentle giant", "webUrl": "https://www.theguardian.com/world/picture/2011/apr/27/germany-wildlife-eyewitness", "apiUrl": "https://content.guardianapis.com/world/picture/2011/apr/27/germany-wildlife-eyewitness", "isHosted": false, "pillarId": "pillar/news", "pillarName": "News"}, {"id": "business/2011/apr/27/bp-profits-dip-deepwater-horizon-costs", "type": "article", "sectionId": "business", "sectionName": "Business", "webPublicationDate": "2011-04-27T07:22:38Z", "webTitle": "BP profits dip as Deepwater Horizon costs continue to mount", "webUrl": "https://www.theguardian.com/business/2011/apr/27/bp-profits-dip-deepwater-horizon-costs", "apiUrl": "https://content.guardianapis.com/business/2011/apr/27/bp-profits-dip-deepwater-horizon-costs", "isHosted": false, "pillarId": "pillar/news", "pillarName": "News"}, {"id": "science/2011/apr/27/plantwatch-woods-hedgerows-oak-ash-hawthorn", "type": "article", "sectionId": "science", "sectionName": "Science", "webPublicationDate": "2011-04-26T23:11:00Z", "webTitle": "Plantwatch: showmanship in the woods", "webUrl": "https://www.theguardian.com/science/2011/apr/27/plantwatch-woods-hedgerows-oak-ash-hawthorn", "apiUrl": "https://content.guardianapis.com/science/2011/apr/27/plantwatch-woods-hedgerows-oak-ash-hawthorn", "isHosted": false, "pillarId": "pillar/news", "pillarName": "News"}, {"id": "environment/2011/apr/27/country-diary-spring-flowers-trees-birds", "type": "article", "sectionId": "environment", "sectionName": "Environment", "webPublicationDate": "2011-04-26T23:10:01Z", "webTitle": "Country Diary: St Dominic, Tamar Valley", "webUrl": "https://www.theguardian.com/environment/2011/apr/27/country-diary-spring-flowers-trees-birds", "apiUrl": "https://content.guardianapis.com/environment/2011/apr/27/country-diary-spring-flowers-trees-birds", "isHosted": false, "pillarId": "pillar/news", "pillarName": "News"}, {"id": "environment/2011/apr/27/fracking-in-the-energy-mix", "type": "article", "sectionId": "environment", "sectionName": "Environment", "webPublicationDate": "2011-04-26T23:05:01Z", "webTitle": "Letters: Fracking in the energy mix", "webUrl": "https://www.theguardian.com/environment/2011/apr/27/fracking-in-the-energy-mix", "apiUrl": "https://content.guardianapis.com/environment/2011/apr/27/fracking-in-the-energy-mix", "isHosted": false, "pillarId": "pillar/news", "pillarName": "News"}, {"id": "environment/2011/apr/26/masdar-city-desert-future", "type": "article", "sectionId": "environment", "sectionName": "Environment", "webPublicationDate": "2011-04-26T19:51:04Z", "webTitle": "Masdar City \u2013 a glimpse of the future in the desert", "webUrl": "https://www.theguardian.com/environment/2011/apr/26/masdar-city-desert-future", "apiUrl": "https://content.guardianapis.com/environment/2011/apr/26/masdar-city-desert-future", "isHosted": false, "pillarId": "pillar/news", "pillarName": "News"}, {"id": "environment/2011/apr/26/obesity-smoking-more-dangerous-radiation", "type": "article", "sectionId": "environment", "sectionName": "Environment", "webPublicationDate": "2011-04-26T16:55:06Z", "webTitle": "Look at the science \u2013 smoking and obesity are more harmful than radiation | Geraldine Thomas", "webUrl": "https://www.theguardian.com/environment/2011/apr/26/obesity-smoking-more-dangerous-radiation", "apiUrl": "https://content.guardianapis.com/environment/2011/apr/26/obesity-smoking-more-dangerous-radiation", "isHosted": false, "pillarId": "pillar/news", "pillarName": "News"}, {"id": "environment/gallery/2011/apr/26/masdar-eco-city-abu-dhabi", "type": "gallery", "sectionId": "environment", "sectionName": "Environment", "webPublicationDate": "2011-04-26T16:35:57Z", "webTitle": "World's first zero-carbon city: Masdar in pictures", "webUrl": "https://www.theguardian.com/environment/gallery/2011/apr/26/masdar-eco-city-abu-dhabi", "apiUrl": "https://content.guardianapis.com/environment/gallery/2011/apr/26/masdar-eco-city-abu-dhabi", "isHosted": false, "pillarId": "pillar/news", "pillarName": "News"}, {"id": "environment/2011/apr/26/solar-textiles-remote-villages", "type": "article", "sectionId": "environment", "sectionName": "Environment", "webPublicationDate": "2011-04-26T14:09:00Z", "webTitle": "Solar textiles bring light to remote villages", "webUrl": "https://www.theguardian.com/environment/2011/apr/26/solar-textiles-remote-villages", "apiUrl": "https://content.guardianapis.com/environment/2011/apr/26/solar-textiles-remote-villages", "isHosted": false, "pillarId": "pillar/news", "pillarName": "News"}, {"id": "environment/gallery/2011/apr/26/chernobyl-nuclear-disaster-in-pictures", "type": "gallery", "sectionId": "environment", "sectionName": "Environment", "webPublicationDate": "2011-04-26T13:43:00Z", "webTitle": "Chernobyl nuclear disaster \u2013 in pictures", "webUrl": "https://www.theguardian.com/environment/gallery/2011/apr/26/chernobyl-nuclear-disaster-in-pictures", "apiUrl": "https://content.guardianapis.com/environment/gallery/2011/apr/26/chernobyl-nuclear-disaster-in-pictures", "isHosted": false, "pillarId": "pillar/news", "pillarName": "News"}, {"id": "environment/damian-carrington-blog/2011/apr/26/bp-oil-spill-oil", "type": "article", "sectionId": "environment", "sectionName": "Environment", "webPublicationDate": "2011-04-26T12:14:00Z", "webTitle": "BP oil spill: 30,000 pages of FOI documents need searching | Damian Carrington", "webUrl": "https://www.theguardian.com/environment/damian-carrington-blog/2011/apr/26/bp-oil-spill-oil", "apiUrl": "https://content.guardianapis.com/environment/damian-carrington-blog/2011/apr/26/bp-oil-spill-oil", "isHosted": false, "pillarId": "pillar/news", "pillarName": "News"}, {"id": "environment/2011/apr/26/nauru-united-nations-developed-world", "type": "article", "sectionId": "environment", "sectionName": "Environment", "webPublicationDate": "2011-04-26T09:59:00Z", "webTitle": "Nauru will use UN spotlight to confront developed world over climate change | Marlene Moses", "webUrl": "https://www.theguardian.com/environment/2011/apr/26/nauru-united-nations-developed-world", "apiUrl": "https://content.guardianapis.com/environment/2011/apr/26/nauru-united-nations-developed-world", "isHosted": false, "pillarId": "pillar/news", "pillarName": "News"}, {"id": "commentisfree/2011/apr/26/green-consensus-versus-consumerism", "type": "article", "sectionId": "commentisfree", "sectionName": "Opinion", "webPublicationDate": "2011-04-26T08:00:00Z", "webTitle": "The 'I'm-happy-I'm-green' consensus won't placate our lust for novelty | Pat Kane", "webUrl": "https://www.theguardian.com/commentisfree/2011/apr/26/green-consensus-versus-consumerism", "apiUrl": "https://content.guardianapis.com/commentisfree/2011/apr/26/green-consensus-versus-consumerism", "isHosted": false, "pillarId": "pillar/opinion", "pillarName": "Opinion"}, {"id": "global-development/poverty-matters/2011/apr/26/opportunities-offered-climate-change-challenge", "type": "article", "sectionId": "global-development", "sectionName": "Global development", "webPublicationDate": "2011-04-26T06:00:01Z", "webTitle": "Opportunities offered by climate change | Rachel Godfrey Wood", "webUrl": "https://www.theguardian.com/global-development/poverty-matters/2011/apr/26/opportunities-offered-climate-change-challenge", "apiUrl": "https://content.guardianapis.com/global-development/poverty-matters/2011/apr/26/opportunities-offered-climate-change-challenge", "isHosted": false, "pillarId": "pillar/news", "pillarName": "News"}, {"id": "environment/2011/apr/26/chernobyl-lessons-missed-research-gaps", "type": "article", "sectionId": "environment", "sectionName": "Environment", "webPublicationDate": "2011-04-26T06:00:00Z", "webTitle": "Chernobyl lessons missed because of research gaps, says radiation expert", "webUrl": "https://www.theguardian.com/environment/2011/apr/26/chernobyl-lessons-missed-research-gaps", "apiUrl": "https://content.guardianapis.com/environment/2011/apr/26/chernobyl-lessons-missed-research-gaps", "isHosted": false, "pillarId": "pillar/news", "pillarName": "News"}, {"id": "technology/2011/apr/26/john-james-audubon-google-doodle", "type": "article", "sectionId": "technology", "sectionName": "Technology", "webPublicationDate": "2011-04-26T01:06:30Z", "webTitle": "John James Audubon's birthday celebrated by Google doodle |", "webUrl": "https://www.theguardian.com/technology/2011/apr/26/john-james-audubon-google-doodle", "apiUrl": "https://content.guardianapis.com/technology/2011/apr/26/john-james-audubon-google-doodle", "isHosted": false, "pillarId": "pillar/news", "pillarName": "News"}, {"id": "environment/2011/apr/26/country-diary-east-cheshire-hills", "type": "article", "sectionId": "environment", "sectionName": "Environment", "webPublicationDate": "2011-04-25T23:05:06Z", "webTitle": "Country diary: East Cheshire Hills", "webUrl": "https://www.theguardian.com/environment/2011/apr/26/country-diary-east-cheshire-hills", "apiUrl": "https://content.guardianapis.com/environment/2011/apr/26/country-diary-east-cheshire-hills", "isHosted": false, "pillarId": "pillar/news", "pillarName": "News"}, {"id": "environment/2011/apr/26/peak-practice-national-park", "type": "article", "sectionId": "environment", "sectionName": "Environment", "webPublicationDate": "2011-04-25T23:05:05Z", "webTitle": "Letters: Peak practice", "webUrl": "https://www.theguardian.com/environment/2011/apr/26/peak-practice-national-park", "apiUrl": "https://content.guardianapis.com/environment/2011/apr/26/peak-practice-national-park", "isHosted": false, "pillarId": "pillar/news", "pillarName": "News"}]}}