{"response": {"status": "ok", "userTier": "developer", "total": 32803, "startIndex": 1, "pageSize": 50, "currentPage": 1, "pages": 657, "orderBy": "newest", "results": [{"id": "environment/2012/apr/30/templecombe-somerset-life-rural-railway", "type": "article", "sectionId": "environment", "sectionName": "Environment", "webPublicationDate": "2012-04-30T19:59:01Z", "webTitle": "Country diary: Templecombe, Somerset: Life and times of a rural railway", "webUrl": "https://www.theguardian.com/environment/2012/apr/30/templecombe-somerset-life-rural-railway", "apiUrl": "https://content.guardianapis.com/environment/2012/apr/30/templecombe-somerset-life-rural-railway", "isHosted": false, "pillarId": "pillar/news", "pillarName": "News"}, {"id": "business/2012/apr/30/bp-new-gulf-mexico-oil-rigs", "type": "article", "sectionId": "business", "sectionName": "Business", "webPublicationDate": "2012-04-30T18:48:39Z", "webTitle": "BP to start three new Gulf of Mexico oil rigs", "webUrl": "https://www.theguardian.com/business/2012/apr/30/bp-new-gulf-mexico-oil-rigs", "apiUrl": "https://content.guardianapis.com/business/2012/apr/30/bp-new-gulf-mexico-oil-rigs", "isHosted": false, "pillarId": "pillar/news", "pillarName": "News"}, {"id": "education/2012/apr/30/schools-solar-power-climate-change-community", "type": "article", "sectionId": "education", "sectionName": "Education", "webPublicationDate": "2012-04-30T18:30:00Z", "webTitle": "Solar panels combat more than climate change", "webUrl": "https://www.theguardian.com/education/2012/apr/30/schools-solar-power-climate-change-community", "apiUrl": "https://content.guardianapis.com/education/2012/apr/30/schools-solar-power-climate-change-community", "isHosted": false, "pillarId": "pillar/news", "pillarName": "News"}, {"id": "world/2012/apr/30/obama-administration-usa", "type": "article", "sectionId": "environment", "sectionName": "Environment", "webPublicationDate": "2012-04-30T17:52:00Z", "webTitle": "Senior EPA official resigns after 'crucify' remarks surface in YouTube video", "webUrl": "https://www.theguardian.com/world/2012/apr/30/obama-administration-usa", "apiUrl": "https://content.guardianapis.com/world/2012/apr/30/obama-administration-usa", "isHosted": false, "pillarId": "pillar/news", "pillarName": "News"}, {"id": "education/video/2012/apr/30/solar-schools-video", "type": "video", "sectionId": "education", "sectionName": "Education", "webPublicationDate": "2012-04-30T17:15:00Z", "webTitle": "Solar Schools: 'It's really exciting having solar panels on our roof' - video", "webUrl": "https://www.theguardian.com/education/video/2012/apr/30/solar-schools-video", "apiUrl": "https://content.guardianapis.com/education/video/2012/apr/30/solar-schools-video", "isHosted": false, "pillarId": "pillar/news", "pillarName": "News"}, {"id": "uk/2012/apr/30/man-drowns-car-river-newbury", "type": "article", "sectionId": "uk-news", "sectionName": "UK news", "webPublicationDate": "2012-04-30T16:48:03Z", "webTitle": "Man drowns in car while crossing flooded river near Newbury", "webUrl": "https://www.theguardian.com/uk/2012/apr/30/man-drowns-car-river-newbury", "apiUrl": "https://content.guardianapis.com/uk/2012/apr/30/man-drowns-car-river-newbury", "isHosted": false, "pillarId": "pillar/news", "pillarName": "News"}, {"id": "education/2012/apr/30/improbable-research-indian-water-pollution", "type": "article", "sectionId": "education", "sectionName": "Education", "webPublicationDate": "2012-04-30T15:30:01Z", "webTitle": "God-awful pollution of\u00a0India's waters", "webUrl": "https://www.theguardian.com/education/2012/apr/30/improbable-research-indian-water-pollution", "apiUrl": "https://content.guardianapis.com/education/2012/apr/30/improbable-research-indian-water-pollution", "isHosted": false, "pillarId": "pillar/news", "pillarName": "News"}, {"id": "environment/2012/apr/30/nuclear-industry-nrc-infighting-fukushima", "type": "article", "sectionId": "environment", "sectionName": "Environment", "webPublicationDate": "2012-04-30T15:29:52Z", "webTitle": "The infighting that threatens to undermine US nuclear safety", "webUrl": "https://www.theguardian.com/environment/2012/apr/30/nuclear-industry-nrc-infighting-fukushima", "apiUrl": "https://content.guardianapis.com/environment/2012/apr/30/nuclear-industry-nrc-infighting-fukushima", "isHosted": false, "pillarId": "pillar/news", "pillarName": "News"}, {"id": "environment/blog/2012/apr/30/david-cameron-environment-leadership", "type": "article", "sectionId": "environment", "sectionName": "Environment", "webPublicationDate": "2012-04-30T15:10:11Z", "webTitle": "David Cameron, it's time to show leadership on climate change and energy | Caroline Lucas", "webUrl": "https://www.theguardian.com/environment/blog/2012/apr/30/david-cameron-environment-leadership", "apiUrl": "https://content.guardianapis.com/environment/blog/2012/apr/30/david-cameron-environment-leadership", "isHosted": false, "pillarId": "pillar/news", "pillarName": "News"}, {"id": "environment/gallery/2012/apr/30/koalas-threat-australia-in-pictures", "type": "gallery", "sectionId": "environment", "sectionName": "Environment", "webPublicationDate": "2012-04-30T12:34:12Z", "webTitle": "Koalas under threat in Australia - in pictures", "webUrl": "https://www.theguardian.com/environment/gallery/2012/apr/30/koalas-threat-australia-in-pictures", "apiUrl": "https://content.guardianapis.com/environment/gallery/2012/apr/30/koalas-threat-australia-in-pictures", "isHosted": false, "pillarId": "pillar/news", "pillarName": "News"}, {"id": "uk/datablog/2012/apr/30/lond-road-use-data", "type": "article", "sectionId": "uk-news", "sectionName": "UK news", "webPublicationDate": "2012-04-30T11:57:00Z", "webTitle": "London road use mapped: see how it's changed since 2001 | Infographic", "webUrl": "https://www.theguardian.com/uk/datablog/2012/apr/30/lond-road-use-data", "apiUrl": "https://content.guardianapis.com/uk/datablog/2012/apr/30/lond-road-use-data", "isHosted": false, "pillarId": "pillar/news", "pillarName": "News"}, {"id": "environment/2012/apr/30/australia-koala-threatened-species", "type": "article", "sectionId": "environment", "sectionName": "Environment", "webPublicationDate": "2012-04-30T11:00:05Z", "webTitle": "Australia lists the koala as a threatened species", "webUrl": "https://www.theguardian.com/environment/2012/apr/30/australia-koala-threatened-species", "apiUrl": "https://content.guardianapis.com/environment/2012/apr/30/australia-koala-threatened-species", "isHosted": false, "pillarId": "pillar/news", "pillarName": "News"}, {"id": "commentisfree/2012/apr/30/remember-kinder-scout-britain-common-land", "type": "article", "sectionId": "commentisfree", "sectionName": "Opinion", "webPublicationDate": "2012-04-30T10:45:00Z", "webTitle": "Remember Kinder Scout \u2013 give back Britain's common land | Peter Lazenby", "webUrl": "https://www.theguardian.com/commentisfree/2012/apr/30/remember-kinder-scout-britain-common-land", "apiUrl": "https://content.guardianapis.com/commentisfree/2012/apr/30/remember-kinder-scout-britain-common-land", "isHosted": false, "pillarId": "pillar/opinion", "pillarName": "Opinion"}, {"id": "environment/gallery/2012/apr/30/german-wildlife-photography-in-pictures", "type": "gallery", "sectionId": "environment", "sectionName": "Environment", "webPublicationDate": "2012-04-30T08:56:40Z", "webTitle": "GDT Nature Photographer of the Year 2012 \u2013 in pictures", "webUrl": "https://www.theguardian.com/environment/gallery/2012/apr/30/german-wildlife-photography-in-pictures", "apiUrl": "https://content.guardianapis.com/environment/gallery/2012/apr/30/german-wildlife-photography-in-pictures", "isHosted": false, "pillarId": "pillar/news", "pillarName": "News"}, {"id": "science/audio/2012/apr/30/science-weekly-podcast-sleep", "type": "audio", "sectionId": "science", "sectionName": "Science", "webPublicationDate": "2012-04-29T23:05:00Z", "webTitle": "Science Weekly podcast: Are you getting enough sleep?", "webUrl": "https://www.theguardian.com/science/audio/2012/apr/30/science-weekly-podcast-sleep", "apiUrl": "https://content.guardianapis.com/science/audio/2012/apr/30/science-weekly-podcast-sleep", "isHosted": false, "pillarId": "pillar/news", "pillarName": "News"}, {"id": "environment/2012/apr/29/country-diary-1912-destruction-pine-marten", "type": "article", "sectionId": "environment", "sectionName": "Environment", "webPublicationDate": "2012-04-29T21:30:00Z", "webTitle": "Country diary archive, 4 May 1912: Stop this destruction of the pine marten", "webUrl": "https://www.theguardian.com/environment/2012/apr/29/country-diary-1912-destruction-pine-marten", "apiUrl": "https://content.guardianapis.com/environment/2012/apr/29/country-diary-1912-destruction-pine-marten", "isHosted": false, "pillarId": "pillar/news", "pillarName": "News"}, {"id": "environment/2012/apr/29/blackwater-carr-norfolk-willow-warbler", "type": "article", "sectionId": "environment", "sectionName": "Environment", "webPublicationDate": "2012-04-29T20:00:00Z", "webTitle": "Country diary: Blackwater Carr, Norfolk: The subliminal pleasures of the willow warbler", "webUrl": "https://www.theguardian.com/environment/2012/apr/29/blackwater-carr-norfolk-willow-warbler", "apiUrl": "https://content.guardianapis.com/environment/2012/apr/29/blackwater-carr-norfolk-willow-warbler", "isHosted": false, "pillarId": "pillar/news", "pillarName": "News"}, {"id": "tv-and-radio/2012/apr/29/foxes-live-wild-in-city", "type": "article", "sectionId": "tv-and-radio", "sectionName": "Television & radio", "webPublicationDate": "2012-04-29T19:00:01Z", "webTitle": "TV highlights 30/04/2012", "webUrl": "https://www.theguardian.com/tv-and-radio/2012/apr/29/foxes-live-wild-in-city", "apiUrl": "https://content.guardianapis.com/tv-and-radio/2012/apr/29/foxes-live-wild-in-city", "isHosted": false, "pillarId": "pillar/arts", "pillarName": "Arts"}, {"id": "environment/2012/apr/29/wind-farms-night-temperatures-study", "type": "article", "sectionId": "environment", "sectionName": "Environment", "webPublicationDate": "2012-04-29T17:00:00Z", "webTitle": "Windfarms can increase night time temperatures, research reveals", "webUrl": "https://www.theguardian.com/environment/2012/apr/29/wind-farms-night-temperatures-study", "apiUrl": "https://content.guardianapis.com/environment/2012/apr/29/wind-farms-night-temperatures-study", "isHosted": false, "pillarId": "pillar/news", "pillarName": "News"}, {"id": "world/picture/2012/apr/29/eyewitness-sheep-head-summer-pasture", "type": "picture", "sectionId": "world", "sectionName": "World news", "webPublicationDate": "2012-04-29T14:11:08Z", "webTitle": "Eyewitness: Sheep head to summer pasture", "webUrl": "https://www.theguardian.com/world/picture/2012/apr/29/eyewitness-sheep-head-summer-pasture", "apiUrl": "https://content.guardianapis.com/world/picture/2012/apr/29/eyewitness-sheep-head-summer-pasture", "isHosted": false, "pillarId": "pillar/news", "pillarName": "News"}, {"id": "environment/2012/apr/29/lucy-siegle-charity-clothing-banks", "type": "article", "sectionId": "environment", "sectionName": "Environment", "webPublicationDate": "2012-04-28T23:04:06Z", "webTitle": "Ethical living: what's happened to charity clothing banks?", "webUrl": "https://www.theguardian.com/environment/2012/apr/29/lucy-siegle-charity-clothing-banks", "apiUrl": "https://content.guardianapis.com/environment/2012/apr/29/lucy-siegle-charity-clothing-banks", "isHosted": false, "pillarId": "pillar/news", "pillarName": "News"}, {"id": "world/2012/apr/28/germany-far-right-green-movement", "type": "article", "sectionId": "world", "sectionName": "World news", "webPublicationDate": "2012-04-28T22:51:41Z", "webTitle": "German far-right extremists tap into green movement for support", "webUrl": "https://www.theguardian.com/world/2012/apr/28/germany-far-right-green-movement", "apiUrl": "https://content.guardianapis.com/world/2012/apr/28/germany-far-right-green-movement", "isHosted": false, "pillarId": "pillar/news", "pillarName": "News"}, {"id": "world/2012/apr/28/iran-nucleat-talks-resume", "type": "article", "sectionId": "world", "sectionName": "World news", "webPublicationDate": "2012-04-28T12:09:25Z", "webTitle": "Iran nuclear talks to resume", "webUrl": "https://www.theguardian.com/world/2012/apr/28/iran-nucleat-talks-resume", "apiUrl": "https://content.guardianapis.com/world/2012/apr/28/iran-nucleat-talks-resume", "isHosted": false, "pillarId": "pillar/news", "pillarName": "News"}, {"id": "environment/2012/apr/28/bats-fungus-epidemic-white-nose", "type": "article", "sectionId": "environment", "sectionName": "Environment", "webPublicationDate": "2012-04-28T11:51:50Z", "webTitle": "Britain's hibernating bats avoid deadly fungus killing their US cousins", "webUrl": "https://www.theguardian.com/environment/2012/apr/28/bats-fungus-epidemic-white-nose", "apiUrl": "https://content.guardianapis.com/environment/2012/apr/28/bats-fungus-epidemic-white-nose", "isHosted": false, "pillarId": "pillar/news", "pillarName": "News"}, {"id": "money/2012/apr/27/mbas-compete-sustainable-business-prize", "type": "article", "sectionId": "money", "sectionName": "Money", "webPublicationDate": "2012-04-27T22:01:29Z", "webTitle": "MBAs compete for \u00a35,000 sustainable business prize", "webUrl": "https://www.theguardian.com/money/2012/apr/27/mbas-compete-sustainable-business-prize", "apiUrl": "https://content.guardianapis.com/money/2012/apr/27/mbas-compete-sustainable-business-prize", "isHosted": false, "pillarId": "pillar/lifestyle", "pillarName": "Lifestyle"}, {"id": "environment/2012/apr/27/eu-fishing-quota-reforms", "type": "article", "sectionId": "environment", "sectionName": "Environment", "webPublicationDate": "2012-04-27T21:35:07Z", "webTitle": "EU states close to agreeing on greater local say in managing fisheries", "webUrl": "https://www.theguardian.com/environment/2012/apr/27/eu-fishing-quota-reforms", "apiUrl": "https://content.guardianapis.com/environment/2012/apr/27/eu-fishing-quota-reforms", "isHosted": false, "pillarId": "pillar/news", "pillarName": "News"}, {"id": "science/2012/apr/27/plantwatch-trees-rain-drought", "type": "article", "sectionId": "science", "sectionName": "Science", "webPublicationDate": "2012-04-27T21:30:02Z", "webTitle": "Plantwatch: Oak before Ash we'll have a splash, Ash before Oak in for a soak", "webUrl": "https://www.theguardian.com/science/2012/apr/27/plantwatch-trees-rain-drought", "apiUrl": "https://content.guardianapis.com/science/2012/apr/27/plantwatch-trees-rain-drought", "isHosted": false, "pillarId": "pillar/news", "pillarName": "News"}, {"id": "environment/2012/apr/27/cambrian-mountains-watchers-ford", "type": "article", "sectionId": "environment", "sectionName": "Environment", "webPublicationDate": "2012-04-27T20:00:02Z", "webTitle": "Country diary: Cambrian Mountains: Watchers at the ford", "webUrl": "https://www.theguardian.com/environment/2012/apr/27/cambrian-mountains-watchers-ford", "apiUrl": "https://content.guardianapis.com/environment/2012/apr/27/cambrian-mountains-watchers-ford", "isHosted": false, "pillarId": "pillar/news", "pillarName": "News"}, {"id": "environment/2012/apr/27/coalition-policy-not-green-enough", "type": "article", "sectionId": "environment", "sectionName": "Environment", "webPublicationDate": "2012-04-27T20:00:01Z", "webTitle": "Letters: Coalition policy not green enough", "webUrl": "https://www.theguardian.com/environment/2012/apr/27/coalition-policy-not-green-enough", "apiUrl": "https://content.guardianapis.com/environment/2012/apr/27/coalition-policy-not-green-enough", "isHosted": false, "pillarId": "pillar/news", "pillarName": "News"}, {"id": "environment/2012/apr/27/climate-protest-return-uk", "type": "article", "sectionId": "environment", "sectionName": "Environment", "webPublicationDate": "2012-04-27T17:01:39Z", "webTitle": "Is climate protest making a return to the UK?", "webUrl": "https://www.theguardian.com/environment/2012/apr/27/climate-protest-return-uk", "apiUrl": "https://content.guardianapis.com/environment/2012/apr/27/climate-protest-return-uk", "isHosted": false, "pillarId": "pillar/news", "pillarName": "News"}, {"id": "business/2012/apr/27/offshore-accidents-rules-relaxed", "type": "article", "sectionId": "business", "sectionName": "Business", "webPublicationDate": "2012-04-27T16:27:00Z", "webTitle": "Rules relaxed for reporting offshore oil and gas accidents", "webUrl": "https://www.theguardian.com/business/2012/apr/27/offshore-accidents-rules-relaxed", "apiUrl": "https://content.guardianapis.com/business/2012/apr/27/offshore-accidents-rules-relaxed", "isHosted": false, "pillarId": "pillar/news", "pillarName": "News"}, {"id": "global-development/gallery/2012/apr/27/climbing-beans-rwanda-in-pictures", "type": "gallery", "sectionId": "global-development", "sectionName": "Global development", "webPublicationDate": "2012-04-27T15:10:12Z", "webTitle": "Climbing beans improve life for Rwandan farmers \u2013 in pictures", "webUrl": "https://www.theguardian.com/global-development/gallery/2012/apr/27/climbing-beans-rwanda-in-pictures", "apiUrl": "https://content.guardianapis.com/global-development/gallery/2012/apr/27/climbing-beans-rwanda-in-pictures", "isHosted": false, "pillarId": "pillar/news", "pillarName": "News"}, {"id": "environment/gallery/2012/apr/27/week-in-wildlife-in-pictures", "type": "gallery", "sectionId": "environment", "sectionName": "Environment", "webPublicationDate": "2012-04-27T14:07:38Z", "webTitle": "The week in wildlife \u2013 in pictures", "webUrl": "https://www.theguardian.com/environment/gallery/2012/apr/27/week-in-wildlife-in-pictures", "apiUrl": "https://content.guardianapis.com/environment/gallery/2012/apr/27/week-in-wildlife-in-pictures", "isHosted": false, "pillarId": "pillar/news", "pillarName": "News"}, {"id": "environment/georgemonbiot/2012/apr/27/protesting-mobile-phones-environmental-movement", "type": "article", "sectionId": "environment", "sectionName": "Environment", "webPublicationDate": "2012-04-27T11:22:21Z", "webTitle": "Protesting against mobiles is damaging the environmental movement | George Monbiot", "webUrl": "https://www.theguardian.com/environment/georgemonbiot/2012/apr/27/protesting-mobile-phones-environmental-movement", "apiUrl": "https://content.guardianapis.com/environment/georgemonbiot/2012/apr/27/protesting-mobile-phones-environmental-movement", "isHosted": false, "pillarId": "pillar/news", "pillarName": "News"}, {"id": "environment/2012/apr/27/collective-switching-energy-market", "type": "article", "sectionId": "environment", "sectionName": "Environment", "webPublicationDate": "2012-04-27T11:01:34Z", "webTitle": "Collective switching will not fix the UK's broken energy market | Reg Platt", "webUrl": "https://www.theguardian.com/environment/2012/apr/27/collective-switching-energy-market", "apiUrl": "https://content.guardianapis.com/environment/2012/apr/27/collective-switching-energy-market", "isHosted": false, "pillarId": "pillar/news", "pillarName": "News"}, {"id": "global-development/2012/apr/27/international-land-deals-database-africa", "type": "article", "sectionId": "global-development", "sectionName": "Global development", "webPublicationDate": "2012-04-27T06:00:00Z", "webTitle": "New international land deals database reveals rush to buy up Africa", "webUrl": "https://www.theguardian.com/global-development/2012/apr/27/international-land-deals-database-africa", "apiUrl": "https://content.guardianapis.com/global-development/2012/apr/27/international-land-deals-database-africa", "isHosted": false, "pillarId": "pillar/news", "pillarName": "News"}, {"id": "environment/2012/apr/26/epa-official-crucify-apology", "type": "article", "sectionId": "environment", "sectionName": "Environment", "webPublicationDate": "2012-04-26T21:23:00Z", "webTitle": "US environmental official apologises for 'crucify' gaffe", "webUrl": "https://www.theguardian.com/environment/2012/apr/26/epa-official-crucify-apology", "apiUrl": "https://content.guardianapis.com/environment/2012/apr/26/epa-official-crucify-apology", "isHosted": false, "pillarId": "pillar/news", "pillarName": "News"}, {"id": "environment/the-northerner/2012/apr/26/east-yorkshire-hints-of-summer", "type": "article", "sectionId": "environment", "sectionName": "Environment", "webPublicationDate": "2012-04-26T20:00:02Z", "webTitle": "Country diary: East Yorkshire: Rain-soaked hints of summer", "webUrl": "https://www.theguardian.com/environment/the-northerner/2012/apr/26/east-yorkshire-hints-of-summer", "apiUrl": "https://content.guardianapis.com/environment/the-northerner/2012/apr/26/east-yorkshire-hints-of-summer", "isHosted": false, "pillarId": "pillar/news", "pillarName": "News"}, {"id": "business/2012/apr/26/shell-says-no-north-sea-wind-power", "type": "article", "sectionId": "business", "sectionName": "Business", "webPublicationDate": "2012-04-26T17:57:15Z", "webTitle": "Shell says no to North Sea wind power", "webUrl": "https://www.theguardian.com/business/2012/apr/26/shell-says-no-north-sea-wind-power", "apiUrl": "https://content.guardianapis.com/business/2012/apr/26/shell-says-no-north-sea-wind-power", "isHosted": false, "pillarId": "pillar/news", "pillarName": "News"}, {"id": "science/blog/2012/apr/26/organic-conventional-farming-feed-world", "type": "article", "sectionId": "science", "sectionName": "Science", "webPublicationDate": "2012-04-26T17:45:00Z", "webTitle": "It will take the best of organic and conventional farming to feed the world | Eoin Lettice", "webUrl": "https://www.theguardian.com/science/blog/2012/apr/26/organic-conventional-farming-feed-world", "apiUrl": "https://content.guardianapis.com/science/blog/2012/apr/26/organic-conventional-farming-feed-world", "isHosted": false, "pillarId": "pillar/news", "pillarName": "News"}, {"id": "books/2012/apr/26/walden-woods-game-world-thoreau", "type": "article", "sectionId": "books", "sectionName": "Books", "webPublicationDate": "2012-04-26T16:34:52Z", "webTitle": "Walden Woods video game will recreate the world of Thoreau", "webUrl": "https://www.theguardian.com/books/2012/apr/26/walden-woods-game-world-thoreau", "apiUrl": "https://content.guardianapis.com/books/2012/apr/26/walden-woods-game-world-thoreau", "isHosted": false, "pillarId": "pillar/arts", "pillarName": "Arts"}, {"id": "environment/2012/apr/26/climate-change-sceptics-australian-tv-show", "type": "article", "sectionId": "environment", "sectionName": "Environment", "webPublicationDate": "2012-04-26T16:24:50Z", "webTitle": "TV show giving voice to climate sceptics is skewing evidence, scientists say", "webUrl": "https://www.theguardian.com/environment/2012/apr/26/climate-change-sceptics-australian-tv-show", "apiUrl": "https://content.guardianapis.com/environment/2012/apr/26/climate-change-sceptics-australian-tv-show", "isHosted": false, "pillarId": "pillar/news", "pillarName": "News"}, {"id": "environment/damian-carrington-blog/2012/apr/26/david-cameron-green-economy-renewable-energy", "type": "article", "sectionId": "environment", "sectionName": "Environment", "webPublicationDate": "2012-04-26T16:19:00Z", "webTitle": "The greenest government ever - or never? | Damian Carrington", "webUrl": "https://www.theguardian.com/environment/damian-carrington-blog/2012/apr/26/david-cameron-green-economy-renewable-energy", "apiUrl": "https://content.guardianapis.com/environment/damian-carrington-blog/2012/apr/26/david-cameron-green-economy-renewable-energy", "isHosted": false, "pillarId": "pillar/news", "pillarName": "News"}, {"id": "environment/audio/2012/apr/26/audio-population-john-sulston", "type": "audio", "sectionId": "environment", "sectionName": "Environment", "webPublicationDate": "2012-04-26T14:57:39Z", "webTitle": "Extract from an interview on population with Sir John Sulston - audio", "webUrl": "https://www.theguardian.com/environment/audio/2012/apr/26/audio-population-john-sulston", "apiUrl": "https://content.guardianapis.com/environment/audio/2012/apr/26/audio-population-john-sulston", "isHosted": false, "pillarId": "pillar/news", "pillarName": "News"}, {"id": "environment/2012/apr/26/david-cameron-clean-energy-ministerial", "type": "article", "sectionId": "environment", "sectionName": "Environment", "webPublicationDate": "2012-04-26T13:00:00Z", "webTitle": "David Cameron's remarks to Clean Energy Ministerial meeting", "webUrl": "https://www.theguardian.com/environment/2012/apr/26/david-cameron-clean-energy-ministerial", "apiUrl": "https://content.guardianapis.com/environment/2012/apr/26/david-cameron-clean-energy-ministerial", "isHosted": false, "pillarId": "pillar/news", "pillarName": "News"}, {"id": "environment/2012/apr/26/david-cameron-greenest-government-ever", "type": "article", "sectionId": "environment", "sectionName": "Environment", "webPublicationDate": "2012-04-26T12:47:12Z", "webTitle": "David Cameron: this is the greenest government ever", "webUrl": "https://www.theguardian.com/environment/2012/apr/26/david-cameron-greenest-government-ever", "apiUrl": "https://content.guardianapis.com/environment/2012/apr/26/david-cameron-greenest-government-ever", "isHosted": false, "pillarId": "pillar/news", "pillarName": "News"}, {"id": "environment/2012/apr/26/carbon-capture-storage-developing-countries", "type": "article", "sectionId": "environment", "sectionName": "Environment", "webPublicationDate": "2012-04-26T12:13:04Z", "webTitle": "UK to give \u00a360m to developing countries to build CCS plants", "webUrl": "https://www.theguardian.com/environment/2012/apr/26/carbon-capture-storage-developing-countries", "apiUrl": "https://content.guardianapis.com/environment/2012/apr/26/carbon-capture-storage-developing-countries", "isHosted": false, "pillarId": "pillar/news", "pillarName": "News"}, {"id": "environment/2012/apr/26/jenny-jones-greenest-london-mayoral-candidate", "type": "article", "sectionId": "environment", "sectionName": "Environment", "webPublicationDate": "2012-04-26T11:13:57Z", "webTitle": "Jenny Jones is greenest London mayoral candidate, analysis shows", "webUrl": "https://www.theguardian.com/environment/2012/apr/26/jenny-jones-greenest-london-mayoral-candidate", "apiUrl": "https://content.guardianapis.com/environment/2012/apr/26/jenny-jones-greenest-london-mayoral-candidate", "isHosted": false, "pillarId": "pillar/news", "pillarName": "News"}, {"id": "environment/2012/apr/26/world-population-resources-paul-ehrlich", "type": "article", "sectionId": "environment", "sectionName": "Environment", "webPublicationDate": "2012-04-26T10:19:08Z", "webTitle": "Cut world population and redistribute resources, expert urges", "webUrl": "https://www.theguardian.com/environment/2012/apr/26/world-population-resources-paul-ehrlich", "apiUrl": "https://content.guardianapis.com/environment/2012/apr/26/world-population-resources-paul-ehrlich", "isHosted": false, "pillarId": "pillar/news", "pillarName": "News"}, {"id": "environment/2012/apr/26/green-light", "type": "article", "sectionId": "environment", "sectionName": "Environment", "webPublicationDate": "2012-04-26T09:45:03Z", "webTitle": "Green news roundup: Population, wild children and saving the world's most endangered tribe", "webUrl": "https://www.theguardian.com/environment/2012/apr/26/green-light", "apiUrl": "https://content.guardianapis.com/environment/2012/apr/26/green-light", "isHosted": false, "pillarId": "pillar/news", "pillarName": "News"}]}}