{"response": {"status": "ok", "userTier": "developer", "total": 81768, "startIndex": 1, "pageSize": 50, "currentPage": 1, "pages": 1636, "orderBy": "newest", "results": [{"id": "football/2010/may/01/everton-leeds-united-jermaine-beckford", "type": "article", "sectionId": "football", "sectionName": "Football", "webPublicationDate": "2010-04-30T23:36:03Z", "webTitle": "Everton favourites to sign Jermaine Beckford from Leeds United", "webUrl": "https://www.theguardian.com/football/2010/may/01/everton-leeds-united-jermaine-beckford", "apiUrl": "https://content.guardianapis.com/football/2010/may/01/everton-leeds-united-jermaine-beckford", "isHosted": false, "pillarId": "pillar/sport", "pillarName": "Sport"}, {"id": "football/2010/may/01/aston-villa-richard-dunne-manchester-city", "type": "article", "sectionId": "football", "sectionName": "Football", "webPublicationDate": "2010-04-30T23:24:56Z", "webTitle": "Aston Villa's last laugh over Manchester City may be a Dunne deal", "webUrl": "https://www.theguardian.com/football/2010/may/01/aston-villa-richard-dunne-manchester-city", "apiUrl": "https://content.guardianapis.com/football/2010/may/01/aston-villa-richard-dunne-manchester-city", "isHosted": false, "pillarId": "pillar/sport", "pillarName": "Sport"}, {"id": "football/2010/may/01/alan-irvine-sheffield-wednesday", "type": "article", "sectionId": "football", "sectionName": "Football", "webPublicationDate": "2010-04-30T23:17:00Z", "webTitle": "Alan Irvine seeks Sheffield Wednesday salvation against former club", "webUrl": "https://www.theguardian.com/football/2010/may/01/alan-irvine-sheffield-wednesday", "apiUrl": "https://content.guardianapis.com/football/2010/may/01/alan-irvine-sheffield-wednesday", "isHosted": false, "pillarId": "pillar/sport", "pillarName": "Sport"}, {"id": "football/2010/may/01/benoit-assou-ekotto-tottenham-hotspur", "type": "article", "sectionId": "football", "sectionName": "Football", "webPublicationDate": "2010-04-30T23:16:55Z", "webTitle": "Beno\u00eet Assou-Ekotto: 'I play for the money. Football's not my passion'", "webUrl": "https://www.theguardian.com/football/2010/may/01/benoit-assou-ekotto-tottenham-hotspur", "apiUrl": "https://content.guardianapis.com/football/2010/may/01/benoit-assou-ekotto-tottenham-hotspur", "isHosted": false, "pillarId": "pillar/sport", "pillarName": "Sport"}, {"id": "football/2010/may/01/rafael-benitez-liverpool-juventus", "type": "article", "sectionId": "football", "sectionName": "Football", "webPublicationDate": "2010-04-30T23:16:24Z", "webTitle": "Rafael Ben\u00edtez still undecided over switch from Liverpool to Juventus", "webUrl": "https://www.theguardian.com/football/2010/may/01/rafael-benitez-liverpool-juventus", "apiUrl": "https://content.guardianapis.com/football/2010/may/01/rafael-benitez-liverpool-juventus", "isHosted": false, "pillarId": "pillar/sport", "pillarName": "Sport"}, {"id": "football/blog/2010/may/01/manchester-united-liverpool-league-titles", "type": "article", "sectionId": "football", "sectionName": "Football", "webPublicationDate": "2010-04-30T23:15:51Z", "webTitle": "Breaking domestic records still a sideshow for Sir Alex Ferguson | David Lacey", "webUrl": "https://www.theguardian.com/football/blog/2010/may/01/manchester-united-liverpool-league-titles", "apiUrl": "https://content.guardianapis.com/football/blog/2010/may/01/manchester-united-liverpool-league-titles", "isHosted": false, "pillarId": "pillar/sport", "pillarName": "Sport"}, {"id": "football/2010/may/01/carlo-ancelotti-chelsea-nerve-anfield", "type": "article", "sectionId": "football", "sectionName": "Football", "webPublicationDate": "2010-04-30T23:15:15Z", "webTitle": "Carlo Ancelotti warns Chelsea to hold their nerve at Anfield", "webUrl": "https://www.theguardian.com/football/2010/may/01/carlo-ancelotti-chelsea-nerve-anfield", "apiUrl": "https://content.guardianapis.com/football/2010/may/01/carlo-ancelotti-chelsea-nerve-anfield", "isHosted": false, "pillarId": "pillar/sport", "pillarName": "Sport"}, {"id": "football/2010/apr/30/alex-ferguson-liverpool-duty-chelsea", "type": "article", "sectionId": "football", "sectionName": "Football", "webPublicationDate": "2010-04-30T21:30:01Z", "webTitle": "Sir Alex Ferguson asks Liverpool to do him a favour against Chelsea", "webUrl": "https://www.theguardian.com/football/2010/apr/30/alex-ferguson-liverpool-duty-chelsea", "apiUrl": "https://content.guardianapis.com/football/2010/apr/30/alex-ferguson-liverpool-duty-chelsea", "isHosted": false, "pillarId": "pillar/sport", "pillarName": "Sport"}, {"id": "football/2010/apr/30/harry-redknapp-goalkeeper-shortage-solution", "type": "article", "sectionId": "football", "sectionName": "Football", "webPublicationDate": "2010-04-30T21:30:01Z", "webTitle": "Harry Redknapp is no fan of Roberto Mancini's keeper crisis solution", "webUrl": "https://www.theguardian.com/football/2010/apr/30/harry-redknapp-goalkeeper-shortage-solution", "apiUrl": "https://content.guardianapis.com/football/2010/apr/30/harry-redknapp-goalkeeper-shortage-solution", "isHosted": false, "pillarId": "pillar/sport", "pillarName": "Sport"}, {"id": "football/2010/apr/30/walter-smith-rangers-finances", "type": "article", "sectionId": "football", "sectionName": "Football", "webPublicationDate": "2010-04-30T21:00:00Z", "webTitle": "Off-field crisis has taken gloss off Rangers' title, says Walter Smith", "webUrl": "https://www.theguardian.com/football/2010/apr/30/walter-smith-rangers-finances", "apiUrl": "https://content.guardianapis.com/football/2010/apr/30/walter-smith-rangers-finances", "isHosted": false, "pillarId": "pillar/sport", "pillarName": "Sport"}, {"id": "football/blog/2010/apr/30/liverpool-chelsea-anfield-title-benitez", "type": "article", "sectionId": "football", "sectionName": "Football", "webPublicationDate": "2010-04-30T18:28:00Z", "webTitle": "Liverpool are running on empty as the Chelsea steam roller approaches | Kevin McCarra", "webUrl": "https://www.theguardian.com/football/blog/2010/apr/30/liverpool-chelsea-anfield-title-benitez", "apiUrl": "https://content.guardianapis.com/football/blog/2010/apr/30/liverpool-chelsea-anfield-title-benitez", "isHosted": false, "pillarId": "pillar/sport", "pillarName": "Sport"}, {"id": "football/2010/apr/30/sunderland-manchester-united-squad-sheets", "type": "article", "sectionId": "football", "sectionName": "Football", "webPublicationDate": "2010-04-30T17:35:50Z", "webTitle": "Squad sheets: Sunderland v Manchester United", "webUrl": "https://www.theguardian.com/football/2010/apr/30/sunderland-manchester-united-squad-sheets", "apiUrl": "https://content.guardianapis.com/football/2010/apr/30/sunderland-manchester-united-squad-sheets", "isHosted": false, "pillarId": "pillar/sport", "pillarName": "Sport"}, {"id": "football/2010/apr/30/the-fiver-fulham-roy-hodgson", "type": "article", "sectionId": "football", "sectionName": "Football", "webPublicationDate": "2010-04-30T15:23:55Z", "webTitle": "The Fiver | Roy-Love; and Everything Else Hate | Barney Ronay and Barry Glendenning", "webUrl": "https://www.theguardian.com/football/2010/apr/30/the-fiver-fulham-roy-hodgson", "apiUrl": "https://content.guardianapis.com/football/2010/apr/30/the-fiver-fulham-roy-hodgson", "isHosted": false, "pillarId": "pillar/sport", "pillarName": "Sport"}, {"id": "football/gallery/2010/apr/30/uefa-europa-league-liverpool", "type": "gallery", "sectionId": "football", "sectionName": "Football", "webPublicationDate": "2010-04-30T14:56:34Z", "webTitle": "Football: Liverpool v Atletico Madrid", "webUrl": "https://www.theguardian.com/football/gallery/2010/apr/30/uefa-europa-league-liverpool", "apiUrl": "https://content.guardianapis.com/football/gallery/2010/apr/30/uefa-europa-league-liverpool", "isHosted": false, "pillarId": "pillar/sport", "pillarName": "Sport"}, {"id": "football/blog/2010/apr/30/paul-scholes-manchester-united-england", "type": "article", "sectionId": "football", "sectionName": "Football", "webPublicationDate": "2010-04-30T14:31:08Z", "webTitle": "Manchester United's Paul Scholes is a true great. The rest is bull | Daniel Taylor", "webUrl": "https://www.theguardian.com/football/blog/2010/apr/30/paul-scholes-manchester-united-england", "apiUrl": "https://content.guardianapis.com/football/blog/2010/apr/30/paul-scholes-manchester-united-england", "isHosted": false, "pillarId": "pillar/sport", "pillarName": "Sport"}, {"id": "world/2010/apr/30/zimbabwe-north-korea-world-cup", "type": "article", "sectionId": "world", "sectionName": "World news", "webPublicationDate": "2010-04-30T13:35:12Z", "webTitle": "Zimbabwean offer to host North Korean World Cup squad backfires", "webUrl": "https://www.theguardian.com/world/2010/apr/30/zimbabwe-north-korea-world-cup", "apiUrl": "https://content.guardianapis.com/world/2010/apr/30/zimbabwe-north-korea-world-cup", "isHosted": false, "pillarId": "pillar/news", "pillarName": "News"}, {"id": "football/blog/2010/apr/30/neil-lennon-celtic-manager-rangers", "type": "article", "sectionId": "football", "sectionName": "Football", "webPublicationDate": "2010-04-30T11:41:48Z", "webTitle": "Neil Lennon's Celtic destiny may lie in Rangers' hands | Ewan Murray", "webUrl": "https://www.theguardian.com/football/blog/2010/apr/30/neil-lennon-celtic-manager-rangers", "apiUrl": "https://content.guardianapis.com/football/blog/2010/apr/30/neil-lennon-celtic-manager-rangers", "isHosted": false, "pillarId": "pillar/sport", "pillarName": "Sport"}, {"id": "football/2010/apr/30/shrewsbury-town-sack-manager-paul-simpson", "type": "article", "sectionId": "football", "sectionName": "Football", "webPublicationDate": "2010-04-30T10:10:09Z", "webTitle": "Paul Simpson sacked as Shrewsbury Town manager after missing play-offs", "webUrl": "https://www.theguardian.com/football/2010/apr/30/shrewsbury-town-sack-manager-paul-simpson", "apiUrl": "https://content.guardianapis.com/football/2010/apr/30/shrewsbury-town-sack-manager-paul-simpson", "isHosted": false, "pillarId": "pillar/sport", "pillarName": "Sport"}, {"id": "football/picture/2010/apr/30/champions-league-inter-milan-mourinho", "type": "picture", "sectionId": "football", "sectionName": "Football", "webPublicationDate": "2010-04-30T09:27:49Z", "webTitle": "Eyewitness: That special feeling", "webUrl": "https://www.theguardian.com/football/picture/2010/apr/30/champions-league-inter-milan-mourinho", "apiUrl": "https://content.guardianapis.com/football/picture/2010/apr/30/champions-league-inter-milan-mourinho", "isHosted": false, "pillarId": "pillar/sport", "pillarName": "Sport"}, {"id": "sport/blog/2010/apr/30/joy-of-six-awful-world-cup-songs", "type": "article", "sectionId": "sport", "sectionName": "Sport", "webPublicationDate": "2010-04-30T09:01:20Z", "webTitle": "The Joy of Six: Awful World Cup songs | Barry Glendenning", "webUrl": "https://www.theguardian.com/sport/blog/2010/apr/30/joy-of-six-awful-world-cup-songs", "apiUrl": "https://content.guardianapis.com/sport/blog/2010/apr/30/joy-of-six-awful-world-cup-songs", "isHosted": false, "pillarId": "pillar/sport", "pillarName": "Sport"}, {"id": "sport/2010/apr/30/small-talk-andy-gray", "type": "article", "sectionId": "sport", "sectionName": "Sport", "webPublicationDate": "2010-04-30T08:09:24Z", "webTitle": "Andy Gray | Small Talk | Barry Glendenning", "webUrl": "https://www.theguardian.com/sport/2010/apr/30/small-talk-andy-gray", "apiUrl": "https://content.guardianapis.com/sport/2010/apr/30/small-talk-andy-gray", "isHosted": false, "pillarId": "pillar/sport", "pillarName": "Sport"}, {"id": "football/2010/apr/30/football-transfer-rumours-lassana-diarra-man-utd", "type": "article", "sectionId": "football", "sectionName": "Football", "webPublicationDate": "2010-04-30T08:04:44Z", "webTitle": "Football transfer rumours: Manchester United in for \u00a317m Lassana Diarra? | Barney Ronay", "webUrl": "https://www.theguardian.com/football/2010/apr/30/football-transfer-rumours-lassana-diarra-man-utd", "apiUrl": "https://content.guardianapis.com/football/2010/apr/30/football-transfer-rumours-lassana-diarra-man-utd", "isHosted": false, "pillarId": "pillar/sport", "pillarName": "Sport"}, {"id": "sport/blog/2010/apr/30/today-in-sport-30-april", "type": "article", "sectionId": "sport", "sectionName": "Sport", "webPublicationDate": "2010-04-30T07:39:33Z", "webTitle": "Today in Sport - as it happened", "webUrl": "https://www.theguardian.com/sport/blog/2010/apr/30/today-in-sport-30-april", "apiUrl": "https://content.guardianapis.com/sport/blog/2010/apr/30/today-in-sport-30-april", "isHosted": false, "pillarId": "pillar/sport", "pillarName": "Sport"}, {"id": "football/2010/apr/30/rafael-benitez-liverpool-atletico-madrid", "type": "article", "sectionId": "football", "sectionName": "Football", "webPublicationDate": "2010-04-30T06:30:00Z", "webTitle": "Rafael Ben\u00edtez says Liverpool need five players after Atl\u00e9tico defeat", "webUrl": "https://www.theguardian.com/football/2010/apr/30/rafael-benitez-liverpool-atletico-madrid", "apiUrl": "https://content.guardianapis.com/football/2010/apr/30/rafael-benitez-liverpool-atletico-madrid", "isHosted": false, "pillarId": "pillar/sport", "pillarName": "Sport"}, {"id": "football/2010/apr/29/liverpool-atletico-madrid-europa-league", "type": "article", "sectionId": "football", "sectionName": "Football", "webPublicationDate": "2010-04-30T00:23:00Z", "webTitle": "Liverpool 2-1 Atl\u00e9tico Madrid (aet; 2-2 on aggregate, Atl\u00e9tico win on away goals) | Europa League match report", "webUrl": "https://www.theguardian.com/football/2010/apr/29/liverpool-atletico-madrid-europa-league", "apiUrl": "https://content.guardianapis.com/football/2010/apr/29/liverpool-atletico-madrid-europa-league", "isHosted": false, "pillarId": "pillar/sport", "pillarName": "Sport"}, {"id": "global/blog/2010/apr/30/harry-pearson-football", "type": "article", "sectionId": "football", "sectionName": "Football", "webPublicationDate": "2010-04-30T00:17:58Z", "webTitle": "You're only ever one result away from a fag | Harry Pearson", "webUrl": "https://www.theguardian.com/global/blog/2010/apr/30/harry-pearson-football", "apiUrl": "https://content.guardianapis.com/global/blog/2010/apr/30/harry-pearson-football", "isHosted": false, "pillarId": "pillar/sport", "pillarName": "Sport"}, {"id": "football/2010/apr/30/fulham-hamburg-europa-league", "type": "article", "sectionId": "football", "sectionName": "Football", "webPublicationDate": "2010-04-29T23:13:07Z", "webTitle": "Fulham's greatest game sees them back on the road to Hamburg | David Hytner", "webUrl": "https://www.theguardian.com/football/2010/apr/30/fulham-hamburg-europa-league", "apiUrl": "https://content.guardianapis.com/football/2010/apr/30/fulham-hamburg-europa-league", "isHosted": false, "pillarId": "pillar/sport", "pillarName": "Sport"}, {"id": "football/2010/apr/30/crystal-palace-agilo-player-sales", "type": "article", "sectionId": "football", "sectionName": "Football", "webPublicationDate": "2010-04-29T23:10:01Z", "webTitle": "Agilo seeks to recoup losses from Crystal Palace player sales", "webUrl": "https://www.theguardian.com/football/2010/apr/30/crystal-palace-agilo-player-sales", "apiUrl": "https://content.guardianapis.com/football/2010/apr/30/crystal-palace-agilo-player-sales", "isHosted": false, "pillarId": "pillar/sport", "pillarName": "Sport"}, {"id": "football/2010/apr/29/roberto-mancini-carlos-tevez-city-manchester", "type": "article", "sectionId": "football", "sectionName": "Football", "webPublicationDate": "2010-04-29T21:30:02Z", "webTitle": "Roberto Mancini tells Carlos Tevez to shape up or ship out of City", "webUrl": "https://www.theguardian.com/football/2010/apr/29/roberto-mancini-carlos-tevez-city-manchester", "apiUrl": "https://content.guardianapis.com/football/2010/apr/29/roberto-mancini-carlos-tevez-city-manchester", "isHosted": false, "pillarId": "pillar/sport", "pillarName": "Sport"}, {"id": "football/2010/apr/29/manchester-police-rangers-gary-neville", "type": "article", "sectionId": "football", "sectionName": "Football", "webPublicationDate": "2010-04-29T21:30:02Z", "webTitle": "Manchester police concerns stop Rangers playing at Neville testimonial", "webUrl": "https://www.theguardian.com/football/2010/apr/29/manchester-police-rangers-gary-neville", "apiUrl": "https://content.guardianapis.com/football/2010/apr/29/manchester-police-rangers-gary-neville", "isHosted": false, "pillarId": "pillar/sport", "pillarName": "Sport"}, {"id": "football/2010/apr/29/steve-bruce-sunderland-manchester-united", "type": "article", "sectionId": "football", "sectionName": "Football", "webPublicationDate": "2010-04-29T21:00:05Z", "webTitle": "Manchester United will not get any favours from me, says Steve Bruce", "webUrl": "https://www.theguardian.com/football/2010/apr/29/steve-bruce-sunderland-manchester-united", "apiUrl": "https://content.guardianapis.com/football/2010/apr/29/steve-bruce-sunderland-manchester-united", "isHosted": false, "pillarId": "pillar/sport", "pillarName": "Sport"}, {"id": "football/gallery/2010/apr/29/europa-league-fulham-hamburg", "type": "gallery", "sectionId": "football", "sectionName": "Football", "webPublicationDate": "2010-04-29T19:59:33Z", "webTitle": "Europa League: Fulham v Hamburg semi-final, second leg", "webUrl": "https://www.theguardian.com/football/gallery/2010/apr/29/europa-league-fulham-hamburg", "apiUrl": "https://content.guardianapis.com/football/gallery/2010/apr/29/europa-league-fulham-hamburg", "isHosted": false, "pillarId": "pillar/sport", "pillarName": "Sport"}, {"id": "football/2010/apr/29/premier-league-football-league-parachute-payments", "type": "article", "sectionId": "football", "sectionName": "Football", "webPublicationDate": "2010-04-29T19:02:49Z", "webTitle": "Football League told \u00a3400m parachute-payment deal is a final offer", "webUrl": "https://www.theguardian.com/football/2010/apr/29/premier-league-football-league-parachute-payments", "apiUrl": "https://content.guardianapis.com/football/2010/apr/29/premier-league-football-league-parachute-payments", "isHosted": false, "pillarId": "pillar/sport", "pillarName": "Sport"}, {"id": "football/2010/apr/29/liverpool-atletico-madrid-live", "type": "article", "sectionId": "football", "sectionName": "Football", "webPublicationDate": "2010-04-29T17:34:30Z", "webTitle": "Liverpool v Atl\u00e9tico Madrid - as it happened", "webUrl": "https://www.theguardian.com/football/2010/apr/29/liverpool-atletico-madrid-live", "apiUrl": "https://content.guardianapis.com/football/2010/apr/29/liverpool-atletico-madrid-live", "isHosted": false, "pillarId": "pillar/sport", "pillarName": "Sport"}, {"id": "media/2010/apr/29/sky-sports-bt-top-up-tv", "type": "article", "sectionId": "media", "sectionName": "Media", "webPublicationDate": "2010-04-29T16:58:53Z", "webTitle": "BT and Top Up TV to launch discount Sky Sports deals in time for next season", "webUrl": "https://www.theguardian.com/media/2010/apr/29/sky-sports-bt-top-up-tv", "apiUrl": "https://content.guardianapis.com/media/2010/apr/29/sky-sports-bt-top-up-tv", "isHosted": false, "pillarId": "pillar/news", "pillarName": "News"}, {"id": "football/video/2010/apr/29/james-richardson-champions-league", "type": "video", "sectionId": "football", "sectionName": "Football", "webPublicationDate": "2010-04-29T16:17:00Z", "webTitle": "Video: James Richardson's Champions League newspaper review", "webUrl": "https://www.theguardian.com/football/video/2010/apr/29/james-richardson-champions-league", "apiUrl": "https://content.guardianapis.com/football/video/2010/apr/29/james-richardson-champions-league", "isHosted": false, "pillarId": "pillar/sport", "pillarName": "Sport"}, {"id": "football/2010/apr/29/fulham-hamburg-live", "type": "article", "sectionId": "football", "sectionName": "Football", "webPublicationDate": "2010-04-29T16:03:19Z", "webTitle": "Fulham v Hamburg \u2013 as it happened | Paul Doyle", "webUrl": "https://www.theguardian.com/football/2010/apr/29/fulham-hamburg-live", "apiUrl": "https://content.guardianapis.com/football/2010/apr/29/fulham-hamburg-live", "isHosted": false, "pillarId": "pillar/sport", "pillarName": "Sport"}, {"id": "media/2010/apr/29/sky-sports-premier-league", "type": "article", "sectionId": "media", "sectionName": "Media", "webPublicationDate": "2010-04-29T15:23:25Z", "webTitle": "Cut-price Sky Sports deals could be available by start of next football season", "webUrl": "https://www.theguardian.com/media/2010/apr/29/sky-sports-premier-league", "apiUrl": "https://content.guardianapis.com/media/2010/apr/29/sky-sports-premier-league", "isHosted": false, "pillarId": "pillar/news", "pillarName": "News"}, {"id": "football/2010/apr/29/the-fiver-jose-mourinho-champions-league", "type": "article", "sectionId": "football", "sectionName": "Football", "webPublicationDate": "2010-04-29T15:08:28Z", "webTitle": "The Fiver | A Simulated Reality Created By Sentient Football Tactic Machines | Barry Glendenning", "webUrl": "https://www.theguardian.com/football/2010/apr/29/the-fiver-jose-mourinho-champions-league", "apiUrl": "https://content.guardianapis.com/football/2010/apr/29/the-fiver-jose-mourinho-champions-league", "isHosted": false, "pillarId": "pillar/sport", "pillarName": "Sport"}, {"id": "football/2010/apr/29/garry-mann-extradition-portugal", "type": "article", "sectionId": "football", "sectionName": "Football", "webPublicationDate": "2010-04-29T14:54:43Z", "webTitle": "Garry Mann wins injunction against extradition", "webUrl": "https://www.theguardian.com/football/2010/apr/29/garry-mann-extradition-portugal", "apiUrl": "https://content.guardianapis.com/football/2010/apr/29/garry-mann-extradition-portugal", "isHosted": false, "pillarId": "pillar/sport", "pillarName": "Sport"}, {"id": "football/2010/apr/29/champions-league-sir-alex-ferguson", "type": "article", "sectionId": "football", "sectionName": "Football", "webPublicationDate": "2010-04-29T14:29:10Z", "webTitle": "Champions League semi-finals 'absolute agony' for Sir Alex Ferguson", "webUrl": "https://www.theguardian.com/football/2010/apr/29/champions-league-sir-alex-ferguson", "apiUrl": "https://content.guardianapis.com/football/2010/apr/29/champions-league-sir-alex-ferguson", "isHosted": false, "pillarId": "pillar/sport", "pillarName": "Sport"}, {"id": "football/blog/audio/2010/apr/29/football-weekly-mourinho-knocks-out-barcelona", "type": "audio", "sectionId": "football", "sectionName": "Football", "webPublicationDate": "2010-04-29T14:10:58Z", "webTitle": "Football Weekly Extra: Mourinho dumps Barcelona out of Europe", "webUrl": "https://www.theguardian.com/football/blog/audio/2010/apr/29/football-weekly-mourinho-knocks-out-barcelona", "apiUrl": "https://content.guardianapis.com/football/blog/audio/2010/apr/29/football-weekly-mourinho-knocks-out-barcelona", "isHosted": false, "pillarId": "pillar/sport", "pillarName": "Sport"}, {"id": "football/2010/apr/29/hull-city-deny-administration", "type": "article", "sectionId": "football", "sectionName": "Football", "webPublicationDate": "2010-04-29T12:43:58Z", "webTitle": "Hull City deny plans for administration", "webUrl": "https://www.theguardian.com/football/2010/apr/29/hull-city-deny-administration", "apiUrl": "https://content.guardianapis.com/football/2010/apr/29/hull-city-deny-administration", "isHosted": false, "pillarId": "pillar/sport", "pillarName": "Sport"}, {"id": "football/2010/apr/29/leonardo-milan-exit-berlusconi", "type": "article", "sectionId": "football", "sectionName": "Football", "webPublicationDate": "2010-04-29T12:00:29Z", "webTitle": "Leonardo heads for Milan exit as Silvio Berlusconi confirms changes", "webUrl": "https://www.theguardian.com/football/2010/apr/29/leonardo-milan-exit-berlusconi", "apiUrl": "https://content.guardianapis.com/football/2010/apr/29/leonardo-milan-exit-berlusconi", "isHosted": false, "pillarId": "pillar/sport", "pillarName": "Sport"}, {"id": "football/2010/apr/29/inter-champions-league-barcelona", "type": "article", "sectionId": "football", "sectionName": "Football", "webPublicationDate": "2010-04-29T09:42:12Z", "webTitle": "Italy hails Inter's 'gladiators' after Champions League triumph", "webUrl": "https://www.theguardian.com/football/2010/apr/29/inter-champions-league-barcelona", "apiUrl": "https://content.guardianapis.com/football/2010/apr/29/inter-champions-league-barcelona", "isHosted": false, "pillarId": "pillar/sport", "pillarName": "Sport"}, {"id": "football/2010/apr/29/football-transfer-rumours-luka-modric", "type": "article", "sectionId": "football", "sectionName": "Football", "webPublicationDate": "2010-04-29T08:03:03Z", "webTitle": "Football transfer rumours: Luka Modric to Manchester United? | Tom Lutz", "webUrl": "https://www.theguardian.com/football/2010/apr/29/football-transfer-rumours-luka-modric", "apiUrl": "https://content.guardianapis.com/football/2010/apr/29/football-transfer-rumours-luka-modric", "isHosted": false, "pillarId": "pillar/sport", "pillarName": "Sport"}, {"id": "football/blog/2010/apr/29/rafael-benitez-liverpool-atletico-madrid", "type": "article", "sectionId": "football", "sectionName": "Football", "webPublicationDate": "2010-04-29T08:00:04Z", "webTitle": "Rafael Ben\u00edtez's reputation on the line against Atl\u00e9tico Madrid | Kevin McCarra", "webUrl": "https://www.theguardian.com/football/blog/2010/apr/29/rafael-benitez-liverpool-atletico-madrid", "apiUrl": "https://content.guardianapis.com/football/blog/2010/apr/29/rafael-benitez-liverpool-atletico-madrid", "isHosted": false, "pillarId": "pillar/sport", "pillarName": "Sport"}, {"id": "sport/blog/2010/apr/29/today-in-sport-29-april", "type": "article", "sectionId": "sport", "sectionName": "Sport", "webPublicationDate": "2010-04-29T06:37:02Z", "webTitle": "Today in Sport - as it happened | Gregg Roughley and James Dart", "webUrl": "https://www.theguardian.com/sport/blog/2010/apr/29/today-in-sport-29-april", "apiUrl": "https://content.guardianapis.com/sport/blog/2010/apr/29/today-in-sport-29-april", "isHosted": false, "pillarId": "pillar/sport", "pillarName": "Sport"}, {"id": "football/2010/apr/29/rafael-benitez-liverpool-atletico-madrid", "type": "article", "sectionId": "football", "sectionName": "Football", "webPublicationDate": "2010-04-29T06:00:01Z", "webTitle": "Rafael Ben\u00edtez reveals lack of backing from senior Liverpool figures", "webUrl": "https://www.theguardian.com/football/2010/apr/29/rafael-benitez-liverpool-atletico-madrid", "apiUrl": "https://content.guardianapis.com/football/2010/apr/29/rafael-benitez-liverpool-atletico-madrid", "isHosted": false, "pillarId": "pillar/sport", "pillarName": "Sport"}, {"id": "football/2010/apr/29/arsene-wenger-arsenal-transfer-signings", "type": "article", "sectionId": "football", "sectionName": "Football", "webPublicationDate": "2010-04-29T00:51:00Z", "webTitle": "Ars\u00e8ne Wenger refuses to bolster Arsenal squad with World Cup stars", "webUrl": "https://www.theguardian.com/football/2010/apr/29/arsene-wenger-arsenal-transfer-signings", "apiUrl": "https://content.guardianapis.com/football/2010/apr/29/arsene-wenger-arsenal-transfer-signings", "isHosted": false, "pillarId": "pillar/sport", "pillarName": "Sport"}]}}