{"response": {"status": "ok", "userTier": "developer", "total": 88597, "startIndex": 1, "pageSize": 50, "currentPage": 1, "pages": 1772, "orderBy": "newest", "results": [{"id": "football/2013/apr/30/real-madrid-borussia-dormund-champions-league", "type": "article", "sectionId": "football", "sectionName": "Football", "webPublicationDate": "2013-04-30T23:29:00Z", "webTitle": "Real Madrid 2-0 Borussia Dortmund | Champions League semi-final, second leg match report", "webUrl": "https://www.theguardian.com/football/2013/apr/30/real-madrid-borussia-dormund-champions-league", "apiUrl": "https://content.guardianapis.com/football/2013/apr/30/real-madrid-borussia-dormund-champions-league", "isHosted": false, "pillarId": "pillar/sport", "pillarName": "Sport"}, {"id": "football/2013/apr/30/crystal-palace-millwall-championship", "type": "article", "sectionId": "football", "sectionName": "Football", "webPublicationDate": "2013-04-30T23:11:00Z", "webTitle": "Millwall 0-0 Crystal Palace | Championship match report", "webUrl": "https://www.theguardian.com/football/2013/apr/30/crystal-palace-millwall-championship", "apiUrl": "https://content.guardianapis.com/football/2013/apr/30/crystal-palace-millwall-championship", "isHosted": false, "pillarId": "pillar/sport", "pillarName": "Sport"}, {"id": "football/2013/may/01/curious-case-george-best-disappearing-beard", "type": "article", "sectionId": "football", "sectionName": "Football", "webPublicationDate": "2013-04-30T23:05:00Z", "webTitle": "The curious case of George Best's disappearing beard | The Knowledge", "webUrl": "https://www.theguardian.com/football/2013/may/01/curious-case-george-best-disappearing-beard", "apiUrl": "https://content.guardianapis.com/football/2013/may/01/curious-case-george-best-disappearing-beard", "isHosted": false, "pillarId": "pillar/sport", "pillarName": "Sport"}, {"id": "football/2013/apr/30/real-madrid-dortmund-tactical-analysis", "type": "article", "sectionId": "football", "sectionName": "Football", "webPublicationDate": "2013-04-30T23:02:00Z", "webTitle": "How Mourinho's subs helped Real score two and almost scrape through", "webUrl": "https://www.theguardian.com/football/2013/apr/30/real-madrid-dortmund-tactical-analysis", "apiUrl": "https://content.guardianapis.com/football/2013/apr/30/real-madrid-dortmund-tactical-analysis", "isHosted": false, "pillarId": "pillar/sport", "pillarName": "Sport"}, {"id": "football/blog/2013/apr/30/real-madrid-borussia-dortmund-talking-points", "type": "article", "sectionId": "football", "sectionName": "Football", "webPublicationDate": "2013-04-30T22:03:00Z", "webTitle": "Real Madrid v Borussia Dortmund: five talking points | Simon Burnton", "webUrl": "https://www.theguardian.com/football/blog/2013/apr/30/real-madrid-borussia-dortmund-talking-points", "apiUrl": "https://content.guardianapis.com/football/blog/2013/apr/30/real-madrid-borussia-dortmund-talking-points", "isHosted": false, "pillarId": "pillar/sport", "pillarName": "Sport"}, {"id": "football/2013/apr/30/christian-benteke-aston-villa", "type": "article", "sectionId": "football", "sectionName": "Football", "webPublicationDate": "2013-04-30T22:00:02Z", "webTitle": "Aston Villa determined to keep Christian Benteke on improved deal", "webUrl": "https://www.theguardian.com/football/2013/apr/30/christian-benteke-aston-villa", "apiUrl": "https://content.guardianapis.com/football/2013/apr/30/christian-benteke-aston-villa", "isHosted": false, "pillarId": "pillar/sport", "pillarName": "Sport"}, {"id": "football/2013/apr/30/david-moyes-bundesliga", "type": "article", "sectionId": "football", "sectionName": "Football", "webPublicationDate": "2013-04-30T21:30:02Z", "webTitle": "Everton's manager David Moyes sings the praises of Bundesliga", "webUrl": "https://www.theguardian.com/football/2013/apr/30/david-moyes-bundesliga", "apiUrl": "https://content.guardianapis.com/football/2013/apr/30/david-moyes-bundesliga", "isHosted": false, "pillarId": "pillar/sport", "pillarName": "Sport"}, {"id": "football/2013/apr/30/pfa-reginald-d-hunter-race-remarks", "type": "article", "sectionId": "football", "sectionName": "Football", "webPublicationDate": "2013-04-30T20:42:00Z", "webTitle": "PFA asks Reginald D Hunter for fee back after race remarks controversy", "webUrl": "https://www.theguardian.com/football/2013/apr/30/pfa-reginald-d-hunter-race-remarks", "apiUrl": "https://content.guardianapis.com/football/2013/apr/30/pfa-reginald-d-hunter-race-remarks", "isHosted": false, "pillarId": "pillar/sport", "pillarName": "Sport"}, {"id": "football/2013/apr/30/real-madrid-borussia-dortmund-live", "type": "liveblog", "sectionId": "football", "sectionName": "Football", "webPublicationDate": "2013-04-30T20:39:00Z", "webTitle": "Real Madrid 2-0  Borussia Dortmund \u2013 as it happened | Paul Doyle", "webUrl": "https://www.theguardian.com/football/2013/apr/30/real-madrid-borussia-dortmund-live", "apiUrl": "https://content.guardianapis.com/football/2013/apr/30/real-madrid-borussia-dortmund-live", "isHosted": false, "pillarId": "pillar/sport", "pillarName": "Sport"}, {"id": "football/2013/apr/30/barcelona-can-overturn-bayern-munich", "type": "article", "sectionId": "football", "sectionName": "Football", "webPublicationDate": "2013-04-30T18:12:31Z", "webTitle": "Barcelona begin to believe they can overturn Bayern Munich's 4-0 lead", "webUrl": "https://www.theguardian.com/football/2013/apr/30/barcelona-can-overturn-bayern-munich", "apiUrl": "https://content.guardianapis.com/football/2013/apr/30/barcelona-can-overturn-bayern-munich", "isHosted": false, "pillarId": "pillar/sport", "pillarName": "Sport"}, {"id": "commentisfree/2013/apr/30/reginald-d-hunter-pfa-awards", "type": "article", "sectionId": "commentisfree", "sectionName": "Opinion", "webPublicationDate": "2013-04-30T17:26:49Z", "webTitle": "Why was Reginald D Hunter ever booked for the PFA awards dinner? | Ava Vidal", "webUrl": "https://www.theguardian.com/commentisfree/2013/apr/30/reginald-d-hunter-pfa-awards", "apiUrl": "https://content.guardianapis.com/commentisfree/2013/apr/30/reginald-d-hunter-pfa-awards", "isHosted": false, "pillarId": "pillar/opinion", "pillarName": "Opinion"}, {"id": "football/2013/apr/30/the-fiver-ream-madrid-borussia-dortmund", "type": "article", "sectionId": "football", "sectionName": "Football", "webPublicationDate": "2013-04-30T16:04:38Z", "webTitle": "The Fiver | Jos\u00e9 Mourinho's video fade out | Paul Doyle", "webUrl": "https://www.theguardian.com/football/2013/apr/30/the-fiver-ream-madrid-borussia-dortmund", "apiUrl": "https://content.guardianapis.com/football/2013/apr/30/the-fiver-ream-madrid-borussia-dortmund", "isHosted": false, "pillarId": "pillar/sport", "pillarName": "Sport"}, {"id": "football/blog/2013/apr/30/relegation-contenders-problems-survival", "type": "article", "sectionId": "football", "sectionName": "Football", "webPublicationDate": "2013-04-30T15:33:18Z", "webTitle": "The problems relegation contenders must confront if they are to survive | Louise Taylor", "webUrl": "https://www.theguardian.com/football/blog/2013/apr/30/relegation-contenders-problems-survival", "apiUrl": "https://content.guardianapis.com/football/blog/2013/apr/30/relegation-contenders-problems-survival", "isHosted": false, "pillarId": "pillar/sport", "pillarName": "Sport"}, {"id": "football/video/2013/apr/30/bayern-munich-barcelona-champions-league-second-video", "type": "video", "sectionId": "football", "sectionName": "Football", "webPublicationDate": "2013-04-30T15:19:00Z", "webTitle": "Bayern Munich head to Barcelona with high hopes in Champions League second leg - video", "webUrl": "https://www.theguardian.com/football/video/2013/apr/30/bayern-munich-barcelona-champions-league-second-video", "apiUrl": "https://content.guardianapis.com/football/video/2013/apr/30/bayern-munich-barcelona-champions-league-second-video", "isHosted": false, "pillarId": "pillar/sport", "pillarName": "Sport"}, {"id": "football/2013/apr/30/the-real-harry-redknapp", "type": "article", "sectionId": "football", "sectionName": "Football", "webPublicationDate": "2013-04-30T14:49:00Z", "webTitle": "The real Harry Redknapp", "webUrl": "https://www.theguardian.com/football/2013/apr/30/the-real-harry-redknapp", "apiUrl": "https://content.guardianapis.com/football/2013/apr/30/the-real-harry-redknapp", "isHosted": false, "pillarId": "pillar/sport", "pillarName": "Sport"}, {"id": "football/blog/2013/apr/30/newcastle-pardew-transfers-french-coaching", "type": "article", "sectionId": "football", "sectionName": "Football", "webPublicationDate": "2013-04-30T12:40:37Z", "webTitle": "Alan Pardew should worry Newcastle may swap him for a French manager | Tor-Kristian Karlsen", "webUrl": "https://www.theguardian.com/football/blog/2013/apr/30/newcastle-pardew-transfers-french-coaching", "apiUrl": "https://content.guardianapis.com/football/blog/2013/apr/30/newcastle-pardew-transfers-french-coaching", "isHosted": false, "pillarId": "pillar/sport", "pillarName": "Sport"}, {"id": "football/2013/apr/30/alex-ferguson-wayne-rooney-manchester-united", "type": "article", "sectionId": "football", "sectionName": "Football", "webPublicationDate": "2013-04-30T11:02:48Z", "webTitle": "Sir Alex Ferguson hints Wayne Rooney has future at Manchester United", "webUrl": "https://www.theguardian.com/football/2013/apr/30/alex-ferguson-wayne-rooney-manchester-united", "apiUrl": "https://content.guardianapis.com/football/2013/apr/30/alex-ferguson-wayne-rooney-manchester-united", "isHosted": false, "pillarId": "pillar/sport", "pillarName": "Sport"}, {"id": "football/blog/2013/apr/30/real-madrid-borussia-dortmund-jose-mourinho", "type": "article", "sectionId": "football", "sectionName": "Football", "webPublicationDate": "2013-04-30T10:32:06Z", "webTitle": "Five things Real Madrid must do to overcome Borussia Dortmund | Sid Lowe", "webUrl": "https://www.theguardian.com/football/blog/2013/apr/30/real-madrid-borussia-dortmund-jose-mourinho", "apiUrl": "https://content.guardianapis.com/football/blog/2013/apr/30/real-madrid-borussia-dortmund-jose-mourinho", "isHosted": false, "pillarId": "pillar/sport", "pillarName": "Sport"}, {"id": "football/blog/2013/apr/30/transfer-targets-rooney-bale-suarez", "type": "article", "sectionId": "football", "sectionName": "Football", "webPublicationDate": "2013-04-30T10:30:17Z", "webTitle": "Who will be this summer's transfer soap opera? Rooney, Bale, Su\u00e1rez? | Jamie Jackson", "webUrl": "https://www.theguardian.com/football/blog/2013/apr/30/transfer-targets-rooney-bale-suarez", "apiUrl": "https://content.guardianapis.com/football/blog/2013/apr/30/transfer-targets-rooney-bale-suarez", "isHosted": false, "pillarId": "pillar/sport", "pillarName": "Sport"}, {"id": "football/blog/2013/apr/30/champions-league-live-webchat-sid-lowe", "type": "liveblog", "sectionId": "football", "sectionName": "Football", "webPublicationDate": "2013-04-30T10:12:00Z", "webTitle": "Champions League semi-finals: webchat with Sid Lowe", "webUrl": "https://www.theguardian.com/football/blog/2013/apr/30/champions-league-live-webchat-sid-lowe", "apiUrl": "https://content.guardianapis.com/football/blog/2013/apr/30/champions-league-live-webchat-sid-lowe", "isHosted": false, "pillarId": "pillar/sport", "pillarName": "Sport"}, {"id": "football/2013/apr/30/jamie-carragher-liverpool-sky-sports", "type": "article", "sectionId": "football", "sectionName": "Football", "webPublicationDate": "2013-04-30T09:55:52Z", "webTitle": "Liverpool's Jamie Carragher to join Sky Sports as a pundit next season", "webUrl": "https://www.theguardian.com/football/2013/apr/30/jamie-carragher-liverpool-sky-sports", "apiUrl": "https://content.guardianapis.com/football/2013/apr/30/jamie-carragher-liverpool-sky-sports", "isHosted": false, "pillarId": "pillar/sport", "pillarName": "Sport"}, {"id": "football/gallery/2013/apr/30/queens-park-rangers-qpr-players-future", "type": "gallery", "sectionId": "football", "sectionName": "Football", "webPublicationDate": "2013-04-30T09:10:00Z", "webTitle": "The future of the Queens Park Rangers players - in pictures", "webUrl": "https://www.theguardian.com/football/gallery/2013/apr/30/queens-park-rangers-qpr-players-future", "apiUrl": "https://content.guardianapis.com/football/gallery/2013/apr/30/queens-park-rangers-qpr-players-future", "isHosted": false, "pillarId": "pillar/sport", "pillarName": "Sport"}, {"id": "football/2013/apr/30/football-transfer-rumours-arsene-wenger", "type": "article", "sectionId": "football", "sectionName": "Football", "webPublicationDate": "2013-04-30T08:43:28Z", "webTitle": "Football transfer rumours: Ars\u00e8ne Wenger to Paris Saint-Germain?", "webUrl": "https://www.theguardian.com/football/2013/apr/30/football-transfer-rumours-arsene-wenger", "apiUrl": "https://content.guardianapis.com/football/2013/apr/30/football-transfer-rumours-arsene-wenger", "isHosted": false, "pillarId": "pillar/sport", "pillarName": "Sport"}, {"id": "tv-and-radio/2013/apr/30/masterchef-fixer-crash-cash-amish", "type": "article", "sectionId": "tv-and-radio", "sectionName": "Television & radio", "webPublicationDate": "2013-04-30T06:00:02Z", "webTitle": "TV highlights 30/4/2013", "webUrl": "https://www.theguardian.com/tv-and-radio/2013/apr/30/masterchef-fixer-crash-cash-amish", "apiUrl": "https://content.guardianapis.com/tv-and-radio/2013/apr/30/masterchef-fixer-crash-cash-amish", "isHosted": false, "pillarId": "pillar/arts", "pillarName": "Arts"}, {"id": "football/2013/apr/30/paolo-di-canio-fans-aston-villa", "type": "article", "sectionId": "football", "sectionName": "Football", "webPublicationDate": "2013-04-30T00:15:00Z", "webTitle": "Paolo Di Canio apologises to fans for 'unacceptable' Aston Villa defeat", "webUrl": "https://www.theguardian.com/football/2013/apr/30/paolo-di-canio-fans-aston-villa", "apiUrl": "https://content.guardianapis.com/football/2013/apr/30/paolo-di-canio-fans-aston-villa", "isHosted": false, "pillarId": "pillar/sport", "pillarName": "Sport"}, {"id": "football/2013/apr/29/aston-villa-sunderland-premier-league", "type": "article", "sectionId": "football", "sectionName": "Football", "webPublicationDate": "2013-04-29T23:46:00Z", "webTitle": "Aston Villa 6-1 Sunderland | Premier League match report", "webUrl": "https://www.theguardian.com/football/2013/apr/29/aston-villa-sunderland-premier-league", "apiUrl": "https://content.guardianapis.com/football/2013/apr/29/aston-villa-sunderland-premier-league", "isHosted": false, "pillarId": "pillar/sport", "pillarName": "Sport"}, {"id": "football/blog/2013/apr/29/aston-villa-paul-lambert-christian-benteke", "type": "article", "sectionId": "football", "sectionName": "Football", "webPublicationDate": "2013-04-29T23:24:00Z", "webTitle": "Onward Christian as Paul Lambert's young soldiers reward high principles | Barney Ronay", "webUrl": "https://www.theguardian.com/football/blog/2013/apr/29/aston-villa-paul-lambert-christian-benteke", "apiUrl": "https://content.guardianapis.com/football/blog/2013/apr/29/aston-villa-paul-lambert-christian-benteke", "isHosted": false, "pillarId": "pillar/sport", "pillarName": "Sport"}, {"id": "football/gallery/2013/apr/30/the-gallery-branislav-ivanovic", "type": "gallery", "sectionId": "football", "sectionName": "Football", "webPublicationDate": "2013-04-29T23:05:00Z", "webTitle": "Branislav Ivanovic | The Gallery", "webUrl": "https://www.theguardian.com/football/gallery/2013/apr/30/the-gallery-branislav-ivanovic", "apiUrl": "https://content.guardianapis.com/football/gallery/2013/apr/30/the-gallery-branislav-ivanovic", "isHosted": false, "pillarId": "pillar/sport", "pillarName": "Sport"}, {"id": "football/blog/2013/apr/29/schalke-hammer-hamburg-bundesliga", "type": "article", "sectionId": "football", "sectionName": "Football", "webPublicationDate": "2013-04-29T22:30:00Z", "webTitle": "Schalke hammer Hamburg and refuse to be Bundesliga's third wheel", "webUrl": "https://www.theguardian.com/football/blog/2013/apr/29/schalke-hammer-hamburg-bundesliga", "apiUrl": "https://content.guardianapis.com/football/blog/2013/apr/29/schalke-hammer-hamburg-bundesliga", "isHosted": false, "pillarId": "pillar/sport", "pillarName": "Sport"}, {"id": "football/2013/apr/29/mikel-arteta-arsenal-champions-league", "type": "article", "sectionId": "football", "sectionName": "Football", "webPublicationDate": "2013-04-29T22:00:01Z", "webTitle": "Mikel Arteta tips Arsenal to rise to occasion in Champions League race", "webUrl": "https://www.theguardian.com/football/2013/apr/29/mikel-arteta-arsenal-champions-league", "apiUrl": "https://content.guardianapis.com/football/2013/apr/29/mikel-arteta-arsenal-champions-league", "isHosted": false, "pillarId": "pillar/sport", "pillarName": "Sport"}, {"id": "football/2013/apr/29/west-ham-razvan-rat", "type": "article", "sectionId": "football", "sectionName": "Football", "webPublicationDate": "2013-04-29T22:00:00Z", "webTitle": "West Ham to sign Razvan Rat, Romania's captain, on free transfer", "webUrl": "https://www.theguardian.com/football/2013/apr/29/west-ham-razvan-rat", "apiUrl": "https://content.guardianapis.com/football/2013/apr/29/west-ham-razvan-rat", "isHosted": false, "pillarId": "pillar/sport", "pillarName": "Sport"}, {"id": "football/2013/apr/29/jurgen-klopp-borussia-dormund-real-madrid", "type": "article", "sectionId": "football", "sectionName": "Football", "webPublicationDate": "2013-04-29T21:11:23Z", "webTitle": "J\u00fcrgen Klopp says Borussia Dortmund will be brave against Real Madrid", "webUrl": "https://www.theguardian.com/football/2013/apr/29/jurgen-klopp-borussia-dormund-real-madrid", "apiUrl": "https://content.guardianapis.com/football/2013/apr/29/jurgen-klopp-borussia-dormund-real-madrid", "isHosted": false, "pillarId": "pillar/sport", "pillarName": "Sport"}, {"id": "football/2013/apr/29/aston-villa-sunderland-live-mbm", "type": "liveblog", "sectionId": "football", "sectionName": "Football", "webPublicationDate": "2013-04-29T20:58:34Z", "webTitle": "Aston Villa v Sunderland \u2013 as it happened | Jacob Steinberg", "webUrl": "https://www.theguardian.com/football/2013/apr/29/aston-villa-sunderland-live-mbm", "apiUrl": "https://content.guardianapis.com/football/2013/apr/29/aston-villa-sunderland-live-mbm", "isHosted": false, "pillarId": "pillar/sport", "pillarName": "Sport"}, {"id": "football/2013/apr/29/manchester-city-manuel-pellegrini", "type": "article", "sectionId": "football", "sectionName": "Football", "webPublicationDate": "2013-04-29T20:26:11Z", "webTitle": "Manchester City hold talks with agent of M\u00e1laga's Manuel Pellegrini", "webUrl": "https://www.theguardian.com/football/2013/apr/29/manchester-city-manuel-pellegrini", "apiUrl": "https://content.guardianapis.com/football/2013/apr/29/manchester-city-manuel-pellegrini", "isHosted": false, "pillarId": "pillar/sport", "pillarName": "Sport"}, {"id": "football/2013/apr/29/tony-fernandes-shocked-qpr-players", "type": "article", "sectionId": "football", "sectionName": "Football", "webPublicationDate": "2013-04-29T19:51:51Z", "webTitle": "Tony Fernandes 'shocked and hurt' by attitude of QPR players", "webUrl": "https://www.theguardian.com/football/2013/apr/29/tony-fernandes-shocked-qpr-players", "apiUrl": "https://content.guardianapis.com/football/2013/apr/29/tony-fernandes-shocked-qpr-players", "isHosted": false, "pillarId": "pillar/sport", "pillarName": "Sport"}, {"id": "football/2013/apr/29/real-madrid-borussia-dortmund-mourinho", "type": "article", "sectionId": "football", "sectionName": "Football", "webPublicationDate": "2013-04-29T19:04:38Z", "webTitle": "Real Madrid insists 'we can turn it round' against Borussia Dortmund", "webUrl": "https://www.theguardian.com/football/2013/apr/29/real-madrid-borussia-dortmund-mourinho", "apiUrl": "https://content.guardianapis.com/football/2013/apr/29/real-madrid-borussia-dortmund-mourinho", "isHosted": false, "pillarId": "pillar/sport", "pillarName": "Sport"}, {"id": "football/blog/audio/2013/apr/29/football-weekly-podcast-qpr-reading-relegated-newcastle", "type": "audio", "sectionId": "football", "sectionName": "Football", "webPublicationDate": "2013-04-29T15:44:00Z", "webTitle": "Football Weekly: QPR and Reading relegated - will Newcastle join them?", "webUrl": "https://www.theguardian.com/football/blog/audio/2013/apr/29/football-weekly-podcast-qpr-reading-relegated-newcastle", "apiUrl": "https://content.guardianapis.com/football/blog/audio/2013/apr/29/football-weekly-podcast-qpr-reading-relegated-newcastle", "isHosted": false, "pillarId": "pillar/sport", "pillarName": "Sport"}, {"id": "football/2013/apr/29/the-fiver-pfa-awards-reginald-d-hunter", "type": "article", "sectionId": "football", "sectionName": "Football", "webPublicationDate": "2013-04-29T15:31:39Z", "webTitle": "The Fiver | A lot of hand-wringing from assorted English white men | Barry Glendenning", "webUrl": "https://www.theguardian.com/football/2013/apr/29/the-fiver-pfa-awards-reginald-d-hunter", "apiUrl": "https://content.guardianapis.com/football/2013/apr/29/the-fiver-pfa-awards-reginald-d-hunter", "isHosted": false, "pillarId": "pillar/sport", "pillarName": "Sport"}, {"id": "football/video/2013/apr/29/linesman-attacks-football-player-russia-video", "type": "video", "sectionId": "football", "sectionName": "Football", "webPublicationDate": "2013-04-29T14:59:00Z", "webTitle": "Linesman attacks football player in Russia - video", "webUrl": "https://www.theguardian.com/football/video/2013/apr/29/linesman-attacks-football-player-russia-video", "apiUrl": "https://content.guardianapis.com/football/video/2013/apr/29/linesman-attacks-football-player-russia-video", "isHosted": false, "pillarId": "pillar/sport", "pillarName": "Sport"}, {"id": "football/blog/2013/apr/29/barca-real-madrid-sociedad-football", "type": "article", "sectionId": "football", "sectionName": "Football", "webPublicationDate": "2013-04-29T14:57:13Z", "webTitle": "A mix of Bar\u00e7a and Real Madrid, Real Sociedad put the fun in football | Sid Lowe", "webUrl": "https://www.theguardian.com/football/blog/2013/apr/29/barca-real-madrid-sociedad-football", "apiUrl": "https://content.guardianapis.com/football/blog/2013/apr/29/barca-real-madrid-sociedad-football", "isHosted": false, "pillarId": "pillar/sport", "pillarName": "Sport"}, {"id": "sport/blog/2013/apr/29/portland-timbers-sporting-kansas-city-tim-cahill", "type": "article", "sectionId": "football", "sectionName": "Football", "webPublicationDate": "2013-04-29T13:27:00Z", "webTitle": "MLS: Five things we learned in week nine | Graham Parker and Richard Farley", "webUrl": "https://www.theguardian.com/sport/blog/2013/apr/29/portland-timbers-sporting-kansas-city-tim-cahill", "apiUrl": "https://content.guardianapis.com/sport/blog/2013/apr/29/portland-timbers-sporting-kansas-city-tim-cahill", "isHosted": false, "pillarId": "pillar/sport", "pillarName": "Sport"}, {"id": "football/blog/2013/apr/29/pfa-premier-league-team-year", "type": "article", "sectionId": "football", "sectionName": "Football", "webPublicationDate": "2013-04-29T13:06:38Z", "webTitle": "Did the PFA pick the Premier League's best in the team of the year? | James Riach", "webUrl": "https://www.theguardian.com/football/blog/2013/apr/29/pfa-premier-league-team-year", "apiUrl": "https://content.guardianapis.com/football/blog/2013/apr/29/pfa-premier-league-team-year", "isHosted": false, "pillarId": "pillar/sport", "pillarName": "Sport"}, {"id": "football/2013/apr/29/robert-lewandowski-manchester-united-transfer", "type": "article", "sectionId": "football", "sectionName": "Football", "webPublicationDate": "2013-04-29T12:42:47Z", "webTitle": "Robert Lewandowski unlikely to join Manchester United this summer", "webUrl": "https://www.theguardian.com/football/2013/apr/29/robert-lewandowski-manchester-united-transfer", "apiUrl": "https://content.guardianapis.com/football/2013/apr/29/robert-lewandowski-manchester-united-transfer", "isHosted": false, "pillarId": "pillar/sport", "pillarName": "Sport"}, {"id": "football/blog/2013/apr/29/qpr-premier-league-relegation-fan", "type": "article", "sectionId": "football", "sectionName": "Football", "webPublicationDate": "2013-04-29T12:24:41Z", "webTitle": "QPR's Premier League relegation: a fan's postmortem | Michael Hann", "webUrl": "https://www.theguardian.com/football/blog/2013/apr/29/qpr-premier-league-relegation-fan", "apiUrl": "https://content.guardianapis.com/football/blog/2013/apr/29/qpr-premier-league-relegation-fan", "isHosted": false, "pillarId": "pillar/sport", "pillarName": "Sport"}, {"id": "football/2013/apr/29/blackburn-rovers-unfair-dismissal-henning-berg", "type": "article", "sectionId": "football", "sectionName": "Football", "webPublicationDate": "2013-04-29T11:41:04Z", "webTitle": "Blackburn Rovers to pay Henning Berg \u00a32.25m after dismissal", "webUrl": "https://www.theguardian.com/football/2013/apr/29/blackburn-rovers-unfair-dismissal-henning-berg", "apiUrl": "https://content.guardianapis.com/football/2013/apr/29/blackburn-rovers-unfair-dismissal-henning-berg", "isHosted": false, "pillarId": "pillar/sport", "pillarName": "Sport"}, {"id": "football/video/2013/apr/29/football-miss-of-season-dutch-striker-video", "type": "video", "sectionId": "football", "sectionName": "Football", "webPublicationDate": "2013-04-29T09:09:00Z", "webTitle": "Football miss of the season: female Dutch striker fluffs from two yards out - video", "webUrl": "https://www.theguardian.com/football/video/2013/apr/29/football-miss-of-season-dutch-striker-video", "apiUrl": "https://content.guardianapis.com/football/video/2013/apr/29/football-miss-of-season-dutch-striker-video", "isHosted": false, "pillarId": "pillar/sport", "pillarName": "Sport"}, {"id": "football/2013/apr/29/football-transfer-rumours", "type": "article", "sectionId": "football", "sectionName": "Football", "webPublicationDate": "2013-04-29T08:12:14Z", "webTitle": "Football transfer rumours: Cavani and Lewandowski to Manchester City?", "webUrl": "https://www.theguardian.com/football/2013/apr/29/football-transfer-rumours", "apiUrl": "https://content.guardianapis.com/football/2013/apr/29/football-transfer-rumours", "isHosted": false, "pillarId": "pillar/sport", "pillarName": "Sport"}, {"id": "football/blog/2013/apr/29/javier-zanetti-inter-serie-a", "type": "article", "sectionId": "football", "sectionName": "Football", "webPublicationDate": "2013-04-29T08:06:06Z", "webTitle": "After 18 years and 847 games, is it the end for Inter's Javier Zanetti? | Paolo Bandini", "webUrl": "https://www.theguardian.com/football/blog/2013/apr/29/javier-zanetti-inter-serie-a", "apiUrl": "https://content.guardianapis.com/football/blog/2013/apr/29/javier-zanetti-inter-serie-a", "isHosted": false, "pillarId": "pillar/sport", "pillarName": "Sport"}, {"id": "football/blog/2013/apr/29/premier-league-ten-talking-points", "type": "article", "sectionId": "football", "sectionName": "Football", "webPublicationDate": "2013-04-29T08:00:00Z", "webTitle": "Premier League: 10 talking points from this weekend's action", "webUrl": "https://www.theguardian.com/football/blog/2013/apr/29/premier-league-ten-talking-points", "apiUrl": "https://content.guardianapis.com/football/blog/2013/apr/29/premier-league-ten-talking-points", "isHosted": false, "pillarId": "pillar/sport", "pillarName": "Sport"}, {"id": "football/2013/apr/28/tottenham-gareth-bale-pfa-player-of-year", "type": "article", "sectionId": "football", "sectionName": "Football", "webPublicationDate": "2013-04-28T23:13:00Z", "webTitle": "Tottenham's Gareth Bale wins PFA player of year award for second time", "webUrl": "https://www.theguardian.com/football/2013/apr/28/tottenham-gareth-bale-pfa-player-of-year", "apiUrl": "https://content.guardianapis.com/football/2013/apr/28/tottenham-gareth-bale-pfa-player-of-year", "isHosted": false, "pillarId": "pillar/sport", "pillarName": "Sport"}]}}