{"response": {"status": "ok", "userTier": "developer", "total": 91792, "startIndex": 1, "pageSize": 50, "currentPage": 1, "pages": 1836, "orderBy": "newest", "results": [{"id": "football/2018/apr/30/arsenal-chelsea-fa-youth-cup-final-match-report", "type": "article", "sectionId": "football", "sectionName": "Football", "webPublicationDate": "2018-04-30T22:40:10Z", "webTitle": "Chelsea claim fifth consecutive FA Youth Cup with easy win over Arsenal", "webUrl": "https://www.theguardian.com/football/2018/apr/30/arsenal-chelsea-fa-youth-cup-final-match-report", "apiUrl": "https://content.guardianapis.com/football/2018/apr/30/arsenal-chelsea-fa-youth-cup-final-match-report", "isHosted": false, "pillarId": "pillar/sport", "pillarName": "Sport"}, {"id": "football/2018/may/01/finals-narratives-carry-a-league-beyond-ordinary-football", "type": "article", "sectionId": "football", "sectionName": "Football", "webPublicationDate": "2018-04-30T22:02:17Z", "webTitle": "Finals narratives carry A-League beyond ordinary football | Jonathan Howcroft", "webUrl": "https://www.theguardian.com/football/2018/may/01/finals-narratives-carry-a-league-beyond-ordinary-football", "apiUrl": "https://content.guardianapis.com/football/2018/may/01/finals-narratives-carry-a-league-beyond-ordinary-football", "isHosted": false, "pillarId": "pillar/sport", "pillarName": "Sport"}, {"id": "football/live/2018/apr/30/tottenham-v-watford-premier-league-live", "type": "liveblog", "sectionId": "football", "sectionName": "Football", "webPublicationDate": "2018-04-30T21:25:39Z", "webTitle": "Tottenham 2-0 Watford: Premier League \u2013 as it happened", "webUrl": "https://www.theguardian.com/football/live/2018/apr/30/tottenham-v-watford-premier-league-live", "apiUrl": "https://content.guardianapis.com/football/live/2018/apr/30/tottenham-v-watford-premier-league-live", "isHosted": false, "pillarId": "pillar/sport", "pillarName": "Sport"}, {"id": "football/2018/apr/30/tottenham-hotspur-watford-premier-league-match-report", "type": "article", "sectionId": "football", "sectionName": "Football", "webPublicationDate": "2018-04-30T20:59:38Z", "webTitle": "Harry Kane and Dele Alli on target for Tottenham as Watford regret misses", "webUrl": "https://www.theguardian.com/football/2018/apr/30/tottenham-hotspur-watford-premier-league-match-report", "apiUrl": "https://content.guardianapis.com/football/2018/apr/30/tottenham-hotspur-watford-premier-league-match-report", "isHosted": false, "pillarId": "pillar/sport", "pillarName": "Sport"}, {"id": "football/2018/apr/30/romelu-lukaku-manchester-united-ankle-injury-fa-cup-final-chelsea", "type": "article", "sectionId": "football", "sectionName": "Football", "webPublicationDate": "2018-04-30T19:28:21Z", "webTitle": "Romelu Lukaku expected to be fit to face Chelsea in FA Cup final", "webUrl": "https://www.theguardian.com/football/2018/apr/30/romelu-lukaku-manchester-united-ankle-injury-fa-cup-final-chelsea", "apiUrl": "https://content.guardianapis.com/football/2018/apr/30/romelu-lukaku-manchester-united-ankle-injury-fa-cup-final-chelsea", "isHosted": false, "pillarId": "pillar/sport", "pillarName": "Sport"}, {"id": "football/2018/apr/30/match-programme-under-threat-falling-sales-social-media-football-league", "type": "article", "sectionId": "football", "sectionName": "Football", "webPublicationDate": "2018-04-30T18:54:14Z", "webTitle": "Football programmes under threat from falling sales and social media", "webUrl": "https://www.theguardian.com/football/2018/apr/30/match-programme-under-threat-falling-sales-social-media-football-league", "apiUrl": "https://content.guardianapis.com/football/2018/apr/30/match-programme-under-threat-falling-sales-social-media-football-league", "isHosted": false, "pillarId": "pillar/sport", "pillarName": "Sport"}, {"id": "football/2018/apr/30/juup-heynckes-denies-real-madrid-complex-but-calls-for-bayern-efficiency", "type": "article", "sectionId": "football", "sectionName": "Football", "webPublicationDate": "2018-04-30T18:48:47Z", "webTitle": "Jupp Heynckes denies Real Madrid \u2018complex\u2019 but calls for Bayern \u2018efficiency\u2019 | Sid Lowe", "webUrl": "https://www.theguardian.com/football/2018/apr/30/juup-heynckes-denies-real-madrid-complex-but-calls-for-bayern-efficiency", "apiUrl": "https://content.guardianapis.com/football/2018/apr/30/juup-heynckes-denies-real-madrid-complex-but-calls-for-bayern-efficiency", "isHosted": false, "pillarId": "pillar/sport", "pillarName": "Sport"}, {"id": "football/2018/apr/30/donald-trump-world-cup-bid-threat-fifa", "type": "article", "sectionId": "football", "sectionName": "Football", "webPublicationDate": "2018-04-30T18:44:39Z", "webTitle": "'We will be watching': Trump defies Fifa with repeat threat over World Cup bid", "webUrl": "https://www.theguardian.com/football/2018/apr/30/donald-trump-world-cup-bid-threat-fifa", "apiUrl": "https://content.guardianapis.com/football/2018/apr/30/donald-trump-world-cup-bid-threat-fifa", "isHosted": false, "pillarId": "pillar/sport", "pillarName": "Sport"}, {"id": "football/2018/apr/30/the-fiver-sunderland-chris-coleman-ellis-short", "type": "article", "sectionId": "football", "sectionName": "Football", "webPublicationDate": "2018-04-30T14:57:48Z", "webTitle": "The Fiver | One of football\u2019s most poisoned chalices", "webUrl": "https://www.theguardian.com/football/2018/apr/30/the-fiver-sunderland-chris-coleman-ellis-short", "apiUrl": "https://content.guardianapis.com/football/2018/apr/30/the-fiver-sunderland-chris-coleman-ellis-short", "isHosted": false, "pillarId": "pillar/sport", "pillarName": "Sport"}, {"id": "football/blog/2018/apr/30/brilliant-barcelonas-low-key-la-liga-title-should-not-be-underestimated", "type": "article", "sectionId": "football", "sectionName": "Football", "webPublicationDate": "2018-04-30T13:31:57Z", "webTitle": "Brilliant Barcelona's low-key La Liga title should not be underestimated | Sid Lowe", "webUrl": "https://www.theguardian.com/football/blog/2018/apr/30/brilliant-barcelonas-low-key-la-liga-title-should-not-be-underestimated", "apiUrl": "https://content.guardianapis.com/football/blog/2018/apr/30/brilliant-barcelonas-low-key-la-liga-title-should-not-be-underestimated", "isHosted": false, "pillarId": "pillar/sport", "pillarName": "Sport"}, {"id": "football/blog/2018/apr/30/fa-wembley-sale-600m-price-football-grassroots", "type": "article", "sectionId": "football", "sectionName": "Football", "webPublicationDate": "2018-04-30T12:43:25Z", "webTitle": "The FA should not be selling Wembley at all, let alone for \u00a3600m | Richard Williams", "webUrl": "https://www.theguardian.com/football/blog/2018/apr/30/fa-wembley-sale-600m-price-football-grassroots", "apiUrl": "https://content.guardianapis.com/football/blog/2018/apr/30/fa-wembley-sale-600m-price-football-grassroots", "isHosted": false, "pillarId": "pillar/sport", "pillarName": "Sport"}, {"id": "football/2018/apr/30/juventus-almost-in-seventh-heaven-as-napoli-title-bid-comes-undone", "type": "article", "sectionId": "football", "sectionName": "Football", "webPublicationDate": "2018-04-30T11:48:54Z", "webTitle": "Juventus almost in seventh heaven as Napoli title bid comes undone | Paolo Bandini", "webUrl": "https://www.theguardian.com/football/2018/apr/30/juventus-almost-in-seventh-heaven-as-napoli-title-bid-comes-undone", "apiUrl": "https://content.guardianapis.com/football/2018/apr/30/juventus-almost-in-seventh-heaven-as-napoli-title-bid-comes-undone", "isHosted": false, "pillarId": "pillar/sport", "pillarName": "Sport"}, {"id": "football/2018/apr/30/rocco-commisso-nasl-investment-mls", "type": "article", "sectionId": "football", "sectionName": "Football", "webPublicationDate": "2018-04-30T11:45:11Z", "webTitle": "Rocco Commisso offers $500m investment to fund NASL", "webUrl": "https://www.theguardian.com/football/2018/apr/30/rocco-commisso-nasl-investment-mls", "apiUrl": "https://content.guardianapis.com/football/2018/apr/30/rocco-commisso-nasl-investment-mls", "isHosted": false, "pillarId": "pillar/sport", "pillarName": "Sport"}, {"id": "football/2018/apr/30/hamburg-launch-their-greatest-bundesliga-escape-attempt-of-all", "type": "article", "sectionId": "football", "sectionName": "Football", "webPublicationDate": "2018-04-30T11:29:02Z", "webTitle": "Hamburg launch their greatest Bundesliga escape attempt of all | Andy Brassell", "webUrl": "https://www.theguardian.com/football/2018/apr/30/hamburg-launch-their-greatest-bundesliga-escape-attempt-of-all", "apiUrl": "https://content.guardianapis.com/football/2018/apr/30/hamburg-launch-their-greatest-bundesliga-escape-attempt-of-all", "isHosted": false, "pillarId": "pillar/sport", "pillarName": "Sport"}, {"id": "football/2018/apr/30/tony-fernandes-admits-his-mistakes-and-is-lukewarm-on-the-future-of-ian-holloway", "type": "article", "sectionId": "football", "sectionName": "Football", "webPublicationDate": "2018-04-30T10:00:09Z", "webTitle": "QPR owner Tony Fernandes refuses to rule out Ian Holloway departure", "webUrl": "https://www.theguardian.com/football/2018/apr/30/tony-fernandes-admits-his-mistakes-and-is-lukewarm-on-the-future-of-ian-holloway", "apiUrl": "https://content.guardianapis.com/football/2018/apr/30/tony-fernandes-admits-his-mistakes-and-is-lukewarm-on-the-future-of-ian-holloway", "isHosted": false, "pillarId": "pillar/sport", "pillarName": "Sport"}, {"id": "football/2018/apr/30/football-sunderland-owner-stewart-donald-glenn-hoddle-eastleigh", "type": "article", "sectionId": "football", "sectionName": "Football", "webPublicationDate": "2018-04-30T09:30:08Z", "webTitle": "Who is Stewart Donald, Sunderland\u2019s prospective new chairman? | Martha Kelner", "webUrl": "https://www.theguardian.com/football/2018/apr/30/football-sunderland-owner-stewart-donald-glenn-hoddle-eastleigh", "apiUrl": "https://content.guardianapis.com/football/2018/apr/30/football-sunderland-owner-stewart-donald-glenn-hoddle-eastleigh", "isHosted": false, "pillarId": "pillar/sport", "pillarName": "Sport"}, {"id": "football/2018/apr/30/world-cup-highest-bidder", "type": "article", "sectionId": "football", "sectionName": "Football", "webPublicationDate": "2018-04-30T09:25:08Z", "webTitle": "A radical idea: hold an auction to decide the World Cup hosts to stop corruption | Sean Ingle", "webUrl": "https://www.theguardian.com/football/2018/apr/30/world-cup-highest-bidder", "apiUrl": "https://content.guardianapis.com/football/2018/apr/30/world-cup-highest-bidder", "isHosted": false, "pillarId": "pillar/sport", "pillarName": "Sport"}, {"id": "football/2018/apr/30/patrick-vieira-arsenal-manager-arsene-wenger-new-york-city-fc", "type": "article", "sectionId": "football", "sectionName": "Football", "webPublicationDate": "2018-04-30T09:00:07Z", "webTitle": "Patrick Vieira has been tipped to succeed Wenger \u2013 just how good is he?", "webUrl": "https://www.theguardian.com/football/2018/apr/30/patrick-vieira-arsenal-manager-arsene-wenger-new-york-city-fc", "apiUrl": "https://content.guardianapis.com/football/2018/apr/30/patrick-vieira-arsenal-manager-arsene-wenger-new-york-city-fc", "isHosted": false, "pillarId": "pillar/sport", "pillarName": "Sport"}, {"id": "football/2018/apr/30/jurgen-klopp-loses-liverpool-assistant-zeljko-buvac-rest-of-season", "type": "article", "sectionId": "football", "sectionName": "Football", "webPublicationDate": "2018-04-30T08:46:49Z", "webTitle": "J\u00fcrgen Klopp loses Liverpool right-hand man Zeljko Buvac for rest of season", "webUrl": "https://www.theguardian.com/football/2018/apr/30/jurgen-klopp-loses-liverpool-assistant-zeljko-buvac-rest-of-season", "apiUrl": "https://content.guardianapis.com/football/2018/apr/30/jurgen-klopp-loses-liverpool-assistant-zeljko-buvac-rest-of-season", "isHosted": false, "pillarId": "pillar/sport", "pillarName": "Sport"}, {"id": "football/2018/apr/30/football-transfer-rumours-rooney-to-leave-everton-allen-set-for-wolves", "type": "article", "sectionId": "football", "sectionName": "Football", "webPublicationDate": "2018-04-30T08:17:49Z", "webTitle": "Football transfer rumours: Rooney to leave Everton? Allen set for Wolves?", "webUrl": "https://www.theguardian.com/football/2018/apr/30/football-transfer-rumours-rooney-to-leave-everton-allen-set-for-wolves", "apiUrl": "https://content.guardianapis.com/football/2018/apr/30/football-transfer-rumours-rooney-to-leave-everton-allen-set-for-wolves", "isHosted": false, "pillarId": "pillar/sport", "pillarName": "Sport"}, {"id": "football/2018/apr/30/tottenham-reality-check-stadium-costs-escalate-mauricio-pochettino", "type": "article", "sectionId": "football", "sectionName": "Football", "webPublicationDate": "2018-04-30T08:10:09Z", "webTitle": "Tottenham facing up to reality check as stadium costs escalate", "webUrl": "https://www.theguardian.com/football/2018/apr/30/tottenham-reality-check-stadium-costs-escalate-mauricio-pochettino", "apiUrl": "https://content.guardianapis.com/football/2018/apr/30/tottenham-reality-check-stadium-costs-escalate-mauricio-pochettino", "isHosted": false, "pillarId": "pillar/sport", "pillarName": "Sport"}, {"id": "football/2018/apr/30/lafc-first-home-game-seattle-sounders", "type": "article", "sectionId": "football", "sectionName": "Football", "webPublicationDate": "2018-04-30T08:00:07Z", "webTitle": "Los Angeles FC mark arrival with Hollywood ending to open new stadium", "webUrl": "https://www.theguardian.com/football/2018/apr/30/lafc-first-home-game-seattle-sounders", "apiUrl": "https://content.guardianapis.com/football/2018/apr/30/lafc-first-home-game-seattle-sounders", "isHosted": false, "pillarId": "pillar/sport", "pillarName": "Sport"}, {"id": "football/blog/2018/apr/30/roma-mohamed-salah-angst-klopp-liverpool-fear-champions-league", "type": "article", "sectionId": "football", "sectionName": "Football", "webPublicationDate": "2018-04-30T07:44:28Z", "webTitle": "Roma\u2019s Mohamed Salah angst leaves Klopp\u2019s Liverpool with little to fear | Paul Wilson", "webUrl": "https://www.theguardian.com/football/blog/2018/apr/30/roma-mohamed-salah-angst-klopp-liverpool-fear-champions-league", "apiUrl": "https://content.guardianapis.com/football/blog/2018/apr/30/roma-mohamed-salah-angst-klopp-liverpool-fear-champions-league", "isHosted": false, "pillarId": "pillar/sport", "pillarName": "Sport"}, {"id": "football/2018/apr/30/premier-league-10-talking-points-weekend-action", "type": "article", "sectionId": "football", "sectionName": "Football", "webPublicationDate": "2018-04-30T07:44:00Z", "webTitle": "Premier League: 10 talking points from the weekend\u2019s action", "webUrl": "https://www.theguardian.com/football/2018/apr/30/premier-league-10-talking-points-weekend-action", "apiUrl": "https://content.guardianapis.com/football/2018/apr/30/premier-league-10-talking-points-weekend-action", "isHosted": false, "pillarId": "pillar/sport", "pillarName": "Sport"}, {"id": "football/2018/apr/30/chelsea-wolfsburg-ladies-miss-champions-league-final", "type": "article", "sectionId": "football", "sectionName": "Football", "webPublicationDate": "2018-04-29T23:01:04Z", "webTitle": "Chelsea lose to Wolfsburg and miss out on Women\u2019s Champions League final", "webUrl": "https://www.theguardian.com/football/2018/apr/30/chelsea-wolfsburg-ladies-miss-champions-league-final", "apiUrl": "https://content.guardianapis.com/football/2018/apr/30/chelsea-wolfsburg-ladies-miss-champions-league-final", "isHosted": false, "pillarId": "pillar/sport", "pillarName": "Sport"}, {"id": "football/2018/apr/29/manchester-united-arsenal-premier-league-match-report", "type": "article", "sectionId": "football", "sectionName": "Football", "webPublicationDate": "2018-04-29T22:02:00Z", "webTitle": "Marouane Fellaini heads late goal and Manchester United beat Arsenal", "webUrl": "https://www.theguardian.com/football/2018/apr/29/manchester-united-arsenal-premier-league-match-report", "apiUrl": "https://content.guardianapis.com/football/2018/apr/29/manchester-united-arsenal-premier-league-match-report", "isHosted": false, "pillarId": "pillar/sport", "pillarName": "Sport"}, {"id": "football/2018/apr/29/liverpool-football-news", "type": "article", "sectionId": "football", "sectionName": "Football", "webPublicationDate": "2018-04-29T21:32:00Z", "webTitle": "Etihad win will inspire Liverpool in Rome, says Trent Alexander-Arnold", "webUrl": "https://www.theguardian.com/football/2018/apr/29/liverpool-football-news", "apiUrl": "https://content.guardianapis.com/football/2018/apr/29/liverpool-football-news", "isHosted": false, "pillarId": "pillar/sport", "pillarName": "Sport"}, {"id": "football/2018/apr/29/leicester-city-claude-puel-admits-players-look-distracted", "type": "article", "sectionId": "football", "sectionName": "Football", "webPublicationDate": "2018-04-29T21:30:02Z", "webTitle": "Leicester players appear distracted, concedes embattled Claude Puel", "webUrl": "https://www.theguardian.com/football/2018/apr/29/leicester-city-claude-puel-admits-players-look-distracted", "apiUrl": "https://content.guardianapis.com/football/2018/apr/29/leicester-city-claude-puel-admits-players-look-distracted", "isHosted": false, "pillarId": "pillar/sport", "pillarName": "Sport"}, {"id": "football/2018/apr/29/dusan-tadic-southampton-mark-hughes", "type": "article", "sectionId": "football", "sectionName": "Football", "webPublicationDate": "2018-04-29T21:30:02Z", "webTitle": "Dusan Tadic urges Southampton to give manager Mark Hughes a longer deal", "webUrl": "https://www.theguardian.com/football/2018/apr/29/dusan-tadic-southampton-mark-hughes", "apiUrl": "https://content.guardianapis.com/football/2018/apr/29/dusan-tadic-southampton-mark-hughes", "isHosted": false, "pillarId": "pillar/sport", "pillarName": "Sport"}, {"id": "football/2018/apr/29/west-ham-thrashing-weakness-defence-boardroom", "type": "article", "sectionId": "football", "sectionName": "Football", "webPublicationDate": "2018-04-29T21:00:02Z", "webTitle": "West Ham\u2019s routine thrashing exposes weakness in defence and boardroom | Jacob Steinberg", "webUrl": "https://www.theguardian.com/football/2018/apr/29/west-ham-thrashing-weakness-defence-boardroom", "apiUrl": "https://content.guardianapis.com/football/2018/apr/29/west-ham-thrashing-weakness-defence-boardroom", "isHosted": false, "pillarId": "pillar/sport", "pillarName": "Sport"}, {"id": "football/live/2018/apr/29/deportivo-la-coruna-v-barcelona-la-liga-live", "type": "liveblog", "sectionId": "football", "sectionName": "Football", "webPublicationDate": "2018-04-29T20:36:22Z", "webTitle": "Deportivo La Coru\u00f1a 2-4 Barcelona \u2014 as it happened!", "webUrl": "https://www.theguardian.com/football/live/2018/apr/29/deportivo-la-coruna-v-barcelona-la-liga-live", "apiUrl": "https://content.guardianapis.com/football/live/2018/apr/29/deportivo-la-coruna-v-barcelona-la-liga-live", "isHosted": false, "pillarId": "pillar/sport", "pillarName": "Sport"}, {"id": "football/2018/apr/29/arsene-wenger-classy-gesture-manchester-united", "type": "article", "sectionId": "football", "sectionName": "Football", "webPublicationDate": "2018-04-29T19:20:24Z", "webTitle": "Ars\u00e8ne Wenger praises \u2018classy\u2019 gesture from Manchester United", "webUrl": "https://www.theguardian.com/football/2018/apr/29/arsene-wenger-classy-gesture-manchester-united", "apiUrl": "https://content.guardianapis.com/football/2018/apr/29/arsene-wenger-classy-gesture-manchester-united", "isHosted": false, "pillarId": "pillar/sport", "pillarName": "Sport"}, {"id": "football/2018/apr/29/old-foe-presence-reminder-arsene-wenger-glory-days-past", "type": "article", "sectionId": "football", "sectionName": "Football", "webPublicationDate": "2018-04-29T18:52:56Z", "webTitle": "Old foe\u2019s presence a reminder that Ars\u00e8ne Wenger\u2019s glory days are past | Jamie Jackson", "webUrl": "https://www.theguardian.com/football/2018/apr/29/old-foe-presence-reminder-arsene-wenger-glory-days-past", "apiUrl": "https://content.guardianapis.com/football/2018/apr/29/old-foe-presence-reminder-arsene-wenger-glory-days-past", "isHosted": false, "pillarId": "pillar/sport", "pillarName": "Sport"}, {"id": "football/live/2018/apr/29/fiorentina-v-napoli-serie-a-live", "type": "liveblog", "sectionId": "football", "sectionName": "Football", "webPublicationDate": "2018-04-29T18:05:58Z", "webTitle": "Fiorentina 3-0 Napoli: Serie A \u2013 as it happened", "webUrl": "https://www.theguardian.com/football/live/2018/apr/29/fiorentina-v-napoli-serie-a-live", "apiUrl": "https://content.guardianapis.com/football/live/2018/apr/29/fiorentina-v-napoli-serie-a-live", "isHosted": false, "pillarId": "pillar/sport", "pillarName": "Sport"}, {"id": "football/live/2018/apr/29/manchester-united-v-arsenal-premier-league-live", "type": "liveblog", "sectionId": "football", "sectionName": "Football", "webPublicationDate": "2018-04-29T17:55:57Z", "webTitle": "Manchester United 2-1 Arsenal: Premier League \u2013 as it happened", "webUrl": "https://www.theguardian.com/football/live/2018/apr/29/manchester-united-v-arsenal-premier-league-live", "apiUrl": "https://content.guardianapis.com/football/live/2018/apr/29/manchester-united-v-arsenal-premier-league-live", "isHosted": false, "pillarId": "pillar/sport", "pillarName": "Sport"}, {"id": "football/2018/apr/29/pep-guardiola-manchester-city-can-be-best-team-in-history", "type": "article", "sectionId": "football", "sectionName": "Football", "webPublicationDate": "2018-04-29T17:12:43Z", "webTitle": "Pep Guardiola: Manchester City \u2018can be the best team in history\u2019", "webUrl": "https://www.theguardian.com/football/2018/apr/29/pep-guardiola-manchester-city-can-be-best-team-in-history", "apiUrl": "https://content.guardianapis.com/football/2018/apr/29/pep-guardiola-manchester-city-can-be-best-team-in-history", "isHosted": false, "pillarId": "pillar/sport", "pillarName": "Sport"}, {"id": "football/2018/apr/29/brendan-rodgers-celtic-rangers", "type": "article", "sectionId": "football", "sectionName": "Football", "webPublicationDate": "2018-04-29T15:25:49Z", "webTitle": "Brendan Rodgers: Celtic should have scored seven against Rangers", "webUrl": "https://www.theguardian.com/football/2018/apr/29/brendan-rodgers-celtic-rangers", "apiUrl": "https://content.guardianapis.com/football/2018/apr/29/brendan-rodgers-celtic-rangers", "isHosted": false, "pillarId": "pillar/sport", "pillarName": "Sport"}, {"id": "football/2018/apr/29/west-ham-united-manchester-city-premier-league-match-report", "type": "article", "sectionId": "football", "sectionName": "Football", "webPublicationDate": "2018-04-29T15:21:48Z", "webTitle": "West Ham still not safe after emphatic win for Manchester City", "webUrl": "https://www.theguardian.com/football/2018/apr/29/west-ham-united-manchester-city-premier-league-match-report", "apiUrl": "https://content.guardianapis.com/football/2018/apr/29/west-ham-united-manchester-city-premier-league-match-report", "isHosted": false, "pillarId": "pillar/sport", "pillarName": "Sport"}, {"id": "football/live/2018/apr/29/west-ham-v-manchester-city-premier-league-live", "type": "liveblog", "sectionId": "football", "sectionName": "Football", "webPublicationDate": "2018-04-29T15:11:56Z", "webTitle": "West Ham 1-4 Manchester City: Premier League \u2013 as it happened", "webUrl": "https://www.theguardian.com/football/live/2018/apr/29/west-ham-v-manchester-city-premier-league-live", "apiUrl": "https://content.guardianapis.com/football/live/2018/apr/29/west-ham-v-manchester-city-premier-league-live", "isHosted": false, "pillarId": "pillar/sport", "pillarName": "Sport"}, {"id": "football/2018/apr/29/olympique-lyon-manchester-city-women-champions-league-semi-final-second-leg-match-report", "type": "article", "sectionId": "football", "sectionName": "Football", "webPublicationDate": "2018-04-29T15:03:37Z", "webTitle": "Manchester City out of Women\u2019s Champions League after Bronze\u2019s strike", "webUrl": "https://www.theguardian.com/football/2018/apr/29/olympique-lyon-manchester-city-women-champions-league-semi-final-second-leg-match-report", "apiUrl": "https://content.guardianapis.com/football/2018/apr/29/olympique-lyon-manchester-city-women-champions-league-semi-final-second-leg-match-report", "isHosted": false, "pillarId": "pillar/sport", "pillarName": "Sport"}, {"id": "football/live/2018/apr/29/celtic-v-rangers-scottish-premiership-live", "type": "liveblog", "sectionId": "football", "sectionName": "Football", "webPublicationDate": "2018-04-29T13:17:14Z", "webTitle": "Celtic 5-0 Rangers: Scottish Premiership \u2013 as it happened", "webUrl": "https://www.theguardian.com/football/live/2018/apr/29/celtic-v-rangers-scottish-premiership-live", "apiUrl": "https://content.guardianapis.com/football/live/2018/apr/29/celtic-v-rangers-scottish-premiership-live", "isHosted": false, "pillarId": "pillar/sport", "pillarName": "Sport"}, {"id": "football/2018/apr/29/celtic-rangers-scottish-premiership-match-report", "type": "article", "sectionId": "football", "sectionName": "Football", "webPublicationDate": "2018-04-29T13:00:42Z", "webTitle": "Celtic seal Scottish Premiership title with 5-0 rampage over Rangers", "webUrl": "https://www.theguardian.com/football/2018/apr/29/celtic-rangers-scottish-premiership-match-report", "apiUrl": "https://content.guardianapis.com/football/2018/apr/29/celtic-rangers-scottish-premiership-match-report", "isHosted": false, "pillarId": "pillar/sport", "pillarName": "Sport"}, {"id": "football/2018/apr/29/chris-coleman-sackedd-manager-sunderland", "type": "article", "sectionId": "football", "sectionName": "Football", "webPublicationDate": "2018-04-29T12:02:49Z", "webTitle": "Sunderland sold by Ellis Short as Chris Coleman is sacked", "webUrl": "https://www.theguardian.com/football/2018/apr/29/chris-coleman-sackedd-manager-sunderland", "apiUrl": "https://content.guardianapis.com/football/2018/apr/29/chris-coleman-sackedd-manager-sunderland", "isHosted": false, "pillarId": "pillar/sport", "pillarName": "Sport"}, {"id": "football/blog/2018/apr/29/sam-allardyce-everton", "type": "article", "sectionId": "football", "sectionName": "Football", "webPublicationDate": "2018-04-29T09:00:39Z", "webTitle": "Allardyce\u2019s Firefighter Sam job offers Everton fans too little spark | Daniel Taylor", "webUrl": "https://www.theguardian.com/football/blog/2018/apr/29/sam-allardyce-everton", "apiUrl": "https://content.guardianapis.com/football/blog/2018/apr/29/sam-allardyce-everton", "isHosted": false, "pillarId": "pillar/sport", "pillarName": "Sport"}, {"id": "football/2018/apr/29/why-west-ham-fans-are-in-revolt", "type": "article", "sectionId": "football", "sectionName": "Football", "webPublicationDate": "2018-04-29T08:30:38Z", "webTitle": "\u2018It\u2019s soulless here\u2019: why West Ham fans are in revolt", "webUrl": "https://www.theguardian.com/football/2018/apr/29/why-west-ham-fans-are-in-revolt", "apiUrl": "https://content.guardianapis.com/football/2018/apr/29/why-west-ham-fans-are-in-revolt", "isHosted": false, "pillarId": "pillar/sport", "pillarName": "Sport"}, {"id": "football/2018/apr/29/said-and-done-football-diary-russia-2018-del-nero-fifa", "type": "article", "sectionId": "football", "sectionName": "Football", "webPublicationDate": "2018-04-29T08:30:38Z", "webTitle": "Said & Done: Leeds, Marco Polo Del Nero, and western media bias", "webUrl": "https://www.theguardian.com/football/2018/apr/29/said-and-done-football-diary-russia-2018-del-nero-fifa", "apiUrl": "https://content.guardianapis.com/football/2018/apr/29/said-and-done-football-diary-russia-2018-del-nero-fifa", "isHosted": false, "pillarId": "pillar/sport", "pillarName": "Sport"}, {"id": "football/blog/2018/apr/29/nestor-el-maestro-serbia-spartak-trnava", "type": "article", "sectionId": "football", "sectionName": "Football", "webPublicationDate": "2018-04-29T08:01:37Z", "webTitle": "Meet El Maestro: the Serbia-born Briton about to win the Slovakian title", "webUrl": "https://www.theguardian.com/football/blog/2018/apr/29/nestor-el-maestro-serbia-spartak-trnava", "apiUrl": "https://content.guardianapis.com/football/blog/2018/apr/29/nestor-el-maestro-serbia-spartak-trnava", "isHosted": false, "pillarId": "pillar/sport", "pillarName": "Sport"}, {"id": "football/2018/apr/29/tottenham-watford-match-preview", "type": "article", "sectionId": "football", "sectionName": "Football", "webPublicationDate": "2018-04-29T07:59:38Z", "webTitle": "Tottenham Hotspur v Watford: match preview", "webUrl": "https://www.theguardian.com/football/2018/apr/29/tottenham-watford-match-preview", "apiUrl": "https://content.guardianapis.com/football/2018/apr/29/tottenham-watford-match-preview", "isHosted": false, "pillarId": "pillar/sport", "pillarName": "Sport"}, {"id": "football/2018/apr/29/fsg-grand-plan-liverpool-anfield-poverty", "type": "article", "sectionId": "football", "sectionName": "Football", "webPublicationDate": "2018-04-29T07:00:38Z", "webTitle": "FSG\u2019s grand plan for Liverpool bears fruit on pitch and the streets", "webUrl": "https://www.theguardian.com/football/2018/apr/29/fsg-grand-plan-liverpool-anfield-poverty", "apiUrl": "https://content.guardianapis.com/football/2018/apr/29/fsg-grand-plan-liverpool-anfield-poverty", "isHosted": false, "pillarId": "pillar/sport", "pillarName": "Sport"}, {"id": "football/2018/apr/29/manchester-city-lucy-bronze-lyon-womens-champions-league", "type": "article", "sectionId": "football", "sectionName": "Football", "webPublicationDate": "2018-04-29T07:00:38Z", "webTitle": "Manchester City must overcome Bronze in silverware raid on Lyon", "webUrl": "https://www.theguardian.com/football/2018/apr/29/manchester-city-lucy-bronze-lyon-womens-champions-league", "apiUrl": "https://content.guardianapis.com/football/2018/apr/29/manchester-city-lucy-bronze-lyon-womens-champions-league", "isHosted": false, "pillarId": "pillar/sport", "pillarName": "Sport"}]}}