{"response": {"status": "ok", "userTier": "developer", "total": 90822, "startIndex": 1, "pageSize": 50, "currentPage": 1, "pages": 1817, "orderBy": "newest", "results": [{"id": "football/blog/2014/may/01/a-league-grand-final-tactical-preview", "type": "article", "sectionId": "football", "sectionName": "Football", "webPublicationDate": "2014-04-30T23:43:03Z", "webTitle": "A-League grand final: a tactical preview", "webUrl": "https://www.theguardian.com/football/blog/2014/may/01/a-league-grand-final-tactical-preview", "apiUrl": "https://content.guardianapis.com/football/blog/2014/may/01/a-league-grand-final-tactical-preview", "isHosted": false, "pillarId": "pillar/sport", "pillarName": "Sport"}, {"id": "football/2014/may/01/chelsea-atletico-madrid-jose-mourinho", "type": "article", "sectionId": "football", "sectionName": "Football", "webPublicationDate": "2014-04-30T23:22:57Z", "webTitle": "Chelsea undone by Atl\u00e9tico Madrid's touch of class, says Jos\u00e9 Mourinho", "webUrl": "https://www.theguardian.com/football/2014/may/01/chelsea-atletico-madrid-jose-mourinho", "apiUrl": "https://content.guardianapis.com/football/2014/may/01/chelsea-atletico-madrid-jose-mourinho", "isHosted": false, "pillarId": "pillar/sport", "pillarName": "Sport"}, {"id": "uk-news/2014/may/01/falklands-boycott-1982-world-cup", "type": "article", "sectionId": "uk-news", "sectionName": "UK news", "webPublicationDate": "2014-04-30T23:05:04Z", "webTitle": "Home nations close to boycott of 1982 World Cup over Falklands, papers show", "webUrl": "https://www.theguardian.com/uk-news/2014/may/01/falklands-boycott-1982-world-cup", "apiUrl": "https://content.guardianapis.com/uk-news/2014/may/01/falklands-boycott-1982-world-cup", "isHosted": false, "pillarId": "pillar/news", "pillarName": "News"}, {"id": "football/2014/apr/30/eden-hazard-frustrated-chelsea-atletico-champions-league", "type": "article", "sectionId": "football", "sectionName": "Football", "webPublicationDate": "2014-04-30T22:55:59Z", "webTitle": "Frustrated Eden Hazard hopes Chelsea can learn from their mistakes", "webUrl": "https://www.theguardian.com/football/2014/apr/30/eden-hazard-frustrated-chelsea-atletico-champions-league", "apiUrl": "https://content.guardianapis.com/football/2014/apr/30/eden-hazard-frustrated-chelsea-atletico-champions-league", "isHosted": false, "pillarId": "pillar/sport", "pillarName": "Sport"}, {"id": "football/blog/2014/apr/30/tactics-jose-mourinho-chelsea-atletico-madrid", "type": "article", "sectionId": "football", "sectionName": "Football", "webPublicationDate": "2014-04-30T22:41:31Z", "webTitle": "Eden Hazard cost Chelsea but Atl\u00e9tico Madrid were rewarded for bravery | Michael Cox", "webUrl": "https://www.theguardian.com/football/blog/2014/apr/30/tactics-jose-mourinho-chelsea-atletico-madrid", "apiUrl": "https://content.guardianapis.com/football/blog/2014/apr/30/tactics-jose-mourinho-chelsea-atletico-madrid", "isHosted": false, "pillarId": "pillar/sport", "pillarName": "Sport"}, {"id": "football/2014/apr/30/chelsea-atletico-madrid-champions-league-player-ratings", "type": "article", "sectionId": "football", "sectionName": "Football", "webPublicationDate": "2014-04-30T21:39:58Z", "webTitle": "Chelsea v Atl\u00e9tico Madrid: Champions League player ratings", "webUrl": "https://www.theguardian.com/football/2014/apr/30/chelsea-atletico-madrid-champions-league-player-ratings", "apiUrl": "https://content.guardianapis.com/football/2014/apr/30/chelsea-atletico-madrid-champions-league-player-ratings", "isHosted": false, "pillarId": "pillar/sport", "pillarName": "Sport"}, {"id": "football/2014/apr/30/gareth-bale-real-madrid-la-decima", "type": "article", "sectionId": "football", "sectionName": "Football", "webPublicationDate": "2014-04-30T21:35:00Z", "webTitle": "Gareth Bale finds his groove as La D\u00e9cima beckons for Real Madrid", "webUrl": "https://www.theguardian.com/football/2014/apr/30/gareth-bale-real-madrid-la-decima", "apiUrl": "https://content.guardianapis.com/football/2014/apr/30/gareth-bale-real-madrid-la-decima", "isHosted": false, "pillarId": "pillar/sport", "pillarName": "Sport"}, {"id": "football/2014/apr/30/hatem-ben-arfa-newcastle-alan-pardew", "type": "article", "sectionId": "football", "sectionName": "Football", "webPublicationDate": "2014-04-30T21:30:00Z", "webTitle": "Hatem Ben Arfa: 'I want to stay and show Alan Pardew I can play'", "webUrl": "https://www.theguardian.com/football/2014/apr/30/hatem-ben-arfa-newcastle-alan-pardew", "apiUrl": "https://content.guardianapis.com/football/2014/apr/30/hatem-ben-arfa-newcastle-alan-pardew", "isHosted": false, "pillarId": "pillar/sport", "pillarName": "Sport"}, {"id": "football/2014/apr/30/jack-wilshere-roy-hodgson-england-world-cup", "type": "article", "sectionId": "football", "sectionName": "Football", "webPublicationDate": "2014-04-30T21:30:00Z", "webTitle": "Jack Wilshere outlook provides timely cheer for Roy Hodgson and England", "webUrl": "https://www.theguardian.com/football/2014/apr/30/jack-wilshere-roy-hodgson-england-world-cup", "apiUrl": "https://content.guardianapis.com/football/2014/apr/30/jack-wilshere-roy-hodgson-england-world-cup", "isHosted": false, "pillarId": "pillar/sport", "pillarName": "Sport"}, {"id": "football/blog/2014/apr/30/chelsea-atletico-madrid-champions-league", "type": "article", "sectionId": "football", "sectionName": "Football", "webPublicationDate": "2014-04-30T21:17:48Z", "webTitle": "Chelsea's defensive juggernaut halted by Atl\u00e9tico Madrid's sheer vibrancy | Barney Ronay", "webUrl": "https://www.theguardian.com/football/blog/2014/apr/30/chelsea-atletico-madrid-champions-league", "apiUrl": "https://content.guardianapis.com/football/blog/2014/apr/30/chelsea-atletico-madrid-champions-league", "isHosted": false, "pillarId": "pillar/sport", "pillarName": "Sport"}, {"id": "football/blog/2014/apr/30/chelsea-atletico-madrid-five-talking-points", "type": "article", "sectionId": "football", "sectionName": "Football", "webPublicationDate": "2014-04-30T21:11:49Z", "webTitle": "Chelsea 1-3 Atl\u00e9tico Madrid: five Champions League talking points | Dominic Fifield", "webUrl": "https://www.theguardian.com/football/blog/2014/apr/30/chelsea-atletico-madrid-five-talking-points", "apiUrl": "https://content.guardianapis.com/football/blog/2014/apr/30/chelsea-atletico-madrid-five-talking-points", "isHosted": false, "pillarId": "pillar/sport", "pillarName": "Sport"}, {"id": "football/2014/apr/30/chelsea-atletico-madrid-champions-league-match-report", "type": "article", "sectionId": "football", "sectionName": "Football", "webPublicationDate": "2014-04-30T20:48:34Z", "webTitle": "Chelsea 1-3 Atl\u00e9tico Madrid (agg 1-3) | Champions League SF match report", "webUrl": "https://www.theguardian.com/football/2014/apr/30/chelsea-atletico-madrid-champions-league-match-report", "apiUrl": "https://content.guardianapis.com/football/2014/apr/30/chelsea-atletico-madrid-champions-league-match-report", "isHosted": false, "pillarId": "pillar/sport", "pillarName": "Sport"}, {"id": "football/2014/apr/30/chelsea-v-atletico-madrid-champions-league-semi-final-live-mbm", "type": "liveblog", "sectionId": "football", "sectionName": "Football", "webPublicationDate": "2014-04-30T20:43:16Z", "webTitle": "Chelsea v Atl\u00e9tico Madrid: Champions League semi-final \u2013\u00a0as it happened | Jacob Steinberg", "webUrl": "https://www.theguardian.com/football/2014/apr/30/chelsea-v-atletico-madrid-champions-league-semi-final-live-mbm", "apiUrl": "https://content.guardianapis.com/football/2014/apr/30/chelsea-v-atletico-madrid-champions-league-semi-final-live-mbm", "isHosted": false, "pillarId": "pillar/sport", "pillarName": "Sport"}, {"id": "football/2014/apr/30/england-scotland-friendly-celtic-park-november", "type": "article", "sectionId": "football", "sectionName": "Football", "webPublicationDate": "2014-04-30T20:15:24Z", "webTitle": "England and Scotland in advanced talks over November friendly", "webUrl": "https://www.theguardian.com/football/2014/apr/30/england-scotland-friendly-celtic-park-november", "apiUrl": "https://content.guardianapis.com/football/2014/apr/30/england-scotland-friendly-celtic-park-november", "isHosted": false, "pillarId": "pillar/sport", "pillarName": "Sport"}, {"id": "football/2014/apr/30/football-financial-fair-play-how-it-works", "type": "article", "sectionId": "football", "sectionName": "Football", "webPublicationDate": "2014-04-30T19:36:10Z", "webTitle": "Financial fair play: how it works and the penalties clubs could face", "webUrl": "https://www.theguardian.com/football/2014/apr/30/football-financial-fair-play-how-it-works", "apiUrl": "https://content.guardianapis.com/football/2014/apr/30/football-financial-fair-play-how-it-works", "isHosted": false, "pillarId": "pillar/sport", "pillarName": "Sport"}, {"id": "football/gallery/2014/apr/30/champions-league-chelsea-atletico-madrid", "type": "gallery", "sectionId": "football", "sectionName": "Football", "webPublicationDate": "2014-04-30T18:45:00Z", "webTitle": "Champions League: Chelsea v Atl\u00e9tico Madrid \u2013 in pictures", "webUrl": "https://www.theguardian.com/football/gallery/2014/apr/30/champions-league-chelsea-atletico-madrid", "apiUrl": "https://content.guardianapis.com/football/gallery/2014/apr/30/champions-league-chelsea-atletico-madrid", "isHosted": false, "pillarId": "pillar/sport", "pillarName": "Sport"}, {"id": "football/2014/apr/30/the-fiver-pep-guardiola-bayern-real-madrid-chelsea", "type": "article", "sectionId": "football", "sectionName": "Football", "webPublicationDate": "2014-04-30T15:30:58Z", "webTitle": "The Fiver | 'Take that, tiki-taka! Hahahahaha!'", "webUrl": "https://www.theguardian.com/football/2014/apr/30/the-fiver-pep-guardiola-bayern-real-madrid-chelsea", "apiUrl": "https://content.guardianapis.com/football/2014/apr/30/the-fiver-pep-guardiola-bayern-real-madrid-chelsea", "isHosted": false, "pillarId": "pillar/sport", "pillarName": "Sport"}, {"id": "football/blog/2014/apr/30/pep-guardiola-bayern-munich-real-madrid-champions-league", "type": "article", "sectionId": "football", "sectionName": "Football", "webPublicationDate": "2014-04-30T14:32:40Z", "webTitle": "Pep Guardiola the Bayern Munich stylist must ride out the storm | James Riach", "webUrl": "https://www.theguardian.com/football/blog/2014/apr/30/pep-guardiola-bayern-munich-real-madrid-champions-league", "apiUrl": "https://content.guardianapis.com/football/blog/2014/apr/30/pep-guardiola-bayern-munich-real-madrid-champions-league", "isHosted": false, "pillarId": "pillar/sport", "pillarName": "Sport"}, {"id": "football/blog/2014/apr/30/everton-roberto-martinez-champions-league", "type": "article", "sectionId": "football", "sectionName": "Football", "webPublicationDate": "2014-04-30T11:47:12Z", "webTitle": "Roberto Mart\u00ednez raises the bar at Everton \u2013 but is it high enough? | Paul Wilson", "webUrl": "https://www.theguardian.com/football/blog/2014/apr/30/everton-roberto-martinez-champions-league", "apiUrl": "https://content.guardianapis.com/football/blog/2014/apr/30/everton-roberto-martinez-champions-league", "isHosted": false, "pillarId": "pillar/sport", "pillarName": "Sport"}, {"id": "football/2014/apr/30/gareth-bale-revels-real-madrid-triumph-champions-league", "type": "article", "sectionId": "football", "sectionName": "Football", "webPublicationDate": "2014-04-30T10:13:00Z", "webTitle": "Gareth Bale hopes for Champions League glory after Bayern crushed", "webUrl": "https://www.theguardian.com/football/2014/apr/30/gareth-bale-revels-real-madrid-triumph-champions-league", "apiUrl": "https://content.guardianapis.com/football/2014/apr/30/gareth-bale-revels-real-madrid-triumph-champions-league", "isHosted": false, "pillarId": "pillar/sport", "pillarName": "Sport"}, {"id": "football/blog/2014/apr/30/ryan-giggs-manchester-united-interim-manager", "type": "article", "sectionId": "football", "sectionName": "Football", "webPublicationDate": "2014-04-30T09:58:55Z", "webTitle": "Ryan Giggs as Manchester United manager? Suit you, sir! | Marina Hyde", "webUrl": "https://www.theguardian.com/football/blog/2014/apr/30/ryan-giggs-manchester-united-interim-manager", "apiUrl": "https://content.guardianapis.com/football/blog/2014/apr/30/ryan-giggs-manchester-united-interim-manager", "isHosted": false, "pillarId": "pillar/sport", "pillarName": "Sport"}, {"id": "football/2014/apr/30/the-rumour-mill-chelsea-karim-benzema-loic-remy", "type": "article", "sectionId": "football", "sectionName": "Football", "webPublicationDate": "2014-04-30T07:55:56Z", "webTitle": "Football transfer rumours: Chelsea to sign Karim Benzema and Lo\u00efc R\u00e9my?", "webUrl": "https://www.theguardian.com/football/2014/apr/30/the-rumour-mill-chelsea-karim-benzema-loic-remy", "apiUrl": "https://content.guardianapis.com/football/2014/apr/30/the-rumour-mill-chelsea-karim-benzema-loic-remy", "isHosted": false, "pillarId": "pillar/sport", "pillarName": "Sport"}, {"id": "football/2014/apr/30/has-any-team-won-promotion-more-draws-than-wins", "type": "article", "sectionId": "football", "sectionName": "Football", "webPublicationDate": "2014-04-29T23:06:00Z", "webTitle": "Has any team ever won promotion after more draws than wins? | The Knowledge", "webUrl": "https://www.theguardian.com/football/2014/apr/30/has-any-team-won-promotion-more-draws-than-wins", "apiUrl": "https://content.guardianapis.com/football/2014/apr/30/has-any-team-won-promotion-more-draws-than-wins", "isHosted": false, "pillarId": "pillar/sport", "pillarName": "Sport"}, {"id": "football/blog/2014/apr/29/real-madrid-bayern-munich-champions-league-tiki-taka", "type": "article", "sectionId": "football", "sectionName": "Football", "webPublicationDate": "2014-04-29T22:26:11Z", "webTitle": "Real Madrid power batters Bayern before speed ends tiki-taka's rule | Michael Cox", "webUrl": "https://www.theguardian.com/football/blog/2014/apr/29/real-madrid-bayern-munich-champions-league-tiki-taka", "apiUrl": "https://content.guardianapis.com/football/blog/2014/apr/29/real-madrid-bayern-munich-champions-league-tiki-taka", "isHosted": false, "pillarId": "pillar/sport", "pillarName": "Sport"}, {"id": "football/2014/apr/29/ronald-de-boer-tottenham-approach-ajax-manager", "type": "article", "sectionId": "football", "sectionName": "Football", "webPublicationDate": "2014-04-29T22:00:01Z", "webTitle": "Frank de Boer keen for Tottenham talks after Spurs approach Ajax", "webUrl": "https://www.theguardian.com/football/2014/apr/29/ronald-de-boer-tottenham-approach-ajax-manager", "apiUrl": "https://content.guardianapis.com/football/2014/apr/29/ronald-de-boer-tottenham-approach-ajax-manager", "isHosted": false, "pillarId": "pillar/sport", "pillarName": "Sport"}, {"id": "football/2014/apr/29/bayern-munich-real-madrid-champions-league-player-ratings", "type": "article", "sectionId": "football", "sectionName": "Football", "webPublicationDate": "2014-04-29T21:41:09Z", "webTitle": "Bayern Munich 0-4 Real Madrid: Champions League player ratings", "webUrl": "https://www.theguardian.com/football/2014/apr/29/bayern-munich-real-madrid-champions-league-player-ratings", "apiUrl": "https://content.guardianapis.com/football/2014/apr/29/bayern-munich-real-madrid-champions-league-player-ratings", "isHosted": false, "pillarId": "pillar/sport", "pillarName": "Sport"}, {"id": "football/2014/apr/29/arsenal-fourth-per-mertesacker", "type": "article", "sectionId": "football", "sectionName": "Football", "webPublicationDate": "2014-04-29T21:30:00Z", "webTitle": "Arsenal don't deserve to finish higher than fourth, says Per Mertesacker", "webUrl": "https://www.theguardian.com/football/2014/apr/29/arsenal-fourth-per-mertesacker", "apiUrl": "https://content.guardianapis.com/football/2014/apr/29/arsenal-fourth-per-mertesacker", "isHosted": false, "pillarId": "pillar/sport", "pillarName": "Sport"}, {"id": "football/blog/2014/apr/29/bayern-munich-real-madrid-champions-league-talking-points", "type": "article", "sectionId": "football", "sectionName": "Football", "webPublicationDate": "2014-04-29T21:16:21Z", "webTitle": "Bayern Munich 0-4 Real Madrid: five Champions League talking points | Julian Bennetts", "webUrl": "https://www.theguardian.com/football/blog/2014/apr/29/bayern-munich-real-madrid-champions-league-talking-points", "apiUrl": "https://content.guardianapis.com/football/blog/2014/apr/29/bayern-munich-real-madrid-champions-league-talking-points", "isHosted": false, "pillarId": "pillar/sport", "pillarName": "Sport"}, {"id": "football/2014/apr/29/jose-mourinho-chelsea-philosopher-critics", "type": "article", "sectionId": "football", "sectionName": "Football", "webPublicationDate": "2014-04-29T21:07:35Z", "webTitle": "Jos\u00e9 Mourinho takes aim at Chelsea's 'philosopher' critics ahead of Atl\u00e9tico tie", "webUrl": "https://www.theguardian.com/football/2014/apr/29/jose-mourinho-chelsea-philosopher-critics", "apiUrl": "https://content.guardianapis.com/football/2014/apr/29/jose-mourinho-chelsea-philosopher-critics", "isHosted": false, "pillarId": "pillar/sport", "pillarName": "Sport"}, {"id": "football/2014/apr/29/birmingham-city-wigan-athletic-championship-match-report", "type": "article", "sectionId": "football", "sectionName": "Football", "webPublicationDate": "2014-04-29T21:02:21Z", "webTitle": "Birmingham City 0-1 Wigan Athletic | Championship match report", "webUrl": "https://www.theguardian.com/football/2014/apr/29/birmingham-city-wigan-athletic-championship-match-report", "apiUrl": "https://content.guardianapis.com/football/2014/apr/29/birmingham-city-wigan-athletic-championship-match-report", "isHosted": false, "pillarId": "pillar/sport", "pillarName": "Sport"}, {"id": "football/2014/apr/29/bayern-munich-real-madrid-champions-league-match-report", "type": "article", "sectionId": "football", "sectionName": "Football", "webPublicationDate": "2014-04-29T20:58:40Z", "webTitle": "Bayern Munich 0-4 Real Madrid (Real win 5-0 on agg) | Champions League", "webUrl": "https://www.theguardian.com/football/2014/apr/29/bayern-munich-real-madrid-champions-league-match-report", "apiUrl": "https://content.guardianapis.com/football/2014/apr/29/bayern-munich-real-madrid-champions-league-match-report", "isHosted": false, "pillarId": "pillar/sport", "pillarName": "Sport"}, {"id": "football/2014/apr/29/bayern-munich-v-real-madrid-champions-league-semi-final-live-mbm", "type": "liveblog", "sectionId": "football", "sectionName": "Football", "webPublicationDate": "2014-04-29T20:46:24Z", "webTitle": "Bayern Munich v Real Madrid: Champions League semi-final \u2013\u00a0as it happened! | Paul Doyle", "webUrl": "https://www.theguardian.com/football/2014/apr/29/bayern-munich-v-real-madrid-champions-league-semi-final-live-mbm", "apiUrl": "https://content.guardianapis.com/football/2014/apr/29/bayern-munich-v-real-madrid-champions-league-semi-final-live-mbm", "isHosted": false, "pillarId": "pillar/sport", "pillarName": "Sport"}, {"id": "football/2014/apr/29/chelsea-faith-beat-imitators-atletico-madrid", "type": "article", "sectionId": "football", "sectionName": "Football", "webPublicationDate": "2014-04-29T20:13:30Z", "webTitle": "Chelsea have faith they can beat Euro imitators Atl\u00e9tico Madrid", "webUrl": "https://www.theguardian.com/football/2014/apr/29/chelsea-faith-beat-imitators-atletico-madrid", "apiUrl": "https://content.guardianapis.com/football/2014/apr/29/chelsea-faith-beat-imitators-atletico-madrid", "isHosted": false, "pillarId": "pillar/sport", "pillarName": "Sport"}, {"id": "sport/2014/apr/29/rio-2016-olympic-preparations-worst-ever-ioc", "type": "article", "sectionId": "sport", "sectionName": "Sport", "webPublicationDate": "2014-04-29T19:54:14Z", "webTitle": "Rio 2016 Olympic preparations damned as 'worst ever' by IOC", "webUrl": "https://www.theguardian.com/sport/2014/apr/29/rio-2016-olympic-preparations-worst-ever-ioc", "apiUrl": "https://content.guardianapis.com/sport/2014/apr/29/rio-2016-olympic-preparations-worst-ever-ioc", "isHosted": false, "pillarId": "pillar/sport", "pillarName": "Sport"}, {"id": "football/gallery/2014/apr/29/championsleague-bayernmunich", "type": "gallery", "sectionId": "football", "sectionName": "Football", "webPublicationDate": "2014-04-29T19:20:00Z", "webTitle": "Champions League: Bayern Munich v Real Madrid - in pictures", "webUrl": "https://www.theguardian.com/football/gallery/2014/apr/29/championsleague-bayernmunich", "apiUrl": "https://content.guardianapis.com/football/gallery/2014/apr/29/championsleague-bayernmunich", "isHosted": false, "pillarId": "pillar/sport", "pillarName": "Sport"}, {"id": "football/2014/apr/29/diego-simeone-atletico-madrid-chelsea-tactics", "type": "article", "sectionId": "football", "sectionName": "Football", "webPublicationDate": "2014-04-29T19:19:45Z", "webTitle": "I respect Chelsea's stifling tactics, says Atl\u00e9tico Madrid's Diego Simeone", "webUrl": "https://www.theguardian.com/football/2014/apr/29/diego-simeone-atletico-madrid-chelsea-tactics", "apiUrl": "https://content.guardianapis.com/football/2014/apr/29/diego-simeone-atletico-madrid-chelsea-tactics", "isHosted": false, "pillarId": "pillar/sport", "pillarName": "Sport"}, {"id": "football/2014/apr/29/everton-new-50000-seater-stadium-scheme-goodison", "type": "article", "sectionId": "football", "sectionName": "Football", "webPublicationDate": "2014-04-29T18:29:04Z", "webTitle": "Everton identify site for new 50,000-seater stadium not far from Goodison", "webUrl": "https://www.theguardian.com/football/2014/apr/29/everton-new-50000-seater-stadium-scheme-goodison", "apiUrl": "https://content.guardianapis.com/football/2014/apr/29/everton-new-50000-seater-stadium-scheme-goodison", "isHosted": false, "pillarId": "pillar/sport", "pillarName": "Sport"}, {"id": "football/2014/apr/29/ryan-giggs-manchester-united-manager", "type": "article", "sectionId": "football", "sectionName": "Football", "webPublicationDate": "2014-04-29T18:04:48Z", "webTitle": "Ryan Giggs to get Manchester United role whoever becomes manager", "webUrl": "https://www.theguardian.com/football/2014/apr/29/ryan-giggs-manchester-united-manager", "apiUrl": "https://content.guardianapis.com/football/2014/apr/29/ryan-giggs-manchester-united-manager", "isHosted": false, "pillarId": "pillar/sport", "pillarName": "Sport"}, {"id": "uk-news/2014/apr/29/stan-bootle-obituary", "type": "article", "sectionId": "uk-news", "sectionName": "UK news", "webPublicationDate": "2014-04-29T15:43:12Z", "webTitle": "Stan Bootle obituary", "webUrl": "https://www.theguardian.com/uk-news/2014/apr/29/stan-bootle-obituary", "apiUrl": "https://content.guardianapis.com/uk-news/2014/apr/29/stan-bootle-obituary", "isHosted": false, "pillarId": "pillar/news", "pillarName": "News"}, {"id": "football/blog/2014/apr/29/best-goals-week-cristiano-ronaldo-real-madrid-chelsea", "type": "article", "sectionId": "football", "sectionName": "Football", "webPublicationDate": "2014-04-29T15:42:25Z", "webTitle": "The best goals of the week: Cristiano Ronaldo, Chelsea U21s and UCD", "webUrl": "https://www.theguardian.com/football/blog/2014/apr/29/best-goals-week-cristiano-ronaldo-real-madrid-chelsea", "apiUrl": "https://content.guardianapis.com/football/blog/2014/apr/29/best-goals-week-cristiano-ronaldo-real-madrid-chelsea", "isHosted": false, "pillarId": "pillar/sport", "pillarName": "Sport"}, {"id": "football/2014/apr/29/jose-mourinho-champions-league-semi-final-flops", "type": "article", "sectionId": "football", "sectionName": "Football", "webPublicationDate": "2014-04-29T15:36:52Z", "webTitle": "Not so special: Jos\u00e9 Mourinho's five Champions League semi-final flops", "webUrl": "https://www.theguardian.com/football/2014/apr/29/jose-mourinho-champions-league-semi-final-flops", "apiUrl": "https://content.guardianapis.com/football/2014/apr/29/jose-mourinho-champions-league-semi-final-flops", "isHosted": false, "pillarId": "pillar/sport", "pillarName": "Sport"}, {"id": "football/2014/apr/29/tottenham-approach-frank-de-boer-ajax", "type": "article", "sectionId": "football", "sectionName": "Football", "webPublicationDate": "2014-04-29T15:29:37Z", "webTitle": "Tottenham approach revealed by Frank de Boer", "webUrl": "https://www.theguardian.com/football/2014/apr/29/tottenham-approach-frank-de-boer-ajax", "apiUrl": "https://content.guardianapis.com/football/2014/apr/29/tottenham-approach-frank-de-boer-ajax", "isHosted": false, "pillarId": "pillar/sport", "pillarName": "Sport"}, {"id": "football/2014/apr/29/the-fiver-newcastle-alan-pardew", "type": "article", "sectionId": "football", "sectionName": "Football", "webPublicationDate": "2014-04-29T15:22:06Z", "webTitle": "The Fiver | Putting their tops on in a traditional Geordie display of disgust", "webUrl": "https://www.theguardian.com/football/2014/apr/29/the-fiver-newcastle-alan-pardew", "apiUrl": "https://content.guardianapis.com/football/2014/apr/29/the-fiver-newcastle-alan-pardew", "isHosted": false, "pillarId": "pillar/sport", "pillarName": "Sport"}, {"id": "football/2014/apr/29/alan-pardew-convince-mike-ashley-newcastle-manager", "type": "article", "sectionId": "football", "sectionName": "Football", "webPublicationDate": "2014-04-29T11:58:38Z", "webTitle": "Alan Pardew hopes to convince Mike Ashley to keep him in Newcastle job", "webUrl": "https://www.theguardian.com/football/2014/apr/29/alan-pardew-convince-mike-ashley-newcastle-manager", "apiUrl": "https://content.guardianapis.com/football/2014/apr/29/alan-pardew-convince-mike-ashley-newcastle-manager", "isHosted": false, "pillarId": "pillar/sport", "pillarName": "Sport"}, {"id": "football/2014/apr/29/john-terry-samuel-etoo-eden-hazard-fit-chelsea-atletico-madrid-champions-league", "type": "article", "sectionId": "football", "sectionName": "Football", "webPublicationDate": "2014-04-29T11:34:02Z", "webTitle": "Terry, Eto'o and Hazard give Chelsea injury boost ahead of Atl\u00e9tico tie", "webUrl": "https://www.theguardian.com/football/2014/apr/29/john-terry-samuel-etoo-eden-hazard-fit-chelsea-atletico-madrid-champions-league", "apiUrl": "https://content.guardianapis.com/football/2014/apr/29/john-terry-samuel-etoo-eden-hazard-fit-chelsea-atletico-madrid-champions-league", "isHosted": false, "pillarId": "pillar/sport", "pillarName": "Sport"}, {"id": "football/blog/2014/apr/29/alan-pardew-newcastle-united-manager-where-all-gone-wrong", "type": "article", "sectionId": "football", "sectionName": "Football", "webPublicationDate": "2014-04-29T10:53:41Z", "webTitle": "Where has it all gone wrong for Alan Pardew at Newcastle? | Louise Taylor", "webUrl": "https://www.theguardian.com/football/blog/2014/apr/29/alan-pardew-newcastle-united-manager-where-all-gone-wrong", "apiUrl": "https://content.guardianapis.com/football/blog/2014/apr/29/alan-pardew-newcastle-united-manager-where-all-gone-wrong", "isHosted": false, "pillarId": "pillar/sport", "pillarName": "Sport"}, {"id": "football/2014/apr/29/danish-dynamite-denmark-football-success-book-extract", "type": "article", "sectionId": "football", "sectionName": "Football", "webPublicationDate": "2014-04-29T10:00:00Z", "webTitle": "Danish Dynamite: the Story of Football's Greatest Cult Team \u2013 extract", "webUrl": "https://www.theguardian.com/football/2014/apr/29/danish-dynamite-denmark-football-success-book-extract", "apiUrl": "https://content.guardianapis.com/football/2014/apr/29/danish-dynamite-denmark-football-success-book-extract", "isHosted": false, "pillarId": "pillar/sport", "pillarName": "Sport"}, {"id": "football/video/2014/apr/29/chelsea-win-champions-league-deco-video", "type": "video", "sectionId": "football", "sectionName": "Football", "webPublicationDate": "2014-04-29T09:05:00Z", "webTitle": "Chelsea can win Champions League, says Deco \u2013 video", "webUrl": "https://www.theguardian.com/football/video/2014/apr/29/chelsea-win-champions-league-deco-video", "apiUrl": "https://content.guardianapis.com/football/video/2014/apr/29/chelsea-win-champions-league-deco-video", "isHosted": false, "pillarId": "pillar/sport", "pillarName": "Sport"}, {"id": "football/2014/apr/29/manchester-united-gary-neville-ryan-giggs", "type": "article", "sectionId": "football", "sectionName": "Football", "webPublicationDate": "2014-04-29T08:36:42Z", "webTitle": "Gary Neville calls for Manchester United to appoint a British manager", "webUrl": "https://www.theguardian.com/football/2014/apr/29/manchester-united-gary-neville-ryan-giggs", "apiUrl": "https://content.guardianapis.com/football/2014/apr/29/manchester-united-gary-neville-ryan-giggs", "isHosted": false, "pillarId": "pillar/sport", "pillarName": "Sport"}, {"id": "football/2014/apr/29/the-rumour-mill-liverpool-sign-adam-lallana-southampton", "type": "article", "sectionId": "football", "sectionName": "Football", "webPublicationDate": "2014-04-29T07:48:18Z", "webTitle": "Football transfer rumours: Liverpool to sign Adam Lallana in \u00a320m move?", "webUrl": "https://www.theguardian.com/football/2014/apr/29/the-rumour-mill-liverpool-sign-adam-lallana-southampton", "apiUrl": "https://content.guardianapis.com/football/2014/apr/29/the-rumour-mill-liverpool-sign-adam-lallana-southampton", "isHosted": false, "pillarId": "pillar/sport", "pillarName": "Sport"}]}}