{"response": {"status": "ok", "userTier": "developer", "total": 87767, "startIndex": 1, "pageSize": 50, "currentPage": 1, "pages": 1756, "orderBy": "newest", "results": [{"id": "football/blog/2012/may/01/roberto-mancini-manchester-city-united", "type": "article", "sectionId": "football", "sectionName": "Football", "webPublicationDate": "2012-04-30T23:56:03Z", "webTitle": "Roberto Mancini: 'Football is crazy but Manchester City deserve this' | Daniel Taylor", "webUrl": "https://www.theguardian.com/football/blog/2012/may/01/roberto-mancini-manchester-city-united", "apiUrl": "https://content.guardianapis.com/football/blog/2012/may/01/roberto-mancini-manchester-city-united", "isHosted": false, "pillarId": "pillar/sport", "pillarName": "Sport"}, {"id": "football/blog/2012/may/01/city-yaya-toure-constrict-united", "type": "article", "sectionId": "football", "sectionName": "Football", "webPublicationDate": "2012-04-30T23:55:45Z", "webTitle": "City deployed Yaya Tour\u00e9 effectively to attack and constrict United | David Pleat", "webUrl": "https://www.theguardian.com/football/blog/2012/may/01/city-yaya-toure-constrict-united", "apiUrl": "https://content.guardianapis.com/football/blog/2012/may/01/city-yaya-toure-constrict-united", "isHosted": false, "pillarId": "pillar/sport", "pillarName": "Sport"}, {"id": "football/2012/apr/30/manchester-city-united-player-ratings", "type": "article", "sectionId": "football", "sectionName": "Football", "webPublicationDate": "2012-04-30T22:47:29Z", "webTitle": "Manchester City v Manchester United: player ratings", "webUrl": "https://www.theguardian.com/football/2012/apr/30/manchester-city-united-player-ratings", "apiUrl": "https://content.guardianapis.com/football/2012/apr/30/manchester-city-united-player-ratings", "isHosted": false, "pillarId": "pillar/sport", "pillarName": "Sport"}, {"id": "football/blog/2012/apr/30/scottish-football-needs-rangers", "type": "article", "sectionId": "football", "sectionName": "Football", "webPublicationDate": "2012-04-30T22:00:01Z", "webTitle": "Scottish football needs Rangers. It needs the name. It needs the fans | Lawrence Donegan", "webUrl": "https://www.theguardian.com/football/blog/2012/apr/30/scottish-football-needs-rangers", "apiUrl": "https://content.guardianapis.com/football/blog/2012/apr/30/scottish-football-needs-rangers", "isHosted": false, "pillarId": "pillar/sport", "pillarName": "Sport"}, {"id": "football/blog/2012/apr/30/manchester-city-united-five-talking-points", "type": "article", "sectionId": "football", "sectionName": "Football", "webPublicationDate": "2012-04-30T21:51:40Z", "webTitle": "Manchester City v Manchester United: five talking points | Jamie Jackson", "webUrl": "https://www.theguardian.com/football/blog/2012/apr/30/manchester-city-united-five-talking-points", "apiUrl": "https://content.guardianapis.com/football/blog/2012/apr/30/manchester-city-united-five-talking-points", "isHosted": false, "pillarId": "pillar/sport", "pillarName": "Sport"}, {"id": "football/2012/apr/30/fabrice-muamba-bolton-tottenham1", "type": "article", "sectionId": "football", "sectionName": "Football", "webPublicationDate": "2012-04-30T21:30:01Z", "webTitle": "Fabrice Muamba plans to attend Bolton's game against Tottenham", "webUrl": "https://www.theguardian.com/football/2012/apr/30/fabrice-muamba-bolton-tottenham1", "apiUrl": "https://content.guardianapis.com/football/2012/apr/30/fabrice-muamba-bolton-tottenham1", "isHosted": false, "pillarId": "pillar/sport", "pillarName": "Sport"}, {"id": "football/blog/2012/apr/30/bundesliga-farewells-come-early", "type": "article", "sectionId": "football", "sectionName": "Football", "webPublicationDate": "2012-04-30T21:25:00Z", "webTitle": "Bundesliga farewells come early as Ra\u00fal and Ballack bow out | Raphael Honigstein", "webUrl": "https://www.theguardian.com/football/blog/2012/apr/30/bundesliga-farewells-come-early", "apiUrl": "https://content.guardianapis.com/football/blog/2012/apr/30/bundesliga-farewells-come-early", "isHosted": false, "pillarId": "pillar/sport", "pillarName": "Sport"}, {"id": "football/blog/2012/apr/30/roy-hodgson-england-classroom-tracksuit", "type": "article", "sectionId": "football", "sectionName": "Football", "webPublicationDate": "2012-04-30T21:08:20Z", "webTitle": "Roy Hodgson's classroom skills as vital to England as tracksuit repute | Dominic Fifield", "webUrl": "https://www.theguardian.com/football/blog/2012/apr/30/roy-hodgson-england-classroom-tracksuit", "apiUrl": "https://content.guardianapis.com/football/blog/2012/apr/30/roy-hodgson-england-classroom-tracksuit", "isHosted": false, "pillarId": "pillar/sport", "pillarName": "Sport"}, {"id": "football/2012/apr/30/manchester-city-united-premier-league", "type": "article", "sectionId": "football", "sectionName": "Football", "webPublicationDate": "2012-04-30T21:03:20Z", "webTitle": "Manchester City 1-0 Manchester United | Premier League match report", "webUrl": "https://www.theguardian.com/football/2012/apr/30/manchester-city-united-premier-league", "apiUrl": "https://content.guardianapis.com/football/2012/apr/30/manchester-city-united-premier-league", "isHosted": false, "pillarId": "pillar/sport", "pillarName": "Sport"}, {"id": "football/2012/apr/30/roy-hodgson-england-manager", "type": "article", "sectionId": "football", "sectionName": "Football", "webPublicationDate": "2012-04-30T21:01:02Z", "webTitle": "Roy Hodgson is expected to be named England manager on Tuesday", "webUrl": "https://www.theguardian.com/football/2012/apr/30/roy-hodgson-england-manager", "apiUrl": "https://content.guardianapis.com/football/2012/apr/30/roy-hodgson-england-manager", "isHosted": false, "pillarId": "pillar/sport", "pillarName": "Sport"}, {"id": "football/2012/apr/30/manchester-city-united-mbm-report", "type": "article", "sectionId": "football", "sectionName": "Football", "webPublicationDate": "2012-04-30T20:57:00Z", "webTitle": "Manchester City v Manchester United \u2013 as it happened | Barry Glendenning", "webUrl": "https://www.theguardian.com/football/2012/apr/30/manchester-city-united-mbm-report", "apiUrl": "https://content.guardianapis.com/football/2012/apr/30/manchester-city-united-mbm-report", "isHosted": false, "pillarId": "pillar/sport", "pillarName": "Sport"}, {"id": "football/2012/apr/30/roy-hodgson-management-style-praised", "type": "article", "sectionId": "football", "sectionName": "Football", "webPublicationDate": "2012-04-30T20:47:56Z", "webTitle": "Roy Hodgson's management style is praised by two of his old players", "webUrl": "https://www.theguardian.com/football/2012/apr/30/roy-hodgson-management-style-praised", "apiUrl": "https://content.guardianapis.com/football/2012/apr/30/roy-hodgson-management-style-praised", "isHosted": false, "pillarId": "pillar/sport", "pillarName": "Sport"}, {"id": "commentisfree/2012/apr/30/roy-hodgson-harry-redknapp-coach", "type": "article", "sectionId": "commentisfree", "sectionName": "Opinion", "webPublicationDate": "2012-04-30T20:37:19Z", "webTitle": "In praise of \u2026 Roy Hodgson | Editorial", "webUrl": "https://www.theguardian.com/commentisfree/2012/apr/30/roy-hodgson-harry-redknapp-coach", "apiUrl": "https://content.guardianapis.com/commentisfree/2012/apr/30/roy-hodgson-harry-redknapp-coach", "isHosted": false, "pillarId": "pillar/opinion", "pillarName": "Opinion"}, {"id": "theguardian/2012/apr/30/roy-hodgson-england-manager", "type": "article", "sectionId": "news", "sectionName": "News", "webPublicationDate": "2012-04-30T19:00:07Z", "webTitle": "Pass notes No 3,167: Roy Hodgson", "webUrl": "https://www.theguardian.com/theguardian/2012/apr/30/roy-hodgson-england-manager", "apiUrl": "https://content.guardianapis.com/theguardian/2012/apr/30/roy-hodgson-england-manager", "isHosted": false, "pillarId": "pillar/news", "pillarName": "News"}, {"id": "football/gallery/2012/apr/30/manchester-city-manchester-united-pictures", "type": "gallery", "sectionId": "football", "sectionName": "Football", "webPublicationDate": "2012-04-30T18:32:00Z", "webTitle": "Manchester City v Manchester United - in pictures", "webUrl": "https://www.theguardian.com/football/gallery/2012/apr/30/manchester-city-manchester-united-pictures", "apiUrl": "https://content.guardianapis.com/football/gallery/2012/apr/30/manchester-city-manchester-united-pictures", "isHosted": false, "pillarId": "pillar/sport", "pillarName": "Sport"}, {"id": "football/blog/2012/apr/30/roy-hodgson-england-intray", "type": "article", "sectionId": "football", "sectionName": "Football", "webPublicationDate": "2012-04-30T18:11:42Z", "webTitle": "The pressing issues: what lies in the new England manager's in-tray | Kevin McCarra", "webUrl": "https://www.theguardian.com/football/blog/2012/apr/30/roy-hodgson-england-intray", "apiUrl": "https://content.guardianapis.com/football/blog/2012/apr/30/roy-hodgson-england-intray", "isHosted": false, "pillarId": "pillar/sport", "pillarName": "Sport"}, {"id": "football/2012/apr/30/harry-redknapp-england-tottenham", "type": "article", "sectionId": "football", "sectionName": "Football", "webPublicationDate": "2012-04-30T18:02:55Z", "webTitle": "Harry Redknapp accepts England talk may have been a distraction", "webUrl": "https://www.theguardian.com/football/2012/apr/30/harry-redknapp-england-tottenham", "apiUrl": "https://content.guardianapis.com/football/2012/apr/30/harry-redknapp-england-tottenham", "isHosted": false, "pillarId": "pillar/sport", "pillarName": "Sport"}, {"id": "football/2012/apr/30/euro-2012-ukraine-diplomatic-crisis", "type": "article", "sectionId": "world", "sectionName": "World news", "webPublicationDate": "2012-04-30T17:38:48Z", "webTitle": "Euro 2012 faces diplomatic crisis over Ukraine's jailed opposition leader", "webUrl": "https://www.theguardian.com/football/2012/apr/30/euro-2012-ukraine-diplomatic-crisis", "apiUrl": "https://content.guardianapis.com/football/2012/apr/30/euro-2012-ukraine-diplomatic-crisis", "isHosted": false, "pillarId": "pillar/news", "pillarName": "News"}, {"id": "football/2012/apr/30/the-fiver-england-roy-hodgson-manchester-derby", "type": "article", "sectionId": "football", "sectionName": "Football", "webPublicationDate": "2012-04-30T15:20:03Z", "webTitle": "The Fiver | The England job; and 24-inch pythons | Barry Glendenning and John Ashdown", "webUrl": "https://www.theguardian.com/football/2012/apr/30/the-fiver-england-roy-hodgson-manchester-derby", "apiUrl": "https://content.guardianapis.com/football/2012/apr/30/the-fiver-england-roy-hodgson-manchester-derby", "isHosted": false, "pillarId": "pillar/sport", "pillarName": "Sport"}, {"id": "football/blog/2012/apr/30/real-madrid-rayo-vallecano-liga", "type": "article", "sectionId": "football", "sectionName": "Football", "webPublicationDate": "2012-04-30T13:12:40Z", "webTitle": "Real Madrid and Rayo Vallecano: a tale of two ends of the same city | Sid Lowe", "webUrl": "https://www.theguardian.com/football/blog/2012/apr/30/real-madrid-rayo-vallecano-liga", "apiUrl": "https://content.guardianapis.com/football/blog/2012/apr/30/real-madrid-rayo-vallecano-liga", "isHosted": false, "pillarId": "pillar/sport", "pillarName": "Sport"}, {"id": "football/2012/apr/30/lukas-podolski-cologne-arsenal", "type": "article", "sectionId": "football", "sectionName": "Football", "webPublicationDate": "2012-04-30T12:20:35Z", "webTitle": "Lukas Podolski confirms move from K\u00f6ln to Arsenal in the summer", "webUrl": "https://www.theguardian.com/football/2012/apr/30/lukas-podolski-cologne-arsenal", "apiUrl": "https://content.guardianapis.com/football/2012/apr/30/lukas-podolski-cologne-arsenal", "isHosted": false, "pillarId": "pillar/sport", "pillarName": "Sport"}, {"id": "football/from-the-archive-blog/2012/apr/30/manchester-united-manchestercity", "type": "article", "sectionId": "football", "sectionName": "Football", "webPublicationDate": "2012-04-30T11:16:00Z", "webTitle": "The Manchester derby: from the archive, five classic matches, 1955-2009", "webUrl": "https://www.theguardian.com/football/from-the-archive-blog/2012/apr/30/manchester-united-manchestercity", "apiUrl": "https://content.guardianapis.com/football/from-the-archive-blog/2012/apr/30/manchester-united-manchestercity", "isHosted": false, "pillarId": "pillar/sport", "pillarName": "Sport"}, {"id": "football/blog/2012/apr/30/roy-hodgson-classic-youtube", "type": "article", "sectionId": "football", "sectionName": "Football", "webPublicationDate": "2012-04-30T10:57:17Z", "webTitle": "Roy Hodgson: a brief career history in YouTube clips", "webUrl": "https://www.theguardian.com/football/blog/2012/apr/30/roy-hodgson-classic-youtube", "apiUrl": "https://content.guardianapis.com/football/blog/2012/apr/30/roy-hodgson-classic-youtube", "isHosted": false, "pillarId": "pillar/sport", "pillarName": "Sport"}, {"id": "media/greenslade/2012/apr/30/roy-hodgson-national-newspapers", "type": "article", "sectionId": "media", "sectionName": "Media", "webPublicationDate": "2012-04-30T10:17:00Z", "webTitle": "Roy Hodgson's the boy - but papers are already putting the boot in", "webUrl": "https://www.theguardian.com/media/greenslade/2012/apr/30/roy-hodgson-national-newspapers", "apiUrl": "https://content.guardianapis.com/media/greenslade/2012/apr/30/roy-hodgson-national-newspapers", "isHosted": false, "pillarId": "pillar/news", "pillarName": "News"}, {"id": "football/2012/apr/30/harry-redknapp-roy-hodgson-england", "type": "article", "sectionId": "football", "sectionName": "Football", "webPublicationDate": "2012-04-30T10:09:40Z", "webTitle": "Harry Redknapp wishes Roy Hodgson 'all the best' for England job", "webUrl": "https://www.theguardian.com/football/2012/apr/30/harry-redknapp-roy-hodgson-england", "apiUrl": "https://content.guardianapis.com/football/2012/apr/30/harry-redknapp-roy-hodgson-england", "isHosted": false, "pillarId": "pillar/sport", "pillarName": "Sport"}, {"id": "football/blog/2012/apr/30/champions-league-whistle-lazio-udinese", "type": "article", "sectionId": "football", "sectionName": "Football", "webPublicationDate": "2012-04-30T09:56:52Z", "webTitle": "Champions League chase hots up as ghost whistle blows Lazio off course | Paolo Bandini", "webUrl": "https://www.theguardian.com/football/blog/2012/apr/30/champions-league-whistle-lazio-udinese", "apiUrl": "https://content.guardianapis.com/football/blog/2012/apr/30/champions-league-whistle-lazio-udinese", "isHosted": false, "pillarId": "pillar/sport", "pillarName": "Sport"}, {"id": "football/blog/2012/apr/30/manchester-city-manchester-united-midfield", "type": "article", "sectionId": "football", "sectionName": "Football", "webPublicationDate": "2012-04-30T09:00:00Z", "webTitle": "Why Manchester City's pace could overrun Manchester United in midfield | Michael Cox", "webUrl": "https://www.theguardian.com/football/blog/2012/apr/30/manchester-city-manchester-united-midfield", "apiUrl": "https://content.guardianapis.com/football/blog/2012/apr/30/manchester-city-manchester-united-midfield", "isHosted": false, "pillarId": "pillar/sport", "pillarName": "Sport"}, {"id": "football/gallery/2012/apr/30/manchester-city-united-season-gallery", "type": "gallery", "sectionId": "football", "sectionName": "Football", "webPublicationDate": "2012-04-30T08:34:24Z", "webTitle": "Manchester City v Manchester United: the teams' seasons so far \u2013 in pictures", "webUrl": "https://www.theguardian.com/football/gallery/2012/apr/30/manchester-city-united-season-gallery", "apiUrl": "https://content.guardianapis.com/football/gallery/2012/apr/30/manchester-city-united-season-gallery", "isHosted": false, "pillarId": "pillar/sport", "pillarName": "Sport"}, {"id": "football/2012/apr/30/football-transfer-rumours-kagawa-manchester-united", "type": "article", "sectionId": "football", "sectionName": "Football", "webPublicationDate": "2012-04-30T08:11:12Z", "webTitle": "Football transfer rumours: Shinji Kagawa to Manchester United? | Barney Ronay", "webUrl": "https://www.theguardian.com/football/2012/apr/30/football-transfer-rumours-kagawa-manchester-united", "apiUrl": "https://content.guardianapis.com/football/2012/apr/30/football-transfer-rumours-kagawa-manchester-united", "isHosted": false, "pillarId": "pillar/sport", "pillarName": "Sport"}, {"id": "football/blog/2012/apr/30/five-things-we-learned-this-weekend", "type": "article", "sectionId": "football", "sectionName": "Football", "webPublicationDate": "2012-04-30T08:01:00Z", "webTitle": "Five things we learned from watching football this weekend | Rob Smyth, Evan Fanning and Tom Davies", "webUrl": "https://www.theguardian.com/football/blog/2012/apr/30/five-things-we-learned-this-weekend", "apiUrl": "https://content.guardianapis.com/football/blog/2012/apr/30/five-things-we-learned-this-weekend", "isHosted": false, "pillarId": "pillar/sport", "pillarName": "Sport"}, {"id": "football/blog/2012/apr/30/san-jose-earthquakes-thierry-henry-new-york", "type": "article", "sectionId": "football", "sectionName": "Football", "webPublicationDate": "2012-04-30T08:00:00Z", "webTitle": "MLS: Five things we learned in week eight | Graham Parker", "webUrl": "https://www.theguardian.com/football/blog/2012/apr/30/san-jose-earthquakes-thierry-henry-new-york", "apiUrl": "https://content.guardianapis.com/football/blog/2012/apr/30/san-jose-earthquakes-thierry-henry-new-york", "isHosted": false, "pillarId": "pillar/sport", "pillarName": "Sport"}, {"id": "football/2012/apr/30/micah-richards-manchester-city-carlos-tevez", "type": "article", "sectionId": "football", "sectionName": "Football", "webPublicationDate": "2012-04-30T07:00:01Z", "webTitle": "Micah Richards: 'We would have had a better chance with Carlos Tevez'", "webUrl": "https://www.theguardian.com/football/2012/apr/30/micah-richards-manchester-city-carlos-tevez", "apiUrl": "https://content.guardianapis.com/football/2012/apr/30/micah-richards-manchester-city-carlos-tevez", "isHosted": false, "pillarId": "pillar/sport", "pillarName": "Sport"}, {"id": "football/gallery/2012/apr/30/premier-league-2011-12-premierleague", "type": "gallery", "sectionId": "football", "sectionName": "Football", "webPublicationDate": "2012-04-30T03:11:00Z", "webTitle": "Classic Manchester derbies \u2013 in pictures", "webUrl": "https://www.theguardian.com/football/gallery/2012/apr/30/premier-league-2011-12-premierleague", "apiUrl": "https://content.guardianapis.com/football/gallery/2012/apr/30/premier-league-2011-12-premierleague", "isHosted": false, "pillarId": "pillar/sport", "pillarName": "Sport"}, {"id": "football/2012/apr/30/roy-hodgson-england-roundabout-route", "type": "article", "sectionId": "football", "sectionName": "Football", "webPublicationDate": "2012-04-30T00:10:41Z", "webTitle": "Roy Hodgson has taken a roundabout path towards the England job", "webUrl": "https://www.theguardian.com/football/2012/apr/30/roy-hodgson-england-roundabout-route", "apiUrl": "https://content.guardianapis.com/football/2012/apr/30/roy-hodgson-england-roundabout-route", "isHosted": false, "pillarId": "pillar/sport", "pillarName": "Sport"}, {"id": "football/2012/apr/30/roy-hodgson-england", "type": "article", "sectionId": "football", "sectionName": "Football", "webPublicationDate": "2012-04-29T23:44:16Z", "webTitle": "Roy Hodgson for England is a shock choice and maybe a wrong one", "webUrl": "https://www.theguardian.com/football/2012/apr/30/roy-hodgson-england", "apiUrl": "https://content.guardianapis.com/football/2012/apr/30/roy-hodgson-england", "isHosted": false, "pillarId": "pillar/sport", "pillarName": "Sport"}, {"id": "football/blog/2012/apr/29/wayne-rooney-manchester-united", "type": "article", "sectionId": "football", "sectionName": "Football", "webPublicationDate": "2012-04-29T22:01:06Z", "webTitle": "Manchester United's Wayne Rooney puts dramas aside in fine season | Jamie Jackson", "webUrl": "https://www.theguardian.com/football/blog/2012/apr/29/wayne-rooney-manchester-united", "apiUrl": "https://content.guardianapis.com/football/blog/2012/apr/29/wayne-rooney-manchester-united", "isHosted": false, "pillarId": "pillar/sport", "pillarName": "Sport"}, {"id": "football/2012/apr/29/mark-noble-west-ham", "type": "article", "sectionId": "football", "sectionName": "Football", "webPublicationDate": "2012-04-29T22:01:06Z", "webTitle": "Mark Noble: 'West Ham must get over disappointment and focus on Cardiff'", "webUrl": "https://www.theguardian.com/football/2012/apr/29/mark-noble-west-ham", "apiUrl": "https://content.guardianapis.com/football/2012/apr/29/mark-noble-west-ham", "isHosted": false, "pillarId": "pillar/sport", "pillarName": "Sport"}, {"id": "football/football-league-blog/2012/apr/29/nigel-adkins-grounding-top-flight", "type": "article", "sectionId": "football", "sectionName": "Football", "webPublicationDate": "2012-04-29T22:01:05Z", "webTitle": "Nigel Adkins has the vision and grounding for life in the top flight | Sachin Nakrani", "webUrl": "https://www.theguardian.com/football/football-league-blog/2012/apr/29/nigel-adkins-grounding-top-flight", "apiUrl": "https://content.guardianapis.com/football/football-league-blog/2012/apr/29/nigel-adkins-grounding-top-flight", "isHosted": false, "pillarId": "pillar/sport", "pillarName": "Sport"}, {"id": "football/2012/apr/29/shay-given-save-aston-villa", "type": "article", "sectionId": "football", "sectionName": "Football", "webPublicationDate": "2012-04-29T22:01:04Z", "webTitle": "Shay Given's miracle save gives Aston Villa top-flight hope", "webUrl": "https://www.theguardian.com/football/2012/apr/29/shay-given-save-aston-villa", "apiUrl": "https://content.guardianapis.com/football/2012/apr/29/shay-given-save-aston-villa", "isHosted": false, "pillarId": "pillar/sport", "pillarName": "Sport"}, {"id": "football/2012/apr/29/arsene-wenger-partner-van-persie", "type": "article", "sectionId": "football", "sectionName": "Football", "webPublicationDate": "2012-04-29T22:01:03Z", "webTitle": "Ars\u00e8ne Wenger admits need to buy strike partner for Robin van Persie", "webUrl": "https://www.theguardian.com/football/2012/apr/29/arsene-wenger-partner-van-persie", "apiUrl": "https://content.guardianapis.com/football/2012/apr/29/arsene-wenger-partner-van-persie", "isHosted": false, "pillarId": "pillar/sport", "pillarName": "Sport"}, {"id": "football/2012/apr/29/kevin-davies-bolton-point", "type": "article", "sectionId": "football", "sectionName": "Football", "webPublicationDate": "2012-04-29T22:01:02Z", "webTitle": "Kevin Davies displays his enduring value to Bolton to secure point", "webUrl": "https://www.theguardian.com/football/2012/apr/29/kevin-davies-bolton-point", "apiUrl": "https://content.guardianapis.com/football/2012/apr/29/kevin-davies-bolton-point", "isHosted": false, "pillarId": "pillar/sport", "pillarName": "Sport"}, {"id": "football/2012/apr/29/roberto-martinez-wigan-newcastle", "type": "article", "sectionId": "football", "sectionName": "Football", "webPublicationDate": "2012-04-29T22:01:02Z", "webTitle": "Roberto Mart\u00ednez hails brilliant month after Wigan hammer Newcastle", "webUrl": "https://www.theguardian.com/football/2012/apr/29/roberto-martinez-wigan-newcastle", "apiUrl": "https://content.guardianapis.com/football/2012/apr/29/roberto-martinez-wigan-newcastle", "isHosted": false, "pillarId": "pillar/sport", "pillarName": "Sport"}, {"id": "football/2012/apr/29/luis-suarez-norwich-liverpool", "type": "article", "sectionId": "football", "sectionName": "Football", "webPublicationDate": "2012-04-29T22:01:01Z", "webTitle": "Luis Su\u00e1rez finds range against Norwich as Liverpool aim at Cup glory", "webUrl": "https://www.theguardian.com/football/2012/apr/29/luis-suarez-norwich-liverpool", "apiUrl": "https://content.guardianapis.com/football/2012/apr/29/luis-suarez-norwich-liverpool", "isHosted": false, "pillarId": "pillar/sport", "pillarName": "Sport"}, {"id": "football/blog/2012/apr/29/soccer-am-football-focus-martin-kelner", "type": "article", "sectionId": "football", "sectionName": "Football", "webPublicationDate": "2012-04-29T22:00:01Z", "webTitle": "Soccer AM's raspberry blowing the perfect remedy for pre-match tension | Martin Kelner", "webUrl": "https://www.theguardian.com/football/blog/2012/apr/29/soccer-am-football-focus-martin-kelner", "apiUrl": "https://content.guardianapis.com/football/blog/2012/apr/29/soccer-am-football-focus-martin-kelner", "isHosted": false, "pillarId": "pillar/sport", "pillarName": "Sport"}, {"id": "football/2012/apr/29/carlos-tevez-manchester-united", "type": "article", "sectionId": "football", "sectionName": "Football", "webPublicationDate": "2012-04-29T21:31:01Z", "webTitle": "Carlos Tevez is 'destined' to score winner against Manchester United", "webUrl": "https://www.theguardian.com/football/2012/apr/29/carlos-tevez-manchester-united", "apiUrl": "https://content.guardianapis.com/football/2012/apr/29/carlos-tevez-manchester-united", "isHosted": false, "pillarId": "pillar/sport", "pillarName": "Sport"}, {"id": "football/blog/2012/apr/29/manchester-city-manchester-united", "type": "article", "sectionId": "football", "sectionName": "Football", "webPublicationDate": "2012-04-29T21:30:03Z", "webTitle": "Manchester City v Manchester United like we have never known it before | Daniel Taylor", "webUrl": "https://www.theguardian.com/football/blog/2012/apr/29/manchester-city-manchester-united", "apiUrl": "https://content.guardianapis.com/football/blog/2012/apr/29/manchester-city-manchester-united", "isHosted": false, "pillarId": "pillar/sport", "pillarName": "Sport"}, {"id": "football/2012/apr/29/questions-fa-roy-hodgson-england", "type": "article", "sectionId": "football", "sectionName": "Football", "webPublicationDate": "2012-04-29T21:26:38Z", "webTitle": "The key questions about FA's approach to Roy Hodgson for England job", "webUrl": "https://www.theguardian.com/football/2012/apr/29/questions-fa-roy-hodgson-england", "apiUrl": "https://content.guardianapis.com/football/2012/apr/29/questions-fa-roy-hodgson-england", "isHosted": false, "pillarId": "pillar/sport", "pillarName": "Sport"}, {"id": "football/2012/apr/29/tottenham-harry-redknapp-england", "type": "article", "sectionId": "football", "sectionName": "Football", "webPublicationDate": "2012-04-29T21:17:17Z", "webTitle": "Tottenham and Harry Redknapp damaged by hunt for England manager", "webUrl": "https://www.theguardian.com/football/2012/apr/29/tottenham-harry-redknapp-england", "apiUrl": "https://content.guardianapis.com/football/2012/apr/29/tottenham-harry-redknapp-england", "isHosted": false, "pillarId": "pillar/sport", "pillarName": "Sport"}, {"id": "football/2012/apr/29/ryan-giggs-statement-deserve-title", "type": "article", "sectionId": "football", "sectionName": "Football", "webPublicationDate": "2012-04-29T21:01:01Z", "webTitle": "Ryan Giggs: 'We'll put out a statement that we deserve the title'", "webUrl": "https://www.theguardian.com/football/2012/apr/29/ryan-giggs-statement-deserve-title", "apiUrl": "https://content.guardianapis.com/football/2012/apr/29/ryan-giggs-statement-deserve-title", "isHosted": false, "pillarId": "pillar/sport", "pillarName": "Sport"}, {"id": "commentisfree/2012/apr/29/barcelona-gospel-of-guardiola", "type": "article", "sectionId": "commentisfree", "sectionName": "Opinion", "webPublicationDate": "2012-04-29T21:00:02Z", "webTitle": "Barcelona and the gospel of Guardiola | David Winner", "webUrl": "https://www.theguardian.com/commentisfree/2012/apr/29/barcelona-gospel-of-guardiola", "apiUrl": "https://content.guardianapis.com/commentisfree/2012/apr/29/barcelona-gospel-of-guardiola", "isHosted": false, "pillarId": "pillar/opinion", "pillarName": "Opinion"}]}}