{"response": {"status": "ok", "userTier": "developer", "total": 14758, "startIndex": 1, "pageSize": 50, "currentPage": 1, "pages": 296, "orderBy": "newest", "results": [{"id": "travel/2010/may/01/italy-food-festival-osmica-carso", "type": "article", "sectionId": "travel", "sectionName": "Travel", "webPublicationDate": "2010-04-30T23:45:05Z", "webTitle": "Italy's fast food", "webUrl": "https://www.theguardian.com/travel/2010/may/01/italy-food-festival-osmica-carso", "apiUrl": "https://content.guardianapis.com/travel/2010/may/01/italy-food-festival-osmica-carso", "isHosted": false, "pillarId": "pillar/lifestyle", "pillarName": "Lifestyle"}, {"id": "lifeandstyle/2010/may/01/caponata-recipe-yotam-ottolenghi", "type": "article", "sectionId": "lifeandstyle", "sectionName": "Life and style", "webPublicationDate": "2010-04-30T23:25:01Z", "webTitle": "Caponata recipe | Yotam Ottolenghi", "webUrl": "https://www.theguardian.com/lifeandstyle/2010/may/01/caponata-recipe-yotam-ottolenghi", "apiUrl": "https://content.guardianapis.com/lifeandstyle/2010/may/01/caponata-recipe-yotam-ottolenghi", "isHosted": false, "pillarId": "pillar/lifestyle", "pillarName": "Lifestyle"}, {"id": "lifeandstyle/2010/may/01/forburys-reading-restaurant-review", "type": "article", "sectionId": "food", "sectionName": "Food", "webPublicationDate": "2010-04-30T23:24:04Z", "webTitle": "Restaurant: Forbury's, Reading", "webUrl": "https://www.theguardian.com/lifeandstyle/2010/may/01/forburys-reading-restaurant-review", "apiUrl": "https://content.guardianapis.com/lifeandstyle/2010/may/01/forburys-reading-restaurant-review", "isHosted": false, "pillarId": "pillar/lifestyle", "pillarName": "Lifestyle"}, {"id": "lifeandstyle/2010/may/01/muscovado-peanut-cookie-recipe-lepard", "type": "article", "sectionId": "lifeandstyle", "sectionName": "Life and style", "webPublicationDate": "2010-04-30T23:22:58Z", "webTitle": "Muscovado peanut cookies recipe | Dan Lepard", "webUrl": "https://www.theguardian.com/lifeandstyle/2010/may/01/muscovado-peanut-cookie-recipe-lepard", "apiUrl": "https://content.guardianapis.com/lifeandstyle/2010/may/01/muscovado-peanut-cookie-recipe-lepard", "isHosted": false, "pillarId": "pillar/lifestyle", "pillarName": "Lifestyle"}, {"id": "lifeandstyle/2010/may/01/new-potato-recipes-fearnley-whittingstall", "type": "article", "sectionId": "lifeandstyle", "sectionName": "Life and style", "webPublicationDate": "2010-04-30T23:20:33Z", "webTitle": "New potato recipes | Hugh Fearnley-Whittingstall", "webUrl": "https://www.theguardian.com/lifeandstyle/2010/may/01/new-potato-recipes-fearnley-whittingstall", "apiUrl": "https://content.guardianapis.com/lifeandstyle/2010/may/01/new-potato-recipes-fearnley-whittingstall", "isHosted": false, "pillarId": "pillar/lifestyle", "pillarName": "Lifestyle"}, {"id": "lifeandstyle/2010/may/01/snapshot-songs-food-family-life", "type": "article", "sectionId": "lifeandstyle", "sectionName": "Life and style", "webPublicationDate": "2010-04-30T23:07:53Z", "webTitle": "Family life", "webUrl": "https://www.theguardian.com/lifeandstyle/2010/may/01/snapshot-songs-food-family-life", "apiUrl": "https://content.guardianapis.com/lifeandstyle/2010/may/01/snapshot-songs-food-family-life", "isHosted": false, "pillarId": "pillar/lifestyle", "pillarName": "Lifestyle"}, {"id": "travel/2010/may/01/best-pizza-italy-pizzeri-anna", "type": "article", "sectionId": "travel", "sectionName": "Travel", "webPublicationDate": "2010-04-30T23:06:12Z", "webTitle": "Is this the best pizzeria in Italy?", "webUrl": "https://www.theguardian.com/travel/2010/may/01/best-pizza-italy-pizzeri-anna", "apiUrl": "https://content.guardianapis.com/travel/2010/may/01/best-pizza-italy-pizzeri-anna", "isHosted": false, "pillarId": "pillar/lifestyle", "pillarName": "Lifestyle"}, {"id": "lifeandstyle/2010/apr/30/vegetarian-restaurants", "type": "article", "sectionId": "food", "sectionName": "Food", "webPublicationDate": "2010-04-30T22:45:37Z", "webTitle": "Vive the vegetarian revolution", "webUrl": "https://www.theguardian.com/lifeandstyle/2010/apr/30/vegetarian-restaurants", "apiUrl": "https://content.guardianapis.com/lifeandstyle/2010/apr/30/vegetarian-restaurants", "isHosted": false, "pillarId": "pillar/lifestyle", "pillarName": "Lifestyle"}, {"id": "lifeandstyle/2010/apr/30/vegetarian-restaurants-uk-boom", "type": "article", "sectionId": "lifeandstyle", "sectionName": "Life and style", "webPublicationDate": "2010-04-30T21:36:32Z", "webTitle": "Vegetarians gain more options for fine dining with 50% rise in foodie eateries", "webUrl": "https://www.theguardian.com/lifeandstyle/2010/apr/30/vegetarian-restaurants-uk-boom", "apiUrl": "https://content.guardianapis.com/lifeandstyle/2010/apr/30/vegetarian-restaurants-uk-boom", "isHosted": false, "pillarId": "pillar/lifestyle", "pillarName": "Lifestyle"}, {"id": "lifeandstyle/wordofmouth/2010/apr/30/aspic", "type": "article", "sectionId": "lifeandstyle", "sectionName": "Life and style", "webPublicationDate": "2010-04-30T08:15:00Z", "webTitle": "Aspic aspirations - is savoury jelly worth reviving?", "webUrl": "https://www.theguardian.com/lifeandstyle/wordofmouth/2010/apr/30/aspic", "apiUrl": "https://content.guardianapis.com/lifeandstyle/wordofmouth/2010/apr/30/aspic", "isHosted": false, "pillarId": "pillar/lifestyle", "pillarName": "Lifestyle"}, {"id": "lifeandstyle/wordofmouth/2010/apr/29/manchester-egg", "type": "article", "sectionId": "lifeandstyle", "sectionName": "Life and style", "webPublicationDate": "2010-04-29T11:00:00Z", "webTitle": "A plan is hatched: the Manchester egg", "webUrl": "https://www.theguardian.com/lifeandstyle/wordofmouth/2010/apr/29/manchester-egg", "apiUrl": "https://content.guardianapis.com/lifeandstyle/wordofmouth/2010/apr/29/manchester-egg", "isHosted": false, "pillarId": "pillar/lifestyle", "pillarName": "Lifestyle"}, {"id": "lifeandstyle/wordofmouth/2010/apr/29/perfect-roast-chicken", "type": "article", "sectionId": "lifeandstyle", "sectionName": "Life and style", "webPublicationDate": "2010-04-29T08:00:00Z", "webTitle": "The perfect roast chicken", "webUrl": "https://www.theguardian.com/lifeandstyle/wordofmouth/2010/apr/29/perfect-roast-chicken", "apiUrl": "https://content.guardianapis.com/lifeandstyle/wordofmouth/2010/apr/29/perfect-roast-chicken", "isHosted": false, "pillarId": "pillar/lifestyle", "pillarName": "Lifestyle"}, {"id": "lifeandstyle/2010/apr/29/school-farms-teaching-food-origins", "type": "article", "sectionId": "food", "sectionName": "Food", "webPublicationDate": "2010-04-29T07:00:01Z", "webTitle": "From school to the slaughterhouse", "webUrl": "https://www.theguardian.com/lifeandstyle/2010/apr/29/school-farms-teaching-food-origins", "apiUrl": "https://content.guardianapis.com/lifeandstyle/2010/apr/29/school-farms-teaching-food-origins", "isHosted": false, "pillarId": "pillar/lifestyle", "pillarName": "Lifestyle"}, {"id": "lifeandstyle/gallery/2010/apr/29/test-gravy-boats", "type": "gallery", "sectionId": "food", "sectionName": "Food", "webPublicationDate": "2010-04-29T07:00:00Z", "webTitle": "The test: Gravy boats", "webUrl": "https://www.theguardian.com/lifeandstyle/gallery/2010/apr/29/test-gravy-boats", "apiUrl": "https://content.guardianapis.com/lifeandstyle/gallery/2010/apr/29/test-gravy-boats", "isHosted": false, "pillarId": "pillar/lifestyle", "pillarName": "Lifestyle"}, {"id": "lifeandstyle/wordofmouth/2010/apr/28/happy-meal-toy-ban-california", "type": "article", "sectionId": "lifeandstyle", "sectionName": "Life and style", "webPublicationDate": "2010-04-28T17:00:00Z", "webTitle": "Is the end of the Happy Meal in sight?", "webUrl": "https://www.theguardian.com/lifeandstyle/wordofmouth/2010/apr/28/happy-meal-toy-ban-california", "apiUrl": "https://content.guardianapis.com/lifeandstyle/wordofmouth/2010/apr/28/happy-meal-toy-ban-california", "isHosted": false, "pillarId": "pillar/lifestyle", "pillarName": "Lifestyle"}, {"id": "lifeandstyle/2010/apr/28/france-san-pellegrino-worlds-best-restaurants", "type": "article", "sectionId": "food", "sectionName": "Food", "webPublicationDate": "2010-04-28T16:49:54Z", "webTitle": "Sacr\u00e9 bleu! French rue absence from world's top 10 restaurants", "webUrl": "https://www.theguardian.com/lifeandstyle/2010/apr/28/france-san-pellegrino-worlds-best-restaurants", "apiUrl": "https://content.guardianapis.com/lifeandstyle/2010/apr/28/france-san-pellegrino-worlds-best-restaurants", "isHosted": false, "pillarId": "pillar/lifestyle", "pillarName": "Lifestyle"}, {"id": "world/2010/apr/28/siliconvalley-mcdonalds-happymeals-ban-obesity", "type": "article", "sectionId": "us-news", "sectionName": "US news", "webPublicationDate": "2010-04-28T16:12:23Z", "webTitle": "Happy Meals to be banned in Silicon Valley restaurants", "webUrl": "https://www.theguardian.com/world/2010/apr/28/siliconvalley-mcdonalds-happymeals-ban-obesity", "apiUrl": "https://content.guardianapis.com/world/2010/apr/28/siliconvalley-mcdonalds-happymeals-ban-obesity", "isHosted": false, "pillarId": "pillar/news", "pillarName": "News"}, {"id": "commentisfree/2010/apr/28/sophie-dahl-food-bloggers", "type": "article", "sectionId": "commentisfree", "sectionName": "Opinion", "webPublicationDate": "2010-04-28T15:12:01Z", "webTitle": "Sophie Dahl v foodies: the bloggers win | Jessica Reed", "webUrl": "https://www.theguardian.com/commentisfree/2010/apr/28/sophie-dahl-food-bloggers", "apiUrl": "https://content.guardianapis.com/commentisfree/2010/apr/28/sophie-dahl-food-bloggers", "isHosted": false, "pillarId": "pillar/opinion", "pillarName": "Opinion"}, {"id": "lifeandstyle/wordofmouth/2010/apr/27/soreen-malt-loaf", "type": "article", "sectionId": "lifeandstyle", "sectionName": "Life and style", "webPublicationDate": "2010-04-27T10:40:00Z", "webTitle": "Consider the Soreen, Doreen", "webUrl": "https://www.theguardian.com/lifeandstyle/wordofmouth/2010/apr/27/soreen-malt-loaf", "apiUrl": "https://content.guardianapis.com/lifeandstyle/wordofmouth/2010/apr/27/soreen-malt-loaf", "isHosted": false, "pillarId": "pillar/lifestyle", "pillarName": "Lifestyle"}, {"id": "lifeandstyle/wordofmouth/video/2010/apr/27/rene-redzepi-chefs-restaurants", "type": "video", "sectionId": "lifeandstyle", "sectionName": "Life and style", "webPublicationDate": "2010-04-27T07:30:00Z", "webTitle": "Video: Ren\u00e9 Redzepi at the 50 best restaurants award", "webUrl": "https://www.theguardian.com/lifeandstyle/wordofmouth/video/2010/apr/27/rene-redzepi-chefs-restaurants", "apiUrl": "https://content.guardianapis.com/lifeandstyle/wordofmouth/video/2010/apr/27/rene-redzepi-chefs-restaurants", "isHosted": false, "pillarId": "pillar/lifestyle", "pillarName": "Lifestyle"}, {"id": "lifeandstyle/wordofmouth/video/2010/apr/27/heston-blumenthal-fat-duck", "type": "video", "sectionId": "food", "sectionName": "Food", "webPublicationDate": "2010-04-27T07:00:00Z", "webTitle": "Video: Jay Rayner at The Fat Duck", "webUrl": "https://www.theguardian.com/lifeandstyle/wordofmouth/video/2010/apr/27/heston-blumenthal-fat-duck", "apiUrl": "https://content.guardianapis.com/lifeandstyle/wordofmouth/video/2010/apr/27/heston-blumenthal-fat-duck", "isHosted": false, "pillarId": "pillar/lifestyle", "pillarName": "Lifestyle"}, {"id": "lifeandstyle/2010/apr/26/rene-redzepi-noma-best-restaurant", "type": "article", "sectionId": "food", "sectionName": "Food", "webPublicationDate": "2010-04-26T23:47:00Z", "webTitle": "Ren\u00e9 Redzepi's Noma tops list of world's best restaurants", "webUrl": "https://www.theguardian.com/lifeandstyle/2010/apr/26/rene-redzepi-noma-best-restaurant", "apiUrl": "https://content.guardianapis.com/lifeandstyle/2010/apr/26/rene-redzepi-noma-best-restaurant", "isHosted": false, "pillarId": "pillar/lifestyle", "pillarName": "Lifestyle"}, {"id": "lifeandstyle/wordofmouth/2010/apr/26/noma-best-restaurant-world-review", "type": "article", "sectionId": "lifeandstyle", "sectionName": "Life and style", "webPublicationDate": "2010-04-26T20:30:25Z", "webTitle": "How Noma won world's best restaurant award", "webUrl": "https://www.theguardian.com/lifeandstyle/wordofmouth/2010/apr/26/noma-best-restaurant-world-review", "apiUrl": "https://content.guardianapis.com/lifeandstyle/wordofmouth/2010/apr/26/noma-best-restaurant-world-review", "isHosted": false, "pillarId": "pillar/lifestyle", "pillarName": "Lifestyle"}, {"id": "lifeandstyle/wordofmouth/2010/apr/26/travel-transit-airport-food", "type": "article", "sectionId": "lifeandstyle", "sectionName": "Life and style", "webPublicationDate": "2010-04-26T14:20:00Z", "webTitle": "Transport hub grub", "webUrl": "https://www.theguardian.com/lifeandstyle/wordofmouth/2010/apr/26/travel-transit-airport-food", "apiUrl": "https://content.guardianapis.com/lifeandstyle/wordofmouth/2010/apr/26/travel-transit-airport-food", "isHosted": false, "pillarId": "pillar/lifestyle", "pillarName": "Lifestyle"}, {"id": "theguardian/2010/apr/25/kitchen-implements-blowtorch-tweezers-chefs", "type": "article", "sectionId": "food", "sectionName": "Food", "webPublicationDate": "2010-04-25T19:00:02Z", "webTitle": "Must-have kitchen implements: from the blowtorch to tweezers", "webUrl": "https://www.theguardian.com/theguardian/2010/apr/25/kitchen-implements-blowtorch-tweezers-chefs", "apiUrl": "https://content.guardianapis.com/theguardian/2010/apr/25/kitchen-implements-blowtorch-tweezers-chefs", "isHosted": false, "pillarId": "pillar/lifestyle", "pillarName": "Lifestyle"}, {"id": "lifeandstyle/2010/apr/25/petrus-gordon-ramsay-jay-rayner", "type": "article", "sectionId": "food", "sectionName": "Food", "webPublicationDate": "2010-04-24T23:15:02Z", "webTitle": "Restaurant review: P\u00e9trus | Jay Rayner", "webUrl": "https://www.theguardian.com/lifeandstyle/2010/apr/25/petrus-gordon-ramsay-jay-rayner", "apiUrl": "https://content.guardianapis.com/lifeandstyle/2010/apr/25/petrus-gordon-ramsay-jay-rayner", "isHosted": false, "pillarId": "pillar/lifestyle", "pillarName": "Lifestyle"}, {"id": "theobserver/2010/apr/25/letters-bbc-culture-charity", "type": "article", "sectionId": "media", "sectionName": "Media", "webPublicationDate": "2010-04-24T23:05:08Z", "webTitle": "To attack the BBC is to devalue our national culture as a whole | letters", "webUrl": "https://www.theguardian.com/theobserver/2010/apr/25/letters-bbc-culture-charity", "apiUrl": "https://content.guardianapis.com/theobserver/2010/apr/25/letters-bbc-culture-charity", "isHosted": false, "pillarId": "pillar/news", "pillarName": "News"}, {"id": "lifeandstyle/2010/apr/24/home-smoking-recipes-hugh-fearnley-whittingstall", "type": "article", "sectionId": "lifeandstyle", "sectionName": "Life and style", "webPublicationDate": "2010-04-23T23:11:16Z", "webTitle": "Home smoking recipes | Hugh Fearnley-Whittingstall", "webUrl": "https://www.theguardian.com/lifeandstyle/2010/apr/24/home-smoking-recipes-hugh-fearnley-whittingstall", "apiUrl": "https://content.guardianapis.com/lifeandstyle/2010/apr/24/home-smoking-recipes-hugh-fearnley-whittingstall", "isHosted": false, "pillarId": "pillar/lifestyle", "pillarName": "Lifestyle"}, {"id": "lifeandstyle/2010/apr/24/alphonso-mango-chickpea-salad-recipe", "type": "article", "sectionId": "lifeandstyle", "sectionName": "Life and style", "webPublicationDate": "2010-04-23T23:11:06Z", "webTitle": "Alphonso mango and curried chickpea salad recipe | Yotam Ottolenghi", "webUrl": "https://www.theguardian.com/lifeandstyle/2010/apr/24/alphonso-mango-chickpea-salad-recipe", "apiUrl": "https://content.guardianapis.com/lifeandstyle/2010/apr/24/alphonso-mango-chickpea-salad-recipe", "isHosted": false, "pillarId": "pillar/lifestyle", "pillarName": "Lifestyle"}, {"id": "lifeandstyle/2010/apr/24/tamarind-date-cake-recipe", "type": "article", "sectionId": "lifeandstyle", "sectionName": "Life and style", "webPublicationDate": "2010-04-23T23:10:46Z", "webTitle": "Tamarind date cake recipe | Dan Lepard | How to bake", "webUrl": "https://www.theguardian.com/lifeandstyle/2010/apr/24/tamarind-date-cake-recipe", "apiUrl": "https://content.guardianapis.com/lifeandstyle/2010/apr/24/tamarind-date-cake-recipe", "isHosted": false, "pillarId": "pillar/lifestyle", "pillarName": "Lifestyle"}, {"id": "lifeandstyle/2010/apr/24/the-dogs-edinburgh-restaurant-review", "type": "article", "sectionId": "food", "sectionName": "Food", "webPublicationDate": "2010-04-23T23:10:41Z", "webTitle": "Restaurant: The Dogs, Edinburgh", "webUrl": "https://www.theguardian.com/lifeandstyle/2010/apr/24/the-dogs-edinburgh-restaurant-review", "apiUrl": "https://content.guardianapis.com/lifeandstyle/2010/apr/24/the-dogs-edinburgh-restaurant-review", "isHosted": false, "pillarId": "pillar/lifestyle", "pillarName": "Lifestyle"}, {"id": "commentisfree/cifamerica/2010/apr/23/jamie-oliver-food-revolution", "type": "article", "sectionId": "commentisfree", "sectionName": "Opinion", "webPublicationDate": "2010-04-23T19:40:00Z", "webTitle": "Jamie Oliver alone can't change this fast-food nation | Latoya Peterson", "webUrl": "https://www.theguardian.com/commentisfree/cifamerica/2010/apr/23/jamie-oliver-food-revolution", "apiUrl": "https://content.guardianapis.com/commentisfree/cifamerica/2010/apr/23/jamie-oliver-food-revolution", "isHosted": false, "pillarId": "pillar/opinion", "pillarName": "Opinion"}, {"id": "business/2010/apr/23/little-chef-ian-pegler", "type": "article", "sectionId": "business", "sectionName": "Business", "webPublicationDate": "2010-04-23T17:53:26Z", "webTitle": "Little Chef announces departure of Ian Pegler", "webUrl": "https://www.theguardian.com/business/2010/apr/23/little-chef-ian-pegler", "apiUrl": "https://content.guardianapis.com/business/2010/apr/23/little-chef-ian-pegler", "isHosted": false, "pillarId": "pillar/news", "pillarName": "News"}, {"id": "lifeandstyle/wordofmouth/2010/apr/23/meeting-eating", "type": "article", "sectionId": "lifeandstyle", "sectionName": "Life and style", "webPublicationDate": "2010-04-23T08:57:00Z", "webTitle": "Meeting and eating", "webUrl": "https://www.theguardian.com/lifeandstyle/wordofmouth/2010/apr/23/meeting-eating", "apiUrl": "https://content.guardianapis.com/lifeandstyle/wordofmouth/2010/apr/23/meeting-eating", "isHosted": false, "pillarId": "pillar/lifestyle", "pillarName": "Lifestyle"}, {"id": "lifeandstyle/wordofmouth/2010/apr/22/nandos-fast-food-restaurants", "type": "article", "sectionId": "lifeandstyle", "sectionName": "Life and style", "webPublicationDate": "2010-04-22T12:04:00Z", "webTitle": "The kitchen counter revolution", "webUrl": "https://www.theguardian.com/lifeandstyle/wordofmouth/2010/apr/22/nandos-fast-food-restaurants", "apiUrl": "https://content.guardianapis.com/lifeandstyle/wordofmouth/2010/apr/22/nandos-fast-food-restaurants", "isHosted": false, "pillarId": "pillar/lifestyle", "pillarName": "Lifestyle"}, {"id": "media/mind-your-language/2010/apr/22/marmite-journalism-mind-your-language", "type": "article", "sectionId": "media", "sectionName": "Media", "webPublicationDate": "2010-04-22T10:05:50Z", "webTitle": "How Marmite spread its way through journalism | Mind your language", "webUrl": "https://www.theguardian.com/media/mind-your-language/2010/apr/22/marmite-journalism-mind-your-language", "apiUrl": "https://content.guardianapis.com/media/mind-your-language/2010/apr/22/marmite-journalism-mind-your-language", "isHosted": false, "pillarId": "pillar/news", "pillarName": "News"}, {"id": "lifeandstyle/wordofmouth/2010/apr/22/how-to-make-perfect-scones", "type": "article", "sectionId": "lifeandstyle", "sectionName": "Life and style", "webPublicationDate": "2010-04-22T09:00:00Z", "webTitle": "How to make the perfect scone", "webUrl": "https://www.theguardian.com/lifeandstyle/wordofmouth/2010/apr/22/how-to-make-perfect-scones", "apiUrl": "https://content.guardianapis.com/lifeandstyle/wordofmouth/2010/apr/22/how-to-make-perfect-scones", "isHosted": false, "pillarId": "pillar/lifestyle", "pillarName": "Lifestyle"}, {"id": "lifeandstyle/gallery/2010/apr/22/baking-scone-recipes", "type": "gallery", "sectionId": "food", "sectionName": "Food", "webPublicationDate": "2010-04-22T08:00:00Z", "webTitle": "How to make the perfect scone", "webUrl": "https://www.theguardian.com/lifeandstyle/gallery/2010/apr/22/baking-scone-recipes", "apiUrl": "https://content.guardianapis.com/lifeandstyle/gallery/2010/apr/22/baking-scone-recipes", "isHosted": false, "pillarId": "pillar/lifestyle", "pillarName": "Lifestyle"}, {"id": "tv-and-radio/2010/apr/21/iron-chef-uk", "type": "article", "sectionId": "tv-and-radio", "sectionName": "Television & radio", "webPublicationDate": "2010-04-21T21:00:02Z", "webTitle": "Behind the scenes at Iron Chef UK", "webUrl": "https://www.theguardian.com/tv-and-radio/2010/apr/21/iron-chef-uk", "apiUrl": "https://content.guardianapis.com/tv-and-radio/2010/apr/21/iron-chef-uk", "isHosted": false, "pillarId": "pillar/arts", "pillarName": "Arts"}, {"id": "lifeandstyle/gallery/2010/apr/21/food-and-drink", "type": "gallery", "sectionId": "food", "sectionName": "Food", "webPublicationDate": "2010-04-21T21:00:00Z", "webTitle": "The test... strawberry jam", "webUrl": "https://www.theguardian.com/lifeandstyle/gallery/2010/apr/21/food-and-drink", "apiUrl": "https://content.guardianapis.com/lifeandstyle/gallery/2010/apr/21/food-and-drink", "isHosted": false, "pillarId": "pillar/lifestyle", "pillarName": "Lifestyle"}, {"id": "lifeandstyle/wordofmouth/2010/apr/21/beer-food-and-drink", "type": "article", "sectionId": "lifeandstyle", "sectionName": "Life and style", "webPublicationDate": "2010-04-21T11:03:00Z", "webTitle": "Beer: drinking in the seasons", "webUrl": "https://www.theguardian.com/lifeandstyle/wordofmouth/2010/apr/21/beer-food-and-drink", "apiUrl": "https://content.guardianapis.com/lifeandstyle/wordofmouth/2010/apr/21/beer-food-and-drink", "isHosted": false, "pillarId": "pillar/lifestyle", "pillarName": "Lifestyle"}, {"id": "lifeandstyle/wordofmouth/2010/apr/21/recipes-for-toddlers-children", "type": "article", "sectionId": "lifeandstyle", "sectionName": "Life and style", "webPublicationDate": "2010-04-21T09:00:00Z", "webTitle": "Testing teatimes with toddlers", "webUrl": "https://www.theguardian.com/lifeandstyle/wordofmouth/2010/apr/21/recipes-for-toddlers-children", "apiUrl": "https://content.guardianapis.com/lifeandstyle/wordofmouth/2010/apr/21/recipes-for-toddlers-children", "isHosted": false, "pillarId": "pillar/lifestyle", "pillarName": "Lifestyle"}, {"id": "lifeandstyle/2010/apr/20/nigella-lawson-iphone-app-recipe", "type": "article", "sectionId": "food", "sectionName": "Food", "webPublicationDate": "2010-04-20T21:01:15Z", "webTitle": "Nigella Lawson turns heat on rivals with cookery iPhone app", "webUrl": "https://www.theguardian.com/lifeandstyle/2010/apr/20/nigella-lawson-iphone-app-recipe", "apiUrl": "https://content.guardianapis.com/lifeandstyle/2010/apr/20/nigella-lawson-iphone-app-recipe", "isHosted": false, "pillarId": "pillar/lifestyle", "pillarName": "Lifestyle"}, {"id": "commentisfree/2010/apr/20/hope-from-the-ashes", "type": "article", "sectionId": "commentisfree", "sectionName": "Opinion", "webPublicationDate": "2010-04-20T21:00:00Z", "webTitle": "From ashes to radishes | Rosie Boycott", "webUrl": "https://www.theguardian.com/commentisfree/2010/apr/20/hope-from-the-ashes", "apiUrl": "https://content.guardianapis.com/commentisfree/2010/apr/20/hope-from-the-ashes", "isHosted": false, "pillarId": "pillar/opinion", "pillarName": "Opinion"}, {"id": "lifeandstyle/2010/apr/20/seasonal-food-asparagus", "type": "article", "sectionId": "food", "sectionName": "Food", "webPublicationDate": "2010-04-20T11:00:00Z", "webTitle": "Seasonal food: asparagus", "webUrl": "https://www.theguardian.com/lifeandstyle/2010/apr/20/seasonal-food-asparagus", "apiUrl": "https://content.guardianapis.com/lifeandstyle/2010/apr/20/seasonal-food-asparagus", "isHosted": false, "pillarId": "pillar/lifestyle", "pillarName": "Lifestyle"}, {"id": "lifeandstyle/wordofmouth/2010/apr/20/consider-the-scotch-egg", "type": "article", "sectionId": "lifeandstyle", "sectionName": "Life and style", "webPublicationDate": "2010-04-20T09:00:00Z", "webTitle": "Consider the scotch egg", "webUrl": "https://www.theguardian.com/lifeandstyle/wordofmouth/2010/apr/20/consider-the-scotch-egg", "apiUrl": "https://content.guardianapis.com/lifeandstyle/wordofmouth/2010/apr/20/consider-the-scotch-egg", "isHosted": false, "pillarId": "pillar/lifestyle", "pillarName": "Lifestyle"}, {"id": "lifeandstyle/2010/apr/20/veganism-safe-children", "type": "article", "sectionId": "lifeandstyle", "sectionName": "Life and style", "webPublicationDate": "2010-04-20T07:05:01Z", "webTitle": "Is veganism safe for kids?", "webUrl": "https://www.theguardian.com/lifeandstyle/2010/apr/20/veganism-safe-children", "apiUrl": "https://content.guardianapis.com/lifeandstyle/2010/apr/20/veganism-safe-children", "isHosted": false, "pillarId": "pillar/lifestyle", "pillarName": "Lifestyle"}, {"id": "tv-and-radio/2010/apr/20/great-ormond-heston-jools-holland", "type": "article", "sectionId": "tv-and-radio", "sectionName": "Television & radio", "webPublicationDate": "2010-04-19T23:05:03Z", "webTitle": "Great Ormond Street | Heston's Titanic Feast | Later Live \u2013 With Jools Holland | Ross Kemp: Battle for the Amazon | Watch This", "webUrl": "https://www.theguardian.com/tv-and-radio/2010/apr/20/great-ormond-heston-jools-holland", "apiUrl": "https://content.guardianapis.com/tv-and-radio/2010/apr/20/great-ormond-heston-jools-holland", "isHosted": false, "pillarId": "pillar/arts", "pillarName": "Arts"}, {"id": "world/2010/apr/19/obama-chocolates", "type": "article", "sectionId": "us-news", "sectionName": "US news", "webPublicationDate": "2010-04-19T20:00:01Z", "webTitle": "The story of Obama's favourite chocolates", "webUrl": "https://www.theguardian.com/world/2010/apr/19/obama-chocolates", "apiUrl": "https://content.guardianapis.com/world/2010/apr/19/obama-chocolates", "isHosted": false, "pillarId": "pillar/news", "pillarName": "News"}, {"id": "lifeandstyle/wordofmouth/2010/apr/19/deep-fat-fryers", "type": "article", "sectionId": "lifeandstyle", "sectionName": "Life and style", "webPublicationDate": "2010-04-19T10:00:00Z", "webTitle": "Must fry harder: do you have a deep fat fryer?", "webUrl": "https://www.theguardian.com/lifeandstyle/wordofmouth/2010/apr/19/deep-fat-fryers", "apiUrl": "https://content.guardianapis.com/lifeandstyle/wordofmouth/2010/apr/19/deep-fat-fryers", "isHosted": false, "pillarId": "pillar/lifestyle", "pillarName": "Lifestyle"}]}}