{"response": {"status": "ok", "userTier": "developer", "total": 16336, "startIndex": 1, "pageSize": 50, "currentPage": 1, "pages": 327, "orderBy": "newest", "results": [{"id": "lifeandstyle/2011/may/01/jay-rayner-restaurant-review-kaosan", "type": "article", "sectionId": "food", "sectionName": "Food", "webPublicationDate": "2011-04-30T23:04:02Z", "webTitle": "Restaurant review: Kaosan", "webUrl": "https://www.theguardian.com/lifeandstyle/2011/may/01/jay-rayner-restaurant-review-kaosan", "apiUrl": "https://content.guardianapis.com/lifeandstyle/2011/may/01/jay-rayner-restaurant-review-kaosan", "isHosted": false, "pillarId": "pillar/lifestyle", "pillarName": "Lifestyle"}, {"id": "uk/2011/apr/30/royal-wedding-reception-food", "type": "article", "sectionId": "uk-news", "sectionName": "UK news", "webPublicationDate": "2011-04-30T06:00:03Z", "webTitle": "Feast fit for a king", "webUrl": "https://www.theguardian.com/uk/2011/apr/30/royal-wedding-reception-food", "apiUrl": "https://content.guardianapis.com/uk/2011/apr/30/royal-wedding-reception-food", "isHosted": false, "pillarId": "pillar/news", "pillarName": "News"}, {"id": "money/2011/apr/30/50-pounds-week-food-budget", "type": "article", "sectionId": "money", "sectionName": "Money", "webPublicationDate": "2011-04-29T23:06:00Z", "webTitle": "'We're trying to stick to \u00a350 a week for our food budget \u2013 but it's tough'", "webUrl": "https://www.theguardian.com/money/2011/apr/30/50-pounds-week-food-budget", "apiUrl": "https://content.guardianapis.com/money/2011/apr/30/50-pounds-week-food-budget", "isHosted": false, "pillarId": "pillar/lifestyle", "pillarName": "Lifestyle"}, {"id": "money/2011/apr/30/family-four-fed-50-week", "type": "article", "sectionId": "money", "sectionName": "Money", "webPublicationDate": "2011-04-29T23:05:07Z", "webTitle": "Can a family of four be fed for \u00a350 a week?", "webUrl": "https://www.theguardian.com/money/2011/apr/30/family-four-fed-50-week", "apiUrl": "https://content.guardianapis.com/money/2011/apr/30/family-four-fed-50-week", "isHosted": false, "pillarId": "pillar/lifestyle", "pillarName": "Lifestyle"}, {"id": "lifeandstyle/2011/apr/30/sri-lankan-recipes-fearnley-whittingstall", "type": "article", "sectionId": "lifeandstyle", "sectionName": "Life and style", "webPublicationDate": "2011-04-29T23:02:59Z", "webTitle": "Sri Lankan recipes | Hugh Fearnley-Whittingstall", "webUrl": "https://www.theguardian.com/lifeandstyle/2011/apr/30/sri-lankan-recipes-fearnley-whittingstall", "apiUrl": "https://content.guardianapis.com/lifeandstyle/2011/apr/30/sri-lankan-recipes-fearnley-whittingstall", "isHosted": false, "pillarId": "pillar/lifestyle", "pillarName": "Lifestyle"}, {"id": "lifeandstyle/2011/apr/30/leeds-kitchen-james-martin-review", "type": "article", "sectionId": "lifeandstyle", "sectionName": "Life and style", "webPublicationDate": "2011-04-29T23:02:43Z", "webTitle": "Restaurant: The Leeds Kitchen by James Martin, Leeds | John Lanchester", "webUrl": "https://www.theguardian.com/lifeandstyle/2011/apr/30/leeds-kitchen-james-martin-review", "apiUrl": "https://content.guardianapis.com/lifeandstyle/2011/apr/30/leeds-kitchen-james-martin-review", "isHosted": false, "pillarId": "pillar/lifestyle", "pillarName": "Lifestyle"}, {"id": "lifeandstyle/2011/apr/30/chips-recipe-prawns-matthew-fort", "type": "article", "sectionId": "lifeandstyle", "sectionName": "Life and style", "webPublicationDate": "2011-04-29T23:02:32Z", "webTitle": "Food for Fort: The quest for the perfect chip | Matthew Fort", "webUrl": "https://www.theguardian.com/lifeandstyle/2011/apr/30/chips-recipe-prawns-matthew-fort", "apiUrl": "https://content.guardianapis.com/lifeandstyle/2011/apr/30/chips-recipe-prawns-matthew-fort", "isHosted": false, "pillarId": "pillar/lifestyle", "pillarName": "Lifestyle"}, {"id": "lifeandstyle/2011/apr/30/artisan-cheese-cracker-recipes-lepard", "type": "article", "sectionId": "lifeandstyle", "sectionName": "Life and style", "webPublicationDate": "2011-04-29T23:02:22Z", "webTitle": "Artisan cheese cracker recipes | Dan Lepard", "webUrl": "https://www.theguardian.com/lifeandstyle/2011/apr/30/artisan-cheese-cracker-recipes-lepard", "apiUrl": "https://content.guardianapis.com/lifeandstyle/2011/apr/30/artisan-cheese-cracker-recipes-lepard", "isHosted": false, "pillarId": "pillar/lifestyle", "pillarName": "Lifestyle"}, {"id": "lifeandstyle/2011/apr/30/beetroot-salad-stuffed-artichoke-recipes", "type": "article", "sectionId": "food", "sectionName": "Food", "webPublicationDate": "2011-04-29T23:02:17Z", "webTitle": "Beetroot and rhubarb salad recipe, plus stuffed artichokes with peas and dill | Yotam Ottolenghi", "webUrl": "https://www.theguardian.com/lifeandstyle/2011/apr/30/beetroot-salad-stuffed-artichoke-recipes", "apiUrl": "https://content.guardianapis.com/lifeandstyle/2011/apr/30/beetroot-salad-stuffed-artichoke-recipes", "isHosted": false, "pillarId": "pillar/lifestyle", "pillarName": "Lifestyle"}, {"id": "lifeandstyle/2011/apr/30/hungarian-wine-review-fiona-beckett", "type": "article", "sectionId": "food", "sectionName": "Food", "webPublicationDate": "2011-04-29T23:02:12Z", "webTitle": "Wine: Hungary", "webUrl": "https://www.theguardian.com/lifeandstyle/2011/apr/30/hungarian-wine-review-fiona-beckett", "apiUrl": "https://content.guardianapis.com/lifeandstyle/2011/apr/30/hungarian-wine-review-fiona-beckett", "isHosted": false, "pillarId": "pillar/lifestyle", "pillarName": "Lifestyle"}, {"id": "lifeandstyle/cartoon/2011/apr/30/1", "type": "picture", "sectionId": "lifeandstyle", "sectionName": "Life and style", "webPublicationDate": "2011-04-29T23:02:00Z", "webTitle": "Berger & Wyse", "webUrl": "https://www.theguardian.com/lifeandstyle/cartoon/2011/apr/30/1", "apiUrl": "https://content.guardianapis.com/lifeandstyle/cartoon/2011/apr/30/1", "isHosted": false, "pillarId": "pillar/lifestyle", "pillarName": "Lifestyle"}, {"id": "lifeandstyle/2011/apr/29/royal-wedding-dinner-william-kate-middleton", "type": "article", "sectionId": "food", "sectionName": "Food", "webPublicationDate": "2011-04-29T08:00:00Z", "webTitle": "Wedding food traditions around the world", "webUrl": "https://www.theguardian.com/lifeandstyle/2011/apr/29/royal-wedding-dinner-william-kate-middleton", "apiUrl": "https://content.guardianapis.com/lifeandstyle/2011/apr/29/royal-wedding-dinner-william-kate-middleton", "isHosted": false, "pillarId": "pillar/lifestyle", "pillarName": "Lifestyle"}, {"id": "travel/2011/apr/29/top-10-ice-cream-britain", "type": "article", "sectionId": "travel", "sectionName": "Travel", "webPublicationDate": "2011-04-28T23:30:00Z", "webTitle": "Ten of the best UK ice-cream sellers", "webUrl": "https://www.theguardian.com/travel/2011/apr/29/top-10-ice-cream-britain", "apiUrl": "https://content.guardianapis.com/travel/2011/apr/29/top-10-ice-cream-britain", "isHosted": false, "pillarId": "pillar/lifestyle", "pillarName": "Lifestyle"}, {"id": "lifeandstyle/2011/apr/28/food-and-drink-poverty", "type": "article", "sectionId": "food", "sectionName": "Food", "webPublicationDate": "2011-04-28T06:00:04Z", "webTitle": "Eating for \u00a31 a day", "webUrl": "https://www.theguardian.com/lifeandstyle/2011/apr/28/food-and-drink-poverty", "apiUrl": "https://content.guardianapis.com/lifeandstyle/2011/apr/28/food-and-drink-poverty", "isHosted": false, "pillarId": "pillar/lifestyle", "pillarName": "Lifestyle"}, {"id": "lifeandstyle/2011/apr/28/beef-asparagus-horseradish-salad-recipe", "type": "article", "sectionId": "lifeandstyle", "sectionName": "Life and style", "webPublicationDate": "2011-04-28T05:59:00Z", "webTitle": "Beef, asparagus and horseradish salad recipe / Angela Hartnett", "webUrl": "https://www.theguardian.com/lifeandstyle/2011/apr/28/beef-asparagus-horseradish-salad-recipe", "apiUrl": "https://content.guardianapis.com/lifeandstyle/2011/apr/28/beef-asparagus-horseradish-salad-recipe", "isHosted": false, "pillarId": "pillar/lifestyle", "pillarName": "Lifestyle"}, {"id": "lifeandstyle/wordofmouth/2011/apr/28/cook-perfect-coronation-chicken-royal-wedding", "type": "article", "sectionId": "food", "sectionName": "Food", "webPublicationDate": "2011-04-27T23:02:00Z", "webTitle": "How to cook perfect coronation chicken", "webUrl": "https://www.theguardian.com/lifeandstyle/wordofmouth/2011/apr/28/cook-perfect-coronation-chicken-royal-wedding", "apiUrl": "https://content.guardianapis.com/lifeandstyle/wordofmouth/2011/apr/28/cook-perfect-coronation-chicken-royal-wedding", "isHosted": false, "pillarId": "pillar/lifestyle", "pillarName": "Lifestyle"}, {"id": "business/2011/apr/27/aldi-and-lidl-enjoy-sales-boost", "type": "article", "sectionId": "business", "sectionName": "Business", "webPublicationDate": "2011-04-27T14:10:52Z", "webTitle": "No-frills supermarkets Aldi and Lidl steal a march on competitors", "webUrl": "https://www.theguardian.com/business/2011/apr/27/aldi-and-lidl-enjoy-sales-boost", "apiUrl": "https://content.guardianapis.com/business/2011/apr/27/aldi-and-lidl-enjoy-sales-boost", "isHosted": false, "pillarId": "pillar/news", "pillarName": "News"}, {"id": "environment/blog/2011/apr/27/peta-poster-laflin-naked-pose", "type": "article", "sectionId": "environment", "sectionName": "Environment", "webPublicationDate": "2011-04-27T11:34:00Z", "webTitle": "Peta's new 'Want My Body?' poster views women as pieces of meat | Leo Hickman", "webUrl": "https://www.theguardian.com/environment/blog/2011/apr/27/peta-poster-laflin-naked-pose", "apiUrl": "https://content.guardianapis.com/environment/blog/2011/apr/27/peta-poster-laflin-naked-pose", "isHosted": false, "pillarId": "pillar/news", "pillarName": "News"}, {"id": "lifeandstyle/wordofmouth/2011/apr/27/should-desserts-come-first", "type": "article", "sectionId": "lifeandstyle", "sectionName": "Life and style", "webPublicationDate": "2011-04-27T10:59:00Z", "webTitle": "Are you happy with just desserts?", "webUrl": "https://www.theguardian.com/lifeandstyle/wordofmouth/2011/apr/27/should-desserts-come-first", "apiUrl": "https://content.guardianapis.com/lifeandstyle/wordofmouth/2011/apr/27/should-desserts-come-first", "isHosted": false, "pillarId": "pillar/lifestyle", "pillarName": "Lifestyle"}, {"id": "lifeandstyle/wordofmouth/2011/apr/27/food-festivals-may-june-2011", "type": "article", "sectionId": "food", "sectionName": "Food", "webPublicationDate": "2011-04-27T09:00:00Z", "webTitle": "Food festivals in May and June 2011", "webUrl": "https://www.theguardian.com/lifeandstyle/wordofmouth/2011/apr/27/food-festivals-may-june-2011", "apiUrl": "https://content.guardianapis.com/lifeandstyle/wordofmouth/2011/apr/27/food-festivals-may-june-2011", "isHosted": false, "pillarId": "pillar/lifestyle", "pillarName": "Lifestyle"}, {"id": "lifeandstyle/video/2011/apr/27/mitch-tonks-red-mullet-recipe", "type": "video", "sectionId": "food", "sectionName": "Food", "webPublicationDate": "2011-04-27T08:00:00Z", "webTitle": "Red mullet cooked in butter with lemon and sage recipe - video", "webUrl": "https://www.theguardian.com/lifeandstyle/video/2011/apr/27/mitch-tonks-red-mullet-recipe", "apiUrl": "https://content.guardianapis.com/lifeandstyle/video/2011/apr/27/mitch-tonks-red-mullet-recipe", "isHosted": false, "pillarId": "pillar/lifestyle", "pillarName": "Lifestyle"}, {"id": "music/2011/apr/26/flavor-flav-chicken-restaurant-chain", "type": "article", "sectionId": "music", "sectionName": "Music", "webPublicationDate": "2011-04-26T11:11:39Z", "webTitle": "Flavor Flav chickens out of restaurant chain", "webUrl": "https://www.theguardian.com/music/2011/apr/26/flavor-flav-chicken-restaurant-chain", "apiUrl": "https://content.guardianapis.com/music/2011/apr/26/flavor-flav-chicken-restaurant-chain", "isHosted": false, "pillarId": "pillar/arts", "pillarName": "Arts"}, {"id": "lifeandstyle/wordofmouth/2011/apr/26/food-and-drink", "type": "article", "sectionId": "lifeandstyle", "sectionName": "Life and style", "webPublicationDate": "2011-04-26T10:46:00Z", "webTitle": "Consider the aubergine", "webUrl": "https://www.theguardian.com/lifeandstyle/wordofmouth/2011/apr/26/food-and-drink", "apiUrl": "https://content.guardianapis.com/lifeandstyle/wordofmouth/2011/apr/26/food-and-drink", "isHosted": false, "pillarId": "pillar/lifestyle", "pillarName": "Lifestyle"}, {"id": "lifeandstyle/wordofmouth/2011/apr/26/royal-wedding-food-marketing", "type": "article", "sectionId": "lifeandstyle", "sectionName": "Life and style", "webPublicationDate": "2011-04-26T09:00:00Z", "webTitle": "A right royal marketing opportunity", "webUrl": "https://www.theguardian.com/lifeandstyle/wordofmouth/2011/apr/26/royal-wedding-food-marketing", "apiUrl": "https://content.guardianapis.com/lifeandstyle/wordofmouth/2011/apr/26/royal-wedding-food-marketing", "isHosted": false, "pillarId": "pillar/lifestyle", "pillarName": "Lifestyle"}, {"id": "travel/2011/apr/26/west-dorset-budget-food-restaurants", "type": "article", "sectionId": "travel", "sectionName": "Travel", "webPublicationDate": "2011-04-26T04:00:00Z", "webTitle": "West Dorset's top 10 budget restaurants and cafes", "webUrl": "https://www.theguardian.com/travel/2011/apr/26/west-dorset-budget-food-restaurants", "apiUrl": "https://content.guardianapis.com/travel/2011/apr/26/west-dorset-budget-food-restaurants", "isHosted": false, "pillarId": "pillar/lifestyle", "pillarName": "Lifestyle"}, {"id": "theguardian/2011/apr/25/josef-klein-obituary", "type": "article", "sectionId": "theguardian", "sectionName": "From the Guardian", "webPublicationDate": "2011-04-25T17:21:26Z", "webTitle": "Josef Klein obituary", "webUrl": "https://www.theguardian.com/theguardian/2011/apr/25/josef-klein-obituary", "apiUrl": "https://content.guardianapis.com/theguardian/2011/apr/25/josef-klein-obituary", "isHosted": false, "pillarId": "pillar/news", "pillarName": "News"}, {"id": "lifeandstyle/2011/apr/24/bubble-tea-comes-to-britain", "type": "article", "sectionId": "food", "sectionName": "Food", "webPublicationDate": "2011-04-24T19:00:02Z", "webTitle": "Bubble tea comes to Britain", "webUrl": "https://www.theguardian.com/lifeandstyle/2011/apr/24/bubble-tea-comes-to-britain", "apiUrl": "https://content.guardianapis.com/lifeandstyle/2011/apr/24/bubble-tea-comes-to-britain", "isHosted": false, "pillarId": "pillar/lifestyle", "pillarName": "Lifestyle"}, {"id": "lifeandstyle/2011/apr/24/mark-addy-manchester-jay-rayner", "type": "article", "sectionId": "food", "sectionName": "Food", "webPublicationDate": "2011-04-23T23:05:08Z", "webTitle": "Restaurant review: The Mark Addy", "webUrl": "https://www.theguardian.com/lifeandstyle/2011/apr/24/mark-addy-manchester-jay-rayner", "apiUrl": "https://content.guardianapis.com/lifeandstyle/2011/apr/24/mark-addy-manchester-jay-rayner", "isHosted": false, "pillarId": "pillar/lifestyle", "pillarName": "Lifestyle"}, {"id": "lifeandstyle/2011/apr/24/jeremy-lee-easter-recipes", "type": "article", "sectionId": "food", "sectionName": "Food", "webPublicationDate": "2011-04-23T23:04:03Z", "webTitle": "Jeremy Lee's Easter feast", "webUrl": "https://www.theguardian.com/lifeandstyle/2011/apr/24/jeremy-lee-easter-recipes", "apiUrl": "https://content.guardianapis.com/lifeandstyle/2011/apr/24/jeremy-lee-easter-recipes", "isHosted": false, "pillarId": "pillar/lifestyle", "pillarName": "Lifestyle"}, {"id": "lifeandstyle/2011/apr/23/easter-recipes-hugh-fearnley-whittingstall", "type": "article", "sectionId": "lifeandstyle", "sectionName": "Life and style", "webPublicationDate": "2011-04-22T23:02:47Z", "webTitle": "Easter recipes | Hugh Fearnley-Whittingstall", "webUrl": "https://www.theguardian.com/lifeandstyle/2011/apr/23/easter-recipes-hugh-fearnley-whittingstall", "apiUrl": "https://content.guardianapis.com/lifeandstyle/2011/apr/23/easter-recipes-hugh-fearnley-whittingstall", "isHosted": false, "pillarId": "pillar/lifestyle", "pillarName": "Lifestyle"}, {"id": "lifeandstyle/2011/apr/23/st-john-hotel-restaurant-review", "type": "article", "sectionId": "lifeandstyle", "sectionName": "Life and style", "webPublicationDate": "2011-04-22T23:02:43Z", "webTitle": "Restaurant: St John Hotel, London WC2 | John Lanchester", "webUrl": "https://www.theguardian.com/lifeandstyle/2011/apr/23/st-john-hotel-restaurant-review", "apiUrl": "https://content.guardianapis.com/lifeandstyle/2011/apr/23/st-john-hotel-restaurant-review", "isHosted": false, "pillarId": "pillar/lifestyle", "pillarName": "Lifestyle"}, {"id": "lifeandstyle/2011/apr/23/gin-review-fiona-beckett", "type": "article", "sectionId": "food", "sectionName": "Food", "webPublicationDate": "2011-04-22T23:02:30Z", "webTitle": "Gin: That's the spirit", "webUrl": "https://www.theguardian.com/lifeandstyle/2011/apr/23/gin-review-fiona-beckett", "apiUrl": "https://content.guardianapis.com/lifeandstyle/2011/apr/23/gin-review-fiona-beckett", "isHosted": false, "pillarId": "pillar/lifestyle", "pillarName": "Lifestyle"}, {"id": "lifeandstyle/2011/apr/23/full-fat-cream-cheese-watery-cauliflower-cheese-for", "type": "article", "sectionId": "lifeandstyle", "sectionName": "Life and style", "webPublicationDate": "2011-04-22T23:02:25Z", "webTitle": "Food for Fort: On cream cheese and cauliflower cheese", "webUrl": "https://www.theguardian.com/lifeandstyle/2011/apr/23/full-fat-cream-cheese-watery-cauliflower-cheese-for", "apiUrl": "https://content.guardianapis.com/lifeandstyle/2011/apr/23/full-fat-cream-cheese-watery-cauliflower-cheese-for", "isHosted": false, "pillarId": "pillar/lifestyle", "pillarName": "Lifestyle"}, {"id": "lifeandstyle/2011/apr/23/chocolate-pound-cake-ginger-recipe", "type": "article", "sectionId": "lifeandstyle", "sectionName": "Life and style", "webPublicationDate": "2011-04-22T23:02:03Z", "webTitle": "Ginger chocolate chip pound cake recipe | Dan Lepard", "webUrl": "https://www.theguardian.com/lifeandstyle/2011/apr/23/chocolate-pound-cake-ginger-recipe", "apiUrl": "https://content.guardianapis.com/lifeandstyle/2011/apr/23/chocolate-pound-cake-ginger-recipe", "isHosted": false, "pillarId": "pillar/lifestyle", "pillarName": "Lifestyle"}, {"id": "lifeandstyle/2011/apr/23/broad-bean-salad-lamb-recipes", "type": "article", "sectionId": "food", "sectionName": "Food", "webPublicationDate": "2011-04-22T23:02:01Z", "webTitle": "Broad bean and herb salad, plus lamb cutlets with sumac, aubergine and green tahini recipes | Yotam Ottolenghi", "webUrl": "https://www.theguardian.com/lifeandstyle/2011/apr/23/broad-bean-salad-lamb-recipes", "apiUrl": "https://content.guardianapis.com/lifeandstyle/2011/apr/23/broad-bean-salad-lamb-recipes", "isHosted": false, "pillarId": "pillar/lifestyle", "pillarName": "Lifestyle"}, {"id": "lifeandstyle/cartoon/2011/apr/23/1", "type": "picture", "sectionId": "lifeandstyle", "sectionName": "Life and style", "webPublicationDate": "2011-04-22T23:02:00Z", "webTitle": "Berger & Wyse", "webUrl": "https://www.theguardian.com/lifeandstyle/cartoon/2011/apr/23/1", "apiUrl": "https://content.guardianapis.com/lifeandstyle/cartoon/2011/apr/23/1", "isHosted": false, "pillarId": "pillar/lifestyle", "pillarName": "Lifestyle"}, {"id": "lifeandstyle/wordofmouth/2011/apr/22/south-london-budget-eats", "type": "article", "sectionId": "lifeandstyle", "sectionName": "Life and style", "webPublicationDate": "2011-04-22T09:00:00Z", "webTitle": "South London: budget eats", "webUrl": "https://www.theguardian.com/lifeandstyle/wordofmouth/2011/apr/22/south-london-budget-eats", "apiUrl": "https://content.guardianapis.com/lifeandstyle/wordofmouth/2011/apr/22/south-london-budget-eats", "isHosted": false, "pillarId": "pillar/lifestyle", "pillarName": "Lifestyle"}, {"id": "travel/2011/apr/22/south-london-budget-restaurants-food", "type": "article", "sectionId": "travel", "sectionName": "Travel", "webPublicationDate": "2011-04-22T06:00:00Z", "webTitle": "South London's top 10 budget eats", "webUrl": "https://www.theguardian.com/travel/2011/apr/22/south-london-budget-restaurants-food", "apiUrl": "https://content.guardianapis.com/travel/2011/apr/22/south-london-budget-restaurants-food", "isHosted": false, "pillarId": "pillar/lifestyle", "pillarName": "Lifestyle"}, {"id": "business/2011/apr/21/commodities-coffee-shortage-price-rise-expected", "type": "article", "sectionId": "business", "sectionName": "Business", "webPublicationDate": "2011-04-21T14:33:35Z", "webTitle": "Coffee prices expected to rise as a result of poor harvests and growing demand", "webUrl": "https://www.theguardian.com/business/2011/apr/21/commodities-coffee-shortage-price-rise-expected", "apiUrl": "https://content.guardianapis.com/business/2011/apr/21/commodities-coffee-shortage-price-rise-expected", "isHosted": false, "pillarId": "pillar/news", "pillarName": "News"}, {"id": "artanddesign/jonathanjonesblog/2011/apr/21/food-fashion-art-cuisine-couture", "type": "article", "sectionId": "artanddesign", "sectionName": "Art and design", "webPublicationDate": "2011-04-21T11:53:06Z", "webTitle": "Food for thought ... Why cuisine or couture can never equal great art", "webUrl": "https://www.theguardian.com/artanddesign/jonathanjonesblog/2011/apr/21/food-fashion-art-cuisine-couture", "apiUrl": "https://content.guardianapis.com/artanddesign/jonathanjonesblog/2011/apr/21/food-fashion-art-cuisine-couture", "isHosted": false, "pillarId": "pillar/arts", "pillarName": "Arts"}, {"id": "lifeandstyle/2011/apr/19/buy-of-the-day", "type": "article", "sectionId": "lifeandstyle", "sectionName": "Life and style", "webPublicationDate": "2011-04-21T09:27:00Z", "webTitle": "Buy of the day", "webUrl": "https://www.theguardian.com/lifeandstyle/2011/apr/19/buy-of-the-day", "apiUrl": "https://content.guardianapis.com/lifeandstyle/2011/apr/19/buy-of-the-day", "isHosted": false, "pillarId": "pillar/lifestyle", "pillarName": "Lifestyle"}, {"id": "lifeandstyle/wordofmouth/2011/apr/21/freezer-waste-cold-shoulder", "type": "article", "sectionId": "lifeandstyle", "sectionName": "Life and style", "webPublicationDate": "2011-04-21T09:00:00Z", "webTitle": "Freezers give waste the cold shoulder", "webUrl": "https://www.theguardian.com/lifeandstyle/wordofmouth/2011/apr/21/freezer-waste-cold-shoulder", "apiUrl": "https://content.guardianapis.com/lifeandstyle/wordofmouth/2011/apr/21/freezer-waste-cold-shoulder", "isHosted": false, "pillarId": "pillar/lifestyle", "pillarName": "Lifestyle"}, {"id": "lifeandstyle/2011/apr/21/roux-brothers-influence-britain", "type": "article", "sectionId": "food", "sectionName": "Food", "webPublicationDate": "2011-04-21T06:00:17Z", "webTitle": "How the Roux family educated the British palate", "webUrl": "https://www.theguardian.com/lifeandstyle/2011/apr/21/roux-brothers-influence-britain", "apiUrl": "https://content.guardianapis.com/lifeandstyle/2011/apr/21/roux-brothers-influence-britain", "isHosted": false, "pillarId": "pillar/lifestyle", "pillarName": "Lifestyle"}, {"id": "lifeandstyle/wordofmouth/2011/apr/21/cook-perfect-hot-cross-buns", "type": "article", "sectionId": "lifeandstyle", "sectionName": "Life and style", "webPublicationDate": "2011-04-21T06:00:00Z", "webTitle": "How to cook perfect hot cross buns", "webUrl": "https://www.theguardian.com/lifeandstyle/wordofmouth/2011/apr/21/cook-perfect-hot-cross-buns", "apiUrl": "https://content.guardianapis.com/lifeandstyle/wordofmouth/2011/apr/21/cook-perfect-hot-cross-buns", "isHosted": false, "pillarId": "pillar/lifestyle", "pillarName": "Lifestyle"}, {"id": "lifeandstyle/2011/apr/20/roasted-pollack-recipe-angela-hartnett", "type": "article", "sectionId": "food", "sectionName": "Food", "webPublicationDate": "2011-04-20T16:30:01Z", "webTitle": "Roasted pollack with crushed new potatoes and chorizo recipe | Angela Hartnett", "webUrl": "https://www.theguardian.com/lifeandstyle/2011/apr/20/roasted-pollack-recipe-angela-hartnett", "apiUrl": "https://content.guardianapis.com/lifeandstyle/2011/apr/20/roasted-pollack-recipe-angela-hartnett", "isHosted": false, "pillarId": "pillar/lifestyle", "pillarName": "Lifestyle"}, {"id": "lifeandstyle/wordofmouth/2011/apr/20/jersey-food-destination", "type": "article", "sectionId": "lifeandstyle", "sectionName": "Life and style", "webPublicationDate": "2011-04-20T09:50:00Z", "webTitle": "Jersey royals: fit for a king?", "webUrl": "https://www.theguardian.com/lifeandstyle/wordofmouth/2011/apr/20/jersey-food-destination", "apiUrl": "https://content.guardianapis.com/lifeandstyle/wordofmouth/2011/apr/20/jersey-food-destination", "isHosted": false, "pillarId": "pillar/lifestyle", "pillarName": "Lifestyle"}, {"id": "lifeandstyle/2011/apr/20/jersey-no-haven-for-foodies", "type": "article", "sectionId": "food", "sectionName": "Food", "webPublicationDate": "2011-04-20T09:45:00Z", "webTitle": "Jersey: no haven for foodies", "webUrl": "https://www.theguardian.com/lifeandstyle/2011/apr/20/jersey-no-haven-for-foodies", "apiUrl": "https://content.guardianapis.com/lifeandstyle/2011/apr/20/jersey-no-haven-for-foodies", "isHosted": false, "pillarId": "pillar/lifestyle", "pillarName": "Lifestyle"}, {"id": "science/punctuated-equilibrium/2011/apr/20/1", "type": "article", "sectionId": "science", "sectionName": "Science", "webPublicationDate": "2011-04-20T08:18:00Z", "webTitle": "Chemists and physicists take a look at creme eggs | GrrlScientist", "webUrl": "https://www.theguardian.com/science/punctuated-equilibrium/2011/apr/20/1", "apiUrl": "https://content.guardianapis.com/science/punctuated-equilibrium/2011/apr/20/1", "isHosted": false, "pillarId": "pillar/news", "pillarName": "News"}, {"id": "lifeandstyle/2011/apr/19/pierre-celis-obituary", "type": "article", "sectionId": "food", "sectionName": "Food", "webPublicationDate": "2011-04-19T17:45:29Z", "webTitle": "Pierre Celis obituary", "webUrl": "https://www.theguardian.com/lifeandstyle/2011/apr/19/pierre-celis-obituary", "apiUrl": "https://content.guardianapis.com/lifeandstyle/2011/apr/19/pierre-celis-obituary", "isHosted": false, "pillarId": "pillar/lifestyle", "pillarName": "Lifestyle"}, {"id": "commentisfree/2011/apr/19/best-before-label-food", "type": "article", "sectionId": "commentisfree", "sectionName": "Opinion", "webPublicationDate": "2011-04-19T11:30:00Z", "webTitle": "Bin the best-before label, not the food | Mina Holland", "webUrl": "https://www.theguardian.com/commentisfree/2011/apr/19/best-before-label-food", "apiUrl": "https://content.guardianapis.com/commentisfree/2011/apr/19/best-before-label-food", "isHosted": false, "pillarId": "pillar/opinion", "pillarName": "Opinion"}]}}