{"response": {"status": "ok", "userTier": "developer", "total": 20053, "startIndex": 1, "pageSize": 50, "currentPage": 1, "pages": 402, "orderBy": "newest", "results": [{"id": "commentisfree/2014/apr/30/nice-cup-tea-coffee-chains-costa", "type": "article", "sectionId": "commentisfree", "sectionName": "Opinion", "webPublicationDate": "2014-04-30T16:15:02Z", "webTitle": "Nothing beats a nice cup of tea, whatever the coffee chains may concoct | Matthew Adams", "webUrl": "https://www.theguardian.com/commentisfree/2014/apr/30/nice-cup-tea-coffee-chains-costa", "apiUrl": "https://content.guardianapis.com/commentisfree/2014/apr/30/nice-cup-tea-coffee-chains-costa", "isHosted": false, "pillarId": "pillar/opinion", "pillarName": "Opinion"}, {"id": "lifeandstyle/2014/apr/30/green-apps-and-gadgets-conscious-me", "type": "article", "sectionId": "lifeandstyle", "sectionName": "Life and style", "webPublicationDate": "2014-04-30T16:13:20Z", "webTitle": "Green apps and gadgets: Conscious Me", "webUrl": "https://www.theguardian.com/lifeandstyle/2014/apr/30/green-apps-and-gadgets-conscious-me", "apiUrl": "https://content.guardianapis.com/lifeandstyle/2014/apr/30/green-apps-and-gadgets-conscious-me", "isHosted": false, "pillarId": "pillar/lifestyle", "pillarName": "Lifestyle"}, {"id": "lifeandstyle/wordofmouth/2014/apr/30/cronuts-duffins-waffogatos-crossover-desserts", "type": "article", "sectionId": "lifeandstyle", "sectionName": "Life and style", "webPublicationDate": "2014-04-30T15:32:58Z", "webTitle": "Cronuts, duffins \u2013 and now the waffogato", "webUrl": "https://www.theguardian.com/lifeandstyle/wordofmouth/2014/apr/30/cronuts-duffins-waffogatos-crossover-desserts", "apiUrl": "https://content.guardianapis.com/lifeandstyle/wordofmouth/2014/apr/30/cronuts-duffins-waffogatos-crossover-desserts", "isHosted": false, "pillarId": "pillar/lifestyle", "pillarName": "Lifestyle"}, {"id": "lifeandstyle/2014/apr/30/i-ate-wifes-placenta-smoothie-taco-afterbirth", "type": "article", "sectionId": "food", "sectionName": "Food", "webPublicationDate": "2014-04-30T11:58:00Z", "webTitle": "I ate my wife's placenta raw in a smoothie and cooked in a taco", "webUrl": "https://www.theguardian.com/lifeandstyle/2014/apr/30/i-ate-wifes-placenta-smoothie-taco-afterbirth", "apiUrl": "https://content.guardianapis.com/lifeandstyle/2014/apr/30/i-ate-wifes-placenta-smoothie-taco-afterbirth", "isHosted": false, "pillarId": "pillar/lifestyle", "pillarName": "Lifestyle"}, {"id": "global-development-professionals-network/2014/apr/30/nutrition-food-taboos-west-africa", "type": "article", "sectionId": "global-development-professionals-network", "sectionName": "Global Development Professionals Network", "webPublicationDate": "2014-04-30T10:21:00Z", "webTitle": "'Cow will make your baby fat': breaking food taboos in west Africa", "webUrl": "https://www.theguardian.com/global-development-professionals-network/2014/apr/30/nutrition-food-taboos-west-africa", "apiUrl": "https://content.guardianapis.com/global-development-professionals-network/2014/apr/30/nutrition-food-taboos-west-africa", "isHosted": false, "pillarId": "pillar/news", "pillarName": "News"}, {"id": "lifeandstyle/2014/apr/30/jack-monroe-ribollita-recipe-tuscan-soup", "type": "article", "sectionId": "lifeandstyle", "sectionName": "Life and style", "webPublicationDate": "2014-04-30T10:20:08Z", "webTitle": "Jack Monroe's ribollita recipe", "webUrl": "https://www.theguardian.com/lifeandstyle/2014/apr/30/jack-monroe-ribollita-recipe-tuscan-soup", "apiUrl": "https://content.guardianapis.com/lifeandstyle/2014/apr/30/jack-monroe-ribollita-recipe-tuscan-soup", "isHosted": false, "pillarId": "pillar/lifestyle", "pillarName": "Lifestyle"}, {"id": "culture/australia-culture-blog/2014/apr/30/my-kitchen-rules-review", "type": "article", "sectionId": "culture", "sectionName": "Culture", "webPublicationDate": "2014-04-30T02:27:35Z", "webTitle": "My Kitchen Rules \u2013\u00a0review", "webUrl": "https://www.theguardian.com/culture/australia-culture-blog/2014/apr/30/my-kitchen-rules-review", "apiUrl": "https://content.guardianapis.com/culture/australia-culture-blog/2014/apr/30/my-kitchen-rules-review", "isHosted": false, "pillarId": "pillar/arts", "pillarName": "Arts"}, {"id": "lifeandstyle/2014/apr/29/15-recipe-ideas-for-leftover-pasta", "type": "article", "sectionId": "lifeandstyle", "sectionName": "Life and style", "webPublicationDate": "2014-04-29T14:16:40Z", "webTitle": "15 recipe ideas for leftover pasta", "webUrl": "https://www.theguardian.com/lifeandstyle/2014/apr/29/15-recipe-ideas-for-leftover-pasta", "apiUrl": "https://content.guardianapis.com/lifeandstyle/2014/apr/29/15-recipe-ideas-for-leftover-pasta", "isHosted": false, "pillarId": "pillar/lifestyle", "pillarName": "Lifestyle"}, {"id": "lifeandstyle/wordofmouth/2014/apr/29/how-eat-goats-cheese-salad-vegetarian", "type": "article", "sectionId": "lifeandstyle", "sectionName": "Life and style", "webPublicationDate": "2014-04-29T11:15:00Z", "webTitle": "How to eat: goat's cheese salad", "webUrl": "https://www.theguardian.com/lifeandstyle/wordofmouth/2014/apr/29/how-eat-goats-cheese-salad-vegetarian", "apiUrl": "https://content.guardianapis.com/lifeandstyle/wordofmouth/2014/apr/29/how-eat-goats-cheese-salad-vegetarian", "isHosted": false, "pillarId": "pillar/lifestyle", "pillarName": "Lifestyle"}, {"id": "business/2014/apr/29/costa-coffee-profits-whitbread", "type": "article", "sectionId": "business", "sectionName": "Business", "webPublicationDate": "2014-04-29T11:08:14Z", "webTitle": "Costa Coffee profits rise again", "webUrl": "https://www.theguardian.com/business/2014/apr/29/costa-coffee-profits-whitbread", "apiUrl": "https://content.guardianapis.com/business/2014/apr/29/costa-coffee-profits-whitbread", "isHosted": false, "pillarId": "pillar/news", "pillarName": "News"}, {"id": "media/2014/apr/29/bbc-masterchef-cod-scotland-sustainable-fish", "type": "article", "sectionId": "media", "sectionName": "Media", "webPublicationDate": "2014-04-29T09:44:33Z", "webTitle": "BBC's Masterchef battered for 'blacklisting' cod | Media Monkey", "webUrl": "https://www.theguardian.com/media/2014/apr/29/bbc-masterchef-cod-scotland-sustainable-fish", "apiUrl": "https://content.guardianapis.com/media/2014/apr/29/bbc-masterchef-cod-scotland-sustainable-fish", "isHosted": false, "pillarId": "pillar/news", "pillarName": "News"}, {"id": "lifeandstyle/2014/apr/29/world-50-best-restaurants-noma", "type": "article", "sectionId": "food", "sectionName": "Food", "webPublicationDate": "2014-04-29T00:07:15Z", "webTitle": "World's 50 best restaurants list: a menu of predictable names for the food bores", "webUrl": "https://www.theguardian.com/lifeandstyle/2014/apr/29/world-50-best-restaurants-noma", "apiUrl": "https://content.guardianapis.com/lifeandstyle/2014/apr/29/world-50-best-restaurants-noma", "isHosted": false, "pillarId": "pillar/lifestyle", "pillarName": "Lifestyle"}, {"id": "lifeandstyle/wordofmouth/2014/apr/28/top-50-restaurants-worlds-best-el-bulli-noma", "type": "article", "sectionId": "food", "sectionName": "Food", "webPublicationDate": "2014-04-28T11:20:00Z", "webTitle": "'World's best restaurant': is there really such a thing?", "webUrl": "https://www.theguardian.com/lifeandstyle/wordofmouth/2014/apr/28/top-50-restaurants-worlds-best-el-bulli-noma", "apiUrl": "https://content.guardianapis.com/lifeandstyle/wordofmouth/2014/apr/28/top-50-restaurants-worlds-best-el-bulli-noma", "isHosted": false, "pillarId": "pillar/lifestyle", "pillarName": "Lifestyle"}, {"id": "lifeandstyle/wordofmouth/video/2014/apr/28/chefs-table-guilty-food-pleasures-video", "type": "video", "sectionId": "lifeandstyle", "sectionName": "Life and style", "webPublicationDate": "2014-04-28T08:00:00Z", "webTitle": "Top chefs reveal their guilty food pleasures \u2013 video", "webUrl": "https://www.theguardian.com/lifeandstyle/wordofmouth/video/2014/apr/28/chefs-table-guilty-food-pleasures-video", "apiUrl": "https://content.guardianapis.com/lifeandstyle/wordofmouth/video/2014/apr/28/chefs-table-guilty-food-pleasures-video", "isHosted": false, "pillarId": "pillar/lifestyle", "pillarName": "Lifestyle"}, {"id": "travel/2014/apr/27/best-fast-food-in-the-world-winners-of-the-chowzter-awards-2014", "type": "article", "sectionId": "travel", "sectionName": "Travel", "webPublicationDate": "2014-04-27T19:30:00Z", "webTitle": "Winners of the Chowzter tastiest fast feasts in the world awards 2014", "webUrl": "https://www.theguardian.com/travel/2014/apr/27/best-fast-food-in-the-world-winners-of-the-chowzter-awards-2014", "apiUrl": "https://content.guardianapis.com/travel/2014/apr/27/best-fast-food-in-the-world-winners-of-the-chowzter-awards-2014", "isHosted": false, "pillarId": "pillar/lifestyle", "pillarName": "Lifestyle"}, {"id": "travel/shortcuts/2014/apr/27/brazilian-bar-sao-paolo-osama-bin-laden", "type": "article", "sectionId": "travel", "sectionName": "Travel", "webPublicationDate": "2014-04-27T17:00:00Z", "webTitle": "The Brazilian bar where you can buy a beer from Osama bin Laden", "webUrl": "https://www.theguardian.com/travel/shortcuts/2014/apr/27/brazilian-bar-sao-paolo-osama-bin-laden", "apiUrl": "https://content.guardianapis.com/travel/shortcuts/2014/apr/27/brazilian-bar-sao-paolo-osama-bin-laden", "isHosted": false, "pillarId": "pillar/lifestyle", "pillarName": "Lifestyle"}, {"id": "commentisfree/2014/apr/27/artisan-food-shops-how-real-are-they", "type": "article", "sectionId": "commentisfree", "sectionName": "Opinion", "webPublicationDate": "2014-04-27T16:45:01Z", "webTitle": "The new butcher, baker, candlestick maker: just how real are they? | Kathryn Hughes", "webUrl": "https://www.theguardian.com/commentisfree/2014/apr/27/artisan-food-shops-how-real-are-they", "apiUrl": "https://content.guardianapis.com/commentisfree/2014/apr/27/artisan-food-shops-how-real-are-they", "isHosted": false, "pillarId": "pillar/opinion", "pillarName": "Opinion"}, {"id": "lifeandstyle/2014/apr/27/wines-for-japanese-food-david-williams", "type": "article", "sectionId": "food", "sectionName": "Food", "webPublicationDate": "2014-04-27T09:52:00Z", "webTitle": "Wines for Japanese food | David Williams", "webUrl": "https://www.theguardian.com/lifeandstyle/2014/apr/27/wines-for-japanese-food-david-williams", "apiUrl": "https://content.guardianapis.com/lifeandstyle/2014/apr/27/wines-for-japanese-food-david-williams", "isHosted": false, "pillarId": "pillar/lifestyle", "pillarName": "Lifestyle"}, {"id": "lifeandstyle/2014/apr/27/plum-and-spilt-milk-restaurant-review-jay-rayner", "type": "article", "sectionId": "food", "sectionName": "Food", "webPublicationDate": "2014-04-27T06:30:05Z", "webTitle": "Plum and Spilt Milk: restaurant review | Jay Rayner", "webUrl": "https://www.theguardian.com/lifeandstyle/2014/apr/27/plum-and-spilt-milk-restaurant-review-jay-rayner", "apiUrl": "https://content.guardianapis.com/lifeandstyle/2014/apr/27/plum-and-spilt-milk-restaurant-review-jay-rayner", "isHosted": false, "pillarId": "pillar/lifestyle", "pillarName": "Lifestyle"}, {"id": "lifeandstyle/2014/apr/27/fergus-henderson-nature-writes-our-menu-st-john", "type": "article", "sectionId": "food", "sectionName": "Food", "webPublicationDate": "2014-04-26T23:04:00Z", "webTitle": "Feet, glands, shanks, tripe. That's what I like to eat | Fergus Henderson", "webUrl": "https://www.theguardian.com/lifeandstyle/2014/apr/27/fergus-henderson-nature-writes-our-menu-st-john", "apiUrl": "https://content.guardianapis.com/lifeandstyle/2014/apr/27/fergus-henderson-nature-writes-our-menu-st-john", "isHosted": false, "pillarId": "pillar/lifestyle", "pillarName": "Lifestyle"}, {"id": "books/2014/apr/27/morito-cookbook-tortillas-squid-ink-rolls-sam-clark-moro-tapas", "type": "article", "sectionId": "books", "sectionName": "Books", "webPublicationDate": "2014-04-26T23:04:00Z", "webTitle": "The Morito cookbook: tortilla with squid ink rolls, anyone?", "webUrl": "https://www.theguardian.com/books/2014/apr/27/morito-cookbook-tortillas-squid-ink-rolls-sam-clark-moro-tapas", "apiUrl": "https://content.guardianapis.com/books/2014/apr/27/morito-cookbook-tortillas-squid-ink-rolls-sam-clark-moro-tapas", "isHosted": false, "pillarId": "pillar/arts", "pillarName": "Arts"}, {"id": "theobserver/she-said/2014/apr/26/my-dads-ever-shrinking-veg-patch-vegetable-fruit-gardening", "type": "article", "sectionId": "theobserver", "sectionName": "From the Observer", "webPublicationDate": "2014-04-26T08:00:25Z", "webTitle": "My Dad's ever shrinking veg patch", "webUrl": "https://www.theguardian.com/theobserver/she-said/2014/apr/26/my-dads-ever-shrinking-veg-patch-vegetable-fruit-gardening", "apiUrl": "https://content.guardianapis.com/theobserver/she-said/2014/apr/26/my-dads-ever-shrinking-veg-patch-vegetable-fruit-gardening", "isHosted": false, "pillarId": "pillar/news", "pillarName": "News"}, {"id": "lifeandstyle/2014/apr/26/fiona-beckett-wine-beaujolais", "type": "article", "sectionId": "food", "sectionName": "Food", "webPublicationDate": "2014-04-26T08:00:12Z", "webTitle": "Wine: good old bojo", "webUrl": "https://www.theguardian.com/lifeandstyle/2014/apr/26/fiona-beckett-wine-beaujolais", "apiUrl": "https://content.guardianapis.com/lifeandstyle/2014/apr/26/fiona-beckett-wine-beaujolais", "isHosted": false, "pillarId": "pillar/lifestyle", "pillarName": "Lifestyle"}, {"id": "lifeandstyle/2014/apr/26/alys-fowler-variety-key-growing-vegetables", "type": "article", "sectionId": "lifeandstyle", "sectionName": "Life and style", "webPublicationDate": "2014-04-26T07:59:00Z", "webTitle": "Alys Fowler: variety is key when growing vegetables", "webUrl": "https://www.theguardian.com/lifeandstyle/2014/apr/26/alys-fowler-variety-key-growing-vegetables", "apiUrl": "https://content.guardianapis.com/lifeandstyle/2014/apr/26/alys-fowler-variety-key-growing-vegetables", "isHosted": false, "pillarId": "pillar/lifestyle", "pillarName": "Lifestyle"}, {"id": "lifeandstyle/2014/apr/26/glamorous-mother-virginia-plain-grandads-soup", "type": "article", "sectionId": "lifeandstyle", "sectionName": "Life and style", "webPublicationDate": "2014-04-26T06:29:01Z", "webTitle": "Family life: My glamorous mother, Virginia Plain by Roxy Music and Grandad's soup", "webUrl": "https://www.theguardian.com/lifeandstyle/2014/apr/26/glamorous-mother-virginia-plain-grandads-soup", "apiUrl": "https://content.guardianapis.com/lifeandstyle/2014/apr/26/glamorous-mother-virginia-plain-grandads-soup", "isHosted": false, "pillarId": "pillar/lifestyle", "pillarName": "Lifestyle"}, {"id": "lifeandstyle/2014/apr/26/how-to-bake-with-cider-bread-recipes-ruby-tandoh", "type": "article", "sectionId": "lifeandstyle", "sectionName": "Life and style", "webPublicationDate": "2014-04-26T06:00:00Z", "webTitle": "A splash of cider for cakes and bakes | Ruby bakes", "webUrl": "https://www.theguardian.com/lifeandstyle/2014/apr/26/how-to-bake-with-cider-bread-recipes-ruby-tandoh", "apiUrl": "https://content.guardianapis.com/lifeandstyle/2014/apr/26/how-to-bake-with-cider-bread-recipes-ruby-tandoh", "isHosted": false, "pillarId": "pillar/lifestyle", "pillarName": "Lifestyle"}, {"id": "travel/2014/apr/26/giorgio-locatelli-sicily-italy-holiday", "type": "article", "sectionId": "travel", "sectionName": "Travel", "webPublicationDate": "2014-04-26T06:00:00Z", "webTitle": "Giorgio Locatelli's Sicily", "webUrl": "https://www.theguardian.com/travel/2014/apr/26/giorgio-locatelli-sicily-italy-holiday", "apiUrl": "https://content.guardianapis.com/travel/2014/apr/26/giorgio-locatelli-sicily-italy-holiday", "isHosted": false, "pillarId": "pillar/lifestyle", "pillarName": "Lifestyle"}, {"id": "lifeandstyle/2014/apr/26/german-pretzels-vegan-dips-tatort-abendbrot", "type": "article", "sectionId": "lifeandstyle", "sectionName": "Life and style", "webPublicationDate": "2014-04-26T06:00:00Z", "webTitle": "Pretzels and vegan dips for a German TV night with Tatort | Get-togethers", "webUrl": "https://www.theguardian.com/lifeandstyle/2014/apr/26/german-pretzels-vegan-dips-tatort-abendbrot", "apiUrl": "https://content.guardianapis.com/lifeandstyle/2014/apr/26/german-pretzels-vegan-dips-tatort-abendbrot", "isHosted": false, "pillarId": "pillar/lifestyle", "pillarName": "Lifestyle"}, {"id": "lifeandstyle/2014/apr/26/gubbeen-farm-ireland-smoked-chorizo-cured-meat", "type": "article", "sectionId": "lifeandstyle", "sectionName": "Life and style", "webPublicationDate": "2014-04-26T06:00:00Z", "webTitle": "The smoked chorizo made in Ireland | Behind the scenes", "webUrl": "https://www.theguardian.com/lifeandstyle/2014/apr/26/gubbeen-farm-ireland-smoked-chorizo-cured-meat", "apiUrl": "https://content.guardianapis.com/lifeandstyle/2014/apr/26/gubbeen-farm-ireland-smoked-chorizo-cured-meat", "isHosted": false, "pillarId": "pillar/lifestyle", "pillarName": "Lifestyle"}, {"id": "lifeandstyle/2014/apr/26/avocado-recipes-10-best", "type": "article", "sectionId": "lifeandstyle", "sectionName": "Life and style", "webPublicationDate": "2014-04-26T06:00:00Z", "webTitle": "Our 10 best avocado recipes", "webUrl": "https://www.theguardian.com/lifeandstyle/2014/apr/26/avocado-recipes-10-best", "apiUrl": "https://content.guardianapis.com/lifeandstyle/2014/apr/26/avocado-recipes-10-best", "isHosted": false, "pillarId": "pillar/lifestyle", "pillarName": "Lifestyle"}, {"id": "lifeandstyle/2014/apr/26/peanut-recipes-swap-felicity-cloake", "type": "article", "sectionId": "lifeandstyle", "sectionName": "Life and style", "webPublicationDate": "2014-04-26T06:00:00Z", "webTitle": "Readers' recipe swap: Peanuts | Felicity Cloake", "webUrl": "https://www.theguardian.com/lifeandstyle/2014/apr/26/peanut-recipes-swap-felicity-cloake", "apiUrl": "https://content.guardianapis.com/lifeandstyle/2014/apr/26/peanut-recipes-swap-felicity-cloake", "isHosted": false, "pillarId": "pillar/lifestyle", "pillarName": "Lifestyle"}, {"id": "lifeandstyle/2014/apr/26/paris-pastry-club-review-fanny-zanotti-french-patisserie", "type": "article", "sectionId": "lifeandstyle", "sectionName": "Life and style", "webPublicationDate": "2014-04-26T06:00:00Z", "webTitle": "Paris Pastry Club by Fanny Zanotti | Cookworm", "webUrl": "https://www.theguardian.com/lifeandstyle/2014/apr/26/paris-pastry-club-review-fanny-zanotti-french-patisserie", "apiUrl": "https://content.guardianapis.com/lifeandstyle/2014/apr/26/paris-pastry-club-review-fanny-zanotti-french-patisserie", "isHosted": false, "pillarId": "pillar/lifestyle", "pillarName": "Lifestyle"}, {"id": "lifeandstyle/2014/apr/26/how-to-grow-your-own-tomatoes", "type": "article", "sectionId": "lifeandstyle", "sectionName": "Life and style", "webPublicationDate": "2014-04-26T06:00:00Z", "webTitle": "How to grow your own tomatoes | Make your own", "webUrl": "https://www.theguardian.com/lifeandstyle/2014/apr/26/how-to-grow-your-own-tomatoes", "apiUrl": "https://content.guardianapis.com/lifeandstyle/2014/apr/26/how-to-grow-your-own-tomatoes", "isHosted": false, "pillarId": "pillar/lifestyle", "pillarName": "Lifestyle"}, {"id": "lifeandstyle/2014/apr/26/michel-roux-jr-final-meal-bites", "type": "article", "sectionId": "lifeandstyle", "sectionName": "Life and style", "webPublicationDate": "2014-04-26T06:00:00Z", "webTitle": "Michel Roux Jr's final meal | Last bites", "webUrl": "https://www.theguardian.com/lifeandstyle/2014/apr/26/michel-roux-jr-final-meal-bites", "apiUrl": "https://content.guardianapis.com/lifeandstyle/2014/apr/26/michel-roux-jr-final-meal-bites", "isHosted": false, "pillarId": "pillar/lifestyle", "pillarName": "Lifestyle"}, {"id": "lifeandstyle/2014/apr/26/bush-food-finger-limes", "type": "article", "sectionId": "lifeandstyle", "sectionName": "Life and style", "webPublicationDate": "2014-04-26T03:42:52Z", "webTitle": "Bush food: finger limes", "webUrl": "https://www.theguardian.com/lifeandstyle/2014/apr/26/bush-food-finger-limes", "apiUrl": "https://content.guardianapis.com/lifeandstyle/2014/apr/26/bush-food-finger-limes", "isHosted": false, "pillarId": "pillar/lifestyle", "pillarName": "Lifestyle"}, {"id": "lifeandstyle/2014/apr/25/chilli-recipes-thomasina-miers", "type": "article", "sectionId": "food", "sectionName": "Food", "webPublicationDate": "2014-04-25T20:00:00Z", "webTitle": "Some like it hot: Thomasina Miers' chilli recipes", "webUrl": "https://www.theguardian.com/lifeandstyle/2014/apr/25/chilli-recipes-thomasina-miers", "apiUrl": "https://content.guardianapis.com/lifeandstyle/2014/apr/25/chilli-recipes-thomasina-miers", "isHosted": false, "pillarId": "pillar/lifestyle", "pillarName": "Lifestyle"}, {"id": "lifeandstyle/2014/apr/25/roti-king-london-restaurant-review", "type": "article", "sectionId": "lifeandstyle", "sectionName": "Life and style", "webPublicationDate": "2014-04-25T20:00:00Z", "webTitle": "Roti King, London NW1 \u2013 restaurant review | Marina O'Loughlin", "webUrl": "https://www.theguardian.com/lifeandstyle/2014/apr/25/roti-king-london-restaurant-review", "apiUrl": "https://content.guardianapis.com/lifeandstyle/2014/apr/25/roti-king-london-restaurant-review", "isHosted": false, "pillarId": "pillar/lifestyle", "pillarName": "Lifestyle"}, {"id": "lifeandstyle/2014/apr/25/vertical-veg-man-one-pot-wonders-to-plant-now", "type": "article", "sectionId": "lifeandstyle", "sectionName": "Life and style", "webPublicationDate": "2014-04-25T15:54:24Z", "webTitle": "Vertical veg man: one-pot wonders to plant right now", "webUrl": "https://www.theguardian.com/lifeandstyle/2014/apr/25/vertical-veg-man-one-pot-wonders-to-plant-now", "apiUrl": "https://content.guardianapis.com/lifeandstyle/2014/apr/25/vertical-veg-man-one-pot-wonders-to-plant-now", "isHosted": false, "pillarId": "pillar/lifestyle", "pillarName": "Lifestyle"}, {"id": "lifeandstyle/wordofmouth/2014/apr/25/rise-of-the-craft-beer-shop", "type": "article", "sectionId": "food", "sectionName": "Food", "webPublicationDate": "2014-04-25T14:48:00Z", "webTitle": "The rise of the craft beer shop", "webUrl": "https://www.theguardian.com/lifeandstyle/wordofmouth/2014/apr/25/rise-of-the-craft-beer-shop", "apiUrl": "https://content.guardianapis.com/lifeandstyle/wordofmouth/2014/apr/25/rise-of-the-craft-beer-shop", "isHosted": false, "pillarId": "pillar/lifestyle", "pillarName": "Lifestyle"}, {"id": "lifeandstyle/2014/apr/25/tom-kerridge-britain-on-a-plate-ingredients", "type": "article", "sectionId": "food", "sectionName": "Food", "webPublicationDate": "2014-04-25T14:28:00Z", "webTitle": "Britain on a plate | Tom Kerridge", "webUrl": "https://www.theguardian.com/lifeandstyle/2014/apr/25/tom-kerridge-britain-on-a-plate-ingredients", "apiUrl": "https://content.guardianapis.com/lifeandstyle/2014/apr/25/tom-kerridge-britain-on-a-plate-ingredients", "isHosted": false, "pillarId": "pillar/lifestyle", "pillarName": "Lifestyle"}, {"id": "lifeandstyle/video/2014/apr/25/tom-kerridge-smoked-eel-video", "type": "video", "sectionId": "food", "sectionName": "Food", "webPublicationDate": "2014-04-25T14:00:00Z", "webTitle": "\u2018Like the poshest bacon ever' - Tom Kerridge on\u00a0smoked eel and the best of British food - video", "webUrl": "https://www.theguardian.com/lifeandstyle/video/2014/apr/25/tom-kerridge-smoked-eel-video", "apiUrl": "https://content.guardianapis.com/lifeandstyle/video/2014/apr/25/tom-kerridge-smoked-eel-video", "isHosted": false, "pillarId": "pillar/lifestyle", "pillarName": "Lifestyle"}, {"id": "environment/2014/apr/25/china-rare-animal-products-eat-jail-sentences", "type": "article", "sectionId": "environment", "sectionName": "Environment", "webPublicationDate": "2014-04-25T11:30:41Z", "webTitle": "China hopes to take rare animals off the menu with tough jail sentences", "webUrl": "https://www.theguardian.com/environment/2014/apr/25/china-rare-animal-products-eat-jail-sentences", "apiUrl": "https://content.guardianapis.com/environment/2014/apr/25/china-rare-animal-products-eat-jail-sentences", "isHosted": false, "pillarId": "pillar/news", "pillarName": "News"}, {"id": "lifeandstyle/2014/apr/25/dairy-free-rice-pudding-recipe", "type": "article", "sectionId": "lifeandstyle", "sectionName": "Life and style", "webPublicationDate": "2014-04-25T11:30:00Z", "webTitle": "Dairy-free rice\u00a0pudding with warm mango sauce | Just as tasty", "webUrl": "https://www.theguardian.com/lifeandstyle/2014/apr/25/dairy-free-rice-pudding-recipe", "apiUrl": "https://content.guardianapis.com/lifeandstyle/2014/apr/25/dairy-free-rice-pudding-recipe", "isHosted": false, "pillarId": "pillar/lifestyle", "pillarName": "Lifestyle"}, {"id": "lifeandstyle/2014/apr/25/how-to-cook-tinned-food-sardines-recipes-henry-dimbleby", "type": "article", "sectionId": "lifeandstyle", "sectionName": "Life and style", "webPublicationDate": "2014-04-25T11:29:00Z", "webTitle": "How to cook with tinned food | Back to basics", "webUrl": "https://www.theguardian.com/lifeandstyle/2014/apr/25/how-to-cook-tinned-food-sardines-recipes-henry-dimbleby", "apiUrl": "https://content.guardianapis.com/lifeandstyle/2014/apr/25/how-to-cook-tinned-food-sardines-recipes-henry-dimbleby", "isHosted": false, "pillarId": "pillar/lifestyle", "pillarName": "Lifestyle"}, {"id": "lifeandstyle/2014/apr/25/baked-cheesecake-chocolate-easter-egg-biscuit-base-recipe", "type": "article", "sectionId": "lifeandstyle", "sectionName": "Life and style", "webPublicationDate": "2014-04-25T07:00:00Z", "webTitle": "Baked cheesecake with an Easter egg chocolate biscuit base \u2013 recipe", "webUrl": "https://www.theguardian.com/lifeandstyle/2014/apr/25/baked-cheesecake-chocolate-easter-egg-biscuit-base-recipe", "apiUrl": "https://content.guardianapis.com/lifeandstyle/2014/apr/25/baked-cheesecake-chocolate-easter-egg-biscuit-base-recipe", "isHosted": false, "pillarId": "pillar/lifestyle", "pillarName": "Lifestyle"}, {"id": "sustainable-business/asda-food-waste-risk-climate-change", "type": "article", "sectionId": "sustainable-business", "sectionName": "Guardian Sustainable Business", "webPublicationDate": "2014-04-25T06:00:00Z", "webTitle": "Asda: 95% of our fresh produce is already at risk from climate change", "webUrl": "https://www.theguardian.com/sustainable-business/asda-food-waste-risk-climate-change", "apiUrl": "https://content.guardianapis.com/sustainable-business/asda-food-waste-risk-climate-change", "isHosted": false}, {"id": "environment/2014/apr/25/halve-meat-dairy-consumption-slash-emissions-farming", "type": "article", "sectionId": "environment", "sectionName": "Environment", "webPublicationDate": "2014-04-25T05:00:00Z", "webTitle": "Halving meat and dairy consumption could slash farming emissions", "webUrl": "https://www.theguardian.com/environment/2014/apr/25/halve-meat-dairy-consumption-slash-emissions-farming", "apiUrl": "https://content.guardianapis.com/environment/2014/apr/25/halve-meat-dairy-consumption-slash-emissions-farming", "isHosted": false, "pillarId": "pillar/news", "pillarName": "News"}, {"id": "lifeandstyle/2014/apr/25/jamie-oliver-crackdown-junk-food-schools", "type": "article", "sectionId": "food", "sectionName": "Food", "webPublicationDate": "2014-04-24T23:01:06Z", "webTitle": "Jamie Oliver calls for crackdown on junk food being sold near schools", "webUrl": "https://www.theguardian.com/lifeandstyle/2014/apr/25/jamie-oliver-crackdown-junk-food-schools", "apiUrl": "https://content.guardianapis.com/lifeandstyle/2014/apr/25/jamie-oliver-crackdown-junk-food-schools", "isHosted": false, "pillarId": "pillar/lifestyle", "pillarName": "Lifestyle"}, {"id": "commentisfree/2014/apr/24/do-you-feel-european-why", "type": "article", "sectionId": "commentisfree", "sectionName": "Opinion", "webPublicationDate": "2014-04-24T13:05:25Z", "webTitle": "Do you feel European and, if so, why? | Open thread", "webUrl": "https://www.theguardian.com/commentisfree/2014/apr/24/do-you-feel-european-why", "apiUrl": "https://content.guardianapis.com/commentisfree/2014/apr/24/do-you-feel-european-why", "isHosted": false, "pillarId": "pillar/opinion", "pillarName": "Opinion"}, {"id": "lifeandstyle/gallery/2014/apr/24/pink-lady-food-photography-competition-2014-in-pictures", "type": "gallery", "sectionId": "food", "sectionName": "Food", "webPublicationDate": "2014-04-24T12:34:00Z", "webTitle": "Stunning food photography from around the world - in pictures", "webUrl": "https://www.theguardian.com/lifeandstyle/gallery/2014/apr/24/pink-lady-food-photography-competition-2014-in-pictures", "apiUrl": "https://content.guardianapis.com/lifeandstyle/gallery/2014/apr/24/pink-lady-food-photography-competition-2014-in-pictures", "isHosted": false, "pillarId": "pillar/lifestyle", "pillarName": "Lifestyle"}]}}