{"response": {"status": "ok", "userTier": "developer", "total": 124078, "startIndex": 1, "pageSize": 50, "currentPage": 1, "pages": 2482, "orderBy": "newest", "results": [{"id": "politics/2010/apr/30/nick-clegg-interview-liberal-democrats", "type": "article", "sectionId": "politics", "sectionName": "Politics", "webPublicationDate": "2010-04-30T23:40:00Z", "webTitle": "Nick Clegg: 'I like to  think it's a combination  of novelty  and substance'", "webUrl": "https://www.theguardian.com/politics/2010/apr/30/nick-clegg-interview-liberal-democrats", "apiUrl": "https://content.guardianapis.com/politics/2010/apr/30/nick-clegg-interview-liberal-democrats", "isHosted": false, "pillarId": "pillar/news", "pillarName": "News"}, {"id": "theguardian/2010/may/01/simon-hoggart-gordon-brown", "type": "article", "sectionId": "theguardian", "sectionName": "From the Guardian", "webPublicationDate": "2010-04-30T23:36:10Z", "webTitle": "Simon Hoggart's week: hard times for Gordon the penitent pilgrim", "webUrl": "https://www.theguardian.com/theguardian/2010/may/01/simon-hoggart-gordon-brown", "apiUrl": "https://content.guardianapis.com/theguardian/2010/may/01/simon-hoggart-gordon-brown", "isHosted": false, "pillarId": "pillar/news", "pillarName": "News"}, {"id": "culture/2010/may/01/pop-culture-polics-quiz", "type": "article", "sectionId": "culture", "sectionName": "Culture", "webPublicationDate": "2010-04-30T23:30:36Z", "webTitle": "What does David Cameron's speech taste like?", "webUrl": "https://www.theguardian.com/culture/2010/may/01/pop-culture-polics-quiz", "apiUrl": "https://content.guardianapis.com/culture/2010/may/01/pop-culture-polics-quiz", "isHosted": false, "pillarId": "pillar/arts", "pillarName": "Arts"}, {"id": "culture/2010/may/01/chatroulette-election-debate-guardian", "type": "article", "sectionId": "culture", "sectionName": "Culture", "webPublicationDate": "2010-04-30T23:30:28Z", "webTitle": "If you thought that the leaders' debates were revealing, see what happened when we put them on Chatroulette", "webUrl": "https://www.theguardian.com/culture/2010/may/01/chatroulette-election-debate-guardian", "apiUrl": "https://content.guardianapis.com/culture/2010/may/01/chatroulette-election-debate-guardian", "isHosted": false, "pillarId": "pillar/arts", "pillarName": "Arts"}, {"id": "theguardian/2010/may/01/lucy-mangan-this-week", "type": "article", "sectionId": "theguardian", "sectionName": "From the Guardian", "webPublicationDate": "2010-04-30T23:17:51Z", "webTitle": "This week: Anjoum Noorani, Greece and John Bercow", "webUrl": "https://www.theguardian.com/theguardian/2010/may/01/lucy-mangan-this-week", "apiUrl": "https://content.guardianapis.com/theguardian/2010/may/01/lucy-mangan-this-week", "isHosted": false, "pillarId": "pillar/news", "pillarName": "News"}, {"id": "society/2010/may/01/stefan-cross-female-pay-birmingham", "type": "article", "sectionId": "society", "sectionName": "Society", "webPublicationDate": "2010-04-30T23:15:51Z", "webTitle": "The most hated lawyer in Britain", "webUrl": "https://www.theguardian.com/society/2010/may/01/stefan-cross-female-pay-birmingham", "apiUrl": "https://content.guardianapis.com/society/2010/may/01/stefan-cross-female-pay-birmingham", "isHosted": false, "pillarId": "pillar/news", "pillarName": "News"}, {"id": "culture/2010/may/01/chatroulette-mass-debate-election", "type": "article", "sectionId": "culture", "sectionName": "Culture", "webPublicationDate": "2010-04-30T23:08:46Z", "webTitle": "Satire will be the real general election winner", "webUrl": "https://www.theguardian.com/culture/2010/may/01/chatroulette-mass-debate-election", "apiUrl": "https://content.guardianapis.com/culture/2010/may/01/chatroulette-mass-debate-election", "isHosted": false, "pillarId": "pillar/arts", "pillarName": "Arts"}, {"id": "money/2010/may/01/departing-mps-house-of-commons", "type": "article", "sectionId": "money", "sectionName": "Money", "webPublicationDate": "2010-04-30T23:00:01Z", "webTitle": "Departing MPs struggle to adapt", "webUrl": "https://www.theguardian.com/money/2010/may/01/departing-mps-house-of-commons", "apiUrl": "https://content.guardianapis.com/money/2010/may/01/departing-mps-house-of-commons", "isHosted": false, "pillarId": "pillar/lifestyle", "pillarName": "Lifestyle"}, {"id": "politics/video/2010/apr/30/general-election-2010-peter-mandelson", "type": "video", "sectionId": "politics", "sectionName": "Politics", "webPublicationDate": "2010-04-30T22:50:00Z", "webTitle": "Video: Steve Bell's election: Mandy the studied performer", "webUrl": "https://www.theguardian.com/politics/video/2010/apr/30/general-election-2010-peter-mandelson", "apiUrl": "https://content.guardianapis.com/politics/video/2010/apr/30/general-election-2010-peter-mandelson", "isHosted": false, "pillarId": "pillar/news", "pillarName": "News"}, {"id": "politics/2010/apr/30/car-crash-labour", "type": "article", "sectionId": "politics", "sectionName": "Politics", "webPublicationDate": "2010-04-30T22:43:00Z", "webTitle": "Car crash politics: Labour hunkers down for last week of campaigning", "webUrl": "https://www.theguardian.com/politics/2010/apr/30/car-crash-labour", "apiUrl": "https://content.guardianapis.com/politics/2010/apr/30/car-crash-labour", "isHosted": false, "pillarId": "pillar/news", "pillarName": "News"}, {"id": "education/2010/apr/30/test-boycott-headteachers-pay-docked", "type": "article", "sectionId": "education", "sectionName": "Education", "webPublicationDate": "2010-04-30T21:03:12Z", "webTitle": "Headteachers could have pay docked if they boycott tests", "webUrl": "https://www.theguardian.com/education/2010/apr/30/test-boycott-headteachers-pay-docked", "apiUrl": "https://content.guardianapis.com/education/2010/apr/30/test-boycott-headteachers-pay-docked", "isHosted": false, "pillarId": "pillar/news", "pillarName": "News"}, {"id": "books/2010/apr/30/nick-clegg-my-hero-samuel-beckett", "type": "article", "sectionId": "books", "sectionName": "Books", "webPublicationDate": "2010-04-30T21:00:01Z", "webTitle": "Nick Clegg: My hero Samuel Beckett", "webUrl": "https://www.theguardian.com/books/2010/apr/30/nick-clegg-my-hero-samuel-beckett", "apiUrl": "https://content.guardianapis.com/books/2010/apr/30/nick-clegg-my-hero-samuel-beckett", "isHosted": false, "pillarId": "pillar/arts", "pillarName": "Arts"}, {"id": "politics/gallery/2010/apr/30/nick-clegg-campaign-trail", "type": "gallery", "sectionId": "politics", "sectionName": "Politics", "webPublicationDate": "2010-04-30T20:24:19Z", "webTitle": "On the campaign trail with Nick Clegg", "webUrl": "https://www.theguardian.com/politics/gallery/2010/apr/30/nick-clegg-campaign-trail", "apiUrl": "https://content.guardianapis.com/politics/gallery/2010/apr/30/nick-clegg-campaign-trail", "isHosted": false, "pillarId": "pillar/news", "pillarName": "News"}, {"id": "politics/2010/apr/30/car-crash-labour-poster-campaign", "type": "article", "sectionId": "politics", "sectionName": "Politics", "webPublicationDate": "2010-04-30T19:25:09Z", "webTitle": "Car crash interrupts Labour campaign", "webUrl": "https://www.theguardian.com/politics/2010/apr/30/car-crash-labour-poster-campaign", "apiUrl": "https://content.guardianapis.com/politics/2010/apr/30/car-crash-labour-poster-campaign", "isHosted": false, "pillarId": "pillar/news", "pillarName": "News"}, {"id": "politics/2010/apr/30/zoe-williams-armchair-election-conservatives", "type": "article", "sectionId": "politics", "sectionName": "Politics", "webPublicationDate": "2010-04-30T18:12:32Z", "webTitle": "Zoe Williams's armchair election: Strategies for coping with a Tory victory", "webUrl": "https://www.theguardian.com/politics/2010/apr/30/zoe-williams-armchair-election-conservatives", "apiUrl": "https://content.guardianapis.com/politics/2010/apr/30/zoe-williams-armchair-election-conservatives", "isHosted": false, "pillarId": "pillar/news", "pillarName": "News"}, {"id": "politics/2010/apr/30/election-brown-sue-nye-profile", "type": "article", "sectionId": "politics", "sectionName": "Politics", "webPublicationDate": "2010-04-30T17:52:06Z", "webTitle": "Profile: Sue Nye, the gatekeeper at Gordon Brown's side", "webUrl": "https://www.theguardian.com/politics/2010/apr/30/election-brown-sue-nye-profile", "apiUrl": "https://content.guardianapis.com/politics/2010/apr/30/election-brown-sue-nye-profile", "isHosted": false, "pillarId": "pillar/news", "pillarName": "News"}, {"id": "commentisfree/2010/apr/30/the-liberal-moment-has-come", "type": "article", "sectionId": "commentisfree", "sectionName": "Opinion", "webPublicationDate": "2010-04-30T17:43:35Z", "webTitle": "General election 2010: The liberal moment has come", "webUrl": "https://www.theguardian.com/commentisfree/2010/apr/30/the-liberal-moment-has-come", "apiUrl": "https://content.guardianapis.com/commentisfree/2010/apr/30/the-liberal-moment-has-come", "isHosted": false, "pillarId": "pillar/opinion", "pillarName": "Opinion"}, {"id": "media/mediamonkeyblog/2010/apr/30/gordon-brown-bigot-sky-news", "type": "article", "sectionId": "media", "sectionName": "Media", "webPublicationDate": "2010-04-30T16:53:34Z", "webTitle": "Bigotgate: Gordon Brown passes the mic back | Media Monkey", "webUrl": "https://www.theguardian.com/media/mediamonkeyblog/2010/apr/30/gordon-brown-bigot-sky-news", "apiUrl": "https://content.guardianapis.com/media/mediamonkeyblog/2010/apr/30/gordon-brown-bigot-sky-news", "isHosted": false, "pillarId": "pillar/news", "pillarName": "News"}, {"id": "politics/2010/apr/30/tony-blair-campaigns-labour-harrow", "type": "article", "sectionId": "politics", "sectionName": "Politics", "webPublicationDate": "2010-04-30T16:47:38Z", "webTitle": "Tony Blair's tan brings much-needed glow to Labour on the road", "webUrl": "https://www.theguardian.com/politics/2010/apr/30/tony-blair-campaigns-labour-harrow", "apiUrl": "https://content.guardianapis.com/politics/2010/apr/30/tony-blair-campaigns-labour-harrow", "isHosted": false, "pillarId": "pillar/news", "pillarName": "News"}, {"id": "uk/2010/apr/30/rupert-thorneloe-death-afghanistan-inquest", "type": "article", "sectionId": "uk-news", "sectionName": "UK news", "webPublicationDate": "2010-04-30T16:40:57Z", "webTitle": "Rupert Thorneloe was unlawfully killed in Afghanistan, inquest finds", "webUrl": "https://www.theguardian.com/uk/2010/apr/30/rupert-thorneloe-death-afghanistan-inquest", "apiUrl": "https://content.guardianapis.com/uk/2010/apr/30/rupert-thorneloe-death-afghanistan-inquest", "isHosted": false, "pillarId": "pillar/news", "pillarName": "News"}, {"id": "politics/2010/apr/30/david-cameron-troops-afghanistan-withdrawal", "type": "article", "sectionId": "politics", "sectionName": "Politics", "webPublicationDate": "2010-04-30T16:28:15Z", "webTitle": "Cameron set on Afghanistan withdrawal in next parliament", "webUrl": "https://www.theguardian.com/politics/2010/apr/30/david-cameron-troops-afghanistan-withdrawal", "apiUrl": "https://content.guardianapis.com/politics/2010/apr/30/david-cameron-troops-afghanistan-withdrawal", "isHosted": false, "pillarId": "pillar/news", "pillarName": "News"}, {"id": "commentisfree/2010/apr/30/colombia-antanas-mockus-green", "type": "article", "sectionId": "commentisfree", "sectionName": "Opinion", "webPublicationDate": "2010-04-30T16:00:01Z", "webTitle": "Green regeneration in Colombia | Henry Mance", "webUrl": "https://www.theguardian.com/commentisfree/2010/apr/30/colombia-antanas-mockus-green", "apiUrl": "https://content.guardianapis.com/commentisfree/2010/apr/30/colombia-antanas-mockus-green", "isHosted": false, "pillarId": "pillar/opinion", "pillarName": "Opinion"}, {"id": "politics/2010/apr/30/north-down-election-northern-ireland", "type": "article", "sectionId": "politics", "sectionName": "Politics", "webPublicationDate": "2010-04-30T15:41:32Z", "webTitle": "Election 2010: In North Down, Tories take on lady who was not for turning", "webUrl": "https://www.theguardian.com/politics/2010/apr/30/north-down-election-northern-ireland", "apiUrl": "https://content.guardianapis.com/politics/2010/apr/30/north-down-election-northern-ireland", "isHosted": false, "pillarId": "pillar/news", "pillarName": "News"}, {"id": "politics/blog/2010/apr/30/battersea-election-london", "type": "article", "sectionId": "politics", "sectionName": "Politics", "webPublicationDate": "2010-04-30T15:30:06Z", "webTitle": "Up the junction in Battersea", "webUrl": "https://www.theguardian.com/politics/blog/2010/apr/30/battersea-election-london", "apiUrl": "https://content.guardianapis.com/politics/blog/2010/apr/30/battersea-election-london", "isHosted": false, "pillarId": "pillar/news", "pillarName": "News"}, {"id": "commentisfree/2010/apr/30/election-2010-labour-lib-dems-coalition", "type": "article", "sectionId": "commentisfree", "sectionName": "Opinion", "webPublicationDate": "2010-04-30T14:28:35Z", "webTitle": "Election 2010: Why the centre-left dilemma just got more frustrating | Renard Sexton", "webUrl": "https://www.theguardian.com/commentisfree/2010/apr/30/election-2010-labour-lib-dems-coalition", "apiUrl": "https://content.guardianapis.com/commentisfree/2010/apr/30/election-2010-labour-lib-dems-coalition", "isHosted": false, "pillarId": "pillar/opinion", "pillarName": "Opinion"}, {"id": "politics/wintour-and-watt/2010/apr/30/tonyblair-general-election-2010", "type": "article", "sectionId": "politics", "sectionName": "Politics", "webPublicationDate": "2010-04-30T14:23:16Z", "webTitle": "What does Blair think of Brown and Labour now? | Nicholas Watt", "webUrl": "https://www.theguardian.com/politics/wintour-and-watt/2010/apr/30/tonyblair-general-election-2010", "apiUrl": "https://content.guardianapis.com/politics/wintour-and-watt/2010/apr/30/tonyblair-general-election-2010", "isHosted": false, "pillarId": "pillar/news", "pillarName": "News"}, {"id": "commentisfree/2010/apr/30/oil-spill-bp", "type": "article", "sectionId": "commentisfree", "sectionName": "Opinion", "webPublicationDate": "2010-04-30T14:03:47Z", "webTitle": "Oil spill is BP's wake-up call | John Sauven", "webUrl": "https://www.theguardian.com/commentisfree/2010/apr/30/oil-spill-bp", "apiUrl": "https://content.guardianapis.com/commentisfree/2010/apr/30/oil-spill-bp", "isHosted": false, "pillarId": "pillar/opinion", "pillarName": "Opinion"}, {"id": "world/audio/2010/apr/30/guardian-election-daily-podcast1", "type": "audio", "sectionId": "world", "sectionName": "World news", "webPublicationDate": "2010-04-30T14:01:00Z", "webTitle": "Guardian Election Daily: The endgame", "webUrl": "https://www.theguardian.com/world/audio/2010/apr/30/guardian-election-daily-podcast1", "apiUrl": "https://content.guardianapis.com/world/audio/2010/apr/30/guardian-election-daily-podcast1", "isHosted": false, "pillarId": "pillar/news", "pillarName": "News"}, {"id": "politics/2010/apr/30/northern-ireland-election-terror-alert", "type": "article", "sectionId": "politics", "sectionName": "Politics", "webPublicationDate": "2010-04-30T13:47:45Z", "webTitle": "Election terror alert: Northern Ireland police step up security on streets", "webUrl": "https://www.theguardian.com/politics/2010/apr/30/northern-ireland-election-terror-alert", "apiUrl": "https://content.guardianapis.com/politics/2010/apr/30/northern-ireland-election-terror-alert", "isHosted": false, "pillarId": "pillar/news", "pillarName": "News"}, {"id": "news/datablog/2010/apr/30/election-2010-deficit-information-beautiful", "type": "article", "sectionId": "society", "sectionName": "Society", "webPublicationDate": "2010-04-30T13:42:44Z", "webTitle": "Information is Beautiful on election 2010: Can they cut it? (The deficit, that is)", "webUrl": "https://www.theguardian.com/news/datablog/2010/apr/30/election-2010-deficit-information-beautiful", "apiUrl": "https://content.guardianapis.com/news/datablog/2010/apr/30/election-2010-deficit-information-beautiful", "isHosted": false, "pillarId": "pillar/news", "pillarName": "News"}, {"id": "politics/2010/apr/30/tony-blair-election-tory-jokes", "type": "article", "sectionId": "politics", "sectionName": "Politics", "webPublicationDate": "2010-04-30T13:37:25Z", "webTitle": "Tony Blair offers cool support to troubled Labour campaign", "webUrl": "https://www.theguardian.com/politics/2010/apr/30/tony-blair-election-tory-jokes", "apiUrl": "https://content.guardianapis.com/politics/2010/apr/30/tony-blair-election-tory-jokes", "isHosted": false, "pillarId": "pillar/news", "pillarName": "News"}, {"id": "commentisfree/2010/apr/30/nick-clegg-snooker-sheffield", "type": "article", "sectionId": "commentisfree", "sectionName": "Opinion", "webPublicationDate": "2010-04-30T13:29:14Z", "webTitle": "Nick Clegg: is he snookered behind the Brown? | Open thread", "webUrl": "https://www.theguardian.com/commentisfree/2010/apr/30/nick-clegg-snooker-sheffield", "apiUrl": "https://content.guardianapis.com/commentisfree/2010/apr/30/nick-clegg-snooker-sheffield", "isHosted": false, "pillarId": "pillar/opinion", "pillarName": "Opinion"}, {"id": "commentisfree/2010/apr/30/tories-gay-rights-warsaw-europride", "type": "article", "sectionId": "commentisfree", "sectionName": "Opinion", "webPublicationDate": "2010-04-30T12:23:44Z", "webTitle": "The Tories are embracing gay rights | Nick Herbert", "webUrl": "https://www.theguardian.com/commentisfree/2010/apr/30/tories-gay-rights-warsaw-europride", "apiUrl": "https://content.guardianapis.com/commentisfree/2010/apr/30/tories-gay-rights-warsaw-europride", "isHosted": false, "pillarId": "pillar/opinion", "pillarName": "Opinion"}, {"id": "politics/2010/apr/30/liberal-democrats-lack-women", "type": "article", "sectionId": "politics", "sectionName": "Politics", "webPublicationDate": "2010-04-30T12:23:38Z", "webTitle": "Liberal Democrats trail far behind in number of women in top ranks", "webUrl": "https://www.theguardian.com/politics/2010/apr/30/liberal-democrats-lack-women", "apiUrl": "https://content.guardianapis.com/politics/2010/apr/30/liberal-democrats-lack-women", "isHosted": false, "pillarId": "pillar/news", "pillarName": "News"}, {"id": "politics/blog/2010/apr/30/tony-blair-labour-cleggmania-michael-white", "type": "article", "sectionId": "politics", "sectionName": "Politics", "webPublicationDate": "2010-04-30T12:09:23Z", "webTitle": "Tony Blair's back. But it's too late for Labour | Michael White", "webUrl": "https://www.theguardian.com/politics/blog/2010/apr/30/tony-blair-labour-cleggmania-michael-white", "apiUrl": "https://content.guardianapis.com/politics/blog/2010/apr/30/tony-blair-labour-cleggmania-michael-white", "isHosted": false, "pillarId": "pillar/news", "pillarName": "News"}, {"id": "society/joepublic/2010/apr/30/mental-health-cash-cuts-election", "type": "article", "sectionId": "society", "sectionName": "Society", "webPublicationDate": "2010-04-30T11:31:10Z", "webTitle": "Mental health services need cash, not cuts", "webUrl": "https://www.theguardian.com/society/joepublic/2010/apr/30/mental-health-cash-cuts-election", "apiUrl": "https://content.guardianapis.com/society/joepublic/2010/apr/30/mental-health-cash-cuts-election", "isHosted": false, "pillarId": "pillar/news", "pillarName": "News"}, {"id": "politics/2010/apr/30/banks-g20-new-rules-holding-capital-uk-recession", "type": "article", "sectionId": "politics", "sectionName": "Politics", "webPublicationDate": "2010-04-30T11:30:00Z", "webTitle": "Banks tell G20 new rules on holding capital could push UK back into recession", "webUrl": "https://www.theguardian.com/politics/2010/apr/30/banks-g20-new-rules-holding-capital-uk-recession", "apiUrl": "https://content.guardianapis.com/politics/2010/apr/30/banks-g20-new-rules-holding-capital-uk-recession", "isHosted": false, "pillarId": "pillar/news", "pillarName": "News"}, {"id": "politics/blog/2010/apr/30/gillian-duffy-gordon-brown", "type": "article", "sectionId": "politics", "sectionName": "Politics", "webPublicationDate": "2010-04-30T11:07:19Z", "webTitle": "#Iloveimmigrants \u2013 the transatlantic political hashtag", "webUrl": "https://www.theguardian.com/politics/blog/2010/apr/30/gillian-duffy-gordon-brown", "apiUrl": "https://content.guardianapis.com/politics/blog/2010/apr/30/gillian-duffy-gordon-brown", "isHosted": false, "pillarId": "pillar/news", "pillarName": "News"}, {"id": "politics/audio/2010/apr/30/general-election-2010", "type": "audio", "sectionId": "politics", "sectionName": "Politics", "webPublicationDate": "2010-04-30T10:55:41Z", "webTitle": "General election 2010: car crash at Labour event", "webUrl": "https://www.theguardian.com/politics/audio/2010/apr/30/general-election-2010", "apiUrl": "https://content.guardianapis.com/politics/audio/2010/apr/30/general-election-2010", "isHosted": false, "pillarId": "pillar/news", "pillarName": "News"}, {"id": "commentisfree/2010/apr/30/leaders-efficiency-spending-cut", "type": "article", "sectionId": "commentisfree", "sectionName": "Opinion", "webPublicationDate": "2010-04-30T10:37:23Z", "webTitle": "Party leaders are wasting our time with their talk of efficiency | Giles Wilkes", "webUrl": "https://www.theguardian.com/commentisfree/2010/apr/30/leaders-efficiency-spending-cut", "apiUrl": "https://content.guardianapis.com/commentisfree/2010/apr/30/leaders-efficiency-spending-cut", "isHosted": false, "pillarId": "pillar/opinion", "pillarName": "Opinion"}, {"id": "environment/blog/2010/apr/29/green-election-miliband-armstrong-roadshow", "type": "article", "sectionId": "environment", "sectionName": "Environment", "webPublicationDate": "2010-04-30T10:32:43Z", "webTitle": "Live blog: Ed Miliband and Franny Armstrong's green election road-trip", "webUrl": "https://www.theguardian.com/environment/blog/2010/apr/29/green-election-miliband-armstrong-roadshow", "apiUrl": "https://content.guardianapis.com/environment/blog/2010/apr/29/green-election-miliband-armstrong-roadshow", "isHosted": false, "pillarId": "pillar/news", "pillarName": "News"}, {"id": "commentisfree/2010/apr/30/election-debate-big-question", "type": "article", "sectionId": "commentisfree", "sectionName": "Opinion", "webPublicationDate": "2010-04-30T09:50:58Z", "webTitle": "No party has a mandate on cuts \u2013 because none has provided detail | Seumas Milne", "webUrl": "https://www.theguardian.com/commentisfree/2010/apr/30/election-debate-big-question", "apiUrl": "https://content.guardianapis.com/commentisfree/2010/apr/30/election-debate-big-question", "isHosted": false, "pillarId": "pillar/opinion", "pillarName": "Opinion"}, {"id": "lifeandstyle/audio/2010/apr/30/family-podcast-leaders-wives", "type": "audio", "sectionId": "lifeandstyle", "sectionName": "Life and style", "webPublicationDate": "2010-04-30T09:40:00Z", "webTitle": "The Family Podcast: Leaders' wives, pecking orders and teenage love", "webUrl": "https://www.theguardian.com/lifeandstyle/audio/2010/apr/30/family-podcast-leaders-wives", "apiUrl": "https://content.guardianapis.com/lifeandstyle/audio/2010/apr/30/family-podcast-leaders-wives", "isHosted": false, "pillarId": "pillar/lifestyle", "pillarName": "Lifestyle"}, {"id": "politics/blog/2010/apr/30/david-cameron-mayor-carcetti-the-wire-speech", "type": "article", "sectionId": "politics", "sectionName": "Politics", "webPublicationDate": "2010-04-30T09:31:52Z", "webTitle": "So David Cameron does watch The Wire \u2013 debate speech seems modelled on Mayor Carcetti's | Paul Owen", "webUrl": "https://www.theguardian.com/politics/blog/2010/apr/30/david-cameron-mayor-carcetti-the-wire-speech", "apiUrl": "https://content.guardianapis.com/politics/blog/2010/apr/30/david-cameron-mayor-carcetti-the-wire-speech", "isHosted": false, "pillarId": "pillar/news", "pillarName": "News"}, {"id": "media/2010/apr/30/leaders-debate-tv-ratings", "type": "article", "sectionId": "media", "sectionName": "Media", "webPublicationDate": "2010-04-30T09:24:10Z", "webTitle": "TV ratings - 29 April: Leaders' debate draws 8.4 million viewers", "webUrl": "https://www.theguardian.com/media/2010/apr/30/leaders-debate-tv-ratings", "apiUrl": "https://content.guardianapis.com/media/2010/apr/30/leaders-debate-tv-ratings", "isHosted": false, "pillarId": "pillar/news", "pillarName": "News"}, {"id": "politics/blog/2010/apr/30/savings-scrapping-trident-negligible-snp", "type": "article", "sectionId": "politics", "sectionName": "Politics", "webPublicationDate": "2010-04-30T09:22:44Z", "webTitle": "Savings from scrapping Trident would be negligible | Severin Carrell", "webUrl": "https://www.theguardian.com/politics/blog/2010/apr/30/savings-scrapping-trident-negligible-snp", "apiUrl": "https://content.guardianapis.com/politics/blog/2010/apr/30/savings-scrapping-trident-negligible-snp", "isHosted": false, "pillarId": "pillar/news", "pillarName": "News"}, {"id": "politics/2010/apr/30/tv-debate-tax-battleground-leaders", "type": "article", "sectionId": "politics", "sectionName": "Politics", "webPublicationDate": "2010-04-30T08:00:03Z", "webTitle": "TV debate: tax the battleground as leaders go on offensive for last time", "webUrl": "https://www.theguardian.com/politics/2010/apr/30/tv-debate-tax-battleground-leaders", "apiUrl": "https://content.guardianapis.com/politics/2010/apr/30/tv-debate-tax-battleground-leaders", "isHosted": false, "pillarId": "pillar/news", "pillarName": "News"}, {"id": "politics/2010/apr/30/election-hustings-tunbridge-wells", "type": "article", "sectionId": "politics", "sectionName": "Politics", "webPublicationDate": "2010-04-30T08:00:01Z", "webTitle": "Tunbridge Wells hustings: disgusted, prosperous and true blue", "webUrl": "https://www.theguardian.com/politics/2010/apr/30/election-hustings-tunbridge-wells", "apiUrl": "https://content.guardianapis.com/politics/2010/apr/30/election-hustings-tunbridge-wells", "isHosted": false, "pillarId": "pillar/news", "pillarName": "News"}, {"id": "science/2010/apr/29/leaders-debate-naked-politician", "type": "article", "sectionId": "science", "sectionName": "Science", "webPublicationDate": "2010-04-30T07:13:53Z", "webTitle": "Leaders' debate: The naked politician | Carole Jahme exposes the leaders' inner ape", "webUrl": "https://www.theguardian.com/science/2010/apr/29/leaders-debate-naked-politician", "apiUrl": "https://content.guardianapis.com/science/2010/apr/29/leaders-debate-naked-politician", "isHosted": false, "pillarId": "pillar/news", "pillarName": "News"}, {"id": "education/2010/apr/30/ofsted-school-inspections-inspectors-banished", "type": "article", "sectionId": "education", "sectionName": "Education", "webPublicationDate": "2010-04-30T07:05:01Z", "webTitle": "Banish inspectors from schools, urges teacher", "webUrl": "https://www.theguardian.com/education/2010/apr/30/ofsted-school-inspections-inspectors-banished", "apiUrl": "https://content.guardianapis.com/education/2010/apr/30/ofsted-school-inspections-inspectors-banished", "isHosted": false, "pillarId": "pillar/news", "pillarName": "News"}]}}