{"response": {"status": "ok", "userTier": "developer", "total": 131817, "startIndex": 1, "pageSize": 50, "currentPage": 1, "pages": 2637, "orderBy": "newest", "results": [{"id": "commentisfree/2011/may/01/andrew-rawnsley-av-winner", "type": "article", "sectionId": "commentisfree", "sectionName": "Opinion", "webPublicationDate": "2011-04-30T23:07:06Z", "webTitle": "Which party leader will be happy on Thursday? It may surprise you | Andrew Rawnsley", "webUrl": "https://www.theguardian.com/commentisfree/2011/may/01/andrew-rawnsley-av-winner", "apiUrl": "https://content.guardianapis.com/commentisfree/2011/may/01/andrew-rawnsley-av-winner", "isHosted": false, "pillarId": "pillar/opinion", "pillarName": "Opinion"}, {"id": "commentisfree/2011/may/01/observer-editorial-av-democracy-vote", "type": "article", "sectionId": "commentisfree", "sectionName": "Opinion", "webPublicationDate": "2011-04-30T23:06:23Z", "webTitle": "A golden opportunity to revive democracy | Observer editorial", "webUrl": "https://www.theguardian.com/commentisfree/2011/may/01/observer-editorial-av-democracy-vote", "apiUrl": "https://content.guardianapis.com/commentisfree/2011/may/01/observer-editorial-av-democracy-vote", "isHosted": false, "pillarId": "pillar/opinion", "pillarName": "Opinion"}, {"id": "politics/2011/may/01/david-cameron-calm-down-dear", "type": "article", "sectionId": "politics", "sectionName": "Politics", "webPublicationDate": "2011-04-30T23:06:08Z", "webTitle": "David Cameron's 'calm down, dear' tarnishes the new Tory brand", "webUrl": "https://www.theguardian.com/politics/2011/may/01/david-cameron-calm-down-dear", "apiUrl": "https://content.guardianapis.com/politics/2011/may/01/david-cameron-calm-down-dear", "isHosted": false, "pillarId": "pillar/news", "pillarName": "News"}, {"id": "politics/2011/may/01/liberal-democrats-coalition-local-elections", "type": "article", "sectionId": "politics", "sectionName": "Politics", "webPublicationDate": "2011-04-30T23:06:00Z", "webTitle": "Liberal Democrats try not to blink at the threat of a thrashing", "webUrl": "https://www.theguardian.com/politics/2011/may/01/liberal-democrats-coalition-local-elections", "apiUrl": "https://content.guardianapis.com/politics/2011/may/01/liberal-democrats-coalition-local-elections", "isHosted": false, "pillarId": "pillar/news", "pillarName": "News"}, {"id": "business/2011/may/01/springtime-economy-isnt-blooming", "type": "article", "sectionId": "business", "sectionName": "Business", "webPublicationDate": "2011-04-30T23:05:38Z", "webTitle": "It's springtime, but the economy is hardly blooming", "webUrl": "https://www.theguardian.com/business/2011/may/01/springtime-economy-isnt-blooming", "apiUrl": "https://content.guardianapis.com/business/2011/may/01/springtime-economy-isnt-blooming", "isHosted": false, "pillarId": "pillar/news", "pillarName": "News"}, {"id": "commentisfree/2011/may/01/av-referendum-huhne-lucas-denham", "type": "article", "sectionId": "commentisfree", "sectionName": "Opinion", "webPublicationDate": "2011-04-30T23:05:00Z", "webTitle": "AV referendum: why progressives must unite to vote yes", "webUrl": "https://www.theguardian.com/commentisfree/2011/may/01/av-referendum-huhne-lucas-denham", "apiUrl": "https://content.guardianapis.com/commentisfree/2011/may/01/av-referendum-huhne-lucas-denham", "isHosted": false, "pillarId": "pillar/opinion", "pillarName": "Opinion"}, {"id": "commentisfree/2011/may/01/catherine-bennett-calm-down-cameron", "type": "article", "sectionId": "commentisfree", "sectionName": "Opinion", "webPublicationDate": "2011-04-30T23:04:09Z", "webTitle": "Mr Cameron, the doctor will see you now. Simples | Catherine Bennett", "webUrl": "https://www.theguardian.com/commentisfree/2011/may/01/catherine-bennett-calm-down-cameron", "apiUrl": "https://content.guardianapis.com/commentisfree/2011/may/01/catherine-bennett-calm-down-cameron", "isHosted": false, "pillarId": "pillar/opinion", "pillarName": "Opinion"}, {"id": "media/2011/may/01/scotland-devolution-newspapers-press-comment", "type": "article", "sectionId": "media", "sectionName": "Media", "webPublicationDate": "2011-04-30T23:04:07Z", "webTitle": "Devolution did not Herald a Scottish media renaissance", "webUrl": "https://www.theguardian.com/media/2011/may/01/scotland-devolution-newspapers-press-comment", "apiUrl": "https://content.guardianapis.com/media/2011/may/01/scotland-devolution-newspapers-press-comment", "isHosted": false, "pillarId": "pillar/news", "pillarName": "News"}, {"id": "commentisfree/2011/may/01/will-hutton-vote-yes-for-av", "type": "article", "sectionId": "commentisfree", "sectionName": "Opinion", "webPublicationDate": "2011-04-30T23:03:00Z", "webTitle": "Don't be naive about the brutal desire driving the Tories' lust for power | Will Hutton", "webUrl": "https://www.theguardian.com/commentisfree/2011/may/01/will-hutton-vote-yes-for-av", "apiUrl": "https://content.guardianapis.com/commentisfree/2011/may/01/will-hutton-vote-yes-for-av", "isHosted": false, "pillarId": "pillar/opinion", "pillarName": "Opinion"}, {"id": "politics/2011/may/01/nick-clegg-andrew-rawnsley-interview", "type": "article", "sectionId": "politics", "sectionName": "Politics", "webPublicationDate": "2011-04-30T23:02:00Z", "webTitle": "Nick Clegg interview: A year in the eye of the storm", "webUrl": "https://www.theguardian.com/politics/2011/may/01/nick-clegg-andrew-rawnsley-interview", "apiUrl": "https://content.guardianapis.com/politics/2011/may/01/nick-clegg-andrew-rawnsley-interview", "isHosted": false, "pillarId": "pillar/news", "pillarName": "News"}, {"id": "education/2011/apr/30/facebook-bullying-headteachers-rise-poll", "type": "article", "sectionId": "education", "sectionName": "Education", "webPublicationDate": "2011-04-30T20:32:42Z", "webTitle": "Facebook bullying of headteachers on rise, says poll", "webUrl": "https://www.theguardian.com/education/2011/apr/30/facebook-bullying-headteachers-rise-poll", "apiUrl": "https://content.guardianapis.com/education/2011/apr/30/facebook-bullying-headteachers-rise-poll", "isHosted": false, "pillarId": "pillar/news", "pillarName": "News"}, {"id": "politics/2011/apr/30/cabinet-war-liberal-democrat-pact", "type": "article", "sectionId": "politics", "sectionName": "Politics", "webPublicationDate": "2011-04-30T20:00:01Z", "webTitle": "Cabinet at war over Liberal Democrat call for pact to beat Tories", "webUrl": "https://www.theguardian.com/politics/2011/apr/30/cabinet-war-liberal-democrat-pact", "apiUrl": "https://content.guardianapis.com/politics/2011/apr/30/cabinet-war-liberal-democrat-pact", "isHosted": false, "pillarId": "pillar/news", "pillarName": "News"}, {"id": "theguardian/2011/apr/30/simon-hoggarts-week-royal-punditry", "type": "article", "sectionId": "theguardian", "sectionName": "From the Guardian", "webPublicationDate": "2011-04-30T06:00:01Z", "webTitle": "Simon Hoggart's week: Royal punditry is money for old rope", "webUrl": "https://www.theguardian.com/theguardian/2011/apr/30/simon-hoggarts-week-royal-punditry", "apiUrl": "https://content.guardianapis.com/theguardian/2011/apr/30/simon-hoggarts-week-royal-punditry", "isHosted": false, "pillarId": "pillar/news", "pillarName": "News"}, {"id": "uk/2011/apr/30/royal-wedding-guest-list-uncle-gary", "type": "article", "sectionId": "uk-news", "sectionName": "UK news", "webPublicationDate": "2011-04-30T05:00:00Z", "webTitle": "Royal wedding guest list: perplexing \u2013 and where was naughty Uncle Gary?", "webUrl": "https://www.theguardian.com/uk/2011/apr/30/royal-wedding-guest-list-uncle-gary", "apiUrl": "https://content.guardianapis.com/uk/2011/apr/30/royal-wedding-guest-list-uncle-gary", "isHosted": false, "pillarId": "pillar/news", "pillarName": "News"}, {"id": "commentisfree/2011/apr/30/northern-ireland-so-near-yet-far", "type": "article", "sectionId": "commentisfree", "sectionName": "Opinion", "webPublicationDate": "2011-04-29T23:37:06Z", "webTitle": "Northern Ireland: so near yet so far", "webUrl": "https://www.theguardian.com/commentisfree/2011/apr/30/northern-ireland-so-near-yet-far", "apiUrl": "https://content.guardianapis.com/commentisfree/2011/apr/30/northern-ireland-so-near-yet-far", "isHosted": false, "pillarId": "pillar/opinion", "pillarName": "Opinion"}, {"id": "society/2011/apr/30/nhs-bill-report-lords", "type": "article", "sectionId": "society", "sectionName": "Society", "webPublicationDate": "2011-04-29T23:06:44Z", "webTitle": "Letters: NHS bill report", "webUrl": "https://www.theguardian.com/society/2011/apr/30/nhs-bill-report-lords", "apiUrl": "https://content.guardianapis.com/society/2011/apr/30/nhs-bill-report-lords", "isHosted": false, "pillarId": "pillar/news", "pillarName": "News"}, {"id": "uk/2011/apr/30/say-no-to-duchy-originals", "type": "article", "sectionId": "uk-news", "sectionName": "UK news", "webPublicationDate": "2011-04-29T23:06:41Z", "webTitle": "Letters: Just say no to the Duchy Originals", "webUrl": "https://www.theguardian.com/uk/2011/apr/30/say-no-to-duchy-originals", "apiUrl": "https://content.guardianapis.com/uk/2011/apr/30/say-no-to-duchy-originals", "isHosted": false, "pillarId": "pillar/news", "pillarName": "News"}, {"id": "politics/2011/apr/30/robin-cook-would-vote-yes", "type": "article", "sectionId": "politics", "sectionName": "Politics", "webPublicationDate": "2011-04-29T23:05:09Z", "webTitle": "Letters: Robin Cook would have voted yes", "webUrl": "https://www.theguardian.com/politics/2011/apr/30/robin-cook-would-vote-yes", "apiUrl": "https://content.guardianapis.com/politics/2011/apr/30/robin-cook-would-vote-yes", "isHosted": false, "pillarId": "pillar/news", "pillarName": "News"}, {"id": "uk/2011/apr/30/costume-drama-for-the-nation", "type": "article", "sectionId": "uk-news", "sectionName": "UK news", "webPublicationDate": "2011-04-29T23:05:08Z", "webTitle": "Letters: Costume drama for all the nation", "webUrl": "https://www.theguardian.com/uk/2011/apr/30/costume-drama-for-the-nation", "apiUrl": "https://content.guardianapis.com/uk/2011/apr/30/costume-drama-for-the-nation", "isHosted": false, "pillarId": "pillar/news", "pillarName": "News"}, {"id": "politics/2011/apr/29/royal-wedding-simon-hoggart-sketch", "type": "article", "sectionId": "politics", "sectionName": "Politics", "webPublicationDate": "2011-04-29T21:08:06Z", "webTitle": "Rumpled crotch syndrome and the big trousers society", "webUrl": "https://www.theguardian.com/politics/2011/apr/29/royal-wedding-simon-hoggart-sketch", "apiUrl": "https://content.guardianapis.com/politics/2011/apr/29/royal-wedding-simon-hoggart-sketch", "isHosted": false, "pillarId": "pillar/news", "pillarName": "News"}, {"id": "commentisfree/2011/apr/29/joking-david-cameron-socialists-humourless-leftwing", "type": "article", "sectionId": "commentisfree", "sectionName": "Opinion", "webPublicationDate": "2011-04-29T20:00:03Z", "webTitle": "You've got to be joking, Cameron | Brian Logan", "webUrl": "https://www.theguardian.com/commentisfree/2011/apr/29/joking-david-cameron-socialists-humourless-leftwing", "apiUrl": "https://content.guardianapis.com/commentisfree/2011/apr/29/joking-david-cameron-socialists-humourless-leftwing", "isHosted": false, "pillarId": "pillar/opinion", "pillarName": "Opinion"}, {"id": "politics/2011/apr/29/downing-street-party-royal-wedding", "type": "article", "sectionId": "politics", "sectionName": "Politics", "webPublicationDate": "2011-04-29T19:28:01Z", "webTitle": "Orange juice and egg sandwiches for David Cameron's Downing Street rave", "webUrl": "https://www.theguardian.com/politics/2011/apr/29/downing-street-party-royal-wedding", "apiUrl": "https://content.guardianapis.com/politics/2011/apr/29/downing-street-party-royal-wedding", "isHosted": false, "pillarId": "pillar/news", "pillarName": "News"}, {"id": "commentisfree/2011/apr/29/royal-wedding-uk-gdp-growth", "type": "article", "sectionId": "commentisfree", "sectionName": "Opinion", "webPublicationDate": "2011-04-29T19:00:01Z", "webTitle": "This royal wedding is Britain's Marie Antoinette moment | Polly Toynbee", "webUrl": "https://www.theguardian.com/commentisfree/2011/apr/29/royal-wedding-uk-gdp-growth", "apiUrl": "https://content.guardianapis.com/commentisfree/2011/apr/29/royal-wedding-uk-gdp-growth", "isHosted": false, "pillarId": "pillar/opinion", "pillarName": "Opinion"}, {"id": "society/2011/apr/29/nhs-regulator-predicts-deeper-hospital-cuts", "type": "article", "sectionId": "society", "sectionName": "Society", "webPublicationDate": "2011-04-29T18:04:34Z", "webTitle": "Labour cries foul as NHS regulator predicts deeper hospital cuts", "webUrl": "https://www.theguardian.com/society/2011/apr/29/nhs-regulator-predicts-deeper-hospital-cuts", "apiUrl": "https://content.guardianapis.com/society/2011/apr/29/nhs-regulator-predicts-deeper-hospital-cuts", "isHosted": false, "pillarId": "pillar/news", "pillarName": "News"}, {"id": "politics/2011/apr/29/james-purnell-labour-rethink-welfare", "type": "article", "sectionId": "media", "sectionName": "Media", "webPublicationDate": "2011-04-29T17:12:02Z", "webTitle": "James Purnell calls on Labour to rethink approach to welfare", "webUrl": "https://www.theguardian.com/politics/2011/apr/29/james-purnell-labour-rethink-welfare", "apiUrl": "https://content.guardianapis.com/politics/2011/apr/29/james-purnell-labour-rethink-welfare", "isHosted": false, "pillarId": "pillar/news", "pillarName": "News"}, {"id": "uk/2011/apr/29/jimmy-mubenga-campaign-un-investigation", "type": "article", "sectionId": "uk-news", "sectionName": "UK news", "webPublicationDate": "2011-04-29T16:14:05Z", "webTitle": "UN asked to investigate death of Angolan deportee Jimmy Mubenga", "webUrl": "https://www.theguardian.com/uk/2011/apr/29/jimmy-mubenga-campaign-un-investigation", "apiUrl": "https://content.guardianapis.com/uk/2011/apr/29/jimmy-mubenga-campaign-un-investigation", "isHosted": false, "pillarId": "pillar/news", "pillarName": "News"}, {"id": "commentisfree/2011/apr/29/royal-wedding-leftwing", "type": "article", "sectionId": "commentisfree", "sectionName": "Opinion", "webPublicationDate": "2011-04-29T15:09:06Z", "webTitle": "We needn't be royal wedding party poopers just because we're leftwing | Dan Hodges", "webUrl": "https://www.theguardian.com/commentisfree/2011/apr/29/royal-wedding-leftwing", "apiUrl": "https://content.guardianapis.com/commentisfree/2011/apr/29/royal-wedding-leftwing", "isHosted": false, "pillarId": "pillar/opinion", "pillarName": "Opinion"}, {"id": "commentisfree/2011/apr/29/scotland-nhs-snp-lansley", "type": "article", "sectionId": "commentisfree", "sectionName": "Opinion", "webPublicationDate": "2011-04-29T15:02:59Z", "webTitle": "Scotland's very different prescription for the NHS | Marianne Taylor", "webUrl": "https://www.theguardian.com/commentisfree/2011/apr/29/scotland-nhs-snp-lansley", "apiUrl": "https://content.guardianapis.com/commentisfree/2011/apr/29/scotland-nhs-snp-lansley", "isHosted": false, "pillarId": "pillar/opinion", "pillarName": "Opinion"}, {"id": "environment/2011/apr/29/greenhouse-thanet-earth-workers", "type": "article", "sectionId": "environment", "sectionName": "Environment", "webPublicationDate": "2011-04-29T13:51:18Z", "webTitle": "UK's largest greenhouse complex investigated for 'sweatshop labour'", "webUrl": "https://www.theguardian.com/environment/2011/apr/29/greenhouse-thanet-earth-workers", "apiUrl": "https://content.guardianapis.com/environment/2011/apr/29/greenhouse-thanet-earth-workers", "isHosted": false, "pillarId": "pillar/news", "pillarName": "News"}, {"id": "politics/2011/apr/29/eu-funding-cuts-poor-areas", "type": "article", "sectionId": "politics", "sectionName": "Politics", "webPublicationDate": "2011-04-29T13:38:00Z", "webTitle": "England's poorest areas could lose millions in EU funding", "webUrl": "https://www.theguardian.com/politics/2011/apr/29/eu-funding-cuts-poor-areas", "apiUrl": "https://content.guardianapis.com/politics/2011/apr/29/eu-funding-cuts-poor-areas", "isHosted": false, "pillarId": "pillar/news", "pillarName": "News"}, {"id": "commentisfree/libertycentral/2011/apr/29/mp-superinjunctions-hyperinjunctions", "type": "article", "sectionId": "commentisfree", "sectionName": "Opinion", "webPublicationDate": "2011-04-29T13:00:00Z", "webTitle": "The gag that stops you talking to your MP | John Hemming", "webUrl": "https://www.theguardian.com/commentisfree/libertycentral/2011/apr/29/mp-superinjunctions-hyperinjunctions", "apiUrl": "https://content.guardianapis.com/commentisfree/libertycentral/2011/apr/29/mp-superinjunctions-hyperinjunctions", "isHosted": false, "pillarId": "pillar/opinion", "pillarName": "Opinion"}, {"id": "environment/2011/apr/29/rabbit-battery-farms-could-return", "type": "article", "sectionId": "environment", "sectionName": "Environment", "webPublicationDate": "2011-04-29T12:14:40Z", "webTitle": "Rabbit battery farms could return to UK", "webUrl": "https://www.theguardian.com/environment/2011/apr/29/rabbit-battery-farms-could-return", "apiUrl": "https://content.guardianapis.com/environment/2011/apr/29/rabbit-battery-farms-could-return", "isHosted": false, "pillarId": "pillar/news", "pillarName": "News"}, {"id": "commentisfree/2011/apr/29/av-coalition-david-cameron-nick-clegg", "type": "article", "sectionId": "commentisfree", "sectionName": "Opinion", "webPublicationDate": "2011-04-29T10:00:00Z", "webTitle": "AV vote mounts pressure on an uneasy coalition | Paul Goodman", "webUrl": "https://www.theguardian.com/commentisfree/2011/apr/29/av-coalition-david-cameron-nick-clegg", "apiUrl": "https://content.guardianapis.com/commentisfree/2011/apr/29/av-coalition-david-cameron-nick-clegg", "isHosted": false, "pillarId": "pillar/opinion", "pillarName": "Opinion"}, {"id": "lifeandstyle/2011/apr/29/muslim-women-fighting-islamic-extremism", "type": "article", "sectionId": "lifeandstyle", "sectionName": "Life and style", "webPublicationDate": "2011-04-29T06:00:23Z", "webTitle": "Muslim women: beyond the stereotype", "webUrl": "https://www.theguardian.com/lifeandstyle/2011/apr/29/muslim-women-fighting-islamic-extremism", "apiUrl": "https://content.guardianapis.com/lifeandstyle/2011/apr/29/muslim-women-fighting-islamic-extremism", "isHosted": false, "pillarId": "pillar/lifestyle", "pillarName": "Lifestyle"}, {"id": "politics/2011/apr/29/westminster-digested-cameron-nhs", "type": "article", "sectionId": "politics", "sectionName": "Politics", "webPublicationDate": "2011-04-29T06:00:21Z", "webTitle": "Westminster digested", "webUrl": "https://www.theguardian.com/politics/2011/apr/29/westminster-digested-cameron-nhs", "apiUrl": "https://content.guardianapis.com/politics/2011/apr/29/westminster-digested-cameron-nhs", "isHosted": false, "pillarId": "pillar/news", "pillarName": "News"}, {"id": "politics/2011/apr/29/hugh-muir-diary", "type": "article", "sectionId": "politics", "sectionName": "Politics", "webPublicationDate": "2011-04-28T23:15:03Z", "webTitle": "Hugh Muir's diary", "webUrl": "https://www.theguardian.com/politics/2011/apr/29/hugh-muir-diary", "apiUrl": "https://content.guardianapis.com/politics/2011/apr/29/hugh-muir-diary", "isHosted": false, "pillarId": "pillar/news", "pillarName": "News"}, {"id": "politics/2011/apr/29/upper-class-toffs-and-sexism", "type": "article", "sectionId": "politics", "sectionName": "Politics", "webPublicationDate": "2011-04-28T23:05:04Z", "webTitle": "Letters: Upper-class toffs and casual sexism", "webUrl": "https://www.theguardian.com/politics/2011/apr/29/upper-class-toffs-and-sexism", "apiUrl": "https://content.guardianapis.com/politics/2011/apr/29/upper-class-toffs-and-sexism", "isHosted": false, "pillarId": "pillar/news", "pillarName": "News"}, {"id": "world/2011/apr/29/war-on-the-doorstep", "type": "article", "sectionId": "world", "sectionName": "World news", "webPublicationDate": "2011-04-28T23:05:04Z", "webTitle": "Letters: War on the doorstep", "webUrl": "https://www.theguardian.com/world/2011/apr/29/war-on-the-doorstep", "apiUrl": "https://content.guardianapis.com/world/2011/apr/29/war-on-the-doorstep", "isHosted": false, "pillarId": "pillar/news", "pillarName": "News"}, {"id": "commentisfree/cartoon/2011/apr/29/blair-brown-royal-wedding-snub", "type": "picture", "sectionId": "commentisfree", "sectionName": "Opinion", "webPublicationDate": "2011-04-28T23:01:00Z", "webTitle": "Steve Bell on Blair and Brown's royal wedding snub", "webUrl": "https://www.theguardian.com/commentisfree/cartoon/2011/apr/29/blair-brown-royal-wedding-snub", "apiUrl": "https://content.guardianapis.com/commentisfree/cartoon/2011/apr/29/blair-brown-royal-wedding-snub", "isHosted": false, "pillarId": "pillar/opinion", "pillarName": "Opinion"}, {"id": "lifeandstyle/2011/apr/28/royal-wedding-av-olympics-tickets-michele-hanson", "type": "article", "sectionId": "lifeandstyle", "sectionName": "Life and style", "webPublicationDate": "2011-04-28T20:01:00Z", "webTitle": "I can't get up worked up about the royal wedding, AV or the Olympics", "webUrl": "https://www.theguardian.com/lifeandstyle/2011/apr/28/royal-wedding-av-olympics-tickets-michele-hanson", "apiUrl": "https://content.guardianapis.com/lifeandstyle/2011/apr/28/royal-wedding-av-olympics-tickets-michele-hanson", "isHosted": false, "pillarId": "pillar/lifestyle", "pillarName": "Lifestyle"}, {"id": "politics/2011/apr/28/ed-miliband-labour-alternative-vote", "type": "article", "sectionId": "politics", "sectionName": "Politics", "webPublicationDate": "2011-04-28T19:24:15Z", "webTitle": "Ed Miliband urges Labour voters to back AV", "webUrl": "https://www.theguardian.com/politics/2011/apr/28/ed-miliband-labour-alternative-vote", "apiUrl": "https://content.guardianapis.com/politics/2011/apr/28/ed-miliband-labour-alternative-vote", "isHosted": false, "pillarId": "pillar/news", "pillarName": "News"}, {"id": "politics/wintour-and-watt/2011/apr/28/liamfox-winston-churchill", "type": "article", "sectionId": "politics", "sectionName": "Politics", "webPublicationDate": "2011-04-28T19:05:43Z", "webTitle": "Liam Fox compares himself to Winston Churchill, prompting guffaws in No 10", "webUrl": "https://www.theguardian.com/politics/wintour-and-watt/2011/apr/28/liamfox-winston-churchill", "apiUrl": "https://content.guardianapis.com/politics/wintour-and-watt/2011/apr/28/liamfox-winston-churchill", "isHosted": false, "pillarId": "pillar/news", "pillarName": "News"}, {"id": "commentisfree/2011/apr/28/vote-yes-to-av-conservatives-fear", "type": "article", "sectionId": "commentisfree", "sectionName": "Opinion", "webPublicationDate": "2011-04-28T19:00:00Z", "webTitle": "Vote yes to AV if you want to see Tories feel the fear again | Martin Kettle", "webUrl": "https://www.theguardian.com/commentisfree/2011/apr/28/vote-yes-to-av-conservatives-fear", "apiUrl": "https://content.guardianapis.com/commentisfree/2011/apr/28/vote-yes-to-av-conservatives-fear", "isHosted": false, "pillarId": "pillar/opinion", "pillarName": "Opinion"}, {"id": "politics/2011/apr/28/david-cameron-howard-stoate-nhs", "type": "article", "sectionId": "politics", "sectionName": "Politics", "webPublicationDate": "2011-04-28T18:12:20Z", "webTitle": "David Cameron accused by former MP of misrepresenting his views on NHS", "webUrl": "https://www.theguardian.com/politics/2011/apr/28/david-cameron-howard-stoate-nhs", "apiUrl": "https://content.guardianapis.com/politics/2011/apr/28/david-cameron-howard-stoate-nhs", "isHosted": false, "pillarId": "pillar/news", "pillarName": "News"}, {"id": "business/2011/apr/28/bat-admits-backing-newsagents-campaign", "type": "article", "sectionId": "business", "sectionName": "Business", "webPublicationDate": "2011-04-28T18:06:00Z", "webTitle": "BAT admits bankrolling newsagents' tobacco campaign", "webUrl": "https://www.theguardian.com/business/2011/apr/28/bat-admits-backing-newsagents-campaign", "apiUrl": "https://content.guardianapis.com/business/2011/apr/28/bat-admits-backing-newsagents-campaign", "isHosted": false, "pillarId": "pillar/news", "pillarName": "News"}, {"id": "environment/2011/apr/28/electric-car-scheme-500-takers", "type": "article", "sectionId": "environment", "sectionName": "Environment", "webPublicationDate": "2011-04-28T18:02:20Z", "webTitle": "Electric car scheme has only 534 takers", "webUrl": "https://www.theguardian.com/environment/2011/apr/28/electric-car-scheme-500-takers", "apiUrl": "https://content.guardianapis.com/environment/2011/apr/28/electric-car-scheme-500-takers", "isHosted": false, "pillarId": "pillar/news", "pillarName": "News"}, {"id": "politics/2011/apr/28/jeremy-hunt-bard-to-verse", "type": "article", "sectionId": "politics", "sectionName": "Politics", "webPublicationDate": "2011-04-28T17:49:50Z", "webTitle": "Jeremy Hunt - from bard to verse", "webUrl": "https://www.theguardian.com/politics/2011/apr/28/jeremy-hunt-bard-to-verse", "apiUrl": "https://content.guardianapis.com/politics/2011/apr/28/jeremy-hunt-bard-to-verse", "isHosted": false, "pillarId": "pillar/news", "pillarName": "News"}, {"id": "society/patrick-butler-cuts-blog/2011/apr/28/suffolk-virtual-council-runs-into-trouble", "type": "article", "sectionId": "society", "sectionName": "Society", "webPublicationDate": "2011-04-28T17:30:17Z", "webTitle": "As the cuts bite, Suffolk's 'virtual council' dream runs into trouble", "webUrl": "https://www.theguardian.com/society/patrick-butler-cuts-blog/2011/apr/28/suffolk-virtual-council-runs-into-trouble", "apiUrl": "https://content.guardianapis.com/society/patrick-butler-cuts-blog/2011/apr/28/suffolk-virtual-council-runs-into-trouble", "isHosted": false, "pillarId": "pillar/news", "pillarName": "News"}, {"id": "commentisfree/2011/apr/28/calm-down-david-cameron-nhs", "type": "article", "sectionId": "commentisfree", "sectionName": "Opinion", "webPublicationDate": "2011-04-28T17:00:01Z", "webTitle": "Response: Calm down, David Cameron \u2013 and get your facts right at PMQs | Howard Stoate", "webUrl": "https://www.theguardian.com/commentisfree/2011/apr/28/calm-down-david-cameron-nhs", "apiUrl": "https://content.guardianapis.com/commentisfree/2011/apr/28/calm-down-david-cameron-nhs", "isHosted": false, "pillarId": "pillar/opinion", "pillarName": "Opinion"}, {"id": "commentisfree/2011/apr/28/anarchist-threat-to-royal-wedding", "type": "article", "sectionId": "commentisfree", "sectionName": "Opinion", "webPublicationDate": "2011-04-28T16:30:00Z", "webTitle": "Anarchist threat to the royal wedding? They'd rather be down the pub | Guy Smallman", "webUrl": "https://www.theguardian.com/commentisfree/2011/apr/28/anarchist-threat-to-royal-wedding", "apiUrl": "https://content.guardianapis.com/commentisfree/2011/apr/28/anarchist-threat-to-royal-wedding", "isHosted": false, "pillarId": "pillar/opinion", "pillarName": "Opinion"}]}}