{"response": {"status": "ok", "userTier": "developer", "total": 133863, "startIndex": 1, "pageSize": 50, "currentPage": 1, "pages": 2678, "orderBy": "newest", "results": [{"id": "politics/2013/may/01/scottish-independence-hampered-policy-gaps", "type": "article", "sectionId": "politics", "sectionName": "Politics", "webPublicationDate": "2013-04-30T23:05:04Z", "webTitle": "Scottish independence quest hampered by policy gaps, MPs say", "webUrl": "https://www.theguardian.com/politics/2013/may/01/scottish-independence-hampered-policy-gaps", "apiUrl": "https://content.guardianapis.com/politics/2013/may/01/scottish-independence-hampered-policy-gaps", "isHosted": false, "pillarId": "pillar/news", "pillarName": "News"}, {"id": "business/2013/may/01/vince-cable-rbs-prosecutions", "type": "article", "sectionId": "business", "sectionName": "Business", "webPublicationDate": "2013-04-30T23:05:00Z", "webTitle": "Vince Cable presses for decision on RBS prosecutions", "webUrl": "https://www.theguardian.com/business/2013/may/01/vince-cable-rbs-prosecutions", "apiUrl": "https://content.guardianapis.com/business/2013/may/01/vince-cable-rbs-prosecutions", "isHosted": false, "pillarId": "pillar/news", "pillarName": "News"}, {"id": "society/2013/may/01/policy-francismaude", "type": "article", "sectionId": "society", "sectionName": "Society", "webPublicationDate": "2013-04-30T23:03:00Z", "webTitle": "'Nudge unit' to become profit-making", "webUrl": "https://www.theguardian.com/society/2013/may/01/policy-francismaude", "apiUrl": "https://content.guardianapis.com/society/2013/may/01/policy-francismaude", "isHosted": false, "pillarId": "pillar/news", "pillarName": "News"}, {"id": "politics/2013/apr/30/hugh-muir-diary-duncan-smith-spurs", "type": "article", "sectionId": "politics", "sectionName": "Politics", "webPublicationDate": "2013-04-30T22:00:00Z", "webTitle": "Hugh Muir's diary: How the welfare secretary got a ticket to free-ride", "webUrl": "https://www.theguardian.com/politics/2013/apr/30/hugh-muir-diary-duncan-smith-spurs", "apiUrl": "https://content.guardianapis.com/politics/2013/apr/30/hugh-muir-diary-duncan-smith-spurs", "isHosted": false, "pillarId": "pillar/news", "pillarName": "News"}, {"id": "commentisfree/2013/apr/30/spending-review-2013-george-osborne", "type": "article", "sectionId": "commentisfree", "sectionName": "Opinion", "webPublicationDate": "2013-04-30T21:23:48Z", "webTitle": "Spending review: vital, bloody \u2013 and pointless | Editorial", "webUrl": "https://www.theguardian.com/commentisfree/2013/apr/30/spending-review-2013-george-osborne", "apiUrl": "https://content.guardianapis.com/commentisfree/2013/apr/30/spending-review-2013-george-osborne", "isHosted": false, "pillarId": "pillar/opinion", "pillarName": "Opinion"}, {"id": "uk/2013/apr/30/ministry-defence-overseas-aid-patrols", "type": "article", "sectionId": "global-development", "sectionName": "Global development", "webPublicationDate": "2013-04-30T21:00:00Z", "webTitle": "Ministry of Defence campaigns for overseas aid to pay for military patrols", "webUrl": "https://www.theguardian.com/uk/2013/apr/30/ministry-defence-overseas-aid-patrols", "apiUrl": "https://content.guardianapis.com/uk/2013/apr/30/ministry-defence-overseas-aid-patrols", "isHosted": false, "pillarId": "pillar/news", "pillarName": "News"}, {"id": "politics/2013/apr/30/loony-ukip-here-to-stay", "type": "article", "sectionId": "politics", "sectionName": "Politics", "webPublicationDate": "2013-04-30T20:00:03Z", "webTitle": "Letters: Loony or not, Ukip are here to stay", "webUrl": "https://www.theguardian.com/politics/2013/apr/30/loony-ukip-here-to-stay", "apiUrl": "https://content.guardianapis.com/politics/2013/apr/30/loony-ukip-here-to-stay", "isHosted": false, "pillarId": "pillar/news", "pillarName": "News"}, {"id": "global-development/2013/apr/30/global-development-austerity-at-home", "type": "article", "sectionId": "global-development", "sectionName": "Global development", "webPublicationDate": "2013-04-30T20:00:02Z", "webTitle": "Letters: We need to link global development with austerity at home", "webUrl": "https://www.theguardian.com/global-development/2013/apr/30/global-development-austerity-at-home", "apiUrl": "https://content.guardianapis.com/global-development/2013/apr/30/global-development-austerity-at-home", "isHosted": false, "pillarId": "pillar/news", "pillarName": "News"}, {"id": "politics/2013/apr/30/first-they-came-working-poor", "type": "article", "sectionId": "politics", "sectionName": "Politics", "webPublicationDate": "2013-04-30T20:00:01Z", "webTitle": "Letters: First they came for the working-age poor \u2026", "webUrl": "https://www.theguardian.com/politics/2013/apr/30/first-they-came-working-poor", "apiUrl": "https://content.guardianapis.com/politics/2013/apr/30/first-they-came-working-poor", "isHosted": false, "pillarId": "pillar/news", "pillarName": "News"}, {"id": "politics/2013/apr/30/health-budget-safe-jeremy-hunt", "type": "article", "sectionId": "politics", "sectionName": "Politics", "webPublicationDate": "2013-04-30T19:21:11Z", "webTitle": "Jeremy Hunt insists health budget is safe", "webUrl": "https://www.theguardian.com/politics/2013/apr/30/health-budget-safe-jeremy-hunt", "apiUrl": "https://content.guardianapis.com/politics/2013/apr/30/health-budget-safe-jeremy-hunt", "isHosted": false, "pillarId": "pillar/news", "pillarName": "News"}, {"id": "politics/2013/apr/30/ed-miliband-misjudgment-interview", "type": "article", "sectionId": "politics", "sectionName": "Politics", "webPublicationDate": "2013-04-30T19:02:45Z", "webTitle": "Ed Miliband admits misjudgment in World at One interview", "webUrl": "https://www.theguardian.com/politics/2013/apr/30/ed-miliband-misjudgment-interview", "apiUrl": "https://content.guardianapis.com/politics/2013/apr/30/ed-miliband-misjudgment-interview", "isHosted": false, "pillarId": "pillar/news", "pillarName": "News"}, {"id": "politics/2013/apr/30/green-party-largest-number-candidates", "type": "article", "sectionId": "politics", "sectionName": "Politics", "webPublicationDate": "2013-04-30T18:39:40Z", "webTitle": "Green party fields largest number of candidates in its history", "webUrl": "https://www.theguardian.com/politics/2013/apr/30/green-party-largest-number-candidates", "apiUrl": "https://content.guardianapis.com/politics/2013/apr/30/green-party-largest-number-candidates", "isHosted": false, "pillarId": "pillar/news", "pillarName": "News"}, {"id": "commentisfree/cartoon/2013/apr/30/universal-credit-pilot-scheme-cartoon", "type": "picture", "sectionId": "commentisfree", "sectionName": "Opinion", "webPublicationDate": "2013-04-30T18:37:29Z", "webTitle": "Steve Bell on the universal credit pilot scheme \u2013 cartoon", "webUrl": "https://www.theguardian.com/commentisfree/cartoon/2013/apr/30/universal-credit-pilot-scheme-cartoon", "apiUrl": "https://content.guardianapis.com/commentisfree/cartoon/2013/apr/30/universal-credit-pilot-scheme-cartoon", "isHosted": false, "pillarId": "pillar/opinion", "pillarName": "Opinion"}, {"id": "society/shortcuts/2013/apr/30/why-prison-uniforms-are-bad-idea", "type": "article", "sectionId": "society", "sectionName": "Society", "webPublicationDate": "2013-04-30T17:37:00Z", "webTitle": "Why prison uniforms are a bad idea", "webUrl": "https://www.theguardian.com/society/shortcuts/2013/apr/30/why-prison-uniforms-are-bad-idea", "apiUrl": "https://content.guardianapis.com/society/shortcuts/2013/apr/30/why-prison-uniforms-are-bad-idea", "isHosted": false, "pillarId": "pillar/news", "pillarName": "News"}, {"id": "artanddesign/architecture-design-blog/2013/apr/30/united-micro-kingdoms-design-museum", "type": "article", "sectionId": "artanddesign", "sectionName": "Art and design", "webPublicationDate": "2013-04-30T17:18:00Z", "webTitle": "Are nuclear trains and cars made of skin the future of travel?", "webUrl": "https://www.theguardian.com/artanddesign/architecture-design-blog/2013/apr/30/united-micro-kingdoms-design-museum", "apiUrl": "https://content.guardianapis.com/artanddesign/architecture-design-blog/2013/apr/30/united-micro-kingdoms-design-museum", "isHosted": false, "pillarId": "pillar/arts", "pillarName": "Arts"}, {"id": "commentisfree/2013/apr/30/stop-ringfencing-nhs", "type": "article", "sectionId": "commentisfree", "sectionName": "Opinion", "webPublicationDate": "2013-04-30T17:15:00Z", "webTitle": "It's time to stop ringfencing the NHS from budget cuts | Patrick Nolan", "webUrl": "https://www.theguardian.com/commentisfree/2013/apr/30/stop-ringfencing-nhs", "apiUrl": "https://content.guardianapis.com/commentisfree/2013/apr/30/stop-ringfencing-nhs", "isHosted": false, "pillarId": "pillar/opinion", "pillarName": "Opinion"}, {"id": "politics/shortcuts/2013/apr/30/ed-miliband-pallet-soapbox-politics", "type": "article", "sectionId": "politics", "sectionName": "Politics", "webPublicationDate": "2013-04-30T17:11:00Z", "webTitle": "Ed Miliband climbs on to his pallet to take politics to the people", "webUrl": "https://www.theguardian.com/politics/shortcuts/2013/apr/30/ed-miliband-pallet-soapbox-politics", "apiUrl": "https://content.guardianapis.com/politics/shortcuts/2013/apr/30/ed-miliband-pallet-soapbox-politics", "isHosted": false, "pillarId": "pillar/news", "pillarName": "News"}, {"id": "commentisfree/2013/apr/30/how-can-prisoners-work-harder", "type": "article", "sectionId": "commentisfree", "sectionName": "Opinion", "webPublicationDate": "2013-04-30T17:00:00Z", "webTitle": "How can prisoners 'work harder' when they've got nothing to do?", "webUrl": "https://www.theguardian.com/commentisfree/2013/apr/30/how-can-prisoners-work-harder", "apiUrl": "https://content.guardianapis.com/commentisfree/2013/apr/30/how-can-prisoners-work-harder", "isHosted": false, "pillarId": "pillar/opinion", "pillarName": "Opinion"}, {"id": "global-development/2013/apr/30/south-africa-aid-cut-uk", "type": "article", "sectionId": "global-development", "sectionName": "Global development", "webPublicationDate": "2013-04-30T16:44:44Z", "webTitle": "South Africa warns aid cut means change in relationship with UK", "webUrl": "https://www.theguardian.com/global-development/2013/apr/30/south-africa-aid-cut-uk", "apiUrl": "https://content.guardianapis.com/global-development/2013/apr/30/south-africa-aid-cut-uk", "isHosted": false, "pillarId": "pillar/news", "pillarName": "News"}, {"id": "business/2013/apr/30/george-osborne-bank-england-recovery", "type": "article", "sectionId": "business", "sectionName": "Business", "webPublicationDate": "2013-04-30T16:36:17Z", "webTitle": "George Osborne warns Bank of England over economic recovery plans", "webUrl": "https://www.theguardian.com/business/2013/apr/30/george-osborne-bank-england-recovery", "apiUrl": "https://content.guardianapis.com/business/2013/apr/30/george-osborne-bank-england-recovery", "isHosted": false, "pillarId": "pillar/news", "pillarName": "News"}, {"id": "books/2013/apr/30/charles-moore-margaret-thatcher-biography-robin-harris", "type": "article", "sectionId": "books", "sectionName": "Books", "webPublicationDate": "2013-04-30T16:11:56Z", "webTitle": "Charles Moore winning race of Margaret Thatcher biographers", "webUrl": "https://www.theguardian.com/books/2013/apr/30/charles-moore-margaret-thatcher-biography-robin-harris", "apiUrl": "https://content.guardianapis.com/books/2013/apr/30/charles-moore-margaret-thatcher-biography-robin-harris", "isHosted": false, "pillarId": "pillar/arts", "pillarName": "Arts"}, {"id": "science/political-science/2013/apr/30/science-policy1", "type": "article", "sectionId": "science", "sectionName": "Science", "webPublicationDate": "2013-04-30T16:03:00Z", "webTitle": "Why Monbiot's attack on Walport misses the mark", "webUrl": "https://www.theguardian.com/science/political-science/2013/apr/30/science-policy1", "apiUrl": "https://content.guardianapis.com/science/political-science/2013/apr/30/science-policy1", "isHosted": false, "pillarId": "pillar/news", "pillarName": "News"}, {"id": "politics/2013/apr/30/doncaster-mayor-seeks-second-term", "type": "article", "sectionId": "politics", "sectionName": "Politics", "webPublicationDate": "2013-04-30T15:41:55Z", "webTitle": "Doncaster's maverick mayor seeks second term", "webUrl": "https://www.theguardian.com/politics/2013/apr/30/doncaster-mayor-seeks-second-term", "apiUrl": "https://content.guardianapis.com/politics/2013/apr/30/doncaster-mayor-seeks-second-term", "isHosted": false, "pillarId": "pillar/news", "pillarName": "News"}, {"id": "commentisfree/2013/apr/30/demonise-demoralise-jobseekers-meaningless-test", "type": "article", "sectionId": "commentisfree", "sectionName": "Opinion", "webPublicationDate": "2013-04-30T15:37:21Z", "webTitle": "How to demonise and demoralise jobseekers in one meaningless test | Steve Walker", "webUrl": "https://www.theguardian.com/commentisfree/2013/apr/30/demonise-demoralise-jobseekers-meaningless-test", "apiUrl": "https://content.guardianapis.com/commentisfree/2013/apr/30/demonise-demoralise-jobseekers-meaningless-test", "isHosted": false, "pillarId": "pillar/opinion", "pillarName": "Opinion"}, {"id": "media/2013/apr/30/regional-papers-nick-clegg-press-regulation", "type": "article", "sectionId": "media", "sectionName": "Media", "webPublicationDate": "2013-04-30T15:29:10Z", "webTitle": "Regional papers dismiss Nick Clegg press regulation claim", "webUrl": "https://www.theguardian.com/media/2013/apr/30/regional-papers-nick-clegg-press-regulation", "apiUrl": "https://content.guardianapis.com/media/2013/apr/30/regional-papers-nick-clegg-press-regulation", "isHosted": false, "pillarId": "pillar/news", "pillarName": "News"}, {"id": "society/shortcuts/2013/apr/30/hand-back-winter-fuel-payments", "type": "article", "sectionId": "society", "sectionName": "Society", "webPublicationDate": "2013-04-30T14:58:52Z", "webTitle": "I tried to hand back my winter fuel payment", "webUrl": "https://www.theguardian.com/society/shortcuts/2013/apr/30/hand-back-winter-fuel-payments", "apiUrl": "https://content.guardianapis.com/society/shortcuts/2013/apr/30/hand-back-winter-fuel-payments", "isHosted": false, "pillarId": "pillar/news", "pillarName": "News"}, {"id": "commentisfree/2013/apr/30/ukip-manifesto-closer-look", "type": "article", "sectionId": "commentisfree", "sectionName": "Opinion", "webPublicationDate": "2013-04-30T14:30:01Z", "webTitle": "Ukip's manifesto offers the world. Let's take a closer look | James Ball", "webUrl": "https://www.theguardian.com/commentisfree/2013/apr/30/ukip-manifesto-closer-look", "apiUrl": "https://content.guardianapis.com/commentisfree/2013/apr/30/ukip-manifesto-closer-look", "isHosted": false, "pillarId": "pillar/opinion", "pillarName": "Opinion"}, {"id": "society/2013/apr/30/danielle-allen-obama-equity-equality", "type": "article", "sectionId": "inequality", "sectionName": "Inequality", "webPublicationDate": "2013-04-30T14:00:00Z", "webTitle": "Danielle Allen: Equity not equality | Randeep Ramesh", "webUrl": "https://www.theguardian.com/society/2013/apr/30/danielle-allen-obama-equity-equality", "apiUrl": "https://content.guardianapis.com/society/2013/apr/30/danielle-allen-obama-equity-equality", "isHosted": false, "pillarId": "pillar/news", "pillarName": "News"}, {"id": "commentisfree/2013/apr/30/ed-miliband-political-interview", "type": "article", "sectionId": "commentisfree", "sectionName": "Opinion", "webPublicationDate": "2013-04-30T13:24:26Z", "webTitle": "Ed Miliband, gaffes and the art of the political interview | Michael White", "webUrl": "https://www.theguardian.com/commentisfree/2013/apr/30/ed-miliband-political-interview", "apiUrl": "https://content.guardianapis.com/commentisfree/2013/apr/30/ed-miliband-political-interview", "isHosted": false, "pillarId": "pillar/opinion", "pillarName": "Opinion"}, {"id": "politics/wintour-and-watt/2013/apr/30/edmiliband-gordon-brown", "type": "article", "sectionId": "politics", "sectionName": "Politics", "webPublicationDate": "2013-04-30T13:10:48Z", "webTitle": "Ed Miliband wins over angry man on the dole after insults on immigration", "webUrl": "https://www.theguardian.com/politics/wintour-and-watt/2013/apr/30/edmiliband-gordon-brown", "apiUrl": "https://content.guardianapis.com/politics/wintour-and-watt/2013/apr/30/edmiliband-gordon-brown", "isHosted": false, "pillarId": "pillar/news", "pillarName": "News"}, {"id": "society/video/2013/apr/30/prison-minister-shakeup-prisoner-privileges-video", "type": "video", "sectionId": "society", "sectionName": "Society", "webPublicationDate": "2013-04-30T13:02:00Z", "webTitle": "Prisons minister on shakeup of prisoner privileges - video", "webUrl": "https://www.theguardian.com/society/video/2013/apr/30/prison-minister-shakeup-prisoner-privileges-video", "apiUrl": "https://content.guardianapis.com/society/video/2013/apr/30/prison-minister-shakeup-prisoner-privileges-video", "isHosted": false, "pillarId": "pillar/news", "pillarName": "News"}, {"id": "film/2013/apr/30/hillary-clinton-rodham-biopic-primaries", "type": "article", "sectionId": "film", "sectionName": "Film", "webPublicationDate": "2013-04-30T12:02:56Z", "webTitle": "Hillary Clinton biopic aimed at potential presidential campaign", "webUrl": "https://www.theguardian.com/film/2013/apr/30/hillary-clinton-rodham-biopic-primaries", "apiUrl": "https://content.guardianapis.com/film/2013/apr/30/hillary-clinton-rodham-biopic-primaries", "isHosted": false, "pillarId": "pillar/arts", "pillarName": "Arts"}, {"id": "world/2013/apr/30/moldova-implications-overtures-eu-russia", "type": "article", "sectionId": "world", "sectionName": "World news", "webPublicationDate": "2013-04-30T11:13:10Z", "webTitle": "Moldova weighs up implications of overtures from EU and Russia", "webUrl": "https://www.theguardian.com/world/2013/apr/30/moldova-implications-overtures-eu-russia", "apiUrl": "https://content.guardianapis.com/world/2013/apr/30/moldova-implications-overtures-eu-russia", "isHosted": false, "pillarId": "pillar/news", "pillarName": "News"}, {"id": "news/datablog/2013/apr/30/rohan-silva-interview-david-cameron-open-data", "type": "article", "sectionId": "news", "sectionName": "News", "webPublicationDate": "2013-04-30T11:11:09Z", "webTitle": "Meet the man who turned David Cameron onto open data", "webUrl": "https://www.theguardian.com/news/datablog/2013/apr/30/rohan-silva-interview-david-cameron-open-data", "apiUrl": "https://content.guardianapis.com/news/datablog/2013/apr/30/rohan-silva-interview-david-cameron-open-data", "isHosted": false, "pillarId": "pillar/news", "pillarName": "News"}, {"id": "society/patrick-butler-cuts-blog/2013/apr/30/benefit-loans-cockup-or-conspiracy-dwp-food-parcels", "type": "article", "sectionId": "society", "sectionName": "Society", "webPublicationDate": "2013-04-30T10:31:03Z", "webTitle": "Benefit loans: cock-up or conspiracy?", "webUrl": "https://www.theguardian.com/society/patrick-butler-cuts-blog/2013/apr/30/benefit-loans-cockup-or-conspiracy-dwp-food-parcels", "apiUrl": "https://content.guardianapis.com/society/patrick-butler-cuts-blog/2013/apr/30/benefit-loans-cockup-or-conspiracy-dwp-food-parcels", "isHosted": false, "pillarId": "pillar/news", "pillarName": "News"}, {"id": "politics/2013/apr/30/ed-miliband-vat-rise-borrowing", "type": "article", "sectionId": "politics", "sectionName": "Politics", "webPublicationDate": "2013-04-30T10:11:03Z", "webTitle": "Ed Miliband admits VAT plans will require short-term rise in borrowing", "webUrl": "https://www.theguardian.com/politics/2013/apr/30/ed-miliband-vat-rise-borrowing", "apiUrl": "https://content.guardianapis.com/politics/2013/apr/30/ed-miliband-vat-rise-borrowing", "isHosted": false, "pillarId": "pillar/news", "pillarName": "News"}, {"id": "society/2013/apr/30/jobseekers-bogus-psychometric-tests-unemployed", "type": "article", "sectionId": "society", "sectionName": "Society", "webPublicationDate": "2013-04-30T10:00:00Z", "webTitle": "Jobseekers made to carry out bogus psychometric tests", "webUrl": "https://www.theguardian.com/society/2013/apr/30/jobseekers-bogus-psychometric-tests-unemployed", "apiUrl": "https://content.guardianapis.com/society/2013/apr/30/jobseekers-bogus-psychometric-tests-unemployed", "isHosted": false, "pillarId": "pillar/news", "pillarName": "News"}, {"id": "local-government-network/2013/apr/30/live-discussion-democratic-participation", "type": "article", "sectionId": "politics", "sectionName": "Politics", "webPublicationDate": "2013-04-30T09:56:00Z", "webTitle": "Live discussion: how to encourage local democratic participation", "webUrl": "https://www.theguardian.com/local-government-network/2013/apr/30/live-discussion-democratic-participation", "apiUrl": "https://content.guardianapis.com/local-government-network/2013/apr/30/live-discussion-democratic-participation", "isHosted": false, "pillarId": "pillar/news", "pillarName": "News"}, {"id": "commentisfree/2013/apr/30/universal-credit-iain-duncan-smith", "type": "article", "sectionId": "commentisfree", "sectionName": "Opinion", "webPublicationDate": "2013-04-30T09:13:15Z", "webTitle": "Universal credit is trouble, but it's no welfare revolution | Nick Pearce", "webUrl": "https://www.theguardian.com/commentisfree/2013/apr/30/universal-credit-iain-duncan-smith", "apiUrl": "https://content.guardianapis.com/commentisfree/2013/apr/30/universal-credit-iain-duncan-smith", "isHosted": false, "pillarId": "pillar/opinion", "pillarName": "Opinion"}, {"id": "society/video/2013/apr/30/dwp-jobseekers-sham-psychometric-tests-video", "type": "video", "sectionId": "society", "sectionName": "Society", "webPublicationDate": "2013-04-30T09:00:00Z", "webTitle": "Why is the DWP making jobseekers take sham psychometric tests? - video", "webUrl": "https://www.theguardian.com/society/video/2013/apr/30/dwp-jobseekers-sham-psychometric-tests-video", "apiUrl": "https://content.guardianapis.com/society/video/2013/apr/30/dwp-jobseekers-sham-psychometric-tests-video", "isHosted": false, "pillarId": "pillar/news", "pillarName": "News"}, {"id": "politics/blog/2013/apr/30/local-elections-nick-clegg-live-blog", "type": "liveblog", "sectionId": "politics", "sectionName": "Politics", "webPublicationDate": "2013-04-30T07:59:00Z", "webTitle": "Nick Clegg interviewed on World at One: Politics live blog", "webUrl": "https://www.theguardian.com/politics/blog/2013/apr/30/local-elections-nick-clegg-live-blog", "apiUrl": "https://content.guardianapis.com/politics/blog/2013/apr/30/local-elections-nick-clegg-live-blog", "isHosted": false, "pillarId": "pillar/news", "pillarName": "News"}, {"id": "uk/2013/apr/30/community-resolution-violent-crime-guidelines", "type": "article", "sectionId": "uk-news", "sectionName": "UK news", "webPublicationDate": "2013-04-30T07:45:00Z", "webTitle": "Ten thousand violent crime cases dealt with by 'community resolution' methods", "webUrl": "https://www.theguardian.com/uk/2013/apr/30/community-resolution-violent-crime-guidelines", "apiUrl": "https://content.guardianapis.com/uk/2013/apr/30/community-resolution-violent-crime-guidelines", "isHosted": false, "pillarId": "pillar/news", "pillarName": "News"}, {"id": "society/2013/apr/30/prison-uniforms-perks-chris-grayling", "type": "article", "sectionId": "society", "sectionName": "Society", "webPublicationDate": "2013-04-30T07:04:00Z", "webTitle": "Prison perks: inmates must wear uniforms as Grayling cracks down", "webUrl": "https://www.theguardian.com/society/2013/apr/30/prison-uniforms-perks-chris-grayling", "apiUrl": "https://content.guardianapis.com/society/2013/apr/30/prison-uniforms-perks-chris-grayling", "isHosted": false, "pillarId": "pillar/news", "pillarName": "News"}, {"id": "world/2013/apr/29/cia-mi6-afghan-corruption", "type": "article", "sectionId": "world", "sectionName": "World news", "webPublicationDate": "2013-04-30T06:55:00Z", "webTitle": "Ghost money from MI6 and CIA may fuel Afghan corruption, say diplomats", "webUrl": "https://www.theguardian.com/world/2013/apr/29/cia-mi6-afghan-corruption", "apiUrl": "https://content.guardianapis.com/world/2013/apr/29/cia-mi6-afghan-corruption", "isHosted": false, "pillarId": "pillar/news", "pillarName": "News"}, {"id": "commentisfree/2013/apr/30/labour-golden-policy-build-optimist", "type": "article", "sectionId": "commentisfree", "sectionName": "Opinion", "webPublicationDate": "2013-04-30T06:00:13Z", "webTitle": "Labour's golden policy key? Build, build and build more | Polly Toynbee", "webUrl": "https://www.theguardian.com/commentisfree/2013/apr/30/labour-golden-policy-build-optimist", "apiUrl": "https://content.guardianapis.com/commentisfree/2013/apr/30/labour-golden-policy-build-optimist", "isHosted": false, "pillarId": "pillar/opinion", "pillarName": "Opinion"}, {"id": "football/2013/apr/30/karren-brady-politics", "type": "article", "sectionId": "football", "sectionName": "Football", "webPublicationDate": "2013-04-29T23:03:01Z", "webTitle": "West Ham vice-chairman Karren Brady considers move into politics", "webUrl": "https://www.theguardian.com/football/2013/apr/30/karren-brady-politics", "apiUrl": "https://content.guardianapis.com/football/2013/apr/30/karren-brady-politics", "isHosted": false, "pillarId": "pillar/sport", "pillarName": "Sport"}, {"id": "politics/2013/apr/29/hugh-muir-diary-andrew-neil-miliband", "type": "article", "sectionId": "politics", "sectionName": "Politics", "webPublicationDate": "2013-04-29T22:15:00Z", "webTitle": "Diary: Enemies; friends. Everyone falls out over Rupert | Hugh Muir", "webUrl": "https://www.theguardian.com/politics/2013/apr/29/hugh-muir-diary-andrew-neil-miliband", "apiUrl": "https://content.guardianapis.com/politics/2013/apr/29/hugh-muir-diary-andrew-neil-miliband", "isHosted": false, "pillarId": "pillar/news", "pillarName": "News"}, {"id": "commentisfree/2013/apr/29/universal-credit", "type": "article", "sectionId": "commentisfree", "sectionName": "Opinion", "webPublicationDate": "2013-04-29T21:46:35Z", "webTitle": "Universal credit: evolution, not revolution | Editorial", "webUrl": "https://www.theguardian.com/commentisfree/2013/apr/29/universal-credit", "apiUrl": "https://content.guardianapis.com/commentisfree/2013/apr/29/universal-credit", "isHosted": false, "pillarId": "pillar/opinion", "pillarName": "Opinion"}, {"id": "politics/2013/apr/29/david-cameron-friend-policy-unit", "type": "article", "sectionId": "politics", "sectionName": "Politics", "webPublicationDate": "2013-04-29T21:45:45Z", "webTitle": "David Cameron appoints another friend to policy unit", "webUrl": "https://www.theguardian.com/politics/2013/apr/29/david-cameron-friend-policy-unit", "apiUrl": "https://content.guardianapis.com/politics/2013/apr/29/david-cameron-friend-policy-unit", "isHosted": false, "pillarId": "pillar/news", "pillarName": "News"}, {"id": "politics/2013/apr/29/miliband-vat-borrowing-admission", "type": "article", "sectionId": "politics", "sectionName": "Politics", "webPublicationDate": "2013-04-29T21:01:51Z", "webTitle": "Ed Miliband flustered over VAT plans", "webUrl": "https://www.theguardian.com/politics/2013/apr/29/miliband-vat-borrowing-admission", "apiUrl": "https://content.guardianapis.com/politics/2013/apr/29/miliband-vat-borrowing-admission", "isHosted": false, "pillarId": "pillar/news", "pillarName": "News"}]}}