{"response": {"status": "ok", "userTier": "developer", "total": 85443, "startIndex": 1, "pageSize": 50, "currentPage": 1, "pages": 1709, "orderBy": "newest", "results": [{"id": "football/2011/may/01/france-football-race-row", "type": "article", "sectionId": "football", "sectionName": "Football", "webPublicationDate": "2011-04-30T23:28:43Z", "webTitle": "Director of football is suspended as France race row escalates", "webUrl": "https://www.theguardian.com/football/2011/may/01/france-football-race-row", "apiUrl": "https://content.guardianapis.com/football/2011/may/01/france-football-race-row", "isHosted": false, "pillarId": "pillar/sport", "pillarName": "Sport"}, {"id": "football/2011/may/01/arsenal-arsene-wenger", "type": "article", "sectionId": "football", "sectionName": "Football", "webPublicationDate": "2011-04-30T23:07:07Z", "webTitle": "Ars\u00e8ne Wenger insists Arsenal are 'not ashamed' about their season", "webUrl": "https://www.theguardian.com/football/2011/may/01/arsenal-arsene-wenger", "apiUrl": "https://content.guardianapis.com/football/2011/may/01/arsenal-arsene-wenger", "isHosted": false, "pillarId": "pillar/sport", "pillarName": "Sport"}, {"id": "football/blog/2011/may/01/kenny-dalglish-liverpool", "type": "article", "sectionId": "football", "sectionName": "Football", "webPublicationDate": "2011-04-30T23:07:05Z", "webTitle": "Kenny Dalglish is showing at Liverpool he was never a busted flush | Paul Hayward", "webUrl": "https://www.theguardian.com/football/blog/2011/may/01/kenny-dalglish-liverpool", "apiUrl": "https://content.guardianapis.com/football/blog/2011/may/01/kenny-dalglish-liverpool", "isHosted": false, "pillarId": "pillar/sport", "pillarName": "Sport"}, {"id": "football/2011/may/01/manchester-united-javier-hernandez", "type": "article", "sectionId": "football", "sectionName": "Football", "webPublicationDate": "2011-04-30T23:07:04Z", "webTitle": "Manchester United reap rewards of Javier Hern\u00e1ndez's early harvest", "webUrl": "https://www.theguardian.com/football/2011/may/01/manchester-united-javier-hernandez", "apiUrl": "https://content.guardianapis.com/football/2011/may/01/manchester-united-javier-hernandez", "isHosted": false, "pillarId": "pillar/sport", "pillarName": "Sport"}, {"id": "football/blog/2011/may/01/jose-mourinho-real-madrid-barcelona", "type": "article", "sectionId": "football", "sectionName": "Football", "webPublicationDate": "2011-04-30T23:07:03Z", "webTitle": "Spain's game of greater style \u2013 and the rest is histrionics | Paul Wilson", "webUrl": "https://www.theguardian.com/football/blog/2011/may/01/jose-mourinho-real-madrid-barcelona", "apiUrl": "https://content.guardianapis.com/football/blog/2011/may/01/jose-mourinho-real-madrid-barcelona", "isHosted": false, "pillarId": "pillar/sport", "pillarName": "Sport"}, {"id": "football/2011/may/01/footballers-twitter", "type": "article", "sectionId": "football", "sectionName": "Football", "webPublicationDate": "2011-04-30T23:07:00Z", "webTitle": "How Twitter is bringing footballers back to the fans | Barney Ronay", "webUrl": "https://www.theguardian.com/football/2011/may/01/footballers-twitter", "apiUrl": "https://content.guardianapis.com/football/2011/may/01/footballers-twitter", "isHosted": false, "pillarId": "pillar/sport", "pillarName": "Sport"}, {"id": "football/2011/may/01/barcelona-lionel-messi", "type": "article", "sectionId": "football", "sectionName": "Football", "webPublicationDate": "2011-04-30T23:07:00Z", "webTitle": "Barcelona's Lionel Messi powers into the pantheon of greats | Paul Hayward", "webUrl": "https://www.theguardian.com/football/2011/may/01/barcelona-lionel-messi", "apiUrl": "https://content.guardianapis.com/football/2011/may/01/barcelona-lionel-messi", "isHosted": false, "pillarId": "pillar/sport", "pillarName": "Sport"}, {"id": "business/2011/may/01/stadium-house-prices", "type": "article", "sectionId": "business", "sectionName": "Business", "webPublicationDate": "2011-04-30T23:06:15Z", "webTitle": "New football stadiums good for house prices, economists find", "webUrl": "https://www.theguardian.com/business/2011/may/01/stadium-house-prices", "apiUrl": "https://content.guardianapis.com/business/2011/may/01/stadium-house-prices", "isHosted": false, "pillarId": "pillar/news", "pillarName": "News"}, {"id": "world/2011/may/01/madrid-barcelona-cultural-rivals", "type": "article", "sectionId": "world", "sectionName": "World news", "webPublicationDate": "2011-04-30T23:05:57Z", "webTitle": "Madrid v Barcelona: the cultural battle that the Catalans are losing", "webUrl": "https://www.theguardian.com/world/2011/may/01/madrid-barcelona-cultural-rivals", "apiUrl": "https://content.guardianapis.com/world/2011/may/01/madrid-barcelona-cultural-rivals", "isHosted": false, "pillarId": "pillar/news", "pillarName": "News"}, {"id": "theobserver/2011/may/01/observer-profile-jose-mourinho", "type": "article", "sectionId": "theobserver", "sectionName": "From the Observer", "webPublicationDate": "2011-04-30T23:05:50Z", "webTitle": "Jos\u00e9 Mourinho: The enigma who inspires love and hate", "webUrl": "https://www.theguardian.com/theobserver/2011/may/01/observer-profile-jose-mourinho", "apiUrl": "https://content.guardianapis.com/theobserver/2011/may/01/observer-profile-jose-mourinho", "isHosted": false, "pillarId": "pillar/news", "pillarName": "News"}, {"id": "football/2011/may/01/andy-carroll-alan-pardew-newcastle", "type": "article", "sectionId": "football", "sectionName": "Football", "webPublicationDate": "2011-04-30T23:05:39Z", "webTitle": "Andy Carroll leaving was good for Newcastle, says Alan Pardew", "webUrl": "https://www.theguardian.com/football/2011/may/01/andy-carroll-alan-pardew-newcastle", "apiUrl": "https://content.guardianapis.com/football/2011/may/01/andy-carroll-alan-pardew-newcastle", "isHosted": false, "pillarId": "pillar/sport", "pillarName": "Sport"}, {"id": "football/2011/apr/30/harry-redknapp-spurs-chelsea", "type": "article", "sectionId": "football", "sectionName": "Football", "webPublicationDate": "2011-04-30T21:49:06Z", "webTitle": "Harry Redknapp calls for video technology after linesman's error", "webUrl": "https://www.theguardian.com/football/2011/apr/30/harry-redknapp-spurs-chelsea", "apiUrl": "https://content.guardianapis.com/football/2011/apr/30/harry-redknapp-spurs-chelsea", "isHosted": false, "pillarId": "pillar/sport", "pillarName": "Sport"}, {"id": "football/blog/2011/apr/30/chelsea-spurs-goalline-technology", "type": "article", "sectionId": "football", "sectionName": "Football", "webPublicationDate": "2011-04-30T21:17:28Z", "webTitle": "Time for football to leave Victorian age and turn to technology | Paul Hayward", "webUrl": "https://www.theguardian.com/football/blog/2011/apr/30/chelsea-spurs-goalline-technology", "apiUrl": "https://content.guardianapis.com/football/blog/2011/apr/30/chelsea-spurs-goalline-technology", "isHosted": false, "pillarId": "pillar/sport", "pillarName": "Sport"}, {"id": "football/blog/2011/apr/30/rangers-chanting-uefa-celtic", "type": "article", "sectionId": "football", "sectionName": "Football", "webPublicationDate": "2011-04-30T21:00:00Z", "webTitle": "Uefa action over sectarian chanting exposes need for clearer approach", "webUrl": "https://www.theguardian.com/football/blog/2011/apr/30/rangers-chanting-uefa-celtic", "apiUrl": "https://content.guardianapis.com/football/blog/2011/apr/30/rangers-chanting-uefa-celtic", "isHosted": false, "pillarId": "pillar/sport", "pillarName": "Sport"}, {"id": "football/2011/apr/30/chelsea-spurs-premier-league", "type": "article", "sectionId": "football", "sectionName": "Football", "webPublicationDate": "2011-04-30T19:28:53Z", "webTitle": "Chelsea 2-1 Tottenham Hotspur | Premier League match report", "webUrl": "https://www.theguardian.com/football/2011/apr/30/chelsea-spurs-premier-league", "apiUrl": "https://content.guardianapis.com/football/2011/apr/30/chelsea-spurs-premier-league", "isHosted": false, "pillarId": "pillar/sport", "pillarName": "Sport"}, {"id": "football/2011/apr/30/watford-qpr-championship", "type": "article", "sectionId": "football", "sectionName": "Football", "webPublicationDate": "2011-04-30T17:13:55Z", "webTitle": "Watford 0-2 QPR | Championship match report", "webUrl": "https://www.theguardian.com/football/2011/apr/30/watford-qpr-championship", "apiUrl": "https://content.guardianapis.com/football/2011/apr/30/watford-qpr-championship", "isHosted": false, "pillarId": "pillar/sport", "pillarName": "Sport"}, {"id": "football/2011/apr/30/spl-kieran-agard-kilmarnock-hearts", "type": "article", "sectionId": "football", "sectionName": "Football", "webPublicationDate": "2011-04-30T17:12:41Z", "webTitle": "SPL round-up: Kieran Agard earns Kilmarnock a late draw with Hearts", "webUrl": "https://www.theguardian.com/football/2011/apr/30/spl-kieran-agard-kilmarnock-hearts", "apiUrl": "https://content.guardianapis.com/football/2011/apr/30/spl-kieran-agard-kilmarnock-hearts", "isHosted": false, "pillarId": "pillar/sport", "pillarName": "Sport"}, {"id": "football/2011/apr/30/wigan-athletic-everton-premier-league", "type": "article", "sectionId": "football", "sectionName": "Football", "webPublicationDate": "2011-04-30T16:20:08Z", "webTitle": "Wigan Athletic 1-1 Everton | Premier League match report", "webUrl": "https://www.theguardian.com/football/2011/apr/30/wigan-athletic-everton-premier-league", "apiUrl": "https://content.guardianapis.com/football/2011/apr/30/wigan-athletic-everton-premier-league", "isHosted": false, "pillarId": "pillar/sport", "pillarName": "Sport"}, {"id": "football/2011/apr/30/blackpool-stoke-city-premier-league", "type": "article", "sectionId": "football", "sectionName": "Football", "webPublicationDate": "2011-04-30T16:10:08Z", "webTitle": "Blackpool 0-0 Stoke City | Premier League match report", "webUrl": "https://www.theguardian.com/football/2011/apr/30/blackpool-stoke-city-premier-league", "apiUrl": "https://content.guardianapis.com/football/2011/apr/30/blackpool-stoke-city-premier-league", "isHosted": false, "pillarId": "pillar/sport", "pillarName": "Sport"}, {"id": "football/2011/apr/30/blackburn-rovers-bolton-wanderers-premier-league", "type": "article", "sectionId": "football", "sectionName": "Football", "webPublicationDate": "2011-04-30T16:08:10Z", "webTitle": "Blackburn Rovers 1-0 Bolton Wanderers | Premier League match report", "webUrl": "https://www.theguardian.com/football/2011/apr/30/blackburn-rovers-bolton-wanderers-premier-league", "apiUrl": "https://content.guardianapis.com/football/2011/apr/30/blackburn-rovers-bolton-wanderers-premier-league", "isHosted": false, "pillarId": "pillar/sport", "pillarName": "Sport"}, {"id": "football/2011/apr/30/west-brom-aston-villa-premier-league", "type": "article", "sectionId": "football", "sectionName": "Football", "webPublicationDate": "2011-04-30T16:07:13Z", "webTitle": "West Bromwich Albion 2\u20131 Aston Villa | Premier League match report", "webUrl": "https://www.theguardian.com/football/2011/apr/30/west-brom-aston-villa-premier-league", "apiUrl": "https://content.guardianapis.com/football/2011/apr/30/west-brom-aston-villa-premier-league", "isHosted": false, "pillarId": "pillar/sport", "pillarName": "Sport"}, {"id": "football/2011/apr/30/sunderland-fulham-premier-league", "type": "article", "sectionId": "football", "sectionName": "Football", "webPublicationDate": "2011-04-30T16:06:43Z", "webTitle": "Sunderland 0\u20133 Fulham | Premier League match report", "webUrl": "https://www.theguardian.com/football/2011/apr/30/sunderland-fulham-premier-league", "apiUrl": "https://content.guardianapis.com/football/2011/apr/30/sunderland-fulham-premier-league", "isHosted": false, "pillarId": "pillar/sport", "pillarName": "Sport"}, {"id": "football/football-league-blog/2011/apr/30/qpr-promoted-football-league-blog", "type": "article", "sectionId": "football", "sectionName": "Football", "webPublicationDate": "2011-04-30T16:04:49Z", "webTitle": "Football League: QPR win promotion from the Championship", "webUrl": "https://www.theguardian.com/football/football-league-blog/2011/apr/30/qpr-promoted-football-league-blog", "apiUrl": "https://content.guardianapis.com/football/football-league-blog/2011/apr/30/qpr-promoted-football-league-blog", "isHosted": false, "pillarId": "pillar/sport", "pillarName": "Sport"}, {"id": "football/2011/apr/30/chelsea-tottenham-live-scores", "type": "article", "sectionId": "football", "sectionName": "Football", "webPublicationDate": "2011-04-30T15:30:00Z", "webTitle": "Chelsea v Tottenham - as it happened | Rob Smyth", "webUrl": "https://www.theguardian.com/football/2011/apr/30/chelsea-tottenham-live-scores", "apiUrl": "https://content.guardianapis.com/football/2011/apr/30/chelsea-tottenham-live-scores", "isHosted": false, "pillarId": "pillar/sport", "pillarName": "Sport"}, {"id": "football/2011/apr/30/motherwell-rangers-scottish-premier-league", "type": "article", "sectionId": "football", "sectionName": "Football", "webPublicationDate": "2011-04-30T13:07:57Z", "webTitle": "Motherwell 0-5 Rangers | Scottish Premier League match report", "webUrl": "https://www.theguardian.com/football/2011/apr/30/motherwell-rangers-scottish-premier-league", "apiUrl": "https://content.guardianapis.com/football/2011/apr/30/motherwell-rangers-scottish-premier-league", "isHosted": false, "pillarId": "pillar/sport", "pillarName": "Sport"}, {"id": "football/2011/apr/30/saturday-clockwatch-latest-scores", "type": "article", "sectionId": "football", "sectionName": "Football", "webPublicationDate": "2011-04-30T12:56:00Z", "webTitle": "Saturday clockwatch - as it happened | Rob Smyth", "webUrl": "https://www.theguardian.com/football/2011/apr/30/saturday-clockwatch-latest-scores", "apiUrl": "https://content.guardianapis.com/football/2011/apr/30/saturday-clockwatch-latest-scores", "isHosted": false, "pillarId": "pillar/sport", "pillarName": "Sport"}, {"id": "football/blog/2011/apr/30/real-madrid-barcelona-left-cursing", "type": "article", "sectionId": "football", "sectionName": "Football", "webPublicationDate": "2011-04-30T07:30:00Z", "webTitle": "The Secret Footballer: Why battle of Bernab\u00e9u sent me to bed cursing", "webUrl": "https://www.theguardian.com/football/blog/2011/apr/30/real-madrid-barcelona-left-cursing", "apiUrl": "https://content.guardianapis.com/football/blog/2011/apr/30/real-madrid-barcelona-left-cursing", "isHosted": false, "pillarId": "pillar/sport", "pillarName": "Sport"}, {"id": "football/2011/apr/30/david-moyes-leighton-baines-everton-liverpool", "type": "article", "sectionId": "football", "sectionName": "Football", "webPublicationDate": "2011-04-29T23:07:09Z", "webTitle": "David Moyes denies Leighton Baines could leave Everton for Liverpool", "webUrl": "https://www.theguardian.com/football/2011/apr/30/david-moyes-leighton-baines-everton-liverpool", "apiUrl": "https://content.guardianapis.com/football/2011/apr/30/david-moyes-leighton-baines-everton-liverpool", "isHosted": false, "pillarId": "pillar/sport", "pillarName": "Sport"}, {"id": "football/2011/apr/30/kenny-dalglish-liverpool-transfer-policy", "type": "article", "sectionId": "football", "sectionName": "Football", "webPublicationDate": "2011-04-29T23:07:08Z", "webTitle": "Kenny Dalglish says it is too soon to judge Liverpool transfer policy", "webUrl": "https://www.theguardian.com/football/2011/apr/30/kenny-dalglish-liverpool-transfer-policy", "apiUrl": "https://content.guardianapis.com/football/2011/apr/30/kenny-dalglish-liverpool-transfer-policy", "isHosted": false, "pillarId": "pillar/sport", "pillarName": "Sport"}, {"id": "football/2011/apr/30/didier-drogba-chelsea", "type": "article", "sectionId": "football", "sectionName": "Football", "webPublicationDate": "2011-04-29T23:07:07Z", "webTitle": "The real Didier Drogba is back, mean and motivated for Chelsea", "webUrl": "https://www.theguardian.com/football/2011/apr/30/didier-drogba-chelsea", "apiUrl": "https://content.guardianapis.com/football/2011/apr/30/didier-drogba-chelsea", "isHosted": false, "pillarId": "pillar/sport", "pillarName": "Sport"}, {"id": "football/2011/apr/30/harry-redknapp-europa-league-tottenham", "type": "article", "sectionId": "football", "sectionName": "Football", "webPublicationDate": "2011-04-29T23:07:07Z", "webTitle": "Harry Redknapp says idea of Europa League at Tottenham leaves him cold", "webUrl": "https://www.theguardian.com/football/2011/apr/30/harry-redknapp-europa-league-tottenham", "apiUrl": "https://content.guardianapis.com/football/2011/apr/30/harry-redknapp-europa-league-tottenham", "isHosted": false, "pillarId": "pillar/sport", "pillarName": "Sport"}, {"id": "football/blog/2011/apr/30/real-madrid-barcelona", "type": "article", "sectionId": "football", "sectionName": "Football", "webPublicationDate": "2011-04-29T23:07:05Z", "webTitle": "Ten ways to satisfy your constant craving for El Cl\u00e1sico | Barney Ronay", "webUrl": "https://www.theguardian.com/football/blog/2011/apr/30/real-madrid-barcelona", "apiUrl": "https://content.guardianapis.com/football/blog/2011/apr/30/real-madrid-barcelona", "isHosted": false, "pillarId": "pillar/sport", "pillarName": "Sport"}, {"id": "football/2011/apr/30/arsenal-johan-djourou", "type": "article", "sectionId": "football", "sectionName": "Football", "webPublicationDate": "2011-04-29T23:07:00Z", "webTitle": "Arsenal's Johan Djourou: 'We have to show the world the boss is right' | David Hytner", "webUrl": "https://www.theguardian.com/football/2011/apr/30/arsenal-johan-djourou", "apiUrl": "https://content.guardianapis.com/football/2011/apr/30/arsenal-johan-djourou", "isHosted": false, "pillarId": "pillar/sport", "pillarName": "Sport"}, {"id": "football/2011/apr/30/cesc-fabregas-arsenal", "type": "article", "sectionId": "football", "sectionName": "Football", "webPublicationDate": "2011-04-29T23:06:34Z", "webTitle": "Cesc F\u00e1bregas has struggled to bear burden of expectation, says Wenger", "webUrl": "https://www.theguardian.com/football/2011/apr/30/cesc-fabregas-arsenal", "apiUrl": "https://content.guardianapis.com/football/2011/apr/30/cesc-fabregas-arsenal", "isHosted": false, "pillarId": "pillar/sport", "pillarName": "Sport"}, {"id": "football/2011/apr/29/alex-ferguson-manchester-united-arsenal-chelsea", "type": "article", "sectionId": "football", "sectionName": "Football", "webPublicationDate": "2011-04-29T21:45:03Z", "webTitle": "Alex Ferguson says Manchester United players are 'coming to a peak'", "webUrl": "https://www.theguardian.com/football/2011/apr/29/alex-ferguson-manchester-united-arsenal-chelsea", "apiUrl": "https://content.guardianapis.com/football/2011/apr/29/alex-ferguson-manchester-united-arsenal-chelsea", "isHosted": false, "pillarId": "pillar/sport", "pillarName": "Sport"}, {"id": "football/2011/apr/29/mick-mccarthy-wolverhampton-birmingham", "type": "article", "sectionId": "football", "sectionName": "Football", "webPublicationDate": "2011-04-29T21:30:01Z", "webTitle": "Mick McCarthy admits loss of Kevin Doyle has hit Wolves hard", "webUrl": "https://www.theguardian.com/football/2011/apr/29/mick-mccarthy-wolverhampton-birmingham", "apiUrl": "https://content.guardianapis.com/football/2011/apr/29/mick-mccarthy-wolverhampton-birmingham", "isHosted": false, "pillarId": "pillar/sport", "pillarName": "Sport"}, {"id": "football/2011/apr/29/mark-hughes-fulham-new-contract-talks", "type": "article", "sectionId": "football", "sectionName": "Football", "webPublicationDate": "2011-04-29T21:30:01Z", "webTitle": "Mark Hughes to hold talks with Fulham about a new contract", "webUrl": "https://www.theguardian.com/football/2011/apr/29/mark-hughes-fulham-new-contract-talks", "apiUrl": "https://content.guardianapis.com/football/2011/apr/29/mark-hughes-fulham-new-contract-talks", "isHosted": false, "pillarId": "pillar/sport", "pillarName": "Sport"}, {"id": "football/2011/apr/29/west-ham-united-relegation", "type": "article", "sectionId": "football", "sectionName": "Football", "webPublicationDate": "2011-04-29T21:30:01Z", "webTitle": "West Ham have four games to save themselves from financial oblivion", "webUrl": "https://www.theguardian.com/football/2011/apr/29/west-ham-united-relegation", "apiUrl": "https://content.guardianapis.com/football/2011/apr/29/west-ham-united-relegation", "isHosted": false, "pillarId": "pillar/sport", "pillarName": "Sport"}, {"id": "football/2011/apr/29/newcastle-united-alan-pardew", "type": "article", "sectionId": "football", "sectionName": "Football", "webPublicationDate": "2011-04-29T21:00:01Z", "webTitle": "Newcastle finally accept basics are better than bluster", "webUrl": "https://www.theguardian.com/football/2011/apr/29/newcastle-united-alan-pardew", "apiUrl": "https://content.guardianapis.com/football/2011/apr/29/newcastle-united-alan-pardew", "isHosted": false, "pillarId": "pillar/sport", "pillarName": "Sport"}, {"id": "football/2011/apr/29/neil-lennon-defends-behaviour", "type": "article", "sectionId": "football", "sectionName": "Football", "webPublicationDate": "2011-04-29T21:00:00Z", "webTitle": "Celtic's Neil Lennon defends his behaviour towards Rangers' supporters", "webUrl": "https://www.theguardian.com/football/2011/apr/29/neil-lennon-defends-behaviour", "apiUrl": "https://content.guardianapis.com/football/2011/apr/29/neil-lennon-defends-behaviour", "isHosted": false, "pillarId": "pillar/sport", "pillarName": "Sport"}, {"id": "football/2011/apr/29/manchester-united-arsenal-ferguson-wenger", "type": "article", "sectionId": "football", "sectionName": "Football", "webPublicationDate": "2011-04-29T18:06:04Z", "webTitle": "Styles of Manchester United and Arsenal managers on collision course", "webUrl": "https://www.theguardian.com/football/2011/apr/29/manchester-united-arsenal-ferguson-wenger", "apiUrl": "https://content.guardianapis.com/football/2011/apr/29/manchester-united-arsenal-ferguson-wenger", "isHosted": false, "pillarId": "pillar/sport", "pillarName": "Sport"}, {"id": "football/2011/apr/29/promotion-relegation-championship-league-one-two", "type": "article", "sectionId": "football", "sectionName": "Football", "webPublicationDate": "2011-04-29T17:32:59Z", "webTitle": "Promotion and relegation: who needs what in the Football League", "webUrl": "https://www.theguardian.com/football/2011/apr/29/promotion-relegation-championship-league-one-two", "apiUrl": "https://content.guardianapis.com/football/2011/apr/29/promotion-relegation-championship-league-one-two", "isHosted": false, "pillarId": "pillar/sport", "pillarName": "Sport"}, {"id": "football/2011/apr/29/squad-sheets-blackpool-stoke-city", "type": "article", "sectionId": "football", "sectionName": "Football", "webPublicationDate": "2011-04-29T16:55:06Z", "webTitle": "Blackpool v Stoke City: Squad sheets", "webUrl": "https://www.theguardian.com/football/2011/apr/29/squad-sheets-blackpool-stoke-city", "apiUrl": "https://content.guardianapis.com/football/2011/apr/29/squad-sheets-blackpool-stoke-city", "isHosted": false, "pillarId": "pillar/sport", "pillarName": "Sport"}, {"id": "football/2011/apr/29/squad-sheets-manchester-city-west-ham", "type": "article", "sectionId": "football", "sectionName": "Football", "webPublicationDate": "2011-04-29T16:48:19Z", "webTitle": "Squad sheets: Manchester City v West Ham United", "webUrl": "https://www.theguardian.com/football/2011/apr/29/squad-sheets-manchester-city-west-ham", "apiUrl": "https://content.guardianapis.com/football/2011/apr/29/squad-sheets-manchester-city-west-ham", "isHosted": false, "pillarId": "pillar/sport", "pillarName": "Sport"}, {"id": "football/2011/apr/29/squad-sheets-birmingham-city-wolverhampton-wanderers", "type": "article", "sectionId": "football", "sectionName": "Football", "webPublicationDate": "2011-04-29T15:29:40Z", "webTitle": "Squad sheets: Birmingham City v Wolverhampton Wanderers", "webUrl": "https://www.theguardian.com/football/2011/apr/29/squad-sheets-birmingham-city-wolverhampton-wanderers", "apiUrl": "https://content.guardianapis.com/football/2011/apr/29/squad-sheets-birmingham-city-wolverhampton-wanderers", "isHosted": false, "pillarId": "pillar/sport", "pillarName": "Sport"}, {"id": "football/2011/apr/29/squad-sheets-sunderland-fulham", "type": "article", "sectionId": "football", "sectionName": "Football", "webPublicationDate": "2011-04-29T15:23:44Z", "webTitle": "Squad sheets: Sunderland v Fulham", "webUrl": "https://www.theguardian.com/football/2011/apr/29/squad-sheets-sunderland-fulham", "apiUrl": "https://content.guardianapis.com/football/2011/apr/29/squad-sheets-sunderland-fulham", "isHosted": false, "pillarId": "pillar/sport", "pillarName": "Sport"}, {"id": "football/2011/apr/29/squad-sheets-blackburn-rovers-bolton-wanderers", "type": "article", "sectionId": "football", "sectionName": "Football", "webPublicationDate": "2011-04-29T15:17:29Z", "webTitle": "Squad sheets: Blackburn Rovers v Bolton Wanderers", "webUrl": "https://www.theguardian.com/football/2011/apr/29/squad-sheets-blackburn-rovers-bolton-wanderers", "apiUrl": "https://content.guardianapis.com/football/2011/apr/29/squad-sheets-blackburn-rovers-bolton-wanderers", "isHosted": false, "pillarId": "pillar/sport", "pillarName": "Sport"}, {"id": "football/2011/apr/29/squad-sheets-wigan-athletic-everton", "type": "article", "sectionId": "football", "sectionName": "Football", "webPublicationDate": "2011-04-29T15:11:25Z", "webTitle": "Wigan Athletic v Everton: Squad sheets", "webUrl": "https://www.theguardian.com/football/2011/apr/29/squad-sheets-wigan-athletic-everton", "apiUrl": "https://content.guardianapis.com/football/2011/apr/29/squad-sheets-wigan-athletic-everton", "isHosted": false, "pillarId": "pillar/sport", "pillarName": "Sport"}, {"id": "football/2011/apr/29/squad-sheets-west-bromwich-aston-villa", "type": "article", "sectionId": "football", "sectionName": "Football", "webPublicationDate": "2011-04-29T14:54:45Z", "webTitle": "Squad sheets: West Bromwich Albion v Aston Villa", "webUrl": "https://www.theguardian.com/football/2011/apr/29/squad-sheets-west-bromwich-aston-villa", "apiUrl": "https://content.guardianapis.com/football/2011/apr/29/squad-sheets-west-bromwich-aston-villa", "isHosted": false, "pillarId": "pillar/sport", "pillarName": "Sport"}, {"id": "world/2011/apr/29/french-football-race-row", "type": "article", "sectionId": "football", "sectionName": "Football", "webPublicationDate": "2011-04-29T14:53:41Z", "webTitle": "France football heads mired in race row over alleged quotas for ethnic players", "webUrl": "https://www.theguardian.com/world/2011/apr/29/french-football-race-row", "apiUrl": "https://content.guardianapis.com/world/2011/apr/29/french-football-race-row", "isHosted": false, "pillarId": "pillar/sport", "pillarName": "Sport"}]}}