{"response": {"status": "ok", "userTier": "developer", "total": 18812, "startIndex": 1, "pageSize": 50, "currentPage": 1, "pages": 377, "orderBy": "newest", "results": [{"id": "lifeandstyle/wordofmouth/2013/apr/30/food-apps-bad-children-health", "type": "article", "sectionId": "lifeandstyle", "sectionName": "Life and style", "webPublicationDate": "2013-04-30T12:00:39Z", "webTitle": "The food apps that could be bad for your children's health", "webUrl": "https://www.theguardian.com/lifeandstyle/wordofmouth/2013/apr/30/food-apps-bad-children-health", "apiUrl": "https://content.guardianapis.com/lifeandstyle/wordofmouth/2013/apr/30/food-apps-bad-children-health", "isHosted": false, "pillarId": "pillar/lifestyle", "pillarName": "Lifestyle"}, {"id": "lifeandstyle/video/2013/apr/30/street-kitchen-chefs-tanaka-jankel-recommend-koya-video", "type": "video", "sectionId": "lifeandstyle", "sectionName": "Life and style", "webPublicationDate": "2013-04-30T09:32:00Z", "webTitle": "Street Kitchen chefs Jun Tanaka and Mark Jankel recommend Koya - video", "webUrl": "https://www.theguardian.com/lifeandstyle/video/2013/apr/30/street-kitchen-chefs-tanaka-jankel-recommend-koya-video", "apiUrl": "https://content.guardianapis.com/lifeandstyle/video/2013/apr/30/street-kitchen-chefs-tanaka-jankel-recommend-koya-video", "isHosted": false, "pillarId": "pillar/lifestyle", "pillarName": "Lifestyle"}, {"id": "lifeandstyle/2013/apr/30/20-best-restaurants-part-two", "type": "article", "sectionId": "food", "sectionName": "Food", "webPublicationDate": "2013-04-30T06:30:00Z", "webTitle": "The 20 best restaurants: part two", "webUrl": "https://www.theguardian.com/lifeandstyle/2013/apr/30/20-best-restaurants-part-two", "apiUrl": "https://content.guardianapis.com/lifeandstyle/2013/apr/30/20-best-restaurants-part-two", "isHosted": false, "pillarId": "pillar/lifestyle", "pillarName": "Lifestyle"}, {"id": "lifeandstyle/2013/apr/29/el-celler-de-can-roca-restaurant", "type": "article", "sectionId": "food", "sectionName": "Food", "webPublicationDate": "2013-04-29T20:47:00Z", "webTitle": "El Celler de Can Roca retakes global restaurant title for Catalonia", "webUrl": "https://www.theguardian.com/lifeandstyle/2013/apr/29/el-celler-de-can-roca-restaurant", "apiUrl": "https://content.guardianapis.com/lifeandstyle/2013/apr/29/el-celler-de-can-roca-restaurant", "isHosted": false, "pillarId": "pillar/lifestyle", "pillarName": "Lifestyle"}, {"id": "lifeandstyle/2013/apr/29/buy-of-the-day", "type": "article", "sectionId": "lifeandstyle", "sectionName": "Life and style", "webPublicationDate": "2013-04-29T11:18:00Z", "webTitle": "Buy of the day", "webUrl": "https://www.theguardian.com/lifeandstyle/2013/apr/29/buy-of-the-day", "apiUrl": "https://content.guardianapis.com/lifeandstyle/2013/apr/29/buy-of-the-day", "isHosted": false, "pillarId": "pillar/lifestyle", "pillarName": "Lifestyle"}, {"id": "lifeandstyle/2013/apr/29/okra-curry-recipe-rahila-hussain", "type": "article", "sectionId": "food", "sectionName": "Food", "webPublicationDate": "2013-04-29T10:59:00Z", "webTitle": "Okra curry recipe | Rahila Hussain", "webUrl": "https://www.theguardian.com/lifeandstyle/2013/apr/29/okra-curry-recipe-rahila-hussain", "apiUrl": "https://content.guardianapis.com/lifeandstyle/2013/apr/29/okra-curry-recipe-rahila-hussain", "isHosted": false, "pillarId": "pillar/lifestyle", "pillarName": "Lifestyle"}, {"id": "lifeandstyle/2013/apr/29/urid-dal-fenugreek-sauce-recipe", "type": "article", "sectionId": "food", "sectionName": "Food", "webPublicationDate": "2013-04-29T10:58:00Z", "webTitle": "Urid dal in fenugreek sauce recipe", "webUrl": "https://www.theguardian.com/lifeandstyle/2013/apr/29/urid-dal-fenugreek-sauce-recipe", "apiUrl": "https://content.guardianapis.com/lifeandstyle/2013/apr/29/urid-dal-fenugreek-sauce-recipe", "isHosted": false, "pillarId": "pillar/lifestyle", "pillarName": "Lifestyle"}, {"id": "lifeandstyle/2013/apr/29/chickpea-pilau-rice-recipe-rahila-hussain", "type": "article", "sectionId": "food", "sectionName": "Food", "webPublicationDate": "2013-04-29T10:58:00Z", "webTitle": "Chickpea pilau rice recipe | Rahila Hussain", "webUrl": "https://www.theguardian.com/lifeandstyle/2013/apr/29/chickpea-pilau-rice-recipe-rahila-hussain", "apiUrl": "https://content.guardianapis.com/lifeandstyle/2013/apr/29/chickpea-pilau-rice-recipe-rahila-hussain", "isHosted": false, "pillarId": "pillar/lifestyle", "pillarName": "Lifestyle"}, {"id": "lifeandstyle/2013/apr/29/20-best-restaurants-part-one", "type": "article", "sectionId": "food", "sectionName": "Food", "webPublicationDate": "2013-04-29T06:30:00Z", "webTitle": "The 20 best restaurants: part one", "webUrl": "https://www.theguardian.com/lifeandstyle/2013/apr/29/20-best-restaurants-part-one", "apiUrl": "https://content.guardianapis.com/lifeandstyle/2013/apr/29/20-best-restaurants-part-one", "isHosted": false, "pillarId": "pillar/lifestyle", "pillarName": "Lifestyle"}, {"id": "technology/2013/apr/29/junk-food-ad-ban-children", "type": "article", "sectionId": "technology", "sectionName": "Technology", "webPublicationDate": "2013-04-28T23:06:00Z", "webTitle": "Junk foods avoid ad ban by targeting children online", "webUrl": "https://www.theguardian.com/technology/2013/apr/29/junk-food-ad-ban-children", "apiUrl": "https://content.guardianapis.com/technology/2013/apr/29/junk-food-ad-ban-children", "isHosted": false, "pillarId": "pillar/news", "pillarName": "News"}, {"id": "lifeandstyle/2013/apr/28/asadal-korean-restaurant-review", "type": "article", "sectionId": "food", "sectionName": "Food", "webPublicationDate": "2013-04-28T06:30:01Z", "webTitle": "Asadal: restaurant review", "webUrl": "https://www.theguardian.com/lifeandstyle/2013/apr/28/asadal-korean-restaurant-review", "apiUrl": "https://content.guardianapis.com/lifeandstyle/2013/apr/28/asadal-korean-restaurant-review", "isHosted": false, "pillarId": "pillar/lifestyle", "pillarName": "Lifestyle"}, {"id": "lifeandstyle/2013/apr/27/wines-of-the-week-sauvignon-blancs", "type": "article", "sectionId": "food", "sectionName": "Food", "webPublicationDate": "2013-04-27T17:59:01Z", "webTitle": "Wines of the week: a trio of sauvignon blancs", "webUrl": "https://www.theguardian.com/lifeandstyle/2013/apr/27/wines-of-the-week-sauvignon-blancs", "apiUrl": "https://content.guardianapis.com/lifeandstyle/2013/apr/27/wines-of-the-week-sauvignon-blancs", "isHosted": false, "pillarId": "pillar/lifestyle", "pillarName": "Lifestyle"}, {"id": "lifeandstyle/2013/apr/27/wine-style-versus-grape-region", "type": "article", "sectionId": "food", "sectionName": "Food", "webPublicationDate": "2013-04-27T08:00:20Z", "webTitle": "Wine: style over substance?", "webUrl": "https://www.theguardian.com/lifeandstyle/2013/apr/27/wine-style-versus-grape-region", "apiUrl": "https://content.guardianapis.com/lifeandstyle/2013/apr/27/wine-style-versus-grape-region", "isHosted": false, "pillarId": "pillar/lifestyle", "pillarName": "Lifestyle"}, {"id": "lifeandstyle/2013/apr/27/a-wong-london-sw1-review", "type": "article", "sectionId": "lifeandstyle", "sectionName": "Life and style", "webPublicationDate": "2013-04-27T08:00:00Z", "webTitle": "Restaurant: A Wong, London SW1", "webUrl": "https://www.theguardian.com/lifeandstyle/2013/apr/27/a-wong-london-sw1-review", "apiUrl": "https://content.guardianapis.com/lifeandstyle/2013/apr/27/a-wong-london-sw1-review", "isHosted": false, "pillarId": "pillar/lifestyle", "pillarName": "Lifestyle"}, {"id": "lifeandstyle/2013/apr/27/great-escape-india-arie-jacks-pie", "type": "article", "sectionId": "lifeandstyle", "sectionName": "Life and style", "webPublicationDate": "2013-04-27T06:15:00Z", "webTitle": "Family life | A great escape, India Arie and Jack's pie", "webUrl": "https://www.theguardian.com/lifeandstyle/2013/apr/27/great-escape-india-arie-jacks-pie", "apiUrl": "https://content.guardianapis.com/lifeandstyle/2013/apr/27/great-escape-india-arie-jacks-pie", "isHosted": false, "pillarId": "pillar/lifestyle", "pillarName": "Lifestyle"}, {"id": "lifeandstyle/2013/apr/27/meet-producer-dorset-snails", "type": "article", "sectionId": "lifeandstyle", "sectionName": "Life and style", "webPublicationDate": "2013-04-27T06:01:13Z", "webTitle": "The snail trade | Meet the producer", "webUrl": "https://www.theguardian.com/lifeandstyle/2013/apr/27/meet-producer-dorset-snails", "apiUrl": "https://content.guardianapis.com/lifeandstyle/2013/apr/27/meet-producer-dorset-snails", "isHosted": false, "pillarId": "pillar/lifestyle", "pillarName": "Lifestyle"}, {"id": "lifeandstyle/2013/apr/27/adventurous-toddler-foods", "type": "article", "sectionId": "lifeandstyle", "sectionName": "Life and style", "webPublicationDate": "2013-04-27T06:01:11Z", "webTitle": "Recipe ideas for toddlers | Ask Sonya", "webUrl": "https://www.theguardian.com/lifeandstyle/2013/apr/27/adventurous-toddler-foods", "apiUrl": "https://content.guardianapis.com/lifeandstyle/2013/apr/27/adventurous-toddler-foods", "isHosted": false, "pillarId": "pillar/lifestyle", "pillarName": "Lifestyle"}, {"id": "lifeandstyle/2013/apr/27/henry-dimbleby-cafe-brulot", "type": "article", "sectionId": "lifeandstyle", "sectionName": "Life and style", "webPublicationDate": "2013-04-27T06:01:11Z", "webTitle": "Make your own cafe brulot", "webUrl": "https://www.theguardian.com/lifeandstyle/2013/apr/27/henry-dimbleby-cafe-brulot", "apiUrl": "https://content.guardianapis.com/lifeandstyle/2013/apr/27/henry-dimbleby-cafe-brulot", "isHosted": false, "pillarId": "pillar/lifestyle", "pillarName": "Lifestyle"}, {"id": "lifeandstyle/2013/apr/27/get-togethers-home-delivery", "type": "article", "sectionId": "lifeandstyle", "sectionName": "Life and style", "webPublicationDate": "2013-04-27T06:01:09Z", "webTitle": "Get-togethers: dinner delivered to the door", "webUrl": "https://www.theguardian.com/lifeandstyle/2013/apr/27/get-togethers-home-delivery", "apiUrl": "https://content.guardianapis.com/lifeandstyle/2013/apr/27/get-togethers-home-delivery", "isHosted": false, "pillarId": "pillar/lifestyle", "pillarName": "Lifestyle"}, {"id": "lifeandstyle/2013/apr/27/readers-recipe-swap-wobbly", "type": "article", "sectionId": "lifeandstyle", "sectionName": "Life and style", "webPublicationDate": "2013-04-27T06:01:08Z", "webTitle": "Readers' recipe swap: wobbly", "webUrl": "https://www.theguardian.com/lifeandstyle/2013/apr/27/readers-recipe-swap-wobbly", "apiUrl": "https://content.guardianapis.com/lifeandstyle/2013/apr/27/readers-recipe-swap-wobbly", "isHosted": false, "pillarId": "pillar/lifestyle", "pillarName": "Lifestyle"}, {"id": "lifeandstyle/2013/apr/27/good-for-you-asparagus", "type": "article", "sectionId": "lifeandstyle", "sectionName": "Life and style", "webPublicationDate": "2013-04-27T05:59:04Z", "webTitle": "Why asparagus is good for you", "webUrl": "https://www.theguardian.com/lifeandstyle/2013/apr/27/good-for-you-asparagus", "apiUrl": "https://content.guardianapis.com/lifeandstyle/2013/apr/27/good-for-you-asparagus", "isHosted": false, "pillarId": "pillar/lifestyle", "pillarName": "Lifestyle"}, {"id": "lifeandstyle/2013/apr/27/10-best-breakfast-recipes", "type": "article", "sectionId": "lifeandstyle", "sectionName": "Life and style", "webPublicationDate": "2013-04-27T05:59:03Z", "webTitle": "The 10 best breakfast recipes", "webUrl": "https://www.theguardian.com/lifeandstyle/2013/apr/27/10-best-breakfast-recipes", "apiUrl": "https://content.guardianapis.com/lifeandstyle/2013/apr/27/10-best-breakfast-recipes", "isHosted": false, "pillarId": "pillar/lifestyle", "pillarName": "Lifestyle"}, {"id": "travel/2013/apr/27/florida-road-trip-tim-dorsey", "type": "article", "sectionId": "travel", "sectionName": "Travel", "webPublicationDate": "2013-04-26T23:10:00Z", "webTitle": "Florida road trip: welcome to the weird and the wonderful", "webUrl": "https://www.theguardian.com/travel/2013/apr/27/florida-road-trip-tim-dorsey", "apiUrl": "https://content.guardianapis.com/travel/2013/apr/27/florida-road-trip-tim-dorsey", "isHosted": false, "pillarId": "pillar/lifestyle", "pillarName": "Lifestyle"}, {"id": "travel/2013/apr/27/top-10-budget-cafes-diners-miami", "type": "article", "sectionId": "travel", "sectionName": "Travel", "webPublicationDate": "2013-04-26T23:10:00Z", "webTitle": "Miami's top 10 budget cafes and diners", "webUrl": "https://www.theguardian.com/travel/2013/apr/27/top-10-budget-cafes-diners-miami", "apiUrl": "https://content.guardianapis.com/travel/2013/apr/27/top-10-budget-cafes-diners-miami", "isHosted": false, "pillarId": "pillar/lifestyle", "pillarName": "Lifestyle"}, {"id": "travel/2013/apr/27/florida-panhandle-food-road-trip", "type": "article", "sectionId": "travel", "sectionName": "Travel", "webPublicationDate": "2013-04-26T23:10:00Z", "webTitle": "Florida panhandle: a foodie road trip", "webUrl": "https://www.theguardian.com/travel/2013/apr/27/florida-panhandle-food-road-trip", "apiUrl": "https://content.guardianapis.com/travel/2013/apr/27/florida-panhandle-food-road-trip", "isHosted": false, "pillarId": "pillar/lifestyle", "pillarName": "Lifestyle"}, {"id": "travel/2013/apr/27/top-10-roadside-diners-america-us", "type": "article", "sectionId": "travel", "sectionName": "Travel", "webPublicationDate": "2013-04-26T23:10:00Z", "webTitle": "Top 10 roadside diners in the US: a trucker's guide", "webUrl": "https://www.theguardian.com/travel/2013/apr/27/top-10-roadside-diners-america-us", "apiUrl": "https://content.guardianapis.com/travel/2013/apr/27/top-10-roadside-diners-america-us", "isHosted": false, "pillarId": "pillar/lifestyle", "pillarName": "Lifestyle"}, {"id": "travel/2013/apr/27/top-10-bars-key-west-florida", "type": "article", "sectionId": "travel", "sectionName": "Travel", "webPublicationDate": "2013-04-26T23:04:00Z", "webTitle": "Top 10 bars in Key West", "webUrl": "https://www.theguardian.com/travel/2013/apr/27/top-10-bars-key-west-florida", "apiUrl": "https://content.guardianapis.com/travel/2013/apr/27/top-10-bars-key-west-florida", "isHosted": false, "pillarId": "pillar/lifestyle", "pillarName": "Lifestyle"}, {"id": "lifeandstyle/2013/apr/26/yeast-free-bread-recipes-whittingstall", "type": "article", "sectionId": "lifeandstyle", "sectionName": "Life and style", "webPublicationDate": "2013-04-26T20:00:03Z", "webTitle": "Go flat out: Hugh Fearnley-Whittingstall's yeast-free bread recipes", "webUrl": "https://www.theguardian.com/lifeandstyle/2013/apr/26/yeast-free-bread-recipes-whittingstall", "apiUrl": "https://content.guardianapis.com/lifeandstyle/2013/apr/26/yeast-free-bread-recipes-whittingstall", "isHosted": false, "pillarId": "pillar/lifestyle", "pillarName": "Lifestyle"}, {"id": "travel/2013/apr/26/bank-holiday-events-for-family", "type": "article", "sectionId": "travel", "sectionName": "Travel", "webPublicationDate": "2013-04-26T20:00:00Z", "webTitle": "Bank holiday events for all the family", "webUrl": "https://www.theguardian.com/travel/2013/apr/26/bank-holiday-events-for-family", "apiUrl": "https://content.guardianapis.com/travel/2013/apr/26/bank-holiday-events-for-family", "isHosted": false, "pillarId": "pillar/lifestyle", "pillarName": "Lifestyle"}, {"id": "tv-and-radio/2013/apr/26/masterchef-winners-shelina-permalloo", "type": "article", "sectionId": "tv-and-radio", "sectionName": "Television & radio", "webPublicationDate": "2013-04-26T18:14:51Z", "webTitle": "MasterChef winners: creating a recipe for success", "webUrl": "https://www.theguardian.com/tv-and-radio/2013/apr/26/masterchef-winners-shelina-permalloo", "apiUrl": "https://content.guardianapis.com/tv-and-radio/2013/apr/26/masterchef-winners-shelina-permalloo", "isHosted": false, "pillarId": "pillar/arts", "pillarName": "Arts"}, {"id": "environment/2013/apr/26/consumer-labelling-sustainable-fish", "type": "article", "sectionId": "environment", "sectionName": "Environment", "webPublicationDate": "2013-04-26T06:00:00Z", "webTitle": "Initiative to improve sustainable fish labelling unveiled", "webUrl": "https://www.theguardian.com/environment/2013/apr/26/consumer-labelling-sustainable-fish", "apiUrl": "https://content.guardianapis.com/environment/2013/apr/26/consumer-labelling-sustainable-fish", "isHosted": false, "pillarId": "pillar/news", "pillarName": "News"}, {"id": "science/blog/2013/apr/25/dna-double-helix-jelly-babies-liquorice", "type": "article", "sectionId": "science", "sectionName": "Science", "webPublicationDate": "2013-04-25T10:51:00Z", "webTitle": "How to make a DNA double helix from jelly babies and liquorice | Mark Lorch", "webUrl": "https://www.theguardian.com/science/blog/2013/apr/25/dna-double-helix-jelly-babies-liquorice", "apiUrl": "https://content.guardianapis.com/science/blog/2013/apr/25/dna-double-helix-jelly-babies-liquorice", "isHosted": false, "pillarId": "pillar/news", "pillarName": "News"}, {"id": "lifeandstyle/2013/apr/25/cook-food-recipes", "type": "article", "sectionId": "food", "sectionName": "Food", "webPublicationDate": "2013-04-25T09:49:06Z", "webTitle": "Cook | the Guardian's new weekly food section", "webUrl": "https://www.theguardian.com/lifeandstyle/2013/apr/25/cook-food-recipes", "apiUrl": "https://content.guardianapis.com/lifeandstyle/2013/apr/25/cook-food-recipes", "isHosted": false, "pillarId": "pillar/lifestyle", "pillarName": "Lifestyle"}, {"id": "social-enterprise-network/2013/apr/25/private-members-club-homelessness", "type": "article", "sectionId": "voluntary-sector-network", "sectionName": "Voluntary Sector Network", "webPublicationDate": "2013-04-25T06:15:10Z", "webTitle": "A new kind of private members club \u2013 tackling homelessness", "webUrl": "https://www.theguardian.com/social-enterprise-network/2013/apr/25/private-members-club-homelessness", "apiUrl": "https://content.guardianapis.com/social-enterprise-network/2013/apr/25/private-members-club-homelessness", "isHosted": false, "pillarId": "pillar/news", "pillarName": "News"}, {"id": "business/2013/apr/24/thorntons-sales-boost", "type": "article", "sectionId": "business", "sectionName": "Business", "webPublicationDate": "2013-04-24T16:25:46Z", "webTitle": "Thorntons upbeat as supermarket sales rise", "webUrl": "https://www.theguardian.com/business/2013/apr/24/thorntons-sales-boost", "apiUrl": "https://content.guardianapis.com/business/2013/apr/24/thorntons-sales-boost", "isHosted": false, "pillarId": "pillar/news", "pillarName": "News"}, {"id": "lifeandstyle/wordofmouth/2013/apr/24/the-perfect-picnic-felicity-cloake", "type": "article", "sectionId": "lifeandstyle", "sectionName": "Life and style", "webPublicationDate": "2013-04-24T15:34:00Z", "webTitle": "The perfect picnic", "webUrl": "https://www.theguardian.com/lifeandstyle/wordofmouth/2013/apr/24/the-perfect-picnic-felicity-cloake", "apiUrl": "https://content.guardianapis.com/lifeandstyle/wordofmouth/2013/apr/24/the-perfect-picnic-felicity-cloake", "isHosted": false, "pillarId": "pillar/lifestyle", "pillarName": "Lifestyle"}, {"id": "lifeandstyle/2013/apr/24/felicity-cloake-chicken-chorizo-pies", "type": "article", "sectionId": "food", "sectionName": "Food", "webPublicationDate": "2013-04-24T15:34:00Z", "webTitle": "Felicity Cloake's chicken, chorizo and pepper pies recipe", "webUrl": "https://www.theguardian.com/lifeandstyle/2013/apr/24/felicity-cloake-chicken-chorizo-pies", "apiUrl": "https://content.guardianapis.com/lifeandstyle/2013/apr/24/felicity-cloake-chicken-chorizo-pies", "isHosted": false, "pillarId": "pillar/lifestyle", "pillarName": "Lifestyle"}, {"id": "lifeandstyle/2013/apr/24/felicity-cloake-coconut-cardamom-ice-recipe", "type": "article", "sectionId": "food", "sectionName": "Food", "webPublicationDate": "2013-04-24T15:33:41Z", "webTitle": "Felicity Cloake's coconut and cardamom ice \u2013 recipe", "webUrl": "https://www.theguardian.com/lifeandstyle/2013/apr/24/felicity-cloake-coconut-cardamom-ice-recipe", "apiUrl": "https://content.guardianapis.com/lifeandstyle/2013/apr/24/felicity-cloake-coconut-cardamom-ice-recipe", "isHosted": false, "pillarId": "pillar/lifestyle", "pillarName": "Lifestyle"}, {"id": "lifeandstyle/2013/apr/24/felicity-cloake-alcoholic-lemonade-recipe", "type": "article", "sectionId": "food", "sectionName": "Food", "webPublicationDate": "2013-04-24T15:33:00Z", "webTitle": "Felicity Cloake's alcoholic lemonade \u2013 recipe", "webUrl": "https://www.theguardian.com/lifeandstyle/2013/apr/24/felicity-cloake-alcoholic-lemonade-recipe", "apiUrl": "https://content.guardianapis.com/lifeandstyle/2013/apr/24/felicity-cloake-alcoholic-lemonade-recipe", "isHosted": false, "pillarId": "pillar/lifestyle", "pillarName": "Lifestyle"}, {"id": "lifeandstyle/2013/apr/24/felicity-cloake-veggie-scotch-egg-recipe", "type": "article", "sectionId": "food", "sectionName": "Food", "webPublicationDate": "2013-04-24T15:32:48Z", "webTitle": "Felicity Cloake's veggie scotch eggs \u2013 recipe", "webUrl": "https://www.theguardian.com/lifeandstyle/2013/apr/24/felicity-cloake-veggie-scotch-egg-recipe", "apiUrl": "https://content.guardianapis.com/lifeandstyle/2013/apr/24/felicity-cloake-veggie-scotch-egg-recipe", "isHosted": false, "pillarId": "pillar/lifestyle", "pillarName": "Lifestyle"}, {"id": "environment/2013/apr/24/genetically-modified-salmon-aquabounty-panama-united-states", "type": "article", "sectionId": "environment", "sectionName": "Environment", "webPublicationDate": "2013-04-24T13:34:50Z", "webTitle": "GM salmon's global HQ \u2013 1,500m high in the Panamanian rainforest", "webUrl": "https://www.theguardian.com/environment/2013/apr/24/genetically-modified-salmon-aquabounty-panama-united-states", "apiUrl": "https://content.guardianapis.com/environment/2013/apr/24/genetically-modified-salmon-aquabounty-panama-united-states", "isHosted": false, "pillarId": "pillar/news", "pillarName": "News"}, {"id": "lifeandstyle/wordofmouth/2013/apr/24/can-food-make-you-angry", "type": "article", "sectionId": "lifeandstyle", "sectionName": "Life and style", "webPublicationDate": "2013-04-24T13:29:00Z", "webTitle": "Can food make you angry?", "webUrl": "https://www.theguardian.com/lifeandstyle/wordofmouth/2013/apr/24/can-food-make-you-angry", "apiUrl": "https://content.guardianapis.com/lifeandstyle/wordofmouth/2013/apr/24/can-food-make-you-angry", "isHosted": false, "pillarId": "pillar/lifestyle", "pillarName": "Lifestyle"}, {"id": "business/2013/apr/24/lucozade-ribena-sale-glaxosmithkline-gsk", "type": "article", "sectionId": "business", "sectionName": "Business", "webPublicationDate": "2013-04-24T12:21:00Z", "webTitle": "Lucozade and Ribena up for sale", "webUrl": "https://www.theguardian.com/business/2013/apr/24/lucozade-ribena-sale-glaxosmithkline-gsk", "apiUrl": "https://content.guardianapis.com/business/2013/apr/24/lucozade-ribena-sale-glaxosmithkline-gsk", "isHosted": false, "pillarId": "pillar/news", "pillarName": "News"}, {"id": "lifeandstyle/2013/apr/24/char-grilled-asparagus-egg-recipe", "type": "article", "sectionId": "lifeandstyle", "sectionName": "Life and style", "webPublicationDate": "2013-04-24T09:55:11Z", "webTitle": "Angela Hartnett's char-grilled asparagus with soft boiled egg \u2013 recipe", "webUrl": "https://www.theguardian.com/lifeandstyle/2013/apr/24/char-grilled-asparagus-egg-recipe", "apiUrl": "https://content.guardianapis.com/lifeandstyle/2013/apr/24/char-grilled-asparagus-egg-recipe", "isHosted": false, "pillarId": "pillar/lifestyle", "pillarName": "Lifestyle"}, {"id": "lifeandstyle/wordofmouth/2013/apr/23/what-makes-eating-so-satisfying", "type": "article", "sectionId": "lifeandstyle", "sectionName": "Life and style", "webPublicationDate": "2013-04-23T16:20:00Z", "webTitle": "What makes eating so satisfying?", "webUrl": "https://www.theguardian.com/lifeandstyle/wordofmouth/2013/apr/23/what-makes-eating-so-satisfying", "apiUrl": "https://content.guardianapis.com/lifeandstyle/wordofmouth/2013/apr/23/what-makes-eating-so-satisfying", "isHosted": false, "pillarId": "pillar/lifestyle", "pillarName": "Lifestyle"}, {"id": "uk/2013/apr/22/uk-abattoir-dutch-distributor-horsemeat", "type": "article", "sectionId": "uk-news", "sectionName": "UK news", "webPublicationDate": "2013-04-22T18:27:51Z", "webTitle": "UK abattoir linked to Dutch distributor investigated over horsemeat scandal", "webUrl": "https://www.theguardian.com/uk/2013/apr/22/uk-abattoir-dutch-distributor-horsemeat", "apiUrl": "https://content.guardianapis.com/uk/2013/apr/22/uk-abattoir-dutch-distributor-horsemeat", "isHosted": false, "pillarId": "pillar/news", "pillarName": "News"}, {"id": "lifeandstyle/2013/apr/22/aldi-own-label-gin-taste", "type": "article", "sectionId": "food", "sectionName": "Food", "webPublicationDate": "2013-04-22T17:37:04Z", "webTitle": "Aldi own-label gin beats more expensive rivals in blind taste test", "webUrl": "https://www.theguardian.com/lifeandstyle/2013/apr/22/aldi-own-label-gin-taste", "apiUrl": "https://content.guardianapis.com/lifeandstyle/2013/apr/22/aldi-own-label-gin-taste", "isHosted": false, "pillarId": "pillar/lifestyle", "pillarName": "Lifestyle"}, {"id": "lifeandstyle/shortcuts/2013/apr/22/peroni-beer-snubbed-skegness", "type": "article", "sectionId": "food", "sectionName": "Food", "webPublicationDate": "2013-04-22T16:39:27Z", "webTitle": "Why has Peroni beer snubbed Skegness?", "webUrl": "https://www.theguardian.com/lifeandstyle/shortcuts/2013/apr/22/peroni-beer-snubbed-skegness", "apiUrl": "https://content.guardianapis.com/lifeandstyle/shortcuts/2013/apr/22/peroni-beer-snubbed-skegness", "isHosted": false, "pillarId": "pillar/lifestyle", "pillarName": "Lifestyle"}, {"id": "politics/2013/apr/22/vince-cable-last-order-pub-landlords", "type": "article", "sectionId": "politics", "sectionName": "Politics", "webPublicationDate": "2013-04-22T16:08:47Z", "webTitle": "Vince Cable calls last orders on 'exploitative' pub landlords", "webUrl": "https://www.theguardian.com/politics/2013/apr/22/vince-cable-last-order-pub-landlords", "apiUrl": "https://content.guardianapis.com/politics/2013/apr/22/vince-cable-last-order-pub-landlords", "isHosted": false, "pillarId": "pillar/news", "pillarName": "News"}, {"id": "lifeandstyle/wordofmouth/2013/apr/22/banana-pret-a-manger-bestseller", "type": "article", "sectionId": "food", "sectionName": "Food", "webPublicationDate": "2013-04-22T15:25:23Z", "webTitle": "Top banana: Pret a Manger's bestseller", "webUrl": "https://www.theguardian.com/lifeandstyle/wordofmouth/2013/apr/22/banana-pret-a-manger-bestseller", "apiUrl": "https://content.guardianapis.com/lifeandstyle/wordofmouth/2013/apr/22/banana-pret-a-manger-bestseller", "isHosted": false, "pillarId": "pillar/lifestyle", "pillarName": "Lifestyle"}]}}