{"response": {"status": "ok", "userTier": "developer", "total": 93263, "startIndex": 1, "pageSize": 50, "currentPage": 1, "pages": 1866, "orderBy": "newest", "results": [{"id": "football/blog/2015/may/01/ten-things-to-look-out-for-premier-league-championship-league-one", "type": "article", "sectionId": "football", "sectionName": "Football", "webPublicationDate": "2015-04-30T23:45:05Z", "webTitle": "Football: 10 things to look out for this weekend", "webUrl": "https://www.theguardian.com/football/blog/2015/may/01/ten-things-to-look-out-for-premier-league-championship-league-one", "apiUrl": "https://content.guardianapis.com/football/blog/2015/may/01/ten-things-to-look-out-for-premier-league-championship-league-one", "isHosted": false, "pillarId": "pillar/sport", "pillarName": "Sport"}, {"id": "football/2015/may/01/england-football-disgrace-labour-conservatives", "type": "article", "sectionId": "football", "sectionName": "Football", "webPublicationDate": "2015-04-30T23:01:04Z", "webTitle": "State of England\u2019s football facilities \u2018a disgrace\u2019, say Labour", "webUrl": "https://www.theguardian.com/football/2015/may/01/england-football-disgrace-labour-conservatives", "apiUrl": "https://content.guardianapis.com/football/2015/may/01/england-football-disgrace-labour-conservatives", "isHosted": false, "pillarId": "pillar/sport", "pillarName": "Sport"}, {"id": "football/2015/apr/30/liverpool-daniel-sturridge-boston-hip", "type": "article", "sectionId": "football", "sectionName": "Football", "webPublicationDate": "2015-04-30T21:38:00Z", "webTitle": "Liverpool\u2019s Daniel Sturridge visits Boston surgeon for hip assessment", "webUrl": "https://www.theguardian.com/football/2015/apr/30/liverpool-daniel-sturridge-boston-hip", "apiUrl": "https://content.guardianapis.com/football/2015/apr/30/liverpool-daniel-sturridge-boston-hip", "isHosted": false, "pillarId": "pillar/sport", "pillarName": "Sport"}, {"id": "football/blog/2015/apr/30/qpr-tony-fernandes-flavio-briatore", "type": "article", "sectionId": "football", "sectionName": "Football", "webPublicationDate": "2015-04-30T21:30:03Z", "webTitle": "Tony Fernandes era beginning to mirror Flavio Briatore\u2019s four-year plan at QPR | Owen Gibson", "webUrl": "https://www.theguardian.com/football/blog/2015/apr/30/qpr-tony-fernandes-flavio-briatore", "apiUrl": "https://content.guardianapis.com/football/blog/2015/apr/30/qpr-tony-fernandes-flavio-briatore", "isHosted": false, "pillarId": "pillar/sport", "pillarName": "Sport"}, {"id": "football/2015/apr/30/everton-new-players-roberto-martinez", "type": "article", "sectionId": "football", "sectionName": "Football", "webPublicationDate": "2015-04-30T21:30:02Z", "webTitle": "Everton want to add two or three players this summer, says Roberto Mart\u00ednez", "webUrl": "https://www.theguardian.com/football/2015/apr/30/everton-new-players-roberto-martinez", "apiUrl": "https://content.guardianapis.com/football/2015/apr/30/everton-new-players-roberto-martinez", "isHosted": false, "pillarId": "pillar/sport", "pillarName": "Sport"}, {"id": "football/2015/apr/30/newcastle-united-steve-mcclaren-derby-county-", "type": "article", "sectionId": "football", "sectionName": "Football", "webPublicationDate": "2015-04-30T21:29:02Z", "webTitle": "Newcastle talk off-limits as John Carver meets likely successor Steve McClaren", "webUrl": "https://www.theguardian.com/football/2015/apr/30/newcastle-united-steve-mcclaren-derby-county-", "apiUrl": "https://content.guardianapis.com/football/2015/apr/30/newcastle-united-steve-mcclaren-derby-county-", "isHosted": false, "pillarId": "pillar/sport", "pillarName": "Sport"}, {"id": "football/2015/apr/30/aston-villa-tom-fox-chief-executive-randy-lerner-fa-cup-final", "type": "article", "sectionId": "football", "sectionName": "Football", "webPublicationDate": "2015-04-30T19:28:20Z", "webTitle": "Tom Fox: \u2018rich person interested in buying Aston Villa \u2026 why is that news?\u2019", "webUrl": "https://www.theguardian.com/football/2015/apr/30/aston-villa-tom-fox-chief-executive-randy-lerner-fa-cup-final", "apiUrl": "https://content.guardianapis.com/football/2015/apr/30/aston-villa-tom-fox-chief-executive-randy-lerner-fa-cup-final", "isHosted": false, "pillarId": "pillar/sport", "pillarName": "Sport"}, {"id": "football/2015/apr/30/everton-subsidise-tickets-west-ham-10-pounds", "type": "article", "sectionId": "football", "sectionName": "Football", "webPublicationDate": "2015-04-30T16:52:31Z", "webTitle": "Everton to subsidise tickets for match at West Ham by \u00a310 a head", "webUrl": "https://www.theguardian.com/football/2015/apr/30/everton-subsidise-tickets-west-ham-10-pounds", "apiUrl": "https://content.guardianapis.com/football/2015/apr/30/everton-subsidise-tickets-west-ham-10-pounds", "isHosted": false, "pillarId": "pillar/sport", "pillarName": "Sport"}, {"id": "football/2015/apr/30/the-fiver-nigel-pearson-ostrich", "type": "article", "sectionId": "football", "sectionName": "Football", "webPublicationDate": "2015-04-30T15:15:40Z", "webTitle": "The Fiver | Behaving like a sadistic PE teacher", "webUrl": "https://www.theguardian.com/football/2015/apr/30/the-fiver-nigel-pearson-ostrich", "apiUrl": "https://content.guardianapis.com/football/2015/apr/30/the-fiver-nigel-pearson-ostrich", "isHosted": false, "pillarId": "pillar/sport", "pillarName": "Sport"}, {"id": "football/2015/apr/30/nigel-pearson-ostrich-manager-rants-reporters", "type": "article", "sectionId": "football", "sectionName": "Football", "webPublicationDate": "2015-04-30T14:57:27Z", "webTitle": "Nigel Pearson\u2019s ostrich outburst \u2013 13 more manager v journalist rants", "webUrl": "https://www.theguardian.com/football/2015/apr/30/nigel-pearson-ostrich-manager-rants-reporters", "apiUrl": "https://content.guardianapis.com/football/2015/apr/30/nigel-pearson-ostrich-manager-rants-reporters", "isHosted": false, "pillarId": "pillar/sport", "pillarName": "Sport"}, {"id": "football/2015/apr/30/jamie-lawrence-slovakia-cup-league-double", "type": "article", "sectionId": "football", "sectionName": "Football", "webPublicationDate": "2015-04-30T13:09:17Z", "webTitle": "Jamie Lawrence has eyes on Slovakian double after mastering his own destiny", "webUrl": "https://www.theguardian.com/football/2015/apr/30/jamie-lawrence-slovakia-cup-league-double", "apiUrl": "https://content.guardianapis.com/football/2015/apr/30/jamie-lawrence-slovakia-cup-league-double", "isHosted": false, "pillarId": "pillar/sport", "pillarName": "Sport"}, {"id": "football/2015/apr/30/liverpool-jon-flanagan-six-months-knee-surgery", "type": "article", "sectionId": "football", "sectionName": "Football", "webPublicationDate": "2015-04-30T12:29:42Z", "webTitle": "Liverpool\u2019s Jon Flanagan out for at least six months after more knee surgery", "webUrl": "https://www.theguardian.com/football/2015/apr/30/liverpool-jon-flanagan-six-months-knee-surgery", "apiUrl": "https://content.guardianapis.com/football/2015/apr/30/liverpool-jon-flanagan-six-months-knee-surgery", "isHosted": false, "pillarId": "pillar/sport", "pillarName": "Sport"}, {"id": "football/blog/2015/apr/30/filippo-inzaghi-milan-genoa-serie-a", "type": "article", "sectionId": "football", "sectionName": "Football", "webPublicationDate": "2015-04-30T11:29:24Z", "webTitle": "Filippo Inzaghi faces exit as Milan fans spell it out", "webUrl": "https://www.theguardian.com/football/blog/2015/apr/30/filippo-inzaghi-milan-genoa-serie-a", "apiUrl": "https://content.guardianapis.com/football/blog/2015/apr/30/filippo-inzaghi-milan-genoa-serie-a", "isHosted": false, "pillarId": "pillar/sport", "pillarName": "Sport"}, {"id": "football/2015/apr/30/petr-cech-winning-title-chelsea-next-generation", "type": "article", "sectionId": "football", "sectionName": "Football", "webPublicationDate": "2015-04-30T10:59:07Z", "webTitle": "Petr Cech: Winning the title will make Chelsea\u2019s next generation stronger", "webUrl": "https://www.theguardian.com/football/2015/apr/30/petr-cech-winning-title-chelsea-next-generation", "apiUrl": "https://content.guardianapis.com/football/2015/apr/30/petr-cech-winning-title-chelsea-next-generation", "isHosted": false, "pillarId": "pillar/sport", "pillarName": "Sport"}, {"id": "football/blog/2015/apr/30/premier-league-top-four-chelsea-arsenal-manchester-city-manchester-united-liverpool", "type": "article", "sectionId": "football", "sectionName": "Football", "webPublicationDate": "2015-04-30T10:36:41Z", "webTitle": "Will anyone break the Premier League\u2019s top-four monopoly any time soon? | David Hytner", "webUrl": "https://www.theguardian.com/football/blog/2015/apr/30/premier-league-top-four-chelsea-arsenal-manchester-city-manchester-united-liverpool", "apiUrl": "https://content.guardianapis.com/football/blog/2015/apr/30/premier-league-top-four-chelsea-arsenal-manchester-city-manchester-united-liverpool", "isHosted": false, "pillarId": "pillar/sport", "pillarName": "Sport"}, {"id": "sport/blog/2015/apr/30/youtube-sport-videos-floyd-mayweather-manny-pacquiao", "type": "article", "sectionId": "sport", "sectionName": "Sport", "webPublicationDate": "2015-04-30T10:33:42Z", "webTitle": "Mayweather and Pacquiao's big boxing hits and the Kevin Keegan helicopter | Classic YouTube", "webUrl": "https://www.theguardian.com/sport/blog/2015/apr/30/youtube-sport-videos-floyd-mayweather-manny-pacquiao", "apiUrl": "https://content.guardianapis.com/sport/blog/2015/apr/30/youtube-sport-videos-floyd-mayweather-manny-pacquiao", "isHosted": false, "pillarId": "pillar/sport", "pillarName": "Sport"}, {"id": "football/blog/2015/apr/30/mourinho-chelsea-maradona-boring-immoral-football", "type": "article", "sectionId": "football", "sectionName": "Football", "webPublicationDate": "2015-04-30T09:33:18Z", "webTitle": "Jos\u00e9 Mourinho and the issue of \u2018boring\u2019 and \u2018immoral\u2019 football | Jonathan Wilson", "webUrl": "https://www.theguardian.com/football/blog/2015/apr/30/mourinho-chelsea-maradona-boring-immoral-football", "apiUrl": "https://content.guardianapis.com/football/blog/2015/apr/30/mourinho-chelsea-maradona-boring-immoral-football", "isHosted": false, "pillarId": "pillar/sport", "pillarName": "Sport"}, {"id": "football/2015/apr/30/football-transfer-rumours", "type": "article", "sectionId": "football", "sectionName": "Football", "webPublicationDate": "2015-04-30T07:52:12Z", "webTitle": "Football transfer rumours: Angel Di Mar\u00eda to PSG for \u00a345m", "webUrl": "https://www.theguardian.com/football/2015/apr/30/football-transfer-rumours", "apiUrl": "https://content.guardianapis.com/football/2015/apr/30/football-transfer-rumours", "isHosted": false, "pillarId": "pillar/sport", "pillarName": "Sport"}, {"id": "football/2015/apr/29/montreal-impact-brutally-exposed-in-champions-league-capitulation", "type": "article", "sectionId": "football", "sectionName": "Football", "webPublicationDate": "2015-04-30T02:44:08Z", "webTitle": "Montreal Impact brutally exposed in Champions League capitulation", "webUrl": "https://www.theguardian.com/football/2015/apr/29/montreal-impact-brutally-exposed-in-champions-league-capitulation", "apiUrl": "https://content.guardianapis.com/football/2015/apr/29/montreal-impact-brutally-exposed-in-champions-league-capitulation", "isHosted": false, "pillarId": "pillar/sport", "pillarName": "Sport"}, {"id": "football/blog/2015/apr/30/nigel-pearson-leicester-chelsea-rant", "type": "article", "sectionId": "football", "sectionName": "Football", "webPublicationDate": "2015-04-29T23:44:40Z", "webTitle": "Nigel Pearson\u2019s rant sours spirited Leicester performance against Chelsea | Stuart James", "webUrl": "https://www.theguardian.com/football/blog/2015/apr/30/nigel-pearson-leicester-chelsea-rant", "apiUrl": "https://content.guardianapis.com/football/blog/2015/apr/30/nigel-pearson-leicester-chelsea-rant", "isHosted": false, "pillarId": "pillar/sport", "pillarName": "Sport"}, {"id": "football/2015/apr/30/nigel-pearson-rant-full-leicester", "type": "article", "sectionId": "football", "sectionName": "Football", "webPublicationDate": "2015-04-29T23:36:42Z", "webTitle": "Nigel Pearson\u2019s rant in full: Leicester manager's 'ostrich' outburst", "webUrl": "https://www.theguardian.com/football/2015/apr/30/nigel-pearson-rant-full-leicester", "apiUrl": "https://content.guardianapis.com/football/2015/apr/30/nigel-pearson-rant-full-leicester", "isHosted": false, "pillarId": "pillar/sport", "pillarName": "Sport"}, {"id": "football/2015/apr/30/jose-mourinho-phenomenal-chelsea-leicester-premier-league", "type": "article", "sectionId": "football", "sectionName": "Football", "webPublicationDate": "2015-04-29T23:18:44Z", "webTitle": "Jos\u00e9 Mourinho praises \u2018phenomenal\u2019 Chelsea after fight back against Leicester", "webUrl": "https://www.theguardian.com/football/2015/apr/30/jose-mourinho-phenomenal-chelsea-leicester-premier-league", "apiUrl": "https://content.guardianapis.com/football/2015/apr/30/jose-mourinho-phenomenal-chelsea-leicester-premier-league", "isHosted": false, "pillarId": "pillar/sport", "pillarName": "Sport"}, {"id": "football/blog/2015/apr/29/nigel-pearson-leicester-chelsea-premier-league-afterburners", "type": "article", "sectionId": "football", "sectionName": "Football", "webPublicationDate": "2015-04-29T21:09:54Z", "webTitle": "Leicester\u2019s plans left shredded as Chelsea turn on afterburners | Stuart James", "webUrl": "https://www.theguardian.com/football/blog/2015/apr/29/nigel-pearson-leicester-chelsea-premier-league-afterburners", "apiUrl": "https://content.guardianapis.com/football/blog/2015/apr/29/nigel-pearson-leicester-chelsea-premier-league-afterburners", "isHosted": false, "pillarId": "pillar/sport", "pillarName": "Sport"}, {"id": "football/2015/apr/29/leicester-chelsea-premier-league-match-report", "type": "article", "sectionId": "football", "sectionName": "Football", "webPublicationDate": "2015-04-29T20:49:26Z", "webTitle": "Leicester City 1-3 Chelsea | Premier League match report", "webUrl": "https://www.theguardian.com/football/2015/apr/29/leicester-chelsea-premier-league-match-report", "apiUrl": "https://content.guardianapis.com/football/2015/apr/29/leicester-chelsea-premier-league-match-report", "isHosted": false, "pillarId": "pillar/sport", "pillarName": "Sport"}, {"id": "football/live/2015/apr/29/leicester-city-v-chelsea-premier-league-live", "type": "liveblog", "sectionId": "football", "sectionName": "Football", "webPublicationDate": "2015-04-29T20:40:21Z", "webTitle": "Leicester City v Chelsea: Premier League \u2013 as it happened", "webUrl": "https://www.theguardian.com/football/live/2015/apr/29/leicester-city-v-chelsea-premier-league-live", "apiUrl": "https://content.guardianapis.com/football/live/2015/apr/29/leicester-city-v-chelsea-premier-league-live", "isHosted": false, "pillarId": "pillar/sport", "pillarName": "Sport"}, {"id": "football/live/2015/apr/29/real-madrid-v-almeria-la-liga-live", "type": "liveblog", "sectionId": "football", "sectionName": "Football", "webPublicationDate": "2015-04-29T19:54:01Z", "webTitle": "Real Madrid v Almer\u00eda: La Liga \u2013 as it happened", "webUrl": "https://www.theguardian.com/football/live/2015/apr/29/real-madrid-v-almeria-la-liga-live", "apiUrl": "https://content.guardianapis.com/football/live/2015/apr/29/real-madrid-v-almeria-la-liga-live", "isHosted": false, "pillarId": "pillar/sport", "pillarName": "Sport"}, {"id": "football/2015/apr/29/sexual-consent-course-football-clubs-ched-evans", "type": "article", "sectionId": "football", "sectionName": "Football", "webPublicationDate": "2015-04-29T18:02:14Z", "webTitle": "Sexual consent course offered to clubs condemned over link to Ched Evans", "webUrl": "https://www.theguardian.com/football/2015/apr/29/sexual-consent-course-football-clubs-ched-evans", "apiUrl": "https://content.guardianapis.com/football/2015/apr/29/sexual-consent-course-football-clubs-ched-evans", "isHosted": false, "pillarId": "pillar/sport", "pillarName": "Sport"}, {"id": "football/2015/apr/29/liverpool-fan-group-boycott-hull-ticket-price-protest-spirit-of-shankly", "type": "article", "sectionId": "football", "sectionName": "Football", "webPublicationDate": "2015-04-29T17:11:14Z", "webTitle": "Liverpool fan group warns boycott repeat after protest at \u00a350 Hull tickets", "webUrl": "https://www.theguardian.com/football/2015/apr/29/liverpool-fan-group-boycott-hull-ticket-price-protest-spirit-of-shankly", "apiUrl": "https://content.guardianapis.com/football/2015/apr/29/liverpool-fan-group-boycott-hull-ticket-price-protest-spirit-of-shankly", "isHosted": false, "pillarId": "pillar/sport", "pillarName": "Sport"}, {"id": "football/2015/apr/29/ex-premier-league-footballer-delroy-facey-jailed-match-fixing-plot", "type": "article", "sectionId": "football", "sectionName": "Football", "webPublicationDate": "2015-04-29T16:29:29Z", "webTitle": "Ex-Premier League footballer jailed for part in match-fixing plot", "webUrl": "https://www.theguardian.com/football/2015/apr/29/ex-premier-league-footballer-delroy-facey-jailed-match-fixing-plot", "apiUrl": "https://content.guardianapis.com/football/2015/apr/29/ex-premier-league-footballer-delroy-facey-jailed-match-fixing-plot", "isHosted": false, "pillarId": "pillar/sport", "pillarName": "Sport"}, {"id": "football/2015/apr/29/the-fiver-theo-walcott-arsenal-best-europe", "type": "article", "sectionId": "football", "sectionName": "Football", "webPublicationDate": "2015-04-29T15:18:18Z", "webTitle": "TJ and the World in Which Barcelona, Bayern and Chelsea Don\u2019t Exist | The Fiver", "webUrl": "https://www.theguardian.com/football/2015/apr/29/the-fiver-theo-walcott-arsenal-best-europe", "apiUrl": "https://content.guardianapis.com/football/2015/apr/29/the-fiver-theo-walcott-arsenal-best-europe", "isHosted": false, "pillarId": "pillar/sport", "pillarName": "Sport"}, {"id": "football/blog/2015/apr/29/wigan-athletic-fa-cup-to-league-one", "type": "article", "sectionId": "football", "sectionName": "Football", "webPublicationDate": "2015-04-29T14:34:50Z", "webTitle": "Wigan\u2019s fall from FA Cup winners to League One: where did it all go wrong? | Paul Wilson", "webUrl": "https://www.theguardian.com/football/blog/2015/apr/29/wigan-athletic-fa-cup-to-league-one", "apiUrl": "https://content.guardianapis.com/football/blog/2015/apr/29/wigan-athletic-fa-cup-to-league-one", "isHosted": false, "pillarId": "pillar/sport", "pillarName": "Sport"}, {"id": "football/2015/apr/29/senegal-little-diamond-sadio-mane-southampton", "type": "article", "sectionId": "football", "sectionName": "Football", "webPublicationDate": "2015-04-29T14:10:53Z", "webTitle": "Senegal\u2019s \u2018little diamond\u2019 Sadio Man\u00e9 motivated by high expectations", "webUrl": "https://www.theguardian.com/football/2015/apr/29/senegal-little-diamond-sadio-mane-southampton", "apiUrl": "https://content.guardianapis.com/football/2015/apr/29/senegal-little-diamond-sadio-mane-southampton", "isHosted": false, "pillarId": "pillar/sport", "pillarName": "Sport"}, {"id": "technology/2015/apr/29/best-android-apps-games-this-week", "type": "article", "sectionId": "technology", "sectionName": "Technology", "webPublicationDate": "2015-04-29T13:59:13Z", "webTitle": "20 best Android apps and games this week", "webUrl": "https://www.theguardian.com/technology/2015/apr/29/best-android-apps-games-this-week", "apiUrl": "https://content.guardianapis.com/technology/2015/apr/29/best-android-apps-games-this-week", "isHosted": false, "pillarId": "pillar/news", "pillarName": "News"}, {"id": "football/blog/2015/apr/29/bournemouth-premier-league-survive-promotion-oldham-wigan", "type": "article", "sectionId": "football", "sectionName": "Football", "webPublicationDate": "2015-04-29T12:55:05Z", "webTitle": "Bournemouth must cast net wide but not spend, spend, spend to survive | Paul Wilson", "webUrl": "https://www.theguardian.com/football/blog/2015/apr/29/bournemouth-premier-league-survive-promotion-oldham-wigan", "apiUrl": "https://content.guardianapis.com/football/blog/2015/apr/29/bournemouth-premier-league-survive-promotion-oldham-wigan", "isHosted": false, "pillarId": "pillar/sport", "pillarName": "Sport"}, {"id": "football/2015/apr/29/premier-league-clubs-profit-fair-play", "type": "article", "sectionId": "football", "sectionName": "Football", "webPublicationDate": "2015-04-29T12:42:00Z", "webTitle": "Premier League clubs turn loss into profit as fair play rules kick in", "webUrl": "https://www.theguardian.com/football/2015/apr/29/premier-league-clubs-profit-fair-play", "apiUrl": "https://content.guardianapis.com/football/2015/apr/29/premier-league-clubs-profit-fair-play", "isHosted": false, "pillarId": "pillar/sport", "pillarName": "Sport"}, {"id": "football/2015/apr/29/premier-league-finances-club-by-club", "type": "article", "sectionId": "football", "sectionName": "Football", "webPublicationDate": "2015-04-29T12:41:32Z", "webTitle": "Premier League finances: the full club-by-club breakdown and verdict", "webUrl": "https://www.theguardian.com/football/2015/apr/29/premier-league-finances-club-by-club", "apiUrl": "https://content.guardianapis.com/football/2015/apr/29/premier-league-finances-club-by-club", "isHosted": false, "pillarId": "pillar/sport", "pillarName": "Sport"}, {"id": "commentisfree/2015/apr/29/bournemouth-football-premier-league-fans-prize", "type": "article", "sectionId": "commentisfree", "sectionName": "Opinion", "webPublicationDate": "2015-04-29T12:19:00Z", "webTitle": "Now you have heard of Bournemouth, and we diehard fans really do care", "webUrl": "https://www.theguardian.com/commentisfree/2015/apr/29/bournemouth-football-premier-league-fans-prize", "apiUrl": "https://content.guardianapis.com/commentisfree/2015/apr/29/bournemouth-football-premier-league-fans-prize", "isHosted": false, "pillarId": "pillar/opinion", "pillarName": "Opinion"}, {"id": "football/2015/apr/29/jimmy-floyd-hasselbaink-return-leeds-united-burton", "type": "article", "sectionId": "football", "sectionName": "Football", "webPublicationDate": "2015-04-29T11:59:18Z", "webTitle": "Jimmy Floyd Hasselbaink not ruling out return to Leeds United", "webUrl": "https://www.theguardian.com/football/2015/apr/29/jimmy-floyd-hasselbaink-return-leeds-united-burton", "apiUrl": "https://content.guardianapis.com/football/2015/apr/29/jimmy-floyd-hasselbaink-return-leeds-united-burton", "isHosted": false, "pillarId": "pillar/sport", "pillarName": "Sport"}, {"id": "football/blog/2015/apr/29/fa-cup-sponsorship-emirates-good-of-game", "type": "article", "sectionId": "football", "sectionName": "Football", "webPublicationDate": "2015-04-29T11:45:38Z", "webTitle": "FA must put money back in the game if Emirates seal Cup sponsorship | Owen Gibson", "webUrl": "https://www.theguardian.com/football/blog/2015/apr/29/fa-cup-sponsorship-emirates-good-of-game", "apiUrl": "https://content.guardianapis.com/football/blog/2015/apr/29/fa-cup-sponsorship-emirates-good-of-game", "isHosted": false, "pillarId": "pillar/sport", "pillarName": "Sport"}, {"id": "football/2015/apr/29/adnan-januzaj-manchester-united-loan", "type": "article", "sectionId": "football", "sectionName": "Football", "webPublicationDate": "2015-04-29T11:00:01Z", "webTitle": "Adnan Januzaj\u2019s future at Manchester United in the balance", "webUrl": "https://www.theguardian.com/football/2015/apr/29/adnan-januzaj-manchester-united-loan", "apiUrl": "https://content.guardianapis.com/football/2015/apr/29/adnan-januzaj-manchester-united-loan", "isHosted": false, "pillarId": "pillar/sport", "pillarName": "Sport"}, {"id": "football/2015/apr/29/nigel-reo-coker-interview-champions-league-win-can-change-montreal-forever", "type": "article", "sectionId": "sport", "sectionName": "Sport", "webPublicationDate": "2015-04-29T10:41:33Z", "webTitle": "Nigel Reo-Coker interview: 'Champions League win can change Montreal forever'", "webUrl": "https://www.theguardian.com/football/2015/apr/29/nigel-reo-coker-interview-champions-league-win-can-change-montreal-forever", "apiUrl": "https://content.guardianapis.com/football/2015/apr/29/nigel-reo-coker-interview-champions-league-win-can-change-montreal-forever", "isHosted": false, "pillarId": "pillar/sport", "pillarName": "Sport"}, {"id": "football/2015/apr/29/does-league-form-matter-in-play-offs", "type": "article", "sectionId": "football", "sectionName": "Football", "webPublicationDate": "2015-04-29T09:30:05Z", "webTitle": "Does league form really have any bearing on success in the play-offs? | The Knowledge", "webUrl": "https://www.theguardian.com/football/2015/apr/29/does-league-form-matter-in-play-offs", "apiUrl": "https://content.guardianapis.com/football/2015/apr/29/does-league-form-matter-in-play-offs", "isHosted": false, "pillarId": "pillar/sport", "pillarName": "Sport"}, {"id": "football/blog/2015/apr/29/uae-omar-abdulrahman-asia", "type": "article", "sectionId": "football", "sectionName": "Football", "webPublicationDate": "2015-04-29T09:01:04Z", "webTitle": "Why Omar Abdulrahman is the UAE\u2019s and Asia\u2019s great hope | John Duerden", "webUrl": "https://www.theguardian.com/football/blog/2015/apr/29/uae-omar-abdulrahman-asia", "apiUrl": "https://content.guardianapis.com/football/blog/2015/apr/29/uae-omar-abdulrahman-asia", "isHosted": false, "pillarId": "pillar/sport", "pillarName": "Sport"}, {"id": "football/2015/apr/29/football-transfer-rumours-real-madrid-javier-hernandez", "type": "article", "sectionId": "football", "sectionName": "Football", "webPublicationDate": "2015-04-29T07:47:39Z", "webTitle": "Football transfer rumours: Real Madrid to beat the clock for Javier Hern\u00e1ndez?", "webUrl": "https://www.theguardian.com/football/2015/apr/29/football-transfer-rumours-real-madrid-javier-hernandez", "apiUrl": "https://content.guardianapis.com/football/2015/apr/29/football-transfer-rumours-real-madrid-javier-hernandez", "isHosted": false, "pillarId": "pillar/sport", "pillarName": "Sport"}, {"id": "football/blog/2015/apr/29/tale-of-two-newcastles-united-by-strife", "type": "article", "sectionId": "football", "sectionName": "Football", "webPublicationDate": "2015-04-29T00:46:56Z", "webTitle": "The Newcastles: two clubs on different sides of the globe but united by strife | Janek Speight", "webUrl": "https://www.theguardian.com/football/blog/2015/apr/29/tale-of-two-newcastles-united-by-strife", "apiUrl": "https://content.guardianapis.com/football/blog/2015/apr/29/tale-of-two-newcastles-united-by-strife", "isHosted": false, "pillarId": "pillar/sport", "pillarName": "Sport"}, {"id": "football/blog/2015/apr/28/talking-points-liverpool-hull", "type": "article", "sectionId": "football", "sectionName": "Football", "webPublicationDate": "2015-04-28T22:34:19Z", "webTitle": "Hull 1-0 Liverpool: five talking points from Hull\u2019s victory | Simon Burnton", "webUrl": "https://www.theguardian.com/football/blog/2015/apr/28/talking-points-liverpool-hull", "apiUrl": "https://content.guardianapis.com/football/blog/2015/apr/28/talking-points-liverpool-hull", "isHosted": false, "pillarId": "pillar/sport", "pillarName": "Sport"}, {"id": "football/2015/apr/28/bayern-munich-borussia-dortmund-german-cup", "type": "article", "sectionId": "football", "sectionName": "Football", "webPublicationDate": "2015-04-28T21:39:08Z", "webTitle": "Bayern Munich 1-1 Borussia Dortmund (Dortmund win 2-0 on pens) | German Cup semi-final match report", "webUrl": "https://www.theguardian.com/football/2015/apr/28/bayern-munich-borussia-dortmund-german-cup", "apiUrl": "https://content.guardianapis.com/football/2015/apr/28/bayern-munich-borussia-dortmund-german-cup", "isHosted": false, "pillarId": "pillar/sport", "pillarName": "Sport"}, {"id": "football/2015/apr/28/eddie-howe-bournemouth-chapter-legacy", "type": "article", "sectionId": "football", "sectionName": "Football", "webPublicationDate": "2015-04-28T21:30:01Z", "webTitle": "Eddie Howe writes new chapter for Bournemouth \u2013 now for the legacy", "webUrl": "https://www.theguardian.com/football/2015/apr/28/eddie-howe-bournemouth-chapter-legacy", "apiUrl": "https://content.guardianapis.com/football/2015/apr/28/eddie-howe-bournemouth-chapter-legacy", "isHosted": false, "pillarId": "pillar/sport", "pillarName": "Sport"}, {"id": "football/2015/apr/28/chelsea-new-generation-champions-jose-mourinho", "type": "article", "sectionId": "football", "sectionName": "Football", "webPublicationDate": "2015-04-28T21:30:01Z", "webTitle": "Chelsea creating a new generation of winners, says Jos\u00e9 Mourinho", "webUrl": "https://www.theguardian.com/football/2015/apr/28/chelsea-new-generation-champions-jose-mourinho", "apiUrl": "https://content.guardianapis.com/football/2015/apr/28/chelsea-new-generation-champions-jose-mourinho", "isHosted": false, "pillarId": "pillar/sport", "pillarName": "Sport"}, {"id": "football/live/2015/apr/28/bayern-munich-borussia-dortmund-german-cup-semi-final-live", "type": "liveblog", "sectionId": "football", "sectionName": "Football", "webPublicationDate": "2015-04-28T21:26:30Z", "webTitle": "Bayern Munich v Borussia Dortmund: German Cup semi-final \u2013 as it happened", "webUrl": "https://www.theguardian.com/football/live/2015/apr/28/bayern-munich-borussia-dortmund-german-cup-semi-final-live", "apiUrl": "https://content.guardianapis.com/football/live/2015/apr/28/bayern-munich-borussia-dortmund-german-cup-semi-final-live", "isHosted": false, "pillarId": "pillar/sport", "pillarName": "Sport"}]}}