{"response": {"status": "ok", "userTier": "developer", "total": 17572, "startIndex": 1, "pageSize": 50, "currentPage": 1, "pages": 352, "orderBy": "newest", "results": [{"id": "lifeandstyle/wordofmouth/2012/apr/30/british-showing-worlds-best-restaurants", "type": "article", "sectionId": "food", "sectionName": "Food", "webPublicationDate": "2012-04-30T20:01:00Z", "webTitle": "Poor British showing among world's best restaurants is no cause to weep", "webUrl": "https://www.theguardian.com/lifeandstyle/wordofmouth/2012/apr/30/british-showing-worlds-best-restaurants", "apiUrl": "https://content.guardianapis.com/lifeandstyle/wordofmouth/2012/apr/30/british-showing-worlds-best-restaurants", "isHosted": false, "pillarId": "pillar/lifestyle", "pillarName": "Lifestyle"}, {"id": "lifeandstyle/2012/apr/30/worlds-50-best-restaurants-2012-noma", "type": "article", "sectionId": "food", "sectionName": "Food", "webPublicationDate": "2012-04-30T20:00:00Z", "webTitle": "World's 50 best restaurants 2012: Noma wins for third year in a row", "webUrl": "https://www.theguardian.com/lifeandstyle/2012/apr/30/worlds-50-best-restaurants-2012-noma", "apiUrl": "https://content.guardianapis.com/lifeandstyle/2012/apr/30/worlds-50-best-restaurants-2012-noma", "isHosted": false, "pillarId": "pillar/lifestyle", "pillarName": "Lifestyle"}, {"id": "commentisfree/2012/apr/30/cornwall-hands-off-our-pasties", "type": "article", "sectionId": "commentisfree", "sectionName": "Opinion", "webPublicationDate": "2012-04-30T16:00:00Z", "webTitle": "The message from Cornwall: hands off our pasties | Edward Rowe", "webUrl": "https://www.theguardian.com/commentisfree/2012/apr/30/cornwall-hands-off-our-pasties", "apiUrl": "https://content.guardianapis.com/commentisfree/2012/apr/30/cornwall-hands-off-our-pasties", "isHosted": false, "pillarId": "pillar/opinion", "pillarName": "Opinion"}, {"id": "lifeandstyle/wordofmouth/2012/apr/30/food-allergies-worrying-reactions", "type": "article", "sectionId": "food", "sectionName": "Food", "webPublicationDate": "2012-04-30T10:10:00Z", "webTitle": "Food allergies: worrying reactions", "webUrl": "https://www.theguardian.com/lifeandstyle/wordofmouth/2012/apr/30/food-allergies-worrying-reactions", "apiUrl": "https://content.guardianapis.com/lifeandstyle/wordofmouth/2012/apr/30/food-allergies-worrying-reactions", "isHosted": false, "pillarId": "pillar/lifestyle", "pillarName": "Lifestyle"}, {"id": "uk/the-northerner/2012/apr/30/gardeningadvice-community-orchards-leeds-headingley-apples-pears-plums", "type": "article", "sectionId": "uk-news", "sectionName": "UK news", "webPublicationDate": "2012-04-30T06:30:00Z", "webTitle": "Leeds launches another community orchard beside one of its busiest commuter runs", "webUrl": "https://www.theguardian.com/uk/the-northerner/2012/apr/30/gardeningadvice-community-orchards-leeds-headingley-apples-pears-plums", "apiUrl": "https://content.guardianapis.com/uk/the-northerner/2012/apr/30/gardeningadvice-community-orchards-leeds-headingley-apples-pears-plums", "isHosted": false, "pillarId": "pillar/news", "pillarName": "News"}, {"id": "lifeandstyle/2012/apr/29/jay-rayner-restaurant-belfast-james-street-south-bar-grill", "type": "article", "sectionId": "food", "sectionName": "Food", "webPublicationDate": "2012-04-28T23:05:23Z", "webTitle": "Restaurant review: James Street South Bar and Grill, Belfast", "webUrl": "https://www.theguardian.com/lifeandstyle/2012/apr/29/jay-rayner-restaurant-belfast-james-street-south-bar-grill", "apiUrl": "https://content.guardianapis.com/lifeandstyle/2012/apr/29/jay-rayner-restaurant-belfast-james-street-south-bar-grill", "isHosted": false, "pillarId": "pillar/lifestyle", "pillarName": "Lifestyle"}, {"id": "travel/2012/apr/29/mauritius-masterchef-lucy-cavendish", "type": "article", "sectionId": "travel", "sectionName": "Travel", "webPublicationDate": "2012-04-28T23:05:00Z", "webTitle": "Angela Hartnett's Creole kitchen", "webUrl": "https://www.theguardian.com/travel/2012/apr/29/mauritius-masterchef-lucy-cavendish", "apiUrl": "https://content.guardianapis.com/travel/2012/apr/29/mauritius-masterchef-lucy-cavendish", "isHosted": false, "pillarId": "pillar/lifestyle", "pillarName": "Lifestyle"}, {"id": "lifeandstyle/2012/apr/29/wines-of-the-week-david-williams", "type": "article", "sectionId": "food", "sectionName": "Food", "webPublicationDate": "2012-04-28T23:04:06Z", "webTitle": "Wines of the week: David Williams", "webUrl": "https://www.theguardian.com/lifeandstyle/2012/apr/29/wines-of-the-week-david-williams", "apiUrl": "https://content.guardianapis.com/lifeandstyle/2012/apr/29/wines-of-the-week-david-williams", "isHosted": false, "pillarId": "pillar/lifestyle", "pillarName": "Lifestyle"}, {"id": "lifeandstyle/2012/apr/28/readers-favourite-photographs-songs-recipes", "type": "article", "sectionId": "lifeandstyle", "sectionName": "Life and style", "webPublicationDate": "2012-04-27T23:04:01Z", "webTitle": "Family life", "webUrl": "https://www.theguardian.com/lifeandstyle/2012/apr/28/readers-favourite-photographs-songs-recipes", "apiUrl": "https://content.guardianapis.com/lifeandstyle/2012/apr/28/readers-favourite-photographs-songs-recipes", "isHosted": false, "pillarId": "pillar/lifestyle", "pillarName": "Lifestyle"}, {"id": "lifeandstyle/2012/apr/27/hugh-fearnley-whittingstall-onion-recipes", "type": "article", "sectionId": "lifeandstyle", "sectionName": "Life and style", "webPublicationDate": "2012-04-27T21:59:43Z", "webTitle": "Hugh Fearnley-Whittingstall's onion recipes", "webUrl": "https://www.theguardian.com/lifeandstyle/2012/apr/27/hugh-fearnley-whittingstall-onion-recipes", "apiUrl": "https://content.guardianapis.com/lifeandstyle/2012/apr/27/hugh-fearnley-whittingstall-onion-recipes", "isHosted": false, "pillarId": "pillar/lifestyle", "pillarName": "Lifestyle"}, {"id": "lifeandstyle/2012/apr/27/wine-left-field-grape-varieties", "type": "article", "sectionId": "food", "sectionName": "Food", "webPublicationDate": "2012-04-27T21:59:38Z", "webTitle": "Wine: left-field grape varieties", "webUrl": "https://www.theguardian.com/lifeandstyle/2012/apr/27/wine-left-field-grape-varieties", "apiUrl": "https://content.guardianapis.com/lifeandstyle/2012/apr/27/wine-left-field-grape-varieties", "isHosted": false, "pillarId": "pillar/lifestyle", "pillarName": "Lifestyle"}, {"id": "lifeandstyle/2012/apr/27/banana-cake-recipes-dan-lepard", "type": "article", "sectionId": "lifeandstyle", "sectionName": "Life and style", "webPublicationDate": "2012-04-27T21:59:04Z", "webTitle": "Bare banana cake recipes | Dan Lepard", "webUrl": "https://www.theguardian.com/lifeandstyle/2012/apr/27/banana-cake-recipes-dan-lepard", "apiUrl": "https://content.guardianapis.com/lifeandstyle/2012/apr/27/banana-cake-recipes-dan-lepard", "isHosted": false, "pillarId": "pillar/lifestyle", "pillarName": "Lifestyle"}, {"id": "lifeandstyle/2012/apr/27/lamb-watercress-salad-artichoke-recipes", "type": "article", "sectionId": "food", "sectionName": "Food", "webPublicationDate": "2012-04-27T21:59:02Z", "webTitle": "Shredded lamb shoulder with watercress and ginger recipe, plus artichoke and pearled spelt salad | Yotam Ottolenghi", "webUrl": "https://www.theguardian.com/lifeandstyle/2012/apr/27/lamb-watercress-salad-artichoke-recipes", "apiUrl": "https://content.guardianapis.com/lifeandstyle/2012/apr/27/lamb-watercress-salad-artichoke-recipes", "isHosted": false, "pillarId": "pillar/lifestyle", "pillarName": "Lifestyle"}, {"id": "tv-and-radio/2012/apr/27/who-next-nigella-celebrity-chefs", "type": "article", "sectionId": "tv-and-radio", "sectionName": "Television & radio", "webPublicationDate": "2012-04-27T21:59:00Z", "webTitle": "Domestic goddess wanted: who's going to be the next Nigella Lawson?", "webUrl": "https://www.theguardian.com/tv-and-radio/2012/apr/27/who-next-nigella-celebrity-chefs", "apiUrl": "https://content.guardianapis.com/tv-and-radio/2012/apr/27/who-next-nigella-celebrity-chefs", "isHosted": false, "pillarId": "pillar/arts", "pillarName": "Arts"}, {"id": "lifeandstyle/2012/apr/27/morgan-m-london-ec1-restaurant-review", "type": "article", "sectionId": "lifeandstyle", "sectionName": "Life and style", "webPublicationDate": "2012-04-27T21:59:00Z", "webTitle": "Restaurant: Morgan M, London EC1", "webUrl": "https://www.theguardian.com/lifeandstyle/2012/apr/27/morgan-m-london-ec1-restaurant-review", "apiUrl": "https://content.guardianapis.com/lifeandstyle/2012/apr/27/morgan-m-london-ec1-restaurant-review", "isHosted": false, "pillarId": "pillar/lifestyle", "pillarName": "Lifestyle"}, {"id": "money/2012/apr/27/working-life-pastry-chef1", "type": "article", "sectionId": "money", "sectionName": "Money", "webPublicationDate": "2012-04-27T21:58:02Z", "webTitle": "A working life: the pastry chef", "webUrl": "https://www.theguardian.com/money/2012/apr/27/working-life-pastry-chef1", "apiUrl": "https://content.guardianapis.com/money/2012/apr/27/working-life-pastry-chef1", "isHosted": false, "pillarId": "pillar/lifestyle", "pillarName": "Lifestyle"}, {"id": "education/2012/apr/27/jamie-oliver-school-meals-gove", "type": "article", "sectionId": "education", "sectionName": "Education", "webPublicationDate": "2012-04-27T21:15:00Z", "webTitle": "Can Jamie's school meals revolution survive the Gove recipe?", "webUrl": "https://www.theguardian.com/education/2012/apr/27/jamie-oliver-school-meals-gove", "apiUrl": "https://content.guardianapis.com/education/2012/apr/27/jamie-oliver-school-meals-gove", "isHosted": false, "pillarId": "pillar/news", "pillarName": "News"}, {"id": "politics/2012/apr/27/george-private-club-cameron-murdoch", "type": "article", "sectionId": "politics", "sectionName": "Politics", "webPublicationDate": "2012-04-27T19:39:44Z", "webTitle": "George: the private club where Murdoch and Cameron courted", "webUrl": "https://www.theguardian.com/politics/2012/apr/27/george-private-club-cameron-murdoch", "apiUrl": "https://content.guardianapis.com/politics/2012/apr/27/george-private-club-cameron-murdoch", "isHosted": false, "pillarId": "pillar/news", "pillarName": "News"}, {"id": "commentisfree/2012/apr/27/whats-wrong-with-eating-alone", "type": "article", "sectionId": "commentisfree", "sectionName": "Opinion", "webPublicationDate": "2012-04-27T10:00:04Z", "webTitle": "What's so wrong with eating alone? | Diane Shipley", "webUrl": "https://www.theguardian.com/commentisfree/2012/apr/27/whats-wrong-with-eating-alone", "apiUrl": "https://content.guardianapis.com/commentisfree/2012/apr/27/whats-wrong-with-eating-alone", "isHosted": false, "pillarId": "pillar/opinion", "pillarName": "Opinion"}, {"id": "lifeandstyle/wordofmouth/2012/apr/27/do-you-know-alphonso-mango", "type": "article", "sectionId": "food", "sectionName": "Food", "webPublicationDate": "2012-04-27T08:50:00Z", "webTitle": "Do you know Alphonso mango?", "webUrl": "https://www.theguardian.com/lifeandstyle/wordofmouth/2012/apr/27/do-you-know-alphonso-mango", "apiUrl": "https://content.guardianapis.com/lifeandstyle/wordofmouth/2012/apr/27/do-you-know-alphonso-mango", "isHosted": false, "pillarId": "pillar/lifestyle", "pillarName": "Lifestyle"}, {"id": "commentisfree/2012/apr/26/half-baked-pasty-tax-offensive-march", "type": "article", "sectionId": "commentisfree", "sectionName": "Opinion", "webPublicationDate": "2012-04-26T15:00:00Z", "webTitle": "This half-baked pasty tax is offensive | Stephen Gilbert", "webUrl": "https://www.theguardian.com/commentisfree/2012/apr/26/half-baked-pasty-tax-offensive-march", "apiUrl": "https://content.guardianapis.com/commentisfree/2012/apr/26/half-baked-pasty-tax-offensive-march", "isHosted": false, "pillarId": "pillar/opinion", "pillarName": "Opinion"}, {"id": "uk/the-northerner/2012/apr/26/cycling-cyclingholidays-manchester-cycle-hubs-transport-parking-cafe", "type": "article", "sectionId": "uk-news", "sectionName": "UK news", "webPublicationDate": "2012-04-26T06:30:00Z", "webTitle": "Cycle cafe pops up to fill a gap in Manchester's lettings market", "webUrl": "https://www.theguardian.com/uk/the-northerner/2012/apr/26/cycling-cyclingholidays-manchester-cycle-hubs-transport-parking-cafe", "apiUrl": "https://content.guardianapis.com/uk/the-northerner/2012/apr/26/cycling-cyclingholidays-manchester-cycle-hubs-transport-parking-cafe", "isHosted": false, "pillarId": "pillar/news", "pillarName": "News"}, {"id": "lifeandstyle/2012/apr/25/angela-hartnetts-baked-chicory-with-gruyere", "type": "article", "sectionId": "lifeandstyle", "sectionName": "Life and style", "webPublicationDate": "2012-04-25T18:59:01Z", "webTitle": "Baked chicory with gruy\u00e8re and coppa recipe | Angela Hartnett", "webUrl": "https://www.theguardian.com/lifeandstyle/2012/apr/25/angela-hartnetts-baked-chicory-with-gruyere", "apiUrl": "https://content.guardianapis.com/lifeandstyle/2012/apr/25/angela-hartnetts-baked-chicory-with-gruyere", "isHosted": false, "pillarId": "pillar/lifestyle", "pillarName": "Lifestyle"}, {"id": "tv-and-radio/2012/apr/25/bbc2-food-season-nigella-lawson", "type": "article", "sectionId": "tv-and-radio", "sectionName": "Television & radio", "webPublicationDate": "2012-04-25T18:44:13Z", "webTitle": "Nigellissima! BBC2 serves up Nigella Lawson on Italian food in summer feast", "webUrl": "https://www.theguardian.com/tv-and-radio/2012/apr/25/bbc2-food-season-nigella-lawson", "apiUrl": "https://content.guardianapis.com/tv-and-radio/2012/apr/25/bbc2-food-season-nigella-lawson", "isHosted": false, "pillarId": "pillar/arts", "pillarName": "Arts"}, {"id": "lifeandstyle/2012/apr/25/shape-of-glass-enhance-wine", "type": "article", "sectionId": "food", "sectionName": "Food", "webPublicationDate": "2012-04-25T18:00:00Z", "webTitle": "Can the shape of your glass enhance the taste of the wine?", "webUrl": "https://www.theguardian.com/lifeandstyle/2012/apr/25/shape-of-glass-enhance-wine", "apiUrl": "https://content.guardianapis.com/lifeandstyle/2012/apr/25/shape-of-glass-enhance-wine", "isHosted": false, "pillarId": "pillar/lifestyle", "pillarName": "Lifestyle"}, {"id": "lifeandstyle/wordofmouth/2012/apr/25/how-to-cook-perfect-chocolate-chip-cookies", "type": "article", "sectionId": "food", "sectionName": "Food", "webPublicationDate": "2012-04-25T14:15:00Z", "webTitle": "How to cook perfect chocolate chip cookies", "webUrl": "https://www.theguardian.com/lifeandstyle/wordofmouth/2012/apr/25/how-to-cook-perfect-chocolate-chip-cookies", "apiUrl": "https://content.guardianapis.com/lifeandstyle/wordofmouth/2012/apr/25/how-to-cook-perfect-chocolate-chip-cookies", "isHosted": false, "pillarId": "pillar/lifestyle", "pillarName": "Lifestyle"}, {"id": "uk/2012/apr/25/mad-cow-disease-british-crisis", "type": "article", "sectionId": "uk-news", "sectionName": "UK news", "webPublicationDate": "2012-04-25T13:29:05Z", "webTitle": "Mad cow disease \u2013 a very British response to an international crisis", "webUrl": "https://www.theguardian.com/uk/2012/apr/25/mad-cow-disease-british-crisis", "apiUrl": "https://content.guardianapis.com/uk/2012/apr/25/mad-cow-disease-british-crisis", "isHosted": false, "pillarId": "pillar/news", "pillarName": "News"}, {"id": "lifeandstyle/gallery/2012/apr/25/pink-lady-food-photgrapher-year-2012-winners-pictures", "type": "gallery", "sectionId": "food", "sectionName": "Food", "webPublicationDate": "2012-04-25T11:50:00Z", "webTitle": "Pink Lady Food Photographer of the Year 2012 winners - in pictures", "webUrl": "https://www.theguardian.com/lifeandstyle/gallery/2012/apr/25/pink-lady-food-photgrapher-year-2012-winners-pictures", "apiUrl": "https://content.guardianapis.com/lifeandstyle/gallery/2012/apr/25/pink-lady-food-photgrapher-year-2012-winners-pictures", "isHosted": false, "pillarId": "pillar/lifestyle", "pillarName": "Lifestyle"}, {"id": "lifeandstyle/wordofmouth/2012/apr/25/all-eyes-on-the-pies", "type": "article", "sectionId": "food", "sectionName": "Food", "webPublicationDate": "2012-04-25T09:00:00Z", "webTitle": "All eyes on the pies", "webUrl": "https://www.theguardian.com/lifeandstyle/wordofmouth/2012/apr/25/all-eyes-on-the-pies", "apiUrl": "https://content.guardianapis.com/lifeandstyle/wordofmouth/2012/apr/25/all-eyes-on-the-pies", "isHosted": false, "pillarId": "pillar/lifestyle", "pillarName": "Lifestyle"}, {"id": "world/french-election-blog-2012/2012/apr/24/french-election-michel-et-augustin-biscuits", "type": "article", "sectionId": "world", "sectionName": "World news", "webPublicationDate": "2012-04-24T16:41:35Z", "webTitle": "Food flung as French election stunt backfires for biscuit maker", "webUrl": "https://www.theguardian.com/world/french-election-blog-2012/2012/apr/24/french-election-michel-et-augustin-biscuits", "apiUrl": "https://content.guardianapis.com/world/french-election-blog-2012/2012/apr/24/french-election-michel-et-augustin-biscuits", "isHosted": false, "pillarId": "pillar/news", "pillarName": "News"}, {"id": "travel/2012/apr/24/top-10-london-street-food-stalls", "type": "article", "sectionId": "travel", "sectionName": "Travel", "webPublicationDate": "2012-04-24T11:28:04Z", "webTitle": "10 of the best London street food stalls", "webUrl": "https://www.theguardian.com/travel/2012/apr/24/top-10-london-street-food-stalls", "apiUrl": "https://content.guardianapis.com/travel/2012/apr/24/top-10-london-street-food-stalls", "isHosted": false, "pillarId": "pillar/lifestyle", "pillarName": "Lifestyle"}, {"id": "lifeandstyle/wordofmouth/2012/apr/24/wine-lists-small-is-beautiful", "type": "article", "sectionId": "food", "sectionName": "Food", "webPublicationDate": "2012-04-24T08:45:00Z", "webTitle": "Wine lists: small is beautiful", "webUrl": "https://www.theguardian.com/lifeandstyle/wordofmouth/2012/apr/24/wine-lists-small-is-beautiful", "apiUrl": "https://content.guardianapis.com/lifeandstyle/wordofmouth/2012/apr/24/wine-lists-small-is-beautiful", "isHosted": false, "pillarId": "pillar/lifestyle", "pillarName": "Lifestyle"}, {"id": "tv-and-radio/2012/apr/23/great-british-menu-tv-review", "type": "article", "sectionId": "tv-and-radio", "sectionName": "Television & radio", "webPublicationDate": "2012-04-23T21:00:01Z", "webTitle": "TV review: Great British Menu; The Little Paris Kitchen; The King and the Playwright", "webUrl": "https://www.theguardian.com/tv-and-radio/2012/apr/23/great-british-menu-tv-review", "apiUrl": "https://content.guardianapis.com/tv-and-radio/2012/apr/23/great-british-menu-tv-review", "isHosted": false, "pillarId": "pillar/arts", "pillarName": "Arts"}, {"id": "lifeandstyle/2012/apr/23/british-drinkers-toast-stout-revival", "type": "article", "sectionId": "food", "sectionName": "Food", "webPublicationDate": "2012-04-23T11:29:36Z", "webTitle": "British drinkers toast stout revival", "webUrl": "https://www.theguardian.com/lifeandstyle/2012/apr/23/british-drinkers-toast-stout-revival", "apiUrl": "https://content.guardianapis.com/lifeandstyle/2012/apr/23/british-drinkers-toast-stout-revival", "isHosted": false, "pillarId": "pillar/lifestyle", "pillarName": "Lifestyle"}, {"id": "education/mortarboard/2012/apr/23/exam-food-for-students", "type": "article", "sectionId": "education", "sectionName": "Education", "webPublicationDate": "2012-04-23T09:43:26Z", "webTitle": "Students: what's in your fridge?", "webUrl": "https://www.theguardian.com/education/mortarboard/2012/apr/23/exam-food-for-students", "apiUrl": "https://content.guardianapis.com/education/mortarboard/2012/apr/23/exam-food-for-students", "isHosted": false, "pillarId": "pillar/news", "pillarName": "News"}, {"id": "lifeandstyle/2012/apr/23/st-georges-day-recipe-earl-grey-burnt-cream", "type": "article", "sectionId": "lifeandstyle", "sectionName": "Life and style", "webPublicationDate": "2012-04-23T09:00:00Z", "webTitle": "St George's Day recipe: Earl Grey burnt cream", "webUrl": "https://www.theguardian.com/lifeandstyle/2012/apr/23/st-georges-day-recipe-earl-grey-burnt-cream", "apiUrl": "https://content.guardianapis.com/lifeandstyle/2012/apr/23/st-georges-day-recipe-earl-grey-burnt-cream", "isHosted": false, "pillarId": "pillar/lifestyle", "pillarName": "Lifestyle"}, {"id": "lifeandstyle/wordofmouth/2012/apr/23/seasons-eatings-wild-garlic", "type": "article", "sectionId": "lifeandstyle", "sectionName": "Life and style", "webPublicationDate": "2012-04-23T08:45:00Z", "webTitle": "Season's eatings: wild garlic", "webUrl": "https://www.theguardian.com/lifeandstyle/wordofmouth/2012/apr/23/seasons-eatings-wild-garlic", "apiUrl": "https://content.guardianapis.com/lifeandstyle/wordofmouth/2012/apr/23/seasons-eatings-wild-garlic", "isHosted": false, "pillarId": "pillar/lifestyle", "pillarName": "Lifestyle"}, {"id": "tv-and-radio/2012/apr/22/the-king-and-the-playwright", "type": "article", "sectionId": "tv-and-radio", "sectionName": "Television & radio", "webPublicationDate": "2012-04-22T19:00:02Z", "webTitle": "TV highlights 23/04/2012", "webUrl": "https://www.theguardian.com/tv-and-radio/2012/apr/22/the-king-and-the-playwright", "apiUrl": "https://content.guardianapis.com/tv-and-radio/2012/apr/22/the-king-and-the-playwright", "isHosted": false, "pillarId": "pillar/arts", "pillarName": "Arts"}, {"id": "lifeandstyle/2012/apr/22/kitchen-suppers-francis-maude", "type": "article", "sectionId": "food", "sectionName": "Food", "webPublicationDate": "2012-04-21T23:09:27Z", "webTitle": "Where does Francis Maude keep his condiments?", "webUrl": "https://www.theguardian.com/lifeandstyle/2012/apr/22/kitchen-suppers-francis-maude", "apiUrl": "https://content.guardianapis.com/lifeandstyle/2012/apr/22/kitchen-suppers-francis-maude", "isHosted": false, "pillarId": "pillar/lifestyle", "pillarName": "Lifestyle"}, {"id": "lifeandstyle/2012/apr/22/baking-recipes-richard-bertinet", "type": "article", "sectionId": "food", "sectionName": "Food", "webPublicationDate": "2012-04-21T23:09:24Z", "webTitle": "Richard Bertinet's sweet and savoury tart recipes", "webUrl": "https://www.theguardian.com/lifeandstyle/2012/apr/22/baking-recipes-richard-bertinet", "apiUrl": "https://content.guardianapis.com/lifeandstyle/2012/apr/22/baking-recipes-richard-bertinet", "isHosted": false, "pillarId": "pillar/lifestyle", "pillarName": "Lifestyle"}, {"id": "lifeandstyle/2012/apr/22/jay-rayner-fantasy-food", "type": "article", "sectionId": "food", "sectionName": "Food", "webPublicationDate": "2012-04-21T23:09:20Z", "webTitle": "Jay Rayner: my fantasy food", "webUrl": "https://www.theguardian.com/lifeandstyle/2012/apr/22/jay-rayner-fantasy-food", "apiUrl": "https://content.guardianapis.com/lifeandstyle/2012/apr/22/jay-rayner-fantasy-food", "isHosted": false, "pillarId": "pillar/lifestyle", "pillarName": "Lifestyle"}, {"id": "lifeandstyle/2012/apr/22/kitchen-joel-antunes-review-jay-rayner", "type": "article", "sectionId": "food", "sectionName": "Food", "webPublicationDate": "2012-04-21T23:09:03Z", "webTitle": "Restaurant review: Kitchen Jo\u00ebl Antun\u00e8s, London", "webUrl": "https://www.theguardian.com/lifeandstyle/2012/apr/22/kitchen-joel-antunes-review-jay-rayner", "apiUrl": "https://content.guardianapis.com/lifeandstyle/2012/apr/22/kitchen-joel-antunes-review-jay-rayner", "isHosted": false, "pillarId": "pillar/lifestyle", "pillarName": "Lifestyle"}, {"id": "lifeandstyle/2012/apr/22/christina-tosi-milk-bar-interview", "type": "article", "sectionId": "food", "sectionName": "Food", "webPublicationDate": "2012-04-21T23:09:00Z", "webTitle": "Christina Tosi: 'My diet was crazy for the first 27 years of my life'", "webUrl": "https://www.theguardian.com/lifeandstyle/2012/apr/22/christina-tosi-milk-bar-interview", "apiUrl": "https://content.guardianapis.com/lifeandstyle/2012/apr/22/christina-tosi-milk-bar-interview", "isHosted": false, "pillarId": "pillar/lifestyle", "pillarName": "Lifestyle"}, {"id": "lifeandstyle/2012/apr/22/chefs-eat-for-dinner", "type": "article", "sectionId": "food", "sectionName": "Food", "webPublicationDate": "2012-04-21T23:09:00Z", "webTitle": "What do chefs eat for dinner?", "webUrl": "https://www.theguardian.com/lifeandstyle/2012/apr/22/chefs-eat-for-dinner", "apiUrl": "https://content.guardianapis.com/lifeandstyle/2012/apr/22/chefs-eat-for-dinner", "isHosted": false, "pillarId": "pillar/lifestyle", "pillarName": "Lifestyle"}, {"id": "lifeandstyle/2012/apr/22/maxine-peake-interview", "type": "article", "sectionId": "food", "sectionName": "Food", "webPublicationDate": "2012-04-21T23:09:00Z", "webTitle": "Maxine Peake: 'I once went onstage after two glasses of red. I'll never do that again'", "webUrl": "https://www.theguardian.com/lifeandstyle/2012/apr/22/maxine-peake-interview", "apiUrl": "https://content.guardianapis.com/lifeandstyle/2012/apr/22/maxine-peake-interview", "isHosted": false, "pillarId": "pillar/lifestyle", "pillarName": "Lifestyle"}, {"id": "education/2012/apr/22/jamie-oliver-academies-junk-food", "type": "article", "sectionId": "education", "sectionName": "Education", "webPublicationDate": "2012-04-21T23:07:00Z", "webTitle": "Jamie Oliver in blistering attack on Michael Gove over poor school diet", "webUrl": "https://www.theguardian.com/education/2012/apr/22/jamie-oliver-academies-junk-food", "apiUrl": "https://content.guardianapis.com/education/2012/apr/22/jamie-oliver-academies-junk-food", "isHosted": false, "pillarId": "pillar/news", "pillarName": "News"}, {"id": "lifeandstyle/2012/apr/22/wines-of-the-week-david-williams", "type": "article", "sectionId": "food", "sectionName": "Food", "webPublicationDate": "2012-04-21T23:05:33Z", "webTitle": "Wines of the week", "webUrl": "https://www.theguardian.com/lifeandstyle/2012/apr/22/wines-of-the-week-david-williams", "apiUrl": "https://content.guardianapis.com/lifeandstyle/2012/apr/22/wines-of-the-week-david-williams", "isHosted": false, "pillarId": "pillar/lifestyle", "pillarName": "Lifestyle"}, {"id": "lifeandstyle/2012/apr/22/moscato-kanye-west-wine", "type": "article", "sectionId": "food", "sectionName": "Food", "webPublicationDate": "2012-04-21T23:05:01Z", "webTitle": "Why moscato is the new rappers' delight", "webUrl": "https://www.theguardian.com/lifeandstyle/2012/apr/22/moscato-kanye-west-wine", "apiUrl": "https://content.guardianapis.com/lifeandstyle/2012/apr/22/moscato-kanye-west-wine", "isHosted": false, "pillarId": "pillar/lifestyle", "pillarName": "Lifestyle"}, {"id": "music/2012/apr/22/rufus-wainwright-interview", "type": "article", "sectionId": "music", "sectionName": "Music", "webPublicationDate": "2012-04-21T23:05:00Z", "webTitle": "Rufus Wainwright: 'I've tried to be vegetarian but I keep falling off the horse and, like, eating it'", "webUrl": "https://www.theguardian.com/music/2012/apr/22/rufus-wainwright-interview", "apiUrl": "https://content.guardianapis.com/music/2012/apr/22/rufus-wainwright-interview", "isHosted": false, "pillarId": "pillar/arts", "pillarName": "Arts"}, {"id": "lifeandstyle/2012/apr/22/gary-oldman-interview-1987", "type": "article", "sectionId": "lifeandstyle", "sectionName": "Life and style", "webPublicationDate": "2012-04-21T23:04:03Z", "webTitle": "Sandwiches with Gary Oldman", "webUrl": "https://www.theguardian.com/lifeandstyle/2012/apr/22/gary-oldman-interview-1987", "apiUrl": "https://content.guardianapis.com/lifeandstyle/2012/apr/22/gary-oldman-interview-1987", "isHosted": false, "pillarId": "pillar/lifestyle", "pillarName": "Lifestyle"}]}}