{"response": {"status": "ok", "userTier": "developer", "total": 133548, "startIndex": 1, "pageSize": 50, "currentPage": 1, "pages": 2671, "orderBy": "newest", "results": [{"id": "politics/2012/apr/30/hugh-muir-diary-philip-beresford", "type": "article", "sectionId": "politics", "sectionName": "Politics", "webPublicationDate": "2012-04-30T21:49:00Z", "webTitle": "Hugh Muir's diary", "webUrl": "https://www.theguardian.com/politics/2012/apr/30/hugh-muir-diary-philip-beresford", "apiUrl": "https://content.guardianapis.com/politics/2012/apr/30/hugh-muir-diary-philip-beresford", "isHosted": false, "pillarId": "pillar/news", "pillarName": "News"}, {"id": "commentisfree/2012/apr/30/cutting-red-tape-tax-will-not-revive-britain", "type": "article", "sectionId": "commentisfree", "sectionName": "Opinion", "webPublicationDate": "2012-04-30T21:00:05Z", "webTitle": "Cutting red tape and taxes will not revive Britain | Ha-Joon Chang", "webUrl": "https://www.theguardian.com/commentisfree/2012/apr/30/cutting-red-tape-tax-will-not-revive-britain", "apiUrl": "https://content.guardianapis.com/commentisfree/2012/apr/30/cutting-red-tape-tax-will-not-revive-britain", "isHosted": false, "pillarId": "pillar/opinion", "pillarName": "Opinion"}, {"id": "commentisfree/cartoon/2012/apr/30/martin-rowson-cartoon-jeremy-hunt-david-cameron", "type": "picture", "sectionId": "commentisfree", "sectionName": "Opinion", "webPublicationDate": "2012-04-30T20:53:52Z", "webTitle": "Martin Rowson on calls for Jeremy Hunt inquiry \u2013 cartoon", "webUrl": "https://www.theguardian.com/commentisfree/cartoon/2012/apr/30/martin-rowson-cartoon-jeremy-hunt-david-cameron", "apiUrl": "https://content.guardianapis.com/commentisfree/cartoon/2012/apr/30/martin-rowson-cartoon-jeremy-hunt-david-cameron", "isHosted": false, "pillarId": "pillar/opinion", "pillarName": "Opinion"}, {"id": "politics/2012/apr/30/david-cameron-incandescent-rage-hunt", "type": "article", "sectionId": "politics", "sectionName": "Politics", "webPublicationDate": "2012-04-30T20:22:47Z", "webTitle": "David Cameron forced to answer Jeremy Hunt questions", "webUrl": "https://www.theguardian.com/politics/2012/apr/30/david-cameron-incandescent-rage-hunt", "apiUrl": "https://content.guardianapis.com/politics/2012/apr/30/david-cameron-incandescent-rage-hunt", "isHosted": false, "pillarId": "pillar/news", "pillarName": "News"}, {"id": "media/2012/apr/30/opendemocracy-news-corp-bid-bskyb", "type": "article", "sectionId": "media", "sectionName": "Media", "webPublicationDate": "2012-04-30T20:00:06Z", "webTitle": "Letter: My articles for openDemocracy on News Corp's bid for BSkyB", "webUrl": "https://www.theguardian.com/media/2012/apr/30/opendemocracy-news-corp-bid-bskyb", "apiUrl": "https://content.guardianapis.com/media/2012/apr/30/opendemocracy-news-corp-bid-bskyb", "isHosted": false, "pillarId": "pillar/news", "pillarName": "News"}, {"id": "commentisfree/2012/apr/30/vote-labour-thursday-cameron-posh", "type": "article", "sectionId": "commentisfree", "sectionName": "Opinion", "webPublicationDate": "2012-04-30T20:00:06Z", "webTitle": "Why we must vote Labour in Thursday's elections | Polly Toynbee", "webUrl": "https://www.theguardian.com/commentisfree/2012/apr/30/vote-labour-thursday-cameron-posh", "apiUrl": "https://content.guardianapis.com/commentisfree/2012/apr/30/vote-labour-thursday-cameron-posh", "isHosted": false, "pillarId": "pillar/opinion", "pillarName": "Opinion"}, {"id": "society/2012/apr/30/tories-out-of-touch-housing-reality", "type": "article", "sectionId": "society", "sectionName": "Society", "webPublicationDate": "2012-04-30T19:59:03Z", "webTitle": "Letters: Tories are out of touch with housing reality", "webUrl": "https://www.theguardian.com/society/2012/apr/30/tories-out-of-touch-housing-reality", "apiUrl": "https://content.guardianapis.com/society/2012/apr/30/tories-out-of-touch-housing-reality", "isHosted": false, "pillarId": "pillar/news", "pillarName": "News"}, {"id": "uk/2012/apr/30/london-mayoral-election-candidates-manifestos", "type": "article", "sectionId": "uk-news", "sectionName": "UK news", "webPublicationDate": "2012-04-30T19:54:43Z", "webTitle": "London mayoral election candidates' manifestos", "webUrl": "https://www.theguardian.com/uk/2012/apr/30/london-mayoral-election-candidates-manifestos", "apiUrl": "https://content.guardianapis.com/uk/2012/apr/30/london-mayoral-election-candidates-manifestos", "isHosted": false, "pillarId": "pillar/news", "pillarName": "News"}, {"id": "commentisfree/2012/apr/30/jeremy-hunt-court-of-parliament-editorial", "type": "article", "sectionId": "commentisfree", "sectionName": "Opinion", "webPublicationDate": "2012-04-30T19:53:50Z", "webTitle": "Jeremy Hunt: the court of parliament | Editorial", "webUrl": "https://www.theguardian.com/commentisfree/2012/apr/30/jeremy-hunt-court-of-parliament-editorial", "apiUrl": "https://content.guardianapis.com/commentisfree/2012/apr/30/jeremy-hunt-court-of-parliament-editorial", "isHosted": false, "pillarId": "pillar/opinion", "pillarName": "Opinion"}, {"id": "politics/2012/apr/30/leveson-fallout-david-cameron", "type": "article", "sectionId": "politics", "sectionName": "Politics", "webPublicationDate": "2012-04-30T19:23:36Z", "webTitle": "Leveson fallout turns David Cameron into teddy-hurling Hulk", "webUrl": "https://www.theguardian.com/politics/2012/apr/30/leveson-fallout-david-cameron", "apiUrl": "https://content.guardianapis.com/politics/2012/apr/30/leveson-fallout-david-cameron", "isHosted": false, "pillarId": "pillar/news", "pillarName": "News"}, {"id": "commentisfree/2012/apr/30/mayoral-election-ken-livingstone-boris-johnson", "type": "article", "sectionId": "commentisfree", "sectionName": "Opinion", "webPublicationDate": "2012-04-30T19:12:38Z", "webTitle": "London mayoral election: Ken Livingstone, flaws and all | Editorial", "webUrl": "https://www.theguardian.com/commentisfree/2012/apr/30/mayoral-election-ken-livingstone-boris-johnson", "apiUrl": "https://content.guardianapis.com/commentisfree/2012/apr/30/mayoral-election-ken-livingstone-boris-johnson", "isHosted": false, "pillarId": "pillar/opinion", "pillarName": "Opinion"}, {"id": "politics/2012/apr/30/boris-johnson-swears-television-election", "type": "article", "sectionId": "politics", "sectionName": "Politics", "webPublicationDate": "2012-04-30T19:04:00Z", "webTitle": "Boris Johnson swears on television during election event", "webUrl": "https://www.theguardian.com/politics/2012/apr/30/boris-johnson-swears-television-election", "apiUrl": "https://content.guardianapis.com/politics/2012/apr/30/boris-johnson-swears-television-election", "isHosted": false, "pillarId": "pillar/news", "pillarName": "News"}, {"id": "media/2012/apr/30/james-murdoch-phone-hacking-news-international", "type": "article", "sectionId": "media", "sectionName": "Media", "webPublicationDate": "2012-04-30T19:00:49Z", "webTitle": "James Murdoch to face MPs' criticism over phone hacking", "webUrl": "https://www.theguardian.com/media/2012/apr/30/james-murdoch-phone-hacking-news-international", "apiUrl": "https://content.guardianapis.com/media/2012/apr/30/james-murdoch-phone-hacking-news-international", "isHosted": false, "pillarId": "pillar/news", "pillarName": "News"}, {"id": "commentisfree/2012/apr/30/boris-spending-london-economic-woes", "type": "article", "sectionId": "commentisfree", "sectionName": "Opinion", "webPublicationDate": "2012-04-30T19:00:08Z", "webTitle": "No, Boris \u2013 spending more on London won't fix the country's economic woes | Aditya Chakrabortty", "webUrl": "https://www.theguardian.com/commentisfree/2012/apr/30/boris-spending-london-economic-woes", "apiUrl": "https://content.guardianapis.com/commentisfree/2012/apr/30/boris-spending-london-economic-woes", "isHosted": false, "pillarId": "pillar/opinion", "pillarName": "Opinion"}, {"id": "education/2012/apr/30/tories-fail-funds-school-building", "type": "article", "sectionId": "education", "sectionName": "Education", "webPublicationDate": "2012-04-30T18:59:01Z", "webTitle": "Conservatives fail to deliver on funds to rebuild schools", "webUrl": "https://www.theguardian.com/education/2012/apr/30/tories-fail-funds-school-building", "apiUrl": "https://content.guardianapis.com/education/2012/apr/30/tories-fail-funds-school-building", "isHosted": false, "pillarId": "pillar/news", "pillarName": "News"}, {"id": "education/2012/apr/30/bologna-process-key-european-university-success", "type": "article", "sectionId": "education", "sectionName": "Education", "webPublicationDate": "2012-04-30T18:45:01Z", "webTitle": "The Bologna process has been key to European universities' success", "webUrl": "https://www.theguardian.com/education/2012/apr/30/bologna-process-key-european-university-success", "apiUrl": "https://content.guardianapis.com/education/2012/apr/30/bologna-process-key-european-university-success", "isHosted": false, "pillarId": "pillar/news", "pillarName": "News"}, {"id": "politics/2012/apr/30/david-miliband-austerity-uk-germany", "type": "article", "sectionId": "politics", "sectionName": "Politics", "webPublicationDate": "2012-04-30T18:42:21Z", "webTitle": "David Miliband: austerity measures put UK and Germany on the back foot", "webUrl": "https://www.theguardian.com/politics/2012/apr/30/david-miliband-austerity-uk-germany", "apiUrl": "https://content.guardianapis.com/politics/2012/apr/30/david-miliband-austerity-uk-germany", "isHosted": false, "pillarId": "pillar/news", "pillarName": "News"}, {"id": "world/2012/apr/30/heathrow-waiting-times-breached", "type": "article", "sectionId": "world", "sectionName": "World news", "webPublicationDate": "2012-04-30T18:11:28Z", "webTitle": "Heathrow waiting times 'breached 107 times in two weeks'", "webUrl": "https://www.theguardian.com/world/2012/apr/30/heathrow-waiting-times-breached", "apiUrl": "https://content.guardianapis.com/world/2012/apr/30/heathrow-waiting-times-breached", "isHosted": false, "pillarId": "pillar/news", "pillarName": "News"}, {"id": "education/2012/apr/30/michael-rosen-questions-education-secretary", "type": "article", "sectionId": "education", "sectionName": "Education", "webPublicationDate": "2012-04-30T18:00:00Z", "webTitle": "Dear Mr Gove: Letter from a curious parent", "webUrl": "https://www.theguardian.com/education/2012/apr/30/michael-rosen-questions-education-secretary", "apiUrl": "https://content.guardianapis.com/education/2012/apr/30/michael-rosen-questions-education-secretary", "isHosted": false, "pillarId": "pillar/news", "pillarName": "News"}, {"id": "uk/2012/apr/30/theresa-may-deported-asylum-seeker", "type": "article", "sectionId": "uk-news", "sectionName": "UK news", "webPublicationDate": "2012-04-30T17:38:00Z", "webTitle": "Theresa May rebuked over illegally deported asylum seeker", "webUrl": "https://www.theguardian.com/uk/2012/apr/30/theresa-may-deported-asylum-seeker", "apiUrl": "https://content.guardianapis.com/uk/2012/apr/30/theresa-may-deported-asylum-seeker", "isHosted": false, "pillarId": "pillar/news", "pillarName": "News"}, {"id": "politics/2012/apr/30/london-mayor-race-close-call", "type": "article", "sectionId": "politics", "sectionName": "Politics", "webPublicationDate": "2012-04-30T17:16:06Z", "webTitle": "London mayor race is too close to call", "webUrl": "https://www.theguardian.com/politics/2012/apr/30/london-mayor-race-close-call", "apiUrl": "https://content.guardianapis.com/politics/2012/apr/30/london-mayor-race-close-call", "isHosted": false, "pillarId": "pillar/news", "pillarName": "News"}, {"id": "politics/shortcuts/2012/apr/30/jeremy-hunt-dances-the-lambada", "type": "article", "sectionId": "politics", "sectionName": "Politics", "webPublicationDate": "2012-04-30T16:30:01Z", "webTitle": "Jeremy Hunt's secret is out: he loves to dance the lambada", "webUrl": "https://www.theguardian.com/politics/shortcuts/2012/apr/30/jeremy-hunt-dances-the-lambada", "apiUrl": "https://content.guardianapis.com/politics/shortcuts/2012/apr/30/jeremy-hunt-dances-the-lambada", "isHosted": false, "pillarId": "pillar/news", "pillarName": "News"}, {"id": "commentisfree/2012/apr/30/cornwall-hands-off-our-pasties", "type": "article", "sectionId": "commentisfree", "sectionName": "Opinion", "webPublicationDate": "2012-04-30T16:00:00Z", "webTitle": "The message from Cornwall: hands off our pasties | Edward Rowe", "webUrl": "https://www.theguardian.com/commentisfree/2012/apr/30/cornwall-hands-off-our-pasties", "apiUrl": "https://content.guardianapis.com/commentisfree/2012/apr/30/cornwall-hands-off-our-pasties", "isHosted": false, "pillarId": "pillar/opinion", "pillarName": "Opinion"}, {"id": "politics/2012/apr/30/local-elections-not-voting-not-english", "type": "article", "sectionId": "politics", "sectionName": "Politics", "webPublicationDate": "2012-04-30T15:57:39Z", "webTitle": "Local elections: 'Not voting is not English'", "webUrl": "https://www.theguardian.com/politics/2012/apr/30/local-elections-not-voting-not-english", "apiUrl": "https://content.guardianapis.com/politics/2012/apr/30/local-elections-not-voting-not-english", "isHosted": false, "pillarId": "pillar/news", "pillarName": "News"}, {"id": "world/2012/apr/30/israel-middleeast", "type": "article", "sectionId": "world", "sectionName": "World news", "webPublicationDate": "2012-04-30T15:44:54Z", "webTitle": "Israeli negotiation expert has NHS workshop cancelled after union protests", "webUrl": "https://www.theguardian.com/world/2012/apr/30/israel-middleeast", "apiUrl": "https://content.guardianapis.com/world/2012/apr/30/israel-middleeast", "isHosted": false, "pillarId": "pillar/news", "pillarName": "News"}, {"id": "politics/video/2012/apr/30/david-cameron-jeremy-hunt-statement-video", "type": "video", "sectionId": "politics", "sectionName": "Politics", "webPublicationDate": "2012-04-30T15:44:00Z", "webTitle": "David Cameron makes statement on Jeremy Hunt - video", "webUrl": "https://www.theguardian.com/politics/video/2012/apr/30/david-cameron-jeremy-hunt-statement-video", "apiUrl": "https://content.guardianapis.com/politics/video/2012/apr/30/david-cameron-jeremy-hunt-statement-video", "isHosted": false, "pillarId": "pillar/news", "pillarName": "News"}, {"id": "environment/blog/2012/apr/30/david-cameron-environment-leadership", "type": "article", "sectionId": "environment", "sectionName": "Environment", "webPublicationDate": "2012-04-30T15:10:11Z", "webTitle": "David Cameron, it's time to show leadership on climate change and energy | Caroline Lucas", "webUrl": "https://www.theguardian.com/environment/blog/2012/apr/30/david-cameron-environment-leadership", "apiUrl": "https://content.guardianapis.com/environment/blog/2012/apr/30/david-cameron-environment-leadership", "isHosted": false, "pillarId": "pillar/news", "pillarName": "News"}, {"id": "politics/video/2012/apr/30/boris-johnson-swears-bbc-news-international-video", "type": "video", "sectionId": "politics", "sectionName": "Politics", "webPublicationDate": "2012-04-30T15:06:00Z", "webTitle": "Boris Johnson swears at BBC reporter when asked about News International sponsorship claim - video", "webUrl": "https://www.theguardian.com/politics/video/2012/apr/30/boris-johnson-swears-bbc-news-international-video", "apiUrl": "https://content.guardianapis.com/politics/video/2012/apr/30/boris-johnson-swears-bbc-news-international-video", "isHosted": false, "pillarId": "pillar/news", "pillarName": "News"}, {"id": "media/2012/apr/30/news-corp-sky-stake-problem", "type": "article", "sectionId": "media", "sectionName": "Media", "webPublicationDate": "2012-04-30T14:22:35Z", "webTitle": "News Corp's Sky stake a 'problem' for broadcaster, says shadow minister", "webUrl": "https://www.theguardian.com/media/2012/apr/30/news-corp-sky-stake-problem", "apiUrl": "https://content.guardianapis.com/media/2012/apr/30/news-corp-sky-stake-problem", "isHosted": false, "pillarId": "pillar/news", "pillarName": "News"}, {"id": "commentisfree/2012/apr/30/boris-johnson-vote-more-austerity", "type": "article", "sectionId": "commentisfree", "sectionName": "Opinion", "webPublicationDate": "2012-04-30T13:35:01Z", "webTitle": "A vote for Boris Johnson would be a vote for yet more austerity | Jon Trickett", "webUrl": "https://www.theguardian.com/commentisfree/2012/apr/30/boris-johnson-vote-more-austerity", "apiUrl": "https://content.guardianapis.com/commentisfree/2012/apr/30/boris-johnson-vote-more-austerity", "isHosted": false, "pillarId": "pillar/opinion", "pillarName": "Opinion"}, {"id": "commentisfree/2012/apr/30/insanity-london-2012-sport-olympics", "type": "article", "sectionId": "commentisfree", "sectionName": "Opinion", "webPublicationDate": "2012-04-30T13:00:02Z", "webTitle": "London 2012's stupendous insanity leaves sport as an also-ran | John Harris", "webUrl": "https://www.theguardian.com/commentisfree/2012/apr/30/insanity-london-2012-sport-olympics", "apiUrl": "https://content.guardianapis.com/commentisfree/2012/apr/30/insanity-london-2012-sport-olympics", "isHosted": false, "pillarId": "pillar/opinion", "pillarName": "Opinion"}, {"id": "uk/2012/apr/30/uk-border-staff-heathrow-queues", "type": "article", "sectionId": "uk-news", "sectionName": "UK news", "webPublicationDate": "2012-04-30T12:56:00Z", "webTitle": "UK border staff flown from Manchester to Heathrow to deal with queues", "webUrl": "https://www.theguardian.com/uk/2012/apr/30/uk-border-staff-heathrow-queues", "apiUrl": "https://content.guardianapis.com/uk/2012/apr/30/uk-border-staff-heathrow-queues", "isHosted": false, "pillarId": "pillar/news", "pillarName": "News"}, {"id": "politics/video/2012/apr/30/jeremy-hunt-ed-miliband-video", "type": "video", "sectionId": "politics", "sectionName": "Politics", "webPublicationDate": "2012-04-30T12:53:00Z", "webTitle": "Jeremy Hunt breached ministerial code, says Ed Miliband - video", "webUrl": "https://www.theguardian.com/politics/video/2012/apr/30/jeremy-hunt-ed-miliband-video", "apiUrl": "https://content.guardianapis.com/politics/video/2012/apr/30/jeremy-hunt-ed-miliband-video", "isHosted": false, "pillarId": "pillar/news", "pillarName": "News"}, {"id": "politics/2012/apr/30/cameron-commons-urgent-question-hunt", "type": "article", "sectionId": "politics", "sectionName": "Politics", "webPublicationDate": "2012-04-30T12:24:00Z", "webTitle": "David Cameron called to Commons to face urgent question on Jeremy Hunt", "webUrl": "https://www.theguardian.com/politics/2012/apr/30/cameron-commons-urgent-question-hunt", "apiUrl": "https://content.guardianapis.com/politics/2012/apr/30/cameron-commons-urgent-question-hunt", "isHosted": false, "pillarId": "pillar/news", "pillarName": "News"}, {"id": "uk/datablog/2012/apr/30/lond-road-use-data", "type": "article", "sectionId": "uk-news", "sectionName": "UK news", "webPublicationDate": "2012-04-30T11:57:00Z", "webTitle": "London road use mapped: see how it's changed since 2001 | Infographic", "webUrl": "https://www.theguardian.com/uk/datablog/2012/apr/30/lond-road-use-data", "apiUrl": "https://content.guardianapis.com/uk/datablog/2012/apr/30/lond-road-use-data", "isHosted": false, "pillarId": "pillar/news", "pillarName": "News"}, {"id": "sport/2012/apr/30/snipers-patrol-skies-london-olympics", "type": "article", "sectionId": "sport", "sectionName": "Sport", "webPublicationDate": "2012-04-30T11:53:00Z", "webTitle": "London 2012: snipers to patrol skies over Olympic Games", "webUrl": "https://www.theguardian.com/sport/2012/apr/30/snipers-patrol-skies-london-olympics", "apiUrl": "https://content.guardianapis.com/sport/2012/apr/30/snipers-patrol-skies-london-olympics", "isHosted": false, "pillarId": "pillar/sport", "pillarName": "Sport"}, {"id": "commentisfree/2012/apr/30/remember-kinder-scout-britain-common-land", "type": "article", "sectionId": "commentisfree", "sectionName": "Opinion", "webPublicationDate": "2012-04-30T10:45:00Z", "webTitle": "Remember Kinder Scout \u2013 give back Britain's common land | Peter Lazenby", "webUrl": "https://www.theguardian.com/commentisfree/2012/apr/30/remember-kinder-scout-britain-common-land", "apiUrl": "https://content.guardianapis.com/commentisfree/2012/apr/30/remember-kinder-scout-britain-common-land", "isHosted": false, "pillarId": "pillar/opinion", "pillarName": "Opinion"}, {"id": "politics/video/2012/apr/30/london-mayoral-siobhan-benita-video", "type": "video", "sectionId": "politics", "sectionName": "Politics", "webPublicationDate": "2012-04-30T09:09:00Z", "webTitle": "London mayoral candidate Siobhan Benita on the campaign trail - video", "webUrl": "https://www.theguardian.com/politics/video/2012/apr/30/london-mayoral-siobhan-benita-video", "apiUrl": "https://content.guardianapis.com/politics/video/2012/apr/30/london-mayoral-siobhan-benita-video", "isHosted": false, "pillarId": "pillar/news", "pillarName": "News"}, {"id": "uk/the-northerner/2012/apr/30/liverpool-mayoral-elections", "type": "article", "sectionId": "uk-news", "sectionName": "UK news", "webPublicationDate": "2012-04-30T09:00:00Z", "webTitle": "Shelter keeps up the pressure on Liverpool landlords", "webUrl": "https://www.theguardian.com/uk/the-northerner/2012/apr/30/liverpool-mayoral-elections", "apiUrl": "https://content.guardianapis.com/uk/the-northerner/2012/apr/30/liverpool-mayoral-elections", "isHosted": false, "pillarId": "pillar/news", "pillarName": "News"}, {"id": "politics/2012/apr/30/boris-johnson-plans-london-wealth", "type": "article", "sectionId": "politics", "sectionName": "Politics", "webPublicationDate": "2012-04-30T07:39:04Z", "webTitle": "Boris Johnson accused of power grab over plans to keep London wealth", "webUrl": "https://www.theguardian.com/politics/2012/apr/30/boris-johnson-plans-london-wealth", "apiUrl": "https://content.guardianapis.com/politics/2012/apr/30/boris-johnson-plans-london-wealth", "isHosted": false, "pillarId": "pillar/news", "pillarName": "News"}, {"id": "commentisfree/2012/apr/30/politicians-media-my-late-dad-jack-ashley", "type": "article", "sectionId": "commentisfree", "sectionName": "Opinion", "webPublicationDate": "2012-04-30T07:09:14Z", "webTitle": "Our politicians and media could learn from my late dad, Jack Ashley | Jackie Ashley", "webUrl": "https://www.theguardian.com/commentisfree/2012/apr/30/politicians-media-my-late-dad-jack-ashley", "apiUrl": "https://content.guardianapis.com/commentisfree/2012/apr/30/politicians-media-my-late-dad-jack-ashley", "isHosted": false, "pillarId": "pillar/opinion", "pillarName": "Opinion"}, {"id": "politics/2012/apr/30/george-galloway-house-commong", "type": "article", "sectionId": "politics", "sectionName": "Politics", "webPublicationDate": "2012-04-30T06:46:59Z", "webTitle": "George Galloway's almost-perfect three minutes", "webUrl": "https://www.theguardian.com/politics/2012/apr/30/george-galloway-house-commong", "apiUrl": "https://content.guardianapis.com/politics/2012/apr/30/george-galloway-house-commong", "isHosted": false, "pillarId": "pillar/news", "pillarName": "News"}, {"id": "politics/davehillblog/2012/apr/30/boris-johnson-boriswatch-sunday-politics-interview-refused", "type": "article", "sectionId": "politics", "sectionName": "Politics", "webPublicationDate": "2012-04-30T06:01:00Z", "webTitle": "What stopped Boris Johnson from appearing on the Sunday Politics?", "webUrl": "https://www.theguardian.com/politics/davehillblog/2012/apr/30/boris-johnson-boriswatch-sunday-politics-interview-refused", "apiUrl": "https://content.guardianapis.com/politics/davehillblog/2012/apr/30/boris-johnson-boriswatch-sunday-politics-interview-refused", "isHosted": false, "pillarId": "pillar/news", "pillarName": "News"}, {"id": "commentisfree/cartoon/2012/apr/30/martin-rowson-cartoon-jeremy-hunt", "type": "picture", "sectionId": "commentisfree", "sectionName": "Opinion", "webPublicationDate": "2012-04-29T23:00:00Z", "webTitle": "Martin Rowson on David Cameron and Jeremy Hunt \u2013 cartoon", "webUrl": "https://www.theguardian.com/commentisfree/cartoon/2012/apr/30/martin-rowson-cartoon-jeremy-hunt", "apiUrl": "https://content.guardianapis.com/commentisfree/cartoon/2012/apr/30/martin-rowson-cartoon-jeremy-hunt", "isHosted": false, "pillarId": "pillar/opinion", "pillarName": "Opinion"}, {"id": "commentisfree/2012/apr/29/iain-duncan-smith-welfare", "type": "article", "sectionId": "commentisfree", "sectionName": "Opinion", "webPublicationDate": "2012-04-29T21:58:16Z", "webTitle": "In praise of \u2026 Iain Duncan Smith | Editorial", "webUrl": "https://www.theguardian.com/commentisfree/2012/apr/29/iain-duncan-smith-welfare", "apiUrl": "https://content.guardianapis.com/commentisfree/2012/apr/29/iain-duncan-smith-welfare", "isHosted": false, "pillarId": "pillar/opinion", "pillarName": "Opinion"}, {"id": "politics/2012/apr/29/david-cameron-commons-jeremy-hunt", "type": "article", "sectionId": "politics", "sectionName": "Politics", "webPublicationDate": "2012-04-29T21:06:09Z", "webTitle": "David Cameron called to Commons to answer questions over Jeremy Hunt", "webUrl": "https://www.theguardian.com/politics/2012/apr/29/david-cameron-commons-jeremy-hunt", "apiUrl": "https://content.guardianapis.com/politics/2012/apr/29/david-cameron-commons-jeremy-hunt", "isHosted": false, "pillarId": "pillar/news", "pillarName": "News"}, {"id": "commentisfree/2012/apr/29/cameron-make-conservatives-look-like-nation", "type": "article", "sectionId": "commentisfree", "sectionName": "Opinion", "webPublicationDate": "2012-04-29T20:30:01Z", "webTitle": "David Cameron must make the Conservative party look like the nation | Neil O'Brien", "webUrl": "https://www.theguardian.com/commentisfree/2012/apr/29/cameron-make-conservatives-look-like-nation", "apiUrl": "https://content.guardianapis.com/commentisfree/2012/apr/29/cameron-make-conservatives-look-like-nation", "isHosted": false, "pillarId": "pillar/opinion", "pillarName": "Opinion"}, {"id": "politics/2012/apr/29/conservative-party-301-group-1922", "type": "article", "sectionId": "politics", "sectionName": "Politics", "webPublicationDate": "2012-04-29T20:01:00Z", "webTitle": "Conservative party's 301 radicals seek to shake up 1922 status quo", "webUrl": "https://www.theguardian.com/politics/2012/apr/29/conservative-party-301-group-1922", "apiUrl": "https://content.guardianapis.com/politics/2012/apr/29/conservative-party-301-group-1922", "isHosted": false, "pillarId": "pillar/news", "pillarName": "News"}, {"id": "technology/2012/apr/29/shed-light-on-blacklisting-conspiracy", "type": "article", "sectionId": "technology", "sectionName": "Technology", "webPublicationDate": "2012-04-29T20:00:12Z", "webTitle": "Letters: Shed some light on blacklisting conspiracy", "webUrl": "https://www.theguardian.com/technology/2012/apr/29/shed-light-on-blacklisting-conspiracy", "apiUrl": "https://content.guardianapis.com/technology/2012/apr/29/shed-light-on-blacklisting-conspiracy", "isHosted": false, "pillarId": "pillar/news", "pillarName": "News"}, {"id": "politics/2012/apr/29/jeremy-hunt-secret-skill-revealed", "type": "article", "sectionId": "politics", "sectionName": "Politics", "webPublicationDate": "2012-04-29T20:00:09Z", "webTitle": "Jeremy Hunt's secret skill revealed by Michael Gove", "webUrl": "https://www.theguardian.com/politics/2012/apr/29/jeremy-hunt-secret-skill-revealed", "apiUrl": "https://content.guardianapis.com/politics/2012/apr/29/jeremy-hunt-secret-skill-revealed", "isHosted": false, "pillarId": "pillar/news", "pillarName": "News"}]}}