{"response": {"status": "ok", "userTier": "developer", "total": 36005, "startIndex": 1, "pageSize": 50, "currentPage": 1, "pages": 721, "orderBy": "newest", "results": [{"id": "environment/2013/apr/30/lansallos-cornwall-nature-helped-harmed-humanity", "type": "article", "sectionId": "environment", "sectionName": "Environment", "webPublicationDate": "2013-04-30T19:59:01Z", "webTitle": "Lansallos, Cornwall: Nature helped and harmed by humanity", "webUrl": "https://www.theguardian.com/environment/2013/apr/30/lansallos-cornwall-nature-helped-harmed-humanity", "apiUrl": "https://content.guardianapis.com/environment/2013/apr/30/lansallos-cornwall-nature-helped-harmed-humanity", "isHosted": false, "pillarId": "pillar/news", "pillarName": "News"}, {"id": "politics/2013/apr/30/green-party-largest-number-candidates", "type": "article", "sectionId": "politics", "sectionName": "Politics", "webPublicationDate": "2013-04-30T18:39:40Z", "webTitle": "Green party fields largest number of candidates in its history", "webUrl": "https://www.theguardian.com/politics/2013/apr/30/green-party-largest-number-candidates", "apiUrl": "https://content.guardianapis.com/politics/2013/apr/30/green-party-largest-number-candidates", "isHosted": false, "pillarId": "pillar/news", "pillarName": "News"}, {"id": "artanddesign/architecture-design-blog/2013/apr/30/united-micro-kingdoms-design-museum", "type": "article", "sectionId": "artanddesign", "sectionName": "Art and design", "webPublicationDate": "2013-04-30T17:18:00Z", "webTitle": "Are nuclear trains and cars made of skin the future of travel?", "webUrl": "https://www.theguardian.com/artanddesign/architecture-design-blog/2013/apr/30/united-micro-kingdoms-design-museum", "apiUrl": "https://content.guardianapis.com/artanddesign/architecture-design-blog/2013/apr/30/united-micro-kingdoms-design-museum", "isHosted": false, "pillarId": "pillar/arts", "pillarName": "Arts"}, {"id": "world/2013/apr/30/hurricane-sandy-raw-sewage-eastern-us", "type": "article", "sectionId": "us-news", "sectionName": "US news", "webPublicationDate": "2013-04-30T16:47:00Z", "webTitle": "Hurricane Sandy dumped 11bn gallons of raw sewage in eastern US waterways", "webUrl": "https://www.theguardian.com/world/2013/apr/30/hurricane-sandy-raw-sewage-eastern-us", "apiUrl": "https://content.guardianapis.com/world/2013/apr/30/hurricane-sandy-raw-sewage-eastern-us", "isHosted": false, "pillarId": "pillar/news", "pillarName": "News"}, {"id": "environment/2013/apr/30/conservative-us-shoppers-turned-off-eco-lightbulb", "type": "article", "sectionId": "environment", "sectionName": "Environment", "webPublicationDate": "2013-04-30T16:32:31Z", "webTitle": "Conservative US shoppers turned off by eco-friendly lightbulbs, study finds", "webUrl": "https://www.theguardian.com/environment/2013/apr/30/conservative-us-shoppers-turned-off-eco-lightbulb", "apiUrl": "https://content.guardianapis.com/environment/2013/apr/30/conservative-us-shoppers-turned-off-eco-lightbulb", "isHosted": false, "pillarId": "pillar/news", "pillarName": "News"}, {"id": "science/political-science/2013/apr/30/science-policy1", "type": "article", "sectionId": "science", "sectionName": "Science", "webPublicationDate": "2013-04-30T16:03:00Z", "webTitle": "Why Monbiot's attack on Walport misses the mark", "webUrl": "https://www.theguardian.com/science/political-science/2013/apr/30/science-policy1", "apiUrl": "https://content.guardianapis.com/science/political-science/2013/apr/30/science-policy1", "isHosted": false, "pillarId": "pillar/news", "pillarName": "News"}, {"id": "environment/blog/2013/apr/30/may-diverse-wildlife-hedgerows", "type": "article", "sectionId": "environment", "sectionName": "Environment", "webPublicationDate": "2013-04-30T14:19:55Z", "webTitle": "May's diverse wildlife finds hedgerows the perfect home", "webUrl": "https://www.theguardian.com/environment/blog/2013/apr/30/may-diverse-wildlife-hedgerows", "apiUrl": "https://content.guardianapis.com/environment/blog/2013/apr/30/may-diverse-wildlife-hedgerows", "isHosted": false, "pillarId": "pillar/news", "pillarName": "News"}, {"id": "environment/2013/apr/30/grand-canyon-uranium-mining", "type": "article", "sectionId": "environment", "sectionName": "Environment", "webPublicationDate": "2013-04-30T11:39:52Z", "webTitle": "Grand Canyon uranium mining set to go ahead despite ban from Obama", "webUrl": "https://www.theguardian.com/environment/2013/apr/30/grand-canyon-uranium-mining", "apiUrl": "https://content.guardianapis.com/environment/2013/apr/30/grand-canyon-uranium-mining", "isHosted": false, "pillarId": "pillar/news", "pillarName": "News"}, {"id": "business/2013/apr/30/bp-profits-deepwater-horizon-damages", "type": "article", "sectionId": "business", "sectionName": "Business", "webPublicationDate": "2013-04-30T11:14:00Z", "webTitle": "Deepwater Horizon damages weigh on BP's profits", "webUrl": "https://www.theguardian.com/business/2013/apr/30/bp-profits-deepwater-horizon-damages", "apiUrl": "https://content.guardianapis.com/business/2013/apr/30/bp-profits-deepwater-horizon-damages", "isHosted": false, "pillarId": "pillar/news", "pillarName": "News"}, {"id": "global-development-professionals-network/2013/apr/30/food-safety-staple-crops-toxins", "type": "article", "sectionId": "working-in-development", "sectionName": "Working in development", "webPublicationDate": "2013-04-30T10:07:00Z", "webTitle": "Food safety: train smallholders to improve processing at farms", "webUrl": "https://www.theguardian.com/global-development-professionals-network/2013/apr/30/food-safety-staple-crops-toxins", "apiUrl": "https://content.guardianapis.com/global-development-professionals-network/2013/apr/30/food-safety-staple-crops-toxins", "isHosted": false}, {"id": "environment/2013/apr/30/bp-record-profit-safety-record", "type": "article", "sectionId": "environment", "sectionName": "Environment", "webPublicationDate": "2013-04-30T09:09:25Z", "webTitle": "BP makes record profit as its safety record comes under spotlight again", "webUrl": "https://www.theguardian.com/environment/2013/apr/30/bp-record-profit-safety-record", "apiUrl": "https://content.guardianapis.com/environment/2013/apr/30/bp-record-profit-safety-record", "isHosted": false, "pillarId": "pillar/news", "pillarName": "News"}, {"id": "environment/2013/apr/29/biggest-economic-howler-of-all", "type": "article", "sectionId": "environment", "sectionName": "Environment", "webPublicationDate": "2013-04-29T20:00:02Z", "webTitle": "Letters: Biggest economic howler of them all", "webUrl": "https://www.theguardian.com/environment/2013/apr/29/biggest-economic-howler-of-all", "apiUrl": "https://content.guardianapis.com/environment/2013/apr/29/biggest-economic-howler-of-all", "isHosted": false, "pillarId": "pillar/news", "pillarName": "News"}, {"id": "environment/2013/apr/29/weymouth-bay-dorset-clinging-edge-jurassic-coast", "type": "article", "sectionId": "environment", "sectionName": "Environment", "webPublicationDate": "2013-04-29T19:59:01Z", "webTitle": "Country diary: Clinging to the edge of the Jurassic coast", "webUrl": "https://www.theguardian.com/environment/2013/apr/29/weymouth-bay-dorset-clinging-edge-jurassic-coast", "apiUrl": "https://content.guardianapis.com/environment/2013/apr/29/weymouth-bay-dorset-clinging-edge-jurassic-coast", "isHosted": false, "pillarId": "pillar/news", "pillarName": "News"}, {"id": "environment/2013/apr/29/global-carbon-dioxide-levels", "type": "article", "sectionId": "environment", "sectionName": "Environment", "webPublicationDate": "2013-04-29T19:32:25Z", "webTitle": "Global carbon dioxide levels set to pass 400ppm milestone", "webUrl": "https://www.theguardian.com/environment/2013/apr/29/global-carbon-dioxide-levels", "apiUrl": "https://content.guardianapis.com/environment/2013/apr/29/global-carbon-dioxide-levels", "isHosted": false, "pillarId": "pillar/news", "pillarName": "News"}, {"id": "commentisfree/2013/apr/29/beware-rise-government-scientists-lobbyists", "type": "article", "sectionId": "commentisfree", "sectionName": "Opinion", "webPublicationDate": "2013-04-29T19:30:02Z", "webTitle": "Beware the rise of the government scientists turned lobbyists | George Monbiot", "webUrl": "https://www.theguardian.com/commentisfree/2013/apr/29/beware-rise-government-scientists-lobbyists", "apiUrl": "https://content.guardianapis.com/commentisfree/2013/apr/29/beware-rise-government-scientists-lobbyists", "isHosted": false, "pillarId": "pillar/opinion", "pillarName": "Opinion"}, {"id": "environment/blog/2013/apr/29/bee-deaths-should-eu-ban-neonicotinoids", "type": "liveblog", "sectionId": "environment", "sectionName": "Environment", "webPublicationDate": "2013-04-29T19:04:02Z", "webTitle": "Bee deaths: Should the EU ban neonicotinoids?", "webUrl": "https://www.theguardian.com/environment/blog/2013/apr/29/bee-deaths-should-eu-ban-neonicotinoids", "apiUrl": "https://content.guardianapis.com/environment/blog/2013/apr/29/bee-deaths-should-eu-ban-neonicotinoids", "isHosted": false, "pillarId": "pillar/news", "pillarName": "News"}, {"id": "business/2013/apr/29/bp-north-sea-oil-leak-ula-norway", "type": "article", "sectionId": "business", "sectionName": "Business", "webPublicationDate": "2013-04-29T17:37:15Z", "webTitle": "BP rebuked over North Sea oil leak", "webUrl": "https://www.theguardian.com/business/2013/apr/29/bp-north-sea-oil-leak-ula-norway", "apiUrl": "https://content.guardianapis.com/business/2013/apr/29/bp-north-sea-oil-leak-ula-norway", "isHosted": false, "pillarId": "pillar/news", "pillarName": "News"}, {"id": "environment/2013/apr/29/adapt-changing-climate-europe-flooding", "type": "article", "sectionId": "environment", "sectionName": "Environment", "webPublicationDate": "2013-04-29T16:52:37Z", "webTitle": "Adapt faster to changing climate, Europe warned", "webUrl": "https://www.theguardian.com/environment/2013/apr/29/adapt-changing-climate-europe-flooding", "apiUrl": "https://content.guardianapis.com/environment/2013/apr/29/adapt-changing-climate-europe-flooding", "isHosted": false, "pillarId": "pillar/news", "pillarName": "News"}, {"id": "environment/2013/apr/29/bees-european-neonicotinoids-ban", "type": "article", "sectionId": "environment", "sectionName": "Environment", "webPublicationDate": "2013-04-29T16:37:33Z", "webTitle": "Bees and the European neonicotinoids pesticide ban: Q&A", "webUrl": "https://www.theguardian.com/environment/2013/apr/29/bees-european-neonicotinoids-ban", "apiUrl": "https://content.guardianapis.com/environment/2013/apr/29/bees-european-neonicotinoids-ban", "isHosted": false, "pillarId": "pillar/news", "pillarName": "News"}, {"id": "environment/2013/apr/29/bee-harming-pesticides-banned-europe", "type": "article", "sectionId": "environment", "sectionName": "Environment", "webPublicationDate": "2013-04-29T15:05:00Z", "webTitle": "Bee-harming pesticides banned in Europe", "webUrl": "https://www.theguardian.com/environment/2013/apr/29/bee-harming-pesticides-banned-europe", "apiUrl": "https://content.guardianapis.com/environment/2013/apr/29/bee-harming-pesticides-banned-europe", "isHosted": false, "pillarId": "pillar/news", "pillarName": "News"}, {"id": "fashion/2013/apr/29/top-10-ethical-shop-childrens-clothes", "type": "article", "sectionId": "fashion", "sectionName": "Fashion", "webPublicationDate": "2013-04-29T14:36:11Z", "webTitle": "Top 10 ethical places to shop for children's clothes", "webUrl": "https://www.theguardian.com/fashion/2013/apr/29/top-10-ethical-shop-childrens-clothes", "apiUrl": "https://content.guardianapis.com/fashion/2013/apr/29/top-10-ethical-shop-childrens-clothes", "isHosted": false, "pillarId": "pillar/lifestyle", "pillarName": "Lifestyle"}, {"id": "environment/2013/apr/29/community-raising-money-green-energy", "type": "article", "sectionId": "environment", "sectionName": "Environment", "webPublicationDate": "2013-04-29T11:20:12Z", "webTitle": "How are communities raising serious money for green energy projects? | Chris Goodall", "webUrl": "https://www.theguardian.com/environment/2013/apr/29/community-raising-money-green-energy", "apiUrl": "https://content.guardianapis.com/environment/2013/apr/29/community-raising-money-green-energy", "isHosted": false, "pillarId": "pillar/news", "pillarName": "News"}, {"id": "environment/blog/2013/apr/29/pr-smokescreen-holes-climate-teaching-proposals", "type": "article", "sectionId": "environment", "sectionName": "Environment", "webPublicationDate": "2013-04-29T11:05:57Z", "webTitle": "PR smokescreen cannot hide the holes in climate teaching proposals | Bob Ward", "webUrl": "https://www.theguardian.com/environment/blog/2013/apr/29/pr-smokescreen-holes-climate-teaching-proposals", "apiUrl": "https://content.guardianapis.com/environment/blog/2013/apr/29/pr-smokescreen-holes-climate-teaching-proposals", "isHosted": false, "pillarId": "pillar/news", "pillarName": "News"}, {"id": "environment/climate-consensus-97-per-cent/2013/apr/29/climate-scientist-james-hansen-legacy", "type": "article", "sectionId": "environment", "sectionName": "Environment", "webPublicationDate": "2013-04-29T10:26:49Z", "webTitle": "What's climate scientist James Hansen's legacy? | John Abraham", "webUrl": "https://www.theguardian.com/environment/climate-consensus-97-per-cent/2013/apr/29/climate-scientist-james-hansen-legacy", "apiUrl": "https://content.guardianapis.com/environment/climate-consensus-97-per-cent/2013/apr/29/climate-scientist-james-hansen-legacy", "isHosted": false, "pillarId": "pillar/news", "pillarName": "News"}, {"id": "social-enterprise-network/2013/apr/29/energy-coops-cutting-household-bills-carbon", "type": "article", "sectionId": "business", "sectionName": "Business", "webPublicationDate": "2013-04-29T10:11:00Z", "webTitle": "Energy co-ops are cutting household bills alongside carbon emissions", "webUrl": "https://www.theguardian.com/social-enterprise-network/2013/apr/29/energy-coops-cutting-household-bills-carbon", "apiUrl": "https://content.guardianapis.com/social-enterprise-network/2013/apr/29/energy-coops-cutting-household-bills-carbon", "isHosted": false, "pillarId": "pillar/news", "pillarName": "News"}, {"id": "environment/2013/apr/29/david-cameron-protect-bees-green", "type": "article", "sectionId": "environment", "sectionName": "Environment", "webPublicationDate": "2013-04-29T06:00:15Z", "webTitle": "It's David Cameron's duty to protect bees if he believes in green government", "webUrl": "https://www.theguardian.com/environment/2013/apr/29/david-cameron-protect-bees-green", "apiUrl": "https://content.guardianapis.com/environment/2013/apr/29/david-cameron-protect-bees-green", "isHosted": false, "pillarId": "pillar/news", "pillarName": "News"}, {"id": "science/audio/2013/apr/29/podcast-science-weekly-burning-question", "type": "audio", "sectionId": "science", "sectionName": "Science", "webPublicationDate": "2013-04-28T23:05:00Z", "webTitle": "Science Weekly podcast: The Burning Question \u2013 can we quit fossil fuels?", "webUrl": "https://www.theguardian.com/science/audio/2013/apr/29/podcast-science-weekly-burning-question", "apiUrl": "https://content.guardianapis.com/science/audio/2013/apr/29/podcast-science-weekly-burning-question", "isHosted": false, "pillarId": "pillar/news", "pillarName": "News"}, {"id": "commentisfree/2013/apr/28/nudge-nag-throwaway-culture-tories", "type": "article", "sectionId": "commentisfree", "sectionName": "Opinion", "webPublicationDate": "2013-04-28T20:30:01Z", "webTitle": "A nudge and a nag won't end our throwaway culture | Peter Wilby", "webUrl": "https://www.theguardian.com/commentisfree/2013/apr/28/nudge-nag-throwaway-culture-tories", "apiUrl": "https://content.guardianapis.com/commentisfree/2013/apr/28/nudge-nag-throwaway-culture-tories", "isHosted": false, "pillarId": "pillar/opinion", "pillarName": "Opinion"}, {"id": "environment/2013/apr/28/claxton-norfolk-rain-parched-earthy-perfume", "type": "article", "sectionId": "environment", "sectionName": "Environment", "webPublicationDate": "2013-04-28T20:00:00Z", "webTitle": "Country diary: Claxton, Norfolk: The rain released from the parched ground that glorious earthy perfume", "webUrl": "https://www.theguardian.com/environment/2013/apr/28/claxton-norfolk-rain-parched-earthy-perfume", "apiUrl": "https://content.guardianapis.com/environment/2013/apr/28/claxton-norfolk-rain-parched-earthy-perfume", "isHosted": false, "pillarId": "pillar/news", "pillarName": "News"}, {"id": "environment/2013/apr/28/carbon-bubble-australia-coal-industry", "type": "article", "sectionId": "environment", "sectionName": "Environment", "webPublicationDate": "2013-04-28T20:00:00Z", "webTitle": "Carbon bubble makes Australia's coal industry ripe 'for financial implosion'", "webUrl": "https://www.theguardian.com/environment/2013/apr/28/carbon-bubble-australia-coal-industry", "apiUrl": "https://content.guardianapis.com/environment/2013/apr/28/carbon-bubble-australia-coal-industry", "isHosted": false, "pillarId": "pillar/news", "pillarName": "News"}, {"id": "uk/shortcuts/2013/apr/28/new-cartography-making-mountains-hills", "type": "article", "sectionId": "uk-news", "sectionName": "UK news", "webPublicationDate": "2013-04-28T18:00:05Z", "webTitle": "The new cartographers: making mountains out of hills", "webUrl": "https://www.theguardian.com/uk/shortcuts/2013/apr/28/new-cartography-making-mountains-hills", "apiUrl": "https://content.guardianapis.com/uk/shortcuts/2013/apr/28/new-cartography-making-mountains-hills", "isHosted": false, "pillarId": "pillar/news", "pillarName": "News"}, {"id": "books/2013/apr/28/new-york-arbor-epstein-review", "type": "article", "sectionId": "books", "sectionName": "Books", "webPublicationDate": "2013-04-28T10:00:01Z", "webTitle": "New York Arbor by Mitch Epstein \u2013 review", "webUrl": "https://www.theguardian.com/books/2013/apr/28/new-york-arbor-epstein-review", "apiUrl": "https://content.guardianapis.com/books/2013/apr/28/new-york-arbor-epstein-review", "isHosted": false, "pillarId": "pillar/arts", "pillarName": "Arts"}, {"id": "environment/2013/apr/28/badger-rspca-politics-cull", "type": "article", "sectionId": "environment", "sectionName": "Environment", "webPublicationDate": "2013-04-27T23:06:27Z", "webTitle": "RSPCA comes under fire for badger cull protests", "webUrl": "https://www.theguardian.com/environment/2013/apr/28/badger-rspca-politics-cull", "apiUrl": "https://content.guardianapis.com/environment/2013/apr/28/badger-rspca-politics-cull", "isHosted": false, "pillarId": "pillar/news", "pillarName": "News"}, {"id": "environment/2013/apr/28/europe-insecticides-ban-save-bees", "type": "article", "sectionId": "environment", "sectionName": "Environment", "webPublicationDate": "2013-04-27T23:05:00Z", "webTitle": "Insecticide firms in secret bid to stop ban that could save bees", "webUrl": "https://www.theguardian.com/environment/2013/apr/28/europe-insecticides-ban-save-bees", "apiUrl": "https://content.guardianapis.com/environment/2013/apr/28/europe-insecticides-ban-save-bees", "isHosted": false, "pillarId": "pillar/news", "pillarName": "News"}, {"id": "science/2013/apr/28/lobariella-sipmanii-new-to-nature", "type": "article", "sectionId": "science", "sectionName": "Science", "webPublicationDate": "2013-04-27T23:05:00Z", "webTitle": "New to Nature No 102: Lobariella sipmanii", "webUrl": "https://www.theguardian.com/science/2013/apr/28/lobariella-sipmanii-new-to-nature", "apiUrl": "https://content.guardianapis.com/science/2013/apr/28/lobariella-sipmanii-new-to-nature", "isHosted": false, "pillarId": "pillar/news", "pillarName": "News"}, {"id": "environment/2013/apr/28/pontfadog-oak-revered-loved-mourned", "type": "article", "sectionId": "environment", "sectionName": "Environment", "webPublicationDate": "2013-04-27T23:03:04Z", "webTitle": "The Pontfadog oak was the oldest of the old, revered, loved \u2026 and now mourned", "webUrl": "https://www.theguardian.com/environment/2013/apr/28/pontfadog-oak-revered-loved-mourned", "apiUrl": "https://content.guardianapis.com/environment/2013/apr/28/pontfadog-oak-revered-loved-mourned", "isHosted": false, "pillarId": "pillar/news", "pillarName": "News"}, {"id": "environment/damian-carrington-blog/video/2013/apr/27/march-of-the-beekeepers-protest-pesticides-video", "type": "video", "sectionId": "environment", "sectionName": "Environment", "webPublicationDate": "2013-04-27T08:47:00Z", "webTitle": "March of the Beekeepers protest held over pesticides \u2013 video", "webUrl": "https://www.theguardian.com/environment/damian-carrington-blog/video/2013/apr/27/march-of-the-beekeepers-protest-pesticides-video", "apiUrl": "https://content.guardianapis.com/environment/damian-carrington-blog/video/2013/apr/27/march-of-the-beekeepers-protest-pesticides-video", "isHosted": false, "pillarId": "pillar/news", "pillarName": "News"}, {"id": "environment/2013/apr/26/grey-wolves-wolf-protection-end-obama", "type": "article", "sectionId": "environment", "sectionName": "Environment", "webPublicationDate": "2013-04-26T21:41:30Z", "webTitle": "Protection of grey wolves may be ended by Obama administration", "webUrl": "https://www.theguardian.com/environment/2013/apr/26/grey-wolves-wolf-protection-end-obama", "apiUrl": "https://content.guardianapis.com/environment/2013/apr/26/grey-wolves-wolf-protection-end-obama", "isHosted": false, "pillarId": "pillar/news", "pillarName": "News"}, {"id": "science/2013/apr/26/plantwatch-wild-daffodil-garden-hybrid", "type": "article", "sectionId": "science", "sectionName": "Science", "webPublicationDate": "2013-04-26T20:24:01Z", "webTitle": "Plantwatch: Under attack \u2013 the wild British daffodil", "webUrl": "https://www.theguardian.com/science/2013/apr/26/plantwatch-wild-daffodil-garden-hybrid", "apiUrl": "https://content.guardianapis.com/science/2013/apr/26/plantwatch-wild-daffodil-garden-hybrid", "isHosted": false, "pillarId": "pillar/news", "pillarName": "News"}, {"id": "environment/2013/apr/26/aberdaron-marys-well-extraordinary-holy-sites", "type": "article", "sectionId": "environment", "sectionName": "Environment", "webPublicationDate": "2013-04-26T20:00:24Z", "webTitle": "Country diary: Aberdaron: St Mary's well is one of the most extraordinary holy sites in Britain", "webUrl": "https://www.theguardian.com/environment/2013/apr/26/aberdaron-marys-well-extraordinary-holy-sites", "apiUrl": "https://content.guardianapis.com/environment/2013/apr/26/aberdaron-marys-well-extraordinary-holy-sites", "isHosted": false, "pillarId": "pillar/news", "pillarName": "News"}, {"id": "business/2013/apr/26/edf-deal-chinese-uk-nuclear-programme", "type": "article", "sectionId": "business", "sectionName": "Business", "webPublicationDate": "2013-04-26T17:24:17Z", "webTitle": "EDF deal brings Chinese involvement in UK nuclear programme a step closer", "webUrl": "https://www.theguardian.com/business/2013/apr/26/edf-deal-chinese-uk-nuclear-programme", "apiUrl": "https://content.guardianapis.com/business/2013/apr/26/edf-deal-chinese-uk-nuclear-programme", "isHosted": false, "pillarId": "pillar/news", "pillarName": "News"}, {"id": "business/2013/apr/26/igas-shale-gas-wells-manchester-liverpool", "type": "article", "sectionId": "business", "sectionName": "Business", "webPublicationDate": "2013-04-26T16:36:02Z", "webTitle": "IGas to drill two shale gas wells between Manchester and Liverpool", "webUrl": "https://www.theguardian.com/business/2013/apr/26/igas-shale-gas-wells-manchester-liverpool", "apiUrl": "https://content.guardianapis.com/business/2013/apr/26/igas-shale-gas-wells-manchester-liverpool", "isHosted": false, "pillarId": "pillar/news", "pillarName": "News"}, {"id": "environment/gallery/2013/apr/26/week-in-wildlife-in-pictures", "type": "gallery", "sectionId": "environment", "sectionName": "Environment", "webPublicationDate": "2013-04-26T15:45:22Z", "webTitle": "The week in wildlife \u2013 in pictures", "webUrl": "https://www.theguardian.com/environment/gallery/2013/apr/26/week-in-wildlife-in-pictures", "apiUrl": "https://content.guardianapis.com/environment/gallery/2013/apr/26/week-in-wildlife-in-pictures", "isHosted": false, "pillarId": "pillar/news", "pillarName": "News"}, {"id": "commentisfree/2013/apr/26/optimism-appealing-pessimism-more-my-thing", "type": "article", "sectionId": "commentisfree", "sectionName": "Opinion", "webPublicationDate": "2013-04-26T15:37:39Z", "webTitle": "Optimism is appealing, but pessimism, alarm and anxiety have their uses | Ian Jack", "webUrl": "https://www.theguardian.com/commentisfree/2013/apr/26/optimism-appealing-pessimism-more-my-thing", "apiUrl": "https://content.guardianapis.com/commentisfree/2013/apr/26/optimism-appealing-pessimism-more-my-thing", "isHosted": false, "pillarId": "pillar/opinion", "pillarName": "Opinion"}, {"id": "environment/true-north/2013/apr/26/indigenous-rights-defence-canadas-resource-rush", "type": "article", "sectionId": "environment", "sectionName": "Environment", "webPublicationDate": "2013-04-26T15:12:12Z", "webTitle": "Indigenous rights are the best defence against Canada's resource rush | Martin Lukacs", "webUrl": "https://www.theguardian.com/environment/true-north/2013/apr/26/indigenous-rights-defence-canadas-resource-rush", "apiUrl": "https://content.guardianapis.com/environment/true-north/2013/apr/26/indigenous-rights-defence-canadas-resource-rush", "isHosted": false, "pillarId": "pillar/news", "pillarName": "News"}, {"id": "world/2013/apr/26/paraguayan-landfill-orchestra-music", "type": "article", "sectionId": "world", "sectionName": "World news", "webPublicationDate": "2013-04-26T14:02:55Z", "webTitle": "Paraguayan landfill orchestra makes sweet music from rubbish", "webUrl": "https://www.theguardian.com/world/2013/apr/26/paraguayan-landfill-orchestra-music", "apiUrl": "https://content.guardianapis.com/world/2013/apr/26/paraguayan-landfill-orchestra-music", "isHosted": false, "pillarId": "pillar/news", "pillarName": "News"}, {"id": "environment/2013/apr/26/ban-bee-harming-insecticides-mistake", "type": "article", "sectionId": "environment", "sectionName": "Environment", "webPublicationDate": "2013-04-26T13:57:01Z", "webTitle": "Ban on bee-harming insecticides would be a mistake, says chief science adviser", "webUrl": "https://www.theguardian.com/environment/2013/apr/26/ban-bee-harming-insecticides-mistake", "apiUrl": "https://content.guardianapis.com/environment/2013/apr/26/ban-bee-harming-insecticides-mistake", "isHosted": false, "pillarId": "pillar/news", "pillarName": "News"}, {"id": "environment/earth-insight/2013/apr/26/fossil-fuel-secret-burma-democratic-fairytale", "type": "article", "sectionId": "environment", "sectionName": "Environment", "webPublicationDate": "2013-04-26T12:18:11Z", "webTitle": "The dirty fossil fuel secret behind Burma's democratic fairytale | Nafeez Ahmed", "webUrl": "https://www.theguardian.com/environment/earth-insight/2013/apr/26/fossil-fuel-secret-burma-democratic-fairytale", "apiUrl": "https://content.guardianapis.com/environment/earth-insight/2013/apr/26/fossil-fuel-secret-burma-democratic-fairytale", "isHosted": false, "pillarId": "pillar/news", "pillarName": "News"}, {"id": "environment/2013/apr/26/australia-coal-great-barrier-reef", "type": "article", "sectionId": "environment", "sectionName": "Environment", "webPublicationDate": "2013-04-26T12:08:58Z", "webTitle": "Australian minister: I never saw advice against coal port at Great Barrier Reef", "webUrl": "https://www.theguardian.com/environment/2013/apr/26/australia-coal-great-barrier-reef", "apiUrl": "https://content.guardianapis.com/environment/2013/apr/26/australia-coal-great-barrier-reef", "isHosted": false, "pillarId": "pillar/news", "pillarName": "News"}, {"id": "books/2013/apr/26/science-museum-publishes-climate-change-novel", "type": "article", "sectionId": "books", "sectionName": "Books", "webPublicationDate": "2013-04-26T11:44:31Z", "webTitle": "Science Museum publishes climate change novel", "webUrl": "https://www.theguardian.com/books/2013/apr/26/science-museum-publishes-climate-change-novel", "apiUrl": "https://content.guardianapis.com/books/2013/apr/26/science-museum-publishes-climate-change-novel", "isHosted": false, "pillarId": "pillar/arts", "pillarName": "Arts"}]}}