{"response": {"status": "ok", "userTier": "developer", "total": 17690, "startIndex": 1, "pageSize": 50, "currentPage": 1, "pages": 354, "orderBy": "newest", "results": [{"id": "lifeandstyle/wordofmouth/2012/may/31/how-to-cook-the-perfect-scotch-egg", "type": "article", "sectionId": "food", "sectionName": "Food", "webPublicationDate": "2012-05-30T23:10:00Z", "webTitle": "How to cook the perfect scotch egg", "webUrl": "https://www.theguardian.com/lifeandstyle/wordofmouth/2012/may/31/how-to-cook-the-perfect-scotch-egg", "apiUrl": "https://content.guardianapis.com/lifeandstyle/wordofmouth/2012/may/31/how-to-cook-the-perfect-scotch-egg", "isHosted": false, "pillarId": "pillar/lifestyle", "pillarName": "Lifestyle"}, {"id": "society/2012/may/30/cut-alcohol-intake-quarter-pint-daily", "type": "article", "sectionId": "society", "sectionName": "Society", "webPublicationDate": "2012-05-30T22:30:00Z", "webTitle": "Cut alcohol intake to just a quarter pint of beer a day, experts advise", "webUrl": "https://www.theguardian.com/society/2012/may/30/cut-alcohol-intake-quarter-pint-daily", "apiUrl": "https://content.guardianapis.com/society/2012/may/30/cut-alcohol-intake-quarter-pint-daily", "isHosted": false, "pillarId": "pillar/news", "pillarName": "News"}, {"id": "travel/2012/may/30/top-10-north-devon-budget-restaurants", "type": "article", "sectionId": "travel", "sectionName": "Travel", "webPublicationDate": "2012-05-30T19:29:00Z", "webTitle": "10 of the best budget restaurants and cafes in north Devon", "webUrl": "https://www.theguardian.com/travel/2012/may/30/top-10-north-devon-budget-restaurants", "apiUrl": "https://content.guardianapis.com/travel/2012/may/30/top-10-north-devon-budget-restaurants", "isHosted": false, "pillarId": "pillar/lifestyle", "pillarName": "Lifestyle"}, {"id": "lifeandstyle/2012/may/30/should-eat-more-goat-meat", "type": "article", "sectionId": "food", "sectionName": "Food", "webPublicationDate": "2012-05-30T19:00:00Z", "webTitle": "Should we eat more goat meat?", "webUrl": "https://www.theguardian.com/lifeandstyle/2012/may/30/should-eat-more-goat-meat", "apiUrl": "https://content.guardianapis.com/lifeandstyle/2012/may/30/should-eat-more-goat-meat", "isHosted": false, "pillarId": "pillar/lifestyle", "pillarName": "Lifestyle"}, {"id": "environment/2012/may/30/california-tuna-radiation-sushi-industry", "type": "article", "sectionId": "environment", "sectionName": "Environment", "webPublicationDate": "2012-05-30T15:21:55Z", "webTitle": "California tuna connoisseurs shy away from sushi over Japan radiation fears", "webUrl": "https://www.theguardian.com/environment/2012/may/30/california-tuna-radiation-sushi-industry", "apiUrl": "https://content.guardianapis.com/environment/2012/may/30/california-tuna-radiation-sushi-industry", "isHosted": false, "pillarId": "pillar/news", "pillarName": "News"}, {"id": "lifeandstyle/2012/may/30/pea-broad-bean-cheese-pappardelle", "type": "article", "sectionId": "food", "sectionName": "Food", "webPublicationDate": "2012-05-30T11:44:00Z", "webTitle": "Pea, broad bean and goat's cheese pappardelle | Angela Hartnett", "webUrl": "https://www.theguardian.com/lifeandstyle/2012/may/30/pea-broad-bean-cheese-pappardelle", "apiUrl": "https://content.guardianapis.com/lifeandstyle/2012/may/30/pea-broad-bean-cheese-pappardelle", "isHosted": false, "pillarId": "pillar/lifestyle", "pillarName": "Lifestyle"}, {"id": "travel/2012/may/30/10-best-pubs-north-devon", "type": "article", "sectionId": "travel", "sectionName": "Travel", "webPublicationDate": "2012-05-30T10:49:13Z", "webTitle": "10 of the best pubs in north Devon and Exmoor", "webUrl": "https://www.theguardian.com/travel/2012/may/30/10-best-pubs-north-devon", "apiUrl": "https://content.guardianapis.com/travel/2012/may/30/10-best-pubs-north-devon", "isHosted": false, "pillarId": "pillar/lifestyle", "pillarName": "Lifestyle"}, {"id": "lifeandstyle/2012/may/30/rocket-squash-asparagus-fried-egg-reci", "type": "article", "sectionId": "food", "sectionName": "Food", "webPublicationDate": "2012-05-30T09:15:00Z", "webTitle": "Wild rocket, summer squash and asparagus with a fried egg and hot pickled peppers recipe", "webUrl": "https://www.theguardian.com/lifeandstyle/2012/may/30/rocket-squash-asparagus-fried-egg-reci", "apiUrl": "https://content.guardianapis.com/lifeandstyle/2012/may/30/rocket-squash-asparagus-fried-egg-reci", "isHosted": false, "pillarId": "pillar/lifestyle", "pillarName": "Lifestyle"}, {"id": "lifeandstyle/wordofmouth/2012/may/30/the-sourdough-hotel-cultural-centre", "type": "article", "sectionId": "food", "sectionName": "Food", "webPublicationDate": "2012-05-30T08:50:00Z", "webTitle": "The sourdough hotel: a cultural centre", "webUrl": "https://www.theguardian.com/lifeandstyle/wordofmouth/2012/may/30/the-sourdough-hotel-cultural-centre", "apiUrl": "https://content.guardianapis.com/lifeandstyle/wordofmouth/2012/may/30/the-sourdough-hotel-cultural-centre", "isHosted": false, "pillarId": "pillar/lifestyle", "pillarName": "Lifestyle"}, {"id": "tv-and-radio/2012/may/29/jimmy-and-the-giant-supermarket", "type": "article", "sectionId": "tv-and-radio", "sectionName": "Television & radio", "webPublicationDate": "2012-05-29T21:00:01Z", "webTitle": "TV review: Jimmy and the Giant Supermarket; Silk; Prince Charles: The Royal Restoration", "webUrl": "https://www.theguardian.com/tv-and-radio/2012/may/29/jimmy-and-the-giant-supermarket", "apiUrl": "https://content.guardianapis.com/tv-and-radio/2012/may/29/jimmy-and-the-giant-supermarket", "isHosted": false, "pillarId": "pillar/arts", "pillarName": "Arts"}, {"id": "uk/the-northerner/2012/may/29/weather-woman-trapped-deckchair-manchester-city-fish-and-chips", "type": "article", "sectionId": "uk-news", "sectionName": "UK news", "webPublicationDate": "2012-05-29T16:42:00Z", "webTitle": "Woman trapped in deckchair for six hours", "webUrl": "https://www.theguardian.com/uk/the-northerner/2012/may/29/weather-woman-trapped-deckchair-manchester-city-fish-and-chips", "apiUrl": "https://content.guardianapis.com/uk/the-northerner/2012/may/29/weather-woman-trapped-deckchair-manchester-city-fish-and-chips", "isHosted": false, "pillarId": "pillar/news", "pillarName": "News"}, {"id": "money/2012/may/29/vat-what-how-much-why", "type": "article", "sectionId": "money", "sectionName": "Money", "webPublicationDate": "2012-05-29T14:39:09Z", "webTitle": "VAT: what, how much and why?", "webUrl": "https://www.theguardian.com/money/2012/may/29/vat-what-how-much-why", "apiUrl": "https://content.guardianapis.com/money/2012/may/29/vat-what-how-much-why", "isHosted": false, "pillarId": "pillar/lifestyle", "pillarName": "Lifestyle"}, {"id": "politics/blog/2012/may/29/tax-u-turns-james-bond-cornish-pasty", "type": "article", "sectionId": "politics", "sectionName": "Politics", "webPublicationDate": "2012-05-29T13:39:38Z", "webTitle": "Tax U-turns: why James Bond is like a Cornish pasty | Michael White", "webUrl": "https://www.theguardian.com/politics/blog/2012/may/29/tax-u-turns-james-bond-cornish-pasty", "apiUrl": "https://content.guardianapis.com/politics/blog/2012/may/29/tax-u-turns-james-bond-cornish-pasty", "isHosted": false, "pillarId": "pillar/news", "pillarName": "News"}, {"id": "business/2012/may/29/olive-oil-prices-slide", "type": "article", "sectionId": "business", "sectionName": "Business", "webPublicationDate": "2012-05-29T12:47:14Z", "webTitle": "Olive oil price slide dents key southern European export", "webUrl": "https://www.theguardian.com/business/2012/may/29/olive-oil-prices-slide", "apiUrl": "https://content.guardianapis.com/business/2012/may/29/olive-oil-prices-slide", "isHosted": false, "pillarId": "pillar/news", "pillarName": "News"}, {"id": "society/2012/may/29/ministers-rethink-charity-tax-relief", "type": "article", "sectionId": "society", "sectionName": "Society", "webPublicationDate": "2012-05-29T11:08:52Z", "webTitle": "Ministers 'preparing for rethink on charity tax relief'", "webUrl": "https://www.theguardian.com/society/2012/may/29/ministers-rethink-charity-tax-relief", "apiUrl": "https://content.guardianapis.com/society/2012/may/29/ministers-rethink-charity-tax-relief", "isHosted": false, "pillarId": "pillar/news", "pillarName": "News"}, {"id": "politics/2012/may/29/ken-clarke-chillaxes-coalition-uturns", "type": "article", "sectionId": "politics", "sectionName": "Politics", "webPublicationDate": "2012-05-29T10:11:26Z", "webTitle": "Ken Clarke 'chillaxes' at the cricket as the coalition makes new U-turns", "webUrl": "https://www.theguardian.com/politics/2012/may/29/ken-clarke-chillaxes-coalition-uturns", "apiUrl": "https://content.guardianapis.com/politics/2012/may/29/ken-clarke-chillaxes-coalition-uturns", "isHosted": false, "pillarId": "pillar/news", "pillarName": "News"}, {"id": "lifeandstyle/2012/may/29/black-bean-salad-prawns-recipe", "type": "article", "sectionId": "food", "sectionName": "Food", "webPublicationDate": "2012-05-29T09:50:00Z", "webTitle": "Black bean salad with prawns and pickled onions recipe", "webUrl": "https://www.theguardian.com/lifeandstyle/2012/may/29/black-bean-salad-prawns-recipe", "apiUrl": "https://content.guardianapis.com/lifeandstyle/2012/may/29/black-bean-salad-prawns-recipe", "isHosted": false, "pillarId": "pillar/lifestyle", "pillarName": "Lifestyle"}, {"id": "lifeandstyle/wordofmouth/2012/may/29/wales-michelin-stars-will-rise", "type": "article", "sectionId": "food", "sectionName": "Food", "webPublicationDate": "2012-05-29T09:10:00Z", "webTitle": "Wales' Michelin stars will rise", "webUrl": "https://www.theguardian.com/lifeandstyle/wordofmouth/2012/may/29/wales-michelin-stars-will-rise", "apiUrl": "https://content.guardianapis.com/lifeandstyle/wordofmouth/2012/may/29/wales-michelin-stars-will-rise", "isHosted": false, "pillarId": "pillar/lifestyle", "pillarName": "Lifestyle"}, {"id": "business/marketforceslive/2012/may/29/pasty-tax-u-turn-greggs-shares", "type": "article", "sectionId": "business", "sectionName": "Business", "webPublicationDate": "2012-05-29T08:48:15Z", "webTitle": "Pasty tax U-turn boosts Greggs shares", "webUrl": "https://www.theguardian.com/business/marketforceslive/2012/may/29/pasty-tax-u-turn-greggs-shares", "apiUrl": "https://content.guardianapis.com/business/marketforceslive/2012/may/29/pasty-tax-u-turn-greggs-shares", "isHosted": false, "pillarId": "pillar/news", "pillarName": "News"}, {"id": "politics/2012/may/28/george-osborne-u-turns-pasties-caravans", "type": "article", "sectionId": "politics", "sectionName": "Politics", "webPublicationDate": "2012-05-28T20:20:01Z", "webTitle": "George Osborne forced into pasty tax U-turn", "webUrl": "https://www.theguardian.com/politics/2012/may/28/george-osborne-u-turns-pasties-caravans", "apiUrl": "https://content.guardianapis.com/politics/2012/may/28/george-osborne-u-turns-pasties-caravans", "isHosted": false, "pillarId": "pillar/news", "pillarName": "News"}, {"id": "lifeandstyle/shortcuts/2012/may/28/leveson-inquiry-cake-pop", "type": "article", "sectionId": "food", "sectionName": "Food", "webPublicationDate": "2012-05-28T19:39:28Z", "webTitle": "Leveson inquiry cake pop anyone?", "webUrl": "https://www.theguardian.com/lifeandstyle/shortcuts/2012/may/28/leveson-inquiry-cake-pop", "apiUrl": "https://content.guardianapis.com/lifeandstyle/shortcuts/2012/may/28/leveson-inquiry-cake-pop", "isHosted": false, "pillarId": "pillar/lifestyle", "pillarName": "Lifestyle"}, {"id": "lifeandstyle/shortcuts/2012/may/28/pass-notes-3183-olive-oil", "type": "article", "sectionId": "food", "sectionName": "Food", "webPublicationDate": "2012-05-28T19:00:00Z", "webTitle": "Pass notes No 3,183: Olive oil", "webUrl": "https://www.theguardian.com/lifeandstyle/shortcuts/2012/may/28/pass-notes-3183-olive-oil", "apiUrl": "https://content.guardianapis.com/lifeandstyle/shortcuts/2012/may/28/pass-notes-3183-olive-oil", "isHosted": false, "pillarId": "pillar/lifestyle", "pillarName": "Lifestyle"}, {"id": "news/datablog/2012/may/28/food-standards-agency-incidents", "type": "article", "sectionId": "news", "sectionName": "News", "webPublicationDate": "2012-05-28T13:45:55Z", "webTitle": "What's wrong with our food? FSA sees rise in food scares", "webUrl": "https://www.theguardian.com/news/datablog/2012/may/28/food-standards-agency-incidents", "apiUrl": "https://content.guardianapis.com/news/datablog/2012/may/28/food-standards-agency-incidents", "isHosted": false, "pillarId": "pillar/news", "pillarName": "News"}, {"id": "lifeandstyle/2012/may/28/asparagus-mimosa-capers-radishes-recipe", "type": "article", "sectionId": "food", "sectionName": "Food", "webPublicationDate": "2012-05-28T10:45:00Z", "webTitle": "Asparagus mimosa with capers, radishes and chives recipe", "webUrl": "https://www.theguardian.com/lifeandstyle/2012/may/28/asparagus-mimosa-capers-radishes-recipe", "apiUrl": "https://content.guardianapis.com/lifeandstyle/2012/may/28/asparagus-mimosa-capers-radishes-recipe", "isHosted": false, "pillarId": "pillar/lifestyle", "pillarName": "Lifestyle"}, {"id": "lifeandstyle/wordofmouth/2012/may/28/bogus-quest-for-authentic-food", "type": "article", "sectionId": "food", "sectionName": "Food", "webPublicationDate": "2012-05-28T09:32:00Z", "webTitle": "The bogus quest for 'authentic' food", "webUrl": "https://www.theguardian.com/lifeandstyle/wordofmouth/2012/may/28/bogus-quest-for-authentic-food", "apiUrl": "https://content.guardianapis.com/lifeandstyle/wordofmouth/2012/may/28/bogus-quest-for-authentic-food", "isHosted": false, "pillarId": "pillar/lifestyle", "pillarName": "Lifestyle"}, {"id": "travel/2012/may/28/foodie-portugal-restaurants-lisbon-algarve", "type": "article", "sectionId": "travel", "sectionName": "Travel", "webPublicationDate": "2012-05-28T09:00:00Z", "webTitle": "Readers' travel tips: foodie Portugal", "webUrl": "https://www.theguardian.com/travel/2012/may/28/foodie-portugal-restaurants-lisbon-algarve", "apiUrl": "https://content.guardianapis.com/travel/2012/may/28/foodie-portugal-restaurants-lisbon-algarve", "isHosted": false, "pillarId": "pillar/lifestyle", "pillarName": "Lifestyle"}, {"id": "lifeandstyle/2012/may/27/jay-rayner-restaurant-review-dstrkt", "type": "article", "sectionId": "food", "sectionName": "Food", "webPublicationDate": "2012-05-26T23:07:00Z", "webTitle": "Restaurant review: Dstrkt, London W1", "webUrl": "https://www.theguardian.com/lifeandstyle/2012/may/27/jay-rayner-restaurant-review-dstrkt", "apiUrl": "https://content.guardianapis.com/lifeandstyle/2012/may/27/jay-rayner-restaurant-review-dstrkt", "isHosted": false, "pillarId": "pillar/lifestyle", "pillarName": "Lifestyle"}, {"id": "lifeandstyle/2012/may/27/wines-of-the-week-david-williams", "type": "article", "sectionId": "food", "sectionName": "Food", "webPublicationDate": "2012-05-26T23:05:22Z", "webTitle": "Wines of the week: David Williams", "webUrl": "https://www.theguardian.com/lifeandstyle/2012/may/27/wines-of-the-week-david-williams", "apiUrl": "https://content.guardianapis.com/lifeandstyle/2012/may/27/wines-of-the-week-david-williams", "isHosted": false, "pillarId": "pillar/lifestyle", "pillarName": "Lifestyle"}, {"id": "travel/2012/may/27/mexico-street-food-los-angeles", "type": "article", "sectionId": "travel", "sectionName": "Travel", "webPublicationDate": "2012-05-26T23:04:20Z", "webTitle": "Mexican street food in Los Angeles", "webUrl": "https://www.theguardian.com/travel/2012/may/27/mexico-street-food-los-angeles", "apiUrl": "https://content.guardianapis.com/travel/2012/may/27/mexico-street-food-los-angeles", "isHosted": false, "pillarId": "pillar/lifestyle", "pillarName": "Lifestyle"}, {"id": "music/2012/may/26/music-festivals-guide-2012-booze-beer", "type": "article", "sectionId": "music", "sectionName": "Music", "webPublicationDate": "2012-05-25T23:22:00Z", "webTitle": "Music festivals guide 2012: booze", "webUrl": "https://www.theguardian.com/music/2012/may/26/music-festivals-guide-2012-booze-beer", "apiUrl": "https://content.guardianapis.com/music/2012/may/26/music-festivals-guide-2012-booze-beer", "isHosted": false, "pillarId": "pillar/arts", "pillarName": "Arts"}, {"id": "lifeandstyle/2012/may/26/readers-favourite-photographs-songs-recipes", "type": "article", "sectionId": "lifeandstyle", "sectionName": "Life and style", "webPublicationDate": "2012-05-25T23:04:01Z", "webTitle": "Family life", "webUrl": "https://www.theguardian.com/lifeandstyle/2012/may/26/readers-favourite-photographs-songs-recipes", "apiUrl": "https://content.guardianapis.com/lifeandstyle/2012/may/26/readers-favourite-photographs-songs-recipes", "isHosted": false, "pillarId": "pillar/lifestyle", "pillarName": "Lifestyle"}, {"id": "uk/2012/may/26/diamond-jubilee-celebrations-record-levels", "type": "article", "sectionId": "uk-news", "sectionName": "UK news", "webPublicationDate": "2012-05-25T23:03:11Z", "webTitle": "Diamond jubilee celebrations soar to record levels", "webUrl": "https://www.theguardian.com/uk/2012/may/26/diamond-jubilee-celebrations-record-levels", "apiUrl": "https://content.guardianapis.com/uk/2012/may/26/diamond-jubilee-celebrations-record-levels", "isHosted": false, "pillarId": "pillar/news", "pillarName": "News"}, {"id": "lifeandstyle/2012/may/25/carrot-recipes-hugh-fearnley-whittingstall", "type": "article", "sectionId": "lifeandstyle", "sectionName": "Life and style", "webPublicationDate": "2012-05-25T22:00:00Z", "webTitle": "Orange aid: carrot recipes | Hugh Fearnley-Whittingstall", "webUrl": "https://www.theguardian.com/lifeandstyle/2012/may/25/carrot-recipes-hugh-fearnley-whittingstall", "apiUrl": "https://content.guardianapis.com/lifeandstyle/2012/may/25/carrot-recipes-hugh-fearnley-whittingstall", "isHosted": false, "pillarId": "pillar/lifestyle", "pillarName": "Lifestyle"}, {"id": "lifeandstyle/2012/may/25/union-jacks-london-w4-restaurant-review", "type": "article", "sectionId": "lifeandstyle", "sectionName": "Life and style", "webPublicationDate": "2012-05-25T21:59:53Z", "webTitle": "Restaurant: Union Jacks, London W4", "webUrl": "https://www.theguardian.com/lifeandstyle/2012/may/25/union-jacks-london-w4-restaurant-review", "apiUrl": "https://content.guardianapis.com/lifeandstyle/2012/may/25/union-jacks-london-w4-restaurant-review", "isHosted": false, "pillarId": "pillar/lifestyle", "pillarName": "Lifestyle"}, {"id": "lifeandstyle/2012/may/25/1950s-baking-recipes-dan-lepard", "type": "article", "sectionId": "lifeandstyle", "sectionName": "Life and style", "webPublicationDate": "2012-05-25T21:59:21Z", "webTitle": "Dan Lepard's 1950s baking recipes \u2013 bridge or finger rolls, coconut pyramids and malted date and walnut cake", "webUrl": "https://www.theguardian.com/lifeandstyle/2012/may/25/1950s-baking-recipes-dan-lepard", "apiUrl": "https://content.guardianapis.com/lifeandstyle/2012/may/25/1950s-baking-recipes-dan-lepard", "isHosted": false, "pillarId": "pillar/lifestyle", "pillarName": "Lifestyle"}, {"id": "lifeandstyle/2012/may/25/baked-onions-chicken-salad-recipes", "type": "article", "sectionId": "food", "sectionName": "Food", "webPublicationDate": "2012-05-25T21:59:11Z", "webTitle": "Baked red onions with walnut salsa recipe, plus chicken salad with garlic and yoghurt | Yotam Ottolenghi", "webUrl": "https://www.theguardian.com/lifeandstyle/2012/may/25/baked-onions-chicken-salad-recipes", "apiUrl": "https://content.guardianapis.com/lifeandstyle/2012/may/25/baked-onions-chicken-salad-recipes", "isHosted": false, "pillarId": "pillar/lifestyle", "pillarName": "Lifestyle"}, {"id": "lifeandstyle/2012/may/25/i-eat-plate-insects-every-week", "type": "article", "sectionId": "lifeandstyle", "sectionName": "Life and style", "webPublicationDate": "2012-05-25T21:59:08Z", "webTitle": "Experience: I eat a plate of insects a week", "webUrl": "https://www.theguardian.com/lifeandstyle/2012/may/25/i-eat-plate-insects-every-week", "apiUrl": "https://content.guardianapis.com/lifeandstyle/2012/may/25/i-eat-plate-insects-every-week", "isHosted": false, "pillarId": "pillar/lifestyle", "pillarName": "Lifestyle"}, {"id": "lifeandstyle/2012/may/25/drink-for-jubilee-street-party", "type": "article", "sectionId": "food", "sectionName": "Food", "webPublicationDate": "2012-05-25T21:59:03Z", "webTitle": "What to drink at a Jubilee street party", "webUrl": "https://www.theguardian.com/lifeandstyle/2012/may/25/drink-for-jubilee-street-party", "apiUrl": "https://content.guardianapis.com/lifeandstyle/2012/may/25/drink-for-jubilee-street-party", "isHosted": false, "pillarId": "pillar/lifestyle", "pillarName": "Lifestyle"}, {"id": "sport/2012/may/25/olympics-menus-round-the-world", "type": "article", "sectionId": "sport", "sectionName": "Sport", "webPublicationDate": "2012-05-25T13:46:54Z", "webTitle": "Feeding the Olympics: menus to take Games visitors around the world", "webUrl": "https://www.theguardian.com/sport/2012/may/25/olympics-menus-round-the-world", "apiUrl": "https://content.guardianapis.com/sport/2012/may/25/olympics-menus-round-the-world", "isHosted": false, "pillarId": "pillar/sport", "pillarName": "Sport"}, {"id": "sport/2012/may/25/olympics-feeding-the-athletes", "type": "article", "sectionId": "sport", "sectionName": "Sport", "webPublicationDate": "2012-05-25T13:44:06Z", "webTitle": "London 2012: why feeding Phelps and Bolt is an Olympian feat", "webUrl": "https://www.theguardian.com/sport/2012/may/25/olympics-feeding-the-athletes", "apiUrl": "https://content.guardianapis.com/sport/2012/may/25/olympics-feeding-the-athletes", "isHosted": false, "pillarId": "pillar/sport", "pillarName": "Sport"}, {"id": "travel/2012/may/25/tuscany-beer-bars-tour-italy", "type": "article", "sectionId": "travel", "sectionName": "Travel", "webPublicationDate": "2012-05-25T11:15:00Z", "webTitle": "Tuscany on tap: a beer-lover's guide to the region", "webUrl": "https://www.theguardian.com/travel/2012/may/25/tuscany-beer-bars-tour-italy", "apiUrl": "https://content.guardianapis.com/travel/2012/may/25/tuscany-beer-bars-tour-italy", "isHosted": false, "pillarId": "pillar/lifestyle", "pillarName": "Lifestyle"}, {"id": "lifeandstyle/wordofmouth/2012/may/25/the-host-with-the-ghost", "type": "article", "sectionId": "food", "sectionName": "Food", "webPublicationDate": "2012-05-25T08:30:00Z", "webTitle": "The host with the ghost", "webUrl": "https://www.theguardian.com/lifeandstyle/wordofmouth/2012/may/25/the-host-with-the-ghost", "apiUrl": "https://content.guardianapis.com/lifeandstyle/wordofmouth/2012/may/25/the-host-with-the-ghost", "isHosted": false, "pillarId": "pillar/lifestyle", "pillarName": "Lifestyle"}, {"id": "tv-and-radio/2012/may/24/the-fish-market-inside-billingsgate", "type": "article", "sectionId": "tv-and-radio", "sectionName": "Television & radio", "webPublicationDate": "2012-05-24T22:00:02Z", "webTitle": "TV review: The Fish Market: Inside Billingsgate; House", "webUrl": "https://www.theguardian.com/tv-and-radio/2012/may/24/the-fish-market-inside-billingsgate", "apiUrl": "https://content.guardianapis.com/tv-and-radio/2012/may/24/the-fish-market-inside-billingsgate", "isHosted": false, "pillarId": "pillar/arts", "pillarName": "Arts"}, {"id": "lifeandstyle/wordofmouth/2012/may/24/how-perfect-smoked-mackerel-pate", "type": "article", "sectionId": "food", "sectionName": "Food", "webPublicationDate": "2012-05-23T23:10:00Z", "webTitle": "How to make perfect smoked mackerel p\u00e2t\u00e9", "webUrl": "https://www.theguardian.com/lifeandstyle/wordofmouth/2012/may/24/how-perfect-smoked-mackerel-pate", "apiUrl": "https://content.guardianapis.com/lifeandstyle/wordofmouth/2012/may/24/how-perfect-smoked-mackerel-pate", "isHosted": false, "pillarId": "pillar/lifestyle", "pillarName": "Lifestyle"}, {"id": "lifeandstyle/2012/may/23/the-new-generation-of-foodies", "type": "article", "sectionId": "food", "sectionName": "Food", "webPublicationDate": "2012-05-23T19:00:00Z", "webTitle": "The new generation of foodies", "webUrl": "https://www.theguardian.com/lifeandstyle/2012/may/23/the-new-generation-of-foodies", "apiUrl": "https://content.guardianapis.com/lifeandstyle/2012/may/23/the-new-generation-of-foodies", "isHosted": false, "pillarId": "pillar/lifestyle", "pillarName": "Lifestyle"}, {"id": "money/shortcuts/2012/may/23/rise-own-brand", "type": "article", "sectionId": "money", "sectionName": "Money", "webPublicationDate": "2012-05-23T19:00:00Z", "webTitle": "The rise and rise of the own brand", "webUrl": "https://www.theguardian.com/money/shortcuts/2012/may/23/rise-own-brand", "apiUrl": "https://content.guardianapis.com/money/shortcuts/2012/may/23/rise-own-brand", "isHosted": false, "pillarId": "pillar/lifestyle", "pillarName": "Lifestyle"}, {"id": "commentisfree/2012/may/23/italy-earthquake-parmesan-production", "type": "article", "sectionId": "commentisfree", "sectionName": "Opinion", "webPublicationDate": "2012-05-23T18:35:26Z", "webTitle": "Italy's earthquake is disastrous for parmesan production | Patricia Michelson", "webUrl": "https://www.theguardian.com/commentisfree/2012/may/23/italy-earthquake-parmesan-production", "apiUrl": "https://content.guardianapis.com/commentisfree/2012/may/23/italy-earthquake-parmesan-production", "isHosted": false, "pillarId": "pillar/opinion", "pillarName": "Opinion"}, {"id": "environment/2012/may/23/tea-targeted-new-compost-scheme", "type": "article", "sectionId": "environment", "sectionName": "Environment", "webPublicationDate": "2012-05-23T13:59:27Z", "webTitle": "Teabags targeted for new compost scheme", "webUrl": "https://www.theguardian.com/environment/2012/may/23/tea-targeted-new-compost-scheme", "apiUrl": "https://content.guardianapis.com/environment/2012/may/23/tea-targeted-new-compost-scheme", "isHosted": false, "pillarId": "pillar/news", "pillarName": "News"}, {"id": "lifeandstyle/2012/may/23/dave-wickett", "type": "article", "sectionId": "food", "sectionName": "Food", "webPublicationDate": "2012-05-23T13:08:50Z", "webTitle": "Dave Wickett obituary", "webUrl": "https://www.theguardian.com/lifeandstyle/2012/may/23/dave-wickett", "apiUrl": "https://content.guardianapis.com/lifeandstyle/2012/may/23/dave-wickett", "isHosted": false, "pillarId": "pillar/lifestyle", "pillarName": "Lifestyle"}, {"id": "lifeandstyle/2012/may/23/pork-chicory-mustard-salad", "type": "article", "sectionId": "food", "sectionName": "Food", "webPublicationDate": "2012-05-23T12:30:00Z", "webTitle": "Pork, chicory and mustard seed salad recipe | Angela Hartnett", "webUrl": "https://www.theguardian.com/lifeandstyle/2012/may/23/pork-chicory-mustard-salad", "apiUrl": "https://content.guardianapis.com/lifeandstyle/2012/may/23/pork-chicory-mustard-salad", "isHosted": false, "pillarId": "pillar/lifestyle", "pillarName": "Lifestyle"}]}}