{"response": {"status": "ok", "userTier": "developer", "total": 132077, "startIndex": 1, "pageSize": 50, "currentPage": 1, "pages": 2642, "orderBy": "newest", "results": [{"id": "education/2011/may/31/tackling-institutionalised-discrimination-universities", "type": "article", "sectionId": "education", "sectionName": "Education", "webPublicationDate": "2011-05-30T23:05:04Z", "webTitle": "Letters: Tackling institutionalised discrimination in our universities", "webUrl": "https://www.theguardian.com/education/2011/may/31/tackling-institutionalised-discrimination-universities", "apiUrl": "https://content.guardianapis.com/education/2011/may/31/tackling-institutionalised-discrimination-universities", "isHosted": false, "pillarId": "pillar/news", "pillarName": "News"}, {"id": "politics/2011/may/31/hugh-muir-diary-lord-patten-bbc", "type": "article", "sectionId": "politics", "sectionName": "Politics", "webPublicationDate": "2011-05-30T23:05:01Z", "webTitle": "Hugh Muir's diary", "webUrl": "https://www.theguardian.com/politics/2011/may/31/hugh-muir-diary-lord-patten-bbc", "apiUrl": "https://content.guardianapis.com/politics/2011/may/31/hugh-muir-diary-lord-patten-bbc", "isHosted": false, "pillarId": "pillar/news", "pillarName": "News"}, {"id": "society/2011/may/31/deficiencies-care-older-people", "type": "article", "sectionId": "society", "sectionName": "Society", "webPublicationDate": "2011-05-30T23:04:01Z", "webTitle": "Letters: Deficiencies in care for older people", "webUrl": "https://www.theguardian.com/society/2011/may/31/deficiencies-care-older-people", "apiUrl": "https://content.guardianapis.com/society/2011/may/31/deficiencies-care-older-people", "isHosted": false, "pillarId": "pillar/news", "pillarName": "News"}, {"id": "uk/2011/may/30/lib-dems-warning-big-society-faith-groups", "type": "article", "sectionId": "uk-news", "sectionName": "UK news", "webPublicationDate": "2011-05-30T20:53:20Z", "webTitle": "Lib Dems warning to government on big society faith groups", "webUrl": "https://www.theguardian.com/uk/2011/may/30/lib-dems-warning-big-society-faith-groups", "apiUrl": "https://content.guardianapis.com/uk/2011/may/30/lib-dems-warning-big-society-faith-groups", "isHosted": false, "pillarId": "pillar/news", "pillarName": "News"}, {"id": "uk/2011/may/30/weapons-of-mass-disruption-cyber-attack", "type": "article", "sectionId": "uk-news", "sectionName": "UK news", "webPublicationDate": "2011-05-30T20:45:01Z", "webTitle": "Threat now is from weapons of mass disruption", "webUrl": "https://www.theguardian.com/uk/2011/may/30/weapons-of-mass-disruption-cyber-attack", "apiUrl": "https://content.guardianapis.com/uk/2011/may/30/weapons-of-mass-disruption-cyber-attack", "isHosted": false, "pillarId": "pillar/news", "pillarName": "News"}, {"id": "politics/2011/may/30/stuxnet-attack-cyber-war-iran", "type": "article", "sectionId": "politics", "sectionName": "Politics", "webPublicationDate": "2011-05-30T20:45:00Z", "webTitle": "Stuxnet attack forced Britain to rethink the cyber war", "webUrl": "https://www.theguardian.com/politics/2011/may/30/stuxnet-attack-cyber-war-iran", "apiUrl": "https://content.guardianapis.com/politics/2011/may/30/stuxnet-attack-cyber-war-iran", "isHosted": false, "pillarId": "pillar/news", "pillarName": "News"}, {"id": "uk/2011/may/30/military-cyberwar-offensive", "type": "article", "sectionId": "uk-news", "sectionName": "UK news", "webPublicationDate": "2011-05-30T20:44:01Z", "webTitle": "UK developing cyber-weapons programme to counter cyber war threat", "webUrl": "https://www.theguardian.com/uk/2011/may/30/military-cyberwar-offensive", "apiUrl": "https://content.guardianapis.com/uk/2011/may/30/military-cyberwar-offensive", "isHosted": false, "pillarId": "pillar/news", "pillarName": "News"}, {"id": "politics/2011/may/30/coalition-bill-private-companies", "type": "article", "sectionId": "politics", "sectionName": "Politics", "webPublicationDate": "2011-05-30T20:30:03Z", "webTitle": "Coalition's \u00a356m a day bill to private companies", "webUrl": "https://www.theguardian.com/politics/2011/may/30/coalition-bill-private-companies", "apiUrl": "https://content.guardianapis.com/politics/2011/may/30/coalition-bill-private-companies", "isHosted": false, "pillarId": "pillar/news", "pillarName": "News"}, {"id": "commentisfree/2011/may/30/wind-farms-less-controversial-blackouts", "type": "article", "sectionId": "commentisfree", "sectionName": "Opinion", "webPublicationDate": "2011-05-30T20:00:00Z", "webTitle": "Support windfarms? It would be less controversial to argue for blackouts | George Monbiot", "webUrl": "https://www.theguardian.com/commentisfree/2011/may/30/wind-farms-less-controversial-blackouts", "apiUrl": "https://content.guardianapis.com/commentisfree/2011/may/30/wind-farms-less-controversial-blackouts", "isHosted": false, "pillarId": "pillar/opinion", "pillarName": "Opinion"}, {"id": "politics/2011/may/30/chris-huhne-speeding-investigation-cps", "type": "article", "sectionId": "politics", "sectionName": "Politics", "webPublicationDate": "2011-05-30T17:27:06Z", "webTitle": "Chris Huhne speeding case investigation nears completion", "webUrl": "https://www.theguardian.com/politics/2011/may/30/chris-huhne-speeding-investigation-cps", "apiUrl": "https://content.guardianapis.com/politics/2011/may/30/chris-huhne-speeding-investigation-cps", "isHosted": false, "pillarId": "pillar/news", "pillarName": "News"}, {"id": "commentisfree/2011/may/30/poverty-disease-aid-policy", "type": "article", "sectionId": "commentisfree", "sectionName": "Opinion", "webPublicationDate": "2011-05-30T14:45:46Z", "webTitle": "Our aid policy must focus on link between poverty and disease | Charles Ebikeme", "webUrl": "https://www.theguardian.com/commentisfree/2011/may/30/poverty-disease-aid-policy", "apiUrl": "https://content.guardianapis.com/commentisfree/2011/may/30/poverty-disease-aid-policy", "isHosted": false, "pillarId": "pillar/opinion", "pillarName": "Opinion"}, {"id": "environment/2011/may/30/environmental-tax-threatens-green-energy-research", "type": "article", "sectionId": "environment", "sectionName": "Environment", "webPublicationDate": "2011-05-30T14:38:26Z", "webTitle": "Environmental tax threatens green energy research in UK", "webUrl": "https://www.theguardian.com/environment/2011/may/30/environmental-tax-threatens-green-energy-research", "apiUrl": "https://content.guardianapis.com/environment/2011/may/30/environmental-tax-threatens-green-energy-research", "isHosted": false, "pillarId": "pillar/news", "pillarName": "News"}, {"id": "politics/davehillblog/2011/may/30/boris-johnson-three-years-of-youth-policy", "type": "article", "sectionId": "politics", "sectionName": "Politics", "webPublicationDate": "2011-05-30T13:18:00Z", "webTitle": "Three years of Boris: Mayor Johnson's record on young people's issues", "webUrl": "https://www.theguardian.com/politics/davehillblog/2011/may/30/boris-johnson-three-years-of-youth-policy", "apiUrl": "https://content.guardianapis.com/politics/davehillblog/2011/may/30/boris-johnson-three-years-of-youth-policy", "isHosted": false, "pillarId": "pillar/news", "pillarName": "News"}, {"id": "politics/2011/may/30/michael-white-political-briefing-class-war", "type": "article", "sectionId": "politics", "sectionName": "Politics", "webPublicationDate": "2011-05-30T12:54:31Z", "webTitle": "Michael White: The class war -why everyone feels insecure", "webUrl": "https://www.theguardian.com/politics/2011/may/30/michael-white-political-briefing-class-war", "apiUrl": "https://content.guardianapis.com/politics/2011/may/30/michael-white-political-briefing-class-war", "isHosted": false, "pillarId": "pillar/news", "pillarName": "News"}, {"id": "commentisfree/2011/may/30/ed-miliband-move-closer-to-clegg", "type": "article", "sectionId": "commentisfree", "sectionName": "Opinion", "webPublicationDate": "2011-05-30T06:30:01Z", "webTitle": "Ed Miliband shouldn't crow. It's time to move closer to Clegg | Jackie Ashley", "webUrl": "https://www.theguardian.com/commentisfree/2011/may/30/ed-miliband-move-closer-to-clegg", "apiUrl": "https://content.guardianapis.com/commentisfree/2011/may/30/ed-miliband-move-closer-to-clegg", "isHosted": false, "pillarId": "pillar/opinion", "pillarName": "Opinion"}, {"id": "environment/2011/may/30/local-rubbish-collection-council-incentive", "type": "article", "sectionId": "environment", "sectionName": "Environment", "webPublicationDate": "2011-05-29T23:58:16Z", "webTitle": "Councils to receive financial incentive to reinstate weekly rubbish collections", "webUrl": "https://www.theguardian.com/environment/2011/may/30/local-rubbish-collection-council-incentive", "apiUrl": "https://content.guardianapis.com/environment/2011/may/30/local-rubbish-collection-council-incentive", "isHosted": false, "pillarId": "pillar/news", "pillarName": "News"}, {"id": "commentisfree/2011/may/30/editorial-coalition-nhs-welfare-reforms", "type": "article", "sectionId": "commentisfree", "sectionName": "Opinion", "webPublicationDate": "2011-05-29T23:05:49Z", "webTitle": "Welfare: The best-laid plans | Editorial", "webUrl": "https://www.theguardian.com/commentisfree/2011/may/30/editorial-coalition-nhs-welfare-reforms", "apiUrl": "https://content.guardianapis.com/commentisfree/2011/may/30/editorial-coalition-nhs-welfare-reforms", "isHosted": false, "pillarId": "pillar/opinion", "pillarName": "Opinion"}, {"id": "politics/2011/may/30/george-osborne-retains-international-support", "type": "article", "sectionId": "politics", "sectionName": "Politics", "webPublicationDate": "2011-05-29T23:05:45Z", "webTitle": "Letter: Osborne retains international support", "webUrl": "https://www.theguardian.com/politics/2011/may/30/george-osborne-retains-international-support", "apiUrl": "https://content.guardianapis.com/politics/2011/may/30/george-osborne-retains-international-support", "isHosted": false, "pillarId": "pillar/news", "pillarName": "News"}, {"id": "society/2011/may/30/justice-court-appeal-sharon-shoesmith", "type": "article", "sectionId": "society", "sectionName": "Society", "webPublicationDate": "2011-05-29T23:05:44Z", "webTitle": "Letters: Justice served by the court of appeal in Sharon Shoesmith ruling", "webUrl": "https://www.theguardian.com/society/2011/may/30/justice-court-appeal-sharon-shoesmith", "apiUrl": "https://content.guardianapis.com/society/2011/may/30/justice-court-appeal-sharon-shoesmith", "isHosted": false, "pillarId": "pillar/news", "pillarName": "News"}, {"id": "environment/2011/may/30/nimbyism-uk-energy-debate", "type": "article", "sectionId": "environment", "sectionName": "Environment", "webPublicationDate": "2011-05-29T23:05:43Z", "webTitle": "Letters: Nimbyism and the UK energy debate", "webUrl": "https://www.theguardian.com/environment/2011/may/30/nimbyism-uk-energy-debate", "apiUrl": "https://content.guardianapis.com/environment/2011/may/30/nimbyism-uk-energy-debate", "isHosted": false, "pillarId": "pillar/news", "pillarName": "News"}, {"id": "commentisfree/2011/may/30/in-praise-of-arthur-arnold", "type": "article", "sectionId": "commentisfree", "sectionName": "Opinion", "webPublicationDate": "2011-05-29T23:05:00Z", "webTitle": "In praise of... Arnold Day", "webUrl": "https://www.theguardian.com/commentisfree/2011/may/30/in-praise-of-arthur-arnold", "apiUrl": "https://content.guardianapis.com/commentisfree/2011/may/30/in-praise-of-arthur-arnold", "isHosted": false, "pillarId": "pillar/opinion", "pillarName": "Opinion"}, {"id": "commentisfree/2011/may/29/labour-new-blue-localism", "type": "article", "sectionId": "commentisfree", "sectionName": "Opinion", "webPublicationDate": "2011-05-29T22:00:01Z", "webTitle": "Labour: beyond New, and Blue | Tim Horton", "webUrl": "https://www.theguardian.com/commentisfree/2011/may/29/labour-new-blue-localism", "apiUrl": "https://content.guardianapis.com/commentisfree/2011/may/29/labour-new-blue-localism", "isHosted": false, "pillarId": "pillar/opinion", "pillarName": "Opinion"}, {"id": "environment/2011/may/29/record-greenhouse-gases-jolt-bonn-climate-talks", "type": "article", "sectionId": "environment", "sectionName": "Environment", "webPublicationDate": "2011-05-29T21:00:01Z", "webTitle": "Ailing UN climate talks jolted by record surge in greenhouse gases", "webUrl": "https://www.theguardian.com/environment/2011/may/29/record-greenhouse-gases-jolt-bonn-climate-talks", "apiUrl": "https://content.guardianapis.com/environment/2011/may/29/record-greenhouse-gases-jolt-bonn-climate-talks", "isHosted": false, "pillarId": "pillar/news", "pillarName": "News"}, {"id": "politics/2011/may/29/andrew-lansley-downing-street-support", "type": "article", "sectionId": "politics", "sectionName": "Politics", "webPublicationDate": "2011-05-29T19:24:49Z", "webTitle": "Andrew Lansley will not quit over health reforms, says Downing Street", "webUrl": "https://www.theguardian.com/politics/2011/may/29/andrew-lansley-downing-street-support", "apiUrl": "https://content.guardianapis.com/politics/2011/may/29/andrew-lansley-downing-street-support", "isHosted": false, "pillarId": "pillar/news", "pillarName": "News"}, {"id": "commentisfree/2011/may/29/mps-night-in-trollope", "type": "article", "sectionId": "commentisfree", "sectionName": "Opinion", "webPublicationDate": "2011-05-29T19:00:05Z", "webTitle": "Give MPs a night in with Trollope | Mark Lawson", "webUrl": "https://www.theguardian.com/commentisfree/2011/may/29/mps-night-in-trollope", "apiUrl": "https://content.guardianapis.com/commentisfree/2011/may/29/mps-night-in-trollope", "isHosted": false, "pillarId": "pillar/opinion", "pillarName": "Opinion"}, {"id": "global-development/2011/may/29/david-cameron-makes-vaccine-pledge", "type": "article", "sectionId": "global-development", "sectionName": "Global development", "webPublicationDate": "2011-05-29T18:49:30Z", "webTitle": "David Cameron takes on aid critics by making vaccine pledge", "webUrl": "https://www.theguardian.com/global-development/2011/may/29/david-cameron-makes-vaccine-pledge", "apiUrl": "https://content.guardianapis.com/global-development/2011/may/29/david-cameron-makes-vaccine-pledge", "isHosted": false, "pillarId": "pillar/news", "pillarName": "News"}, {"id": "politics/2011/may/29/labour-alliance-with-tory-eurosceptics", "type": "article", "sectionId": "politics", "sectionName": "Politics", "webPublicationDate": "2011-05-29T17:43:33Z", "webTitle": "Labour considers link with Eurosceptic Tories over eurozone bailout terms", "webUrl": "https://www.theguardian.com/politics/2011/may/29/labour-alliance-with-tory-eurosceptics", "apiUrl": "https://content.guardianapis.com/politics/2011/may/29/labour-alliance-with-tory-eurosceptics", "isHosted": false, "pillarId": "pillar/news", "pillarName": "News"}, {"id": "uk/2011/may/29/salary-row-delays-fbi-style-crime-agency", "type": "article", "sectionId": "uk-news", "sectionName": "UK news", "webPublicationDate": "2011-05-29T17:41:10Z", "webTitle": "Salary row delays launch of FBI-style crimefighting agency", "webUrl": "https://www.theguardian.com/uk/2011/may/29/salary-row-delays-fbi-style-crime-agency", "apiUrl": "https://content.guardianapis.com/uk/2011/may/29/salary-row-delays-fbi-style-crime-agency", "isHosted": false, "pillarId": "pillar/news", "pillarName": "News"}, {"id": "business/2011/may/29/british-airways-unite-strikes", "type": "article", "sectionId": "business", "sectionName": "Business", "webPublicationDate": "2011-05-29T17:16:50Z", "webTitle": "BA cabin crew vote this week to end 18 months of strife", "webUrl": "https://www.theguardian.com/business/2011/may/29/british-airways-unite-strikes", "apiUrl": "https://content.guardianapis.com/business/2011/may/29/british-airways-unite-strikes", "isHosted": false, "pillarId": "pillar/news", "pillarName": "News"}, {"id": "sport/2011/may/29/badminton-delays-skirt-only-rule", "type": "article", "sectionId": "sport", "sectionName": "Sport", "webPublicationDate": "2011-05-29T16:55:09Z", "webTitle": "Badminton delays skirt-only rule for women", "webUrl": "https://www.theguardian.com/sport/2011/may/29/badminton-delays-skirt-only-rule", "apiUrl": "https://content.guardianapis.com/sport/2011/may/29/badminton-delays-skirt-only-rule", "isHosted": false, "pillarId": "pillar/sport", "pillarName": "Sport"}, {"id": "politics/2011/may/29/david-cameron-resigns-patron-jnf", "type": "article", "sectionId": "politics", "sectionName": "Politics", "webPublicationDate": "2011-05-29T16:26:13Z", "webTitle": "David Cameron resigns as patron of the Jewish National Fund", "webUrl": "https://www.theguardian.com/politics/2011/may/29/david-cameron-resigns-patron-jnf", "apiUrl": "https://content.guardianapis.com/politics/2011/may/29/david-cameron-resigns-patron-jnf", "isHosted": false, "pillarId": "pillar/news", "pillarName": "News"}, {"id": "business/2011/may/29/network-rail-transport-review", "type": "article", "sectionId": "business", "sectionName": "Business", "webPublicationDate": "2011-05-29T15:47:20Z", "webTitle": "Network Rail monitors do not need extra powers, review finds", "webUrl": "https://www.theguardian.com/business/2011/may/29/network-rail-transport-review", "apiUrl": "https://content.guardianapis.com/business/2011/may/29/network-rail-transport-review", "isHosted": false, "pillarId": "pillar/news", "pillarName": "News"}, {"id": "business/2011/may/29/snp-hopes-new-wave-can-carry-scotland-to-independence", "type": "article", "sectionId": "business", "sectionName": "Business", "webPublicationDate": "2011-05-28T23:09:01Z", "webTitle": "SNP hopes a new wave can carry Scotland to independence", "webUrl": "https://www.theguardian.com/business/2011/may/29/snp-hopes-new-wave-can-carry-scotland-to-independence", "apiUrl": "https://content.guardianapis.com/business/2011/may/29/snp-hopes-new-wave-can-carry-scotland-to-independence", "isHosted": false, "pillarId": "pillar/news", "pillarName": "News"}, {"id": "world/2011/may/29/drugs-trade-drugs", "type": "article", "sectionId": "world", "sectionName": "World news", "webPublicationDate": "2011-05-28T23:08:41Z", "webTitle": "Leading world politicians urge 'paradigm shift' on drugs policy", "webUrl": "https://www.theguardian.com/world/2011/may/29/drugs-trade-drugs", "apiUrl": "https://content.guardianapis.com/world/2011/may/29/drugs-trade-drugs", "isHosted": false, "pillarId": "pillar/news", "pillarName": "News"}, {"id": "politics/2011/may/29/tories-want-to-cripple-labour", "type": "article", "sectionId": "politics", "sectionName": "Politics", "webPublicationDate": "2011-05-28T23:08:21Z", "webTitle": "Tories 'want to use \u00a350,000 cap on party funding to cripple Labour'", "webUrl": "https://www.theguardian.com/politics/2011/may/29/tories-want-to-cripple-labour", "apiUrl": "https://content.guardianapis.com/politics/2011/may/29/tories-want-to-cripple-labour", "isHosted": false, "pillarId": "pillar/news", "pillarName": "News"}, {"id": "politics/2011/may/29/lansley-ally-shareholding-lobby-firm", "type": "article", "sectionId": "politics", "sectionName": "Politics", "webPublicationDate": "2011-05-28T23:08:00Z", "webTitle": "Lansley's ally on NHS reform faces conflict of interest questions", "webUrl": "https://www.theguardian.com/politics/2011/may/29/lansley-ally-shareholding-lobby-firm", "apiUrl": "https://content.guardianapis.com/politics/2011/may/29/lansley-ally-shareholding-lobby-firm", "isHosted": false, "pillarId": "pillar/news", "pillarName": "News"}, {"id": "commentisfree/2011/may/29/nick-cohen-cameron-big-society-charity", "type": "article", "sectionId": "commentisfree", "sectionName": "Opinion", "webPublicationDate": "2011-05-28T23:07:00Z", "webTitle": "Remember, Mr Cameron, it's better to give | Nick Cohen", "webUrl": "https://www.theguardian.com/commentisfree/2011/may/29/nick-cohen-cameron-big-society-charity", "apiUrl": "https://content.guardianapis.com/commentisfree/2011/may/29/nick-cohen-cameron-big-society-charity", "isHosted": false, "pillarId": "pillar/opinion", "pillarName": "Opinion"}, {"id": "commentisfree/2011/may/29/will-hutton-labour-needs-rebranding", "type": "article", "sectionId": "commentisfree", "sectionName": "Opinion", "webPublicationDate": "2011-05-28T23:07:00Z", "webTitle": "We know what Labour's against. Now let us hear what it is for | Will Hutton", "webUrl": "https://www.theguardian.com/commentisfree/2011/may/29/will-hutton-labour-needs-rebranding", "apiUrl": "https://content.guardianapis.com/commentisfree/2011/may/29/will-hutton-labour-needs-rebranding", "isHosted": false, "pillarId": "pillar/opinion", "pillarName": "Opinion"}, {"id": "business/2011/may/29/northern-rock-should-be-returned-to-private-sector", "type": "article", "sectionId": "business", "sectionName": "Business", "webPublicationDate": "2011-05-28T23:06:59Z", "webTitle": "Deutsche Bank advocates returning Northern Rock back to private sector", "webUrl": "https://www.theguardian.com/business/2011/may/29/northern-rock-should-be-returned-to-private-sector", "apiUrl": "https://content.guardianapis.com/business/2011/may/29/northern-rock-should-be-returned-to-private-sector", "isHosted": false, "pillarId": "pillar/news", "pillarName": "News"}, {"id": "politics/2011/may/29/gordon-brown-gets-no-support-but-the-imf-might-need-him", "type": "article", "sectionId": "politics", "sectionName": "Politics", "webPublicationDate": "2011-05-28T23:06:31Z", "webTitle": "Gordon Brown gets no support, but the IMF might need him", "webUrl": "https://www.theguardian.com/politics/2011/may/29/gordon-brown-gets-no-support-but-the-imf-might-need-him", "apiUrl": "https://content.guardianapis.com/politics/2011/may/29/gordon-brown-gets-no-support-but-the-imf-might-need-him", "isHosted": false, "pillarId": "pillar/news", "pillarName": "News"}, {"id": "commentisfree/2011/may/29/david-mitchell-lord-ashcroft-pylons", "type": "article", "sectionId": "commentisfree", "sectionName": "Opinion", "webPublicationDate": "2011-05-28T23:06:07Z", "webTitle": "Rich, bored and unpopular \u2013 Lord Ashcroft is the perfect pylon designer | David Mitchell", "webUrl": "https://www.theguardian.com/commentisfree/2011/may/29/david-mitchell-lord-ashcroft-pylons", "apiUrl": "https://content.guardianapis.com/commentisfree/2011/may/29/david-mitchell-lord-ashcroft-pylons", "isHosted": false, "pillarId": "pillar/opinion", "pillarName": "Opinion"}, {"id": "lifeandstyle/2011/may/29/katharine-whitehorn-house-of-lords", "type": "article", "sectionId": "lifeandstyle", "sectionName": "Life and style", "webPublicationDate": "2011-05-28T23:05:51Z", "webTitle": "The Katharine Whitehorn experience", "webUrl": "https://www.theguardian.com/lifeandstyle/2011/may/29/katharine-whitehorn-house-of-lords", "apiUrl": "https://content.guardianapis.com/lifeandstyle/2011/may/29/katharine-whitehorn-house-of-lords", "isHosted": false, "pillarId": "pillar/lifestyle", "pillarName": "Lifestyle"}, {"id": "world/2011/may/28/uk-training-saudi-troops", "type": "article", "sectionId": "world", "sectionName": "World news", "webPublicationDate": "2011-05-28T20:00:00Z", "webTitle": "UK training Saudi forces used to crush Arab spring", "webUrl": "https://www.theguardian.com/world/2011/may/28/uk-training-saudi-troops", "apiUrl": "https://content.guardianapis.com/world/2011/may/28/uk-training-saudi-troops", "isHosted": false, "pillarId": "pillar/news", "pillarName": "News"}, {"id": "business/2011/may/28/british-american-tobacco-funding-ban-campaign", "type": "article", "sectionId": "business", "sectionName": "Business", "webPublicationDate": "2011-05-28T19:15:45Z", "webTitle": "Tobacco giant BAT admits funding retailers' campaign against ban on cigarette displays", "webUrl": "https://www.theguardian.com/business/2011/may/28/british-american-tobacco-funding-ban-campaign", "apiUrl": "https://content.guardianapis.com/business/2011/may/28/british-american-tobacco-funding-ban-campaign", "isHosted": false, "pillarId": "pillar/news", "pillarName": "News"}, {"id": "uk/2011/may/28/uk-uncut-nhs-bank-protests", "type": "article", "sectionId": "uk-news", "sectionName": "UK news", "webPublicationDate": "2011-05-28T13:49:00Z", "webTitle": "Anti-cuts groups descend on banks in NHS protest", "webUrl": "https://www.theguardian.com/uk/2011/may/28/uk-uncut-nhs-bank-protests", "apiUrl": "https://content.guardianapis.com/uk/2011/may/28/uk-uncut-nhs-bank-protests", "isHosted": false, "pillarId": "pillar/news", "pillarName": "News"}, {"id": "world/2011/may/28/just-war-theory-practice", "type": "article", "sectionId": "world", "sectionName": "World news", "webPublicationDate": "2011-05-27T23:07:12Z", "webTitle": "Letters: Just war in theory and practice", "webUrl": "https://www.theguardian.com/world/2011/may/28/just-war-theory-practice", "apiUrl": "https://content.guardianapis.com/world/2011/may/28/just-war-theory-practice", "isHosted": false, "pillarId": "pillar/news", "pillarName": "News"}, {"id": "artanddesign/2011/may/28/ai-weiwei-artist-hari-kunzru", "type": "article", "sectionId": "artanddesign", "sectionName": "Art and design", "webPublicationDate": "2011-05-27T23:07:00Z", "webTitle": "Ai Weiwei: the dissident artist", "webUrl": "https://www.theguardian.com/artanddesign/2011/may/28/ai-weiwei-artist-hari-kunzru", "apiUrl": "https://content.guardianapis.com/artanddesign/2011/may/28/ai-weiwei-artist-hari-kunzru", "isHosted": false, "pillarId": "pillar/arts", "pillarName": "Arts"}, {"id": "commentisfree/2011/may/28/sharon-shoesmith-ruling-welcome", "type": "article", "sectionId": "commentisfree", "sectionName": "Opinion", "webPublicationDate": "2011-05-27T23:07:00Z", "webTitle": "Sharon Shoesmith ruling: Welcome but few cheers", "webUrl": "https://www.theguardian.com/commentisfree/2011/may/28/sharon-shoesmith-ruling-welcome", "apiUrl": "https://content.guardianapis.com/commentisfree/2011/may/28/sharon-shoesmith-ruling-welcome", "isHosted": false, "pillarId": "pillar/opinion", "pillarName": "Opinion"}, {"id": "lifeandstyle/2011/may/28/abstinence-a-question-of-restraint", "type": "article", "sectionId": "lifeandstyle", "sectionName": "Life and style", "webPublicationDate": "2011-05-27T23:01:22Z", "webTitle": "The joy of abstinence", "webUrl": "https://www.theguardian.com/lifeandstyle/2011/may/28/abstinence-a-question-of-restraint", "apiUrl": "https://content.guardianapis.com/lifeandstyle/2011/may/28/abstinence-a-question-of-restraint", "isHosted": false, "pillarId": "pillar/lifestyle", "pillarName": "Lifestyle"}, {"id": "politics/2011/may/28/corporation-tax-tuc-job-creation", "type": "article", "sectionId": "politics", "sectionName": "Politics", "webPublicationDate": "2011-05-27T23:01:21Z", "webTitle": "Corporation tax cuts fail to create jobs, says TUC", "webUrl": "https://www.theguardian.com/politics/2011/may/28/corporation-tax-tuc-job-creation", "apiUrl": "https://content.guardianapis.com/politics/2011/may/28/corporation-tax-tuc-job-creation", "isHosted": false, "pillarId": "pillar/news", "pillarName": "News"}]}}