{"response": {"status": "ok", "userTier": "developer", "total": 29350, "startIndex": 1, "pageSize": 50, "currentPage": 1, "pages": 587, "orderBy": "newest", "results": [{"id": "environment/2011/may/31/country-diary-wigborough-somerset", "type": "article", "sectionId": "environment", "sectionName": "Environment", "webPublicationDate": "2011-05-30T23:08:00Z", "webTitle": "Country diary: Wigborough, Somerset", "webUrl": "https://www.theguardian.com/environment/2011/may/31/country-diary-wigborough-somerset", "apiUrl": "https://content.guardianapis.com/environment/2011/may/31/country-diary-wigborough-somerset", "isHosted": false, "pillarId": "pillar/news", "pillarName": "News"}, {"id": "commentisfree/2011/may/30/wind-farms-less-controversial-blackouts", "type": "article", "sectionId": "commentisfree", "sectionName": "Opinion", "webPublicationDate": "2011-05-30T20:00:00Z", "webTitle": "Support windfarms? It would be less controversial to argue for blackouts | George Monbiot", "webUrl": "https://www.theguardian.com/commentisfree/2011/may/30/wind-farms-less-controversial-blackouts", "apiUrl": "https://content.guardianapis.com/commentisfree/2011/may/30/wind-farms-less-controversial-blackouts", "isHosted": false, "pillarId": "pillar/opinion", "pillarName": "Opinion"}, {"id": "environment/2011/may/30/more-birds-spotted-around-uk-this-spring", "type": "article", "sectionId": "environment", "sectionName": "Environment", "webPublicationDate": "2011-05-30T19:17:50Z", "webTitle": "Birds are thriving in the warm spring and public affection", "webUrl": "https://www.theguardian.com/environment/2011/may/30/more-birds-spotted-around-uk-this-spring", "apiUrl": "https://content.guardianapis.com/environment/2011/may/30/more-birds-spotted-around-uk-this-spring", "isHosted": false, "pillarId": "pillar/news", "pillarName": "News"}, {"id": "environment/2011/may/30/moths-infestation-protect-your-clothes", "type": "article", "sectionId": "environment", "sectionName": "Environment", "webPublicationDate": "2011-05-30T19:00:01Z", "webTitle": "How to keep moths at bay", "webUrl": "https://www.theguardian.com/environment/2011/may/30/moths-infestation-protect-your-clothes", "apiUrl": "https://content.guardianapis.com/environment/2011/may/30/moths-infestation-protect-your-clothes", "isHosted": false, "pillarId": "pillar/news", "pillarName": "News"}, {"id": "world/2011/may/30/germany-to-shut-nuclear-reactors", "type": "article", "sectionId": "world", "sectionName": "World news", "webPublicationDate": "2011-05-30T18:18:16Z", "webTitle": "Germany to shut all nuclear reactors", "webUrl": "https://www.theguardian.com/world/2011/may/30/germany-to-shut-nuclear-reactors", "apiUrl": "https://content.guardianapis.com/world/2011/may/30/germany-to-shut-nuclear-reactors", "isHosted": false, "pillarId": "pillar/news", "pillarName": "News"}, {"id": "environment/2011/may/30/greenpeace-protests-arctic-oil-drilling", "type": "article", "sectionId": "environment", "sectionName": "Environment", "webPublicationDate": "2011-05-30T17:17:54Z", "webTitle": "Greenpeace clashes with Danish navy after activists board oil-drilling ship", "webUrl": "https://www.theguardian.com/environment/2011/may/30/greenpeace-protests-arctic-oil-drilling", "apiUrl": "https://content.guardianapis.com/environment/2011/may/30/greenpeace-protests-arctic-oil-drilling", "isHosted": false, "pillarId": "pillar/news", "pillarName": "News"}, {"id": "environment/2011/may/30/country-diary-bergh-apton-norfolk", "type": "article", "sectionId": "environment", "sectionName": "Environment", "webPublicationDate": "2011-05-30T15:53:00Z", "webTitle": "Country diary: Bergh Apton, Norfolk", "webUrl": "https://www.theguardian.com/environment/2011/may/30/country-diary-bergh-apton-norfolk", "apiUrl": "https://content.guardianapis.com/environment/2011/may/30/country-diary-bergh-apton-norfolk", "isHosted": false, "pillarId": "pillar/news", "pillarName": "News"}, {"id": "business/2011/may/30/uk-undermining-tar-sands-ban", "type": "article", "sectionId": "environment", "sectionName": "Environment", "webPublicationDate": "2011-05-30T14:45:14Z", "webTitle": "UK undermining Europe's tar sands ban, say campaigners", "webUrl": "https://www.theguardian.com/business/2011/may/30/uk-undermining-tar-sands-ban", "apiUrl": "https://content.guardianapis.com/business/2011/may/30/uk-undermining-tar-sands-ban", "isHosted": false, "pillarId": "pillar/news", "pillarName": "News"}, {"id": "environment/2011/may/30/environmental-tax-threatens-green-energy-research", "type": "article", "sectionId": "environment", "sectionName": "Environment", "webPublicationDate": "2011-05-30T14:38:26Z", "webTitle": "Environmental tax threatens green energy research in UK", "webUrl": "https://www.theguardian.com/environment/2011/may/30/environmental-tax-threatens-green-energy-research", "apiUrl": "https://content.guardianapis.com/environment/2011/may/30/environmental-tax-threatens-green-energy-research", "isHosted": false, "pillarId": "pillar/news", "pillarName": "News"}, {"id": "environment/2011/may/30/renewables-overtaken-cheap-gas-energy", "type": "article", "sectionId": "environment", "sectionName": "Environment", "webPublicationDate": "2011-05-30T14:33:26Z", "webTitle": "Cheap gas will overtake renewables, energy chief warns", "webUrl": "https://www.theguardian.com/environment/2011/may/30/renewables-overtaken-cheap-gas-energy", "apiUrl": "https://content.guardianapis.com/environment/2011/may/30/renewables-overtaken-cheap-gas-energy", "isHosted": false, "pillarId": "pillar/news", "pillarName": "News"}, {"id": "business/2011/may/30/rwe-tilbury-power-station-biomass", "type": "article", "sectionId": "business", "sectionName": "Business", "webPublicationDate": "2011-05-30T14:02:42Z", "webTitle": "RWE to convert Tilbury power station into biomass plant", "webUrl": "https://www.theguardian.com/business/2011/may/30/rwe-tilbury-power-station-biomass", "apiUrl": "https://content.guardianapis.com/business/2011/may/30/rwe-tilbury-power-station-biomass", "isHosted": false, "pillarId": "pillar/news", "pillarName": "News"}, {"id": "commentisfree/cifamerica/2011/may/30/climate-change-conspiracy-theory", "type": "article", "sectionId": "environment", "sectionName": "Environment", "webPublicationDate": "2011-05-30T13:30:00Z", "webTitle": "Climate 'trutherism': the conspiracy theory that's no joke | Sahil Kapur", "webUrl": "https://www.theguardian.com/commentisfree/cifamerica/2011/may/30/climate-change-conspiracy-theory", "apiUrl": "https://content.guardianapis.com/commentisfree/cifamerica/2011/may/30/climate-change-conspiracy-theory", "isHosted": false, "pillarId": "pillar/news", "pillarName": "News"}, {"id": "world/2011/may/30/cate-blanchett-climate-change-sceptics", "type": "article", "sectionId": "environment", "sectionName": "Environment", "webPublicationDate": "2011-05-30T12:38:00Z", "webTitle": "Cate Blanchett TV ad angers Australia's opposition", "webUrl": "https://www.theguardian.com/world/2011/may/30/cate-blanchett-climate-change-sceptics", "apiUrl": "https://content.guardianapis.com/world/2011/may/30/cate-blanchett-climate-change-sceptics", "isHosted": false, "pillarId": "pillar/news", "pillarName": "News"}, {"id": "environment/2011/may/30/local-rubbish-collection-council-incentive", "type": "article", "sectionId": "environment", "sectionName": "Environment", "webPublicationDate": "2011-05-29T23:58:16Z", "webTitle": "Councils to receive financial incentive to reinstate weekly rubbish collections", "webUrl": "https://www.theguardian.com/environment/2011/may/30/local-rubbish-collection-council-incentive", "apiUrl": "https://content.guardianapis.com/environment/2011/may/30/local-rubbish-collection-council-incentive", "isHosted": false, "pillarId": "pillar/news", "pillarName": "News"}, {"id": "commentisfree/2011/may/30/editorial-climate-change-iea-birol", "type": "article", "sectionId": "commentisfree", "sectionName": "Opinion", "webPublicationDate": "2011-05-29T23:05:53Z", "webTitle": "Global warming: Bleaker and bleaker | Editorial", "webUrl": "https://www.theguardian.com/commentisfree/2011/may/30/editorial-climate-change-iea-birol", "apiUrl": "https://content.guardianapis.com/commentisfree/2011/may/30/editorial-climate-change-iea-birol", "isHosted": false, "pillarId": "pillar/opinion", "pillarName": "Opinion"}, {"id": "environment/2011/may/30/nimbyism-uk-energy-debate", "type": "article", "sectionId": "environment", "sectionName": "Environment", "webPublicationDate": "2011-05-29T23:05:43Z", "webTitle": "Letters: Nimbyism and the UK energy debate", "webUrl": "https://www.theguardian.com/environment/2011/may/30/nimbyism-uk-energy-debate", "apiUrl": "https://content.guardianapis.com/environment/2011/may/30/nimbyism-uk-energy-debate", "isHosted": false, "pillarId": "pillar/news", "pillarName": "News"}, {"id": "science/audio/2011/may/30/science-weekly-podcast-sir-paul-nurse", "type": "audio", "sectionId": "science", "sectionName": "Science", "webPublicationDate": "2011-05-29T23:05:00Z", "webTitle": "Science Weekly Podcast: Climate science, transparency and harassment", "webUrl": "https://www.theguardian.com/science/audio/2011/may/30/science-weekly-podcast-sir-paul-nurse", "apiUrl": "https://content.guardianapis.com/science/audio/2011/may/30/science-weekly-podcast-sir-paul-nurse", "isHosted": false, "pillarId": "pillar/news", "pillarName": "News"}, {"id": "news/2011/may/30/weatherwatch-river-drought-sewage", "type": "article", "sectionId": "news", "sectionName": "News", "webPublicationDate": "2011-05-29T23:05:00Z", "webTitle": "Weatherwatch: Drought, river levels and the effect on wildlife", "webUrl": "https://www.theguardian.com/news/2011/may/30/weatherwatch-river-drought-sewage", "apiUrl": "https://content.guardianapis.com/news/2011/may/30/weatherwatch-river-drought-sewage", "isHosted": false, "pillarId": "pillar/news", "pillarName": "News"}, {"id": "tv-and-radio/2011/may/29/scott-bailey-tv-review", "type": "article", "sectionId": "tv-and-radio", "sectionName": "Television & radio", "webPublicationDate": "2011-05-29T21:05:01Z", "webTitle": "TV review: Scott & Bailey; Welly Telly \u2013 the Countryside on Television; and Britain's Secret Seas", "webUrl": "https://www.theguardian.com/tv-and-radio/2011/may/29/scott-bailey-tv-review", "apiUrl": "https://content.guardianapis.com/tv-and-radio/2011/may/29/scott-bailey-tv-review", "isHosted": false, "pillarId": "pillar/arts", "pillarName": "Arts"}, {"id": "environment/2011/may/29/carbon-emissions-global-economy-climate", "type": "article", "sectionId": "environment", "sectionName": "Environment", "webPublicationDate": "2011-05-29T21:00:03Z", "webTitle": "Threat of climate change demands we re-engineer the world economy right now | Damian Carrington", "webUrl": "https://www.theguardian.com/environment/2011/may/29/carbon-emissions-global-economy-climate", "apiUrl": "https://content.guardianapis.com/environment/2011/may/29/carbon-emissions-global-economy-climate", "isHosted": false, "pillarId": "pillar/news", "pillarName": "News"}, {"id": "environment/2011/may/29/nuclear-power-loses-appeal-japan", "type": "article", "sectionId": "environment", "sectionName": "Environment", "webPublicationDate": "2011-05-29T21:00:02Z", "webTitle": "Nuclear power loses its appeal after Japan crisis", "webUrl": "https://www.theguardian.com/environment/2011/may/29/nuclear-power-loses-appeal-japan", "apiUrl": "https://content.guardianapis.com/environment/2011/may/29/nuclear-power-loses-appeal-japan", "isHosted": false, "pillarId": "pillar/news", "pillarName": "News"}, {"id": "environment/2011/may/29/record-greenhouse-gases-jolt-bonn-climate-talks", "type": "article", "sectionId": "environment", "sectionName": "Environment", "webPublicationDate": "2011-05-29T21:00:01Z", "webTitle": "Ailing UN climate talks jolted by record surge in greenhouse gases", "webUrl": "https://www.theguardian.com/environment/2011/may/29/record-greenhouse-gases-jolt-bonn-climate-talks", "apiUrl": "https://content.guardianapis.com/environment/2011/may/29/record-greenhouse-gases-jolt-bonn-climate-talks", "isHosted": false, "pillarId": "pillar/news", "pillarName": "News"}, {"id": "environment/2011/may/29/carbon-emissions-nuclearpower", "type": "article", "sectionId": "environment", "sectionName": "Environment", "webPublicationDate": "2011-05-29T21:00:00Z", "webTitle": "Worst ever carbon emissions leave climate on the brink", "webUrl": "https://www.theguardian.com/environment/2011/may/29/carbon-emissions-nuclearpower", "apiUrl": "https://content.guardianapis.com/environment/2011/may/29/carbon-emissions-nuclearpower", "isHosted": false, "pillarId": "pillar/news", "pillarName": "News"}, {"id": "world/2011/may/29/turkey-nuclear-hydro-power-development", "type": "article", "sectionId": "world", "sectionName": "World news", "webPublicationDate": "2011-05-29T17:56:46Z", "webTitle": "Turkey's Great Leap Forward risks cultural and environmental bankruptcy", "webUrl": "https://www.theguardian.com/world/2011/may/29/turkey-nuclear-hydro-power-development", "apiUrl": "https://content.guardianapis.com/world/2011/may/29/turkey-nuclear-hydro-power-development", "isHosted": false, "pillarId": "pillar/news", "pillarName": "News"}, {"id": "business/2011/may/29/snp-hopes-new-wave-can-carry-scotland-to-independence", "type": "article", "sectionId": "business", "sectionName": "Business", "webPublicationDate": "2011-05-28T23:09:01Z", "webTitle": "SNP hopes a new wave can carry Scotland to independence", "webUrl": "https://www.theguardian.com/business/2011/may/29/snp-hopes-new-wave-can-carry-scotland-to-independence", "apiUrl": "https://content.guardianapis.com/business/2011/may/29/snp-hopes-new-wave-can-carry-scotland-to-independence", "isHosted": false, "pillarId": "pillar/news", "pillarName": "News"}, {"id": "environment/2011/may/29/global-warming-threat-to-oceans", "type": "article", "sectionId": "environment", "sectionName": "Environment", "webPublicationDate": "2011-05-28T23:07:14Z", "webTitle": "Ocean acidification is latest manifestation of global warming", "webUrl": "https://www.theguardian.com/environment/2011/may/29/global-warming-threat-to-oceans", "apiUrl": "https://content.guardianapis.com/environment/2011/may/29/global-warming-threat-to-oceans", "isHosted": false, "pillarId": "pillar/news", "pillarName": "News"}, {"id": "society/2011/may/29/charities-clothing-banks-privatisation", "type": "article", "sectionId": "society", "sectionName": "Society", "webPublicationDate": "2011-05-28T23:07:02Z", "webTitle": "Council sell-off of clothing banks 'threatens survival' of charity shops", "webUrl": "https://www.theguardian.com/society/2011/may/29/charities-clothing-banks-privatisation", "apiUrl": "https://content.guardianapis.com/society/2011/may/29/charities-clothing-banks-privatisation", "isHosted": false, "pillarId": "pillar/news", "pillarName": "News"}, {"id": "environment/2011/may/29/adam-curtis-ecosystems-tansley-smuts", "type": "article", "sectionId": "environment", "sectionName": "Environment", "webPublicationDate": "2011-05-28T23:06:00Z", "webTitle": "How the 'ecosystem' myth has been used for sinister means", "webUrl": "https://www.theguardian.com/environment/2011/may/29/adam-curtis-ecosystems-tansley-smuts", "apiUrl": "https://content.guardianapis.com/environment/2011/may/29/adam-curtis-ecosystems-tansley-smuts", "isHosted": false, "pillarId": "pillar/news", "pillarName": "News"}, {"id": "world/2011/may/29/shell-ireland-corrib-gas-project", "type": "article", "sectionId": "world", "sectionName": "World news", "webPublicationDate": "2011-05-28T23:05:42Z", "webTitle": "Shell's battle for the heart of Ireland", "webUrl": "https://www.theguardian.com/world/2011/may/29/shell-ireland-corrib-gas-project", "apiUrl": "https://content.guardianapis.com/world/2011/may/29/shell-ireland-corrib-gas-project", "isHosted": false, "pillarId": "pillar/news", "pillarName": "News"}, {"id": "science/2011/may/29/coltricia-globispora-new-to-nature", "type": "article", "sectionId": "science", "sectionName": "Science", "webPublicationDate": "2011-05-28T23:05:16Z", "webTitle": "New to Nature No 43: Coltricia globispora", "webUrl": "https://www.theguardian.com/science/2011/may/29/coltricia-globispora-new-to-nature", "apiUrl": "https://content.guardianapis.com/science/2011/may/29/coltricia-globispora-new-to-nature", "isHosted": false, "pillarId": "pillar/news", "pillarName": "News"}, {"id": "environment/2011/may/28/country-diary-tregaron-credigon-wales", "type": "article", "sectionId": "environment", "sectionName": "Environment", "webPublicationDate": "2011-05-27T23:07:19Z", "webTitle": "Country diary: Tregaron, Ceredigon", "webUrl": "https://www.theguardian.com/environment/2011/may/28/country-diary-tregaron-credigon-wales", "apiUrl": "https://content.guardianapis.com/environment/2011/may/28/country-diary-tregaron-credigon-wales", "isHosted": false, "pillarId": "pillar/news", "pillarName": "News"}, {"id": "lifeandstyle/2011/may/28/christian-the-lion-rendall-bourke", "type": "article", "sectionId": "lifeandstyle", "sectionName": "Life and style", "webPublicationDate": "2011-05-27T23:06:00Z", "webTitle": "Christian the lion, our joy and pride", "webUrl": "https://www.theguardian.com/lifeandstyle/2011/may/28/christian-the-lion-rendall-bourke", "apiUrl": "https://content.guardianapis.com/lifeandstyle/2011/may/28/christian-the-lion-rendall-bourke", "isHosted": false, "pillarId": "pillar/lifestyle", "pillarName": "Lifestyle"}, {"id": "business/2011/may/27/greenpeace-platform-oil-gas-windfall-tax", "type": "article", "sectionId": "business", "sectionName": "Business", "webPublicationDate": "2011-05-27T17:20:48Z", "webTitle": "Greenpeace and watchdog attack 'scaremongering' energy firms", "webUrl": "https://www.theguardian.com/business/2011/may/27/greenpeace-platform-oil-gas-windfall-tax", "apiUrl": "https://content.guardianapis.com/business/2011/may/27/greenpeace-platform-oil-gas-windfall-tax", "isHosted": false, "pillarId": "pillar/news", "pillarName": "News"}, {"id": "environment/2011/may/27/forestry-commission-cuts-england-woodland", "type": "article", "sectionId": "environment", "sectionName": "Environment", "webPublicationDate": "2011-05-27T16:24:28Z", "webTitle": "Forestry commission cuts 'undermine inquiry into England's woodland'", "webUrl": "https://www.theguardian.com/environment/2011/may/27/forestry-commission-cuts-england-woodland", "apiUrl": "https://content.guardianapis.com/environment/2011/may/27/forestry-commission-cuts-england-woodland", "isHosted": false, "pillarId": "pillar/news", "pillarName": "News"}, {"id": "environment/gallery/2011/may/27/week-in-wildlife", "type": "gallery", "sectionId": "environment", "sectionName": "Environment", "webPublicationDate": "2011-05-27T15:54:00Z", "webTitle": "The week in wildlife \u2013 in pictures", "webUrl": "https://www.theguardian.com/environment/gallery/2011/may/27/week-in-wildlife", "apiUrl": "https://content.guardianapis.com/environment/gallery/2011/may/27/week-in-wildlife", "isHosted": false, "pillarId": "pillar/news", "pillarName": "News"}, {"id": "politics/davehillblog/2011/may/27/boris-johnson-test-drives-new-london-bus", "type": "article", "sectionId": "politics", "sectionName": "Politics", "webPublicationDate": "2011-05-27T15:50:00Z", "webTitle": "Boris's Bus (A Political Journey) Part 31: It Hums", "webUrl": "https://www.theguardian.com/politics/davehillblog/2011/may/27/boris-johnson-test-drives-new-london-bus", "apiUrl": "https://content.guardianapis.com/politics/davehillblog/2011/may/27/boris-johnson-test-drives-new-london-bus", "isHosted": false, "pillarId": "pillar/news", "pillarName": "News"}, {"id": "environment/green-living-blog/2011/may/27/mark-zuckerberg-kill-animals-meat", "type": "article", "sectionId": "environment", "sectionName": "Environment", "webPublicationDate": "2011-05-27T14:23:37Z", "webTitle": "Facebook CEO Mark Zuckerberg only eats meat he kills himself | Leo Hickman", "webUrl": "https://www.theguardian.com/environment/green-living-blog/2011/may/27/mark-zuckerberg-kill-animals-meat", "apiUrl": "https://content.guardianapis.com/environment/green-living-blog/2011/may/27/mark-zuckerberg-kill-animals-meat", "isHosted": false, "pillarId": "pillar/news", "pillarName": "News"}, {"id": "world/2011/may/27/tensions-herders-miners-inner-mongolia", "type": "article", "sectionId": "world", "sectionName": "World news", "webPublicationDate": "2011-05-27T14:12:36Z", "webTitle": "Herder's death deepens tensions in Inner Mongolia", "webUrl": "https://www.theguardian.com/world/2011/may/27/tensions-herders-miners-inner-mongolia", "apiUrl": "https://content.guardianapis.com/world/2011/may/27/tensions-herders-miners-inner-mongolia", "isHosted": false, "pillarId": "pillar/news", "pillarName": "News"}, {"id": "education/2011/may/27/environmental-teaching-resources", "type": "article", "sectionId": "education", "sectionName": "Education", "webPublicationDate": "2011-05-27T12:16:00Z", "webTitle": "Cribsheet 27.05.11", "webUrl": "https://www.theguardian.com/education/2011/may/27/environmental-teaching-resources", "apiUrl": "https://content.guardianapis.com/education/2011/may/27/environmental-teaching-resources", "isHosted": false, "pillarId": "pillar/news", "pillarName": "News"}, {"id": "environment/georgemonbiot/2011/may/27/why-choose-nuclear-renewable-energy", "type": "article", "sectionId": "environment", "sectionName": "Environment", "webPublicationDate": "2011-05-27T11:40:30Z", "webTitle": "Why must UK have to choose between nuclear and renewable energy? | George Monbiot", "webUrl": "https://www.theguardian.com/environment/georgemonbiot/2011/may/27/why-choose-nuclear-renewable-energy", "apiUrl": "https://content.guardianapis.com/environment/georgemonbiot/2011/may/27/why-choose-nuclear-renewable-energy", "isHosted": false, "pillarId": "pillar/news", "pillarName": "News"}, {"id": "environment/2011/may/27/brazil-forest-protection-code", "type": "article", "sectionId": "environment", "sectionName": "Environment", "webPublicationDate": "2011-05-27T11:34:56Z", "webTitle": "Brazil risks protection record by proposing changes to forest code | Paulo Adario", "webUrl": "https://www.theguardian.com/environment/2011/may/27/brazil-forest-protection-code", "apiUrl": "https://content.guardianapis.com/environment/2011/may/27/brazil-forest-protection-code", "isHosted": false, "pillarId": "pillar/news", "pillarName": "News"}, {"id": "uk/2011/may/27/gamekeeper-banned-pesticide-fined", "type": "article", "sectionId": "environment", "sectionName": "Environment", "webPublicationDate": "2011-05-27T11:24:00Z", "webTitle": "Gamekeeper with huge cache of bird poison fined \u00a33,300", "webUrl": "https://www.theguardian.com/uk/2011/may/27/gamekeeper-banned-pesticide-fined", "apiUrl": "https://content.guardianapis.com/uk/2011/may/27/gamekeeper-banned-pesticide-fined", "isHosted": false, "pillarId": "pillar/news", "pillarName": "News"}, {"id": "environment/damian-carrington-blog/2011/may/27/landfill-mining-waste-energy", "type": "article", "sectionId": "environment", "sectionName": "Environment", "webPublicationDate": "2011-05-27T10:51:00Z", "webTitle": "Jolt of energy is bringing landfill mining to life | Damian Carrington", "webUrl": "https://www.theguardian.com/environment/damian-carrington-blog/2011/may/27/landfill-mining-waste-energy", "apiUrl": "https://content.guardianapis.com/environment/damian-carrington-blog/2011/may/27/landfill-mining-waste-energy", "isHosted": false, "pillarId": "pillar/news", "pillarName": "News"}, {"id": "environment/2011/may/27/country-diary-pilot-whales", "type": "article", "sectionId": "environment", "sectionName": "Environment", "webPublicationDate": "2011-05-26T23:05:10Z", "webTitle": "Country diary: South Uist", "webUrl": "https://www.theguardian.com/environment/2011/may/27/country-diary-pilot-whales", "apiUrl": "https://content.guardianapis.com/environment/2011/may/27/country-diary-pilot-whales", "isHosted": false, "pillarId": "pillar/news", "pillarName": "News"}, {"id": "science/2011/may/27/scientists-freedom-information-law-safeguards", "type": "article", "sectionId": "science", "sectionName": "Science", "webPublicationDate": "2011-05-26T23:05:05Z", "webTitle": "Letter: Scientists could use FoI law safeguards", "webUrl": "https://www.theguardian.com/science/2011/may/27/scientists-freedom-information-law-safeguards", "apiUrl": "https://content.guardianapis.com/science/2011/may/27/scientists-freedom-information-law-safeguards", "isHosted": false, "pillarId": "pillar/news", "pillarName": "News"}, {"id": "commentisfree/2011/may/26/bravo-for-the-nimbys-wind-power", "type": "article", "sectionId": "commentisfree", "sectionName": "Opinion", "webPublicationDate": "2011-05-26T20:00:00Z", "webTitle": "Bravo for nimbyism. What else will keep us from turbines and pylons? | Simon Jenkins", "webUrl": "https://www.theguardian.com/commentisfree/2011/may/26/bravo-for-the-nimbys-wind-power", "apiUrl": "https://content.guardianapis.com/commentisfree/2011/may/26/bravo-for-the-nimbys-wind-power", "isHosted": false, "pillarId": "pillar/opinion", "pillarName": "Opinion"}, {"id": "commentisfree/2011/may/26/britain-volcanic-past", "type": "article", "sectionId": "commentisfree", "sectionName": "Opinion", "webPublicationDate": "2011-05-26T16:00:01Z", "webTitle": "Britain's volcanic past | Ian Vince", "webUrl": "https://www.theguardian.com/commentisfree/2011/may/26/britain-volcanic-past", "apiUrl": "https://content.guardianapis.com/commentisfree/2011/may/26/britain-volcanic-past", "isHosted": false, "pillarId": "pillar/opinion", "pillarName": "Opinion"}, {"id": "environment/2011/may/26/farming-pesticides-spray-neigbours-consult", "type": "article", "sectionId": "environment", "sectionName": "Environment", "webPublicationDate": "2011-05-26T12:40:35Z", "webTitle": "Can I stop a farmer spraying pesticides close to my home? | Leo Hickman", "webUrl": "https://www.theguardian.com/environment/2011/may/26/farming-pesticides-spray-neigbours-consult", "apiUrl": "https://content.guardianapis.com/environment/2011/may/26/farming-pesticides-spray-neigbours-consult", "isHosted": false, "pillarId": "pillar/news", "pillarName": "News"}, {"id": "environment/2011/may/26/biofuels-energy", "type": "article", "sectionId": "environment", "sectionName": "Environment", "webPublicationDate": "2011-05-26T12:29:00Z", "webTitle": "Green groups take EU to court over biofuels - again", "webUrl": "https://www.theguardian.com/environment/2011/may/26/biofuels-energy", "apiUrl": "https://content.guardianapis.com/environment/2011/may/26/biofuels-energy", "isHosted": false, "pillarId": "pillar/news", "pillarName": "News"}, {"id": "uk/the-northerner/2011/may/26/annual-list-uk-clean-beaches-shows-north-west-faring-badly", "type": "article", "sectionId": "uk-news", "sectionName": "UK news", "webPublicationDate": "2011-05-26T11:56:00Z", "webTitle": "The north west's dirty beaches", "webUrl": "https://www.theguardian.com/uk/the-northerner/2011/may/26/annual-list-uk-clean-beaches-shows-north-west-faring-badly", "apiUrl": "https://content.guardianapis.com/uk/the-northerner/2011/may/26/annual-list-uk-clean-beaches-shows-north-west-faring-badly", "isHosted": false, "pillarId": "pillar/news", "pillarName": "News"}]}}