{"response": {"status": "ok", "userTier": "developer", "total": 33176, "startIndex": 1, "pageSize": 50, "currentPage": 1, "pages": 664, "orderBy": "newest", "results": [{"id": "commentisfree/2012/may/30/gm-debate-grown-up", "type": "article", "sectionId": "commentisfree", "sectionName": "Opinion", "webPublicationDate": "2012-05-30T20:00:06Z", "webTitle": "The GM debate is growing up | James Randerson", "webUrl": "https://www.theguardian.com/commentisfree/2012/may/30/gm-debate-grown-up", "apiUrl": "https://content.guardianapis.com/commentisfree/2012/may/30/gm-debate-grown-up", "isHosted": false, "pillarId": "pillar/opinion", "pillarName": "Opinion"}, {"id": "environment/2012/may/30/loch-ruthven-magical-silence-highlands", "type": "article", "sectionId": "environment", "sectionName": "Environment", "webPublicationDate": "2012-05-30T19:59:01Z", "webTitle": "Country diary: Loch Ruthven: The magical silence of the Highlands", "webUrl": "https://www.theguardian.com/environment/2012/may/30/loch-ruthven-magical-silence-highlands", "apiUrl": "https://content.guardianapis.com/environment/2012/may/30/loch-ruthven-magical-silence-highlands", "isHosted": false, "pillarId": "pillar/news", "pillarName": "News"}, {"id": "environment/2012/may/30/jane-goodall-observer-ethical-awards", "type": "article", "sectionId": "environment", "sectionName": "Environment", "webPublicationDate": "2012-05-30T19:00:09Z", "webTitle": "Jane Goodall honoured at Observer Ethical Awards 2012", "webUrl": "https://www.theguardian.com/environment/2012/may/30/jane-goodall-observer-ethical-awards", "apiUrl": "https://content.guardianapis.com/environment/2012/may/30/jane-goodall-observer-ethical-awards", "isHosted": false, "pillarId": "pillar/news", "pillarName": "News"}, {"id": "lifeandstyle/2012/may/30/should-eat-more-goat-meat", "type": "article", "sectionId": "food", "sectionName": "Food", "webPublicationDate": "2012-05-30T19:00:00Z", "webTitle": "Should we eat more goat meat?", "webUrl": "https://www.theguardian.com/lifeandstyle/2012/may/30/should-eat-more-goat-meat", "apiUrl": "https://content.guardianapis.com/lifeandstyle/2012/may/30/should-eat-more-goat-meat", "isHosted": false, "pillarId": "pillar/lifestyle", "pillarName": "Lifestyle"}, {"id": "environment/2012/may/30/geothermal-energy-uk-power", "type": "article", "sectionId": "environment", "sectionName": "Environment", "webPublicationDate": "2012-05-30T17:52:00Z", "webTitle": "Geothermal energy could meet a fifth of UK's power needs \u2013 report", "webUrl": "https://www.theguardian.com/environment/2012/may/30/geothermal-energy-uk-power", "apiUrl": "https://content.guardianapis.com/environment/2012/may/30/geothermal-energy-uk-power", "isHosted": false, "pillarId": "pillar/news", "pillarName": "News"}, {"id": "environment/2012/may/30/companies-block-action-climate-change", "type": "article", "sectionId": "environment", "sectionName": "Environment", "webPublicationDate": "2012-05-30T17:49:38Z", "webTitle": "Top US companies shelling out to block action on climate change", "webUrl": "https://www.theguardian.com/environment/2012/may/30/companies-block-action-climate-change", "apiUrl": "https://content.guardianapis.com/environment/2012/may/30/companies-block-action-climate-change", "isHosted": false, "pillarId": "pillar/news", "pillarName": "News"}, {"id": "world/2012/may/30/everest-mountaineer-crowding-hobby-tragedy", "type": "article", "sectionId": "world", "sectionName": "World news", "webPublicationDate": "2012-05-30T17:00:37Z", "webTitle": "Everest mountaineer says crowding by 'hobby climbers' is path to tragedy", "webUrl": "https://www.theguardian.com/world/2012/may/30/everest-mountaineer-crowding-hobby-tragedy", "apiUrl": "https://content.guardianapis.com/world/2012/may/30/everest-mountaineer-crowding-hobby-tragedy", "isHosted": false, "pillarId": "pillar/news", "pillarName": "News"}, {"id": "environment/2012/may/30/pollution-suit-government-dismissed-appeal", "type": "article", "sectionId": "environment", "sectionName": "Environment", "webPublicationDate": "2012-05-30T16:23:20Z", "webTitle": "Pollution suit against UK government dismissed by court of appeal", "webUrl": "https://www.theguardian.com/environment/2012/may/30/pollution-suit-government-dismissed-appeal", "apiUrl": "https://content.guardianapis.com/environment/2012/may/30/pollution-suit-government-dismissed-appeal", "isHosted": false, "pillarId": "pillar/news", "pillarName": "News"}, {"id": "environment/2012/may/30/sustainable-development-flourishing-wales", "type": "article", "sectionId": "environment", "sectionName": "Environment", "webPublicationDate": "2012-05-30T15:18:00Z", "webTitle": "Sustainable development flourishing in Wales's green economy", "webUrl": "https://www.theguardian.com/environment/2012/may/30/sustainable-development-flourishing-wales", "apiUrl": "https://content.guardianapis.com/environment/2012/may/30/sustainable-development-flourishing-wales", "isHosted": false, "pillarId": "pillar/news", "pillarName": "News"}, {"id": "uk/the-northerner/2012/may/30/rare-birds-hartlepool-redcar-teesside-orphean-warbler", "type": "article", "sectionId": "uk-news", "sectionName": "UK news", "webPublicationDate": "2012-05-30T15:09:54Z", "webTitle": "Warbling visitors bring cash to Teesside", "webUrl": "https://www.theguardian.com/uk/the-northerner/2012/may/30/rare-birds-hartlepool-redcar-teesside-orphean-warbler", "apiUrl": "https://content.guardianapis.com/uk/the-northerner/2012/may/30/rare-birds-hartlepool-redcar-teesside-orphean-warbler", "isHosted": false, "pillarId": "pillar/news", "pillarName": "News"}, {"id": "commentisfree/2012/may/30/mount-everest-nature-adventure-tourism", "type": "article", "sectionId": "commentisfree", "sectionName": "Opinion", "webPublicationDate": "2012-05-30T15:00:59Z", "webTitle": "Behold Mount Everest, reduced to adventure tourism | Jonathan Jones", "webUrl": "https://www.theguardian.com/commentisfree/2012/may/30/mount-everest-nature-adventure-tourism", "apiUrl": "https://content.guardianapis.com/commentisfree/2012/may/30/mount-everest-nature-adventure-tourism", "isHosted": false, "pillarId": "pillar/opinion", "pillarName": "Opinion"}, {"id": "global-development/poverty-matters/2012/may/30/haiti-gold-mining", "type": "article", "sectionId": "global-development", "sectionName": "Global development", "webPublicationDate": "2012-05-30T14:17:50Z", "webTitle": "Haiti's rush for gold gives mining firms a free rein over the riches | Jane Regan", "webUrl": "https://www.theguardian.com/global-development/poverty-matters/2012/may/30/haiti-gold-mining", "apiUrl": "https://content.guardianapis.com/global-development/poverty-matters/2012/may/30/haiti-gold-mining", "isHosted": false, "pillarId": "pillar/news", "pillarName": "News"}, {"id": "environment/gallery/2012/may/30/destinations-under-threat-tourism-in-pictures", "type": "gallery", "sectionId": "environment", "sectionName": "Environment", "webPublicationDate": "2012-05-30T13:32:00Z", "webTitle": "The destinations under threat from tourism - in pictures", "webUrl": "https://www.theguardian.com/environment/gallery/2012/may/30/destinations-under-threat-tourism-in-pictures", "apiUrl": "https://content.guardianapis.com/environment/gallery/2012/may/30/destinations-under-threat-tourism-in-pictures", "isHosted": false, "pillarId": "pillar/news", "pillarName": "News"}, {"id": "environment/2012/may/30/porton-down-staff-insect-monitors", "type": "article", "sectionId": "environment", "sectionName": "Environment", "webPublicationDate": "2012-05-30T13:15:47Z", "webTitle": "Porton Down's warfare research base staff become insect monitors", "webUrl": "https://www.theguardian.com/environment/2012/may/30/porton-down-staff-insect-monitors", "apiUrl": "https://content.guardianapis.com/environment/2012/may/30/porton-down-staff-insect-monitors", "isHosted": false, "pillarId": "pillar/news", "pillarName": "News"}, {"id": "environment/2012/may/30/buzzard-trapping-plan-abandoned-uturn", "type": "article", "sectionId": "environment", "sectionName": "Environment", "webPublicationDate": "2012-05-30T11:25:49Z", "webTitle": "Buzzard trapping plan abandoned as government U-turns again", "webUrl": "https://www.theguardian.com/environment/2012/may/30/buzzard-trapping-plan-abandoned-uturn", "apiUrl": "https://content.guardianapis.com/environment/2012/may/30/buzzard-trapping-plan-abandoned-uturn", "isHosted": false, "pillarId": "pillar/news", "pillarName": "News"}, {"id": "environment/2012/may/30/green-news-roundup", "type": "article", "sectionId": "environment", "sectionName": "Environment", "webPublicationDate": "2012-05-30T10:42:07Z", "webTitle": "Green news roundup: Lost bumblebee, shale gas and 'ethical' veal", "webUrl": "https://www.theguardian.com/environment/2012/may/30/green-news-roundup", "apiUrl": "https://content.guardianapis.com/environment/2012/may/30/green-news-roundup", "isHosted": false, "pillarId": "pillar/news", "pillarName": "News"}, {"id": "environment/2012/may/30/european-union-greenhouse-emissions-rise", "type": "article", "sectionId": "environment", "sectionName": "Environment", "webPublicationDate": "2012-05-30T05:00:02Z", "webTitle": "EU greenhouse gas emissions rise despite climate change policies", "webUrl": "https://www.theguardian.com/environment/2012/may/30/european-union-greenhouse-emissions-rise", "apiUrl": "https://content.guardianapis.com/environment/2012/may/30/european-union-greenhouse-emissions-rise", "isHosted": false, "pillarId": "pillar/news", "pillarName": "News"}, {"id": "environment/2012/may/29/price-right-tackle-climate-change", "type": "article", "sectionId": "environment", "sectionName": "Environment", "webPublicationDate": "2012-05-29T20:00:04Z", "webTitle": "Letters: The price is right to tackle climate change", "webUrl": "https://www.theguardian.com/environment/2012/may/29/price-right-tackle-climate-change", "apiUrl": "https://content.guardianapis.com/environment/2012/may/29/price-right-tackle-climate-change", "isHosted": false, "pillarId": "pillar/news", "pillarName": "News"}, {"id": "environment/2012/may/29/thrift-bladder-campion-st-minver-cornwall", "type": "article", "sectionId": "environment", "sectionName": "Environment", "webPublicationDate": "2012-05-29T19:59:01Z", "webTitle": "Country diary: St Minver, Cornwall: Thrift and bladder campion thrive on walls built by prisoners of war", "webUrl": "https://www.theguardian.com/environment/2012/may/29/thrift-bladder-campion-st-minver-cornwall", "apiUrl": "https://content.guardianapis.com/environment/2012/may/29/thrift-bladder-campion-st-minver-cornwall", "isHosted": false, "pillarId": "pillar/news", "pillarName": "News"}, {"id": "society/2012/may/29/charities-hope-u-turn-donations-tax-relief", "type": "article", "sectionId": "society", "sectionName": "Society", "webPublicationDate": "2012-05-29T17:38:36Z", "webTitle": "Charities hope for latest U-turn on donations", "webUrl": "https://www.theguardian.com/society/2012/may/29/charities-hope-u-turn-donations-tax-relief", "apiUrl": "https://content.guardianapis.com/society/2012/may/29/charities-hope-u-turn-donations-tax-relief", "isHosted": false, "pillarId": "pillar/news", "pillarName": "News"}, {"id": "environment/blog/2012/may/29/shale-gas-fracking-green-carbon", "type": "article", "sectionId": "environment", "sectionName": "Environment", "webPublicationDate": "2012-05-29T16:43:45Z", "webTitle": "How green is shale gas? | Leo Hickman", "webUrl": "https://www.theguardian.com/environment/blog/2012/may/29/shale-gas-fracking-green-carbon", "apiUrl": "https://content.guardianapis.com/environment/blog/2012/may/29/shale-gas-fracking-green-carbon", "isHosted": false, "pillarId": "pillar/news", "pillarName": "News"}, {"id": "environment/2012/may/29/gas-boom-renewables-agency-warns", "type": "article", "sectionId": "environment", "sectionName": "Environment", "webPublicationDate": "2012-05-29T16:02:05Z", "webTitle": "'Golden age of gas' threatens renewable energy, IEA warns", "webUrl": "https://www.theguardian.com/environment/2012/may/29/gas-boom-renewables-agency-warns", "apiUrl": "https://content.guardianapis.com/environment/2012/may/29/gas-boom-renewables-agency-warns", "isHosted": false, "pillarId": "pillar/news", "pillarName": "News"}, {"id": "commentisfree/2012/may/29/plight-of-bumblebee-bee-guardians", "type": "article", "sectionId": "commentisfree", "sectionName": "Opinion", "webPublicationDate": "2012-05-29T15:17:20Z", "webTitle": "Working together to solve the plight of the short-haired bumblebee | Jessie Jowers", "webUrl": "https://www.theguardian.com/commentisfree/2012/may/29/plight-of-bumblebee-bee-guardians", "apiUrl": "https://content.guardianapis.com/commentisfree/2012/may/29/plight-of-bumblebee-bee-guardians", "isHosted": false, "pillarId": "pillar/opinion", "pillarName": "Opinion"}, {"id": "environment/2012/may/29/gas-rebranded-green-energy-eu", "type": "article", "sectionId": "environment", "sectionName": "Environment", "webPublicationDate": "2012-05-29T12:52:35Z", "webTitle": "Gas rebranded as green energy by EU", "webUrl": "https://www.theguardian.com/environment/2012/may/29/gas-rebranded-green-energy-eu", "apiUrl": "https://content.guardianapis.com/environment/2012/may/29/gas-rebranded-green-energy-eu", "isHosted": false, "pillarId": "pillar/news", "pillarName": "News"}, {"id": "environment/blog/2012/may/29/fishing-greenpeace", "type": "article", "sectionId": "environment", "sectionName": "Environment", "webPublicationDate": "2012-05-29T11:56:14Z", "webTitle": "Who's got their hands on all our fish? | John Sauven", "webUrl": "https://www.theguardian.com/environment/blog/2012/may/29/fishing-greenpeace", "apiUrl": "https://content.guardianapis.com/environment/blog/2012/may/29/fishing-greenpeace", "isHosted": false, "pillarId": "pillar/news", "pillarName": "News"}, {"id": "world/2012/may/29/tuna-contaminated-radiation-fukushima-california", "type": "article", "sectionId": "world", "sectionName": "World news", "webPublicationDate": "2012-05-29T09:59:44Z", "webTitle": "Tuna contaminated with Fukushima radiation found in California", "webUrl": "https://www.theguardian.com/world/2012/may/29/tuna-contaminated-radiation-fukushima-california", "apiUrl": "https://content.guardianapis.com/world/2012/may/29/tuna-contaminated-radiation-fukushima-california", "isHosted": false, "pillarId": "pillar/news", "pillarName": "News"}, {"id": "global-development/2012/may/29/pakistan-energy-shortfall-coal-power-plants", "type": "article", "sectionId": "global-development", "sectionName": "Global development", "webPublicationDate": "2012-05-29T09:59:19Z", "webTitle": "Pakistan energy shortfall fuels row over coal power plants", "webUrl": "https://www.theguardian.com/global-development/2012/may/29/pakistan-energy-shortfall-coal-power-plants", "apiUrl": "https://content.guardianapis.com/global-development/2012/may/29/pakistan-energy-shortfall-coal-power-plants", "isHosted": false, "pillarId": "pillar/news", "pillarName": "News"}, {"id": "environment/2012/may/29/intermittant-solar-wind-energy", "type": "article", "sectionId": "environment", "sectionName": "Environment", "webPublicationDate": "2012-05-29T09:45:00Z", "webTitle": "Are solar, wind and marine power too intermittent to be useful?", "webUrl": "https://www.theguardian.com/environment/2012/may/29/intermittant-solar-wind-energy", "apiUrl": "https://content.guardianapis.com/environment/2012/may/29/intermittant-solar-wind-energy", "isHosted": false, "pillarId": "pillar/news", "pillarName": "News"}, {"id": "world/video/2012/may/29/fukushima-radiation-tuna-california-video", "type": "video", "sectionId": "world", "sectionName": "World news", "webPublicationDate": "2012-05-29T09:20:00Z", "webTitle": "Fukushima radiation found in tuna off California \u2013 video", "webUrl": "https://www.theguardian.com/world/video/2012/may/29/fukushima-radiation-tuna-california-video", "apiUrl": "https://content.guardianapis.com/world/video/2012/may/29/fukushima-radiation-tuna-california-video", "isHosted": false, "pillarId": "pillar/news", "pillarName": "News"}, {"id": "world/2012/may/29/fukushima-inquiry-naoto-kan", "type": "article", "sectionId": "world", "sectionName": "World news", "webPublicationDate": "2012-05-29T07:13:01Z", "webTitle": "Fukushima inquiry: I felt helpless, says former PM", "webUrl": "https://www.theguardian.com/world/2012/may/29/fukushima-inquiry-naoto-kan", "apiUrl": "https://content.guardianapis.com/world/2012/may/29/fukushima-inquiry-naoto-kan", "isHosted": false, "pillarId": "pillar/news", "pillarName": "News"}, {"id": "global-development/poverty-matters/2012/may/29/rio-20-green-economy-monetising-nature", "type": "article", "sectionId": "global-development", "sectionName": "Global development", "webPublicationDate": "2012-05-29T06:00:00Z", "webTitle": "Memo to Rio+20: 'green economy' doesn't mean monetising nature", "webUrl": "https://www.theguardian.com/global-development/poverty-matters/2012/may/29/rio-20-green-economy-monetising-nature", "apiUrl": "https://content.guardianapis.com/global-development/poverty-matters/2012/may/29/rio-20-green-economy-monetising-nature", "isHosted": false, "pillarId": "pillar/news", "pillarName": "News"}, {"id": "environment/2012/may/29/shale-gas-coal-climate-investor", "type": "article", "sectionId": "environment", "sectionName": "Environment", "webPublicationDate": "2012-05-29T05:30:00Z", "webTitle": "Using shale gas over coal does not help climate, says big gas investor", "webUrl": "https://www.theguardian.com/environment/2012/may/29/shale-gas-coal-climate-investor", "apiUrl": "https://content.guardianapis.com/environment/2012/may/29/shale-gas-coal-climate-investor", "isHosted": false, "pillarId": "pillar/news", "pillarName": "News"}, {"id": "environment/2012/may/28/vale-of-the-white-hart-dorset-kings-legends", "type": "article", "sectionId": "environment", "sectionName": "Environment", "webPublicationDate": "2012-05-28T19:59:01Z", "webTitle": "Country diary: Vale of the White Hart, Dorset: The stuff of kings, legends and plague", "webUrl": "https://www.theguardian.com/environment/2012/may/28/vale-of-the-white-hart-dorset-kings-legends", "apiUrl": "https://content.guardianapis.com/environment/2012/may/28/vale-of-the-white-hart-dorset-kings-legends", "isHosted": false, "pillarId": "pillar/news", "pillarName": "News"}, {"id": "commentisfree/2012/may/28/energy-policy-up-in-smoke", "type": "article", "sectionId": "commentisfree", "sectionName": "Opinion", "webPublicationDate": "2012-05-28T19:30:02Z", "webTitle": "Britain's climate change policy is going up in smoke | George Monbiot", "webUrl": "https://www.theguardian.com/commentisfree/2012/may/28/energy-policy-up-in-smoke", "apiUrl": "https://content.guardianapis.com/commentisfree/2012/may/28/energy-policy-up-in-smoke", "isHosted": false, "pillarId": "pillar/opinion", "pillarName": "Opinion"}, {"id": "environment/shortcuts/2012/may/28/hosepipe-ban-what-is-allowed", "type": "article", "sectionId": "environment", "sectionName": "Environment", "webPublicationDate": "2012-05-28T17:32:59Z", "webTitle": "Hosepipe ban: what is allowed?", "webUrl": "https://www.theguardian.com/environment/shortcuts/2012/may/28/hosepipe-ban-what-is-allowed", "apiUrl": "https://content.guardianapis.com/environment/shortcuts/2012/may/28/hosepipe-ban-what-is-allowed", "isHosted": false, "pillarId": "pillar/news", "pillarName": "News"}, {"id": "world/2012/may/28/forth-bridge-gibraltar-cave-heritage", "type": "article", "sectionId": "world", "sectionName": "World news", "webPublicationDate": "2012-05-28T16:10:36Z", "webTitle": "Forth rail bridge and Gibraltar cave in running for world heritage site status", "webUrl": "https://www.theguardian.com/world/2012/may/28/forth-bridge-gibraltar-cave-heritage", "apiUrl": "https://content.guardianapis.com/world/2012/may/28/forth-bridge-gibraltar-cave-heritage", "isHosted": false, "pillarId": "pillar/news", "pillarName": "News"}, {"id": "education/2012/may/28/university-green-league-winners-losers", "type": "article", "sectionId": "education", "sectionName": "Education", "webPublicationDate": "2012-05-28T16:00:03Z", "webTitle": "Green League 2012: the biggest rises and falls", "webUrl": "https://www.theguardian.com/education/2012/may/28/university-green-league-winners-losers", "apiUrl": "https://content.guardianapis.com/education/2012/may/28/university-green-league-winners-losers", "isHosted": false, "pillarId": "pillar/news", "pillarName": "News"}, {"id": "education/2012/may/28/university-green-league-2012", "type": "article", "sectionId": "education", "sectionName": "Education", "webPublicationDate": "2012-05-28T16:00:03Z", "webTitle": "Green League 2012: how universities can score points", "webUrl": "https://www.theguardian.com/education/2012/may/28/university-green-league-2012", "apiUrl": "https://content.guardianapis.com/education/2012/may/28/university-green-league-2012", "isHosted": false, "pillarId": "pillar/news", "pillarName": "News"}, {"id": "education/2012/may/28/people-and-planet-green-league-2012", "type": "article", "sectionId": "education", "sectionName": "Education", "webPublicationDate": "2012-05-28T16:00:00Z", "webTitle": "Greenwich tops the university Green League", "webUrl": "https://www.theguardian.com/education/2012/may/28/people-and-planet-green-league-2012", "apiUrl": "https://content.guardianapis.com/education/2012/may/28/people-and-planet-green-league-2012", "isHosted": false, "pillarId": "pillar/news", "pillarName": "News"}, {"id": "environment/2012/may/28/kenya-africa-underwater-museum", "type": "article", "sectionId": "environment", "sectionName": "Environment", "webPublicationDate": "2012-05-28T13:33:25Z", "webTitle": "Kenya to build Africa's first underwater museum", "webUrl": "https://www.theguardian.com/environment/2012/may/28/kenya-africa-underwater-museum", "apiUrl": "https://content.guardianapis.com/environment/2012/may/28/kenya-africa-underwater-museum", "isHosted": false, "pillarId": "pillar/news", "pillarName": "News"}, {"id": "environment/2012/may/28/rbs-loans-40bn-fossil-fuel-companies", "type": "article", "sectionId": "environment", "sectionName": "Environment", "webPublicationDate": "2012-05-28T13:15:59Z", "webTitle": "RBS involved in \u00a340bn loans to fossil fuel companies in past six months", "webUrl": "https://www.theguardian.com/environment/2012/may/28/rbs-loans-40bn-fossil-fuel-companies", "apiUrl": "https://content.guardianapis.com/environment/2012/may/28/rbs-loans-40bn-fossil-fuel-companies", "isHosted": false, "pillarId": "pillar/news", "pillarName": "News"}, {"id": "environment/2012/may/28/gm-crop-trial-website-cyber-attack", "type": "article", "sectionId": "environment", "sectionName": "Environment", "webPublicationDate": "2012-05-28T11:21:00Z", "webTitle": "GM crop-trial website taken down by cyber-attack", "webUrl": "https://www.theguardian.com/environment/2012/may/28/gm-crop-trial-website-cyber-attack", "apiUrl": "https://content.guardianapis.com/environment/2012/may/28/gm-crop-trial-website-cyber-attack", "isHosted": false, "pillarId": "pillar/news", "pillarName": "News"}, {"id": "artanddesign/2012/may/28/lynette-wallworth-alien-world-coral-reefs", "type": "article", "sectionId": "artanddesign", "sectionName": "Art and design", "webPublicationDate": "2012-05-28T10:51:52Z", "webTitle": "Lynette Wallworth: a timely journey into the alien world of coral reefs", "webUrl": "https://www.theguardian.com/artanddesign/2012/may/28/lynette-wallworth-alien-world-coral-reefs", "apiUrl": "https://content.guardianapis.com/artanddesign/2012/may/28/lynette-wallworth-alien-world-coral-reefs", "isHosted": false, "pillarId": "pillar/arts", "pillarName": "Arts"}, {"id": "global-development/poverty-matters/2012/may/28/rio-20-opportunity-courage-vision", "type": "article", "sectionId": "global-development", "sectionName": "Global development", "webPublicationDate": "2012-05-28T06:00:01Z", "webTitle": "Rio+20's opportunity will be squandered without courage and vision | Gro Harlem Brundtland and Fernando Henrique Cardoso", "webUrl": "https://www.theguardian.com/global-development/poverty-matters/2012/may/28/rio-20-opportunity-courage-vision", "apiUrl": "https://content.guardianapis.com/global-development/poverty-matters/2012/may/28/rio-20-opportunity-courage-vision", "isHosted": false, "pillarId": "pillar/news", "pillarName": "News"}, {"id": "artanddesign/video/2012/may/28/coral-reef-film-rekindling-venus", "type": "video", "sectionId": "artanddesign", "sectionName": "Art and design", "webPublicationDate": "2012-05-27T23:21:00Z", "webTitle": "Coral: Rekindling Venus \u2013 video", "webUrl": "https://www.theguardian.com/artanddesign/video/2012/may/28/coral-reef-film-rekindling-venus", "apiUrl": "https://content.guardianapis.com/artanddesign/video/2012/may/28/coral-reef-film-rekindling-venus", "isHosted": false, "pillarId": "pillar/arts", "pillarName": "Arts"}, {"id": "science/audio/2012/may/28/science-weekly-podcast-transit-venus", "type": "audio", "sectionId": "science", "sectionName": "Science", "webPublicationDate": "2012-05-27T23:05:00Z", "webTitle": "Science Weekly podcast: The world awaits the transit of Venus", "webUrl": "https://www.theguardian.com/science/audio/2012/may/28/science-weekly-podcast-transit-venus", "apiUrl": "https://content.guardianapis.com/science/audio/2012/may/28/science-weekly-podcast-transit-venus", "isHosted": false, "pillarId": "pillar/news", "pillarName": "News"}, {"id": "world/2012/may/27/hong-kong-islands-threat-wildlife", "type": "article", "sectionId": "world", "sectionName": "World news", "webPublicationDate": "2012-05-27T21:59:00Z", "webTitle": "Hong Kong plan to create 25 islands threatens wildlife, say protesters", "webUrl": "https://www.theguardian.com/world/2012/may/27/hong-kong-islands-threat-wildlife", "apiUrl": "https://content.guardianapis.com/world/2012/may/27/hong-kong-islands-threat-wildlife", "isHosted": false, "pillarId": "pillar/news", "pillarName": "News"}, {"id": "environment/2012/may/27/country-diary-1912-limestone-worm-mystery", "type": "article", "sectionId": "environment", "sectionName": "Environment", "webPublicationDate": "2012-05-27T21:30:00Z", "webTitle": "Archive, 3 June 1912: A limestone mystery", "webUrl": "https://www.theguardian.com/environment/2012/may/27/country-diary-1912-limestone-worm-mystery", "apiUrl": "https://content.guardianapis.com/environment/2012/may/27/country-diary-1912-limestone-worm-mystery", "isHosted": false, "pillarId": "pillar/news", "pillarName": "News"}, {"id": "environment/2012/may/27/blackwater-carr-norfolk-reed-warbler", "type": "article", "sectionId": "environment", "sectionName": "Environment", "webPublicationDate": "2012-05-27T20:00:00Z", "webTitle": "Country diary: A regional dialect may be the way to a reed warbler's heart", "webUrl": "https://www.theguardian.com/environment/2012/may/27/blackwater-carr-norfolk-reed-warbler", "apiUrl": "https://content.guardianapis.com/environment/2012/may/27/blackwater-carr-norfolk-reed-warbler", "isHosted": false, "pillarId": "pillar/news", "pillarName": "News"}, {"id": "environment/2012/may/27/gm-food-pr-strategy", "type": "article", "sectionId": "environment", "sectionName": "Environment", "webPublicationDate": "2012-05-27T19:26:30Z", "webTitle": "The GM scientists' risky strategy that won public support", "webUrl": "https://www.theguardian.com/environment/2012/may/27/gm-food-pr-strategy", "apiUrl": "https://content.guardianapis.com/environment/2012/may/27/gm-food-pr-strategy", "isHosted": false, "pillarId": "pillar/news", "pillarName": "News"}]}}