{"response": {"status": "ok", "userTier": "developer", "total": 40333, "startIndex": 1, "pageSize": 50, "currentPage": 1, "pages": 807, "orderBy": "newest", "results": [{"id": "environment/2014/may/30/conservative-groups-obama-proposals-carbon-emissions", "type": "article", "sectionId": "environment", "sectionName": "Environment", "webPublicationDate": "2014-05-30T20:40:06Z", "webTitle": "Conservative groups bid to wreck Obama's proposals on carbon emissions", "webUrl": "https://www.theguardian.com/environment/2014/may/30/conservative-groups-obama-proposals-carbon-emissions", "apiUrl": "https://content.guardianapis.com/environment/2014/may/30/conservative-groups-obama-proposals-carbon-emissions", "isHosted": false, "pillarId": "pillar/news", "pillarName": "News"}, {"id": "environment/2014/may/30/stonehenge-wiltshire-bird-performs-cameras", "type": "article", "sectionId": "environment", "sectionName": "Environment", "webPublicationDate": "2014-05-30T20:00:01Z", "webTitle": "Country diary: Stonehenge, Wiltshire: Bird of play performs for the cameras", "webUrl": "https://www.theguardian.com/environment/2014/may/30/stonehenge-wiltshire-bird-performs-cameras", "apiUrl": "https://content.guardianapis.com/environment/2014/may/30/stonehenge-wiltshire-bird-performs-cameras", "isHosted": false, "pillarId": "pillar/news", "pillarName": "News"}, {"id": "environment/earth-insight/2014/may/30/climate-change-war-conflict-military-industrial-complex-syria-egypt-uprising", "type": "article", "sectionId": "environment", "sectionName": "Environment", "webPublicationDate": "2014-05-30T18:19:00Z", "webTitle": "The age of climate warfare is here. The military-industrial complex is ready. Are you?", "webUrl": "https://www.theguardian.com/environment/earth-insight/2014/may/30/climate-change-war-conflict-military-industrial-complex-syria-egypt-uprising", "apiUrl": "https://content.guardianapis.com/environment/earth-insight/2014/may/30/climate-change-war-conflict-military-industrial-complex-syria-egypt-uprising", "isHosted": false, "pillarId": "pillar/news", "pillarName": "News"}, {"id": "environment/2014/may/30/york-flood-meadows-special-scientific-interest", "type": "article", "sectionId": "environment", "sectionName": "Environment", "webPublicationDate": "2014-05-30T17:07:00Z", "webTitle": "York's flood meadows get site of special scientific interest status", "webUrl": "https://www.theguardian.com/environment/2014/may/30/york-flood-meadows-special-scientific-interest", "apiUrl": "https://content.guardianapis.com/environment/2014/may/30/york-flood-meadows-special-scientific-interest", "isHosted": false, "pillarId": "pillar/news", "pillarName": "News"}, {"id": "environment/2014/may/30/can-gm-and-organic-farms-coexist", "type": "liveblog", "sectionId": "environment", "sectionName": "Environment", "webPublicationDate": "2014-05-30T16:41:09Z", "webTitle": "Can GM and organic farms coexist?", "webUrl": "https://www.theguardian.com/environment/2014/may/30/can-gm-and-organic-farms-coexist", "apiUrl": "https://content.guardianapis.com/environment/2014/may/30/can-gm-and-organic-farms-coexist", "isHosted": false, "pillarId": "pillar/news", "pillarName": "News"}, {"id": "environment/2014/may/30/tin-mining-bangka-island-microsoft-indonesia", "type": "article", "sectionId": "environment", "sectionName": "Environment", "webPublicationDate": "2014-05-30T14:31:47Z", "webTitle": "Campaign against tin mining in Bangka island targets Microsoft", "webUrl": "https://www.theguardian.com/environment/2014/may/30/tin-mining-bangka-island-microsoft-indonesia", "apiUrl": "https://content.guardianapis.com/environment/2014/may/30/tin-mining-bangka-island-microsoft-indonesia", "isHosted": false, "pillarId": "pillar/news", "pillarName": "News"}, {"id": "sustainable-business/blog/greenhouse-gas-mobile-phones-aircarbon", "type": "article", "sectionId": "sustainable-business", "sectionName": "Guardian Sustainable Business", "webPublicationDate": "2014-05-30T13:49:00Z", "webTitle": "Turning greenhouse gases into mobile phone cases", "webUrl": "https://www.theguardian.com/sustainable-business/blog/greenhouse-gas-mobile-phones-aircarbon", "apiUrl": "https://content.guardianapis.com/sustainable-business/blog/greenhouse-gas-mobile-phones-aircarbon", "isHosted": false}, {"id": "social-enterprise-network/2014/may/30/bee-keeping-jobs-social-enterprise-green-economy", "type": "article", "sectionId": "sustainable-business", "sectionName": "Guardian Sustainable Business", "webPublicationDate": "2014-05-30T06:00:14Z", "webTitle": "Sweet success for honey projects that boost bees as well as jobs", "webUrl": "https://www.theguardian.com/social-enterprise-network/2014/may/30/bee-keeping-jobs-social-enterprise-green-economy", "apiUrl": "https://content.guardianapis.com/social-enterprise-network/2014/may/30/bee-keeping-jobs-social-enterprise-green-economy", "isHosted": false}, {"id": "technology/2014/may/30/big-data-pearls-of-wisdom-tasmanian-oysters", "type": "article", "sectionId": "technology", "sectionName": "Technology", "webPublicationDate": "2014-05-30T05:34:27Z", "webTitle": "How big data is providing pearls of wisdom for Tasmanian oyster farmers", "webUrl": "https://www.theguardian.com/technology/2014/may/30/big-data-pearls-of-wisdom-tasmanian-oysters", "apiUrl": "https://content.guardianapis.com/technology/2014/may/30/big-data-pearls-of-wisdom-tasmanian-oysters", "isHosted": false, "pillarId": "pillar/news", "pillarName": "News"}, {"id": "environment/2014/may/29/carbon-pollution-qa-obama-carbon-proposal", "type": "article", "sectionId": "environment", "sectionName": "Environment", "webPublicationDate": "2014-05-29T20:11:59Z", "webTitle": "Carbon pollution Q&A: why Obama's proposal could make climate history", "webUrl": "https://www.theguardian.com/environment/2014/may/29/carbon-pollution-qa-obama-carbon-proposal", "apiUrl": "https://content.guardianapis.com/environment/2014/may/29/carbon-pollution-qa-obama-carbon-proposal", "isHosted": false, "pillarId": "pillar/news", "pillarName": "News"}, {"id": "environment/2014/may/29/obama-unveil-historic-climate-plan-carbon-pollution", "type": "article", "sectionId": "environment", "sectionName": "Environment", "webPublicationDate": "2014-05-29T20:11:57Z", "webTitle": "Obama to unveil historic climate change plan to cut US carbon pollution", "webUrl": "https://www.theguardian.com/environment/2014/may/29/obama-unveil-historic-climate-plan-carbon-pollution", "apiUrl": "https://content.guardianapis.com/environment/2014/may/29/obama-unveil-historic-climate-plan-carbon-pollution", "isHosted": false, "pillarId": "pillar/news", "pillarName": "News"}, {"id": "environment/2014/may/29/south-uist-beachcombing-trip-added-hebridean-magic", "type": "article", "sectionId": "environment", "sectionName": "Environment", "webPublicationDate": "2014-05-29T20:00:00Z", "webTitle": "Country diary: South Uist: A beachcombing trip with added Hebridean magic", "webUrl": "https://www.theguardian.com/environment/2014/may/29/south-uist-beachcombing-trip-added-hebridean-magic", "apiUrl": "https://content.guardianapis.com/environment/2014/may/29/south-uist-beachcombing-trip-added-hebridean-magic", "isHosted": false, "pillarId": "pillar/news", "pillarName": "News"}, {"id": "environment/2014/may/29/cuadrilla-fracking-permission-lancashire-shale-rock", "type": "article", "sectionId": "environment", "sectionName": "Environment", "webPublicationDate": "2014-05-29T16:38:31Z", "webTitle": "Cuadrilla applies for fracking permission in Lancashire", "webUrl": "https://www.theguardian.com/environment/2014/may/29/cuadrilla-fracking-permission-lancashire-shale-rock", "apiUrl": "https://content.guardianapis.com/environment/2014/may/29/cuadrilla-fracking-permission-lancashire-shale-rock", "isHosted": false, "pillarId": "pillar/news", "pillarName": "News"}, {"id": "technology/2014/may/28/google-self-driving-car-how-does-it-work", "type": "article", "sectionId": "technology", "sectionName": "Technology", "webPublicationDate": "2014-05-29T16:11:27Z", "webTitle": "Google's self-driving car: How does it work and when can we drive one?", "webUrl": "https://www.theguardian.com/technology/2014/may/28/google-self-driving-car-how-does-it-work", "apiUrl": "https://content.guardianapis.com/technology/2014/may/28/google-self-driving-car-how-does-it-work", "isHosted": false, "pillarId": "pillar/news", "pillarName": "News"}, {"id": "lifeandstyle/2014/may/29/sustainable-blog-of-the-week-the-compost-bin", "type": "article", "sectionId": "lifeandstyle", "sectionName": "Life and style", "webPublicationDate": "2014-05-29T09:45:44Z", "webTitle": "Sustainable blog of the week: The Compost Bin", "webUrl": "https://www.theguardian.com/lifeandstyle/2014/may/29/sustainable-blog-of-the-week-the-compost-bin", "apiUrl": "https://content.guardianapis.com/lifeandstyle/2014/may/29/sustainable-blog-of-the-week-the-compost-bin", "isHosted": false, "pillarId": "pillar/lifestyle", "pillarName": "Lifestyle"}, {"id": "environment/2014/may/29/fallen-tomatoes-bag-waitrose", "type": "article", "sectionId": "environment", "sectionName": "Environment", "webPublicationDate": "2014-05-29T09:43:00Z", "webTitle": "Fancy fallen tomatoes? Coming in a bag in a supermarket near you", "webUrl": "https://www.theguardian.com/environment/2014/may/29/fallen-tomatoes-bag-waitrose", "apiUrl": "https://content.guardianapis.com/environment/2014/may/29/fallen-tomatoes-bag-waitrose", "isHosted": false, "pillarId": "pillar/news", "pillarName": "News"}, {"id": "world/video/2014/may/29/japanese-oil-tanker-ablaze-explosion-video", "type": "video", "sectionId": "world", "sectionName": "World news", "webPublicationDate": "2014-05-29T07:34:00Z", "webTitle": "Japanese oil tanker ablaze after explosion \u2013 video", "webUrl": "https://www.theguardian.com/world/video/2014/may/29/japanese-oil-tanker-ablaze-explosion-video", "apiUrl": "https://content.guardianapis.com/world/video/2014/may/29/japanese-oil-tanker-ablaze-explosion-video", "isHosted": false, "pillarId": "pillar/news", "pillarName": "News"}, {"id": "environment/planet-oz/2014/may/29/great-climate-change-comedy-moments-in-video-clips", "type": "article", "sectionId": "environment", "sectionName": "Environment", "webPublicationDate": "2014-05-29T02:40:55Z", "webTitle": "Great climate change comedy moments in video clips | Graham Readfearn", "webUrl": "https://www.theguardian.com/environment/planet-oz/2014/may/29/great-climate-change-comedy-moments-in-video-clips", "apiUrl": "https://content.guardianapis.com/environment/planet-oz/2014/may/29/great-climate-change-comedy-moments-in-video-clips", "isHosted": false, "pillarId": "pillar/news", "pillarName": "News"}, {"id": "environment/2014/may/28/river-findhorn-highlands-bird-prey-confrontation", "type": "article", "sectionId": "environment", "sectionName": "Environment", "webPublicationDate": "2014-05-28T20:00:00Z", "webTitle": "Country diary: River Findhorn, Highlands: A few wing flaps and the bird of prey confrontation was on", "webUrl": "https://www.theguardian.com/environment/2014/may/28/river-findhorn-highlands-bird-prey-confrontation", "apiUrl": "https://content.guardianapis.com/environment/2014/may/28/river-findhorn-highlands-bird-prey-confrontation", "isHosted": false, "pillarId": "pillar/news", "pillarName": "News"}, {"id": "environment/earth-insight/2014/may/28/inclusive-capitalism-trojan-horse-global-revolt-henry-jackson-society-pr-growth", "type": "article", "sectionId": "environment", "sectionName": "Environment", "webPublicationDate": "2014-05-28T17:11:32Z", "webTitle": "Inclusive Capitalism Initiative is financial Trojan Horse to quell coming global revolt | Nafeez Ahmed", "webUrl": "https://www.theguardian.com/environment/earth-insight/2014/may/28/inclusive-capitalism-trojan-horse-global-revolt-henry-jackson-society-pr-growth", "apiUrl": "https://content.guardianapis.com/environment/earth-insight/2014/may/28/inclusive-capitalism-trojan-horse-global-revolt-henry-jackson-society-pr-growth", "isHosted": false, "pillarId": "pillar/news", "pillarName": "News"}, {"id": "environment/2014/may/28/shale-gas-russia-eu-renewables-ukraine-crisis", "type": "article", "sectionId": "environment", "sectionName": "Environment", "webPublicationDate": "2014-05-28T16:21:14Z", "webTitle": "Shale and non-Russian gas imports at heart of new EU energy strategy", "webUrl": "https://www.theguardian.com/environment/2014/may/28/shale-gas-russia-eu-renewables-ukraine-crisis", "apiUrl": "https://content.guardianapis.com/environment/2014/may/28/shale-gas-russia-eu-renewables-ukraine-crisis", "isHosted": false, "pillarId": "pillar/news", "pillarName": "News"}, {"id": "environment/2014/may/28/farmland-food-security-small-farmers", "type": "article", "sectionId": "environment", "sectionName": "Environment", "webPublicationDate": "2014-05-28T15:02:51Z", "webTitle": "Corporate stranglehold of farmland a risk to world food security, study says", "webUrl": "https://www.theguardian.com/environment/2014/may/28/farmland-food-security-small-farmers", "apiUrl": "https://content.guardianapis.com/environment/2014/may/28/farmland-food-security-small-farmers", "isHosted": false, "pillarId": "pillar/news", "pillarName": "News"}, {"id": "sustainable-business/green-mountain-keurig-coffee-pods-waste-recycling", "type": "article", "sectionId": "sustainable-business", "sectionName": "Guardian Sustainable Business", "webPublicationDate": "2014-05-28T14:56:11Z", "webTitle": "Trouble brewing: has success spoiled Green Mountain?", "webUrl": "https://www.theguardian.com/sustainable-business/green-mountain-keurig-coffee-pods-waste-recycling", "apiUrl": "https://content.guardianapis.com/sustainable-business/green-mountain-keurig-coffee-pods-waste-recycling", "isHosted": false}, {"id": "lifeandstyle/2014/may/28/how-old-water-oceans", "type": "article", "sectionId": "lifeandstyle", "sectionName": "Life and style", "webPublicationDate": "2014-05-28T14:00:00Z", "webTitle": "How old is the water in the oceans?", "webUrl": "https://www.theguardian.com/lifeandstyle/2014/may/28/how-old-water-oceans", "apiUrl": "https://content.guardianapis.com/lifeandstyle/2014/may/28/how-old-water-oceans", "isHosted": false, "pillarId": "pillar/lifestyle", "pillarName": "Lifestyle"}, {"id": "lifeandstyle/2014/may/28/green-apps-and-gadgets-radiator-booster-heating-bills", "type": "article", "sectionId": "lifeandstyle", "sectionName": "Life and style", "webPublicationDate": "2014-05-28T13:51:00Z", "webTitle": "Green apps and gadgets: radiator booster", "webUrl": "https://www.theguardian.com/lifeandstyle/2014/may/28/green-apps-and-gadgets-radiator-booster-heating-bills", "apiUrl": "https://content.guardianapis.com/lifeandstyle/2014/may/28/green-apps-and-gadgets-radiator-booster-heating-bills", "isHosted": false, "pillarId": "pillar/lifestyle", "pillarName": "Lifestyle"}, {"id": "fashion/tvandradioblog/2014/may/28/chris-packham-and-the-evolution-of-springwatch-style", "type": "article", "sectionId": "fashion", "sectionName": "Fashion", "webPublicationDate": "2014-05-28T13:37:19Z", "webTitle": "Chris Packham and the evolution of Springwatch Style", "webUrl": "https://www.theguardian.com/fashion/tvandradioblog/2014/may/28/chris-packham-and-the-evolution-of-springwatch-style", "apiUrl": "https://content.guardianapis.com/fashion/tvandradioblog/2014/may/28/chris-packham-and-the-evolution-of-springwatch-style", "isHosted": false, "pillarId": "pillar/lifestyle", "pillarName": "Lifestyle"}, {"id": "technology/2014/may/28/self-driving-cars-google-success", "type": "article", "sectionId": "technology", "sectionName": "Technology", "webPublicationDate": "2014-05-28T13:32:24Z", "webTitle": "Self-driving cars face a long and winding road to success | Alex Hern", "webUrl": "https://www.theguardian.com/technology/2014/may/28/self-driving-cars-google-success", "apiUrl": "https://content.guardianapis.com/technology/2014/may/28/self-driving-cars-google-success", "isHosted": false, "pillarId": "pillar/news", "pillarName": "News"}, {"id": "environment/2014/may/28/polar-bear-cubs-arctic-climate-change", "type": "article", "sectionId": "environment", "sectionName": "Environment", "webPublicationDate": "2014-05-28T12:02:43Z", "webTitle": "Fewer polar bear cubs are being born in the Arctic islands, survey finds", "webUrl": "https://www.theguardian.com/environment/2014/may/28/polar-bear-cubs-arctic-climate-change", "apiUrl": "https://content.guardianapis.com/environment/2014/may/28/polar-bear-cubs-arctic-climate-change", "isHosted": false, "pillarId": "pillar/news", "pillarName": "News"}, {"id": "environment/bike-blog/2014/may/28/carbon-fibre-ebike-batman-visiobike", "type": "article", "sectionId": "environment", "sectionName": "Environment", "webPublicationDate": "2014-05-28T11:03:13Z", "webTitle": "Bike blog: A carbon fibre e-bike: built for the batman | Karl Mathiesen", "webUrl": "https://www.theguardian.com/environment/bike-blog/2014/may/28/carbon-fibre-ebike-batman-visiobike", "apiUrl": "https://content.guardianapis.com/environment/bike-blog/2014/may/28/carbon-fibre-ebike-batman-visiobike", "isHosted": false, "pillarId": "pillar/news", "pillarName": "News"}, {"id": "environment/southern-crossroads/2014/may/28/air-pollution-australia-greg-hunt", "type": "article", "sectionId": "environment", "sectionName": "Environment", "webPublicationDate": "2014-05-28T10:54:00Z", "webTitle": "What kills 3,000 Australians a year? | Alexander White", "webUrl": "https://www.theguardian.com/environment/southern-crossroads/2014/may/28/air-pollution-australia-greg-hunt", "apiUrl": "https://content.guardianapis.com/environment/southern-crossroads/2014/may/28/air-pollution-australia-greg-hunt", "isHosted": false, "pillarId": "pillar/news", "pillarName": "News"}, {"id": "global-development/2014/may/28/areva-niger-uranium-mining-deal", "type": "article", "sectionId": "global-development", "sectionName": "Global development", "webPublicationDate": "2014-05-28T10:44:58Z", "webTitle": "Areva's uranium mining deal with Niger receives cautious welcome", "webUrl": "https://www.theguardian.com/global-development/2014/may/28/areva-niger-uranium-mining-deal", "apiUrl": "https://content.guardianapis.com/global-development/2014/may/28/areva-niger-uranium-mining-deal", "isHosted": false, "pillarId": "pillar/news", "pillarName": "News"}, {"id": "environment/2014/may/28/gm-canola-organic-farmer-loses-court-case-over-alleged-contamination", "type": "article", "sectionId": "environment", "sectionName": "Environment", "webPublicationDate": "2014-05-28T07:01:17Z", "webTitle": "GM crops: organic farmer loses court case over alleged contamination", "webUrl": "https://www.theguardian.com/environment/2014/may/28/gm-canola-organic-farmer-loses-court-case-over-alleged-contamination", "apiUrl": "https://content.guardianapis.com/environment/2014/may/28/gm-canola-organic-farmer-loses-court-case-over-alleged-contamination", "isHosted": false, "pillarId": "pillar/news", "pillarName": "News"}, {"id": "artanddesign/2014/may/28/pistoletto-arte-povera-mirror-smasher-eco-houses-interview", "type": "article", "sectionId": "artanddesign", "sectionName": "Art and design", "webPublicationDate": "2014-05-28T06:59:00Z", "webTitle": "Michelangelo Pistoletto: the artist with a smashing way to save the world", "webUrl": "https://www.theguardian.com/artanddesign/2014/may/28/pistoletto-arte-povera-mirror-smasher-eco-houses-interview", "apiUrl": "https://content.guardianapis.com/artanddesign/2014/may/28/pistoletto-arte-povera-mirror-smasher-eco-houses-interview", "isHosted": false, "pillarId": "pillar/arts", "pillarName": "Arts"}, {"id": "world/2014/may/28/endless-summer-bad-trees-fruit-shops", "type": "article", "sectionId": "world", "sectionName": "World news", "webPublicationDate": "2014-05-28T06:30:24Z", "webTitle": "Why Australia's endless summer is bad for trees, fruit, insects \u2013 and shops", "webUrl": "https://www.theguardian.com/world/2014/may/28/endless-summer-bad-trees-fruit-shops", "apiUrl": "https://content.guardianapis.com/world/2014/may/28/endless-summer-bad-trees-fruit-shops", "isHosted": false, "pillarId": "pillar/news", "pillarName": "News"}, {"id": "science/blog/2014/may/28/charles-darwin-finches-blood-sucking-parasite-galapagos-philornis-downsi", "type": "article", "sectionId": "science", "sectionName": "Science", "webPublicationDate": "2014-05-28T06:00:05Z", "webTitle": "Saving Darwin's finches from blood-sucking parasites | Sam Wong", "webUrl": "https://www.theguardian.com/science/blog/2014/may/28/charles-darwin-finches-blood-sucking-parasite-galapagos-philornis-downsi", "apiUrl": "https://content.guardianapis.com/science/blog/2014/may/28/charles-darwin-finches-blood-sucking-parasite-galapagos-philornis-downsi", "isHosted": false, "pillarId": "pillar/news", "pillarName": "News"}, {"id": "commentisfree/2014/may/28/theres-some-good-news-for-progressive-australia", "type": "article", "sectionId": "commentisfree", "sectionName": "Opinion", "webPublicationDate": "2014-05-28T03:45:18Z", "webTitle": "There's some good news for progressive Australia | Van Badham", "webUrl": "https://www.theguardian.com/commentisfree/2014/may/28/theres-some-good-news-for-progressive-australia", "apiUrl": "https://content.guardianapis.com/commentisfree/2014/may/28/theres-some-good-news-for-progressive-australia", "isHosted": false, "pillarId": "pillar/opinion", "pillarName": "Opinion"}, {"id": "world/2014/may/28/second-sinkhole-appears-in-upmarket-area-south-of-newcastle", "type": "article", "sectionId": "world", "sectionName": "World news", "webPublicationDate": "2014-05-28T00:52:57Z", "webTitle": "Second sinkhole appears in upmarket area south of Newcastle", "webUrl": "https://www.theguardian.com/world/2014/may/28/second-sinkhole-appears-in-upmarket-area-south-of-newcastle", "apiUrl": "https://content.guardianapis.com/world/2014/may/28/second-sinkhole-appears-in-upmarket-area-south-of-newcastle", "isHosted": false, "pillarId": "pillar/news", "pillarName": "News"}, {"id": "world/2014/may/27/peat-bog-swamp-congo-brazzaville-discovery", "type": "article", "sectionId": "environment", "sectionName": "Environment", "webPublicationDate": "2014-05-27T21:55:00Z", "webTitle": "Peat bog as big as England found in Congo", "webUrl": "https://www.theguardian.com/world/2014/may/27/peat-bog-swamp-congo-brazzaville-discovery", "apiUrl": "https://content.guardianapis.com/world/2014/may/27/peat-bog-swamp-congo-brazzaville-discovery", "isHosted": false, "pillarId": "pillar/news", "pillarName": "News"}, {"id": "environment/2014/may/27/dazzling-beacon-farewell-may-wenlock-edge", "type": "article", "sectionId": "environment", "sectionName": "Environment", "webPublicationDate": "2014-05-27T20:00:00Z", "webTitle": "Country diary: Wenlock Edge: A dazzling beacon bids farewell to May", "webUrl": "https://www.theguardian.com/environment/2014/may/27/dazzling-beacon-farewell-may-wenlock-edge", "apiUrl": "https://content.guardianapis.com/environment/2014/may/27/dazzling-beacon-farewell-may-wenlock-edge", "isHosted": false, "pillarId": "pillar/news", "pillarName": "News"}, {"id": "commentisfree/2014/may/27/if-we-cant-change-economic-system-our-number-is-up", "type": "article", "sectionId": "commentisfree", "sectionName": "Opinion", "webPublicationDate": "2014-05-27T17:38:10Z", "webTitle": "It's simple. If we can't change our economic system, our number's up | George Monbiot", "webUrl": "https://www.theguardian.com/commentisfree/2014/may/27/if-we-cant-change-economic-system-our-number-is-up", "apiUrl": "https://content.guardianapis.com/commentisfree/2014/may/27/if-we-cant-change-economic-system-our-number-is-up", "isHosted": false, "pillarId": "pillar/opinion", "pillarName": "Opinion"}, {"id": "uk-news/2014/may/27/rain-flood-alerts-norfolk-ravensbourne", "type": "article", "sectionId": "uk-news", "sectionName": "UK news", "webPublicationDate": "2014-05-27T16:34:55Z", "webTitle": "Heavy rain prompts flood alerts in Norfolk and south London", "webUrl": "https://www.theguardian.com/uk-news/2014/may/27/rain-flood-alerts-norfolk-ravensbourne", "apiUrl": "https://content.guardianapis.com/uk-news/2014/may/27/rain-flood-alerts-norfolk-ravensbourne", "isHosted": false, "pillarId": "pillar/news", "pillarName": "News"}, {"id": "environment/2014/may/27/uk-beaches-europe-cyprus-malta", "type": "article", "sectionId": "environment", "sectionName": "Environment", "webPublicationDate": "2014-05-27T15:29:42Z", "webTitle": "UK beaches good, but Europe's cleanest are in Cyprus and Malta, survey finds", "webUrl": "https://www.theguardian.com/environment/2014/may/27/uk-beaches-europe-cyprus-malta", "apiUrl": "https://content.guardianapis.com/environment/2014/may/27/uk-beaches-europe-cyprus-malta", "isHosted": false, "pillarId": "pillar/news", "pillarName": "News"}, {"id": "environment/2014/may/27/americans-climate-change-global-warming-yale-report", "type": "article", "sectionId": "environment", "sectionName": "Environment", "webPublicationDate": "2014-05-27T14:22:00Z", "webTitle": "Americans care deeply about 'global warming' \u2013 but not 'climate change'", "webUrl": "https://www.theguardian.com/environment/2014/may/27/americans-climate-change-global-warming-yale-report", "apiUrl": "https://content.guardianapis.com/environment/2014/may/27/americans-climate-change-global-warming-yale-report", "isHosted": false, "pillarId": "pillar/news", "pillarName": "News"}, {"id": "environment/2014/may/27/rachel-louise-carson-google-doodle", "type": "article", "sectionId": "environment", "sectionName": "Environment", "webPublicationDate": "2014-05-27T13:55:24Z", "webTitle": "Rachel Louise Carson commemorated in Google doodle", "webUrl": "https://www.theguardian.com/environment/2014/may/27/rachel-louise-carson-google-doodle", "apiUrl": "https://content.guardianapis.com/environment/2014/may/27/rachel-louise-carson-google-doodle", "isHosted": false, "pillarId": "pillar/news", "pillarName": "News"}, {"id": "books/booksblog/2014/may/27/google-doodle-rachel-carson-silent-spring", "type": "article", "sectionId": "books", "sectionName": "Books", "webPublicationDate": "2014-05-27T13:48:00Z", "webTitle": "Silent Spring author Rachel Louise Carson gets Google Doodle", "webUrl": "https://www.theguardian.com/books/booksblog/2014/may/27/google-doodle-rachel-carson-silent-spring", "apiUrl": "https://content.guardianapis.com/books/booksblog/2014/may/27/google-doodle-rachel-carson-silent-spring", "isHosted": false, "pillarId": "pillar/arts", "pillarName": "Arts"}, {"id": "lifeandstyle/2014/may/14/recycling-saving-energy-reducing-waste-how-is-it-going-for-you", "type": "liveblog", "sectionId": "lifeandstyle", "sectionName": "Life and style", "webPublicationDate": "2014-05-27T13:22:26Z", "webTitle": "Recycling, saving energy, reducing waste: how is it going for you?", "webUrl": "https://www.theguardian.com/lifeandstyle/2014/may/14/recycling-saving-energy-reducing-waste-how-is-it-going-for-you", "apiUrl": "https://content.guardianapis.com/lifeandstyle/2014/may/14/recycling-saving-energy-reducing-waste-how-is-it-going-for-you", "isHosted": false, "pillarId": "pillar/lifestyle", "pillarName": "Lifestyle"}, {"id": "global-development-professionals-network/2014/may/27/gm-crops-food-security-calestous-juma-africa", "type": "article", "sectionId": "global-development-professionals-network", "sectionName": "Global Development Professionals Network", "webPublicationDate": "2014-05-27T12:21:00Z", "webTitle": "Feeding Africa: why biotechnology sceptics are wrong to dismiss GM", "webUrl": "https://www.theguardian.com/global-development-professionals-network/2014/may/27/gm-crops-food-security-calestous-juma-africa", "apiUrl": "https://content.guardianapis.com/global-development-professionals-network/2014/may/27/gm-crops-food-security-calestous-juma-africa", "isHosted": false, "pillarId": "pillar/news", "pillarName": "News"}, {"id": "environment/chinas-choice/2014/may/27/china-scrap-millions-cars-reduce-air-pollution", "type": "article", "sectionId": "environment", "sectionName": "Environment", "webPublicationDate": "2014-05-27T11:08:01Z", "webTitle": "China to scrap millions of cars  to ease pollution| Jennifer Duggan", "webUrl": "https://www.theguardian.com/environment/chinas-choice/2014/may/27/china-scrap-millions-cars-reduce-air-pollution", "apiUrl": "https://content.guardianapis.com/environment/chinas-choice/2014/may/27/china-scrap-millions-cars-reduce-air-pollution", "isHosted": false, "pillarId": "pillar/news", "pillarName": "News"}, {"id": "lifeandstyle/2014/may/27/reuse-recognised-old-ideal-making-big-time-national-waste-strategy", "type": "article", "sectionId": "lifeandstyle", "sectionName": "Life and style", "webPublicationDate": "2014-05-27T09:07:59Z", "webTitle": "Reuse recognised: how an old ideal is finally making it to the big time", "webUrl": "https://www.theguardian.com/lifeandstyle/2014/may/27/reuse-recognised-old-ideal-making-big-time-national-waste-strategy", "apiUrl": "https://content.guardianapis.com/lifeandstyle/2014/may/27/reuse-recognised-old-ideal-making-big-time-national-waste-strategy", "isHosted": false, "pillarId": "pillar/lifestyle", "pillarName": "Lifestyle"}, {"id": "lifeandstyle/video/2014/may/27/out-of-the-dark-restoring-furniture-direction-troubled-teenagers-video", "type": "video", "sectionId": "lifeandstyle", "sectionName": "Life and style", "webPublicationDate": "2014-05-27T08:00:00Z", "webTitle": "Out of the Dark: restoring furniture and direction to troubled teenagers - video", "webUrl": "https://www.theguardian.com/lifeandstyle/video/2014/may/27/out-of-the-dark-restoring-furniture-direction-troubled-teenagers-video", "apiUrl": "https://content.guardianapis.com/lifeandstyle/video/2014/may/27/out-of-the-dark-restoring-furniture-direction-troubled-teenagers-video", "isHosted": false, "pillarId": "pillar/lifestyle", "pillarName": "Lifestyle"}]}}