{"response": {"status": "ok", "userTier": "developer", "total": 20181, "startIndex": 1, "pageSize": 50, "currentPage": 1, "pages": 404, "orderBy": "newest", "results": [{"id": "lifeandstyle/2014/may/30/lyles-london-restaurant-review-marina-oloughlin", "type": "article", "sectionId": "lifeandstyle", "sectionName": "Life and style", "webPublicationDate": "2014-05-30T21:00:00Z", "webTitle": "Lyle's, London - restaurant review", "webUrl": "https://www.theguardian.com/lifeandstyle/2014/may/30/lyles-london-restaurant-review-marina-oloughlin", "apiUrl": "https://content.guardianapis.com/lifeandstyle/2014/may/30/lyles-london-restaurant-review-marina-oloughlin", "isHosted": false, "pillarId": "pillar/lifestyle", "pillarName": "Lifestyle"}, {"id": "business/2014/may/30/asda-to-use-underground-storage-for-apples", "type": "article", "sectionId": "business", "sectionName": "Business", "webPublicationDate": "2014-05-30T19:55:56Z", "webTitle": "Asda looks underground for electricity-saving apple storage", "webUrl": "https://www.theguardian.com/business/2014/may/30/asda-to-use-underground-storage-for-apples", "apiUrl": "https://content.guardianapis.com/business/2014/may/30/asda-to-use-underground-storage-for-apples", "isHosted": false, "pillarId": "pillar/news", "pillarName": "News"}, {"id": "travel/2014/may/30/portland-oregon-street-food-scene", "type": "article", "sectionId": "travel", "sectionName": "Travel", "webPublicationDate": "2014-05-30T15:48:00Z", "webTitle": "Portland \u00e0 la cart: the city's brilliant street food scene", "webUrl": "https://www.theguardian.com/travel/2014/may/30/portland-oregon-street-food-scene", "apiUrl": "https://content.guardianapis.com/travel/2014/may/30/portland-oregon-street-food-scene", "isHosted": false, "pillarId": "pillar/lifestyle", "pillarName": "Lifestyle"}, {"id": "lifeandstyle/2014/may/30/my-week-on-soylent-i-was-irritable-grumpy-general-pain-in-the-arse", "type": "article", "sectionId": "food", "sectionName": "Food", "webPublicationDate": "2014-05-30T15:47:47Z", "webTitle": "My week on Soylent: 'I was irritable, grumpy and a general pain in the arse'", "webUrl": "https://www.theguardian.com/lifeandstyle/2014/may/30/my-week-on-soylent-i-was-irritable-grumpy-general-pain-in-the-arse", "apiUrl": "https://content.guardianapis.com/lifeandstyle/2014/may/30/my-week-on-soylent-i-was-irritable-grumpy-general-pain-in-the-arse", "isHosted": false, "pillarId": "pillar/lifestyle", "pillarName": "Lifestyle"}, {"id": "world/video/2014/may/30/how-i-survived-on-soylent-video", "type": "video", "sectionId": "food", "sectionName": "Food", "webPublicationDate": "2014-05-30T14:47:00Z", "webTitle": "How I survived on Soylent for a week \u2013\u00a0video", "webUrl": "https://www.theguardian.com/world/video/2014/may/30/how-i-survived-on-soylent-video", "apiUrl": "https://content.guardianapis.com/world/video/2014/may/30/how-i-survived-on-soylent-video", "isHosted": false, "pillarId": "pillar/lifestyle", "pillarName": "Lifestyle"}, {"id": "travel/2014/may/30/top-10-food-trucks-portland-oregon", "type": "article", "sectionId": "travel", "sectionName": "Travel", "webPublicationDate": "2014-05-30T13:23:00Z", "webTitle": "Top 10 food trucks in Portland, Oregon", "webUrl": "https://www.theguardian.com/travel/2014/may/30/top-10-food-trucks-portland-oregon", "apiUrl": "https://content.guardianapis.com/travel/2014/may/30/top-10-food-trucks-portland-oregon", "isHosted": false, "pillarId": "pillar/lifestyle", "pillarName": "Lifestyle"}, {"id": "commentisfree/emma-brockes-column/2014/may/30/science-comfort-food-research-happiness", "type": "article", "sectionId": "commentisfree", "sectionName": "Opinion", "webPublicationDate": "2014-05-30T12:09:55Z", "webTitle": "Science says there's no such thing as 'comfort food'. We all beg to differ | Emma Brockes", "webUrl": "https://www.theguardian.com/commentisfree/emma-brockes-column/2014/may/30/science-comfort-food-research-happiness", "apiUrl": "https://content.guardianapis.com/commentisfree/emma-brockes-column/2014/may/30/science-comfort-food-research-happiness", "isHosted": false, "pillarId": "pillar/opinion", "pillarName": "Opinion"}, {"id": "lifeandstyle/2014/may/30/how-to-make-elderflower-jelly-recipe", "type": "article", "sectionId": "lifeandstyle", "sectionName": "Life and style", "webPublicationDate": "2014-05-30T11:19:00Z", "webTitle": "How to make elderflower jelly \u2013 recipe", "webUrl": "https://www.theguardian.com/lifeandstyle/2014/may/30/how-to-make-elderflower-jelly-recipe", "apiUrl": "https://content.guardianapis.com/lifeandstyle/2014/may/30/how-to-make-elderflower-jelly-recipe", "isHosted": false, "pillarId": "pillar/lifestyle", "pillarName": "Lifestyle"}, {"id": "lifeandstyle/2014/may/30/henry-dimbleby-spaghetti-bolognese-recipe", "type": "article", "sectionId": "lifeandstyle", "sectionName": "Life and style", "webPublicationDate": "2014-05-30T11:00:00Z", "webTitle": "Rebellious recipes for bolognese | Back to basics", "webUrl": "https://www.theguardian.com/lifeandstyle/2014/may/30/henry-dimbleby-spaghetti-bolognese-recipe", "apiUrl": "https://content.guardianapis.com/lifeandstyle/2014/may/30/henry-dimbleby-spaghetti-bolognese-recipe", "isHosted": false, "pillarId": "pillar/lifestyle", "pillarName": "Lifestyle"}, {"id": "lifeandstyle/2014/may/30/polpo-owner-russell-norman-last-meal", "type": "article", "sectionId": "lifeandstyle", "sectionName": "Life and style", "webPublicationDate": "2014-05-30T11:00:00Z", "webTitle": "Time flies: Russell Norman's final meal | Last bites", "webUrl": "https://www.theguardian.com/lifeandstyle/2014/may/30/polpo-owner-russell-norman-last-meal", "apiUrl": "https://content.guardianapis.com/lifeandstyle/2014/may/30/polpo-owner-russell-norman-last-meal", "isHosted": false, "pillarId": "pillar/lifestyle", "pillarName": "Lifestyle"}, {"id": "world/2014/may/30/north-korea-mushroom-sports-drink", "type": "article", "sectionId": "world", "sectionName": "World news", "webPublicationDate": "2014-05-30T10:40:09Z", "webTitle": "North Korea unveils new mushroom sports drink", "webUrl": "https://www.theguardian.com/world/2014/may/30/north-korea-mushroom-sports-drink", "apiUrl": "https://content.guardianapis.com/world/2014/may/30/north-korea-mushroom-sports-drink", "isHosted": false, "pillarId": "pillar/news", "pillarName": "News"}, {"id": "commentisfree/2014/may/30/diets-fat-real-food-obesity", "type": "article", "sectionId": "commentisfree", "sectionName": "Opinion", "webPublicationDate": "2014-05-30T09:00:01Z", "webTitle": "Diets make us fat. The solution is simple | Zoe Harcombe", "webUrl": "https://www.theguardian.com/commentisfree/2014/may/30/diets-fat-real-food-obesity", "apiUrl": "https://content.guardianapis.com/commentisfree/2014/may/30/diets-fat-real-food-obesity", "isHosted": false, "pillarId": "pillar/opinion", "pillarName": "Opinion"}, {"id": "music/2014/may/29/gwar-fundraising-gourmet-junk-food-restaurant-gwarbar", "type": "article", "sectionId": "music", "sectionName": "Music", "webPublicationDate": "2014-05-29T12:40:08Z", "webTitle": "GWAR launch appeal to build 'gourmet junk food' restaurant", "webUrl": "https://www.theguardian.com/music/2014/may/29/gwar-fundraising-gourmet-junk-food-restaurant-gwarbar", "apiUrl": "https://content.guardianapis.com/music/2014/may/29/gwar-fundraising-gourmet-junk-food-restaurant-gwarbar", "isHosted": false, "pillarId": "pillar/arts", "pillarName": "Arts"}, {"id": "lifeandstyle/2014/may/29/favelas-restaurants-rio-de-janeiro", "type": "article", "sectionId": "food", "sectionName": "Food", "webPublicationDate": "2014-05-29T09:49:31Z", "webTitle": "Rio's hottest place to eat \u2013 the favelas", "webUrl": "https://www.theguardian.com/lifeandstyle/2014/may/29/favelas-restaurants-rio-de-janeiro", "apiUrl": "https://content.guardianapis.com/lifeandstyle/2014/may/29/favelas-restaurants-rio-de-janeiro", "isHosted": false, "pillarId": "pillar/lifestyle", "pillarName": "Lifestyle"}, {"id": "politics/video/2014/may/29/nick-clegg-bacon-sandwich-video", "type": "video", "sectionId": "politics", "sectionName": "Politics", "webPublicationDate": "2014-05-29T09:45:00Z", "webTitle": "Nick Clegg takes the Miliband test: eating a bacon sandwich live on LBC \u2013 video", "webUrl": "https://www.theguardian.com/politics/video/2014/may/29/nick-clegg-bacon-sandwich-video", "apiUrl": "https://content.guardianapis.com/politics/video/2014/may/29/nick-clegg-bacon-sandwich-video", "isHosted": false, "pillarId": "pillar/news", "pillarName": "News"}, {"id": "environment/2014/may/29/fallen-tomatoes-bag-waitrose", "type": "article", "sectionId": "environment", "sectionName": "Environment", "webPublicationDate": "2014-05-29T09:43:00Z", "webTitle": "Fancy fallen tomatoes? Coming in a bag in a supermarket near you", "webUrl": "https://www.theguardian.com/environment/2014/may/29/fallen-tomatoes-bag-waitrose", "apiUrl": "https://content.guardianapis.com/environment/2014/may/29/fallen-tomatoes-bag-waitrose", "isHosted": false, "pillarId": "pillar/news", "pillarName": "News"}, {"id": "lifeandstyle/video/2014/may/29/foraging-cornwall-thom-hunt-seventh-rise-video", "type": "video", "sectionId": "lifeandstyle", "sectionName": "Life and style", "webPublicationDate": "2014-05-29T08:20:00Z", "webTitle": "How to forage a wild Cornish feast \u2013 video", "webUrl": "https://www.theguardian.com/lifeandstyle/video/2014/may/29/foraging-cornwall-thom-hunt-seventh-rise-video", "apiUrl": "https://content.guardianapis.com/lifeandstyle/video/2014/may/29/foraging-cornwall-thom-hunt-seventh-rise-video", "isHosted": false, "pillarId": "pillar/lifestyle", "pillarName": "Lifestyle"}, {"id": "lifeandstyle/australia-food-blog/2014/may/29/cooking-with-beer-ale-and-hearty-ideas", "type": "article", "sectionId": "lifeandstyle", "sectionName": "Life and style", "webPublicationDate": "2014-05-29T04:40:44Z", "webTitle": "Cooking with beer: ale and hearty ideas", "webUrl": "https://www.theguardian.com/lifeandstyle/australia-food-blog/2014/may/29/cooking-with-beer-ale-and-hearty-ideas", "apiUrl": "https://content.guardianapis.com/lifeandstyle/australia-food-blog/2014/may/29/cooking-with-beer-ale-and-hearty-ideas", "isHosted": false, "pillarId": "pillar/lifestyle", "pillarName": "Lifestyle"}, {"id": "lifeandstyle/wordofmouth/2014/may/28/how-to-make-the-perfect-wiener-schnitzel", "type": "article", "sectionId": "food", "sectionName": "Food", "webPublicationDate": "2014-05-28T13:39:13Z", "webTitle": "How to make the perfect wiener schnitzel", "webUrl": "https://www.theguardian.com/lifeandstyle/wordofmouth/2014/may/28/how-to-make-the-perfect-wiener-schnitzel", "apiUrl": "https://content.guardianapis.com/lifeandstyle/wordofmouth/2014/may/28/how-to-make-the-perfect-wiener-schnitzel", "isHosted": false, "pillarId": "pillar/lifestyle", "pillarName": "Lifestyle"}, {"id": "lifeandstyle/2014/may/28/jack-monroe-sardines-tomatoes-sourdough-recipe", "type": "article", "sectionId": "lifeandstyle", "sectionName": "Life and style", "webPublicationDate": "2014-05-28T12:56:00Z", "webTitle": "Jack Monroe's oven roasted sardines with tomatoes on sourdough recipe", "webUrl": "https://www.theguardian.com/lifeandstyle/2014/may/28/jack-monroe-sardines-tomatoes-sourdough-recipe", "apiUrl": "https://content.guardianapis.com/lifeandstyle/2014/may/28/jack-monroe-sardines-tomatoes-sourdough-recipe", "isHosted": false, "pillarId": "pillar/lifestyle", "pillarName": "Lifestyle"}, {"id": "lifeandstyle/2014/may/27/23-recipes-for-leftover-wine", "type": "article", "sectionId": "lifeandstyle", "sectionName": "Life and style", "webPublicationDate": "2014-05-27T13:38:51Z", "webTitle": "23 recipes for leftover wine", "webUrl": "https://www.theguardian.com/lifeandstyle/2014/may/27/23-recipes-for-leftover-wine", "apiUrl": "https://content.guardianapis.com/lifeandstyle/2014/may/27/23-recipes-for-leftover-wine", "isHosted": false, "pillarId": "pillar/lifestyle", "pillarName": "Lifestyle"}, {"id": "lifeandstyle/wordofmouth/2014/may/27/egg-white-craze-no-yolk", "type": "article", "sectionId": "food", "sectionName": "Food", "webPublicationDate": "2014-05-27T09:00:00Z", "webTitle": "The egg-white craze: it's no yolk", "webUrl": "https://www.theguardian.com/lifeandstyle/wordofmouth/2014/may/27/egg-white-craze-no-yolk", "apiUrl": "https://content.guardianapis.com/lifeandstyle/wordofmouth/2014/may/27/egg-white-craze-no-yolk", "isHosted": false, "pillarId": "pillar/lifestyle", "pillarName": "Lifestyle"}, {"id": "environment/2014/may/26/bartlett-australian-uk-roots-fruit-business", "type": "article", "sectionId": "environment", "sectionName": "Environment", "webPublicationDate": "2014-05-26T20:00:02Z", "webTitle": "Country diary: Galhampton, Somerset: Bartlett family's Australian branch pay homage to UK roots of fruit business", "webUrl": "https://www.theguardian.com/environment/2014/may/26/bartlett-australian-uk-roots-fruit-business", "apiUrl": "https://content.guardianapis.com/environment/2014/may/26/bartlett-australian-uk-roots-fruit-business", "isHosted": false, "pillarId": "pillar/news", "pillarName": "News"}, {"id": "lifeandstyle/2014/may/26/stronger-wine-spirits-alcohol", "type": "article", "sectionId": "food", "sectionName": "Food", "webPublicationDate": "2014-05-26T16:13:28Z", "webTitle": "Wine and spirits getting stronger amid drive to cut alcohol consumption", "webUrl": "https://www.theguardian.com/lifeandstyle/2014/may/26/stronger-wine-spirits-alcohol", "apiUrl": "https://content.guardianapis.com/lifeandstyle/2014/may/26/stronger-wine-spirits-alcohol", "isHosted": false, "pillarId": "pillar/lifestyle", "pillarName": "Lifestyle"}, {"id": "lifeandstyle/2014/may/26/classic-seaside-cafes-neon-nougat-knickerbocker-glories", "type": "article", "sectionId": "food", "sectionName": "Food", "webPublicationDate": "2014-05-26T05:00:00Z", "webTitle": "The wonder of seaside cafes: neon, nougat and knickerbocker glories", "webUrl": "https://www.theguardian.com/lifeandstyle/2014/may/26/classic-seaside-cafes-neon-nougat-knickerbocker-glories", "apiUrl": "https://content.guardianapis.com/lifeandstyle/2014/may/26/classic-seaside-cafes-neon-nougat-knickerbocker-glories", "isHosted": false, "pillarId": "pillar/lifestyle", "pillarName": "Lifestyle"}, {"id": "commentisfree/2014/may/25/urban-garden-fad-propaganda", "type": "article", "sectionId": "commentisfree", "sectionName": "Opinion", "webPublicationDate": "2014-05-25T11:00:06Z", "webTitle": "Don't listen to the propagandists behind the urban gardening fad. It's all lies | Elizabeth Gunnison Dunn", "webUrl": "https://www.theguardian.com/commentisfree/2014/may/25/urban-garden-fad-propaganda", "apiUrl": "https://content.guardianapis.com/commentisfree/2014/may/25/urban-garden-fad-propaganda", "isHosted": false, "pillarId": "pillar/opinion", "pillarName": "Opinion"}, {"id": "lifeandstyle/2014/may/25/bonnie-gull-seafood-cafe-restaurant-review", "type": "article", "sectionId": "food", "sectionName": "Food", "webPublicationDate": "2014-05-25T06:30:06Z", "webTitle": "Bonnie Gull Seafood Caf\u00e9: restaurant review", "webUrl": "https://www.theguardian.com/lifeandstyle/2014/may/25/bonnie-gull-seafood-cafe-restaurant-review", "apiUrl": "https://content.guardianapis.com/lifeandstyle/2014/may/25/bonnie-gull-seafood-cafe-restaurant-review", "isHosted": false, "pillarId": "pillar/lifestyle", "pillarName": "Lifestyle"}, {"id": "business/2014/may/25/chicken-to-beat-killer-heatwaves", "type": "article", "sectionId": "business", "sectionName": "Business", "webPublicationDate": "2014-05-24T23:05:42Z", "webTitle": "Wanted: a breed of chicken that can survive crippling heatwaves", "webUrl": "https://www.theguardian.com/business/2014/may/25/chicken-to-beat-killer-heatwaves", "apiUrl": "https://content.guardianapis.com/business/2014/may/25/chicken-to-beat-killer-heatwaves", "isHosted": false, "pillarId": "pillar/news", "pillarName": "News"}, {"id": "lifeandstyle/2014/may/24/holy-guacamole-how-became-born-again-foodie", "type": "article", "sectionId": "food", "sectionName": "Food", "webPublicationDate": "2014-05-24T12:00:01Z", "webTitle": "Holy guacamole: how Joshua Ferris became a born-again foodie", "webUrl": "https://www.theguardian.com/lifeandstyle/2014/may/24/holy-guacamole-how-became-born-again-foodie", "apiUrl": "https://content.guardianapis.com/lifeandstyle/2014/may/24/holy-guacamole-how-became-born-again-foodie", "isHosted": false, "pillarId": "pillar/lifestyle", "pillarName": "Lifestyle"}, {"id": "lifeandstyle/2014/may/24/waitrose-wines-world-cup-david-williams", "type": "article", "sectionId": "food", "sectionName": "Food", "webPublicationDate": "2014-05-24T12:00:00Z", "webTitle": "Waitrose wines score for the World Cup | David Williams", "webUrl": "https://www.theguardian.com/lifeandstyle/2014/may/24/waitrose-wines-world-cup-david-williams", "apiUrl": "https://content.guardianapis.com/lifeandstyle/2014/may/24/waitrose-wines-world-cup-david-williams", "isHosted": false, "pillarId": "pillar/lifestyle", "pillarName": "Lifestyle"}, {"id": "lifeandstyle/2014/may/24/english-wine-week", "type": "article", "sectionId": "food", "sectionName": "Food", "webPublicationDate": "2014-05-24T08:00:34Z", "webTitle": "Wine: English wine week", "webUrl": "https://www.theguardian.com/lifeandstyle/2014/may/24/english-wine-week", "apiUrl": "https://content.guardianapis.com/lifeandstyle/2014/may/24/english-wine-week", "isHosted": false, "pillarId": "pillar/lifestyle", "pillarName": "Lifestyle"}, {"id": "lifeandstyle/2014/may/24/born-during-curfew-see-moon-chicken-pie", "type": "article", "sectionId": "lifeandstyle", "sectionName": "Life and style", "webPublicationDate": "2014-05-24T06:29:00Z", "webTitle": "Family life: Born during a curfew, I See the Moon and chicken pie", "webUrl": "https://www.theguardian.com/lifeandstyle/2014/may/24/born-during-curfew-see-moon-chicken-pie", "apiUrl": "https://content.guardianapis.com/lifeandstyle/2014/may/24/born-during-curfew-see-moon-chicken-pie", "isHosted": false, "pillarId": "pillar/lifestyle", "pillarName": "Lifestyle"}, {"id": "lifeandstyle/2014/may/24/bristol-sikh-langar-service-get-togethers", "type": "article", "sectionId": "lifeandstyle", "sectionName": "Life and style", "webPublicationDate": "2014-05-24T06:00:00Z", "webTitle": "Breaking down barriers: a Sikh langar gathering | Get-togethers", "webUrl": "https://www.theguardian.com/lifeandstyle/2014/may/24/bristol-sikh-langar-service-get-togethers", "apiUrl": "https://content.guardianapis.com/lifeandstyle/2014/may/24/bristol-sikh-langar-service-get-togethers", "isHosted": false, "pillarId": "pillar/lifestyle", "pillarName": "Lifestyle"}, {"id": "lifeandstyle/2014/may/24/book-review-eating-with-the-chefs-by-per-anders-jorgensen", "type": "article", "sectionId": "lifeandstyle", "sectionName": "Life and style", "webPublicationDate": "2014-05-24T06:00:00Z", "webTitle": "Per-Anders Jorgensen, Eating with the Chefs | Cookworm", "webUrl": "https://www.theguardian.com/lifeandstyle/2014/may/24/book-review-eating-with-the-chefs-by-per-anders-jorgensen", "apiUrl": "https://content.guardianapis.com/lifeandstyle/2014/may/24/book-review-eating-with-the-chefs-by-per-anders-jorgensen", "isHosted": false, "pillarId": "pillar/lifestyle", "pillarName": "Lifestyle"}, {"id": "lifeandstyle/2014/may/24/sesame-seed-pretzels-biscuits-recipes-ruby-tandoh", "type": "article", "sectionId": "lifeandstyle", "sectionName": "Life and style", "webPublicationDate": "2014-05-24T06:00:00Z", "webTitle": "Sesame recipes that are streets ahead | Ruby Tandoh", "webUrl": "https://www.theguardian.com/lifeandstyle/2014/may/24/sesame-seed-pretzels-biscuits-recipes-ruby-tandoh", "apiUrl": "https://content.guardianapis.com/lifeandstyle/2014/may/24/sesame-seed-pretzels-biscuits-recipes-ruby-tandoh", "isHosted": false, "pillarId": "pillar/lifestyle", "pillarName": "Lifestyle"}, {"id": "travel/2014/may/24/malaga-andalucia-spain-food-restaurants-tapas", "type": "article", "sectionId": "travel", "sectionName": "Travel", "webPublicationDate": "2014-05-24T06:00:00Z", "webTitle": "The emerging fine food scene in M\u00e1laga and around", "webUrl": "https://www.theguardian.com/travel/2014/may/24/malaga-andalucia-spain-food-restaurants-tapas", "apiUrl": "https://content.guardianapis.com/travel/2014/may/24/malaga-andalucia-spain-food-restaurants-tapas", "isHosted": false, "pillarId": "pillar/lifestyle", "pillarName": "Lifestyle"}, {"id": "lifeandstyle/2014/may/24/how-to-grow-courgettes-phil-daoust", "type": "article", "sectionId": "food", "sectionName": "Food", "webPublicationDate": "2014-05-24T06:00:00Z", "webTitle": "How to grow courgettes | Grow your own", "webUrl": "https://www.theguardian.com/lifeandstyle/2014/may/24/how-to-grow-courgettes-phil-daoust", "apiUrl": "https://content.guardianapis.com/lifeandstyle/2014/may/24/how-to-grow-courgettes-phil-daoust", "isHosted": false, "pillarId": "pillar/lifestyle", "pillarName": "Lifestyle"}, {"id": "lifeandstyle/2014/may/24/walter-rose-butcher-steve-cook-devizes-wiltshire", "type": "article", "sectionId": "lifeandstyle", "sectionName": "Life and style", "webPublicationDate": "2014-05-24T06:00:00Z", "webTitle": "Behind the scenes with quality butcher Walter Rose & Son | Behind the scenes", "webUrl": "https://www.theguardian.com/lifeandstyle/2014/may/24/walter-rose-butcher-steve-cook-devizes-wiltshire", "apiUrl": "https://content.guardianapis.com/lifeandstyle/2014/may/24/walter-rose-butcher-steve-cook-devizes-wiltshire", "isHosted": false, "pillarId": "pillar/lifestyle", "pillarName": "Lifestyle"}, {"id": "lifeandstyle/2014/may/24/skewer-kebab-kofta-jerk-recipe-swap-felicity-cloake", "type": "article", "sectionId": "lifeandstyle", "sectionName": "Life and style", "webPublicationDate": "2014-05-24T05:59:00Z", "webTitle": "Readers' recipe swap: skewered | Felicity Cloake", "webUrl": "https://www.theguardian.com/lifeandstyle/2014/may/24/skewer-kebab-kofta-jerk-recipe-swap-felicity-cloake", "apiUrl": "https://content.guardianapis.com/lifeandstyle/2014/may/24/skewer-kebab-kofta-jerk-recipe-swap-felicity-cloake", "isHosted": false, "pillarId": "pillar/lifestyle", "pillarName": "Lifestyle"}, {"id": "lifeandstyle/2014/may/24/10-best-beetroot-recipes", "type": "article", "sectionId": "lifeandstyle", "sectionName": "Life and style", "webPublicationDate": "2014-05-24T05:59:00Z", "webTitle": "Our 10 best beetroot recipes", "webUrl": "https://www.theguardian.com/lifeandstyle/2014/may/24/10-best-beetroot-recipes", "apiUrl": "https://content.guardianapis.com/lifeandstyle/2014/may/24/10-best-beetroot-recipes", "isHosted": false, "pillarId": "pillar/lifestyle", "pillarName": "Lifestyle"}, {"id": "lifeandstyle/2014/may/23/barnyard-london-w1-restauarant-review", "type": "article", "sectionId": "lifeandstyle", "sectionName": "Life and style", "webPublicationDate": "2014-05-23T21:00:00Z", "webTitle": "Barnyard, London W1 \u2013 restaurant review | Marina O'Loughlin", "webUrl": "https://www.theguardian.com/lifeandstyle/2014/may/23/barnyard-london-w1-restauarant-review", "apiUrl": "https://content.guardianapis.com/lifeandstyle/2014/may/23/barnyard-london-w1-restauarant-review", "isHosted": false, "pillarId": "pillar/lifestyle", "pillarName": "Lifestyle"}, {"id": "lifeandstyle/2014/may/23/summer-salad-recipes-jason-atherton", "type": "article", "sectionId": "food", "sectionName": "Food", "webPublicationDate": "2014-05-23T20:00:00Z", "webTitle": "Turn over a new leaf: Jason Atherton's summer salad recipes", "webUrl": "https://www.theguardian.com/lifeandstyle/2014/may/23/summer-salad-recipes-jason-atherton", "apiUrl": "https://content.guardianapis.com/lifeandstyle/2014/may/23/summer-salad-recipes-jason-atherton", "isHosted": false, "pillarId": "pillar/lifestyle", "pillarName": "Lifestyle"}, {"id": "stage/quiz/2014/may/23/comedy-quiz-match-gags-with-comedians-responsible", "type": "article", "sectionId": "global", "sectionName": "Global", "webPublicationDate": "2014-05-23T12:24:18Z", "webTitle": "Quiz: Match the gag to the comedian", "webUrl": "https://www.theguardian.com/stage/quiz/2014/may/23/comedy-quiz-match-gags-with-comedians-responsible", "apiUrl": "https://content.guardianapis.com/stage/quiz/2014/may/23/comedy-quiz-match-gags-with-comedians-responsible", "isHosted": false}, {"id": "lifeandstyle/wordofmouth/2014/may/23/unfiltered-beer-cloudy-pint-unfined-london-murky", "type": "article", "sectionId": "food", "sectionName": "Food", "webPublicationDate": "2014-05-23T11:53:16Z", "webTitle": "Unfiltered beer: would you drink a cloudy pint?", "webUrl": "https://www.theguardian.com/lifeandstyle/wordofmouth/2014/may/23/unfiltered-beer-cloudy-pint-unfined-london-murky", "apiUrl": "https://content.guardianapis.com/lifeandstyle/wordofmouth/2014/may/23/unfiltered-beer-cloudy-pint-unfined-london-murky", "isHosted": false, "pillarId": "pillar/lifestyle", "pillarName": "Lifestyle"}, {"id": "lifeandstyle/2014/may/23/birthday-cake-recipe-henry-dimbleby", "type": "article", "sectionId": "lifeandstyle", "sectionName": "Life and style", "webPublicationDate": "2014-05-23T11:30:00Z", "webTitle": "My favourite birthday cake recipe | Back to basics", "webUrl": "https://www.theguardian.com/lifeandstyle/2014/may/23/birthday-cake-recipe-henry-dimbleby", "apiUrl": "https://content.guardianapis.com/lifeandstyle/2014/may/23/birthday-cake-recipe-henry-dimbleby", "isHosted": false, "pillarId": "pillar/lifestyle", "pillarName": "Lifestyle"}, {"id": "lifeandstyle/2014/may/23/last-bites-chef-mitch-tonks-final-meal-egg-truffle-recipe", "type": "article", "sectionId": "lifeandstyle", "sectionName": "Life and style", "webPublicationDate": "2014-05-23T11:30:00Z", "webTitle": "Fry hard: Mitch Tonks' final meal | Last bites", "webUrl": "https://www.theguardian.com/lifeandstyle/2014/may/23/last-bites-chef-mitch-tonks-final-meal-egg-truffle-recipe", "apiUrl": "https://content.guardianapis.com/lifeandstyle/2014/may/23/last-bites-chef-mitch-tonks-final-meal-egg-truffle-recipe", "isHosted": false, "pillarId": "pillar/lifestyle", "pillarName": "Lifestyle"}, {"id": "lifeandstyle/2014/may/23/dairy-free-gluten-free-egg-free-chicken-kiev-recipe-susanna-booth", "type": "article", "sectionId": "lifeandstyle", "sectionName": "Life and style", "webPublicationDate": "2014-05-23T11:30:00Z", "webTitle": "Gluten-free, dairy-free, egg-\u00a0free chicken kiev recipe | Just as tasty", "webUrl": "https://www.theguardian.com/lifeandstyle/2014/may/23/dairy-free-gluten-free-egg-free-chicken-kiev-recipe-susanna-booth", "apiUrl": "https://content.guardianapis.com/lifeandstyle/2014/may/23/dairy-free-gluten-free-egg-free-chicken-kiev-recipe-susanna-booth", "isHosted": false, "pillarId": "pillar/lifestyle", "pillarName": "Lifestyle"}, {"id": "lifeandstyle/2014/may/23/vertical-veg-man-how-to-grow-tomatoes-successfully", "type": "article", "sectionId": "lifeandstyle", "sectionName": "Life and style", "webPublicationDate": "2014-05-23T10:00:12Z", "webTitle": "Vertical veg man: how to grow tomatoes successfully", "webUrl": "https://www.theguardian.com/lifeandstyle/2014/may/23/vertical-veg-man-how-to-grow-tomatoes-successfully", "apiUrl": "https://content.guardianapis.com/lifeandstyle/2014/may/23/vertical-veg-man-how-to-grow-tomatoes-successfully", "isHosted": false, "pillarId": "pillar/lifestyle", "pillarName": "Lifestyle"}, {"id": "lifeandstyle/2014/may/23/how-to-make-rose-pomegranate-biscuits-recipes", "type": "article", "sectionId": "lifeandstyle", "sectionName": "Life and style", "webPublicationDate": "2014-05-23T07:00:00Z", "webTitle": "How to make rose and pomegranate biscuits \u2013 recipe", "webUrl": "https://www.theguardian.com/lifeandstyle/2014/may/23/how-to-make-rose-pomegranate-biscuits-recipes", "apiUrl": "https://content.guardianapis.com/lifeandstyle/2014/may/23/how-to-make-rose-pomegranate-biscuits-recipes", "isHosted": false, "pillarId": "pillar/lifestyle", "pillarName": "Lifestyle"}, {"id": "sustainable-business/food-system-monocultures-gm-un-diversity-day", "type": "article", "sectionId": "sustainable-business", "sectionName": "Guardian Sustainable Business", "webPublicationDate": "2014-05-22T16:21:07Z", "webTitle": "The food system we choose affects biodiversity: do we want monocultures?", "webUrl": "https://www.theguardian.com/sustainable-business/food-system-monocultures-gm-un-diversity-day", "apiUrl": "https://content.guardianapis.com/sustainable-business/food-system-monocultures-gm-un-diversity-day", "isHosted": false}]}}