{"response": {"status": "ok", "userTier": "developer", "total": 131449, "startIndex": 1, "pageSize": 50, "currentPage": 1, "pages": 2629, "orderBy": "newest", "results": [{"id": "uk-news/cartoon/2014/may/31/tristram-hunt-caricature", "type": "picture", "sectionId": "uk-news", "sectionName": "UK news", "webPublicationDate": "2014-05-30T23:40:00Z", "webTitle": "Tristram Hunt by Nicola Jennings", "webUrl": "https://www.theguardian.com/uk-news/cartoon/2014/may/31/tristram-hunt-caricature", "apiUrl": "https://content.guardianapis.com/uk-news/cartoon/2014/may/31/tristram-hunt-caricature", "isHosted": false, "pillarId": "pillar/news", "pillarName": "News"}, {"id": "uk-news/2014/may/31/sajid-javid-chuka-umunna-unite-over-immigration-concerns", "type": "article", "sectionId": "uk-news", "sectionName": "UK news", "webPublicationDate": "2014-05-30T23:35:46Z", "webTitle": "Sajid Javid and Chuka Umunna unite over immigration concerns", "webUrl": "https://www.theguardian.com/uk-news/2014/may/31/sajid-javid-chuka-umunna-unite-over-immigration-concerns", "apiUrl": "https://content.guardianapis.com/uk-news/2014/may/31/sajid-javid-chuka-umunna-unite-over-immigration-concerns", "isHosted": false, "pillarId": "pillar/news", "pillarName": "News"}, {"id": "commentisfree/cartoon/2014/may/31/martin-rowson-cartoon-lord-rennard-liberal-democrats-nick-clegg", "type": "picture", "sectionId": "commentisfree", "sectionName": "Opinion", "webPublicationDate": "2014-05-30T23:07:00Z", "webTitle": "Martin Rowson on Lord Rennard - cartoon", "webUrl": "https://www.theguardian.com/commentisfree/cartoon/2014/may/31/martin-rowson-cartoon-lord-rennard-liberal-democrats-nick-clegg", "apiUrl": "https://content.guardianapis.com/commentisfree/cartoon/2014/may/31/martin-rowson-cartoon-lord-rennard-liberal-democrats-nick-clegg", "isHosted": false, "pillarId": "pillar/opinion", "pillarName": "Opinion"}, {"id": "news/datablog/2014/may/31/ukip-voters-least-likely-to-try-food-from-other-countries", "type": "article", "sectionId": "news", "sectionName": "News", "webPublicationDate": "2014-05-30T23:01:02Z", "webTitle": "Ukip voters the least likely to regularly try food from other countries", "webUrl": "https://www.theguardian.com/news/datablog/2014/may/31/ukip-voters-least-likely-to-try-food-from-other-countries", "apiUrl": "https://content.guardianapis.com/news/datablog/2014/may/31/ukip-voters-least-likely-to-try-food-from-other-countries", "isHosted": false, "pillarId": "pillar/news", "pillarName": "News"}, {"id": "world/2014/may/30/bilderberg-copenhagen-2014-osborne-mandelson-balls", "type": "article", "sectionId": "world", "sectionName": "World news", "webPublicationDate": "2014-05-30T22:44:00Z", "webTitle": "Bilderberg conference 2014: eating our politicians for breakfast", "webUrl": "https://www.theguardian.com/world/2014/may/30/bilderberg-copenhagen-2014-osborne-mandelson-balls", "apiUrl": "https://content.guardianapis.com/world/2014/may/30/bilderberg-copenhagen-2014-osborne-mandelson-balls", "isHosted": false, "pillarId": "pillar/news", "pillarName": "News"}, {"id": "commentisfree/2014/may/30/unthinkable-british-isles-writing-english-readers-editorial-curriculum", "type": "article", "sectionId": "commentisfree", "sectionName": "Opinion", "webPublicationDate": "2014-05-30T20:54:55Z", "webTitle": "Unthinkable? British Isles writing for English readers | Editorial", "webUrl": "https://www.theguardian.com/commentisfree/2014/may/30/unthinkable-british-isles-writing-english-readers-editorial-curriculum", "apiUrl": "https://content.guardianapis.com/commentisfree/2014/may/30/unthinkable-british-isles-writing-english-readers-editorial-curriculum", "isHosted": false, "pillarId": "pillar/opinion", "pillarName": "Opinion"}, {"id": "commentisfree/2014/may/30/chilcot-inquiry-known-unknowns-iraq-war-inquiry", "type": "article", "sectionId": "commentisfree", "sectionName": "Opinion", "webPublicationDate": "2014-05-30T20:27:43Z", "webTitle": "The Chilcot inquiry: known unknowns | Editorial", "webUrl": "https://www.theguardian.com/commentisfree/2014/may/30/chilcot-inquiry-known-unknowns-iraq-war-inquiry", "apiUrl": "https://content.guardianapis.com/commentisfree/2014/may/30/chilcot-inquiry-known-unknowns-iraq-war-inquiry", "isHosted": false, "pillarId": "pillar/opinion", "pillarName": "Opinion"}, {"id": "education/2014/may/30/young-people-need-world-books", "type": "article", "sectionId": "education", "sectionName": "Education", "webPublicationDate": "2014-05-30T20:00:03Z", "webTitle": "Young people need a world of books | @guardianletters", "webUrl": "https://www.theguardian.com/education/2014/may/30/young-people-need-world-books", "apiUrl": "https://content.guardianapis.com/education/2014/may/30/young-people-need-world-books", "isHosted": false, "pillarId": "pillar/news", "pillarName": "News"}, {"id": "politics/2014/may/30/six-steps-nick-clegg-must-take-to-stave-off-another-coup", "type": "article", "sectionId": "politics", "sectionName": "Politics", "webPublicationDate": "2014-05-30T19:09:39Z", "webTitle": "Six steps Nick Clegg must take to stave off another coup", "webUrl": "https://www.theguardian.com/politics/2014/may/30/six-steps-nick-clegg-must-take-to-stave-off-another-coup", "apiUrl": "https://content.guardianapis.com/politics/2014/may/30/six-steps-nick-clegg-must-take-to-stave-off-another-coup", "isHosted": false, "pillarId": "pillar/news", "pillarName": "News"}, {"id": "commentisfree/2014/may/30/labour-immigration-ukip-farage", "type": "article", "sectionId": "commentisfree", "sectionName": "Opinion", "webPublicationDate": "2014-05-30T19:07:00Z", "webTitle": "Labour will address immigration, but we won't try to out-Ukip Ukip | Chuka Umunna", "webUrl": "https://www.theguardian.com/commentisfree/2014/may/30/labour-immigration-ukip-farage", "apiUrl": "https://content.guardianapis.com/commentisfree/2014/may/30/labour-immigration-ukip-farage", "isHosted": false, "pillarId": "pillar/opinion", "pillarName": "Opinion"}, {"id": "politics/2014/may/30/scotland-independence-foreign-wealth-finance", "type": "article", "sectionId": "politics", "sectionName": "Politics", "webPublicationDate": "2014-05-30T18:38:45Z", "webTitle": "Scotland independence case 'strengthened by foreign wealth'", "webUrl": "https://www.theguardian.com/politics/2014/may/30/scotland-independence-foreign-wealth-finance", "apiUrl": "https://content.guardianapis.com/politics/2014/may/30/scotland-independence-foreign-wealth-finance", "isHosted": false, "pillarId": "pillar/news", "pillarName": "News"}, {"id": "uk-news/2014/may/30/police-federation-rebuild-trust-chair-steve-white", "type": "article", "sectionId": "uk-news", "sectionName": "UK news", "webPublicationDate": "2014-05-30T18:30:01Z", "webTitle": "Police Federation must rebuild trust, says new chair", "webUrl": "https://www.theguardian.com/uk-news/2014/may/30/police-federation-rebuild-trust-chair-steve-white", "apiUrl": "https://content.guardianapis.com/uk-news/2014/may/30/police-federation-rebuild-trust-chair-steve-white", "isHosted": false, "pillarId": "pillar/news", "pillarName": "News"}, {"id": "commentisfree/2014/may/30/savage-capitalism-back-radical-challenge", "type": "article", "sectionId": "commentisfree", "sectionName": "Opinion", "webPublicationDate": "2014-05-30T18:15:00Z", "webTitle": "Savage capitalism is back \u2013 and it will not tame itself | David Graeber", "webUrl": "https://www.theguardian.com/commentisfree/2014/may/30/savage-capitalism-back-radical-challenge", "apiUrl": "https://content.guardianapis.com/commentisfree/2014/may/30/savage-capitalism-back-radical-challenge", "isHosted": false, "pillarId": "pillar/opinion", "pillarName": "Opinion"}, {"id": "politics/2014/may/30/lib-dems-lord-rennard-return", "type": "article", "sectionId": "politics", "sectionName": "Politics", "webPublicationDate": "2014-05-30T18:13:19Z", "webTitle": "Lib Dem grandees call for Rennard's return to party", "webUrl": "https://www.theguardian.com/politics/2014/may/30/lib-dems-lord-rennard-return", "apiUrl": "https://content.guardianapis.com/politics/2014/may/30/lib-dems-lord-rennard-return", "isHosted": false, "pillarId": "pillar/news", "pillarName": "News"}, {"id": "commentisfree/2014/may/30/lord-rennard-kicked-out-politics", "type": "article", "sectionId": "commentisfree", "sectionName": "Opinion", "webPublicationDate": "2014-05-30T17:45:00Z", "webTitle": "Lord Rennard should be kicked out of politics | Bridget Harris", "webUrl": "https://www.theguardian.com/commentisfree/2014/may/30/lord-rennard-kicked-out-politics", "apiUrl": "https://content.guardianapis.com/commentisfree/2014/may/30/lord-rennard-kicked-out-politics", "isHosted": false, "pillarId": "pillar/opinion", "pillarName": "Opinion"}, {"id": "commentisfree/2014/may/30/scotland-wealthy-independent-scotland-fairer", "type": "article", "sectionId": "commentisfree", "sectionName": "Opinion", "webPublicationDate": "2014-05-30T17:39:00Z", "webTitle": "Scotland is wealthy. An independent Scotland would be fairer | John Swinney", "webUrl": "https://www.theguardian.com/commentisfree/2014/may/30/scotland-wealthy-independent-scotland-fairer", "apiUrl": "https://content.guardianapis.com/commentisfree/2014/may/30/scotland-wealthy-independent-scotland-fairer", "isHosted": false, "pillarId": "pillar/opinion", "pillarName": "Opinion"}, {"id": "politics/2014/may/30/scotland-financial-services-sector-data-analysis", "type": "article", "sectionId": "politics", "sectionName": "Politics", "webPublicationDate": "2014-05-30T17:19:12Z", "webTitle": "Scotland's financial services sector: the data behind our analysis", "webUrl": "https://www.theguardian.com/politics/2014/may/30/scotland-financial-services-sector-data-analysis", "apiUrl": "https://content.guardianapis.com/politics/2014/may/30/scotland-financial-services-sector-data-analysis", "isHosted": false, "pillarId": "pillar/news", "pillarName": "News"}, {"id": "politics/2014/may/30/tories-ukip-newark-by-election-farage-helmer-peoples-army", "type": "article", "sectionId": "politics", "sectionName": "Politics", "webPublicationDate": "2014-05-30T17:14:04Z", "webTitle": "Tories determined to halt Ukip march in Newark byelection", "webUrl": "https://www.theguardian.com/politics/2014/may/30/tories-ukip-newark-by-election-farage-helmer-peoples-army", "apiUrl": "https://content.guardianapis.com/politics/2014/may/30/tories-ukip-newark-by-election-farage-helmer-peoples-army", "isHosted": false, "pillarId": "pillar/news", "pillarName": "News"}, {"id": "uk-news/the-northerner/2014/may/30/turnout-at-the-local-and-european-elections-in-the-north-of-england-in-2014", "type": "article", "sectionId": "uk-news", "sectionName": "UK news", "webPublicationDate": "2014-05-30T16:42:46Z", "webTitle": "Turnout at the local and European elections in the north of England in 2014", "webUrl": "https://www.theguardian.com/uk-news/the-northerner/2014/may/30/turnout-at-the-local-and-european-elections-in-the-north-of-england-in-2014", "apiUrl": "https://content.guardianapis.com/uk-news/the-northerner/2014/may/30/turnout-at-the-local-and-european-elections-in-the-north-of-england-in-2014", "isHosted": false, "pillarId": "pillar/news", "pillarName": "News"}, {"id": "world/2014/may/30/prince-mangosuthu-buthelezi-thatcher-apartheid-south-africa", "type": "article", "sectionId": "world", "sectionName": "World news", "webPublicationDate": "2014-05-30T16:12:47Z", "webTitle": "Prince Mangosuthu Buthelezi: Thatcher did not support apartheid", "webUrl": "https://www.theguardian.com/world/2014/may/30/prince-mangosuthu-buthelezi-thatcher-apartheid-south-africa", "apiUrl": "https://content.guardianapis.com/world/2014/may/30/prince-mangosuthu-buthelezi-thatcher-apartheid-south-africa", "isHosted": false, "pillarId": "pillar/news", "pillarName": "News"}, {"id": "business/2014/may/30/b-and-q-boss-kingfisher-scottish-independence-split-cheshire", "type": "article", "sectionId": "business", "sectionName": "Business", "webPublicationDate": "2014-05-30T15:58:50Z", "webTitle": "Scottish independence: B&Q boss warns over split in event of yes vote", "webUrl": "https://www.theguardian.com/business/2014/may/30/b-and-q-boss-kingfisher-scottish-independence-split-cheshire", "apiUrl": "https://content.guardianapis.com/business/2014/may/30/b-and-q-boss-kingfisher-scottish-independence-split-cheshire", "isHosted": false, "pillarId": "pillar/news", "pillarName": "News"}, {"id": "politics/2014/may/30/david-cameron-still-centre-every-political-storm", "type": "article", "sectionId": "commentisfree", "sectionName": "Opinion", "webPublicationDate": "2014-05-30T15:45:00Z", "webTitle": "How does David Cameron seem to be the still centre of every political storm? | Deborah Orr", "webUrl": "https://www.theguardian.com/politics/2014/may/30/david-cameron-still-centre-every-political-storm", "apiUrl": "https://content.guardianapis.com/politics/2014/may/30/david-cameron-still-centre-every-political-storm", "isHosted": false, "pillarId": "pillar/opinion", "pillarName": "Opinion"}, {"id": "local-government-network/2014/may/30/five-most-surprising-local-election-results", "type": "article", "sectionId": "public-leaders-network", "sectionName": "Public Leaders Network", "webPublicationDate": "2014-05-30T15:35:00Z", "webTitle": "The five most surprising local election results this year", "webUrl": "https://www.theguardian.com/local-government-network/2014/may/30/five-most-surprising-local-election-results", "apiUrl": "https://content.guardianapis.com/local-government-network/2014/may/30/five-most-surprising-local-election-results", "isHosted": false, "pillarId": "pillar/news", "pillarName": "News"}, {"id": "books/2014/may/30/hanif-kureishi-immigrants-debate-fiction-european-elections", "type": "article", "sectionId": "books", "sectionName": "Books", "webPublicationDate": "2014-05-30T15:10:00Z", "webTitle": "Kureishi speaks out on immigration in wake of European elections", "webUrl": "https://www.theguardian.com/books/2014/may/30/hanif-kureishi-immigrants-debate-fiction-european-elections", "apiUrl": "https://content.guardianapis.com/books/2014/may/30/hanif-kureishi-immigrants-debate-fiction-european-elections", "isHosted": false, "pillarId": "pillar/arts", "pillarName": "Arts"}, {"id": "commentisfree/2014/may/30/lutfur-rahman-tower-hamlets-mayor-smear-campaign", "type": "article", "sectionId": "commentisfree", "sectionName": "Opinion", "webPublicationDate": "2014-05-30T14:30:00Z", "webTitle": "The smear campaign against Lutfur Rahman is an insult to democracy | Richard Seymour and Ashok Kumar", "webUrl": "https://www.theguardian.com/commentisfree/2014/may/30/lutfur-rahman-tower-hamlets-mayor-smear-campaign", "apiUrl": "https://content.guardianapis.com/commentisfree/2014/may/30/lutfur-rahman-tower-hamlets-mayor-smear-campaign", "isHosted": false, "pillarId": "pillar/opinion", "pillarName": "Opinion"}, {"id": "politics/2014/may/30/lord-rennard-apology-held-back-elections-carlile-liberal-democrats-nick-clegg", "type": "article", "sectionId": "politics", "sectionName": "Politics", "webPublicationDate": "2014-05-30T14:15:21Z", "webTitle": "Lord Rennard's apology was held back until after elections, says Lord Carlile", "webUrl": "https://www.theguardian.com/politics/2014/may/30/lord-rennard-apology-held-back-elections-carlile-liberal-democrats-nick-clegg", "apiUrl": "https://content.guardianapis.com/politics/2014/may/30/lord-rennard-apology-held-back-elections-carlile-liberal-democrats-nick-clegg", "isHosted": false, "pillarId": "pillar/news", "pillarName": "News"}, {"id": "uk-news/2014/may/30/derry-hotel-bomb-attack-condemned-local-mp", "type": "article", "sectionId": "uk-news", "sectionName": "UK news", "webPublicationDate": "2014-05-30T13:37:00Z", "webTitle": "New IRA allegedly responsible for Derry hotel bomb attack", "webUrl": "https://www.theguardian.com/uk-news/2014/may/30/derry-hotel-bomb-attack-condemned-local-mp", "apiUrl": "https://content.guardianapis.com/uk-news/2014/may/30/derry-hotel-bomb-attack-condemned-local-mp", "isHosted": false, "pillarId": "pillar/news", "pillarName": "News"}, {"id": "politics/2014/may/30/like-ed-balls-at-bilderberg-have-you-ever-been-refused-entry-to-somewhere-important", "type": "article", "sectionId": "politics", "sectionName": "Politics", "webPublicationDate": "2014-05-30T13:11:08Z", "webTitle": "Like Ed Balls at Bilderberg, have you ever been refused entry to somewhere important?", "webUrl": "https://www.theguardian.com/politics/2014/may/30/like-ed-balls-at-bilderberg-have-you-ever-been-refused-entry-to-somewhere-important", "apiUrl": "https://content.guardianapis.com/politics/2014/may/30/like-ed-balls-at-bilderberg-have-you-ever-been-refused-entry-to-somewhere-important", "isHosted": false, "pillarId": "pillar/news", "pillarName": "News"}, {"id": "world/on-the-middle-east/2014/may/30/islamists-egypt-politics-muslimbrotherhood", "type": "article", "sectionId": "world", "sectionName": "World news", "webPublicationDate": "2014-05-30T13:01:00Z", "webTitle": "Britain's Muslim Brotherhood review still poses puzzling questions", "webUrl": "https://www.theguardian.com/world/on-the-middle-east/2014/may/30/islamists-egypt-politics-muslimbrotherhood", "apiUrl": "https://content.guardianapis.com/world/on-the-middle-east/2014/may/30/islamists-egypt-politics-muslimbrotherhood", "isHosted": false, "pillarId": "pillar/news", "pillarName": "News"}, {"id": "media/2014/may/30/bbc-complaints-ukip-election-coverage-bias", "type": "article", "sectionId": "media", "sectionName": "Media", "webPublicationDate": "2014-05-30T12:05:40Z", "webTitle": "BBC receives almost 1,200 complaints over Ukip election coverage", "webUrl": "https://www.theguardian.com/media/2014/may/30/bbc-complaints-ukip-election-coverage-bias", "apiUrl": "https://content.guardianapis.com/media/2014/may/30/bbc-complaints-ukip-election-coverage-bias", "isHosted": false, "pillarId": "pillar/news", "pillarName": "News"}, {"id": "commentisfree/2014/may/30/probation-service-privatisation-plans-chris-grayling", "type": "article", "sectionId": "commentisfree", "sectionName": "Opinion", "webPublicationDate": "2014-05-30T12:00:03Z", "webTitle": "Chris Grayling's probation privatisation is a reckless gamble with public safety | Sadiq Khan", "webUrl": "https://www.theguardian.com/commentisfree/2014/may/30/probation-service-privatisation-plans-chris-grayling", "apiUrl": "https://content.guardianapis.com/commentisfree/2014/may/30/probation-service-privatisation-plans-chris-grayling", "isHosted": false, "pillarId": "pillar/opinion", "pillarName": "Opinion"}, {"id": "uk-news/2014/may/30/10-things-we-learned-this-week", "type": "article", "sectionId": "world", "sectionName": "World news", "webPublicationDate": "2014-05-30T11:00:06Z", "webTitle": "10 things we learned this week", "webUrl": "https://www.theguardian.com/uk-news/2014/may/30/10-things-we-learned-this-week", "apiUrl": "https://content.guardianapis.com/uk-news/2014/may/30/10-things-we-learned-this-week", "isHosted": false, "pillarId": "pillar/news", "pillarName": "News"}, {"id": "politics/video/2014/may/30/joey-barton-ukip-is-the-best-of-four-really-ugly-girls-video", "type": "video", "sectionId": "politics", "sectionName": "Politics", "webPublicationDate": "2014-05-30T10:47:00Z", "webTitle": "Joey Barton: Ukip is the best of 'four really ugly girls' - video", "webUrl": "https://www.theguardian.com/politics/video/2014/may/30/joey-barton-ukip-is-the-best-of-four-really-ugly-girls-video", "apiUrl": "https://content.guardianapis.com/politics/video/2014/may/30/joey-barton-ukip-is-the-best-of-four-really-ugly-girls-video", "isHosted": false, "pillarId": "pillar/news", "pillarName": "News"}, {"id": "uk-news/2014/may/30/blair-should-ask-chilcot-publish-full-iraq-letters-bush-major", "type": "article", "sectionId": "uk-news", "sectionName": "UK news", "webPublicationDate": "2014-05-30T10:41:34Z", "webTitle": "Blair should ask Chilcot to publish full Iraq letters to Bush, says Major", "webUrl": "https://www.theguardian.com/uk-news/2014/may/30/blair-should-ask-chilcot-publish-full-iraq-letters-bush-major", "apiUrl": "https://content.guardianapis.com/uk-news/2014/may/30/blair-should-ask-chilcot-publish-full-iraq-letters-bush-major", "isHosted": false, "pillarId": "pillar/news", "pillarName": "News"}, {"id": "commentisfree/2014/may/30/cowardice-francis-maude-tax-google-amazon-poor-families", "type": "article", "sectionId": "commentisfree", "sectionName": "Opinion", "webPublicationDate": "2014-05-30T10:39:14Z", "webTitle": "The cowardice of Francis Maude towards his tax targets | Hugh Muir", "webUrl": "https://www.theguardian.com/commentisfree/2014/may/30/cowardice-francis-maude-tax-google-amazon-poor-families", "apiUrl": "https://content.guardianapis.com/commentisfree/2014/may/30/cowardice-francis-maude-tax-google-amazon-poor-families", "isHosted": false, "pillarId": "pillar/opinion", "pillarName": "Opinion"}, {"id": "business/2014/may/30/diageo-scottish-independence-whisky", "type": "article", "sectionId": "business", "sectionName": "Business", "webPublicationDate": "2014-05-30T10:20:25Z", "webTitle": "Whisky maker Diageo fears impact of Scottish independence", "webUrl": "https://www.theguardian.com/business/2014/may/30/diageo-scottish-independence-whisky", "apiUrl": "https://content.guardianapis.com/business/2014/may/30/diageo-scottish-independence-whisky", "isHosted": false, "pillarId": "pillar/news", "pillarName": "News"}, {"id": "politics/2014/may/30/lord-rennard-apology-dispute-lord-steel-liberal-democrats", "type": "article", "sectionId": "politics", "sectionName": "Politics", "webPublicationDate": "2014-05-30T09:53:33Z", "webTitle": "Lord Rennard's apology should be an end to the dispute, says Lord Steel", "webUrl": "https://www.theguardian.com/politics/2014/may/30/lord-rennard-apology-dispute-lord-steel-liberal-democrats", "apiUrl": "https://content.guardianapis.com/politics/2014/may/30/lord-rennard-apology-dispute-lord-steel-liberal-democrats", "isHosted": false, "pillarId": "pillar/news", "pillarName": "News"}, {"id": "world/2014/may/30/cameron-chance-renegotiating-eu-immigration-rules-major", "type": "article", "sectionId": "world", "sectionName": "World news", "webPublicationDate": "2014-05-30T09:41:59Z", "webTitle": "Cameron's chances of renegotiating EU immigration rules good, reckons Major", "webUrl": "https://www.theguardian.com/world/2014/may/30/cameron-chance-renegotiating-eu-immigration-rules-major", "apiUrl": "https://content.guardianapis.com/world/2014/may/30/cameron-chance-renegotiating-eu-immigration-rules-major", "isHosted": false, "pillarId": "pillar/news", "pillarName": "News"}, {"id": "commentisfree/2014/may/30/not-banned-to-kill-a-mockingbird", "type": "article", "sectionId": "commentisfree", "sectionName": "Opinion", "webPublicationDate": "2014-05-30T09:30:00Z", "webTitle": "No, we have not banned To Kill a Mockingbird | Elizabeth Truss", "webUrl": "https://www.theguardian.com/commentisfree/2014/may/30/not-banned-to-kill-a-mockingbird", "apiUrl": "https://content.guardianapis.com/commentisfree/2014/may/30/not-banned-to-kill-a-mockingbird", "isHosted": false, "pillarId": "pillar/opinion", "pillarName": "Opinion"}, {"id": "politics/blog/2014/may/30/politics-live-readers-edition-friday-30-may", "type": "liveblog", "sectionId": "politics", "sectionName": "Politics", "webPublicationDate": "2014-05-30T07:49:42Z", "webTitle": "Politics Live - readers' edition: Friday 30 May", "webUrl": "https://www.theguardian.com/politics/blog/2014/may/30/politics-live-readers-edition-friday-30-may", "apiUrl": "https://content.guardianapis.com/politics/blog/2014/may/30/politics-live-readers-edition-friday-30-may", "isHosted": false, "pillarId": "pillar/news", "pillarName": "News"}, {"id": "voluntary-sector-network/2014/may/30/lobbying-bill-keep-calm-and-campaign", "type": "article", "sectionId": "voluntary-sector-network", "sectionName": "Voluntary Sector Network", "webPublicationDate": "2014-05-30T06:00:05Z", "webTitle": "Lobbying bill: keep calm and carry on campaigning", "webUrl": "https://www.theguardian.com/voluntary-sector-network/2014/may/30/lobbying-bill-keep-calm-and-campaign", "apiUrl": "https://content.guardianapis.com/voluntary-sector-network/2014/may/30/lobbying-bill-keep-calm-and-campaign", "isHosted": false, "pillarId": "pillar/news", "pillarName": "News"}, {"id": "books/booksblog/2014/may/30/gcse-literature-row-gove-blame-me-english-literature-syllabus", "type": "article", "sectionId": "books", "sectionName": "Books", "webPublicationDate": "2014-05-30T05:59:00Z", "webTitle": "GCSE English literature row: Don't blame Gove, blame me", "webUrl": "https://www.theguardian.com/books/booksblog/2014/may/30/gcse-literature-row-gove-blame-me-english-literature-syllabus", "apiUrl": "https://content.guardianapis.com/books/booksblog/2014/may/30/gcse-literature-row-gove-blame-me-english-literature-syllabus", "isHosted": false, "pillarId": "pillar/arts", "pillarName": "Arts"}, {"id": "politics/2014/may/30/hmrc-using-a-dozen-tax-collectors-to-reclaim-overpaid-tax-credits", "type": "article", "sectionId": "politics", "sectionName": "Politics", "webPublicationDate": "2014-05-30T00:39:08Z", "webTitle": "Thousands chased by HMRC debt collectors due to overpaid tax credits", "webUrl": "https://www.theguardian.com/politics/2014/may/30/hmrc-using-a-dozen-tax-collectors-to-reclaim-overpaid-tax-credits", "apiUrl": "https://content.guardianapis.com/politics/2014/may/30/hmrc-using-a-dozen-tax-collectors-to-reclaim-overpaid-tax-credits", "isHosted": false, "pillarId": "pillar/news", "pillarName": "News"}, {"id": "business/2014/may/30/uk-economic-growth-forecasts-revised-upwards-amid-positive-surveys", "type": "article", "sectionId": "business", "sectionName": "Business", "webPublicationDate": "2014-05-29T23:01:05Z", "webTitle": "Britain's economic prospects brightest in more than a decade, survey finds", "webUrl": "https://www.theguardian.com/business/2014/may/30/uk-economic-growth-forecasts-revised-upwards-amid-positive-surveys", "apiUrl": "https://content.guardianapis.com/business/2014/may/30/uk-economic-growth-forecasts-revised-upwards-amid-positive-surveys", "isHosted": false, "pillarId": "pillar/news", "pillarName": "News"}, {"id": "politics/2014/may/29/hugh-muir-diary-ukip-david-coburn", "type": "article", "sectionId": "politics", "sectionName": "Politics", "webPublicationDate": "2014-05-29T22:00:01Z", "webTitle": "Hugh Muir's diary: Advice for the new Ukip-ians \u2013 don't mention the war", "webUrl": "https://www.theguardian.com/politics/2014/may/29/hugh-muir-diary-ukip-david-coburn", "apiUrl": "https://content.guardianapis.com/politics/2014/may/29/hugh-muir-diary-ukip-david-coburn", "isHosted": false, "pillarId": "pillar/news", "pillarName": "News"}, {"id": "politics/2014/may/29/scottish-no-campaign-nhs-ad-pulled-cinemas-great-ormond-street-hospital-complains", "type": "article", "sectionId": "politics", "sectionName": "Politics", "webPublicationDate": "2014-05-29T21:43:00Z", "webTitle": "Scottish 'no' campaign NHS ad pulled from cinemas after hospital complains", "webUrl": "https://www.theguardian.com/politics/2014/may/29/scottish-no-campaign-nhs-ad-pulled-cinemas-great-ormond-street-hospital-complains", "apiUrl": "https://content.guardianapis.com/politics/2014/may/29/scottish-no-campaign-nhs-ad-pulled-cinemas-great-ormond-street-hospital-complains", "isHosted": false, "pillarId": "pillar/news", "pillarName": "News"}, {"id": "politics/2014/may/29/labour-cannot-afford-undo-coalition-spending-cuts", "type": "article", "sectionId": "politics", "sectionName": "Politics", "webPublicationDate": "2014-05-29T21:00:00Z", "webTitle": "Labour 'cannot afford to undo coalition spending cuts in next government'", "webUrl": "https://www.theguardian.com/politics/2014/may/29/labour-cannot-afford-undo-coalition-spending-cuts", "apiUrl": "https://content.guardianapis.com/politics/2014/may/29/labour-cannot-afford-undo-coalition-spending-cuts", "isHosted": false, "pillarId": "pillar/news", "pillarName": "News"}, {"id": "politics/2014/may/29/liberal-democrats-lost-plot", "type": "article", "sectionId": "commentisfree", "sectionName": "Opinion", "webPublicationDate": "2014-05-29T20:35:29Z", "webTitle": "Liberal Democrats: losing the plot", "webUrl": "https://www.theguardian.com/politics/2014/may/29/liberal-democrats-lost-plot", "apiUrl": "https://content.guardianapis.com/politics/2014/may/29/liberal-democrats-lost-plot", "isHosted": false, "pillarId": "pillar/opinion", "pillarName": "Opinion"}, {"id": "uk-news/2014/may/29/chilcot-inquiry-accused-of-whitewash-over-blair-and-bush-letters", "type": "article", "sectionId": "uk-news", "sectionName": "UK news", "webPublicationDate": "2014-05-29T20:08:14Z", "webTitle": "Chilcot inquiry accused of whitewash over letters between Blair and Bush", "webUrl": "https://www.theguardian.com/uk-news/2014/may/29/chilcot-inquiry-accused-of-whitewash-over-blair-and-bush-letters", "apiUrl": "https://content.guardianapis.com/uk-news/2014/may/29/chilcot-inquiry-accused-of-whitewash-over-blair-and-bush-letters", "isHosted": false, "pillarId": "pillar/news", "pillarName": "News"}, {"id": "theguardian/2014/may/29/driving-on-right-elections-trains", "type": "article", "sectionId": "world", "sectionName": "World news", "webPublicationDate": "2014-05-29T20:00:03Z", "webTitle": "Driving on the right | @guardianletters", "webUrl": "https://www.theguardian.com/theguardian/2014/may/29/driving-on-right-elections-trains", "apiUrl": "https://content.guardianapis.com/theguardian/2014/may/29/driving-on-right-elections-trains", "isHosted": false, "pillarId": "pillar/news", "pillarName": "News"}]}}