{"response": {"status": "ok", "userTier": "developer", "total": 133838, "startIndex": 1, "pageSize": 50, "currentPage": 1, "pages": 2677, "orderBy": "newest", "results": [{"id": "business/2013/may/31/consumer-confidence-edges-up", "type": "article", "sectionId": "business", "sectionName": "Business", "webPublicationDate": "2013-05-30T23:05:02Z", "webTitle": "Consumer confidence edges up as triple-dip recession fears recede", "webUrl": "https://www.theguardian.com/business/2013/may/31/consumer-confidence-edges-up", "apiUrl": "https://content.guardianapis.com/business/2013/may/31/consumer-confidence-edges-up", "isHosted": false, "pillarId": "pillar/news", "pillarName": "News"}, {"id": "politics/2013/may/30/employers-repay-minium-wage-hmrc", "type": "article", "sectionId": "politics", "sectionName": "Politics", "webPublicationDate": "2013-05-30T22:17:33Z", "webTitle": "Employers forced to repay workers for refusing minimum wage", "webUrl": "https://www.theguardian.com/politics/2013/may/30/employers-repay-minium-wage-hmrc", "apiUrl": "https://content.guardianapis.com/politics/2013/may/30/employers-repay-minium-wage-hmrc", "isHosted": false, "pillarId": "pillar/news", "pillarName": "News"}, {"id": "politics/2013/may/30/hugh-muir-diary-iain-duncan-smith", "type": "article", "sectionId": "politics", "sectionName": "Politics", "webPublicationDate": "2013-05-30T22:00:02Z", "webTitle": "Hugh Muir's diary: Will Iain Duncan Smith speak out against 'income support' for farmers?", "webUrl": "https://www.theguardian.com/politics/2013/may/30/hugh-muir-diary-iain-duncan-smith", "apiUrl": "https://content.guardianapis.com/politics/2013/may/30/hugh-muir-diary-iain-duncan-smith", "isHosted": false, "pillarId": "pillar/news", "pillarName": "News"}, {"id": "politics/2013/may/30/mike-hancock-disciplinary-hearing-sexual-assault", "type": "article", "sectionId": "politics", "sectionName": "Politics", "webPublicationDate": "2013-05-30T20:08:17Z", "webTitle": "Mike Hancock may be suspended over sexual assault claims, says Nick Clegg", "webUrl": "https://www.theguardian.com/politics/2013/may/30/mike-hancock-disciplinary-hearing-sexual-assault", "apiUrl": "https://content.guardianapis.com/politics/2013/may/30/mike-hancock-disciplinary-hearing-sexual-assault", "isHosted": false, "pillarId": "pillar/news", "pillarName": "News"}, {"id": "politics/2013/may/30/cancel-pfi-debts-save-nhs", "type": "article", "sectionId": "politics", "sectionName": "Politics", "webPublicationDate": "2013-05-30T20:00:11Z", "webTitle": "Letters: Cancel PFI debts to save the NHS", "webUrl": "https://www.theguardian.com/politics/2013/may/30/cancel-pfi-debts-save-nhs", "apiUrl": "https://content.guardianapis.com/politics/2013/may/30/cancel-pfi-debts-save-nhs", "isHosted": false, "pillarId": "pillar/news", "pillarName": "News"}, {"id": "uk/2013/may/30/royal-mail-sell-off", "type": "article", "sectionId": "business", "sectionName": "Business", "webPublicationDate": "2013-05-30T20:00:10Z", "webTitle": "Letters: Royal Mail sell-off", "webUrl": "https://www.theguardian.com/uk/2013/may/30/royal-mail-sell-off", "apiUrl": "https://content.guardianapis.com/uk/2013/may/30/royal-mail-sell-off", "isHosted": false, "pillarId": "pillar/news", "pillarName": "News"}, {"id": "business/2013/may/30/google-search-right-way-tax", "type": "article", "sectionId": "business", "sectionName": "Business", "webPublicationDate": "2013-05-30T20:00:09Z", "webTitle": "Letters: Google searches for the right way on tax", "webUrl": "https://www.theguardian.com/business/2013/may/30/google-search-right-way-tax", "apiUrl": "https://content.guardianapis.com/business/2013/may/30/google-search-right-way-tax", "isHosted": false, "pillarId": "pillar/news", "pillarName": "News"}, {"id": "society/2013/may/30/food-banks-part-tories-plans", "type": "article", "sectionId": "society", "sectionName": "Society", "webPublicationDate": "2013-05-30T20:00:04Z", "webTitle": "Letters: Food banks just part of Tories' plan", "webUrl": "https://www.theguardian.com/society/2013/may/30/food-banks-part-tories-plans", "apiUrl": "https://content.guardianapis.com/society/2013/may/30/food-banks-part-tories-plans", "isHosted": false, "pillarId": "pillar/news", "pillarName": "News"}, {"id": "commentisfree/2013/may/30/ukip-gunning-labour-ed-miliband", "type": "article", "sectionId": "commentisfree", "sectionName": "Opinion", "webPublicationDate": "2013-05-30T19:00:02Z", "webTitle": "Now Ukip is gunning for Labour, what's Ed Miliband going to do about it? | Robert Ford and Matthew Goodwin", "webUrl": "https://www.theguardian.com/commentisfree/2013/may/30/ukip-gunning-labour-ed-miliband", "apiUrl": "https://content.guardianapis.com/commentisfree/2013/may/30/ukip-gunning-labour-ed-miliband", "isHosted": false, "pillarId": "pillar/opinion", "pillarName": "Opinion"}, {"id": "politics/2013/may/30/andy-coulson-samantha-cameron-election", "type": "article", "sectionId": "politics", "sectionName": "Politics", "webPublicationDate": "2013-05-30T18:45:38Z", "webTitle": "Andy Coulson: Samantha Cameron should be key part of election campaign", "webUrl": "https://www.theguardian.com/politics/2013/may/30/andy-coulson-samantha-cameron-election", "apiUrl": "https://content.guardianapis.com/politics/2013/may/30/andy-coulson-samantha-cameron-election", "isHosted": false, "pillarId": "pillar/news", "pillarName": "News"}, {"id": "politics/2013/may/30/treasury-chief-eu-economic-revival", "type": "article", "sectionId": "politics", "sectionName": "Politics", "webPublicationDate": "2013-05-30T18:19:42Z", "webTitle": "Treasury chief says threats to quit EU undermine UK's economic revival", "webUrl": "https://www.theguardian.com/politics/2013/may/30/treasury-chief-eu-economic-revival", "apiUrl": "https://content.guardianapis.com/politics/2013/may/30/treasury-chief-eu-economic-revival", "isHosted": false, "pillarId": "pillar/news", "pillarName": "News"}, {"id": "commentisfree/2013/may/30/stephen-harper-scandals-rob-ford", "type": "article", "sectionId": "world", "sectionName": "World news", "webPublicationDate": "2013-05-30T18:04:54Z", "webTitle": "Canadian prime minister Stephen Harper has his own scandal woes | Jeffery Ewener", "webUrl": "https://www.theguardian.com/commentisfree/2013/may/30/stephen-harper-scandals-rob-ford", "apiUrl": "https://content.guardianapis.com/commentisfree/2013/may/30/stephen-harper-scandals-rob-ford", "isHosted": false, "pillarId": "pillar/news", "pillarName": "News"}, {"id": "uk/2013/may/30/far-right-day-demonstrations-england", "type": "article", "sectionId": "uk-news", "sectionName": "UK news", "webPublicationDate": "2013-05-30T17:22:31Z", "webTitle": "Far-right groups plan day of demonstrations across England", "webUrl": "https://www.theguardian.com/uk/2013/may/30/far-right-day-demonstrations-england", "apiUrl": "https://content.guardianapis.com/uk/2013/may/30/far-right-day-demonstrations-england", "isHosted": false, "pillarId": "pillar/news", "pillarName": "News"}, {"id": "world/2013/may/30/syria-arms-race-accelerated-international-pressure", "type": "article", "sectionId": "world", "sectionName": "World news", "webPublicationDate": "2013-05-30T16:52:00Z", "webTitle": "Syria's arms race has accelerated through international pressure", "webUrl": "https://www.theguardian.com/world/2013/may/30/syria-arms-race-accelerated-international-pressure", "apiUrl": "https://content.guardianapis.com/world/2013/may/30/syria-arms-race-accelerated-international-pressure", "isHosted": false, "pillarId": "pillar/news", "pillarName": "News"}, {"id": "science/political-science/2013/may/30/tax-freedom-day-ridiculous", "type": "article", "sectionId": "science", "sectionName": "Science", "webPublicationDate": "2013-05-30T16:40:13Z", "webTitle": "Why the concept of a Tax Freedom Day is ridiculous | Paul Nightingale", "webUrl": "https://www.theguardian.com/science/political-science/2013/may/30/tax-freedom-day-ridiculous", "apiUrl": "https://content.guardianapis.com/science/political-science/2013/may/30/tax-freedom-day-ridiculous", "isHosted": false, "pillarId": "pillar/news", "pillarName": "News"}, {"id": "uk/2013/may/30/uk-government-eu-migrant-benefits", "type": "article", "sectionId": "uk-news", "sectionName": "UK news", "webPublicationDate": "2013-05-30T16:28:00Z", "webTitle": "Iain Duncan Smith accuses European commission of benefits 'land grab'", "webUrl": "https://www.theguardian.com/uk/2013/may/30/uk-government-eu-migrant-benefits", "apiUrl": "https://content.guardianapis.com/uk/2013/may/30/uk-government-eu-migrant-benefits", "isHosted": false, "pillarId": "pillar/news", "pillarName": "News"}, {"id": "culture/2013/may/30/edinburgh-fringe-lineup-george-galloway", "type": "article", "sectionId": "culture", "sectionName": "Culture", "webPublicationDate": "2013-05-30T13:57:08Z", "webTitle": "Edinburgh fringe lineup announced", "webUrl": "https://www.theguardian.com/culture/2013/may/30/edinburgh-fringe-lineup-george-galloway", "apiUrl": "https://content.guardianapis.com/culture/2013/may/30/edinburgh-fringe-lineup-george-galloway", "isHosted": false, "pillarId": "pillar/arts", "pillarName": "Arts"}, {"id": "artanddesign/jonathanjonesblog/2013/may/30/modern-art-how-subversive-is-it", "type": "article", "sectionId": "artanddesign", "sectionName": "Art and design", "webPublicationDate": "2013-05-30T13:33:19Z", "webTitle": "Is modern art now too mainstream to be subversive?", "webUrl": "https://www.theguardian.com/artanddesign/jonathanjonesblog/2013/may/30/modern-art-how-subversive-is-it", "apiUrl": "https://content.guardianapis.com/artanddesign/jonathanjonesblog/2013/may/30/modern-art-how-subversive-is-it", "isHosted": false, "pillarId": "pillar/arts", "pillarName": "Arts"}, {"id": "society/video/2013/may/30/food-bank-use-increase-benefit-video", "type": "video", "sectionId": "society", "sectionName": "Society", "webPublicationDate": "2013-05-30T12:36:00Z", "webTitle": "Oxfam: food bank use increase linked to benefit changes - video", "webUrl": "https://www.theguardian.com/society/video/2013/may/30/food-bank-use-increase-benefit-video", "apiUrl": "https://content.guardianapis.com/society/video/2013/may/30/food-bank-use-increase-benefit-video", "isHosted": false, "pillarId": "pillar/news", "pillarName": "News"}, {"id": "commentisfree/2013/may/30/reality-based-feminism-louise-mensch", "type": "article", "sectionId": "commentisfree", "sectionName": "Opinion", "webPublicationDate": "2013-05-30T11:07:48Z", "webTitle": "How about some reality-based feminism? | Louise Mensch", "webUrl": "https://www.theguardian.com/commentisfree/2013/may/30/reality-based-feminism-louise-mensch", "apiUrl": "https://content.guardianapis.com/commentisfree/2013/may/30/reality-based-feminism-louise-mensch", "isHosted": false, "pillarId": "pillar/opinion", "pillarName": "Opinion"}, {"id": "commentisfree/2013/may/30/workers-unions-protecting-rights", "type": "article", "sectionId": "commentisfree", "sectionName": "Opinion", "webPublicationDate": "2013-05-30T10:00:01Z", "webTitle": "Workers recognise the importance of unions in protecting their rights | Gregor Gall", "webUrl": "https://www.theguardian.com/commentisfree/2013/may/30/workers-unions-protecting-rights", "apiUrl": "https://content.guardianapis.com/commentisfree/2013/may/30/workers-unions-protecting-rights", "isHosted": false, "pillarId": "pillar/opinion", "pillarName": "Opinion"}, {"id": "commentisfree/2013/may/30/homeless-negative-impacts-victims-policy", "type": "article", "sectionId": "commentisfree", "sectionName": "Opinion", "webPublicationDate": "2013-05-30T08:30:01Z", "webTitle": "The homeless aren't 'negative impacts' \u2013 they are living victims of policy | Ally Fogg", "webUrl": "https://www.theguardian.com/commentisfree/2013/may/30/homeless-negative-impacts-victims-policy", "apiUrl": "https://content.guardianapis.com/commentisfree/2013/may/30/homeless-negative-impacts-victims-policy", "isHosted": false, "pillarId": "pillar/opinion", "pillarName": "Opinion"}, {"id": "politics/blog/2013/may/30/1", "type": "article", "sectionId": "politics", "sectionName": "Politics", "webPublicationDate": "2013-05-30T08:26:09Z", "webTitle": "Politics live: readers' edition - Thursday 30 May", "webUrl": "https://www.theguardian.com/politics/blog/2013/may/30/1", "apiUrl": "https://content.guardianapis.com/politics/blog/2013/may/30/1", "isHosted": false, "pillarId": "pillar/news", "pillarName": "News"}, {"id": "commentisfree/2013/may/30/absurd-pretend-armed-forces-just-wars", "type": "article", "sectionId": "commentisfree", "sectionName": "Opinion", "webPublicationDate": "2013-05-30T07:00:00Z", "webTitle": "It is absurd to pretend our armed forces fight only in just wars | Martin Kettle", "webUrl": "https://www.theguardian.com/commentisfree/2013/may/30/absurd-pretend-armed-forces-just-wars", "apiUrl": "https://content.guardianapis.com/commentisfree/2013/may/30/absurd-pretend-armed-forces-just-wars", "isHosted": false, "pillarId": "pillar/opinion", "pillarName": "Opinion"}, {"id": "society/2013/may/30/ambulances-turned-away-a-and-e-rises", "type": "article", "sectionId": "society", "sectionName": "Society", "webPublicationDate": "2013-05-30T05:00:04Z", "webTitle": "Number of ambulances turned away from A&E increases by 24%", "webUrl": "https://www.theguardian.com/society/2013/may/30/ambulances-turned-away-a-and-e-rises", "apiUrl": "https://content.guardianapis.com/society/2013/may/30/ambulances-turned-away-a-and-e-rises", "isHosted": false, "pillarId": "pillar/news", "pillarName": "News"}, {"id": "world/2013/may/29/british-forces-detainees-afghanistan-philip-hammond", "type": "article", "sectionId": "world", "sectionName": "World news", "webPublicationDate": "2013-05-30T00:35:00Z", "webTitle": "Britain may begin handover of Afghan prisoners at Camp Bastion to Kabul", "webUrl": "https://www.theguardian.com/world/2013/may/29/british-forces-detainees-afghanistan-philip-hammond", "apiUrl": "https://content.guardianapis.com/world/2013/may/29/british-forces-detainees-afghanistan-philip-hammond", "isHosted": false, "pillarId": "pillar/news", "pillarName": "News"}, {"id": "politics/2013/may/30/nick-clegg-inquiry-mp-sexual-assualt-claims", "type": "article", "sectionId": "politics", "sectionName": "Politics", "webPublicationDate": "2013-05-30T00:15:32Z", "webTitle": "Nick Clegg launches inquiry into MP facing sexual assault claims", "webUrl": "https://www.theguardian.com/politics/2013/may/30/nick-clegg-inquiry-mp-sexual-assualt-claims", "apiUrl": "https://content.guardianapis.com/politics/2013/may/30/nick-clegg-inquiry-mp-sexual-assualt-claims", "isHosted": false, "pillarId": "pillar/news", "pillarName": "News"}, {"id": "politics/2013/may/29/hugh-muir-diary-waterboarding-bbc", "type": "article", "sectionId": "politics", "sectionName": "Politics", "webPublicationDate": "2013-05-29T22:00:03Z", "webTitle": "Hugh Muir's diary: A question for the BBC \u2013 when is waterboarding not torture?", "webUrl": "https://www.theguardian.com/politics/2013/may/29/hugh-muir-diary-waterboarding-bbc", "apiUrl": "https://content.guardianapis.com/politics/2013/may/29/hugh-muir-diary-waterboarding-bbc", "isHosted": false, "pillarId": "pillar/news", "pillarName": "News"}, {"id": "commentisfree/2013/may/29/in-praise-of-rhetoric", "type": "article", "sectionId": "commentisfree", "sectionName": "Opinion", "webPublicationDate": "2013-05-29T21:27:25Z", "webTitle": "In praise of \u2026 rhetoric | Editorial", "webUrl": "https://www.theguardian.com/commentisfree/2013/may/29/in-praise-of-rhetoric", "apiUrl": "https://content.guardianapis.com/commentisfree/2013/may/29/in-praise-of-rhetoric", "isHosted": false, "pillarId": "pillar/opinion", "pillarName": "Opinion"}, {"id": "business/2013/may/29/high-streets-shrink-mary-portas", "type": "article", "sectionId": "business", "sectionName": "Business", "webPublicationDate": "2013-05-29T20:36:51Z", "webTitle": "High streets shrink in 10 out of 12 towns on Mary Portas scheme", "webUrl": "https://www.theguardian.com/business/2013/may/29/high-streets-shrink-mary-portas", "apiUrl": "https://content.guardianapis.com/business/2013/may/29/high-streets-shrink-mary-portas", "isHosted": false, "pillarId": "pillar/news", "pillarName": "News"}, {"id": "society/2013/may/29/gps-not-to-blame", "type": "article", "sectionId": "society", "sectionName": "Society", "webPublicationDate": "2013-05-29T20:00:02Z", "webTitle": "Letters: GPs are not to blame", "webUrl": "https://www.theguardian.com/society/2013/may/29/gps-not-to-blame", "apiUrl": "https://content.guardianapis.com/society/2013/may/29/gps-not-to-blame", "isHosted": false, "pillarId": "pillar/news", "pillarName": "News"}, {"id": "politics/2013/may/29/labour-losing-economy-propaganda-war", "type": "article", "sectionId": "politics", "sectionName": "Politics", "webPublicationDate": "2013-05-29T20:00:01Z", "webTitle": "Letters: Labour losing the economy propaganda war", "webUrl": "https://www.theguardian.com/politics/2013/may/29/labour-losing-economy-propaganda-war", "apiUrl": "https://content.guardianapis.com/politics/2013/may/29/labour-losing-economy-propaganda-war", "isHosted": false, "pillarId": "pillar/news", "pillarName": "News"}, {"id": "business/2013/may/29/energy-crackdown-government-end-tax-scheme", "type": "article", "sectionId": "business", "sectionName": "Business", "webPublicationDate": "2013-05-29T19:58:07Z", "webTitle": "Government to end tax scheme as part of energy company crackdown", "webUrl": "https://www.theguardian.com/business/2013/may/29/energy-crackdown-government-end-tax-scheme", "apiUrl": "https://content.guardianapis.com/business/2013/may/29/energy-crackdown-government-end-tax-scheme", "isHosted": false, "pillarId": "pillar/news", "pillarName": "News"}, {"id": "technology/2013/may/29/apple-tim-cook-tax-loophole", "type": "article", "sectionId": "technology", "sectionName": "Technology", "webPublicationDate": "2013-05-29T18:48:57Z", "webTitle": "Tim Cook defends Apple's use of tax loopholes", "webUrl": "https://www.theguardian.com/technology/2013/may/29/apple-tim-cook-tax-loophole", "apiUrl": "https://content.guardianapis.com/technology/2013/may/29/apple-tim-cook-tax-loophole", "isHosted": false, "pillarId": "pillar/news", "pillarName": "News"}, {"id": "commentisfree/2013/may/29/andy-coulson-still-working-david-cameron", "type": "article", "sectionId": "commentisfree", "sectionName": "Opinion", "webPublicationDate": "2013-05-29T18:46:00Z", "webTitle": "If Andy Coulson were still working for David Cameron \u2026 | John O'Farrell", "webUrl": "https://www.theguardian.com/commentisfree/2013/may/29/andy-coulson-still-working-david-cameron", "apiUrl": "https://content.guardianapis.com/commentisfree/2013/may/29/andy-coulson-still-working-david-cameron", "isHosted": false, "pillarId": "pillar/opinion", "pillarName": "Opinion"}, {"id": "world/2013/may/29/syria-crisis-geneva-talks-last-chance", "type": "article", "sectionId": "world", "sectionName": "World news", "webPublicationDate": "2013-05-29T18:37:00Z", "webTitle": "Syria crisis: Geneva talks offer last chance for peace, says Turkish minister", "webUrl": "https://www.theguardian.com/world/2013/may/29/syria-crisis-geneva-talks-last-chance", "apiUrl": "https://content.guardianapis.com/world/2013/may/29/syria-crisis-geneva-talks-last-chance", "isHosted": false, "pillarId": "pillar/news", "pillarName": "News"}, {"id": "commentisfree/2013/may/29/were-all-upset-about-baby-59", "type": "article", "sectionId": "commentisfree", "sectionName": "Opinion", "webPublicationDate": "2013-05-29T18:30:00Z", "webTitle": "We're all upset about Baby 59. So what else do we agree on? | Zoe Williams", "webUrl": "https://www.theguardian.com/commentisfree/2013/may/29/were-all-upset-about-baby-59", "apiUrl": "https://content.guardianapis.com/commentisfree/2013/may/29/were-all-upset-about-baby-59", "isHosted": false, "pillarId": "pillar/opinion", "pillarName": "Opinion"}, {"id": "uk/2013/may/29/goldman-sachs-ubs-privatisation-royal-mail", "type": "article", "sectionId": "business", "sectionName": "Business", "webPublicationDate": "2013-05-29T18:08:09Z", "webTitle": "Goldman Sachs and UBS to lead privatisation of Royal Mail", "webUrl": "https://www.theguardian.com/uk/2013/may/29/goldman-sachs-ubs-privatisation-royal-mail", "apiUrl": "https://content.guardianapis.com/uk/2013/may/29/goldman-sachs-ubs-privatisation-royal-mail", "isHosted": false, "pillarId": "pillar/news", "pillarName": "News"}, {"id": "politics/2013/may/29/osborne-disturbs-camerons-holiday", "type": "article", "sectionId": "politics", "sectionName": "Politics", "webPublicationDate": "2013-05-29T17:46:45Z", "webTitle": "Osborne disturbs Cameron's holiday and Duncan Smith wields the hatchet", "webUrl": "https://www.theguardian.com/politics/2013/may/29/osborne-disturbs-camerons-holiday", "apiUrl": "https://content.guardianapis.com/politics/2013/may/29/osborne-disturbs-camerons-holiday", "isHosted": false, "pillarId": "pillar/news", "pillarName": "News"}, {"id": "commentisfree/2013/may/29/after-woolwich-prevent-views-engage", "type": "article", "sectionId": "commentisfree", "sectionName": "Opinion", "webPublicationDate": "2013-05-29T17:23:13Z", "webTitle": "After Woolwich, we should not 'Prevent' certain views, but engage with them | John Denham", "webUrl": "https://www.theguardian.com/commentisfree/2013/may/29/after-woolwich-prevent-views-engage", "apiUrl": "https://content.guardianapis.com/commentisfree/2013/may/29/after-woolwich-prevent-views-engage", "isHosted": false, "pillarId": "pillar/opinion", "pillarName": "Opinion"}, {"id": "education/2013/may/29/uk-visa-policy-india-students", "type": "article", "sectionId": "education", "sectionName": "Education", "webPublicationDate": "2013-05-29T17:18:04Z", "webTitle": "UK's 'absurd' visa policies have hurt student recruitment from India", "webUrl": "https://www.theguardian.com/education/2013/may/29/uk-visa-policy-india-students", "apiUrl": "https://content.guardianapis.com/education/2013/may/29/uk-visa-policy-india-students", "isHosted": false, "pillarId": "pillar/news", "pillarName": "News"}, {"id": "world/2013/may/29/privacy-existing-powers-snoopers-charter", "type": "article", "sectionId": "world", "sectionName": "World news", "webPublicationDate": "2013-05-29T16:07:33Z", "webTitle": "Snooper's charter 'should be replaced by strengthening of existing powers'", "webUrl": "https://www.theguardian.com/world/2013/may/29/privacy-existing-powers-snoopers-charter", "apiUrl": "https://content.guardianapis.com/world/2013/may/29/privacy-existing-powers-snoopers-charter", "isHosted": false, "pillarId": "pillar/news", "pillarName": "News"}, {"id": "politics/scottish-independence-blog/2013/may/29/scottish-independence-oil-healey", "type": "article", "sectionId": "politics", "sectionName": "Politics", "webPublicationDate": "2013-05-29T15:42:48Z", "webTitle": "Denis Healey, Scottish independence and the black, black oil", "webUrl": "https://www.theguardian.com/politics/scottish-independence-blog/2013/may/29/scottish-independence-oil-healey", "apiUrl": "https://content.guardianapis.com/politics/scottish-independence-blog/2013/may/29/scottish-independence-oil-healey", "isHosted": false, "pillarId": "pillar/news", "pillarName": "News"}, {"id": "uk/2013/may/29/leeds-council-bedroom-tax-solution", "type": "article", "sectionId": "uk-news", "sectionName": "UK news", "webPublicationDate": "2013-05-29T14:06:17Z", "webTitle": "Leeds council tackles bedroom tax with semantic solution", "webUrl": "https://www.theguardian.com/uk/2013/may/29/leeds-council-bedroom-tax-solution", "apiUrl": "https://content.guardianapis.com/uk/2013/may/29/leeds-council-bedroom-tax-solution", "isHosted": false, "pillarId": "pillar/news", "pillarName": "News"}, {"id": "politics/2013/may/29/boris-johnson-andy-coulson-fail", "type": "article", "sectionId": "politics", "sectionName": "Politics", "webPublicationDate": "2013-05-29T12:19:40Z", "webTitle": "Boris Johnson rejects Andy Coulson's claims he wants PM to fail", "webUrl": "https://www.theguardian.com/politics/2013/may/29/boris-johnson-andy-coulson-fail", "apiUrl": "https://content.guardianapis.com/politics/2013/may/29/boris-johnson-andy-coulson-fail", "isHosted": false, "pillarId": "pillar/news", "pillarName": "News"}, {"id": "stage/2013/may/29/franca-rame", "type": "article", "sectionId": "stage", "sectionName": "Stage", "webPublicationDate": "2013-05-29T12:06:00Z", "webTitle": "Franca Rame obituary", "webUrl": "https://www.theguardian.com/stage/2013/may/29/franca-rame", "apiUrl": "https://content.guardianapis.com/stage/2013/may/29/franca-rame", "isHosted": false, "pillarId": "pillar/arts", "pillarName": "Arts"}, {"id": "uk/2013/may/29/armed-forces-veterans-rail-travel", "type": "article", "sectionId": "uk-news", "sectionName": "UK news", "webPublicationDate": "2013-05-29T11:09:38Z", "webTitle": "Armed forces veterans should get concessions on rail travel, says Labour", "webUrl": "https://www.theguardian.com/uk/2013/may/29/armed-forces-veterans-rail-travel", "apiUrl": "https://content.guardianapis.com/uk/2013/may/29/armed-forces-veterans-rail-travel", "isHosted": false, "pillarId": "pillar/news", "pillarName": "News"}, {"id": "commentisfree/2013/may/29/labour-break-economic-orthodoxy-tories", "type": "article", "sectionId": "commentisfree", "sectionName": "Opinion", "webPublicationDate": "2013-05-29T11:00:02Z", "webTitle": "Labour must break with economic orthodoxy \u2013 Tories do not know best | Bryan Gould", "webUrl": "https://www.theguardian.com/commentisfree/2013/may/29/labour-break-economic-orthodoxy-tories", "apiUrl": "https://content.guardianapis.com/commentisfree/2013/may/29/labour-break-economic-orthodoxy-tories", "isHosted": false, "pillarId": "pillar/opinion", "pillarName": "Opinion"}, {"id": "politics/video/2013/may/29/boris-johnson-david-cameron-video", "type": "video", "sectionId": "politics", "sectionName": "Politics", "webPublicationDate": "2013-05-29T10:35:00Z", "webTitle": "Boris Johnson: 'I'm backing David Cameron all the way\u2019 - video", "webUrl": "https://www.theguardian.com/politics/video/2013/may/29/boris-johnson-david-cameron-video", "apiUrl": "https://content.guardianapis.com/politics/video/2013/may/29/boris-johnson-david-cameron-video", "isHosted": false, "pillarId": "pillar/news", "pillarName": "News"}, {"id": "social-enterprise-network/2013/may/29/14-things-youth-service-mutuals", "type": "article", "sectionId": "local-government-network", "sectionName": "Local Leaders Network", "webPublicationDate": "2013-05-29T10:17:00Z", "webTitle": "14 things to remember about youth service mutuals", "webUrl": "https://www.theguardian.com/social-enterprise-network/2013/may/29/14-things-youth-service-mutuals", "apiUrl": "https://content.guardianapis.com/social-enterprise-network/2013/may/29/14-things-youth-service-mutuals", "isHosted": false, "pillarId": "pillar/news", "pillarName": "News"}]}}