{"response": {"status": "ok", "userTier": "developer", "total": 125073, "startIndex": 1, "pageSize": 50, "currentPage": 1, "pages": 2502, "orderBy": "newest", "results": [{"id": "commentisfree/2010/may/31/editorial-david-laws-mps-expenses", "type": "article", "sectionId": "commentisfree", "sectionName": "Opinion", "webPublicationDate": "2010-05-30T23:14:00Z", "webTitle": "David Laws: an end of innocence", "webUrl": "https://www.theguardian.com/commentisfree/2010/may/31/editorial-david-laws-mps-expenses", "apiUrl": "https://content.guardianapis.com/commentisfree/2010/may/31/editorial-david-laws-mps-expenses", "isHosted": false, "pillarId": "pillar/opinion", "pillarName": "Opinion"}, {"id": "science/2010/may/31/stem-cell-startegy-anthony-nolan", "type": "article", "sectionId": "science", "sectionName": "Science", "webPublicationDate": "2010-05-30T23:05:08Z", "webTitle": "Letters: Stem cell strategy", "webUrl": "https://www.theguardian.com/science/2010/may/31/stem-cell-startegy-anthony-nolan", "apiUrl": "https://content.guardianapis.com/science/2010/may/31/stem-cell-startegy-anthony-nolan", "isHosted": false, "pillarId": "pillar/news", "pillarName": "News"}, {"id": "business/2010/may/31/mergers-acquisitions-vince-cable", "type": "article", "sectionId": "business", "sectionName": "Business", "webPublicationDate": "2010-05-30T23:05:05Z", "webTitle": "Surge in bids for British firms by foreign buyers, study shows", "webUrl": "https://www.theguardian.com/business/2010/may/31/mergers-acquisitions-vince-cable", "apiUrl": "https://content.guardianapis.com/business/2010/may/31/mergers-acquisitions-vince-cable", "isHosted": false, "pillarId": "pillar/news", "pillarName": "News"}, {"id": "commentisfree/cartoon/2010/may/31/david-laws-resignation-mps-expenses", "type": "picture", "sectionId": "commentisfree", "sectionName": "Opinion", "webPublicationDate": "2010-05-30T23:05:00Z", "webTitle": "Martin Rowson on David Laws' resignation", "webUrl": "https://www.theguardian.com/commentisfree/cartoon/2010/may/31/david-laws-resignation-mps-expenses", "apiUrl": "https://content.guardianapis.com/commentisfree/cartoon/2010/may/31/david-laws-resignation-mps-expenses", "isHosted": false, "pillarId": "pillar/opinion", "pillarName": "Opinion"}, {"id": "commentisfree/2010/may/31/david-laws-michael-white", "type": "article", "sectionId": "commentisfree", "sectionName": "Opinion", "webPublicationDate": "2010-05-30T23:04:04Z", "webTitle": "For the chop? David Laws may find that hara-kiri can lead to reincarnation | Michael White's political briefing", "webUrl": "https://www.theguardian.com/commentisfree/2010/may/31/david-laws-michael-white", "apiUrl": "https://content.guardianapis.com/commentisfree/2010/may/31/david-laws-michael-white", "isHosted": false, "pillarId": "pillar/opinion", "pillarName": "Opinion"}, {"id": "business/2010/may/31/uk-economy-growth-chamber-commerce-forecast", "type": "article", "sectionId": "business", "sectionName": "Business", "webPublicationDate": "2010-05-30T23:01:58Z", "webTitle": "British Chambers of Commerce warns economic recovery will be slow and fragile", "webUrl": "https://www.theguardian.com/business/2010/may/31/uk-economy-growth-chamber-commerce-forecast", "apiUrl": "https://content.guardianapis.com/business/2010/may/31/uk-economy-growth-chamber-commerce-forecast", "isHosted": false, "pillarId": "pillar/news", "pillarName": "News"}, {"id": "money/2010/may/30/capital-gains-tax-40-concessions", "type": "article", "sectionId": "money", "sectionName": "Money", "webPublicationDate": "2010-05-30T21:54:50Z", "webTitle": "Iain Duncan Smith signals 'major exemptions' to rise in capital gains tax", "webUrl": "https://www.theguardian.com/money/2010/may/30/capital-gains-tax-40-concessions", "apiUrl": "https://content.guardianapis.com/money/2010/may/30/capital-gains-tax-40-concessions", "isHosted": false, "pillarId": "pillar/lifestyle", "pillarName": "Lifestyle"}, {"id": "commentisfree/libertycentral/2010/may/30/felled-shame-david-laws", "type": "article", "sectionId": "commentisfree", "sectionName": "Opinion", "webPublicationDate": "2010-05-30T20:30:03Z", "webTitle": "David Laws: felled by a creditable but misplaced sense of shame | Julian Glover", "webUrl": "https://www.theguardian.com/commentisfree/libertycentral/2010/may/30/felled-shame-david-laws", "apiUrl": "https://content.guardianapis.com/commentisfree/libertycentral/2010/may/30/felled-shame-david-laws", "isHosted": false, "pillarId": "pillar/opinion", "pillarName": "Opinion"}, {"id": "politics/2010/may/30/david-laws-resigns-expenses", "type": "article", "sectionId": "politics", "sectionName": "Politics", "webPublicationDate": "2010-05-30T19:05:02Z", "webTitle": "Old-fashioned scandal closes in on the coalition's new politics", "webUrl": "https://www.theguardian.com/politics/2010/may/30/david-laws-resigns-expenses", "apiUrl": "https://content.guardianapis.com/politics/2010/may/30/david-laws-resigns-expenses", "isHosted": false, "pillarId": "pillar/news", "pillarName": "News"}, {"id": "politics/2010/may/30/alexander-replaces-laws-at-treasury", "type": "article", "sectionId": "politics", "sectionName": "Politics", "webPublicationDate": "2010-05-30T18:51:22Z", "webTitle": "Danny Alexander in spotlight over tax loophole", "webUrl": "https://www.theguardian.com/politics/2010/may/30/alexander-replaces-laws-at-treasury", "apiUrl": "https://content.guardianapis.com/politics/2010/may/30/alexander-replaces-laws-at-treasury", "isHosted": false, "pillarId": "pillar/news", "pillarName": "News"}, {"id": "commentisfree/2010/may/30/gay-courage-sexuality", "type": "article", "sectionId": "commentisfree", "sectionName": "Opinion", "webPublicationDate": "2010-05-30T16:54:48Z", "webTitle": "The courage to come out | Chris Bryant", "webUrl": "https://www.theguardian.com/commentisfree/2010/may/30/gay-courage-sexuality", "apiUrl": "https://content.guardianapis.com/commentisfree/2010/may/30/gay-courage-sexuality", "isHosted": false, "pillarId": "pillar/opinion", "pillarName": "Opinion"}, {"id": "politics/2010/may/30/david-laws-commons-guidelines", "type": "article", "sectionId": "politics", "sectionName": "Politics", "webPublicationDate": "2010-05-30T16:16:48Z", "webTitle": "David Laws: what he did wrong", "webUrl": "https://www.theguardian.com/politics/2010/may/30/david-laws-commons-guidelines", "apiUrl": "https://content.guardianapis.com/politics/2010/may/30/david-laws-commons-guidelines", "isHosted": false, "pillarId": "pillar/news", "pillarName": "News"}, {"id": "uk/2010/may/30/chilcot-inquiry-iraq-france-ambassador", "type": "article", "sectionId": "uk-news", "sectionName": "UK news", "webPublicationDate": "2010-05-30T16:07:35Z", "webTitle": "Chilcot inquiry: French ambassador contradicts Labour ministers' evidence", "webUrl": "https://www.theguardian.com/uk/2010/may/30/chilcot-inquiry-iraq-france-ambassador", "apiUrl": "https://content.guardianapis.com/uk/2010/may/30/chilcot-inquiry-iraq-france-ambassador", "isHosted": false, "pillarId": "pillar/news", "pillarName": "News"}, {"id": "business/2010/may/30/british-airways-cabin-crew-strike", "type": "article", "sectionId": "business", "sectionName": "Business", "webPublicationDate": "2010-05-30T14:31:12Z", "webTitle": "British Airways cabin crew start new five-day strike", "webUrl": "https://www.theguardian.com/business/2010/may/30/british-airways-cabin-crew-strike", "apiUrl": "https://content.guardianapis.com/business/2010/may/30/british-airways-cabin-crew-strike", "isHosted": false, "pillarId": "pillar/news", "pillarName": "News"}, {"id": "politics/2010/may/30/health-advisers-alcohol-minimum-price", "type": "article", "sectionId": "politics", "sectionName": "Politics", "webPublicationDate": "2010-05-30T14:08:12Z", "webTitle": "Health advisers urge introduction of minimum price for alcohol", "webUrl": "https://www.theguardian.com/politics/2010/may/30/health-advisers-alcohol-minimum-price", "apiUrl": "https://content.guardianapis.com/politics/2010/may/30/health-advisers-alcohol-minimum-price", "isHosted": false, "pillarId": "pillar/news", "pillarName": "News"}, {"id": "politics/2010/may/30/election-date-warning-scotland-wales", "type": "article", "sectionId": "politics", "sectionName": "Politics", "webPublicationDate": "2010-05-30T13:32:07Z", "webTitle": "Election date risks Scottish and Welsh confusion, warns adviser", "webUrl": "https://www.theguardian.com/politics/2010/may/30/election-date-warning-scotland-wales", "apiUrl": "https://content.guardianapis.com/politics/2010/may/30/election-date-warning-scotland-wales", "isHosted": false, "pillarId": "pillar/news", "pillarName": "News"}, {"id": "politics/2010/may/30/david-laws-resignation-conservatives-reaction", "type": "article", "sectionId": "politics", "sectionName": "Politics", "webPublicationDate": "2010-05-30T11:56:50Z", "webTitle": "David Laws will bounce back from resignation, say senior Conservatives", "webUrl": "https://www.theguardian.com/politics/2010/may/30/david-laws-resignation-conservatives-reaction", "apiUrl": "https://content.guardianapis.com/politics/2010/may/30/david-laws-resignation-conservatives-reaction", "isHosted": false, "pillarId": "pillar/news", "pillarName": "News"}, {"id": "politics/blog/2010/may/30/michael-white-david-laws", "type": "article", "sectionId": "politics", "sectionName": "Politics", "webPublicationDate": "2010-05-30T11:05:49Z", "webTitle": "David Laws: has the press lost the plot?", "webUrl": "https://www.theguardian.com/politics/blog/2010/may/30/michael-white-david-laws", "apiUrl": "https://content.guardianapis.com/politics/blog/2010/may/30/michael-white-david-laws", "isHosted": false, "pillarId": "pillar/news", "pillarName": "News"}, {"id": "commentisfree/video/2010/may/30/jon-cruddas-labour", "type": "video", "sectionId": "commentisfree", "sectionName": "Opinion", "webPublicationDate": "2010-05-30T10:16:00Z", "webTitle": "Hay festival video:  Labour must be the voice of the voiceless | Jon Cruddas", "webUrl": "https://www.theguardian.com/commentisfree/video/2010/may/30/jon-cruddas-labour", "apiUrl": "https://content.guardianapis.com/commentisfree/video/2010/may/30/jon-cruddas-labour", "isHosted": false, "pillarId": "pillar/opinion", "pillarName": "Opinion"}, {"id": "commentisfree/2010/may/30/chagos-islanders-return-william-hague", "type": "article", "sectionId": "commentisfree", "sectionName": "Opinion", "webPublicationDate": "2010-05-30T10:00:02Z", "webTitle": "Chagos islanders must be allowed home | Sean Carey", "webUrl": "https://www.theguardian.com/commentisfree/2010/may/30/chagos-islanders-return-william-hague", "apiUrl": "https://content.guardianapis.com/commentisfree/2010/may/30/chagos-islanders-return-william-hague", "isHosted": false, "pillarId": "pillar/opinion", "pillarName": "Opinion"}, {"id": "politics/2010/may/30/david-laws-profile", "type": "article", "sectionId": "politics", "sectionName": "Politics", "webPublicationDate": "2010-05-29T23:06:33Z", "webTitle": "David Laws: smart, sharp, talented and born for the Treasury job", "webUrl": "https://www.theguardian.com/politics/2010/may/30/david-laws-profile", "apiUrl": "https://content.guardianapis.com/politics/2010/may/30/david-laws-profile", "isHosted": false, "pillarId": "pillar/news", "pillarName": "News"}, {"id": "commentisfree/2010/may/30/barbara-ellen-david-laws-resignation", "type": "article", "sectionId": "commentisfree", "sectionName": "Opinion", "webPublicationDate": "2010-05-29T23:06:27Z", "webTitle": "The David Laws story is nothing to do with gayness. It's about money | Barbara Ellen", "webUrl": "https://www.theguardian.com/commentisfree/2010/may/30/barbara-ellen-david-laws-resignation", "apiUrl": "https://content.guardianapis.com/commentisfree/2010/may/30/barbara-ellen-david-laws-resignation", "isHosted": false, "pillarId": "pillar/opinion", "pillarName": "Opinion"}, {"id": "politics/2010/may/30/david-laws-homosexuality-parliamentary-expenses", "type": "article", "sectionId": "politics", "sectionName": "Politics", "webPublicationDate": "2010-05-29T23:06:24Z", "webTitle": "David Laws has provoked his treatment at the hands of a homophobic press", "webUrl": "https://www.theguardian.com/politics/2010/may/30/david-laws-homosexuality-parliamentary-expenses", "apiUrl": "https://content.guardianapis.com/politics/2010/may/30/david-laws-homosexuality-parliamentary-expenses", "isHosted": false, "pillarId": "pillar/news", "pillarName": "News"}, {"id": "commentisfree/2010/may/30/ben-bradshaw-david-miliband-labour-leader", "type": "article", "sectionId": "commentisfree", "sectionName": "Opinion", "webPublicationDate": "2010-05-29T23:06:08Z", "webTitle": "Why I believe David Miliband should lead Labour | Ben Bradshaw", "webUrl": "https://www.theguardian.com/commentisfree/2010/may/30/ben-bradshaw-david-miliband-labour-leader", "apiUrl": "https://content.guardianapis.com/commentisfree/2010/may/30/ben-bradshaw-david-miliband-labour-leader", "isHosted": false, "pillarId": "pillar/opinion", "pillarName": "Opinion"}, {"id": "commentisfree/2010/may/30/reform-house-of-lords", "type": "article", "sectionId": "commentisfree", "sectionName": "Opinion", "webPublicationDate": "2010-05-29T23:06:06Z", "webTitle": "Wodehouse's world is still thriving in the House of Lords | Catherine Bennett", "webUrl": "https://www.theguardian.com/commentisfree/2010/may/30/reform-house-of-lords", "apiUrl": "https://content.guardianapis.com/commentisfree/2010/may/30/reform-house-of-lords", "isHosted": false, "pillarId": "pillar/opinion", "pillarName": "Opinion"}, {"id": "uk/2010/may/30/asylum-refugee-migrant-justice", "type": "article", "sectionId": "uk-news", "sectionName": "UK news", "webPublicationDate": "2010-05-29T23:06:02Z", "webTitle": "Funding crisis over legal aid threatens UK asylum chaos, ministers are warned", "webUrl": "https://www.theguardian.com/uk/2010/may/30/asylum-refugee-migrant-justice", "apiUrl": "https://content.guardianapis.com/uk/2010/may/30/asylum-refugee-migrant-justice", "isHosted": false, "pillarId": "pillar/news", "pillarName": "News"}, {"id": "politics/2010/may/29/david-laws-quits-expenses-scandal", "type": "article", "sectionId": "politics", "sectionName": "Politics", "webPublicationDate": "2010-05-29T20:05:07Z", "webTitle": "David Laws' resignation over expenses scandal leaves coalition in turmoil", "webUrl": "https://www.theguardian.com/politics/2010/may/29/david-laws-quits-expenses-scandal", "apiUrl": "https://content.guardianapis.com/politics/2010/may/29/david-laws-quits-expenses-scandal", "isHosted": false, "pillarId": "pillar/news", "pillarName": "News"}, {"id": "commentisfree/2010/may/29/graham-mckerrow-david-laws-closet", "type": "article", "sectionId": "commentisfree", "sectionName": "Opinion", "webPublicationDate": "2010-05-29T15:30:02Z", "webTitle": "David Laws: Yet again, hiding in the closet proves a politician's undoing", "webUrl": "https://www.theguardian.com/commentisfree/2010/may/29/graham-mckerrow-david-laws-closet", "apiUrl": "https://content.guardianapis.com/commentisfree/2010/may/29/graham-mckerrow-david-laws-closet", "isHosted": false, "pillarId": "pillar/opinion", "pillarName": "Opinion"}, {"id": "commentisfree/cartoon/2010/may/29/david-cameron-economic-policy-martin-rowson", "type": "picture", "sectionId": "commentisfree", "sectionName": "Opinion", "webPublicationDate": "2010-05-29T14:05:51Z", "webTitle": "Martin Rowson on David Cameron's speech", "webUrl": "https://www.theguardian.com/commentisfree/cartoon/2010/may/29/david-cameron-economic-policy-martin-rowson", "apiUrl": "https://content.guardianapis.com/commentisfree/cartoon/2010/may/29/david-cameron-economic-policy-martin-rowson", "isHosted": false, "pillarId": "pillar/opinion", "pillarName": "Opinion"}, {"id": "politics/2010/may/29/david-laws-treasury-expenses-claim", "type": "article", "sectionId": "politics", "sectionName": "Politics", "webPublicationDate": "2010-05-29T11:06:00Z", "webTitle": "Treasury chief secretary David Laws to repay \u00a340,000 expenses", "webUrl": "https://www.theguardian.com/politics/2010/may/29/david-laws-treasury-expenses-claim", "apiUrl": "https://content.guardianapis.com/politics/2010/may/29/david-laws-treasury-expenses-claim", "isHosted": false, "pillarId": "pillar/news", "pillarName": "News"}, {"id": "commentisfree/2010/may/29/david-laws-expenses", "type": "article", "sectionId": "commentisfree", "sectionName": "Opinion", "webPublicationDate": "2010-05-29T08:57:30Z", "webTitle": "David Laws: I fear he won't survive | Julian Glover", "webUrl": "https://www.theguardian.com/commentisfree/2010/may/29/david-laws-expenses", "apiUrl": "https://content.guardianapis.com/commentisfree/2010/may/29/david-laws-expenses", "isHosted": false, "pillarId": "pillar/opinion", "pillarName": "Opinion"}, {"id": "commentisfree/2010/may/29/mps-expenses-first-class-train-travel", "type": "article", "sectionId": "commentisfree", "sectionName": "Opinion", "webPublicationDate": "2010-05-29T00:59:50Z", "webTitle": "Unthinkable? First-class travel for MPs | Editorial", "webUrl": "https://www.theguardian.com/commentisfree/2010/may/29/mps-expenses-first-class-train-travel", "apiUrl": "https://content.guardianapis.com/commentisfree/2010/may/29/mps-expenses-first-class-train-travel", "isHosted": false, "pillarId": "pillar/opinion", "pillarName": "Opinion"}, {"id": "commentisfree/2010/may/29/alastair-campbells-diaries-editorial", "type": "article", "sectionId": "commentisfree", "sectionName": "Opinion", "webPublicationDate": "2010-05-28T23:07:40Z", "webTitle": "Alastair Campbell's diaries: What the spin doctor saw | Editorial", "webUrl": "https://www.theguardian.com/commentisfree/2010/may/29/alastair-campbells-diaries-editorial", "apiUrl": "https://content.guardianapis.com/commentisfree/2010/may/29/alastair-campbells-diaries-editorial", "isHosted": false, "pillarId": "pillar/opinion", "pillarName": "Opinion"}, {"id": "commentisfree/2010/may/29/david-cameron-economy", "type": "article", "sectionId": "commentisfree", "sectionName": "Opinion", "webPublicationDate": "2010-05-28T23:07:36Z", "webTitle": "David Cameron and the economy: A destination without a map | Editorial", "webUrl": "https://www.theguardian.com/commentisfree/2010/may/29/david-cameron-economy", "apiUrl": "https://content.guardianapis.com/commentisfree/2010/may/29/david-cameron-economy", "isHosted": false, "pillarId": "pillar/opinion", "pillarName": "Opinion"}, {"id": "uk/2010/may/28/english-defence-league-guardian-investigation", "type": "article", "sectionId": "uk-news", "sectionName": "UK news", "webPublicationDate": "2010-05-28T22:22:00Z", "webTitle": "English Defence League: Inside the violent world of Britain's new far right", "webUrl": "https://www.theguardian.com/uk/2010/may/28/english-defence-league-guardian-investigation", "apiUrl": "https://content.guardianapis.com/uk/2010/may/28/english-defence-league-guardian-investigation", "isHosted": false, "pillarId": "pillar/news", "pillarName": "News"}, {"id": "uk/2010/may/28/chilcot-inquiry-iraqi-army-bremer", "type": "article", "sectionId": "uk-news", "sectionName": "UK news", "webPublicationDate": "2010-05-28T21:13:38Z", "webTitle": "British officials 'backed disbanding of Iraqi army', says US ambassador", "webUrl": "https://www.theguardian.com/uk/2010/may/28/chilcot-inquiry-iraqi-army-bremer", "apiUrl": "https://content.guardianapis.com/uk/2010/may/28/chilcot-inquiry-iraqi-army-bremer", "isHosted": false, "pillarId": "pillar/news", "pillarName": "News"}, {"id": "politics/2010/may/28/alastair-campbell-diaries-tony-blair", "type": "article", "sectionId": "politics", "sectionName": "Politics", "webPublicationDate": "2010-05-28T21:00:05Z", "webTitle": "Alastair Campbell's diaries reveal Tony Blair's doubt over leadership bid", "webUrl": "https://www.theguardian.com/politics/2010/may/28/alastair-campbell-diaries-tony-blair", "apiUrl": "https://content.guardianapis.com/politics/2010/may/28/alastair-campbell-diaries-tony-blair", "isHosted": false, "pillarId": "pillar/news", "pillarName": "News"}, {"id": "uk/2010/may/28/english-defence-league-protest-bnp", "type": "article", "sectionId": "uk-news", "sectionName": "UK news", "webPublicationDate": "2010-05-28T20:12:12Z", "webTitle": "English Defence League: new wave of extremists plotting summer of unrest", "webUrl": "https://www.theguardian.com/uk/2010/may/28/english-defence-league-protest-bnp", "apiUrl": "https://content.guardianapis.com/uk/2010/may/28/english-defence-league-protest-bnp", "isHosted": false, "pillarId": "pillar/news", "pillarName": "News"}, {"id": "commentisfree/2010/may/28/mephedrone-ban-drug-classification", "type": "article", "sectionId": "commentisfree", "sectionName": "Opinion", "webPublicationDate": "2010-05-28T20:04:00Z", "webTitle": "Lessons from the mephedrone ban | David Nutt", "webUrl": "https://www.theguardian.com/commentisfree/2010/may/28/mephedrone-ban-drug-classification", "apiUrl": "https://content.guardianapis.com/commentisfree/2010/may/28/mephedrone-ban-drug-classification", "isHosted": false, "pillarId": "pillar/opinion", "pillarName": "Opinion"}, {"id": "politics/2010/may/28/dissolution-honours-list-lords-prescott", "type": "article", "sectionId": "politics", "sectionName": "Politics", "webPublicationDate": "2010-05-28T19:20:31Z", "webTitle": "John Prescott, Labour's scourge of class privilege, to take seat in House of Lords", "webUrl": "https://www.theguardian.com/politics/2010/may/28/dissolution-honours-list-lords-prescott", "apiUrl": "https://content.guardianapis.com/politics/2010/may/28/dissolution-honours-list-lords-prescott", "isHosted": false, "pillarId": "pillar/news", "pillarName": "News"}, {"id": "uk/video/2010/may/28/english-defence-league-uncovered", "type": "video", "sectionId": "uk-news", "sectionName": "UK news", "webPublicationDate": "2010-05-28T19:00:00Z", "webTitle": "The English Defence League uncovered", "webUrl": "https://www.theguardian.com/uk/video/2010/may/28/english-defence-league-uncovered", "apiUrl": "https://content.guardianapis.com/uk/video/2010/may/28/english-defence-league-uncovered", "isHosted": false, "pillarId": "pillar/news", "pillarName": "News"}, {"id": "society/2010/may/28/mephedrone-cleared-teenage-uk-deaths", "type": "article", "sectionId": "society", "sectionName": "Society", "webPublicationDate": "2010-05-28T18:31:21Z", "webTitle": "Banned mephedrone cleared of blame for two deaths", "webUrl": "https://www.theguardian.com/society/2010/may/28/mephedrone-cleared-teenage-uk-deaths", "apiUrl": "https://content.guardianapis.com/society/2010/may/28/mephedrone-cleared-teenage-uk-deaths", "isHosted": false, "pillarId": "pillar/news", "pillarName": "News"}, {"id": "politics/2010/may/28/cameron-cable-capital-gains-tax", "type": "article", "sectionId": "politics", "sectionName": "Politics", "webPublicationDate": "2010-05-28T17:32:31Z", "webTitle": "David Cameron tells Tory right to back off over capital gains tax", "webUrl": "https://www.theguardian.com/politics/2010/may/28/cameron-cable-capital-gains-tax", "apiUrl": "https://content.guardianapis.com/politics/2010/may/28/cameron-cable-capital-gains-tax", "isHosted": false, "pillarId": "pillar/news", "pillarName": "News"}, {"id": "commentisfree/2010/may/28/dissolution-honours-list-peer", "type": "article", "sectionId": "commentisfree", "sectionName": "Opinion", "webPublicationDate": "2010-05-28T16:58:24Z", "webTitle": "Honours list: peer group pressure | Open thread", "webUrl": "https://www.theguardian.com/commentisfree/2010/may/28/dissolution-honours-list-peer", "apiUrl": "https://content.guardianapis.com/commentisfree/2010/may/28/dissolution-honours-list-peer", "isHosted": false, "pillarId": "pillar/opinion", "pillarName": "Opinion"}, {"id": "politics/2010/may/28/simon-hughes-liberal-democrat-identity", "type": "article", "sectionId": "politics", "sectionName": "Politics", "webPublicationDate": "2010-05-28T16:50:09Z", "webTitle": "Simon Hughes fights to keep leftwing identity for Liberal Democrats", "webUrl": "https://www.theguardian.com/politics/2010/may/28/simon-hughes-liberal-democrat-identity", "apiUrl": "https://content.guardianapis.com/politics/2010/may/28/simon-hughes-liberal-democrat-identity", "isHosted": false, "pillarId": "pillar/news", "pillarName": "News"}, {"id": "politics/2010/may/28/john-prescott-peer-honours-list", "type": "article", "sectionId": "politics", "sectionName": "Politics", "webPublicationDate": "2010-05-28T16:32:00Z", "webTitle": "John Prescott named peer in dissolution honours list", "webUrl": "https://www.theguardian.com/politics/2010/may/28/john-prescott-peer-honours-list", "apiUrl": "https://content.guardianapis.com/politics/2010/may/28/john-prescott-peer-honours-list", "isHosted": false, "pillarId": "pillar/news", "pillarName": "News"}, {"id": "commentisfree/2010/may/28/cameron-public-sector-cuts-growth", "type": "article", "sectionId": "commentisfree", "sectionName": "Opinion", "webPublicationDate": "2010-05-28T15:45:00Z", "webTitle": "David Cameron's cuts are not a recipe for growth | Adam Lent", "webUrl": "https://www.theguardian.com/commentisfree/2010/may/28/cameron-public-sector-cuts-growth", "apiUrl": "https://content.guardianapis.com/commentisfree/2010/may/28/cameron-public-sector-cuts-growth", "isHosted": false, "pillarId": "pillar/opinion", "pillarName": "Opinion"}, {"id": "society/2010/may/28/prisons-keeping-inmates-addicted-drugs", "type": "article", "sectionId": "society", "sectionName": "Society", "webPublicationDate": "2010-05-28T15:27:00Z", "webTitle": "Prisons keeping inmates dependent on drugs, says new report", "webUrl": "https://www.theguardian.com/society/2010/may/28/prisons-keeping-inmates-addicted-drugs", "apiUrl": "https://content.guardianapis.com/society/2010/may/28/prisons-keeping-inmates-addicted-drugs", "isHosted": false, "pillarId": "pillar/news", "pillarName": "News"}, {"id": "environment/2010/may/28/chief-scientific-adviser-criticises-climate-sceptics", "type": "article", "sectionId": "environment", "sectionName": "Environment", "webPublicationDate": "2010-05-28T15:16:33Z", "webTitle": "Government's chief scientific adviser hits out at climate sceptics", "webUrl": "https://www.theguardian.com/environment/2010/may/28/chief-scientific-adviser-criticises-climate-sceptics", "apiUrl": "https://content.guardianapis.com/environment/2010/may/28/chief-scientific-adviser-criticises-climate-sceptics", "isHosted": false, "pillarId": "pillar/news", "pillarName": "News"}, {"id": "uk/2010/may/28/donations-tory-wives-businessmen", "type": "article", "sectionId": "uk-news", "sectionName": "UK news", "webPublicationDate": "2010-05-28T14:38:33Z", "webTitle": "Questions raised over Conservative party donations by businessmen's wives", "webUrl": "https://www.theguardian.com/uk/2010/may/28/donations-tory-wives-businessmen", "apiUrl": "https://content.guardianapis.com/uk/2010/may/28/donations-tory-wives-businessmen", "isHosted": false, "pillarId": "pillar/news", "pillarName": "News"}]}}