{"response": {"status": "ok", "userTier": "developer", "total": 36312, "startIndex": 1, "pageSize": 50, "currentPage": 1, "pages": 727, "orderBy": "newest", "results": [{"id": "environment/2013/may/30/tesla-supercharger-stations-coast-coast-trips", "type": "article", "sectionId": "environment", "sectionName": "Environment", "webPublicationDate": "2013-05-30T22:18:06Z", "webTitle": "Tesla to triple supercharger stations for coast-to-coast car trips", "webUrl": "https://www.theguardian.com/environment/2013/may/30/tesla-supercharger-stations-coast-coast-trips", "apiUrl": "https://content.guardianapis.com/environment/2013/may/30/tesla-supercharger-stations-coast-coast-trips", "isHosted": false, "pillarId": "pillar/news", "pillarName": "News"}, {"id": "environment/2013/may/30/buzzards-firing-line-war-wildlife", "type": "article", "sectionId": "environment", "sectionName": "Environment", "webPublicationDate": "2013-05-30T20:00:08Z", "webTitle": "Letters: Buzzards in the firing line of war over Britain's wildlife", "webUrl": "https://www.theguardian.com/environment/2013/may/30/buzzards-firing-line-war-wildlife", "apiUrl": "https://content.guardianapis.com/environment/2013/may/30/buzzards-firing-line-war-wildlife", "isHosted": false, "pillarId": "pillar/news", "pillarName": "News"}, {"id": "environment/2013/may/30/south-uist-oystercatcher-surreptitiously-suggesting-nest", "type": "article", "sectionId": "environment", "sectionName": "Environment", "webPublicationDate": "2013-05-30T19:59:01Z", "webTitle": "Country diary: South Uist: An oystercatcher rises surreptitiously, suggesting that it has a nest nearby", "webUrl": "https://www.theguardian.com/environment/2013/may/30/south-uist-oystercatcher-surreptitiously-suggesting-nest", "apiUrl": "https://content.guardianapis.com/environment/2013/may/30/south-uist-oystercatcher-surreptitiously-suggesting-nest", "isHosted": false, "pillarId": "pillar/news", "pillarName": "News"}, {"id": "world/2013/may/30/coalition-coal-seam-gas-law", "type": "article", "sectionId": "australia-news", "sectionName": "Australia news", "webPublicationDate": "2013-05-30T14:59:00Z", "webTitle": "Coalition will 'get around' new law on coal seam gas", "webUrl": "https://www.theguardian.com/world/2013/may/30/coalition-coal-seam-gas-law", "apiUrl": "https://content.guardianapis.com/world/2013/may/30/coalition-coal-seam-gas-law", "isHosted": false, "pillarId": "pillar/news", "pillarName": "News"}, {"id": "environment/blog/2013/may/30/carbon-milestone-newspapers", "type": "article", "sectionId": "environment", "sectionName": "Environment", "webPublicationDate": "2013-05-30T14:37:19Z", "webTitle": "Why did the 400ppm carbon milestone cause barely a ripple? | Andrew Simms", "webUrl": "https://www.theguardian.com/environment/blog/2013/may/30/carbon-milestone-newspapers", "apiUrl": "https://content.guardianapis.com/environment/blog/2013/may/30/carbon-milestone-newspapers", "isHosted": false, "pillarId": "pillar/news", "pillarName": "News"}, {"id": "science/blog/2013/may/30/clean-energy-carbon-choked-world", "type": "article", "sectionId": "science", "sectionName": "Science", "webPublicationDate": "2013-05-30T12:50:00Z", "webTitle": "Clean energy for a carbon-choked world | Lou Del Bello", "webUrl": "https://www.theguardian.com/science/blog/2013/may/30/clean-energy-carbon-choked-world", "apiUrl": "https://content.guardianapis.com/science/blog/2013/may/30/clean-energy-carbon-choked-world", "isHosted": false, "pillarId": "pillar/news", "pillarName": "News"}, {"id": "environment/2013/may/30/humaneness-badger-cull-judged-noise", "type": "article", "sectionId": "environment", "sectionName": "Environment", "webPublicationDate": "2013-05-30T10:45:21Z", "webTitle": "Humaneness of badger cull to be judged on noise of dying animals", "webUrl": "https://www.theguardian.com/environment/2013/may/30/humaneness-badger-cull-judged-noise", "apiUrl": "https://content.guardianapis.com/environment/2013/may/30/humaneness-badger-cull-judged-noise", "isHosted": false, "pillarId": "pillar/news", "pillarName": "News"}, {"id": "commentisfree/2013/may/30/comment-of-the-week-rewilding", "type": "article", "sectionId": "commentisfree", "sectionName": "Opinion", "webPublicationDate": "2013-05-30T10:30:01Z", "webTitle": "Comment of the week: why rewilding 'the wild' isn't so wacky | Bella Mackie", "webUrl": "https://www.theguardian.com/commentisfree/2013/may/30/comment-of-the-week-rewilding", "apiUrl": "https://content.guardianapis.com/commentisfree/2013/may/30/comment-of-the-week-rewilding", "isHosted": false, "pillarId": "pillar/opinion", "pillarName": "Opinion"}, {"id": "environment/gallery/2013/may/30/google-street-view-maps-galapagos-islands-in-pictures", "type": "gallery", "sectionId": "environment", "sectionName": "Environment", "webPublicationDate": "2013-05-30T09:59:10Z", "webTitle": "Google Street View maps Gal\u00e1pagos Islands \u2013 in pictures", "webUrl": "https://www.theguardian.com/environment/gallery/2013/may/30/google-street-view-maps-galapagos-islands-in-pictures", "apiUrl": "https://content.guardianapis.com/environment/gallery/2013/may/30/google-street-view-maps-galapagos-islands-in-pictures", "isHosted": false, "pillarId": "pillar/news", "pillarName": "News"}, {"id": "world/2013/may/30/japanese-firm-endangered-whale-pet-treats", "type": "article", "sectionId": "environment", "sectionName": "Environment", "webPublicationDate": "2013-05-30T09:30:53Z", "webTitle": "Japanese firm stops selling endangered whale pet treats", "webUrl": "https://www.theguardian.com/world/2013/may/30/japanese-firm-endangered-whale-pet-treats", "apiUrl": "https://content.guardianapis.com/world/2013/may/30/japanese-firm-endangered-whale-pet-treats", "isHosted": false, "pillarId": "pillar/news", "pillarName": "News"}, {"id": "environment/2013/may/30/portishead-somerset", "type": "article", "sectionId": "environment", "sectionName": "Environment", "webPublicationDate": "2013-05-30T09:25:05Z", "webTitle": "Country diary: Portishead, North Somerset: Where the currents of the past and present continue to converge", "webUrl": "https://www.theguardian.com/environment/2013/may/30/portishead-somerset", "apiUrl": "https://content.guardianapis.com/environment/2013/may/30/portishead-somerset", "isHosted": false, "pillarId": "pillar/news", "pillarName": "News"}, {"id": "environment/blog/video/2013/may/30/rewilding-animation-george-monbiot-video", "type": "video", "sectionId": "environment", "sectionName": "Environment", "webPublicationDate": "2013-05-30T08:33:00Z", "webTitle": "Rewilding made simple, an animated guide - video", "webUrl": "https://www.theguardian.com/environment/blog/video/2013/may/30/rewilding-animation-george-monbiot-video", "apiUrl": "https://content.guardianapis.com/environment/blog/video/2013/may/30/rewilding-animation-george-monbiot-video", "isHosted": false, "pillarId": "pillar/news", "pillarName": "News"}, {"id": "commentisfree/2013/may/30/fossil-fuel-divestment-climate-change", "type": "article", "sectionId": "commentisfree", "sectionName": "Opinion", "webPublicationDate": "2013-05-30T06:46:00Z", "webTitle": "It's time to stop investing in the fossil fuel industry | Bill McKibben ", "webUrl": "https://www.theguardian.com/commentisfree/2013/may/30/fossil-fuel-divestment-climate-change", "apiUrl": "https://content.guardianapis.com/commentisfree/2013/may/30/fossil-fuel-divestment-climate-change", "isHosted": false, "pillarId": "pillar/opinion", "pillarName": "Opinion"}, {"id": "books/2013/may/30/sea-inside-philip-hoare-review", "type": "article", "sectionId": "books", "sectionName": "Books", "webPublicationDate": "2013-05-30T06:30:01Z", "webTitle": "The Sea Inside by Philip Hoare \u2013 review", "webUrl": "https://www.theguardian.com/books/2013/may/30/sea-inside-philip-hoare-review", "apiUrl": "https://content.guardianapis.com/books/2013/may/30/sea-inside-philip-hoare-review", "isHosted": false, "pillarId": "pillar/arts", "pillarName": "Arts"}, {"id": "environment/southern-crossroads/2013/may/29/1", "type": "article", "sectionId": "environment", "sectionName": "Environment", "webPublicationDate": "2013-05-29T22:00:00Z", "webTitle": "Welcome to Victoria, no wind farms allowed | Alexander White", "webUrl": "https://www.theguardian.com/environment/southern-crossroads/2013/may/29/1", "apiUrl": "https://content.guardianapis.com/environment/southern-crossroads/2013/may/29/1", "isHosted": false, "pillarId": "pillar/news", "pillarName": "News"}, {"id": "environment/2013/may/29/achvaneran-highlands-pheasants-ducks-deer", "type": "article", "sectionId": "environment", "sectionName": "Environment", "webPublicationDate": "2013-05-29T19:59:01Z", "webTitle": "Country diary: Achvaneran, Highlands: A nightly procession of pheasants, ducks, deer and badgers in the garden", "webUrl": "https://www.theguardian.com/environment/2013/may/29/achvaneran-highlands-pheasants-ducks-deer", "apiUrl": "https://content.guardianapis.com/environment/2013/may/29/achvaneran-highlands-pheasants-ducks-deer", "isHosted": false, "pillarId": "pillar/news", "pillarName": "News"}, {"id": "world/2013/may/29/erratic-us-weather-climate-change", "type": "article", "sectionId": "world", "sectionName": "World news", "webPublicationDate": "2013-05-29T19:22:00Z", "webTitle": "Erratic US 'weather whiplash' accounts for billions of dollars in global losses", "webUrl": "https://www.theguardian.com/world/2013/may/29/erratic-us-weather-climate-change", "apiUrl": "https://content.guardianapis.com/world/2013/may/29/erratic-us-weather-climate-change", "isHosted": false, "pillarId": "pillar/news", "pillarName": "News"}, {"id": "global/shortcuts/2013/may/29/ants-ring-doorbell-germany", "type": "article", "sectionId": "world", "sectionName": "World news", "webPublicationDate": "2013-05-29T17:34:54Z", "webTitle": "Ants in Germany repeatedly ring woman's doorbell", "webUrl": "https://www.theguardian.com/global/shortcuts/2013/may/29/ants-ring-doorbell-germany", "apiUrl": "https://content.guardianapis.com/global/shortcuts/2013/may/29/ants-ring-doorbell-germany", "isHosted": false, "pillarId": "pillar/news", "pillarName": "News"}, {"id": "environment/2013/may/29/cavity-wall-insulations-crash-green-deal", "type": "article", "sectionId": "environment", "sectionName": "Environment", "webPublicationDate": "2013-05-29T15:53:11Z", "webTitle": "Cavity wall insulations crash by 97% following green deal introduction", "webUrl": "https://www.theguardian.com/environment/2013/may/29/cavity-wall-insulations-crash-green-deal", "apiUrl": "https://content.guardianapis.com/environment/2013/may/29/cavity-wall-insulations-crash-green-deal", "isHosted": false, "pillarId": "pillar/news", "pillarName": "News"}, {"id": "commentisfree/2013/may/29/brazil-indigenous-people-violates-rights", "type": "article", "sectionId": "commentisfree", "sectionName": "Opinion", "webPublicationDate": "2013-05-29T15:46:00Z", "webTitle": "Brazil's treatment of its indigenous people violates their rights | Fiona Watson", "webUrl": "https://www.theguardian.com/commentisfree/2013/may/29/brazil-indigenous-people-violates-rights", "apiUrl": "https://content.guardianapis.com/commentisfree/2013/may/29/brazil-indigenous-people-violates-rights", "isHosted": false, "pillarId": "pillar/opinion", "pillarName": "Opinion"}, {"id": "environment/2013/may/29/uk-emissions-fell-further-eu-2011", "type": "article", "sectionId": "environment", "sectionName": "Environment", "webPublicationDate": "2013-05-29T14:17:07Z", "webTitle": "UK emissions fell further than other EU nations after mild 2011", "webUrl": "https://www.theguardian.com/environment/2013/may/29/uk-emissions-fell-further-eu-2011", "apiUrl": "https://content.guardianapis.com/environment/2013/may/29/uk-emissions-fell-further-eu-2011", "isHosted": false, "pillarId": "pillar/news", "pillarName": "News"}, {"id": "artanddesign/jonathanjonesblog/2013/may/29/jonathan-truss-paint-great-white-sharks", "type": "article", "sectionId": "artanddesign", "sectionName": "Art and design", "webPublicationDate": "2013-05-29T14:00:45Z", "webTitle": "Jonathan Truss's brush with death to paint great white sharks", "webUrl": "https://www.theguardian.com/artanddesign/jonathanjonesblog/2013/may/29/jonathan-truss-paint-great-white-sharks", "apiUrl": "https://content.guardianapis.com/artanddesign/jonathanjonesblog/2013/may/29/jonathan-truss-paint-great-white-sharks", "isHosted": false, "pillarId": "pillar/arts", "pillarName": "Arts"}, {"id": "environment/2013/may/29/gm-hybrid-fish-threat-natural-populations", "type": "article", "sectionId": "environment", "sectionName": "Environment", "webPublicationDate": "2013-05-29T11:55:34Z", "webTitle": "GM 'hybrid' fish pose threat to natural populations, scientists warn", "webUrl": "https://www.theguardian.com/environment/2013/may/29/gm-hybrid-fish-threat-natural-populations", "apiUrl": "https://content.guardianapis.com/environment/2013/may/29/gm-hybrid-fish-threat-natural-populations", "isHosted": false, "pillarId": "pillar/news", "pillarName": "News"}, {"id": "world/2013/may/29/coalition-act-illegally-green-bank", "type": "article", "sectionId": "australia-news", "sectionName": "Australia news", "webPublicationDate": "2013-05-29T04:51:00Z", "webTitle": "Coalition is asking us to act illegally, says green investment bank", "webUrl": "https://www.theguardian.com/world/2013/may/29/coalition-act-illegally-green-bank", "apiUrl": "https://content.guardianapis.com/world/2013/may/29/coalition-act-illegally-green-bank", "isHosted": false, "pillarId": "pillar/news", "pillarName": "News"}, {"id": "business/2013/may/28/walmart-pleads-guilty-hazardous-waste", "type": "article", "sectionId": "business", "sectionName": "Business", "webPublicationDate": "2013-05-28T21:05:00Z", "webTitle": "Walmart pleads guilty to dumping hazardous waste in California", "webUrl": "https://www.theguardian.com/business/2013/may/28/walmart-pleads-guilty-hazardous-waste", "apiUrl": "https://content.guardianapis.com/business/2013/may/28/walmart-pleads-guilty-hazardous-waste", "isHosted": false, "pillarId": "pillar/news", "pillarName": "News"}, {"id": "environment/2013/may/28/wenlock-edge-wild-garlic-flowers", "type": "article", "sectionId": "environment", "sectionName": "Environment", "webPublicationDate": "2013-05-28T20:00:01Z", "webTitle": "Country diary: Wenlock Edge: Wild garlic flowers open up to reveal secret life behind white pulse of spring", "webUrl": "https://www.theguardian.com/environment/2013/may/28/wenlock-edge-wild-garlic-flowers", "apiUrl": "https://content.guardianapis.com/environment/2013/may/28/wenlock-edge-wild-garlic-flowers", "isHosted": false, "pillarId": "pillar/news", "pillarName": "News"}, {"id": "world/2013/may/28/un-ban-kimoon-wildlife-trafficking-central-africa", "type": "article", "sectionId": "environment", "sectionName": "Environment", "webPublicationDate": "2013-05-28T19:36:34Z", "webTitle": "Ban Ki-moon to warn UN security council of dangers of wildlife trafficking", "webUrl": "https://www.theguardian.com/world/2013/may/28/un-ban-kimoon-wildlife-trafficking-central-africa", "apiUrl": "https://content.guardianapis.com/world/2013/may/28/un-ban-kimoon-wildlife-trafficking-central-africa", "isHosted": false, "pillarId": "pillar/news", "pillarName": "News"}, {"id": "environment/shortcuts/2013/may/28/could-video-game-save-badgers", "type": "article", "sectionId": "environment", "sectionName": "Environment", "webPublicationDate": "2013-05-28T17:45:01Z", "webTitle": "Could a video game save the badgers?", "webUrl": "https://www.theguardian.com/environment/shortcuts/2013/may/28/could-video-game-save-badgers", "apiUrl": "https://content.guardianapis.com/environment/shortcuts/2013/may/28/could-video-game-save-badgers", "isHosted": false, "pillarId": "pillar/news", "pillarName": "News"}, {"id": "environment/2013/may/28/drones-changing-face-conservation", "type": "article", "sectionId": "environment", "sectionName": "Environment", "webPublicationDate": "2013-05-28T14:21:21Z", "webTitle": "'Drones are changing the face of conservation'", "webUrl": "https://www.theguardian.com/environment/2013/may/28/drones-changing-face-conservation", "apiUrl": "https://content.guardianapis.com/environment/2013/may/28/drones-changing-face-conservation", "isHosted": false, "pillarId": "pillar/news", "pillarName": "News"}, {"id": "world/picture/2013/may/28/brazil-photography-environment", "type": "picture", "sectionId": "world", "sectionName": "World news", "webPublicationDate": "2013-05-28T13:44:36Z", "webTitle": "Environmental protest in Brazil - picture of the day", "webUrl": "https://www.theguardian.com/world/picture/2013/may/28/brazil-photography-environment", "apiUrl": "https://content.guardianapis.com/world/picture/2013/may/28/brazil-photography-environment", "isHosted": false, "pillarId": "pillar/news", "pillarName": "News"}, {"id": "lifeandstyle/gardening-blog/2013/may/28/live-chat-wildlife-gardener-kate-bradbury-post-questions", "type": "article", "sectionId": "lifeandstyle", "sectionName": "Life and style", "webPublicationDate": "2013-05-28T12:56:35Z", "webTitle": "Live chat with wildlife gardener Kate Bradbury", "webUrl": "https://www.theguardian.com/lifeandstyle/gardening-blog/2013/may/28/live-chat-wildlife-gardener-kate-bradbury-post-questions", "apiUrl": "https://content.guardianapis.com/lifeandstyle/gardening-blog/2013/may/28/live-chat-wildlife-gardener-kate-bradbury-post-questions", "isHosted": false, "pillarId": "pillar/lifestyle", "pillarName": "Lifestyle"}, {"id": "lifeandstyle/2013/may/28/wildlife-gardener-kate-bradbury-extract", "type": "article", "sectionId": "lifeandstyle", "sectionName": "Life and style", "webPublicationDate": "2013-05-28T12:56:32Z", "webTitle": "The Wildlife Gardener by Kate Bradbury - extract", "webUrl": "https://www.theguardian.com/lifeandstyle/2013/may/28/wildlife-gardener-kate-bradbury-extract", "apiUrl": "https://content.guardianapis.com/lifeandstyle/2013/may/28/wildlife-gardener-kate-bradbury-extract", "isHosted": false, "pillarId": "pillar/lifestyle", "pillarName": "Lifestyle"}, {"id": "environment/2013/may/28/fipronil-fourth-insecticide-risk-honeybees", "type": "article", "sectionId": "environment", "sectionName": "Environment", "webPublicationDate": "2013-05-28T11:27:42Z", "webTitle": "Fipronil named as fourth insecticide to pose risk to honeybees", "webUrl": "https://www.theguardian.com/environment/2013/may/28/fipronil-fourth-insecticide-risk-honeybees", "apiUrl": "https://content.guardianapis.com/environment/2013/may/28/fipronil-fourth-insecticide-risk-honeybees", "isHosted": false, "pillarId": "pillar/news", "pillarName": "News"}, {"id": "environment/chinas-choice/2013/may/25/climate-change-art-exhibition-beijing", "type": "article", "sectionId": "environment", "sectionName": "Environment", "webPublicationDate": "2013-05-28T09:20:00Z", "webTitle": "Climate change art exhibition opens in Beijing | Jennifer Duggan", "webUrl": "https://www.theguardian.com/environment/chinas-choice/2013/may/25/climate-change-art-exhibition-beijing", "apiUrl": "https://content.guardianapis.com/environment/chinas-choice/2013/may/25/climate-change-art-exhibition-beijing", "isHosted": false, "pillarId": "pillar/news", "pillarName": "News"}, {"id": "environment/2013/may/28/south-australian-dolphin-deaths", "type": "article", "sectionId": "environment", "sectionName": "Environment", "webPublicationDate": "2013-05-28T03:11:00Z", "webTitle": "Warmer seas could lead to more dolphin deaths in South Australia", "webUrl": "https://www.theguardian.com/environment/2013/may/28/south-australian-dolphin-deaths", "apiUrl": "https://content.guardianapis.com/environment/2013/may/28/south-australian-dolphin-deaths", "isHosted": false, "pillarId": "pillar/news", "pillarName": "News"}, {"id": "commentisfree/2013/may/27/my-manifesto-rewilding-world", "type": "article", "sectionId": "commentisfree", "sectionName": "Opinion", "webPublicationDate": "2013-05-27T19:30:00Z", "webTitle": "Here is my manifesto for\u00a0rewilding the world | George Monbiot", "webUrl": "https://www.theguardian.com/commentisfree/2013/may/27/my-manifesto-rewilding-world", "apiUrl": "https://content.guardianapis.com/commentisfree/2013/may/27/my-manifesto-rewilding-world", "isHosted": false, "pillarId": "pillar/opinion", "pillarName": "Opinion"}, {"id": "environment/2013/may/27/badger-cull-bovine-tuberculosis", "type": "article", "sectionId": "environment", "sectionName": "Environment", "webPublicationDate": "2013-05-27T14:27:45Z", "webTitle": "Counting the cost: fears badger cull could worsen bovine TB crisis", "webUrl": "https://www.theguardian.com/environment/2013/may/27/badger-cull-bovine-tuberculosis", "apiUrl": "https://content.guardianapis.com/environment/2013/may/27/badger-cull-bovine-tuberculosis", "isHosted": false, "pillarId": "pillar/news", "pillarName": "News"}, {"id": "environment/2013/may/27/badger-cull-bovine-tuberculosis1", "type": "article", "sectionId": "environment", "sectionName": "Environment", "webPublicationDate": "2013-05-27T13:19:19Z", "webTitle": "Culls risk illegally exterminating badgers, animal expert warns", "webUrl": "https://www.theguardian.com/environment/2013/may/27/badger-cull-bovine-tuberculosis1", "apiUrl": "https://content.guardianapis.com/environment/2013/may/27/badger-cull-bovine-tuberculosis1", "isHosted": false, "pillarId": "pillar/news", "pillarName": "News"}, {"id": "lifeandstyle/wordofmouth/2013/may/27/live-chat-michael-pollan-post-questions", "type": "article", "sectionId": "lifeandstyle", "sectionName": "Life and style", "webPublicationDate": "2013-05-27T09:00:00Z", "webTitle": "Live chat: Michael Pollan", "webUrl": "https://www.theguardian.com/lifeandstyle/wordofmouth/2013/may/27/live-chat-michael-pollan-post-questions", "apiUrl": "https://content.guardianapis.com/lifeandstyle/wordofmouth/2013/may/27/live-chat-michael-pollan-post-questions", "isHosted": false, "pillarId": "pillar/lifestyle", "pillarName": "Lifestyle"}, {"id": "environment/2013/may/26/claxton-norfolk-swift-earth-interconnectedness", "type": "article", "sectionId": "environment", "sectionName": "Environment", "webPublicationDate": "2013-05-26T20:00:01Z", "webTitle": "Country diary: Claxton, Norfolk: The swift is a bird that screams of the Earth's intricate interconnectedness", "webUrl": "https://www.theguardian.com/environment/2013/may/26/claxton-norfolk-swift-earth-interconnectedness", "apiUrl": "https://content.guardianapis.com/environment/2013/may/26/claxton-norfolk-swift-earth-interconnectedness", "isHosted": false, "pillarId": "pillar/news", "pillarName": "News"}, {"id": "environment/2013/may/26/green-campaigners-attack-government-climate-change", "type": "article", "sectionId": "environment", "sectionName": "Environment", "webPublicationDate": "2013-05-26T18:04:00Z", "webTitle": "Green groups attack government resistance to EU climate change goals", "webUrl": "https://www.theguardian.com/environment/2013/may/26/green-campaigners-attack-government-climate-change", "apiUrl": "https://content.guardianapis.com/environment/2013/may/26/green-campaigners-attack-government-climate-change", "isHosted": false, "pillarId": "pillar/news", "pillarName": "News"}, {"id": "environment/2013/may/26/which-clothing-labels-are-greener", "type": "article", "sectionId": "environment", "sectionName": "Environment", "webPublicationDate": "2013-05-26T07:30:16Z", "webTitle": "Which clothing labels are greener?", "webUrl": "https://www.theguardian.com/environment/2013/may/26/which-clothing-labels-are-greener", "apiUrl": "https://content.guardianapis.com/environment/2013/may/26/which-clothing-labels-are-greener", "isHosted": false, "pillarId": "pillar/news", "pillarName": "News"}, {"id": "books/2013/may/26/feeding-frenzy-hungry-man-rayner-review", "type": "article", "sectionId": "books", "sectionName": "Books", "webPublicationDate": "2013-05-26T07:00:00Z", "webTitle": "Feeding Frenzy by Paul McMahon; A Greedy Man in a Hungry World by Jay Rayner \u2013 review", "webUrl": "https://www.theguardian.com/books/2013/may/26/feeding-frenzy-hungry-man-rayner-review", "apiUrl": "https://content.guardianapis.com/books/2013/may/26/feeding-frenzy-hungry-man-rayner-review", "isHosted": false, "pillarId": "pillar/arts", "pillarName": "Arts"}, {"id": "world/2013/may/26/sumatra-borneo-deforestation-tigers-palm-oil", "type": "article", "sectionId": "global-development", "sectionName": "Global development", "webPublicationDate": "2013-05-26T07:00:00Z", "webTitle": "'The Sumatran rainforest will mostly disappear within 20 years'", "webUrl": "https://www.theguardian.com/world/2013/may/26/sumatra-borneo-deforestation-tigers-palm-oil", "apiUrl": "https://content.guardianapis.com/world/2013/may/26/sumatra-borneo-deforestation-tigers-palm-oil", "isHosted": false, "pillarId": "pillar/news", "pillarName": "News"}, {"id": "environment/2013/may/26/tigers-stronghold-sumatra-poachers", "type": "article", "sectionId": "environment", "sectionName": "Environment", "webPublicationDate": "2013-05-26T07:00:00Z", "webTitle": "Industry, fires and poachers shrink Sumatran tigers' last stronghold", "webUrl": "https://www.theguardian.com/environment/2013/may/26/tigers-stronghold-sumatra-poachers", "apiUrl": "https://content.guardianapis.com/environment/2013/may/26/tigers-stronghold-sumatra-poachers", "isHosted": false, "pillarId": "pillar/news", "pillarName": "News"}, {"id": "world/2013/may/25/indonesia-new-corporate-colonialism", "type": "article", "sectionId": "global-development", "sectionName": "Global development", "webPublicationDate": "2013-05-25T22:00:00Z", "webTitle": "'Indonesia is seeing a new corporate colonialism'", "webUrl": "https://www.theguardian.com/world/2013/may/25/indonesia-new-corporate-colonialism", "apiUrl": "https://content.guardianapis.com/world/2013/may/25/indonesia-new-corporate-colonialism", "isHosted": false, "pillarId": "pillar/news", "pillarName": "News"}, {"id": "environment/2013/may/25/uk-blocks-eu-target-renewable-energy", "type": "article", "sectionId": "environment", "sectionName": "Environment", "webPublicationDate": "2013-05-25T20:11:23Z", "webTitle": "Britain resists EU bid to set new target on renewable energy", "webUrl": "https://www.theguardian.com/environment/2013/may/25/uk-blocks-eu-target-renewable-energy", "apiUrl": "https://content.guardianapis.com/environment/2013/may/25/uk-blocks-eu-target-renewable-energy", "isHosted": false, "pillarId": "pillar/news", "pillarName": "News"}, {"id": "lifeandstyle/2013/may/25/what-fish-do-aquarist-zoo", "type": "article", "sectionId": "lifeandstyle", "sectionName": "Life and style", "webPublicationDate": "2013-05-25T06:00:00Z", "webTitle": "Ask a grown-up: what do fish do all\u00a0day?", "webUrl": "https://www.theguardian.com/lifeandstyle/2013/may/25/what-fish-do-aquarist-zoo", "apiUrl": "https://content.guardianapis.com/lifeandstyle/2013/may/25/what-fish-do-aquarist-zoo", "isHosted": false, "pillarId": "pillar/lifestyle", "pillarName": "Lifestyle"}, {"id": "science/2013/may/24/plantwatch-bluebells-wild-garlic", "type": "article", "sectionId": "science", "sectionName": "Science", "webPublicationDate": "2013-05-24T20:30:02Z", "webTitle": "Plantwatch: The battle for the ancient British bluebell woods", "webUrl": "https://www.theguardian.com/science/2013/may/24/plantwatch-bluebells-wild-garlic", "apiUrl": "https://content.guardianapis.com/science/2013/may/24/plantwatch-bluebells-wild-garlic", "isHosted": false, "pillarId": "pillar/news", "pillarName": "News"}, {"id": "environment/2013/may/24/aberdaron-headland-distinctive-western-light", "type": "article", "sectionId": "environment", "sectionName": "Environment", "webPublicationDate": "2013-05-24T20:00:15Z", "webTitle": "Country diary: Aberdaron: The headland is, as ever, spacious and bathed in that distinctive western light", "webUrl": "https://www.theguardian.com/environment/2013/may/24/aberdaron-headland-distinctive-western-light", "apiUrl": "https://content.guardianapis.com/environment/2013/may/24/aberdaron-headland-distinctive-western-light", "isHosted": false, "pillarId": "pillar/news", "pillarName": "News"}]}}