{"response": {"status": "ok", "userTier": "developer", "total": 88846, "startIndex": 1, "pageSize": 50, "currentPage": 1, "pages": 1777, "orderBy": "newest", "results": [{"id": "football/blog/2013/may/30/mark-hughes-stoke-city-transfer-dealings", "type": "article", "sectionId": "football", "sectionName": "Football", "webPublicationDate": "2013-05-30T22:00:05Z", "webTitle": "Stoke City are hoping Mark Hughes can tidy up their transfer dealings | Paul Wilson", "webUrl": "https://www.theguardian.com/football/blog/2013/may/30/mark-hughes-stoke-city-transfer-dealings", "apiUrl": "https://content.guardianapis.com/football/blog/2013/may/30/mark-hughes-stoke-city-transfer-dealings", "isHosted": false, "pillarId": "pillar/sport", "pillarName": "Sport"}, {"id": "football/2013/may/30/england-roy-hodgson-gary-lineker-brazil", "type": "article", "sectionId": "football", "sectionName": "Football", "webPublicationDate": "2013-05-30T22:00:00Z", "webTitle": "Roy Hodgson resists call for England tactical change before Brazil test", "webUrl": "https://www.theguardian.com/football/2013/may/30/england-roy-hodgson-gary-lineker-brazil", "apiUrl": "https://content.guardianapis.com/football/2013/may/30/england-roy-hodgson-gary-lineker-brazil", "isHosted": false, "pillarId": "pillar/sport", "pillarName": "Sport"}, {"id": "football/2013/may/30/mark-hughes-stoke-city-qpr", "type": "article", "sectionId": "football", "sectionName": "Football", "webPublicationDate": "2013-05-30T22:00:00Z", "webTitle": "Mark Hughes urges Stoke fans: 'Don't judge me on QPR fiasco'", "webUrl": "https://www.theguardian.com/football/2013/may/30/mark-hughes-stoke-city-qpr", "apiUrl": "https://content.guardianapis.com/football/2013/may/30/mark-hughes-stoke-city-qpr", "isHosted": false, "pillarId": "pillar/sport", "pillarName": "Sport"}, {"id": "football/2013/may/30/paris-saint-germain-leonardo-suspended", "type": "article", "sectionId": "football", "sectionName": "Football", "webPublicationDate": "2013-05-30T21:48:00Z", "webTitle": "Paris Saint-Germain's Leonardo gets nine-month ban for barging referee", "webUrl": "https://www.theguardian.com/football/2013/may/30/paris-saint-germain-leonardo-suspended", "apiUrl": "https://content.guardianapis.com/football/2013/may/30/paris-saint-germain-leonardo-suspended", "isHosted": false, "pillarId": "pillar/sport", "pillarName": "Sport"}, {"id": "football/2013/may/30/liverpool-daniel-sturridge-injury", "type": "article", "sectionId": "football", "sectionName": "Football", "webPublicationDate": "2013-05-30T21:30:04Z", "webTitle": "Liverpool fear injury will cut into Daniel Sturridge's pre-season training", "webUrl": "https://www.theguardian.com/football/2013/may/30/liverpool-daniel-sturridge-injury", "apiUrl": "https://content.guardianapis.com/football/2013/may/30/liverpool-daniel-sturridge-injury", "isHosted": false, "pillarId": "pillar/sport", "pillarName": "Sport"}, {"id": "football/2013/may/30/roberto-martinez-everton-second-interview", "type": "article", "sectionId": "football", "sectionName": "Football", "webPublicationDate": "2013-05-30T21:30:03Z", "webTitle": "Roberto Mart\u00ednez set for second interview for Everton manager's job", "webUrl": "https://www.theguardian.com/football/2013/may/30/roberto-martinez-everton-second-interview", "apiUrl": "https://content.guardianapis.com/football/2013/may/30/roberto-martinez-everton-second-interview", "isHosted": false, "pillarId": "pillar/sport", "pillarName": "Sport"}, {"id": "football/blog/2013/may/30/john-barnes-maracana-goal-england", "type": "article", "sectionId": "football", "sectionName": "Football", "webPublicationDate": "2013-05-30T21:30:02Z", "webTitle": "John Barnes: 'My Maracan\u00e3 goal was like an out-of-body experience' | Sachin Nakrani", "webUrl": "https://www.theguardian.com/football/blog/2013/may/30/john-barnes-maracana-goal-england", "apiUrl": "https://content.guardianapis.com/football/blog/2013/may/30/john-barnes-maracana-goal-england", "isHosted": false, "pillarId": "pillar/sport", "pillarName": "Sport"}, {"id": "artanddesign/gallery/2013/may/30/daft-punk-jeremy-deller-observer-photography", "type": "gallery", "sectionId": "artanddesign", "sectionName": "Art and design", "webPublicationDate": "2013-05-30T17:11:00Z", "webTitle": "Original Observer photography: May", "webUrl": "https://www.theguardian.com/artanddesign/gallery/2013/may/30/daft-punk-jeremy-deller-observer-photography", "apiUrl": "https://content.guardianapis.com/artanddesign/gallery/2013/may/30/daft-punk-jeremy-deller-observer-photography", "isHosted": false, "pillarId": "pillar/arts", "pillarName": "Arts"}, {"id": "football/2013/may/30/ron-davies-obituary", "type": "article", "sectionId": "football", "sectionName": "Football", "webPublicationDate": "2013-05-30T16:55:16Z", "webTitle": "Ron Davies obituary", "webUrl": "https://www.theguardian.com/football/2013/may/30/ron-davies-obituary", "apiUrl": "https://content.guardianapis.com/football/2013/may/30/ron-davies-obituary", "isHosted": false, "pillarId": "pillar/sport", "pillarName": "Sport"}, {"id": "football/blog/2013/may/30/england-roy-hodgson-blame-game", "type": "article", "sectionId": "football", "sectionName": "Football", "webPublicationDate": "2013-05-30T16:39:28Z", "webTitle": "Same old story for England as Roy Hodgson is caught in the blame game | Barney Ronay", "webUrl": "https://www.theguardian.com/football/blog/2013/may/30/england-roy-hodgson-blame-game", "apiUrl": "https://content.guardianapis.com/football/blog/2013/may/30/england-roy-hodgson-blame-game", "isHosted": false, "pillarId": "pillar/sport", "pillarName": "Sport"}, {"id": "football/2013/may/30/rangers-walter-smith-chairman", "type": "article", "sectionId": "football", "sectionName": "Football", "webPublicationDate": "2013-05-30T15:12:04Z", "webTitle": "Rangers appoint Walter Smith as non-executive chairman", "webUrl": "https://www.theguardian.com/football/2013/may/30/rangers-walter-smith-chairman", "apiUrl": "https://content.guardianapis.com/football/2013/may/30/rangers-walter-smith-chairman", "isHosted": false, "pillarId": "pillar/sport", "pillarName": "Sport"}, {"id": "football/2013/may/30/the-fiver-england-roy-hodgson", "type": "article", "sectionId": "football", "sectionName": "Football", "webPublicationDate": "2013-05-30T14:54:18Z", "webTitle": "The Fiver | The Lobanovskyian approach to the application of cybernetics in football", "webUrl": "https://www.theguardian.com/football/2013/may/30/the-fiver-england-roy-hodgson", "apiUrl": "https://content.guardianapis.com/football/2013/may/30/the-fiver-england-roy-hodgson", "isHosted": false, "pillarId": "pillar/sport", "pillarName": "Sport"}, {"id": "football/2013/may/30/real-chelsea-juventus-international-champions-cup", "type": "article", "sectionId": "football", "sectionName": "Football", "webPublicationDate": "2013-05-30T14:36:45Z", "webTitle": "Real, Chelsea and Juventus among field for US-based Champions Cup", "webUrl": "https://www.theguardian.com/football/2013/may/30/real-chelsea-juventus-international-champions-cup", "apiUrl": "https://content.guardianapis.com/football/2013/may/30/real-chelsea-juventus-international-champions-cup", "isHosted": false, "pillarId": "pillar/sport", "pillarName": "Sport"}, {"id": "football/2013/may/30/galaxy-sounders-quakes-us-open-cup", "type": "article", "sectionId": "football", "sectionName": "Football", "webPublicationDate": "2013-05-30T13:46:00Z", "webTitle": "Galaxy, Sounders and Quakes crash out of US Open Cup Third Round", "webUrl": "https://www.theguardian.com/football/2013/may/30/galaxy-sounders-quakes-us-open-cup", "apiUrl": "https://content.guardianapis.com/football/2013/may/30/galaxy-sounders-quakes-us-open-cup", "isHosted": false, "pillarId": "pillar/sport", "pillarName": "Sport"}, {"id": "football/2013/may/30/bolton-fans-petition-quidquick-sponsorship", "type": "article", "sectionId": "football", "sectionName": "Football", "webPublicationDate": "2013-05-30T13:25:32Z", "webTitle": "Bolton fans launch online petition against QuickQuid sponsorship deal", "webUrl": "https://www.theguardian.com/football/2013/may/30/bolton-fans-petition-quidquick-sponsorship", "apiUrl": "https://content.guardianapis.com/football/2013/may/30/bolton-fans-petition-quidquick-sponsorship", "isHosted": false, "pillarId": "pillar/sport", "pillarName": "Sport"}, {"id": "football/blog/2013/may/30/the-bandinis-2013-review-serie-a-season", "type": "article", "sectionId": "football", "sectionName": "Football", "webPublicationDate": "2013-05-30T12:34:58Z", "webTitle": "The Bandinis 2013: an utterly exhaustive review of the Serie A season | Paolo Bandini", "webUrl": "https://www.theguardian.com/football/blog/2013/may/30/the-bandinis-2013-review-serie-a-season", "apiUrl": "https://content.guardianapis.com/football/blog/2013/may/30/the-bandinis-2013-review-serie-a-season", "isHosted": false, "pillarId": "pillar/sport", "pillarName": "Sport"}, {"id": "football/2013/may/30/christian-benteke-usa-belgium-stuart-holden", "type": "article", "sectionId": "football", "sectionName": "Football", "webPublicationDate": "2013-05-30T12:30:00Z", "webTitle": "Christian Benteke's double helps Belgium to 4-2 victory over USA", "webUrl": "https://www.theguardian.com/football/2013/may/30/christian-benteke-usa-belgium-stuart-holden", "apiUrl": "https://content.guardianapis.com/football/2013/may/30/christian-benteke-usa-belgium-stuart-holden", "isHosted": false, "pillarId": "pillar/sport", "pillarName": "Sport"}, {"id": "football/blog/2013/may/30/england-442-dark-ages-borussia-dortmund", "type": "article", "sectionId": "football", "sectionName": "Football", "webPublicationDate": "2013-05-30T12:27:36Z", "webTitle": "England's 4-4-2: in the dark ages or just like Borussia Dortmund? | Michael Cox", "webUrl": "https://www.theguardian.com/football/blog/2013/may/30/england-442-dark-ages-borussia-dortmund", "apiUrl": "https://content.guardianapis.com/football/blog/2013/may/30/england-442-dark-ages-borussia-dortmund", "isHosted": false, "pillarId": "pillar/sport", "pillarName": "Sport"}, {"id": "football/2013/may/30/adrian-mutu-adopt-baby-sewage-pipe", "type": "article", "sectionId": "football", "sectionName": "Football", "webPublicationDate": "2013-05-30T12:07:08Z", "webTitle": "Adrian Mutu wants to adopt baby rescued from sewage pipe in China", "webUrl": "https://www.theguardian.com/football/2013/may/30/adrian-mutu-adopt-baby-sewage-pipe", "apiUrl": "https://content.guardianapis.com/football/2013/may/30/adrian-mutu-adopt-baby-sewage-pipe", "isHosted": false, "pillarId": "pillar/sport", "pillarName": "Sport"}, {"id": "football/video/2013/may/30/romanian-goalkeeper-bites-opponent-video", "type": "video", "sectionId": "football", "sectionName": "Football", "webPublicationDate": "2013-05-30T12:07:00Z", "webTitle": "Romanian goalkeeper bites opponent in match with seven red cards \u2013 video", "webUrl": "https://www.theguardian.com/football/video/2013/may/30/romanian-goalkeeper-bites-opponent-video", "apiUrl": "https://content.guardianapis.com/football/video/2013/may/30/romanian-goalkeeper-bites-opponent-video", "isHosted": false, "pillarId": "pillar/sport", "pillarName": "Sport"}, {"id": "football/2013/may/30/sepp-blatter-fifa-great-survivor", "type": "article", "sectionId": "football", "sectionName": "Football", "webPublicationDate": "2013-05-30T11:40:39Z", "webTitle": "Sepp Blatter: how Fifa's great survivor has stayed on top", "webUrl": "https://www.theguardian.com/football/2013/may/30/sepp-blatter-fifa-great-survivor", "apiUrl": "https://content.guardianapis.com/football/2013/may/30/sepp-blatter-fifa-great-survivor", "isHosted": false, "pillarId": "pillar/sport", "pillarName": "Sport"}, {"id": "football/gallery/2013/may/30/football-50-top-transfer-window-targets", "type": "gallery", "sectionId": "football", "sectionName": "Football", "webPublicationDate": "2013-05-30T09:44:00Z", "webTitle": "Football's 50 top transfer window targets \u2013 in pictures", "webUrl": "https://www.theguardian.com/football/gallery/2013/may/30/football-50-top-transfer-window-targets", "apiUrl": "https://content.guardianapis.com/football/gallery/2013/may/30/football-50-top-transfer-window-targets", "isHosted": false, "pillarId": "pillar/sport", "pillarName": "Sport"}, {"id": "football/2013/may/30/football-transfer-rumours-cesc-fabregas-manchester", "type": "article", "sectionId": "football", "sectionName": "Football", "webPublicationDate": "2013-05-30T07:52:18Z", "webTitle": "Football transfer rumours: Cesc F\u00e1bregas to head to Manchester?", "webUrl": "https://www.theguardian.com/football/2013/may/30/football-transfer-rumours-cesc-fabregas-manchester", "apiUrl": "https://content.guardianapis.com/football/2013/may/30/football-transfer-rumours-cesc-fabregas-manchester", "isHosted": false, "pillarId": "pillar/sport", "pillarName": "Sport"}, {"id": "global/2013/may/30/usa-belgium-international-friendly", "type": "liveblog", "sectionId": "football", "sectionName": "Football", "webPublicationDate": "2013-05-30T02:14:00Z", "webTitle": "USA 2-4 Belgium - as it happened", "webUrl": "https://www.theguardian.com/global/2013/may/30/usa-belgium-international-friendly", "apiUrl": "https://content.guardianapis.com/global/2013/may/30/usa-belgium-international-friendly", "isHosted": false, "pillarId": "pillar/sport", "pillarName": "Sport"}, {"id": "football/2013/may/30/roy-hodgson-england-gary-lineker", "type": "article", "sectionId": "football", "sectionName": "Football", "webPublicationDate": "2013-05-29T23:52:48Z", "webTitle": "Roy Hodgson's England are in the 'dark ages', says Gary Lineker", "webUrl": "https://www.theguardian.com/football/2013/may/30/roy-hodgson-england-gary-lineker", "apiUrl": "https://content.guardianapis.com/football/2013/may/30/roy-hodgson-england-gary-lineker", "isHosted": false, "pillarId": "pillar/sport", "pillarName": "Sport"}, {"id": "sport/blog/2013/may/30/classic-youtube-best-sports-clips", "type": "article", "sectionId": "sport", "sectionName": "Sport", "webPublicationDate": "2013-05-29T23:05:03Z", "webTitle": "Classic YouTube | Neymar's best bits, a N\u00fcrburgring rain dance and great Jumbotron moments", "webUrl": "https://www.theguardian.com/sport/blog/2013/may/30/classic-youtube-best-sports-clips", "apiUrl": "https://content.guardianapis.com/sport/blog/2013/may/30/classic-youtube-best-sports-clips", "isHosted": false, "pillarId": "pillar/sport", "pillarName": "Sport"}, {"id": "football/blog/2013/may/29/england-wayne-rooney-strikers", "type": "article", "sectionId": "football", "sectionName": "Football", "webPublicationDate": "2013-05-29T22:24:24Z", "webTitle": "Roy Hodgson left to ponder on striking lack of foil for Wayne Rooney | Barney Ronay", "webUrl": "https://www.theguardian.com/football/blog/2013/may/29/england-wayne-rooney-strikers", "apiUrl": "https://content.guardianapis.com/football/blog/2013/may/29/england-wayne-rooney-strikers", "isHosted": false, "pillarId": "pillar/sport", "pillarName": "Sport"}, {"id": "football/2013/may/29/manchester-city-manuel-pellegrini", "type": "article", "sectionId": "football", "sectionName": "Football", "webPublicationDate": "2013-05-29T22:19:39Z", "webTitle": "Manchester City have verbal agreement with me, says Manuel Pellegrini", "webUrl": "https://www.theguardian.com/football/2013/may/29/manchester-city-manuel-pellegrini", "apiUrl": "https://content.guardianapis.com/football/2013/may/29/manchester-city-manuel-pellegrini", "isHosted": false, "pillarId": "pillar/sport", "pillarName": "Sport"}, {"id": "football/blog/2013/may/29/england-republic-ireland-five-talking-points", "type": "article", "sectionId": "football", "sectionName": "Football", "webPublicationDate": "2013-05-29T21:12:55Z", "webTitle": "England v Republic of Ireland: five talking points | Dominic Fifield", "webUrl": "https://www.theguardian.com/football/blog/2013/may/29/england-republic-ireland-five-talking-points", "apiUrl": "https://content.guardianapis.com/football/blog/2013/may/29/england-republic-ireland-five-talking-points", "isHosted": false, "pillarId": "pillar/sport", "pillarName": "Sport"}, {"id": "football/2013/may/29/republic-of-ireland-england-performance", "type": "article", "sectionId": "football", "sectionName": "Football", "webPublicationDate": "2013-05-29T21:12:06Z", "webTitle": "Republic of Ireland hold England with performance full of promise", "webUrl": "https://www.theguardian.com/football/2013/may/29/republic-of-ireland-england-performance", "apiUrl": "https://content.guardianapis.com/football/2013/may/29/republic-of-ireland-england-performance", "isHosted": false, "pillarId": "pillar/sport", "pillarName": "Sport"}, {"id": "football/2013/may/29/england-republic-ireland-friendly-match", "type": "article", "sectionId": "football", "sectionName": "Football", "webPublicationDate": "2013-05-29T20:58:51Z", "webTitle": "England 1-1 Republic of Ireland | International friendly match report", "webUrl": "https://www.theguardian.com/football/2013/may/29/england-republic-ireland-friendly-match", "apiUrl": "https://content.guardianapis.com/football/2013/may/29/england-republic-ireland-friendly-match", "isHosted": false, "pillarId": "pillar/sport", "pillarName": "Sport"}, {"id": "football/2013/may/29/england-republic-of-ireland-live", "type": "liveblog", "sectionId": "football", "sectionName": "Football", "webPublicationDate": "2013-05-29T20:57:00Z", "webTitle": "England v Republic of Ireland \u2013 as it happened", "webUrl": "https://www.theguardian.com/football/2013/may/29/england-republic-of-ireland-live", "apiUrl": "https://content.guardianapis.com/football/2013/may/29/england-republic-of-ireland-live", "isHosted": false, "pillarId": "pillar/sport", "pillarName": "Sport"}, {"id": "football/2013/may/29/liverpool-luis-suarez-real-madrid", "type": "article", "sectionId": "football", "sectionName": "Football", "webPublicationDate": "2013-05-29T20:16:34Z", "webTitle": "Luis Su\u00e1rez admits interest in Real Madrid transfer from Liverpool", "webUrl": "https://www.theguardian.com/football/2013/may/29/liverpool-luis-suarez-real-madrid", "apiUrl": "https://content.guardianapis.com/football/2013/may/29/liverpool-luis-suarez-real-madrid", "isHosted": false, "pillarId": "pillar/sport", "pillarName": "Sport"}, {"id": "world/2013/may/29/desmond-tutu-uefa-boycott-israel", "type": "article", "sectionId": "world", "sectionName": "World news", "webPublicationDate": "2013-05-29T20:00:01Z", "webTitle": "Letters: Desmond Tutu and the call for a Uefa boycott of Israel", "webUrl": "https://www.theguardian.com/world/2013/may/29/desmond-tutu-uefa-boycott-israel", "apiUrl": "https://content.guardianapis.com/world/2013/may/29/desmond-tutu-uefa-boycott-israel", "isHosted": false, "pillarId": "pillar/news", "pillarName": "News"}, {"id": "football/gallery/2013/may/29/england-republic-of-ireland-in-pictures", "type": "gallery", "sectionId": "football", "sectionName": "Football", "webPublicationDate": "2013-05-29T19:45:00Z", "webTitle": "England v Republic of Ireland - in pictures", "webUrl": "https://www.theguardian.com/football/gallery/2013/may/29/england-republic-of-ireland-in-pictures", "apiUrl": "https://content.guardianapis.com/football/gallery/2013/may/29/england-republic-of-ireland-in-pictures", "isHosted": false, "pillarId": "pillar/sport", "pillarName": "Sport"}, {"id": "football/2013/may/29/sepp-blatter-fifa-female-official", "type": "article", "sectionId": "football", "sectionName": "Football", "webPublicationDate": "2013-05-29T18:11:02Z", "webTitle": "Sepp Blatter calls female Fifa candidate 'good and good-looking'", "webUrl": "https://www.theguardian.com/football/2013/may/29/sepp-blatter-fifa-female-official", "apiUrl": "https://content.guardianapis.com/football/2013/may/29/sepp-blatter-fifa-female-official", "isHosted": false, "pillarId": "pillar/sport", "pillarName": "Sport"}, {"id": "football/2013/may/29/everton-roberto-martinez", "type": "article", "sectionId": "football", "sectionName": "Football", "webPublicationDate": "2013-05-29T18:07:57Z", "webTitle": "Everton open talks with Roberto Mart\u00ednez but others are on 'the list'", "webUrl": "https://www.theguardian.com/football/2013/may/29/everton-roberto-martinez", "apiUrl": "https://content.guardianapis.com/football/2013/may/29/everton-roberto-martinez", "isHosted": false, "pillarId": "pillar/sport", "pillarName": "Sport"}, {"id": "football/2013/may/29/norwich-grant-holt-melbourne-heart", "type": "article", "sectionId": "football", "sectionName": "Football", "webPublicationDate": "2013-05-29T17:22:22Z", "webTitle": "Norwich turn down bid for Grant Holt from Australian side Melbourne Heart", "webUrl": "https://www.theguardian.com/football/2013/may/29/norwich-grant-holt-melbourne-heart", "apiUrl": "https://content.guardianapis.com/football/2013/may/29/norwich-grant-holt-melbourne-heart", "isHosted": false, "pillarId": "pillar/sport", "pillarName": "Sport"}, {"id": "football/2013/may/29/the-fiver-england-republic-of-ireland", "type": "article", "sectionId": "football", "sectionName": "Football", "webPublicationDate": "2013-05-29T14:52:27Z", "webTitle": "The Fiver | A resumption of Anglo-Irish international football relations", "webUrl": "https://www.theguardian.com/football/2013/may/29/the-fiver-england-republic-of-ireland", "apiUrl": "https://content.guardianapis.com/football/2013/may/29/the-fiver-england-republic-of-ireland", "isHosted": false, "pillarId": "pillar/sport", "pillarName": "Sport"}, {"id": "football/video/2013/may/29/bayern-munich-brand-manchester-united-video", "type": "video", "sectionId": "football", "sectionName": "Football", "webPublicationDate": "2013-05-29T13:33:00Z", "webTitle": "Bayern Munich brand 'more valuable than Manchester United's' \u2013 video", "webUrl": "https://www.theguardian.com/football/video/2013/may/29/bayern-munich-brand-manchester-united-video", "apiUrl": "https://content.guardianapis.com/football/video/2013/may/29/bayern-munich-brand-manchester-united-video", "isHosted": false, "pillarId": "pillar/sport", "pillarName": "Sport"}, {"id": "football/blog/2013/may/29/club-buy-transfer-window-open-thread", "type": "article", "sectionId": "football", "sectionName": "Football", "webPublicationDate": "2013-05-29T13:10:18Z", "webTitle": "Who should your club buy and sell in the transfer window? \u2013 open thread", "webUrl": "https://www.theguardian.com/football/blog/2013/may/29/club-buy-transfer-window-open-thread", "apiUrl": "https://content.guardianapis.com/football/blog/2013/may/29/club-buy-transfer-window-open-thread", "isHosted": false, "pillarId": "pillar/sport", "pillarName": "Sport"}, {"id": "football/2013/may/29/altidore-dempsey-bradley-usa-world-cup", "type": "article", "sectionId": "football", "sectionName": "Football", "webPublicationDate": "2013-05-29T13:00:00Z", "webTitle": "Altidore, Dempsey and Bradley: How did US stars fare in Europe?", "webUrl": "https://www.theguardian.com/football/2013/may/29/altidore-dempsey-bradley-usa-world-cup", "apiUrl": "https://content.guardianapis.com/football/2013/may/29/altidore-dempsey-bradley-usa-world-cup", "isHosted": false, "pillarId": "pillar/sport", "pillarName": "Sport"}, {"id": "football/quiz/2013/may/29/football-quiz-name-stadiums-aerial-view", "type": "article", "sectionId": "global", "sectionName": "Global", "webPublicationDate": "2013-05-29T11:29:00Z", "webTitle": "Football quiz: name the stadium from the aerial view", "webUrl": "https://www.theguardian.com/football/quiz/2013/may/29/football-quiz-name-stadiums-aerial-view", "apiUrl": "https://content.guardianapis.com/football/quiz/2013/may/29/football-quiz-name-stadiums-aerial-view", "isHosted": false}, {"id": "football/video/2013/may/29/robin-van-persie-freestyle-football-video", "type": "video", "sectionId": "football", "sectionName": "Football", "webPublicationDate": "2013-05-29T10:23:00Z", "webTitle": "Robin van Persie dazzles kids with freestyle football skills \u2013 video", "webUrl": "https://www.theguardian.com/football/video/2013/may/29/robin-van-persie-freestyle-football-video", "apiUrl": "https://content.guardianapis.com/football/video/2013/may/29/robin-van-persie-freestyle-football-video", "isHosted": false, "pillarId": "pillar/sport", "pillarName": "Sport"}, {"id": "football/blog/2013/may/29/everton-club-badge-fans-motto", "type": "article", "sectionId": "football", "sectionName": "Football", "webPublicationDate": "2013-05-29T10:10:18Z", "webTitle": "Everton, Latin lessons and learning to listen to fans over club badge | Paul Wilson", "webUrl": "https://www.theguardian.com/football/blog/2013/may/29/everton-club-badge-fans-motto", "apiUrl": "https://content.guardianapis.com/football/blog/2013/may/29/everton-club-badge-fans-motto", "isHosted": false, "pillarId": "pillar/sport", "pillarName": "Sport"}, {"id": "football/2013/may/29/gareth-bale-tottenham-hotspur-real-madrid", "type": "article", "sectionId": "football", "sectionName": "Football", "webPublicationDate": "2013-05-29T10:00:00Z", "webTitle": "Gareth Bale's agent would listen to an offer from Real Madrid", "webUrl": "https://www.theguardian.com/football/2013/may/29/gareth-bale-tottenham-hotspur-real-madrid", "apiUrl": "https://content.guardianapis.com/football/2013/may/29/gareth-bale-tottenham-hotspur-real-madrid", "isHosted": false, "pillarId": "pillar/sport", "pillarName": "Sport"}, {"id": "football/video/2013/may/29/neymar-barcelona-butterflies-stomach-video", "type": "video", "sectionId": "football", "sectionName": "Football", "webPublicationDate": "2013-05-29T09:08:00Z", "webTitle": "Neymar has 'butterflies in his stomach' over playing for Barcelona \u2013 video", "webUrl": "https://www.theguardian.com/football/video/2013/may/29/neymar-barcelona-butterflies-stomach-video", "apiUrl": "https://content.guardianapis.com/football/video/2013/may/29/neymar-barcelona-butterflies-stomach-video", "isHosted": false, "pillarId": "pillar/sport", "pillarName": "Sport"}, {"id": "football/2013/may/29/jimmy-floyd-hasselbaink-royal-antwerp-manager", "type": "article", "sectionId": "football", "sectionName": "Football", "webPublicationDate": "2013-05-29T08:57:15Z", "webTitle": "Jimmy Floyd Hasselbaink named manager of Royal Antwerp", "webUrl": "https://www.theguardian.com/football/2013/may/29/jimmy-floyd-hasselbaink-royal-antwerp-manager", "apiUrl": "https://content.guardianapis.com/football/2013/may/29/jimmy-floyd-hasselbaink-royal-antwerp-manager", "isHosted": false, "pillarId": "pillar/sport", "pillarName": "Sport"}, {"id": "football/video/2013/may/29/lampard-cole-england-captaincy-video", "type": "video", "sectionId": "football", "sectionName": "Football", "webPublicationDate": "2013-05-29T08:18:00Z", "webTitle": "Frank Lampard: Ashley Cole deserves England captaincy for Ireland match \u2013 video", "webUrl": "https://www.theguardian.com/football/video/2013/may/29/lampard-cole-england-captaincy-video", "apiUrl": "https://content.guardianapis.com/football/video/2013/may/29/lampard-cole-england-captaincy-video", "isHosted": false, "pillarId": "pillar/sport", "pillarName": "Sport"}, {"id": "football/2013/may/29/the-rumour-mill-arsenal-martin-skrtel", "type": "article", "sectionId": "football", "sectionName": "Football", "webPublicationDate": "2013-05-29T07:47:47Z", "webTitle": "Football transfer rumours: Arsenal to sign Martin Skrtel from Liverpool?", "webUrl": "https://www.theguardian.com/football/2013/may/29/the-rumour-mill-arsenal-martin-skrtel", "apiUrl": "https://content.guardianapis.com/football/2013/may/29/the-rumour-mill-arsenal-martin-skrtel", "isHosted": false, "pillarId": "pillar/sport", "pillarName": "Sport"}]}}