{"response": {"status": "ok", "userTier": "developer", "total": 14816, "startIndex": 1, "pageSize": 50, "currentPage": 1, "pages": 297, "orderBy": "newest", "results": [{"id": "lifeandstyle/2010/may/30/food-restaurants-macho-eating-live", "type": "article", "sectionId": "food", "sectionName": "Food", "webPublicationDate": "2010-05-29T23:06:04Z", "webTitle": "Macho foodies in New York develop a taste for notoriety", "webUrl": "https://www.theguardian.com/lifeandstyle/2010/may/30/food-restaurants-macho-eating-live", "apiUrl": "https://content.guardianapis.com/lifeandstyle/2010/may/30/food-restaurants-macho-eating-live", "isHosted": false, "pillarId": "pillar/lifestyle", "pillarName": "Lifestyle"}, {"id": "lifeandstyle/2010/may/30/jay-rayner-restaurant-review-bar-boulud", "type": "article", "sectionId": "food", "sectionName": "Food", "webPublicationDate": "2010-05-29T23:05:04Z", "webTitle": "Restaurant review: Bar Boulud | Jay Rayner", "webUrl": "https://www.theguardian.com/lifeandstyle/2010/may/30/jay-rayner-restaurant-review-bar-boulud", "apiUrl": "https://content.guardianapis.com/lifeandstyle/2010/may/30/jay-rayner-restaurant-review-bar-boulud", "isHosted": false, "pillarId": "pillar/lifestyle", "pillarName": "Lifestyle"}, {"id": "travel/2010/may/29/best-traditional-british-food-regional", "type": "article", "sectionId": "travel", "sectionName": "Travel", "webPublicationDate": "2010-05-28T23:06:19Z", "webTitle": "Insider's guide to the best British food, and where to find it", "webUrl": "https://www.theguardian.com/travel/2010/may/29/best-traditional-british-food-regional", "apiUrl": "https://content.guardianapis.com/travel/2010/may/29/best-traditional-british-food-regional", "isHosted": false, "pillarId": "pillar/lifestyle", "pillarName": "Lifestyle"}, {"id": "lifeandstyle/2010/may/29/viajante-london-e2-restaurant-review", "type": "article", "sectionId": "lifeandstyle", "sectionName": "Life and style", "webPublicationDate": "2010-05-28T23:03:55Z", "webTitle": "Restaurant: Viajante, London E2 | Matthew Norman", "webUrl": "https://www.theguardian.com/lifeandstyle/2010/may/29/viajante-london-e2-restaurant-review", "apiUrl": "https://content.guardianapis.com/lifeandstyle/2010/may/29/viajante-london-e2-restaurant-review", "isHosted": false, "pillarId": "pillar/lifestyle", "pillarName": "Lifestyle"}, {"id": "lifeandstyle/2010/may/29/jelly-recipes-hugh-fearnley-whittingstall", "type": "article", "sectionId": "lifeandstyle", "sectionName": "Life and style", "webPublicationDate": "2010-05-28T23:03:42Z", "webTitle": "Jelly recipes | Hugh Fearnley-Whittingstall", "webUrl": "https://www.theguardian.com/lifeandstyle/2010/may/29/jelly-recipes-hugh-fearnley-whittingstall", "apiUrl": "https://content.guardianapis.com/lifeandstyle/2010/may/29/jelly-recipes-hugh-fearnley-whittingstall", "isHosted": false, "pillarId": "pillar/lifestyle", "pillarName": "Lifestyle"}, {"id": "lifeandstyle/2010/may/29/watercress-salad-ricotta-recipe-ottolenghi", "type": "article", "sectionId": "lifeandstyle", "sectionName": "Life and style", "webPublicationDate": "2010-05-28T23:03:03Z", "webTitle": "Watercress salad with quail's egg, ricotta and seeds recipe | Yotam Ottolenghi | Vegetarian", "webUrl": "https://www.theguardian.com/lifeandstyle/2010/may/29/watercress-salad-ricotta-recipe-ottolenghi", "apiUrl": "https://content.guardianapis.com/lifeandstyle/2010/may/29/watercress-salad-ricotta-recipe-ottolenghi", "isHosted": false, "pillarId": "pillar/lifestyle", "pillarName": "Lifestyle"}, {"id": "lifeandstyle/2010/may/29/chocolate-berry-cake-recipe-lepard", "type": "article", "sectionId": "lifeandstyle", "sectionName": "Life and style", "webPublicationDate": "2010-05-28T23:03:02Z", "webTitle": "Dark chocolate berry cake recipe | Dan Lepard | Baking", "webUrl": "https://www.theguardian.com/lifeandstyle/2010/may/29/chocolate-berry-cake-recipe-lepard", "apiUrl": "https://content.guardianapis.com/lifeandstyle/2010/may/29/chocolate-berry-cake-recipe-lepard", "isHosted": false, "pillarId": "pillar/lifestyle", "pillarName": "Lifestyle"}, {"id": "lifeandstyle/wordofmouth/2010/may/28/alain-de-botton-dinner-party", "type": "article", "sectionId": "lifeandstyle", "sectionName": "Life and style", "webPublicationDate": "2010-05-28T09:43:54Z", "webTitle": "Alain de Botton's perfect dinner party turns my stomach", "webUrl": "https://www.theguardian.com/lifeandstyle/wordofmouth/2010/may/28/alain-de-botton-dinner-party", "apiUrl": "https://content.guardianapis.com/lifeandstyle/wordofmouth/2010/may/28/alain-de-botton-dinner-party", "isHosted": false, "pillarId": "pillar/lifestyle", "pillarName": "Lifestyle"}, {"id": "lifeandstyle/wordofmouth/2010/may/27/restaurant-websites", "type": "article", "sectionId": "lifeandstyle", "sectionName": "Life and style", "webPublicationDate": "2010-05-27T08:50:00Z", "webTitle": "Restaurant websites: the food, the bad and the ugly", "webUrl": "https://www.theguardian.com/lifeandstyle/wordofmouth/2010/may/27/restaurant-websites", "apiUrl": "https://content.guardianapis.com/lifeandstyle/wordofmouth/2010/may/27/restaurant-websites", "isHosted": false, "pillarId": "pillar/lifestyle", "pillarName": "Lifestyle"}, {"id": "lifeandstyle/wordofmouth/2010/may/27/best-barbecue-bbq-marinade-recipe", "type": "article", "sectionId": "lifeandstyle", "sectionName": "Life and style", "webPublicationDate": "2010-05-27T07:00:00Z", "webTitle": "What's the best barbecue marinade?", "webUrl": "https://www.theguardian.com/lifeandstyle/wordofmouth/2010/may/27/best-barbecue-bbq-marinade-recipe", "apiUrl": "https://content.guardianapis.com/lifeandstyle/wordofmouth/2010/may/27/best-barbecue-bbq-marinade-recipe", "isHosted": false, "pillarId": "pillar/lifestyle", "pillarName": "Lifestyle"}, {"id": "lifeandstyle/2010/may/26/how-to-have-ethical-barbecue", "type": "article", "sectionId": "food", "sectionName": "Food", "webPublicationDate": "2010-05-26T20:00:03Z", "webTitle": "How to have an ethical barbecue", "webUrl": "https://www.theguardian.com/lifeandstyle/2010/may/26/how-to-have-ethical-barbecue", "apiUrl": "https://content.guardianapis.com/lifeandstyle/2010/may/26/how-to-have-ethical-barbecue", "isHosted": false, "pillarId": "pillar/lifestyle", "pillarName": "Lifestyle"}, {"id": "lifeandstyle/gallery/2010/may/26/food-and-drink", "type": "gallery", "sectionId": "lifeandstyle", "sectionName": "Life and style", "webPublicationDate": "2010-05-26T20:00:02Z", "webTitle": "The test\u2026 Eco barbecues", "webUrl": "https://www.theguardian.com/lifeandstyle/gallery/2010/may/26/food-and-drink", "apiUrl": "https://content.guardianapis.com/lifeandstyle/gallery/2010/may/26/food-and-drink", "isHosted": false, "pillarId": "pillar/lifestyle", "pillarName": "Lifestyle"}, {"id": "business/2010/may/26/ocado-waitrose-new-deal", "type": "article", "sectionId": "business", "sectionName": "Business", "webPublicationDate": "2010-05-26T13:32:11Z", "webTitle": "Ocado signs new exclusive 10-year deal to supply Waitrose products", "webUrl": "https://www.theguardian.com/business/2010/may/26/ocado-waitrose-new-deal", "apiUrl": "https://content.guardianapis.com/business/2010/may/26/ocado-waitrose-new-deal", "isHosted": false, "pillarId": "pillar/news", "pillarName": "News"}, {"id": "lifeandstyle/wordofmouth/2010/may/26/cheese-dessert-first", "type": "article", "sectionId": "lifeandstyle", "sectionName": "Life and style", "webPublicationDate": "2010-05-26T08:40:00Z", "webTitle": "Cheese or dessert first?", "webUrl": "https://www.theguardian.com/lifeandstyle/wordofmouth/2010/may/26/cheese-dessert-first", "apiUrl": "https://content.guardianapis.com/lifeandstyle/wordofmouth/2010/may/26/cheese-dessert-first", "isHosted": false, "pillarId": "pillar/lifestyle", "pillarName": "Lifestyle"}, {"id": "business/2010/may/25/magners-cider-stopped-sales-decline", "type": "article", "sectionId": "business", "sectionName": "Business", "webPublicationDate": "2010-05-25T16:06:10Z", "webTitle": "Repositioning Magners cider has slowed sales decline, C&C says", "webUrl": "https://www.theguardian.com/business/2010/may/25/magners-cider-stopped-sales-decline", "apiUrl": "https://content.guardianapis.com/business/2010/may/25/magners-cider-stopped-sales-decline", "isHosted": false, "pillarId": "pillar/news", "pillarName": "News"}, {"id": "lifeandstyle/wordofmouth/2010/may/25/consider-liquorice", "type": "article", "sectionId": "lifeandstyle", "sectionName": "Life and style", "webPublicationDate": "2010-05-25T09:00:00Z", "webTitle": "Consider liquorice", "webUrl": "https://www.theguardian.com/lifeandstyle/wordofmouth/2010/may/25/consider-liquorice", "apiUrl": "https://content.guardianapis.com/lifeandstyle/wordofmouth/2010/may/25/consider-liquorice", "isHosted": false, "pillarId": "pillar/lifestyle", "pillarName": "Lifestyle"}, {"id": "business/2010/may/24/uk-firm-exports-curry-india", "type": "article", "sectionId": "business", "sectionName": "Business", "webPublicationDate": "2010-05-24T17:23:27Z", "webTitle": "Currying favour in India: UK firm sending spicy treats to subcontinent", "webUrl": "https://www.theguardian.com/business/2010/may/24/uk-firm-exports-curry-india", "apiUrl": "https://content.guardianapis.com/business/2010/may/24/uk-firm-exports-curry-india", "isHosted": false, "pillarId": "pillar/news", "pillarName": "News"}, {"id": "education/2010/may/24/soggy-cereal-science", "type": "article", "sectionId": "education", "sectionName": "Education", "webPublicationDate": "2010-05-24T16:00:02Z", "webTitle": "Improbable research: How to stop your cereals going soggy", "webUrl": "https://www.theguardian.com/education/2010/may/24/soggy-cereal-science", "apiUrl": "https://content.guardianapis.com/education/2010/may/24/soggy-cereal-science", "isHosted": false, "pillarId": "pillar/news", "pillarName": "News"}, {"id": "environment/2010/may/24/marks-and-spencer-fairtrade-vegetables", "type": "article", "sectionId": "global-development", "sectionName": "Global development", "webPublicationDate": "2010-05-24T14:24:40Z", "webTitle": "Marks & Spencer to sell Fairtrade vegetables", "webUrl": "https://www.theguardian.com/environment/2010/may/24/marks-and-spencer-fairtrade-vegetables", "apiUrl": "https://content.guardianapis.com/environment/2010/may/24/marks-and-spencer-fairtrade-vegetables", "isHosted": false, "pillarId": "pillar/news", "pillarName": "News"}, {"id": "lifeandstyle/wordofmouth/2010/may/24/holiday-travel-food", "type": "article", "sectionId": "lifeandstyle", "sectionName": "Life and style", "webPublicationDate": "2010-05-24T09:40:00Z", "webTitle": "Immovable feasts: food that doesn't travel", "webUrl": "https://www.theguardian.com/lifeandstyle/wordofmouth/2010/may/24/holiday-travel-food", "apiUrl": "https://content.guardianapis.com/lifeandstyle/wordofmouth/2010/may/24/holiday-travel-food", "isHosted": false, "pillarId": "pillar/lifestyle", "pillarName": "Lifestyle"}, {"id": "environment/2010/may/24/sustainable-fish-seafood-supermarkets-labels", "type": "article", "sectionId": "environment", "sectionName": "Environment", "webPublicationDate": "2010-05-24T06:00:08Z", "webTitle": "Britons want to buy sustainable fish but labels leave us baffled", "webUrl": "https://www.theguardian.com/environment/2010/may/24/sustainable-fish-seafood-supermarkets-labels", "apiUrl": "https://content.guardianapis.com/environment/2010/may/24/sustainable-fish-seafood-supermarkets-labels", "isHosted": false, "pillarId": "pillar/news", "pillarName": "News"}, {"id": "commentisfree/2010/may/23/fridge-sighs-cucumbers-mushrooms", "type": "article", "sectionId": "commentisfree", "sectionName": "Opinion", "webPublicationDate": "2010-05-23T20:59:03Z", "webTitle": "My fridge of\u00a0sighs | Ariane Sherine", "webUrl": "https://www.theguardian.com/commentisfree/2010/may/23/fridge-sighs-cucumbers-mushrooms", "apiUrl": "https://content.guardianapis.com/commentisfree/2010/may/23/fridge-sighs-cucumbers-mushrooms", "isHosted": false, "pillarId": "pillar/opinion", "pillarName": "Opinion"}, {"id": "lifeandstyle/2010/may/23/jay-rayner-restaurant-review-milestone-sheffield", "type": "article", "sectionId": "travel", "sectionName": "Travel", "webPublicationDate": "2010-05-22T23:04:03Z", "webTitle": "Restaurant review: Milestone in Sheffield | Jay Rayner", "webUrl": "https://www.theguardian.com/lifeandstyle/2010/may/23/jay-rayner-restaurant-review-milestone-sheffield", "apiUrl": "https://content.guardianapis.com/lifeandstyle/2010/may/23/jay-rayner-restaurant-review-milestone-sheffield", "isHosted": false, "pillarId": "pillar/lifestyle", "pillarName": "Lifestyle"}, {"id": "commentisfree/2010/may/22/european-obesity-day-awareness", "type": "article", "sectionId": "commentisfree", "sectionName": "Opinion", "webPublicationDate": "2010-05-22T08:00:03Z", "webTitle": "Obesity awareness is not the problem | Neville Rigby", "webUrl": "https://www.theguardian.com/commentisfree/2010/may/22/european-obesity-day-awareness", "apiUrl": "https://content.guardianapis.com/commentisfree/2010/may/22/european-obesity-day-awareness", "isHosted": false, "pillarId": "pillar/opinion", "pillarName": "Opinion"}, {"id": "lifeandstyle/2010/may/22/chickens-eggs-coop-pets-recipe", "type": "article", "sectionId": "lifeandstyle", "sectionName": "Life and style", "webPublicationDate": "2010-05-21T23:07:00Z", "webTitle": "Chickens - the pets that keep on giving", "webUrl": "https://www.theguardian.com/lifeandstyle/2010/may/22/chickens-eggs-coop-pets-recipe", "apiUrl": "https://content.guardianapis.com/lifeandstyle/2010/may/22/chickens-eggs-coop-pets-recipe", "isHosted": false, "pillarId": "pillar/lifestyle", "pillarName": "Lifestyle"}, {"id": "lifeandstyle/2010/may/22/kathmandu-inn-london-restaurant-review", "type": "article", "sectionId": "lifeandstyle", "sectionName": "Life and style", "webPublicationDate": "2010-05-21T23:02:50Z", "webTitle": "Restaurant: Kathmandu Inn, London W12 | Matthew Norman", "webUrl": "https://www.theguardian.com/lifeandstyle/2010/may/22/kathmandu-inn-london-restaurant-review", "apiUrl": "https://content.guardianapis.com/lifeandstyle/2010/may/22/kathmandu-inn-london-restaurant-review", "isHosted": false, "pillarId": "pillar/lifestyle", "pillarName": "Lifestyle"}, {"id": "lifeandstyle/2010/may/22/beetroot-fritters-yoghurt-recipe-ottolenghi", "type": "article", "sectionId": "lifeandstyle", "sectionName": "Life and style", "webPublicationDate": "2010-05-21T23:02:07Z", "webTitle": "Beetroot fritters with lemon and saffron yoghurt recipe | Yotam Ottolenghi", "webUrl": "https://www.theguardian.com/lifeandstyle/2010/may/22/beetroot-fritters-yoghurt-recipe-ottolenghi", "apiUrl": "https://content.guardianapis.com/lifeandstyle/2010/may/22/beetroot-fritters-yoghurt-recipe-ottolenghi", "isHosted": false, "pillarId": "pillar/lifestyle", "pillarName": "Lifestyle"}, {"id": "lifeandstyle/2010/may/22/thyme-recipes-hugh-fearnley-whittingstall", "type": "article", "sectionId": "lifeandstyle", "sectionName": "Life and style", "webPublicationDate": "2010-05-21T23:02:06Z", "webTitle": "Thyme recipes | Hugh Fearnley-Whittingstall", "webUrl": "https://www.theguardian.com/lifeandstyle/2010/may/22/thyme-recipes-hugh-fearnley-whittingstall", "apiUrl": "https://content.guardianapis.com/lifeandstyle/2010/may/22/thyme-recipes-hugh-fearnley-whittingstall", "isHosted": false, "pillarId": "pillar/lifestyle", "pillarName": "Lifestyle"}, {"id": "money/2010/may/22/food-back-to-basics-credit-crunch", "type": "article", "sectionId": "money", "sectionName": "Money", "webPublicationDate": "2010-05-21T23:01:44Z", "webTitle": "Food went back to basics and frozen was cool", "webUrl": "https://www.theguardian.com/money/2010/may/22/food-back-to-basics-credit-crunch", "apiUrl": "https://content.guardianapis.com/money/2010/may/22/food-back-to-basics-credit-crunch", "isHosted": false, "pillarId": "pillar/lifestyle", "pillarName": "Lifestyle"}, {"id": "uk/2010/may/21/zac-goldsmith-organic-produce", "type": "article", "sectionId": "environment", "sectionName": "Environment", "webPublicationDate": "2010-05-21T18:46:00Z", "webTitle": "Zac Goldsmith wants \u00a32bn food budget to be spent on organic produce", "webUrl": "https://www.theguardian.com/uk/2010/may/21/zac-goldsmith-organic-produce", "apiUrl": "https://content.guardianapis.com/uk/2010/may/21/zac-goldsmith-organic-produce", "isHosted": false, "pillarId": "pillar/news", "pillarName": "News"}, {"id": "travel/2010/may/21/english-wines-vineyard-stays-uk", "type": "article", "sectionId": "travel", "sectionName": "Travel", "webPublicationDate": "2010-05-21T09:24:00Z", "webTitle": "The best British vineyard stays", "webUrl": "https://www.theguardian.com/travel/2010/may/21/english-wines-vineyard-stays-uk", "apiUrl": "https://content.guardianapis.com/travel/2010/may/21/english-wines-vineyard-stays-uk", "isHosted": false, "pillarId": "pillar/lifestyle", "pillarName": "Lifestyle"}, {"id": "lifeandstyle/wordofmouth/2010/may/21/street-food-britain-burrito-mexican", "type": "article", "sectionId": "lifeandstyle", "sectionName": "Life and style", "webPublicationDate": "2010-05-21T08:40:00Z", "webTitle": "British street food - a new Mexican wave?", "webUrl": "https://www.theguardian.com/lifeandstyle/wordofmouth/2010/may/21/street-food-britain-burrito-mexican", "apiUrl": "https://content.guardianapis.com/lifeandstyle/wordofmouth/2010/may/21/street-food-britain-burrito-mexican", "isHosted": false, "pillarId": "pillar/lifestyle", "pillarName": "Lifestyle"}, {"id": "artanddesign/jonathanjonesblog/2010/may/19/food-and-drink", "type": "article", "sectionId": "artanddesign", "sectionName": "Art and design", "webPublicationDate": "2010-05-21T06:15:02Z", "webTitle": "Mattia Preti, the artist who makes me hungry |  Jonathan Jones", "webUrl": "https://www.theguardian.com/artanddesign/jonathanjonesblog/2010/may/19/food-and-drink", "apiUrl": "https://content.guardianapis.com/artanddesign/jonathanjonesblog/2010/may/19/food-and-drink", "isHosted": false, "pillarId": "pillar/arts", "pillarName": "Arts"}, {"id": "travel/2010/may/20/devon-cornwall-cream-tea", "type": "article", "sectionId": "food", "sectionName": "Food", "webPublicationDate": "2010-05-20T13:10:01Z", "webTitle": "Devon and Cornwall battle over true home of the cream tea", "webUrl": "https://www.theguardian.com/travel/2010/may/20/devon-cornwall-cream-tea", "apiUrl": "https://content.guardianapis.com/travel/2010/may/20/devon-cornwall-cream-tea", "isHosted": false, "pillarId": "pillar/lifestyle", "pillarName": "Lifestyle"}, {"id": "lifeandstyle/gallery/2010/may/19/food-and-drink", "type": "gallery", "sectionId": "food", "sectionName": "Food", "webPublicationDate": "2010-05-20T07:05:02Z", "webTitle": "The test\u2026 tomato ketchup", "webUrl": "https://www.theguardian.com/lifeandstyle/gallery/2010/may/19/food-and-drink", "apiUrl": "https://content.guardianapis.com/lifeandstyle/gallery/2010/may/19/food-and-drink", "isHosted": false, "pillarId": "pillar/lifestyle", "pillarName": "Lifestyle"}, {"id": "lifeandstyle/wordofmouth/2010/may/20/how-to-fry-perfect-chips", "type": "article", "sectionId": "food", "sectionName": "Food", "webPublicationDate": "2010-05-20T07:00:00Z", "webTitle": "How to fry perfect chips", "webUrl": "https://www.theguardian.com/lifeandstyle/wordofmouth/2010/may/20/how-to-fry-perfect-chips", "apiUrl": "https://content.guardianapis.com/lifeandstyle/wordofmouth/2010/may/20/how-to-fry-perfect-chips", "isHosted": false, "pillarId": "pillar/lifestyle", "pillarName": "Lifestyle"}, {"id": "commentisfree/2010/may/20/in-praise-of-sausages-editorial", "type": "article", "sectionId": "commentisfree", "sectionName": "Opinion", "webPublicationDate": "2010-05-20T00:23:47Z", "webTitle": "In praise of sausages | Editorial", "webUrl": "https://www.theguardian.com/commentisfree/2010/may/20/in-praise-of-sausages-editorial", "apiUrl": "https://content.guardianapis.com/commentisfree/2010/may/20/in-praise-of-sausages-editorial", "isHosted": false, "pillarId": "pillar/opinion", "pillarName": "Opinion"}, {"id": "lifeandstyle/wordofmouth/2010/may/19/self-assembly-restaurant-food", "type": "article", "sectionId": "lifeandstyle", "sectionName": "Life and style", "webPublicationDate": "2010-05-19T12:00:00Z", "webTitle": "Self-assembly restaurant food", "webUrl": "https://www.theguardian.com/lifeandstyle/wordofmouth/2010/may/19/self-assembly-restaurant-food", "apiUrl": "https://content.guardianapis.com/lifeandstyle/wordofmouth/2010/may/19/self-assembly-restaurant-food", "isHosted": false, "pillarId": "pillar/lifestyle", "pillarName": "Lifestyle"}, {"id": "film/2010/may/19/nicolas-cage-diet", "type": "article", "sectionId": "film", "sectionName": "Film", "webPublicationDate": "2010-05-19T11:14:31Z", "webTitle": "Nicolas Cage reveals animal sex factor in diet", "webUrl": "https://www.theguardian.com/film/2010/may/19/nicolas-cage-diet", "apiUrl": "https://content.guardianapis.com/film/2010/may/19/nicolas-cage-diet", "isHosted": false, "pillarId": "pillar/arts", "pillarName": "Arts"}, {"id": "lifeandstyle/wordofmouth/2010/may/18/processed-meat-pork-health-claims", "type": "article", "sectionId": "lifeandstyle", "sectionName": "Life and style", "webPublicationDate": "2010-05-18T11:10:00Z", "webTitle": "Make your own - the home cure for processed pork panic", "webUrl": "https://www.theguardian.com/lifeandstyle/wordofmouth/2010/may/18/processed-meat-pork-health-claims", "apiUrl": "https://content.guardianapis.com/lifeandstyle/wordofmouth/2010/may/18/processed-meat-pork-health-claims", "isHosted": false, "pillarId": "pillar/lifestyle", "pillarName": "Lifestyle"}, {"id": "money/2010/may/18/english-wines-win-gold-medals", "type": "article", "sectionId": "food", "sectionName": "Food", "webPublicationDate": "2010-05-18T11:09:02Z", "webTitle": "English wines win gold medals at international competition", "webUrl": "https://www.theguardian.com/money/2010/may/18/english-wines-win-gold-medals", "apiUrl": "https://content.guardianapis.com/money/2010/may/18/english-wines-win-gold-medals", "isHosted": false, "pillarId": "pillar/lifestyle", "pillarName": "Lifestyle"}, {"id": "lifeandstyle/gardening-blog/2010/may/18/growing-tomatoes-tips", "type": "article", "sectionId": "lifeandstyle", "sectionName": "Life and style", "webPublicationDate": "2010-05-18T09:36:00Z", "webTitle": "Growing tomatoes: 20 tips for tasty fruit", "webUrl": "https://www.theguardian.com/lifeandstyle/gardening-blog/2010/may/18/growing-tomatoes-tips", "apiUrl": "https://content.guardianapis.com/lifeandstyle/gardening-blog/2010/may/18/growing-tomatoes-tips", "isHosted": false, "pillarId": "pillar/lifestyle", "pillarName": "Lifestyle"}, {"id": "travel/2010/may/18/cardiff-top-10-budget-food", "type": "article", "sectionId": "travel", "sectionName": "Travel", "webPublicationDate": "2010-05-18T09:35:28Z", "webTitle": "Top 10 budget places to eat in Cardiff", "webUrl": "https://www.theguardian.com/travel/2010/may/18/cardiff-top-10-budget-food", "apiUrl": "https://content.guardianapis.com/travel/2010/may/18/cardiff-top-10-budget-food", "isHosted": false, "pillarId": "pillar/lifestyle", "pillarName": "Lifestyle"}, {"id": "lifeandstyle/wordofmouth/2010/may/18/pimms", "type": "article", "sectionId": "lifeandstyle", "sectionName": "Life and style", "webPublicationDate": "2010-05-18T09:00:00Z", "webTitle": "Consider Pimm's", "webUrl": "https://www.theguardian.com/lifeandstyle/wordofmouth/2010/may/18/pimms", "apiUrl": "https://content.guardianapis.com/lifeandstyle/wordofmouth/2010/may/18/pimms", "isHosted": false, "pillarId": "pillar/lifestyle", "pillarName": "Lifestyle"}, {"id": "lifeandstyle/2010/may/18/bacon-increase-heart-disease-risk", "type": "article", "sectionId": "food", "sectionName": "Food", "webPublicationDate": "2010-05-18T07:27:42Z", "webTitle": "Bacon and sausages 'increase heart disease risk'", "webUrl": "https://www.theguardian.com/lifeandstyle/2010/may/18/bacon-increase-heart-disease-risk", "apiUrl": "https://content.guardianapis.com/lifeandstyle/2010/may/18/bacon-increase-heart-disease-risk", "isHosted": false, "pillarId": "pillar/lifestyle", "pillarName": "Lifestyle"}, {"id": "commentisfree/2010/may/17/food-help-cut-fiscal-deficit", "type": "article", "sectionId": "commentisfree", "sectionName": "Opinion", "webPublicationDate": "2010-05-17T13:30:01Z", "webTitle": "Food can help cut the fiscal deficit | Tim Lang and Charlie Clutterbuck", "webUrl": "https://www.theguardian.com/commentisfree/2010/may/17/food-help-cut-fiscal-deficit", "apiUrl": "https://content.guardianapis.com/commentisfree/2010/may/17/food-help-cut-fiscal-deficit", "isHosted": false, "pillarId": "pillar/opinion", "pillarName": "Opinion"}, {"id": "environment/2010/may/17/british-imported-strawberries-air-miles", "type": "article", "sectionId": "environment", "sectionName": "Environment", "webPublicationDate": "2010-05-17T12:11:49Z", "webTitle": "Are British or imported strawberries worse for my carbon footprint? | Leo Hickman", "webUrl": "https://www.theguardian.com/environment/2010/may/17/british-imported-strawberries-air-miles", "apiUrl": "https://content.guardianapis.com/environment/2010/may/17/british-imported-strawberries-air-miles", "isHosted": false, "pillarId": "pillar/news", "pillarName": "News"}, {"id": "commentisfree/2010/may/17/decline-cauliflower-sales", "type": "article", "sectionId": "commentisfree", "sectionName": "Opinion", "webPublicationDate": "2010-05-17T12:00:01Z", "webTitle": "Farewell, fair cauliflower | Open thread", "webUrl": "https://www.theguardian.com/commentisfree/2010/may/17/decline-cauliflower-sales", "apiUrl": "https://content.guardianapis.com/commentisfree/2010/may/17/decline-cauliflower-sales", "isHosted": false, "pillarId": "pillar/opinion", "pillarName": "Opinion"}, {"id": "lifeandstyle/wordofmouth/2010/may/17/toasted-sandwich-makers", "type": "article", "sectionId": "lifeandstyle", "sectionName": "Life and style", "webPublicationDate": "2010-05-17T08:30:00Z", "webTitle": "Hasty tasty toasties - what's your favourite?", "webUrl": "https://www.theguardian.com/lifeandstyle/wordofmouth/2010/may/17/toasted-sandwich-makers", "apiUrl": "https://content.guardianapis.com/lifeandstyle/wordofmouth/2010/may/17/toasted-sandwich-makers", "isHosted": false, "pillarId": "pillar/lifestyle", "pillarName": "Lifestyle"}, {"id": "lifeandstyle/2010/may/16/tapas-recipes-ines-ortega", "type": "article", "sectionId": "food", "sectionName": "Food", "webPublicationDate": "2010-05-15T23:08:57Z", "webTitle": "In\u00e9s Ortega's perfect summer tapas recipes", "webUrl": "https://www.theguardian.com/lifeandstyle/2010/may/16/tapas-recipes-ines-ortega", "apiUrl": "https://content.guardianapis.com/lifeandstyle/2010/may/16/tapas-recipes-ines-ortega", "isHosted": false, "pillarId": "pillar/lifestyle", "pillarName": "Lifestyle"}]}}