{"response": {"status": "ok", "userTier": "developer", "total": 91168, "startIndex": 1, "pageSize": 50, "currentPage": 1, "pages": 1824, "orderBy": "newest", "results": [{"id": "football/blog/2014/may/31/wayne-rooney-england-peru-adam-lallana", "type": "article", "sectionId": "football", "sectionName": "Football", "webPublicationDate": "2014-05-30T23:15:00Z", "webTitle": "Slim Wayne Rooney still looks weighed down by England expectation | Barney Ronay", "webUrl": "https://www.theguardian.com/football/blog/2014/may/31/wayne-rooney-england-peru-adam-lallana", "apiUrl": "https://content.guardianapis.com/football/blog/2014/may/31/wayne-rooney-england-peru-adam-lallana", "isHosted": false, "pillarId": "pillar/sport", "pillarName": "Sport"}, {"id": "football/2014/may/30/roy-hodgson-wayne-rooney-england", "type": "article", "sectionId": "football", "sectionName": "Football", "webPublicationDate": "2014-05-30T22:59:32Z", "webTitle": "Roy Hodgson pleased with Wayne Rooney\u2019s England performance", "webUrl": "https://www.theguardian.com/football/2014/may/30/roy-hodgson-wayne-rooney-england", "apiUrl": "https://content.guardianapis.com/football/2014/may/30/roy-hodgson-wayne-rooney-england", "isHosted": false, "pillarId": "pillar/sport", "pillarName": "Sport"}, {"id": "football/blog/2014/may/30/england-midfield-balance-jordan-henderson-steven-gerrard", "type": "article", "sectionId": "football", "sectionName": "Football", "webPublicationDate": "2014-05-30T22:14:14Z", "webTitle": "England still searching for midfield balance despite Liverpool link | Michael Cox", "webUrl": "https://www.theguardian.com/football/blog/2014/may/30/england-midfield-balance-jordan-henderson-steven-gerrard", "apiUrl": "https://content.guardianapis.com/football/blog/2014/may/30/england-midfield-balance-jordan-henderson-steven-gerrard", "isHosted": false, "pillarId": "pillar/sport", "pillarName": "Sport"}, {"id": "football/2014/may/30/brazil-falcao-1982-world-cup-italy", "type": "article", "sectionId": "football", "sectionName": "Football", "webPublicationDate": "2014-05-30T21:59:00Z", "webTitle": "Brazil lost that Italy game in 1982 but won a place in history \u2013 Falc\u00e3o", "webUrl": "https://www.theguardian.com/football/2014/may/30/brazil-falcao-1982-world-cup-italy", "apiUrl": "https://content.guardianapis.com/football/2014/may/30/brazil-falcao-1982-world-cup-italy", "isHosted": false, "pillarId": "pillar/sport", "pillarName": "Sport"}, {"id": "football/2014/may/30/liverpool-adam-lallana-southampton-25m-new-bid", "type": "article", "sectionId": "football", "sectionName": "Football", "webPublicationDate": "2014-05-30T21:32:16Z", "webTitle": "Liverpool test Southampton\u2019s resolve with \u00a325m bid for Adam Lallana", "webUrl": "https://www.theguardian.com/football/2014/may/30/liverpool-adam-lallana-southampton-25m-new-bid", "apiUrl": "https://content.guardianapis.com/football/2014/may/30/liverpool-adam-lallana-southampton-25m-new-bid", "isHosted": false, "pillarId": "pillar/sport", "pillarName": "Sport"}, {"id": "football/2014/may/30/talking-points-sturridge-rooney", "type": "article", "sectionId": "football", "sectionName": "Football", "webPublicationDate": "2014-05-30T21:14:33Z", "webTitle": "Talking Points \u2013 England v Peru: Strikers not gelling ahead of World Cup", "webUrl": "https://www.theguardian.com/football/2014/may/30/talking-points-sturridge-rooney", "apiUrl": "https://content.guardianapis.com/football/2014/may/30/talking-points-sturridge-rooney", "isHosted": false, "pillarId": "pillar/sport", "pillarName": "Sport"}, {"id": "football/2014/may/30/daniel-sturridge-england-peru-friendly-match-report", "type": "article", "sectionId": "football", "sectionName": "Football", "webPublicationDate": "2014-05-30T21:13:55Z", "webTitle": "England 3-0 Peru | International friendly match report", "webUrl": "https://www.theguardian.com/football/2014/may/30/daniel-sturridge-england-peru-friendly-match-report", "apiUrl": "https://content.guardianapis.com/football/2014/may/30/daniel-sturridge-england-peru-friendly-match-report", "isHosted": false, "pillarId": "pillar/sport", "pillarName": "Sport"}, {"id": "football/2014/may/30/england-v-peru-live", "type": "liveblog", "sectionId": "football", "sectionName": "Football", "webPublicationDate": "2014-05-30T20:55:36Z", "webTitle": "England v Peru \u2013 as it happened", "webUrl": "https://www.theguardian.com/football/2014/may/30/england-v-peru-live", "apiUrl": "https://content.guardianapis.com/football/2014/may/30/england-v-peru-live", "isHosted": false, "pillarId": "pillar/sport", "pillarName": "Sport"}, {"id": "football/2014/may/30/remy-cabella-newcastle-montpellier-raise-price", "type": "article", "sectionId": "football", "sectionName": "Football", "webPublicationDate": "2014-05-30T19:06:43Z", "webTitle": "Montpellier raise asking price for Newcastle target R\u00e9my Cabella", "webUrl": "https://www.theguardian.com/football/2014/may/30/remy-cabella-newcastle-montpellier-raise-price", "apiUrl": "https://content.guardianapis.com/football/2014/may/30/remy-cabella-newcastle-montpellier-raise-price", "isHosted": false, "pillarId": "pillar/sport", "pillarName": "Sport"}, {"id": "football/2014/may/30/rickie-lambert-transfer-start-mass-exodus-southampton", "type": "article", "sectionId": "football", "sectionName": "Football", "webPublicationDate": "2014-05-30T17:17:35Z", "webTitle": "Rickie Lambert transfer could be first of mass exodus from Southampton", "webUrl": "https://www.theguardian.com/football/2014/may/30/rickie-lambert-transfer-start-mass-exodus-southampton", "apiUrl": "https://content.guardianapis.com/football/2014/may/30/rickie-lambert-transfer-start-mass-exodus-southampton", "isHosted": false, "pillarId": "pillar/sport", "pillarName": "Sport"}, {"id": "business/2014/may/30/jd-sports-retail", "type": "article", "sectionId": "business", "sectionName": "Business", "webPublicationDate": "2014-05-30T17:16:29Z", "webTitle": "JD Sports Fashion head exits after 14 years", "webUrl": "https://www.theguardian.com/business/2014/may/30/jd-sports-retail", "apiUrl": "https://content.guardianapis.com/business/2014/may/30/jd-sports-retail", "isHosted": false, "pillarId": "pillar/news", "pillarName": "News"}, {"id": "football/2014/may/30/newcastle-united-remy-cabella-montpellier-playmaker", "type": "article", "sectionId": "football", "sectionName": "Football", "webPublicationDate": "2014-05-30T16:49:36Z", "webTitle": "Newcastle United close to signing R\u00e9my Cabella from Montpellier at \u00a37m", "webUrl": "https://www.theguardian.com/football/2014/may/30/newcastle-united-remy-cabella-montpellier-playmaker", "apiUrl": "https://content.guardianapis.com/football/2014/may/30/newcastle-united-remy-cabella-montpellier-playmaker", "isHosted": false, "pillarId": "pillar/sport", "pillarName": "Sport"}, {"id": "football/2014/may/30/jack-colback-sunderland-west-ham", "type": "article", "sectionId": "football", "sectionName": "Football", "webPublicationDate": "2014-05-30T16:26:37Z", "webTitle": "Jack Colback may leave Sunderland for \u00a350,000-a-week deal at West Ham", "webUrl": "https://www.theguardian.com/football/2014/may/30/jack-colback-sunderland-west-ham", "apiUrl": "https://content.guardianapis.com/football/2014/may/30/jack-colback-sunderland-west-ham", "isHosted": false, "pillarId": "pillar/sport", "pillarName": "Sport"}, {"id": "sport/blog/2014/may/30/favourite-things-online-novak-djokovic-paul-gascoigne", "type": "article", "sectionId": "sport", "sectionName": "Sport", "webPublicationDate": "2014-05-30T16:19:12Z", "webTitle": "Our favourite things online this week: from Novak Djokovic to Real Madrid", "webUrl": "https://www.theguardian.com/sport/blog/2014/may/30/favourite-things-online-novak-djokovic-paul-gascoigne", "apiUrl": "https://content.guardianapis.com/sport/blog/2014/may/30/favourite-things-online-novak-djokovic-paul-gascoigne", "isHosted": false, "pillarId": "pillar/sport", "pillarName": "Sport"}, {"id": "football/2014/may/30/giuseppe-rossi-italy-world-cup-ireland-immobile-cassano", "type": "article", "sectionId": "football", "sectionName": "Football", "webPublicationDate": "2014-05-30T14:22:50Z", "webTitle": "Giuseppe Rossi and Italy strikers in World Cup shootout against Ireland", "webUrl": "https://www.theguardian.com/football/2014/may/30/giuseppe-rossi-italy-world-cup-ireland-immobile-cassano", "apiUrl": "https://content.guardianapis.com/football/2014/may/30/giuseppe-rossi-italy-world-cup-ireland-immobile-cassano", "isHosted": false, "pillarId": "pillar/sport", "pillarName": "Sport"}, {"id": "lifeandstyle/2014/may/30/world-cup-2014-gary-lineker-interview", "type": "article", "sectionId": "lifeandstyle", "sectionName": "Life and style", "webPublicationDate": "2014-05-30T14:00:00Z", "webTitle": "World Cup 2014: why Gary Lineker is a man of two halves", "webUrl": "https://www.theguardian.com/lifeandstyle/2014/may/30/world-cup-2014-gary-lineker-interview", "apiUrl": "https://content.guardianapis.com/lifeandstyle/2014/may/30/world-cup-2014-gary-lineker-interview", "isHosted": false, "pillarId": "pillar/lifestyle", "pillarName": "Lifestyle"}, {"id": "football/2014/may/30/manchester-united-luke-shaw-world-cup-deadline-southampton", "type": "article", "sectionId": "football", "sectionName": "Football", "webPublicationDate": "2014-05-30T13:46:50Z", "webTitle": "Manchester United racing to sign Luke Shaw before World Cup deadline", "webUrl": "https://www.theguardian.com/football/2014/may/30/manchester-united-luke-shaw-world-cup-deadline-southampton", "apiUrl": "https://content.guardianapis.com/football/2014/may/30/manchester-united-luke-shaw-world-cup-deadline-southampton", "isHosted": false, "pillarId": "pillar/sport", "pillarName": "Sport"}, {"id": "football/2014/may/30/the-fiver-rickie-lambert-england-peru", "type": "article", "sectionId": "football", "sectionName": "Football", "webPublicationDate": "2014-05-30T13:38:19Z", "webTitle": "The Fiver | A frantic bid to drum up hype", "webUrl": "https://www.theguardian.com/football/2014/may/30/the-fiver-rickie-lambert-england-peru", "apiUrl": "https://content.guardianapis.com/football/2014/may/30/the-fiver-rickie-lambert-england-peru", "isHosted": false, "pillarId": "pillar/sport", "pillarName": "Sport"}, {"id": "sport/2014/may/30/mls-week-13-previews", "type": "article", "sectionId": "sport", "sectionName": "Sport", "webPublicationDate": "2014-05-30T13:00:09Z", "webTitle": "MLS Week 13 previews", "webUrl": "https://www.theguardian.com/sport/2014/may/30/mls-week-13-previews", "apiUrl": "https://content.guardianapis.com/sport/2014/may/30/mls-week-13-previews", "isHosted": false, "pillarId": "pillar/sport", "pillarName": "Sport"}, {"id": "football/2014/may/30/arsene-wenger-signs-new-arsenal-deal", "type": "article", "sectionId": "football", "sectionName": "Football", "webPublicationDate": "2014-05-30T12:14:32Z", "webTitle": "Ars\u00e8ne Wenger signs new Arsenal deal to stay at the club until 2017", "webUrl": "https://www.theguardian.com/football/2014/may/30/arsene-wenger-signs-new-arsenal-deal", "apiUrl": "https://content.guardianapis.com/football/2014/may/30/arsene-wenger-signs-new-arsenal-deal", "isHosted": false, "pillarId": "pillar/sport", "pillarName": "Sport"}, {"id": "football/blog/2014/may/30/world-cup-final-1966-england-west-germany-live", "type": "liveblog", "sectionId": "football", "sectionName": "Football", "webPublicationDate": "2014-05-30T12:09:54Z", "webTitle": "World Cup final 1966: England v West Germany \u2013 as it happened", "webUrl": "https://www.theguardian.com/football/blog/2014/may/30/world-cup-final-1966-england-west-germany-live", "apiUrl": "https://content.guardianapis.com/football/blog/2014/may/30/world-cup-final-1966-england-west-germany-live", "isHosted": false, "pillarId": "pillar/sport", "pillarName": "Sport"}, {"id": "football/ng-interactive/2014/may/30/-sp-world-cup-kits", "type": "interactive", "sectionId": "football", "sectionName": "Football", "webPublicationDate": "2014-05-30T10:55:35Z", "webTitle": "World Cup kits through the ages \u2013 interactive guide", "webUrl": "https://www.theguardian.com/football/ng-interactive/2014/may/30/-sp-world-cup-kits", "apiUrl": "https://content.guardianapis.com/football/ng-interactive/2014/may/30/-sp-world-cup-kits", "isHosted": false, "pillarId": "pillar/sport", "pillarName": "Sport"}, {"id": "football/blog/2014/may/30/celtic-roy-keane-manager-republic-of-ireland", "type": "article", "sectionId": "football", "sectionName": "Football", "webPublicationDate": "2014-05-30T10:33:43Z", "webTitle": "If Celtic appoint Roy Keane as manager it must bring European rewards | Ewan Murray", "webUrl": "https://www.theguardian.com/football/blog/2014/may/30/celtic-roy-keane-manager-republic-of-ireland", "apiUrl": "https://content.guardianapis.com/football/blog/2014/may/30/celtic-roy-keane-manager-republic-of-ireland", "isHosted": false, "pillarId": "pillar/sport", "pillarName": "Sport"}, {"id": "tv-and-radio/shortcuts/quiz/2014/may/30/joey-barton-piers-morgan-question-time-quiz", "type": "article", "sectionId": "global", "sectionName": "Global", "webPublicationDate": "2014-05-30T10:31:21Z", "webTitle": "Joey Barton and Piers Morgan: who said what?", "webUrl": "https://www.theguardian.com/tv-and-radio/shortcuts/quiz/2014/may/30/joey-barton-piers-morgan-question-time-quiz", "apiUrl": "https://content.guardianapis.com/tv-and-radio/shortcuts/quiz/2014/may/30/joey-barton-piers-morgan-question-time-quiz", "isHosted": false}, {"id": "football/video/2014/may/30/animated-world-cup-histories-spain-video", "type": "video", "sectionId": "football", "sectionName": "Football", "webPublicationDate": "2014-05-30T10:05:00Z", "webTitle": "Spain: a World Cup history \u2013 video animation", "webUrl": "https://www.theguardian.com/football/video/2014/may/30/animated-world-cup-histories-spain-video", "apiUrl": "https://content.guardianapis.com/football/video/2014/may/30/animated-world-cup-histories-spain-video", "isHosted": false, "pillarId": "pillar/sport", "pillarName": "Sport"}, {"id": "football/2014/may/30/penalty-trip-routine-maldives-afghanistan", "type": "article", "sectionId": "football", "sectionName": "Football", "webPublicationDate": "2014-05-30T09:47:53Z", "webTitle": "Crafty penalty \u2018trip\u2019 routine in shootout helps Maldives beat Afghanistan", "webUrl": "https://www.theguardian.com/football/2014/may/30/penalty-trip-routine-maldives-afghanistan", "apiUrl": "https://content.guardianapis.com/football/2014/may/30/penalty-trip-routine-maldives-afghanistan", "isHosted": false, "pillarId": "pillar/sport", "pillarName": "Sport"}, {"id": "football/blog/2014/may/30/joy-of-six-world-cup-classics", "type": "article", "sectionId": "football", "sectionName": "Football", "webPublicationDate": "2014-05-30T09:25:08Z", "webTitle": "The Joy of Six: World Cup classics | Cris Freddi", "webUrl": "https://www.theguardian.com/football/blog/2014/may/30/joy-of-six-world-cup-classics", "apiUrl": "https://content.guardianapis.com/football/blog/2014/may/30/joy-of-six-world-cup-classics", "isHosted": false, "pillarId": "pillar/sport", "pillarName": "Sport"}, {"id": "football/2014/may/30/joey-barton-four-ugly-girls-question-time-nerves", "type": "article", "sectionId": "football", "sectionName": "Football", "webPublicationDate": "2014-05-30T08:56:51Z", "webTitle": "Joey Barton attributes 'four ugly girls' remark on Question Time to nerves", "webUrl": "https://www.theguardian.com/football/2014/may/30/joey-barton-four-ugly-girls-question-time-nerves", "apiUrl": "https://content.guardianapis.com/football/2014/may/30/joey-barton-four-ugly-girls-question-time-nerves", "isHosted": false, "pillarId": "pillar/sport", "pillarName": "Sport"}, {"id": "sport/quiz/2014/may/30/sports-quiz-week-real-madrid-froch-groves-lewis-hamilton", "type": "article", "sectionId": "global", "sectionName": "Global", "webPublicationDate": "2014-05-30T08:43:00Z", "webTitle": "The sports quiz of the week: Real Madrid, Froch v George II and F1", "webUrl": "https://www.theguardian.com/sport/quiz/2014/may/30/sports-quiz-week-real-madrid-froch-groves-lewis-hamilton", "apiUrl": "https://content.guardianapis.com/sport/quiz/2014/may/30/sports-quiz-week-real-madrid-froch-groves-lewis-hamilton", "isHosted": false}, {"id": "football/2014/may/30/the-rumour-mill-chelsea-manchester-city-mehdi-benatia", "type": "article", "sectionId": "football", "sectionName": "Football", "webPublicationDate": "2014-05-30T07:52:08Z", "webTitle": "Football transfer rumours: Chelsea to beat Manchester City to Mehdi Benatia?", "webUrl": "https://www.theguardian.com/football/2014/may/30/the-rumour-mill-chelsea-manchester-city-mehdi-benatia", "apiUrl": "https://content.guardianapis.com/football/2014/may/30/the-rumour-mill-chelsea-manchester-city-mehdi-benatia", "isHosted": false, "pillarId": "pillar/sport", "pillarName": "Sport"}, {"id": "football/blog/2014/may/30/socceroos-asia-world-cup-2014", "type": "article", "sectionId": "football", "sectionName": "Football", "webPublicationDate": "2014-05-30T02:13:14Z", "webTitle": "Socceroos are playing for Asia, too, at the World Cup", "webUrl": "https://www.theguardian.com/football/blog/2014/may/30/socceroos-asia-world-cup-2014", "apiUrl": "https://content.guardianapis.com/football/blog/2014/may/30/socceroos-asia-world-cup-2014", "isHosted": false, "pillarId": "pillar/sport", "pillarName": "Sport"}, {"id": "business/2014/may/30/world-cup-team-works-on-keeping-uk-kettles-boiling", "type": "article", "sectionId": "business", "sectionName": "Business", "webPublicationDate": "2014-05-29T23:01:03Z", "webTitle": "Football World Cup team works on keeping Britain's kettles boiling", "webUrl": "https://www.theguardian.com/business/2014/may/30/world-cup-team-works-on-keeping-uk-kettles-boiling", "apiUrl": "https://content.guardianapis.com/business/2014/may/30/world-cup-team-works-on-keeping-uk-kettles-boiling", "isHosted": false, "pillarId": "pillar/news", "pillarName": "News"}, {"id": "football/2014/may/30/world-cup-2014-in-brief-diego-godin-uruguay-england", "type": "article", "sectionId": "football", "sectionName": "Football", "webPublicationDate": "2014-05-29T23:00:18Z", "webTitle": "World Cup 2014 in brief: Uruguay\u2019s Diego God\u00edn not taking England lightly", "webUrl": "https://www.theguardian.com/football/2014/may/30/world-cup-2014-in-brief-diego-godin-uruguay-england", "apiUrl": "https://content.guardianapis.com/football/2014/may/30/world-cup-2014-in-brief-diego-godin-uruguay-england", "isHosted": false, "pillarId": "pillar/sport", "pillarName": "Sport"}, {"id": "football/2014/may/29/worlds-top-100-footballers-of-all-time", "type": "article", "sectionId": "football", "sectionName": "Football", "webPublicationDate": "2014-05-29T22:00:17Z", "webTitle": "The World Cup\u2019s top 100 footballers of all time", "webUrl": "https://www.theguardian.com/football/2014/may/29/worlds-top-100-footballers-of-all-time", "apiUrl": "https://content.guardianapis.com/football/2014/may/29/worlds-top-100-footballers-of-all-time", "isHosted": false, "pillarId": "pillar/sport", "pillarName": "Sport"}, {"id": "football/2014/may/29/roy-hodgson-confident-wayne-rooney-england-world-cup", "type": "article", "sectionId": "football", "sectionName": "Football", "webPublicationDate": "2014-05-29T21:30:16Z", "webTitle": "Roy Hodgson says he is not afraid to drop Wayne Rooney at World Cup", "webUrl": "https://www.theguardian.com/football/2014/may/29/roy-hodgson-confident-wayne-rooney-england-world-cup", "apiUrl": "https://content.guardianapis.com/football/2014/may/29/roy-hodgson-confident-wayne-rooney-england-world-cup", "isHosted": false, "pillarId": "pillar/sport", "pillarName": "Sport"}, {"id": "football/blog/2014/may/29/england-feelgood-factor-fabio-capello-roy-hodgson-world-cup", "type": "article", "sectionId": "football", "sectionName": "Football", "webPublicationDate": "2014-05-29T21:30:16Z", "webTitle": "England\u2019s feelgood factor in stark contrast to the Fabio Capello years | Daniel Taylor", "webUrl": "https://www.theguardian.com/football/blog/2014/may/29/england-feelgood-factor-fabio-capello-roy-hodgson-world-cup", "apiUrl": "https://content.guardianapis.com/football/blog/2014/may/29/england-feelgood-factor-fabio-capello-roy-hodgson-world-cup", "isHosted": false, "pillarId": "pillar/sport", "pillarName": "Sport"}, {"id": "football/2014/may/29/jordi-gomez-sunderland-free-transfer", "type": "article", "sectionId": "football", "sectionName": "Football", "webPublicationDate": "2014-05-29T20:21:20Z", "webTitle": "Sunderland sign Jordi G\u00f3mez from Wigan on free transfer", "webUrl": "https://www.theguardian.com/football/2014/may/29/jordi-gomez-sunderland-free-transfer", "apiUrl": "https://content.guardianapis.com/football/2014/may/29/jordi-gomez-sunderland-free-transfer", "isHosted": false, "pillarId": "pillar/sport", "pillarName": "Sport"}, {"id": "sport/2014/may/29/glazer-sons-to-steer-buccaneers-and-manchester-utd-after-patriarchs-death", "type": "article", "sectionId": "football", "sectionName": "Football", "webPublicationDate": "2014-05-29T20:01:35Z", "webTitle": "Glazer sons to steer Buccaneers and Manchester Utd after patriarch's death", "webUrl": "https://www.theguardian.com/sport/2014/may/29/glazer-sons-to-steer-buccaneers-and-manchester-utd-after-patriarchs-death", "apiUrl": "https://content.guardianapis.com/sport/2014/may/29/glazer-sons-to-steer-buccaneers-and-manchester-utd-after-patriarchs-death", "isHosted": false, "pillarId": "pillar/sport", "pillarName": "Sport"}, {"id": "football/2014/may/29/rickie-lambert-liverpool-bid-southampton", "type": "article", "sectionId": "football", "sectionName": "Football", "webPublicationDate": "2014-05-29T19:57:10Z", "webTitle": "Liverpool offer Southampton \u00a34m plus add-ons for Rickie Lambert", "webUrl": "https://www.theguardian.com/football/2014/may/29/rickie-lambert-liverpool-bid-southampton", "apiUrl": "https://content.guardianapis.com/football/2014/may/29/rickie-lambert-liverpool-bid-southampton", "isHosted": false, "pillarId": "pillar/sport", "pillarName": "Sport"}, {"id": "football/2014/may/29/roy-keane-approached-celtic-martin-o-neill", "type": "article", "sectionId": "football", "sectionName": "Football", "webPublicationDate": "2014-05-29T19:14:10Z", "webTitle": "Roy Keane approached to take over at Celtic, reveals Martin O\u2019Neill", "webUrl": "https://www.theguardian.com/football/2014/may/29/roy-keane-approached-celtic-martin-o-neill", "apiUrl": "https://content.guardianapis.com/football/2014/may/29/roy-keane-approached-celtic-martin-o-neill", "isHosted": false, "pillarId": "pillar/sport", "pillarName": "Sport"}, {"id": "football/2014/may/29/football-friendly-youthful-inexperienced-peru-bengoechea", "type": "article", "sectionId": "football", "sectionName": "Football", "webPublicationDate": "2014-05-29T19:00:57Z", "webTitle": "Youthful, inexperienced Peru may give England morale-boosting win", "webUrl": "https://www.theguardian.com/football/2014/may/29/football-friendly-youthful-inexperienced-peru-bengoechea", "apiUrl": "https://content.guardianapis.com/football/2014/may/29/football-friendly-youthful-inexperienced-peru-bengoechea", "isHosted": false, "pillarId": "pillar/sport", "pillarName": "Sport"}, {"id": "football/2014/may/29/bacary-sagna-confirms-arsenal-departure-manchester-city", "type": "article", "sectionId": "football", "sectionName": "Football", "webPublicationDate": "2014-05-29T18:42:35Z", "webTitle": "Bacary Sagna confirms he will be leaving Arsenal", "webUrl": "https://www.theguardian.com/football/2014/may/29/bacary-sagna-confirms-arsenal-departure-manchester-city", "apiUrl": "https://content.guardianapis.com/football/2014/may/29/bacary-sagna-confirms-arsenal-departure-manchester-city", "isHosted": false, "pillarId": "pillar/sport", "pillarName": "Sport"}, {"id": "football/2014/may/29/you-are-the-ref-paul-trevillion", "type": "article", "sectionId": "football", "sectionName": "Football", "webPublicationDate": "2014-05-29T18:00:00Z", "webTitle": "290. Roy Hodgson, England", "webUrl": "https://www.theguardian.com/football/2014/may/29/you-are-the-ref-paul-trevillion", "apiUrl": "https://content.guardianapis.com/football/2014/may/29/you-are-the-ref-paul-trevillion", "isHosted": false, "pillarId": "pillar/sport", "pillarName": "Sport"}, {"id": "world/2014/may/29/chilean-miners-nation-world-cup-team", "type": "article", "sectionId": "world", "sectionName": "World news", "webPublicationDate": "2014-05-29T17:59:18Z", "webTitle": "Chilean miners stir nation to cheer on World Cup team", "webUrl": "https://www.theguardian.com/world/2014/may/29/chilean-miners-nation-world-cup-team", "apiUrl": "https://content.guardianapis.com/world/2014/may/29/chilean-miners-nation-world-cup-team", "isHosted": false, "pillarId": "pillar/news", "pillarName": "News"}, {"id": "football/2014/may/29/the-fiver-question-time-joey-barton", "type": "article", "sectionId": "football", "sectionName": "Football", "webPublicationDate": "2014-05-29T15:33:05Z", "webTitle": "The Fiver | A lemur who does a hilarious Noel Edmonds impression after a few drinks", "webUrl": "https://www.theguardian.com/football/2014/may/29/the-fiver-question-time-joey-barton", "apiUrl": "https://content.guardianapis.com/football/2014/may/29/the-fiver-question-time-joey-barton", "isHosted": false, "pillarId": "pillar/sport", "pillarName": "Sport"}, {"id": "football/blog/2014/may/29/robin-van-persie-kid-one-wish-football", "type": "article", "sectionId": "football", "sectionName": "Football", "webPublicationDate": "2014-05-29T15:29:00Z", "webTitle": "Robin van Persie: I am just a kid with one wish \u2026 to play football | Leo Verheul", "webUrl": "https://www.theguardian.com/football/blog/2014/may/29/robin-van-persie-kid-one-wish-football", "apiUrl": "https://content.guardianapis.com/football/blog/2014/may/29/robin-van-persie-kid-one-wish-football", "isHosted": false, "pillarId": "pillar/sport", "pillarName": "Sport"}, {"id": "football/2014/may/29/yaya-toure-manchester-city-psg-out-of-context", "type": "article", "sectionId": "football", "sectionName": "Football", "webPublicationDate": "2014-05-29T13:47:21Z", "webTitle": "Yaya Tour\u00e9 claims media took recent PSG comments \u2018out of context\u2019", "webUrl": "https://www.theguardian.com/football/2014/may/29/yaya-toure-manchester-city-psg-out-of-context", "apiUrl": "https://content.guardianapis.com/football/2014/may/29/yaya-toure-manchester-city-psg-out-of-context", "isHosted": false, "pillarId": "pillar/sport", "pillarName": "Sport"}, {"id": "football/blog/2014/may/29/gus-poyet-sunderland-stadium-of-light", "type": "article", "sectionId": "football", "sectionName": "Football", "webPublicationDate": "2014-05-29T12:59:51Z", "webTitle": "Gus Poyet ready to instigate a velvet revolution at Sunderland | Louise Taylor", "webUrl": "https://www.theguardian.com/football/blog/2014/may/29/gus-poyet-sunderland-stadium-of-light", "apiUrl": "https://content.guardianapis.com/football/blog/2014/may/29/gus-poyet-sunderland-stadium-of-light", "isHosted": false, "pillarId": "pillar/sport", "pillarName": "Sport"}, {"id": "media/2014/may/29/ad-break-nigel-farage-europe-lionel-messi-adidas-world-cup", "type": "article", "sectionId": "media", "sectionName": "Media", "webPublicationDate": "2014-05-29T11:18:00Z", "webTitle": "Ad break: Nigel Farage proclaims love for Europe, Lionel Messi for Adidas", "webUrl": "https://www.theguardian.com/media/2014/may/29/ad-break-nigel-farage-europe-lionel-messi-adidas-world-cup", "apiUrl": "https://content.guardianapis.com/media/2014/may/29/ad-break-nigel-farage-europe-lionel-messi-adidas-world-cup", "isHosted": false, "pillarId": "pillar/news", "pillarName": "News"}, {"id": "football/2014/may/29/liverpool-step-up-interest-sevilla-alberto-moreno", "type": "article", "sectionId": "football", "sectionName": "Football", "webPublicationDate": "2014-05-29T11:17:18Z", "webTitle": "Liverpool make \u00a316m offer for Sevilla\u2019s Alberto Moreno", "webUrl": "https://www.theguardian.com/football/2014/may/29/liverpool-step-up-interest-sevilla-alberto-moreno", "apiUrl": "https://content.guardianapis.com/football/2014/may/29/liverpool-step-up-interest-sevilla-alberto-moreno", "isHosted": false, "pillarId": "pillar/sport", "pillarName": "Sport"}]}}