{"response": {"status": "ok", "userTier": "developer", "total": 85722, "startIndex": 1, "pageSize": 50, "currentPage": 1, "pages": 1715, "orderBy": "newest", "results": [{"id": "football/gallery/2011/may/31/the-gallery-chelsea-new-manager", "type": "gallery", "sectionId": "football", "sectionName": "Football", "webPublicationDate": "2011-05-30T23:01:00Z", "webTitle": "The Gallery: Chelsea's new manager", "webUrl": "https://www.theguardian.com/football/gallery/2011/may/31/the-gallery-chelsea-new-manager", "apiUrl": "https://content.guardianapis.com/football/gallery/2011/may/31/the-gallery-chelsea-new-manager", "isHosted": false, "pillarId": "pillar/sport", "pillarName": "Sport"}, {"id": "football/2011/may/30/jack-wilshere-england-arsenal", "type": "article", "sectionId": "football", "sectionName": "Football", "webPublicationDate": "2011-05-30T22:00:00Z", "webTitle": "Jack Wilshere picks his spot for Arsenal, England and even Great Britain", "webUrl": "https://www.theguardian.com/football/2011/may/30/jack-wilshere-england-arsenal", "apiUrl": "https://content.guardianapis.com/football/2011/may/30/jack-wilshere-england-arsenal", "isHosted": false, "pillarId": "pillar/sport", "pillarName": "Sport"}, {"id": "football/2011/may/30/brendan-rodgers-swansea-premier-league", "type": "article", "sectionId": "football", "sectionName": "Football", "webPublicationDate": "2011-05-30T21:32:00Z", "webTitle": "Brendan Rodgers promises to take on the Premier League with style", "webUrl": "https://www.theguardian.com/football/2011/may/30/brendan-rodgers-swansea-premier-league", "apiUrl": "https://content.guardianapis.com/football/2011/may/30/brendan-rodgers-swansea-premier-league", "isHosted": false, "pillarId": "pillar/sport", "pillarName": "Sport"}, {"id": "football/2011/may/30/aston-villa-allan-mcgregor-rangers", "type": "article", "sectionId": "football", "sectionName": "Football", "webPublicationDate": "2011-05-30T21:31:01Z", "webTitle": "Aston Villa set to press ahead with move for Rangers' Allan McGregor", "webUrl": "https://www.theguardian.com/football/2011/may/30/aston-villa-allan-mcgregor-rangers", "apiUrl": "https://content.guardianapis.com/football/2011/may/30/aston-villa-allan-mcgregor-rangers", "isHosted": false, "pillarId": "pillar/sport", "pillarName": "Sport"}, {"id": "football/2011/may/30/craig-bellamy-favourite-cardiff-city-manager", "type": "article", "sectionId": "football", "sectionName": "Football", "webPublicationDate": "2011-05-30T20:37:00Z", "webTitle": "Craig Bellamy is surprise favourite to succeed sacked Jones at Cardiff", "webUrl": "https://www.theguardian.com/football/2011/may/30/craig-bellamy-favourite-cardiff-city-manager", "apiUrl": "https://content.guardianapis.com/football/2011/may/30/craig-bellamy-favourite-cardiff-city-manager", "isHosted": false, "pillarId": "pillar/sport", "pillarName": "Sport"}, {"id": "football/2011/may/30/fifa-sepp-blatter-football-crisis", "type": "article", "sectionId": "football", "sectionName": "Football", "webPublicationDate": "2011-05-30T19:54:29Z", "webTitle": "Sepp Blatter has spoken: the vote goes on and Qatar will host 2022 World Cup", "webUrl": "https://www.theguardian.com/football/2011/may/30/fifa-sepp-blatter-football-crisis", "apiUrl": "https://content.guardianapis.com/football/2011/may/30/fifa-sepp-blatter-football-crisis", "isHosted": false, "pillarId": "pillar/sport", "pillarName": "Sport"}, {"id": "football/gallery/2011/may/30/championship-play-off-final-in-pictures", "type": "gallery", "sectionId": "football", "sectionName": "Football", "webPublicationDate": "2011-05-30T19:50:00Z", "webTitle": "Championship play-off final: Reading 2-4 Swansea City - in pictures", "webUrl": "https://www.theguardian.com/football/gallery/2011/may/30/championship-play-off-final-in-pictures", "apiUrl": "https://content.guardianapis.com/football/gallery/2011/may/30/championship-play-off-final-in-pictures", "isHosted": false, "pillarId": "pillar/sport", "pillarName": "Sport"}, {"id": "football/blog/2011/may/30/swansea-premier-league-addition", "type": "article", "sectionId": "football", "sectionName": "Football", "webPublicationDate": "2011-05-30T18:55:25Z", "webTitle": "Who needs game 39? Swansea will be a superb Premier League addition | Barney Ronay", "webUrl": "https://www.theguardian.com/football/blog/2011/may/30/swansea-premier-league-addition", "apiUrl": "https://content.guardianapis.com/football/blog/2011/may/30/swansea-premier-league-addition", "isHosted": false, "pillarId": "pillar/sport", "pillarName": "Sport"}, {"id": "football/2011/may/30/michael-owen-manchester-united-contract", "type": "article", "sectionId": "football", "sectionName": "Football", "webPublicationDate": "2011-05-30T18:15:52Z", "webTitle": "Out-of-contract Michael Owen wants to stay at Manchester United", "webUrl": "https://www.theguardian.com/football/2011/may/30/michael-owen-manchester-united-contract", "apiUrl": "https://content.guardianapis.com/football/2011/may/30/michael-owen-manchester-united-contract", "isHosted": false, "pillarId": "pillar/sport", "pillarName": "Sport"}, {"id": "football/2011/may/30/reading-swansea-city-championship-play-off-final", "type": "article", "sectionId": "football", "sectionName": "Football", "webPublicationDate": "2011-05-30T16:17:35Z", "webTitle": "Reading 2-4 Swansea City | Championship play-off final match report", "webUrl": "https://www.theguardian.com/football/2011/may/30/reading-swansea-city-championship-play-off-final", "apiUrl": "https://content.guardianapis.com/football/2011/may/30/reading-swansea-city-championship-play-off-final", "isHosted": false, "pillarId": "pillar/sport", "pillarName": "Sport"}, {"id": "football/blog/2011/may/30/sir-alex-ferguson-manchester-united", "type": "article", "sectionId": "football", "sectionName": "Football", "webPublicationDate": "2011-05-30T15:58:41Z", "webTitle": "Barcelona's looming shadow threatens to spoil Sir Alex Ferguson's sunset years | Kevin McCarra", "webUrl": "https://www.theguardian.com/football/blog/2011/may/30/sir-alex-ferguson-manchester-united", "apiUrl": "https://content.guardianapis.com/football/blog/2011/may/30/sir-alex-ferguson-manchester-united", "isHosted": false, "pillarId": "pillar/sport", "pillarName": "Sport"}, {"id": "uk/2011/may/30/manchester-united-fans-honour-team", "type": "article", "sectionId": "uk-news", "sectionName": "UK news", "webPublicationDate": "2011-05-30T14:44:59Z", "webTitle": "Manchester United fans brave the rain to honour record-breaking team", "webUrl": "https://www.theguardian.com/uk/2011/may/30/manchester-united-fans-honour-team", "apiUrl": "https://content.guardianapis.com/uk/2011/may/30/manchester-united-fans-honour-team", "isHosted": false, "pillarId": "pillar/news", "pillarName": "News"}, {"id": "football/david-conn-inside-sport-blog/2011/may/30/change-fifa-election-damian-collins", "type": "article", "sectionId": "football", "sectionName": "Football", "webPublicationDate": "2011-05-30T14:29:12Z", "webTitle": "ChangeFifa calls for governments to back its agenda for reform| David Conn", "webUrl": "https://www.theguardian.com/football/david-conn-inside-sport-blog/2011/may/30/change-fifa-election-damian-collins", "apiUrl": "https://content.guardianapis.com/football/david-conn-inside-sport-blog/2011/may/30/change-fifa-election-damian-collins", "isHosted": false, "pillarId": "pillar/sport", "pillarName": "Sport"}, {"id": "football/2011/may/30/qatar-jerome-valcke-2022-world-cup", "type": "article", "sectionId": "football", "sectionName": "Football", "webPublicationDate": "2011-05-30T14:02:44Z", "webTitle": "Qatar consider legal action over J\u00e9r\u00f4me Valcke's World Cup allegations", "webUrl": "https://www.theguardian.com/football/2011/may/30/qatar-jerome-valcke-2022-world-cup", "apiUrl": "https://content.guardianapis.com/football/2011/may/30/qatar-jerome-valcke-2022-world-cup", "isHosted": false, "pillarId": "pillar/sport", "pillarName": "Sport"}, {"id": "football/2011/may/30/reading-swansea-championship-play-off-live", "type": "article", "sectionId": "football", "sectionName": "Football", "webPublicationDate": "2011-05-30T13:00:01Z", "webTitle": "Reading v Swansea - as it happened | Jacob Steinberg", "webUrl": "https://www.theguardian.com/football/2011/may/30/reading-swansea-championship-play-off-live", "apiUrl": "https://content.guardianapis.com/football/2011/may/30/reading-swansea-championship-play-off-live", "isHosted": false, "pillarId": "pillar/sport", "pillarName": "Sport"}, {"id": "football/2011/may/30/jack-warner-analysing-fifa-allegations", "type": "article", "sectionId": "football", "sectionName": "Football", "webPublicationDate": "2011-05-30T12:42:51Z", "webTitle": "Jack Warner: analysing the Fifa allegations | David Conn", "webUrl": "https://www.theguardian.com/football/2011/may/30/jack-warner-analysing-fifa-allegations", "apiUrl": "https://content.guardianapis.com/football/2011/may/30/jack-warner-analysing-fifa-allegations", "isHosted": false, "pillarId": "pillar/sport", "pillarName": "Sport"}, {"id": "football/2011/may/30/dave-jones-cardiff-city-sacked", "type": "article", "sectionId": "football", "sectionName": "Football", "webPublicationDate": "2011-05-30T11:48:42Z", "webTitle": "Dave Jones sacked as manager of Championship side Cardiff City", "webUrl": "https://www.theguardian.com/football/2011/may/30/dave-jones-cardiff-city-sacked", "apiUrl": "https://content.guardianapis.com/football/2011/may/30/dave-jones-cardiff-city-sacked", "isHosted": false, "pillarId": "pillar/sport", "pillarName": "Sport"}, {"id": "football/video/2011/may/30/fifa-sepp-blatter", "type": "video", "sectionId": "football", "sectionName": "Football", "webPublicationDate": "2011-05-30T08:46:00Z", "webTitle": "Fifa's Sepp Blatter cleared for new presidential term - video", "webUrl": "https://www.theguardian.com/football/video/2011/may/30/fifa-sepp-blatter", "apiUrl": "https://content.guardianapis.com/football/video/2011/may/30/fifa-sepp-blatter", "isHosted": false, "pillarId": "pillar/sport", "pillarName": "Sport"}, {"id": "football/2011/may/30/football-transfer-rumours-man-utd", "type": "article", "sectionId": "football", "sectionName": "Football", "webPublicationDate": "2011-05-30T08:06:19Z", "webTitle": "Football transfer rumours: Luka Modric and Ashley Young to Man Utd?", "webUrl": "https://www.theguardian.com/football/2011/may/30/football-transfer-rumours-man-utd", "apiUrl": "https://content.guardianapis.com/football/2011/may/30/football-transfer-rumours-man-utd", "isHosted": false, "pillarId": "pillar/sport", "pillarName": "Sport"}, {"id": "football/blog/2011/may/30/european-goal-of-the-season", "type": "article", "sectionId": "football", "sectionName": "Football", "webPublicationDate": "2011-05-30T08:00:00Z", "webTitle": "Which is your European goal of the season? | James Dart", "webUrl": "https://www.theguardian.com/football/blog/2011/may/30/european-goal-of-the-season", "apiUrl": "https://content.guardianapis.com/football/blog/2011/may/30/european-goal-of-the-season", "isHosted": false, "pillarId": "pillar/sport", "pillarName": "Sport"}, {"id": "football/2011/may/30/barcelona-manchester-united-champions-league", "type": "article", "sectionId": "football", "sectionName": "Football", "webPublicationDate": "2011-05-30T06:01:00Z", "webTitle": "Barcelona turn Manchester United into a mere irrelevance", "webUrl": "https://www.theguardian.com/football/2011/may/30/barcelona-manchester-united-champions-league", "apiUrl": "https://content.guardianapis.com/football/2011/may/30/barcelona-manchester-united-champions-league", "isHosted": false, "pillarId": "pillar/sport", "pillarName": "Sport"}, {"id": "football/2011/may/29/sepp-blatter-clear-top-fifa-officials-suspended", "type": "article", "sectionId": "football", "sectionName": "Football", "webPublicationDate": "2011-05-30T00:26:00Z", "webTitle": "Sepp Blatter in the clear as top Fifa officials suspended", "webUrl": "https://www.theguardian.com/football/2011/may/29/sepp-blatter-clear-top-fifa-officials-suspended", "apiUrl": "https://content.guardianapis.com/football/2011/may/29/sepp-blatter-clear-top-fifa-officials-suspended", "isHosted": false, "pillarId": "pillar/sport", "pillarName": "Sport"}, {"id": "football/2011/may/30/pep-guardiola-barcelona", "type": "article", "sectionId": "football", "sectionName": "Football", "webPublicationDate": "2011-05-29T23:09:20Z", "webTitle": "Pep Guardiola remains intent on testing himself beyond Barcelona", "webUrl": "https://www.theguardian.com/football/2011/may/30/pep-guardiola-barcelona", "apiUrl": "https://content.guardianapis.com/football/2011/may/30/pep-guardiola-barcelona", "isHosted": false, "pillarId": "pillar/sport", "pillarName": "Sport"}, {"id": "football/blog/2011/may/30/sky-itv-barcelona-quite-good", "type": "article", "sectionId": "football", "sectionName": "Football", "webPublicationDate": "2011-05-29T23:06:01Z", "webTitle": "Sky, ITV and my daughter all agree: Barcelona are quite good | Martin Kelner", "webUrl": "https://www.theguardian.com/football/blog/2011/may/30/sky-itv-barcelona-quite-good", "apiUrl": "https://content.guardianapis.com/football/blog/2011/may/30/sky-itv-barcelona-quite-good", "isHosted": false, "pillarId": "pillar/sport", "pillarName": "Sport"}, {"id": "football/2011/may/30/sir-alex-ferguson-manchester-united", "type": "article", "sectionId": "football", "sectionName": "Football", "webPublicationDate": "2011-05-29T23:06:00Z", "webTitle": "Sir Alex Ferguson plans Manchester United overhaul to catch Barcelona", "webUrl": "https://www.theguardian.com/football/2011/may/30/sir-alex-ferguson-manchester-united", "apiUrl": "https://content.guardianapis.com/football/2011/may/30/sir-alex-ferguson-manchester-united", "isHosted": false, "pillarId": "pillar/sport", "pillarName": "Sport"}, {"id": "commentisfree/cartoon/2011/may/30/sepp-blatter-fifa", "type": "picture", "sectionId": "commentisfree", "sectionName": "Opinion", "webPublicationDate": "2011-05-29T23:05:56Z", "webTitle": "Phil Disley on the Fifa election - cartoon", "webUrl": "https://www.theguardian.com/commentisfree/cartoon/2011/may/30/sepp-blatter-fifa", "apiUrl": "https://content.guardianapis.com/commentisfree/cartoon/2011/may/30/sepp-blatter-fifa", "isHosted": false, "pillarId": "pillar/opinion", "pillarName": "Opinion"}, {"id": "football/2011/may/30/ian-harte-reading", "type": "article", "sectionId": "football", "sectionName": "Football", "webPublicationDate": "2011-05-29T23:05:51Z", "webTitle": "Reject Ian Harte beating strongly as Reading push for Premier League", "webUrl": "https://www.theguardian.com/football/2011/may/30/ian-harte-reading", "apiUrl": "https://content.guardianapis.com/football/2011/may/30/ian-harte-reading", "isHosted": false, "pillarId": "pillar/sport", "pillarName": "Sport"}, {"id": "football/blog/2011/may/30/manchester-united-sir-alex-ferguson-youth", "type": "article", "sectionId": "football", "sectionName": "Football", "webPublicationDate": "2011-05-29T23:05:41Z", "webTitle": "Sir Alex Ferguson needs fresh injection of youth to compete with best | Richard Williams", "webUrl": "https://www.theguardian.com/football/blog/2011/may/30/manchester-united-sir-alex-ferguson-youth", "apiUrl": "https://content.guardianapis.com/football/blog/2011/may/30/manchester-united-sir-alex-ferguson-youth", "isHosted": false, "pillarId": "pillar/sport", "pillarName": "Sport"}, {"id": "commentisfree/2011/may/30/why-idolise-footballers", "type": "article", "sectionId": "commentisfree", "sectionName": "Opinion", "webPublicationDate": "2011-05-29T23:05:00Z", "webTitle": "Charlie Brooker: Why idolise footballers? It's like living in a world where half of us worship shire horses", "webUrl": "https://www.theguardian.com/commentisfree/2011/may/30/why-idolise-footballers", "apiUrl": "https://content.guardianapis.com/commentisfree/2011/may/30/why-idolise-footballers", "isHosted": false, "pillarId": "pillar/opinion", "pillarName": "Opinion"}, {"id": "football/2011/may/29/fifa-lord-triesman", "type": "article", "sectionId": "football", "sectionName": "Football", "webPublicationDate": "2011-05-29T22:06:00Z", "webTitle": "Four Fifa executives accused by Lord Triesman are 'in the clear'", "webUrl": "https://www.theguardian.com/football/2011/may/29/fifa-lord-triesman", "apiUrl": "https://content.guardianapis.com/football/2011/may/29/fifa-lord-triesman", "isHosted": false, "pillarId": "pillar/sport", "pillarName": "Sport"}, {"id": "football/2011/may/29/sepp-blatter-cleared-fifa-election", "type": "article", "sectionId": "football", "sectionName": "Football", "webPublicationDate": "2011-05-29T20:56:08Z", "webTitle": "Fifa faces 'watershed moment' for reform after corruption allegations", "webUrl": "https://www.theguardian.com/football/2011/may/29/sepp-blatter-cleared-fifa-election", "apiUrl": "https://content.guardianapis.com/football/2011/may/29/sepp-blatter-cleared-fifa-election", "isHosted": false, "pillarId": "pillar/sport", "pillarName": "Sport"}, {"id": "football/2011/may/29/republic-ireland-scotland-nations-cup", "type": "article", "sectionId": "football", "sectionName": "Football", "webPublicationDate": "2011-05-29T20:11:54Z", "webTitle": "Republic of Ireland 1-0 Scotland | Nations Cup match report", "webUrl": "https://www.theguardian.com/football/2011/may/29/republic-ireland-scotland-nations-cup", "apiUrl": "https://content.guardianapis.com/football/2011/may/29/republic-ireland-scotland-nations-cup", "isHosted": false, "pillarId": "pillar/sport", "pillarName": "Sport"}, {"id": "football/2011/may/29/countdown-to-crisis-at-fifa", "type": "article", "sectionId": "football", "sectionName": "Football", "webPublicationDate": "2011-05-29T19:07:48Z", "webTitle": "Countdown to a crisis at Fifa", "webUrl": "https://www.theguardian.com/football/2011/may/29/countdown-to-crisis-at-fifa", "apiUrl": "https://content.guardianapis.com/football/2011/may/29/countdown-to-crisis-at-fifa", "isHosted": false, "pillarId": "pillar/sport", "pillarName": "Sport"}, {"id": "football/blog/2011/may/29/manchester-united-barcelona-errors-tactics", "type": "article", "sectionId": "football", "sectionName": "Football", "webPublicationDate": "2011-05-29T18:14:37Z", "webTitle": "Five lessons that Manchester United failed to learn against Barcelona | Sachin Nakrani", "webUrl": "https://www.theguardian.com/football/blog/2011/may/29/manchester-united-barcelona-errors-tactics", "apiUrl": "https://content.guardianapis.com/football/blog/2011/may/29/manchester-united-barcelona-errors-tactics", "isHosted": false, "pillarId": "pillar/sport", "pillarName": "Sport"}, {"id": "football/2011/may/29/barcelona-european-cup-rivals", "type": "article", "sectionId": "football", "sectionName": "Football", "webPublicationDate": "2011-05-29T17:53:00Z", "webTitle": "Greatest ever? These past European Cup teams rival Barcelona's feats", "webUrl": "https://www.theguardian.com/football/2011/may/29/barcelona-european-cup-rivals", "apiUrl": "https://content.guardianapis.com/football/2011/may/29/barcelona-european-cup-rivals", "isHosted": false, "pillarId": "pillar/sport", "pillarName": "Sport"}, {"id": "football/2011/may/29/fifa-crisis", "type": "article", "sectionId": "football", "sectionName": "Football", "webPublicationDate": "2011-05-29T17:36:00Z", "webTitle": "Sepp Blatter cleared as Fifa suspends Bin Hammam and Warner", "webUrl": "https://www.theguardian.com/football/2011/may/29/fifa-crisis", "apiUrl": "https://content.guardianapis.com/football/2011/may/29/fifa-crisis", "isHosted": false, "pillarId": "pillar/sport", "pillarName": "Sport"}, {"id": "football/blog/2011/may/29/dimitar-berbatov-manchester-united", "type": "article", "sectionId": "football", "sectionName": "Football", "webPublicationDate": "2011-05-29T17:03:00Z", "webTitle": "Dimitar Berbatov faces an uncertain future after conspicuous absence | Daniel Taylor", "webUrl": "https://www.theguardian.com/football/blog/2011/may/29/dimitar-berbatov-manchester-united", "apiUrl": "https://content.guardianapis.com/football/blog/2011/may/29/dimitar-berbatov-manchester-united", "isHosted": false, "pillarId": "pillar/sport", "pillarName": "Sport"}, {"id": "football/football-league-blog/2011/may/29/huddersfield-town-peterborough-united-league-one", "type": "article", "sectionId": "football", "sectionName": "Football", "webPublicationDate": "2011-05-29T16:14:06Z", "webTitle": "Huddersfield Town 0\u20133 Peterborough United | League One play-off final match report", "webUrl": "https://www.theguardian.com/football/football-league-blog/2011/may/29/huddersfield-town-peterborough-united-league-one", "apiUrl": "https://content.guardianapis.com/football/football-league-blog/2011/may/29/huddersfield-town-peterborough-united-league-one", "isHosted": false, "pillarId": "pillar/sport", "pillarName": "Sport"}, {"id": "football/blog/2011/may/29/barcelona-champions-league", "type": "article", "sectionId": "football", "sectionName": "Football", "webPublicationDate": "2011-05-29T16:13:41Z", "webTitle": "Brilliant Barcelona are a high point in football's evolution | Paul Hayward", "webUrl": "https://www.theguardian.com/football/blog/2011/may/29/barcelona-champions-league", "apiUrl": "https://content.guardianapis.com/football/blog/2011/may/29/barcelona-champions-league", "isHosted": false, "pillarId": "pillar/sport", "pillarName": "Sport"}, {"id": "football/2011/may/29/spanish-press-barcelona-pantheon-greats", "type": "article", "sectionId": "football", "sectionName": "Football", "webPublicationDate": "2011-05-29T14:06:38Z", "webTitle": "Champions League press reaction: 'This Bar\u00e7a is the best team in the world' | Chris Taylor", "webUrl": "https://www.theguardian.com/football/2011/may/29/spanish-press-barcelona-pantheon-greats", "apiUrl": "https://content.guardianapis.com/football/2011/may/29/spanish-press-barcelona-pantheon-greats", "isHosted": false, "pillarId": "pillar/sport", "pillarName": "Sport"}, {"id": "football/2011/may/29/fifa-crisis-storm-clouds-gather", "type": "article", "sectionId": "football", "sectionName": "Football", "webPublicationDate": "2011-05-29T13:52:16Z", "webTitle": "Fifa crisis: Storm clouds gather as big hitters fight to clear names", "webUrl": "https://www.theguardian.com/football/2011/may/29/fifa-crisis-storm-clouds-gather", "apiUrl": "https://content.guardianapis.com/football/2011/may/29/fifa-crisis-storm-clouds-gather", "isHosted": false, "pillarId": "pillar/sport", "pillarName": "Sport"}, {"id": "football/blog/2011/may/29/fifa-in-crisis-live-blog", "type": "article", "sectionId": "football", "sectionName": "Football", "webPublicationDate": "2011-05-29T10:43:00Z", "webTitle": "Fifa in crisis live blog - Blatter cleared, Bin Hammam and Warner suspended | John Ashdown", "webUrl": "https://www.theguardian.com/football/blog/2011/may/29/fifa-in-crisis-live-blog", "apiUrl": "https://content.guardianapis.com/football/blog/2011/may/29/fifa-in-crisis-live-blog", "isHosted": false, "pillarId": "pillar/sport", "pillarName": "Sport"}, {"id": "football/blog/audio/2011/may/29/football-weekly-podcast-champions-league-final", "type": "audio", "sectionId": "football", "sectionName": "Football", "webPublicationDate": "2011-05-29T10:28:49Z", "webTitle": "Football Weekly Extra Live: Another Barcelona masterclass", "webUrl": "https://www.theguardian.com/football/blog/audio/2011/may/29/football-weekly-podcast-champions-league-final", "apiUrl": "https://content.guardianapis.com/football/blog/audio/2011/may/29/football-weekly-podcast-champions-league-final", "isHosted": false, "pillarId": "pillar/sport", "pillarName": "Sport"}, {"id": "football/2011/may/29/fifa-crisis-mohamed-bin-hammam", "type": "article", "sectionId": "football", "sectionName": "Football", "webPublicationDate": "2011-05-29T09:23:57Z", "webTitle": "Fifa crisis: Mohamed bin Hammam vows to clear his name", "webUrl": "https://www.theguardian.com/football/2011/may/29/fifa-crisis-mohamed-bin-hammam", "apiUrl": "https://content.guardianapis.com/football/2011/may/29/fifa-crisis-mohamed-bin-hammam", "isHosted": false, "pillarId": "pillar/sport", "pillarName": "Sport"}, {"id": "football/blog/2011/may/29/england-goalkeepers-david-james", "type": "article", "sectionId": "football", "sectionName": "Football", "webPublicationDate": "2011-05-29T09:00:05Z", "webTitle": "Joe Hart has the heart to cope with England's hard taskmaster | David James", "webUrl": "https://www.theguardian.com/football/blog/2011/may/29/england-goalkeepers-david-james", "apiUrl": "https://content.guardianapis.com/football/blog/2011/may/29/england-goalkeepers-david-james", "isHosted": false, "pillarId": "pillar/sport", "pillarName": "Sport"}, {"id": "football/2011/may/29/brendan-rodgers-swansea-city", "type": "article", "sectionId": "football", "sectionName": "Football", "webPublicationDate": "2011-05-29T09:00:00Z", "webTitle": "Brendan Rodgers readies Swansea City for the big time", "webUrl": "https://www.theguardian.com/football/2011/may/29/brendan-rodgers-swansea-city", "apiUrl": "https://content.guardianapis.com/football/2011/may/29/brendan-rodgers-swansea-city", "isHosted": false, "pillarId": "pillar/sport", "pillarName": "Sport"}, {"id": "football/blog/2011/may/29/darren-bent-michael-owen-england", "type": "article", "sectionId": "football", "sectionName": "Football", "webPublicationDate": "2011-05-29T09:00:00Z", "webTitle": "Darren Bent is right for Capello but sympathy lies with Michael Owen | Paul Wilson", "webUrl": "https://www.theguardian.com/football/blog/2011/may/29/darren-bent-michael-owen-england", "apiUrl": "https://content.guardianapis.com/football/blog/2011/may/29/darren-bent-michael-owen-england", "isHosted": false, "pillarId": "pillar/sport", "pillarName": "Sport"}, {"id": "football/2011/may/29/ottmar-hitzfeld-switzerland-england", "type": "article", "sectionId": "football", "sectionName": "Football", "webPublicationDate": "2011-05-29T09:00:00Z", "webTitle": "Switzerland's desecrated 'messiah' Ottmar Hitzfeld prays for a miracle", "webUrl": "https://www.theguardian.com/football/2011/may/29/ottmar-hitzfeld-switzerland-england", "apiUrl": "https://content.guardianapis.com/football/2011/may/29/ottmar-hitzfeld-switzerland-england", "isHosted": false, "pillarId": "pillar/sport", "pillarName": "Sport"}, {"id": "football/blog/2011/may/29/edwin-van-der-sar-champions-league", "type": "article", "sectionId": "football", "sectionName": "Football", "webPublicationDate": "2011-05-29T09:00:00Z", "webTitle": "Edwin van der Sar: a sorry way to say goodbye to glorious career | Dominic Fifield", "webUrl": "https://www.theguardian.com/football/blog/2011/may/29/edwin-van-der-sar-champions-league", "apiUrl": "https://content.guardianapis.com/football/blog/2011/may/29/edwin-van-der-sar-champions-league", "isHosted": false, "pillarId": "pillar/sport", "pillarName": "Sport"}, {"id": "football/2011/may/29/scotland-ireland-nations-cup", "type": "article", "sectionId": "football", "sectionName": "Football", "webPublicationDate": "2011-05-29T09:00:00Z", "webTitle": "Only England can save no-show Nations Cup as fans stay away", "webUrl": "https://www.theguardian.com/football/2011/may/29/scotland-ireland-nations-cup", "apiUrl": "https://content.guardianapis.com/football/2011/may/29/scotland-ireland-nations-cup", "isHosted": false, "pillarId": "pillar/sport", "pillarName": "Sport"}]}}