{"response": {"status": "ok", "userTier": "developer", "total": 93485, "startIndex": 1, "pageSize": 50, "currentPage": 1, "pages": 1870, "orderBy": "newest", "results": [{"id": "football/live/2015/may/30/usa-womens-soccer-team-v-korea-republic-live", "type": "liveblog", "sectionId": "football", "sectionName": "Football", "webPublicationDate": "2015-05-30T23:16:05Z", "webTitle": "USA women's soccer team v Korea Republic \u2013 as it happened", "webUrl": "https://www.theguardian.com/football/live/2015/may/30/usa-womens-soccer-team-v-korea-republic-live", "apiUrl": "https://content.guardianapis.com/football/live/2015/may/30/usa-womens-soccer-team-v-korea-republic-live", "isHosted": false, "pillarId": "pillar/sport", "pillarName": "Sport"}, {"id": "commentisfree/2015/may/31/sepp-blatter-believes-in-values-of-casino-fifa", "type": "article", "sectionId": "commentisfree", "sectionName": "Opinion", "webPublicationDate": "2015-05-30T23:05:08Z", "webTitle": "Sepp Blatter embraces the values of the casino rule. Prove him wrong | Will Hutton", "webUrl": "https://www.theguardian.com/commentisfree/2015/may/31/sepp-blatter-believes-in-values-of-casino-fifa", "apiUrl": "https://content.guardianapis.com/commentisfree/2015/may/31/sepp-blatter-believes-in-values-of-casino-fifa", "isHosted": false, "pillarId": "pillar/opinion", "pillarName": "Opinion"}, {"id": "commentisfree/2015/may/31/sepp-blatter-failures-of-fifa", "type": "article", "sectionId": "commentisfree", "sectionName": "Opinion", "webPublicationDate": "2015-05-30T23:05:08Z", "webTitle": "The Observer view on Sepp Blatter and the failures of Fifa | Observer editorial", "webUrl": "https://www.theguardian.com/commentisfree/2015/may/31/sepp-blatter-failures-of-fifa", "apiUrl": "https://content.guardianapis.com/commentisfree/2015/may/31/sepp-blatter-failures-of-fifa", "isHosted": false, "pillarId": "pillar/opinion", "pillarName": "Opinion"}, {"id": "football/2015/may/31/fifa-corruption-investigation-key-questions", "type": "article", "sectionId": "football", "sectionName": "Football", "webPublicationDate": "2015-05-30T23:05:08Z", "webTitle": "Fifa corruption: the key questions", "webUrl": "https://www.theguardian.com/football/2015/may/31/fifa-corruption-investigation-key-questions", "apiUrl": "https://content.guardianapis.com/football/2015/may/31/fifa-corruption-investigation-key-questions", "isHosted": false, "pillarId": "pillar/sport", "pillarName": "Sport"}, {"id": "football/2015/may/31/sepp-blatters-anti-american-fury-echoes-the-new-world-order", "type": "article", "sectionId": "football", "sectionName": "Football", "webPublicationDate": "2015-05-30T23:05:08Z", "webTitle": "Sepp Blatter\u2019s anti-American fury echoes the new world order", "webUrl": "https://www.theguardian.com/football/2015/may/31/sepp-blatters-anti-american-fury-echoes-the-new-world-order", "apiUrl": "https://content.guardianapis.com/football/2015/may/31/sepp-blatters-anti-american-fury-echoes-the-new-world-order", "isHosted": false, "pillarId": "pillar/sport", "pillarName": "Sport"}, {"id": "commentisfree/2015/may/31/liverpool-juventus-heysel-tragedy", "type": "article", "sectionId": "commentisfree", "sectionName": "Opinion", "webPublicationDate": "2015-05-30T23:04:08Z", "webTitle": "My friendship with Mauro from Turin that survived the horror of Heysel | Kevin Sampson", "webUrl": "https://www.theguardian.com/commentisfree/2015/may/31/liverpool-juventus-heysel-tragedy", "apiUrl": "https://content.guardianapis.com/commentisfree/2015/may/31/liverpool-juventus-heysel-tragedy", "isHosted": false, "pillarId": "pillar/opinion", "pillarName": "Opinion"}, {"id": "football/2015/may/30/sepp-blatter-fa-david-gill-resigned-fifa", "type": "article", "sectionId": "football", "sectionName": "Football", "webPublicationDate": "2015-05-30T23:03:00Z", "webTitle": "Sepp Blatter hits out after the FA\u2019s David Gill resigns his Fifa post", "webUrl": "https://www.theguardian.com/football/2015/may/30/sepp-blatter-fa-david-gill-resigned-fifa", "apiUrl": "https://content.guardianapis.com/football/2015/may/30/sepp-blatter-fa-david-gill-resigned-fifa", "isHosted": false, "pillarId": "pillar/sport", "pillarName": "Sport"}, {"id": "football/2015/may/30/alexis-sanchez-wembley-fa-cup-final-arsenal-aston-villa", "type": "article", "sectionId": "football", "sectionName": "Football", "webPublicationDate": "2015-05-30T22:50:53Z", "webTitle": "The Arch View: Alexis S\u00e1nchez likes Wembley, where beer flows freely", "webUrl": "https://www.theguardian.com/football/2015/may/30/alexis-sanchez-wembley-fa-cup-final-arsenal-aston-villa", "apiUrl": "https://content.guardianapis.com/football/2015/may/30/alexis-sanchez-wembley-fa-cup-final-arsenal-aston-villa", "isHosted": false, "pillarId": "pillar/sport", "pillarName": "Sport"}, {"id": "football/2015/may/30/arsenal-aston-villa-fa-cup-final-player-ratings", "type": "article", "sectionId": "football", "sectionName": "Football", "webPublicationDate": "2015-05-30T22:38:04Z", "webTitle": "Arsenal 4-0 Aston Villa: how the FA Cup final players rated", "webUrl": "https://www.theguardian.com/football/2015/may/30/arsenal-aston-villa-fa-cup-final-player-ratings", "apiUrl": "https://content.guardianapis.com/football/2015/may/30/arsenal-aston-villa-fa-cup-final-player-ratings", "isHosted": false, "pillarId": "pillar/sport", "pillarName": "Sport"}, {"id": "football/2015/may/30/greg-dyke-english-fa-uefa-boycott-world-cup-fifa", "type": "article", "sectionId": "football", "sectionName": "Football", "webPublicationDate": "2015-05-30T22:03:12Z", "webTitle": "Greg Dyke says English FA would support Uefa boycott of World Cup", "webUrl": "https://www.theguardian.com/football/2015/may/30/greg-dyke-english-fa-uefa-boycott-world-cup-fifa", "apiUrl": "https://content.guardianapis.com/football/2015/may/30/greg-dyke-english-fa-uefa-boycott-world-cup-fifa", "isHosted": false, "pillarId": "pillar/sport", "pillarName": "Sport"}, {"id": "football/2015/may/30/athletic-bilbao-barcelona-copa-del-rey-final-match-report", "type": "article", "sectionId": "football", "sectionName": "Football", "webPublicationDate": "2015-05-30T21:46:02Z", "webTitle": "Athletic Bilbao 1-3 Barcelona | Copa del Rey final match report", "webUrl": "https://www.theguardian.com/football/2015/may/30/athletic-bilbao-barcelona-copa-del-rey-final-match-report", "apiUrl": "https://content.guardianapis.com/football/2015/may/30/athletic-bilbao-barcelona-copa-del-rey-final-match-report", "isHosted": false, "pillarId": "pillar/sport", "pillarName": "Sport"}, {"id": "football/live/2015/may/30/athletic-bilbao-v-barcelona-copa-del-rey-final-live", "type": "liveblog", "sectionId": "football", "sectionName": "Football", "webPublicationDate": "2015-05-30T21:20:20Z", "webTitle": "Athletic Bilbao 1-3 Barcelona: Copa del Rey final \u2013 as it happened! | Alan Smith", "webUrl": "https://www.theguardian.com/football/live/2015/may/30/athletic-bilbao-v-barcelona-copa-del-rey-final-live", "apiUrl": "https://content.guardianapis.com/football/live/2015/may/30/athletic-bilbao-v-barcelona-copa-del-rey-final-live", "isHosted": false, "pillarId": "pillar/sport", "pillarName": "Sport"}, {"id": "football/2015/may/30/fifa-new-direction-corruption-sepp-blatter", "type": "article", "sectionId": "football", "sectionName": "Football", "webPublicationDate": "2015-05-30T21:00:05Z", "webTitle": "How Fifa can find a new direction and start the clean-up of corruption", "webUrl": "https://www.theguardian.com/football/2015/may/30/fifa-new-direction-corruption-sepp-blatter", "apiUrl": "https://content.guardianapis.com/football/2015/may/30/fifa-new-direction-corruption-sepp-blatter", "isHosted": false, "pillarId": "pillar/sport", "pillarName": "Sport"}, {"id": "football/2015/may/30/arsene-wenger-alexis-sanchez-arsenal-fa-cup-theo-walcott", "type": "article", "sectionId": "football", "sectionName": "Football", "webPublicationDate": "2015-05-30T20:46:37Z", "webTitle": "Ars\u00e8ne Wenger promises Alexis S\u00e1nchez a holiday as Arsenal lift FA Cup", "webUrl": "https://www.theguardian.com/football/2015/may/30/arsene-wenger-alexis-sanchez-arsenal-fa-cup-theo-walcott", "apiUrl": "https://content.guardianapis.com/football/2015/may/30/arsene-wenger-alexis-sanchez-arsenal-fa-cup-theo-walcott", "isHosted": false, "pillarId": "pillar/sport", "pillarName": "Sport"}, {"id": "uk-news/davehillblog/2015/may/30/how-arsenal-won-the-cup-in-1936", "type": "article", "sectionId": "uk-news", "sectionName": "UK news", "webPublicationDate": "2015-05-30T20:44:41Z", "webTitle": "How Arsenal won the Cup - in 1936", "webUrl": "https://www.theguardian.com/uk-news/davehillblog/2015/may/30/how-arsenal-won-the-cup-in-1936", "apiUrl": "https://content.guardianapis.com/uk-news/davehillblog/2015/may/30/how-arsenal-won-the-cup-in-1936", "isHosted": false, "pillarId": "pillar/news", "pillarName": "News"}, {"id": "football/2015/may/30/british-offshore-tax-havens-investigation-world-cup-fifa", "type": "article", "sectionId": "football", "sectionName": "Football", "webPublicationDate": "2015-05-30T20:11:18Z", "webTitle": "UK offshore tax havens at heart of US investigation into World Cup corruption", "webUrl": "https://www.theguardian.com/football/2015/may/30/british-offshore-tax-havens-investigation-world-cup-fifa", "apiUrl": "https://content.guardianapis.com/football/2015/may/30/british-offshore-tax-havens-investigation-world-cup-fifa", "isHosted": false, "pillarId": "pillar/sport", "pillarName": "Sport"}, {"id": "sport/2015/may/30/the-agenda-australia-ashes-womens-world-cup", "type": "article", "sectionId": "sport", "sectionName": "Sport", "webPublicationDate": "2015-05-30T20:00:04Z", "webTitle": "The Agenda: Australia warm up for Ashes in Caribbean and footballing nuns", "webUrl": "https://www.theguardian.com/sport/2015/may/30/the-agenda-australia-ashes-womens-world-cup", "apiUrl": "https://content.guardianapis.com/sport/2015/may/30/the-agenda-australia-ashes-womens-world-cup", "isHosted": false, "pillarId": "pillar/sport", "pillarName": "Sport"}, {"id": "football/blog/2015/may/30/aston-villa-christian-benteke-tim-sherwood-fa-cup-final", "type": "article", "sectionId": "football", "sectionName": "Football", "webPublicationDate": "2015-05-30T19:04:41Z", "webTitle": "Aston Villa outplayed after Arsenal isolate Christian Benteke | Stuart James", "webUrl": "https://www.theguardian.com/football/blog/2015/may/30/aston-villa-christian-benteke-tim-sherwood-fa-cup-final", "apiUrl": "https://content.guardianapis.com/football/blog/2015/may/30/aston-villa-christian-benteke-tim-sherwood-fa-cup-final", "isHosted": false, "pillarId": "pillar/sport", "pillarName": "Sport"}, {"id": "football/blog/2015/may/30/juventus-champions-league-final-serie-a", "type": "article", "sectionId": "football", "sectionName": "Football", "webPublicationDate": "2015-05-30T18:59:03Z", "webTitle": "Europe\u2019s grand old lady Juventus return to Champions League Final | Ed Vulliamy", "webUrl": "https://www.theguardian.com/football/blog/2015/may/30/juventus-champions-league-final-serie-a", "apiUrl": "https://content.guardianapis.com/football/blog/2015/may/30/juventus-champions-league-final-serie-a", "isHosted": false, "pillarId": "pillar/sport", "pillarName": "Sport"}, {"id": "football/live/2015/may/30/arsenal-v-aston-villa-fa-cup-final-live", "type": "liveblog", "sectionId": "football", "sectionName": "Football", "webPublicationDate": "2015-05-30T18:47:30Z", "webTitle": "The 2015 FA Cup final: Arsenal 4-0 Aston Villa, as it happened", "webUrl": "https://www.theguardian.com/football/live/2015/may/30/arsenal-v-aston-villa-fa-cup-final-live", "apiUrl": "https://content.guardianapis.com/football/live/2015/may/30/arsenal-v-aston-villa-fa-cup-final-live", "isHosted": false, "pillarId": "pillar/sport", "pillarName": "Sport"}, {"id": "football/blog/2015/may/30/theo-walcott-arsenal-aston-villa-fa-cup-final", "type": "article", "sectionId": "football", "sectionName": "Football", "webPublicationDate": "2015-05-30T18:43:37Z", "webTitle": "FA Cup final: Theo Walcott picks ideal time to show Arsenal superiority | Paul Wilson", "webUrl": "https://www.theguardian.com/football/blog/2015/may/30/theo-walcott-arsenal-aston-villa-fa-cup-final", "apiUrl": "https://content.guardianapis.com/football/blog/2015/may/30/theo-walcott-arsenal-aston-villa-fa-cup-final", "isHosted": false, "pillarId": "pillar/sport", "pillarName": "Sport"}, {"id": "football/2015/may/30/fa-cup-final-arsenal-aston-villa-alexis-sanchez", "type": "article", "sectionId": "football", "sectionName": "Football", "webPublicationDate": "2015-05-30T18:35:29Z", "webTitle": "FA Cup final: Alexis S\u00e1nchez inspires Arsenal to win over Aston Villa", "webUrl": "https://www.theguardian.com/football/2015/may/30/fa-cup-final-arsenal-aston-villa-alexis-sanchez", "apiUrl": "https://content.guardianapis.com/football/2015/may/30/fa-cup-final-arsenal-aston-villa-alexis-sanchez", "isHosted": false, "pillarId": "pillar/sport", "pillarName": "Sport"}, {"id": "football/2015/may/30/inverness-caledonian-thistle-falkirk-scottish-cup-final-match-report", "type": "article", "sectionId": "football", "sectionName": "Football", "webPublicationDate": "2015-05-30T18:20:16Z", "webTitle": "Inverness Caledonian Thistle 2-1 Falkirk | Scottish Cup final match report", "webUrl": "https://www.theguardian.com/football/2015/may/30/inverness-caledonian-thistle-falkirk-scottish-cup-final-match-report", "apiUrl": "https://content.guardianapis.com/football/2015/may/30/inverness-caledonian-thistle-falkirk-scottish-cup-final-match-report", "isHosted": false, "pillarId": "pillar/sport", "pillarName": "Sport"}, {"id": "football/2015/may/30/inverness-caledonian-thistle-falkirk-scottish-cup-match-report", "type": "article", "sectionId": "football", "sectionName": "Football", "webPublicationDate": "2015-05-30T16:14:35Z", "webTitle": "Inverness 2-1 Falkirk | Scottish Cup final match report", "webUrl": "https://www.theguardian.com/football/2015/may/30/inverness-caledonian-thistle-falkirk-scottish-cup-match-report", "apiUrl": "https://content.guardianapis.com/football/2015/may/30/inverness-caledonian-thistle-falkirk-scottish-cup-match-report", "isHosted": false, "pillarId": "pillar/sport", "pillarName": "Sport"}, {"id": "football/live/2015/may/30/falkirk-v-inverness-caledonian-thistle-scottish-cup-final-live", "type": "liveblog", "sectionId": "football", "sectionName": "Football", "webPublicationDate": "2015-05-30T16:09:50Z", "webTitle": "Inverness Caledonian Thistle beat Falkirk to win Scottish Cup final \u2013 as it happened", "webUrl": "https://www.theguardian.com/football/live/2015/may/30/falkirk-v-inverness-caledonian-thistle-scottish-cup-final-live", "apiUrl": "https://content.guardianapis.com/football/live/2015/may/30/falkirk-v-inverness-caledonian-thistle-scottish-cup-final-live", "isHosted": false, "pillarId": "pillar/sport", "pillarName": "Sport"}, {"id": "football/2015/may/30/sepp-blatter-accuses-us-and-british-media-campaign-topple", "type": "article", "sectionId": "football", "sectionName": "Football", "webPublicationDate": "2015-05-30T15:41:55Z", "webTitle": "Blatter accuses US authorities and British press of campaign to topple him", "webUrl": "https://www.theguardian.com/football/2015/may/30/sepp-blatter-accuses-us-and-british-media-campaign-topple", "apiUrl": "https://content.guardianapis.com/football/2015/may/30/sepp-blatter-accuses-us-and-british-media-campaign-topple", "isHosted": false, "pillarId": "pillar/sport", "pillarName": "Sport"}, {"id": "football/2015/may/30/fa-emirates-sponsor-fa-cup", "type": "article", "sectionId": "football", "sectionName": "Football", "webPublicationDate": "2015-05-30T13:28:05Z", "webTitle": "FA confirms that Emirates will sponsor the FA Cup", "webUrl": "https://www.theguardian.com/football/2015/may/30/fa-emirates-sponsor-fa-cup", "apiUrl": "https://content.guardianapis.com/football/2015/may/30/fa-emirates-sponsor-fa-cup", "isHosted": false, "pillarId": "pillar/sport", "pillarName": "Sport"}, {"id": "football/2015/may/30/sepp-blatter-vows-steady-fifa-ship-criticises-us-arrests", "type": "article", "sectionId": "football", "sectionName": "Football", "webPublicationDate": "2015-05-30T13:24:50Z", "webTitle": "Sepp Blatter attacks critics as he vows to pull Fifa through corruption crisis", "webUrl": "https://www.theguardian.com/football/2015/may/30/sepp-blatter-vows-steady-fifa-ship-criticises-us-arrests", "apiUrl": "https://content.guardianapis.com/football/2015/may/30/sepp-blatter-vows-steady-fifa-ship-criticises-us-arrests", "isHosted": false, "pillarId": "pillar/sport", "pillarName": "Sport"}, {"id": "football/2015/may/30/womens-world-cup-2015-england-20-things-you-need-to-know", "type": "article", "sectionId": "football", "sectionName": "Football", "webPublicationDate": "2015-05-30T13:10:00Z", "webTitle": "Women\u2019s World Cup 2015: 20 things you need to know about the finals", "webUrl": "https://www.theguardian.com/football/2015/may/30/womens-world-cup-2015-england-20-things-you-need-to-know", "apiUrl": "https://content.guardianapis.com/football/2015/may/30/womens-world-cup-2015-england-20-things-you-need-to-know", "isHosted": false, "pillarId": "pillar/sport", "pillarName": "Sport"}, {"id": "football/blog/2015/may/30/barcelona-champions-league-final-juventus-lionel-messi-luis-suarez-neymar-berlin-luis-enrique", "type": "article", "sectionId": "football", "sectionName": "Football", "webPublicationDate": "2015-05-30T13:06:00Z", "webTitle": "Barcelona\u2019s forward line is an unstoppable Champions League force | Paul Wilson", "webUrl": "https://www.theguardian.com/football/blog/2015/may/30/barcelona-champions-league-final-juventus-lionel-messi-luis-suarez-neymar-berlin-luis-enrique", "apiUrl": "https://content.guardianapis.com/football/blog/2015/may/30/barcelona-champions-league-final-juventus-lionel-messi-luis-suarez-neymar-berlin-luis-enrique", "isHosted": false, "pillarId": "pillar/sport", "pillarName": "Sport"}, {"id": "football/2015/may/30/womens-world-cup-canada-artificial-pitches", "type": "article", "sectionId": "football", "sectionName": "Football", "webPublicationDate": "2015-05-30T12:43:00Z", "webTitle": "Biggest Women\u2019s World Cup to kick off in Canada amid surface tension", "webUrl": "https://www.theguardian.com/football/2015/may/30/womens-world-cup-canada-artificial-pitches", "apiUrl": "https://content.guardianapis.com/football/2015/may/30/womens-world-cup-canada-artificial-pitches", "isHosted": false, "pillarId": "pillar/sport", "pillarName": "Sport"}, {"id": "football/live/2015/may/30/sepp-blatter-faces-media-after-re-election-as-fifa-president-live", "type": "liveblog", "sectionId": "football", "sectionName": "Football", "webPublicationDate": "2015-05-30T12:33:04Z", "webTitle": "Sepp Blatter comes out fighting after re-election as Fifa president \u2013 as it happened", "webUrl": "https://www.theguardian.com/football/live/2015/may/30/sepp-blatter-faces-media-after-re-election-as-fifa-president-live", "apiUrl": "https://content.guardianapis.com/football/live/2015/may/30/sepp-blatter-faces-media-after-re-election-as-fifa-president-live", "isHosted": false, "pillarId": "pillar/sport", "pillarName": "Sport"}, {"id": "football/2015/may/30/rio-ferdinand-retirement-football", "type": "article", "sectionId": "football", "sectionName": "Football", "webPublicationDate": "2015-05-30T12:23:42Z", "webTitle": "Rio Ferdinand announces his retirement from football", "webUrl": "https://www.theguardian.com/football/2015/may/30/rio-ferdinand-retirement-football", "apiUrl": "https://content.guardianapis.com/football/2015/may/30/rio-ferdinand-retirement-football", "isHosted": false, "pillarId": "pillar/sport", "pillarName": "Sport"}, {"id": "football/blog/live/2015/may/30/sydney-fc-v-tottenham-hotspur-post-season-friendly-live", "type": "liveblog", "sectionId": "football", "sectionName": "Football", "webPublicationDate": "2015-05-30T12:12:16Z", "webTitle": "Sydney FC 0-1 Tottenham Hotspur: post-season friendly \u2013 as it happened", "webUrl": "https://www.theguardian.com/football/blog/live/2015/may/30/sydney-fc-v-tottenham-hotspur-post-season-friendly-live", "apiUrl": "https://content.guardianapis.com/football/blog/live/2015/may/30/sydney-fc-v-tottenham-hotspur-post-season-friendly-live", "isHosted": false, "pillarId": "pillar/sport", "pillarName": "Sport"}, {"id": "football/2015/may/30/why-businesses-still-need-fifa-sponsorship", "type": "article", "sectionId": "football", "sectionName": "Football", "webPublicationDate": "2015-05-30T11:30:09Z", "webTitle": "Why businesses still need Fifa: end goal of sponsorship is always money", "webUrl": "https://www.theguardian.com/football/2015/may/30/why-businesses-still-need-fifa-sponsorship", "apiUrl": "https://content.guardianapis.com/football/2015/may/30/why-businesses-still-need-fifa-sponsorship", "isHosted": false, "pillarId": "pillar/sport", "pillarName": "Sport"}, {"id": "football/2015/may/30/jorge-lopez-argentinian-football-journalist-justice-pep-guardiola", "type": "article", "sectionId": "football", "sectionName": "Football", "webPublicationDate": "2015-05-30T10:30:08Z", "webTitle": "Jorge \u2018El Topo\u2019 L\u00f3pez: Argentinian journalist betrayed by authorities", "webUrl": "https://www.theguardian.com/football/2015/may/30/jorge-lopez-argentinian-football-journalist-justice-pep-guardiola", "apiUrl": "https://content.guardianapis.com/football/2015/may/30/jorge-lopez-argentinian-football-journalist-justice-pep-guardiola", "isHosted": false, "pillarId": "pillar/sport", "pillarName": "Sport"}, {"id": "football/blog/2015/may/30/team-america-v-fifa-did-the-us-accidentally-make-itself-popular", "type": "article", "sectionId": "football", "sectionName": "Football", "webPublicationDate": "2015-05-30T10:00:07Z", "webTitle": "Team America v Fifa: did the US accidentally make itself popular?", "webUrl": "https://www.theguardian.com/football/blog/2015/may/30/team-america-v-fifa-did-the-us-accidentally-make-itself-popular", "apiUrl": "https://content.guardianapis.com/football/blog/2015/may/30/team-america-v-fifa-did-the-us-accidentally-make-itself-popular", "isHosted": false, "pillarId": "pillar/sport", "pillarName": "Sport"}, {"id": "sport/2015/may/30/gifs-giving-roger-federer-rugby-anger-romance", "type": "article", "sectionId": "sport", "sectionName": "Sport", "webPublicationDate": "2015-05-30T08:45:06Z", "webTitle": "The gifs that keep on giving: Roger Federer, rugby, anger and romance", "webUrl": "https://www.theguardian.com/sport/2015/may/30/gifs-giving-roger-federer-rugby-anger-romance", "apiUrl": "https://content.guardianapis.com/sport/2015/may/30/gifs-giving-roger-federer-rugby-anger-romance", "isHosted": false, "pillarId": "pillar/sport", "pillarName": "Sport"}, {"id": "books/2015/may/30/my-hero-football-david-conn", "type": "article", "sectionId": "books", "sectionName": "Books", "webPublicationDate": "2015-05-30T08:00:05Z", "webTitle": "My hero: Football by David Conn", "webUrl": "https://www.theguardian.com/books/2015/may/30/my-hero-football-david-conn", "apiUrl": "https://content.guardianapis.com/books/2015/may/30/my-hero-football-david-conn", "isHosted": false, "pillarId": "pillar/arts", "pillarName": "Arts"}, {"id": "football/2015/may/30/warning-of-more-fifa-corruption-charges-as-sepp-blatter-retains-presidency", "type": "article", "sectionId": "football", "sectionName": "Football", "webPublicationDate": "2015-05-30T07:21:55Z", "webTitle": "Fifa corruption: Sepp Blatter blasts US authorities over investigation", "webUrl": "https://www.theguardian.com/football/2015/may/30/warning-of-more-fifa-corruption-charges-as-sepp-blatter-retains-presidency", "apiUrl": "https://content.guardianapis.com/football/2015/may/30/warning-of-more-fifa-corruption-charges-as-sepp-blatter-retains-presidency", "isHosted": false, "pillarId": "pillar/sport", "pillarName": "Sport"}, {"id": "football/2015/may/29/gabriel-agbonlahor-aston-villa-fa-cup-final", "type": "article", "sectionId": "football", "sectionName": "Football", "webPublicationDate": "2015-05-29T21:30:04Z", "webTitle": "Gabriel Agbonlahor: Aston Villa\u2019s struggles made it hard to leave the house", "webUrl": "https://www.theguardian.com/football/2015/may/29/gabriel-agbonlahor-aston-villa-fa-cup-final", "apiUrl": "https://content.guardianapis.com/football/2015/may/29/gabriel-agbonlahor-aston-villa-fa-cup-final", "isHosted": false, "pillarId": "pillar/sport", "pillarName": "Sport"}, {"id": "football/2015/may/29/arsene-wenger-jack-wilshere-theo-walcott-arsenal-fa-cup", "type": "article", "sectionId": "football", "sectionName": "Football", "webPublicationDate": "2015-05-29T21:30:04Z", "webTitle": "Ars\u00e8ne Wenger has no intention of letting Jack Wilshere leave Arsenal", "webUrl": "https://www.theguardian.com/football/2015/may/29/arsene-wenger-jack-wilshere-theo-walcott-arsenal-fa-cup", "apiUrl": "https://content.guardianapis.com/football/2015/may/29/arsene-wenger-jack-wilshere-theo-walcott-arsenal-fa-cup", "isHosted": false, "pillarId": "pillar/sport", "pillarName": "Sport"}, {"id": "football/2015/may/29/arsenal-arsene-wenger-winners-medals", "type": "article", "sectionId": "football", "sectionName": "Football", "webPublicationDate": "2015-05-29T21:30:04Z", "webTitle": "Arsenal\u2019s Ars\u00e8ne Wenger: \u2018I don\u2019t know where all my winner\u2019s medals are\u2019", "webUrl": "https://www.theguardian.com/football/2015/may/29/arsenal-arsene-wenger-winners-medals", "apiUrl": "https://content.guardianapis.com/football/2015/may/29/arsenal-arsene-wenger-winners-medals", "isHosted": false, "pillarId": "pillar/sport", "pillarName": "Sport"}, {"id": "football/2015/may/29/arsenal-hector-bellerin-wembley-fa-cup-final-aston-villa", "type": "article", "sectionId": "football", "sectionName": "Football", "webPublicationDate": "2015-05-29T21:30:04Z", "webTitle": "Arsenal\u2019s H\u00e9ctor Beller\u00edn fast-tracked to Wembley after breakthrough season", "webUrl": "https://www.theguardian.com/football/2015/may/29/arsenal-hector-bellerin-wembley-fa-cup-final-aston-villa", "apiUrl": "https://content.guardianapis.com/football/2015/may/29/arsenal-hector-bellerin-wembley-fa-cup-final-aston-villa", "isHosted": false, "pillarId": "pillar/sport", "pillarName": "Sport"}, {"id": "football/2015/may/29/fifa-the-mire-of-corruption-a-football-leader-emerges-its-blatter", "type": "article", "sectionId": "football", "sectionName": "Football", "webPublicationDate": "2015-05-29T19:09:48Z", "webTitle": "From the mire of corruption, a Fifa leader emerges, it\u2019s \u2026 Blatter", "webUrl": "https://www.theguardian.com/football/2015/may/29/fifa-the-mire-of-corruption-a-football-leader-emerges-its-blatter", "apiUrl": "https://content.guardianapis.com/football/2015/may/29/fifa-the-mire-of-corruption-a-football-leader-emerges-its-blatter", "isHosted": false, "pillarId": "pillar/sport", "pillarName": "Sport"}, {"id": "commentisfree/2015/may/29/guardian-view-sepp-blatter-re-election-football-missed-chance", "type": "article", "sectionId": "commentisfree", "sectionName": "Opinion", "webPublicationDate": "2015-05-29T18:07:02Z", "webTitle": "The Guardian view on Sepp Blatter\u2019s re-election: football\u2019s missed chance | Editorial", "webUrl": "https://www.theguardian.com/commentisfree/2015/may/29/guardian-view-sepp-blatter-re-election-football-missed-chance", "apiUrl": "https://content.guardianapis.com/commentisfree/2015/may/29/guardian-view-sepp-blatter-re-election-football-missed-chance", "isHosted": false, "pillarId": "pillar/opinion", "pillarName": "Opinion"}, {"id": "commentisfree/2015/may/29/corruption-fifa-blatter", "type": "article", "sectionId": "commentisfree", "sectionName": "Opinion", "webPublicationDate": "2015-05-29T17:59:55Z", "webTitle": "America, football\u2019s hero in the hunt for Fifa\u2019s felons | Marina Hyde", "webUrl": "https://www.theguardian.com/commentisfree/2015/may/29/corruption-fifa-blatter", "apiUrl": "https://content.guardianapis.com/commentisfree/2015/may/29/corruption-fifa-blatter", "isHosted": false, "pillarId": "pillar/opinion", "pillarName": "Opinion"}, {"id": "football/2015/may/29/sepp-blatter-reelected-fifa-president-fifth-term", "type": "article", "sectionId": "football", "sectionName": "Football", "webPublicationDate": "2015-05-29T17:59:00Z", "webTitle": "Sepp Blatter re-elected as Fifa president for fifth term", "webUrl": "https://www.theguardian.com/football/2015/may/29/sepp-blatter-reelected-fifa-president-fifth-term", "apiUrl": "https://content.guardianapis.com/football/2015/may/29/sepp-blatter-reelected-fifa-president-fifth-term", "isHosted": false, "pillarId": "pillar/sport", "pillarName": "Sport"}, {"id": "football/2015/may/29/something-rotten-in-the-state-of-football", "type": "article", "sectionId": "football", "sectionName": "Football", "webPublicationDate": "2015-05-29T17:52:31Z", "webTitle": "Something rotten in the state of football | Letters", "webUrl": "https://www.theguardian.com/football/2015/may/29/something-rotten-in-the-state-of-football", "apiUrl": "https://content.guardianapis.com/football/2015/may/29/something-rotten-in-the-state-of-football", "isHosted": false, "pillarId": "pillar/sport", "pillarName": "Sport"}, {"id": "football/live/2015/may/29/fifa-to-vote-on-sepp-blatter-presidential-bid-amid-corruption-scandal-live", "type": "liveblog", "sectionId": "football", "sectionName": "Football", "webPublicationDate": "2015-05-29T17:51:06Z", "webTitle": "Sepp Blatter re-elected as Fifa president after Prince Ali Bin al-Hussein concedes defeat", "webUrl": "https://www.theguardian.com/football/live/2015/may/29/fifa-to-vote-on-sepp-blatter-presidential-bid-amid-corruption-scandal-live", "apiUrl": "https://content.guardianapis.com/football/live/2015/may/29/fifa-to-vote-on-sepp-blatter-presidential-bid-amid-corruption-scandal-live", "isHosted": false, "pillarId": "pillar/sport", "pillarName": "Sport"}]}}