{"response": {"status": "ok", "userTier": "developer", "total": 81806, "startIndex": 1, "pageSize": 50, "currentPage": 1, "pages": 1637, "orderBy": "newest", "results": [{"id": "football/2010/may/31/fabio-capello-fa-england-internazionale-manager", "type": "article", "sectionId": "football", "sectionName": "Football", "webPublicationDate": "2010-05-30T23:30:00Z", "webTitle": "Fabio Capello to meet FA representatives over England future", "webUrl": "https://www.theguardian.com/football/2010/may/31/fabio-capello-fa-england-internazionale-manager", "apiUrl": "https://content.guardianapis.com/football/2010/may/31/fabio-capello-fa-england-internazionale-manager", "isHosted": false, "pillarId": "pillar/sport", "pillarName": "Sport"}, {"id": "football/blog/2010/may/30/england-world-cup-songs", "type": "article", "sectionId": "football", "sectionName": "Football", "webPublicationDate": "2010-05-30T23:17:00Z", "webTitle": "England 2010 World Cup songs: the rundown", "webUrl": "https://www.theguardian.com/football/blog/2010/may/30/england-world-cup-songs", "apiUrl": "https://content.guardianapis.com/football/blog/2010/may/30/england-world-cup-songs", "isHosted": false, "pillarId": "pillar/sport", "pillarName": "Sport"}, {"id": "football/blog/2010/may/31/england-world-cup-songs", "type": "article", "sectionId": "football", "sectionName": "Football", "webPublicationDate": "2010-05-30T23:13:00Z", "webTitle": "After a chequered history the England World Cup song is dead", "webUrl": "https://www.theguardian.com/football/blog/2010/may/31/england-world-cup-songs", "apiUrl": "https://content.guardianapis.com/football/blog/2010/may/31/england-world-cup-songs", "isHosted": false, "pillarId": "pillar/sport", "pillarName": "Sport"}, {"id": "football/2010/may/31/england-final-squad-seven-unlucky-losers", "type": "article", "sectionId": "football", "sectionName": "Football", "webPublicationDate": "2010-05-30T23:10:02Z", "webTitle": "England's final squad: who will be the seven unlucky losers?", "webUrl": "https://www.theguardian.com/football/2010/may/31/england-final-squad-seven-unlucky-losers", "apiUrl": "https://content.guardianapis.com/football/2010/may/31/england-final-squad-seven-unlucky-losers", "isHosted": false, "pillarId": "pillar/sport", "pillarName": "Sport"}, {"id": "football/2010/may/30/joe-cole-chelsea-contract", "type": "article", "sectionId": "football", "sectionName": "Football", "webPublicationDate": "2010-05-30T22:01:02Z", "webTitle": "Chelsea set to free Joe Cole and go after Yossi Benayoun", "webUrl": "https://www.theguardian.com/football/2010/may/30/joe-cole-chelsea-contract", "apiUrl": "https://content.guardianapis.com/football/2010/may/30/joe-cole-chelsea-contract", "isHosted": false, "pillarId": "pillar/sport", "pillarName": "Sport"}, {"id": "football/2010/may/30/joe-cole-england-japan", "type": "article", "sectionId": "football", "sectionName": "Football", "webPublicationDate": "2010-05-30T21:42:34Z", "webTitle": "Joe Cole's invention in England win should secure passage to World Cup", "webUrl": "https://www.theguardian.com/football/2010/may/30/joe-cole-england-japan", "apiUrl": "https://content.guardianapis.com/football/2010/may/30/joe-cole-england-japan", "isHosted": false, "pillarId": "pillar/sport", "pillarName": "Sport"}, {"id": "football/2010/may/30/no-sex-for-england-footballers", "type": "article", "sectionId": "football", "sectionName": "Football", "webPublicationDate": "2010-05-30T20:00:03Z", "webTitle": "World Cup 2010: No sex please, we're England footballers| Emine Saner", "webUrl": "https://www.theguardian.com/football/2010/may/30/no-sex-for-england-footballers", "apiUrl": "https://content.guardianapis.com/football/2010/may/30/no-sex-for-england-footballers", "isHosted": false, "pillarId": "pillar/sport", "pillarName": "Sport"}, {"id": "business/2010/may/30/mobile-bills-world-cup", "type": "article", "sectionId": "business", "sectionName": "Business", "webPublicationDate": "2010-05-30T18:20:00Z", "webTitle": "England fans face high mobile bills at World Cup", "webUrl": "https://www.theguardian.com/business/2010/may/30/mobile-bills-world-cup", "apiUrl": "https://content.guardianapis.com/business/2010/may/30/mobile-bills-world-cup", "isHosted": false, "pillarId": "pillar/news", "pillarName": "News"}, {"id": "football/2010/may/30/dagenham-redbridge-rotherham-league-two-final", "type": "article", "sectionId": "football", "sectionName": "Football", "webPublicationDate": "2010-05-30T17:13:00Z", "webTitle": "Dagenham and Redbridge 3-2 Rotherham United | League Two play-off final match report", "webUrl": "https://www.theguardian.com/football/2010/may/30/dagenham-redbridge-rotherham-league-two-final", "apiUrl": "https://content.guardianapis.com/football/2010/may/30/dagenham-redbridge-rotherham-league-two-final", "isHosted": false, "pillarId": "pillar/sport", "pillarName": "Sport"}, {"id": "football/gallery/2010/may/30/englandfootballteam", "type": "gallery", "sectionId": "football", "sectionName": "Football", "webPublicationDate": "2010-05-30T16:16:18Z", "webTitle": "England v Japan", "webUrl": "https://www.theguardian.com/football/gallery/2010/may/30/englandfootballteam", "apiUrl": "https://content.guardianapis.com/football/gallery/2010/may/30/englandfootballteam", "isHosted": false, "pillarId": "pillar/sport", "pillarName": "Sport"}, {"id": "football/2010/may/30/japan-england-friendly-match-report", "type": "article", "sectionId": "football", "sectionName": "Football", "webPublicationDate": "2010-05-30T14:25:12Z", "webTitle": "Japan 1-2 England | International friendly match report", "webUrl": "https://www.theguardian.com/football/2010/may/30/japan-england-friendly-match-report", "apiUrl": "https://content.guardianapis.com/football/2010/may/30/japan-england-friendly-match-report", "isHosted": false, "pillarId": "pillar/sport", "pillarName": "Sport"}, {"id": "football/2010/may/30/football-england-japan-friendly", "type": "article", "sectionId": "football", "sectionName": "Football", "webPublicationDate": "2010-05-30T10:45:25Z", "webTitle": "Football: England v Japan - as it happened", "webUrl": "https://www.theguardian.com/football/2010/may/30/football-england-japan-friendly", "apiUrl": "https://content.guardianapis.com/football/2010/may/30/football-england-japan-friendly", "isHosted": false, "pillarId": "pillar/sport", "pillarName": "Sport"}, {"id": "football/2010/may/30/fabio-capello-tom-huddlestone-darren-bent", "type": "article", "sectionId": "football", "sectionName": "Football", "webPublicationDate": "2010-05-30T08:00:03Z", "webTitle": "Fabio Capello set to give Tom Huddlestone and Darren Bent last chance", "webUrl": "https://www.theguardian.com/football/2010/may/30/fabio-capello-tom-huddlestone-darren-bent", "apiUrl": "https://content.guardianapis.com/football/2010/may/30/fabio-capello-tom-huddlestone-darren-bent", "isHosted": false, "pillarId": "pillar/sport", "pillarName": "Sport"}, {"id": "football/2010/may/30/africa-soccerscapes-feet-of-the-chameleon", "type": "article", "sectionId": "football", "sectionName": "Football", "webPublicationDate": "2010-05-29T23:07:09Z", "webTitle": "African Soccerscapes, Feet of the Chameleon, Africa United", "webUrl": "https://www.theguardian.com/football/2010/may/30/africa-soccerscapes-feet-of-the-chameleon", "apiUrl": "https://content.guardianapis.com/football/2010/may/30/africa-soccerscapes-feet-of-the-chameleon", "isHosted": false, "pillarId": "pillar/sport", "pillarName": "Sport"}, {"id": "football/blog/2010/may/30/england-world-cup-2010", "type": "article", "sectionId": "football", "sectionName": "Football", "webPublicationDate": "2010-05-29T23:07:03Z", "webTitle": "World Cup 2010: Flags are flying for England | Paul Hayward", "webUrl": "https://www.theguardian.com/football/blog/2010/may/30/england-world-cup-2010", "apiUrl": "https://content.guardianapis.com/football/blog/2010/may/30/england-world-cup-2010", "isHosted": false, "pillarId": "pillar/sport", "pillarName": "Sport"}, {"id": "football/2010/may/30/jong-tae-se-north-korea-wayne-rooney", "type": "article", "sectionId": "football", "sectionName": "Football", "webPublicationDate": "2010-05-29T23:07:03Z", "webTitle": "Jong Tae-se is North Korea's answer to Wayne Rooney", "webUrl": "https://www.theguardian.com/football/2010/may/30/jong-tae-se-north-korea-wayne-rooney", "apiUrl": "https://content.guardianapis.com/football/2010/may/30/jong-tae-se-north-korea-wayne-rooney", "isHosted": false, "pillarId": "pillar/sport", "pillarName": "Sport"}, {"id": "football/2010/may/30/fabio-capello-england-fa-inter", "type": "article", "sectionId": "football", "sectionName": "Football", "webPublicationDate": "2010-05-29T23:02:54Z", "webTitle": "Fabio Capello puts England future in doubt after upheaval at FA", "webUrl": "https://www.theguardian.com/football/2010/may/30/fabio-capello-england-fa-inter", "apiUrl": "https://content.guardianapis.com/football/2010/may/30/fabio-capello-england-fa-inter", "isHosted": false, "pillarId": "pillar/sport", "pillarName": "Sport"}, {"id": "football/2010/may/29/fabio-capello-englandfootballteam", "type": "article", "sectionId": "football", "sectionName": "Football", "webPublicationDate": "2010-05-29T17:32:35Z", "webTitle": "Fabio Capello to discuss contract with FA before World Cup begins", "webUrl": "https://www.theguardian.com/football/2010/may/29/fabio-capello-englandfootballteam", "apiUrl": "https://content.guardianapis.com/football/2010/may/29/fabio-capello-englandfootballteam", "isHosted": false, "pillarId": "pillar/sport", "pillarName": "Sport"}, {"id": "commentisfree/2010/may/29/football-can-recast-war-victims-role", "type": "article", "sectionId": "commentisfree", "sectionName": "Opinion", "webPublicationDate": "2010-05-29T15:00:02Z", "webTitle": "Football can recast role of war victims | Michael Gibb", "webUrl": "https://www.theguardian.com/commentisfree/2010/may/29/football-can-recast-war-victims-role", "apiUrl": "https://content.guardianapis.com/commentisfree/2010/may/29/football-can-recast-war-victims-role", "isHosted": false, "pillarId": "pillar/opinion", "pillarName": "Opinion"}, {"id": "football/2010/may/29/fabio-capello-fa-contract-world-cup", "type": "article", "sectionId": "football", "sectionName": "Football", "webPublicationDate": "2010-05-29T14:05:28Z", "webTitle": "World Cup 2010: Fabio Capello to discuss contract with FA in South Africa", "webUrl": "https://www.theguardian.com/football/2010/may/29/fabio-capello-fa-contract-world-cup", "apiUrl": "https://content.guardianapis.com/football/2010/may/29/fabio-capello-fa-contract-world-cup", "isHosted": false, "pillarId": "pillar/sport", "pillarName": "Sport"}, {"id": "football/blog/2010/may/29/world-cup-2010-fabio-capello", "type": "article", "sectionId": "football", "sectionName": "Football", "webPublicationDate": "2010-05-28T23:07:18Z", "webTitle": "World Cup 2010: Fabio Capello's trawl for talent shows faith and flexibility | Kevin McCarra", "webUrl": "https://www.theguardian.com/football/blog/2010/may/29/world-cup-2010-fabio-capello", "apiUrl": "https://content.guardianapis.com/football/blog/2010/may/29/world-cup-2010-fabio-capello", "isHosted": false, "pillarId": "pillar/sport", "pillarName": "Sport"}, {"id": "football/2010/may/29/lucio-brazil-world-cup", "type": "article", "sectionId": "football", "sectionName": "Football", "webPublicationDate": "2010-05-28T23:07:16Z", "webTitle": "World Cup 2010: Brazil's L\u00facio ready to impose Dunga's will", "webUrl": "https://www.theguardian.com/football/2010/may/29/lucio-brazil-world-cup", "apiUrl": "https://content.guardianapis.com/football/2010/may/29/lucio-brazil-world-cup", "isHosted": false, "pillarId": "pillar/sport", "pillarName": "Sport"}, {"id": "football/blog/2010/may/29/south-africa-world-cup-stadiums", "type": "article", "sectionId": "football", "sectionName": "Football", "webPublicationDate": "2010-05-28T23:07:14Z", "webTitle": "South Africa races ahead in battle of weirdest World Cup stadiums | Simon Burnton", "webUrl": "https://www.theguardian.com/football/blog/2010/may/29/south-africa-world-cup-stadiums", "apiUrl": "https://content.guardianapis.com/football/blog/2010/may/29/south-africa-world-cup-stadiums", "isHosted": false, "pillarId": "pillar/sport", "pillarName": "Sport"}, {"id": "football/2010/may/29/world-cup-final-scorers-football", "type": "article", "sectionId": "football", "sectionName": "Football", "webPublicationDate": "2010-05-28T23:04:50Z", "webTitle": "And then the ball hit the back of the net\u2026 | World Cup final | Football", "webUrl": "https://www.theguardian.com/football/2010/may/29/world-cup-final-scorers-football", "apiUrl": "https://content.guardianapis.com/football/2010/may/29/world-cup-final-scorers-football", "isHosted": false, "pillarId": "pillar/sport", "pillarName": "Sport"}, {"id": "football/gallery/2010/may/29/worldcup2010-worldcup2006", "type": "gallery", "sectionId": "football", "sectionName": "Football", "webPublicationDate": "2010-05-28T23:02:00Z", "webTitle": "World Cup final goalscorers", "webUrl": "https://www.theguardian.com/football/gallery/2010/may/29/worldcup2010-worldcup2006", "apiUrl": "https://content.guardianapis.com/football/gallery/2010/may/29/worldcup2010-worldcup2006", "isHosted": false, "pillarId": "pillar/sport", "pillarName": "Sport"}, {"id": "theguardian/2010/may/29/zoe-williams-this-week", "type": "article", "sectionId": "theguardian", "sectionName": "From the Guardian", "webPublicationDate": "2010-05-28T23:01:54Z", "webTitle": "This Week: Sarah Ferguson, Jos\u00e9 Mourinho and the Sex and the City cast", "webUrl": "https://www.theguardian.com/theguardian/2010/may/29/zoe-williams-this-week", "apiUrl": "https://content.guardianapis.com/theguardian/2010/may/29/zoe-williams-this-week", "isHosted": false, "pillarId": "pillar/news", "pillarName": "News"}, {"id": "football/2010/may/28/world-cup-2010-rio-ferdinand", "type": "article", "sectionId": "football", "sectionName": "Football", "webPublicationDate": "2010-05-28T22:00:02Z", "webTitle": "World Cup 2010: Rio Ferdinand says Euro 2000 absence was a blessing", "webUrl": "https://www.theguardian.com/football/2010/may/28/world-cup-2010-rio-ferdinand", "apiUrl": "https://content.guardianapis.com/football/2010/may/28/world-cup-2010-rio-ferdinand", "isHosted": false, "pillarId": "pillar/sport", "pillarName": "Sport"}, {"id": "football/2010/may/28/joe-cole-chelsea-contract-talks", "type": "article", "sectionId": "football", "sectionName": "Football", "webPublicationDate": "2010-05-28T21:52:00Z", "webTitle": "Tottenham on alert as Joe Cole and Chelsea wrangle over a new deal", "webUrl": "https://www.theguardian.com/football/2010/may/28/joe-cole-chelsea-contract-talks", "apiUrl": "https://content.guardianapis.com/football/2010/may/28/joe-cole-chelsea-contract-talks", "isHosted": false, "pillarId": "pillar/sport", "pillarName": "Sport"}, {"id": "football/blog/2010/may/28/steve-morison-millwall-league-one", "type": "article", "sectionId": "football", "sectionName": "Football", "webPublicationDate": "2010-05-28T21:30:02Z", "webTitle": "Steve Morison's journey of rediscovery can put Millwall on the map | David Hytner", "webUrl": "https://www.theguardian.com/football/blog/2010/may/28/steve-morison-millwall-league-one", "apiUrl": "https://content.guardianapis.com/football/blog/2010/may/28/steve-morison-millwall-league-one", "isHosted": false, "pillarId": "pillar/sport", "pillarName": "Sport"}, {"id": "football/2010/may/28/west-ham-avram-grant", "type": "article", "sectionId": "football", "sectionName": "Football", "webPublicationDate": "2010-05-28T21:29:02Z", "webTitle": "West Ham expect to appoint Avram Grant next week", "webUrl": "https://www.theguardian.com/football/2010/may/28/west-ham-avram-grant", "apiUrl": "https://content.guardianapis.com/football/2010/may/28/west-ham-avram-grant", "isHosted": false, "pillarId": "pillar/sport", "pillarName": "Sport"}, {"id": "football/2010/may/28/ireland-algeria-world-cup-friendly", "type": "article", "sectionId": "football", "sectionName": "Football", "webPublicationDate": "2010-05-28T21:14:16Z", "webTitle": "England's World Cup opponents Algeria struggle against Ireland", "webUrl": "https://www.theguardian.com/football/2010/may/28/ireland-algeria-world-cup-friendly", "apiUrl": "https://content.guardianapis.com/football/2010/may/28/ireland-algeria-world-cup-friendly", "isHosted": false, "pillarId": "pillar/sport", "pillarName": "Sport"}, {"id": "football/2010/may/28/manchester-city-david-silva-valencia", "type": "article", "sectionId": "football", "sectionName": "Football", "webPublicationDate": "2010-05-28T21:00:04Z", "webTitle": "Manchester City open talks about buying David Silva from Valencia", "webUrl": "https://www.theguardian.com/football/2010/may/28/manchester-city-david-silva-valencia", "apiUrl": "https://content.guardianapis.com/football/2010/may/28/manchester-city-david-silva-valencia", "isHosted": false, "pillarId": "pillar/sport", "pillarName": "Sport"}, {"id": "football/2010/may/28/lord-triesman-bribery-claims", "type": "article", "sectionId": "football", "sectionName": "Football", "webPublicationDate": "2010-05-28T19:53:35Z", "webTitle": "No Fifa action against Triesman after retreat from bribery claims", "webUrl": "https://www.theguardian.com/football/2010/may/28/lord-triesman-bribery-claims", "apiUrl": "https://content.guardianapis.com/football/2010/may/28/lord-triesman-bribery-claims", "isHosted": false, "pillarId": "pillar/sport", "pillarName": "Sport"}, {"id": "football/2010/may/28/manchester-united-sell-players-debts", "type": "article", "sectionId": "football", "sectionName": "Football", "webPublicationDate": "2010-05-28T18:52:20Z", "webTitle": "Analysts say Manchester United must sell players to pay debts", "webUrl": "https://www.theguardian.com/football/2010/may/28/manchester-united-sell-players-debts", "apiUrl": "https://content.guardianapis.com/football/2010/may/28/manchester-united-sell-players-debts", "isHosted": false, "pillarId": "pillar/sport", "pillarName": "Sport"}, {"id": "football/2010/may/28/birmingham-city-lawsuit-dropped", "type": "article", "sectionId": "football", "sectionName": "Football", "webPublicationDate": "2010-05-28T18:11:56Z", "webTitle": "Birmingham City abandon lawsuit against David Sullivan and David Gold", "webUrl": "https://www.theguardian.com/football/2010/may/28/birmingham-city-lawsuit-dropped", "apiUrl": "https://content.guardianapis.com/football/2010/may/28/birmingham-city-lawsuit-dropped", "isHosted": false, "pillarId": "pillar/sport", "pillarName": "Sport"}, {"id": "football/blog/2010/may/28/south-africa-carlos-alberto-parreira", "type": "article", "sectionId": "football", "sectionName": "Football", "webPublicationDate": "2010-05-28T17:38:11Z", "webTitle": "Carlos Alberto Parreira gives South Africa discipline and purpose | David Smith", "webUrl": "https://www.theguardian.com/football/blog/2010/may/28/south-africa-carlos-alberto-parreira", "apiUrl": "https://content.guardianapis.com/football/blog/2010/may/28/south-africa-carlos-alberto-parreira", "isHosted": false, "pillarId": "pillar/sport", "pillarName": "Sport"}, {"id": "football/blog/2010/may/28/england-world-cup-squad", "type": "article", "sectionId": "football", "sectionName": "Football", "webPublicationDate": "2010-05-28T15:41:50Z", "webTitle": "Who's for the World Cup chop in Fabio Capello's England? | Dominic Fifield", "webUrl": "https://www.theguardian.com/football/blog/2010/may/28/england-world-cup-squad", "apiUrl": "https://content.guardianapis.com/football/blog/2010/may/28/england-world-cup-squad", "isHosted": false, "pillarId": "pillar/sport", "pillarName": "Sport"}, {"id": "football/2010/may/28/the-fiver-manchester-united-glazers", "type": "article", "sectionId": "football", "sectionName": "Football", "webPublicationDate": "2010-05-28T15:21:58Z", "webTitle": "The Fiver: The Futility Of Being A Green And Gold Scarf-Wearing Campaigner | Simon Burnton", "webUrl": "https://www.theguardian.com/football/2010/may/28/the-fiver-manchester-united-glazers", "apiUrl": "https://content.guardianapis.com/football/2010/may/28/the-fiver-manchester-united-glazers", "isHosted": false, "pillarId": "pillar/sport", "pillarName": "Sport"}, {"id": "football/2010/may/28/colombia-players-robbed-friendly-south-africa", "type": "article", "sectionId": "football", "sectionName": "Football", "webPublicationDate": "2010-05-28T14:55:00Z", "webTitle": "World Cup 2010: Cash stolen from Colombia players' hotel rooms", "webUrl": "https://www.theguardian.com/football/2010/may/28/colombia-players-robbed-friendly-south-africa", "apiUrl": "https://content.guardianapis.com/football/2010/may/28/colombia-players-robbed-friendly-south-africa", "isHosted": false, "pillarId": "pillar/sport", "pillarName": "Sport"}, {"id": "world/2010/may/28/world-cup-south-africa-beautiful", "type": "article", "sectionId": "world", "sectionName": "World news", "webPublicationDate": "2010-05-28T13:05:51Z", "webTitle": "World Cup meets IRA as South Africa embraces The Beautiful Game", "webUrl": "https://www.theguardian.com/world/2010/may/28/world-cup-south-africa-beautiful", "apiUrl": "https://content.guardianapis.com/world/2010/may/28/world-cup-south-africa-beautiful", "isHosted": false, "pillarId": "pillar/news", "pillarName": "News"}, {"id": "football/2010/may/28/inter-fabio-capello-jose-mourinho", "type": "article", "sectionId": "football", "sectionName": "Football", "webPublicationDate": "2010-05-28T12:43:58Z", "webTitle": "Inter confirm interest in Fabio Capello succeeding Jos\u00e9 Mourinho", "webUrl": "https://www.theguardian.com/football/2010/may/28/inter-fabio-capello-jose-mourinho", "apiUrl": "https://content.guardianapis.com/football/2010/may/28/inter-fabio-capello-jose-mourinho", "isHosted": false, "pillarId": "pillar/sport", "pillarName": "Sport"}, {"id": "football/2010/may/28/manchester-united-not-for-sale-glazers", "type": "article", "sectionId": "football", "sectionName": "Football", "webPublicationDate": "2010-05-28T11:05:55Z", "webTitle": "Manchester United is still not for sale, insist Glazer family", "webUrl": "https://www.theguardian.com/football/2010/may/28/manchester-united-not-for-sale-glazers", "apiUrl": "https://content.guardianapis.com/football/2010/may/28/manchester-united-not-for-sale-glazers", "isHosted": false, "pillarId": "pillar/sport", "pillarName": "Sport"}, {"id": "football/2010/may/28/lionel-messi-england-world-cup", "type": "article", "sectionId": "football", "sectionName": "Football", "webPublicationDate": "2010-05-28T10:22:41Z", "webTitle": "Lionel Messi names England as one of three favourites for World Cup", "webUrl": "https://www.theguardian.com/football/2010/may/28/lionel-messi-england-world-cup", "apiUrl": "https://content.guardianapis.com/football/2010/may/28/lionel-messi-england-world-cup", "isHosted": false, "pillarId": "pillar/sport", "pillarName": "Sport"}, {"id": "football/2010/may/28/wayne-rooney-jose-mourinho-real-madrid", "type": "article", "sectionId": "football", "sectionName": "Football", "webPublicationDate": "2010-05-28T09:20:09Z", "webTitle": "Wayne Rooney is player I want most at Real Madrid, says Jos\u00e9 Mourinho", "webUrl": "https://www.theguardian.com/football/2010/may/28/wayne-rooney-jose-mourinho-real-madrid", "apiUrl": "https://content.guardianapis.com/football/2010/may/28/wayne-rooney-jose-mourinho-real-madrid", "isHosted": false, "pillarId": "pillar/sport", "pillarName": "Sport"}, {"id": "sport/blog/2010/may/28/today-in-sport-28-may", "type": "article", "sectionId": "sport", "sectionName": "Sport", "webPublicationDate": "2010-05-28T08:32:00Z", "webTitle": "Today in Sport - live! | Gregg Roughley and Barry Glendenning", "webUrl": "https://www.theguardian.com/sport/blog/2010/may/28/today-in-sport-28-may", "apiUrl": "https://content.guardianapis.com/sport/blog/2010/may/28/today-in-sport-28-may", "isHosted": false, "pillarId": "pillar/sport", "pillarName": "Sport"}, {"id": "sport/blog/2010/may/28/joy-of-six-great-under-rated-world-cup-goals", "type": "article", "sectionId": "sport", "sectionName": "Sport", "webPublicationDate": "2010-05-28T07:31:19Z", "webTitle": "The Joy of Six: Great World Cup goals from outside the canon | Scott Murray", "webUrl": "https://www.theguardian.com/sport/blog/2010/may/28/joy-of-six-great-under-rated-world-cup-goals", "apiUrl": "https://content.guardianapis.com/sport/blog/2010/may/28/joy-of-six-great-under-rated-world-cup-goals", "isHosted": false, "pillarId": "pillar/sport", "pillarName": "Sport"}, {"id": "football/2010/may/28/jose-mourinho-real-madrid", "type": "article", "sectionId": "football", "sectionName": "Football", "webPublicationDate": "2010-05-28T06:00:09Z", "webTitle": "Jos\u00e9 Mourinho offers a Real haven for hounded Ashley Cole", "webUrl": "https://www.theguardian.com/football/2010/may/28/jose-mourinho-real-madrid", "apiUrl": "https://content.guardianapis.com/football/2010/may/28/jose-mourinho-real-madrid", "isHosted": false, "pillarId": "pillar/sport", "pillarName": "Sport"}, {"id": "football/2010/may/28/geoff-thompson-england-2018-euro-2016", "type": "article", "sectionId": "football", "sectionName": "Football", "webPublicationDate": "2010-05-27T23:09:00Z", "webTitle": "FA's Geoff Thompson faces England 2018 dilemma at Euro 2016 vote", "webUrl": "https://www.theguardian.com/football/2010/may/28/geoff-thompson-england-2018-euro-2016", "apiUrl": "https://content.guardianapis.com/football/2010/may/28/geoff-thompson-england-2018-euro-2016", "isHosted": false, "pillarId": "pillar/sport", "pillarName": "Sport"}, {"id": "global/blog/2010/may/28/harry-pearson-column", "type": "article", "sectionId": "sport", "sectionName": "Sport", "webPublicationDate": "2010-05-27T23:06:03Z", "webTitle": "Whatever happened to the surly lads? | Harry Pearson", "webUrl": "https://www.theguardian.com/global/blog/2010/may/28/harry-pearson-column", "apiUrl": "https://content.guardianapis.com/global/blog/2010/may/28/harry-pearson-column", "isHosted": false, "pillarId": "pillar/sport", "pillarName": "Sport"}, {"id": "football/2010/may/28/park-ji-sung-south-korea", "type": "article", "sectionId": "football", "sectionName": "Football", "webPublicationDate": "2010-05-27T23:05:19Z", "webTitle": "Park Ji-sung hopes World Cup can help unite a divided Korea | John Duerden", "webUrl": "https://www.theguardian.com/football/2010/may/28/park-ji-sung-south-korea", "apiUrl": "https://content.guardianapis.com/football/2010/may/28/park-ji-sung-south-korea", "isHosted": false, "pillarId": "pillar/sport", "pillarName": "Sport"}]}}