{"response": {"status": "ok", "userTier": "developer", "total": 18933, "startIndex": 1, "pageSize": 50, "currentPage": 1, "pages": 379, "orderBy": "newest", "results": [{"id": "technology/2013/may/30/3d-printing-sugar-icing-cake", "type": "article", "sectionId": "technology", "sectionName": "Technology", "webPublicationDate": "2013-05-30T19:45:26Z", "webTitle": "3D-printed sugar could be icing on the cake for kitchens of the future", "webUrl": "https://www.theguardian.com/technology/2013/may/30/3d-printing-sugar-icing-cake", "apiUrl": "https://content.guardianapis.com/technology/2013/may/30/3d-printing-sugar-icing-cake", "isHosted": false, "pillarId": "pillar/news", "pillarName": "News"}, {"id": "lifeandstyle/shortcuts/2013/may/30/chip-ban-obesity-crisis", "type": "article", "sectionId": "food", "sectionName": "Food", "webPublicationDate": "2013-05-30T13:50:31Z", "webTitle": "Is a chip ban the answer to our obesity crisis?", "webUrl": "https://www.theguardian.com/lifeandstyle/shortcuts/2013/may/30/chip-ban-obesity-crisis", "apiUrl": "https://content.guardianapis.com/lifeandstyle/shortcuts/2013/may/30/chip-ban-obesity-crisis", "isHosted": false, "pillarId": "pillar/lifestyle", "pillarName": "Lifestyle"}, {"id": "society/video/2013/may/30/food-bank-use-increase-benefit-video", "type": "video", "sectionId": "society", "sectionName": "Society", "webPublicationDate": "2013-05-30T12:36:00Z", "webTitle": "Oxfam: food bank use increase linked to benefit changes - video", "webUrl": "https://www.theguardian.com/society/video/2013/may/30/food-bank-use-increase-benefit-video", "apiUrl": "https://content.guardianapis.com/society/video/2013/may/30/food-bank-use-increase-benefit-video", "isHosted": false, "pillarId": "pillar/news", "pillarName": "News"}, {"id": "commentisfree/2013/may/30/smithfield-sale-china-food-standards", "type": "article", "sectionId": "commentisfree", "sectionName": "Opinion", "webPublicationDate": "2013-05-30T11:00:02Z", "webTitle": "Smithfield sale to China would come at time of crisis for world food standards | Heidi Moore", "webUrl": "https://www.theguardian.com/commentisfree/2013/may/30/smithfield-sale-china-food-standards", "apiUrl": "https://content.guardianapis.com/commentisfree/2013/may/30/smithfield-sale-china-food-standards", "isHosted": false, "pillarId": "pillar/opinion", "pillarName": "Opinion"}, {"id": "lifeandstyle/wordofmouth/2013/may/30/how-to-make-perfect-pad-thai", "type": "article", "sectionId": "food", "sectionName": "Food", "webPublicationDate": "2013-05-30T07:00:00Z", "webTitle": "How to make the perfect pad thai", "webUrl": "https://www.theguardian.com/lifeandstyle/wordofmouth/2013/may/30/how-to-make-perfect-pad-thai", "apiUrl": "https://content.guardianapis.com/lifeandstyle/wordofmouth/2013/may/30/how-to-make-perfect-pad-thai", "isHosted": false, "pillarId": "pillar/lifestyle", "pillarName": "Lifestyle"}, {"id": "lifeandstyle/2013/may/29/chocolate-bags-filled-with-calories", "type": "article", "sectionId": "food", "sectionName": "Food", "webPublicationDate": "2013-05-29T17:00:00Z", "webTitle": "Chocolate bags: filled with calories", "webUrl": "https://www.theguardian.com/lifeandstyle/2013/may/29/chocolate-bags-filled-with-calories", "apiUrl": "https://content.guardianapis.com/lifeandstyle/2013/may/29/chocolate-bags-filled-with-calories", "isHosted": false, "pillarId": "pillar/lifestyle", "pillarName": "Lifestyle"}, {"id": "lifeandstyle/2013/may/29/angela-hartnett-chicken-mushrooms-cumin", "type": "article", "sectionId": "lifeandstyle", "sectionName": "Life and style", "webPublicationDate": "2013-05-29T12:04:10Z", "webTitle": "Angela Hartnett's chicken with mushrooms and cumin recipe", "webUrl": "https://www.theguardian.com/lifeandstyle/2013/may/29/angela-hartnett-chicken-mushrooms-cumin", "apiUrl": "https://content.guardianapis.com/lifeandstyle/2013/may/29/angela-hartnett-chicken-mushrooms-cumin", "isHosted": false, "pillarId": "pillar/lifestyle", "pillarName": "Lifestyle"}, {"id": "environment/2013/may/29/gm-hybrid-fish-threat-natural-populations", "type": "article", "sectionId": "environment", "sectionName": "Environment", "webPublicationDate": "2013-05-29T11:55:34Z", "webTitle": "GM 'hybrid' fish pose threat to natural populations, scientists warn", "webUrl": "https://www.theguardian.com/environment/2013/may/29/gm-hybrid-fish-threat-natural-populations", "apiUrl": "https://content.guardianapis.com/environment/2013/may/29/gm-hybrid-fish-threat-natural-populations", "isHosted": false, "pillarId": "pillar/news", "pillarName": "News"}, {"id": "lifeandstyle/shortcuts/2013/may/29/michael-pollans-restaurant-rules", "type": "article", "sectionId": "food", "sectionName": "Food", "webPublicationDate": "2013-05-29T11:46:39Z", "webTitle": "Do Michael Pollan's 'restaurant rules' make sense?", "webUrl": "https://www.theguardian.com/lifeandstyle/shortcuts/2013/may/29/michael-pollans-restaurant-rules", "apiUrl": "https://content.guardianapis.com/lifeandstyle/shortcuts/2013/may/29/michael-pollans-restaurant-rules", "isHosted": false, "pillarId": "pillar/lifestyle", "pillarName": "Lifestyle"}, {"id": "travel/2013/may/29/top-10-cheap-eats-singapore-street-food", "type": "article", "sectionId": "travel", "sectionName": "Travel", "webPublicationDate": "2013-05-29T09:48:00Z", "webTitle": "Top 10 cheap eats in Singapore", "webUrl": "https://www.theguardian.com/travel/2013/may/29/top-10-cheap-eats-singapore-street-food", "apiUrl": "https://content.guardianapis.com/travel/2013/may/29/top-10-cheap-eats-singapore-street-food", "isHosted": false, "pillarId": "pillar/lifestyle", "pillarName": "Lifestyle"}, {"id": "lifeandstyle/wordofmouth/2013/may/29/five-new-street-food-trends", "type": "article", "sectionId": "lifeandstyle", "sectionName": "Life and style", "webPublicationDate": "2013-05-29T09:00:00Z", "webTitle": "Five new street food trends", "webUrl": "https://www.theguardian.com/lifeandstyle/wordofmouth/2013/may/29/five-new-street-food-trends", "apiUrl": "https://content.guardianapis.com/lifeandstyle/wordofmouth/2013/may/29/five-new-street-food-trends", "isHosted": false, "pillarId": "pillar/lifestyle", "pillarName": "Lifestyle"}, {"id": "lifeandstyle/shortcuts/2013/may/28/prunes-dried-plum-making-comeback", "type": "article", "sectionId": "food", "sectionName": "Food", "webPublicationDate": "2013-05-28T16:59:00Z", "webTitle": "Prunes: why the dried plum is making a comeback", "webUrl": "https://www.theguardian.com/lifeandstyle/shortcuts/2013/may/28/prunes-dried-plum-making-comeback", "apiUrl": "https://content.guardianapis.com/lifeandstyle/shortcuts/2013/may/28/prunes-dried-plum-making-comeback", "isHosted": false, "pillarId": "pillar/lifestyle", "pillarName": "Lifestyle"}, {"id": "commentisfree/2013/may/28/little-chef-sold-nostalgia", "type": "article", "sectionId": "commentisfree", "sectionName": "Opinion", "webPublicationDate": "2013-05-28T15:28:10Z", "webTitle": "Farewell, Fat Charlie: you are no longer a man for our times | Charles Nevin", "webUrl": "https://www.theguardian.com/commentisfree/2013/may/28/little-chef-sold-nostalgia", "apiUrl": "https://content.guardianapis.com/commentisfree/2013/may/28/little-chef-sold-nostalgia", "isHosted": false, "pillarId": "pillar/opinion", "pillarName": "Opinion"}, {"id": "lifeandstyle/video/2013/may/28/ruth-rogers-river-cafe-al-dar-video", "type": "video", "sectionId": "lifeandstyle", "sectionName": "Life and style", "webPublicationDate": "2013-05-28T08:23:00Z", "webTitle": "Ruth Rogers of River Caf\u00e9 recommends Lebanese restaurant Al Dar - video", "webUrl": "https://www.theguardian.com/lifeandstyle/video/2013/may/28/ruth-rogers-river-cafe-al-dar-video", "apiUrl": "https://content.guardianapis.com/lifeandstyle/video/2013/may/28/ruth-rogers-river-cafe-al-dar-video", "isHosted": false, "pillarId": "pillar/lifestyle", "pillarName": "Lifestyle"}, {"id": "business/2013/may/28/hotel-restaurant-boom-economic-recovery-cbi", "type": "article", "sectionId": "business", "sectionName": "Business", "webPublicationDate": "2013-05-28T07:21:30Z", "webTitle": "Hotel and restaurant boom helps economic recovery", "webUrl": "https://www.theguardian.com/business/2013/may/28/hotel-restaurant-boom-economic-recovery-cbi", "apiUrl": "https://content.guardianapis.com/business/2013/may/28/hotel-restaurant-boom-economic-recovery-cbi", "isHosted": false, "pillarId": "pillar/news", "pillarName": "News"}, {"id": "lifeandstyle/wordofmouth/2013/may/27/mcdonalds-italianised-menu-future-fast-food", "type": "article", "sectionId": "food", "sectionName": "Food", "webPublicationDate": "2013-05-27T11:10:16Z", "webTitle": "McDonald's 'Italianised' menu: the future of fast food?", "webUrl": "https://www.theguardian.com/lifeandstyle/wordofmouth/2013/may/27/mcdonalds-italianised-menu-future-fast-food", "apiUrl": "https://content.guardianapis.com/lifeandstyle/wordofmouth/2013/may/27/mcdonalds-italianised-menu-future-fast-food", "isHosted": false, "pillarId": "pillar/lifestyle", "pillarName": "Lifestyle"}, {"id": "lifeandstyle/wordofmouth/2013/may/27/live-chat-michael-pollan-post-questions", "type": "article", "sectionId": "lifeandstyle", "sectionName": "Life and style", "webPublicationDate": "2013-05-27T09:00:00Z", "webTitle": "Live chat: Michael Pollan", "webUrl": "https://www.theguardian.com/lifeandstyle/wordofmouth/2013/may/27/live-chat-michael-pollan-post-questions", "apiUrl": "https://content.guardianapis.com/lifeandstyle/wordofmouth/2013/may/27/live-chat-michael-pollan-post-questions", "isHosted": false, "pillarId": "pillar/lifestyle", "pillarName": "Lifestyle"}, {"id": "lifeandstyle/video/2013/may/27/how-to-fillet-a-flat-fish-video", "type": "video", "sectionId": "lifeandstyle", "sectionName": "Life and style", "webPublicationDate": "2013-05-27T08:32:00Z", "webTitle": "How to fillet a flat fish - video", "webUrl": "https://www.theguardian.com/lifeandstyle/video/2013/may/27/how-to-fillet-a-flat-fish-video", "apiUrl": "https://content.guardianapis.com/lifeandstyle/video/2013/may/27/how-to-fillet-a-flat-fish-video", "isHosted": false, "pillarId": "pillar/lifestyle", "pillarName": "Lifestyle"}, {"id": "lifeandstyle/australia-food-blog/video/2013/may/27/pulled-pork-sliders-bondi-harvest-video", "type": "video", "sectionId": "lifeandstyle", "sectionName": "Life and style", "webPublicationDate": "2013-05-26T23:06:00Z", "webTitle": "Pulled pork sliders with superstar crackling - Bondi Harvest video", "webUrl": "https://www.theguardian.com/lifeandstyle/australia-food-blog/video/2013/may/27/pulled-pork-sliders-bondi-harvest-video", "apiUrl": "https://content.guardianapis.com/lifeandstyle/australia-food-blog/video/2013/may/27/pulled-pork-sliders-bondi-harvest-video", "isHosted": false, "pillarId": "pillar/lifestyle", "pillarName": "Lifestyle"}, {"id": "lifeandstyle/2013/may/26/is-plastic-food-packaging-dangerous", "type": "article", "sectionId": "lifeandstyle", "sectionName": "Life and style", "webPublicationDate": "2013-05-26T19:30:00Z", "webTitle": "Is plastic food packaging dangerous?", "webUrl": "https://www.theguardian.com/lifeandstyle/2013/may/26/is-plastic-food-packaging-dangerous", "apiUrl": "https://content.guardianapis.com/lifeandstyle/2013/may/26/is-plastic-food-packaging-dangerous", "isHosted": false, "pillarId": "pillar/lifestyle", "pillarName": "Lifestyle"}, {"id": "books/2013/may/26/feeding-frenzy-hungry-man-rayner-review", "type": "article", "sectionId": "books", "sectionName": "Books", "webPublicationDate": "2013-05-26T07:00:00Z", "webTitle": "Feeding Frenzy by Paul McMahon; A Greedy Man in a Hungry World by Jay Rayner \u2013 review", "webUrl": "https://www.theguardian.com/books/2013/may/26/feeding-frenzy-hungry-man-rayner-review", "apiUrl": "https://content.guardianapis.com/books/2013/may/26/feeding-frenzy-hungry-man-rayner-review", "isHosted": false, "pillarId": "pillar/arts", "pillarName": "Arts"}, {"id": "lifeandstyle/2013/may/26/social-easting-house-london-restaurant-review", "type": "article", "sectionId": "food", "sectionName": "Food", "webPublicationDate": "2013-05-26T06:30:01Z", "webTitle": "Social Eating House, London: restaurant review", "webUrl": "https://www.theguardian.com/lifeandstyle/2013/may/26/social-easting-house-london-restaurant-review", "apiUrl": "https://content.guardianapis.com/lifeandstyle/2013/may/26/social-easting-house-london-restaurant-review", "isHosted": false, "pillarId": "pillar/lifestyle", "pillarName": "Lifestyle"}, {"id": "lifeandstyle/2013/may/25/wines-of-the-week-european-chile", "type": "article", "sectionId": "food", "sectionName": "Food", "webPublicationDate": "2013-05-25T12:00:01Z", "webTitle": "Wines of the week: two Europeans and a taste of Chile", "webUrl": "https://www.theguardian.com/lifeandstyle/2013/may/25/wines-of-the-week-european-chile", "apiUrl": "https://content.guardianapis.com/lifeandstyle/2013/may/25/wines-of-the-week-european-chile", "isHosted": false, "pillarId": "pillar/lifestyle", "pillarName": "Lifestyle"}, {"id": "lifeandstyle/2013/may/25/scottish-beer-industry-revival-review", "type": "article", "sectionId": "food", "sectionName": "Food", "webPublicationDate": "2013-05-25T08:01:09Z", "webTitle": "Beer: Scotland hops to it", "webUrl": "https://www.theguardian.com/lifeandstyle/2013/may/25/scottish-beer-industry-revival-review", "apiUrl": "https://content.guardianapis.com/lifeandstyle/2013/may/25/scottish-beer-industry-revival-review", "isHosted": false, "pillarId": "pillar/lifestyle", "pillarName": "Lifestyle"}, {"id": "lifeandstyle/2013/may/25/social-eating-house-restaurant-review", "type": "article", "sectionId": "lifeandstyle", "sectionName": "Life and style", "webPublicationDate": "2013-05-25T08:00:46Z", "webTitle": "Restaurant: Social Eating House, London W1", "webUrl": "https://www.theguardian.com/lifeandstyle/2013/may/25/social-eating-house-restaurant-review", "apiUrl": "https://content.guardianapis.com/lifeandstyle/2013/may/25/social-eating-house-restaurant-review", "isHosted": false, "pillarId": "pillar/lifestyle", "pillarName": "Lifestyle"}, {"id": "lifeandstyle/2013/may/25/hottest-french-restaurants-of-2013", "type": "article", "sectionId": "food", "sectionName": "Food", "webPublicationDate": "2013-05-25T08:00:00Z", "webTitle": "The hottest French restaurants of 2013", "webUrl": "https://www.theguardian.com/lifeandstyle/2013/may/25/hottest-french-restaurants-of-2013", "apiUrl": "https://content.guardianapis.com/lifeandstyle/2013/may/25/hottest-french-restaurants-of-2013", "isHosted": false, "pillarId": "pillar/lifestyle", "pillarName": "Lifestyle"}, {"id": "lifeandstyle/2013/may/25/against-odds-true-blue-tuna-pie", "type": "article", "sectionId": "lifeandstyle", "sectionName": "Life and style", "webPublicationDate": "2013-05-25T06:15:00Z", "webTitle": "Family life: Against the odds, True Blue and tuna fish pie", "webUrl": "https://www.theguardian.com/lifeandstyle/2013/may/25/against-odds-true-blue-tuna-pie", "apiUrl": "https://content.guardianapis.com/lifeandstyle/2013/may/25/against-odds-true-blue-tuna-pie", "isHosted": false, "pillarId": "pillar/lifestyle", "pillarName": "Lifestyle"}, {"id": "lifeandstyle/2013/may/25/readers-recipe-swap-sugar-on-top", "type": "article", "sectionId": "lifeandstyle", "sectionName": "Life and style", "webPublicationDate": "2013-05-25T06:01:02Z", "webTitle": "Readers' recipe swap: sugar on top | Felicity Cloake", "webUrl": "https://www.theguardian.com/lifeandstyle/2013/may/25/readers-recipe-swap-sugar-on-top", "apiUrl": "https://content.guardianapis.com/lifeandstyle/2013/may/25/readers-recipe-swap-sugar-on-top", "isHosted": false, "pillarId": "pillar/lifestyle", "pillarName": "Lifestyle"}, {"id": "lifeandstyle/2013/may/25/goats-milk-ice-cream-sells", "type": "article", "sectionId": "lifeandstyle", "sectionName": "Life and style", "webPublicationDate": "2013-05-25T06:00:59Z", "webTitle": "Goat's milk ice cream | Meet the producer", "webUrl": "https://www.theguardian.com/lifeandstyle/2013/may/25/goats-milk-ice-cream-sells", "apiUrl": "https://content.guardianapis.com/lifeandstyle/2013/may/25/goats-milk-ice-cream-sells", "isHosted": false, "pillarId": "pillar/lifestyle", "pillarName": "Lifestyle"}, {"id": "lifeandstyle/2013/may/25/why-broad-beans-are-good-for-you", "type": "article", "sectionId": "lifeandstyle", "sectionName": "Life and style", "webPublicationDate": "2013-05-25T06:00:52Z", "webTitle": "Why broad beans are good for you", "webUrl": "https://www.theguardian.com/lifeandstyle/2013/may/25/why-broad-beans-are-good-for-you", "apiUrl": "https://content.guardianapis.com/lifeandstyle/2013/may/25/why-broad-beans-are-good-for-you", "isHosted": false, "pillarId": "pillar/lifestyle", "pillarName": "Lifestyle"}, {"id": "lifeandstyle/2013/may/25/tapas-and-teamwork-get-togethers", "type": "article", "sectionId": "lifeandstyle", "sectionName": "Life and style", "webPublicationDate": "2013-05-25T06:00:41Z", "webTitle": "A bring-and-share tapas spread | get-togethers", "webUrl": "https://www.theguardian.com/lifeandstyle/2013/may/25/tapas-and-teamwork-get-togethers", "apiUrl": "https://content.guardianapis.com/lifeandstyle/2013/may/25/tapas-and-teamwork-get-togethers", "isHosted": false, "pillarId": "pillar/lifestyle", "pillarName": "Lifestyle"}, {"id": "lifeandstyle/2013/may/25/make-your-own-cider-peg", "type": "article", "sectionId": "lifeandstyle", "sectionName": "Life and style", "webPublicationDate": "2013-05-25T06:00:31Z", "webTitle": "How to make cider peg", "webUrl": "https://www.theguardian.com/lifeandstyle/2013/may/25/make-your-own-cider-peg", "apiUrl": "https://content.guardianapis.com/lifeandstyle/2013/may/25/make-your-own-cider-peg", "isHosted": false, "pillarId": "pillar/lifestyle", "pillarName": "Lifestyle"}, {"id": "lifeandstyle/2013/may/25/quick-pasta-sauces-midweek", "type": "article", "sectionId": "lifeandstyle", "sectionName": "Life and style", "webPublicationDate": "2013-05-25T06:00:23Z", "webTitle": "Quick pasta sauces for midweek", "webUrl": "https://www.theguardian.com/lifeandstyle/2013/may/25/quick-pasta-sauces-midweek", "apiUrl": "https://content.guardianapis.com/lifeandstyle/2013/may/25/quick-pasta-sauces-midweek", "isHosted": false, "pillarId": "pillar/lifestyle", "pillarName": "Lifestyle"}, {"id": "lifeandstyle/2013/may/25/10-best-recipes-asparagus", "type": "article", "sectionId": "lifeandstyle", "sectionName": "Life and style", "webPublicationDate": "2013-05-25T05:59:02Z", "webTitle": "The 10 best asparagus recipes", "webUrl": "https://www.theguardian.com/lifeandstyle/2013/may/25/10-best-recipes-asparagus", "apiUrl": "https://content.guardianapis.com/lifeandstyle/2013/may/25/10-best-recipes-asparagus", "isHosted": false, "pillarId": "pillar/lifestyle", "pillarName": "Lifestyle"}, {"id": "lifeandstyle/2013/may/25/michael-pollan-family-meal-civilisation", "type": "article", "sectionId": "lifeandstyle", "sectionName": "Life and style", "webPublicationDate": "2013-05-25T05:59:01Z", "webTitle": "Michael Pollan: Why the family meal is crucial to civilisation", "webUrl": "https://www.theguardian.com/lifeandstyle/2013/may/25/michael-pollan-family-meal-civilisation", "apiUrl": "https://content.guardianapis.com/lifeandstyle/2013/may/25/michael-pollan-family-meal-civilisation", "isHosted": false, "pillarId": "pillar/lifestyle", "pillarName": "Lifestyle"}, {"id": "travel/2013/may/25/top-10-restaurants-cafes-seattle", "type": "article", "sectionId": "travel", "sectionName": "Travel", "webPublicationDate": "2013-05-24T23:10:01Z", "webTitle": "Top 10 restaurants and cafes in Seattle", "webUrl": "https://www.theguardian.com/travel/2013/may/25/top-10-restaurants-cafes-seattle", "apiUrl": "https://content.guardianapis.com/travel/2013/may/25/top-10-restaurants-cafes-seattle", "isHosted": false, "pillarId": "pillar/lifestyle", "pillarName": "Lifestyle"}, {"id": "travel/2013/may/25/top-10-restaurants-san-francisco", "type": "article", "sectionId": "travel", "sectionName": "Travel", "webPublicationDate": "2013-05-24T23:10:00Z", "webTitle": "Top 10 restaurants in San Francisco", "webUrl": "https://www.theguardian.com/travel/2013/may/25/top-10-restaurants-san-francisco", "apiUrl": "https://content.guardianapis.com/travel/2013/may/25/top-10-restaurants-san-francisco", "isHosted": false, "pillarId": "pillar/lifestyle", "pillarName": "Lifestyle"}, {"id": "travel/2013/may/25/pacific-northwest-seattle-oregon-coffee", "type": "article", "sectionId": "travel", "sectionName": "Travel", "webPublicationDate": "2013-05-24T23:10:00Z", "webTitle": "Pacific Northwest: bicycles, bookshops, weirdness and coffee", "webUrl": "https://www.theguardian.com/travel/2013/may/25/pacific-northwest-seattle-oregon-coffee", "apiUrl": "https://content.guardianapis.com/travel/2013/may/25/pacific-northwest-seattle-oregon-coffee", "isHosted": false, "pillarId": "pillar/lifestyle", "pillarName": "Lifestyle"}, {"id": "travel/2013/may/25/portland-oregon-fred-armisen-weird-wonderful", "type": "article", "sectionId": "travel", "sectionName": "Travel", "webPublicationDate": "2013-05-24T23:10:00Z", "webTitle": "Fred Armisen's Portland: it's weird and it's wonderful", "webUrl": "https://www.theguardian.com/travel/2013/may/25/portland-oregon-fred-armisen-weird-wonderful", "apiUrl": "https://content.guardianapis.com/travel/2013/may/25/portland-oregon-fred-armisen-weird-wonderful", "isHosted": false, "pillarId": "pillar/lifestyle", "pillarName": "Lifestyle"}, {"id": "lifeandstyle/2013/may/24/caramel-recipes-sauce-praline", "type": "article", "sectionId": "lifeandstyle", "sectionName": "Life and style", "webPublicationDate": "2013-05-24T20:00:01Z", "webTitle": "Hit the sweet spot: Hugh Fearnley-Whittingstall's caramel recipes", "webUrl": "https://www.theguardian.com/lifeandstyle/2013/may/24/caramel-recipes-sauce-praline", "apiUrl": "https://content.guardianapis.com/lifeandstyle/2013/may/24/caramel-recipes-sauce-praline", "isHosted": false, "pillarId": "pillar/lifestyle", "pillarName": "Lifestyle"}, {"id": "world/2013/may/24/italian-minister-food-chefs", "type": "article", "sectionId": "world", "sectionName": "World news", "webPublicationDate": "2013-05-24T16:10:47Z", "webTitle": "Italian culture minister's comments about food leaves chefs simmering", "webUrl": "https://www.theguardian.com/world/2013/may/24/italian-minister-food-chefs", "apiUrl": "https://content.guardianapis.com/world/2013/may/24/italian-minister-food-chefs", "isHosted": false, "pillarId": "pillar/news", "pillarName": "News"}, {"id": "commentisfree/2013/may/24/high-street-tesco-grocer", "type": "article", "sectionId": "commentisfree", "sectionName": "Opinion", "webPublicationDate": "2013-05-24T15:41:00Z", "webTitle": "The rot has set into the high street as we opt for Tesco over local grocers | Deborah Orr", "webUrl": "https://www.theguardian.com/commentisfree/2013/may/24/high-street-tesco-grocer", "apiUrl": "https://content.guardianapis.com/commentisfree/2013/may/24/high-street-tesco-grocer", "isHosted": false, "pillarId": "pillar/opinion", "pillarName": "Opinion"}, {"id": "uk/2013/may/24/horsemeat-beef-meat-dutch-factory", "type": "article", "sectionId": "uk-news", "sectionName": "UK news", "webPublicationDate": "2013-05-24T11:31:42Z", "webTitle": "Horsemeat company regularly mixed horse in with beef, say Polish workers", "webUrl": "https://www.theguardian.com/uk/2013/may/24/horsemeat-beef-meat-dutch-factory", "apiUrl": "https://content.guardianapis.com/uk/2013/may/24/horsemeat-beef-meat-dutch-factory", "isHosted": false, "pillarId": "pillar/news", "pillarName": "News"}, {"id": "lifeandstyle/2013/may/24/strawberry-fruit-leather-recipe-perfect-lunchboxes", "type": "article", "sectionId": "food", "sectionName": "Food", "webPublicationDate": "2013-05-24T11:26:27Z", "webTitle": "Strawberry fruit leather recipe: perfect for lunchboxes", "webUrl": "https://www.theguardian.com/lifeandstyle/2013/may/24/strawberry-fruit-leather-recipe-perfect-lunchboxes", "apiUrl": "https://content.guardianapis.com/lifeandstyle/2013/may/24/strawberry-fruit-leather-recipe-perfect-lunchboxes", "isHosted": false, "pillarId": "pillar/lifestyle", "pillarName": "Lifestyle"}, {"id": "uk/video/2013/may/24/horsemeat-scandal-polish-workers-video", "type": "video", "sectionId": "uk-news", "sectionName": "UK news", "webPublicationDate": "2013-05-24T10:37:00Z", "webTitle": "How horsemeat scandal company used migrant workers to boost production - video", "webUrl": "https://www.theguardian.com/uk/video/2013/may/24/horsemeat-scandal-polish-workers-video", "apiUrl": "https://content.guardianapis.com/uk/video/2013/may/24/horsemeat-scandal-polish-workers-video", "isHosted": false, "pillarId": "pillar/news", "pillarName": "News"}, {"id": "music/2013/may/24/morrissey-kate-middleton-foie-gras", "type": "article", "sectionId": "music", "sectionName": "Music", "webPublicationDate": "2013-05-24T09:45:21Z", "webTitle": "Morrissey attacks Duchess of Cambridge over taste for foie gras", "webUrl": "https://www.theguardian.com/music/2013/may/24/morrissey-kate-middleton-foie-gras", "apiUrl": "https://content.guardianapis.com/music/2013/may/24/morrissey-kate-middleton-foie-gras", "isHosted": false, "pillarId": "pillar/arts", "pillarName": "Arts"}, {"id": "lifeandstyle/wordofmouth/2013/may/24/spirit-beer-mash-up", "type": "article", "sectionId": "food", "sectionName": "Food", "webPublicationDate": "2013-05-24T09:21:00Z", "webTitle": "Shot in the dark - the spirit-beer crossover", "webUrl": "https://www.theguardian.com/lifeandstyle/wordofmouth/2013/may/24/spirit-beer-mash-up", "apiUrl": "https://content.guardianapis.com/lifeandstyle/wordofmouth/2013/may/24/spirit-beer-mash-up", "isHosted": false, "pillarId": "pillar/lifestyle", "pillarName": "Lifestyle"}, {"id": "business/2013/may/23/suntory-whisky-highball-japan", "type": "article", "sectionId": "business", "sectionName": "Business", "webPublicationDate": "2013-05-23T20:03:30Z", "webTitle": "Japanese distiller aims to revolutionise whisky drinking", "webUrl": "https://www.theguardian.com/business/2013/may/23/suntory-whisky-highball-japan", "apiUrl": "https://content.guardianapis.com/business/2013/may/23/suntory-whisky-highball-japan", "isHosted": false, "pillarId": "pillar/news", "pillarName": "News"}, {"id": "lifeandstyle/2013/may/23/olive-oil-producers-rage-european-u-turn", "type": "article", "sectionId": "food", "sectionName": "Food", "webPublicationDate": "2013-05-23T19:17:57Z", "webTitle": "Europe drops plans to ban refillable olive oil jugs in restaurants", "webUrl": "https://www.theguardian.com/lifeandstyle/2013/may/23/olive-oil-producers-rage-european-u-turn", "apiUrl": "https://content.guardianapis.com/lifeandstyle/2013/may/23/olive-oil-producers-rage-european-u-turn", "isHosted": false, "pillarId": "pillar/lifestyle", "pillarName": "Lifestyle"}, {"id": "business/2013/may/23/booker-cash-and-carry-horsemeat", "type": "article", "sectionId": "business", "sectionName": "Business", "webPublicationDate": "2013-05-23T18:35:00Z", "webTitle": "Booker sees boost from horsemeat scandal", "webUrl": "https://www.theguardian.com/business/2013/may/23/booker-cash-and-carry-horsemeat", "apiUrl": "https://content.guardianapis.com/business/2013/may/23/booker-cash-and-carry-horsemeat", "isHosted": false, "pillarId": "pillar/news", "pillarName": "News"}]}}