{"response": {"status": "ok", "userTier": "developer", "total": 133796, "startIndex": 1, "pageSize": 50, "currentPage": 1, "pages": 2676, "orderBy": "newest", "results": [{"id": "commentisfree/2012/may/30/social-mobility-david-cameron-editorial", "type": "article", "sectionId": "commentisfree", "sectionName": "Opinion", "webPublicationDate": "2012-05-30T22:12:11Z", "webTitle": "Social mobility: opportunism knocks | Editorial", "webUrl": "https://www.theguardian.com/commentisfree/2012/may/30/social-mobility-david-cameron-editorial", "apiUrl": "https://content.guardianapis.com/commentisfree/2012/may/30/social-mobility-david-cameron-editorial", "isHosted": false, "pillarId": "pillar/opinion", "pillarName": "Opinion"}, {"id": "politics/2012/may/30/hugh-muir-diary-nicholas-soames", "type": "article", "sectionId": "politics", "sectionName": "Politics", "webPublicationDate": "2012-05-30T21:50:01Z", "webTitle": "Hugh Muir's diary", "webUrl": "https://www.theguardian.com/politics/2012/may/30/hugh-muir-diary-nicholas-soames", "apiUrl": "https://content.guardianapis.com/politics/2012/may/30/hugh-muir-diary-nicholas-soames", "isHosted": false, "pillarId": "pillar/news", "pillarName": "News"}, {"id": "media/2012/may/30/leveson-inquiry-vincentcable", "type": "article", "sectionId": "media", "sectionName": "Media", "webPublicationDate": "2012-05-30T20:02:21Z", "webTitle": "Leveson inquiry: News Corp made veiled threats, says Cable", "webUrl": "https://www.theguardian.com/media/2012/may/30/leveson-inquiry-vincentcable", "apiUrl": "https://content.guardianapis.com/media/2012/may/30/leveson-inquiry-vincentcable", "isHosted": false, "pillarId": "pillar/news", "pillarName": "News"}, {"id": "politics/2012/may/30/westminster-digested-u-turn-pasties", "type": "article", "sectionId": "politics", "sectionName": "Politics", "webPublicationDate": "2012-05-30T20:00:10Z", "webTitle": "Westminster digested: time for another U-turn", "webUrl": "https://www.theguardian.com/politics/2012/may/30/westminster-digested-u-turn-pasties", "apiUrl": "https://content.guardianapis.com/politics/2012/may/30/westminster-digested-u-turn-pasties", "isHosted": false, "pillarId": "pillar/news", "pillarName": "News"}, {"id": "education/2012/may/30/technical-colleges-limit-opportunities", "type": "article", "sectionId": "education", "sectionName": "Education", "webPublicationDate": "2012-05-30T19:59:02Z", "webTitle": "Letters: Technical colleges will limit opportunities", "webUrl": "https://www.theguardian.com/education/2012/may/30/technical-colleges-limit-opportunities", "apiUrl": "https://content.guardianapis.com/education/2012/may/30/technical-colleges-limit-opportunities", "isHosted": false, "pillarId": "pillar/news", "pillarName": "News"}, {"id": "media/2012/may/30/leveson-inquiry-questions-jeremy-hunt", "type": "article", "sectionId": "media", "sectionName": "Media", "webPublicationDate": "2012-05-30T19:32:59Z", "webTitle": "Leveson inquiry: 10 key questions for Jeremy Hunt", "webUrl": "https://www.theguardian.com/media/2012/may/30/leveson-inquiry-questions-jeremy-hunt", "apiUrl": "https://content.guardianapis.com/media/2012/may/30/leveson-inquiry-questions-jeremy-hunt", "isHosted": false, "pillarId": "pillar/news", "pillarName": "News"}, {"id": "commentisfree/2012/may/30/body-image-mps-report-narcissim", "type": "article", "sectionId": "commentisfree", "sectionName": "Opinion", "webPublicationDate": "2012-05-30T19:30:00Z", "webTitle": "This body-image death spiral ends at universal self-hatred | Zoe Williams", "webUrl": "https://www.theguardian.com/commentisfree/2012/may/30/body-image-mps-report-narcissim", "apiUrl": "https://content.guardianapis.com/commentisfree/2012/may/30/body-image-mps-report-narcissim", "isHosted": false, "pillarId": "pillar/opinion", "pillarName": "Opinion"}, {"id": "media/2012/may/30/leveson-chalk-cheese-vince-cable-ken-clarke", "type": "article", "sectionId": "media", "sectionName": "Media", "webPublicationDate": "2012-05-30T18:59:50Z", "webTitle": "Dr Vince Chalk and Mr Ken Cheese take the stand at the Leveson inquiry", "webUrl": "https://www.theguardian.com/media/2012/may/30/leveson-chalk-cheese-vince-cable-ken-clarke", "apiUrl": "https://content.guardianapis.com/media/2012/may/30/leveson-chalk-cheese-vince-cable-ken-clarke", "isHosted": false, "pillarId": "pillar/news", "pillarName": "News"}, {"id": "media/video/2012/may/30/ken-clarke-leveson-inquiry-video1", "type": "video", "sectionId": "media", "sectionName": "Media", "webPublicationDate": "2012-05-30T18:47:00Z", "webTitle": "Ken Clarke at the Leveson inquiry: 21st century politicians are obsessed with newspapers \u2013 video", "webUrl": "https://www.theguardian.com/media/video/2012/may/30/ken-clarke-leveson-inquiry-video1", "apiUrl": "https://content.guardianapis.com/media/video/2012/may/30/ken-clarke-leveson-inquiry-video1", "isHosted": false, "pillarId": "pillar/news", "pillarName": "News"}, {"id": "society/video/2012/may/30/doctors-union-strike-video", "type": "video", "sectionId": "society", "sectionName": "Society", "webPublicationDate": "2012-05-30T16:51:00Z", "webTitle": "Doctors' union to take industrial action \u2013 video", "webUrl": "https://www.theguardian.com/society/video/2012/may/30/doctors-union-strike-video", "apiUrl": "https://content.guardianapis.com/society/video/2012/may/30/doctors-union-strike-video", "isHosted": false, "pillarId": "pillar/news", "pillarName": "News"}, {"id": "media/2012/may/30/leveson-ken-clarke-journalists-entitled-bribe", "type": "article", "sectionId": "media", "sectionName": "Media", "webPublicationDate": "2012-05-30T16:26:55Z", "webTitle": "Leveson: Ken Clarke says journalists entitled to bribe in extreme cases", "webUrl": "https://www.theguardian.com/media/2012/may/30/leveson-ken-clarke-journalists-entitled-bribe", "apiUrl": "https://content.guardianapis.com/media/2012/may/30/leveson-ken-clarke-journalists-entitled-bribe", "isHosted": false, "pillarId": "pillar/news", "pillarName": "News"}, {"id": "commentisfree/2012/may/30/doctors-industrial-action-let-down", "type": "article", "sectionId": "commentisfree", "sectionName": "Opinion", "webPublicationDate": "2012-05-30T16:08:05Z", "webTitle": "Doctors taking industrial action are entitled to feel let down | Kailash Chand", "webUrl": "https://www.theguardian.com/commentisfree/2012/may/30/doctors-industrial-action-let-down", "apiUrl": "https://content.guardianapis.com/commentisfree/2012/may/30/doctors-industrial-action-let-down", "isHosted": false, "pillarId": "pillar/opinion", "pillarName": "Opinion"}, {"id": "world/2012/may/30/bilderberg-2012-technocrats-are-rising", "type": "article", "sectionId": "world", "sectionName": "World news", "webPublicationDate": "2012-05-30T15:13:00Z", "webTitle": "Bilderberg 2012: the technocrats are rising at this year's annual conference", "webUrl": "https://www.theguardian.com/world/2012/may/30/bilderberg-2012-technocrats-are-rising", "apiUrl": "https://content.guardianapis.com/world/2012/may/30/bilderberg-2012-technocrats-are-rising", "isHosted": false, "pillarId": "pillar/news", "pillarName": "News"}, {"id": "society/2012/may/30/public-sector-pensions-doctors", "type": "article", "sectionId": "society", "sectionName": "Society", "webPublicationDate": "2012-05-30T15:10:00Z", "webTitle": "Doctors' union calls strike on 21 June", "webUrl": "https://www.theguardian.com/society/2012/may/30/public-sector-pensions-doctors", "apiUrl": "https://content.guardianapis.com/society/2012/may/30/public-sector-pensions-doctors", "isHosted": false, "pillarId": "pillar/news", "pillarName": "News"}, {"id": "world/2012/may/30/david-cameron-chagos-islands-mauritius", "type": "article", "sectionId": "world", "sectionName": "World news", "webPublicationDate": "2012-05-30T14:57:32Z", "webTitle": "David Cameron to discuss Chagos Islands sovereignty with Mauritius", "webUrl": "https://www.theguardian.com/world/2012/may/30/david-cameron-chagos-islands-mauritius", "apiUrl": "https://content.guardianapis.com/world/2012/may/30/david-cameron-chagos-islands-mauritius", "isHosted": false, "pillarId": "pillar/news", "pillarName": "News"}, {"id": "politics/2012/may/30/blair-cameron-forging-special-relationship", "type": "article", "sectionId": "politics", "sectionName": "Politics", "webPublicationDate": "2012-05-30T14:37:00Z", "webTitle": "Tony Blair denies he and Cameron are forging 'special relationship'", "webUrl": "https://www.theguardian.com/politics/2012/may/30/blair-cameron-forging-special-relationship", "apiUrl": "https://content.guardianapis.com/politics/2012/may/30/blair-cameron-forging-special-relationship", "isHosted": false, "pillarId": "pillar/news", "pillarName": "News"}, {"id": "media/video/2012/may/30/ken-clarke-leveson-inquiry-video", "type": "video", "sectionId": "media", "sectionName": "Media", "webPublicationDate": "2012-05-30T14:27:00Z", "webTitle": "Ken Clarke tells Leveson inquiry: the power of the press is far greater than power of parliament \u2013 video", "webUrl": "https://www.theguardian.com/media/video/2012/may/30/ken-clarke-leveson-inquiry-video", "apiUrl": "https://content.guardianapis.com/media/video/2012/may/30/ken-clarke-leveson-inquiry-video", "isHosted": false, "pillarId": "pillar/news", "pillarName": "News"}, {"id": "society/2012/may/30/teaching-hospitals-students-lower-grades", "type": "article", "sectionId": "society", "sectionName": "Society", "webPublicationDate": "2012-05-30T13:18:59Z", "webTitle": "Teaching hospitals 'should take students with lower A-level grades'", "webUrl": "https://www.theguardian.com/society/2012/may/30/teaching-hospitals-students-lower-grades", "apiUrl": "https://content.guardianapis.com/society/2012/may/30/teaching-hospitals-students-lower-grades", "isHosted": false, "pillarId": "pillar/news", "pillarName": "News"}, {"id": "commentisfree/2012/may/30/profit-free-schools-social-educational-segregation", "type": "article", "sectionId": "commentisfree", "sectionName": "Opinion", "webPublicationDate": "2012-05-30T13:18:38Z", "webTitle": "For-profit free schools would increase social and educational segregation | Kevin Courtney", "webUrl": "https://www.theguardian.com/commentisfree/2012/may/30/profit-free-schools-social-educational-segregation", "apiUrl": "https://content.guardianapis.com/commentisfree/2012/may/30/profit-free-schools-social-educational-segregation", "isHosted": false, "pillarId": "pillar/opinion", "pillarName": "Opinion"}, {"id": "commentisfree/2012/may/30/queens-park-parish-politics-democratic-revival", "type": "article", "sectionId": "commentisfree", "sectionName": "Opinion", "webPublicationDate": "2012-05-30T12:55:25Z", "webTitle": "Queen's Park parish politics can bring a democratic revival | Susanna Rustin", "webUrl": "https://www.theguardian.com/commentisfree/2012/may/30/queens-park-parish-politics-democratic-revival", "apiUrl": "https://content.guardianapis.com/commentisfree/2012/may/30/queens-park-parish-politics-democratic-revival", "isHosted": false, "pillarId": "pillar/opinion", "pillarName": "Opinion"}, {"id": "society/2012/may/30/internships-labour-market-social-mobility", "type": "article", "sectionId": "society", "sectionName": "Society", "webPublicationDate": "2012-05-30T12:33:17Z", "webTitle": "Internships should be subject to labour market rules, says social mobility tsar", "webUrl": "https://www.theguardian.com/society/2012/may/30/internships-labour-market-social-mobility", "apiUrl": "https://content.guardianapis.com/society/2012/may/30/internships-labour-market-social-mobility", "isHosted": false, "pillarId": "pillar/news", "pillarName": "News"}, {"id": "media/2012/may/30/leveson-inquiry-key-points", "type": "article", "sectionId": "media", "sectionName": "Media", "webPublicationDate": "2012-05-30T12:29:38Z", "webTitle": "Leveson inquiry: Wednesday's key points", "webUrl": "https://www.theguardian.com/media/2012/may/30/leveson-inquiry-key-points", "apiUrl": "https://content.guardianapis.com/media/2012/may/30/leveson-inquiry-key-points", "isHosted": false, "pillarId": "pillar/news", "pillarName": "News"}, {"id": "commentisfree/2012/may/30/europe-china-economic-stimulus", "type": "article", "sectionId": "commentisfree", "sectionName": "Opinion", "webPublicationDate": "2012-05-30T12:22:19Z", "webTitle": "China's economic stimulus offers Europe a lesson | John Ross", "webUrl": "https://www.theguardian.com/commentisfree/2012/may/30/europe-china-economic-stimulus", "apiUrl": "https://content.guardianapis.com/commentisfree/2012/may/30/europe-china-economic-stimulus", "isHosted": false, "pillarId": "pillar/opinion", "pillarName": "Opinion"}, {"id": "uk/the-northerner/2012/may/30/philosophy-diet-plato-hobbes-locke-sunderland-university", "type": "article", "sectionId": "uk-news", "sectionName": "UK news", "webPublicationDate": "2012-05-30T12:15:00Z", "webTitle": "Does democracy make us fat?", "webUrl": "https://www.theguardian.com/uk/the-northerner/2012/may/30/philosophy-diet-plato-hobbes-locke-sunderland-university", "apiUrl": "https://content.guardianapis.com/uk/the-northerner/2012/may/30/philosophy-diet-plato-hobbes-locke-sunderland-university", "isHosted": false, "pillarId": "pillar/news", "pillarName": "News"}, {"id": "media/video/2012/may/30/vince-cable-leveson-inquiry-veiled-threats-video", "type": "video", "sectionId": "media", "sectionName": "Media", "webPublicationDate": "2012-05-30T12:02:00Z", "webTitle": "Vince Cable tells Leveson inquiry of 'veiled threats' over BSkyB bid - video", "webUrl": "https://www.theguardian.com/media/video/2012/may/30/vince-cable-leveson-inquiry-veiled-threats-video", "apiUrl": "https://content.guardianapis.com/media/video/2012/may/30/vince-cable-leveson-inquiry-veiled-threats-video", "isHosted": false, "pillarId": "pillar/news", "pillarName": "News"}, {"id": "media/2012/may/30/vince-cable-murdoch-bskyb-bid", "type": "article", "sectionId": "media", "sectionName": "Media", "webPublicationDate": "2012-05-30T11:51:00Z", "webTitle": "Vince Cable: Lib Dems faced 'veiled threats' over Murdoch's BSkyB bid", "webUrl": "https://www.theguardian.com/media/2012/may/30/vince-cable-murdoch-bskyb-bid", "apiUrl": "https://content.guardianapis.com/media/2012/may/30/vince-cable-murdoch-bskyb-bid", "isHosted": false, "pillarId": "pillar/news", "pillarName": "News"}, {"id": "environment/2012/may/30/buzzard-trapping-plan-abandoned-uturn", "type": "article", "sectionId": "environment", "sectionName": "Environment", "webPublicationDate": "2012-05-30T11:25:49Z", "webTitle": "Buzzard trapping plan abandoned as government U-turns again", "webUrl": "https://www.theguardian.com/environment/2012/may/30/buzzard-trapping-plan-abandoned-uturn", "apiUrl": "https://content.guardianapis.com/environment/2012/may/30/buzzard-trapping-plan-abandoned-uturn", "isHosted": false, "pillarId": "pillar/news", "pillarName": "News"}, {"id": "media/video/2012/may/30/vince-cable-leveson-murdoch-political-influence-video", "type": "video", "sectionId": "media", "sectionName": "Media", "webPublicationDate": "2012-05-30T10:52:00Z", "webTitle": "Leveson inquiry: Vince Cable on Murdoch family's 'disproportionate political influence' - video", "webUrl": "https://www.theguardian.com/media/video/2012/may/30/vince-cable-leveson-murdoch-political-influence-video", "apiUrl": "https://content.guardianapis.com/media/video/2012/may/30/vince-cable-leveson-murdoch-political-influence-video", "isHosted": false, "pillarId": "pillar/news", "pillarName": "News"}, {"id": "society/2012/may/30/doctors-vote-industrial-action-pension", "type": "article", "sectionId": "society", "sectionName": "Society", "webPublicationDate": "2012-05-30T10:38:13Z", "webTitle": "Doctors vote to take industrial action against pension shakeup", "webUrl": "https://www.theguardian.com/society/2012/may/30/doctors-vote-industrial-action-pension", "apiUrl": "https://content.guardianapis.com/society/2012/may/30/doctors-vote-industrial-action-pension", "isHosted": false, "pillarId": "pillar/news", "pillarName": "News"}, {"id": "education/2012/may/30/government-rejects-immigration-higher-education", "type": "article", "sectionId": "education", "sectionName": "Education", "webPublicationDate": "2012-05-30T09:44:43Z", "webTitle": "Minister rejects claim that immigration curbs will damage higher education", "webUrl": "https://www.theguardian.com/education/2012/may/30/government-rejects-immigration-higher-education", "apiUrl": "https://content.guardianapis.com/education/2012/may/30/government-rejects-immigration-higher-education", "isHosted": false, "pillarId": "pillar/news", "pillarName": "News"}, {"id": "media/greenslade/2012/may/30/sundaymirror-dailyexpress", "type": "article", "sectionId": "media", "sectionName": "Media", "webPublicationDate": "2012-05-30T09:00:00Z", "webTitle": "Bob Edwards, the socialist who edited the Daily Express - and two more nationals", "webUrl": "https://www.theguardian.com/media/greenslade/2012/may/30/sundaymirror-dailyexpress", "apiUrl": "https://content.guardianapis.com/media/greenslade/2012/may/30/sundaymirror-dailyexpress", "isHosted": false, "pillarId": "pillar/news", "pillarName": "News"}, {"id": "politics/2012/may/30/paul-krugman-austerity-deeply-destructive", "type": "article", "sectionId": "business", "sectionName": "Business", "webPublicationDate": "2012-05-30T08:42:49Z", "webTitle": "Paul Krugman attacks Britain's austerity drive as 'deeply destructive'", "webUrl": "https://www.theguardian.com/politics/2012/may/30/paul-krugman-austerity-deeply-destructive", "apiUrl": "https://content.guardianapis.com/politics/2012/may/30/paul-krugman-austerity-deeply-destructive", "isHosted": false, "pillarId": "pillar/news", "pillarName": "News"}, {"id": "business/2012/may/30/lord-browne-end-business-intolerance-homosexuality", "type": "article", "sectionId": "business", "sectionName": "Business", "webPublicationDate": "2012-05-30T07:19:39Z", "webTitle": "Lord Browne urges end to business 'intolerance of homosexuality'", "webUrl": "https://www.theguardian.com/business/2012/may/30/lord-browne-end-business-intolerance-homosexuality", "apiUrl": "https://content.guardianapis.com/business/2012/may/30/lord-browne-end-business-intolerance-homosexuality", "isHosted": false, "pillarId": "pillar/news", "pillarName": "News"}, {"id": "uk/the-northerner/2012/may/30/blogpost-social-mobility-leeds-michael-meadowcroft", "type": "article", "sectionId": "uk-news", "sectionName": "UK news", "webPublicationDate": "2012-05-30T06:00:00Z", "webTitle": "Social mobility - on the spot", "webUrl": "https://www.theguardian.com/uk/the-northerner/2012/may/30/blogpost-social-mobility-leeds-michael-meadowcroft", "apiUrl": "https://content.guardianapis.com/uk/the-northerner/2012/may/30/blogpost-social-mobility-leeds-michael-meadowcroft", "isHosted": false, "pillarId": "pillar/news", "pillarName": "News"}, {"id": "uk/2012/may/30/immigration-policies-damage-higher-education", "type": "article", "sectionId": "uk-news", "sectionName": "UK news", "webPublicationDate": "2012-05-29T23:39:14Z", "webTitle": "Immigration policies will damage higher education, say education experts", "webUrl": "https://www.theguardian.com/uk/2012/may/30/immigration-policies-damage-higher-education", "apiUrl": "https://content.guardianapis.com/uk/2012/may/30/immigration-policies-damage-higher-education", "isHosted": false, "pillarId": "pillar/news", "pillarName": "News"}, {"id": "world/2012/may/30/safety-worries-pilots-flying-hours", "type": "article", "sectionId": "world", "sectionName": "World news", "webPublicationDate": "2012-05-29T23:06:04Z", "webTitle": "Changes to pilots' flying hours could cause danger, say MPs", "webUrl": "https://www.theguardian.com/world/2012/may/30/safety-worries-pilots-flying-hours", "apiUrl": "https://content.guardianapis.com/world/2012/may/30/safety-worries-pilots-flying-hours", "isHosted": false, "pillarId": "pillar/news", "pillarName": "News"}, {"id": "education/2012/may/30/teachers-pay-schools-ofsted-inspections", "type": "article", "sectionId": "education", "sectionName": "Education", "webPublicationDate": "2012-05-29T23:06:02Z", "webTitle": "Teachers could have pay frozen after poor school inspection reports", "webUrl": "https://www.theguardian.com/education/2012/may/30/teachers-pay-schools-ofsted-inspections", "apiUrl": "https://content.guardianapis.com/education/2012/may/30/teachers-pay-schools-ofsted-inspections", "isHosted": false, "pillarId": "pillar/news", "pillarName": "News"}, {"id": "society/2012/may/30/girls-aged-five-worried-about-body-image", "type": "article", "sectionId": "society", "sectionName": "Society", "webPublicationDate": "2012-05-29T23:06:00Z", "webTitle": "Girls aged five worry about their body image, say MPs", "webUrl": "https://www.theguardian.com/society/2012/may/30/girls-aged-five-worried-about-body-image", "apiUrl": "https://content.guardianapis.com/society/2012/may/30/girls-aged-five-worried-about-body-image", "isHosted": false, "pillarId": "pillar/news", "pillarName": "News"}, {"id": "society/2012/may/29/flu-vaccinations-schoolchildren-control-virus", "type": "article", "sectionId": "society", "sectionName": "Society", "webPublicationDate": "2012-05-29T22:52:45Z", "webTitle": "Flu jabs for all schoolchildren 'the most cost-effective way to control virus'", "webUrl": "https://www.theguardian.com/society/2012/may/29/flu-vaccinations-schoolchildren-control-virus", "apiUrl": "https://content.guardianapis.com/society/2012/may/29/flu-vaccinations-schoolchildren-control-virus", "isHosted": false, "pillarId": "pillar/news", "pillarName": "News"}, {"id": "politics/2012/may/29/hugh-muir-diary-tony-blair", "type": "article", "sectionId": "politics", "sectionName": "Politics", "webPublicationDate": "2012-05-29T21:50:01Z", "webTitle": "Hugh Muir's diary", "webUrl": "https://www.theguardian.com/politics/2012/may/29/hugh-muir-diary-tony-blair", "apiUrl": "https://content.guardianapis.com/politics/2012/may/29/hugh-muir-diary-tony-blair", "isHosted": false, "pillarId": "pillar/news", "pillarName": "News"}, {"id": "commentisfree/cartoon/2012/may/29/christine-lagarde-tax-arrangements-cartoon", "type": "picture", "sectionId": "commentisfree", "sectionName": "Opinion", "webPublicationDate": "2012-05-29T21:22:27Z", "webTitle": "Steve Bell on Christine Lagarde's tax arrangements - cartoon", "webUrl": "https://www.theguardian.com/commentisfree/cartoon/2012/may/29/christine-lagarde-tax-arrangements-cartoon", "apiUrl": "https://content.guardianapis.com/commentisfree/cartoon/2012/may/29/christine-lagarde-tax-arrangements-cartoon", "isHosted": false, "pillarId": "pillar/opinion", "pillarName": "Opinion"}, {"id": "commentisfree/2012/may/29/government-u-turns-david-cameron", "type": "article", "sectionId": "commentisfree", "sectionName": "Opinion", "webPublicationDate": "2012-05-29T20:43:28Z", "webTitle": "Government U-turns: the laddie's for turning", "webUrl": "https://www.theguardian.com/commentisfree/2012/may/29/government-u-turns-david-cameron", "apiUrl": "https://content.guardianapis.com/commentisfree/2012/may/29/government-u-turns-david-cameron", "isHosted": false, "pillarId": "pillar/opinion", "pillarName": "Opinion"}, {"id": "media/2012/may/29/michael-gove-leveson-inquiry-sketch", "type": "article", "sectionId": "media", "sectionName": "Media", "webPublicationDate": "2012-05-29T20:07:52Z", "webTitle": "Michael Gove gives Leveson inquiry a lesson in oration", "webUrl": "https://www.theguardian.com/media/2012/may/29/michael-gove-leveson-inquiry-sketch", "apiUrl": "https://content.guardianapis.com/media/2012/may/29/michael-gove-leveson-inquiry-sketch", "isHosted": false, "pillarId": "pillar/news", "pillarName": "News"}, {"id": "society/2012/may/29/socialmobility-medicine", "type": "article", "sectionId": "society", "sectionName": "Society", "webPublicationDate": "2012-05-29T20:04:14Z", "webTitle": "Medical profession must open doors to poor students, says Alan Milburn", "webUrl": "https://www.theguardian.com/society/2012/may/29/socialmobility-medicine", "apiUrl": "https://content.guardianapis.com/society/2012/may/29/socialmobility-medicine", "isHosted": false, "pillarId": "pillar/news", "pillarName": "News"}, {"id": "commentisfree/2012/may/29/secret-justice-coalition-u-turns-pasty", "type": "article", "sectionId": "commentisfree", "sectionName": "Opinion", "webPublicationDate": "2012-05-29T20:00:07Z", "webTitle": "From secret justice to VAT, coalition U-turns take us in the right direction | Simon Jenkins", "webUrl": "https://www.theguardian.com/commentisfree/2012/may/29/secret-justice-coalition-u-turns-pasty", "apiUrl": "https://content.guardianapis.com/commentisfree/2012/may/29/secret-justice-coalition-u-turns-pasty", "isHosted": false, "pillarId": "pillar/opinion", "pillarName": "Opinion"}, {"id": "media/2012/may/29/michael-gove-leveson-press-regulation", "type": "article", "sectionId": "media", "sectionName": "Media", "webPublicationDate": "2012-05-29T19:42:53Z", "webTitle": "Gove clashes with Leveson over press regulation", "webUrl": "https://www.theguardian.com/media/2012/may/29/michael-gove-leveson-press-regulation", "apiUrl": "https://content.guardianapis.com/media/2012/may/29/michael-gove-leveson-press-regulation", "isHosted": false, "pillarId": "pillar/news", "pillarName": "News"}, {"id": "society/2012/may/29/consensus-social-mobility-fundamental-split", "type": "article", "sectionId": "society", "sectionName": "Society", "webPublicationDate": "2012-05-29T19:02:55Z", "webTitle": "Apparent consensus on social mobility masks fundamental split", "webUrl": "https://www.theguardian.com/society/2012/may/29/consensus-social-mobility-fundamental-split", "apiUrl": "https://content.guardianapis.com/society/2012/may/29/consensus-social-mobility-fundamental-split", "isHosted": false, "pillarId": "pillar/news", "pillarName": "News"}, {"id": "lifeandstyle/2012/may/29/mrs-camerons-diary-govey-leveson", "type": "article", "sectionId": "commentisfree", "sectionName": "Opinion", "webPublicationDate": "2012-05-29T18:59:02Z", "webTitle": "Mrs Cameron's Diary: Govey lucks out at Leveson", "webUrl": "https://www.theguardian.com/lifeandstyle/2012/may/29/mrs-camerons-diary-govey-leveson", "apiUrl": "https://content.guardianapis.com/lifeandstyle/2012/may/29/mrs-camerons-diary-govey-leveson", "isHosted": false, "pillarId": "pillar/opinion", "pillarName": "Opinion"}, {"id": "law/2012/may/29/secret-courts-justice-security-bill", "type": "article", "sectionId": "law", "sectionName": "Law", "webPublicationDate": "2012-05-29T18:37:23Z", "webTitle": "Secret courts bill U-turn fails to silence critics", "webUrl": "https://www.theguardian.com/law/2012/may/29/secret-courts-justice-security-bill", "apiUrl": "https://content.guardianapis.com/law/2012/may/29/secret-courts-justice-security-bill", "isHosted": false, "pillarId": "pillar/news", "pillarName": "News"}, {"id": "media/2012/may/29/michael-gove-insouciance-leveson", "type": "article", "sectionId": "media", "sectionName": "Media", "webPublicationDate": "2012-05-29T18:14:40Z", "webTitle": "Michael Gove's insouciance ventures into Robert Jay's bailiwick", "webUrl": "https://www.theguardian.com/media/2012/may/29/michael-gove-insouciance-leveson", "apiUrl": "https://content.guardianapis.com/media/2012/may/29/michael-gove-insouciance-leveson", "isHosted": false, "pillarId": "pillar/news", "pillarName": "News"}]}}