{"response": {"status": "ok", "userTier": "developer", "total": 25495, "startIndex": 1, "pageSize": 50, "currentPage": 1, "pages": 510, "orderBy": "newest", "results": [{"id": "environment/2010/may/30/copenhagen-climate-talks-united-nations-letter", "type": "article", "sectionId": "environment", "sectionName": "Environment", "webPublicationDate": "2010-05-30T23:28:24Z", "webTitle": "Presence of world leaders 'paralysed' climate summit, UN letter claims", "webUrl": "https://www.theguardian.com/environment/2010/may/30/copenhagen-climate-talks-united-nations-letter", "apiUrl": "https://content.guardianapis.com/environment/2010/may/30/copenhagen-climate-talks-united-nations-letter", "isHosted": false, "pillarId": "pillar/news", "pillarName": "News"}, {"id": "environment/2010/may/31/norfolk", "type": "article", "sectionId": "environment", "sectionName": "Environment", "webPublicationDate": "2010-05-30T23:05:09Z", "webTitle": "Country diary: Claxton, Norfolk", "webUrl": "https://www.theguardian.com/environment/2010/may/31/norfolk", "apiUrl": "https://content.guardianapis.com/environment/2010/may/31/norfolk", "isHosted": false, "pillarId": "pillar/news", "pillarName": "News"}, {"id": "environment/2010/may/31/england-wales-clean-beaches", "type": "article", "sectionId": "environment", "sectionName": "Environment", "webPublicationDate": "2010-05-30T23:01:57Z", "webTitle": "Dry weather helps bring cleanest beaches for 10 years", "webUrl": "https://www.theguardian.com/environment/2010/may/31/england-wales-clean-beaches", "apiUrl": "https://content.guardianapis.com/environment/2010/may/31/england-wales-clean-beaches", "isHosted": false, "pillarId": "pillar/news", "pillarName": "News"}, {"id": "environment/2010/may/30/oil-spill-what-happens-next", "type": "article", "sectionId": "environment", "sectionName": "Environment", "webPublicationDate": "2010-05-30T21:52:00Z", "webTitle": "Oil spill: What happens next?", "webUrl": "https://www.theguardian.com/environment/2010/may/30/oil-spill-what-happens-next", "apiUrl": "https://content.guardianapis.com/environment/2010/may/30/oil-spill-what-happens-next", "isHosted": false, "pillarId": "pillar/news", "pillarName": "News"}, {"id": "environment/2010/may/30/bp-oil-spill-deepwater-horizon", "type": "article", "sectionId": "environment", "sectionName": "Environment", "webPublicationDate": "2010-05-30T19:58:33Z", "webTitle": "Fury and despair as BP admits oil could leak for months", "webUrl": "https://www.theguardian.com/environment/2010/may/30/bp-oil-spill-deepwater-horizon", "apiUrl": "https://content.guardianapis.com/environment/2010/may/30/bp-oil-spill-deepwater-horizon", "isHosted": false, "pillarId": "pillar/news", "pillarName": "News"}, {"id": "business/2010/may/30/rachels-organic-sale", "type": "article", "sectionId": "business", "sectionName": "Business", "webPublicationDate": "2010-05-30T18:53:23Z", "webTitle": "Rachel's Organic likely to be up for sale", "webUrl": "https://www.theguardian.com/business/2010/may/30/rachels-organic-sale", "apiUrl": "https://content.guardianapis.com/business/2010/may/30/rachels-organic-sale", "isHosted": false, "pillarId": "pillar/news", "pillarName": "News"}, {"id": "theobserver/cartoon/2010/may/30/oil-spills", "type": "picture", "sectionId": "commentisfree", "sectionName": "Opinion", "webPublicationDate": "2010-05-30T11:20:00Z", "webTitle": "Chris Riddell: Deepwater Horizon oil spill gives America a drilling conundrum", "webUrl": "https://www.theguardian.com/theobserver/cartoon/2010/may/30/oil-spills", "apiUrl": "https://content.guardianapis.com/theobserver/cartoon/2010/may/30/oil-spills", "isHosted": false, "pillarId": "pillar/opinion", "pillarName": "Opinion"}, {"id": "environment/2010/may/30/bp-gulf-oil-spill-obama", "type": "article", "sectionId": "environment", "sectionName": "Environment", "webPublicationDate": "2010-05-30T11:06:51Z", "webTitle": "Barack Obama 'heartbroken' as BP top kill fails to plug Gulf oil spill", "webUrl": "https://www.theguardian.com/environment/2010/may/30/bp-gulf-oil-spill-obama", "apiUrl": "https://content.guardianapis.com/environment/2010/may/30/bp-gulf-oil-spill-obama", "isHosted": false, "pillarId": "pillar/news", "pillarName": "News"}, {"id": "environment/2010/may/30/lucy-siegle-innovator-lush-cosmetics-war-palm-oil", "type": "article", "sectionId": "environment", "sectionName": "Environment", "webPublicationDate": "2010-05-29T23:05:03Z", "webTitle": "Mo Constantine's innovation: finding an alternative to palm oil", "webUrl": "https://www.theguardian.com/environment/2010/may/30/lucy-siegle-innovator-lush-cosmetics-war-palm-oil", "apiUrl": "https://content.guardianapis.com/environment/2010/may/30/lucy-siegle-innovator-lush-cosmetics-war-palm-oil", "isHosted": false, "pillarId": "pillar/news", "pillarName": "News"}, {"id": "world/2010/may/30/oil-spills-nigeria-niger-delta-shell", "type": "article", "sectionId": "environment", "sectionName": "Environment", "webPublicationDate": "2010-05-29T23:04:11Z", "webTitle": "Nigeria's agony dwarfs the Gulf oil spill. The US and Europe ignore it", "webUrl": "https://www.theguardian.com/world/2010/may/30/oil-spills-nigeria-niger-delta-shell", "apiUrl": "https://content.guardianapis.com/world/2010/may/30/oil-spills-nigeria-niger-delta-shell", "isHosted": false, "pillarId": "pillar/news", "pillarName": "News"}, {"id": "environment/picture/2010/may/29/deepwater-oil-spill-disaster", "type": "picture", "sectionId": "environment", "sectionName": "Environment", "webPublicationDate": "2010-05-29T11:56:03Z", "webTitle": "Eyewitness: Oil seeps into the delta", "webUrl": "https://www.theguardian.com/environment/picture/2010/may/29/deepwater-oil-spill-disaster", "apiUrl": "https://content.guardianapis.com/environment/picture/2010/may/29/deepwater-oil-spill-disaster", "isHosted": false, "pillarId": "pillar/news", "pillarName": "News"}, {"id": "environment/2010/may/29/country-diary-harlech", "type": "article", "sectionId": "environment", "sectionName": "Environment", "webPublicationDate": "2010-05-28T23:07:41Z", "webTitle": "Country diary: Harlech", "webUrl": "https://www.theguardian.com/environment/2010/may/29/country-diary-harlech", "apiUrl": "https://content.guardianapis.com/environment/2010/may/29/country-diary-harlech", "isHosted": false, "pillarId": "pillar/news", "pillarName": "News"}, {"id": "money/2010/may/29/ethical-investments-communities-environment", "type": "article", "sectionId": "money", "sectionName": "Money", "webPublicationDate": "2010-05-28T23:01:38Z", "webTitle": "Ethical investment schemes offer power to the people", "webUrl": "https://www.theguardian.com/money/2010/may/29/ethical-investments-communities-environment", "apiUrl": "https://content.guardianapis.com/money/2010/may/29/ethical-investments-communities-environment", "isHosted": false, "pillarId": "pillar/lifestyle", "pillarName": "Lifestyle"}, {"id": "business/2010/may/28/us-regulation-oil-industry-mms", "type": "article", "sectionId": "business", "sectionName": "Business", "webPublicationDate": "2010-05-28T22:41:06Z", "webTitle": "Cheap prices and high tax revenues underpin America's love of Big Oil", "webUrl": "https://www.theguardian.com/business/2010/may/28/us-regulation-oil-industry-mms", "apiUrl": "https://content.guardianapis.com/business/2010/may/28/us-regulation-oil-industry-mms", "isHosted": false, "pillarId": "pillar/news", "pillarName": "News"}, {"id": "environment/2010/may/28/bp-gulf-oil-spill-pollution", "type": "article", "sectionId": "environment", "sectionName": "Environment", "webPublicationDate": "2010-05-28T20:29:42Z", "webTitle": "Gulf oil spill is public health risk, environmental scientists warn", "webUrl": "https://www.theguardian.com/environment/2010/may/28/bp-gulf-oil-spill-pollution", "apiUrl": "https://content.guardianapis.com/environment/2010/may/28/bp-gulf-oil-spill-pollution", "isHosted": false, "pillarId": "pillar/news", "pillarName": "News"}, {"id": "books/2010/may/28/ian-mcewan-hay-prize-solar", "type": "article", "sectionId": "books", "sectionName": "Books", "webPublicationDate": "2010-05-28T19:29:00Z", "webTitle": "Ian McEwan collects award for novel that tackles climate change", "webUrl": "https://www.theguardian.com/books/2010/may/28/ian-mcewan-hay-prize-solar", "apiUrl": "https://content.guardianapis.com/books/2010/may/28/ian-mcewan-hay-prize-solar", "isHosted": false, "pillarId": "pillar/arts", "pillarName": "Arts"}, {"id": "environment/2010/may/28/grassroots-louisiana-bp-oil-spill", "type": "article", "sectionId": "environment", "sectionName": "Environment", "webPublicationDate": "2010-05-28T17:24:00Z", "webTitle": "BP oil spill: grassroots anger over 'lack of clean-up plan'", "webUrl": "https://www.theguardian.com/environment/2010/may/28/grassroots-louisiana-bp-oil-spill", "apiUrl": "https://content.guardianapis.com/environment/2010/may/28/grassroots-louisiana-bp-oil-spill", "isHosted": false, "pillarId": "pillar/news", "pillarName": "News"}, {"id": "environment/blog/2010/may/28/rightwing-group-climate-change", "type": "article", "sectionId": "environment", "sectionName": "Environment", "webPublicationDate": "2010-05-28T16:37:39Z", "webTitle": "Rightwing group seeks to strip climate change from US classrooms", "webUrl": "https://www.theguardian.com/environment/blog/2010/may/28/rightwing-group-climate-change", "apiUrl": "https://content.guardianapis.com/environment/blog/2010/may/28/rightwing-group-climate-change", "isHosted": false, "pillarId": "pillar/news", "pillarName": "News"}, {"id": "world/audio/2010/may/28/deepwater-oil-spill", "type": "audio", "sectionId": "world", "sectionName": "World news", "webPublicationDate": "2010-05-28T16:30:36Z", "webTitle": "Guardian Daily: Barack Obama defends handling of Deepwater Horizon oil spill", "webUrl": "https://www.theguardian.com/world/audio/2010/may/28/deepwater-oil-spill", "apiUrl": "https://content.guardianapis.com/world/audio/2010/may/28/deepwater-oil-spill", "isHosted": false, "pillarId": "pillar/news", "pillarName": "News"}, {"id": "environment/2010/may/28/climate-change-royal-society", "type": "article", "sectionId": "environment", "sectionName": "Environment", "webPublicationDate": "2010-05-28T16:26:45Z", "webTitle": "UK Royal Society revives confusion as US concludes climate change certainty", "webUrl": "https://www.theguardian.com/environment/2010/may/28/climate-change-royal-society", "apiUrl": "https://content.guardianapis.com/environment/2010/may/28/climate-change-royal-society", "isHosted": false, "pillarId": "pillar/news", "pillarName": "News"}, {"id": "environment/2010/may/28/gulf-oil-spill-jokes-bpglobalpr", "type": "article", "sectionId": "environment", "sectionName": "Environment", "webPublicationDate": "2010-05-28T15:59:35Z", "webTitle": "Gulf oil spill: the web's top killer lines", "webUrl": "https://www.theguardian.com/environment/2010/may/28/gulf-oil-spill-jokes-bpglobalpr", "apiUrl": "https://content.guardianapis.com/environment/2010/may/28/gulf-oil-spill-jokes-bpglobalpr", "isHosted": false, "pillarId": "pillar/news", "pillarName": "News"}, {"id": "environment/2010/may/28/chief-scientific-adviser-criticises-climate-sceptics", "type": "article", "sectionId": "environment", "sectionName": "Environment", "webPublicationDate": "2010-05-28T15:16:33Z", "webTitle": "Government's chief scientific adviser hits out at climate sceptics", "webUrl": "https://www.theguardian.com/environment/2010/may/28/chief-scientific-adviser-criticises-climate-sceptics", "apiUrl": "https://content.guardianapis.com/environment/2010/may/28/chief-scientific-adviser-criticises-climate-sceptics", "isHosted": false, "pillarId": "pillar/news", "pillarName": "News"}, {"id": "environment/2010/may/28/australia-court-ban-whaling-japan", "type": "article", "sectionId": "environment", "sectionName": "Environment", "webPublicationDate": "2010-05-28T14:33:04Z", "webTitle": "Australia to ask international court to ban Japan whaling in Southern Ocean", "webUrl": "https://www.theguardian.com/environment/2010/may/28/australia-court-ban-whaling-japan", "apiUrl": "https://content.guardianapis.com/environment/2010/may/28/australia-court-ban-whaling-japan", "isHosted": false, "pillarId": "pillar/news", "pillarName": "News"}, {"id": "uk/2010/may/28/poachers-devastate-elver-fisheries", "type": "article", "sectionId": "environment", "sectionName": "Environment", "webPublicationDate": "2010-05-28T14:15:50Z", "webTitle": "Poachers devastate Somerset's elver fisheries", "webUrl": "https://www.theguardian.com/uk/2010/may/28/poachers-devastate-elver-fisheries", "apiUrl": "https://content.guardianapis.com/uk/2010/may/28/poachers-devastate-elver-fisheries", "isHosted": false, "pillarId": "pillar/news", "pillarName": "News"}, {"id": "environment/gallery/2010/may/28/week-in-wildlife", "type": "gallery", "sectionId": "environment", "sectionName": "Environment", "webPublicationDate": "2010-05-28T13:54:50Z", "webTitle": "In pictures: Week in wildlife", "webUrl": "https://www.theguardian.com/environment/gallery/2010/may/28/week-in-wildlife", "apiUrl": "https://content.guardianapis.com/environment/gallery/2010/may/28/week-in-wildlife", "isHosted": false, "pillarId": "pillar/news", "pillarName": "News"}, {"id": "environment/2010/may/28/longtailed-tit-feeds-brood-of-chicks", "type": "article", "sectionId": "environment", "sectionName": "Environment", "webPublicationDate": "2010-05-28T12:38:11Z", "webTitle": "Longtailed tit chicks form a long queue for dinner", "webUrl": "https://www.theguardian.com/environment/2010/may/28/longtailed-tit-feeds-brood-of-chicks", "apiUrl": "https://content.guardianapis.com/environment/2010/may/28/longtailed-tit-feeds-brood-of-chicks", "isHosted": false, "pillarId": "pillar/news", "pillarName": "News"}, {"id": "environment/2010/may/28/uk-conservation-credits-scheme-thames", "type": "article", "sectionId": "environment", "sectionName": "Environment", "webPublicationDate": "2010-05-28T11:06:02Z", "webTitle": "UK's first 'conservation credit' scheme launched", "webUrl": "https://www.theguardian.com/environment/2010/may/28/uk-conservation-credits-scheme-thames", "apiUrl": "https://content.guardianapis.com/environment/2010/may/28/uk-conservation-credits-scheme-thames", "isHosted": false, "pillarId": "pillar/news", "pillarName": "News"}, {"id": "environment/blog/2010/may/24/how-green-is-the-ipad", "type": "article", "sectionId": "environment", "sectionName": "Environment", "webPublicationDate": "2010-05-28T09:53:00Z", "webTitle": "How green is the iPad? | Leo Hickman", "webUrl": "https://www.theguardian.com/environment/blog/2010/may/24/how-green-is-the-ipad", "apiUrl": "https://content.guardianapis.com/environment/blog/2010/may/24/how-green-is-the-ipad", "isHosted": false, "pillarId": "pillar/news", "pillarName": "News"}, {"id": "business/2010/may/28/bp-shares-drop", "type": "article", "sectionId": "business", "sectionName": "Business", "webPublicationDate": "2010-05-28T09:34:17Z", "webTitle": "BP shares drop as clean-up cost for Deepwater Horizon oil spill approaches $1bn", "webUrl": "https://www.theguardian.com/business/2010/may/28/bp-shares-drop", "apiUrl": "https://content.guardianapis.com/business/2010/may/28/bp-shares-drop", "isHosted": false, "pillarId": "pillar/news", "pillarName": "News"}, {"id": "environment/2010/may/28/bp-resumes-top-kill-oil-spill", "type": "article", "sectionId": "environment", "sectionName": "Environment", "webPublicationDate": "2010-05-28T09:27:40Z", "webTitle": "Gulf oil spill: BP resumes 'top kill'", "webUrl": "https://www.theguardian.com/environment/2010/may/28/bp-resumes-top-kill-oil-spill", "apiUrl": "https://content.guardianapis.com/environment/2010/may/28/bp-resumes-top-kill-oil-spill", "isHosted": false, "pillarId": "pillar/news", "pillarName": "News"}, {"id": "environment/picture/2010/may/28/greece-frogs-migrate-environment-eyewitness", "type": "picture", "sectionId": "environment", "sectionName": "Environment", "webPublicationDate": "2010-05-28T08:17:15Z", "webTitle": "Eyewitness: Why did the frog cross the road?", "webUrl": "https://www.theguardian.com/environment/picture/2010/may/28/greece-frogs-migrate-environment-eyewitness", "apiUrl": "https://content.guardianapis.com/environment/picture/2010/may/28/greece-frogs-migrate-environment-eyewitness", "isHosted": false, "pillarId": "pillar/news", "pillarName": "News"}, {"id": "environment/2010/may/28/salford-university-terraced-house-energy-use", "type": "article", "sectionId": "environment", "sectionName": "Environment", "webPublicationDate": "2010-05-28T06:00:06Z", "webTitle": "Scientists to rebuild 'Coronation Street' house in lab to study energy use", "webUrl": "https://www.theguardian.com/environment/2010/may/28/salford-university-terraced-house-energy-use", "apiUrl": "https://content.guardianapis.com/environment/2010/may/28/salford-university-terraced-house-energy-use", "isHosted": false, "pillarId": "pillar/news", "pillarName": "News"}, {"id": "environment/2010/may/27/obama-strategy-offshore-oil-drilling", "type": "article", "sectionId": "environment", "sectionName": "Environment", "webPublicationDate": "2010-05-28T00:28:00Z", "webTitle": "Barack Obama orders six-month freeze on offshore drilling and expansion", "webUrl": "https://www.theguardian.com/environment/2010/may/27/obama-strategy-offshore-oil-drilling", "apiUrl": "https://content.guardianapis.com/environment/2010/may/27/obama-strategy-offshore-oil-drilling", "isHosted": false, "pillarId": "pillar/news", "pillarName": "News"}, {"id": "environment/2010/may/27/bp-oil-spill-top-kill", "type": "article", "sectionId": "environment", "sectionName": "Environment", "webPublicationDate": "2010-05-27T23:54:00Z", "webTitle": "BP's 'top kill' mission halts the oil gush \u2013 but is it stable?", "webUrl": "https://www.theguardian.com/environment/2010/may/27/bp-oil-spill-top-kill", "apiUrl": "https://content.guardianapis.com/environment/2010/may/27/bp-oil-spill-top-kill", "isHosted": false, "pillarId": "pillar/news", "pillarName": "News"}, {"id": "politics/2010/may/28/simon-hoggart-energy-debate-commons", "type": "article", "sectionId": "politics", "sectionName": "Politics", "webPublicationDate": "2010-05-27T23:05:14Z", "webTitle": "The fox trick and the Greek defence | Simon Hoggart's sketch", "webUrl": "https://www.theguardian.com/politics/2010/may/28/simon-hoggart-energy-debate-commons", "apiUrl": "https://content.guardianapis.com/politics/2010/may/28/simon-hoggart-energy-debate-commons", "isHosted": false, "pillarId": "pillar/news", "pillarName": "News"}, {"id": "environment/green-living-blog/2010/may/28/electric-bike-test", "type": "article", "sectionId": "environment", "sectionName": "Environment", "webPublicationDate": "2010-05-27T23:05:00Z", "webTitle": "Pedal or throttle? The lure of the electric bike | Peter Walker", "webUrl": "https://www.theguardian.com/environment/green-living-blog/2010/may/28/electric-bike-test", "apiUrl": "https://content.guardianapis.com/environment/green-living-blog/2010/may/28/electric-bike-test", "isHosted": false, "pillarId": "pillar/news", "pillarName": "News"}, {"id": "environment/2010/may/28/country-diary-hay-on-wye", "type": "article", "sectionId": "environment", "sectionName": "Environment", "webPublicationDate": "2010-05-27T23:04:03Z", "webTitle": "Country diary: Hay-on-Wye", "webUrl": "https://www.theguardian.com/environment/2010/may/28/country-diary-hay-on-wye", "apiUrl": "https://content.guardianapis.com/environment/2010/may/28/country-diary-hay-on-wye", "isHosted": false, "pillarId": "pillar/news", "pillarName": "News"}, {"id": "environment/2010/may/27/gulf-oil-spill-bp-obama", "type": "article", "sectionId": "environment", "sectionName": "Environment", "webPublicationDate": "2010-05-27T22:18:00Z", "webTitle": "BP will 'pay every dime owed' for Gulf oil spill, Obama warns", "webUrl": "https://www.theguardian.com/environment/2010/may/27/gulf-oil-spill-bp-obama", "apiUrl": "https://content.guardianapis.com/environment/2010/may/27/gulf-oil-spill-bp-obama", "isHosted": false, "pillarId": "pillar/news", "pillarName": "News"}, {"id": "commentisfree/cifamerica/2010/may/27/cheap-oil-cost-developing-countries", "type": "article", "sectionId": "commentisfree", "sectionName": "Opinion", "webPublicationDate": "2010-05-27T22:00:05Z", "webTitle": "The real cost of cheap oil | John Vidal", "webUrl": "https://www.theguardian.com/commentisfree/cifamerica/2010/may/27/cheap-oil-cost-developing-countries", "apiUrl": "https://content.guardianapis.com/commentisfree/cifamerica/2010/may/27/cheap-oil-cost-developing-countries", "isHosted": false, "pillarId": "pillar/opinion", "pillarName": "Opinion"}, {"id": "commentisfree/cifamerica/2010/may/27/oil-spill-bernie-sanders-energy-offshore-drilling", "type": "article", "sectionId": "commentisfree", "sectionName": "Opinion", "webPublicationDate": "2010-05-27T20:04:00Z", "webTitle": "Bernie Sanders | Oil spill shows drilling is not the answer", "webUrl": "https://www.theguardian.com/commentisfree/cifamerica/2010/may/27/oil-spill-bernie-sanders-energy-offshore-drilling", "apiUrl": "https://content.guardianapis.com/commentisfree/cifamerica/2010/may/27/oil-spill-bernie-sanders-energy-offshore-drilling", "isHosted": false, "pillarId": "pillar/opinion", "pillarName": "Opinion"}, {"id": "environment/2010/may/27/scottish-parliament-emissions-cuts", "type": "article", "sectionId": "environment", "sectionName": "Environment", "webPublicationDate": "2010-05-27T17:25:50Z", "webTitle": "Scottish parliament under pressure over emissions manifesto pledge", "webUrl": "https://www.theguardian.com/environment/2010/may/27/scottish-parliament-emissions-cuts", "apiUrl": "https://content.guardianapis.com/environment/2010/may/27/scottish-parliament-emissions-cuts", "isHosted": false, "pillarId": "pillar/news", "pillarName": "News"}, {"id": "environment/2010/may/27/north-sea-oil-rig-gas-threat", "type": "article", "sectionId": "environment", "sectionName": "Environment", "webPublicationDate": "2010-05-27T16:15:43Z", "webTitle": "Gas build-up threatens North Sea oil rig", "webUrl": "https://www.theguardian.com/environment/2010/may/27/north-sea-oil-rig-gas-threat", "apiUrl": "https://content.guardianapis.com/environment/2010/may/27/north-sea-oil-rig-gas-threat", "isHosted": false, "pillarId": "pillar/news", "pillarName": "News"}, {"id": "environment/gallery/2010/may/27/deepwater-horizon-oil-spill-pollution", "type": "gallery", "sectionId": "environment", "sectionName": "Environment", "webPublicationDate": "2010-05-27T15:49:40Z", "webTitle": "Deepwater Horizon Oil spill impacts on Louisiana", "webUrl": "https://www.theguardian.com/environment/gallery/2010/may/27/deepwater-horizon-oil-spill-pollution", "apiUrl": "https://content.guardianapis.com/environment/gallery/2010/may/27/deepwater-horizon-oil-spill-pollution", "isHosted": false, "pillarId": "pillar/news", "pillarName": "News"}, {"id": "environment/audio/2010/may/27/birdwatching-central-london", "type": "audio", "sectionId": "environment", "sectionName": "Environment", "webPublicationDate": "2010-05-27T14:13:57Z", "webTitle": "Patrick Barkham hears the dawn chorus in central London", "webUrl": "https://www.theguardian.com/environment/audio/2010/may/27/birdwatching-central-london", "apiUrl": "https://content.guardianapis.com/environment/audio/2010/may/27/birdwatching-central-london", "isHosted": false, "pillarId": "pillar/news", "pillarName": "News"}, {"id": "environment/gallery/2010/may/27/the-deep-natural-history-museum", "type": "gallery", "sectionId": "environment", "sectionName": "Environment", "webPublicationDate": "2010-05-27T11:04:00Z", "webTitle": "The Deep: Plunging into the abyss at the Natural History Museum", "webUrl": "https://www.theguardian.com/environment/gallery/2010/may/27/the-deep-natural-history-museum", "apiUrl": "https://content.guardianapis.com/environment/gallery/2010/may/27/the-deep-natural-history-museum", "isHosted": false, "pillarId": "pillar/news", "pillarName": "News"}, {"id": "environment/blog/2010/may/27/152-wild-things-to-do", "type": "article", "sectionId": "environment", "sectionName": "Environment", "webPublicationDate": "2010-05-27T10:30:45Z", "webTitle": "UK's earliest book launch: 152 wild things to do | Patrick Barkham", "webUrl": "https://www.theguardian.com/environment/blog/2010/may/27/152-wild-things-to-do", "apiUrl": "https://content.guardianapis.com/environment/blog/2010/may/27/152-wild-things-to-do", "isHosted": false, "pillarId": "pillar/news", "pillarName": "News"}, {"id": "environment/blog/2010/may/27/bp-oil-spill-top-kill", "type": "article", "sectionId": "environment", "sectionName": "Environment", "webPublicationDate": "2010-05-27T09:47:23Z", "webTitle": "BP oil spill: 'top kill' live coverage", "webUrl": "https://www.theguardian.com/environment/blog/2010/may/27/bp-oil-spill-top-kill", "apiUrl": "https://content.guardianapis.com/environment/blog/2010/may/27/bp-oil-spill-top-kill", "isHosted": false, "pillarId": "pillar/news", "pillarName": "News"}, {"id": "environment/2010/may/27/anti-whaling-activist-trial-japan", "type": "article", "sectionId": "environment", "sectionName": "Environment", "webPublicationDate": "2010-05-27T09:36:16Z", "webTitle": "Anti-whaling activist's trial opens in Japan", "webUrl": "https://www.theguardian.com/environment/2010/may/27/anti-whaling-activist-trial-japan", "apiUrl": "https://content.guardianapis.com/environment/2010/may/27/anti-whaling-activist-trial-japan", "isHosted": false, "pillarId": "pillar/news", "pillarName": "News"}, {"id": "environment/2010/may/27/country-diary-the-burren", "type": "article", "sectionId": "environment", "sectionName": "Environment", "webPublicationDate": "2010-05-26T23:50:02Z", "webTitle": "Country diary: The Burren", "webUrl": "https://www.theguardian.com/environment/2010/may/27/country-diary-the-burren", "apiUrl": "https://content.guardianapis.com/environment/2010/may/27/country-diary-the-burren", "isHosted": false, "pillarId": "pillar/news", "pillarName": "News"}, {"id": "environment/2010/may/27/sea-shepherd-whaling-activist-court-tokyo", "type": "article", "sectionId": "environment", "sectionName": "Environment", "webPublicationDate": "2010-05-26T23:32:26Z", "webTitle": "Anti-whaling activist has 'no regrets' as his trial begins in Tokyo", "webUrl": "https://www.theguardian.com/environment/2010/may/27/sea-shepherd-whaling-activist-court-tokyo", "apiUrl": "https://content.guardianapis.com/environment/2010/may/27/sea-shepherd-whaling-activist-court-tokyo", "isHosted": false, "pillarId": "pillar/news", "pillarName": "News"}]}}