{"response": {"status": "ok", "userTier": "developer", "total": 87846, "startIndex": 1, "pageSize": 50, "currentPage": 1, "pages": 1757, "orderBy": "newest", "results": [{"id": "football/blog/2012/may/30/england-frank-lampard-last-hurrah", "type": "article", "sectionId": "football", "sectionName": "Football", "webPublicationDate": "2012-05-30T22:17:00Z", "webTitle": "England's Frank Lampard fears threat to his chance of a last hurrah | Dominic Fifield", "webUrl": "https://www.theguardian.com/football/blog/2012/may/30/england-frank-lampard-last-hurrah", "apiUrl": "https://content.guardianapis.com/football/blog/2012/may/30/england-frank-lampard-last-hurrah", "isHosted": false, "pillarId": "pillar/sport", "pillarName": "Sport"}, {"id": "football/gallery/2012/may/30/brendan-rodgers-liverpool-career-gallery", "type": "gallery", "sectionId": "football", "sectionName": "Football", "webPublicationDate": "2012-05-30T21:04:00Z", "webTitle": "Brendan Rodgers: managerial career \u2013 in pictures", "webUrl": "https://www.theguardian.com/football/gallery/2012/may/30/brendan-rodgers-liverpool-career-gallery", "apiUrl": "https://content.guardianapis.com/football/gallery/2012/may/30/brendan-rodgers-liverpool-career-gallery", "isHosted": false, "pillarId": "pillar/sport", "pillarName": "Sport"}, {"id": "football/2012/may/30/frank-lampard-england-injury-jordan-henderson", "type": "article", "sectionId": "football", "sectionName": "Football", "webPublicationDate": "2012-05-30T21:00:01Z", "webTitle": "FA calls up Jordan Henderson after Frank Lampard limps off with strain", "webUrl": "https://www.theguardian.com/football/2012/may/30/frank-lampard-england-injury-jordan-henderson", "apiUrl": "https://content.guardianapis.com/football/2012/may/30/frank-lampard-england-injury-jordan-henderson", "isHosted": false, "pillarId": "pillar/sport", "pillarName": "Sport"}, {"id": "football/blog/2012/may/30/brendan-rodgers-liverpool-manager", "type": "article", "sectionId": "football", "sectionName": "Football", "webPublicationDate": "2012-05-30T20:28:42Z", "webTitle": "Brendan Rodgers will bring freshness and drive to Liverpool | Richard Williams", "webUrl": "https://www.theguardian.com/football/blog/2012/may/30/brendan-rodgers-liverpool-manager", "apiUrl": "https://content.guardianapis.com/football/blog/2012/may/30/brendan-rodgers-liverpool-manager", "isHosted": false, "pillarId": "pillar/sport", "pillarName": "Sport"}, {"id": "football/2012/may/30/liverpool-brendan-rodgers-swansea-city1", "type": "article", "sectionId": "football", "sectionName": "Football", "webPublicationDate": "2012-05-30T20:11:34Z", "webTitle": "Brendan Rodgers to join Liverpool after Swansea say he can walk on", "webUrl": "https://www.theguardian.com/football/2012/may/30/liverpool-brendan-rodgers-swansea-city1", "apiUrl": "https://content.guardianapis.com/football/2012/may/30/liverpool-brendan-rodgers-swansea-city1", "isHosted": false, "pillarId": "pillar/sport", "pillarName": "Sport"}, {"id": "football/blog/2012/may/30/liverpool-brendan-rodgers", "type": "article", "sectionId": "football", "sectionName": "Football", "webPublicationDate": "2012-05-30T20:03:10Z", "webTitle": "Liverpool's owners crave a fresh start after five years of decline | Andy Hunter", "webUrl": "https://www.theguardian.com/football/blog/2012/may/30/liverpool-brendan-rodgers", "apiUrl": "https://content.guardianapis.com/football/blog/2012/may/30/liverpool-brendan-rodgers", "isHosted": false, "pillarId": "pillar/sport", "pillarName": "Sport"}, {"id": "football/2012/may/30/brendan-rodgers-liverpool-intray", "type": "article", "sectionId": "football", "sectionName": "Football", "webPublicationDate": "2012-05-30T19:40:23Z", "webTitle": "Brendan Rodgers at Liverpool: Five issues that need attention", "webUrl": "https://www.theguardian.com/football/2012/may/30/brendan-rodgers-liverpool-intray", "apiUrl": "https://content.guardianapis.com/football/2012/may/30/brendan-rodgers-liverpool-intray", "isHosted": false, "pillarId": "pillar/sport", "pillarName": "Sport"}, {"id": "football/2012/may/30/liverpool-brendan-rodgers-swansea-city", "type": "article", "sectionId": "football", "sectionName": "Football", "webPublicationDate": "2012-05-30T19:27:00Z", "webTitle": "Brendan Rodgers set to join Liverpool after Swansea agree to let him go", "webUrl": "https://www.theguardian.com/football/2012/may/30/liverpool-brendan-rodgers-swansea-city", "apiUrl": "https://content.guardianapis.com/football/2012/may/30/liverpool-brendan-rodgers-swansea-city", "isHosted": false, "pillarId": "pillar/sport", "pillarName": "Sport"}, {"id": "football/2012/may/30/the-fiver-liverpool-brendan-rodgers", "type": "article", "sectionId": "football", "sectionName": "Football", "webPublicationDate": "2012-05-30T15:00:03Z", "webTitle": "The Fiver | Progress and a historical symmetry | Paul Doyle", "webUrl": "https://www.theguardian.com/football/2012/may/30/the-fiver-liverpool-brendan-rodgers", "apiUrl": "https://content.guardianapis.com/football/2012/may/30/the-fiver-liverpool-brendan-rodgers", "isHosted": false, "pillarId": "pillar/sport", "pillarName": "Sport"}, {"id": "football/2012/may/30/us-open-lamar-hunt-cup-round-3", "type": "article", "sectionId": "football", "sectionName": "Football", "webPublicationDate": "2012-05-30T13:45:00Z", "webTitle": "99 years of the US Open Cup", "webUrl": "https://www.theguardian.com/football/2012/may/30/us-open-lamar-hunt-cup-round-3", "apiUrl": "https://content.guardianapis.com/football/2012/may/30/us-open-lamar-hunt-cup-round-3", "isHosted": false, "pillarId": "pillar/sport", "pillarName": "Sport"}, {"id": "football/blog/2012/may/30/euro-2012-russia-poland-ukraine", "type": "article", "sectionId": "football", "sectionName": "Football", "webPublicationDate": "2012-05-30T13:41:53Z", "webTitle": "Euro 2012: Russia set to be bigger danger zone than Poland or Ukraine | Paul Wilson", "webUrl": "https://www.theguardian.com/football/blog/2012/may/30/euro-2012-russia-poland-ukraine", "apiUrl": "https://content.guardianapis.com/football/blog/2012/may/30/euro-2012-russia-poland-ukraine", "isHosted": false, "pillarId": "pillar/sport", "pillarName": "Sport"}, {"id": "football/2012/may/30/roberto-mancini-zlatan-ibrahimovic-manchester-city", "type": "article", "sectionId": "football", "sectionName": "Football", "webPublicationDate": "2012-05-30T13:38:26Z", "webTitle": "Roberto Mancini plays down interest in Milan's Zlatan Ibrahimovic", "webUrl": "https://www.theguardian.com/football/2012/may/30/roberto-mancini-zlatan-ibrahimovic-manchester-city", "apiUrl": "https://content.guardianapis.com/football/2012/may/30/roberto-mancini-zlatan-ibrahimovic-manchester-city", "isHosted": false, "pillarId": "pillar/sport", "pillarName": "Sport"}, {"id": "football/blog/2012/may/30/euro-2012-greece-theofanis-gekas", "type": "article", "sectionId": "football", "sectionName": "Football", "webPublicationDate": "2012-05-30T13:05:22Z", "webTitle": "Euro 2012: Greece profile \u2013 Theofanis Gekas | Stavros Drakoularakos and Elias Eftaxias", "webUrl": "https://www.theguardian.com/football/blog/2012/may/30/euro-2012-greece-theofanis-gekas", "apiUrl": "https://content.guardianapis.com/football/blog/2012/may/30/euro-2012-greece-theofanis-gekas", "isHosted": false, "pillarId": "pillar/sport", "pillarName": "Sport"}, {"id": "football/2012/may/30/euro-2012-greece-tactics", "type": "article", "sectionId": "football", "sectionName": "Football", "webPublicationDate": "2012-05-30T13:00:03Z", "webTitle": "Euro 2012: Greece tactics and key questions \u2013 the expert's view | Stavros Drakoularakos and Elias Eftaxias", "webUrl": "https://www.theguardian.com/football/2012/may/30/euro-2012-greece-tactics", "apiUrl": "https://content.guardianapis.com/football/2012/may/30/euro-2012-greece-tactics", "isHosted": false, "pillarId": "pillar/sport", "pillarName": "Sport"}, {"id": "football/blog/2012/may/30/euro-2012-russia-roman-shirokov", "type": "article", "sectionId": "football", "sectionName": "Football", "webPublicationDate": "2012-05-30T13:00:02Z", "webTitle": "Euro 2012: Russia profile \u2013 Roman Shirokov | Ivan Kalashnikov", "webUrl": "https://www.theguardian.com/football/blog/2012/may/30/euro-2012-russia-roman-shirokov", "apiUrl": "https://content.guardianapis.com/football/blog/2012/may/30/euro-2012-russia-roman-shirokov", "isHosted": false, "pillarId": "pillar/sport", "pillarName": "Sport"}, {"id": "football/2012/may/30/euro-2012-russia-players", "type": "article", "sectionId": "football", "sectionName": "Football", "webPublicationDate": "2012-05-30T13:00:02Z", "webTitle": "Euro 2012: Russia \u2013 the secrets behind the players", "webUrl": "https://www.theguardian.com/football/2012/may/30/euro-2012-russia-players", "apiUrl": "https://content.guardianapis.com/football/2012/may/30/euro-2012-russia-players", "isHosted": false, "pillarId": "pillar/sport", "pillarName": "Sport"}, {"id": "football/blog/2012/may/30/euro-2012-russia-tactics", "type": "article", "sectionId": "football", "sectionName": "Football", "webPublicationDate": "2012-05-30T13:00:01Z", "webTitle": "Euro 2012: Russia tactics and key questions \u2013 the expert's view | Ivan Kalashnikov", "webUrl": "https://www.theguardian.com/football/blog/2012/may/30/euro-2012-russia-tactics", "apiUrl": "https://content.guardianapis.com/football/blog/2012/may/30/euro-2012-russia-tactics", "isHosted": false, "pillarId": "pillar/sport", "pillarName": "Sport"}, {"id": "football/2012/may/30/euro-2012-greece-players-secrets", "type": "article", "sectionId": "football", "sectionName": "Football", "webPublicationDate": "2012-05-30T13:00:00Z", "webTitle": "Euro 2012: Greece \u2013 the secrets behind the players", "webUrl": "https://www.theguardian.com/football/2012/may/30/euro-2012-greece-players-secrets", "apiUrl": "https://content.guardianapis.com/football/2012/may/30/euro-2012-greece-players-secrets", "isHosted": false, "pillarId": "pillar/sport", "pillarName": "Sport"}, {"id": "football/2012/may/30/paul-scholes-manchester-united-contract", "type": "article", "sectionId": "football", "sectionName": "Football", "webPublicationDate": "2012-05-30T12:27:00Z", "webTitle": "Paul Scholes signs one-year contract extension with Manchester United", "webUrl": "https://www.theguardian.com/football/2012/may/30/paul-scholes-manchester-united-contract", "apiUrl": "https://content.guardianapis.com/football/2012/may/30/paul-scholes-manchester-united-contract", "isHosted": false, "pillarId": "pillar/sport", "pillarName": "Sport"}, {"id": "commentisfree/2012/may/30/euro-2012-ukraine-boycott", "type": "article", "sectionId": "commentisfree", "sectionName": "Opinion", "webPublicationDate": "2012-05-30T11:58:18Z", "webTitle": "Euro 2012: don't boycott Ukraine | Natalia Antonova", "webUrl": "https://www.theguardian.com/commentisfree/2012/may/30/euro-2012-ukraine-boycott", "apiUrl": "https://content.guardianapis.com/commentisfree/2012/may/30/euro-2012-ukraine-boycott", "isHosted": false, "pillarId": "pillar/opinion", "pillarName": "Opinion"}, {"id": "football/2012/may/30/leighton-baines-manchester-united", "type": "article", "sectionId": "football", "sectionName": "Football", "webPublicationDate": "2012-05-30T11:23:47Z", "webTitle": "Leighton Baines flattered by interest from Manchester United", "webUrl": "https://www.theguardian.com/football/2012/may/30/leighton-baines-manchester-united", "apiUrl": "https://content.guardianapis.com/football/2012/may/30/leighton-baines-manchester-united", "isHosted": false, "pillarId": "pillar/sport", "pillarName": "Sport"}, {"id": "football/video/2012/may/30/euro-2012-england-animated-history", "type": "video", "sectionId": "football", "sectionName": "Football", "webPublicationDate": "2012-05-30T08:00:00Z", "webTitle": "Euro 2012: England \u2013 an animated history \u2013 video", "webUrl": "https://www.theguardian.com/football/video/2012/may/30/euro-2012-england-animated-history", "apiUrl": "https://content.guardianapis.com/football/video/2012/may/30/euro-2012-england-animated-history", "isHosted": false, "pillarId": "pillar/sport", "pillarName": "Sport"}, {"id": "football/2012/may/30/football-transfer-rumours-tottenham-foster", "type": "article", "sectionId": "football", "sectionName": "Football", "webPublicationDate": "2012-05-30T07:46:23Z", "webTitle": "Football transfer rumours: Tottenham to sign Ben Foster?", "webUrl": "https://www.theguardian.com/football/2012/may/30/football-transfer-rumours-tottenham-foster", "apiUrl": "https://content.guardianapis.com/football/2012/may/30/football-transfer-rumours-tottenham-foster", "isHosted": false, "pillarId": "pillar/sport", "pillarName": "Sport"}, {"id": "football/2012/may/30/euro-2012-mario-balotelli-italy", "type": "article", "sectionId": "football", "sectionName": "Football", "webPublicationDate": "2012-05-30T00:01:39Z", "webTitle": "Euro 2012: Mario Balotelli threatens to 'kill' banana-throwing fans", "webUrl": "https://www.theguardian.com/football/2012/may/30/euro-2012-mario-balotelli-italy", "apiUrl": "https://content.guardianapis.com/football/2012/may/30/euro-2012-mario-balotelli-italy", "isHosted": false, "pillarId": "pillar/sport", "pillarName": "Sport"}, {"id": "football/2012/may/30/players-finished-top-bottom-football-league", "type": "article", "sectionId": "football", "sectionName": "Football", "webPublicationDate": "2012-05-29T23:06:00Z", "webTitle": "Which players have finished top and bottom of the Football League?", "webUrl": "https://www.theguardian.com/football/2012/may/30/players-finished-top-bottom-football-league", "apiUrl": "https://content.guardianapis.com/football/2012/may/30/players-finished-top-bottom-football-league", "isHosted": false, "pillarId": "pillar/sport", "pillarName": "Sport"}, {"id": "football/2012/may/29/englandfootballteam-euro-2012-group-d", "type": "article", "sectionId": "football", "sectionName": "Football", "webPublicationDate": "2012-05-29T22:00:04Z", "webTitle": "Euro 2012: Phil Jones likely to get England chance against Belgium", "webUrl": "https://www.theguardian.com/football/2012/may/29/englandfootballteam-euro-2012-group-d", "apiUrl": "https://content.guardianapis.com/football/2012/may/29/englandfootballteam-euro-2012-group-d", "isHosted": false, "pillarId": "pillar/sport", "pillarName": "Sport"}, {"id": "football/2012/may/29/eden-hazard-belgium-euro-2012-chelsea", "type": "article", "sectionId": "football", "sectionName": "Football", "webPublicationDate": "2012-05-29T22:00:03Z", "webTitle": "Euro 2012: Belgium fine Eden Hazard a bottle of champagne for lateness", "webUrl": "https://www.theguardian.com/football/2012/may/29/eden-hazard-belgium-euro-2012-chelsea", "apiUrl": "https://content.guardianapis.com/football/2012/may/29/eden-hazard-belgium-euro-2012-chelsea", "isHosted": false, "pillarId": "pillar/sport", "pillarName": "Sport"}, {"id": "football/2012/may/29/euro-2012-phil-jagielka-england", "type": "article", "sectionId": "football", "sectionName": "Football", "webPublicationDate": "2012-05-29T22:00:02Z", "webTitle": "Euro 2012: Phil Jagielka is on the plane and off to Krakow for England", "webUrl": "https://www.theguardian.com/football/2012/may/29/euro-2012-phil-jagielka-england", "apiUrl": "https://content.guardianapis.com/football/2012/may/29/euro-2012-phil-jagielka-england", "isHosted": false, "pillarId": "pillar/sport", "pillarName": "Sport"}, {"id": "football/blog/2012/may/29/ian-harte-premier-league-reading-leeds", "type": "article", "sectionId": "football", "sectionName": "Football", "webPublicationDate": "2012-05-29T22:00:01Z", "webTitle": "Ian Harte back in Premier League with Reading against all the odds | Rob Bagchi", "webUrl": "https://www.theguardian.com/football/blog/2012/may/29/ian-harte-premier-league-reading-leeds", "apiUrl": "https://content.guardianapis.com/football/blog/2012/may/29/ian-harte-premier-league-reading-leeds", "isHosted": false, "pillarId": "pillar/sport", "pillarName": "Sport"}, {"id": "football/blog/2012/may/29/shinji-kagawa-manchester-united", "type": "article", "sectionId": "football", "sectionName": "Football", "webPublicationDate": "2012-05-29T20:48:02Z", "webTitle": "Shinji Kagawa typifies Manchester United's new age of austerity | Jamie Jackson", "webUrl": "https://www.theguardian.com/football/blog/2012/may/29/shinji-kagawa-manchester-united", "apiUrl": "https://content.guardianapis.com/football/blog/2012/may/29/shinji-kagawa-manchester-united", "isHosted": false, "pillarId": "pillar/sport", "pillarName": "Sport"}, {"id": "football/2012/may/29/liverpool-brendan-rodgers-manager", "type": "article", "sectionId": "football", "sectionName": "Football", "webPublicationDate": "2012-05-29T20:42:00Z", "webTitle": "Liverpool want to talk to Brendan Rodgers about manager's job", "webUrl": "https://www.theguardian.com/football/2012/may/29/liverpool-brendan-rodgers-manager", "apiUrl": "https://content.guardianapis.com/football/2012/may/29/liverpool-brendan-rodgers-manager", "isHosted": false, "pillarId": "pillar/sport", "pillarName": "Sport"}, {"id": "world/2012/may/29/ukraine-deserves-fairer-hearing-racism", "type": "article", "sectionId": "world", "sectionName": "World news", "webPublicationDate": "2012-05-29T20:00:01Z", "webTitle": "Letters: Ukraine deserves a fairer hearing on racism", "webUrl": "https://www.theguardian.com/world/2012/may/29/ukraine-deserves-fairer-hearing-racism", "apiUrl": "https://content.guardianapis.com/world/2012/may/29/ukraine-deserves-fairer-hearing-racism", "isHosted": false, "pillarId": "pillar/news", "pillarName": "News"}, {"id": "football/2012/may/29/manchester-united-premierleague", "type": "article", "sectionId": "football", "sectionName": "Football", "webPublicationDate": "2012-05-29T16:44:00Z", "webTitle": "Manchester United 'most popular team in world' with 659 million fans", "webUrl": "https://www.theguardian.com/football/2012/may/29/manchester-united-premierleague", "apiUrl": "https://content.guardianapis.com/football/2012/may/29/manchester-united-premierleague", "isHosted": false, "pillarId": "pillar/sport", "pillarName": "Sport"}, {"id": "football/2012/may/29/manchester-city-derby-county-tom-glick", "type": "article", "sectionId": "football", "sectionName": "Football", "webPublicationDate": "2012-05-29T16:38:40Z", "webTitle": "Manchester City hire Derby County's Tom Glick to fill commercial role", "webUrl": "https://www.theguardian.com/football/2012/may/29/manchester-city-derby-county-tom-glick", "apiUrl": "https://content.guardianapis.com/football/2012/may/29/manchester-city-derby-county-tom-glick", "isHosted": false, "pillarId": "pillar/sport", "pillarName": "Sport"}, {"id": "football/2012/may/29/the-fiver-euro-2012-shirts", "type": "article", "sectionId": "football", "sectionName": "Football", "webPublicationDate": "2012-05-29T15:15:48Z", "webTitle": "The Fiver | Enough to send the entire United States of America into an epic giggle fit | Paul Doyle", "webUrl": "https://www.theguardian.com/football/2012/may/29/the-fiver-euro-2012-shirts", "apiUrl": "https://content.guardianapis.com/football/2012/may/29/the-fiver-euro-2012-shirts", "isHosted": false, "pillarId": "pillar/sport", "pillarName": "Sport"}, {"id": "football/video/2012/may/29/italian-footballers-arrested-video", "type": "video", "sectionId": "football", "sectionName": "Football", "webPublicationDate": "2012-05-29T15:11:00Z", "webTitle": "Italian footballers arrested in Euro 2012 match-fixing scandal \u2013 video", "webUrl": "https://www.theguardian.com/football/video/2012/may/29/italian-footballers-arrested-video", "apiUrl": "https://content.guardianapis.com/football/video/2012/may/29/italian-footballers-arrested-video", "isHosted": false, "pillarId": "pillar/sport", "pillarName": "Sport"}, {"id": "football/blog/2012/may/29/euro-2012-experts-network", "type": "article", "sectionId": "football", "sectionName": "Football", "webPublicationDate": "2012-05-29T14:37:00Z", "webTitle": "Euro 2012: the Experts' Network", "webUrl": "https://www.theguardian.com/football/blog/2012/may/29/euro-2012-experts-network", "apiUrl": "https://content.guardianapis.com/football/blog/2012/may/29/euro-2012-experts-network", "isHosted": false, "pillarId": "pillar/sport", "pillarName": "Sport"}, {"id": "football/2012/may/29/euro-2012-republic-ireland-squad", "type": "article", "sectionId": "football", "sectionName": "Football", "webPublicationDate": "2012-05-29T14:32:25Z", "webTitle": "Euro 2012: Kevin Foley dropped from Republic of Ireland squad", "webUrl": "https://www.theguardian.com/football/2012/may/29/euro-2012-republic-ireland-squad", "apiUrl": "https://content.guardianapis.com/football/2012/may/29/euro-2012-republic-ireland-squad", "isHosted": false, "pillarId": "pillar/sport", "pillarName": "Sport"}, {"id": "football/2012/may/29/euro-2012-experts-network-poland-anecdotes", "type": "article", "sectionId": "football", "sectionName": "Football", "webPublicationDate": "2012-05-29T14:29:26Z", "webTitle": "Euro 2012: Poland - the secrets behind the players", "webUrl": "https://www.theguardian.com/football/2012/may/29/euro-2012-experts-network-poland-anecdotes", "apiUrl": "https://content.guardianapis.com/football/2012/may/29/euro-2012-experts-network-poland-anecdotes", "isHosted": false, "pillarId": "pillar/sport", "pillarName": "Sport"}, {"id": "football/2012/may/29/euro-2012-experts-network-poland-tactics", "type": "article", "sectionId": "football", "sectionName": "Football", "webPublicationDate": "2012-05-29T14:28:26Z", "webTitle": "Euro 2012: Poland tactics and key questions \u2013 the expert's view", "webUrl": "https://www.theguardian.com/football/2012/may/29/euro-2012-experts-network-poland-tactics", "apiUrl": "https://content.guardianapis.com/football/2012/may/29/euro-2012-experts-network-poland-tactics", "isHosted": false, "pillarId": "pillar/sport", "pillarName": "Sport"}, {"id": "football/blog/2012/may/29/euro-2012-experts-network-poland-profile", "type": "article", "sectionId": "football", "sectionName": "Football", "webPublicationDate": "2012-05-29T14:25:00Z", "webTitle": "Euro 2012: Poland profile - Robert Lewandowski | Maciej Slominski", "webUrl": "https://www.theguardian.com/football/blog/2012/may/29/euro-2012-experts-network-poland-profile", "apiUrl": "https://content.guardianapis.com/football/blog/2012/may/29/euro-2012-experts-network-poland-profile", "isHosted": false, "pillarId": "pillar/sport", "pillarName": "Sport"}, {"id": "football/2012/may/29/euro-2012-czech-republic-anecdotes", "type": "article", "sectionId": "football", "sectionName": "Football", "webPublicationDate": "2012-05-29T14:11:00Z", "webTitle": "Euro 2012: Czech Republic: the secrets behind the players", "webUrl": "https://www.theguardian.com/football/2012/may/29/euro-2012-czech-republic-anecdotes", "apiUrl": "https://content.guardianapis.com/football/2012/may/29/euro-2012-czech-republic-anecdotes", "isHosted": false, "pillarId": "pillar/sport", "pillarName": "Sport"}, {"id": "football/blog/2012/may/29/euro-2012-czech-republic-tactics", "type": "article", "sectionId": "football", "sectionName": "Football", "webPublicationDate": "2012-05-29T14:00:06Z", "webTitle": "Euro 2012: Czech Republic tactics and key questions \u2013 the expert's view", "webUrl": "https://www.theguardian.com/football/blog/2012/may/29/euro-2012-czech-republic-tactics", "apiUrl": "https://content.guardianapis.com/football/blog/2012/may/29/euro-2012-czech-republic-tactics", "isHosted": false, "pillarId": "pillar/sport", "pillarName": "Sport"}, {"id": "football/blog/2012/may/29/euro-2012-experts-network-czech-republic", "type": "article", "sectionId": "football", "sectionName": "Football", "webPublicationDate": "2012-05-29T14:00:03Z", "webTitle": "Euro 2012: Czech Republic profile - Theodor Gebre Selassie | Michal Petr\u00e1k", "webUrl": "https://www.theguardian.com/football/blog/2012/may/29/euro-2012-experts-network-czech-republic", "apiUrl": "https://content.guardianapis.com/football/blog/2012/may/29/euro-2012-experts-network-czech-republic", "isHosted": false, "pillarId": "pillar/sport", "pillarName": "Sport"}, {"id": "commentisfree/2012/may/29/euro-2012-ethnic-minority-fans", "type": "article", "sectionId": "commentisfree", "sectionName": "Opinion", "webPublicationDate": "2012-05-29T13:06:59Z", "webTitle": "Euro 2012: ethnic minority fans need more safety assurances | Piara Powar", "webUrl": "https://www.theguardian.com/commentisfree/2012/may/29/euro-2012-ethnic-minority-fans", "apiUrl": "https://content.guardianapis.com/commentisfree/2012/may/29/euro-2012-ethnic-minority-fans", "isHosted": false, "pillarId": "pillar/opinion", "pillarName": "Opinion"}, {"id": "commentisfree/2012/may/29/is-italian-football-more-corrupt", "type": "article", "sectionId": "commentisfree", "sectionName": "Opinion", "webPublicationDate": "2012-05-29T11:54:56Z", "webTitle": "Is Italian football more corrupt, or do they just get caught more often? | John Foot", "webUrl": "https://www.theguardian.com/commentisfree/2012/may/29/is-italian-football-more-corrupt", "apiUrl": "https://content.guardianapis.com/commentisfree/2012/may/29/is-italian-football-more-corrupt", "isHosted": false, "pillarId": "pillar/opinion", "pillarName": "Opinion"}, {"id": "football/2012/may/29/shinji-kagawa-manchester-united-dortmund", "type": "article", "sectionId": "football", "sectionName": "Football", "webPublicationDate": "2012-05-29T10:41:51Z", "webTitle": "Shinji Kagawa's transfer to Manchester United moves a step nearer", "webUrl": "https://www.theguardian.com/football/2012/may/29/shinji-kagawa-manchester-united-dortmund", "apiUrl": "https://content.guardianapis.com/football/2012/may/29/shinji-kagawa-manchester-united-dortmund", "isHosted": false, "pillarId": "pillar/sport", "pillarName": "Sport"}, {"id": "sport/blog/2012/may/29/wayne-rooney-answers-questions", "type": "article", "sectionId": "football", "sectionName": "Football", "webPublicationDate": "2012-05-29T10:35:35Z", "webTitle": "The Question: Do footballers know what they're doing? | Jonathan Wilson", "webUrl": "https://www.theguardian.com/sport/blog/2012/may/29/wayne-rooney-answers-questions", "apiUrl": "https://content.guardianapis.com/sport/blog/2012/may/29/wayne-rooney-answers-questions", "isHosted": false, "pillarId": "pillar/sport", "pillarName": "Sport"}, {"id": "football/video/2012/may/29/euro-2012-live-video-preview", "type": "video", "sectionId": "football", "sectionName": "Football", "webPublicationDate": "2012-05-29T10:22:00Z", "webTitle": "Euro 2012 Football Daily live - video preview", "webUrl": "https://www.theguardian.com/football/video/2012/may/29/euro-2012-live-video-preview", "apiUrl": "https://content.guardianapis.com/football/video/2012/may/29/euro-2012-live-video-preview", "isHosted": false, "pillarId": "pillar/sport", "pillarName": "Sport"}, {"id": "football/blog/2012/may/29/the-sids-2012-la-liga", "type": "article", "sectionId": "football", "sectionName": "Football", "webPublicationDate": "2012-05-29T10:11:07Z", "webTitle": "It's the Sids 2012! The complete review of the La Liga season | Sid Lowe", "webUrl": "https://www.theguardian.com/football/blog/2012/may/29/the-sids-2012-la-liga", "apiUrl": "https://content.guardianapis.com/football/blog/2012/may/29/the-sids-2012-la-liga", "isHosted": false, "pillarId": "pillar/sport", "pillarName": "Sport"}]}}