{"response": {"status": "ok", "userTier": "developer", "total": 16420, "startIndex": 1, "pageSize": 50, "currentPage": 1, "pages": 329, "orderBy": "newest", "results": [{"id": "world/2011/may/30/dukan-diet-france-health-affect", "type": "article", "sectionId": "world", "sectionName": "World news", "webPublicationDate": "2011-05-30T11:40:32Z", "webTitle": "Dukan diet divides French doctors over effect on health", "webUrl": "https://www.theguardian.com/world/2011/may/30/dukan-diet-france-health-affect", "apiUrl": "https://content.guardianapis.com/world/2011/may/30/dukan-diet-france-health-affect", "isHosted": false, "pillarId": "pillar/news", "pillarName": "News"}, {"id": "lifeandstyle/2011/may/29/jay-rayner-restaurant-review-st-john-hotel", "type": "article", "sectionId": "food", "sectionName": "Food", "webPublicationDate": "2011-05-28T23:05:38Z", "webTitle": "Restaurant review: St John Hotel", "webUrl": "https://www.theguardian.com/lifeandstyle/2011/may/29/jay-rayner-restaurant-review-st-john-hotel", "apiUrl": "https://content.guardianapis.com/lifeandstyle/2011/may/29/jay-rayner-restaurant-review-st-john-hotel", "isHosted": false, "pillarId": "pillar/lifestyle", "pillarName": "Lifestyle"}, {"id": "technology/2011/may/29/fungi-on-the-grill-apps-review", "type": "article", "sectionId": "technology", "sectionName": "Technology", "webPublicationDate": "2011-05-28T23:05:00Z", "webTitle": "Fungi; On the Grill \u2013 review", "webUrl": "https://www.theguardian.com/technology/2011/may/29/fungi-on-the-grill-apps-review", "apiUrl": "https://content.guardianapis.com/technology/2011/may/29/fungi-on-the-grill-apps-review", "isHosted": false, "pillarId": "pillar/news", "pillarName": "News"}, {"id": "lifeandstyle/2011/may/28/readers-favourite-photographs-songs-recipes", "type": "article", "sectionId": "lifeandstyle", "sectionName": "Life and style", "webPublicationDate": "2011-05-27T23:06:10Z", "webTitle": "Family life", "webUrl": "https://www.theguardian.com/lifeandstyle/2011/may/28/readers-favourite-photographs-songs-recipes", "apiUrl": "https://content.guardianapis.com/lifeandstyle/2011/may/28/readers-favourite-photographs-songs-recipes", "isHosted": false, "pillarId": "pillar/lifestyle", "pillarName": "Lifestyle"}, {"id": "lifeandstyle/2011/may/28/hugh-fearnley-whittingstall-children-recipes", "type": "article", "sectionId": "lifeandstyle", "sectionName": "Life and style", "webPublicationDate": "2011-05-27T23:05:00Z", "webTitle": "Call that a job? Food writer Hugh Fearnley-Whittingstall and Chloe, 14, Oscar, 12, and Freddie, 8", "webUrl": "https://www.theguardian.com/lifeandstyle/2011/may/28/hugh-fearnley-whittingstall-children-recipes", "apiUrl": "https://content.guardianapis.com/lifeandstyle/2011/may/28/hugh-fearnley-whittingstall-children-recipes", "isHosted": false, "pillarId": "pillar/lifestyle", "pillarName": "Lifestyle"}, {"id": "lifeandstyle/2011/may/28/polenta-recipes-hugh-fearnley-whittingstall", "type": "article", "sectionId": "lifeandstyle", "sectionName": "Life and style", "webPublicationDate": "2011-05-27T23:03:28Z", "webTitle": "Polenta recipes | Hugh Fearnley-Whittingstall", "webUrl": "https://www.theguardian.com/lifeandstyle/2011/may/28/polenta-recipes-hugh-fearnley-whittingstall", "apiUrl": "https://content.guardianapis.com/lifeandstyle/2011/may/28/polenta-recipes-hugh-fearnley-whittingstall", "isHosted": false, "pillarId": "pillar/lifestyle", "pillarName": "Lifestyle"}, {"id": "lifeandstyle/2011/may/28/red-wine-review-fiona-beckett", "type": "article", "sectionId": "food", "sectionName": "Food", "webPublicationDate": "2011-05-27T23:02:54Z", "webTitle": "Wine: My favourite red | Fiona Beckett", "webUrl": "https://www.theguardian.com/lifeandstyle/2011/may/28/red-wine-review-fiona-beckett", "apiUrl": "https://content.guardianapis.com/lifeandstyle/2011/may/28/red-wine-review-fiona-beckett", "isHosted": false, "pillarId": "pillar/lifestyle", "pillarName": "Lifestyle"}, {"id": "lifeandstyle/2011/may/28/pea-mint-croquettes-pasta-recipes", "type": "article", "sectionId": "food", "sectionName": "Food", "webPublicationDate": "2011-05-27T23:02:36Z", "webTitle": "Pea and mint croquettes, plus conchiglie with yoghurt, peas and chilli recipes | Yotam Ottolenghi", "webUrl": "https://www.theguardian.com/lifeandstyle/2011/may/28/pea-mint-croquettes-pasta-recipes", "apiUrl": "https://content.guardianapis.com/lifeandstyle/2011/may/28/pea-mint-croquettes-pasta-recipes", "isHosted": false, "pillarId": "pillar/lifestyle", "pillarName": "Lifestyle"}, {"id": "lifeandstyle/2011/may/28/homemade-pesto-supermarket-sausages", "type": "article", "sectionId": "lifeandstyle", "sectionName": "Life and style", "webPublicationDate": "2011-05-27T23:02:27Z", "webTitle": "Food for Fort: On pesto and supermarket sausages | Matthew Fort", "webUrl": "https://www.theguardian.com/lifeandstyle/2011/may/28/homemade-pesto-supermarket-sausages", "apiUrl": "https://content.guardianapis.com/lifeandstyle/2011/may/28/homemade-pesto-supermarket-sausages", "isHosted": false, "pillarId": "pillar/lifestyle", "pillarName": "Lifestyle"}, {"id": "lifeandstyle/2011/may/28/burger-buns-poppyseed-barbecue-recipe", "type": "article", "sectionId": "food", "sectionName": "Food", "webPublicationDate": "2011-05-27T23:02:22Z", "webTitle": "Poppy seed onion barbecue buns recipe | Dan Lepard", "webUrl": "https://www.theguardian.com/lifeandstyle/2011/may/28/burger-buns-poppyseed-barbecue-recipe", "apiUrl": "https://content.guardianapis.com/lifeandstyle/2011/may/28/burger-buns-poppyseed-barbecue-recipe", "isHosted": false, "pillarId": "pillar/lifestyle", "pillarName": "Lifestyle"}, {"id": "lifeandstyle/cartoon/2011/may/28/1", "type": "picture", "sectionId": "lifeandstyle", "sectionName": "Life and style", "webPublicationDate": "2011-05-27T23:02:00Z", "webTitle": "Berger & Wyse", "webUrl": "https://www.theguardian.com/lifeandstyle/cartoon/2011/may/28/1", "apiUrl": "https://content.guardianapis.com/lifeandstyle/cartoon/2011/may/28/1", "isHosted": false, "pillarId": "pillar/lifestyle", "pillarName": "Lifestyle"}, {"id": "lifeandstyle/2011/may/28/three-mariners-oare-kent-review", "type": "article", "sectionId": "lifeandstyle", "sectionName": "Life and style", "webPublicationDate": "2011-05-27T23:02:00Z", "webTitle": "Restaurant: The Three Mariners, Oare, Kent | John Lanchester", "webUrl": "https://www.theguardian.com/lifeandstyle/2011/may/28/three-mariners-oare-kent-review", "apiUrl": "https://content.guardianapis.com/lifeandstyle/2011/may/28/three-mariners-oare-kent-review", "isHosted": false, "pillarId": "pillar/lifestyle", "pillarName": "Lifestyle"}, {"id": "money/2011/may/28/community-pub-saved-butchers-arms-campaign", "type": "article", "sectionId": "money", "sectionName": "Money", "webPublicationDate": "2011-05-27T23:01:18Z", "webTitle": "'Community pub' saved after village answers our call to Arms", "webUrl": "https://www.theguardian.com/money/2011/may/28/community-pub-saved-butchers-arms-campaign", "apiUrl": "https://content.guardianapis.com/money/2011/may/28/community-pub-saved-butchers-arms-campaign", "isHosted": false, "pillarId": "pillar/lifestyle", "pillarName": "Lifestyle"}, {"id": "commentisfree/2011/may/27/rock-star-recipes", "type": "article", "sectionId": "commentisfree", "sectionName": "Opinion", "webPublicationDate": "2011-05-27T13:09:04Z", "webTitle": "Steve Albini and the cuisine that rocks | Matt Thomas", "webUrl": "https://www.theguardian.com/commentisfree/2011/may/27/rock-star-recipes", "apiUrl": "https://content.guardianapis.com/commentisfree/2011/may/27/rock-star-recipes", "isHosted": false, "pillarId": "pillar/opinion", "pillarName": "Opinion"}, {"id": "music/musicblog/2011/may/27/steve-albini-food-blog", "type": "article", "sectionId": "music", "sectionName": "Music", "webPublicationDate": "2011-05-27T12:30:36Z", "webTitle": "Cook along with Steve Albini", "webUrl": "https://www.theguardian.com/music/musicblog/2011/may/27/steve-albini-food-blog", "apiUrl": "https://content.guardianapis.com/music/musicblog/2011/may/27/steve-albini-food-blog", "isHosted": false, "pillarId": "pillar/arts", "pillarName": "Arts"}, {"id": "lifeandstyle/wordofmouth/2011/may/27/best-budget-eats-bradford", "type": "article", "sectionId": "lifeandstyle", "sectionName": "Life and style", "webPublicationDate": "2011-05-27T11:14:00Z", "webTitle": "The best budget eats in Bradford", "webUrl": "https://www.theguardian.com/lifeandstyle/wordofmouth/2011/may/27/best-budget-eats-bradford", "apiUrl": "https://content.guardianapis.com/lifeandstyle/wordofmouth/2011/may/27/best-budget-eats-bradford", "isHosted": false, "pillarId": "pillar/lifestyle", "pillarName": "Lifestyle"}, {"id": "science/blog/2011/may/27/barack-obama-guinness-taste-ireland", "type": "article", "sectionId": "science", "sectionName": "Science", "webPublicationDate": "2011-05-27T11:05:00Z", "webTitle": "Barack Obama was right: Guinness really does taste better in Ireland", "webUrl": "https://www.theguardian.com/science/blog/2011/may/27/barack-obama-guinness-taste-ireland", "apiUrl": "https://content.guardianapis.com/science/blog/2011/may/27/barack-obama-guinness-taste-ireland", "isHosted": false, "pillarId": "pillar/news", "pillarName": "News"}, {"id": "travel/2011/may/27/bradford-top-10-budget-restaurants", "type": "article", "sectionId": "travel", "sectionName": "Travel", "webPublicationDate": "2011-05-27T11:02:00Z", "webTitle": "Bradford's top 10 budget eats", "webUrl": "https://www.theguardian.com/travel/2011/may/27/bradford-top-10-budget-restaurants", "apiUrl": "https://content.guardianapis.com/travel/2011/may/27/bradford-top-10-budget-restaurants", "isHosted": false, "pillarId": "pillar/lifestyle", "pillarName": "Lifestyle"}, {"id": "lifeandstyle/2011/may/24/homes-food-and-drink", "type": "article", "sectionId": "lifeandstyle", "sectionName": "Life and style", "webPublicationDate": "2011-05-27T10:48:00Z", "webTitle": "Buy of the day", "webUrl": "https://www.theguardian.com/lifeandstyle/2011/may/24/homes-food-and-drink", "apiUrl": "https://content.guardianapis.com/lifeandstyle/2011/may/24/homes-food-and-drink", "isHosted": false, "pillarId": "pillar/lifestyle", "pillarName": "Lifestyle"}, {"id": "lifeandstyle/wordofmouth/2011/may/27/wheres-the-exciting-vegetarian-food", "type": "article", "sectionId": "lifeandstyle", "sectionName": "Life and style", "webPublicationDate": "2011-05-27T08:45:00Z", "webTitle": "Where's the exciting vegetarian food?", "webUrl": "https://www.theguardian.com/lifeandstyle/wordofmouth/2011/may/27/wheres-the-exciting-vegetarian-food", "apiUrl": "https://content.guardianapis.com/lifeandstyle/wordofmouth/2011/may/27/wheres-the-exciting-vegetarian-food", "isHosted": false, "pillarId": "pillar/lifestyle", "pillarName": "Lifestyle"}, {"id": "film/2011/may/26/david-stone-obituary", "type": "article", "sectionId": "film", "sectionName": "Film", "webPublicationDate": "2011-05-26T17:30:04Z", "webTitle": "David Stone obituary", "webUrl": "https://www.theguardian.com/film/2011/may/26/david-stone-obituary", "apiUrl": "https://content.guardianapis.com/film/2011/may/26/david-stone-obituary", "isHosted": false, "pillarId": "pillar/arts", "pillarName": "Arts"}, {"id": "commentisfree/2011/may/26/meat-free-diet-vegetarianism", "type": "article", "sectionId": "commentisfree", "sectionName": "Opinion", "webPublicationDate": "2011-05-26T11:30:01Z", "webTitle": "What will it take for meat-free diets to go mainstream? | Paul MacInnes", "webUrl": "https://www.theguardian.com/commentisfree/2011/may/26/meat-free-diet-vegetarianism", "apiUrl": "https://content.guardianapis.com/commentisfree/2011/may/26/meat-free-diet-vegetarianism", "isHosted": false, "pillarId": "pillar/opinion", "pillarName": "Opinion"}, {"id": "lifeandstyle/2011/may/26/cooking-pork-safely-the-science", "type": "article", "sectionId": "food", "sectionName": "Food", "webPublicationDate": "2011-05-26T09:55:00Z", "webTitle": "Cooking pork safely: the science", "webUrl": "https://www.theguardian.com/lifeandstyle/2011/may/26/cooking-pork-safely-the-science", "apiUrl": "https://content.guardianapis.com/lifeandstyle/2011/may/26/cooking-pork-safely-the-science", "isHosted": false, "pillarId": "pillar/lifestyle", "pillarName": "Lifestyle"}, {"id": "lifeandstyle/wordofmouth/2011/may/26/how-to-cook-perfect-quiche-lorraine", "type": "article", "sectionId": "food", "sectionName": "Food", "webPublicationDate": "2011-05-26T06:00:00Z", "webTitle": "How to cook perfect quiche lorraine", "webUrl": "https://www.theguardian.com/lifeandstyle/wordofmouth/2011/may/26/how-to-cook-perfect-quiche-lorraine", "apiUrl": "https://content.guardianapis.com/lifeandstyle/wordofmouth/2011/may/26/how-to-cook-perfect-quiche-lorraine", "isHosted": false, "pillarId": "pillar/lifestyle", "pillarName": "Lifestyle"}, {"id": "lifeandstyle/2011/may/26/pop-up-restaurants-this-summer", "type": "article", "sectionId": "food", "sectionName": "Food", "webPublicationDate": "2011-05-26T05:59:00Z", "webTitle": "Pop-up restaurants: here today, gone tomorrow", "webUrl": "https://www.theguardian.com/lifeandstyle/2011/may/26/pop-up-restaurants-this-summer", "apiUrl": "https://content.guardianapis.com/lifeandstyle/2011/may/26/pop-up-restaurants-this-summer", "isHosted": false, "pillarId": "pillar/lifestyle", "pillarName": "Lifestyle"}, {"id": "lifeandstyle/2011/may/26/heinz-tomato-ketchup-taste-sauce", "type": "article", "sectionId": "food", "sectionName": "Food", "webPublicationDate": "2011-05-25T23:30:00Z", "webTitle": "Heinz left playing tomato catch-up after ketchup tasting trouncing", "webUrl": "https://www.theguardian.com/lifeandstyle/2011/may/26/heinz-tomato-ketchup-taste-sauce", "apiUrl": "https://content.guardianapis.com/lifeandstyle/2011/may/26/heinz-tomato-ketchup-taste-sauce", "isHosted": false, "pillarId": "pillar/lifestyle", "pillarName": "Lifestyle"}, {"id": "commentisfree/2011/may/25/cameron-obama-barbecue", "type": "article", "sectionId": "commentisfree", "sectionName": "Opinion", "webPublicationDate": "2011-05-25T15:58:48Z", "webTitle": "Obama, Cameron and the manly smell of a barbecue | Jean Hannah Edelstein", "webUrl": "https://www.theguardian.com/commentisfree/2011/may/25/cameron-obama-barbecue", "apiUrl": "https://content.guardianapis.com/commentisfree/2011/may/25/cameron-obama-barbecue", "isHosted": false, "pillarId": "pillar/opinion", "pillarName": "Opinion"}, {"id": "lifeandstyle/wordofmouth/2011/may/25/pork-cooking-temperatures-lowered", "type": "article", "sectionId": "lifeandstyle", "sectionName": "Life and style", "webPublicationDate": "2011-05-25T15:25:00Z", "webTitle": "Pork cooking temperatures lowered", "webUrl": "https://www.theguardian.com/lifeandstyle/wordofmouth/2011/may/25/pork-cooking-temperatures-lowered", "apiUrl": "https://content.guardianapis.com/lifeandstyle/wordofmouth/2011/may/25/pork-cooking-temperatures-lowered", "isHosted": false, "pillarId": "pillar/lifestyle", "pillarName": "Lifestyle"}, {"id": "world/2011/may/25/marmite-ban-spreads-anger-in-denmark", "type": "article", "sectionId": "world", "sectionName": "World news", "webPublicationDate": "2011-05-25T14:41:41Z", "webTitle": "Marmite ban spreads consternation across Denmark", "webUrl": "https://www.theguardian.com/world/2011/may/25/marmite-ban-spreads-anger-in-denmark", "apiUrl": "https://content.guardianapis.com/world/2011/may/25/marmite-ban-spreads-anger-in-denmark", "isHosted": false, "pillarId": "pillar/news", "pillarName": "News"}, {"id": "lifeandstyle/2011/may/25/angela-hartnett-warm-orechiette-tomato", "type": "article", "sectionId": "food", "sectionName": "Food", "webPublicationDate": "2011-05-25T12:59:00Z", "webTitle": "Warm orecchiette with tomato, basil and garlic | Angela Hartnett", "webUrl": "https://www.theguardian.com/lifeandstyle/2011/may/25/angela-hartnett-warm-orechiette-tomato", "apiUrl": "https://content.guardianapis.com/lifeandstyle/2011/may/25/angela-hartnett-warm-orechiette-tomato", "isHosted": false, "pillarId": "pillar/lifestyle", "pillarName": "Lifestyle"}, {"id": "lifeandstyle/wordofmouth/2011/may/25/how-to-make-rhubarb-wine", "type": "article", "sectionId": "lifeandstyle", "sectionName": "Life and style", "webPublicationDate": "2011-05-25T09:00:00Z", "webTitle": "How to make rhubarb wine", "webUrl": "https://www.theguardian.com/lifeandstyle/wordofmouth/2011/may/25/how-to-make-rhubarb-wine", "apiUrl": "https://content.guardianapis.com/lifeandstyle/wordofmouth/2011/may/25/how-to-make-rhubarb-wine", "isHosted": false, "pillarId": "pillar/lifestyle", "pillarName": "Lifestyle"}, {"id": "commentisfree/2011/may/24/marmite-ban-denmark", "type": "article", "sectionId": "commentisfree", "sectionName": "Opinion", "webPublicationDate": "2011-05-24T17:30:00Z", "webTitle": "This Marmite ban defies common sense | Tom Clark", "webUrl": "https://www.theguardian.com/commentisfree/2011/may/24/marmite-ban-denmark", "apiUrl": "https://content.guardianapis.com/commentisfree/2011/may/24/marmite-ban-denmark", "isHosted": false, "pillarId": "pillar/opinion", "pillarName": "Opinion"}, {"id": "world/2011/may/24/denmark-bans-marmite", "type": "article", "sectionId": "world", "sectionName": "World news", "webPublicationDate": "2011-05-24T14:08:46Z", "webTitle": "Spread no more: Denmark bans Marmite", "webUrl": "https://www.theguardian.com/world/2011/may/24/denmark-bans-marmite", "apiUrl": "https://content.guardianapis.com/world/2011/may/24/denmark-bans-marmite", "isHosted": false, "pillarId": "pillar/news", "pillarName": "News"}, {"id": "tv-and-radio/tvandradioblog/2011/may/24/gordon-ramsay-tv-apathy", "type": "article", "sectionId": "tv-and-radio", "sectionName": "Television & radio", "webPublicationDate": "2011-05-24T11:24:16Z", "webTitle": "Have viewers finally fallen out of love with Gordon Ramsay?", "webUrl": "https://www.theguardian.com/tv-and-radio/tvandradioblog/2011/may/24/gordon-ramsay-tv-apathy", "apiUrl": "https://content.guardianapis.com/tv-and-radio/tvandradioblog/2011/may/24/gordon-ramsay-tv-apathy", "isHosted": false, "pillarId": "pillar/arts", "pillarName": "Arts"}, {"id": "lifeandstyle/2011/may/24/modernist-cuisine-cookbook", "type": "article", "sectionId": "food", "sectionName": "Food", "webPublicationDate": "2011-05-24T09:45:00Z", "webTitle": "Modernist Cuisine: 'unparalleled in its breadth and depth'", "webUrl": "https://www.theguardian.com/lifeandstyle/2011/may/24/modernist-cuisine-cookbook", "apiUrl": "https://content.guardianapis.com/lifeandstyle/2011/may/24/modernist-cuisine-cookbook", "isHosted": false, "pillarId": "pillar/lifestyle", "pillarName": "Lifestyle"}, {"id": "lifeandstyle/2011/may/24/top-chefs-bookshelves", "type": "article", "sectionId": "food", "sectionName": "Food", "webPublicationDate": "2011-05-24T09:44:00Z", "webTitle": "Top chefs' bookshelves", "webUrl": "https://www.theguardian.com/lifeandstyle/2011/may/24/top-chefs-bookshelves", "apiUrl": "https://content.guardianapis.com/lifeandstyle/2011/may/24/top-chefs-bookshelves", "isHosted": false, "pillarId": "pillar/lifestyle", "pillarName": "Lifestyle"}, {"id": "lifeandstyle/wordofmouth/2011/may/23/red-card-for-red-meat", "type": "article", "sectionId": "lifeandstyle", "sectionName": "Life and style", "webPublicationDate": "2011-05-23T11:30:00Z", "webTitle": "The red card for red meat?", "webUrl": "https://www.theguardian.com/lifeandstyle/wordofmouth/2011/may/23/red-card-for-red-meat", "apiUrl": "https://content.guardianapis.com/lifeandstyle/wordofmouth/2011/may/23/red-card-for-red-meat", "isHosted": false, "pillarId": "pillar/lifestyle", "pillarName": "Lifestyle"}, {"id": "lifeandstyle/2011/may/23/salmon-salad-sea-vegetables-recipe", "type": "article", "sectionId": "food", "sectionName": "Food", "webPublicationDate": "2011-05-23T09:40:00Z", "webTitle": "Baked salmon salad with sea vegetables recipe", "webUrl": "https://www.theguardian.com/lifeandstyle/2011/may/23/salmon-salad-sea-vegetables-recipe", "apiUrl": "https://content.guardianapis.com/lifeandstyle/2011/may/23/salmon-salad-sea-vegetables-recipe", "isHosted": false, "pillarId": "pillar/lifestyle", "pillarName": "Lifestyle"}, {"id": "world/2011/may/23/cut-red-meat-cancer-researchers", "type": "article", "sectionId": "society", "sectionName": "Society", "webPublicationDate": "2011-05-22T23:06:00Z", "webTitle": "Cut red meat intake and don't eat ham, say cancer researchers", "webUrl": "https://www.theguardian.com/world/2011/may/23/cut-red-meat-cancer-researchers", "apiUrl": "https://content.guardianapis.com/world/2011/may/23/cut-red-meat-cancer-researchers", "isHosted": false, "pillarId": "pillar/news", "pillarName": "News"}, {"id": "lifeandstyle/2011/may/22/real-ale-having-revival", "type": "article", "sectionId": "food", "sectionName": "Food", "webPublicationDate": "2011-05-22T19:00:00Z", "webTitle": "Real ale is having a revival", "webUrl": "https://www.theguardian.com/lifeandstyle/2011/may/22/real-ale-having-revival", "apiUrl": "https://content.guardianapis.com/lifeandstyle/2011/may/22/real-ale-having-revival", "isHosted": false, "pillarId": "pillar/lifestyle", "pillarName": "Lifestyle"}, {"id": "lifeandstyle/2011/may/22/jay-rayner-old-inn-devon", "type": "article", "sectionId": "food", "sectionName": "Food", "webPublicationDate": "2011-05-21T23:05:15Z", "webTitle": "Restaurant review: The Old Inn", "webUrl": "https://www.theguardian.com/lifeandstyle/2011/may/22/jay-rayner-old-inn-devon", "apiUrl": "https://content.guardianapis.com/lifeandstyle/2011/may/22/jay-rayner-old-inn-devon", "isHosted": false, "pillarId": "pillar/lifestyle", "pillarName": "Lifestyle"}, {"id": "uk/2011/may/22/dining-car-axed-by-east-coast-last-journey-tim-adams", "type": "article", "sectionId": "uk-news", "sectionName": "UK news", "webPublicationDate": "2011-05-21T23:01:11Z", "webTitle": "Dining car fans gather for a last supper on East Coast service", "webUrl": "https://www.theguardian.com/uk/2011/may/22/dining-car-axed-by-east-coast-last-journey-tim-adams", "apiUrl": "https://content.guardianapis.com/uk/2011/may/22/dining-car-axed-by-east-coast-last-journey-tim-adams", "isHosted": false, "pillarId": "pillar/news", "pillarName": "News"}, {"id": "lifeandstyle/2011/may/21/readers-favourite-photographs-songs-recipes", "type": "article", "sectionId": "lifeandstyle", "sectionName": "Life and style", "webPublicationDate": "2011-05-20T23:05:03Z", "webTitle": "Family life", "webUrl": "https://www.theguardian.com/lifeandstyle/2011/may/21/readers-favourite-photographs-songs-recipes", "apiUrl": "https://content.guardianapis.com/lifeandstyle/2011/may/21/readers-favourite-photographs-songs-recipes", "isHosted": false, "pillarId": "pillar/lifestyle", "pillarName": "Lifestyle"}, {"id": "lifeandstyle/2011/may/21/veal-recipes-hugh-fearnley-whittingstall", "type": "article", "sectionId": "lifeandstyle", "sectionName": "Life and style", "webPublicationDate": "2011-05-20T23:02:43Z", "webTitle": "Veal recipes | Hugh Fearnley-Whittingstall", "webUrl": "https://www.theguardian.com/lifeandstyle/2011/may/21/veal-recipes-hugh-fearnley-whittingstall", "apiUrl": "https://content.guardianapis.com/lifeandstyle/2011/may/21/veal-recipes-hugh-fearnley-whittingstall", "isHosted": false, "pillarId": "pillar/lifestyle", "pillarName": "Lifestyle"}, {"id": "lifeandstyle/2011/may/21/rose-wine-review-fiona-beckett", "type": "article", "sectionId": "food", "sectionName": "Food", "webPublicationDate": "2011-05-20T23:02:18Z", "webTitle": "Wine: Ros\u00e9", "webUrl": "https://www.theguardian.com/lifeandstyle/2011/may/21/rose-wine-review-fiona-beckett", "apiUrl": "https://content.guardianapis.com/lifeandstyle/2011/may/21/rose-wine-review-fiona-beckett", "isHosted": false, "pillarId": "pillar/lifestyle", "pillarName": "Lifestyle"}, {"id": "lifeandstyle/2011/may/21/ground-almond-alternatives-sheep-ricotta", "type": "article", "sectionId": "lifeandstyle", "sectionName": "Life and style", "webPublicationDate": "2011-05-20T23:02:15Z", "webTitle": "Food for Fort: On ground almonds and sheep's milk ricotta | Matthew Fort", "webUrl": "https://www.theguardian.com/lifeandstyle/2011/may/21/ground-almond-alternatives-sheep-ricotta", "apiUrl": "https://content.guardianapis.com/lifeandstyle/2011/may/21/ground-almond-alternatives-sheep-ricotta", "isHosted": false, "pillarId": "pillar/lifestyle", "pillarName": "Lifestyle"}, {"id": "lifeandstyle/2011/may/21/honey-treacle-cake-recipe", "type": "article", "sectionId": "lifeandstyle", "sectionName": "Life and style", "webPublicationDate": "2011-05-20T23:02:12Z", "webTitle": "Honey and treacle cake recipe | Dan Lepard", "webUrl": "https://www.theguardian.com/lifeandstyle/2011/may/21/honey-treacle-cake-recipe", "apiUrl": "https://content.guardianapis.com/lifeandstyle/2011/may/21/honey-treacle-cake-recipe", "isHosted": false, "pillarId": "pillar/lifestyle", "pillarName": "Lifestyle"}, {"id": "lifeandstyle/2011/may/21/indian-ratatouille-tuna-confit-recipes", "type": "article", "sectionId": "food", "sectionName": "Food", "webPublicationDate": "2011-05-20T23:02:00Z", "webTitle": "Indian ratatouille recipe, plus tuna confit salad | Yotam Ottolenghi", "webUrl": "https://www.theguardian.com/lifeandstyle/2011/may/21/indian-ratatouille-tuna-confit-recipes", "apiUrl": "https://content.guardianapis.com/lifeandstyle/2011/may/21/indian-ratatouille-tuna-confit-recipes", "isHosted": false, "pillarId": "pillar/lifestyle", "pillarName": "Lifestyle"}, {"id": "lifeandstyle/cartoon/2011/may/21/1", "type": "picture", "sectionId": "lifeandstyle", "sectionName": "Life and style", "webPublicationDate": "2011-05-20T23:02:00Z", "webTitle": "Berger & Wyse", "webUrl": "https://www.theguardian.com/lifeandstyle/cartoon/2011/may/21/1", "apiUrl": "https://content.guardianapis.com/lifeandstyle/cartoon/2011/may/21/1", "isHosted": false, "pillarId": "pillar/lifestyle", "pillarName": "Lifestyle"}, {"id": "lifeandstyle/2011/may/21/gilbert-scott-london-nw1-review", "type": "article", "sectionId": "lifeandstyle", "sectionName": "Life and style", "webPublicationDate": "2011-05-20T23:02:00Z", "webTitle": "Restaurant: The Gilbert Scott, London NW1 | John Lanchester", "webUrl": "https://www.theguardian.com/lifeandstyle/2011/may/21/gilbert-scott-london-nw1-review", "apiUrl": "https://content.guardianapis.com/lifeandstyle/2011/may/21/gilbert-scott-london-nw1-review", "isHosted": false, "pillarId": "pillar/lifestyle", "pillarName": "Lifestyle"}]}}