{"response": {"status": "ok", "userTier": "developer", "total": 125686, "startIndex": 1, "pageSize": 50, "currentPage": 1, "pages": 2514, "orderBy": "newest", "results": [{"id": "politics/2010/jul/01/hugh-muir-diary-david-cameron", "type": "article", "sectionId": "politics", "sectionName": "Politics", "webPublicationDate": "2010-06-30T23:15:31Z", "webTitle": "Hugh Muir's diary", "webUrl": "https://www.theguardian.com/politics/2010/jul/01/hugh-muir-diary-david-cameron", "apiUrl": "https://content.guardianapis.com/politics/2010/jul/01/hugh-muir-diary-david-cameron", "isHosted": false, "pillarId": "pillar/news", "pillarName": "News"}, {"id": "commentisfree/2010/jul/01/kenneth-clarke-prison-reform", "type": "article", "sectionId": "commentisfree", "sectionName": "Opinion", "webPublicationDate": "2010-06-30T23:07:37Z", "webTitle": "Prisons: Banging up the old myths | Editorial", "webUrl": "https://www.theguardian.com/commentisfree/2010/jul/01/kenneth-clarke-prison-reform", "apiUrl": "https://content.guardianapis.com/commentisfree/2010/jul/01/kenneth-clarke-prison-reform", "isHosted": false, "pillarId": "pillar/opinion", "pillarName": "Opinion"}, {"id": "society/2010/jul/01/social-housing-exchange-employment", "type": "article", "sectionId": "society", "sectionName": "Society", "webPublicationDate": "2010-06-30T23:05:33Z", "webTitle": "Letters: Lack of foundation in social housing initiative", "webUrl": "https://www.theguardian.com/society/2010/jul/01/social-housing-exchange-employment", "apiUrl": "https://content.guardianapis.com/society/2010/jul/01/social-housing-exchange-employment", "isHosted": false, "pillarId": "pillar/news", "pillarName": "News"}, {"id": "business/2010/jun/30/public-sector-jobs-employment", "type": "article", "sectionId": "business", "sectionName": "Business", "webPublicationDate": "2010-06-30T22:32:16Z", "webTitle": "Where will the private sector jobs come from?", "webUrl": "https://www.theguardian.com/business/2010/jun/30/public-sector-jobs-employment", "apiUrl": "https://content.guardianapis.com/business/2010/jun/30/public-sector-jobs-employment", "isHosted": false, "pillarId": "pillar/news", "pillarName": "News"}, {"id": "politics/2010/jun/30/george-osborne-unemployment-statistics", "type": "article", "sectionId": "politics", "sectionName": "Politics", "webPublicationDate": "2010-06-30T22:22:59Z", "webTitle": "George Osborne needs 2m private jobs rise to balance public sector losses", "webUrl": "https://www.theguardian.com/politics/2010/jun/30/george-osborne-unemployment-statistics", "apiUrl": "https://content.guardianapis.com/politics/2010/jun/30/george-osborne-unemployment-statistics", "isHosted": false, "pillarId": "pillar/news", "pillarName": "News"}, {"id": "politics/2010/jun/30/jobless-figures-guardian-treasury", "type": "article", "sectionId": "politics", "sectionName": "Politics", "webPublicationDate": "2010-06-30T21:55:39Z", "webTitle": "Battle breaks out over Treasury's jobless figures leaked to Guardian", "webUrl": "https://www.theguardian.com/politics/2010/jun/30/jobless-figures-guardian-treasury", "apiUrl": "https://content.guardianapis.com/politics/2010/jun/30/jobless-figures-guardian-treasury", "isHosted": false, "pillarId": "pillar/news", "pillarName": "News"}, {"id": "uk/2010/jun/30/chilcot-inquiry-lord-goldsmith-blair", "type": "article", "sectionId": "uk-news", "sectionName": "UK news", "webPublicationDate": "2010-06-30T21:23:18Z", "webTitle": "Chilcot inquiry: Iraq papers show Lord Goldsmith's warning to Blair", "webUrl": "https://www.theguardian.com/uk/2010/jun/30/chilcot-inquiry-lord-goldsmith-blair", "apiUrl": "https://content.guardianapis.com/uk/2010/jun/30/chilcot-inquiry-lord-goldsmith-blair", "isHosted": false, "pillarId": "pillar/news", "pillarName": "News"}, {"id": "lifeandstyle/2010/jun/30/mrs-camerons-diary", "type": "article", "sectionId": "commentisfree", "sectionName": "Opinion", "webPublicationDate": "2010-06-30T21:00:33Z", "webTitle": "Mrs Cameron's diary", "webUrl": "https://www.theguardian.com/lifeandstyle/2010/jun/30/mrs-camerons-diary", "apiUrl": "https://content.guardianapis.com/lifeandstyle/2010/jun/30/mrs-camerons-diary", "isHosted": false, "pillarId": "pillar/opinion", "pillarName": "Opinion"}, {"id": "commentisfree/2010/jun/30/prison-reform-crime-numbers-ken-clarke", "type": "article", "sectionId": "commentisfree", "sectionName": "Opinion", "webPublicationDate": "2010-06-30T21:00:31Z", "webTitle": "So prison costs more than Eton. But some of them are better, too | Zoe Williams", "webUrl": "https://www.theguardian.com/commentisfree/2010/jun/30/prison-reform-crime-numbers-ken-clarke", "apiUrl": "https://content.guardianapis.com/commentisfree/2010/jun/30/prison-reform-crime-numbers-ken-clarke", "isHosted": false, "pillarId": "pillar/opinion", "pillarName": "Opinion"}, {"id": "politics/2010/jun/30/john-browne-conservatives-whitehall", "type": "article", "sectionId": "politics", "sectionName": "Politics", "webPublicationDate": "2010-06-30T20:28:22Z", "webTitle": "Former BP chief John Browne gets Whitehall role", "webUrl": "https://www.theguardian.com/politics/2010/jun/30/john-browne-conservatives-whitehall", "apiUrl": "https://content.guardianapis.com/politics/2010/jun/30/john-browne-conservatives-whitehall", "isHosted": false, "pillarId": "pillar/news", "pillarName": "News"}, {"id": "uk/2010/jun/30/prince-charles-planning-chelsea-barracks", "type": "article", "sectionId": "uk-news", "sectionName": "UK news", "webPublicationDate": "2010-06-30T20:08:13Z", "webTitle": "Prince Charles's 'meddling': a royal right, or a privilege too far?", "webUrl": "https://www.theguardian.com/uk/2010/jun/30/prince-charles-planning-chelsea-barracks", "apiUrl": "https://content.guardianapis.com/uk/2010/jun/30/prince-charles-planning-chelsea-barracks", "isHosted": false, "pillarId": "pillar/news", "pillarName": "News"}, {"id": "politics/2010/jun/30/liam-fox-afghanistan-foreign-policy", "type": "article", "sectionId": "politics", "sectionName": "Politics", "webPublicationDate": "2010-06-30T19:43:35Z", "webTitle": "Liam Fox insists army cannot leave Afghanistan until job done", "webUrl": "https://www.theguardian.com/politics/2010/jun/30/liam-fox-afghanistan-foreign-policy", "apiUrl": "https://content.guardianapis.com/politics/2010/jun/30/liam-fox-afghanistan-foreign-policy", "isHosted": false, "pillarId": "pillar/news", "pillarName": "News"}, {"id": "society/2010/jun/30/michael-howard-ken-clarke-rehabilitation", "type": "article", "sectionId": "society", "sectionName": "Society", "webPublicationDate": "2010-06-30T19:18:19Z", "webTitle": "Michael Howard clashes with Ken Clarke over rehabilitation plans", "webUrl": "https://www.theguardian.com/society/2010/jun/30/michael-howard-ken-clarke-rehabilitation", "apiUrl": "https://content.guardianapis.com/society/2010/jun/30/michael-howard-ken-clarke-rehabilitation", "isHosted": false, "pillarId": "pillar/news", "pillarName": "News"}, {"id": "politics/wintour-and-watt/2010/jun/30/kenneth-clarke-prisons-and-probation", "type": "article", "sectionId": "politics", "sectionName": "Politics", "webPublicationDate": "2010-06-30T18:56:28Z", "webTitle": "Old Cambridge rivalry is revived as Michael Howard criticises Kenneth Clarke on prisons", "webUrl": "https://www.theguardian.com/politics/wintour-and-watt/2010/jun/30/kenneth-clarke-prisons-and-probation", "apiUrl": "https://content.guardianapis.com/politics/wintour-and-watt/2010/jun/30/kenneth-clarke-prisons-and-probation", "isHosted": false, "pillarId": "pillar/news", "pillarName": "News"}, {"id": "business/2010/jun/30/david-cameron-job-loss-unemployment", "type": "article", "sectionId": "business", "sectionName": "Business", "webPublicationDate": "2010-06-30T18:39:29Z", "webTitle": "David Cameron gets a new set of job loss figures | Simon Hoggart's sketch", "webUrl": "https://www.theguardian.com/business/2010/jun/30/david-cameron-job-loss-unemployment", "apiUrl": "https://content.guardianapis.com/business/2010/jun/30/david-cameron-job-loss-unemployment", "isHosted": false, "pillarId": "pillar/news", "pillarName": "News"}, {"id": "politics/2010/jun/30/iain-duncan-smith-poverty-budget", "type": "article", "sectionId": "politics", "sectionName": "Politics", "webPublicationDate": "2010-06-30T18:37:37Z", "webTitle": "Iain Duncan Smith admits budget stymies bid to cut poverty", "webUrl": "https://www.theguardian.com/politics/2010/jun/30/iain-duncan-smith-poverty-budget", "apiUrl": "https://content.guardianapis.com/politics/2010/jun/30/iain-duncan-smith-poverty-budget", "isHosted": false, "pillarId": "pillar/news", "pillarName": "News"}, {"id": "education/2010/jun/30/jamie-oliver-school-meals-lansley", "type": "article", "sectionId": "education", "sectionName": "Education", "webPublicationDate": "2010-06-30T18:23:57Z", "webTitle": "Jamie Oliver hits back at health secretary over school meals 'insult'", "webUrl": "https://www.theguardian.com/education/2010/jun/30/jamie-oliver-school-meals-lansley", "apiUrl": "https://content.guardianapis.com/education/2010/jun/30/jamie-oliver-school-meals-lansley", "isHosted": false, "pillarId": "pillar/news", "pillarName": "News"}, {"id": "uk/2010/jun/30/torture-victim-rangzieb-ahmed-appeal", "type": "article", "sectionId": "uk-news", "sectionName": "UK news", "webPublicationDate": "2010-06-30T18:15:46Z", "webTitle": "Torture victim wins right to appeal over British complicity", "webUrl": "https://www.theguardian.com/uk/2010/jun/30/torture-victim-rangzieb-ahmed-appeal", "apiUrl": "https://content.guardianapis.com/uk/2010/jun/30/torture-victim-rangzieb-ahmed-appeal", "isHosted": false, "pillarId": "pillar/news", "pillarName": "News"}, {"id": "media/2010/jun/30/bbc-management-pay-union", "type": "article", "sectionId": "media", "sectionName": "Media", "webPublicationDate": "2010-06-30T16:30:37Z", "webTitle": "Unions break off talks with BBC management", "webUrl": "https://www.theguardian.com/media/2010/jun/30/bbc-management-pay-union", "apiUrl": "https://content.guardianapis.com/media/2010/jun/30/bbc-management-pay-union", "isHosted": false, "pillarId": "pillar/news", "pillarName": "News"}, {"id": "environment/2010/jun/30/london-air-quality-premature-deaths", "type": "article", "sectionId": "environment", "sectionName": "Environment", "webPublicationDate": "2010-06-30T16:30:00Z", "webTitle": "Air pollution leads to premature deaths of more than 4,000 Londoners a year", "webUrl": "https://www.theguardian.com/environment/2010/jun/30/london-air-quality-premature-deaths", "apiUrl": "https://content.guardianapis.com/environment/2010/jun/30/london-air-quality-premature-deaths", "isHosted": false, "pillarId": "pillar/news", "pillarName": "News"}, {"id": "commentisfree/2010/jun/30/coalition-cavalier-unemployment", "type": "article", "sectionId": "commentisfree", "sectionName": "Opinion", "webPublicationDate": "2010-06-30T16:00:30Z", "webTitle": "Coalition is cavalier on unemployment | Chuka Umunna", "webUrl": "https://www.theguardian.com/commentisfree/2010/jun/30/coalition-cavalier-unemployment", "apiUrl": "https://content.guardianapis.com/commentisfree/2010/jun/30/coalition-cavalier-unemployment", "isHosted": false, "pillarId": "pillar/opinion", "pillarName": "Opinion"}, {"id": "commentisfree/2010/jun/30/prisons-kenneth-clarke-reforming", "type": "article", "sectionId": "commentisfree", "sectionName": "Opinion", "webPublicationDate": "2010-06-30T15:41:53Z", "webTitle": "On prisons, Ken Clarke shows real reforming spirit  | Rob Allen", "webUrl": "https://www.theguardian.com/commentisfree/2010/jun/30/prisons-kenneth-clarke-reforming", "apiUrl": "https://content.guardianapis.com/commentisfree/2010/jun/30/prisons-kenneth-clarke-reforming", "isHosted": false, "pillarId": "pillar/opinion", "pillarName": "Opinion"}, {"id": "business/dan-roberts-on-business-blog/2010/jun/30/obr-jobs-forecast-treasury", "type": "article", "sectionId": "business", "sectionName": "Business", "webPublicationDate": "2010-06-30T15:32:16Z", "webTitle": "Office for budget irresponsibility | Dan Roberts", "webUrl": "https://www.theguardian.com/business/dan-roberts-on-business-blog/2010/jun/30/obr-jobs-forecast-treasury", "apiUrl": "https://content.guardianapis.com/business/dan-roberts-on-business-blog/2010/jun/30/obr-jobs-forecast-treasury", "isHosted": false, "pillarId": "pillar/news", "pillarName": "News"}, {"id": "uk/davehillblog/2010/jun/30/boris-johnson-clean-air-strategy-health-and-impact-research", "type": "article", "sectionId": "uk-news", "sectionName": "UK news", "webPublicationDate": "2010-06-30T15:17:58Z", "webTitle": "Boris Johnson: clean air strategy breakdown", "webUrl": "https://www.theguardian.com/uk/davehillblog/2010/jun/30/boris-johnson-clean-air-strategy-health-and-impact-research", "apiUrl": "https://content.guardianapis.com/uk/davehillblog/2010/jun/30/boris-johnson-clean-air-strategy-health-and-impact-research", "isHosted": false, "pillarId": "pillar/news", "pillarName": "News"}, {"id": "politics/wintour-and-watt/2010/jun/30/davidcameron-unemployment-and-employment-statistics", "type": "article", "sectionId": "politics", "sectionName": "Politics", "webPublicationDate": "2010-06-30T14:07:49Z", "webTitle": "Tories and Labour at war over unemployment figures | Patrick Wintour", "webUrl": "https://www.theguardian.com/politics/wintour-and-watt/2010/jun/30/davidcameron-unemployment-and-employment-statistics", "apiUrl": "https://content.guardianapis.com/politics/wintour-and-watt/2010/jun/30/davidcameron-unemployment-and-employment-statistics", "isHosted": false, "pillarId": "pillar/news", "pillarName": "News"}, {"id": "uk/2010/jun/30/supreme-court-human-rights-troops-analysis", "type": "article", "sectionId": "uk-news", "sectionName": "UK news", "webPublicationDate": "2010-06-30T13:43:47Z", "webTitle": "MoD and generals breathe sigh of relief over human rights ruling", "webUrl": "https://www.theguardian.com/uk/2010/jun/30/supreme-court-human-rights-troops-analysis", "apiUrl": "https://content.guardianapis.com/uk/2010/jun/30/supreme-court-human-rights-troops-analysis", "isHosted": false, "pillarId": "pillar/news", "pillarName": "News"}, {"id": "politics/2010/jun/30/david-cameron-harriet-harman-leaked-treasury-unemployment", "type": "article", "sectionId": "politics", "sectionName": "Politics", "webPublicationDate": "2010-06-30T12:35:27Z", "webTitle": "David Cameron and Harriet Harman clash over leaked Treasury document on unemployment", "webUrl": "https://www.theguardian.com/politics/2010/jun/30/david-cameron-harriet-harman-leaked-treasury-unemployment", "apiUrl": "https://content.guardianapis.com/politics/2010/jun/30/david-cameron-harriet-harman-leaked-treasury-unemployment", "isHosted": false, "pillarId": "pillar/news", "pillarName": "News"}, {"id": "commentisfree/2010/jun/30/tax-transparency-country-by-country-reporting", "type": "article", "sectionId": "commentisfree", "sectionName": "Opinion", "webPublicationDate": "2010-06-30T12:00:31Z", "webTitle": "Time to act on tax transparency | Richard Murphy", "webUrl": "https://www.theguardian.com/commentisfree/2010/jun/30/tax-transparency-country-by-country-reporting", "apiUrl": "https://content.guardianapis.com/commentisfree/2010/jun/30/tax-transparency-country-by-country-reporting", "isHosted": false, "pillarId": "pillar/opinion", "pillarName": "Opinion"}, {"id": "politics/audio/2010/jun/30/pmqs-audio", "type": "audio", "sectionId": "politics", "sectionName": "Politics", "webPublicationDate": "2010-06-30T11:59:43Z", "webTitle": "PMQs podcast: 30 June 2010", "webUrl": "https://www.theguardian.com/politics/audio/2010/jun/30/pmqs-audio", "apiUrl": "https://content.guardianapis.com/politics/audio/2010/jun/30/pmqs-audio", "isHosted": false, "pillarId": "pillar/news", "pillarName": "News"}, {"id": "media/greenslade/2010/jun/30/pcc-national-newspapers", "type": "article", "sectionId": "media", "sectionName": "Media", "webPublicationDate": "2010-06-30T11:56:17Z", "webTitle": "Roy Greenslade: Why Puttnam's PCC criticism is off target", "webUrl": "https://www.theguardian.com/media/greenslade/2010/jun/30/pcc-national-newspapers", "apiUrl": "https://content.guardianapis.com/media/greenslade/2010/jun/30/pcc-national-newspapers", "isHosted": false, "pillarId": "pillar/news", "pillarName": "News"}, {"id": "uk/blog/2010/jun/30/northerner-cabinet-yorkshire", "type": "article", "sectionId": "uk-news", "sectionName": "UK news", "webPublicationDate": "2010-06-30T10:27:41Z", "webTitle": "The Northerner: Cabinet roadshow rolls into Yorkshire", "webUrl": "https://www.theguardian.com/uk/blog/2010/jun/30/northerner-cabinet-yorkshire", "apiUrl": "https://content.guardianapis.com/uk/blog/2010/jun/30/northerner-cabinet-yorkshire", "isHosted": false, "pillarId": "pillar/news", "pillarName": "News"}, {"id": "politics/blog/2010/jun/30/pmqs-live", "type": "article", "sectionId": "politics", "sectionName": "Politics", "webPublicationDate": "2010-06-30T10:24:48Z", "webTitle": "Prime minister's questions \u2013 live", "webUrl": "https://www.theguardian.com/politics/blog/2010/jun/30/pmqs-live", "apiUrl": "https://content.guardianapis.com/politics/blog/2010/jun/30/pmqs-live", "isHosted": false, "pillarId": "pillar/news", "pillarName": "News"}, {"id": "uk/davehillblog/2010/jun/30/london-housing-crisis-andrew-boff-larger-homes", "type": "article", "sectionId": "uk-news", "sectionName": "UK news", "webPublicationDate": "2010-06-30T10:02:18Z", "webTitle": "London housing crisis: would bigger be better?", "webUrl": "https://www.theguardian.com/uk/davehillblog/2010/jun/30/london-housing-crisis-andrew-boff-larger-homes", "apiUrl": "https://content.guardianapis.com/uk/davehillblog/2010/jun/30/london-housing-crisis-andrew-boff-larger-homes", "isHosted": false, "pillarId": "pillar/news", "pillarName": "News"}, {"id": "commentisfree/cartoon/2010/jun/30/steve-bell-if", "type": "picture", "sectionId": "commentisfree", "sectionName": "Opinion", "webPublicationDate": "2010-06-30T09:26:17Z", "webTitle": "Three shirts on my lion", "webUrl": "https://www.theguardian.com/commentisfree/cartoon/2010/jun/30/steve-bell-if", "apiUrl": "https://content.guardianapis.com/commentisfree/cartoon/2010/jun/30/steve-bell-if", "isHosted": false, "pillarId": "pillar/opinion", "pillarName": "Opinion"}, {"id": "society/joepublic/2010/jun/30/incapacity-benefits-reform-scared", "type": "article", "sectionId": "society", "sectionName": "Society", "webPublicationDate": "2010-06-30T09:17:26Z", "webTitle": "I am on incapacity benefits, and I am scared", "webUrl": "https://www.theguardian.com/society/joepublic/2010/jun/30/incapacity-benefits-reform-scared", "apiUrl": "https://content.guardianapis.com/society/joepublic/2010/jun/30/incapacity-benefits-reform-scared", "isHosted": false, "pillarId": "pillar/news", "pillarName": "News"}, {"id": "politics/blog/2010/jun/30/michael-white-john-bercow-speaker-simon-burns", "type": "article", "sectionId": "politics", "sectionName": "Politics", "webPublicationDate": "2010-06-30T08:54:07Z", "webTitle": "John Bercow is Speaker, and MPs such as Simon Burns should get over it | Michael White", "webUrl": "https://www.theguardian.com/politics/blog/2010/jun/30/michael-white-john-bercow-speaker-simon-burns", "apiUrl": "https://content.guardianapis.com/politics/blog/2010/jun/30/michael-white-john-bercow-speaker-simon-burns", "isHosted": false, "pillarId": "pillar/news", "pillarName": "News"}, {"id": "politics/blog/2010/jun/30/chilcot-iraq-war-inquiry-live", "type": "article", "sectionId": "politics", "sectionName": "Politics", "webPublicationDate": "2010-06-30T08:45:44Z", "webTitle": "Chilcot inquiry into Iraq war \u2013 as it happened", "webUrl": "https://www.theguardian.com/politics/blog/2010/jun/30/chilcot-iraq-war-inquiry-live", "apiUrl": "https://content.guardianapis.com/politics/blog/2010/jun/30/chilcot-iraq-war-inquiry-live", "isHosted": false, "pillarId": "pillar/news", "pillarName": "News"}, {"id": "commentisfree/2010/jun/30/civil-service-budget-cuts", "type": "article", "sectionId": "commentisfree", "sectionName": "Opinion", "webPublicationDate": "2010-06-30T08:00:32Z", "webTitle": "Effective cuts need effective civil service | Michael Macdonnell", "webUrl": "https://www.theguardian.com/commentisfree/2010/jun/30/civil-service-budget-cuts", "apiUrl": "https://content.guardianapis.com/commentisfree/2010/jun/30/civil-service-budget-cuts", "isHosted": false, "pillarId": "pillar/opinion", "pillarName": "Opinion"}, {"id": "society/2010/jun/30/judith-hackitt-health-safety-work", "type": "article", "sectionId": "society", "sectionName": "Society", "webPublicationDate": "2010-06-30T06:15:29Z", "webTitle": "Dispelling the myths around health and safety", "webUrl": "https://www.theguardian.com/society/2010/jun/30/judith-hackitt-health-safety-work", "apiUrl": "https://content.guardianapis.com/society/2010/jun/30/judith-hackitt-health-safety-work", "isHosted": false, "pillarId": "pillar/news", "pillarName": "News"}, {"id": "commentisfree/2010/jun/30/michael-white-briefing-regions-hit", "type": "article", "sectionId": "commentisfree", "sectionName": "Opinion", "webPublicationDate": "2010-06-30T06:00:31Z", "webTitle": "Regional clout gets a kicking | Michael White's political briefing", "webUrl": "https://www.theguardian.com/commentisfree/2010/jun/30/michael-white-briefing-regions-hit", "apiUrl": "https://content.guardianapis.com/commentisfree/2010/jun/30/michael-white-briefing-regions-hit", "isHosted": false, "pillarId": "pillar/opinion", "pillarName": "Opinion"}, {"id": "politics/2010/jun/30/hugh-muir-diary-christopher-hitchens", "type": "article", "sectionId": "politics", "sectionName": "Politics", "webPublicationDate": "2010-06-29T23:15:28Z", "webTitle": "Hugh Muir's diary", "webUrl": "https://www.theguardian.com/politics/2010/jun/30/hugh-muir-diary-christopher-hitchens", "apiUrl": "https://content.guardianapis.com/politics/2010/jun/30/hugh-muir-diary-christopher-hitchens", "isHosted": false, "pillarId": "pillar/news", "pillarName": "News"}, {"id": "global/2010/jun/30/simon-burns-simon-hoggarts-sketch", "type": "article", "sectionId": "politics", "sectionName": "Politics", "webPublicationDate": "2010-06-29T23:08:02Z", "webTitle": "Simon Burns gets too hot to handle | Simon Hoggart's sketch", "webUrl": "https://www.theguardian.com/global/2010/jun/30/simon-burns-simon-hoggarts-sketch", "apiUrl": "https://content.guardianapis.com/global/2010/jun/30/simon-burns-simon-hoggarts-sketch", "isHosted": false, "pillarId": "pillar/news", "pillarName": "News"}, {"id": "commentisfree/2010/jun/30/police-force-numbers-editorial", "type": "article", "sectionId": "commentisfree", "sectionName": "Opinion", "webPublicationDate": "2010-06-29T23:05:37Z", "webTitle": "Police: Force of numbers | Editorial", "webUrl": "https://www.theguardian.com/commentisfree/2010/jun/30/police-force-numbers-editorial", "apiUrl": "https://content.guardianapis.com/commentisfree/2010/jun/30/police-force-numbers-editorial", "isHosted": false, "pillarId": "pillar/opinion", "pillarName": "Opinion"}, {"id": "uk/2010/jun/30/clarke-prison-sentencing-justice-jail", "type": "article", "sectionId": "uk-news", "sectionName": "UK news", "webPublicationDate": "2010-06-29T23:05:35Z", "webTitle": "Ken Clarke to attack 'bang 'em up' prison sentencing", "webUrl": "https://www.theguardian.com/uk/2010/jun/30/clarke-prison-sentencing-justice-jail", "apiUrl": "https://content.guardianapis.com/uk/2010/jun/30/clarke-prison-sentencing-justice-jail", "isHosted": false, "pillarId": "pillar/news", "pillarName": "News"}, {"id": "business/2010/jun/30/work-welfare-and-budget-cuts", "type": "article", "sectionId": "business", "sectionName": "Business", "webPublicationDate": "2010-06-29T23:05:34Z", "webTitle": "Letters: Work, welfare and budget cuts", "webUrl": "https://www.theguardian.com/business/2010/jun/30/work-welfare-and-budget-cuts", "apiUrl": "https://content.guardianapis.com/business/2010/jun/30/work-welfare-and-budget-cuts", "isHosted": false, "pillarId": "pillar/news", "pillarName": "News"}, {"id": "football/2010/jun/30/hopes-fade-for-new-dawn", "type": "article", "sectionId": "football", "sectionName": "Football", "webPublicationDate": "2010-06-29T23:05:32Z", "webTitle": "Letters: Hope fades again for a bright new dawn", "webUrl": "https://www.theguardian.com/football/2010/jun/30/hopes-fade-for-new-dawn", "apiUrl": "https://content.guardianapis.com/football/2010/jun/30/hopes-fade-for-new-dawn", "isHosted": false, "pillarId": "pillar/sport", "pillarName": "Sport"}, {"id": "society/2010/jun/30/public-spending-cuts-lack-reform", "type": "article", "sectionId": "society", "sectionName": "Society", "webPublicationDate": "2010-06-29T23:01:28Z", "webTitle": "Lib-Con public sector cuts indicate an incoherent strategy", "webUrl": "https://www.theguardian.com/society/2010/jun/30/public-spending-cuts-lack-reform", "apiUrl": "https://content.guardianapis.com/society/2010/jun/30/public-spending-cuts-lack-reform", "isHosted": false, "pillarId": "pillar/news", "pillarName": "News"}, {"id": "uk/2010/jun/29/chilcot-inquiry-france-sir-john-holmes", "type": "article", "sectionId": "uk-news", "sectionName": "UK news", "webPublicationDate": "2010-06-29T21:40:30Z", "webTitle": "Chilcot inquiry: Diplomat rejects Blair claim that France barred UN Iraq vote", "webUrl": "https://www.theguardian.com/uk/2010/jun/29/chilcot-inquiry-france-sir-john-holmes", "apiUrl": "https://content.guardianapis.com/uk/2010/jun/29/chilcot-inquiry-france-sir-john-holmes", "isHosted": false, "pillarId": "pillar/news", "pillarName": "News"}, {"id": "world/2010/jun/29/russian-spies-cold-war-levels", "type": "article", "sectionId": "world", "sectionName": "World news", "webPublicationDate": "2010-06-29T21:24:02Z", "webTitle": "Russian spies in UK 'at cold war levels', says MI5", "webUrl": "https://www.theguardian.com/world/2010/jun/29/russian-spies-cold-war-levels", "apiUrl": "https://content.guardianapis.com/world/2010/jun/29/russian-spies-cold-war-levels", "isHosted": false, "pillarId": "pillar/news", "pillarName": "News"}, {"id": "commentisfree/2010/jun/29/russian-spies-security-services", "type": "article", "sectionId": "commentisfree", "sectionName": "Opinion", "webPublicationDate": "2010-06-29T20:30:28Z", "webTitle": "The Russians have spy rings. We have trooping the colour | Simon Jenkins", "webUrl": "https://www.theguardian.com/commentisfree/2010/jun/29/russian-spies-security-services", "apiUrl": "https://content.guardianapis.com/commentisfree/2010/jun/29/russian-spies-security-services", "isHosted": false, "pillarId": "pillar/opinion", "pillarName": "Opinion"}]}}