{"response": {"status": "ok", "userTier": "developer", "total": 95353, "startIndex": 1, "pageSize": 50, "currentPage": 1, "pages": 1908, "orderBy": "newest", "results": [{"id": "football/2016/jun/30/claude-puel-southampton-manager-thierry-henry", "type": "article", "sectionId": "football", "sectionName": "Football", "webPublicationDate": "2016-06-30T23:30:00Z", "webTitle": "Claude Puel\u2019s appointment can help to soothe Southampton\u2019s supporters", "webUrl": "https://www.theguardian.com/football/2016/jun/30/claude-puel-southampton-manager-thierry-henry", "apiUrl": "https://content.guardianapis.com/football/2016/jun/30/claude-puel-southampton-manager-thierry-henry", "isHosted": false, "pillarId": "pillar/sport", "pillarName": "Sport"}, {"id": "football/2016/jun/30/vicente-del-bosque-to-quit-spain-manager", "type": "article", "sectionId": "football", "sectionName": "Football", "webPublicationDate": "2016-06-30T23:27:04Z", "webTitle": "Vicente del Bosque announces he will quit as Spain manager", "webUrl": "https://www.theguardian.com/football/2016/jun/30/vicente-del-bosque-to-quit-spain-manager", "apiUrl": "https://content.guardianapis.com/football/2016/jun/30/vicente-del-bosque-to-quit-spain-manager", "isHosted": false, "pillarId": "pillar/sport", "pillarName": "Sport"}, {"id": "football/2016/jun/30/england-players-are-keen-for-an-overseas-appointment-as-next-manager", "type": "article", "sectionId": "football", "sectionName": "Football", "webPublicationDate": "2016-06-30T23:12:00Z", "webTitle": "England players are keen for an overseas appointment as next manager", "webUrl": "https://www.theguardian.com/football/2016/jun/30/england-players-are-keen-for-an-overseas-appointment-as-next-manager", "apiUrl": "https://content.guardianapis.com/football/2016/jun/30/england-players-are-keen-for-an-overseas-appointment-as-next-manager", "isHosted": false, "pillarId": "pillar/sport", "pillarName": "Sport"}, {"id": "football/2016/jun/30/poland-portugal-euro-2016-quarter-final-match-report", "type": "article", "sectionId": "football", "sectionName": "Football", "webPublicationDate": "2016-06-30T21:59:39Z", "webTitle": "Portugal reach Euro 2016 semi-finals with win over Poland on penalties", "webUrl": "https://www.theguardian.com/football/2016/jun/30/poland-portugal-euro-2016-quarter-final-match-report", "apiUrl": "https://content.guardianapis.com/football/2016/jun/30/poland-portugal-euro-2016-quarter-final-match-report", "isHosted": false, "pillarId": "pillar/sport", "pillarName": "Sport"}, {"id": "football/live/2016/jun/30/poland-portugal-euro-2016-live", "type": "liveblog", "sectionId": "football", "sectionName": "Football", "webPublicationDate": "2016-06-30T21:54:04Z", "webTitle": "Portugal beat Poland on penalties to reach the semi-finals \u2013 as it happened!", "webUrl": "https://www.theguardian.com/football/live/2016/jun/30/poland-portugal-euro-2016-live", "apiUrl": "https://content.guardianapis.com/football/live/2016/jun/30/poland-portugal-euro-2016-live", "isHosted": false, "pillarId": "pillar/sport", "pillarName": "Sport"}, {"id": "football/2016/jun/30/watford-turn-down-38m-odion-ighalo-shanghai-sipg", "type": "article", "sectionId": "football", "sectionName": "Football", "webPublicationDate": "2016-06-30T21:50:43Z", "webTitle": "Watford turn down \u00a338m Shanghai SIPG offer for Odion Ighalo", "webUrl": "https://www.theguardian.com/football/2016/jun/30/watford-turn-down-38m-odion-ighalo-shanghai-sipg", "apiUrl": "https://content.guardianapis.com/football/2016/jun/30/watford-turn-down-38m-odion-ighalo-shanghai-sipg", "isHosted": false, "pillarId": "pillar/sport", "pillarName": "Sport"}, {"id": "football/2016/jun/30/us-mens-national-team-cuba-friendly", "type": "article", "sectionId": "football", "sectionName": "Football", "webPublicationDate": "2016-06-30T21:47:36Z", "webTitle": "US men's national team to travel to Cuba for historic friendly in October", "webUrl": "https://www.theguardian.com/football/2016/jun/30/us-mens-national-team-cuba-friendly", "apiUrl": "https://content.guardianapis.com/football/2016/jun/30/us-mens-national-team-cuba-friendly", "isHosted": false, "pillarId": "pillar/sport", "pillarName": "Sport"}, {"id": "football/blog/2016/jun/30/zlatan-ibrahimovic-manchester-united-transfer-jose-mourinho", "type": "article", "sectionId": "football", "sectionName": "Football", "webPublicationDate": "2016-06-30T20:40:40Z", "webTitle": "Zlatan Ibrahimovic: the ego lands and eyes fairytale end at Manchester United", "webUrl": "https://www.theguardian.com/football/blog/2016/jun/30/zlatan-ibrahimovic-manchester-united-transfer-jose-mourinho", "apiUrl": "https://content.guardianapis.com/football/blog/2016/jun/30/zlatan-ibrahimovic-manchester-united-transfer-jose-mourinho", "isHosted": false, "pillarId": "pillar/sport", "pillarName": "Sport"}, {"id": "football/2016/jun/30/wales-belgium-euro-2016-quarter-final-chris-coleman", "type": "article", "sectionId": "football", "sectionName": "Football", "webPublicationDate": "2016-06-30T18:34:18Z", "webTitle": "Chris Coleman insists Euro 2016 quarter-final not the limit for Wales", "webUrl": "https://www.theguardian.com/football/2016/jun/30/wales-belgium-euro-2016-quarter-final-chris-coleman", "apiUrl": "https://content.guardianapis.com/football/2016/jun/30/wales-belgium-euro-2016-quarter-final-chris-coleman", "isHosted": false, "pillarId": "pillar/sport", "pillarName": "Sport"}, {"id": "football/2016/jun/30/barcelona-neymar-five-year-contract", "type": "article", "sectionId": "football", "sectionName": "Football", "webPublicationDate": "2016-06-30T15:31:38Z", "webTitle": "Barcelona expect Neymar to sign five-year deal \u2018in next few days\u2019", "webUrl": "https://www.theguardian.com/football/2016/jun/30/barcelona-neymar-five-year-contract", "apiUrl": "https://content.guardianapis.com/football/2016/jun/30/barcelona-neymar-five-year-contract", "isHosted": false, "pillarId": "pillar/sport", "pillarName": "Sport"}, {"id": "football/2016/jun/30/zlatan-ibrahimovic-announces-join-manchester-united", "type": "article", "sectionId": "football", "sectionName": "Football", "webPublicationDate": "2016-06-30T15:08:05Z", "webTitle": "Manchester United chasing \u00a365m Paul Pogba after Zlatan Ibrahimovic capture", "webUrl": "https://www.theguardian.com/football/2016/jun/30/zlatan-ibrahimovic-announces-join-manchester-united", "apiUrl": "https://content.guardianapis.com/football/2016/jun/30/zlatan-ibrahimovic-announces-join-manchester-united", "isHosted": false, "pillarId": "pillar/sport", "pillarName": "Sport"}, {"id": "football/2016/jun/30/the-fiver-poland-portugal-him-euro-2016", "type": "article", "sectionId": "football", "sectionName": "Football", "webPublicationDate": "2016-06-30T14:50:08Z", "webTitle": "The Fiver | Counting the diamonds around sinks in other people\u2019s homes", "webUrl": "https://www.theguardian.com/football/2016/jun/30/the-fiver-poland-portugal-him-euro-2016", "apiUrl": "https://content.guardianapis.com/football/2016/jun/30/the-fiver-poland-portugal-him-euro-2016", "isHosted": false, "pillarId": "pillar/sport", "pillarName": "Sport"}, {"id": "football/2016/jun/30/crystal-palace-sign-andros-townsend-newcastle", "type": "article", "sectionId": "football", "sectionName": "Football", "webPublicationDate": "2016-06-30T14:18:21Z", "webTitle": "Crystal Palace set to sign Andros Townsend from Newcastle for \u00a313m", "webUrl": "https://www.theguardian.com/football/2016/jun/30/crystal-palace-sign-andros-townsend-newcastle", "apiUrl": "https://content.guardianapis.com/football/2016/jun/30/crystal-palace-sign-andros-townsend-newcastle", "isHosted": false, "pillarId": "pillar/sport", "pillarName": "Sport"}, {"id": "football/2016/jun/30/patrice-evra-france-iceland-euro-2016-quarter-final", "type": "article", "sectionId": "football", "sectionName": "Football", "webPublicationDate": "2016-06-30T14:09:40Z", "webTitle": "Patrice Evra says France cannot afford another \u2018crazy\u2019 start against Iceland", "webUrl": "https://www.theguardian.com/football/2016/jun/30/patrice-evra-france-iceland-euro-2016-quarter-final", "apiUrl": "https://content.guardianapis.com/football/2016/jun/30/patrice-evra-france-iceland-euro-2016-quarter-final", "isHosted": false, "pillarId": "pillar/sport", "pillarName": "Sport"}, {"id": "football/2016/jun/30/southampton-claude-puel-first-team-manager-appoint", "type": "article", "sectionId": "football", "sectionName": "Football", "webPublicationDate": "2016-06-30T13:08:54Z", "webTitle": "Southampton appoint Frenchman Claude Puel as manager", "webUrl": "https://www.theguardian.com/football/2016/jun/30/southampton-claude-puel-first-team-manager-appoint", "apiUrl": "https://content.guardianapis.com/football/2016/jun/30/southampton-claude-puel-first-team-manager-appoint", "isHosted": false, "pillarId": "pillar/sport", "pillarName": "Sport"}, {"id": "football/2016/jun/30/dimitri-payet-west-ham-happy-to-stay", "type": "article", "sectionId": "football", "sectionName": "Football", "webPublicationDate": "2016-06-30T12:07:49Z", "webTitle": "France\u2019s Dimitri Payet happy to stay at West Ham next season, says agent", "webUrl": "https://www.theguardian.com/football/2016/jun/30/dimitri-payet-west-ham-happy-to-stay", "apiUrl": "https://content.guardianapis.com/football/2016/jun/30/dimitri-payet-west-ham-happy-to-stay", "isHosted": false, "pillarId": "pillar/sport", "pillarName": "Sport"}, {"id": "football/blog/2016/jun/30/eden-hazard-belgium-true-greatness", "type": "article", "sectionId": "football", "sectionName": "Football", "webPublicationDate": "2016-06-30T11:41:04Z", "webTitle": "Will Eden Hazard finally turn sparkle into true greatness for Belgium? | Barney Ronay", "webUrl": "https://www.theguardian.com/football/blog/2016/jun/30/eden-hazard-belgium-true-greatness", "apiUrl": "https://content.guardianapis.com/football/blog/2016/jun/30/eden-hazard-belgium-true-greatness", "isHosted": false, "pillarId": "pillar/sport", "pillarName": "Sport"}, {"id": "football/2016/jun/30/tottenham-vincent-janssen-disappointed-az-alkmaar", "type": "article", "sectionId": "football", "sectionName": "Football", "webPublicationDate": "2016-06-30T11:24:03Z", "webTitle": "Tottenham target Vincent Janssen \u2018disappointed\u2019 \u00a316.5m bid rejected", "webUrl": "https://www.theguardian.com/football/2016/jun/30/tottenham-vincent-janssen-disappointed-az-alkmaar", "apiUrl": "https://content.guardianapis.com/football/2016/jun/30/tottenham-vincent-janssen-disappointed-az-alkmaar", "isHosted": false, "pillarId": "pillar/sport", "pillarName": "Sport"}, {"id": "football/2016/jun/30/euro-2016-quiz-players", "type": "article", "sectionId": "football", "sectionName": "Football", "webPublicationDate": "2016-06-30T10:37:27Z", "webTitle": "Euro 2016 players quiz: retired chickens, a wine merchant and a Big Ben tattoo", "webUrl": "https://www.theguardian.com/football/2016/jun/30/euro-2016-quiz-players", "apiUrl": "https://content.guardianapis.com/football/2016/jun/30/euro-2016-quiz-players", "isHosted": false, "pillarId": "pillar/sport", "pillarName": "Sport"}, {"id": "football/2016/jun/30/liverpool-mahmoud-dahoud-borussia-monchengladbach", "type": "article", "sectionId": "football", "sectionName": "Football", "webPublicationDate": "2016-06-30T10:32:46Z", "webTitle": "Liverpool face fight to sign Borussia M\u00f6nchengladbach\u2019s Mahmoud Dahoud", "webUrl": "https://www.theguardian.com/football/2016/jun/30/liverpool-mahmoud-dahoud-borussia-monchengladbach", "apiUrl": "https://content.guardianapis.com/football/2016/jun/30/liverpool-mahmoud-dahoud-borussia-monchengladbach", "isHosted": false, "pillarId": "pillar/sport", "pillarName": "Sport"}, {"id": "football/2016/jun/30/watford-liverpool-agreement-jerome-sinclair-transfer", "type": "article", "sectionId": "football", "sectionName": "Football", "webPublicationDate": "2016-06-30T09:09:49Z", "webTitle": "Watford sign Jerome Sinclair after agreeing fee with Liverpool", "webUrl": "https://www.theguardian.com/football/2016/jun/30/watford-liverpool-agreement-jerome-sinclair-transfer", "apiUrl": "https://content.guardianapis.com/football/2016/jun/30/watford-liverpool-agreement-jerome-sinclair-transfer", "isHosted": false, "pillarId": "pillar/sport", "pillarName": "Sport"}, {"id": "football/2016/jun/30/poland-players-adversity-portugal-euro-2016-quarter-final", "type": "article", "sectionId": "football", "sectionName": "Football", "webPublicationDate": "2016-06-30T09:00:08Z", "webTitle": "How Poland players overcame adversity to shake up Euro 2016 | Nick Ames", "webUrl": "https://www.theguardian.com/football/2016/jun/30/poland-players-adversity-portugal-euro-2016-quarter-final", "apiUrl": "https://content.guardianapis.com/football/2016/jun/30/poland-players-adversity-portugal-euro-2016-quarter-final", "isHosted": false, "pillarId": "pillar/sport", "pillarName": "Sport"}, {"id": "football/2016/jun/30/europa-league-season-linfield-cork-city", "type": "article", "sectionId": "football", "sectionName": "Football", "webPublicationDate": "2016-06-30T09:00:08Z", "webTitle": "Europa League season opens with cross-border showdown in Ireland", "webUrl": "https://www.theguardian.com/football/2016/jun/30/europa-league-season-linfield-cork-city", "apiUrl": "https://content.guardianapis.com/football/2016/jun/30/europa-league-season-linfield-cork-city", "isHosted": false, "pillarId": "pillar/sport", "pillarName": "Sport"}, {"id": "football/2016/jun/30/euro-2016-poland-portugal-wales-belgium-germany-italy-france-iceland", "type": "article", "sectionId": "football", "sectionName": "Football", "webPublicationDate": "2016-06-30T08:47:19Z", "webTitle": "Euro 2016 quarter-finals: who will win?", "webUrl": "https://www.theguardian.com/football/2016/jun/30/euro-2016-poland-portugal-wales-belgium-germany-italy-france-iceland", "apiUrl": "https://content.guardianapis.com/football/2016/jun/30/euro-2016-poland-portugal-wales-belgium-germany-italy-france-iceland", "isHosted": false, "pillarId": "pillar/sport", "pillarName": "Sport"}, {"id": "football/2016/jun/30/iceland-win-euro-2016-olympic-champion", "type": "article", "sectionId": "football", "sectionName": "Football", "webPublicationDate": "2016-06-30T08:26:15Z", "webTitle": "Olympic champion promises to swim around Iceland if they win Euro 2016", "webUrl": "https://www.theguardian.com/football/2016/jun/30/iceland-win-euro-2016-olympic-champion", "apiUrl": "https://content.guardianapis.com/football/2016/jun/30/iceland-win-euro-2016-olympic-champion", "isHosted": false, "pillarId": "pillar/sport", "pillarName": "Sport"}, {"id": "football/2016/jun/30/hamburg-fans-petition-sign-northern-ireland-cult-hero-will-grigg", "type": "article", "sectionId": "football", "sectionName": "Football", "webPublicationDate": "2016-06-30T08:24:35Z", "webTitle": "Hamburg fans start petition to sign Northern Ireland cult hero Will Grigg", "webUrl": "https://www.theguardian.com/football/2016/jun/30/hamburg-fans-petition-sign-northern-ireland-cult-hero-will-grigg", "apiUrl": "https://content.guardianapis.com/football/2016/jun/30/hamburg-fans-petition-sign-northern-ireland-cult-hero-will-grigg", "isHosted": false, "pillarId": "pillar/sport", "pillarName": "Sport"}, {"id": "football/2016/jun/30/football-transfer-rumours-leicesters-ngolo-kante-to-real-madrid", "type": "article", "sectionId": "football", "sectionName": "Football", "webPublicationDate": "2016-06-30T07:35:32Z", "webTitle": "Football transfer rumours: Leicester's N'Golo Kant\u00e9 to Real Madrid?", "webUrl": "https://www.theguardian.com/football/2016/jun/30/football-transfer-rumours-leicesters-ngolo-kante-to-real-madrid", "apiUrl": "https://content.guardianapis.com/football/2016/jun/30/football-transfer-rumours-leicesters-ngolo-kante-to-real-madrid", "isHosted": false, "pillarId": "pillar/sport", "pillarName": "Sport"}, {"id": "football/2016/jun/30/city-midfielder-aaron-mooy-swaps-melbourne-for-manchester", "type": "article", "sectionId": "football", "sectionName": "Football", "webPublicationDate": "2016-06-30T02:01:00Z", "webTitle": "City midfielder Aaron Mooy swaps Melbourne for Manchester", "webUrl": "https://www.theguardian.com/football/2016/jun/30/city-midfielder-aaron-mooy-swaps-melbourne-for-manchester", "apiUrl": "https://content.guardianapis.com/football/2016/jun/30/city-midfielder-aaron-mooy-swaps-melbourne-for-manchester", "isHosted": false, "pillarId": "pillar/sport", "pillarName": "Sport"}, {"id": "football/2016/jun/29/gareth-bale-wales-belgium-bogey-team-euro-2016", "type": "article", "sectionId": "football", "sectionName": "Football", "webPublicationDate": "2016-06-29T21:30:44Z", "webTitle": "Gareth Bale: we know Belgium, we might even be their bogey team", "webUrl": "https://www.theguardian.com/football/2016/jun/29/gareth-bale-wales-belgium-bogey-team-euro-2016", "apiUrl": "https://content.guardianapis.com/football/2016/jun/29/gareth-bale-wales-belgium-bogey-team-euro-2016", "isHosted": false, "pillarId": "pillar/sport", "pillarName": "Sport"}, {"id": "football/2016/jun/29/belgium-transfer-talk-marc-wilmots-euro-2016-michy-batshuayi-chelsea", "type": "article", "sectionId": "football", "sectionName": "Football", "webPublicationDate": "2016-06-29T21:30:44Z", "webTitle": "Belgium fear transfers are distracting team as Wales quarter-final looms", "webUrl": "https://www.theguardian.com/football/2016/jun/29/belgium-transfer-talk-marc-wilmots-euro-2016-michy-batshuayi-chelsea", "apiUrl": "https://content.guardianapis.com/football/2016/jun/29/belgium-transfer-talk-marc-wilmots-euro-2016-michy-batshuayi-chelsea", "isHosted": false, "pillarId": "pillar/sport", "pillarName": "Sport"}, {"id": "football/2016/jun/29/gareth-southgate-not-interested-in-succeeding-roy-hodgson-with-england", "type": "article", "sectionId": "football", "sectionName": "Football", "webPublicationDate": "2016-06-29T21:29:00Z", "webTitle": "Gareth Southgate not interested in succeeding Roy Hodgson with England", "webUrl": "https://www.theguardian.com/football/2016/jun/29/gareth-southgate-not-interested-in-succeeding-roy-hodgson-with-england", "apiUrl": "https://content.guardianapis.com/football/2016/jun/29/gareth-southgate-not-interested-in-succeeding-roy-hodgson-with-england", "isHosted": false, "pillarId": "pillar/sport", "pillarName": "Sport"}, {"id": "football/2016/jun/29/gareth-southgate-england-job-under-21s", "type": "article", "sectionId": "football", "sectionName": "Football", "webPublicationDate": "2016-06-29T21:16:00Z", "webTitle": "Gareth Southgate right to resist England job and focus on Under-21s", "webUrl": "https://www.theguardian.com/football/2016/jun/29/gareth-southgate-england-job-under-21s", "apiUrl": "https://content.guardianapis.com/football/2016/jun/29/gareth-southgate-england-job-under-21s", "isHosted": false, "pillarId": "pillar/sport", "pillarName": "Sport"}, {"id": "football/2016/jun/29/fernando-santos-portugal-adam-nawalka-poland", "type": "article", "sectionId": "football", "sectionName": "Football", "webPublicationDate": "2016-06-29T19:47:08Z", "webTitle": "Portugal\u2019s Fernando Santos feels Poland manager is playing mind games", "webUrl": "https://www.theguardian.com/football/2016/jun/29/fernando-santos-portugal-adam-nawalka-poland", "apiUrl": "https://content.guardianapis.com/football/2016/jun/29/fernando-santos-portugal-adam-nawalka-poland", "isHosted": false, "pillarId": "pillar/sport", "pillarName": "Sport"}, {"id": "football/blog/2016/jun/29/england-roy-hodgson-fa-farce-euro-2016", "type": "article", "sectionId": "football", "sectionName": "Football", "webPublicationDate": "2016-06-29T18:28:11Z", "webTitle": "French farce illustrates England\u2019s failure to move with the times | Owen Gibson", "webUrl": "https://www.theguardian.com/football/blog/2016/jun/29/england-roy-hodgson-fa-farce-euro-2016", "apiUrl": "https://content.guardianapis.com/football/blog/2016/jun/29/england-roy-hodgson-fa-farce-euro-2016", "isHosted": false, "pillarId": "pillar/sport", "pillarName": "Sport"}, {"id": "football/2016/jun/29/poland-michal-pazdan-euro-2016-portugal", "type": "article", "sectionId": "football", "sectionName": "Football", "webPublicationDate": "2016-06-29T17:53:31Z", "webTitle": "Poland and Michal Pazdan pull together for historic Euro 2016 night", "webUrl": "https://www.theguardian.com/football/2016/jun/29/poland-michal-pazdan-euro-2016-portugal", "apiUrl": "https://content.guardianapis.com/football/2016/jun/29/poland-michal-pazdan-euro-2016-portugal", "isHosted": false, "pillarId": "pillar/sport", "pillarName": "Sport"}, {"id": "football/2016/jun/29/colorado-rapids-tim-howard-mls-return", "type": "article", "sectionId": "football", "sectionName": "Football", "webPublicationDate": "2016-06-29T16:00:23Z", "webTitle": "Colorado Rapids' Tim Howard ready for MLS return: 'I just want to get out there'", "webUrl": "https://www.theguardian.com/football/2016/jun/29/colorado-rapids-tim-howard-mls-return", "apiUrl": "https://content.guardianapis.com/football/2016/jun/29/colorado-rapids-tim-howard-mls-return", "isHosted": false, "pillarId": "pillar/sport", "pillarName": "Sport"}, {"id": "football/2016/jun/29/iceland-lars-lagerback-england-job-long-shot", "type": "article", "sectionId": "football", "sectionName": "Football", "webPublicationDate": "2016-06-29T15:39:46Z", "webTitle": "Iceland\u2019s Lars Lagerback on the England job: \u2018It\u2019s a real long shot\u2019", "webUrl": "https://www.theguardian.com/football/2016/jun/29/iceland-lars-lagerback-england-job-long-shot", "apiUrl": "https://content.guardianapis.com/football/2016/jun/29/iceland-lars-lagerback-england-job-long-shot", "isHosted": false, "pillarId": "pillar/sport", "pillarName": "Sport"}, {"id": "football/2016/jun/29/england-managers-football-quiz-defeat-euro-2016-roy-hodgson", "type": "article", "sectionId": "football", "sectionName": "Football", "webPublicationDate": "2016-06-29T15:27:19Z", "webTitle": "Football quiz: how did previous England managers respond to defeat?", "webUrl": "https://www.theguardian.com/football/2016/jun/29/england-managers-football-quiz-defeat-euro-2016-roy-hodgson", "apiUrl": "https://content.guardianapis.com/football/2016/jun/29/england-managers-football-quiz-defeat-euro-2016-roy-hodgson", "isHosted": false, "pillarId": "pillar/sport", "pillarName": "Sport"}, {"id": "football/2016/jun/29/callous-indifference-to-his-achievements-at-halmstads-and-malmo", "type": "article", "sectionId": "football", "sectionName": "Football", "webPublicationDate": "2016-06-29T15:03:57Z", "webTitle": "Callous indifference to his achievements at Halmstads and Malmo", "webUrl": "https://www.theguardian.com/football/2016/jun/29/callous-indifference-to-his-achievements-at-halmstads-and-malmo", "apiUrl": "https://content.guardianapis.com/football/2016/jun/29/callous-indifference-to-his-achievements-at-halmstads-and-malmo", "isHosted": false, "pillarId": "pillar/sport", "pillarName": "Sport"}, {"id": "football/2016/jun/29/england-players-scared-euro-2016-says-fa-chairman-greg-dyke", "type": "article", "sectionId": "football", "sectionName": "Football", "webPublicationDate": "2016-06-29T14:56:37Z", "webTitle": "England players were 'scared' at Euro 2016, says FA chairman Greg Dyke", "webUrl": "https://www.theguardian.com/football/2016/jun/29/england-players-scared-euro-2016-says-fa-chairman-greg-dyke", "apiUrl": "https://content.guardianapis.com/football/2016/jun/29/england-players-scared-euro-2016-says-fa-chairman-greg-dyke", "isHosted": false, "pillarId": "pillar/sport", "pillarName": "Sport"}, {"id": "football/2016/jun/29/barcelona-lyon-samuel-umtiti-agree-deal", "type": "article", "sectionId": "football", "sectionName": "Football", "webPublicationDate": "2016-06-29T14:36:11Z", "webTitle": "Barcelona agree deal to sign Lyon\u2019s Samuel Umtiti for \u00a324.6m", "webUrl": "https://www.theguardian.com/football/2016/jun/29/barcelona-lyon-samuel-umtiti-agree-deal", "apiUrl": "https://content.guardianapis.com/football/2016/jun/29/barcelona-lyon-samuel-umtiti-agree-deal", "isHosted": false, "pillarId": "pillar/sport", "pillarName": "Sport"}, {"id": "football/2016/jun/29/euro-2016-fans-share-their-favourite-group-stage-and-second-round-moments", "type": "article", "sectionId": "football", "sectionName": "Football", "webPublicationDate": "2016-06-29T13:13:37Z", "webTitle": "Euro 2016: fans share their favourite group stage and second round moments", "webUrl": "https://www.theguardian.com/football/2016/jun/29/euro-2016-fans-share-their-favourite-group-stage-and-second-round-moments", "apiUrl": "https://content.guardianapis.com/football/2016/jun/29/euro-2016-fans-share-their-favourite-group-stage-and-second-round-moments", "isHosted": false, "pillarId": "pillar/sport", "pillarName": "Sport"}, {"id": "football/2016/jun/29/newcastle-dwight-gayle-crystal-palace-close-signing", "type": "article", "sectionId": "football", "sectionName": "Football", "webPublicationDate": "2016-06-29T12:14:24Z", "webTitle": "Newcastle close to signing Dwight Gayle from Crystal Palace for initial \u00a38.5m", "webUrl": "https://www.theguardian.com/football/2016/jun/29/newcastle-dwight-gayle-crystal-palace-close-signing", "apiUrl": "https://content.guardianapis.com/football/2016/jun/29/newcastle-dwight-gayle-crystal-palace-close-signing", "isHosted": false, "pillarId": "pillar/sport", "pillarName": "Sport"}, {"id": "football/2016/jun/29/michy-batshuayi-chelsea-belgium-euro-2016", "type": "article", "sectionId": "football", "sectionName": "Football", "webPublicationDate": "2016-06-29T11:23:02Z", "webTitle": "Michy Batshuayi\u2019s perfect audition paves way for \u00a333m Chelsea move", "webUrl": "https://www.theguardian.com/football/2016/jun/29/michy-batshuayi-chelsea-belgium-euro-2016", "apiUrl": "https://content.guardianapis.com/football/2016/jun/29/michy-batshuayi-chelsea-belgium-euro-2016", "isHosted": false, "pillarId": "pillar/sport", "pillarName": "Sport"}, {"id": "football/2016/jun/29/paul-gascoigne-stand-trial-alleged-racist-joke-comedy-show", "type": "article", "sectionId": "football", "sectionName": "Football", "webPublicationDate": "2016-06-29T10:34:34Z", "webTitle": "Paul Gascoigne to stand trial over alleged racist joke during show", "webUrl": "https://www.theguardian.com/football/2016/jun/29/paul-gascoigne-stand-trial-alleged-racist-joke-comedy-show", "apiUrl": "https://content.guardianapis.com/football/2016/jun/29/paul-gascoigne-stand-trial-alleged-racist-joke-comedy-show", "isHosted": false, "pillarId": "pillar/sport", "pillarName": "Sport"}, {"id": "football/2016/jun/29/euro-2016-power-rankings-germany-and-italy-on-top-as-england-nosedive", "type": "article", "sectionId": "football", "sectionName": "Football", "webPublicationDate": "2016-06-29T10:00:04Z", "webTitle": "Euro 2016 power rankings: Germany and Italy on top as England nosedive", "webUrl": "https://www.theguardian.com/football/2016/jun/29/euro-2016-power-rankings-germany-and-italy-on-top-as-england-nosedive", "apiUrl": "https://content.guardianapis.com/football/2016/jun/29/euro-2016-power-rankings-germany-and-italy-on-top-as-england-nosedive", "isHosted": false, "pillarId": "pillar/sport", "pillarName": "Sport"}, {"id": "football/2016/jun/29/carl-craig-head-coach-minnesota-united-mls", "type": "article", "sectionId": "football", "sectionName": "Football", "webPublicationDate": "2016-06-29T10:00:04Z", "webTitle": "Carl Craig: the man with the punk past leading Minnesota United into MLS", "webUrl": "https://www.theguardian.com/football/2016/jun/29/carl-craig-head-coach-minnesota-united-mls", "apiUrl": "https://content.guardianapis.com/football/2016/jun/29/carl-craig-head-coach-minnesota-united-mls", "isHosted": false, "pillarId": "pillar/sport", "pillarName": "Sport"}, {"id": "football/2016/jun/29/joe-hart-england-iceland-blunder-euro-2016", "type": "article", "sectionId": "football", "sectionName": "Football", "webPublicationDate": "2016-06-29T09:01:03Z", "webTitle": "Joe Hart\u2019s England place under threat after Iceland blunder", "webUrl": "https://www.theguardian.com/football/2016/jun/29/joe-hart-england-iceland-blunder-euro-2016", "apiUrl": "https://content.guardianapis.com/football/2016/jun/29/joe-hart-england-iceland-blunder-euro-2016", "isHosted": false, "pillarId": "pillar/sport", "pillarName": "Sport"}, {"id": "football/blog/2016/jun/29/euro-2016-italy-germany-group-stage-mediocrity", "type": "article", "sectionId": "football", "sectionName": "Football", "webPublicationDate": "2016-06-29T09:00:03Z", "webTitle": "Germany and Italy raise standard at Euro 2016 after group-stage mediocrity", "webUrl": "https://www.theguardian.com/football/blog/2016/jun/29/euro-2016-italy-germany-group-stage-mediocrity", "apiUrl": "https://content.guardianapis.com/football/blog/2016/jun/29/euro-2016-italy-germany-group-stage-mediocrity", "isHosted": false, "pillarId": "pillar/sport", "pillarName": "Sport"}, {"id": "football/2016/jun/29/are-england-better-off-having-tournament-games-on-bbc-or-itv", "type": "article", "sectionId": "football", "sectionName": "Football", "webPublicationDate": "2016-06-29T09:00:03Z", "webTitle": "Are England better off having tournament games on BBC or ITV? | The Knowledge", "webUrl": "https://www.theguardian.com/football/2016/jun/29/are-england-better-off-having-tournament-games-on-bbc-or-itv", "apiUrl": "https://content.guardianapis.com/football/2016/jun/29/are-england-better-off-having-tournament-games-on-bbc-or-itv", "isHosted": false, "pillarId": "pillar/sport", "pillarName": "Sport"}]}}