{"response": {"status": "ok", "userTier": "developer", "total": 87866, "startIndex": 1, "pageSize": 50, "currentPage": 1, "pages": 1758, "orderBy": "newest", "results": [{"id": "football/2012/jul/01/gary-lineker-euro-olympics-interview", "type": "article", "sectionId": "football", "sectionName": "Football", "webPublicationDate": "2012-06-30T23:04:02Z", "webTitle": "Gary Lineker: 'People have no idea how hard football is'", "webUrl": "https://www.theguardian.com/football/2012/jul/01/gary-lineker-euro-olympics-interview", "apiUrl": "https://content.guardianapis.com/football/2012/jul/01/gary-lineker-euro-olympics-interview", "isHosted": false, "pillarId": "pillar/sport", "pillarName": "Sport"}, {"id": "football/2012/jun/30/euro-2012-cesare-prandelli-italy", "type": "article", "sectionId": "football", "sectionName": "Football", "webPublicationDate": "2012-06-30T22:00:08Z", "webTitle": "Euro 2012: Cesare Prandelli restores sense of pride and power to Italy", "webUrl": "https://www.theguardian.com/football/2012/jun/30/euro-2012-cesare-prandelli-italy", "apiUrl": "https://content.guardianapis.com/football/2012/jun/30/euro-2012-cesare-prandelli-italy", "isHosted": false, "pillarId": "pillar/sport", "pillarName": "Sport"}, {"id": "football/blog/2012/jun/30/euro-2012-john-terry-england", "type": "article", "sectionId": "football", "sectionName": "Football", "webPublicationDate": "2012-06-30T22:00:04Z", "webTitle": "Euro 2012: Roy Hodgson must call time on John Terry's England career | Daniel Taylor", "webUrl": "https://www.theguardian.com/football/blog/2012/jun/30/euro-2012-john-terry-england", "apiUrl": "https://content.guardianapis.com/football/blog/2012/jun/30/euro-2012-john-terry-england", "isHosted": false, "pillarId": "pillar/sport", "pillarName": "Sport"}, {"id": "football/blog/2012/jun/30/euro-2012-spain-italy-final", "type": "article", "sectionId": "football", "sectionName": "Football", "webPublicationDate": "2012-06-30T21:59:04Z", "webTitle": "Euro 2012: Spain hope to pass into history as Italy look to Pirlo | Daniel Taylor", "webUrl": "https://www.theguardian.com/football/blog/2012/jun/30/euro-2012-spain-italy-final", "apiUrl": "https://content.guardianapis.com/football/blog/2012/jun/30/euro-2012-spain-italy-final", "isHosted": false, "pillarId": "pillar/sport", "pillarName": "Sport"}, {"id": "football/2012/jun/30/euro-2012-continental-drifter", "type": "article", "sectionId": "football", "sectionName": "Football", "webPublicationDate": "2012-06-30T21:59:02Z", "webTitle": "Euro 2012: The Continental Drifter", "webUrl": "https://www.theguardian.com/football/2012/jun/30/euro-2012-continental-drifter", "apiUrl": "https://content.guardianapis.com/football/2012/jun/30/euro-2012-continental-drifter", "isHosted": false, "pillarId": "pillar/sport", "pillarName": "Sport"}, {"id": "football/2012/jun/30/euro-2012-review", "type": "article", "sectionId": "football", "sectionName": "Football", "webPublicationDate": "2012-06-30T21:23:00Z", "webTitle": "Euro 2012: Ten things we have learned from the tournament", "webUrl": "https://www.theguardian.com/football/2012/jun/30/euro-2012-review", "apiUrl": "https://content.guardianapis.com/football/2012/jun/30/euro-2012-review", "isHosted": false, "pillarId": "pillar/sport", "pillarName": "Sport"}, {"id": "football/blog/2012/jun/30/euro-2012-italy-germany", "type": "article", "sectionId": "football", "sectionName": "Football", "webPublicationDate": "2012-06-30T21:00:01Z", "webTitle": "Euro 2012: Potent Italy may be saving their best until last | Paul Wilson", "webUrl": "https://www.theguardian.com/football/blog/2012/jun/30/euro-2012-italy-germany", "apiUrl": "https://content.guardianapis.com/football/blog/2012/jun/30/euro-2012-italy-germany", "isHosted": false, "pillarId": "pillar/sport", "pillarName": "Sport"}, {"id": "football/2012/jun/30/euro-2012-spain-italy-xavi", "type": "article", "sectionId": "football", "sectionName": "Football", "webPublicationDate": "2012-06-30T20:16:46Z", "webTitle": "Euro 2012: Spain never thought of making a pact to knock out Italy", "webUrl": "https://www.theguardian.com/football/2012/jun/30/euro-2012-spain-italy-xavi", "apiUrl": "https://content.guardianapis.com/football/2012/jun/30/euro-2012-spain-italy-xavi", "isHosted": false, "pillarId": "pillar/sport", "pillarName": "Sport"}, {"id": "football/2012/jun/30/euro-2012-controversy-italy-together", "type": "article", "sectionId": "football", "sectionName": "Football", "webPublicationDate": "2012-06-30T19:02:30Z", "webTitle": "Euro 2012: Controversy has brought the Italy squad together", "webUrl": "https://www.theguardian.com/football/2012/jun/30/euro-2012-controversy-italy-together", "apiUrl": "https://content.guardianapis.com/football/2012/jun/30/euro-2012-controversy-italy-together", "isHosted": false, "pillarId": "pillar/sport", "pillarName": "Sport"}, {"id": "football/2012/jun/30/michel-platini-euro-2020-plan", "type": "article", "sectionId": "football", "sectionName": "Football", "webPublicationDate": "2012-06-30T18:59:37Z", "webTitle": "Michel Platini floats plan for multi-country European Championship", "webUrl": "https://www.theguardian.com/football/2012/jun/30/michel-platini-euro-2020-plan", "apiUrl": "https://content.guardianapis.com/football/2012/jun/30/michel-platini-euro-2020-plan", "isHosted": false, "pillarId": "pillar/sport", "pillarName": "Sport"}, {"id": "football/blog/2012/jun/30/euro-2012-spain-boring", "type": "article", "sectionId": "football", "sectionName": "Football", "webPublicationDate": "2012-06-30T16:49:16Z", "webTitle": "Euro 2012: Spain wear tag of boring for lack of excitement and goals | Rob Smyth", "webUrl": "https://www.theguardian.com/football/blog/2012/jun/30/euro-2012-spain-boring", "apiUrl": "https://content.guardianapis.com/football/blog/2012/jun/30/euro-2012-spain-boring", "isHosted": false, "pillarId": "pillar/sport", "pillarName": "Sport"}, {"id": "football/2012/jun/30/euro-201-iker-casillas-spain-destiny", "type": "article", "sectionId": "football", "sectionName": "Football", "webPublicationDate": "2012-06-30T16:33:11Z", "webTitle": "Euro 2012: Iker Casillas unites once-divided Spain on road to destiny", "webUrl": "https://www.theguardian.com/football/2012/jun/30/euro-201-iker-casillas-spain-destiny", "apiUrl": "https://content.guardianapis.com/football/2012/jun/30/euro-201-iker-casillas-spain-destiny", "isHosted": false, "pillarId": "pillar/sport", "pillarName": "Sport"}, {"id": "football/2012/jun/30/football-championship-nottingham-forest-peterborough", "type": "article", "sectionId": "football", "sectionName": "Football", "webPublicationDate": "2012-06-30T10:34:13Z", "webTitle": "Nottingham Forest facing trouble over alleged approach to Darren Ferguson", "webUrl": "https://www.theguardian.com/football/2012/jun/30/football-championship-nottingham-forest-peterborough", "apiUrl": "https://content.guardianapis.com/football/2012/jun/30/football-championship-nottingham-forest-peterborough", "isHosted": false, "pillarId": "pillar/sport", "pillarName": "Sport"}, {"id": "sport/2012/jun/30/olympic-torch-route-west-bromwich", "type": "article", "sectionId": "sport", "sectionName": "Sport", "webPublicationDate": "2012-06-30T06:00:01Z", "webTitle": "Olympic torch route, day 43: West Bromwich's blind footballer shines for Team GB", "webUrl": "https://www.theguardian.com/sport/2012/jun/30/olympic-torch-route-west-bromwich", "apiUrl": "https://content.guardianapis.com/sport/2012/jun/30/olympic-torch-route-west-bromwich", "isHosted": false, "pillarId": "pillar/sport", "pillarName": "Sport"}, {"id": "football/2012/jun/29/euro-2012-cesare-prandelli-italy", "type": "article", "sectionId": "football", "sectionName": "Football", "webPublicationDate": "2012-06-29T22:03:02Z", "webTitle": "Euro 2012: We do not fear Spain, says Italy coach Cesare Prandelli", "webUrl": "https://www.theguardian.com/football/2012/jun/29/euro-2012-cesare-prandelli-italy", "apiUrl": "https://content.guardianapis.com/football/2012/jun/29/euro-2012-cesare-prandelli-italy", "isHosted": false, "pillarId": "pillar/sport", "pillarName": "Sport"}, {"id": "football/blog/2012/jun/29/euro-2012-spain-italy-history", "type": "article", "sectionId": "football", "sectionName": "Football", "webPublicationDate": "2012-06-29T21:47:39Z", "webTitle": "Euro 2012: Spain v Italy: a final to go down in history | Richard Williams", "webUrl": "https://www.theguardian.com/football/blog/2012/jun/29/euro-2012-spain-italy-history", "apiUrl": "https://content.guardianapis.com/football/blog/2012/jun/29/euro-2012-spain-italy-history", "isHosted": false, "pillarId": "pillar/sport", "pillarName": "Sport"}, {"id": "football/blog/2012/jun/29/euro-2012-italy-spain-final", "type": "article", "sectionId": "football", "sectionName": "Football", "webPublicationDate": "2012-06-29T21:01:01Z", "webTitle": "Euro 2012: If Italy score first, I wouldn't fancy Spain's chances | Sol Campbell", "webUrl": "https://www.theguardian.com/football/blog/2012/jun/29/euro-2012-italy-spain-final", "apiUrl": "https://content.guardianapis.com/football/blog/2012/jun/29/euro-2012-italy-spain-final", "isHosted": false, "pillarId": "pillar/sport", "pillarName": "Sport"}, {"id": "football/2012/jun/29/st-mirren-rangers-scottish-premier-division", "type": "article", "sectionId": "football", "sectionName": "Football", "webPublicationDate": "2012-06-29T20:17:15Z", "webTitle": "St Mirren to oppose Rangers' application to Scottish Premier League", "webUrl": "https://www.theguardian.com/football/2012/jun/29/st-mirren-rangers-scottish-premier-division", "apiUrl": "https://content.guardianapis.com/football/2012/jun/29/st-mirren-rangers-scottish-premier-division", "isHosted": false, "pillarId": "pillar/sport", "pillarName": "Sport"}, {"id": "football/blog/2012/jun/29/euro-2012-andres-iniesta-spain", "type": "article", "sectionId": "football", "sectionName": "Football", "webPublicationDate": "2012-06-29T18:09:35Z", "webTitle": "Euro 2012: Andr\u00e9s Iniesta \u2013 Spain's magician, escapologist and chief creator", "webUrl": "https://www.theguardian.com/football/blog/2012/jun/29/euro-2012-andres-iniesta-spain", "apiUrl": "https://content.guardianapis.com/football/blog/2012/jun/29/euro-2012-andres-iniesta-spain", "isHosted": false, "pillarId": "pillar/sport", "pillarName": "Sport"}, {"id": "football/2012/jun/29/giovani-dos-santos-leaving-tottenham", "type": "article", "sectionId": "football", "sectionName": "Football", "webPublicationDate": "2012-06-29T17:00:02Z", "webTitle": "Giovani dos\u00a0Santos leaving Tottenham for La Liga", "webUrl": "https://www.theguardian.com/football/2012/jun/29/giovani-dos-santos-leaving-tottenham", "apiUrl": "https://content.guardianapis.com/football/2012/jun/29/giovani-dos-santos-leaving-tottenham", "isHosted": false, "pillarId": "pillar/sport", "pillarName": "Sport"}, {"id": "football/blog/2012/jun/29/euro-2012-germany-losers", "type": "article", "sectionId": "football", "sectionName": "Football", "webPublicationDate": "2012-06-29T16:17:29Z", "webTitle": "Euro 2012: Schadenfreude \u2013  or how we learned to love Germany's losers | Barney Ronay", "webUrl": "https://www.theguardian.com/football/blog/2012/jun/29/euro-2012-germany-losers", "apiUrl": "https://content.guardianapis.com/football/blog/2012/jun/29/euro-2012-germany-losers", "isHosted": false, "pillarId": "pillar/sport", "pillarName": "Sport"}, {"id": "football/2012/jun/29/the-fiver-spain-italy-euro-2012", "type": "article", "sectionId": "football", "sectionName": "Football", "webPublicationDate": "2012-06-29T15:16:46Z", "webTitle": "The Fiver | It's Time to Get Jose | Jacob Steinberg", "webUrl": "https://www.theguardian.com/football/2012/jun/29/the-fiver-spain-italy-euro-2012", "apiUrl": "https://content.guardianapis.com/football/2012/jun/29/the-fiver-spain-italy-euro-2012", "isHosted": false, "pillarId": "pillar/sport", "pillarName": "Sport"}, {"id": "football/blog/2012/jun/29/euro-2012-tactics-spain-italy", "type": "article", "sectionId": "football", "sectionName": "Football", "webPublicationDate": "2012-06-29T15:12:25Z", "webTitle": "Euro 2012: The Pirlo conundrum that could be the key to the final | Michael Cox", "webUrl": "https://www.theguardian.com/football/blog/2012/jun/29/euro-2012-tactics-spain-italy", "apiUrl": "https://content.guardianapis.com/football/blog/2012/jun/29/euro-2012-tactics-spain-italy", "isHosted": false, "pillarId": "pillar/sport", "pillarName": "Sport"}, {"id": "football/video/2012/jun/29/euro-2012-spain-italy-fabregas-video", "type": "video", "sectionId": "football", "sectionName": "Football", "webPublicationDate": "2012-06-29T14:38:00Z", "webTitle": "Euro 2012: Spain have to control Italy's strikers, says Cesc F\u00e1bregas - video", "webUrl": "https://www.theguardian.com/football/video/2012/jun/29/euro-2012-spain-italy-fabregas-video", "apiUrl": "https://content.guardianapis.com/football/video/2012/jun/29/euro-2012-spain-italy-fabregas-video", "isHosted": false, "pillarId": "pillar/sport", "pillarName": "Sport"}, {"id": "commentisfree/2012/jun/29/mario-balotelli-black-italian-hero", "type": "article", "sectionId": "commentisfree", "sectionName": "Opinion", "webPublicationDate": "2012-06-29T14:37:49Z", "webTitle": "Mario Balotelli as a black Italian national hero? Long may it last | John Foot", "webUrl": "https://www.theguardian.com/commentisfree/2012/jun/29/mario-balotelli-black-italian-hero", "apiUrl": "https://content.guardianapis.com/commentisfree/2012/jun/29/mario-balotelli-black-italian-hero", "isHosted": false, "pillarId": "pillar/opinion", "pillarName": "Opinion"}, {"id": "football/2012/jun/29/euro-2012-italy-andrea-pirlo-spain-sergei-ramos", "type": "article", "sectionId": "football", "sectionName": "Football", "webPublicationDate": "2012-06-29T13:53:42Z", "webTitle": "Euro 2012: We must stop Italy's Andrea Pirlo says Spain's Sergio Ramos", "webUrl": "https://www.theguardian.com/football/2012/jun/29/euro-2012-italy-andrea-pirlo-spain-sergei-ramos", "apiUrl": "https://content.guardianapis.com/football/2012/jun/29/euro-2012-italy-andrea-pirlo-spain-sergei-ramos", "isHosted": false, "pillarId": "pillar/sport", "pillarName": "Sport"}, {"id": "football/blog/2012/jun/29/euro-2012-italy-antonio-cassano-final", "type": "article", "sectionId": "football", "sectionName": "Football", "webPublicationDate": "2012-06-29T13:06:00Z", "webTitle": "Euro 2012: Italy's Antonio Cassano has final say after nightmare ordeal | Marcus Christenson", "webUrl": "https://www.theguardian.com/football/blog/2012/jun/29/euro-2012-italy-antonio-cassano-final", "apiUrl": "https://content.guardianapis.com/football/blog/2012/jun/29/euro-2012-italy-antonio-cassano-final", "isHosted": false, "pillarId": "pillar/sport", "pillarName": "Sport"}, {"id": "football/blog/2012/jun/29/san-jose-earthquakes-la-galaxy-week-16", "type": "article", "sectionId": "football", "sectionName": "Football", "webPublicationDate": "2012-06-29T13:00:00Z", "webTitle": "MLS Week 17: fan previews | Graham Parker", "webUrl": "https://www.theguardian.com/football/blog/2012/jun/29/san-jose-earthquakes-la-galaxy-week-16", "apiUrl": "https://content.guardianapis.com/football/blog/2012/jun/29/san-jose-earthquakes-la-galaxy-week-16", "isHosted": false, "pillarId": "pillar/sport", "pillarName": "Sport"}, {"id": "football/2012/jun/29/yakubu-ayegbeni-transfer", "type": "article", "sectionId": "football", "sectionName": "Football", "webPublicationDate": "2012-06-29T12:24:09Z", "webTitle": "Yakubu Ayegbeni leaves England for Guangzhou", "webUrl": "https://www.theguardian.com/football/2012/jun/29/yakubu-ayegbeni-transfer", "apiUrl": "https://content.guardianapis.com/football/2012/jun/29/yakubu-ayegbeni-transfer", "isHosted": false, "pillarId": "pillar/sport", "pillarName": "Sport"}, {"id": "sport/blog/2012/jun/29/joy-of-six-european-championship-finals", "type": "article", "sectionId": "sport", "sectionName": "Sport", "webPublicationDate": "2012-06-29T11:35:28Z", "webTitle": "The Joy of Six: Great European Championship finals | Scott Murray", "webUrl": "https://www.theguardian.com/sport/blog/2012/jun/29/joy-of-six-european-championship-finals", "apiUrl": "https://content.guardianapis.com/sport/blog/2012/jun/29/joy-of-six-european-championship-finals", "isHosted": false, "pillarId": "pillar/sport", "pillarName": "Sport"}, {"id": "football/2012/jun/29/euro-2012-newspaper-mario-balotelli-slur", "type": "article", "sectionId": "football", "sectionName": "Football", "webPublicationDate": "2012-06-29T11:34:38Z", "webTitle": "Euro 2012: Italian newspaper under fire for Mario Balotelli slur", "webUrl": "https://www.theguardian.com/football/2012/jun/29/euro-2012-newspaper-mario-balotelli-slur", "apiUrl": "https://content.guardianapis.com/football/2012/jun/29/euro-2012-newspaper-mario-balotelli-slur", "isHosted": false, "pillarId": "pillar/sport", "pillarName": "Sport"}, {"id": "football/video/2012/jun/29/euro-2012-balotelli-germany-italy-video", "type": "video", "sectionId": "football", "sectionName": "Football", "webPublicationDate": "2012-06-29T11:10:00Z", "webTitle": "Euro 2012: Balotelli's double against Germany takes Italy to final - video", "webUrl": "https://www.theguardian.com/football/video/2012/jun/29/euro-2012-balotelli-germany-italy-video", "apiUrl": "https://content.guardianapis.com/football/video/2012/jun/29/euro-2012-balotelli-germany-italy-video", "isHosted": false, "pillarId": "pillar/sport", "pillarName": "Sport"}, {"id": "football/2012/jun/29/euro-2012-paper-review-italy-mario-balotelli", "type": "article", "sectionId": "football", "sectionName": "Football", "webPublicationDate": "2012-06-29T08:16:29Z", "webTitle": "Euro 2012 paper review: Italy hails Mario Balotelli with controversial headline", "webUrl": "https://www.theguardian.com/football/2012/jun/29/euro-2012-paper-review-italy-mario-balotelli", "apiUrl": "https://content.guardianapis.com/football/2012/jun/29/euro-2012-paper-review-italy-mario-balotelli", "isHosted": false, "pillarId": "pillar/sport", "pillarName": "Sport"}, {"id": "football/2012/jun/29/euro-2012-germany-italy-ratings", "type": "article", "sectionId": "football", "sectionName": "Football", "webPublicationDate": "2012-06-28T23:09:00Z", "webTitle": "Euro 2012: Germany v Italy player ratings", "webUrl": "https://www.theguardian.com/football/2012/jun/29/euro-2012-germany-italy-ratings", "apiUrl": "https://content.guardianapis.com/football/2012/jun/29/euro-2012-germany-italy-ratings", "isHosted": false, "pillarId": "pillar/sport", "pillarName": "Sport"}, {"id": "football/audio/2012/jun/29/euro-2012-football-daily-italy-germany", "type": "audio", "sectionId": "football", "sectionName": "Football", "webPublicationDate": "2012-06-28T23:08:00Z", "webTitle": "Euro 2012 Football Daily: Italy shock the Germans to book their place in the final", "webUrl": "https://www.theguardian.com/football/audio/2012/jun/29/euro-2012-football-daily-italy-germany", "apiUrl": "https://content.guardianapis.com/football/audio/2012/jun/29/euro-2012-football-daily-italy-germany", "isHosted": false, "pillarId": "pillar/sport", "pillarName": "Sport"}, {"id": "football/blog/2012/jun/28/euro-2012-germany-italy", "type": "article", "sectionId": "football", "sectionName": "Football", "webPublicationDate": "2012-06-28T22:20:53Z", "webTitle": "Euro 2012: Joachim's L\u00f6w's Germany condemned to follow in famous footsteps | Richard Williams", "webUrl": "https://www.theguardian.com/football/blog/2012/jun/28/euro-2012-germany-italy", "apiUrl": "https://content.guardianapis.com/football/blog/2012/jun/28/euro-2012-germany-italy", "isHosted": false, "pillarId": "pillar/sport", "pillarName": "Sport"}, {"id": "football/2012/jun/28/david-beckham-olympic-football-stuart-pearce", "type": "article", "sectionId": "football", "sectionName": "Football", "webPublicationDate": "2012-06-28T21:14:41Z", "webTitle": "Ryan Giggs wrecks David Beckham's Olympic dream", "webUrl": "https://www.theguardian.com/football/2012/jun/28/david-beckham-olympic-football-stuart-pearce", "apiUrl": "https://content.guardianapis.com/football/2012/jun/28/david-beckham-olympic-football-stuart-pearce", "isHosted": false, "pillarId": "pillar/sport", "pillarName": "Sport"}, {"id": "football/2012/jun/28/euro-2012-mario-balotelli-italy-germany", "type": "article", "sectionId": "football", "sectionName": "Football", "webPublicationDate": "2012-06-28T20:56:31Z", "webTitle": "Mario Balotelli, Italy's postman, celebrates first-class delivery", "webUrl": "https://www.theguardian.com/football/2012/jun/28/euro-2012-mario-balotelli-italy-germany", "apiUrl": "https://content.guardianapis.com/football/2012/jun/28/euro-2012-mario-balotelli-italy-germany", "isHosted": false, "pillarId": "pillar/sport", "pillarName": "Sport"}, {"id": "football/2012/jun/28/euro-2012-italy-germany-semi-final", "type": "article", "sectionId": "football", "sectionName": "Football", "webPublicationDate": "2012-06-28T20:52:58Z", "webTitle": "Germany 1-2 Italy | Euro 2012 semi-final match report", "webUrl": "https://www.theguardian.com/football/2012/jun/28/euro-2012-italy-germany-semi-final", "apiUrl": "https://content.guardianapis.com/football/2012/jun/28/euro-2012-italy-germany-semi-final", "isHosted": false, "pillarId": "pillar/sport", "pillarName": "Sport"}, {"id": "football/gallery/2012/jun/28/euro-2012-germany-italy-in-pictures", "type": "gallery", "sectionId": "football", "sectionName": "Football", "webPublicationDate": "2012-06-28T19:30:00Z", "webTitle": "Euro 2012: Germany v Italy - in pictures", "webUrl": "https://www.theguardian.com/football/gallery/2012/jun/28/euro-2012-germany-italy-in-pictures", "apiUrl": "https://content.guardianapis.com/football/gallery/2012/jun/28/euro-2012-germany-italy-in-pictures", "isHosted": false, "pillarId": "pillar/sport", "pillarName": "Sport"}, {"id": "football/2012/jun/28/rangers-scottish-premier-football-league", "type": "article", "sectionId": "football", "sectionName": "Football", "webPublicationDate": "2012-06-28T17:06:04Z", "webTitle": "Rangers may have to start again in the fourth tier", "webUrl": "https://www.theguardian.com/football/2012/jun/28/rangers-scottish-premier-football-league", "apiUrl": "https://content.guardianapis.com/football/2012/jun/28/rangers-scottish-premier-football-league", "isHosted": false, "pillarId": "pillar/sport", "pillarName": "Sport"}, {"id": "football/2012/jun/28/euro-2012-animal-pundits-germany", "type": "article", "sectionId": "football", "sectionName": "Football", "webPublicationDate": "2012-06-28T16:12:00Z", "webTitle": "Euro 2012 animal punditry is spiralling out of control, say anti-cruelty groups", "webUrl": "https://www.theguardian.com/football/2012/jun/28/euro-2012-animal-pundits-germany", "apiUrl": "https://content.guardianapis.com/football/2012/jun/28/euro-2012-animal-pundits-germany", "isHosted": false, "pillarId": "pillar/sport", "pillarName": "Sport"}, {"id": "football/blog/2012/jun/28/euro-2012-live-blog-28-june", "type": "article", "sectionId": "football", "sectionName": "Football", "webPublicationDate": "2012-06-28T15:57:09Z", "webTitle": "Euro 2012 live blog: 28 June \u2013 live! | Sachin Nakrani and Paul Doyle", "webUrl": "https://www.theguardian.com/football/blog/2012/jun/28/euro-2012-live-blog-28-june", "apiUrl": "https://content.guardianapis.com/football/blog/2012/jun/28/euro-2012-live-blog-28-june", "isHosted": false, "pillarId": "pillar/sport", "pillarName": "Sport"}, {"id": "sport/2012/jun/28/london-2012-jack-rodwell-everton-out", "type": "article", "sectionId": "sport", "sectionName": "Sport", "webPublicationDate": "2012-06-28T15:55:47Z", "webTitle": "London 2012: Everton's Jack Rodwell not selected for Olympics", "webUrl": "https://www.theguardian.com/sport/2012/jun/28/london-2012-jack-rodwell-everton-out", "apiUrl": "https://content.guardianapis.com/sport/2012/jun/28/london-2012-jack-rodwell-everton-out", "isHosted": false, "pillarId": "pillar/sport", "pillarName": "Sport"}, {"id": "football/blog/2012/jun/28/euro-2012-penalties-spain-portugal", "type": "article", "sectionId": "football", "sectionName": "Football", "webPublicationDate": "2012-06-28T15:36:33Z", "webTitle": "Euro 2012: What was going through the mind of Sergio Ramos? | Sid Lowe", "webUrl": "https://www.theguardian.com/football/blog/2012/jun/28/euro-2012-penalties-spain-portugal", "apiUrl": "https://content.guardianapis.com/football/blog/2012/jun/28/euro-2012-penalties-spain-portugal", "isHosted": false, "pillarId": "pillar/sport", "pillarName": "Sport"}, {"id": "football/blog/2012/jun/28/portland-timbers-seattle-sounders-tifo-display", "type": "article", "sectionId": "football", "sectionName": "Football", "webPublicationDate": "2012-06-28T15:02:00Z", "webTitle": "Portland Timbers' giant tifo throws down gauntlet to Seattle Sounders", "webUrl": "https://www.theguardian.com/football/blog/2012/jun/28/portland-timbers-seattle-sounders-tifo-display", "apiUrl": "https://content.guardianapis.com/football/blog/2012/jun/28/portland-timbers-seattle-sounders-tifo-display", "isHosted": false, "pillarId": "pillar/sport", "pillarName": "Sport"}, {"id": "football/2012/jun/28/the-fiver-david-beckham-olympics", "type": "article", "sectionId": "football", "sectionName": "Football", "webPublicationDate": "2012-06-28T14:58:55Z", "webTitle": "The Fiver | Bankrupt ourselves in a Greek stylee | Scott Murray", "webUrl": "https://www.theguardian.com/football/2012/jun/28/the-fiver-david-beckham-olympics", "apiUrl": "https://content.guardianapis.com/football/2012/jun/28/the-fiver-david-beckham-olympics", "isHosted": false, "pillarId": "pillar/sport", "pillarName": "Sport"}, {"id": "football/blog/2012/jun/28/euro-2012-spain-all-time-greats", "type": "article", "sectionId": "football", "sectionName": "Football", "webPublicationDate": "2012-06-28T14:23:04Z", "webTitle": "Euro 2012: Now Spain have entered the pantheon of greatness | Jonathan Wilson", "webUrl": "https://www.theguardian.com/football/blog/2012/jun/28/euro-2012-spain-all-time-greats", "apiUrl": "https://content.guardianapis.com/football/blog/2012/jun/28/euro-2012-spain-all-time-greats", "isHosted": false, "pillarId": "pillar/sport", "pillarName": "Sport"}, {"id": "football/blog/2012/jun/28/david-beckham-london-2012", "type": "article", "sectionId": "football", "sectionName": "Football", "webPublicationDate": "2012-06-28T14:10:45Z", "webTitle": "David Beckham has had his moments in the sun. It is time to move over | Louise Taylor", "webUrl": "https://www.theguardian.com/football/blog/2012/jun/28/david-beckham-london-2012", "apiUrl": "https://content.guardianapis.com/football/blog/2012/jun/28/david-beckham-london-2012", "isHosted": false, "pillarId": "pillar/sport", "pillarName": "Sport"}, {"id": "football/blog/2012/jun/28/euro-2012-live-webchat-germany-italy", "type": "article", "sectionId": "football", "sectionName": "Football", "webPublicationDate": "2012-06-28T13:23:00Z", "webTitle": "Euro 2012 live webchat: Dominic Fifield answers your questions", "webUrl": "https://www.theguardian.com/football/blog/2012/jun/28/euro-2012-live-webchat-germany-italy", "apiUrl": "https://content.guardianapis.com/football/blog/2012/jun/28/euro-2012-live-webchat-germany-italy", "isHosted": false, "pillarId": "pillar/sport", "pillarName": "Sport"}]}}