{"response": {"status": "ok", "userTier": "developer", "total": 82529, "startIndex": 1, "pageSize": 50, "currentPage": 1, "pages": 1651, "orderBy": "newest", "results": [{"id": "football/blog/2010/jul/01/ghana-world-cup", "type": "article", "sectionId": "football", "sectionName": "Football", "webPublicationDate": "2010-06-30T23:29:00Z", "webTitle": "Ghana primed for one giant leap into World Cup aristocracy | Paul Hayward", "webUrl": "https://www.theguardian.com/football/blog/2010/jul/01/ghana-world-cup", "apiUrl": "https://content.guardianapis.com/football/blog/2010/jul/01/ghana-world-cup", "isHosted": false, "pillarId": "pillar/sport", "pillarName": "Sport"}, {"id": "football/2010/jun/30/roy-hodgson-liverpool", "type": "article", "sectionId": "football", "sectionName": "Football", "webPublicationDate": "2010-06-30T23:24:00Z", "webTitle": "Roy Hodgson's choice is Liverpool \u2013 and England must wait", "webUrl": "https://www.theguardian.com/football/2010/jun/30/roy-hodgson-liverpool", "apiUrl": "https://content.guardianapis.com/football/2010/jun/30/roy-hodgson-liverpool", "isHosted": false, "pillarId": "pillar/sport", "pillarName": "Sport"}, {"id": "football/blog/2010/jun/30/world-cup-2010-south-america", "type": "article", "sectionId": "football", "sectionName": "Football", "webPublicationDate": "2010-06-30T23:12:00Z", "webTitle": "World Cup 2010: South America boosted by travel, hard work \u2026 and luck | Sean Ingle", "webUrl": "https://www.theguardian.com/football/blog/2010/jun/30/world-cup-2010-south-america", "apiUrl": "https://content.guardianapis.com/football/blog/2010/jun/30/world-cup-2010-south-america", "isHosted": false, "pillarId": "pillar/sport", "pillarName": "Sport"}, {"id": "football/quiz/2010/jul/01/football-quiz-spanish-players-england", "type": "article", "sectionId": "global", "sectionName": "Global", "webPublicationDate": "2010-06-30T23:10:00Z", "webTitle": "Football quiz: Spanish players in England", "webUrl": "https://www.theguardian.com/football/quiz/2010/jul/01/football-quiz-spanish-players-england", "apiUrl": "https://content.guardianapis.com/football/quiz/2010/jul/01/football-quiz-spanish-players-england", "isHosted": false}, {"id": "football/2010/jun/30/leighton-baines-everton", "type": "article", "sectionId": "football", "sectionName": "Football", "webPublicationDate": "2010-06-30T22:12:24Z", "webTitle": "Leighton Baines commits to Everton until 2015", "webUrl": "https://www.theguardian.com/football/2010/jun/30/leighton-baines-everton", "apiUrl": "https://content.guardianapis.com/football/2010/jun/30/leighton-baines-everton", "isHosted": false, "pillarId": "pillar/sport", "pillarName": "Sport"}, {"id": "football/2010/jun/30/fifa-australia-world-cup-bid", "type": "article", "sectionId": "football", "sectionName": "Football", "webPublicationDate": "2010-06-30T18:44:59Z", "webTitle": "Fifa investigates claims of Australian World Cup 2022 bid gifts", "webUrl": "https://www.theguardian.com/football/2010/jun/30/fifa-australia-world-cup-bid", "apiUrl": "https://content.guardianapis.com/football/2010/jun/30/fifa-australia-world-cup-bid", "isHosted": false, "pillarId": "pillar/sport", "pillarName": "Sport"}, {"id": "football/2010/jun/30/nigeria-football-team-worldcup2010", "type": "article", "sectionId": "football", "sectionName": "Football", "webPublicationDate": "2010-06-30T17:27:57Z", "webTitle": "World Cup 2010: Nigerian president suspends team after poor showing", "webUrl": "https://www.theguardian.com/football/2010/jun/30/nigeria-football-team-worldcup2010", "apiUrl": "https://content.guardianapis.com/football/2010/jun/30/nigeria-football-team-worldcup2010", "isHosted": false, "pillarId": "pillar/sport", "pillarName": "Sport"}, {"id": "football/2010/jun/30/england-future-stars-world-cup", "type": "article", "sectionId": "football", "sectionName": "Football", "webPublicationDate": "2010-06-30T16:54:40Z", "webTitle": "England's future stars - ones to watch for the 2014 World Cup squad", "webUrl": "https://www.theguardian.com/football/2010/jun/30/england-future-stars-world-cup", "apiUrl": "https://content.guardianapis.com/football/2010/jun/30/england-future-stars-world-cup", "isHosted": false, "pillarId": "pillar/sport", "pillarName": "Sport"}, {"id": "football/2010/jun/30/world-cup-england-thomas-muller", "type": "article", "sectionId": "football", "sectionName": "Football", "webPublicationDate": "2010-06-30T15:50:31Z", "webTitle": "World Cup 2010: Thomas M\u00fcller claims England not 'mentally prepared'", "webUrl": "https://www.theguardian.com/football/2010/jun/30/world-cup-england-thomas-muller", "apiUrl": "https://content.guardianapis.com/football/2010/jun/30/world-cup-england-thomas-muller", "isHosted": false, "pillarId": "pillar/sport", "pillarName": "Sport"}, {"id": "football/2010/jun/30/steven-gerrard-wayne-rooney-skills-show", "type": "article", "sectionId": "football", "sectionName": "Football", "webPublicationDate": "2010-06-30T15:46:47Z", "webTitle": "Steven Gerrard and Wayne Rooney pull out of skills show", "webUrl": "https://www.theguardian.com/football/2010/jun/30/steven-gerrard-wayne-rooney-skills-show", "apiUrl": "https://content.guardianapis.com/football/2010/jun/30/steven-gerrard-wayne-rooney-skills-show", "isHosted": false, "pillarId": "pillar/sport", "pillarName": "Sport"}, {"id": "football/blog/2010/jun/30/dunga-brazil-world-cup-2010", "type": "article", "sectionId": "football", "sectionName": "Football", "webPublicationDate": "2010-06-30T15:31:49Z", "webTitle": "World Cup 2010: Dunga may soon be on a footing with Franz Beckenbauer", "webUrl": "https://www.theguardian.com/football/blog/2010/jun/30/dunga-brazil-world-cup-2010", "apiUrl": "https://content.guardianapis.com/football/blog/2010/jun/30/dunga-brazil-world-cup-2010", "isHosted": false, "pillarId": "pillar/sport", "pillarName": "Sport"}, {"id": "football/blog/2010/jun/30/world-cup-2010-ghana-history", "type": "article", "sectionId": "football", "sectionName": "Football", "webPublicationDate": "2010-06-30T15:15:30Z", "webTitle": "World Cup 2010: Ghana ready to fulfil their destiny", "webUrl": "https://www.theguardian.com/football/blog/2010/jun/30/world-cup-2010-ghana-history", "apiUrl": "https://content.guardianapis.com/football/blog/2010/jun/30/world-cup-2010-ghana-history", "isHosted": false, "pillarId": "pillar/sport", "pillarName": "Sport"}, {"id": "football/blog/2010/jun/30/xabi-alonso-spain", "type": "article", "sectionId": "football", "sectionName": "Football", "webPublicationDate": "2010-06-30T14:59:25Z", "webTitle": "Didn't he used to be rubbish? Xabi Alonso of Spain | Harry Pearson", "webUrl": "https://www.theguardian.com/football/blog/2010/jun/30/xabi-alonso-spain", "apiUrl": "https://content.guardianapis.com/football/blog/2010/jun/30/xabi-alonso-spain", "isHosted": false, "pillarId": "pillar/sport", "pillarName": "Sport"}, {"id": "football/blog/2010/jun/30/world-cup-2010-letter-from-chile", "type": "article", "sectionId": "football", "sectionName": "Football", "webPublicationDate": "2010-06-30T13:58:00Z", "webTitle": "World Cup 2010: Chile salutes its new kids on the block", "webUrl": "https://www.theguardian.com/football/blog/2010/jun/30/world-cup-2010-letter-from-chile", "apiUrl": "https://content.guardianapis.com/football/blog/2010/jun/30/world-cup-2010-letter-from-chile", "isHosted": false, "pillarId": "pillar/sport", "pillarName": "Sport"}, {"id": "football/2010/jun/30/the-fiver-world-cup-2010", "type": "article", "sectionId": "football", "sectionName": "Football", "webPublicationDate": "2010-06-30T10:45:00Z", "webTitle": "The Fiver |  Six Pints Of Gin And Cucumber | Barry Glendenning", "webUrl": "https://www.theguardian.com/football/2010/jun/30/the-fiver-world-cup-2010", "apiUrl": "https://content.guardianapis.com/football/2010/jun/30/the-fiver-world-cup-2010", "isHosted": false, "pillarId": "pillar/sport", "pillarName": "Sport"}, {"id": "football/blog/2010/jun/29/england-fabio-capello-still-succeed", "type": "article", "sectionId": "football", "sectionName": "Football", "webPublicationDate": "2010-06-30T10:43:28Z", "webTitle": "World Cup 2010: Fabio Capello can still succeed with England | Hope Powell", "webUrl": "https://www.theguardian.com/football/blog/2010/jun/29/england-fabio-capello-still-succeed", "apiUrl": "https://content.guardianapis.com/football/blog/2010/jun/29/england-fabio-capello-still-succeed", "isHosted": false, "pillarId": "pillar/sport", "pillarName": "Sport"}, {"id": "tv-and-radio/tvandradioblog/video/2010/jun/29/shane-meadows-this-is-england-86", "type": "video", "sectionId": "tv-and-radio", "sectionName": "Television & radio", "webPublicationDate": "2010-06-30T09:09:00Z", "webTitle": "This is England 86: a trailer for Shane Meadows' debut TV drama", "webUrl": "https://www.theguardian.com/tv-and-radio/tvandradioblog/video/2010/jun/29/shane-meadows-this-is-england-86", "apiUrl": "https://content.guardianapis.com/tv-and-radio/tvandradioblog/video/2010/jun/29/shane-meadows-this-is-england-86", "isHosted": false, "pillarId": "pillar/arts", "pillarName": "Arts"}, {"id": "football/blog/2010/jun/30/world-cup-2010-live-blog", "type": "article", "sectionId": "football", "sectionName": "Football", "webPublicationDate": "2010-06-30T07:30:04Z", "webTitle": "World Cup 2010 live blog: 30 June | Sean Ingle", "webUrl": "https://www.theguardian.com/football/blog/2010/jun/30/world-cup-2010-live-blog", "apiUrl": "https://content.guardianapis.com/football/blog/2010/jun/30/world-cup-2010-live-blog", "isHosted": false, "pillarId": "pillar/sport", "pillarName": "Sport"}, {"id": "football/2010/jun/30/world-cup-2010-paper-view-england", "type": "article", "sectionId": "football", "sectionName": "Football", "webPublicationDate": "2010-06-30T07:25:03Z", "webTitle": "World Cup 2010 paper view: England players worst people in the world", "webUrl": "https://www.theguardian.com/football/2010/jun/30/world-cup-2010-paper-view-england", "apiUrl": "https://content.guardianapis.com/football/2010/jun/30/world-cup-2010-paper-view-england", "isHosted": false, "pillarId": "pillar/sport", "pillarName": "Sport"}, {"id": "football/blog/2010/jun/30/world-cup-2010-paraguay-spain", "type": "article", "sectionId": "football", "sectionName": "Football", "webPublicationDate": "2010-06-30T06:00:31Z", "webTitle": "World Cup 2010 head-to-head: Paraguay v Spain | Rupert Fryer", "webUrl": "https://www.theguardian.com/football/blog/2010/jun/30/world-cup-2010-paraguay-spain", "apiUrl": "https://content.guardianapis.com/football/blog/2010/jun/30/world-cup-2010-paraguay-spain", "isHosted": false, "pillarId": "pillar/sport", "pillarName": "Sport"}, {"id": "football/2010/jun/30/tim-dowlings-world-cup-diary", "type": "article", "sectionId": "football", "sectionName": "Football", "webPublicationDate": "2010-06-30T06:00:30Z", "webTitle": "Tim Dowling's World Cup diary", "webUrl": "https://www.theguardian.com/football/2010/jun/30/tim-dowlings-world-cup-diary", "apiUrl": "https://content.guardianapis.com/football/2010/jun/30/tim-dowlings-world-cup-diary", "isHosted": false, "pillarId": "pillar/sport", "pillarName": "Sport"}, {"id": "football/2010/jun/30/liverpool-roy-hodgson-new-manager", "type": "article", "sectionId": "football", "sectionName": "Football", "webPublicationDate": "2010-06-30T00:21:16Z", "webTitle": "Roy Hodgson set to be confirmed as Liverpool's new manager", "webUrl": "https://www.theguardian.com/football/2010/jun/30/liverpool-roy-hodgson-new-manager", "apiUrl": "https://content.guardianapis.com/football/2010/jun/30/liverpool-roy-hodgson-new-manager", "isHosted": false, "pillarId": "pillar/sport", "pillarName": "Sport"}, {"id": "football/2010/jun/30/spain-portugal-cristiano-ronaldo", "type": "article", "sectionId": "football", "sectionName": "Football", "webPublicationDate": "2010-06-30T00:13:01Z", "webTitle": "Vicente del Bosque says Spain can make history", "webUrl": "https://www.theguardian.com/football/2010/jun/30/spain-portugal-cristiano-ronaldo", "apiUrl": "https://content.guardianapis.com/football/2010/jun/30/spain-portugal-cristiano-ronaldo", "isHosted": false, "pillarId": "pillar/sport", "pillarName": "Sport"}, {"id": "football/2010/jun/30/nike-advert-cursed", "type": "article", "sectionId": "football", "sectionName": "Football", "webPublicationDate": "2010-06-29T23:11:00Z", "webTitle": "World Cup special: part six \u2013 Is the Nike TV advert cursed? | The Knowledge", "webUrl": "https://www.theguardian.com/football/2010/jun/30/nike-advert-cursed", "apiUrl": "https://content.guardianapis.com/football/2010/jun/30/nike-advert-cursed", "isHosted": false, "pillarId": "pillar/sport", "pillarName": "Sport"}, {"id": "football/quiz/2010/jun/29/football-quiz-world-cup-quarter-finals", "type": "article", "sectionId": "global", "sectionName": "Global", "webPublicationDate": "2010-06-29T23:10:29Z", "webTitle": "Football quiz: World Cup quarter-finals", "webUrl": "https://www.theguardian.com/football/quiz/2010/jun/29/football-quiz-world-cup-quarter-finals", "apiUrl": "https://content.guardianapis.com/football/quiz/2010/jun/29/football-quiz-world-cup-quarter-finals", "isHosted": false}, {"id": "football/blog/2010/jun/30/world-cup-2010-holland-brazil", "type": "article", "sectionId": "football", "sectionName": "Football", "webPublicationDate": "2010-06-29T23:05:34Z", "webTitle": "World Cup 2010 head-to-head: Holland v Brazil", "webUrl": "https://www.theguardian.com/football/blog/2010/jun/30/world-cup-2010-holland-brazil", "apiUrl": "https://content.guardianapis.com/football/blog/2010/jun/30/world-cup-2010-holland-brazil", "isHosted": false, "pillarId": "pillar/sport", "pillarName": "Sport"}, {"id": "football/2010/jun/30/hopes-fade-for-new-dawn", "type": "article", "sectionId": "football", "sectionName": "Football", "webPublicationDate": "2010-06-29T23:05:32Z", "webTitle": "Letters: Hope fades again for a bright new dawn", "webUrl": "https://www.theguardian.com/football/2010/jun/30/hopes-fade-for-new-dawn", "apiUrl": "https://content.guardianapis.com/football/2010/jun/30/hopes-fade-for-new-dawn", "isHosted": false, "pillarId": "pillar/sport", "pillarName": "Sport"}, {"id": "football/2010/jun/29/fabio-capello-roy-hodgson-england-manager", "type": "article", "sectionId": "football", "sectionName": "Football", "webPublicationDate": "2010-06-29T22:33:00Z", "webTitle": "Support for Fabio Capello grows with Roy Hodgson Liverpool bound", "webUrl": "https://www.theguardian.com/football/2010/jun/29/fabio-capello-roy-hodgson-england-manager", "apiUrl": "https://content.guardianapis.com/football/2010/jun/29/fabio-capello-roy-hodgson-england-manager", "isHosted": false, "pillarId": "pillar/sport", "pillarName": "Sport"}, {"id": "football/blog/2010/jun/29/worldcup2010-spain", "type": "article", "sectionId": "football", "sectionName": "Football", "webPublicationDate": "2010-06-29T21:36:26Z", "webTitle": "World Cup 2010: Cristiano Ronaldo's exit confirms curse of the Nike ad | Amy Lawrence", "webUrl": "https://www.theguardian.com/football/blog/2010/jun/29/worldcup2010-spain", "apiUrl": "https://content.guardianapis.com/football/blog/2010/jun/29/worldcup2010-spain", "isHosted": false, "pillarId": "pillar/sport", "pillarName": "Sport"}, {"id": "football/2010/jun/29/sepp-blatter-goalline-technology", "type": "article", "sectionId": "football", "sectionName": "Football", "webPublicationDate": "2010-06-29T21:14:53Z", "webTitle": "World Cup 2010: Sepp Blatter performs U-turn over goalline technology", "webUrl": "https://www.theguardian.com/football/2010/jun/29/sepp-blatter-goalline-technology", "apiUrl": "https://content.guardianapis.com/football/2010/jun/29/sepp-blatter-goalline-technology", "isHosted": false, "pillarId": "pillar/sport", "pillarName": "Sport"}, {"id": "football/2010/jun/29/spain-portugal-world-cup-2010-report", "type": "article", "sectionId": "football", "sectionName": "Football", "webPublicationDate": "2010-06-29T20:48:52Z", "webTitle": "Spain 1-0 Portugal | World Cup 2010 match report", "webUrl": "https://www.theguardian.com/football/2010/jun/29/spain-portugal-world-cup-2010-report", "apiUrl": "https://content.guardianapis.com/football/2010/jun/29/spain-portugal-world-cup-2010-report", "isHosted": false, "pillarId": "pillar/sport", "pillarName": "Sport"}, {"id": "football/gallery/2010/jun/29/world-cup-2010-paraguay-japan", "type": "gallery", "sectionId": "football", "sectionName": "Football", "webPublicationDate": "2010-06-29T19:51:20Z", "webTitle": "World Cup 2010: Paraguay v Japan and Spain v Portugal in pictures", "webUrl": "https://www.theguardian.com/football/gallery/2010/jun/29/world-cup-2010-paraguay-japan", "apiUrl": "https://content.guardianapis.com/football/gallery/2010/jun/29/world-cup-2010-paraguay-japan", "isHosted": false, "pillarId": "pillar/sport", "pillarName": "Sport"}, {"id": "football/2010/jun/29/fa-englandfootballteam", "type": "article", "sectionId": "football", "sectionName": "Football", "webPublicationDate": "2010-06-29T19:17:44Z", "webTitle": "Dave Richards lands on his feet and will help decide Fabio Capello's fate", "webUrl": "https://www.theguardian.com/football/2010/jun/29/fa-englandfootballteam", "apiUrl": "https://content.guardianapis.com/football/2010/jun/29/fa-englandfootballteam", "isHosted": false, "pillarId": "pillar/sport", "pillarName": "Sport"}, {"id": "football/2010/jun/29/pavlos-joseph-dressing-room-sunday-mirror", "type": "article", "sectionId": "football", "sectionName": "Football", "webPublicationDate": "2010-06-29T18:40:40Z", "webTitle": "Sunday Mirror journalist held over fan's entry into dressing room", "webUrl": "https://www.theguardian.com/football/2010/jun/29/pavlos-joseph-dressing-room-sunday-mirror", "apiUrl": "https://content.guardianapis.com/football/2010/jun/29/pavlos-joseph-dressing-room-sunday-mirror", "isHosted": false, "pillarId": "pillar/sport", "pillarName": "Sport"}, {"id": "football/blog/2010/jun/29/world-cup-2010-england-fabio-capello-italian-coaches", "type": "article", "sectionId": "football", "sectionName": "Football", "webPublicationDate": "2010-06-29T17:46:00Z", "webTitle": "Experiment with mass import of foreign expertise has run its course | Paul Hayward", "webUrl": "https://www.theguardian.com/football/blog/2010/jun/29/world-cup-2010-england-fabio-capello-italian-coaches", "apiUrl": "https://content.guardianapis.com/football/blog/2010/jun/29/world-cup-2010-england-fabio-capello-italian-coaches", "isHosted": false, "pillarId": "pillar/sport", "pillarName": "Sport"}, {"id": "football/2010/jun/29/world-cup-2010-spain-portugal-live", "type": "article", "sectionId": "football", "sectionName": "Football", "webPublicationDate": "2010-06-29T17:38:07Z", "webTitle": "World Cup 2010: Spain v Portugal - as it happened | Barry Glendenning", "webUrl": "https://www.theguardian.com/football/2010/jun/29/world-cup-2010-spain-portugal-live", "apiUrl": "https://content.guardianapis.com/football/2010/jun/29/world-cup-2010-spain-portugal-live", "isHosted": false, "pillarId": "pillar/sport", "pillarName": "Sport"}, {"id": "football/2010/jun/29/world-cup-2010-howard-webb", "type": "article", "sectionId": "football", "sectionName": "Football", "webPublicationDate": "2010-06-29T17:12:45Z", "webTitle": "World Cup 2010: Howard Webb targets final as last Englishman standing", "webUrl": "https://www.theguardian.com/football/2010/jun/29/world-cup-2010-howard-webb", "apiUrl": "https://content.guardianapis.com/football/2010/jun/29/world-cup-2010-howard-webb", "isHosted": false, "pillarId": "pillar/sport", "pillarName": "Sport"}, {"id": "football/2010/jun/29/paraguay-japan-world-cup-match-report", "type": "article", "sectionId": "football", "sectionName": "Football", "webPublicationDate": "2010-06-29T17:05:34Z", "webTitle": "Paraguay 0-0 Japan (5-3 pens) | World Cup 2010 round of 16 match report", "webUrl": "https://www.theguardian.com/football/2010/jun/29/paraguay-japan-world-cup-match-report", "apiUrl": "https://content.guardianapis.com/football/2010/jun/29/paraguay-japan-world-cup-match-report", "isHosted": false, "pillarId": "pillar/sport", "pillarName": "Sport"}, {"id": "football/2010/jun/29/sol-campbell-celtic-arsenal-free-agent", "type": "article", "sectionId": "football", "sectionName": "Football", "webPublicationDate": "2010-06-29T16:22:18Z", "webTitle": "Sol Campbell visits Celtic to see what's on offer", "webUrl": "https://www.theguardian.com/football/2010/jun/29/sol-campbell-celtic-arsenal-free-agent", "apiUrl": "https://content.guardianapis.com/football/2010/jun/29/sol-campbell-celtic-arsenal-free-agent", "isHosted": false, "pillarId": "pillar/sport", "pillarName": "Sport"}, {"id": "football/blog/2010/jun/29/world-cup-2010-uruguay-ghana", "type": "article", "sectionId": "football", "sectionName": "Football", "webPublicationDate": "2010-06-29T16:00:28Z", "webTitle": "World Cup 2010 head-to-head: Uruguay v Ghana | Paul Doyle", "webUrl": "https://www.theguardian.com/football/blog/2010/jun/29/world-cup-2010-uruguay-ghana", "apiUrl": "https://content.guardianapis.com/football/blog/2010/jun/29/world-cup-2010-uruguay-ghana", "isHosted": false, "pillarId": "pillar/sport", "pillarName": "Sport"}, {"id": "football/blog/2010/jun/29/world-cup-2010-england-return-heathrow", "type": "article", "sectionId": "football", "sectionName": "Football", "webPublicationDate": "2010-06-29T15:35:59Z", "webTitle": "World Cup 2010: England skulk home to be greeted with indifference", "webUrl": "https://www.theguardian.com/football/blog/2010/jun/29/world-cup-2010-england-return-heathrow", "apiUrl": "https://content.guardianapis.com/football/blog/2010/jun/29/world-cup-2010-england-return-heathrow", "isHosted": false, "pillarId": "pillar/sport", "pillarName": "Sport"}, {"id": "football/blog/2010/jun/29/roy-hodgson-england-manager-crisis", "type": "article", "sectionId": "football", "sectionName": "Football", "webPublicationDate": "2010-06-29T15:01:49Z", "webTitle": "Roy Hodgson could provide the solution to England's identity crisis | Richard Williams", "webUrl": "https://www.theguardian.com/football/blog/2010/jun/29/roy-hodgson-england-manager-crisis", "apiUrl": "https://content.guardianapis.com/football/blog/2010/jun/29/roy-hodgson-england-manager-crisis", "isHosted": false, "pillarId": "pillar/sport", "pillarName": "Sport"}, {"id": "football/blog/2010/jun/29/world-cup-2010-germany-argentina", "type": "article", "sectionId": "football", "sectionName": "Football", "webPublicationDate": "2010-06-29T14:15:04Z", "webTitle": "World Cup 2010 head-to-head: Germany v Argentina | Paul Wilson", "webUrl": "https://www.theguardian.com/football/blog/2010/jun/29/world-cup-2010-germany-argentina", "apiUrl": "https://content.guardianapis.com/football/blog/2010/jun/29/world-cup-2010-germany-argentina", "isHosted": false, "pillarId": "pillar/sport", "pillarName": "Sport"}, {"id": "football/blog/2010/jun/29/world-cup-brazil-julio-baptista", "type": "article", "sectionId": "football", "sectionName": "Football", "webPublicationDate": "2010-06-29T14:02:22Z", "webTitle": "Didn't he used to be rubbish? J\u00falio Baptista of Brazil | Harry Pearson", "webUrl": "https://www.theguardian.com/football/blog/2010/jun/29/world-cup-brazil-julio-baptista", "apiUrl": "https://content.guardianapis.com/football/blog/2010/jun/29/world-cup-brazil-julio-baptista", "isHosted": false, "pillarId": "pillar/sport", "pillarName": "Sport"}, {"id": "football/2010/jun/29/real-madrid-angel-di-maria", "type": "article", "sectionId": "football", "sectionName": "Football", "webPublicationDate": "2010-06-29T13:04:48Z", "webTitle": "Real Madrid agree deal for Angel di Maria, say reports", "webUrl": "https://www.theguardian.com/football/2010/jun/29/real-madrid-angel-di-maria", "apiUrl": "https://content.guardianapis.com/football/2010/jun/29/real-madrid-angel-di-maria", "isHosted": false, "pillarId": "pillar/sport", "pillarName": "Sport"}, {"id": "football/2010/jun/29/world-cup-2010-paraguay-japan-live", "type": "article", "sectionId": "football", "sectionName": "Football", "webPublicationDate": "2010-06-29T13:01:17Z", "webTitle": "World Cup 2010: Paraguay v Japan - as it happened | Scott Murray", "webUrl": "https://www.theguardian.com/football/2010/jun/29/world-cup-2010-paraguay-japan-live", "apiUrl": "https://content.guardianapis.com/football/2010/jun/29/world-cup-2010-paraguay-japan-live", "isHosted": false, "pillarId": "pillar/sport", "pillarName": "Sport"}, {"id": "football/blog/2010/jun/29/world-cup-letter-from-netherlands", "type": "article", "sectionId": "football", "sectionName": "Football", "webPublicationDate": "2010-06-29T12:56:22Z", "webTitle": "World Cup 2010: Why the Dutch aren't buying the Holland hype | Arjan Terpstra", "webUrl": "https://www.theguardian.com/football/blog/2010/jun/29/world-cup-letter-from-netherlands", "apiUrl": "https://content.guardianapis.com/football/blog/2010/jun/29/world-cup-letter-from-netherlands", "isHosted": false, "pillarId": "pillar/sport", "pillarName": "Sport"}, {"id": "media/mediamonkeyblog/2010/jun/29/the-sun-weather-england", "type": "article", "sectionId": "media", "sectionName": "Media", "webPublicationDate": "2010-06-29T12:14:30Z", "webTitle": "The Sun makes the weather over England | Media Monkey", "webUrl": "https://www.theguardian.com/media/mediamonkeyblog/2010/jun/29/the-sun-weather-england", "apiUrl": "https://content.guardianapis.com/media/mediamonkeyblog/2010/jun/29/the-sun-weather-england", "isHosted": false, "pillarId": "pillar/news", "pillarName": "News"}, {"id": "football/2010/jun/29/1", "type": "article", "sectionId": "football", "sectionName": "Football", "webPublicationDate": "2010-06-29T11:43:00Z", "webTitle": "The Fiver | The Ultimate Stickler For The Last Century's Ways; and Roy Keane | Paul Doyle", "webUrl": "https://www.theguardian.com/football/2010/jun/29/1", "apiUrl": "https://content.guardianapis.com/football/2010/jun/29/1", "isHosted": false, "pillarId": "pillar/sport", "pillarName": "Sport"}, {"id": "football/2010/jun/29/england-world-cup-fabio-capello", "type": "article", "sectionId": "football", "sectionName": "Football", "webPublicationDate": "2010-06-29T09:32:29Z", "webTitle": "England's World Cup players 'get away with murder', says Roy Keane", "webUrl": "https://www.theguardian.com/football/2010/jun/29/england-world-cup-fabio-capello", "apiUrl": "https://content.guardianapis.com/football/2010/jun/29/england-world-cup-fabio-capello", "isHosted": false, "pillarId": "pillar/sport", "pillarName": "Sport"}]}}