{"response": {"status": "ok", "userTier": "developer", "total": 21622, "startIndex": 1, "pageSize": 50, "currentPage": 1, "pages": 433, "orderBy": "newest", "results": [{"id": "lifeandstyle/wordofmouth/2015/jun/30/i-ate-sriracha-hot-sauce-on-everything-for-an-entire-day", "type": "article", "sectionId": "food", "sectionName": "Food", "webPublicationDate": "2015-06-30T10:00:52Z", "webTitle": "I ate Sriracha hot sauce on everything for an entire day", "webUrl": "https://www.theguardian.com/lifeandstyle/wordofmouth/2015/jun/30/i-ate-sriracha-hot-sauce-on-everything-for-an-entire-day", "apiUrl": "https://content.guardianapis.com/lifeandstyle/wordofmouth/2015/jun/30/i-ate-sriracha-hot-sauce-on-everything-for-an-entire-day", "isHosted": false, "pillarId": "pillar/lifestyle", "pillarName": "Lifestyle"}, {"id": "world/2015/jun/30/burma-first-kfc-rangoon-crowds-flock", "type": "article", "sectionId": "world", "sectionName": "World news", "webPublicationDate": "2015-06-30T08:08:18Z", "webTitle": "Crowds flock to Burma's first KFC", "webUrl": "https://www.theguardian.com/world/2015/jun/30/burma-first-kfc-rangoon-crowds-flock", "apiUrl": "https://content.guardianapis.com/world/2015/jun/30/burma-first-kfc-rangoon-crowds-flock", "isHosted": false, "pillarId": "pillar/news", "pillarName": "News"}, {"id": "music/musicblog/2015/jun/30/has-glastonbury-become-a-foodie-festival", "type": "article", "sectionId": "music", "sectionName": "Music", "webPublicationDate": "2015-06-30T08:00:09Z", "webTitle": "Has Glastonbury become a foodie festival?", "webUrl": "https://www.theguardian.com/music/musicblog/2015/jun/30/has-glastonbury-become-a-foodie-festival", "apiUrl": "https://content.guardianapis.com/music/musicblog/2015/jun/30/has-glastonbury-become-a-foodie-festival", "isHosted": false, "pillarId": "pillar/arts", "pillarName": "Arts"}, {"id": "lifeandstyle/australia-food-blog/2015/jun/30/spearmint-leaves-and-green-frogs-killed-off-in-allens-lollies-efficiency-drive", "type": "article", "sectionId": "lifeandstyle", "sectionName": "Life and style", "webPublicationDate": "2015-06-30T02:14:39Z", "webTitle": "Spearmint Leaves and Green Frogs killed off in Allen's lollies efficiency drive", "webUrl": "https://www.theguardian.com/lifeandstyle/australia-food-blog/2015/jun/30/spearmint-leaves-and-green-frogs-killed-off-in-allens-lollies-efficiency-drive", "apiUrl": "https://content.guardianapis.com/lifeandstyle/australia-food-blog/2015/jun/30/spearmint-leaves-and-green-frogs-killed-off-in-allens-lollies-efficiency-drive", "isHosted": false, "pillarId": "pillar/lifestyle", "pillarName": "Lifestyle"}, {"id": "lifeandstyle/2015/jun/29/usda-diet-nutrition-environment-sustainability-omega-3-beef", "type": "article", "sectionId": "lifeandstyle", "sectionName": "Life and style", "webPublicationDate": "2015-06-29T18:35:06Z", "webTitle": "How to eat healthy and save the planet", "webUrl": "https://www.theguardian.com/lifeandstyle/2015/jun/29/usda-diet-nutrition-environment-sustainability-omega-3-beef", "apiUrl": "https://content.guardianapis.com/lifeandstyle/2015/jun/29/usda-diet-nutrition-environment-sustainability-omega-3-beef", "isHosted": false, "pillarId": "pillar/lifestyle", "pillarName": "Lifestyle"}, {"id": "lifeandstyle/2015/jun/29/how-to-make-a-lunchtime-salad-exciting", "type": "article", "sectionId": "food", "sectionName": "Food", "webPublicationDate": "2015-06-29T09:00:13Z", "webTitle": "How to make a lunchtime salad exciting | The lunch box", "webUrl": "https://www.theguardian.com/lifeandstyle/2015/jun/29/how-to-make-a-lunchtime-salad-exciting", "apiUrl": "https://content.guardianapis.com/lifeandstyle/2015/jun/29/how-to-make-a-lunchtime-salad-exciting", "isHosted": false, "pillarId": "pillar/lifestyle", "pillarName": "Lifestyle"}, {"id": "lifeandstyle/australia-food-blog/2015/jun/29/spread-the-word-if-you-think-hummus-is-a-dip-youve-been-doing-it-wrong", "type": "article", "sectionId": "lifeandstyle", "sectionName": "Life and style", "webPublicationDate": "2015-06-29T03:14:45Z", "webTitle": "Spread the word: if you think hummus is a dip, you've been doing it wrong", "webUrl": "https://www.theguardian.com/lifeandstyle/australia-food-blog/2015/jun/29/spread-the-word-if-you-think-hummus-is-a-dip-youve-been-doing-it-wrong", "apiUrl": "https://content.guardianapis.com/lifeandstyle/australia-food-blog/2015/jun/29/spread-the-word-if-you-think-hummus-is-a-dip-youve-been-doing-it-wrong", "isHosted": false, "pillarId": "pillar/lifestyle", "pillarName": "Lifestyle"}, {"id": "sport/2015/jun/29/first-english-wine-served-wimbledon", "type": "article", "sectionId": "sport", "sectionName": "Sport", "webPublicationDate": "2015-06-28T23:01:10Z", "webTitle": "First serve for English wine at Wimbledon", "webUrl": "https://www.theguardian.com/sport/2015/jun/29/first-english-wine-served-wimbledon", "apiUrl": "https://content.guardianapis.com/sport/2015/jun/29/first-english-wine-served-wimbledon", "isHosted": false, "pillarId": "pillar/sport", "pillarName": "Sport"}, {"id": "travel/2015/jun/28/foodie-traveller-kampot-pepper-cambodia", "type": "article", "sectionId": "travel", "sectionName": "Travel", "webPublicationDate": "2015-06-28T05:59:10Z", "webTitle": "The foodie traveller in ... southern Cambodia", "webUrl": "https://www.theguardian.com/travel/2015/jun/28/foodie-traveller-kampot-pepper-cambodia", "apiUrl": "https://content.guardianapis.com/travel/2015/jun/28/foodie-traveller-kampot-pepper-cambodia", "isHosted": false, "pillarId": "pillar/lifestyle", "pillarName": "Lifestyle"}, {"id": "environment/2015/jun/28/can-i-eat-organic-on-a-student-budget-ethical", "type": "article", "sectionId": "environment", "sectionName": "Environment", "webPublicationDate": "2015-06-28T05:00:09Z", "webTitle": "Can I eat organic on a student budget? | Lucy Siegle", "webUrl": "https://www.theguardian.com/environment/2015/jun/28/can-i-eat-organic-on-a-student-budget-ethical", "apiUrl": "https://content.guardianapis.com/environment/2015/jun/28/can-i-eat-organic-on-a-student-budget-ethical", "isHosted": false, "pillarId": "pillar/news", "pillarName": "News"}, {"id": "lifeandstyle/2015/jun/28/bonhams-restaurant-review-jay-rayner", "type": "article", "sectionId": "food", "sectionName": "Food", "webPublicationDate": "2015-06-28T04:59:09Z", "webTitle": "Bonhams: restaurant review| Jay Rayner", "webUrl": "https://www.theguardian.com/lifeandstyle/2015/jun/28/bonhams-restaurant-review-jay-rayner", "apiUrl": "https://content.guardianapis.com/lifeandstyle/2015/jun/28/bonhams-restaurant-review-jay-rayner", "isHosted": false, "pillarId": "pillar/lifestyle", "pillarName": "Lifestyle"}, {"id": "lifeandstyle/2015/jun/28/three-lovely-bottles-of-chablis-wine-review", "type": "article", "sectionId": "food", "sectionName": "Food", "webPublicationDate": "2015-06-28T04:59:09Z", "webTitle": "Three lovely bottles of chablis | David Williams", "webUrl": "https://www.theguardian.com/lifeandstyle/2015/jun/28/three-lovely-bottles-of-chablis-wine-review", "apiUrl": "https://content.guardianapis.com/lifeandstyle/2015/jun/28/three-lovely-bottles-of-chablis-wine-review", "isHosted": false, "pillarId": "pillar/lifestyle", "pillarName": "Lifestyle"}, {"id": "music/2015/jun/27/dj-seth-troxler-glastonbury-2015-interview", "type": "article", "sectionId": "music", "sectionName": "Music", "webPublicationDate": "2015-06-27T11:49:42Z", "webTitle": "Seth Troxler at Glastonbury 2015: 'Be cool. Have a pulled pork sandwich'", "webUrl": "https://www.theguardian.com/music/2015/jun/27/dj-seth-troxler-glastonbury-2015-interview", "apiUrl": "https://content.guardianapis.com/music/2015/jun/27/dj-seth-troxler-glastonbury-2015-interview", "isHosted": false, "pillarId": "pillar/arts", "pillarName": "Arts"}, {"id": "lifeandstyle/2015/jun/27/roast-beetroot-recipes-get-ahead-sophie-missing-caroline-craig", "type": "article", "sectionId": "food", "sectionName": "Food", "webPublicationDate": "2015-06-27T11:00:01Z", "webTitle": "Four different meals from one batch of beetroot | Get ahead", "webUrl": "https://www.theguardian.com/lifeandstyle/2015/jun/27/roast-beetroot-recipes-get-ahead-sophie-missing-caroline-craig", "apiUrl": "https://content.guardianapis.com/lifeandstyle/2015/jun/27/roast-beetroot-recipes-get-ahead-sophie-missing-caroline-craig", "isHosted": false, "pillarId": "pillar/lifestyle", "pillarName": "Lifestyle"}, {"id": "lifeandstyle/2015/jun/27/veal-schnitzel-peach-galette-recipes-thomasina-miers", "type": "article", "sectionId": "food", "sectionName": "Food", "webPublicationDate": "2015-06-27T07:00:08Z", "webTitle": "The weekend cook: Thomasina Miers\u2019 recipes for veal schnitzel with tomato salad and peach, basil and vanilla galette", "webUrl": "https://www.theguardian.com/lifeandstyle/2015/jun/27/veal-schnitzel-peach-galette-recipes-thomasina-miers", "apiUrl": "https://content.guardianapis.com/lifeandstyle/2015/jun/27/veal-schnitzel-peach-galette-recipes-thomasina-miers", "isHosted": false, "pillarId": "pillar/lifestyle", "pillarName": "Lifestyle"}, {"id": "lifeandstyle/2015/jun/27/new-wellness-bloggers-food-drink-hadley-freeman", "type": "article", "sectionId": "lifeandstyle", "sectionName": "Life and style", "webPublicationDate": "2015-06-27T07:00:08Z", "webTitle": "Green is the new black: the unstoppable rise of the healthy-eating guru", "webUrl": "https://www.theguardian.com/lifeandstyle/2015/jun/27/new-wellness-bloggers-food-drink-hadley-freeman", "apiUrl": "https://content.guardianapis.com/lifeandstyle/2015/jun/27/new-wellness-bloggers-food-drink-hadley-freeman", "isHosted": false, "pillarId": "pillar/lifestyle", "pillarName": "Lifestyle"}, {"id": "money/2015/jun/26/supermarket-meal-deals-lunchtime-offers-good-value", "type": "article", "sectionId": "money", "sectionName": "Money", "webPublicationDate": "2015-06-27T06:00:00Z", "webTitle": "Do supermarket meal deals cut the mustard?", "webUrl": "https://www.theguardian.com/money/2015/jun/26/supermarket-meal-deals-lunchtime-offers-good-value", "apiUrl": "https://content.guardianapis.com/money/2015/jun/26/supermarket-meal-deals-lunchtime-offers-good-value", "isHosted": false, "pillarId": "pillar/lifestyle", "pillarName": "Lifestyle"}, {"id": "travel/2015/jun/27/marghera-venice-expo-aquae-italy", "type": "article", "sectionId": "travel", "sectionName": "Travel", "webPublicationDate": "2015-06-27T05:59:07Z", "webTitle": "Take a break from Venice \u2013 across the lagoon in the garden city of Marghera", "webUrl": "https://www.theguardian.com/travel/2015/jun/27/marghera-venice-expo-aquae-italy", "apiUrl": "https://content.guardianapis.com/travel/2015/jun/27/marghera-venice-expo-aquae-italy", "isHosted": false, "pillarId": "pillar/lifestyle", "pillarName": "Lifestyle"}, {"id": "lifeandstyle/2015/jun/27/family-life-grandpas-lucky-escape-just-who-is-the-five-oclock-hero-and-mums-bread-pudding", "type": "article", "sectionId": "lifeandstyle", "sectionName": "Life and style", "webPublicationDate": "2015-06-27T05:45:07Z", "webTitle": "Family life: Grandpa\u2019s lucky escape, Just Who is the Five O\u2019Clock Hero? and Mum\u2019s bread pudding", "webUrl": "https://www.theguardian.com/lifeandstyle/2015/jun/27/family-life-grandpas-lucky-escape-just-who-is-the-five-oclock-hero-and-mums-bread-pudding", "apiUrl": "https://content.guardianapis.com/lifeandstyle/2015/jun/27/family-life-grandpas-lucky-escape-just-who-is-the-five-oclock-hero-and-mums-bread-pudding", "isHosted": false, "pillarId": "pillar/lifestyle", "pillarName": "Lifestyle"}, {"id": "lifeandstyle/2015/jun/27/salad-dressings-recipe-swap-raspberries-peanut-butter-miso", "type": "article", "sectionId": "food", "sectionName": "Food", "webPublicationDate": "2015-06-27T05:00:07Z", "webTitle": "Readers\u2019 recipe swap: dressings | Eve O\u2019Sullivan", "webUrl": "https://www.theguardian.com/lifeandstyle/2015/jun/27/salad-dressings-recipe-swap-raspberries-peanut-butter-miso", "apiUrl": "https://content.guardianapis.com/lifeandstyle/2015/jun/27/salad-dressings-recipe-swap-raspberries-peanut-butter-miso", "isHosted": false, "pillarId": "pillar/lifestyle", "pillarName": "Lifestyle"}, {"id": "lifeandstyle/2015/jun/27/maya-angelou-sausage-and-greens-breakfast-recipe", "type": "article", "sectionId": "lifeandstyle", "sectionName": "Life and style", "webPublicationDate": "2015-06-27T05:00:06Z", "webTitle": "Breakfast of champions: Maya Angelou\u2019s sausage and greens", "webUrl": "https://www.theguardian.com/lifeandstyle/2015/jun/27/maya-angelou-sausage-and-greens-breakfast-recipe", "apiUrl": "https://content.guardianapis.com/lifeandstyle/2015/jun/27/maya-angelou-sausage-and-greens-breakfast-recipe", "isHosted": false, "pillarId": "pillar/lifestyle", "pillarName": "Lifestyle"}, {"id": "lifeandstyle/2015/jun/27/fruit-tart-recipes-peach-black-pepper-strawberry-vanilla-custard", "type": "article", "sectionId": "food", "sectionName": "Food", "webPublicationDate": "2015-06-27T04:59:06Z", "webTitle": "The art of tarts: recipes to make the most of your fruit | Ruby Tandoh", "webUrl": "https://www.theguardian.com/lifeandstyle/2015/jun/27/fruit-tart-recipes-peach-black-pepper-strawberry-vanilla-custard", "apiUrl": "https://content.guardianapis.com/lifeandstyle/2015/jun/27/fruit-tart-recipes-peach-black-pepper-strawberry-vanilla-custard", "isHosted": false, "pillarId": "pillar/lifestyle", "pillarName": "Lifestyle"}, {"id": "sustainable-business/2015/jun/26/packaged-food-organic-natural-general-mills-kraft-campbells", "type": "article", "sectionId": "sustainable-business", "sectionName": "Guardian Sustainable Business", "webPublicationDate": "2015-06-26T18:17:12Z", "webTitle": "Big food is going green, but will consumers buy in?", "webUrl": "https://www.theguardian.com/sustainable-business/2015/jun/26/packaged-food-organic-natural-general-mills-kraft-campbells", "apiUrl": "https://content.guardianapis.com/sustainable-business/2015/jun/26/packaged-food-organic-natural-general-mills-kraft-campbells", "isHosted": false}, {"id": "stage/2015/jun/26/jules-wright", "type": "article", "sectionId": "stage", "sectionName": "Stage", "webPublicationDate": "2015-06-26T17:09:28Z", "webTitle": "Jules Wright obituary", "webUrl": "https://www.theguardian.com/stage/2015/jun/26/jules-wright", "apiUrl": "https://content.guardianapis.com/stage/2015/jun/26/jules-wright", "isHosted": false, "pillarId": "pillar/arts", "pillarName": "Arts"}, {"id": "music/2015/jun/26/tim-burgess-glastonbury-2015-morrissey-charlatans-meat", "type": "article", "sectionId": "music", "sectionName": "Music", "webPublicationDate": "2015-06-26T16:43:11Z", "webTitle": "Tim Burgess at Glastonbury 2015: 'Morrissey is right \u2013 meat is murder'", "webUrl": "https://www.theguardian.com/music/2015/jun/26/tim-burgess-glastonbury-2015-morrissey-charlatans-meat", "apiUrl": "https://content.guardianapis.com/music/2015/jun/26/tim-burgess-glastonbury-2015-morrissey-charlatans-meat", "isHosted": false, "pillarId": "pillar/arts", "pillarName": "Arts"}, {"id": "lifeandstyle/2015/jun/26/strawberries-cream-gin-cocktail-recipe-ethicurean", "type": "article", "sectionId": "food", "sectionName": "Food", "webPublicationDate": "2015-06-26T16:00:00Z", "webTitle": "The good mixer: strawberries and cream (with gin) cocktail recipe", "webUrl": "https://www.theguardian.com/lifeandstyle/2015/jun/26/strawberries-cream-gin-cocktail-recipe-ethicurean", "apiUrl": "https://content.guardianapis.com/lifeandstyle/2015/jun/26/strawberries-cream-gin-cocktail-recipe-ethicurean", "isHosted": false, "pillarId": "pillar/lifestyle", "pillarName": "Lifestyle"}, {"id": "music/2015/jun/26/fight-for-britains-nightlife-police-council-strangling-night-time-economy", "type": "article", "sectionId": "music", "sectionName": "Music", "webPublicationDate": "2015-06-26T15:00:11Z", "webTitle": "End of the party: how police and councils are calling time on Britain\u2019s nightlife", "webUrl": "https://www.theguardian.com/music/2015/jun/26/fight-for-britains-nightlife-police-council-strangling-night-time-economy", "apiUrl": "https://content.guardianapis.com/music/2015/jun/26/fight-for-britains-nightlife-police-council-strangling-night-time-economy", "isHosted": false, "pillarId": "pillar/arts", "pillarName": "Arts"}, {"id": "lifeandstyle/2015/jun/26/duke-william-ickham-compasses-crundale-restaurant-review-marina-oloughlin", "type": "article", "sectionId": "lifeandstyle", "sectionName": "Life and style", "webPublicationDate": "2015-06-26T13:29:04Z", "webTitle": "The Duke William, Ickham, and The Compasses, Crundale, Kent \u2013 restaurant review", "webUrl": "https://www.theguardian.com/lifeandstyle/2015/jun/26/duke-william-ickham-compasses-crundale-restaurant-review-marina-oloughlin", "apiUrl": "https://content.guardianapis.com/lifeandstyle/2015/jun/26/duke-william-ickham-compasses-crundale-restaurant-review-marina-oloughlin", "isHosted": false, "pillarId": "pillar/lifestyle", "pillarName": "Lifestyle"}, {"id": "lifeandstyle/2015/jun/26/april-bloomfield-final-meal-last-bites", "type": "article", "sectionId": "food", "sectionName": "Food", "webPublicationDate": "2015-06-26T11:00:07Z", "webTitle": "'I\u2019d go to town on the pudding': April Bloomfield\u2019s final meal | Last bites", "webUrl": "https://www.theguardian.com/lifeandstyle/2015/jun/26/april-bloomfield-final-meal-last-bites", "apiUrl": "https://content.guardianapis.com/lifeandstyle/2015/jun/26/april-bloomfield-final-meal-last-bites", "isHosted": false, "pillarId": "pillar/lifestyle", "pillarName": "Lifestyle"}, {"id": "lifeandstyle/2015/jun/26/coconut-fried-chicken-recipe-colombia-feasting-henry-dimbleby-jane-baxter", "type": "article", "sectionId": "food", "sectionName": "Food", "webPublicationDate": "2015-06-26T11:00:06Z", "webTitle": "Coconut-fried chicken recipe for a succulent group supper | Feasting", "webUrl": "https://www.theguardian.com/lifeandstyle/2015/jun/26/coconut-fried-chicken-recipe-colombia-feasting-henry-dimbleby-jane-baxter", "apiUrl": "https://content.guardianapis.com/lifeandstyle/2015/jun/26/coconut-fried-chicken-recipe-colombia-feasting-henry-dimbleby-jane-baxter", "isHosted": false, "pillarId": "pillar/lifestyle", "pillarName": "Lifestyle"}, {"id": "lifeandstyle/2015/jun/26/bourbons-british-roots-history-henry-jeffreys-empire-of-drinks", "type": "article", "sectionId": "food", "sectionName": "Food", "webPublicationDate": "2015-06-26T11:00:06Z", "webTitle": "Bourbon owes a debt to its British roots | Empire of Drinks", "webUrl": "https://www.theguardian.com/lifeandstyle/2015/jun/26/bourbons-british-roots-history-henry-jeffreys-empire-of-drinks", "apiUrl": "https://content.guardianapis.com/lifeandstyle/2015/jun/26/bourbons-british-roots-history-henry-jeffreys-empire-of-drinks", "isHosted": false, "pillarId": "pillar/lifestyle", "pillarName": "Lifestyle"}, {"id": "lifeandstyle/wordofmouth/2015/jun/26/burger-with-kitchen-sink-and-quebecois-dumplings-pick-of-the-food-web", "type": "article", "sectionId": "lifeandstyle", "sectionName": "Life and style", "webPublicationDate": "2015-06-26T07:10:01Z", "webTitle": "Burger with kitchen sink, and Quebecois dumplings \u2013 pick of the food web", "webUrl": "https://www.theguardian.com/lifeandstyle/wordofmouth/2015/jun/26/burger-with-kitchen-sink-and-quebecois-dumplings-pick-of-the-food-web", "apiUrl": "https://content.guardianapis.com/lifeandstyle/wordofmouth/2015/jun/26/burger-with-kitchen-sink-and-quebecois-dumplings-pick-of-the-food-web", "isHosted": false, "pillarId": "pillar/lifestyle", "pillarName": "Lifestyle"}, {"id": "lifeandstyle/australia-food-blog/2015/jun/26/so-long-sizzler-your-all-you-can-eat-cheese-toast-made-me-so-happy", "type": "article", "sectionId": "lifeandstyle", "sectionName": "Life and style", "webPublicationDate": "2015-06-26T06:29:10Z", "webTitle": "So long, Sizzler \u2013 your all-you-can-eat cheese toast made me so happy", "webUrl": "https://www.theguardian.com/lifeandstyle/australia-food-blog/2015/jun/26/so-long-sizzler-your-all-you-can-eat-cheese-toast-made-me-so-happy", "apiUrl": "https://content.guardianapis.com/lifeandstyle/australia-food-blog/2015/jun/26/so-long-sizzler-your-all-you-can-eat-cheese-toast-made-me-so-happy", "isHosted": false, "pillarId": "pillar/lifestyle", "pillarName": "Lifestyle"}, {"id": "music/2015/jun/25/readers-recommend-songs-from-or-about-canada", "type": "article", "sectionId": "music", "sectionName": "Music", "webPublicationDate": "2015-06-25T19:00:10Z", "webTitle": "Readers recommend: songs from or about Canada", "webUrl": "https://www.theguardian.com/music/2015/jun/25/readers-recommend-songs-from-or-about-canada", "apiUrl": "https://content.guardianapis.com/music/2015/jun/25/readers-recommend-songs-from-or-about-canada", "isHosted": false, "pillarId": "pillar/arts", "pillarName": "Arts"}, {"id": "lifeandstyle/2015/jun/25/english-sparkling-wine-review-summer-2015-fiona-beckett", "type": "article", "sectionId": "food", "sectionName": "Food", "webPublicationDate": "2015-06-25T16:00:06Z", "webTitle": "Wine: English fizz for summer", "webUrl": "https://www.theguardian.com/lifeandstyle/2015/jun/25/english-sparkling-wine-review-summer-2015-fiona-beckett", "apiUrl": "https://content.guardianapis.com/lifeandstyle/2015/jun/25/english-sparkling-wine-review-summer-2015-fiona-beckett", "isHosted": false, "pillarId": "pillar/lifestyle", "pillarName": "Lifestyle"}, {"id": "world/2015/jun/25/solidarity-fridge-spanish-town-cut-food-waste-galdakao", "type": "article", "sectionId": "world", "sectionName": "World news", "webPublicationDate": "2015-06-25T14:17:36Z", "webTitle": "The solidarity fridge: Spanish town's cool way to cut food waste", "webUrl": "https://www.theguardian.com/world/2015/jun/25/solidarity-fridge-spanish-town-cut-food-waste-galdakao", "apiUrl": "https://content.guardianapis.com/world/2015/jun/25/solidarity-fridge-spanish-town-cut-food-waste-galdakao", "isHosted": false, "pillarId": "pillar/news", "pillarName": "News"}, {"id": "lifeandstyle/2015/jun/25/uzbek-duck-pilaf-plov-recipe", "type": "article", "sectionId": "lifeandstyle", "sectionName": "Life and style", "webPublicationDate": "2015-06-25T11:29:01Z", "webTitle": "My babushka's Uzbek duck and rice recipe | Cook residency", "webUrl": "https://www.theguardian.com/lifeandstyle/2015/jun/25/uzbek-duck-pilaf-plov-recipe", "apiUrl": "https://content.guardianapis.com/lifeandstyle/2015/jun/25/uzbek-duck-pilaf-plov-recipe", "isHosted": false, "pillarId": "pillar/lifestyle", "pillarName": "Lifestyle"}, {"id": "lifeandstyle/2015/jun/25/crowdfunding-weird-wonderful-food-projects", "type": "article", "sectionId": "food", "sectionName": "Food", "webPublicationDate": "2015-06-25T06:10:10Z", "webTitle": "Foodfunding: Weird and wonderful culinary projects that need your money", "webUrl": "https://www.theguardian.com/lifeandstyle/2015/jun/25/crowdfunding-weird-wonderful-food-projects", "apiUrl": "https://content.guardianapis.com/lifeandstyle/2015/jun/25/crowdfunding-weird-wonderful-food-projects", "isHosted": false, "pillarId": "pillar/lifestyle", "pillarName": "Lifestyle"}, {"id": "lifeandstyle/australia-food-blog/2015/jun/25/broadsheet-resturant-turns-reviews-into-reality-review", "type": "article", "sectionId": "lifeandstyle", "sectionName": "Life and style", "webPublicationDate": "2015-06-25T04:48:53Z", "webTitle": "Broadsheet restaurant turns reviews into reality \u2013 review", "webUrl": "https://www.theguardian.com/lifeandstyle/australia-food-blog/2015/jun/25/broadsheet-resturant-turns-reviews-into-reality-review", "apiUrl": "https://content.guardianapis.com/lifeandstyle/australia-food-blog/2015/jun/25/broadsheet-resturant-turns-reviews-into-reality-review", "isHosted": false, "pillarId": "pillar/lifestyle", "pillarName": "Lifestyle"}, {"id": "lifeandstyle/2015/jun/24/recipe-swap-fortified-wine", "type": "article", "sectionId": "food", "sectionName": "Food", "webPublicationDate": "2015-06-24T15:30:55Z", "webTitle": "Recipe swap: fortified wine", "webUrl": "https://www.theguardian.com/lifeandstyle/2015/jun/24/recipe-swap-fortified-wine", "apiUrl": "https://content.guardianapis.com/lifeandstyle/2015/jun/24/recipe-swap-fortified-wine", "isHosted": false, "pillarId": "pillar/lifestyle", "pillarName": "Lifestyle"}, {"id": "lifeandstyle/2015/jun/24/kitchen-gadgets-review-mr-tea-fred", "type": "article", "sectionId": "food", "sectionName": "Food", "webPublicationDate": "2015-06-24T14:54:00Z", "webTitle": "Kitchen gadgets review: Mr Tea \u2013 he's gently urinating in my cuppa", "webUrl": "https://www.theguardian.com/lifeandstyle/2015/jun/24/kitchen-gadgets-review-mr-tea-fred", "apiUrl": "https://content.guardianapis.com/lifeandstyle/2015/jun/24/kitchen-gadgets-review-mr-tea-fred", "isHosted": false, "pillarId": "pillar/lifestyle", "pillarName": "Lifestyle"}, {"id": "lifeandstyle/2015/jun/24/horse-chestnuts-find-a-use", "type": "article", "sectionId": "lifeandstyle", "sectionName": "Life and style", "webPublicationDate": "2015-06-24T14:05:02Z", "webTitle": "Surely there must be a use for horse chestnuts?", "webUrl": "https://www.theguardian.com/lifeandstyle/2015/jun/24/horse-chestnuts-find-a-use", "apiUrl": "https://content.guardianapis.com/lifeandstyle/2015/jun/24/horse-chestnuts-find-a-use", "isHosted": false, "pillarId": "pillar/lifestyle", "pillarName": "Lifestyle"}, {"id": "travel/2015/jun/24/el-hornero-restaurant-tres-bocas-buenos-aires-argentina", "type": "article", "sectionId": "travel", "sectionName": "Travel", "webPublicationDate": "2015-06-24T12:45:00Z", "webTitle": "El Hornero restaurant, Tres Bocas island, near Buenos Aires", "webUrl": "https://www.theguardian.com/travel/2015/jun/24/el-hornero-restaurant-tres-bocas-buenos-aires-argentina", "apiUrl": "https://content.guardianapis.com/travel/2015/jun/24/el-hornero-restaurant-tres-bocas-buenos-aires-argentina", "isHosted": false, "pillarId": "pillar/lifestyle", "pillarName": "Lifestyle"}, {"id": "lifeandstyle/2015/jun/24/marmite-launch-travel-size-jars", "type": "article", "sectionId": "travel", "sectionName": "Travel", "webPublicationDate": "2015-06-24T11:59:28Z", "webTitle": "Marmite launch travel-size jars \u2013 a case of spreading the love (or hate)", "webUrl": "https://www.theguardian.com/lifeandstyle/2015/jun/24/marmite-launch-travel-size-jars", "apiUrl": "https://content.guardianapis.com/lifeandstyle/2015/jun/24/marmite-launch-travel-size-jars", "isHosted": false, "pillarId": "pillar/lifestyle", "pillarName": "Lifestyle"}, {"id": "lifeandstyle/2015/jun/24/how-make-perfect-blondies-felicity-cloake", "type": "article", "sectionId": "food", "sectionName": "Food", "webPublicationDate": "2015-06-24T10:57:26Z", "webTitle": "How to make the perfect blondies", "webUrl": "https://www.theguardian.com/lifeandstyle/2015/jun/24/how-make-perfect-blondies-felicity-cloake", "apiUrl": "https://content.guardianapis.com/lifeandstyle/2015/jun/24/how-make-perfect-blondies-felicity-cloake", "isHosted": false, "pillarId": "pillar/lifestyle", "pillarName": "Lifestyle"}, {"id": "music/2015/jun/24/queen-bohemian-rhapsody-lager-40-anniversary", "type": "article", "sectionId": "music", "sectionName": "Music", "webPublicationDate": "2015-06-24T07:18:10Z", "webTitle": "Queen launch their own lager", "webUrl": "https://www.theguardian.com/music/2015/jun/24/queen-bohemian-rhapsody-lager-40-anniversary", "apiUrl": "https://content.guardianapis.com/music/2015/jun/24/queen-bohemian-rhapsody-lager-40-anniversary", "isHosted": false, "pillarId": "pillar/arts", "pillarName": "Arts"}, {"id": "travel/2015/jun/24/dreamland-margate-kent-fairground-theme-park", "type": "article", "sectionId": "travel", "sectionName": "Travel", "webPublicationDate": "2015-06-24T05:30:03Z", "webTitle": "Margate\u2019s Dreamland is back from the dead", "webUrl": "https://www.theguardian.com/travel/2015/jun/24/dreamland-margate-kent-fairground-theme-park", "apiUrl": "https://content.guardianapis.com/travel/2015/jun/24/dreamland-margate-kent-fairground-theme-park", "isHosted": false, "pillarId": "pillar/lifestyle", "pillarName": "Lifestyle"}, {"id": "lifeandstyle/australia-food-blog/2015/jun/24/culinary-comeback-its-time-to-reheat-instant-noodles", "type": "article", "sectionId": "lifeandstyle", "sectionName": "Life and style", "webPublicationDate": "2015-06-24T01:49:24Z", "webTitle": "Culinary comeback: it's time to reheat instant noodles", "webUrl": "https://www.theguardian.com/lifeandstyle/australia-food-blog/2015/jun/24/culinary-comeback-its-time-to-reheat-instant-noodles", "apiUrl": "https://content.guardianapis.com/lifeandstyle/australia-food-blog/2015/jun/24/culinary-comeback-its-time-to-reheat-instant-noodles", "isHosted": false, "pillarId": "pillar/lifestyle", "pillarName": "Lifestyle"}, {"id": "commentisfree/2015/jun/23/ferrero-rocher-ad-spoil-us-now", "type": "article", "sectionId": "commentisfree", "sectionName": "Opinion", "webPublicationDate": "2015-06-23T18:00:29Z", "webTitle": "Twenty years after the Ferrero Rocher ad, who will spoil us now? | Catherine Shoard", "webUrl": "https://www.theguardian.com/commentisfree/2015/jun/23/ferrero-rocher-ad-spoil-us-now", "apiUrl": "https://content.guardianapis.com/commentisfree/2015/jun/23/ferrero-rocher-ad-spoil-us-now", "isHosted": false, "pillarId": "pillar/opinion", "pillarName": "Opinion"}, {"id": "sustainable-business/2015/jun/23/artificial-ingredients-synthetics-coke-cheetos-coca-cola-nestle-kraft-hershey", "type": "article", "sectionId": "sustainable-business", "sectionName": "Guardian Sustainable Business", "webPublicationDate": "2015-06-23T17:14:36Z", "webTitle": "No artificial ingredients: what it takes to get synthetics out of Coke and Cheetos", "webUrl": "https://www.theguardian.com/sustainable-business/2015/jun/23/artificial-ingredients-synthetics-coke-cheetos-coca-cola-nestle-kraft-hershey", "apiUrl": "https://content.guardianapis.com/sustainable-business/2015/jun/23/artificial-ingredients-synthetics-coke-cheetos-coca-cola-nestle-kraft-hershey", "isHosted": false}]}}