{"response": {"status": "ok", "userTier": "developer", "total": 92084, "startIndex": 1, "pageSize": 50, "currentPage": 1, "pages": 1842, "orderBy": "newest", "results": [{"id": "football/blog/2014/jul/01/algeria-germany-world-cup-last-16-disgrace-of-gijon", "type": "article", "sectionId": "football", "sectionName": "Football", "webPublicationDate": "2014-06-30T23:15:12Z", "webTitle": "Algeria fail to avenge Disgrace of Gij\u00f3n against Germany | John Ashdown", "webUrl": "https://www.theguardian.com/football/blog/2014/jul/01/algeria-germany-world-cup-last-16-disgrace-of-gijon", "apiUrl": "https://content.guardianapis.com/football/blog/2014/jul/01/algeria-germany-world-cup-last-16-disgrace-of-gijon", "isHosted": false, "pillarId": "pillar/sport", "pillarName": "Sport"}, {"id": "football/gallery/2014/jul/01/hulk-the-gallery-world-cup-2014-brazil-football", "type": "gallery", "sectionId": "football", "sectionName": "Football", "webPublicationDate": "2014-06-30T23:05:00Z", "webTitle": "Hulk | The Gallery", "webUrl": "https://www.theguardian.com/football/gallery/2014/jul/01/hulk-the-gallery-world-cup-2014-brazil-football", "apiUrl": "https://content.guardianapis.com/football/gallery/2014/jul/01/hulk-the-gallery-world-cup-2014-brazil-football", "isHosted": false, "pillarId": "pillar/sport", "pillarName": "Sport"}, {"id": "football/2014/jun/30/germany-v-algeria-world-cup-2014-live", "type": "liveblog", "sectionId": "football", "sectionName": "Football", "webPublicationDate": "2014-06-30T22:43:47Z", "webTitle": "Germany 2-1 Algeria: World Cup 2014 \u2013 as it happened | Barry Glendenning", "webUrl": "https://www.theguardian.com/football/2014/jun/30/germany-v-algeria-world-cup-2014-live", "apiUrl": "https://content.guardianapis.com/football/2014/jun/30/germany-v-algeria-world-cup-2014-live", "isHosted": false, "pillarId": "pillar/sport", "pillarName": "Sport"}, {"id": "football/2014/jun/30/germany-algeria-world-cup-last-16-match-report", "type": "article", "sectionId": "football", "sectionName": "Football", "webPublicationDate": "2014-06-30T22:34:43Z", "webTitle": "Germany 2-1 Algeria | World Cup 2014 Last 16 match report", "webUrl": "https://www.theguardian.com/football/2014/jun/30/germany-algeria-world-cup-last-16-match-report", "apiUrl": "https://content.guardianapis.com/football/2014/jun/30/germany-algeria-world-cup-last-16-match-report", "isHosted": false, "pillarId": "pillar/sport", "pillarName": "Sport"}, {"id": "football/2014/jun/30/antoine-griezmann-france-nigeria-world-cup-2014", "type": "article", "sectionId": "football", "sectionName": "Football", "webPublicationDate": "2014-06-30T20:44:30Z", "webTitle": "Antoine Griezmann stakes claim to be France\u2019s third musketeer | Amy Lawrence", "webUrl": "https://www.theguardian.com/football/2014/jun/30/antoine-griezmann-france-nigeria-world-cup-2014", "apiUrl": "https://content.guardianapis.com/football/2014/jun/30/antoine-griezmann-france-nigeria-world-cup-2014", "isHosted": false, "pillarId": "pillar/sport", "pillarName": "Sport"}, {"id": "football/2014/jun/30/nigeria-loss-france-world-cup-2014", "type": "article", "sectionId": "football", "sectionName": "Football", "webPublicationDate": "2014-06-30T20:07:36Z", "webTitle": "Stephen Keshi accuses referee of \u2018bias\u2019 after Nigeria lose to France", "webUrl": "https://www.theguardian.com/football/2014/jun/30/nigeria-loss-france-world-cup-2014", "apiUrl": "https://content.guardianapis.com/football/2014/jun/30/nigeria-loss-france-world-cup-2014", "isHosted": false, "pillarId": "pillar/sport", "pillarName": "Sport"}, {"id": "football/gallery/2014/jun/30/world-cup-2014-germany-algeria-pictures", "type": "gallery", "sectionId": "football", "sectionName": "Football", "webPublicationDate": "2014-06-30T20:03:00Z", "webTitle": "World Cup 2014: Germany v Algeria \u2013 in pictures", "webUrl": "https://www.theguardian.com/football/gallery/2014/jun/30/world-cup-2014-germany-algeria-pictures", "apiUrl": "https://content.guardianapis.com/football/gallery/2014/jun/30/world-cup-2014-germany-algeria-pictures", "isHosted": false, "pillarId": "pillar/sport", "pillarName": "Sport"}, {"id": "football/blog/2014/jun/30/usa-fan-teddy-goalsevelt-world-cup-2014", "type": "article", "sectionId": "football", "sectionName": "Football", "webPublicationDate": "2014-06-30T19:08:14Z", "webTitle": "Roosevelt lookalike goes viral in show of rising US soccer power | Paolo Bandini", "webUrl": "https://www.theguardian.com/football/blog/2014/jun/30/usa-fan-teddy-goalsevelt-world-cup-2014", "apiUrl": "https://content.guardianapis.com/football/blog/2014/jun/30/usa-fan-teddy-goalsevelt-world-cup-2014", "isHosted": false, "pillarId": "pillar/sport", "pillarName": "Sport"}, {"id": "football/2014/jun/30/argentina-lionel-messi-switzerland-world-cup-2014", "type": "article", "sectionId": "football", "sectionName": "Football", "webPublicationDate": "2014-06-30T18:12:19Z", "webTitle": "Argentina \u2013 and Lionel Messi \u2013 ready to shift up a gear for Switzerland", "webUrl": "https://www.theguardian.com/football/2014/jun/30/argentina-lionel-messi-switzerland-world-cup-2014", "apiUrl": "https://content.guardianapis.com/football/2014/jun/30/argentina-lionel-messi-switzerland-world-cup-2014", "isHosted": false, "pillarId": "pillar/sport", "pillarName": "Sport"}, {"id": "football/2014/jun/30/france-nigeria-world-cup-2014-last-16-match-report", "type": "article", "sectionId": "football", "sectionName": "Football", "webPublicationDate": "2014-06-30T18:11:50Z", "webTitle": "France 2-0 Nigeria | World Cup 2014 last 16 match report", "webUrl": "https://www.theguardian.com/football/2014/jun/30/france-nigeria-world-cup-2014-last-16-match-report", "apiUrl": "https://content.guardianapis.com/football/2014/jun/30/france-nigeria-world-cup-2014-last-16-match-report", "isHosted": false, "pillarId": "pillar/sport", "pillarName": "Sport"}, {"id": "business/2014/jun/30/sports-direct-opposition-mike-ashley-share-deal", "type": "article", "sectionId": "business", "sectionName": "Business", "webPublicationDate": "2014-06-30T18:09:39Z", "webTitle": "Sports Direct faces further opposition to share deal for founder Mike Ashley", "webUrl": "https://www.theguardian.com/business/2014/jun/30/sports-direct-opposition-mike-ashley-share-deal", "apiUrl": "https://content.guardianapis.com/business/2014/jun/30/sports-direct-opposition-mike-ashley-share-deal", "isHosted": false, "pillarId": "pillar/news", "pillarName": "News"}, {"id": "football/2014/jun/30/holland-arjen-robben-diving-sanction", "type": "article", "sectionId": "football", "sectionName": "Football", "webPublicationDate": "2014-06-30T18:05:52Z", "webTitle": "Holland\u2019s Arjen Robben claims \u2018honesty\u2019 after escaping diving sanction", "webUrl": "https://www.theguardian.com/football/2014/jun/30/holland-arjen-robben-diving-sanction", "apiUrl": "https://content.guardianapis.com/football/2014/jun/30/holland-arjen-robben-diving-sanction", "isHosted": false, "pillarId": "pillar/sport", "pillarName": "Sport"}, {"id": "football/shortcuts/2014/jun/30/2014-world-cup-kick-out-colourful-football-boots", "type": "article", "sectionId": "football", "sectionName": "Football", "webPublicationDate": "2014-06-30T18:04:00Z", "webTitle": "The 2014 World Cup: is it time to kick out the colourful football boots?", "webUrl": "https://www.theguardian.com/football/shortcuts/2014/jun/30/2014-world-cup-kick-out-colourful-football-boots", "apiUrl": "https://content.guardianapis.com/football/shortcuts/2014/jun/30/2014-world-cup-kick-out-colourful-football-boots", "isHosted": false, "pillarId": "pillar/sport", "pillarName": "Sport"}, {"id": "football/2014/jun/30/france-v-nigeria-world-cup-2014-live", "type": "liveblog", "sectionId": "football", "sectionName": "Football", "webPublicationDate": "2014-06-30T17:58:32Z", "webTitle": "France v Nigeria: World Cup 2014 \u2013 as it happened | Scott Murray", "webUrl": "https://www.theguardian.com/football/2014/jun/30/france-v-nigeria-world-cup-2014-live", "apiUrl": "https://content.guardianapis.com/football/2014/jun/30/france-v-nigeria-world-cup-2014-live", "isHosted": false, "pillarId": "pillar/sport", "pillarName": "Sport"}, {"id": "football/2014/jun/30/world-cup-2014-diary-mayor-of-nice-ban-flags", "type": "article", "sectionId": "football", "sectionName": "Football", "webPublicationDate": "2014-06-30T17:49:06Z", "webTitle": "World Cup 2014 diary: No more Mr Nice Guy after foreign flags banned", "webUrl": "https://www.theguardian.com/football/2014/jun/30/world-cup-2014-diary-mayor-of-nice-ban-flags", "apiUrl": "https://content.guardianapis.com/football/2014/jun/30/world-cup-2014-diary-mayor-of-nice-ban-flags", "isHosted": false, "pillarId": "pillar/sport", "pillarName": "Sport"}, {"id": "football/2014/jun/30/luis-suarez-apologises-giorgio-chiellini-bite", "type": "article", "sectionId": "football", "sectionName": "Football", "webPublicationDate": "2014-06-30T17:34:12Z", "webTitle": "Luis Su\u00e1rez apologises to Giorgio Chiellini for World Cup bite", "webUrl": "https://www.theguardian.com/football/2014/jun/30/luis-suarez-apologises-giorgio-chiellini-bite", "apiUrl": "https://content.guardianapis.com/football/2014/jun/30/luis-suarez-apologises-giorgio-chiellini-bite", "isHosted": false, "pillarId": "pillar/sport", "pillarName": "Sport"}, {"id": "education/cartoon/2014/jun/30/ros-asquith-lines-school-place-shortages-bite", "type": "picture", "sectionId": "education", "sectionName": "Education", "webPublicationDate": "2014-06-30T17:00:00Z", "webTitle": "School place shortages bite", "webUrl": "https://www.theguardian.com/education/cartoon/2014/jun/30/ros-asquith-lines-school-place-shortages-bite", "apiUrl": "https://content.guardianapis.com/education/cartoon/2014/jun/30/ros-asquith-lines-school-place-shortages-bite", "isHosted": false, "pillarId": "pillar/news", "pillarName": "News"}, {"id": "football/2014/jun/30/world-cup-2014-day-19-live", "type": "liveblog", "sectionId": "football", "sectionName": "Football", "webPublicationDate": "2014-06-30T15:57:53Z", "webTitle": "World Cup 2014: day 19 \u2013\u00a0as it happened", "webUrl": "https://www.theguardian.com/football/2014/jun/30/world-cup-2014-day-19-live", "apiUrl": "https://content.guardianapis.com/football/2014/jun/30/world-cup-2014-day-19-live", "isHosted": false, "pillarId": "pillar/sport", "pillarName": "Sport"}, {"id": "football/video/2014/jun/30/world-cup-show-2014-day-20-previews-video", "type": "video", "sectionId": "football", "sectionName": "Football", "webPublicationDate": "2014-06-30T15:00:00Z", "webTitle": "World Cup Show 2014: day 20 previews \u2013 video", "webUrl": "https://www.theguardian.com/football/video/2014/jun/30/world-cup-show-2014-day-20-previews-video", "apiUrl": "https://content.guardianapis.com/football/video/2014/jun/30/world-cup-show-2014-day-20-previews-video", "isHosted": false, "pillarId": "pillar/sport", "pillarName": "Sport"}, {"id": "football/2014/jun/30/world-cup-2014-south-korea-toffee", "type": "article", "sectionId": "football", "sectionName": "Football", "webPublicationDate": "2014-06-30T14:36:32Z", "webTitle": "World Cup 2014: South Korea pelted with toffees on return home", "webUrl": "https://www.theguardian.com/football/2014/jun/30/world-cup-2014-south-korea-toffee", "apiUrl": "https://content.guardianapis.com/football/2014/jun/30/world-cup-2014-south-korea-toffee", "isHosted": false, "pillarId": "pillar/sport", "pillarName": "Sport"}, {"id": "football/2014/jun/30/premier-league-chairman-anthony-fry-steps-down", "type": "article", "sectionId": "football", "sectionName": "Football", "webPublicationDate": "2014-06-30T14:32:55Z", "webTitle": "Premier League chairman Anthony Fry steps down after illness", "webUrl": "https://www.theguardian.com/football/2014/jun/30/premier-league-chairman-anthony-fry-steps-down", "apiUrl": "https://content.guardianapis.com/football/2014/jun/30/premier-league-chairman-anthony-fry-steps-down", "isHosted": false, "pillarId": "pillar/sport", "pillarName": "Sport"}, {"id": "sport/blog/2014/jun/30/mls-seattle-sounders-win-battle-of-conference-leaders", "type": "article", "sectionId": "football", "sectionName": "Football", "webPublicationDate": "2014-06-30T13:55:29Z", "webTitle": "MLS: Seattle Sounders win battle of Conference leaders", "webUrl": "https://www.theguardian.com/sport/blog/2014/jun/30/mls-seattle-sounders-win-battle-of-conference-leaders", "apiUrl": "https://content.guardianapis.com/sport/blog/2014/jun/30/mls-seattle-sounders-win-battle-of-conference-leaders", "isHosted": false, "pillarId": "pillar/sport", "pillarName": "Sport"}, {"id": "football/2014/jun/30/world-cup-2014-greece-costa-rica-media-reaction", "type": "article", "sectionId": "football", "sectionName": "Football", "webPublicationDate": "2014-06-30T13:12:04Z", "webTitle": "World Cup 2014: Greece praises fallen heroes after Costa Rica heartache", "webUrl": "https://www.theguardian.com/football/2014/jun/30/world-cup-2014-greece-costa-rica-media-reaction", "apiUrl": "https://content.guardianapis.com/football/2014/jun/30/world-cup-2014-greece-costa-rica-media-reaction", "isHosted": false, "pillarId": "pillar/sport", "pillarName": "Sport"}, {"id": "football/blog/2014/jun/30/dirk-kuyt-holland-world-cup-2014-running", "type": "article", "sectionId": "football", "sectionName": "Football", "webPublicationDate": "2014-06-30T12:21:21Z", "webTitle": "Holland\u2019s Dirk Kuyt: An unsung hero who simply refuses to stop running | Alan Smith", "webUrl": "https://www.theguardian.com/football/blog/2014/jun/30/dirk-kuyt-holland-world-cup-2014-running", "apiUrl": "https://content.guardianapis.com/football/blog/2014/jun/30/dirk-kuyt-holland-world-cup-2014-running", "isHosted": false, "pillarId": "pillar/sport", "pillarName": "Sport"}, {"id": "football/2014/jun/30/woirld-cup-tim-howard-usa-goalkeeper", "type": "article", "sectionId": "football", "sectionName": "Football", "webPublicationDate": "2014-06-30T12:00:06Z", "webTitle": "World Cup 2014: brilliant Tim Howard proves USA goalkeepers are no different", "webUrl": "https://www.theguardian.com/football/2014/jun/30/woirld-cup-tim-howard-usa-goalkeeper", "apiUrl": "https://content.guardianapis.com/football/2014/jun/30/woirld-cup-tim-howard-usa-goalkeeper", "isHosted": false, "pillarId": "pillar/sport", "pillarName": "Sport"}, {"id": "football/2014/jun/30/world-cup-fiver-hellas-on-earth", "type": "article", "sectionId": "football", "sectionName": "Football", "webPublicationDate": "2014-06-30T11:45:02Z", "webTitle": "World Cup Fiver | Hellas on earth", "webUrl": "https://www.theguardian.com/football/2014/jun/30/world-cup-fiver-hellas-on-earth", "apiUrl": "https://content.guardianapis.com/football/2014/jun/30/world-cup-fiver-hellas-on-earth", "isHosted": false, "pillarId": "pillar/sport", "pillarName": "Sport"}, {"id": "football/blog/2014/jun/30/world-cup-2014-divock-origi-belgiums-wild-card-usa-last-16", "type": "article", "sectionId": "football", "sectionName": "Football", "webPublicationDate": "2014-06-30T11:42:46Z", "webTitle": "World Cup 2014: Divock Origi may well be Belgium\u2019s wild card against USA", "webUrl": "https://www.theguardian.com/football/blog/2014/jun/30/world-cup-2014-divock-origi-belgiums-wild-card-usa-last-16", "apiUrl": "https://content.guardianapis.com/football/blog/2014/jun/30/world-cup-2014-divock-origi-belgiums-wild-card-usa-last-16", "isHosted": false, "pillarId": "pillar/sport", "pillarName": "Sport"}, {"id": "football/video/2014/jun/30/world-cup-show-2014-day-19-news-video", "type": "video", "sectionId": "football", "sectionName": "Football", "webPublicationDate": "2014-06-30T11:16:00Z", "webTitle": "World Cup Show 2014: day 19 news \u2013 video", "webUrl": "https://www.theguardian.com/football/video/2014/jun/30/world-cup-show-2014-day-19-news-video", "apiUrl": "https://content.guardianapis.com/football/video/2014/jun/30/world-cup-show-2014-day-19-news-video", "isHosted": false, "pillarId": "pillar/sport", "pillarName": "Sport"}, {"id": "film/2014/jun/30/hollywood-ghana-world-cup-drama-cash-3m", "type": "article", "sectionId": "film", "sectionName": "Film", "webPublicationDate": "2014-06-30T10:45:27Z", "webTitle": "Hollywood to cash in on Ghana's $3m World Cup drama", "webUrl": "https://www.theguardian.com/film/2014/jun/30/hollywood-ghana-world-cup-drama-cash-3m", "apiUrl": "https://content.guardianapis.com/film/2014/jun/30/hollywood-ghana-world-cup-drama-cash-3m", "isHosted": false, "pillarId": "pillar/arts", "pillarName": "Arts"}, {"id": "football/blog/2014/jun/30/arjen-robben-dive-holland-mexico-world-cup-2014", "type": "article", "sectionId": "football", "sectionName": "Football", "webPublicationDate": "2014-06-30T10:39:58Z", "webTitle": "Did Arjen Robben dive to help Holland knock Mexico out of the World Cup?", "webUrl": "https://www.theguardian.com/football/blog/2014/jun/30/arjen-robben-dive-holland-mexico-world-cup-2014", "apiUrl": "https://content.guardianapis.com/football/blog/2014/jun/30/arjen-robben-dive-holland-mexico-world-cup-2014", "isHosted": false, "pillarId": "pillar/sport", "pillarName": "Sport"}, {"id": "football/2014/jun/30/klm-sobrero-tweet-mexico-world-cup-holland-gael-garcia-bernal", "type": "article", "sectionId": "football", "sectionName": "Football", "webPublicationDate": "2014-06-30T10:24:41Z", "webTitle": "KLM sombrero tweet mocking Mexico\u2019s World Cup exit to Holland causes fury", "webUrl": "https://www.theguardian.com/football/2014/jun/30/klm-sobrero-tweet-mexico-world-cup-holland-gael-garcia-bernal", "apiUrl": "https://content.guardianapis.com/football/2014/jun/30/klm-sobrero-tweet-mexico-world-cup-holland-gael-garcia-bernal", "isHosted": false, "pillarId": "pillar/sport", "pillarName": "Sport"}, {"id": "football/blog/2014/jun/30/angel-di-maria-argentina-lionel-messi-world-cup-2014", "type": "article", "sectionId": "football", "sectionName": "Football", "webPublicationDate": "2014-06-30T09:00:02Z", "webTitle": "\u00c1ngel di Mar\u00eda proving to be the man behind Lionel Messi for Argentina", "webUrl": "https://www.theguardian.com/football/blog/2014/jun/30/angel-di-maria-argentina-lionel-messi-world-cup-2014", "apiUrl": "https://content.guardianapis.com/football/blog/2014/jun/30/angel-di-maria-argentina-lionel-messi-world-cup-2014", "isHosted": false, "pillarId": "pillar/sport", "pillarName": "Sport"}, {"id": "football/blog/2014/jun/30/world-cup-2014-talking-points-holland-mexico-greece-costa-rica", "type": "article", "sectionId": "football", "sectionName": "Football", "webPublicationDate": "2014-06-30T08:01:36Z", "webTitle": "World Cup 2014 talking points: Louis van Gaal makes most of water break | Guardian writers", "webUrl": "https://www.theguardian.com/football/blog/2014/jun/30/world-cup-2014-talking-points-holland-mexico-greece-costa-rica", "apiUrl": "https://content.guardianapis.com/football/blog/2014/jun/30/world-cup-2014-talking-points-holland-mexico-greece-costa-rica", "isHosted": false, "pillarId": "pillar/sport", "pillarName": "Sport"}, {"id": "football/2014/jun/30/james-rodrigues-real-madrid-football-transfer-rumour-mill", "type": "article", "sectionId": "football", "sectionName": "Football", "webPublicationDate": "2014-06-30T07:18:03Z", "webTitle": "Football transfer rumours: James Rodr\u00edguez to Real Madrid?", "webUrl": "https://www.theguardian.com/football/2014/jun/30/james-rodrigues-real-madrid-football-transfer-rumour-mill", "apiUrl": "https://content.guardianapis.com/football/2014/jun/30/james-rodrigues-real-madrid-football-transfer-rumour-mill", "isHosted": false, "pillarId": "pillar/sport", "pillarName": "Sport"}, {"id": "football/audio/2014/jun/30/world-cup-football-daily-podcast-costa-rica-greece-holland-mexico", "type": "audio", "sectionId": "football", "sectionName": "Football", "webPublicationDate": "2014-06-30T00:50:19Z", "webTitle": "World Cup Football Daily: Costa Rica's World Cup Odyssey continues", "webUrl": "https://www.theguardian.com/football/audio/2014/jun/30/world-cup-football-daily-podcast-costa-rica-greece-holland-mexico", "apiUrl": "https://content.guardianapis.com/football/audio/2014/jun/30/world-cup-football-daily-podcast-costa-rica-greece-holland-mexico", "isHosted": false, "pillarId": "pillar/sport", "pillarName": "Sport"}, {"id": "football/2014/jun/30/costa-rica-greece-world-cup-2014-last-16-match-report", "type": "article", "sectionId": "football", "sectionName": "Football", "webPublicationDate": "2014-06-30T00:23:00Z", "webTitle": "Costa Rica 1-1 Greece (aet; 5-3 pens) | World Cup last-16 match report", "webUrl": "https://www.theguardian.com/football/2014/jun/30/costa-rica-greece-world-cup-2014-last-16-match-report", "apiUrl": "https://content.guardianapis.com/football/2014/jun/30/costa-rica-greece-world-cup-2014-last-16-match-report", "isHosted": false, "pillarId": "pillar/sport", "pillarName": "Sport"}, {"id": "football/2014/jun/29/costa-rica-v-greece-live", "type": "liveblog", "sectionId": "football", "sectionName": "Football", "webPublicationDate": "2014-06-29T23:01:49Z", "webTitle": "Costa Rica v Greece: World Cup 2014 \u2013 as it happened", "webUrl": "https://www.theguardian.com/football/2014/jun/29/costa-rica-v-greece-live", "apiUrl": "https://content.guardianapis.com/football/2014/jun/29/costa-rica-v-greece-live", "isHosted": false, "pillarId": "pillar/sport", "pillarName": "Sport"}, {"id": "football/2014/jun/29/kevin-prince-boateng-ghana-world-cup-disaster", "type": "article", "sectionId": "football", "sectionName": "Football", "webPublicationDate": "2014-06-29T22:05:59Z", "webTitle": "Kevin-Prince Boateng slams Ghana\u2019s World Cup preparations as \u2018amateurish\u2019", "webUrl": "https://www.theguardian.com/football/2014/jun/29/kevin-prince-boateng-ghana-world-cup-disaster", "apiUrl": "https://content.guardianapis.com/football/2014/jun/29/kevin-prince-boateng-ghana-world-cup-disaster", "isHosted": false, "pillarId": "pillar/sport", "pillarName": "Sport"}, {"id": "football/2014/jun/29/brazil-chile-world-cup-2014-last-16-match-report", "type": "article", "sectionId": "football", "sectionName": "Football", "webPublicationDate": "2014-06-29T21:30:03Z", "webTitle": "Brazil struggle to recover from emotional shootout win over Chile", "webUrl": "https://www.theguardian.com/football/2014/jun/29/brazil-chile-world-cup-2014-last-16-match-report", "apiUrl": "https://content.guardianapis.com/football/2014/jun/29/brazil-chile-world-cup-2014-last-16-match-report", "isHosted": false, "pillarId": "pillar/sport", "pillarName": "Sport"}, {"id": "football/2014/jun/29/james-rodriguez-manchester-united-colombia-world-cup-2014", "type": "article", "sectionId": "football", "sectionName": "Football", "webPublicationDate": "2014-06-29T21:29:03Z", "webTitle": "Manchester United were offered Colombia\u2019s James Rodr\u00edguez for \u00a35m", "webUrl": "https://www.theguardian.com/football/2014/jun/29/james-rodriguez-manchester-united-colombia-world-cup-2014", "apiUrl": "https://content.guardianapis.com/football/2014/jun/29/james-rodriguez-manchester-united-colombia-world-cup-2014", "isHosted": false, "pillarId": "pillar/sport", "pillarName": "Sport"}, {"id": "football/2014/jun/29/miguel-herrera-mexico-fury-holland-world-cup-2014", "type": "article", "sectionId": "football", "sectionName": "Football", "webPublicationDate": "2014-06-29T20:58:00Z", "webTitle": "Mexico rage at referee over Arjen Robben\u2019s \u2018invented\u2019 penalty", "webUrl": "https://www.theguardian.com/football/2014/jun/29/miguel-herrera-mexico-fury-holland-world-cup-2014", "apiUrl": "https://content.guardianapis.com/football/2014/jun/29/miguel-herrera-mexico-fury-holland-world-cup-2014", "isHosted": false, "pillarId": "pillar/sport", "pillarName": "Sport"}, {"id": "football/gallery/2014/jun/29/world-cup-2014-miguel-herrera-mexico", "type": "gallery", "sectionId": "football", "sectionName": "Football", "webPublicationDate": "2014-06-29T20:57:03Z", "webTitle": "World Cup 2014: the brilliance of Mexico's Miguel Herrera \u2013 in pictures", "webUrl": "https://www.theguardian.com/football/gallery/2014/jun/29/world-cup-2014-miguel-herrera-mexico", "apiUrl": "https://content.guardianapis.com/football/gallery/2014/jun/29/world-cup-2014-miguel-herrera-mexico", "isHosted": false, "pillarId": "pillar/sport", "pillarName": "Sport"}, {"id": "football/2014/jun/29/holland-mexico-world-cup-2014-last-16-match-report", "type": "article", "sectionId": "football", "sectionName": "Football", "webPublicationDate": "2014-06-29T20:54:00Z", "webTitle": "Holland 2-1 Mexico | World Cup last-16 match report", "webUrl": "https://www.theguardian.com/football/2014/jun/29/holland-mexico-world-cup-2014-last-16-match-report", "apiUrl": "https://content.guardianapis.com/football/2014/jun/29/holland-mexico-world-cup-2014-last-16-match-report", "isHosted": false, "pillarId": "pillar/sport", "pillarName": "Sport"}, {"id": "football/2014/jun/29/mikel-john-obi-nigeria-france-world-cup-2014", "type": "article", "sectionId": "football", "sectionName": "Football", "webPublicationDate": "2014-06-29T20:40:15Z", "webTitle": "Mikel John Obi insists Nigeria cash row is over as they focus on France", "webUrl": "https://www.theguardian.com/football/2014/jun/29/mikel-john-obi-nigeria-france-world-cup-2014", "apiUrl": "https://content.guardianapis.com/football/2014/jun/29/mikel-john-obi-nigeria-france-world-cup-2014", "isHosted": false, "pillarId": "pillar/sport", "pillarName": "Sport"}, {"id": "football/blog/2014/jun/29/klaas-jan-huntelaar-holland-mexico-world-cup-2014", "type": "article", "sectionId": "football", "sectionName": "Football", "webPublicationDate": "2014-06-29T19:58:05Z", "webTitle": "Klaas-Jan Huntelaar penalty eases pain of Holland\u2019s permanent understudy | Amy Lawrence", "webUrl": "https://www.theguardian.com/football/blog/2014/jun/29/klaas-jan-huntelaar-holland-mexico-world-cup-2014", "apiUrl": "https://content.guardianapis.com/football/blog/2014/jun/29/klaas-jan-huntelaar-holland-mexico-world-cup-2014", "isHosted": false, "pillarId": "pillar/sport", "pillarName": "Sport"}, {"id": "football/2014/jun/29/world-cup-2014-diary-brazil-chile-tweet-record-superbowl", "type": "article", "sectionId": "football", "sectionName": "Football", "webPublicationDate": "2014-06-29T19:19:00Z", "webTitle": "World Cup diary: Brazil-Chile breaks tweet record set by Super Bowl", "webUrl": "https://www.theguardian.com/football/2014/jun/29/world-cup-2014-diary-brazil-chile-tweet-record-superbowl", "apiUrl": "https://content.guardianapis.com/football/2014/jun/29/world-cup-2014-diary-brazil-chile-tweet-record-superbowl", "isHosted": false, "pillarId": "pillar/sport", "pillarName": "Sport"}, {"id": "football/2014/jun/29/colombia-uruguay-james-rodriguez", "type": "article", "sectionId": "football", "sectionName": "Football", "webPublicationDate": "2014-06-29T19:00:00Z", "webTitle": "Colombia\u2019s James Rodr\u00edguez seeks top honours and puts Brazil on alert", "webUrl": "https://www.theguardian.com/football/2014/jun/29/colombia-uruguay-james-rodriguez", "apiUrl": "https://content.guardianapis.com/football/2014/jun/29/colombia-uruguay-james-rodriguez", "isHosted": false, "pillarId": "pillar/sport", "pillarName": "Sport"}, {"id": "football/2014/jun/29/france-nigeria-hugo-lloris-world-cup-2014", "type": "article", "sectionId": "football", "sectionName": "Football", "webPublicationDate": "2014-06-29T18:57:26Z", "webTitle": "France win back affection of public after their 2010 strike shambles", "webUrl": "https://www.theguardian.com/football/2014/jun/29/france-nigeria-hugo-lloris-world-cup-2014", "apiUrl": "https://content.guardianapis.com/football/2014/jun/29/france-nigeria-hugo-lloris-world-cup-2014", "isHosted": false, "pillarId": "pillar/sport", "pillarName": "Sport"}, {"id": "football/2014/jun/29/holland-v-mexico-world-cup-2014-live-report", "type": "liveblog", "sectionId": "football", "sectionName": "Football", "webPublicationDate": "2014-06-29T18:01:55Z", "webTitle": "Holland v Mexico: World Cup 2014 \u2013 as it happened! | Ian McCourt", "webUrl": "https://www.theguardian.com/football/2014/jun/29/holland-v-mexico-world-cup-2014-live-report", "apiUrl": "https://content.guardianapis.com/football/2014/jun/29/holland-v-mexico-world-cup-2014-live-report", "isHosted": false, "pillarId": "pillar/sport", "pillarName": "Sport"}, {"id": "football/2014/jun/29/brazil-julio-cesar-heroics-world-cup-2014", "type": "article", "sectionId": "football", "sectionName": "Football", "webPublicationDate": "2014-06-29T17:23:28Z", "webTitle": "J\u00falio C\u00e9sar\u2019s heroics mask truth that Brazil were lucky to get through", "webUrl": "https://www.theguardian.com/football/2014/jun/29/brazil-julio-cesar-heroics-world-cup-2014", "apiUrl": "https://content.guardianapis.com/football/2014/jun/29/brazil-julio-cesar-heroics-world-cup-2014", "isHosted": false, "pillarId": "pillar/sport", "pillarName": "Sport"}]}}