{"response": {"status": "ok", "userTier": "developer", "total": 40593, "startIndex": 1, "pageSize": 50, "currentPage": 1, "pages": 812, "orderBy": "newest", "results": [{"id": "environment/2014/jun/30/new-york-towns-prohibit-fracking-court-rules", "type": "article", "sectionId": "environment", "sectionName": "Environment", "webPublicationDate": "2014-06-30T21:25:31Z", "webTitle": "New York towns can prohibit fracking, state appeals court rules", "webUrl": "https://www.theguardian.com/environment/2014/jun/30/new-york-towns-prohibit-fracking-court-rules", "apiUrl": "https://content.guardianapis.com/environment/2014/jun/30/new-york-towns-prohibit-fracking-court-rules", "isHosted": false, "pillarId": "pillar/news", "pillarName": "News"}, {"id": "world/2014/jun/30/cane-toads-on-the-march-invasive-species-finds-ideal-niche-in-australia", "type": "article", "sectionId": "world", "sectionName": "World news", "webPublicationDate": "2014-06-30T20:03:49Z", "webTitle": "Cane toads on the march: invasive species finds 'ideal niche' in Australia", "webUrl": "https://www.theguardian.com/world/2014/jun/30/cane-toads-on-the-march-invasive-species-finds-ideal-niche-in-australia", "apiUrl": "https://content.guardianapis.com/world/2014/jun/30/cane-toads-on-the-march-invasive-species-finds-ideal-niche-in-australia", "isHosted": false, "pillarId": "pillar/news", "pillarName": "News"}, {"id": "environment/2014/jun/30/first-england-beavers-in-centuries-captured", "type": "article", "sectionId": "environment", "sectionName": "Environment", "webPublicationDate": "2014-06-30T19:42:28Z", "webTitle": "First wild beavers to be seen in England for centuries to be captured", "webUrl": "https://www.theguardian.com/environment/2014/jun/30/first-england-beavers-in-centuries-captured", "apiUrl": "https://content.guardianapis.com/environment/2014/jun/30/first-england-beavers-in-centuries-captured", "isHosted": false, "pillarId": "pillar/news", "pillarName": "News"}, {"id": "environment/2014/jun/30/scotland-shale-gas-reserves-a-fraction-of-northern-englands", "type": "article", "sectionId": "environment", "sectionName": "Environment", "webPublicationDate": "2014-06-30T15:16:52Z", "webTitle": "Scotland shale gas and oil reserves 'modest' compared with England", "webUrl": "https://www.theguardian.com/environment/2014/jun/30/scotland-shale-gas-reserves-a-fraction-of-northern-englands", "apiUrl": "https://content.guardianapis.com/environment/2014/jun/30/scotland-shale-gas-reserves-a-fraction-of-northern-englands", "isHosted": false, "pillarId": "pillar/news", "pillarName": "News"}, {"id": "environment/2014/jun/30/kukama-oil-peru-amazon-hunger-strike", "type": "article", "sectionId": "environment", "sectionName": "Environment", "webPublicationDate": "2014-06-30T15:09:15Z", "webTitle": "Kukamas abandon hunger strike over Peruvian Amazon oil pollution", "webUrl": "https://www.theguardian.com/environment/2014/jun/30/kukama-oil-peru-amazon-hunger-strike", "apiUrl": "https://content.guardianapis.com/environment/2014/jun/30/kukama-oil-peru-amazon-hunger-strike", "isHosted": false, "pillarId": "pillar/news", "pillarName": "News"}, {"id": "environment/2014/jun/30/uks-pioneering-low-carbon-heating-scheme-attracts-just-79-households", "type": "article", "sectionId": "environment", "sectionName": "Environment", "webPublicationDate": "2014-06-30T14:21:05Z", "webTitle": "UK's pioneering low-carbon heating scheme helps just 79 households", "webUrl": "https://www.theguardian.com/environment/2014/jun/30/uks-pioneering-low-carbon-heating-scheme-attracts-just-79-households", "apiUrl": "https://content.guardianapis.com/environment/2014/jun/30/uks-pioneering-low-carbon-heating-scheme-attracts-just-79-households", "isHosted": false, "pillarId": "pillar/news", "pillarName": "News"}, {"id": "lifeandstyle/2014/jun/30/need-to-get-children-outdoors-how-to-escape-those-ipad-screens", "type": "article", "sectionId": "lifeandstyle", "sectionName": "Life and style", "webPublicationDate": "2014-06-30T10:56:28Z", "webTitle": "Need to get children outdoors? How to escape those iPad screens", "webUrl": "https://www.theguardian.com/lifeandstyle/2014/jun/30/need-to-get-children-outdoors-how-to-escape-those-ipad-screens", "apiUrl": "https://content.guardianapis.com/lifeandstyle/2014/jun/30/need-to-get-children-outdoors-how-to-escape-those-ipad-screens", "isHosted": false, "pillarId": "pillar/lifestyle", "pillarName": "Lifestyle"}, {"id": "global-development-professionals-network/2014/jun/30/energy-kinetic-renewables-kenya", "type": "article", "sectionId": "global-development-professionals-network", "sectionName": "Global Development Professionals Network", "webPublicationDate": "2014-06-30T10:00:00Z", "webTitle": "Shaking off the energy crisis: how far can kinetic deliver on its promises?", "webUrl": "https://www.theguardian.com/global-development-professionals-network/2014/jun/30/energy-kinetic-renewables-kenya", "apiUrl": "https://content.guardianapis.com/global-development-professionals-network/2014/jun/30/energy-kinetic-renewables-kenya", "isHosted": false, "pillarId": "pillar/news", "pillarName": "News"}, {"id": "environment/2014/jun/30/nasa-to-launch-co2-tracking-satellite", "type": "article", "sectionId": "environment", "sectionName": "Environment", "webPublicationDate": "2014-06-30T09:39:15Z", "webTitle": "Nasa to launch CO2-tracking satellite", "webUrl": "https://www.theguardian.com/environment/2014/jun/30/nasa-to-launch-co2-tracking-satellite", "apiUrl": "https://content.guardianapis.com/environment/2014/jun/30/nasa-to-launch-co2-tracking-satellite", "isHosted": false, "pillarId": "pillar/news", "pillarName": "News"}, {"id": "lifeandstyle/video/2014/jun/30/let-the-child-go-wild-foraging-on-the-edge-of-europe-video", "type": "video", "sectionId": "lifeandstyle", "sectionName": "Life and style", "webPublicationDate": "2014-06-30T09:30:00Z", "webTitle": "Let the child go wild: foraging on the edge of Europe - video", "webUrl": "https://www.theguardian.com/lifeandstyle/video/2014/jun/30/let-the-child-go-wild-foraging-on-the-edge-of-europe-video", "apiUrl": "https://content.guardianapis.com/lifeandstyle/video/2014/jun/30/let-the-child-go-wild-foraging-on-the-edge-of-europe-video", "isHosted": false, "pillarId": "pillar/lifestyle", "pillarName": "Lifestyle"}, {"id": "environment/2014/jun/30/liberal-party-environmental-groups-charitable-status", "type": "article", "sectionId": "environment", "sectionName": "Environment", "webPublicationDate": "2014-06-30T08:11:42Z", "webTitle": "Liberal push to strip environmental groups of charitable tax status", "webUrl": "https://www.theguardian.com/environment/2014/jun/30/liberal-party-environmental-groups-charitable-status", "apiUrl": "https://content.guardianapis.com/environment/2014/jun/30/liberal-party-environmental-groups-charitable-status", "isHosted": false, "pillarId": "pillar/news", "pillarName": "News"}, {"id": "environment/2014/jun/30/extreme-weather-official-advice-rewritten-to-remove-climate-change-link", "type": "article", "sectionId": "environment", "sectionName": "Environment", "webPublicationDate": "2014-06-30T05:28:55Z", "webTitle": "Extreme weather official advice rewritten to remove climate change link", "webUrl": "https://www.theguardian.com/environment/2014/jun/30/extreme-weather-official-advice-rewritten-to-remove-climate-change-link", "apiUrl": "https://content.guardianapis.com/environment/2014/jun/30/extreme-weather-official-advice-rewritten-to-remove-climate-change-link", "isHosted": false, "pillarId": "pillar/news", "pillarName": "News"}, {"id": "science/audio/2014/jun/30/planet-adventures-anthropocene-gaia-vince-podcast", "type": "audio", "sectionId": "science", "sectionName": "Science", "webPublicationDate": "2014-06-30T05:00:01Z", "webTitle": "A journey to the heart of the planet we made - podcast", "webUrl": "https://www.theguardian.com/science/audio/2014/jun/30/planet-adventures-anthropocene-gaia-vince-podcast", "apiUrl": "https://content.guardianapis.com/science/audio/2014/jun/30/planet-adventures-anthropocene-gaia-vince-podcast", "isHosted": false, "pillarId": "pillar/news", "pillarName": "News"}, {"id": "world/2014/jun/30/clive-palmer-says-his-carbon-tax-repeal-amendment-will-help-industry-too", "type": "article", "sectionId": "world", "sectionName": "World news", "webPublicationDate": "2014-06-30T04:01:16Z", "webTitle": "Clive Palmer says his carbon tax repeal amendment will help industry too", "webUrl": "https://www.theguardian.com/world/2014/jun/30/clive-palmer-says-his-carbon-tax-repeal-amendment-will-help-industry-too", "apiUrl": "https://content.guardianapis.com/world/2014/jun/30/clive-palmer-says-his-carbon-tax-repeal-amendment-will-help-industry-too", "isHosted": false, "pillarId": "pillar/news", "pillarName": "News"}, {"id": "world/2014/jun/30/renewable-energy-target-mps-lobby-coalition-to-exempt-aluminium", "type": "article", "sectionId": "australia-news", "sectionName": "Australia news", "webPublicationDate": "2014-06-30T01:55:54Z", "webTitle": "Renewable energy target: MPs lobby Coalition to exempt aluminium", "webUrl": "https://www.theguardian.com/world/2014/jun/30/renewable-energy-target-mps-lobby-coalition-to-exempt-aluminium", "apiUrl": "https://content.guardianapis.com/world/2014/jun/30/renewable-energy-target-mps-lobby-coalition-to-exempt-aluminium", "isHosted": false, "pillarId": "pillar/news", "pillarName": "News"}, {"id": "environment/2014/jun/29/country-diary-wildlife-thrives-ancient-quarries-1914", "type": "article", "sectionId": "environment", "sectionName": "Environment", "webPublicationDate": "2014-06-29T21:30:03Z", "webTitle": "Wildlife thrives in ancient quarries: Country diary 100 years ago", "webUrl": "https://www.theguardian.com/environment/2014/jun/29/country-diary-wildlife-thrives-ancient-quarries-1914", "apiUrl": "https://content.guardianapis.com/environment/2014/jun/29/country-diary-wildlife-thrives-ancient-quarries-1914", "isHosted": false, "pillarId": "pillar/news", "pillarName": "News"}, {"id": "environment/2014/jun/29/pollutionwatch-worlds-dirtiest-cities", "type": "article", "sectionId": "environment", "sectionName": "Environment", "webPublicationDate": "2014-06-29T20:30:00Z", "webTitle": "Pollutionwatch: The world's dirtiest cities", "webUrl": "https://www.theguardian.com/environment/2014/jun/29/pollutionwatch-worlds-dirtiest-cities", "apiUrl": "https://content.guardianapis.com/environment/2014/jun/29/pollutionwatch-worlds-dirtiest-cities", "isHosted": false, "pillarId": "pillar/news", "pillarName": "News"}, {"id": "environment/2014/jun/29/long-wait-elusive-rock-wastwater-screes-lake-district", "type": "article", "sectionId": "environment", "sectionName": "Environment", "webPublicationDate": "2014-06-29T19:05:23Z", "webTitle": "Country diary: Wastwater Screes, Lake District: A long wait for an elusive rock", "webUrl": "https://www.theguardian.com/environment/2014/jun/29/long-wait-elusive-rock-wastwater-screes-lake-district", "apiUrl": "https://content.guardianapis.com/environment/2014/jun/29/long-wait-elusive-rock-wastwater-screes-lake-district", "isHosted": false, "pillarId": "pillar/news", "pillarName": "News"}, {"id": "environment/2014/jun/29/emperor-penguins-at-risk-of-extinction-scientists-warn", "type": "article", "sectionId": "environment", "sectionName": "Environment", "webPublicationDate": "2014-06-29T17:21:18Z", "webTitle": "Emperor penguins at risk of extinction, scientists warn", "webUrl": "https://www.theguardian.com/environment/2014/jun/29/emperor-penguins-at-risk-of-extinction-scientists-warn", "apiUrl": "https://content.guardianapis.com/environment/2014/jun/29/emperor-penguins-at-risk-of-extinction-scientists-warn", "isHosted": false, "pillarId": "pillar/news", "pillarName": "News"}, {"id": "environment/2014/jun/29/rate-of-deforestation-in-indonesia-overtakes-brazil-says-study", "type": "article", "sectionId": "environment", "sectionName": "Environment", "webPublicationDate": "2014-06-29T17:00:16Z", "webTitle": "Rate of deforestation in Indonesia overtakes Brazil, says study", "webUrl": "https://www.theguardian.com/environment/2014/jun/29/rate-of-deforestation-in-indonesia-overtakes-brazil-says-study", "apiUrl": "https://content.guardianapis.com/environment/2014/jun/29/rate-of-deforestation-in-indonesia-overtakes-brazil-says-study", "isHosted": false, "pillarId": "pillar/news", "pillarName": "News"}, {"id": "environment/andes-to-the-amazon/2014/jun/29/peru-licence-to-kill-environmental-protestors", "type": "article", "sectionId": "environment", "sectionName": "Environment", "webPublicationDate": "2014-06-29T16:46:08Z", "webTitle": "Peru now has a \u2018licence to kill\u2019 environmental protestors | David Hill", "webUrl": "https://www.theguardian.com/environment/andes-to-the-amazon/2014/jun/29/peru-licence-to-kill-environmental-protestors", "apiUrl": "https://content.guardianapis.com/environment/andes-to-the-amazon/2014/jun/29/peru-licence-to-kill-environmental-protestors", "isHosted": false, "pillarId": "pillar/news", "pillarName": "News"}, {"id": "world/2014/jun/28/india-controversial-forest-coalmine-essar-energy", "type": "article", "sectionId": "world", "sectionName": "World news", "webPublicationDate": "2014-06-28T11:22:58Z", "webTitle": "Indian forest villagers rise up to halt UK firm's bid to clear land for mining", "webUrl": "https://www.theguardian.com/world/2014/jun/28/india-controversial-forest-coalmine-essar-energy", "apiUrl": "https://content.guardianapis.com/world/2014/jun/28/india-controversial-forest-coalmine-essar-energy", "isHosted": false, "pillarId": "pillar/news", "pillarName": "News"}, {"id": "money/2014/jun/28/windfarms-solar-energy-healthy-returns-investors", "type": "article", "sectionId": "money", "sectionName": "Money", "webPublicationDate": "2014-06-28T06:00:30Z", "webTitle": "Windfarms and solar energy: healthy returns for investors, but risks", "webUrl": "https://www.theguardian.com/money/2014/jun/28/windfarms-solar-energy-healthy-returns-investors", "apiUrl": "https://content.guardianapis.com/money/2014/jun/28/windfarms-solar-energy-healthy-returns-investors", "isHosted": false, "pillarId": "pillar/lifestyle", "pillarName": "Lifestyle"}, {"id": "environment/2014/jun/28/allow-fracking-national-parks-environment-agency", "type": "article", "sectionId": "environment", "sectionName": "Environment", "webPublicationDate": "2014-06-28T00:45:16Z", "webTitle": "Allow fracking in national parks, says Environment Agency chief", "webUrl": "https://www.theguardian.com/environment/2014/jun/28/allow-fracking-national-parks-environment-agency", "apiUrl": "https://content.guardianapis.com/environment/2014/jun/28/allow-fracking-national-parks-environment-agency", "isHosted": false, "pillarId": "pillar/news", "pillarName": "News"}, {"id": "environment/2014/jun/28/intelligent-energy-green-power-fuel-cell", "type": "article", "sectionId": "environment", "sectionName": "Environment", "webPublicationDate": "2014-06-27T23:23:53Z", "webTitle": "Intelligent Energy fuel cell company plans stock market flotation", "webUrl": "https://www.theguardian.com/environment/2014/jun/28/intelligent-energy-green-power-fuel-cell", "apiUrl": "https://content.guardianapis.com/environment/2014/jun/28/intelligent-energy-green-power-fuel-cell", "isHosted": false, "pillarId": "pillar/news", "pillarName": "News"}, {"id": "science/2014/jun/27/plantwatch-how-fool-bee", "type": "article", "sectionId": "science", "sectionName": "Science", "webPublicationDate": "2014-06-27T20:30:00Z", "webTitle": "Plantwatch: How to fool a bee", "webUrl": "https://www.theguardian.com/science/2014/jun/27/plantwatch-how-fool-bee", "apiUrl": "https://content.guardianapis.com/science/2014/jun/27/plantwatch-how-fool-bee", "isHosted": false, "pillarId": "pillar/news", "pillarName": "News"}, {"id": "environment/2014/jun/27/sandy-bedfordshire-hare-panic-feeding-fox", "type": "article", "sectionId": "environment", "sectionName": "Environment", "webPublicationDate": "2014-06-27T20:00:03Z", "webTitle": "Country diary: Sandy, Bedfordshire: A hare's blind panic could end up feeding a fox", "webUrl": "https://www.theguardian.com/environment/2014/jun/27/sandy-bedfordshire-hare-panic-feeding-fox", "apiUrl": "https://content.guardianapis.com/environment/2014/jun/27/sandy-bedfordshire-hare-panic-feeding-fox", "isHosted": false, "pillarId": "pillar/news", "pillarName": "News"}, {"id": "world/2014/jun/27/chinese-farmers-champion-jailed-forgery", "type": "article", "sectionId": "world", "sectionName": "World news", "webPublicationDate": "2014-06-27T18:44:16Z", "webTitle": "Champion of Chinese farmers' rights jailed for forging official documents", "webUrl": "https://www.theguardian.com/world/2014/jun/27/chinese-farmers-champion-jailed-forgery", "apiUrl": "https://content.guardianapis.com/world/2014/jun/27/chinese-farmers-champion-jailed-forgery", "isHosted": false, "pillarId": "pillar/news", "pillarName": "News"}, {"id": "uk-news/2014/jun/27/fields-farms-up-for-sale", "type": "article", "sectionId": "uk-news", "sectionName": "UK news", "webPublicationDate": "2014-06-27T17:39:39Z", "webTitle": "Fields and farms are all up for sale | @guardianletters", "webUrl": "https://www.theguardian.com/uk-news/2014/jun/27/fields-farms-up-for-sale", "apiUrl": "https://content.guardianapis.com/uk-news/2014/jun/27/fields-farms-up-for-sale", "isHosted": false, "pillarId": "pillar/news", "pillarName": "News"}, {"id": "sustainable-business/blog/six-strategies-systems-change-sustainable-future", "type": "article", "sectionId": "sustainable-business", "sectionName": "Guardian Sustainable Business", "webPublicationDate": "2014-06-27T16:00:00Z", "webTitle": "Six strategies for creating system change for a sustainable future", "webUrl": "https://www.theguardian.com/sustainable-business/blog/six-strategies-systems-change-sustainable-future", "apiUrl": "https://content.guardianapis.com/sustainable-business/blog/six-strategies-systems-change-sustainable-future", "isHosted": false}, {"id": "environment/2014/jun/27/pitcairn-islands-expedition-pacific-ocean", "type": "article", "sectionId": "environment", "sectionName": "Environment", "webPublicationDate": "2014-06-27T14:41:59Z", "webTitle": "Unique underwater world discovered in Pitcairn Islands", "webUrl": "https://www.theguardian.com/environment/2014/jun/27/pitcairn-islands-expedition-pacific-ocean", "apiUrl": "https://content.guardianapis.com/environment/2014/jun/27/pitcairn-islands-expedition-pacific-ocean", "isHosted": false, "pillarId": "pillar/news", "pillarName": "News"}, {"id": "commentisfree/2014/jun/27/fear-jellyfish-creatures-uk-summer-swimmers-harmless", "type": "article", "sectionId": "commentisfree", "sectionName": "Opinion", "webPublicationDate": "2014-06-27T14:31:59Z", "webTitle": "Don't fear the jellyfish \u2013 these creatures are spellbinding | Patrick Barkham", "webUrl": "https://www.theguardian.com/commentisfree/2014/jun/27/fear-jellyfish-creatures-uk-summer-swimmers-harmless", "apiUrl": "https://content.guardianapis.com/commentisfree/2014/jun/27/fear-jellyfish-creatures-uk-summer-swimmers-harmless", "isHosted": false, "pillarId": "pillar/opinion", "pillarName": "Opinion"}, {"id": "environment/2014/jun/27/eu-energy-climate-talks-juncker-brussels", "type": "article", "sectionId": "environment", "sectionName": "Environment", "webPublicationDate": "2014-06-27T10:58:47Z", "webTitle": "EU energy and climate talks \u2013\u00a0not Juncker \u2013\u00a0are the real show in Brussels | Fiona Harvey", "webUrl": "https://www.theguardian.com/environment/2014/jun/27/eu-energy-climate-talks-juncker-brussels", "apiUrl": "https://content.guardianapis.com/environment/2014/jun/27/eu-energy-climate-talks-juncker-brussels", "isHosted": false, "pillarId": "pillar/news", "pillarName": "News"}, {"id": "world/2014/jun/27/labor-intent-hanging-tony-abbott-with-own-words", "type": "article", "sectionId": "world", "sectionName": "World news", "webPublicationDate": "2014-06-27T10:12:51Z", "webTitle": "Labor appears intent upon hanging Tony Abbott with his own words", "webUrl": "https://www.theguardian.com/world/2014/jun/27/labor-intent-hanging-tony-abbott-with-own-words", "apiUrl": "https://content.guardianapis.com/world/2014/jun/27/labor-intent-hanging-tony-abbott-with-own-words", "isHosted": false, "pillarId": "pillar/news", "pillarName": "News"}, {"id": "environment/2014/jun/27/land-grabbing-food-biofuels-crops", "type": "article", "sectionId": "environment", "sectionName": "Environment", "webPublicationDate": "2014-06-27T09:48:52Z", "webTitle": "Land taken over by foreign investors could feed 550m people, study finds", "webUrl": "https://www.theguardian.com/environment/2014/jun/27/land-grabbing-food-biofuels-crops", "apiUrl": "https://content.guardianapis.com/environment/2014/jun/27/land-grabbing-food-biofuels-crops", "isHosted": false, "pillarId": "pillar/news", "pillarName": "News"}, {"id": "environment/2014/jun/27/recyclable-coffee-cup-uk-landfill-breakthrough", "type": "article", "sectionId": "environment", "sectionName": "Environment", "webPublicationDate": "2014-06-27T08:46:09Z", "webTitle": "World's first fully recyclable paper cup to hit UK high streets", "webUrl": "https://www.theguardian.com/environment/2014/jun/27/recyclable-coffee-cup-uk-landfill-breakthrough", "apiUrl": "https://content.guardianapis.com/environment/2014/jun/27/recyclable-coffee-cup-uk-landfill-breakthrough", "isHosted": false, "pillarId": "pillar/news", "pillarName": "News"}, {"id": "environment/2014/jun/27/carbon-tax-repeal-hydro-tasmania-says-it-will-cut-nearly-100-jobs", "type": "article", "sectionId": "environment", "sectionName": "Environment", "webPublicationDate": "2014-06-27T07:32:50Z", "webTitle": "Carbon tax repeal: Hydro Tasmania says it will cut nearly 100 jobs", "webUrl": "https://www.theguardian.com/environment/2014/jun/27/carbon-tax-repeal-hydro-tasmania-says-it-will-cut-nearly-100-jobs", "apiUrl": "https://content.guardianapis.com/environment/2014/jun/27/carbon-tax-repeal-hydro-tasmania-says-it-will-cut-nearly-100-jobs", "isHosted": false, "pillarId": "pillar/news", "pillarName": "News"}, {"id": "environment/2014/jun/27/abbott-optimistic-on-carbon-tax-repeal-despite-crossbench-senators-concerns", "type": "article", "sectionId": "environment", "sectionName": "Environment", "webPublicationDate": "2014-06-27T05:10:02Z", "webTitle": "Abbott 'optimistic' on carbon tax repeal despite crossbench senator's concerns", "webUrl": "https://www.theguardian.com/environment/2014/jun/27/abbott-optimistic-on-carbon-tax-repeal-despite-crossbench-senators-concerns", "apiUrl": "https://content.guardianapis.com/environment/2014/jun/27/abbott-optimistic-on-carbon-tax-repeal-despite-crossbench-senators-concerns", "isHosted": false, "pillarId": "pillar/news", "pillarName": "News"}, {"id": "environment/2014/jun/27/environmental-activist-jailed-malaysia-protest-natalie-lowrey", "type": "article", "sectionId": "environment", "sectionName": "Environment", "webPublicationDate": "2014-06-27T01:58:24Z", "webTitle": "Supporters of environmental activist jailed in Malaysia protest in Sydney", "webUrl": "https://www.theguardian.com/environment/2014/jun/27/environmental-activist-jailed-malaysia-protest-natalie-lowrey", "apiUrl": "https://content.guardianapis.com/environment/2014/jun/27/environmental-activist-jailed-malaysia-protest-natalie-lowrey", "isHosted": false, "pillarId": "pillar/news", "pillarName": "News"}, {"id": "environment/2014/jun/27/spending-watchdog-criticises-16bn-renewable-energy-deal", "type": "article", "sectionId": "environment", "sectionName": "Environment", "webPublicationDate": "2014-06-26T23:01:00Z", "webTitle": "Spending watchdog criticises ministers over \u00a316bn renewable energy deals", "webUrl": "https://www.theguardian.com/environment/2014/jun/27/spending-watchdog-criticises-16bn-renewable-energy-deal", "apiUrl": "https://content.guardianapis.com/environment/2014/jun/27/spending-watchdog-criticises-16bn-renewable-energy-deal", "isHosted": false, "pillarId": "pillar/news", "pillarName": "News"}, {"id": "environment/2014/jun/26/moving-encounter-cautious-caterpillar", "type": "article", "sectionId": "environment", "sectionName": "Environment", "webPublicationDate": "2014-06-26T20:00:00Z", "webTitle": "Country diary, South Uist: A moving encounter with a cautious caterpillar", "webUrl": "https://www.theguardian.com/environment/2014/jun/26/moving-encounter-cautious-caterpillar", "apiUrl": "https://content.guardianapis.com/environment/2014/jun/26/moving-encounter-cautious-caterpillar", "isHosted": false, "pillarId": "pillar/news", "pillarName": "News"}, {"id": "environment/2014/jun/26/do-farmers-really-need-bee-harming-insecticides-neonicotinoids", "type": "liveblog", "sectionId": "environment", "sectionName": "Environment", "webPublicationDate": "2014-06-26T17:00:49Z", "webTitle": "Do farmers really need bee-harming insecticides?", "webUrl": "https://www.theguardian.com/environment/2014/jun/26/do-farmers-really-need-bee-harming-insecticides-neonicotinoids", "apiUrl": "https://content.guardianapis.com/environment/2014/jun/26/do-farmers-really-need-bee-harming-insecticides-neonicotinoids", "isHosted": false, "pillarId": "pillar/news", "pillarName": "News"}, {"id": "environment/2014/jun/26/lord-smith-flooding-budget-cuts-climate-change-extreme-weather", "type": "article", "sectionId": "environment", "sectionName": "Environment", "webPublicationDate": "2014-06-26T16:25:49Z", "webTitle": "Lord Smith: flooding budget cuts put UK at the mercy of extreme weather", "webUrl": "https://www.theguardian.com/environment/2014/jun/26/lord-smith-flooding-budget-cuts-climate-change-extreme-weather", "apiUrl": "https://content.guardianapis.com/environment/2014/jun/26/lord-smith-flooding-budget-cuts-climate-change-extreme-weather", "isHosted": false, "pillarId": "pillar/news", "pillarName": "News"}, {"id": "sustainable-business/green-financial-policy-new-generation", "type": "article", "sectionId": "sustainable-business", "sectionName": "Guardian Sustainable Business", "webPublicationDate": "2014-06-26T16:06:00Z", "webTitle": "Welcoming a new generation of green financial policy innovation", "webUrl": "https://www.theguardian.com/sustainable-business/green-financial-policy-new-generation", "apiUrl": "https://content.guardianapis.com/sustainable-business/green-financial-policy-new-generation", "isHosted": false}, {"id": "sustainable-business/2014/jun/26/green-executive-compensation-intel-alcoa-pay", "type": "article", "sectionId": "sustainable-business", "sectionName": "Guardian Sustainable Business", "webPublicationDate": "2014-06-26T15:43:41Z", "webTitle": "Putting your money where your mouth is: companies link green goals to pay", "webUrl": "https://www.theguardian.com/sustainable-business/2014/jun/26/green-executive-compensation-intel-alcoa-pay", "apiUrl": "https://content.guardianapis.com/sustainable-business/2014/jun/26/green-executive-compensation-intel-alcoa-pay", "isHosted": false}, {"id": "world/2014/jun/26/vultures-africa-poison-carcasses-poachers-crisis", "type": "article", "sectionId": "global", "sectionName": "Global", "webPublicationDate": "2014-06-26T15:19:56Z", "webTitle": "Africa's vulture population in jeopardy following mass poisoning incidents", "webUrl": "https://www.theguardian.com/world/2014/jun/26/vultures-africa-poison-carcasses-poachers-crisis", "apiUrl": "https://content.guardianapis.com/world/2014/jun/26/vultures-africa-poison-carcasses-poachers-crisis", "isHosted": false}, {"id": "environment/blog/2014/jun/26/commonsense-prevails-as-bbc-upholds-today-programme-climate-complaint", "type": "article", "sectionId": "environment", "sectionName": "Environment", "webPublicationDate": "2014-06-26T14:54:41Z", "webTitle": "Commonsense prevails as BBC upholds Today programme climate complaint | Bob Ward", "webUrl": "https://www.theguardian.com/environment/blog/2014/jun/26/commonsense-prevails-as-bbc-upholds-today-programme-climate-complaint", "apiUrl": "https://content.guardianapis.com/environment/blog/2014/jun/26/commonsense-prevails-as-bbc-upholds-today-programme-climate-complaint", "isHosted": false, "pillarId": "pillar/news", "pillarName": "News"}, {"id": "environment/2014/jun/26/wind-renewables-generated-fifth-britain-electricity-energy", "type": "article", "sectionId": "environment", "sectionName": "Environment", "webPublicationDate": "2014-06-26T14:12:03Z", "webTitle": "Wind and other renewables generated a fifth of Britain's electricity in early 2014", "webUrl": "https://www.theguardian.com/environment/2014/jun/26/wind-renewables-generated-fifth-britain-electricity-energy", "apiUrl": "https://content.guardianapis.com/environment/2014/jun/26/wind-renewables-generated-fifth-britain-electricity-energy", "isHosted": false, "pillarId": "pillar/news", "pillarName": "News"}, {"id": "environment/2014/jun/26/battle-dot-eco-domain-name-internet-green-groups", "type": "article", "sectionId": "environment", "sectionName": "Environment", "webPublicationDate": "2014-06-26T13:03:53Z", "webTitle": "Battle gets under way for control of the .eco domain name", "webUrl": "https://www.theguardian.com/environment/2014/jun/26/battle-dot-eco-domain-name-internet-green-groups", "apiUrl": "https://content.guardianapis.com/environment/2014/jun/26/battle-dot-eco-domain-name-internet-green-groups", "isHosted": false, "pillarId": "pillar/news", "pillarName": "News"}, {"id": "cities/2014/jun/26/uk-parks-crisis-budget-cuts-campaigners", "type": "article", "sectionId": "environment", "sectionName": "Environment", "webPublicationDate": "2014-06-26T11:23:33Z", "webTitle": "UK parks are near crisis point because of budget cuts, say campaigners", "webUrl": "https://www.theguardian.com/cities/2014/jun/26/uk-parks-crisis-budget-cuts-campaigners", "apiUrl": "https://content.guardianapis.com/cities/2014/jun/26/uk-parks-crisis-budget-cuts-campaigners", "isHosted": false, "pillarId": "pillar/news", "pillarName": "News"}]}}