{"response": {"status": "ok", "userTier": "developer", "total": 44085, "startIndex": 1, "pageSize": 50, "currentPage": 1, "pages": 882, "orderBy": "newest", "results": [{"id": "world/2015/jun/30/catholic-organisations-call-lifestyle-chages-environment-pope-francis", "type": "article", "sectionId": "world", "sectionName": "World news", "webPublicationDate": "2015-06-30T22:06:48Z", "webTitle": "Catholic organisations call for people to change lifestyles to help environment", "webUrl": "https://www.theguardian.com/world/2015/jun/30/catholic-organisations-call-lifestyle-chages-environment-pope-francis", "apiUrl": "https://content.guardianapis.com/world/2015/jun/30/catholic-organisations-call-lifestyle-chages-environment-pope-francis", "isHosted": false, "pillarId": "pillar/news", "pillarName": "News"}, {"id": "uk-news/2015/jun/30/the-runway-guessing-game-is-never-easy", "type": "article", "sectionId": "uk-news", "sectionName": "UK news", "webPublicationDate": "2015-06-30T19:43:06Z", "webTitle": "The runway guessing game is never easy | Letters", "webUrl": "https://www.theguardian.com/uk-news/2015/jun/30/the-runway-guessing-game-is-never-easy", "apiUrl": "https://content.guardianapis.com/uk-news/2015/jun/30/the-runway-guessing-game-is-never-easy", "isHosted": false, "pillarId": "pillar/news", "pillarName": "News"}, {"id": "uk-news/2015/jun/30/rural-buses-mean-life-in-the-slow-lane", "type": "article", "sectionId": "uk-news", "sectionName": "UK news", "webPublicationDate": "2015-06-30T19:41:40Z", "webTitle": "Rural buses mean life in the slow lane | Letters", "webUrl": "https://www.theguardian.com/uk-news/2015/jun/30/rural-buses-mean-life-in-the-slow-lane", "apiUrl": "https://content.guardianapis.com/uk-news/2015/jun/30/rural-buses-mean-life-in-the-slow-lane", "isHosted": false, "pillarId": "pillar/news", "pillarName": "News"}, {"id": "sustainable-business/2015/jun/30/beyond-meat-sustainability-climate-change-fossil-fuels", "type": "article", "sectionId": "sustainable-business", "sectionName": "Guardian Sustainable Business", "webPublicationDate": "2015-06-30T19:38:50Z", "webTitle": "The science of sustainability: what we've learned from artificial photosynthesis and synthetic meat", "webUrl": "https://www.theguardian.com/sustainable-business/2015/jun/30/beyond-meat-sustainability-climate-change-fossil-fuels", "apiUrl": "https://content.guardianapis.com/sustainable-business/2015/jun/30/beyond-meat-sustainability-climate-change-fossil-fuels", "isHosted": false}, {"id": "environment/2015/jun/30/london-airports-expansion-report-will-not-be-binding-say-tories", "type": "article", "sectionId": "environment", "sectionName": "Environment", "webPublicationDate": "2015-06-30T19:34:03Z", "webTitle": "London airports expansion report will not be binding, says government", "webUrl": "https://www.theguardian.com/environment/2015/jun/30/london-airports-expansion-report-will-not-be-binding-say-tories", "apiUrl": "https://content.guardianapis.com/environment/2015/jun/30/london-airports-expansion-report-will-not-be-binding-say-tories", "isHosted": false, "pillarId": "pillar/news", "pillarName": "News"}, {"id": "environment/2015/jun/30/lighter-evenings-beat-high-speed-rail", "type": "article", "sectionId": "environment", "sectionName": "Environment", "webPublicationDate": "2015-06-30T19:33:54Z", "webTitle": "Lighter evenings beat high-speed rail | Letters", "webUrl": "https://www.theguardian.com/environment/2015/jun/30/lighter-evenings-beat-high-speed-rail", "apiUrl": "https://content.guardianapis.com/environment/2015/jun/30/lighter-evenings-beat-high-speed-rail", "isHosted": false, "pillarId": "pillar/news", "pillarName": "News"}, {"id": "environment/2015/jun/30/north-york-moors-potash-mine-gets-17bn-go-ahead", "type": "article", "sectionId": "environment", "sectionName": "Environment", "webPublicationDate": "2015-06-30T18:47:13Z", "webTitle": "North York Moors potash mine gets \u00a31.7bn go-ahead", "webUrl": "https://www.theguardian.com/environment/2015/jun/30/north-york-moors-potash-mine-gets-17bn-go-ahead", "apiUrl": "https://content.guardianapis.com/environment/2015/jun/30/north-york-moors-potash-mine-gets-17bn-go-ahead", "isHosted": false, "pillarId": "pillar/news", "pillarName": "News"}, {"id": "environment/2015/jun/30/russias-rosneft-charged-over-pipeline-leak-that-caused-oil-to-come-out-of-taps", "type": "article", "sectionId": "environment", "sectionName": "Environment", "webPublicationDate": "2015-06-30T18:31:34Z", "webTitle": "Russia's Rosneft charged over pipeline leak that caused oil to come out of taps", "webUrl": "https://www.theguardian.com/environment/2015/jun/30/russias-rosneft-charged-over-pipeline-leak-that-caused-oil-to-come-out-of-taps", "apiUrl": "https://content.guardianapis.com/environment/2015/jun/30/russias-rosneft-charged-over-pipeline-leak-that-caused-oil-to-come-out-of-taps", "isHosted": false, "pillarId": "pillar/news", "pillarName": "News"}, {"id": "world/2015/jun/30/brazil-us-reforestation-forests-renewable-energy", "type": "article", "sectionId": "world", "sectionName": "World news", "webPublicationDate": "2015-06-30T17:49:00Z", "webTitle": "Brazil announces massive reforestation and renewable energy plan with US", "webUrl": "https://www.theguardian.com/world/2015/jun/30/brazil-us-reforestation-forests-renewable-energy", "apiUrl": "https://content.guardianapis.com/world/2015/jun/30/brazil-us-reforestation-forests-renewable-energy", "isHosted": false, "pillarId": "pillar/news", "pillarName": "News"}, {"id": "commentisfree/2015/jun/30/scotland-land-reform-national-parks", "type": "article", "sectionId": "commentisfree", "sectionName": "Opinion", "webPublicationDate": "2015-06-30T16:49:03Z", "webTitle": "Far from being a \u2018Mugabe-style grab\u2019, Scotland\u2019s land reform is too timid | George Monbiot", "webUrl": "https://www.theguardian.com/commentisfree/2015/jun/30/scotland-land-reform-national-parks", "apiUrl": "https://content.guardianapis.com/commentisfree/2015/jun/30/scotland-land-reform-national-parks", "isHosted": false, "pillarId": "pillar/opinion", "pillarName": "Opinion"}, {"id": "society/2015/jun/30/zero-quensel-obituary", "type": "article", "sectionId": "society", "sectionName": "Society", "webPublicationDate": "2015-06-30T16:48:21Z", "webTitle": "Zero Quensel obituary", "webUrl": "https://www.theguardian.com/society/2015/jun/30/zero-quensel-obituary", "apiUrl": "https://content.guardianapis.com/society/2015/jun/30/zero-quensel-obituary", "isHosted": false, "pillarId": "pillar/news", "pillarName": "News"}, {"id": "sustainable-business/2015/jun/30/the-european-circular-economy-package-expert-opinon", "type": "article", "sectionId": "sustainable-business", "sectionName": "Guardian Sustainable Business", "webPublicationDate": "2015-06-30T15:53:03Z", "webTitle": "The European circular economy package \u2013\u00a0what the experts think", "webUrl": "https://www.theguardian.com/sustainable-business/2015/jun/30/the-european-circular-economy-package-expert-opinon", "apiUrl": "https://content.guardianapis.com/sustainable-business/2015/jun/30/the-european-circular-economy-package-expert-opinon", "isHosted": false}, {"id": "sustainable-business/2015/jun/30/ramez-naam-capitalism-climate-change-ideas-markets", "type": "article", "sectionId": "sustainable-business", "sectionName": "Guardian Sustainable Business", "webPublicationDate": "2015-06-30T15:13:19Z", "webTitle": "Ramez Naam: capitalism is not the enemy of climate", "webUrl": "https://www.theguardian.com/sustainable-business/2015/jun/30/ramez-naam-capitalism-climate-change-ideas-markets", "apiUrl": "https://content.guardianapis.com/sustainable-business/2015/jun/30/ramez-naam-capitalism-climate-change-ideas-markets", "isHosted": false}, {"id": "environment/2015/jun/30/china-carbon-emissions-2030-premier-li-keqiang-un-paris-climate-change-summit", "type": "article", "sectionId": "environment", "sectionName": "Environment", "webPublicationDate": "2015-06-30T13:26:46Z", "webTitle": "China makes carbon pledge ahead of Paris climate change summit", "webUrl": "https://www.theguardian.com/environment/2015/jun/30/china-carbon-emissions-2030-premier-li-keqiang-un-paris-climate-change-summit", "apiUrl": "https://content.guardianapis.com/environment/2015/jun/30/china-carbon-emissions-2030-premier-li-keqiang-un-paris-climate-change-summit", "isHosted": false, "pillarId": "pillar/news", "pillarName": "News"}, {"id": "uk-news/davehillblog/2015/jun/30/london-greens-prepare-to-rise-to-challenge-of-2016-mayoral-race", "type": "article", "sectionId": "uk-news", "sectionName": "UK news", "webPublicationDate": "2015-06-30T11:33:16Z", "webTitle": "London Greens prepare to rise to challenge of 2016 mayoral race", "webUrl": "https://www.theguardian.com/uk-news/davehillblog/2015/jun/30/london-greens-prepare-to-rise-to-challenge-of-2016-mayoral-race", "apiUrl": "https://content.guardianapis.com/uk-news/davehillblog/2015/jun/30/london-greens-prepare-to-rise-to-challenge-of-2016-mayoral-race", "isHosted": false, "pillarId": "pillar/news", "pillarName": "News"}, {"id": "commentisfree/2015/jun/30/surviving-degrees-33-rules-british-heatwave", "type": "article", "sectionId": "commentisfree", "sectionName": "Opinion", "webPublicationDate": "2015-06-30T10:31:50Z", "webTitle": "Surviving by degrees: 33 rules for a (very British) heatwave | Stephen Moss", "webUrl": "https://www.theguardian.com/commentisfree/2015/jun/30/surviving-degrees-33-rules-british-heatwave", "apiUrl": "https://content.guardianapis.com/commentisfree/2015/jun/30/surviving-degrees-33-rules-british-heatwave", "isHosted": false, "pillarId": "pillar/opinion", "pillarName": "Opinion"}, {"id": "environment/2015/jun/30/uk-centre-fight-limit-climate-change", "type": "article", "sectionId": "environment", "sectionName": "Environment", "webPublicationDate": "2015-06-30T08:59:03Z", "webTitle": "The UK must be at the centre of the fight to limit climate change", "webUrl": "https://www.theguardian.com/environment/2015/jun/30/uk-centre-fight-limit-climate-change", "apiUrl": "https://content.guardianapis.com/environment/2015/jun/30/uk-centre-fight-limit-climate-change", "isHosted": false, "pillarId": "pillar/news", "pillarName": "News"}, {"id": "environment/2015/jun/30/north-york-moors-mineral-mine-national-park", "type": "article", "sectionId": "environment", "sectionName": "Environment", "webPublicationDate": "2015-06-30T06:50:42Z", "webTitle": "North York Moors mineral mine set to get go-ahead", "webUrl": "https://www.theguardian.com/environment/2015/jun/30/north-york-moors-mineral-mine-national-park", "apiUrl": "https://content.guardianapis.com/environment/2015/jun/30/north-york-moors-mineral-mine-national-park", "isHosted": false, "pillarId": "pillar/news", "pillarName": "News"}, {"id": "commentisfree/2015/jun/30/libertarians-arent-our-allies-in-building-a-progressive-australia", "type": "article", "sectionId": "commentisfree", "sectionName": "Opinion", "webPublicationDate": "2015-06-30T05:56:43Z", "webTitle": "Libertarians aren't our allies in building a progressive Australia | Jason Wilson", "webUrl": "https://www.theguardian.com/commentisfree/2015/jun/30/libertarians-arent-our-allies-in-building-a-progressive-australia", "apiUrl": "https://content.guardianapis.com/commentisfree/2015/jun/30/libertarians-arent-our-allies-in-building-a-progressive-australia", "isHosted": false, "pillarId": "pillar/opinion", "pillarName": "Opinion"}, {"id": "environment/2015/jun/30/government-must-explain-removal-of-support-for-onshore-wind-advisers-say", "type": "article", "sectionId": "environment", "sectionName": "Environment", "webPublicationDate": "2015-06-30T05:00:05Z", "webTitle": "Government must explain removal of support for onshore wind, advisers say", "webUrl": "https://www.theguardian.com/environment/2015/jun/30/government-must-explain-removal-of-support-for-onshore-wind-advisers-say", "apiUrl": "https://content.guardianapis.com/environment/2015/jun/30/government-must-explain-removal-of-support-for-onshore-wind-advisers-say", "isHosted": false, "pillarId": "pillar/news", "pillarName": "News"}, {"id": "environment/2015/jun/30/country-diary-dramas-big-and-small", "type": "article", "sectionId": "environment", "sectionName": "Environment", "webPublicationDate": "2015-06-30T04:29:05Z", "webTitle": "Dramas great and small", "webUrl": "https://www.theguardian.com/environment/2015/jun/30/country-diary-dramas-big-and-small", "apiUrl": "https://content.guardianapis.com/environment/2015/jun/30/country-diary-dramas-big-and-small", "isHosted": false, "pillarId": "pillar/news", "pillarName": "News"}, {"id": "environment/2015/jun/30/queensland-minister-says-green-groups-forced-radical-shift-on-great-barrier-reef", "type": "article", "sectionId": "environment", "sectionName": "Environment", "webPublicationDate": "2015-06-30T02:20:33Z", "webTitle": "Queensland minister says green groups forced radical shift on Great Barrier Reef", "webUrl": "https://www.theguardian.com/environment/2015/jun/30/queensland-minister-says-green-groups-forced-radical-shift-on-great-barrier-reef", "apiUrl": "https://content.guardianapis.com/environment/2015/jun/30/queensland-minister-says-green-groups-forced-radical-shift-on-great-barrier-reef", "isHosted": false, "pillarId": "pillar/news", "pillarName": "News"}, {"id": "lifeandstyle/2015/jun/29/usda-diet-nutrition-environment-sustainability-omega-3-beef", "type": "article", "sectionId": "lifeandstyle", "sectionName": "Life and style", "webPublicationDate": "2015-06-29T18:35:06Z", "webTitle": "How to eat healthy and save the planet", "webUrl": "https://www.theguardian.com/lifeandstyle/2015/jun/29/usda-diet-nutrition-environment-sustainability-omega-3-beef", "apiUrl": "https://content.guardianapis.com/lifeandstyle/2015/jun/29/usda-diet-nutrition-environment-sustainability-omega-3-beef", "isHosted": false, "pillarId": "pillar/lifestyle", "pillarName": "Lifestyle"}, {"id": "environment/2015/jun/29/supreme-court-air-pollution-epa-coal-plants", "type": "article", "sectionId": "environment", "sectionName": "Environment", "webPublicationDate": "2015-06-29T18:09:21Z", "webTitle": "US supreme court strikes down Obama's EPA limits on mercury pollution", "webUrl": "https://www.theguardian.com/environment/2015/jun/29/supreme-court-air-pollution-epa-coal-plants", "apiUrl": "https://content.guardianapis.com/environment/2015/jun/29/supreme-court-air-pollution-epa-coal-plants", "isHosted": false, "pillarId": "pillar/news", "pillarName": "News"}, {"id": "science/animal-magic/2015/jun/29/babblers-birds-origin-evolution-language", "type": "article", "sectionId": "science", "sectionName": "Science", "webPublicationDate": "2015-06-29T18:00:03Z", "webTitle": "Babblers speak to the origin of language", "webUrl": "https://www.theguardian.com/science/animal-magic/2015/jun/29/babblers-birds-origin-evolution-language", "apiUrl": "https://content.guardianapis.com/science/animal-magic/2015/jun/29/babblers-birds-origin-evolution-language", "isHosted": false, "pillarId": "pillar/news", "pillarName": "News"}, {"id": "commentisfree/2015/jun/29/celebrity-tree-planting", "type": "article", "sectionId": "commentisfree", "sectionName": "Opinion", "webPublicationDate": "2015-06-29T17:43:55Z", "webTitle": "When planting trees becomes a shallow PR gesture | Patrick Barkham", "webUrl": "https://www.theguardian.com/commentisfree/2015/jun/29/celebrity-tree-planting", "apiUrl": "https://content.guardianapis.com/commentisfree/2015/jun/29/celebrity-tree-planting", "isHosted": false, "pillarId": "pillar/opinion", "pillarName": "Opinion"}, {"id": "environment/2015/jun/29/un-climate-talks-moving-at-snails-pace-says-ban-ki-moon", "type": "article", "sectionId": "environment", "sectionName": "Environment", "webPublicationDate": "2015-06-29T17:19:56Z", "webTitle": "UN climate talks moving at snail's pace, says Ban Ki-moon", "webUrl": "https://www.theguardian.com/environment/2015/jun/29/un-climate-talks-moving-at-snails-pace-says-ban-ki-moon", "apiUrl": "https://content.guardianapis.com/environment/2015/jun/29/un-climate-talks-moving-at-snails-pace-says-ban-ki-moon", "isHosted": false, "pillarId": "pillar/news", "pillarName": "News"}, {"id": "sustainable-business/2015/jun/29/a-seven-step-guide-to-net-positive", "type": "article", "sectionId": "sustainable-business", "sectionName": "Guardian Sustainable Business", "webPublicationDate": "2015-06-29T15:58:29Z", "webTitle": "A seven step guide to net positive", "webUrl": "https://www.theguardian.com/sustainable-business/2015/jun/29/a-seven-step-guide-to-net-positive", "apiUrl": "https://content.guardianapis.com/sustainable-business/2015/jun/29/a-seven-step-guide-to-net-positive", "isHosted": false}, {"id": "environment/georgemonbiot/2015/jun/29/glastonbury-organisers-spirit-festival-make-vegetarian", "type": "article", "sectionId": "environment", "sectionName": "Environment", "webPublicationDate": "2015-06-29T13:22:08Z", "webTitle": "Glastonbury organisers: keep the spirit of the festival \u2013 make it vegetarian", "webUrl": "https://www.theguardian.com/environment/georgemonbiot/2015/jun/29/glastonbury-organisers-spirit-festival-make-vegetarian", "apiUrl": "https://content.guardianapis.com/environment/georgemonbiot/2015/jun/29/glastonbury-organisers-spirit-festival-make-vegetarian", "isHosted": false, "pillarId": "pillar/news", "pillarName": "News"}, {"id": "sustainable-business/2015/jun/29/circular-economy-inspires-young-people-to-change-the-world", "type": "article", "sectionId": "sustainable-business", "sectionName": "Guardian Sustainable Business", "webPublicationDate": "2015-06-29T13:17:48Z", "webTitle": "Circular economy inspires young people to change the world", "webUrl": "https://www.theguardian.com/sustainable-business/2015/jun/29/circular-economy-inspires-young-people-to-change-the-world", "apiUrl": "https://content.guardianapis.com/sustainable-business/2015/jun/29/circular-economy-inspires-young-people-to-change-the-world", "isHosted": false}, {"id": "environment/damian-carrington-blog/2015/jun/29/fracking-lancashire-council-shale-gas", "type": "article", "sectionId": "environment", "sectionName": "Environment", "webPublicationDate": "2015-06-29T13:17:44Z", "webTitle": "The prospects for UK shale gas have never looked bleaker | Damian Carrington", "webUrl": "https://www.theguardian.com/environment/damian-carrington-blog/2015/jun/29/fracking-lancashire-council-shale-gas", "apiUrl": "https://content.guardianapis.com/environment/damian-carrington-blog/2015/jun/29/fracking-lancashire-council-shale-gas", "isHosted": false, "pillarId": "pillar/news", "pillarName": "News"}, {"id": "environment/2015/jun/29/rich-countries-100bn-promise-fight-climate-change-not-delivered", "type": "article", "sectionId": "environment", "sectionName": "Environment", "webPublicationDate": "2015-06-29T12:51:16Z", "webTitle": "Rich countries' $100bn promise to fight climate change 'not delivered'", "webUrl": "https://www.theguardian.com/environment/2015/jun/29/rich-countries-100bn-promise-fight-climate-change-not-delivered", "apiUrl": "https://content.guardianapis.com/environment/2015/jun/29/rich-countries-100bn-promise-fight-climate-change-not-delivered", "isHosted": false, "pillarId": "pillar/news", "pillarName": "News"}, {"id": "environment/2015/jun/29/fracking-application-cuadrilla-rejected-lancashire-county-council", "type": "article", "sectionId": "environment", "sectionName": "Environment", "webPublicationDate": "2015-06-29T10:26:21Z", "webTitle": "Fracking application rejected by Lancashire county council", "webUrl": "https://www.theguardian.com/environment/2015/jun/29/fracking-application-cuadrilla-rejected-lancashire-county-council", "apiUrl": "https://content.guardianapis.com/environment/2015/jun/29/fracking-application-cuadrilla-rejected-lancashire-county-council", "isHosted": false, "pillarId": "pillar/news", "pillarName": "News"}, {"id": "science/grrlscientist/2015/jun/29/xeno-canto-crowdsourcing-the-worlds-birdsongs", "type": "article", "sectionId": "science", "sectionName": "Science", "webPublicationDate": "2015-06-29T10:04:59Z", "webTitle": "Xeno-canto: crowdsourcing the world's birdsongs | @GrrlScientist", "webUrl": "https://www.theguardian.com/science/grrlscientist/2015/jun/29/xeno-canto-crowdsourcing-the-worlds-birdsongs", "apiUrl": "https://content.guardianapis.com/science/grrlscientist/2015/jun/29/xeno-canto-crowdsourcing-the-worlds-birdsongs", "isHosted": false, "pillarId": "pillar/news", "pillarName": "News"}, {"id": "environment/2015/jun/26/gates-to-invest-2bn-in-breakthrough-renewable-energy-projects", "type": "article", "sectionId": "environment", "sectionName": "Environment", "webPublicationDate": "2015-06-29T07:06:29Z", "webTitle": "Bill Gates to invest $2bn in breakthrough renewable energy projects", "webUrl": "https://www.theguardian.com/environment/2015/jun/26/gates-to-invest-2bn-in-breakthrough-renewable-energy-projects", "apiUrl": "https://content.guardianapis.com/environment/2015/jun/26/gates-to-invest-2bn-in-breakthrough-renewable-energy-projects", "isHosted": false, "pillarId": "pillar/news", "pillarName": "News"}, {"id": "sustainable-business/2015/jun/29/the-self-healing-concrete-that-can-fix-its-own-cracks", "type": "article", "sectionId": "sustainable-business", "sectionName": "Guardian Sustainable Business", "webPublicationDate": "2015-06-29T06:00:11Z", "webTitle": "The self-healing concrete that can fix its own cracks", "webUrl": "https://www.theguardian.com/sustainable-business/2015/jun/29/the-self-healing-concrete-that-can-fix-its-own-cracks", "apiUrl": "https://content.guardianapis.com/sustainable-business/2015/jun/29/the-self-healing-concrete-that-can-fix-its-own-cracks", "isHosted": false}, {"id": "environment/radical-conservation/2015/jun/29/famous-baby-giant-armadillo-found-dead", "type": "article", "sectionId": "environment", "sectionName": "Environment", "webPublicationDate": "2015-06-29T05:28:09Z", "webTitle": "Famous baby giant armadillo found dead", "webUrl": "https://www.theguardian.com/environment/radical-conservation/2015/jun/29/famous-baby-giant-armadillo-found-dead", "apiUrl": "https://content.guardianapis.com/environment/radical-conservation/2015/jun/29/famous-baby-giant-armadillo-found-dead", "isHosted": false, "pillarId": "pillar/news", "pillarName": "News"}, {"id": "environment/2015/jun/29/canal-towpath-flowers-birds-elderflower", "type": "article", "sectionId": "environment", "sectionName": "Environment", "webPublicationDate": "2015-06-29T04:30:08Z", "webTitle": "The towpath is alive with the essence of summer", "webUrl": "https://www.theguardian.com/environment/2015/jun/29/canal-towpath-flowers-birds-elderflower", "apiUrl": "https://content.guardianapis.com/environment/2015/jun/29/canal-towpath-flowers-birds-elderflower", "isHosted": false, "pillarId": "pillar/news", "pillarName": "News"}, {"id": "environment/2015/jun/29/solar-plane-takes-off-solo-pacific-crossing", "type": "article", "sectionId": "environment", "sectionName": "Environment", "webPublicationDate": "2015-06-29T01:00:45Z", "webTitle": "Solar plane takes off in 'moment of truth' for longest solo flight in history", "webUrl": "https://www.theguardian.com/environment/2015/jun/29/solar-plane-takes-off-solo-pacific-crossing", "apiUrl": "https://content.guardianapis.com/environment/2015/jun/29/solar-plane-takes-off-solo-pacific-crossing", "isHosted": false, "pillarId": "pillar/news", "pillarName": "News"}, {"id": "environment/2015/jun/28/pollutionwatch-exhaust-emissions-world", "type": "article", "sectionId": "environment", "sectionName": "Environment", "webPublicationDate": "2015-06-28T20:30:07Z", "webTitle": "World pollutionwatch: Slow progress on the exhaust front", "webUrl": "https://www.theguardian.com/environment/2015/jun/28/pollutionwatch-exhaust-emissions-world", "apiUrl": "https://content.guardianapis.com/environment/2015/jun/28/pollutionwatch-exhaust-emissions-world", "isHosted": false, "pillarId": "pillar/news", "pillarName": "News"}, {"id": "world/2015/jun/28/pope-francis-environment-rome-naomi-klein-climate-change", "type": "article", "sectionId": "world", "sectionName": "World news", "webPublicationDate": "2015-06-28T15:43:58Z", "webTitle": "Pope Francis\u2019s environmental message brings thousands on to streets in Rome", "webUrl": "https://www.theguardian.com/world/2015/jun/28/pope-francis-environment-rome-naomi-klein-climate-change", "apiUrl": "https://content.guardianapis.com/world/2015/jun/28/pope-francis-environment-rome-naomi-klein-climate-change", "isHosted": false, "pillarId": "pillar/news", "pillarName": "News"}, {"id": "world/2015/jun/28/rwanda-lions-reintroduced-south-africa-akagera-national-park", "type": "article", "sectionId": "world", "sectionName": "World news", "webPublicationDate": "2015-06-28T15:00:20Z", "webTitle": "Lions to be reintroduced to Rwanda after 15-year absence following genocide", "webUrl": "https://www.theguardian.com/world/2015/jun/28/rwanda-lions-reintroduced-south-africa-akagera-national-park", "apiUrl": "https://content.guardianapis.com/world/2015/jun/28/rwanda-lions-reintroduced-south-africa-akagera-national-park", "isHosted": false, "pillarId": "pillar/news", "pillarName": "News"}, {"id": "environment/2015/jun/29/australian-climate-policy-paralysis-has-to-end-business-roundtable-says", "type": "article", "sectionId": "environment", "sectionName": "Environment", "webPublicationDate": "2015-06-28T14:05:00Z", "webTitle": "Australian climate policy paralysis has to end, business roundtable says", "webUrl": "https://www.theguardian.com/environment/2015/jun/29/australian-climate-policy-paralysis-has-to-end-business-roundtable-says", "apiUrl": "https://content.guardianapis.com/environment/2015/jun/29/australian-climate-policy-paralysis-has-to-end-business-roundtable-says", "isHosted": false, "pillarId": "pillar/news", "pillarName": "News"}, {"id": "us-news/2015/jun/28/california-oil-spill-expanded-production-venoco", "type": "article", "sectionId": "us-news", "sectionName": "US news", "webPublicationDate": "2015-06-28T11:00:05Z", "webTitle": "California oil spill cleanup continues as state may allow expanded production", "webUrl": "https://www.theguardian.com/us-news/2015/jun/28/california-oil-spill-expanded-production-venoco", "apiUrl": "https://content.guardianapis.com/us-news/2015/jun/28/california-oil-spill-expanded-production-venoco", "isHosted": false, "pillarId": "pillar/news", "pillarName": "News"}, {"id": "environment/2015/jun/28/heathrow-expansion-london-mayoral-contest-gareth-thomas", "type": "article", "sectionId": "environment", "sectionName": "Environment", "webPublicationDate": "2015-06-28T10:58:44Z", "webTitle": "Heathrow expansion key to London mayoral contest, says Labour hopeful", "webUrl": "https://www.theguardian.com/environment/2015/jun/28/heathrow-expansion-london-mayoral-contest-gareth-thomas", "apiUrl": "https://content.guardianapis.com/environment/2015/jun/28/heathrow-expansion-london-mayoral-contest-gareth-thomas", "isHosted": false, "pillarId": "pillar/news", "pillarName": "News"}, {"id": "music/2015/jun/28/dalai-lama-glastonbury-verdict-isis-unthinkable", "type": "article", "sectionId": "music", "sectionName": "Music", "webPublicationDate": "2015-06-28T10:33:08Z", "webTitle": "Dalai Lama tells Glastonbury of the need to speak out on climate change", "webUrl": "https://www.theguardian.com/music/2015/jun/28/dalai-lama-glastonbury-verdict-isis-unthinkable", "apiUrl": "https://content.guardianapis.com/music/2015/jun/28/dalai-lama-glastonbury-verdict-isis-unthinkable", "isHosted": false, "pillarId": "pillar/arts", "pillarName": "Arts"}, {"id": "music/2015/jun/28/the-monsanto-years-neil-young-promise-of-the-real-album-review", "type": "article", "sectionId": "music", "sectionName": "Music", "webPublicationDate": "2015-06-28T08:00:01Z", "webTitle": "Neil Young: The Monsanto Years review \u2013 quasi-punk love songs for the planet", "webUrl": "https://www.theguardian.com/music/2015/jun/28/the-monsanto-years-neil-young-promise-of-the-real-album-review", "apiUrl": "https://content.guardianapis.com/music/2015/jun/28/the-monsanto-years-neil-young-promise-of-the-real-album-review", "isHosted": false, "pillarId": "pillar/arts", "pillarName": "Arts"}, {"id": "environment/2015/jun/28/can-i-eat-organic-on-a-student-budget-ethical", "type": "article", "sectionId": "environment", "sectionName": "Environment", "webPublicationDate": "2015-06-28T05:00:09Z", "webTitle": "Can I eat organic on a student budget? | Lucy Siegle", "webUrl": "https://www.theguardian.com/environment/2015/jun/28/can-i-eat-organic-on-a-student-budget-ethical", "apiUrl": "https://content.guardianapis.com/environment/2015/jun/28/can-i-eat-organic-on-a-student-budget-ethical", "isHosted": false, "pillarId": "pillar/news", "pillarName": "News"}, {"id": "world/2015/jun/28/pope-climate-change-naomi-klein", "type": "article", "sectionId": "world", "sectionName": "World news", "webPublicationDate": "2015-06-27T23:11:02Z", "webTitle": "Pope Francis recruits Naomi Klein in climate change battle", "webUrl": "https://www.theguardian.com/world/2015/jun/28/pope-climate-change-naomi-klein", "apiUrl": "https://content.guardianapis.com/world/2015/jun/28/pope-climate-change-naomi-klein", "isHosted": false, "pillarId": "pillar/news", "pillarName": "News"}, {"id": "theobserver/2015/jun/28/pope-francis-far-from-perfect-but-changing-things", "type": "article", "sectionId": "world", "sectionName": "World news", "webPublicationDate": "2015-06-27T23:04:02Z", "webTitle": "Pope Francis: he\u2019s far from perfect, but he is changing things for the better | The big issue", "webUrl": "https://www.theguardian.com/theobserver/2015/jun/28/pope-francis-far-from-perfect-but-changing-things", "apiUrl": "https://content.guardianapis.com/theobserver/2015/jun/28/pope-francis-far-from-perfect-but-changing-things", "isHosted": false, "pillarId": "pillar/news", "pillarName": "News"}]}}