{"response": {"status": "ok", "userTier": "developer", "total": 131931, "startIndex": 1, "pageSize": 50, "currentPage": 1, "pages": 2639, "orderBy": "newest", "results": [{"id": "world/video/2011/jul/01/pensions-strikes-video", "type": "video", "sectionId": "world", "sectionName": "World news", "webPublicationDate": "2011-06-30T23:47:00Z", "webTitle": "Pensions strikes: a street level view - video", "webUrl": "https://www.theguardian.com/world/video/2011/jul/01/pensions-strikes-video", "apiUrl": "https://content.guardianapis.com/world/video/2011/jul/01/pensions-strikes-video", "isHosted": false, "pillarId": "pillar/news", "pillarName": "News"}, {"id": "commentisfree/cartoon/2011/jul/01/rupert-murdoch-bskyb-takeover", "type": "picture", "sectionId": "commentisfree", "sectionName": "Opinion", "webPublicationDate": "2011-06-30T23:01:00Z", "webTitle": "Steve Bell on Rupert Murdoch's BSkyB takeover", "webUrl": "https://www.theguardian.com/commentisfree/cartoon/2011/jul/01/rupert-murdoch-bskyb-takeover", "apiUrl": "https://content.guardianapis.com/commentisfree/cartoon/2011/jul/01/rupert-murdoch-bskyb-takeover", "isHosted": false, "pillarId": "pillar/opinion", "pillarName": "Opinion"}, {"id": "politics/2011/jun/30/hugh-muir-diary", "type": "article", "sectionId": "politics", "sectionName": "Politics", "webPublicationDate": "2011-06-30T21:45:01Z", "webTitle": "Hugh Muir's Diary", "webUrl": "https://www.theguardian.com/politics/2011/jun/30/hugh-muir-diary", "apiUrl": "https://content.guardianapis.com/politics/2011/jun/30/hugh-muir-diary", "isHosted": false, "pillarId": "pillar/news", "pillarName": "News"}, {"id": "environment/2011/jun/30/british-government-plan-play-down-fukushima", "type": "article", "sectionId": "environment", "sectionName": "Environment", "webPublicationDate": "2011-06-30T20:36:00Z", "webTitle": "Revealed: British government's plan to play down Fukushima", "webUrl": "https://www.theguardian.com/environment/2011/jun/30/british-government-plan-play-down-fukushima", "apiUrl": "https://content.guardianapis.com/environment/2011/jun/30/british-government-plan-play-down-fukushima", "isHosted": false, "pillarId": "pillar/news", "pillarName": "News"}, {"id": "politics/2011/jun/30/westminster-digested-pensions-strike-cameron", "type": "article", "sectionId": "politics", "sectionName": "Politics", "webPublicationDate": "2011-06-30T20:29:01Z", "webTitle": "Westminster digested", "webUrl": "https://www.theguardian.com/politics/2011/jun/30/westminster-digested-pensions-strike-cameron", "apiUrl": "https://content.guardianapis.com/politics/2011/jun/30/westminster-digested-pensions-strike-cameron", "isHosted": false, "pillarId": "pillar/news", "pillarName": "News"}, {"id": "politics/wintour-and-watt/2011/jun/30/edmiliband-edballs", "type": "article", "sectionId": "politics", "sectionName": "Politics", "webPublicationDate": "2011-06-30T20:25:00Z", "webTitle": "Are Ed Miliband and Ed Balls playing a blinder on strikes and the EU budget?", "webUrl": "https://www.theguardian.com/politics/wintour-and-watt/2011/jun/30/edmiliband-edballs", "apiUrl": "https://content.guardianapis.com/politics/wintour-and-watt/2011/jun/30/edmiliband-edballs", "isHosted": false, "pillarId": "pillar/news", "pillarName": "News"}, {"id": "media/2011/jun/30/news-corporation-powerful-media", "type": "article", "sectionId": "media", "sectionName": "Media", "webPublicationDate": "2011-06-30T20:03:15Z", "webTitle": "News Corporation: most powerful media firm gets more powerful | Analysis", "webUrl": "https://www.theguardian.com/media/2011/jun/30/news-corporation-powerful-media", "apiUrl": "https://content.guardianapis.com/media/2011/jun/30/news-corporation-powerful-media", "isHosted": false, "pillarId": "pillar/news", "pillarName": "News"}, {"id": "society/2011/jun/30/biggest-school-strikes-1980s-doubts-pension-reforms", "type": "article", "sectionId": "society", "sectionName": "Society", "webPublicationDate": "2011-06-30T20:00:23Z", "webTitle": "Biggest school strikes since 1980s as doubts grow on pension reform", "webUrl": "https://www.theguardian.com/society/2011/jun/30/biggest-school-strikes-1980s-doubts-pension-reforms", "apiUrl": "https://content.guardianapis.com/society/2011/jun/30/biggest-school-strikes-1980s-doubts-pension-reforms", "isHosted": false, "pillarId": "pillar/news", "pillarName": "News"}, {"id": "society/2011/jun/30/real-public-sector-cuts", "type": "article", "sectionId": "society", "sectionName": "Society", "webPublicationDate": "2011-06-30T20:00:06Z", "webTitle": "Letters: Figures show real public sector cuts", "webUrl": "https://www.theguardian.com/society/2011/jun/30/real-public-sector-cuts", "apiUrl": "https://content.guardianapis.com/society/2011/jun/30/real-public-sector-cuts", "isHosted": false, "pillarId": "pillar/news", "pillarName": "News"}, {"id": "politics/2011/jun/30/labour-public-sector-pensions", "type": "article", "sectionId": "politics", "sectionName": "Politics", "webPublicationDate": "2011-06-30T20:00:04Z", "webTitle": "Letters: Question mark over Labour's credentials", "webUrl": "https://www.theguardian.com/politics/2011/jun/30/labour-public-sector-pensions", "apiUrl": "https://content.guardianapis.com/politics/2011/jun/30/labour-public-sector-pensions", "isHosted": false, "pillarId": "pillar/news", "pillarName": "News"}, {"id": "media/2011/jun/30/requirements-imposed-on-news-corp", "type": "article", "sectionId": "media", "sectionName": "Media", "webPublicationDate": "2011-06-30T19:48:13Z", "webTitle": "Empty promises? The Sky News requirements imposed on News Corp", "webUrl": "https://www.theguardian.com/media/2011/jun/30/requirements-imposed-on-news-corp", "apiUrl": "https://content.guardianapis.com/media/2011/jun/30/requirements-imposed-on-news-corp", "isHosted": false, "pillarId": "pillar/news", "pillarName": "News"}, {"id": "world/2011/jun/30/labour-eu-trillion-euro-budget", "type": "article", "sectionId": "world", "sectionName": "World news", "webPublicationDate": "2011-06-30T19:30:01Z", "webTitle": "Labour joins Conservative attack on EU's \u20ac1tn budget proposal", "webUrl": "https://www.theguardian.com/world/2011/jun/30/labour-eu-trillion-euro-budget", "apiUrl": "https://content.guardianapis.com/world/2011/jun/30/labour-eu-trillion-euro-budget", "isHosted": false, "pillarId": "pillar/news", "pillarName": "News"}, {"id": "commentisfree/2011/jun/30/strikes-coalition-iraq-moment", "type": "article", "sectionId": "commentisfree", "sectionName": "Opinion", "webPublicationDate": "2011-06-30T19:30:00Z", "webTitle": "These strikes could become the coalition's Iraq moment | Martin Kettle", "webUrl": "https://www.theguardian.com/commentisfree/2011/jun/30/strikes-coalition-iraq-moment", "apiUrl": "https://content.guardianapis.com/commentisfree/2011/jun/30/strikes-coalition-iraq-moment", "isHosted": false, "pillarId": "pillar/opinion", "pillarName": "Opinion"}, {"id": "commentisfree/2011/jun/30/rupert-murdoch-empire-the-sun", "type": "article", "sectionId": "commentisfree", "sectionName": "Opinion", "webPublicationDate": "2011-06-30T19:29:04Z", "webTitle": "Rupert Murdoch: Empire of the Sun | Editorial", "webUrl": "https://www.theguardian.com/commentisfree/2011/jun/30/rupert-murdoch-empire-the-sun", "apiUrl": "https://content.guardianapis.com/commentisfree/2011/jun/30/rupert-murdoch-empire-the-sun", "isHosted": false, "pillarId": "pillar/opinion", "pillarName": "Opinion"}, {"id": "politics/2011/jun/30/ed-miliband-booed-attack-on-strikers", "type": "article", "sectionId": "politics", "sectionName": "Politics", "webPublicationDate": "2011-06-30T19:24:05Z", "webTitle": "Ed Miliband booed at union rally after attacking public sector strikers", "webUrl": "https://www.theguardian.com/politics/2011/jun/30/ed-miliband-booed-attack-on-strikers", "apiUrl": "https://content.guardianapis.com/politics/2011/jun/30/ed-miliband-booed-attack-on-strikers", "isHosted": false, "pillarId": "pillar/news", "pillarName": "News"}, {"id": "media/2011/jun/30/rupert-murdoch-bskyb-takeover-price", "type": "article", "sectionId": "media", "sectionName": "Media", "webPublicationDate": "2011-06-30T19:19:15Z", "webTitle": "Rupert Murdoch finally gets green light for BSkyB takeover \u2013 but at a price", "webUrl": "https://www.theguardian.com/media/2011/jun/30/rupert-murdoch-bskyb-takeover-price", "apiUrl": "https://content.guardianapis.com/media/2011/jun/30/rupert-murdoch-bskyb-takeover-price", "isHosted": false, "pillarId": "pillar/news", "pillarName": "News"}, {"id": "society/2011/jun/30/public-sector-pensions-policy", "type": "article", "sectionId": "society", "sectionName": "Society", "webPublicationDate": "2011-06-30T19:05:13Z", "webTitle": "Public sector strikers clean up after giving dressing down to government", "webUrl": "https://www.theguardian.com/society/2011/jun/30/public-sector-pensions-policy", "apiUrl": "https://content.guardianapis.com/society/2011/jun/30/public-sector-pensions-policy", "isHosted": false, "pillarId": "pillar/news", "pillarName": "News"}, {"id": "politics/2011/jun/30/labour-guru-german-public-service-vision", "type": "article", "sectionId": "politics", "sectionName": "Politics", "webPublicationDate": "2011-06-30T18:44:00Z", "webTitle": "Blue Labour guru Maurice Glasman sets out public service vision", "webUrl": "https://www.theguardian.com/politics/2011/jun/30/labour-guru-german-public-service-vision", "apiUrl": "https://content.guardianapis.com/politics/2011/jun/30/labour-guru-german-public-service-vision", "isHosted": false, "pillarId": "pillar/news", "pillarName": "News"}, {"id": "commentisfree/2011/jun/30/gay-pride-london", "type": "article", "sectionId": "commentisfree", "sectionName": "Opinion", "webPublicationDate": "2011-06-30T18:38:12Z", "webTitle": "Comment is free readers on \u2026 attending gay pride | The people's panel", "webUrl": "https://www.theguardian.com/commentisfree/2011/jun/30/gay-pride-london", "apiUrl": "https://content.guardianapis.com/commentisfree/2011/jun/30/gay-pride-london", "isHosted": false, "pillarId": "pillar/opinion", "pillarName": "Opinion"}, {"id": "society/2011/jun/30/pensions-strike-wake-up-call-ministers", "type": "article", "sectionId": "society", "sectionName": "Society", "webPublicationDate": "2011-06-30T18:06:21Z", "webTitle": "Pensions strike a 'wake-up call' for ministers", "webUrl": "https://www.theguardian.com/society/2011/jun/30/pensions-strike-wake-up-call-ministers", "apiUrl": "https://content.guardianapis.com/society/2011/jun/30/pensions-strike-wake-up-call-ministers", "isHosted": false, "pillarId": "pillar/news", "pillarName": "News"}, {"id": "politics/2011/jun/30/bskyb-ruling-italy-labour", "type": "article", "sectionId": "politics", "sectionName": "Politics", "webPublicationDate": "2011-06-30T17:54:28Z", "webTitle": "BSkyB ruling 'just like Italy' | Simon Hoggart's sketch", "webUrl": "https://www.theguardian.com/politics/2011/jun/30/bskyb-ruling-italy-labour", "apiUrl": "https://content.guardianapis.com/politics/2011/jun/30/bskyb-ruling-italy-labour", "isHosted": false, "pillarId": "pillar/news", "pillarName": "News"}, {"id": "politics/2011/jun/30/terrorist-prisoners-home-office", "type": "article", "sectionId": "politics", "sectionName": "Politics", "webPublicationDate": "2011-06-30T17:45:38Z", "webTitle": "Rise in number of freed terrorists raises security fears", "webUrl": "https://www.theguardian.com/politics/2011/jun/30/terrorist-prisoners-home-office", "apiUrl": "https://content.guardianapis.com/politics/2011/jun/30/terrorist-prisoners-home-office", "isHosted": false, "pillarId": "pillar/news", "pillarName": "News"}, {"id": "society/2011/jun/30/heart-surgeon-system-children-change", "type": "article", "sectionId": "society", "sectionName": "Society", "webPublicationDate": "2011-06-30T17:22:52Z", "webTitle": "Heart surgeon: the system for children wrecks confidence - it must change", "webUrl": "https://www.theguardian.com/society/2011/jun/30/heart-surgeon-system-children-change", "apiUrl": "https://content.guardianapis.com/society/2011/jun/30/heart-surgeon-system-children-change", "isHosted": false, "pillarId": "pillar/news", "pillarName": "News"}, {"id": "environment/2011/jun/30/electric-highway-policy-uturn", "type": "article", "sectionId": "environment", "sectionName": "Environment", "webPublicationDate": "2011-06-30T16:08:46Z", "webTitle": "'Electric highway' policy marks latest coalition U-turn", "webUrl": "https://www.theguardian.com/environment/2011/jun/30/electric-highway-policy-uturn", "apiUrl": "https://content.guardianapis.com/environment/2011/jun/30/electric-highway-policy-uturn", "isHosted": false, "pillarId": "pillar/news", "pillarName": "News"}, {"id": "law/butterworth-and-bowcott-on-law/2011/jun/30/legal-aid-new-zealand-accuracy-figures", "type": "article", "sectionId": "law", "sectionName": "Law", "webPublicationDate": "2011-06-30T15:49:32Z", "webTitle": "How accurate are Ken Clarke's figures on legal aid? | Owen Bowcott", "webUrl": "https://www.theguardian.com/law/butterworth-and-bowcott-on-law/2011/jun/30/legal-aid-new-zealand-accuracy-figures", "apiUrl": "https://content.guardianapis.com/law/butterworth-and-bowcott-on-law/2011/jun/30/legal-aid-new-zealand-accuracy-figures", "isHosted": false, "pillarId": "pillar/news", "pillarName": "News"}, {"id": "politics/davehillblog/2011/jun/30/london-lib-dems-should-resist-lembit-opik", "type": "article", "sectionId": "politics", "sectionName": "Politics", "webPublicationDate": "2011-06-30T15:18:00Z", "webTitle": "London Lib Dems should resist Lembit's allure", "webUrl": "https://www.theguardian.com/politics/davehillblog/2011/jun/30/london-lib-dems-should-resist-lembit-opik", "apiUrl": "https://content.guardianapis.com/politics/davehillblog/2011/jun/30/london-lib-dems-should-resist-lembit-opik", "isHosted": false, "pillarId": "pillar/news", "pillarName": "News"}, {"id": "society/2011/jun/30/more-than-10000-schools-affected", "type": "article", "sectionId": "society", "sectionName": "Society", "webPublicationDate": "2011-06-30T14:52:00Z", "webTitle": "More than 11,000 schools affected by strikes", "webUrl": "https://www.theguardian.com/society/2011/jun/30/more-than-10000-schools-affected", "apiUrl": "https://content.guardianapis.com/society/2011/jun/30/more-than-10000-schools-affected", "isHosted": false, "pillarId": "pillar/news", "pillarName": "News"}, {"id": "politics/audio/2011/jun/30/politics-weekly-podcast-strikes-pensions", "type": "audio", "sectionId": "politics", "sectionName": "Politics", "webPublicationDate": "2011-06-30T14:00:32Z", "webTitle": "Politics Weekly podcast: Public sector workers strike over pensions", "webUrl": "https://www.theguardian.com/politics/audio/2011/jun/30/politics-weekly-podcast-strikes-pensions", "apiUrl": "https://content.guardianapis.com/politics/audio/2011/jun/30/politics-weekly-podcast-strikes-pensions", "isHosted": false, "pillarId": "pillar/news", "pillarName": "News"}, {"id": "uk/2011/jun/30/emergency-law-bail-ruling", "type": "article", "sectionId": "law", "sectionName": "Law", "webPublicationDate": "2011-06-30T13:45:39Z", "webTitle": "Emergency law to overturn court ruling on police bail", "webUrl": "https://www.theguardian.com/uk/2011/jun/30/emergency-law-bail-ruling", "apiUrl": "https://content.guardianapis.com/uk/2011/jun/30/emergency-law-bail-ruling", "isHosted": false, "pillarId": "pillar/news", "pillarName": "News"}, {"id": "media/2011/jun/30/news-corp-bskyb-bid-terms", "type": "article", "sectionId": "media", "sectionName": "Media", "webPublicationDate": "2011-06-30T13:02:25Z", "webTitle": "News Corp's BSkyB bid: deal could be agreed before end of July", "webUrl": "https://www.theguardian.com/media/2011/jun/30/news-corp-bskyb-bid-terms", "apiUrl": "https://content.guardianapis.com/media/2011/jun/30/news-corp-bskyb-bid-terms", "isHosted": false, "pillarId": "pillar/news", "pillarName": "News"}, {"id": "society/gallery/2011/jun/30/public-sector-strikes-in-pictures", "type": "gallery", "sectionId": "society", "sectionName": "Society", "webPublicationDate": "2011-06-30T12:45:00Z", "webTitle": "Public sector strikes: taking it to the streets \u2013 in pictures", "webUrl": "https://www.theguardian.com/society/gallery/2011/jun/30/public-sector-strikes-in-pictures", "apiUrl": "https://content.guardianapis.com/society/gallery/2011/jun/30/public-sector-strikes-in-pictures", "isHosted": false, "pillarId": "pillar/news", "pillarName": "News"}, {"id": "media/2011/jun/30/news-corp-bskyb-murdoch", "type": "article", "sectionId": "media", "sectionName": "Media", "webPublicationDate": "2011-06-30T12:33:30Z", "webTitle": "News Corp/BSkyB deal underlines Murdoch's political clout", "webUrl": "https://www.theguardian.com/media/2011/jun/30/news-corp-bskyb-murdoch", "apiUrl": "https://content.guardianapis.com/media/2011/jun/30/news-corp-bskyb-murdoch", "isHosted": false, "pillarId": "pillar/news", "pillarName": "News"}, {"id": "uk/2011/jun/30/wandsworth-u-turn-playground-fee", "type": "article", "sectionId": "uk-news", "sectionName": "UK news", "webPublicationDate": "2011-06-30T12:29:16Z", "webTitle": "Wandsworth U-turn over Battersea park playground fee", "webUrl": "https://www.theguardian.com/uk/2011/jun/30/wandsworth-u-turn-playground-fee", "apiUrl": "https://content.guardianapis.com/uk/2011/jun/30/wandsworth-u-turn-playground-fee", "isHosted": false, "pillarId": "pillar/news", "pillarName": "News"}, {"id": "society/patrick-butler-cuts-blog/2011/jun/30/charity-survey-suggest-bleak-outlook", "type": "article", "sectionId": "society", "sectionName": "Society", "webPublicationDate": "2011-06-30T12:13:30Z", "webTitle": "Charities: the cuts storm still rages", "webUrl": "https://www.theguardian.com/society/patrick-butler-cuts-blog/2011/jun/30/charity-survey-suggest-bleak-outlook", "apiUrl": "https://content.guardianapis.com/society/patrick-butler-cuts-blog/2011/jun/30/charity-survey-suggest-bleak-outlook", "isHosted": false, "pillarId": "pillar/news", "pillarName": "News"}, {"id": "society/2011/jun/30/doctors-ballot-industrial-action-pensions", "type": "article", "sectionId": "society", "sectionName": "Society", "webPublicationDate": "2011-06-30T11:47:50Z", "webTitle": "Public sector pensions: doctors vote to ballot on industrial action", "webUrl": "https://www.theguardian.com/society/2011/jun/30/doctors-ballot-industrial-action-pensions", "apiUrl": "https://content.guardianapis.com/society/2011/jun/30/doctors-ballot-industrial-action-pensions", "isHosted": false, "pillarId": "pillar/news", "pillarName": "News"}, {"id": "commentisfree/2011/jun/30/high-speed-train-nimby-sceptic", "type": "article", "sectionId": "commentisfree", "sectionName": "Opinion", "webPublicationDate": "2011-06-30T11:12:00Z", "webTitle": "HS2 has turned me from nimby to true sceptic | Tony Brignull", "webUrl": "https://www.theguardian.com/commentisfree/2011/jun/30/high-speed-train-nimby-sceptic", "apiUrl": "https://content.guardianapis.com/commentisfree/2011/jun/30/high-speed-train-nimby-sceptic", "isHosted": false, "pillarId": "pillar/opinion", "pillarName": "Opinion"}, {"id": "world/blog/2011/jun/30/christine-lagarde-women-progress-politics", "type": "article", "sectionId": "world", "sectionName": "World news", "webPublicationDate": "2011-06-30T10:47:51Z", "webTitle": "Christine Lagarde \u2013 Would Mary Wollestonecraft be impressed? | Michael White", "webUrl": "https://www.theguardian.com/world/blog/2011/jun/30/christine-lagarde-women-progress-politics", "apiUrl": "https://content.guardianapis.com/world/blog/2011/jun/30/christine-lagarde-women-progress-politics", "isHosted": false, "pillarId": "pillar/news", "pillarName": "News"}, {"id": "politics/2011/jun/30/inverclyde-byelection-race-goes-to-the-wire", "type": "article", "sectionId": "politics", "sectionName": "Politics", "webPublicationDate": "2011-06-30T10:45:48Z", "webTitle": "Inverclyde byelection race goes to the wire", "webUrl": "https://www.theguardian.com/politics/2011/jun/30/inverclyde-byelection-race-goes-to-the-wire", "apiUrl": "https://content.guardianapis.com/politics/2011/jun/30/inverclyde-byelection-race-goes-to-the-wire", "isHosted": false, "pillarId": "pillar/news", "pillarName": "News"}, {"id": "media/mediamonkeyblog/2011/jun/30/mirror-sky-waves-fist", "type": "article", "sectionId": "media", "sectionName": "Media", "webPublicationDate": "2011-06-30T10:44:42Z", "webTitle": "Mirror waves its fist at Sky | Media Monkey", "webUrl": "https://www.theguardian.com/media/mediamonkeyblog/2011/jun/30/mirror-sky-waves-fist", "apiUrl": "https://content.guardianapis.com/media/mediamonkeyblog/2011/jun/30/mirror-sky-waves-fist", "isHosted": false, "pillarId": "pillar/news", "pillarName": "News"}, {"id": "society/2011/jun/30/strikes-thousands-public-sector-workers", "type": "article", "sectionId": "society", "sectionName": "Society", "webPublicationDate": "2011-06-30T10:16:55Z", "webTitle": "'Hundreds of thousands' of public sector workers strike", "webUrl": "https://www.theguardian.com/society/2011/jun/30/strikes-thousands-public-sector-workers", "apiUrl": "https://content.guardianapis.com/society/2011/jun/30/strikes-thousands-public-sector-workers", "isHosted": false, "pillarId": "pillar/news", "pillarName": "News"}, {"id": "commentisfree/2011/jun/30/public-sector-pensions-fair", "type": "article", "sectionId": "commentisfree", "sectionName": "Opinion", "webPublicationDate": "2011-06-30T10:10:18Z", "webTitle": "Public sector pensions: What is fair? | Head to head", "webUrl": "https://www.theguardian.com/commentisfree/2011/jun/30/public-sector-pensions-fair", "apiUrl": "https://content.guardianapis.com/commentisfree/2011/jun/30/public-sector-pensions-fair", "isHosted": false, "pillarId": "pillar/opinion", "pillarName": "Opinion"}, {"id": "environment/georgemonbiot/2011/jun/30/sustainable-cities-urban-planning", "type": "article", "sectionId": "environment", "sectionName": "Environment", "webPublicationDate": "2011-06-30T10:07:43Z", "webTitle": "Sustainable cities must be compact and high-density | George Monbiot", "webUrl": "https://www.theguardian.com/environment/georgemonbiot/2011/jun/30/sustainable-cities-urban-planning", "apiUrl": "https://content.guardianapis.com/environment/georgemonbiot/2011/jun/30/sustainable-cities-urban-planning", "isHosted": false, "pillarId": "pillar/news", "pillarName": "News"}, {"id": "commentisfree/2011/jun/30/are-you-on-strike-today-why", "type": "article", "sectionId": "commentisfree", "sectionName": "Opinion", "webPublicationDate": "2011-06-30T09:49:00Z", "webTitle": "Are you on strike today? Tell us why | Jessica Reed and Bella Mackie", "webUrl": "https://www.theguardian.com/commentisfree/2011/jun/30/are-you-on-strike-today-why", "apiUrl": "https://content.guardianapis.com/commentisfree/2011/jun/30/are-you-on-strike-today-why", "isHosted": false, "pillarId": "pillar/opinion", "pillarName": "Opinion"}, {"id": "society/2011/jun/30/pensions-voice-for-ordinary-people", "type": "article", "sectionId": "society", "sectionName": "Society", "webPublicationDate": "2011-06-30T09:38:48Z", "webTitle": "Letters: Fair pensions and a voice for working people", "webUrl": "https://www.theguardian.com/society/2011/jun/30/pensions-voice-for-ordinary-people", "apiUrl": "https://content.guardianapis.com/society/2011/jun/30/pensions-voice-for-ordinary-people", "isHosted": false, "pillarId": "pillar/news", "pillarName": "News"}, {"id": "business/2011/jun/30/manufacture-an-economic-revival", "type": "article", "sectionId": "business", "sectionName": "Business", "webPublicationDate": "2011-06-30T09:37:59Z", "webTitle": "Letters: How to manufacture an economic revival", "webUrl": "https://www.theguardian.com/business/2011/jun/30/manufacture-an-economic-revival", "apiUrl": "https://content.guardianapis.com/business/2011/jun/30/manufacture-an-economic-revival", "isHosted": false, "pillarId": "pillar/news", "pillarName": "News"}, {"id": "politics/2011/jun/30/mutterings-david-cameron-appetite-reforms", "type": "article", "sectionId": "politics", "sectionName": "Politics", "webPublicationDate": "2011-06-29T23:01:06Z", "webTitle": "Mutterings grow as David Cameron loses appetite for reforms | Allegra Stratton", "webUrl": "https://www.theguardian.com/politics/2011/jun/30/mutterings-david-cameron-appetite-reforms", "apiUrl": "https://content.guardianapis.com/politics/2011/jun/30/mutterings-david-cameron-appetite-reforms", "isHosted": false, "pillarId": "pillar/news", "pillarName": "News"}, {"id": "environment/2011/jun/30/energy-companies-uk-homes-insulation", "type": "article", "sectionId": "environment", "sectionName": "Environment", "webPublicationDate": "2011-06-29T23:01:03Z", "webTitle": "Force energy companies to insulate UK homes, climate advisers say", "webUrl": "https://www.theguardian.com/environment/2011/jun/30/energy-companies-uk-homes-insulation", "apiUrl": "https://content.guardianapis.com/environment/2011/jun/30/energy-companies-uk-homes-insulation", "isHosted": false, "pillarId": "pillar/news", "pillarName": "News"}, {"id": "politics/2011/jun/29/business-rate-reforms-poor-councils", "type": "article", "sectionId": "society", "sectionName": "Society", "webPublicationDate": "2011-06-29T22:11:29Z", "webTitle": "Business rate reforms 'will not harm poor councils'", "webUrl": "https://www.theguardian.com/politics/2011/jun/29/business-rate-reforms-poor-councils", "apiUrl": "https://content.guardianapis.com/politics/2011/jun/29/business-rate-reforms-poor-councils", "isHosted": false, "pillarId": "pillar/news", "pillarName": "News"}, {"id": "politics/2011/jun/29/hugh-muirs-diary", "type": "article", "sectionId": "politics", "sectionName": "Politics", "webPublicationDate": "2011-06-29T21:45:00Z", "webTitle": "Hugh Muir's Diary", "webUrl": "https://www.theguardian.com/politics/2011/jun/29/hugh-muirs-diary", "apiUrl": "https://content.guardianapis.com/politics/2011/jun/29/hugh-muirs-diary", "isHosted": false, "pillarId": "pillar/news", "pillarName": "News"}, {"id": "politics/2011/jun/29/public-sector-strike-pensions-unions", "type": "article", "sectionId": "politics", "sectionName": "Politics", "webPublicationDate": "2011-06-29T20:43:56Z", "webTitle": "Public sector workers to start mass strike over pensions", "webUrl": "https://www.theguardian.com/politics/2011/jun/29/public-sector-strike-pensions-unions", "apiUrl": "https://content.guardianapis.com/politics/2011/jun/29/public-sector-strike-pensions-unions", "isHosted": false, "pillarId": "pillar/news", "pillarName": "News"}]}}