{"response": {"status": "ok", "userTier": "developer", "total": 133774, "startIndex": 1, "pageSize": 50, "currentPage": 1, "pages": 2676, "orderBy": "newest", "results": [{"id": "commentisfree/2012/jul/01/catherine-bennett-no-pity-for-chloe-smith", "type": "article", "sectionId": "commentisfree", "sectionName": "Opinion", "webPublicationDate": "2012-06-30T23:13:00Z", "webTitle": "Poor Chloe Smith? She deserves our contempt, not pity | Catherine Bennett", "webUrl": "https://www.theguardian.com/commentisfree/2012/jul/01/catherine-bennett-no-pity-for-chloe-smith", "apiUrl": "https://content.guardianapis.com/commentisfree/2012/jul/01/catherine-bennett-no-pity-for-chloe-smith", "isHosted": false, "pillarId": "pillar/opinion", "pillarName": "Opinion"}, {"id": "politics/2012/jul/01/whitehall-cedes-power-to-english-cities", "type": "article", "sectionId": "politics", "sectionName": "Politics", "webPublicationDate": "2012-06-30T23:06:00Z", "webTitle": "New powers to breathe life into England's cities", "webUrl": "https://www.theguardian.com/politics/2012/jul/01/whitehall-cedes-power-to-english-cities", "apiUrl": "https://content.guardianapis.com/politics/2012/jul/01/whitehall-cedes-power-to-english-cities", "isHosted": false, "pillarId": "pillar/news", "pillarName": "News"}, {"id": "theobserver/2012/jul/01/the-big-issue-house-of-lords-reform", "type": "article", "sectionId": "news", "sectionName": "News", "webPublicationDate": "2012-06-30T23:05:52Z", "webTitle": "The House of Lords: a new second chamber should reflect all the people of Britain | the big issue", "webUrl": "https://www.theguardian.com/theobserver/2012/jul/01/the-big-issue-house-of-lords-reform", "apiUrl": "https://content.guardianapis.com/theobserver/2012/jul/01/the-big-issue-house-of-lords-reform", "isHosted": false, "pillarId": "pillar/news", "pillarName": "News"}, {"id": "media/2012/jul/01/leveson-press-freedom-chloe-smith", "type": "article", "sectionId": "media", "sectionName": "Media", "webPublicationDate": "2012-06-30T23:04:11Z", "webTitle": "If junior ministers can't get their facts straight, all we are left with is comment", "webUrl": "https://www.theguardian.com/media/2012/jul/01/leveson-press-freedom-chloe-smith", "apiUrl": "https://content.guardianapis.com/media/2012/jul/01/leveson-press-freedom-chloe-smith", "isHosted": false, "pillarId": "pillar/news", "pillarName": "News"}, {"id": "politics/2012/jun/30/tony-blair-tax", "type": "article", "sectionId": "politics", "sectionName": "Politics", "webPublicationDate": "2012-06-30T22:27:27Z", "webTitle": "Tony Blair insists that he does not avoid paying tax", "webUrl": "https://www.theguardian.com/politics/2012/jun/30/tony-blair-tax", "apiUrl": "https://content.guardianapis.com/politics/2012/jun/30/tony-blair-tax", "isHosted": false, "pillarId": "pillar/news", "pillarName": "News"}, {"id": "politics/2012/jun/30/david-cameron-referendum-eu", "type": "article", "sectionId": "politics", "sectionName": "Politics", "webPublicationDate": "2012-06-30T21:56:58Z", "webTitle": "David Cameron pledges referendum if EU demands more powers", "webUrl": "https://www.theguardian.com/politics/2012/jun/30/david-cameron-referendum-eu", "apiUrl": "https://content.guardianapis.com/politics/2012/jun/30/david-cameron-referendum-eu", "isHosted": false, "pillarId": "pillar/news", "pillarName": "News"}, {"id": "commentisfree/2012/jun/30/public-schools-anthony-seldon", "type": "article", "sectionId": "commentisfree", "sectionName": "Opinion", "webPublicationDate": "2012-06-30T20:45:59Z", "webTitle": "Public schools can't go on in splendid isolation | Anthony Seldon", "webUrl": "https://www.theguardian.com/commentisfree/2012/jun/30/public-schools-anthony-seldon", "apiUrl": "https://content.guardianapis.com/commentisfree/2012/jun/30/public-schools-anthony-seldon", "isHosted": false, "pillarId": "pillar/opinion", "pillarName": "Opinion"}, {"id": "education/2012/jun/30/britain-private-schools", "type": "article", "sectionId": "education", "sectionName": "Education", "webPublicationDate": "2012-06-30T20:40:13Z", "webTitle": "Britain's private schools 'have lost their moral purpose'", "webUrl": "https://www.theguardian.com/education/2012/jun/30/britain-private-schools", "apiUrl": "https://content.guardianapis.com/education/2012/jun/30/britain-private-schools", "isHosted": false, "pillarId": "pillar/news", "pillarName": "News"}, {"id": "commentisfree/2012/jun/30/vince-cable-banking-scandal-coalition", "type": "article", "sectionId": "commentisfree", "sectionName": "Opinion", "webPublicationDate": "2012-06-30T20:11:00Z", "webTitle": "Banking scandal: 'the rot was widespread, the corruption endemic' | Vince Cable", "webUrl": "https://www.theguardian.com/commentisfree/2012/jun/30/vince-cable-banking-scandal-coalition", "apiUrl": "https://content.guardianapis.com/commentisfree/2012/jun/30/vince-cable-banking-scandal-coalition", "isHosted": false, "pillarId": "pillar/opinion", "pillarName": "Opinion"}, {"id": "society/2012/jun/30/david-cameron-work-firms-benefits", "type": "article", "sectionId": "society", "sectionName": "Society", "webPublicationDate": "2012-06-30T20:07:50Z", "webTitle": "David Cameron's back-to-work firms want benefits cut more often", "webUrl": "https://www.theguardian.com/society/2012/jun/30/david-cameron-work-firms-benefits", "apiUrl": "https://content.guardianapis.com/society/2012/jun/30/david-cameron-work-firms-benefits", "isHosted": false, "pillarId": "pillar/news", "pillarName": "News"}, {"id": "business/2012/jun/30/vince-cable-shareholders-bank-cheats", "type": "article", "sectionId": "business", "sectionName": "Business", "webPublicationDate": "2012-06-30T20:07:00Z", "webTitle": "Vince Cable tells shareholders: throw out bank cheats", "webUrl": "https://www.theguardian.com/business/2012/jun/30/vince-cable-shareholders-bank-cheats", "apiUrl": "https://content.guardianapis.com/business/2012/jun/30/vince-cable-shareholders-bank-cheats", "isHosted": false, "pillarId": "pillar/news", "pillarName": "News"}, {"id": "commentisfree/2012/jun/30/fintan-otoole-banking-decency-corrupt-system", "type": "article", "sectionId": "commentisfree", "sectionName": "Opinion", "webPublicationDate": "2012-06-30T20:00:06Z", "webTitle": "'In corrupt systems, decent people have two options: conform or be crushed' | Fintan O'Toole", "webUrl": "https://www.theguardian.com/commentisfree/2012/jun/30/fintan-otoole-banking-decency-corrupt-system", "apiUrl": "https://content.guardianapis.com/commentisfree/2012/jun/30/fintan-otoole-banking-decency-corrupt-system", "isHosted": false, "pillarId": "pillar/opinion", "pillarName": "Opinion"}, {"id": "commentisfree/2012/jun/30/andrew-rawnsley-banking-reform", "type": "article", "sectionId": "commentisfree", "sectionName": "Opinion", "webPublicationDate": "2012-06-30T20:00:00Z", "webTitle": "Banksters will keep on escaping justice until the politicians act | Andrew Rawnsley", "webUrl": "https://www.theguardian.com/commentisfree/2012/jun/30/andrew-rawnsley-banking-reform", "apiUrl": "https://content.guardianapis.com/commentisfree/2012/jun/30/andrew-rawnsley-banking-reform", "isHosted": false, "pillarId": "pillar/opinion", "pillarName": "Opinion"}, {"id": "uk/2012/jun/30/shetland-independence-vote-scotland", "type": "article", "sectionId": "uk-news", "sectionName": "UK news", "webPublicationDate": "2012-06-30T19:22:00Z", "webTitle": "Shetland asks if independence vote is chance to break away from Scotland", "webUrl": "https://www.theguardian.com/uk/2012/jun/30/shetland-independence-vote-scotland", "apiUrl": "https://content.guardianapis.com/uk/2012/jun/30/shetland-independence-vote-scotland", "isHosted": false, "pillarId": "pillar/news", "pillarName": "News"}, {"id": "uk/2012/jun/30/labour-railway-network-state-control", "type": "article", "sectionId": "politics", "sectionName": "Politics", "webPublicationDate": "2012-06-30T18:37:38Z", "webTitle": "Labour backs calls to return railway network to public control", "webUrl": "https://www.theguardian.com/uk/2012/jun/30/labour-railway-network-state-control", "apiUrl": "https://content.guardianapis.com/uk/2012/jun/30/labour-railway-network-state-control", "isHosted": false, "pillarId": "pillar/news", "pillarName": "News"}, {"id": "uk/2012/jun/30/railways-policies-commuters-next-election", "type": "article", "sectionId": "uk-news", "sectionName": "UK news", "webPublicationDate": "2012-06-30T18:36:13Z", "webTitle": "The sufferings of commuters could decide the next election | Stephen Joseph", "webUrl": "https://www.theguardian.com/uk/2012/jun/30/railways-policies-commuters-next-election", "apiUrl": "https://content.guardianapis.com/uk/2012/jun/30/railways-policies-commuters-next-election", "isHosted": false, "pillarId": "pillar/news", "pillarName": "News"}, {"id": "business/2012/jun/29/mervyn-king-banks", "type": "article", "sectionId": "business", "sectionName": "Business", "webPublicationDate": "2012-06-29T22:50:00Z", "webTitle": "Mervyn King tells banks: you can't go on like this", "webUrl": "https://www.theguardian.com/business/2012/jun/29/mervyn-king-banks", "apiUrl": "https://content.guardianapis.com/business/2012/jun/29/mervyn-king-banks", "isHosted": false, "pillarId": "pillar/news", "pillarName": "News"}, {"id": "business/2012/jun/29/bank-purge-institute-directors", "type": "article", "sectionId": "business", "sectionName": "Business", "webPublicationDate": "2012-06-29T21:59:00Z", "webTitle": "Head of IoD calls for purge of UK banks", "webUrl": "https://www.theguardian.com/business/2012/jun/29/bank-purge-institute-directors", "apiUrl": "https://content.guardianapis.com/business/2012/jun/29/bank-purge-institute-directors", "isHosted": false, "pillarId": "pillar/news", "pillarName": "News"}, {"id": "politics/2012/jun/29/rebel-tory-mps-nadine-dorries", "type": "article", "sectionId": "politics", "sectionName": "Politics", "webPublicationDate": "2012-06-29T21:59:00Z", "webTitle": "The Tory rebels who put principles before party loyalty", "webUrl": "https://www.theguardian.com/politics/2012/jun/29/rebel-tory-mps-nadine-dorries", "apiUrl": "https://content.guardianapis.com/politics/2012/jun/29/rebel-tory-mps-nadine-dorries", "isHosted": false, "pillarId": "pillar/news", "pillarName": "News"}, {"id": "books/2012/jun/29/how-much-is-enough-skidelsky-review", "type": "article", "sectionId": "books", "sectionName": "Books", "webPublicationDate": "2012-06-29T21:55:04Z", "webTitle": "How Much Is Enough? by Robert and Edward Skidelsky \u2013 review", "webUrl": "https://www.theguardian.com/books/2012/jun/29/how-much-is-enough-skidelsky-review", "apiUrl": "https://content.guardianapis.com/books/2012/jun/29/how-much-is-enough-skidelsky-review", "isHosted": false, "pillarId": "pillar/arts", "pillarName": "Arts"}, {"id": "books/2012/jun/29/critical-eye-book-reviews-roundup", "type": "article", "sectionId": "books", "sectionName": "Books", "webPublicationDate": "2012-06-29T21:55:00Z", "webTitle": "Critical eye: book reviews \u2013 roundup", "webUrl": "https://www.theguardian.com/books/2012/jun/29/critical-eye-book-reviews-roundup", "apiUrl": "https://content.guardianapis.com/books/2012/jun/29/critical-eye-book-reviews-roundup", "isHosted": false, "pillarId": "pillar/arts", "pillarName": "Arts"}, {"id": "commentisfree/2012/jun/29/tony-blair-political-comeback-unthinkable", "type": "article", "sectionId": "commentisfree", "sectionName": "Opinion", "webPublicationDate": "2012-06-29T20:42:54Z", "webTitle": "Unthinkable? Tony Blair for PM again | Editorial", "webUrl": "https://www.theguardian.com/commentisfree/2012/jun/29/tony-blair-political-comeback-unthinkable", "apiUrl": "https://content.guardianapis.com/commentisfree/2012/jun/29/tony-blair-political-comeback-unthinkable", "isHosted": false, "pillarId": "pillar/opinion", "pillarName": "Opinion"}, {"id": "commentisfree/2012/jun/29/smoking-ban-health-policy", "type": "article", "sectionId": "commentisfree", "sectionName": "Opinion", "webPublicationDate": "2012-06-29T20:31:25Z", "webTitle": "Smoking anniversary: big ban theory | Editorial", "webUrl": "https://www.theguardian.com/commentisfree/2012/jun/29/smoking-ban-health-policy", "apiUrl": "https://content.guardianapis.com/commentisfree/2012/jun/29/smoking-ban-health-policy", "isHosted": false, "pillarId": "pillar/opinion", "pillarName": "Opinion"}, {"id": "politics/2012/jun/29/bomber-command-drones", "type": "article", "sectionId": "politics", "sectionName": "Politics", "webPublicationDate": "2012-06-29T20:00:03Z", "webTitle": "Letters: Bomber Command", "webUrl": "https://www.theguardian.com/politics/2012/jun/29/bomber-command-drones", "apiUrl": "https://content.guardianapis.com/politics/2012/jun/29/bomber-command-drones", "isHosted": false, "pillarId": "pillar/news", "pillarName": "News"}, {"id": "business/2012/jun/29/bankers-point-of-no-return", "type": "article", "sectionId": "business", "sectionName": "Business", "webPublicationDate": "2012-06-29T20:00:02Z", "webTitle": "Letters: Bankers at the point of no return", "webUrl": "https://www.theguardian.com/business/2012/jun/29/bankers-point-of-no-return", "apiUrl": "https://content.guardianapis.com/business/2012/jun/29/bankers-point-of-no-return", "isHosted": false, "pillarId": "pillar/news", "pillarName": "News"}, {"id": "commentisfree/2012/jun/29/chloe-smith-mouse-feminist-tory", "type": "article", "sectionId": "commentisfree", "sectionName": "Opinion", "webPublicationDate": "2012-06-29T19:30:01Z", "webTitle": "These Tory women are narcissists, not feminists | Tanya Gold", "webUrl": "https://www.theguardian.com/commentisfree/2012/jun/29/chloe-smith-mouse-feminist-tory", "apiUrl": "https://content.guardianapis.com/commentisfree/2012/jun/29/chloe-smith-mouse-feminist-tory", "isHosted": false, "pillarId": "pillar/opinion", "pillarName": "Opinion"}, {"id": "society/2012/jun/29/man-on-fire-birmingham-job-centre", "type": "article", "sectionId": "society", "sectionName": "Society", "webPublicationDate": "2012-06-29T18:53:00Z", "webTitle": "Man sets himself on fire outside Birmingham jobcentre", "webUrl": "https://www.theguardian.com/society/2012/jun/29/man-on-fire-birmingham-job-centre", "apiUrl": "https://content.guardianapis.com/society/2012/jun/29/man-on-fire-birmingham-job-centre", "isHosted": false, "pillarId": "pillar/news", "pillarName": "News"}, {"id": "commentisfree/2012/jun/29/deborah-orr-pfi-disaster-lesson", "type": "article", "sectionId": "commentisfree", "sectionName": "Opinion", "webPublicationDate": "2012-06-29T17:29:01Z", "webTitle": "Taxpayers' money given to people who don't pay taxes \u2013 oh, the beauty of PFIs | Deborah Orr", "webUrl": "https://www.theguardian.com/commentisfree/2012/jun/29/deborah-orr-pfi-disaster-lesson", "apiUrl": "https://content.guardianapis.com/commentisfree/2012/jun/29/deborah-orr-pfi-disaster-lesson", "isHosted": false, "pillarId": "pillar/opinion", "pillarName": "Opinion"}, {"id": "politics/2012/jun/29/cameron-no-eu-referendum", "type": "article", "sectionId": "politics", "sectionName": "Politics", "webPublicationDate": "2012-06-29T17:25:49Z", "webTitle": "Cameron defies Tory right over EU referendum", "webUrl": "https://www.theguardian.com/politics/2012/jun/29/cameron-no-eu-referendum", "apiUrl": "https://content.guardianapis.com/politics/2012/jun/29/cameron-no-eu-referendum", "isHosted": false, "pillarId": "pillar/news", "pillarName": "News"}, {"id": "commentisfree/cartoon/2012/jun/29/barclays-diamond-eurozone-cameron-cartoon", "type": "picture", "sectionId": "commentisfree", "sectionName": "Opinion", "webPublicationDate": "2012-06-29T17:11:52Z", "webTitle": "Martin Rowson on the Barclays rate scandal and the eurozone crisis - cartoon", "webUrl": "https://www.theguardian.com/commentisfree/cartoon/2012/jun/29/barclays-diamond-eurozone-cameron-cartoon", "apiUrl": "https://content.guardianapis.com/commentisfree/cartoon/2012/jun/29/barclays-diamond-eurozone-cameron-cartoon", "isHosted": false, "pillarId": "pillar/opinion", "pillarName": "Opinion"}, {"id": "sport/2012/jun/29/olympics-political-games", "type": "article", "sectionId": "sport", "sectionName": "Sport", "webPublicationDate": "2012-06-29T16:52:58Z", "webTitle": "Olympics 2012: let the political games begin", "webUrl": "https://www.theguardian.com/sport/2012/jun/29/olympics-political-games", "apiUrl": "https://content.guardianapis.com/sport/2012/jun/29/olympics-political-games", "isHosted": false, "pillarId": "pillar/sport", "pillarName": "Sport"}, {"id": "business/2012/jun/29/barclays-rate-scandal-david-cameron", "type": "article", "sectionId": "business", "sectionName": "Business", "webPublicationDate": "2012-06-29T15:37:07Z", "webTitle": "Barclays rate scandal: David Cameron rejects Labour call for banking inquiry", "webUrl": "https://www.theguardian.com/business/2012/jun/29/barclays-rate-scandal-david-cameron", "apiUrl": "https://content.guardianapis.com/business/2012/jun/29/barclays-rate-scandal-david-cameron", "isHosted": false, "pillarId": "pillar/news", "pillarName": "News"}, {"id": "commentisfree/2012/jun/29/more-die-roads-car-king", "type": "article", "sectionId": "commentisfree", "sectionName": "Opinion", "webPublicationDate": "2012-06-29T15:29:18Z", "webTitle": "More die on our roads when the car is king | Jenny Jones", "webUrl": "https://www.theguardian.com/commentisfree/2012/jun/29/more-die-roads-car-king", "apiUrl": "https://content.guardianapis.com/commentisfree/2012/jun/29/more-die-roads-car-king", "isHosted": false, "pillarId": "pillar/opinion", "pillarName": "Opinion"}, {"id": "science/2012/jun/29/sir-mark-walport-chief-scientific-adviser", "type": "article", "sectionId": "science", "sectionName": "Science", "webPublicationDate": "2012-06-29T13:29:11Z", "webTitle": "Sir Mark Walport appointed as UK's next chief scientific adviser", "webUrl": "https://www.theguardian.com/science/2012/jun/29/sir-mark-walport-chief-scientific-adviser", "apiUrl": "https://content.guardianapis.com/science/2012/jun/29/sir-mark-walport-chief-scientific-adviser", "isHosted": false, "pillarId": "pillar/news", "pillarName": "News"}, {"id": "education/2012/jun/29/university-expansion-social-mobility-ifs", "type": "article", "sectionId": "education", "sectionName": "Education", "webPublicationDate": "2012-06-29T12:28:07Z", "webTitle": "University expansion has harmed social mobility, says IFS", "webUrl": "https://www.theguardian.com/education/2012/jun/29/university-expansion-social-mobility-ifs", "apiUrl": "https://content.guardianapis.com/education/2012/jun/29/university-expansion-social-mobility-ifs", "isHosted": false, "pillarId": "pillar/news", "pillarName": "News"}, {"id": "books/2012/jun/29/ed-vaizey-libraries-600-closures", "type": "article", "sectionId": "books", "sectionName": "Books", "webPublicationDate": "2012-06-29T11:50:59Z", "webTitle": "Ed Vaizey says libraries 'thriving' and rejects prediction of 600 closures", "webUrl": "https://www.theguardian.com/books/2012/jun/29/ed-vaizey-libraries-600-closures", "apiUrl": "https://content.guardianapis.com/books/2012/jun/29/ed-vaizey-libraries-600-closures", "isHosted": false, "pillarId": "pillar/arts", "pillarName": "Arts"}, {"id": "commentisfree/2012/jun/29/pfi-crippling-nhs", "type": "article", "sectionId": "commentisfree", "sectionName": "Opinion", "webPublicationDate": "2012-06-29T11:22:10Z", "webTitle": "How PFI is crippling the NHS | Allyson Pollock", "webUrl": "https://www.theguardian.com/commentisfree/2012/jun/29/pfi-crippling-nhs", "apiUrl": "https://content.guardianapis.com/commentisfree/2012/jun/29/pfi-crippling-nhs", "isHosted": false, "pillarId": "pillar/opinion", "pillarName": "Opinion"}, {"id": "education/mortarboard/2012/jun/29/housing-benefit-cuts-will-hit-students", "type": "article", "sectionId": "education", "sectionName": "Education", "webPublicationDate": "2012-06-29T09:02:00Z", "webTitle": "What students stand to lose if housing benefit goes", "webUrl": "https://www.theguardian.com/education/mortarboard/2012/jun/29/housing-benefit-cuts-will-hit-students", "apiUrl": "https://content.guardianapis.com/education/mortarboard/2012/jun/29/housing-benefit-cuts-will-hit-students", "isHosted": false, "pillarId": "pillar/news", "pillarName": "News"}, {"id": "public-leaders-network/blog/2012/jun/29/central-government-civil-service", "type": "article", "sectionId": "public-leaders-network", "sectionName": "Public Leaders Network", "webPublicationDate": "2012-06-29T08:45:00Z", "webTitle": "Civil service training strategy cuts 'massive duplication'", "webUrl": "https://www.theguardian.com/public-leaders-network/blog/2012/jun/29/central-government-civil-service", "apiUrl": "https://content.guardianapis.com/public-leaders-network/blog/2012/jun/29/central-government-civil-service", "isHosted": false, "pillarId": "pillar/news", "pillarName": "News"}, {"id": "politics/blog/2012/jun/29/politics-live-readers-edition-friday-29-june", "type": "article", "sectionId": "politics", "sectionName": "Politics", "webPublicationDate": "2012-06-29T08:06:15Z", "webTitle": "Politics live: readers' edition - Friday 29 June", "webUrl": "https://www.theguardian.com/politics/blog/2012/jun/29/politics-live-readers-edition-friday-29-june", "apiUrl": "https://content.guardianapis.com/politics/blog/2012/jun/29/politics-live-readers-edition-friday-29-june", "isHosted": false, "pillarId": "pillar/news", "pillarName": "News"}, {"id": "commentisfree/video/2012/jun/29/after-austerity-economic-growth-video", "type": "video", "sectionId": "commentisfree", "sectionName": "Opinion", "webPublicationDate": "2012-06-29T07:30:00Z", "webTitle": "After Austerity: what's the best policy for economic growth? \u2013 video", "webUrl": "https://www.theguardian.com/commentisfree/video/2012/jun/29/after-austerity-economic-growth-video", "apiUrl": "https://content.guardianapis.com/commentisfree/video/2012/jun/29/after-austerity-economic-growth-video", "isHosted": false, "pillarId": "pillar/opinion", "pillarName": "Opinion"}, {"id": "politics/davehillblog/2012/jun/29/business-improvement-districts-london-midtown", "type": "article", "sectionId": "politics", "sectionName": "Politics", "webPublicationDate": "2012-06-29T07:26:00Z", "webTitle": "London BIDs: friends and foes", "webUrl": "https://www.theguardian.com/politics/davehillblog/2012/jun/29/business-improvement-districts-london-midtown", "apiUrl": "https://content.guardianapis.com/politics/davehillblog/2012/jun/29/business-improvement-districts-london-midtown", "isHosted": false, "pillarId": "pillar/news", "pillarName": "News"}, {"id": "global/patrick-butler-cuts-blog/2012/jun/29/social-fund-welcome-to-the-era-of-vouchers-for-the-poor", "type": "article", "sectionId": "society", "sectionName": "Society", "webPublicationDate": "2012-06-29T07:00:00Z", "webTitle": "Welfare cuts: welcome to the era of vouchers for the poor", "webUrl": "https://www.theguardian.com/global/patrick-butler-cuts-blog/2012/jun/29/social-fund-welcome-to-the-era-of-vouchers-for-the-poor", "apiUrl": "https://content.guardianapis.com/global/patrick-butler-cuts-blog/2012/jun/29/social-fund-welcome-to-the-era-of-vouchers-for-the-poor", "isHosted": false, "pillarId": "pillar/news", "pillarName": "News"}, {"id": "uk/the-northerner/2012/jun/29/olympics-northern-england-north-torch", "type": "article", "sectionId": "uk-news", "sectionName": "UK news", "webPublicationDate": "2012-06-29T06:00:00Z", "webTitle": "Why does the north remain so unimpressed by the Olympics?", "webUrl": "https://www.theguardian.com/uk/the-northerner/2012/jun/29/olympics-northern-england-north-torch", "apiUrl": "https://content.guardianapis.com/uk/the-northerner/2012/jun/29/olympics-northern-england-north-torch", "isHosted": false, "pillarId": "pillar/news", "pillarName": "News"}, {"id": "world/2012/jun/28/david-cameron-british-eu-rebate", "type": "article", "sectionId": "world", "sectionName": "World news", "webPublicationDate": "2012-06-28T23:30:00Z", "webTitle": "David Cameron vows to protect British EU rebate from French demands", "webUrl": "https://www.theguardian.com/world/2012/jun/28/david-cameron-british-eu-rebate", "apiUrl": "https://content.guardianapis.com/world/2012/jun/28/david-cameron-british-eu-rebate", "isHosted": false, "pillarId": "pillar/news", "pillarName": "News"}, {"id": "environment/2012/jun/29/government-dash-gas-environmental-advisers", "type": "article", "sectionId": "environment", "sectionName": "Environment", "webPublicationDate": "2012-06-28T23:09:02Z", "webTitle": "Government must give up 'dash for gas', say environmental advisers", "webUrl": "https://www.theguardian.com/environment/2012/jun/29/government-dash-gas-environmental-advisers", "apiUrl": "https://content.guardianapis.com/environment/2012/jun/29/government-dash-gas-environmental-advisers", "isHosted": false, "pillarId": "pillar/news", "pillarName": "News"}, {"id": "commentisfree/2012/jun/28/crown-dependencies-loophole-islands-editorial", "type": "article", "sectionId": "commentisfree", "sectionName": "Opinion", "webPublicationDate": "2012-06-28T22:14:49Z", "webTitle": "Crown dependencies: the Loophole Islands | Editorial", "webUrl": "https://www.theguardian.com/commentisfree/2012/jun/28/crown-dependencies-loophole-islands-editorial", "apiUrl": "https://content.guardianapis.com/commentisfree/2012/jun/28/crown-dependencies-loophole-islands-editorial", "isHosted": false, "pillarId": "pillar/opinion", "pillarName": "Opinion"}, {"id": "commentisfree/2012/jun/28/in-praise-of-taking-risks", "type": "article", "sectionId": "commentisfree", "sectionName": "Opinion", "webPublicationDate": "2012-06-28T22:07:38Z", "webTitle": "In praise of \u2026 taking risks | Editorial", "webUrl": "https://www.theguardian.com/commentisfree/2012/jun/28/in-praise-of-taking-risks", "apiUrl": "https://content.guardianapis.com/commentisfree/2012/jun/28/in-praise-of-taking-risks", "isHosted": false, "pillarId": "pillar/opinion", "pillarName": "Opinion"}, {"id": "politics/2012/jun/28/hugh-muir-diary-thompson-bbc", "type": "article", "sectionId": "politics", "sectionName": "Politics", "webPublicationDate": "2012-06-28T21:49:00Z", "webTitle": "Hugh Muir's diary", "webUrl": "https://www.theguardian.com/politics/2012/jun/28/hugh-muir-diary-thompson-bbc", "apiUrl": "https://content.guardianapis.com/politics/2012/jun/28/hugh-muir-diary-thompson-bbc", "isHosted": false, "pillarId": "pillar/news", "pillarName": "News"}, {"id": "business/2012/jun/28/barclays-boss-bob-diamond-pressure-mounts", "type": "article", "sectionId": "business", "sectionName": "Business", "webPublicationDate": "2012-06-28T21:17:00Z", "webTitle": "David Cameron turns up the heat on Barclays: 'This must go right to the top'", "webUrl": "https://www.theguardian.com/business/2012/jun/28/barclays-boss-bob-diamond-pressure-mounts", "apiUrl": "https://content.guardianapis.com/business/2012/jun/28/barclays-boss-bob-diamond-pressure-mounts", "isHosted": false, "pillarId": "pillar/news", "pillarName": "News"}]}}