{"response": {"status": "ok", "userTier": "developer", "total": 25911, "startIndex": 1, "pageSize": 50, "currentPage": 1, "pages": 519, "orderBy": "newest", "results": [{"id": "environment/2010/jul/01/country-diary-nairn-dunes", "type": "article", "sectionId": "environment", "sectionName": "Environment", "webPublicationDate": "2010-06-30T23:21:31Z", "webTitle": "Country diary: Nairn Dunes", "webUrl": "https://www.theguardian.com/environment/2010/jul/01/country-diary-nairn-dunes", "apiUrl": "https://content.guardianapis.com/environment/2010/jul/01/country-diary-nairn-dunes", "isHosted": false, "pillarId": "pillar/news", "pillarName": "News"}, {"id": "business/video/2010/jul/01/tel-oil-toxin", "type": "video", "sectionId": "business", "sectionName": "Business", "webPublicationDate": "2010-06-30T22:05:00Z", "webTitle": "Video: The men who traded in toxins", "webUrl": "https://www.theguardian.com/business/video/2010/jul/01/tel-oil-toxin", "apiUrl": "https://content.guardianapis.com/business/video/2010/jul/01/tel-oil-toxin", "isHosted": false, "pillarId": "pillar/news", "pillarName": "News"}, {"id": "business/2010/jun/30/octel-petrol-iraq-lead", "type": "article", "sectionId": "business", "sectionName": "Business", "webPublicationDate": "2010-06-30T21:04:00Z", "webTitle": "UK firm paid bribes to sell Iraqis toxic fuel additive | Exclusive", "webUrl": "https://www.theguardian.com/business/2010/jun/30/octel-petrol-iraq-lead", "apiUrl": "https://content.guardianapis.com/business/2010/jun/30/octel-petrol-iraq-lead", "isHosted": false, "pillarId": "pillar/news", "pillarName": "News"}, {"id": "business/2010/jun/30/lead-bribery-octel", "type": "article", "sectionId": "business", "sectionName": "Business", "webPublicationDate": "2010-06-30T21:00:34Z", "webTitle": "Killer chemicals and greased palms \u2013 the deadly 'end game' for leaded petrol", "webUrl": "https://www.theguardian.com/business/2010/jun/30/lead-bribery-octel", "apiUrl": "https://content.guardianapis.com/business/2010/jun/30/lead-bribery-octel", "isHosted": false, "pillarId": "pillar/news", "pillarName": "News"}, {"id": "environment/2010/jun/30/pass-notes-sea-turtles-oil-spill", "type": "article", "sectionId": "environment", "sectionName": "Environment", "webPublicationDate": "2010-06-30T20:00:32Z", "webTitle": "Pass notes No 2,805: Sea turtles", "webUrl": "https://www.theguardian.com/environment/2010/jun/30/pass-notes-sea-turtles-oil-spill", "apiUrl": "https://content.guardianapis.com/environment/2010/jun/30/pass-notes-sea-turtles-oil-spill", "isHosted": false, "pillarId": "pillar/news", "pillarName": "News"}, {"id": "environment/2010/jun/30/biologists-find-oil-spill-deadzones", "type": "article", "sectionId": "environment", "sectionName": "Environment", "webPublicationDate": "2010-06-30T18:49:16Z", "webTitle": "Biologists find 'dead zones' around BP oil spill in Gulf", "webUrl": "https://www.theguardian.com/environment/2010/jun/30/biologists-find-oil-spill-deadzones", "apiUrl": "https://content.guardianapis.com/environment/2010/jun/30/biologists-find-oil-spill-deadzones", "isHosted": false, "pillarId": "pillar/news", "pillarName": "News"}, {"id": "environment/2010/jun/30/john-gooders-obituary-ornithologist", "type": "article", "sectionId": "environment", "sectionName": "Environment", "webPublicationDate": "2010-06-30T17:42:32Z", "webTitle": "John Gooders obituary", "webUrl": "https://www.theguardian.com/environment/2010/jun/30/john-gooders-obituary-ornithologist", "apiUrl": "https://content.guardianapis.com/environment/2010/jun/30/john-gooders-obituary-ornithologist", "isHosted": false, "pillarId": "pillar/news", "pillarName": "News"}, {"id": "environment/2010/jun/30/london-air-quality-premature-deaths", "type": "article", "sectionId": "environment", "sectionName": "Environment", "webPublicationDate": "2010-06-30T16:30:00Z", "webTitle": "Air pollution leads to premature deaths of more than 4,000 Londoners a year", "webUrl": "https://www.theguardian.com/environment/2010/jun/30/london-air-quality-premature-deaths", "apiUrl": "https://content.guardianapis.com/environment/2010/jun/30/london-air-quality-premature-deaths", "isHosted": false, "pillarId": "pillar/news", "pillarName": "News"}, {"id": "environment/2010/jun/30/uk-loans-brazil-offshore-drilling", "type": "article", "sectionId": "environment", "sectionName": "Environment", "webPublicationDate": "2010-06-30T15:34:37Z", "webTitle": "UK backing loans for 'risky' offshore oil drilling in Brazil", "webUrl": "https://www.theguardian.com/environment/2010/jun/30/uk-loans-brazil-offshore-drilling", "apiUrl": "https://content.guardianapis.com/environment/2010/jun/30/uk-loans-brazil-offshore-drilling", "isHosted": false, "pillarId": "pillar/news", "pillarName": "News"}, {"id": "uk/davehillblog/2010/jun/30/boris-johnson-clean-air-strategy-health-and-impact-research", "type": "article", "sectionId": "uk-news", "sectionName": "UK news", "webPublicationDate": "2010-06-30T15:17:58Z", "webTitle": "Boris Johnson: clean air strategy breakdown", "webUrl": "https://www.theguardian.com/uk/davehillblog/2010/jun/30/boris-johnson-clean-air-strategy-health-and-impact-research", "apiUrl": "https://content.guardianapis.com/uk/davehillblog/2010/jun/30/boris-johnson-clean-air-strategy-health-and-impact-research", "isHosted": false, "pillarId": "pillar/news", "pillarName": "News"}, {"id": "environment/2010/jun/30/blimps-aircraft-freight", "type": "article", "sectionId": "environment", "sectionName": "Environment", "webPublicationDate": "2010-06-30T14:53:52Z", "webTitle": "Blimps could replace aircraft in freight transport, say scientists", "webUrl": "https://www.theguardian.com/environment/2010/jun/30/blimps-aircraft-freight", "apiUrl": "https://content.guardianapis.com/environment/2010/jun/30/blimps-aircraft-freight", "isHosted": false, "pillarId": "pillar/news", "pillarName": "News"}, {"id": "environment/2010/jun/30/guardian-debate-climate-science-emails", "type": "article", "sectionId": "environment", "sectionName": "Environment", "webPublicationDate": "2010-06-30T13:43:00Z", "webTitle": "Guardian debate: Was 'climategate' the greatest scandal to hit climate science or a mere storm in a teacup?", "webUrl": "https://www.theguardian.com/environment/2010/jun/30/guardian-debate-climate-science-emails", "apiUrl": "https://content.guardianapis.com/environment/2010/jun/30/guardian-debate-climate-science-emails", "isHosted": false, "pillarId": "pillar/news", "pillarName": "News"}, {"id": "environment/2010/jun/30/1", "type": "article", "sectionId": "environment", "sectionName": "Environment", "webPublicationDate": "2010-06-30T11:49:04Z", "webTitle": "Green light: Burning turtles, climate emails and the moneyless man", "webUrl": "https://www.theguardian.com/environment/2010/jun/30/1", "apiUrl": "https://content.guardianapis.com/environment/2010/jun/30/1", "isHosted": false, "pillarId": "pillar/news", "pillarName": "News"}, {"id": "environment/2010/jun/30/hurricane-hits-bp-oil-cleanup", "type": "article", "sectionId": "environment", "sectionName": "Environment", "webPublicationDate": "2010-06-30T08:55:27Z", "webTitle": "First hurricane of season hits BP oil spill clean-up", "webUrl": "https://www.theguardian.com/environment/2010/jun/30/hurricane-hits-bp-oil-cleanup", "apiUrl": "https://content.guardianapis.com/environment/2010/jun/30/hurricane-hits-bp-oil-cleanup", "isHosted": false, "pillarId": "pillar/news", "pillarName": "News"}, {"id": "environment/2010/jun/30/climate-change-carbon-emissions-targets", "type": "article", "sectionId": "environment", "sectionName": "Environment", "webPublicationDate": "2010-06-29T23:05:30Z", "webTitle": "UK will miss carbon emissions targets 'unless government takes urgent action'", "webUrl": "https://www.theguardian.com/environment/2010/jun/30/climate-change-carbon-emissions-targets", "apiUrl": "https://content.guardianapis.com/environment/2010/jun/30/climate-change-carbon-emissions-targets", "isHosted": false, "pillarId": "pillar/news", "pillarName": "News"}, {"id": "business/2010/jun/29/barack-obama-energy-bill", "type": "article", "sectionId": "environment", "sectionName": "Environment", "webPublicationDate": "2010-06-29T20:16:03Z", "webTitle": "Barack Obama fails to rally support for energy bill", "webUrl": "https://www.theguardian.com/business/2010/jun/29/barack-obama-energy-bill", "apiUrl": "https://content.guardianapis.com/business/2010/jun/29/barack-obama-energy-bill", "isHosted": false, "pillarId": "pillar/news", "pillarName": "News"}, {"id": "environment/2010/jun/29/green-investment-bank-low-carbon-economy", "type": "article", "sectionId": "environment", "sectionName": "Environment", "webPublicationDate": "2010-06-29T17:51:50Z", "webTitle": "Government commission urges rapid setting up of green investment bank", "webUrl": "https://www.theguardian.com/environment/2010/jun/29/green-investment-bank-low-carbon-economy", "apiUrl": "https://content.guardianapis.com/environment/2010/jun/29/green-investment-bank-low-carbon-economy", "isHosted": false, "pillarId": "pillar/news", "pillarName": "News"}, {"id": "environment/2010/jun/29/green-investment-bank-wigley-report", "type": "article", "sectionId": "environment", "sectionName": "Environment", "webPublicationDate": "2010-06-29T17:24:26Z", "webTitle": "Could the plan for a Green Investment Bank kick-start a low-carbon UK? | Bryony Worthington", "webUrl": "https://www.theguardian.com/environment/2010/jun/29/green-investment-bank-wigley-report", "apiUrl": "https://content.guardianapis.com/environment/2010/jun/29/green-investment-bank-wigley-report", "isHosted": false, "pillarId": "pillar/news", "pillarName": "News"}, {"id": "stage/theatreblog/2010/jun/29/green-theatre-carbon-emissions", "type": "article", "sectionId": "stage", "sectionName": "Stage", "webPublicationDate": "2010-06-29T14:19:29Z", "webTitle": "Green dreams: how can theatre cut its carbon emissions? | Chris Wilkinson", "webUrl": "https://www.theguardian.com/stage/theatreblog/2010/jun/29/green-theatre-carbon-emissions", "apiUrl": "https://content.guardianapis.com/stage/theatreblog/2010/jun/29/green-theatre-carbon-emissions", "isHosted": false, "pillarId": "pillar/arts", "pillarName": "Arts"}, {"id": "lifeandstyle/gallery/2010/jun/29/summer-eco-fashion", "type": "gallery", "sectionId": "fashion", "sectionName": "Fashion", "webPublicationDate": "2010-06-29T14:08:21Z", "webTitle": "Summer eco fashion from Fashion-conscience.com", "webUrl": "https://www.theguardian.com/lifeandstyle/gallery/2010/jun/29/summer-eco-fashion", "apiUrl": "https://content.guardianapis.com/lifeandstyle/gallery/2010/jun/29/summer-eco-fashion", "isHosted": false, "pillarId": "pillar/lifestyle", "pillarName": "Lifestyle"}, {"id": "environment/video/2010/jun/21/copenhagen-climate-change", "type": "video", "sectionId": "environment", "sectionName": "Environment", "webPublicationDate": "2010-06-29T12:55:00Z", "webTitle": "Video: Coalition of the Willing post-Copenhagen animation", "webUrl": "https://www.theguardian.com/environment/video/2010/jun/21/copenhagen-climate-change", "apiUrl": "https://content.guardianapis.com/environment/video/2010/jun/21/copenhagen-climate-change", "isHosted": false, "pillarId": "pillar/news", "pillarName": "News"}, {"id": "environment/blog/2010/jun/29/moneyless-man-cash-gather-posessions", "type": "article", "sectionId": "environment", "sectionName": "Environment", "webPublicationDate": "2010-06-29T12:27:07Z", "webTitle": "Moneyless man: To gather possessions, don't we need cash? Not so", "webUrl": "https://www.theguardian.com/environment/blog/2010/jun/29/moneyless-man-cash-gather-posessions", "apiUrl": "https://content.guardianapis.com/environment/blog/2010/jun/29/moneyless-man-cash-gather-posessions", "isHosted": false, "pillarId": "pillar/news", "pillarName": "News"}, {"id": "environment/gallery/2010/jun/28/botanical-gardens-endangered-plants", "type": "gallery", "sectionId": "environment", "sectionName": "Environment", "webPublicationDate": "2010-06-29T12:18:33Z", "webTitle": "Botanic Gardens, Modern-Day Arks", "webUrl": "https://www.theguardian.com/environment/gallery/2010/jun/28/botanical-gardens-endangered-plants", "apiUrl": "https://content.guardianapis.com/environment/gallery/2010/jun/28/botanical-gardens-endangered-plants", "isHosted": false, "pillarId": "pillar/news", "pillarName": "News"}, {"id": "commentisfree/cifamerica/2010/jun/28/bus-cuts-cars-bp-oil-spill", "type": "article", "sectionId": "commentisfree", "sectionName": "Opinion", "webPublicationDate": "2010-06-29T11:00:28Z", "webTitle": "Bus cuts drive Americans back to cars | Sasha Abramsky", "webUrl": "https://www.theguardian.com/commentisfree/cifamerica/2010/jun/28/bus-cuts-cars-bp-oil-spill", "apiUrl": "https://content.guardianapis.com/commentisfree/cifamerica/2010/jun/28/bus-cuts-cars-bp-oil-spill", "isHosted": false, "pillarId": "pillar/opinion", "pillarName": "Opinion"}, {"id": "business/cartoon/2010/jun/29/environmental-regulations", "type": "picture", "sectionId": "business", "sectionName": "Business", "webPublicationDate": "2010-06-29T07:55:23Z", "webTitle": "Kipper Williams: Green quangos bonfire", "webUrl": "https://www.theguardian.com/business/cartoon/2010/jun/29/environmental-regulations", "apiUrl": "https://content.guardianapis.com/business/cartoon/2010/jun/29/environmental-regulations", "isHosted": false, "pillarId": "pillar/news", "pillarName": "News"}, {"id": "environment/2010/jun/29/country-diary-somerset", "type": "article", "sectionId": "environment", "sectionName": "Environment", "webPublicationDate": "2010-06-28T23:05:29Z", "webTitle": "Country diary: Somerset", "webUrl": "https://www.theguardian.com/environment/2010/jun/29/country-diary-somerset", "apiUrl": "https://content.guardianapis.com/environment/2010/jun/29/country-diary-somerset", "isHosted": false, "pillarId": "pillar/news", "pillarName": "News"}, {"id": "environment/2010/jun/29/unilever-climate-change-index", "type": "article", "sectionId": "environment", "sectionName": "Environment", "webPublicationDate": "2010-06-28T23:04:25Z", "webTitle": "Unilever tops climate change index with 'superb' track record", "webUrl": "https://www.theguardian.com/environment/2010/jun/29/unilever-climate-change-index", "apiUrl": "https://content.guardianapis.com/environment/2010/jun/29/unilever-climate-change-index", "isHosted": false, "pillarId": "pillar/news", "pillarName": "News"}, {"id": "environment/blog/2010/jun/28/art-activists-tate-crowd-bp", "type": "article", "sectionId": "environment", "sectionName": "Environment", "webPublicationDate": "2010-06-28T22:56:07Z", "webTitle": "Art activists take on the Tate crowd over BP", "webUrl": "https://www.theguardian.com/environment/blog/2010/jun/28/art-activists-tate-crowd-bp", "apiUrl": "https://content.guardianapis.com/environment/blog/2010/jun/28/art-activists-tate-crowd-bp", "isHosted": false, "pillarId": "pillar/news", "pillarName": "News"}, {"id": "environment/2010/jun/28/bp-plans-offshore-drilling-expansion", "type": "article", "sectionId": "environment", "sectionName": "Environment", "webPublicationDate": "2010-06-28T20:21:05Z", "webTitle": "BP 'staked future on expanding offshore drilling'", "webUrl": "https://www.theguardian.com/environment/2010/jun/28/bp-plans-offshore-drilling-expansion", "apiUrl": "https://content.guardianapis.com/environment/2010/jun/28/bp-plans-offshore-drilling-expansion", "isHosted": false, "pillarId": "pillar/news", "pillarName": "News"}, {"id": "environment/2010/jun/28/drive-switch-green-power-setback", "type": "article", "sectionId": "environment", "sectionName": "Environment", "webPublicationDate": "2010-06-28T20:06:58Z", "webTitle": "Green setback for UK as British power supplied by renewable sources falls", "webUrl": "https://www.theguardian.com/environment/2010/jun/28/drive-switch-green-power-setback", "apiUrl": "https://content.guardianapis.com/environment/2010/jun/28/drive-switch-green-power-setback", "isHosted": false, "pillarId": "pillar/news", "pillarName": "News"}, {"id": "commentisfree/2010/jun/28/road-rail-spending-environment", "type": "article", "sectionId": "commentisfree", "sectionName": "Opinion", "webPublicationDate": "2010-06-28T14:00:24Z", "webTitle": "Invest in rail, not roads | Richard Hebditch", "webUrl": "https://www.theguardian.com/commentisfree/2010/jun/28/road-rail-spending-environment", "apiUrl": "https://content.guardianapis.com/commentisfree/2010/jun/28/road-rail-spending-environment", "isHosted": false, "pillarId": "pillar/opinion", "pillarName": "Opinion"}, {"id": "environment/green-living-blog/2010/jun/28/you-ask-slow-food", "type": "article", "sectionId": "environment", "sectionName": "Environment", "webPublicationDate": "2010-06-28T13:33:53Z", "webTitle": "You ask, they answer: Slow Food UK", "webUrl": "https://www.theguardian.com/environment/green-living-blog/2010/jun/28/you-ask-slow-food", "apiUrl": "https://content.guardianapis.com/environment/green-living-blog/2010/jun/28/you-ask-slow-food", "isHosted": false, "pillarId": "pillar/news", "pillarName": "News"}, {"id": "environment/2010/jun/28/large-blue-butterfly-cotswolds", "type": "article", "sectionId": "environment", "sectionName": "Environment", "webPublicationDate": "2010-06-28T11:11:43Z", "webTitle": "Large blue butterfly moves to Cotswolds", "webUrl": "https://www.theguardian.com/environment/2010/jun/28/large-blue-butterfly-cotswolds", "apiUrl": "https://content.guardianapis.com/environment/2010/jun/28/large-blue-butterfly-cotswolds", "isHosted": false, "pillarId": "pillar/news", "pillarName": "News"}, {"id": "environment/blog/2010/jun/28/bp-oil-spill-tedx-obama", "type": "article", "sectionId": "environment", "sectionName": "Environment", "webPublicationDate": "2010-06-28T09:39:23Z", "webTitle": "BP oil spill - Monday 28 June", "webUrl": "https://www.theguardian.com/environment/blog/2010/jun/28/bp-oil-spill-tedx-obama", "apiUrl": "https://content.guardianapis.com/environment/blog/2010/jun/28/bp-oil-spill-tedx-obama", "isHosted": false, "pillarId": "pillar/news", "pillarName": "News"}, {"id": "lifeandstyle/video/2010/jun/28/foraging-scottish-highlands", "type": "video", "sectionId": "food", "sectionName": "Food", "webPublicationDate": "2010-06-28T08:00:00Z", "webTitle": "Video: Foraging for a Highland feast", "webUrl": "https://www.theguardian.com/lifeandstyle/video/2010/jun/28/foraging-scottish-highlands", "apiUrl": "https://content.guardianapis.com/lifeandstyle/video/2010/jun/28/foraging-scottish-highlands", "isHosted": false, "pillarId": "pillar/lifestyle", "pillarName": "Lifestyle"}, {"id": "environment/gallery/2010/jun/28/endangered-uk-species-wallchart", "type": "gallery", "sectionId": "environment", "sectionName": "Environment", "webPublicationDate": "2010-06-28T06:00:00Z", "webTitle": "In pictures: Endangered UK species wallchart", "webUrl": "https://www.theguardian.com/environment/gallery/2010/jun/28/endangered-uk-species-wallchart", "apiUrl": "https://content.guardianapis.com/environment/gallery/2010/jun/28/endangered-uk-species-wallchart", "isHosted": false, "pillarId": "pillar/news", "pillarName": "News"}, {"id": "environment/2010/jun/28/country-diary-claxton-norfolk", "type": "article", "sectionId": "environment", "sectionName": "Environment", "webPublicationDate": "2010-06-27T23:05:29Z", "webTitle": "Country diary: Claxton, Norfolk", "webUrl": "https://www.theguardian.com/environment/2010/jun/28/country-diary-claxton-norfolk", "apiUrl": "https://content.guardianapis.com/environment/2010/jun/28/country-diary-claxton-norfolk", "isHosted": false, "pillarId": "pillar/news", "pillarName": "News"}, {"id": "business/2010/jun/28/bp-tate-curator-oil", "type": "article", "sectionId": "business", "sectionName": "Business", "webPublicationDate": "2010-06-27T23:04:23Z", "webTitle": "BP and the Tate: Curators, crude oil and an outdated cultural mix", "webUrl": "https://www.theguardian.com/business/2010/jun/28/bp-tate-curator-oil", "apiUrl": "https://content.guardianapis.com/business/2010/jun/28/bp-tate-curator-oil", "isHosted": false, "pillarId": "pillar/news", "pillarName": "News"}, {"id": "science/blog/audio/2010/jun/28/science-weekly-podcast-david-shukman", "type": "audio", "sectionId": "science", "sectionName": "Science", "webPublicationDate": "2010-06-27T23:01:00Z", "webTitle": "Science Weekly podcast: The BBC's David Shukman and the dangers of patenting genes", "webUrl": "https://www.theguardian.com/science/blog/audio/2010/jun/28/science-weekly-podcast-david-shukman", "apiUrl": "https://content.guardianapis.com/science/blog/audio/2010/jun/28/science-weekly-podcast-david-shukman", "isHosted": false, "pillarId": "pillar/news", "pillarName": "News"}, {"id": "environment/2010/jun/27/can-you-be-green-and-spend-money", "type": "article", "sectionId": "environment", "sectionName": "Environment", "webPublicationDate": "2010-06-26T23:08:15Z", "webTitle": "Can I spend money and be green? | Lucy Siegle", "webUrl": "https://www.theguardian.com/environment/2010/jun/27/can-you-be-green-and-spend-money", "apiUrl": "https://content.guardianapis.com/environment/2010/jun/27/can-you-be-green-and-spend-money", "isHosted": false, "pillarId": "pillar/news", "pillarName": "News"}, {"id": "environment/2010/jun/27/matthew-lloyd-ethical-innovation", "type": "article", "sectionId": "environment", "sectionName": "Environment", "webPublicationDate": "2010-06-26T23:08:13Z", "webTitle": "Matthew Lloyd's innovation: the zero-carbpm lift", "webUrl": "https://www.theguardian.com/environment/2010/jun/27/matthew-lloyd-ethical-innovation", "apiUrl": "https://content.guardianapis.com/environment/2010/jun/27/matthew-lloyd-ethical-innovation", "isHosted": false, "pillarId": "pillar/news", "pillarName": "News"}, {"id": "environment/2010/jun/27/giant-tortoise-galapagos-saved-extinction", "type": "article", "sectionId": "environment", "sectionName": "Environment", "webPublicationDate": "2010-06-26T23:04:27Z", "webTitle": "Gal\u00e1pagos giant tortoise saved from extinction by breeding programme", "webUrl": "https://www.theguardian.com/environment/2010/jun/27/giant-tortoise-galapagos-saved-extinction", "apiUrl": "https://content.guardianapis.com/environment/2010/jun/27/giant-tortoise-galapagos-saved-extinction", "isHosted": false, "pillarId": "pillar/news", "pillarName": "News"}, {"id": "environment/2010/jun/27/eiris-britain-dirty-man-of-europe", "type": "article", "sectionId": "environment", "sectionName": "Environment", "webPublicationDate": "2010-06-26T23:04:24Z", "webTitle": "Eiris review names Britain as 'dirty man of Europe'", "webUrl": "https://www.theguardian.com/environment/2010/jun/27/eiris-britain-dirty-man-of-europe", "apiUrl": "https://content.guardianapis.com/environment/2010/jun/27/eiris-britain-dirty-man-of-europe", "isHosted": false, "pillarId": "pillar/news", "pillarName": "News"}, {"id": "commentisfree/cif-green/2010/jun/26/boris-johnson-air-pollution", "type": "article", "sectionId": "commentisfree", "sectionName": "Opinion", "webPublicationDate": "2010-06-26T15:00:12Z", "webTitle": "Boris Johnson is unlikely to save UK from air pollution fines | Darren Johnson", "webUrl": "https://www.theguardian.com/commentisfree/cif-green/2010/jun/26/boris-johnson-air-pollution", "apiUrl": "https://content.guardianapis.com/commentisfree/cif-green/2010/jun/26/boris-johnson-air-pollution", "isHosted": false, "pillarId": "pillar/opinion", "pillarName": "Opinion"}, {"id": "environment/2010/jun/26/country-diary-barmouth", "type": "article", "sectionId": "environment", "sectionName": "Environment", "webPublicationDate": "2010-06-25T23:05:42Z", "webTitle": "Country diary: Barmouth", "webUrl": "https://www.theguardian.com/environment/2010/jun/26/country-diary-barmouth", "apiUrl": "https://content.guardianapis.com/environment/2010/jun/26/country-diary-barmouth", "isHosted": false, "pillarId": "pillar/news", "pillarName": "News"}, {"id": "money/2010/jun/26/glastonbury-festival-flavoured-climate-change-savings-bonds", "type": "article", "sectionId": "money", "sectionName": "Money", "webPublicationDate": "2010-06-25T23:05:27Z", "webTitle": "Festival-flavoured climate change savings bonds", "webUrl": "https://www.theguardian.com/money/2010/jun/26/glastonbury-festival-flavoured-climate-change-savings-bonds", "apiUrl": "https://content.guardianapis.com/money/2010/jun/26/glastonbury-festival-flavoured-climate-change-savings-bonds", "isHosted": false, "pillarId": "pillar/lifestyle", "pillarName": "Lifestyle"}, {"id": "world/2010/jun/26/shanghai-china-superconsumer-big-business", "type": "article", "sectionId": "world", "sectionName": "World news", "webPublicationDate": "2010-06-25T23:02:32Z", "webTitle": "China: The next superconsumer?", "webUrl": "https://www.theguardian.com/world/2010/jun/26/shanghai-china-superconsumer-big-business", "apiUrl": "https://content.guardianapis.com/world/2010/jun/26/shanghai-china-superconsumer-big-business", "isHosted": false, "pillarId": "pillar/news", "pillarName": "News"}, {"id": "environment/2010/jun/25/bp-accused-of-killing-turtles", "type": "article", "sectionId": "environment", "sectionName": "Environment", "webPublicationDate": "2010-06-25T22:16:00Z", "webTitle": "BP accused of killing endangered sea turtles in cleanup operation", "webUrl": "https://www.theguardian.com/environment/2010/jun/25/bp-accused-of-killing-turtles", "apiUrl": "https://content.guardianapis.com/environment/2010/jun/25/bp-accused-of-killing-turtles", "isHosted": false, "pillarId": "pillar/news", "pillarName": "News"}, {"id": "world/2010/jun/25/egypt-nile-security-cut-water-supply", "type": "article", "sectionId": "world", "sectionName": "World news", "webPublicationDate": "2010-06-25T20:44:54Z", "webTitle": "Egypt's Nile: nation puts great river at heart of its security", "webUrl": "https://www.theguardian.com/world/2010/jun/25/egypt-nile-security-cut-water-supply", "apiUrl": "https://content.guardianapis.com/world/2010/jun/25/egypt-nile-security-cut-water-supply", "isHosted": false, "pillarId": "pillar/news", "pillarName": "News"}, {"id": "environment/2010/jun/25/river-water-disputes-tension-shortages", "type": "article", "sectionId": "environment", "sectionName": "Environment", "webPublicationDate": "2010-06-25T20:42:53Z", "webTitle": "How water raises the political temperature between countries", "webUrl": "https://www.theguardian.com/environment/2010/jun/25/river-water-disputes-tension-shortages", "apiUrl": "https://content.guardianapis.com/environment/2010/jun/25/river-water-disputes-tension-shortages", "isHosted": false, "pillarId": "pillar/news", "pillarName": "News"}]}}