{"response": {"status": "ok", "userTier": "developer", "total": 14907, "startIndex": 1, "pageSize": 50, "currentPage": 1, "pages": 299, "orderBy": "newest", "results": [{"id": "education/2010/jun/30/jamie-oliver-school-meals-lansley", "type": "article", "sectionId": "education", "sectionName": "Education", "webPublicationDate": "2010-06-30T18:23:57Z", "webTitle": "Jamie Oliver hits back at health secretary over school meals 'insult'", "webUrl": "https://www.theguardian.com/education/2010/jun/30/jamie-oliver-school-meals-lansley", "apiUrl": "https://content.guardianapis.com/education/2010/jun/30/jamie-oliver-school-meals-lansley", "isHosted": false, "pillarId": "pillar/news", "pillarName": "News"}, {"id": "lifeandstyle/wordofmouth/2010/jul/30/how-to-make-pate", "type": "article", "sectionId": "lifeandstyle", "sectionName": "Life and style", "webPublicationDate": "2010-06-30T09:00:00Z", "webTitle": "How to make p\u00e2t\u00e9", "webUrl": "https://www.theguardian.com/lifeandstyle/wordofmouth/2010/jul/30/how-to-make-pate", "apiUrl": "https://content.guardianapis.com/lifeandstyle/wordofmouth/2010/jul/30/how-to-make-pate", "isHosted": false, "pillarId": "pillar/lifestyle", "pillarName": "Lifestyle"}, {"id": "lifeandstyle/wordofmouth/gallery/2010/jul/30/how-make-pate-de-campagne", "type": "gallery", "sectionId": "food", "sectionName": "Food", "webPublicationDate": "2010-06-30T08:30:00Z", "webTitle": "How to make pat\u00e9 de campagne", "webUrl": "https://www.theguardian.com/lifeandstyle/wordofmouth/gallery/2010/jul/30/how-make-pate-de-campagne", "apiUrl": "https://content.guardianapis.com/lifeandstyle/wordofmouth/gallery/2010/jul/30/how-make-pate-de-campagne", "isHosted": false, "pillarId": "pillar/lifestyle", "pillarName": "Lifestyle"}, {"id": "sport/2010/jun/29/andy-murray-sushi-wimbledon", "type": "article", "sectionId": "sport", "sectionName": "Sport", "webPublicationDate": "2010-06-29T19:26:18Z", "webTitle": "Players' love of sushi means raw fish is raw power on tennis circuit", "webUrl": "https://www.theguardian.com/sport/2010/jun/29/andy-murray-sushi-wimbledon", "apiUrl": "https://content.guardianapis.com/sport/2010/jun/29/andy-murray-sushi-wimbledon", "isHosted": false, "pillarId": "pillar/sport", "pillarName": "Sport"}, {"id": "travel/blog/2010/jun/29/uk-railway-station-pubs", "type": "article", "sectionId": "travel", "sectionName": "Travel", "webPublicationDate": "2010-06-29T16:29:00Z", "webTitle": "Campaign for rail ale", "webUrl": "https://www.theguardian.com/travel/blog/2010/jun/29/uk-railway-station-pubs", "apiUrl": "https://content.guardianapis.com/travel/blog/2010/jun/29/uk-railway-station-pubs", "isHosted": false, "pillarId": "pillar/lifestyle", "pillarName": "Lifestyle"}, {"id": "commentisfree/2010/jun/29/nutella-nutritionist-fundamentalism", "type": "article", "sectionId": "commentisfree", "sectionName": "Opinion", "webPublicationDate": "2010-06-29T14:35:30Z", "webTitle": "Fight for your right to gluttony | Open thread", "webUrl": "https://www.theguardian.com/commentisfree/2010/jun/29/nutella-nutritionist-fundamentalism", "apiUrl": "https://content.guardianapis.com/commentisfree/2010/jun/29/nutella-nutritionist-fundamentalism", "isHosted": false, "pillarId": "pillar/opinion", "pillarName": "Opinion"}, {"id": "lifeandstyle/wordofmouth/2010/jun/29/perfect-hummus-debate", "type": "article", "sectionId": "lifeandstyle", "sectionName": "Life and style", "webPublicationDate": "2010-06-29T11:00:00Z", "webTitle": "The perfect hummus debate | Yotam Ottolenghi", "webUrl": "https://www.theguardian.com/lifeandstyle/wordofmouth/2010/jun/29/perfect-hummus-debate", "apiUrl": "https://content.guardianapis.com/lifeandstyle/wordofmouth/2010/jun/29/perfect-hummus-debate", "isHosted": false, "pillarId": "pillar/lifestyle", "pillarName": "Lifestyle"}, {"id": "lifeandstyle/video/2010/jun/29/ottolenghi-hummus-ful", "type": "video", "sectionId": "food", "sectionName": "Food", "webPublicationDate": "2010-06-29T10:00:00Z", "webTitle": "Yotam Ottolenghi's warm hummus brunch", "webUrl": "https://www.theguardian.com/lifeandstyle/video/2010/jun/29/ottolenghi-hummus-ful", "apiUrl": "https://content.guardianapis.com/lifeandstyle/video/2010/jun/29/ottolenghi-hummus-ful", "isHosted": false, "pillarId": "pillar/lifestyle", "pillarName": "Lifestyle"}, {"id": "lifeandstyle/wordofmouth/2010/jun/29/saffron", "type": "article", "sectionId": "lifeandstyle", "sectionName": "Life and style", "webPublicationDate": "2010-06-29T08:45:00Z", "webTitle": "A thread about a stigma: consider saffron", "webUrl": "https://www.theguardian.com/lifeandstyle/wordofmouth/2010/jun/29/saffron", "apiUrl": "https://content.guardianapis.com/lifeandstyle/wordofmouth/2010/jun/29/saffron", "isHosted": false, "pillarId": "pillar/lifestyle", "pillarName": "Lifestyle"}, {"id": "uk/2010/jun/28/uk-heatwave-boosts-sales-fans", "type": "article", "sectionId": "uk-news", "sectionName": "UK news", "webPublicationDate": "2010-06-28T14:40:35Z", "webTitle": "UK heatwave boosts sales of air-con and fans", "webUrl": "https://www.theguardian.com/uk/2010/jun/28/uk-heatwave-boosts-sales-fans", "apiUrl": "https://content.guardianapis.com/uk/2010/jun/28/uk-heatwave-boosts-sales-fans", "isHosted": false, "pillarId": "pillar/news", "pillarName": "News"}, {"id": "environment/green-living-blog/2010/jun/28/you-ask-slow-food", "type": "article", "sectionId": "environment", "sectionName": "Environment", "webPublicationDate": "2010-06-28T13:33:53Z", "webTitle": "You ask, they answer: Slow Food UK", "webUrl": "https://www.theguardian.com/environment/green-living-blog/2010/jun/28/you-ask-slow-food", "apiUrl": "https://content.guardianapis.com/environment/green-living-blog/2010/jun/28/you-ask-slow-food", "isHosted": false, "pillarId": "pillar/news", "pillarName": "News"}, {"id": "lifeandstyle/wordofmouth/2010/jun/28/french-chefs-london-restaurants", "type": "article", "sectionId": "lifeandstyle", "sectionName": "Life and style", "webPublicationDate": "2010-06-28T08:40:00Z", "webTitle": "Return of the French chefs", "webUrl": "https://www.theguardian.com/lifeandstyle/wordofmouth/2010/jun/28/french-chefs-london-restaurants", "apiUrl": "https://content.guardianapis.com/lifeandstyle/wordofmouth/2010/jun/28/french-chefs-london-restaurants", "isHosted": false, "pillarId": "pillar/lifestyle", "pillarName": "Lifestyle"}, {"id": "lifeandstyle/video/2010/jun/28/foraging-scottish-highlands", "type": "video", "sectionId": "food", "sectionName": "Food", "webPublicationDate": "2010-06-28T08:00:00Z", "webTitle": "Video: Foraging for a Highland feast", "webUrl": "https://www.theguardian.com/lifeandstyle/video/2010/jun/28/foraging-scottish-highlands", "apiUrl": "https://content.guardianapis.com/lifeandstyle/video/2010/jun/28/foraging-scottish-highlands", "isHosted": false, "pillarId": "pillar/lifestyle", "pillarName": "Lifestyle"}, {"id": "media/2010/jun/28/my-media-tom-aitkens", "type": "article", "sectionId": "media", "sectionName": "Media", "webPublicationDate": "2010-06-27T23:05:22Z", "webTitle": "Tom Aikens: My Media", "webUrl": "https://www.theguardian.com/media/2010/jun/28/my-media-tom-aitkens", "apiUrl": "https://content.guardianapis.com/media/2010/jun/28/my-media-tom-aitkens", "isHosted": false, "pillarId": "pillar/news", "pillarName": "News"}, {"id": "books/2010/jun/27/flavour-thesaurus-niki-segnit-review", "type": "article", "sectionId": "books", "sectionName": "Books", "webPublicationDate": "2010-06-26T23:05:28Z", "webTitle": "The Flavour Thesaurus by Niki Segnit | Book review", "webUrl": "https://www.theguardian.com/books/2010/jun/27/flavour-thesaurus-niki-segnit-review", "apiUrl": "https://content.guardianapis.com/books/2010/jun/27/flavour-thesaurus-niki-segnit-review", "isHosted": false, "pillarId": "pillar/arts", "pillarName": "Arts"}, {"id": "commentisfree/2010/jun/27/boom-bust-pot-noodle-nation", "type": "article", "sectionId": "commentisfree", "sectionName": "Opinion", "webPublicationDate": "2010-06-26T23:04:22Z", "webTitle": "Whelk ice cream never meant we stopped being a Pot Noodle nation | David Mitchell", "webUrl": "https://www.theguardian.com/commentisfree/2010/jun/27/boom-bust-pot-noodle-nation", "apiUrl": "https://content.guardianapis.com/commentisfree/2010/jun/27/boom-bust-pot-noodle-nation", "isHosted": false, "pillarId": "pillar/opinion", "pillarName": "Opinion"}, {"id": "lifeandstyle/2010/jun/27/anthony-bourdain-chef-kitchen-confidential", "type": "article", "sectionId": "food", "sectionName": "Food", "webPublicationDate": "2010-06-26T23:03:14Z", "webTitle": "Anthony Bourdain: the chef who swapped his blade for a pen", "webUrl": "https://www.theguardian.com/lifeandstyle/2010/jun/27/anthony-bourdain-chef-kitchen-confidential", "apiUrl": "https://content.guardianapis.com/lifeandstyle/2010/jun/27/anthony-bourdain-chef-kitchen-confidential", "isHosted": false, "pillarId": "pillar/lifestyle", "pillarName": "Lifestyle"}, {"id": "lifeandstyle/2010/jun/27/jay-rayner-restaurant-review-roux-parliament-square", "type": "article", "sectionId": "food", "sectionName": "Food", "webPublicationDate": "2010-06-26T23:03:13Z", "webTitle": "Restaurant review: Roux at Parliament Square | Jay Rayner", "webUrl": "https://www.theguardian.com/lifeandstyle/2010/jun/27/jay-rayner-restaurant-review-roux-parliament-square", "apiUrl": "https://content.guardianapis.com/lifeandstyle/2010/jun/27/jay-rayner-restaurant-review-roux-parliament-square", "isHosted": false, "pillarId": "pillar/lifestyle", "pillarName": "Lifestyle"}, {"id": "lifeandstyle/2010/jun/26/herbs-porridge-asparagus-matthew-fort", "type": "article", "sectionId": "lifeandstyle", "sectionName": "Life and style", "webPublicationDate": "2010-06-25T23:02:27Z", "webTitle": "Food for Fort: Cooking with herbs, tough asparagus and a pan for porridge | Matthew Fort", "webUrl": "https://www.theguardian.com/lifeandstyle/2010/jun/26/herbs-porridge-asparagus-matthew-fort", "apiUrl": "https://content.guardianapis.com/lifeandstyle/2010/jun/26/herbs-porridge-asparagus-matthew-fort", "isHosted": false, "pillarId": "pillar/lifestyle", "pillarName": "Lifestyle"}, {"id": "lifeandstyle/2010/jun/26/australian-wine-regions-review", "type": "article", "sectionId": "lifeandstyle", "sectionName": "Life and style", "webPublicationDate": "2010-06-25T23:02:25Z", "webTitle": "Wine: Advance Australian flair | Victoria Moore", "webUrl": "https://www.theguardian.com/lifeandstyle/2010/jun/26/australian-wine-regions-review", "apiUrl": "https://content.guardianapis.com/lifeandstyle/2010/jun/26/australian-wine-regions-review", "isHosted": false, "pillarId": "pillar/lifestyle", "pillarName": "Lifestyle"}, {"id": "lifeandstyle/2010/jun/26/what-really-thinking-barbecue-guest", "type": "article", "sectionId": "lifeandstyle", "sectionName": "Life and style", "webPublicationDate": "2010-06-25T23:02:20Z", "webTitle": "What I'm really thinking: The barbecue guest", "webUrl": "https://www.theguardian.com/lifeandstyle/2010/jun/26/what-really-thinking-barbecue-guest", "apiUrl": "https://content.guardianapis.com/lifeandstyle/2010/jun/26/what-really-thinking-barbecue-guest", "isHosted": false, "pillarId": "pillar/lifestyle", "pillarName": "Lifestyle"}, {"id": "lifeandstyle/2010/jun/26/aubergine-turnovers-recipe-dan-lepard", "type": "article", "sectionId": "lifeandstyle", "sectionName": "Life and style", "webPublicationDate": "2010-06-25T23:02:16Z", "webTitle": "Aubergine turnovers recipe | Dan Lepard | Baking | Food", "webUrl": "https://www.theguardian.com/lifeandstyle/2010/jun/26/aubergine-turnovers-recipe-dan-lepard", "apiUrl": "https://content.guardianapis.com/lifeandstyle/2010/jun/26/aubergine-turnovers-recipe-dan-lepard", "isHosted": false, "pillarId": "pillar/lifestyle", "pillarName": "Lifestyle"}, {"id": "lifeandstyle/2010/jun/26/polenta-cheese-gooseberry-recipe-ottolenghi", "type": "article", "sectionId": "lifeandstyle", "sectionName": "Life and style", "webPublicationDate": "2010-06-25T23:02:15Z", "webTitle": "Fried polenta and goat's cheese with gooseberry and chilli relish recipe | Yotam Ottolenghi", "webUrl": "https://www.theguardian.com/lifeandstyle/2010/jun/26/polenta-cheese-gooseberry-recipe-ottolenghi", "apiUrl": "https://content.guardianapis.com/lifeandstyle/2010/jun/26/polenta-cheese-gooseberry-recipe-ottolenghi", "isHosted": false, "pillarId": "pillar/lifestyle", "pillarName": "Lifestyle"}, {"id": "lifeandstyle/2010/jun/26/mulberry-tree-boughton-monchelsea-review", "type": "article", "sectionId": "food", "sectionName": "Food", "webPublicationDate": "2010-06-25T23:02:13Z", "webTitle": "Restaurant: The Mulberry Tree, Boughton Monchelsea, Kent | Sam Wollaston", "webUrl": "https://www.theguardian.com/lifeandstyle/2010/jun/26/mulberry-tree-boughton-monchelsea-review", "apiUrl": "https://content.guardianapis.com/lifeandstyle/2010/jun/26/mulberry-tree-boughton-monchelsea-review", "isHosted": false, "pillarId": "pillar/lifestyle", "pillarName": "Lifestyle"}, {"id": "lifeandstyle/wordofmouth/2010/jun/25/childhood-picnics", "type": "article", "sectionId": "lifeandstyle", "sectionName": "Life and style", "webPublicationDate": "2010-06-25T08:25:00Z", "webTitle": "Childhood picnics remembered - who's kidding who?", "webUrl": "https://www.theguardian.com/lifeandstyle/wordofmouth/2010/jun/25/childhood-picnics", "apiUrl": "https://content.guardianapis.com/lifeandstyle/wordofmouth/2010/jun/25/childhood-picnics", "isHosted": false, "pillarId": "pillar/lifestyle", "pillarName": "Lifestyle"}, {"id": "lifeandstyle/2010/jun/25/how-to-survive-summer-work", "type": "article", "sectionId": "lifeandstyle", "sectionName": "Life and style", "webPublicationDate": "2010-06-25T07:00:09Z", "webTitle": "How to survive the summer at work", "webUrl": "https://www.theguardian.com/lifeandstyle/2010/jun/25/how-to-survive-summer-work", "apiUrl": "https://content.guardianapis.com/lifeandstyle/2010/jun/25/how-to-survive-summer-work", "isHosted": false, "pillarId": "pillar/lifestyle", "pillarName": "Lifestyle"}, {"id": "lifeandstyle/wordofmouth/2010/jun/24/meet-the-chef-no-thanks", "type": "article", "sectionId": "lifeandstyle", "sectionName": "Life and style", "webPublicationDate": "2010-06-24T09:00:00Z", "webTitle": "Meet the chef? No thanks", "webUrl": "https://www.theguardian.com/lifeandstyle/wordofmouth/2010/jun/24/meet-the-chef-no-thanks", "apiUrl": "https://content.guardianapis.com/lifeandstyle/wordofmouth/2010/jun/24/meet-the-chef-no-thanks", "isHosted": false, "pillarId": "pillar/lifestyle", "pillarName": "Lifestyle"}, {"id": "lifeandstyle/wordofmouth/2010/jun/24/how-to-make-perfect-gazpacho", "type": "article", "sectionId": "lifeandstyle", "sectionName": "Life and style", "webPublicationDate": "2010-06-24T07:00:00Z", "webTitle": "How to make perfect gazpacho", "webUrl": "https://www.theguardian.com/lifeandstyle/wordofmouth/2010/jun/24/how-to-make-perfect-gazpacho", "apiUrl": "https://content.guardianapis.com/lifeandstyle/wordofmouth/2010/jun/24/how-to-make-perfect-gazpacho", "isHosted": false, "pillarId": "pillar/lifestyle", "pillarName": "Lifestyle"}, {"id": "lifeandstyle/2010/jun/23/jelly-bompas-parr-desserts", "type": "article", "sectionId": "food", "sectionName": "Food", "webPublicationDate": "2010-06-23T20:00:03Z", "webTitle": "Jelly, but not as you know it", "webUrl": "https://www.theguardian.com/lifeandstyle/2010/jun/23/jelly-bompas-parr-desserts", "apiUrl": "https://content.guardianapis.com/lifeandstyle/2010/jun/23/jelly-bompas-parr-desserts", "isHosted": false, "pillarId": "pillar/lifestyle", "pillarName": "Lifestyle"}, {"id": "lifeandstyle/gallery/2010/jun/23/test-hand-blenders", "type": "gallery", "sectionId": "food", "sectionName": "Food", "webPublicationDate": "2010-06-23T20:00:00Z", "webTitle": "The test... hand blenders", "webUrl": "https://www.theguardian.com/lifeandstyle/gallery/2010/jun/23/test-hand-blenders", "apiUrl": "https://content.guardianapis.com/lifeandstyle/gallery/2010/jun/23/test-hand-blenders", "isHosted": false, "pillarId": "pillar/lifestyle", "pillarName": "Lifestyle"}, {"id": "lifeandstyle/video/2010/jun/23/melton-mowbray-british-pie-awards", "type": "video", "sectionId": "food", "sectionName": "Food", "webPublicationDate": "2010-06-23T11:15:00Z", "webTitle": "Video: Pie-eyed in Melton Mowbray", "webUrl": "https://www.theguardian.com/lifeandstyle/video/2010/jun/23/melton-mowbray-british-pie-awards", "apiUrl": "https://content.guardianapis.com/lifeandstyle/video/2010/jun/23/melton-mowbray-british-pie-awards", "isHosted": false, "pillarId": "pillar/lifestyle", "pillarName": "Lifestyle"}, {"id": "lifeandstyle/wordofmouth/2010/jun/23/recipe-search", "type": "article", "sectionId": "lifeandstyle", "sectionName": "Life and style", "webPublicationDate": "2010-06-23T10:00:00Z", "webTitle": "Introducing our new recipe search", "webUrl": "https://www.theguardian.com/lifeandstyle/wordofmouth/2010/jun/23/recipe-search", "apiUrl": "https://content.guardianapis.com/lifeandstyle/wordofmouth/2010/jun/23/recipe-search", "isHosted": false, "pillarId": "pillar/lifestyle", "pillarName": "Lifestyle"}, {"id": "lifeandstyle/wordofmouth/2010/jun/23/world-cup-food-drink-advertising", "type": "article", "sectionId": "lifeandstyle", "sectionName": "Life and style", "webPublicationDate": "2010-06-23T08:30:00Z", "webTitle": "World Cup Adwatch: same old balls", "webUrl": "https://www.theguardian.com/lifeandstyle/wordofmouth/2010/jun/23/world-cup-food-drink-advertising", "apiUrl": "https://content.guardianapis.com/lifeandstyle/wordofmouth/2010/jun/23/world-cup-food-drink-advertising", "isHosted": false, "pillarId": "pillar/lifestyle", "pillarName": "Lifestyle"}, {"id": "theguardian/2010/jun/23/notes-and-queries-football", "type": "article", "sectionId": "lifeandstyle", "sectionName": "Life and style", "webPublicationDate": "2010-06-22T23:05:15Z", "webTitle": "Notes and queries", "webUrl": "https://www.theguardian.com/theguardian/2010/jun/23/notes-and-queries-football", "apiUrl": "https://content.guardianapis.com/theguardian/2010/jun/23/notes-and-queries-football", "isHosted": false, "pillarId": "pillar/lifestyle", "pillarName": "Lifestyle"}, {"id": "politics/2010/jun/22/cider-wurzels-west-country", "type": "article", "sectionId": "politics", "sectionName": "Politics", "webPublicationDate": "2010-06-22T22:52:20Z", "webTitle": "Cider tax: No scrimping on scrumpy", "webUrl": "https://www.theguardian.com/politics/2010/jun/22/cider-wurzels-west-country", "apiUrl": "https://content.guardianapis.com/politics/2010/jun/22/cider-wurzels-west-country", "isHosted": false, "pillarId": "pillar/news", "pillarName": "News"}, {"id": "science/2010/jun/22/coffee-head-neck-cancers", "type": "article", "sectionId": "science", "sectionName": "Science", "webPublicationDate": "2010-06-22T16:43:34Z", "webTitle": "Coffee may protect against head and neck cancers", "webUrl": "https://www.theguardian.com/science/2010/jun/22/coffee-head-neck-cancers", "apiUrl": "https://content.guardianapis.com/science/2010/jun/22/coffee-head-neck-cancers", "isHosted": false, "pillarId": "pillar/news", "pillarName": "News"}, {"id": "business/2010/jun/22/oysters-sales-essex", "type": "article", "sectionId": "business", "sectionName": "Business", "webPublicationDate": "2010-06-22T13:14:45Z", "webTitle": "Oysters \u2013 why we can't get enough of these slippery customers", "webUrl": "https://www.theguardian.com/business/2010/jun/22/oysters-sales-essex", "apiUrl": "https://content.guardianapis.com/business/2010/jun/22/oysters-sales-essex", "isHosted": false, "pillarId": "pillar/news", "pillarName": "News"}, {"id": "lifeandstyle/wordofmouth/2010/jun/21/consider-boiled-meat", "type": "article", "sectionId": "lifeandstyle", "sectionName": "Life and style", "webPublicationDate": "2010-06-22T08:20:00Z", "webTitle": "Consider boiled meat", "webUrl": "https://www.theguardian.com/lifeandstyle/wordofmouth/2010/jun/21/consider-boiled-meat", "apiUrl": "https://content.guardianapis.com/lifeandstyle/wordofmouth/2010/jun/21/consider-boiled-meat", "isHosted": false, "pillarId": "pillar/lifestyle", "pillarName": "Lifestyle"}, {"id": "tv-and-radio/2010/jun/22/mary-portas-queen-of-shops", "type": "article", "sectionId": "tv-and-radio", "sectionName": "Television & radio", "webPublicationDate": "2010-06-22T07:00:16Z", "webTitle": "Mary Queen of Shops and A Century of Fatherhood", "webUrl": "https://www.theguardian.com/tv-and-radio/2010/jun/22/mary-portas-queen-of-shops", "apiUrl": "https://content.guardianapis.com/tv-and-radio/2010/jun/22/mary-portas-queen-of-shops", "isHosted": false, "pillarId": "pillar/arts", "pillarName": "Arts"}, {"id": "uk/2010/jun/22/convenience-food-changes-saves-lives", "type": "article", "sectionId": "world", "sectionName": "World news", "webPublicationDate": "2010-06-21T23:01:10Z", "webTitle": "Convenience food changes could save 'thousands of lives'", "webUrl": "https://www.theguardian.com/uk/2010/jun/22/convenience-food-changes-saves-lives", "apiUrl": "https://content.guardianapis.com/uk/2010/jun/22/convenience-food-changes-saves-lives", "isHosted": false, "pillarId": "pillar/news", "pillarName": "News"}, {"id": "education/2010/jun/21/breakfast-clubs-school-government-support", "type": "article", "sectionId": "education", "sectionName": "Education", "webPublicationDate": "2010-06-21T15:00:08Z", "webTitle": "Are breakfast clubs under threat?", "webUrl": "https://www.theguardian.com/education/2010/jun/21/breakfast-clubs-school-government-support", "apiUrl": "https://content.guardianapis.com/education/2010/jun/21/breakfast-clubs-school-government-support", "isHosted": false, "pillarId": "pillar/news", "pillarName": "News"}, {"id": "lifeandstyle/wordofmouth/2010/jun/21/gloucester-old-spot-protected-status", "type": "article", "sectionId": "lifeandstyle", "sectionName": "Life and style", "webPublicationDate": "2010-06-21T09:00:00Z", "webTitle": "In praise of porkers: the Gloucester Old Spot", "webUrl": "https://www.theguardian.com/lifeandstyle/wordofmouth/2010/jun/21/gloucester-old-spot-protected-status", "apiUrl": "https://content.guardianapis.com/lifeandstyle/wordofmouth/2010/jun/21/gloucester-old-spot-protected-status", "isHosted": false, "pillarId": "pillar/lifestyle", "pillarName": "Lifestyle"}, {"id": "lifeandstyle/2010/jun/20/top-restaurants-embrace-byob-revolution", "type": "article", "sectionId": "food", "sectionName": "Food", "webPublicationDate": "2010-06-20T19:12:02Z", "webTitle": "Michelin-starred restaurants embrace bring-your-own bottle revolution", "webUrl": "https://www.theguardian.com/lifeandstyle/2010/jun/20/top-restaurants-embrace-byob-revolution", "apiUrl": "https://content.guardianapis.com/lifeandstyle/2010/jun/20/top-restaurants-embrace-byob-revolution", "isHosted": false, "pillarId": "pillar/lifestyle", "pillarName": "Lifestyle"}, {"id": "lifeandstyle/2010/jun/20/restaurant-review-toms-terrace-jay-rayner", "type": "article", "sectionId": "food", "sectionName": "Food", "webPublicationDate": "2010-06-19T23:08:04Z", "webTitle": "Restaurant review: Tom's Terrace | Jay Rayner", "webUrl": "https://www.theguardian.com/lifeandstyle/2010/jun/20/restaurant-review-toms-terrace-jay-rayner", "apiUrl": "https://content.guardianapis.com/lifeandstyle/2010/jun/20/restaurant-review-toms-terrace-jay-rayner", "isHosted": false, "pillarId": "pillar/lifestyle", "pillarName": "Lifestyle"}, {"id": "world/2010/jun/20/pope-unhealthy-childhood-recipes-book", "type": "article", "sectionId": "world", "sectionName": "World news", "webPublicationDate": "2010-06-19T23:04:11Z", "webTitle": "Eat up your veal, lard and stuffed pigeon - and you might be pope", "webUrl": "https://www.theguardian.com/world/2010/jun/20/pope-unhealthy-childhood-recipes-book", "apiUrl": "https://content.guardianapis.com/world/2010/jun/20/pope-unhealthy-childhood-recipes-book", "isHosted": false, "pillarId": "pillar/news", "pillarName": "News"}, {"id": "lifeandstyle/2010/jun/20/wines-roses-dummer-drinking", "type": "article", "sectionId": "food", "sectionName": "Food", "webPublicationDate": "2010-06-19T23:04:10Z", "webTitle": "10 great summer ros\u00e9s", "webUrl": "https://www.theguardian.com/lifeandstyle/2010/jun/20/wines-roses-dummer-drinking", "apiUrl": "https://content.guardianapis.com/lifeandstyle/2010/jun/20/wines-roses-dummer-drinking", "isHosted": false, "pillarId": "pillar/lifestyle", "pillarName": "Lifestyle"}, {"id": "lifeandstyle/2010/jun/20/best-restaurants-summer-britain", "type": "article", "sectionId": "food", "sectionName": "Food", "webPublicationDate": "2010-06-19T23:04:09Z", "webTitle": "The 20 best places to eat in Britain this summer", "webUrl": "https://www.theguardian.com/lifeandstyle/2010/jun/20/best-restaurants-summer-britain", "apiUrl": "https://content.guardianapis.com/lifeandstyle/2010/jun/20/best-restaurants-summer-britain", "isHosted": false, "pillarId": "pillar/lifestyle", "pillarName": "Lifestyle"}, {"id": "lifeandstyle/2010/jun/20/annie-bell-camping-recipes", "type": "article", "sectionId": "food", "sectionName": "Food", "webPublicationDate": "2010-06-19T23:04:07Z", "webTitle": "Eating out: the best camping recipes", "webUrl": "https://www.theguardian.com/lifeandstyle/2010/jun/20/annie-bell-camping-recipes", "apiUrl": "https://content.guardianapis.com/lifeandstyle/2010/jun/20/annie-bell-camping-recipes", "isHosted": false, "pillarId": "pillar/lifestyle", "pillarName": "Lifestyle"}, {"id": "lifeandstyle/2010/jun/20/rachel-cooke-on-dieting", "type": "article", "sectionId": "food", "sectionName": "Food", "webPublicationDate": "2010-06-19T23:03:06Z", "webTitle": "Rchael Cooke puts dieting in its place", "webUrl": "https://www.theguardian.com/lifeandstyle/2010/jun/20/rachel-cooke-on-dieting", "apiUrl": "https://content.guardianapis.com/lifeandstyle/2010/jun/20/rachel-cooke-on-dieting", "isHosted": false, "pillarId": "pillar/lifestyle", "pillarName": "Lifestyle"}, {"id": "lifeandstyle/2010/jun/20/urban-farms-local-food", "type": "article", "sectionId": "food", "sectionName": "Food", "webPublicationDate": "2010-06-19T23:03:05Z", "webTitle": "Urban farms: can you source a complete meal from inside the M25?", "webUrl": "https://www.theguardian.com/lifeandstyle/2010/jun/20/urban-farms-local-food", "apiUrl": "https://content.guardianapis.com/lifeandstyle/2010/jun/20/urban-farms-local-food", "isHosted": false, "pillarId": "pillar/lifestyle", "pillarName": "Lifestyle"}]}}