{"response": {"status": "ok", "userTier": "developer", "total": 93551, "startIndex": 1, "pageSize": 50, "currentPage": 1, "pages": 1872, "orderBy": "newest", "results": [{"id": "football/2015/jun/30/england-womens-world-cup-japan-mark-sampson-canada", "type": "article", "sectionId": "football", "sectionName": "Football", "webPublicationDate": "2015-06-30T22:40:00Z", "webTitle": "Mark Sampson believes England can stun Japan on way to World Cup win", "webUrl": "https://www.theguardian.com/football/2015/jun/30/england-womens-world-cup-japan-mark-sampson-canada", "apiUrl": "https://content.guardianapis.com/football/2015/jun/30/england-womens-world-cup-japan-mark-sampson-canada", "isHosted": false, "pillarId": "pillar/sport", "pillarName": "Sport"}, {"id": "football/2015/jun/30/west-brom-rickie-lambert-charlie-austin-terry-burton", "type": "article", "sectionId": "football", "sectionName": "Football", "webPublicationDate": "2015-06-30T22:21:31Z", "webTitle": "West Brom chase Rickie Lambert and Charlie Austin as Terry Burton goes", "webUrl": "https://www.theguardian.com/football/2015/jun/30/west-brom-rickie-lambert-charlie-austin-terry-burton", "apiUrl": "https://content.guardianapis.com/football/2015/jun/30/west-brom-rickie-lambert-charlie-austin-terry-burton", "isHosted": false, "pillarId": "pillar/sport", "pillarName": "Sport"}, {"id": "football/2015/jun/30/japan-england-world-cup-semi-final", "type": "article", "sectionId": "football", "sectionName": "Football", "webPublicationDate": "2015-06-30T22:13:06Z", "webTitle": "Japan\u2019s strengths: four reasons for England to be fearful | Louise Taylor", "webUrl": "https://www.theguardian.com/football/2015/jun/30/japan-england-world-cup-semi-final", "apiUrl": "https://content.guardianapis.com/football/2015/jun/30/japan-england-world-cup-semi-final", "isHosted": false, "pillarId": "pillar/sport", "pillarName": "Sport"}, {"id": "football/2015/jun/30/sweden-portugal-european-under-21-championship-final-match-report", "type": "article", "sectionId": "football", "sectionName": "Football", "webPublicationDate": "2015-06-30T21:44:33Z", "webTitle": "Sweden 0-0 Portugal (4-3 on pens) | European U-21 Championship final", "webUrl": "https://www.theguardian.com/football/2015/jun/30/sweden-portugal-european-under-21-championship-final-match-report", "apiUrl": "https://content.guardianapis.com/football/2015/jun/30/sweden-portugal-european-under-21-championship-final-match-report", "isHosted": false, "pillarId": "pillar/sport", "pillarName": "Sport"}, {"id": "football/2015/jun/30/sebastian-coates-sunderland-liverpool", "type": "article", "sectionId": "football", "sectionName": "Football", "webPublicationDate": "2015-06-30T21:30:07Z", "webTitle": "Sebastian Coates to make Sunderland move permanent from Liverpool", "webUrl": "https://www.theguardian.com/football/2015/jun/30/sebastian-coates-sunderland-liverpool", "apiUrl": "https://content.guardianapis.com/football/2015/jun/30/sebastian-coates-sunderland-liverpool", "isHosted": false, "pillarId": "pillar/sport", "pillarName": "Sport"}, {"id": "football/2015/jun/30/crystal-palace-psg-yohan-cabaye-transfer", "type": "article", "sectionId": "football", "sectionName": "Football", "webPublicationDate": "2015-06-30T20:53:35Z", "webTitle": "Crystal Palace in talks with PSG over \u00a310m Yohan Cabaye transfer", "webUrl": "https://www.theguardian.com/football/2015/jun/30/crystal-palace-psg-yohan-cabaye-transfer", "apiUrl": "https://content.guardianapis.com/football/2015/jun/30/crystal-palace-psg-yohan-cabaye-transfer", "isHosted": false, "pillarId": "pillar/sport", "pillarName": "Sport"}, {"id": "football/2015/jun/30/the-fiver-real-madrid", "type": "article", "sectionId": "football", "sectionName": "Football", "webPublicationDate": "2015-06-30T15:49:15Z", "webTitle": "Keeping it Real with his fabled skills of negotiation", "webUrl": "https://www.theguardian.com/football/2015/jun/30/the-fiver-real-madrid", "apiUrl": "https://content.guardianapis.com/football/2015/jun/30/the-fiver-real-madrid", "isHosted": false, "pillarId": "pillar/sport", "pillarName": "Sport"}, {"id": "football/2015/jun/30/england-women-responsibilities-world-cup-success-sampson", "type": "article", "sectionId": "football", "sectionName": "Football", "webPublicationDate": "2015-06-30T14:46:08Z", "webTitle": "England must accept demands of World Cup success, says Mark Sampson", "webUrl": "https://www.theguardian.com/football/2015/jun/30/england-women-responsibilities-world-cup-success-sampson", "apiUrl": "https://content.guardianapis.com/football/2015/jun/30/england-women-responsibilities-world-cup-success-sampson", "isHosted": false, "pillarId": "pillar/sport", "pillarName": "Sport"}, {"id": "football/2015/jun/30/football-quiz-british-coaches-abroad", "type": "article", "sectionId": "football", "sectionName": "Football", "webPublicationDate": "2015-06-30T14:27:03Z", "webTitle": "Football quiz: British coaches abroad", "webUrl": "https://www.theguardian.com/football/2015/jun/30/football-quiz-british-coaches-abroad", "apiUrl": "https://content.guardianapis.com/football/2015/jun/30/football-quiz-british-coaches-abroad", "isHosted": false, "pillarId": "pillar/sport", "pillarName": "Sport"}, {"id": "football/blog/2015/jun/30/is-soccer-in-the-us-letting-hispanic-talent-slip-through-the-cracks", "type": "article", "sectionId": "football", "sectionName": "Football", "webPublicationDate": "2015-06-30T14:01:40Z", "webTitle": "Is soccer in the US letting Hispanic talent slip through the cracks?", "webUrl": "https://www.theguardian.com/football/blog/2015/jun/30/is-soccer-in-the-us-letting-hispanic-talent-slip-through-the-cracks", "apiUrl": "https://content.guardianapis.com/football/blog/2015/jun/30/is-soccer-in-the-us-letting-hispanic-talent-slip-through-the-cracks", "isHosted": false, "pillarId": "pillar/sport", "pillarName": "Sport"}, {"id": "football/blog/2015/jun/30/transfer-window-12-best-deals-summer", "type": "article", "sectionId": "football", "sectionName": "Football", "webPublicationDate": "2015-06-30T12:00:07Z", "webTitle": "Transfer window bargains: 12 of the best deals available this summer | Alan Smith", "webUrl": "https://www.theguardian.com/football/blog/2015/jun/30/transfer-window-12-best-deals-summer", "apiUrl": "https://content.guardianapis.com/football/blog/2015/jun/30/transfer-window-12-best-deals-summer", "isHosted": false, "pillarId": "pillar/sport", "pillarName": "Sport"}, {"id": "football/2015/jun/30/atletico-madrid-arda-turan-manchester-united-chelsea", "type": "article", "sectionId": "football", "sectionName": "Football", "webPublicationDate": "2015-06-30T11:29:19Z", "webTitle": "Atl\u00e9tico Madrid\u2019s Arda Turan to decide on new club \u2018in next four days\u2019", "webUrl": "https://www.theguardian.com/football/2015/jun/30/atletico-madrid-arda-turan-manchester-united-chelsea", "apiUrl": "https://content.guardianapis.com/football/2015/jun/30/atletico-madrid-arda-turan-manchester-united-chelsea", "isHosted": false, "pillarId": "pillar/sport", "pillarName": "Sport"}, {"id": "football/2015/jun/30/millennium-stadium-champions-league-final-2017", "type": "article", "sectionId": "football", "sectionName": "Football", "webPublicationDate": "2015-06-30T10:46:01Z", "webTitle": "Millennium Stadium confirmed as 2016-17 Champions League final venue", "webUrl": "https://www.theguardian.com/football/2015/jun/30/millennium-stadium-champions-league-final-2017", "apiUrl": "https://content.guardianapis.com/football/2015/jun/30/millennium-stadium-champions-league-final-2017", "isHosted": false, "pillarId": "pillar/sport", "pillarName": "Sport"}, {"id": "football/2015/jun/30/ronaldinho-samuel-etoo-turkey-antalyaspor", "type": "article", "sectionId": "football", "sectionName": "Football", "webPublicationDate": "2015-06-30T09:54:33Z", "webTitle": "Ronaldinho in line to join Samuel Eto\u2019o in Turkey with Antalyaspor", "webUrl": "https://www.theguardian.com/football/2015/jun/30/ronaldinho-samuel-etoo-turkey-antalyaspor", "apiUrl": "https://content.guardianapis.com/football/2015/jun/30/ronaldinho-samuel-etoo-turkey-antalyaspor", "isHosted": false, "pillarId": "pillar/sport", "pillarName": "Sport"}, {"id": "football/2015/jun/30/john-guidetti-sweden-football-mr-nice-guy", "type": "article", "sectionId": "football", "sectionName": "Football", "webPublicationDate": "2015-06-30T09:48:12Z", "webTitle": "John Guidetti: Swedish talisman and football\u2019s Mr Nice Guy", "webUrl": "https://www.theguardian.com/football/2015/jun/30/john-guidetti-sweden-football-mr-nice-guy", "apiUrl": "https://content.guardianapis.com/football/2015/jun/30/john-guidetti-sweden-football-mr-nice-guy", "isHosted": false, "pillarId": "pillar/sport", "pillarName": "Sport"}, {"id": "football/2015/jun/30/chile-shed-romantic-ideals-copa-america-title-dream", "type": "article", "sectionId": "football", "sectionName": "Football", "webPublicationDate": "2015-06-30T09:40:55Z", "webTitle": "Chile shed romantic ideals in pursuit of Copa Am\u00e9rica title dream | Jonathan Wilson", "webUrl": "https://www.theguardian.com/football/2015/jun/30/chile-shed-romantic-ideals-copa-america-title-dream", "apiUrl": "https://content.guardianapis.com/football/2015/jun/30/chile-shed-romantic-ideals-copa-america-title-dream", "isHosted": false, "pillarId": "pillar/sport", "pillarName": "Sport"}, {"id": "football/blog/2015/jun/30/goals-for-20-goals-against-3-germany-pose-huge-world-cup-task-for-usa", "type": "article", "sectionId": "football", "sectionName": "Football", "webPublicationDate": "2015-06-30T09:00:10Z", "webTitle": "Goals for 20, goals against 3: Germany pose huge World Cup task for USA", "webUrl": "https://www.theguardian.com/football/blog/2015/jun/30/goals-for-20-goals-against-3-germany-pose-huge-world-cup-task-for-usa", "apiUrl": "https://content.guardianapis.com/football/blog/2015/jun/30/goals-for-20-goals-against-3-germany-pose-huge-world-cup-task-for-usa", "isHosted": false, "pillarId": "pillar/sport", "pillarName": "Sport"}, {"id": "football/2015/jun/30/football-transfer-rumours-emmanuel-adebayor-aston-villa", "type": "article", "sectionId": "football", "sectionName": "Football", "webPublicationDate": "2015-06-30T08:14:52Z", "webTitle": "Football transfer rumours: Emmanuel Adebayor for Aston Villa?", "webUrl": "https://www.theguardian.com/football/2015/jun/30/football-transfer-rumours-emmanuel-adebayor-aston-villa", "apiUrl": "https://content.guardianapis.com/football/2015/jun/30/football-transfer-rumours-emmanuel-adebayor-aston-villa", "isHosted": false, "pillarId": "pillar/sport", "pillarName": "Sport"}, {"id": "football/live/2015/jun/29/chile-peru-copa-america-semi-final-live", "type": "liveblog", "sectionId": "football", "sectionName": "Football", "webPublicationDate": "2015-06-30T01:30:57Z", "webTitle": "Chile v Peru: Copa Am\u00e9rica semi-final \u2013 as it happened", "webUrl": "https://www.theguardian.com/football/live/2015/jun/29/chile-peru-copa-america-semi-final-live", "apiUrl": "https://content.guardianapis.com/football/live/2015/jun/29/chile-peru-copa-america-semi-final-live", "isHosted": false, "pillarId": "pillar/sport", "pillarName": "Sport"}, {"id": "football/2015/jun/29/everton-express-interest-leeds-right-back-sam-byram", "type": "article", "sectionId": "football", "sectionName": "Football", "webPublicationDate": "2015-06-29T21:30:07Z", "webTitle": "Everton express interest in Leeds United right-back Sam Byram", "webUrl": "https://www.theguardian.com/football/2015/jun/29/everton-express-interest-leeds-right-back-sam-byram", "apiUrl": "https://content.guardianapis.com/football/2015/jun/29/everton-express-interest-leeds-right-back-sam-byram", "isHosted": false, "pillarId": "pillar/sport", "pillarName": "Sport"}, {"id": "football/2015/jun/29/liverpool-sean-odriscoll-assistant-manager", "type": "article", "sectionId": "football", "sectionName": "Football", "webPublicationDate": "2015-06-29T21:30:07Z", "webTitle": "Liverpool to name Sean O\u2019Driscoll as new assistant manager", "webUrl": "https://www.theguardian.com/football/2015/jun/29/liverpool-sean-odriscoll-assistant-manager", "apiUrl": "https://content.guardianapis.com/football/2015/jun/29/liverpool-sean-odriscoll-assistant-manager", "isHosted": false, "pillarId": "pillar/sport", "pillarName": "Sport"}, {"id": "football/2015/jun/29/sergio-ramos-real-madrid-wants-leave-manchester-united", "type": "article", "sectionId": "football", "sectionName": "Football", "webPublicationDate": "2015-06-29T19:37:39Z", "webTitle": "Sergio Ramos tells Real Madrid he wants to leave for Manchester United", "webUrl": "https://www.theguardian.com/football/2015/jun/29/sergio-ramos-real-madrid-wants-leave-manchester-united", "apiUrl": "https://content.guardianapis.com/football/2015/jun/29/sergio-ramos-real-madrid-wants-leave-manchester-united", "isHosted": false, "pillarId": "pillar/sport", "pillarName": "Sport"}, {"id": "football/2015/jun/29/portugal-sweden-european-under-21-championship-final-luis-figo", "type": "article", "sectionId": "football", "sectionName": "Football", "webPublicationDate": "2015-06-29T19:10:42Z", "webTitle": "Portugal\u2019s new breed aim to go one better than class of 1994 against Sweden", "webUrl": "https://www.theguardian.com/football/2015/jun/29/portugal-sweden-european-under-21-championship-final-luis-figo", "apiUrl": "https://content.guardianapis.com/football/2015/jun/29/portugal-sweden-european-under-21-championship-final-luis-figo", "isHosted": false, "pillarId": "pillar/sport", "pillarName": "Sport"}, {"id": "football/2015/jun/29/chelsea-asmir-begovic-stoke-reject-bid", "type": "article", "sectionId": "football", "sectionName": "Football", "webPublicationDate": "2015-06-29T17:47:03Z", "webTitle": "Chelsea hope to sign Asmir Begovic despite Stoke rejecting \u00a36m bid", "webUrl": "https://www.theguardian.com/football/2015/jun/29/chelsea-asmir-begovic-stoke-reject-bid", "apiUrl": "https://content.guardianapis.com/football/2015/jun/29/chelsea-asmir-begovic-stoke-reject-bid", "isHosted": false, "pillarId": "pillar/sport", "pillarName": "Sport"}, {"id": "football/blog/2015/jun/29/jose-mourinho-petr-cech-chelsea-arsenal", "type": "article", "sectionId": "football", "sectionName": "Football", "webPublicationDate": "2015-06-29T15:54:51Z", "webTitle": "Jos\u00e9 Mourinho will be fuming if Petr Cech wins the league for Arsenal | David Hytner", "webUrl": "https://www.theguardian.com/football/blog/2015/jun/29/jose-mourinho-petr-cech-chelsea-arsenal", "apiUrl": "https://content.guardianapis.com/football/blog/2015/jun/29/jose-mourinho-petr-cech-chelsea-arsenal", "isHosted": false, "pillarId": "pillar/sport", "pillarName": "Sport"}, {"id": "football/2015/jun/29/a-real-english-football-legend", "type": "article", "sectionId": "football", "sectionName": "Football", "webPublicationDate": "2015-06-29T15:02:09Z", "webTitle": "The Fiver | A real English football legend", "webUrl": "https://www.theguardian.com/football/2015/jun/29/a-real-english-football-legend", "apiUrl": "https://content.guardianapis.com/football/2015/jun/29/a-real-english-football-legend", "isHosted": false, "pillarId": "pillar/sport", "pillarName": "Sport"}, {"id": "football/2015/jun/29/paulinho-tottenham-china-guangzhou-evergrande", "type": "article", "sectionId": "football", "sectionName": "Football", "webPublicationDate": "2015-06-29T14:54:21Z", "webTitle": "Paulinho makes \u00a39.9m switch from Tottenham to Guangzhou Evergrande", "webUrl": "https://www.theguardian.com/football/2015/jun/29/paulinho-tottenham-china-guangzhou-evergrande", "apiUrl": "https://content.guardianapis.com/football/2015/jun/29/paulinho-tottenham-china-guangzhou-evergrande", "isHosted": false, "pillarId": "pillar/sport", "pillarName": "Sport"}, {"id": "football/2015/jun/29/petr-cech-arsenal-chelsea-transfer", "type": "article", "sectionId": "football", "sectionName": "Football", "webPublicationDate": "2015-06-29T14:43:13Z", "webTitle": "Petr Cech seals \u00a310m Arsenal move and tweets goodbye to Chelsea fans", "webUrl": "https://www.theguardian.com/football/2015/jun/29/petr-cech-arsenal-chelsea-transfer", "apiUrl": "https://content.guardianapis.com/football/2015/jun/29/petr-cech-arsenal-chelsea-transfer", "isHosted": false, "pillarId": "pillar/sport", "pillarName": "Sport"}, {"id": "football/2015/jun/29/sweden-portugal-under-21-championship-final-how-players-rate", "type": "article", "sectionId": "football", "sectionName": "Football", "webPublicationDate": "2015-06-29T14:03:22Z", "webTitle": "Sweden v Portugal European Under-21 Championship final: how the players rate", "webUrl": "https://www.theguardian.com/football/2015/jun/29/sweden-portugal-under-21-championship-final-how-players-rate", "apiUrl": "https://content.guardianapis.com/football/2015/jun/29/sweden-portugal-under-21-championship-final-how-players-rate", "isHosted": false, "pillarId": "pillar/sport", "pillarName": "Sport"}, {"id": "football/blog/2015/jun/29/welsh-football-league-gareth-bale-wales-euro-2016-champions-league-europa-league", "type": "article", "sectionId": "football", "sectionName": "Football", "webPublicationDate": "2015-06-29T12:09:00Z", "webTitle": "Welsh football is in weird and wonderful league of its own but game is on the up | Paul Doyle", "webUrl": "https://www.theguardian.com/football/blog/2015/jun/29/welsh-football-league-gareth-bale-wales-euro-2016-champions-league-europa-league", "apiUrl": "https://content.guardianapis.com/football/blog/2015/jun/29/welsh-football-league-gareth-bale-wales-euro-2016-champions-league-europa-league", "isHosted": false, "pillarId": "pillar/sport", "pillarName": "Sport"}, {"id": "football/2015/jun/29/england-siobhan-chamberlain-japan-womens-world-cup-goalkeeper-karen-bardsley", "type": "article", "sectionId": "football", "sectionName": "Football", "webPublicationDate": "2015-06-29T12:00:47Z", "webTitle": "England\u2019s Siobhan Chamberlain ready to face Japan at Women\u2019s World Cup", "webUrl": "https://www.theguardian.com/football/2015/jun/29/england-siobhan-chamberlain-japan-womens-world-cup-goalkeeper-karen-bardsley", "apiUrl": "https://content.guardianapis.com/football/2015/jun/29/england-siobhan-chamberlain-japan-womens-world-cup-goalkeeper-karen-bardsley", "isHosted": false, "pillarId": "pillar/sport", "pillarName": "Sport"}, {"id": "sport/blog/2015/jun/29/sounders-count-the-cost-of-dempseys-tantrum-and-red-bulls-own-new-york", "type": "article", "sectionId": "football", "sectionName": "Football", "webPublicationDate": "2015-06-29T11:22:07Z", "webTitle": "Sounders count the cost of Dempsey's tantrum, and Red Bulls own New York", "webUrl": "https://www.theguardian.com/sport/blog/2015/jun/29/sounders-count-the-cost-of-dempseys-tantrum-and-red-bulls-own-new-york", "apiUrl": "https://content.guardianapis.com/sport/blog/2015/jun/29/sounders-count-the-cost-of-dempseys-tantrum-and-red-bulls-own-new-york", "isHosted": false, "pillarId": "pillar/sport", "pillarName": "Sport"}, {"id": "football/blog/2015/jun/29/liverpool-raheem-sterling-jordan-henderson-captain", "type": "article", "sectionId": "football", "sectionName": "Football", "webPublicationDate": "2015-06-29T11:11:04Z", "webTitle": "Liverpool should make Raheem Sterling the new captain, not Jordan Henderson | Paul Doyle", "webUrl": "https://www.theguardian.com/football/blog/2015/jun/29/liverpool-raheem-sterling-jordan-henderson-captain", "apiUrl": "https://content.guardianapis.com/football/blog/2015/jun/29/liverpool-raheem-sterling-jordan-henderson-captain", "isHosted": false, "pillarId": "pillar/sport", "pillarName": "Sport"}, {"id": "football/2015/jun/29/gonzalo-jara-edinson-cavani-poke-bottom-chile-uruguay-copa-america", "type": "article", "sectionId": "football", "sectionName": "Football", "webPublicationDate": "2015-06-29T10:51:46Z", "webTitle": "Gonzalo Jara accused of telling Edinson Cavani his father faces 20 years in prison", "webUrl": "https://www.theguardian.com/football/2015/jun/29/gonzalo-jara-edinson-cavani-poke-bottom-chile-uruguay-copa-america", "apiUrl": "https://content.guardianapis.com/football/2015/jun/29/gonzalo-jara-edinson-cavani-poke-bottom-chile-uruguay-copa-america", "isHosted": false, "pillarId": "pillar/sport", "pillarName": "Sport"}, {"id": "football/2015/jun/29/emre-can-germany-under-21s-pizza-portugal-european-championship", "type": "article", "sectionId": "football", "sectionName": "Football", "webPublicationDate": "2015-06-29T09:17:53Z", "webTitle": "Emre Can defends going for pizza before Germany Under-21s\u2019 defeat to Portugal", "webUrl": "https://www.theguardian.com/football/2015/jun/29/emre-can-germany-under-21s-pizza-portugal-european-championship", "apiUrl": "https://content.guardianapis.com/football/2015/jun/29/emre-can-germany-under-21s-pizza-portugal-european-championship", "isHosted": false, "pillarId": "pillar/sport", "pillarName": "Sport"}, {"id": "football/blog/2015/jun/29/how-carli-lloyd-found-freedom-to-become-usas-big-goal-hunter", "type": "article", "sectionId": "football", "sectionName": "Football", "webPublicationDate": "2015-06-29T09:00:13Z", "webTitle": "How Carli Lloyd found freedom to become USA's big-goal hunter", "webUrl": "https://www.theguardian.com/football/blog/2015/jun/29/how-carli-lloyd-found-freedom-to-become-usas-big-goal-hunter", "apiUrl": "https://content.guardianapis.com/football/blog/2015/jun/29/how-carli-lloyd-found-freedom-to-become-usas-big-goal-hunter", "isHosted": false, "pillarId": "pillar/sport", "pillarName": "Sport"}, {"id": "football/2015/jun/29/football-transfer-rumours-manchester-city-sergio-ramos", "type": "article", "sectionId": "football", "sectionName": "Football", "webPublicationDate": "2015-06-29T07:47:10Z", "webTitle": "Football transfer rumours: Manchester City in for Sergio Ramos?", "webUrl": "https://www.theguardian.com/football/2015/jun/29/football-transfer-rumours-manchester-city-sergio-ramos", "apiUrl": "https://content.guardianapis.com/football/2015/jun/29/football-transfer-rumours-manchester-city-sergio-ramos", "isHosted": false, "pillarId": "pillar/sport", "pillarName": "Sport"}, {"id": "football/live/2015/jun/28/mls-new-york-city-fc-v-new-york-red-bulls-live", "type": "liveblog", "sectionId": "football", "sectionName": "Football", "webPublicationDate": "2015-06-28T22:58:21Z", "webTitle": "MLS: New York City FC v New York Red Bulls \u2013 as it happened", "webUrl": "https://www.theguardian.com/football/live/2015/jun/28/mls-new-york-city-fc-v-new-york-red-bulls-live", "apiUrl": "https://content.guardianapis.com/football/live/2015/jun/28/mls-new-york-city-fc-v-new-york-red-bulls-live", "isHosted": false, "pillarId": "pillar/sport", "pillarName": "Sport"}, {"id": "football/2015/jun/28/leicester-marc-albrighton-partner-mother-tunisia-massacre", "type": "article", "sectionId": "football", "sectionName": "Football", "webPublicationDate": "2015-06-28T22:32:22Z", "webTitle": "Mother of Leicester winger Marc Albrighton\u2019s partner killed in Tunisia massacre", "webUrl": "https://www.theguardian.com/football/2015/jun/28/leicester-marc-albrighton-partner-mother-tunisia-massacre", "apiUrl": "https://content.guardianapis.com/football/2015/jun/28/leicester-marc-albrighton-partner-mother-tunisia-massacre", "isHosted": false, "pillarId": "pillar/sport", "pillarName": "Sport"}, {"id": "football/2015/jun/28/manchester-united-seamus-coleman-everton-no-formal-approach", "type": "article", "sectionId": "football", "sectionName": "Football", "webPublicationDate": "2015-06-28T21:13:58Z", "webTitle": "Manchester United yet to make formal approach for Everton\u2019s Seamus Coleman", "webUrl": "https://www.theguardian.com/football/2015/jun/28/manchester-united-seamus-coleman-everton-no-formal-approach", "apiUrl": "https://content.guardianapis.com/football/2015/jun/28/manchester-united-seamus-coleman-everton-no-formal-approach", "isHosted": false, "pillarId": "pillar/sport", "pillarName": "Sport"}, {"id": "football/2015/jun/28/chile-peru-copa-america-semi-final", "type": "article", "sectionId": "football", "sectionName": "Football", "webPublicationDate": "2015-06-28T19:07:37Z", "webTitle": "Chile overcome controversies but face revitalised Peru at Copa Am\u00e9rica", "webUrl": "https://www.theguardian.com/football/2015/jun/28/chile-peru-copa-america-semi-final", "apiUrl": "https://content.guardianapis.com/football/2015/jun/28/chile-peru-copa-america-semi-final", "isHosted": false, "pillarId": "pillar/sport", "pillarName": "Sport"}, {"id": "football/2015/jun/28/derlis-gonzalez-paraguay-brazil-uncle-dies-celebrating", "type": "article", "sectionId": "football", "sectionName": "Football", "webPublicationDate": "2015-06-28T19:01:25Z", "webTitle": "Uncle of Paraguay\u2019s Derlis Gonz\u00e1lez dies celebrating nephew\u2019s penalty", "webUrl": "https://www.theguardian.com/football/2015/jun/28/derlis-gonzalez-paraguay-brazil-uncle-dies-celebrating", "apiUrl": "https://content.guardianapis.com/football/2015/jun/28/derlis-gonzalez-paraguay-brazil-uncle-dies-celebrating", "isHosted": false, "pillarId": "pillar/sport", "pillarName": "Sport"}, {"id": "football/2015/jun/28/phil-neville-valencia-coach-tv-pundit", "type": "article", "sectionId": "football", "sectionName": "Football", "webPublicationDate": "2015-06-28T18:43:23Z", "webTitle": "Phil Neville set to swap TV punditry for Valencia coaching job", "webUrl": "https://www.theguardian.com/football/2015/jun/28/phil-neville-valencia-coach-tv-pundit", "apiUrl": "https://content.guardianapis.com/football/2015/jun/28/phil-neville-valencia-coach-tv-pundit", "isHosted": false, "pillarId": "pillar/sport", "pillarName": "Sport"}, {"id": "football/2015/jun/28/england-women-world-cup-semi-final", "type": "article", "sectionId": "football", "sectionName": "Football", "webPublicationDate": "2015-06-28T18:42:19Z", "webTitle": "England\u2019s success at Women\u2019s World Cup sets new standards for others", "webUrl": "https://www.theguardian.com/football/2015/jun/28/england-women-world-cup-semi-final", "apiUrl": "https://content.guardianapis.com/football/2015/jun/28/england-women-world-cup-semi-final", "isHosted": false, "pillarId": "pillar/sport", "pillarName": "Sport"}, {"id": "football/2015/jun/28/englands-victory-a-game-changer-for-womens-football", "type": "article", "sectionId": "football", "sectionName": "Football", "webPublicationDate": "2015-06-28T18:27:12Z", "webTitle": "England's victory a  'game-changer' for women's football", "webUrl": "https://www.theguardian.com/football/2015/jun/28/englands-victory-a-game-changer-for-womens-football", "apiUrl": "https://content.guardianapis.com/football/2015/jun/28/englands-victory-a-game-changer-for-womens-football", "isHosted": false, "pillarId": "pillar/sport", "pillarName": "Sport"}, {"id": "football/2015/jun/28/demba-ba-shanghai-shenhua-china-besiktas", "type": "article", "sectionId": "football", "sectionName": "Football", "webPublicationDate": "2015-06-28T17:00:56Z", "webTitle": "Demba Ba set to join Chinese side Shanghai Shenhua from Besiktas", "webUrl": "https://www.theguardian.com/football/2015/jun/28/demba-ba-shanghai-shenhua-china-besiktas", "apiUrl": "https://content.guardianapis.com/football/2015/jun/28/demba-ba-shanghai-shenhua-china-besiktas", "isHosted": false, "pillarId": "pillar/sport", "pillarName": "Sport"}, {"id": "football/2015/jun/28/phil-neville-assistant-manager-valencia", "type": "article", "sectionId": "football", "sectionName": "Football", "webPublicationDate": "2015-06-28T15:27:56Z", "webTitle": "Phil Neville swaps TV punditry for Valencia coaching job", "webUrl": "https://www.theguardian.com/football/2015/jun/28/phil-neville-assistant-manager-valencia", "apiUrl": "https://content.guardianapis.com/football/2015/jun/28/phil-neville-assistant-manager-valencia", "isHosted": false, "pillarId": "pillar/sport", "pillarName": "Sport"}, {"id": "football/blog/2015/jun/28/william-carvalho-portugal-germany-euro-under-21-championship", "type": "article", "sectionId": "football", "sectionName": "Football", "webPublicationDate": "2015-06-28T14:43:16Z", "webTitle": "William Carvalho has inspired Portugal to European Under-21 final | John Ashdown", "webUrl": "https://www.theguardian.com/football/blog/2015/jun/28/william-carvalho-portugal-germany-euro-under-21-championship", "apiUrl": "https://content.guardianapis.com/football/blog/2015/jun/28/william-carvalho-portugal-germany-euro-under-21-championship", "isHosted": false, "pillarId": "pillar/sport", "pillarName": "Sport"}, {"id": "football/blog/2015/jun/28/brazil-copa-america-paraguay", "type": "article", "sectionId": "football", "sectionName": "Football", "webPublicationDate": "2015-06-28T10:17:43Z", "webTitle": "Beauty leaves the Brazilian game as glitter gives way to grit | Jonathan Wilson", "webUrl": "https://www.theguardian.com/football/blog/2015/jun/28/brazil-copa-america-paraguay", "apiUrl": "https://content.guardianapis.com/football/blog/2015/jun/28/brazil-copa-america-paraguay", "isHosted": false, "pillarId": "pillar/sport", "pillarName": "Sport"}, {"id": "football/2015/jun/28/usa-victory-china-five-things", "type": "article", "sectionId": "football", "sectionName": "Football", "webPublicationDate": "2015-06-28T10:00:04Z", "webTitle": "USA can play soccer: five things we learned from the 1-0 win over China", "webUrl": "https://www.theguardian.com/football/2015/jun/28/usa-victory-china-five-things", "apiUrl": "https://content.guardianapis.com/football/2015/jun/28/usa-victory-china-five-things", "isHosted": false, "pillarId": "pillar/sport", "pillarName": "Sport"}]}}