{"response": {"status": "ok", "userTier": "developer", "total": 131276, "startIndex": 1, "pageSize": 50, "currentPage": 1, "pages": 2626, "orderBy": "newest", "results": [{"id": "money/2014/jul/01/repairing-infrastructure-uk-add-250bn-household-bills", "type": "article", "sectionId": "money", "sectionName": "Money", "webPublicationDate": "2014-06-30T23:01:01Z", "webTitle": "Repairing nation's services will add \u00a3250bn to household bills, MPs warn", "webUrl": "https://www.theguardian.com/money/2014/jul/01/repairing-infrastructure-uk-add-250bn-household-bills", "apiUrl": "https://content.guardianapis.com/money/2014/jul/01/repairing-infrastructure-uk-add-250bn-household-bills", "isHosted": false, "pillarId": "pillar/lifestyle", "pillarName": "Lifestyle"}, {"id": "politics/2014/jul/01/tower-hamlets-election-poll-count-poorly-resourced", "type": "article", "sectionId": "world", "sectionName": "World news", "webPublicationDate": "2014-06-30T23:01:00Z", "webTitle": "Watchdog tells of chaotic Tower Hamlets poll count", "webUrl": "https://www.theguardian.com/politics/2014/jul/01/tower-hamlets-election-poll-count-poorly-resourced", "apiUrl": "https://content.guardianapis.com/politics/2014/jul/01/tower-hamlets-election-poll-count-poorly-resourced", "isHosted": false, "pillarId": "pillar/news", "pillarName": "News"}, {"id": "politics/2014/jun/30/hugh-muir-diary-lynton-crosby", "type": "article", "sectionId": "politics", "sectionName": "Politics", "webPublicationDate": "2014-06-30T22:00:00Z", "webTitle": "Hugh Muir's diary", "webUrl": "https://www.theguardian.com/politics/2014/jun/30/hugh-muir-diary-lynton-crosby", "apiUrl": "https://content.guardianapis.com/politics/2014/jun/30/hugh-muir-diary-lynton-crosby", "isHosted": false, "pillarId": "pillar/news", "pillarName": "News"}, {"id": "politics/2014/jun/30/labour-outlines-plan-boost-regional-growth-skills", "type": "article", "sectionId": "politics", "sectionName": "Politics", "webPublicationDate": "2014-06-30T21:00:00Z", "webTitle": "Labour outlines infrastructure and housing plan to boost regional growth", "webUrl": "https://www.theguardian.com/politics/2014/jun/30/labour-outlines-plan-boost-regional-growth-skills", "apiUrl": "https://content.guardianapis.com/politics/2014/jun/30/labour-outlines-plan-boost-regional-growth-skills", "isHosted": false, "pillarId": "pillar/news", "pillarName": "News"}, {"id": "politics/2014/jun/30/labour-industrial-intervention-growth-devolution", "type": "article", "sectionId": "politics", "sectionName": "Politics", "webPublicationDate": "2014-06-30T21:00:00Z", "webTitle": "Labour puts industrial intervention at heart of growth strategy", "webUrl": "https://www.theguardian.com/politics/2014/jun/30/labour-industrial-intervention-growth-devolution", "apiUrl": "https://content.guardianapis.com/politics/2014/jun/30/labour-industrial-intervention-growth-devolution", "isHosted": false, "pillarId": "pillar/news", "pillarName": "News"}, {"id": "politics/2014/jun/30/david-cameron-a-listers-cool-britannia-party", "type": "article", "sectionId": "politics", "sectionName": "Politics", "webPublicationDate": "2014-06-30T20:20:17Z", "webTitle": "David Cameron revisits Cool Britannia (with Michael McIntyre and Cilla Black)", "webUrl": "https://www.theguardian.com/politics/2014/jun/30/david-cameron-a-listers-cool-britannia-party", "apiUrl": "https://content.guardianapis.com/politics/2014/jun/30/david-cameron-a-listers-cool-britannia-party", "isHosted": false, "pillarId": "pillar/news", "pillarName": "News"}, {"id": "world/2014/jun/30/rob-ford-toronto-mayor-returns", "type": "article", "sectionId": "world", "sectionName": "World news", "webPublicationDate": "2014-06-30T20:19:48Z", "webTitle": "Rob Ford returns to work and vows to remain as Toronto mayor", "webUrl": "https://www.theguardian.com/world/2014/jun/30/rob-ford-toronto-mayor-returns", "apiUrl": "https://content.guardianapis.com/world/2014/jun/30/rob-ford-toronto-mayor-returns", "isHosted": false, "pillarId": "pillar/news", "pillarName": "News"}, {"id": "society/2014/jun/30/all-workers-need-a-living-wage", "type": "article", "sectionId": "society", "sectionName": "Society", "webPublicationDate": "2014-06-30T20:00:00Z", "webTitle": "All workers need a living wage | @guardianletters", "webUrl": "https://www.theguardian.com/society/2014/jun/30/all-workers-need-a-living-wage", "apiUrl": "https://content.guardianapis.com/society/2014/jun/30/all-workers-need-a-living-wage", "isHosted": false, "pillarId": "pillar/news", "pillarName": "News"}, {"id": "politics/2014/jun/30/politics-sketch-failure-success-cameron-barmy-army", "type": "article", "sectionId": "politics", "sectionName": "Politics", "webPublicationDate": "2014-06-30T19:55:38Z", "webTitle": "Failure is success in Europe for Cameron's Barmy Army", "webUrl": "https://www.theguardian.com/politics/2014/jun/30/politics-sketch-failure-success-cameron-barmy-army", "apiUrl": "https://content.guardianapis.com/politics/2014/jun/30/politics-sketch-failure-success-cameron-barmy-army", "isHosted": false, "pillarId": "pillar/news", "pillarName": "News"}, {"id": "environment/2014/jun/30/first-england-beavers-in-centuries-captured", "type": "article", "sectionId": "environment", "sectionName": "Environment", "webPublicationDate": "2014-06-30T19:42:28Z", "webTitle": "First wild beavers to be seen in England for centuries to be captured", "webUrl": "https://www.theguardian.com/environment/2014/jun/30/first-england-beavers-in-centuries-captured", "apiUrl": "https://content.guardianapis.com/environment/2014/jun/30/first-england-beavers-in-centuries-captured", "isHosted": false, "pillarId": "pillar/news", "pillarName": "News"}, {"id": "commentisfree/2014/jun/30/right-to-ask-flexible-working", "type": "article", "sectionId": "commentisfree", "sectionName": "Opinion", "webPublicationDate": "2014-06-30T19:13:28Z", "webTitle": "The Guardian view on ... The employee's right to ask for convenient hours | Editorial", "webUrl": "https://www.theguardian.com/commentisfree/2014/jun/30/right-to-ask-flexible-working", "apiUrl": "https://content.guardianapis.com/commentisfree/2014/jun/30/right-to-ask-flexible-working", "isHosted": false, "pillarId": "pillar/opinion", "pillarName": "Opinion"}, {"id": "politics/2014/jun/30/cameron-uk-eu-exit-negotiation-miliband-junker", "type": "article", "sectionId": "politics", "sectionName": "Politics", "webPublicationDate": "2014-06-30T19:04:27Z", "webTitle": "Cameron edging UK towards EU exit with negotiation strategy, says Miliband", "webUrl": "https://www.theguardian.com/politics/2014/jun/30/cameron-uk-eu-exit-negotiation-miliband-junker", "apiUrl": "https://content.guardianapis.com/politics/2014/jun/30/cameron-uk-eu-exit-negotiation-miliband-junker", "isHosted": false, "pillarId": "pillar/news", "pillarName": "News"}, {"id": "business/2014/jun/30/barclays-bank-profits-luxembourg-14-staff", "type": "article", "sectionId": "business", "sectionName": "Business", "webPublicationDate": "2014-06-30T17:42:04Z", "webTitle": "Barclays made \u00a31.4bn profits in Luxembourg \u2013 \u00a3100m for each worker", "webUrl": "https://www.theguardian.com/business/2014/jun/30/barclays-bank-profits-luxembourg-14-staff", "apiUrl": "https://content.guardianapis.com/business/2014/jun/30/barclays-bank-profits-luxembourg-14-staff", "isHosted": false, "pillarId": "pillar/news", "pillarName": "News"}, {"id": "business/2014/jun/30/mps-want-reform-business-rates-say-retailers", "type": "article", "sectionId": "business", "sectionName": "Business", "webPublicationDate": "2014-06-30T17:17:21Z", "webTitle": "Most MPs want reform of business rates, say retailers", "webUrl": "https://www.theguardian.com/business/2014/jun/30/mps-want-reform-business-rates-say-retailers", "apiUrl": "https://content.guardianapis.com/business/2014/jun/30/mps-want-reform-business-rates-say-retailers", "isHosted": false, "pillarId": "pillar/news", "pillarName": "News"}, {"id": "politics/blog/2014/jun/30/camerons-statement-to-mps-on-juncker-and-eu-summit-politics-live-blog", "type": "liveblog", "sectionId": "politics", "sectionName": "Politics", "webPublicationDate": "2014-06-30T17:07:07Z", "webTitle": "Cameron's statement to MPs on Juncker and EU summit: Politics live blog", "webUrl": "https://www.theguardian.com/politics/blog/2014/jun/30/camerons-statement-to-mps-on-juncker-and-eu-summit-politics-live-blog", "apiUrl": "https://content.guardianapis.com/politics/blog/2014/jun/30/camerons-statement-to-mps-on-juncker-and-eu-summit-politics-live-blog", "isHosted": false, "pillarId": "pillar/news", "pillarName": "News"}, {"id": "commentisfree/2014/jun/30/david-cameron-juncker-mps-european-strategy", "type": "article", "sectionId": "commentisfree", "sectionName": "Opinion", "webPublicationDate": "2014-06-30T16:56:26Z", "webTitle": "David Cameron was defeated over Juncker and yet his MPs still cheer | Rafael Behr", "webUrl": "https://www.theguardian.com/commentisfree/2014/jun/30/david-cameron-juncker-mps-european-strategy", "apiUrl": "https://content.guardianapis.com/commentisfree/2014/jun/30/david-cameron-juncker-mps-european-strategy", "isHosted": false, "pillarId": "pillar/opinion", "pillarName": "Opinion"}, {"id": "politics/2014/jun/30/scotland-independence-vote-in-hands-middle-million-switherers", "type": "article", "sectionId": "politics", "sectionName": "Politics", "webPublicationDate": "2014-06-30T16:10:00Z", "webTitle": "Scotland's independence is left in the hands of a 'middle million' of switherers", "webUrl": "https://www.theguardian.com/politics/2014/jun/30/scotland-independence-vote-in-hands-middle-million-switherers", "apiUrl": "https://content.guardianapis.com/politics/2014/jun/30/scotland-independence-vote-in-hands-middle-million-switherers", "isHosted": false, "pillarId": "pillar/news", "pillarName": "News"}, {"id": "business/2014/jun/30/ukti-british-exports-tennis-andy-murray", "type": "article", "sectionId": "business", "sectionName": "Business", "webPublicationDate": "2014-06-30T15:20:07Z", "webTitle": "UKTI hopes Andy Murray can serve up repeated success for British exports", "webUrl": "https://www.theguardian.com/business/2014/jun/30/ukti-british-exports-tennis-andy-murray", "apiUrl": "https://content.guardianapis.com/business/2014/jun/30/ukti-british-exports-tennis-andy-murray", "isHosted": false, "pillarId": "pillar/news", "pillarName": "News"}, {"id": "commentisfree/2014/jun/30/gove-millionaire-school-sponsors-cost-taxpayers-fortune", "type": "article", "sectionId": "commentisfree", "sectionName": "Opinion", "webPublicationDate": "2014-06-30T14:16:10Z", "webTitle": "Michael Gove's millionaire school sponsors could cost taxpayers a fortune | Francis Beckett", "webUrl": "https://www.theguardian.com/commentisfree/2014/jun/30/gove-millionaire-school-sponsors-cost-taxpayers-fortune", "apiUrl": "https://content.guardianapis.com/commentisfree/2014/jun/30/gove-millionaire-school-sponsors-cost-taxpayers-fortune", "isHosted": false, "pillarId": "pillar/opinion", "pillarName": "Opinion"}, {"id": "politics/2014/jun/30/cool-britannia-party-guestlist-secret", "type": "article", "sectionId": "politics", "sectionName": "Politics", "webPublicationDate": "2014-06-30T12:54:38Z", "webTitle": "Downing Street declines to disclose Cool Britannia II party guestlist", "webUrl": "https://www.theguardian.com/politics/2014/jun/30/cool-britannia-party-guestlist-secret", "apiUrl": "https://content.guardianapis.com/politics/2014/jun/30/cool-britannia-party-guestlist-secret", "isHosted": false, "pillarId": "pillar/news", "pillarName": "News"}, {"id": "media/greenslade/2014/jun/30/medialaw-dominicgrieve", "type": "article", "sectionId": "media", "sectionName": "Media", "webPublicationDate": "2014-06-30T12:47:00Z", "webTitle": "Government to amend criminal justice bill to avoid press freedom threat", "webUrl": "https://www.theguardian.com/media/greenslade/2014/jun/30/medialaw-dominicgrieve", "apiUrl": "https://content.guardianapis.com/media/greenslade/2014/jun/30/medialaw-dominicgrieve", "isHosted": false, "pillarId": "pillar/news", "pillarName": "News"}, {"id": "lifeandstyle/2014/jun/30/ed-miliband-not-weird-nhs-prisons-living-wage-corporations", "type": "article", "sectionId": "lifeandstyle", "sectionName": "Life and style", "webPublicationDate": "2014-06-30T12:34:57Z", "webTitle": "Ed Miliband's not at all 'weird'", "webUrl": "https://www.theguardian.com/lifeandstyle/2014/jun/30/ed-miliband-not-weird-nhs-prisons-living-wage-corporations", "apiUrl": "https://content.guardianapis.com/lifeandstyle/2014/jun/30/ed-miliband-not-weird-nhs-prisons-living-wage-corporations", "isHosted": false, "pillarId": "pillar/lifestyle", "pillarName": "Lifestyle"}, {"id": "world/2014/jun/30/leslie-manigat", "type": "article", "sectionId": "world", "sectionName": "World news", "webPublicationDate": "2014-06-30T12:16:53Z", "webTitle": "Leslie Manigat obituary", "webUrl": "https://www.theguardian.com/world/2014/jun/30/leslie-manigat", "apiUrl": "https://content.guardianapis.com/world/2014/jun/30/leslie-manigat", "isHosted": false, "pillarId": "pillar/news", "pillarName": "News"}, {"id": "politics/2014/jun/30/ed-balls-industrial-policy-pledge-30bn-cities-counties-labour-growth", "type": "article", "sectionId": "politics", "sectionName": "Politics", "webPublicationDate": "2014-06-30T12:05:44Z", "webTitle": "Ed Balls's industrial policy pledge to include \u00a330bn for cities and counties", "webUrl": "https://www.theguardian.com/politics/2014/jun/30/ed-balls-industrial-policy-pledge-30bn-cities-counties-labour-growth", "apiUrl": "https://content.guardianapis.com/politics/2014/jun/30/ed-balls-industrial-policy-pledge-30bn-cities-counties-labour-growth", "isHosted": false, "pillarId": "pillar/news", "pillarName": "News"}, {"id": "commentisfree/2014/jun/30/prince-charles-right-voice-uk", "type": "article", "sectionId": "commentisfree", "sectionName": "Opinion", "webPublicationDate": "2014-06-30T09:49:01Z", "webTitle": "Prince Charles has every right to a voice in how the UK is run | Mary Dejevsky", "webUrl": "https://www.theguardian.com/commentisfree/2014/jun/30/prince-charles-right-voice-uk", "apiUrl": "https://content.guardianapis.com/commentisfree/2014/jun/30/prince-charles-right-voice-uk", "isHosted": false, "pillarId": "pillar/opinion", "pillarName": "Opinion"}, {"id": "media/greenslade/2014/jun/30/edmiliband-sun", "type": "article", "sectionId": "media", "sectionName": "Media", "webPublicationDate": "2014-06-30T09:09:00Z", "webTitle": "Ed Miliband's unprincipled press strategy may cost Labour votes", "webUrl": "https://www.theguardian.com/media/greenslade/2014/jun/30/edmiliband-sun", "apiUrl": "https://content.guardianapis.com/media/greenslade/2014/jun/30/edmiliband-sun", "isHosted": false, "pillarId": "pillar/news", "pillarName": "News"}, {"id": "artanddesign/architecture-design-blog/2014/jun/30/bridge-east-london-missing-link-transport-relaunch", "type": "article", "sectionId": "artanddesign", "sectionName": "Art and design", "webPublicationDate": "2014-06-30T09:08:30Z", "webTitle": "Bridge East London: could Eastenders finally get this 'crucial missing link'?", "webUrl": "https://www.theguardian.com/artanddesign/architecture-design-blog/2014/jun/30/bridge-east-london-missing-link-transport-relaunch", "apiUrl": "https://content.guardianapis.com/artanddesign/architecture-design-blog/2014/jun/30/bridge-east-london-missing-link-transport-relaunch", "isHosted": false, "pillarId": "pillar/arts", "pillarName": "Arts"}, {"id": "politics/2014/jun/30/mandelson-cameron-stop-threat-eu-referendum", "type": "article", "sectionId": "politics", "sectionName": "Politics", "webPublicationDate": "2014-06-30T09:02:18Z", "webTitle": "Mandelson tells Cameron to stop waving around threat of EU referendum", "webUrl": "https://www.theguardian.com/politics/2014/jun/30/mandelson-cameron-stop-threat-eu-referendum", "apiUrl": "https://content.guardianapis.com/politics/2014/jun/30/mandelson-cameron-stop-threat-eu-referendum", "isHosted": false, "pillarId": "pillar/news", "pillarName": "News"}, {"id": "local-government-network/the-northerner/2014/jun/30/leeds-city-council-power-to-the-people-community-committee", "type": "article", "sectionId": "public-leaders-network", "sectionName": "Public Leaders Network", "webPublicationDate": "2014-06-30T08:40:19Z", "webTitle": "Leeds city council's radical step to give more power to the people", "webUrl": "https://www.theguardian.com/local-government-network/the-northerner/2014/jun/30/leeds-city-council-power-to-the-people-community-committee", "apiUrl": "https://content.guardianapis.com/local-government-network/the-northerner/2014/jun/30/leeds-city-council-power-to-the-people-community-committee", "isHosted": false, "pillarId": "pillar/news", "pillarName": "News"}, {"id": "uk-news/davehillblog/2014/jun/30/who-will-labours-next-london-mayoral-candidate-be", "type": "article", "sectionId": "uk-news", "sectionName": "UK news", "webPublicationDate": "2014-06-30T07:47:39Z", "webTitle": "Who will Labour's next London mayoral candidate be?", "webUrl": "https://www.theguardian.com/uk-news/davehillblog/2014/jun/30/who-will-labours-next-london-mayoral-candidate-be", "apiUrl": "https://content.guardianapis.com/uk-news/davehillblog/2014/jun/30/who-will-labours-next-london-mayoral-candidate-be", "isHosted": false, "pillarId": "pillar/news", "pillarName": "News"}, {"id": "society/2014/jun/30/nhs-cash-strapped-bma-chairman-claims", "type": "article", "sectionId": "society", "sectionName": "Society", "webPublicationDate": "2014-06-30T07:34:00Z", "webTitle": "NHS is cash-strapped and fraying at the edges, warns BMA chairman", "webUrl": "https://www.theguardian.com/society/2014/jun/30/nhs-cash-strapped-bma-chairman-claims", "apiUrl": "https://content.guardianapis.com/society/2014/jun/30/nhs-cash-strapped-bma-chairman-claims", "isHosted": false, "pillarId": "pillar/news", "pillarName": "News"}, {"id": "commentisfree/2014/jun/30/europe-tories-country-cameron-juncker-referendum", "type": "article", "sectionId": "commentisfree", "sectionName": "Opinion", "webPublicationDate": "2014-06-30T06:00:23Z", "webTitle": "On Europe, the Tories have put party ahead of country | Chris Huhne", "webUrl": "https://www.theguardian.com/commentisfree/2014/jun/30/europe-tories-country-cameron-juncker-referendum", "apiUrl": "https://content.guardianapis.com/commentisfree/2014/jun/30/europe-tories-country-cameron-juncker-referendum", "isHosted": false, "pillarId": "pillar/opinion", "pillarName": "Opinion"}, {"id": "society/2014/jun/30/councils-warn-over-funding-shortfalls-service-cuts", "type": "article", "sectionId": "society", "sectionName": "Society", "webPublicationDate": "2014-06-29T23:01:00Z", "webTitle": "Warnings over public services as local councils face funding shortfalls", "webUrl": "https://www.theguardian.com/society/2014/jun/30/councils-warn-over-funding-shortfalls-service-cuts", "apiUrl": "https://content.guardianapis.com/society/2014/jun/30/councils-warn-over-funding-shortfalls-service-cuts", "isHosted": false, "pillarId": "pillar/news", "pillarName": "News"}, {"id": "politics/2014/jun/29/labour-olive-branch-business-corporation-tax-investment", "type": "article", "sectionId": "politics", "sectionName": "Politics", "webPublicationDate": "2014-06-29T22:58:00Z", "webTitle": "Labour offers olive branch to business by targeting tax and investment", "webUrl": "https://www.theguardian.com/politics/2014/jun/29/labour-olive-branch-business-corporation-tax-investment", "apiUrl": "https://content.guardianapis.com/politics/2014/jun/29/labour-olive-branch-business-corporation-tax-investment", "isHosted": false, "pillarId": "pillar/news", "pillarName": "News"}, {"id": "world/2014/jun/29/cameron-failed-eu-tactics", "type": "article", "sectionId": "world", "sectionName": "World news", "webPublicationDate": "2014-06-29T19:13:01Z", "webTitle": "Taking stock after Cameron's failed EU tactics | @guardianletters", "webUrl": "https://www.theguardian.com/world/2014/jun/29/cameron-failed-eu-tactics", "apiUrl": "https://content.guardianapis.com/world/2014/jun/29/cameron-failed-eu-tactics", "isHosted": false, "pillarId": "pillar/news", "pillarName": "News"}, {"id": "world/2014/jun/29/shot-that-wrecked-the-past-century", "type": "article", "sectionId": "world", "sectionName": "World news", "webPublicationDate": "2014-06-29T19:11:43Z", "webTitle": "The shot that wrecked the past century | @guardianletters", "webUrl": "https://www.theguardian.com/world/2014/jun/29/shot-that-wrecked-the-past-century", "apiUrl": "https://content.guardianapis.com/world/2014/jun/29/shot-that-wrecked-the-past-century", "isHosted": false, "pillarId": "pillar/news", "pillarName": "News"}, {"id": "uk-news/2014/jun/29/prince-charles-lobbied-grammar-schools", "type": "article", "sectionId": "uk-news", "sectionName": "UK news", "webPublicationDate": "2014-06-29T18:37:00Z", "webTitle": "Prince Charles lobbied for more grammar schools, says David Blunkett", "webUrl": "https://www.theguardian.com/uk-news/2014/jun/29/prince-charles-lobbied-grammar-schools", "apiUrl": "https://content.guardianapis.com/uk-news/2014/jun/29/prince-charles-lobbied-grammar-schools", "isHosted": false, "pillarId": "pillar/news", "pillarName": "News"}, {"id": "commentisfree/2014/jun/29/ed-balls-blocking-labour-bold-policies", "type": "article", "sectionId": "commentisfree", "sectionName": "Opinion", "webPublicationDate": "2014-06-29T18:06:44Z", "webTitle": "Jon Cruddas is right: Labour must beware the dead hand | Owen Jones", "webUrl": "https://www.theguardian.com/commentisfree/2014/jun/29/ed-balls-blocking-labour-bold-policies", "apiUrl": "https://content.guardianapis.com/commentisfree/2014/jun/29/ed-balls-blocking-labour-bold-policies", "isHosted": false, "pillarId": "pillar/opinion", "pillarName": "Opinion"}, {"id": "politics/2014/jun/29/ministry-justice-56m-writeoff-it-project", "type": "article", "sectionId": "politics", "sectionName": "Politics", "webPublicationDate": "2014-06-29T17:36:09Z", "webTitle": "Ministry of Justice writes off \u00a356m on duplicate IT project", "webUrl": "https://www.theguardian.com/politics/2014/jun/29/ministry-justice-56m-writeoff-it-project", "apiUrl": "https://content.guardianapis.com/politics/2014/jun/29/ministry-justice-56m-writeoff-it-project", "isHosted": false, "pillarId": "pillar/news", "pillarName": "News"}, {"id": "politics/2014/jun/29/plans-to-restrict-scottish-mps-voting-rights-scrapped", "type": "article", "sectionId": "politics", "sectionName": "Politics", "webPublicationDate": "2014-06-29T17:19:42Z", "webTitle": "Plan to restrict Scottish MPs voting rights at Westminster scrapped", "webUrl": "https://www.theguardian.com/politics/2014/jun/29/plans-to-restrict-scottish-mps-voting-rights-scrapped", "apiUrl": "https://content.guardianapis.com/politics/2014/jun/29/plans-to-restrict-scottish-mps-voting-rights-scrapped", "isHosted": false, "pillarId": "pillar/news", "pillarName": "News"}, {"id": "music/2014/jun/29/crowdsurfing-in-the-left-field-glastonbury-politics", "type": "article", "sectionId": "music", "sectionName": "Music", "webPublicationDate": "2014-06-29T16:00:00Z", "webTitle": "Crowdsurfing in the Left Field: politics and debate thrive at Glastonbury", "webUrl": "https://www.theguardian.com/music/2014/jun/29/crowdsurfing-in-the-left-field-glastonbury-politics", "apiUrl": "https://content.guardianapis.com/music/2014/jun/29/crowdsurfing-in-the-left-field-glastonbury-politics", "isHosted": false, "pillarId": "pillar/arts", "pillarName": "Arts"}, {"id": "politics/2014/jun/29/lib-dems-pledge-triple-lock-law-pensions-guaranteed-increase", "type": "article", "sectionId": "politics", "sectionName": "Politics", "webPublicationDate": "2014-06-29T14:16:44Z", "webTitle": "Lib Dems to pledge 'triple lock' law for guaranteed increase of pensions", "webUrl": "https://www.theguardian.com/politics/2014/jun/29/lib-dems-pledge-triple-lock-law-pensions-guaranteed-increase", "apiUrl": "https://content.guardianapis.com/politics/2014/jun/29/lib-dems-pledge-triple-lock-law-pensions-guaranteed-increase", "isHosted": false, "pillarId": "pillar/news", "pillarName": "News"}, {"id": "business/2014/jun/29/bank-england-mpc-trigger-happy-interest-rates-uk-economy-flaky-concept", "type": "article", "sectionId": "business", "sectionName": "Business", "webPublicationDate": "2014-06-29T13:39:44Z", "webTitle": "Bank of England should not be too trigger-happy on interest rates", "webUrl": "https://www.theguardian.com/business/2014/jun/29/bank-england-mpc-trigger-happy-interest-rates-uk-economy-flaky-concept", "apiUrl": "https://content.guardianapis.com/business/2014/jun/29/bank-england-mpc-trigger-happy-interest-rates-uk-economy-flaky-concept", "isHosted": false, "pillarId": "pillar/news", "pillarName": "News"}, {"id": "commentisfree/2014/jun/29/shaming-people-welfare-work-policy", "type": "article", "sectionId": "commentisfree", "sectionName": "Opinion", "webPublicationDate": "2014-06-29T13:21:02Z", "webTitle": "Shaming people won't get them off\u00a0welfare | Robert Walker", "webUrl": "https://www.theguardian.com/commentisfree/2014/jun/29/shaming-people-welfare-work-policy", "apiUrl": "https://content.guardianapis.com/commentisfree/2014/jun/29/shaming-people-welfare-work-policy", "isHosted": false, "pillarId": "pillar/opinion", "pillarName": "Opinion"}, {"id": "world/2014/jun/29/cameron-attempt-block-juncker-european-commission-cackhanded-balls", "type": "article", "sectionId": "world", "sectionName": "World news", "webPublicationDate": "2014-06-29T12:49:38Z", "webTitle": "Cameron's attempt to block Juncker was 'cack-handed', says Ed Balls", "webUrl": "https://www.theguardian.com/world/2014/jun/29/cameron-attempt-block-juncker-european-commission-cackhanded-balls", "apiUrl": "https://content.guardianapis.com/world/2014/jun/29/cameron-attempt-block-juncker-european-commission-cackhanded-balls", "isHosted": false, "pillarId": "pillar/news", "pillarName": "News"}, {"id": "politics/2014/jun/29/ed-balls-labour-jon-cruddas-dead-hand-reforms", "type": "article", "sectionId": "politics", "sectionName": "Politics", "webPublicationDate": "2014-06-29T11:02:32Z", "webTitle": "Balls denies Labour splits after Cruddas says 'dead hand' is blocking reforms", "webUrl": "https://www.theguardian.com/politics/2014/jun/29/ed-balls-labour-jon-cruddas-dead-hand-reforms", "apiUrl": "https://content.guardianapis.com/politics/2014/jun/29/ed-balls-labour-jon-cruddas-dead-hand-reforms", "isHosted": false, "pillarId": "pillar/news", "pillarName": "News"}, {"id": "uk-news/davehillblog/2014/jun/29/tower-hamlets-election-reviews-of-more-than-one-kind", "type": "article", "sectionId": "uk-news", "sectionName": "UK news", "webPublicationDate": "2014-06-29T10:09:35Z", "webTitle": "Tower Hamlets: election reviews of more than one kind", "webUrl": "https://www.theguardian.com/uk-news/davehillblog/2014/jun/29/tower-hamlets-election-reviews-of-more-than-one-kind", "apiUrl": "https://content.guardianapis.com/uk-news/davehillblog/2014/jun/29/tower-hamlets-election-reviews-of-more-than-one-kind", "isHosted": false, "pillarId": "pillar/news", "pillarName": "News"}, {"id": "books/2014/jun/29/protest-vote-politicians-lost-plot-tim-newark-review-nigel-farage-ukip", "type": "article", "sectionId": "books", "sectionName": "Books", "webPublicationDate": "2014-06-29T10:00:00Z", "webTitle": "Protest Vote: How Politicians Lost the Plot review \u2013 life among the Farageistes", "webUrl": "https://www.theguardian.com/books/2014/jun/29/protest-vote-politicians-lost-plot-tim-newark-review-nigel-farage-ukip", "apiUrl": "https://content.guardianapis.com/books/2014/jun/29/protest-vote-politicians-lost-plot-tim-newark-review-nigel-farage-ukip", "isHosted": false, "pillarId": "pillar/arts", "pillarName": "Arts"}, {"id": "commentisfree/2014/jun/29/andrew-rawnsley-cameron-right-about-juncker-which-makes-his-defeat-worse", "type": "article", "sectionId": "commentisfree", "sectionName": "Opinion", "webPublicationDate": "2014-06-29T05:30:00Z", "webTitle": "David Cameron was right about Juncker. Which makes his defeat more dire | Andrew Rawnsley", "webUrl": "https://www.theguardian.com/commentisfree/2014/jun/29/andrew-rawnsley-cameron-right-about-juncker-which-makes-his-defeat-worse", "apiUrl": "https://content.guardianapis.com/commentisfree/2014/jun/29/andrew-rawnsley-cameron-right-about-juncker-which-makes-his-defeat-worse", "isHosted": false, "pillarId": "pillar/opinion", "pillarName": "Opinion"}, {"id": "commentisfree/2014/jun/29/after-juncker-blunder-where-now-david-cameron", "type": "article", "sectionId": "commentisfree", "sectionName": "Opinion", "webPublicationDate": "2014-06-28T23:06:18Z", "webTitle": "A bad day for Britain, Mr Cameron | Observer editorial", "webUrl": "https://www.theguardian.com/commentisfree/2014/jun/29/after-juncker-blunder-where-now-david-cameron", "apiUrl": "https://content.guardianapis.com/commentisfree/2014/jun/29/after-juncker-blunder-where-now-david-cameron", "isHosted": false, "pillarId": "pillar/opinion", "pillarName": "Opinion"}]}}