{"response": {"status": "ok", "userTier": "developer", "total": 16493, "startIndex": 1, "pageSize": 50, "currentPage": 1, "pages": 330, "orderBy": "newest", "results": [{"id": "lifeandstyle/2011/jun/30/fruit-and-veg-preserving-pickling", "type": "article", "sectionId": "food", "sectionName": "Food", "webPublicationDate": "2011-06-30T19:00:00Z", "webTitle": "Too much fruit and veg? Get your pickling jars at the ready", "webUrl": "https://www.theguardian.com/lifeandstyle/2011/jun/30/fruit-and-veg-preserving-pickling", "apiUrl": "https://content.guardianapis.com/lifeandstyle/2011/jun/30/fruit-and-veg-preserving-pickling", "isHosted": false, "pillarId": "pillar/lifestyle", "pillarName": "Lifestyle"}, {"id": "lifeandstyle/wordofmouth/2011/jun/30/how-cook-perfect-barbecue-ribs", "type": "article", "sectionId": "food", "sectionName": "Food", "webPublicationDate": "2011-06-30T06:00:00Z", "webTitle": "How to cook perfect barbecue ribs", "webUrl": "https://www.theguardian.com/lifeandstyle/wordofmouth/2011/jun/30/how-cook-perfect-barbecue-ribs", "apiUrl": "https://content.guardianapis.com/lifeandstyle/wordofmouth/2011/jun/30/how-cook-perfect-barbecue-ribs", "isHosted": false, "pillarId": "pillar/lifestyle", "pillarName": "Lifestyle"}, {"id": "lifeandstyle/2011/jun/29/snails-are-not-fast-food", "type": "article", "sectionId": "food", "sectionName": "Food", "webPublicationDate": "2011-06-29T19:00:00Z", "webTitle": "Snails definitely aren't fast food", "webUrl": "https://www.theguardian.com/lifeandstyle/2011/jun/29/snails-are-not-fast-food", "apiUrl": "https://content.guardianapis.com/lifeandstyle/2011/jun/29/snails-are-not-fast-food", "isHosted": false, "pillarId": "pillar/lifestyle", "pillarName": "Lifestyle"}, {"id": "commentisfree/2011/jun/29/where-did-thorntons-chocolate-go-wrong", "type": "article", "sectionId": "commentisfree", "sectionName": "Opinion", "webPublicationDate": "2011-06-29T16:04:26Z", "webTitle": "Where did Thorntons go wrong? | Tim Richardson", "webUrl": "https://www.theguardian.com/commentisfree/2011/jun/29/where-did-thorntons-chocolate-go-wrong", "apiUrl": "https://content.guardianapis.com/commentisfree/2011/jun/29/where-did-thorntons-chocolate-go-wrong", "isHosted": false, "pillarId": "pillar/opinion", "pillarName": "Opinion"}, {"id": "lifeandstyle/2011/jun/29/courgette-hazelnut-salad-recipe", "type": "article", "sectionId": "food", "sectionName": "Food", "webPublicationDate": "2011-06-29T14:30:00Z", "webTitle": "Courgette and hazelnut salad recipe | Angela Hartnett", "webUrl": "https://www.theguardian.com/lifeandstyle/2011/jun/29/courgette-hazelnut-salad-recipe", "apiUrl": "https://content.guardianapis.com/lifeandstyle/2011/jun/29/courgette-hazelnut-salad-recipe", "isHosted": false, "pillarId": "pillar/lifestyle", "pillarName": "Lifestyle"}, {"id": "lifeandstyle/2011/jun/29/foodie-destinations-hampshire", "type": "article", "sectionId": "food", "sectionName": "Food", "webPublicationDate": "2011-06-29T12:00:00Z", "webTitle": "Foodie destinations: Hampshire", "webUrl": "https://www.theguardian.com/lifeandstyle/2011/jun/29/foodie-destinations-hampshire", "apiUrl": "https://content.guardianapis.com/lifeandstyle/2011/jun/29/foodie-destinations-hampshire", "isHosted": false, "pillarId": "pillar/lifestyle", "pillarName": "Lifestyle"}, {"id": "tv-and-radio/tvandradioblog/2011/jun/29/gordon-ramsay-most-outrageous-tv-moments", "type": "article", "sectionId": "tv-and-radio", "sectionName": "Television & radio", "webPublicationDate": "2011-06-29T09:51:00Z", "webTitle": "Gordon Ramsay's most outrageous TV moments", "webUrl": "https://www.theguardian.com/tv-and-radio/tvandradioblog/2011/jun/29/gordon-ramsay-most-outrageous-tv-moments", "apiUrl": "https://content.guardianapis.com/tv-and-radio/tvandradioblog/2011/jun/29/gordon-ramsay-most-outrageous-tv-moments", "isHosted": false, "pillarId": "pillar/arts", "pillarName": "Arts"}, {"id": "lifeandstyle/wordofmouth/2011/jun/28/consider-the-sorbet", "type": "article", "sectionId": "food", "sectionName": "Food", "webPublicationDate": "2011-06-28T08:45:00Z", "webTitle": "Consider the sorbet", "webUrl": "https://www.theguardian.com/lifeandstyle/wordofmouth/2011/jun/28/consider-the-sorbet", "apiUrl": "https://content.guardianapis.com/lifeandstyle/wordofmouth/2011/jun/28/consider-the-sorbet", "isHosted": false, "pillarId": "pillar/lifestyle", "pillarName": "Lifestyle"}, {"id": "theguardian/2011/jun/27/tim-everton-obituary", "type": "article", "sectionId": "theguardian", "sectionName": "From the Guardian", "webPublicationDate": "2011-06-27T17:08:00Z", "webTitle": "Tim Everton obituary", "webUrl": "https://www.theguardian.com/theguardian/2011/jun/27/tim-everton-obituary", "apiUrl": "https://content.guardianapis.com/theguardian/2011/jun/27/tim-everton-obituary", "isHosted": false, "pillarId": "pillar/news", "pillarName": "News"}, {"id": "lifeandstyle/wordofmouth/2011/jun/27/meal-with-a-message", "type": "article", "sectionId": "food", "sectionName": "Food", "webPublicationDate": "2011-06-27T09:20:00Z", "webTitle": "A meal with a message", "webUrl": "https://www.theguardian.com/lifeandstyle/wordofmouth/2011/jun/27/meal-with-a-message", "apiUrl": "https://content.guardianapis.com/lifeandstyle/wordofmouth/2011/jun/27/meal-with-a-message", "isHosted": false, "pillarId": "pillar/lifestyle", "pillarName": "Lifestyle"}, {"id": "travel/2011/jun/27/readers-tips-tuscany", "type": "article", "sectionId": "travel", "sectionName": "Travel", "webPublicationDate": "2011-06-27T08:51:00Z", "webTitle": "Readers' tips: Top spots in Tuscany", "webUrl": "https://www.theguardian.com/travel/2011/jun/27/readers-tips-tuscany", "apiUrl": "https://content.guardianapis.com/travel/2011/jun/27/readers-tips-tuscany", "isHosted": false, "pillarId": "pillar/lifestyle", "pillarName": "Lifestyle"}, {"id": "business/2011/jun/26/new-wines-from-the-old-world-bring-cheer-to-hard-pressed-retail-sector", "type": "article", "sectionId": "business", "sectionName": "Business", "webPublicationDate": "2011-06-25T23:06:00Z", "webTitle": "New wines from the old world bring cheer to hard-pressed retail sector", "webUrl": "https://www.theguardian.com/business/2011/jun/26/new-wines-from-the-old-world-bring-cheer-to-hard-pressed-retail-sector", "apiUrl": "https://content.guardianapis.com/business/2011/jun/26/new-wines-from-the-old-world-bring-cheer-to-hard-pressed-retail-sector", "isHosted": false, "pillarId": "pillar/news", "pillarName": "News"}, {"id": "lifeandstyle/2011/jun/26/jay-rayner-restaurant-review-circus", "type": "article", "sectionId": "food", "sectionName": "Food", "webPublicationDate": "2011-06-25T23:05:00Z", "webTitle": "Restaurant review: Circus", "webUrl": "https://www.theguardian.com/lifeandstyle/2011/jun/26/jay-rayner-restaurant-review-circus", "apiUrl": "https://content.guardianapis.com/lifeandstyle/2011/jun/26/jay-rayner-restaurant-review-circus", "isHosted": false, "pillarId": "pillar/lifestyle", "pillarName": "Lifestyle"}, {"id": "lifeandstyle/2011/jun/25/readers-favourite-photographs-songs-recipes", "type": "article", "sectionId": "lifeandstyle", "sectionName": "Life and style", "webPublicationDate": "2011-06-24T23:05:29Z", "webTitle": "Family life", "webUrl": "https://www.theguardian.com/lifeandstyle/2011/jun/25/readers-favourite-photographs-songs-recipes", "apiUrl": "https://content.guardianapis.com/lifeandstyle/2011/jun/25/readers-favourite-photographs-songs-recipes", "isHosted": false, "pillarId": "pillar/lifestyle", "pillarName": "Lifestyle"}, {"id": "lifeandstyle/cartoon/2011/jun/25/1", "type": "picture", "sectionId": "lifeandstyle", "sectionName": "Life and style", "webPublicationDate": "2011-06-24T23:02:00Z", "webTitle": "Berger & Wyse", "webUrl": "https://www.theguardian.com/lifeandstyle/cartoon/2011/jun/25/1", "apiUrl": "https://content.guardianapis.com/lifeandstyle/cartoon/2011/jun/25/1", "isHosted": false, "pillarId": "pillar/lifestyle", "pillarName": "Lifestyle"}, {"id": "lifeandstyle/2011/jun/24/lovage-recipes-hugh-fearnley-whittingstall", "type": "article", "sectionId": "lifeandstyle", "sectionName": "Life and style", "webPublicationDate": "2011-06-24T22:00:03Z", "webTitle": "Lovage recipes | Hugh Fearnley-Whittingstall", "webUrl": "https://www.theguardian.com/lifeandstyle/2011/jun/24/lovage-recipes-hugh-fearnley-whittingstall", "apiUrl": "https://content.guardianapis.com/lifeandstyle/2011/jun/24/lovage-recipes-hugh-fearnley-whittingstall", "isHosted": false, "pillarId": "pillar/lifestyle", "pillarName": "Lifestyle"}, {"id": "lifeandstyle/2011/jun/24/jose-london-se1-restaurant-review", "type": "article", "sectionId": "lifeandstyle", "sectionName": "Life and style", "webPublicationDate": "2011-06-24T21:59:09Z", "webTitle": "Restaurant: Jos\u00e9, London SE1 | John Lanchester", "webUrl": "https://www.theguardian.com/lifeandstyle/2011/jun/24/jose-london-se1-restaurant-review", "apiUrl": "https://content.guardianapis.com/lifeandstyle/2011/jun/24/jose-london-se1-restaurant-review", "isHosted": false, "pillarId": "pillar/lifestyle", "pillarName": "Lifestyle"}, {"id": "lifeandstyle/2011/jun/24/almond-layer-cake-raspberries-recipe", "type": "article", "sectionId": "food", "sectionName": "Food", "webPublicationDate": "2011-06-24T21:59:05Z", "webTitle": "Almond layer cake with crushed raspberries recipe | Dan Lepard | Baking", "webUrl": "https://www.theguardian.com/lifeandstyle/2011/jun/24/almond-layer-cake-raspberries-recipe", "apiUrl": "https://content.guardianapis.com/lifeandstyle/2011/jun/24/almond-layer-cake-raspberries-recipe", "isHosted": false, "pillarId": "pillar/lifestyle", "pillarName": "Lifestyle"}, {"id": "lifeandstyle/2011/jun/24/tea-noodles-baked-pasta-recipes", "type": "article", "sectionId": "food", "sectionName": "Food", "webPublicationDate": "2011-06-24T21:59:00Z", "webTitle": "Green tea noodles with grilled prawns recipe, plus grilled ziti with feta | Yotam Ottolenghi", "webUrl": "https://www.theguardian.com/lifeandstyle/2011/jun/24/tea-noodles-baked-pasta-recipes", "apiUrl": "https://content.guardianapis.com/lifeandstyle/2011/jun/24/tea-noodles-baked-pasta-recipes", "isHosted": false, "pillarId": "pillar/lifestyle", "pillarName": "Lifestyle"}, {"id": "lifeandstyle/2011/jun/24/cinnamon-rice-chicken-sausage-matthew-fort", "type": "article", "sectionId": "lifeandstyle", "sectionName": "Life and style", "webPublicationDate": "2011-06-24T21:59:00Z", "webTitle": "Food for Fort: On cinnamon rice and chicken sausages | Matthew Fort", "webUrl": "https://www.theguardian.com/lifeandstyle/2011/jun/24/cinnamon-rice-chicken-sausage-matthew-fort", "apiUrl": "https://content.guardianapis.com/lifeandstyle/2011/jun/24/cinnamon-rice-chicken-sausage-matthew-fort", "isHosted": false, "pillarId": "pillar/lifestyle", "pillarName": "Lifestyle"}, {"id": "lifeandstyle/2011/jun/24/bring-own-bottle-wine-review", "type": "article", "sectionId": "food", "sectionName": "Food", "webPublicationDate": "2011-06-24T21:58:01Z", "webTitle": "Wine: What to take to a BYO?", "webUrl": "https://www.theguardian.com/lifeandstyle/2011/jun/24/bring-own-bottle-wine-review", "apiUrl": "https://content.guardianapis.com/lifeandstyle/2011/jun/24/bring-own-bottle-wine-review", "isHosted": false, "pillarId": "pillar/lifestyle", "pillarName": "Lifestyle"}, {"id": "news/datablog/2011/jun/24/information-beautiful-fish-eat", "type": "article", "sectionId": "news", "sectionName": "News", "webPublicationDate": "2011-06-24T16:16:00Z", "webTitle": "Information is Beautiful: Which fish are good to eat? Visualised", "webUrl": "https://www.theguardian.com/news/datablog/2011/jun/24/information-beautiful-fish-eat", "apiUrl": "https://content.guardianapis.com/news/datablog/2011/jun/24/information-beautiful-fish-eat", "isHosted": false, "pillarId": "pillar/news", "pillarName": "News"}, {"id": "lifeandstyle/wordofmouth/2011/jun/24/american-craft-beer-hippest-hops", "type": "article", "sectionId": "food", "sectionName": "Food", "webPublicationDate": "2011-06-24T10:30:00Z", "webTitle": "American craft beer: the hippest of hops", "webUrl": "https://www.theguardian.com/lifeandstyle/wordofmouth/2011/jun/24/american-craft-beer-hippest-hops", "apiUrl": "https://content.guardianapis.com/lifeandstyle/wordofmouth/2011/jun/24/american-craft-beer-hippest-hops", "isHosted": false, "pillarId": "pillar/lifestyle", "pillarName": "Lifestyle"}, {"id": "lifeandstyle/2011/jun/20/buy-of-the-day", "type": "article", "sectionId": "lifeandstyle", "sectionName": "Life and style", "webPublicationDate": "2011-06-24T09:08:00Z", "webTitle": "Buy of the day", "webUrl": "https://www.theguardian.com/lifeandstyle/2011/jun/20/buy-of-the-day", "apiUrl": "https://content.guardianapis.com/lifeandstyle/2011/jun/20/buy-of-the-day", "isHosted": false, "pillarId": "pillar/lifestyle", "pillarName": "Lifestyle"}, {"id": "environment/blog/2011/jun/24/wine-bottle-refill-hackney-recycling", "type": "article", "sectionId": "environment", "sectionName": "Environment", "webPublicationDate": "2011-06-24T06:00:00Z", "webTitle": "Hitting the bottle: Hackney's new refill scheme for wine lovers", "webUrl": "https://www.theguardian.com/environment/blog/2011/jun/24/wine-bottle-refill-hackney-recycling", "apiUrl": "https://content.guardianapis.com/environment/blog/2011/jun/24/wine-bottle-refill-hackney-recycling", "isHosted": false, "pillarId": "pillar/news", "pillarName": "News"}, {"id": "lifeandstyle/2011/jun/23/angela-hartnett-dessert-recipes", "type": "article", "sectionId": "food", "sectionName": "Food", "webPublicationDate": "2011-06-23T19:00:00Z", "webTitle": "Angela Hartnett's dessert recipes", "webUrl": "https://www.theguardian.com/lifeandstyle/2011/jun/23/angela-hartnett-dessert-recipes", "apiUrl": "https://content.guardianapis.com/lifeandstyle/2011/jun/23/angela-hartnett-dessert-recipes", "isHosted": false, "pillarId": "pillar/lifestyle", "pillarName": "Lifestyle"}, {"id": "lifeandstyle/2011/jun/23/angela-hartnett-main-course-recipes", "type": "article", "sectionId": "food", "sectionName": "Food", "webPublicationDate": "2011-06-23T19:00:00Z", "webTitle": "Angela Hartnett's main course recipes", "webUrl": "https://www.theguardian.com/lifeandstyle/2011/jun/23/angela-hartnett-main-course-recipes", "apiUrl": "https://content.guardianapis.com/lifeandstyle/2011/jun/23/angela-hartnett-main-course-recipes", "isHosted": false, "pillarId": "pillar/lifestyle", "pillarName": "Lifestyle"}, {"id": "money/2011/jun/23/tesco-beer-price-glitch", "type": "article", "sectionId": "money", "sectionName": "Money", "webPublicationDate": "2011-06-23T15:46:30Z", "webTitle": "Tesco beer price glitch leads to mayhem in the aisles", "webUrl": "https://www.theguardian.com/money/2011/jun/23/tesco-beer-price-glitch", "apiUrl": "https://content.guardianapis.com/money/2011/jun/23/tesco-beer-price-glitch", "isHosted": false, "pillarId": "pillar/lifestyle", "pillarName": "Lifestyle"}, {"id": "lifeandstyle/wordofmouth/2011/jun/23/how-to-make-perfect-salsa", "type": "article", "sectionId": "food", "sectionName": "Food", "webPublicationDate": "2011-06-23T06:00:00Z", "webTitle": "How to make perfect salsa", "webUrl": "https://www.theguardian.com/lifeandstyle/wordofmouth/2011/jun/23/how-to-make-perfect-salsa", "apiUrl": "https://content.guardianapis.com/lifeandstyle/wordofmouth/2011/jun/23/how-to-make-perfect-salsa", "isHosted": false, "pillarId": "pillar/lifestyle", "pillarName": "Lifestyle"}, {"id": "uk/the-northerner/2011/jun/22/blogpost", "type": "article", "sectionId": "uk-news", "sectionName": "UK news", "webPublicationDate": "2011-06-22T21:43:00Z", "webTitle": "Join the Big Bilberry Hunt - on the high street as well as the hills", "webUrl": "https://www.theguardian.com/uk/the-northerner/2011/jun/22/blogpost", "apiUrl": "https://content.guardianapis.com/uk/the-northerner/2011/jun/22/blogpost", "isHosted": false, "pillarId": "pillar/news", "pillarName": "News"}, {"id": "lifeandstyle/2011/jun/22/clotted-cream-perfect-summer-treat", "type": "article", "sectionId": "food", "sectionName": "Food", "webPublicationDate": "2011-06-22T20:30:00Z", "webTitle": "Clotted cream: the perfect summer treat", "webUrl": "https://www.theguardian.com/lifeandstyle/2011/jun/22/clotted-cream-perfect-summer-treat", "apiUrl": "https://content.guardianapis.com/lifeandstyle/2011/jun/22/clotted-cream-perfect-summer-treat", "isHosted": false, "pillarId": "pillar/lifestyle", "pillarName": "Lifestyle"}, {"id": "lifeandstyle/2011/jun/22/meatballs-tomato-sauce-angela-hartnett", "type": "article", "sectionId": "food", "sectionName": "Food", "webPublicationDate": "2011-06-22T15:54:00Z", "webTitle": "Meatballs with tomato sauce recipe | Angela Hartnett", "webUrl": "https://www.theguardian.com/lifeandstyle/2011/jun/22/meatballs-tomato-sauce-angela-hartnett", "apiUrl": "https://content.guardianapis.com/lifeandstyle/2011/jun/22/meatballs-tomato-sauce-angela-hartnett", "isHosted": false, "pillarId": "pillar/lifestyle", "pillarName": "Lifestyle"}, {"id": "global-development/poverty-matters/2011/jun/22/accountants-food-price-spike", "type": "article", "sectionId": "global-development", "sectionName": "Global development", "webPublicationDate": "2011-06-22T10:03:00Z", "webTitle": "Are accountants to blame for the food price spike? | Mark Tran", "webUrl": "https://www.theguardian.com/global-development/poverty-matters/2011/jun/22/accountants-food-price-spike", "apiUrl": "https://content.guardianapis.com/global-development/poverty-matters/2011/jun/22/accountants-food-price-spike", "isHosted": false, "pillarId": "pillar/news", "pillarName": "News"}, {"id": "travel/2011/jun/22/top-10-best-restaurants-amsterdam", "type": "article", "sectionId": "travel", "sectionName": "Travel", "webPublicationDate": "2011-06-22T09:00:00Z", "webTitle": "10 of the best high-end restaurants in Amsterdam", "webUrl": "https://www.theguardian.com/travel/2011/jun/22/top-10-best-restaurants-amsterdam", "apiUrl": "https://content.guardianapis.com/travel/2011/jun/22/top-10-best-restaurants-amsterdam", "isHosted": false, "pillarId": "pillar/lifestyle", "pillarName": "Lifestyle"}, {"id": "lifeandstyle/wordofmouth/2011/jun/22/how-to-make-strawberry-wine", "type": "article", "sectionId": "food", "sectionName": "Food", "webPublicationDate": "2011-06-22T08:50:00Z", "webTitle": "How to make strawberry wine", "webUrl": "https://www.theguardian.com/lifeandstyle/wordofmouth/2011/jun/22/how-to-make-strawberry-wine", "apiUrl": "https://content.guardianapis.com/lifeandstyle/wordofmouth/2011/jun/22/how-to-make-strawberry-wine", "isHosted": false, "pillarId": "pillar/lifestyle", "pillarName": "Lifestyle"}, {"id": "lifeandstyle/2011/jun/21/corks-are-back-in-fashion", "type": "article", "sectionId": "food", "sectionName": "Food", "webPublicationDate": "2011-06-21T19:00:00Z", "webTitle": "Why corks are popping once more", "webUrl": "https://www.theguardian.com/lifeandstyle/2011/jun/21/corks-are-back-in-fashion", "apiUrl": "https://content.guardianapis.com/lifeandstyle/2011/jun/21/corks-are-back-in-fashion", "isHosted": false, "pillarId": "pillar/lifestyle", "pillarName": "Lifestyle"}, {"id": "lifeandstyle/2011/jun/21/how-good-dr-oetkers-pizza", "type": "article", "sectionId": "food", "sectionName": "Food", "webPublicationDate": "2011-06-21T19:00:00Z", "webTitle": "How good is Dr Oetker's pizza?", "webUrl": "https://www.theguardian.com/lifeandstyle/2011/jun/21/how-good-dr-oetkers-pizza", "apiUrl": "https://content.guardianapis.com/lifeandstyle/2011/jun/21/how-good-dr-oetkers-pizza", "isHosted": false, "pillarId": "pillar/lifestyle", "pillarName": "Lifestyle"}, {"id": "business/2011/jun/21/fosters-lager-brewed-in-britain", "type": "article", "sectionId": "business", "sectionName": "Business", "webPublicationDate": "2011-06-21T18:11:13Z", "webTitle": "Foster's may be 'Australian for lager' but it is brewed in Britain", "webUrl": "https://www.theguardian.com/business/2011/jun/21/fosters-lager-brewed-in-britain", "apiUrl": "https://content.guardianapis.com/business/2011/jun/21/fosters-lager-brewed-in-britain", "isHosted": false, "pillarId": "pillar/news", "pillarName": "News"}, {"id": "lifeandstyle/wordofmouth/2011/jun/21/the-best-supermarket-deals-on-meals", "type": "article", "sectionId": "food", "sectionName": "Food", "webPublicationDate": "2011-06-21T11:55:00Z", "webTitle": "The best supermarket deals on meals", "webUrl": "https://www.theguardian.com/lifeandstyle/wordofmouth/2011/jun/21/the-best-supermarket-deals-on-meals", "apiUrl": "https://content.guardianapis.com/lifeandstyle/wordofmouth/2011/jun/21/the-best-supermarket-deals-on-meals", "isHosted": false, "pillarId": "pillar/lifestyle", "pillarName": "Lifestyle"}, {"id": "lifeandstyle/wordofmouth/2011/jun/21/consider-the-hamburger", "type": "article", "sectionId": "lifeandstyle", "sectionName": "Life and style", "webPublicationDate": "2011-06-21T08:30:00Z", "webTitle": "Consider the hamburger", "webUrl": "https://www.theguardian.com/lifeandstyle/wordofmouth/2011/jun/21/consider-the-hamburger", "apiUrl": "https://content.guardianapis.com/lifeandstyle/wordofmouth/2011/jun/21/consider-the-hamburger", "isHosted": false, "pillarId": "pillar/lifestyle", "pillarName": "Lifestyle"}, {"id": "environment/2011/jun/20/artificial-meat-emissions", "type": "article", "sectionId": "environment", "sectionName": "Environment", "webPublicationDate": "2011-06-20T14:49:58Z", "webTitle": "Artificial meat could slice emissions, say scientists", "webUrl": "https://www.theguardian.com/environment/2011/jun/20/artificial-meat-emissions", "apiUrl": "https://content.guardianapis.com/environment/2011/jun/20/artificial-meat-emissions", "isHosted": false, "pillarId": "pillar/news", "pillarName": "News"}, {"id": "lifeandstyle/2011/jun/20/anise-ice-cream-recipe", "type": "article", "sectionId": "food", "sectionName": "Food", "webPublicationDate": "2011-06-20T08:30:00Z", "webTitle": "Anise ice-cream recipe", "webUrl": "https://www.theguardian.com/lifeandstyle/2011/jun/20/anise-ice-cream-recipe", "apiUrl": "https://content.guardianapis.com/lifeandstyle/2011/jun/20/anise-ice-cream-recipe", "isHosted": false, "pillarId": "pillar/lifestyle", "pillarName": "Lifestyle"}, {"id": "lifeandstyle/2011/jun/20/raspberry-rose-sorbet-recipe", "type": "article", "sectionId": "food", "sectionName": "Food", "webPublicationDate": "2011-06-20T08:20:00Z", "webTitle": "Raspberry-ros\u00e9 sorbet recipe", "webUrl": "https://www.theguardian.com/lifeandstyle/2011/jun/20/raspberry-rose-sorbet-recipe", "apiUrl": "https://content.guardianapis.com/lifeandstyle/2011/jun/20/raspberry-rose-sorbet-recipe", "isHosted": false, "pillarId": "pillar/lifestyle", "pillarName": "Lifestyle"}, {"id": "lifeandstyle/2011/jun/20/mojito-granita-recipe", "type": "article", "sectionId": "food", "sectionName": "Food", "webPublicationDate": "2011-06-20T08:10:00Z", "webTitle": "Mojito granita recipe", "webUrl": "https://www.theguardian.com/lifeandstyle/2011/jun/20/mojito-granita-recipe", "apiUrl": "https://content.guardianapis.com/lifeandstyle/2011/jun/20/mojito-granita-recipe", "isHosted": false, "pillarId": "pillar/lifestyle", "pillarName": "Lifestyle"}, {"id": "lifeandstyle/2011/jun/20/green-tea-ice-cream-recipe", "type": "article", "sectionId": "food", "sectionName": "Food", "webPublicationDate": "2011-06-20T08:00:00Z", "webTitle": "Green tea ice-cream recipe", "webUrl": "https://www.theguardian.com/lifeandstyle/2011/jun/20/green-tea-ice-cream-recipe", "apiUrl": "https://content.guardianapis.com/lifeandstyle/2011/jun/20/green-tea-ice-cream-recipe", "isHosted": false, "pillarId": "pillar/lifestyle", "pillarName": "Lifestyle"}, {"id": "commentisfree/2011/jun/20/in-praise-of-plunkett-foundation", "type": "article", "sectionId": "commentisfree", "sectionName": "Opinion", "webPublicationDate": "2011-06-19T23:01:05Z", "webTitle": "In praise of \u2026 the Plunkett Foundation | Editorial", "webUrl": "https://www.theguardian.com/commentisfree/2011/jun/20/in-praise-of-plunkett-foundation", "apiUrl": "https://content.guardianapis.com/commentisfree/2011/jun/20/in-praise-of-plunkett-foundation", "isHosted": false, "pillarId": "pillar/opinion", "pillarName": "Opinion"}, {"id": "lifeandstyle/2011/jun/19/jay-rayner-restaurant-bishops-norwich", "type": "article", "sectionId": "food", "sectionName": "Food", "webPublicationDate": "2011-06-18T23:10:00Z", "webTitle": "Restaurant review: Bishop's Dining Room & Wine Bar", "webUrl": "https://www.theguardian.com/lifeandstyle/2011/jun/19/jay-rayner-restaurant-bishops-norwich", "apiUrl": "https://content.guardianapis.com/lifeandstyle/2011/jun/19/jay-rayner-restaurant-bishops-norwich", "isHosted": false, "pillarId": "pillar/lifestyle", "pillarName": "Lifestyle"}, {"id": "lifeandstyle/2011/jun/19/street-food-recipes", "type": "article", "sectionId": "food", "sectionName": "Food", "webPublicationDate": "2011-06-18T23:05:06Z", "webTitle": "Street food: the latest rage", "webUrl": "https://www.theguardian.com/lifeandstyle/2011/jun/19/street-food-recipes", "apiUrl": "https://content.guardianapis.com/lifeandstyle/2011/jun/19/street-food-recipes", "isHosted": false, "pillarId": "pillar/lifestyle", "pillarName": "Lifestyle"}, {"id": "lifeandstyle/2011/jun/19/life-plate-jill-scott-singer", "type": "article", "sectionId": "food", "sectionName": "Food", "webPublicationDate": "2011-06-18T23:05:05Z", "webTitle": "Jill Scott: 'In Botswana I ate wopani worms. They were terrible. They crawl and have legs'", "webUrl": "https://www.theguardian.com/lifeandstyle/2011/jun/19/life-plate-jill-scott-singer", "apiUrl": "https://content.guardianapis.com/lifeandstyle/2011/jun/19/life-plate-jill-scott-singer", "isHosted": false, "pillarId": "pillar/lifestyle", "pillarName": "Lifestyle"}, {"id": "lifeandstyle/2011/jun/19/lunch-deborah-debbie-harry-blondie", "type": "article", "sectionId": "food", "sectionName": "Food", "webPublicationDate": "2011-06-18T23:05:01Z", "webTitle": "Debbie Harry: 'I'm more anonymous than Gaga or Madonna. I'm more of a cult figure'", "webUrl": "https://www.theguardian.com/lifeandstyle/2011/jun/19/lunch-deborah-debbie-harry-blondie", "apiUrl": "https://content.guardianapis.com/lifeandstyle/2011/jun/19/lunch-deborah-debbie-harry-blondie", "isHosted": false, "pillarId": "pillar/lifestyle", "pillarName": "Lifestyle"}]}}