{"response": {"status": "ok", "userTier": "developer", "total": 36669, "startIndex": 1, "pageSize": 50, "currentPage": 1, "pages": 734, "orderBy": "newest", "results": [{"id": "commentisfree/2013/jul/01/carbon-tax-anniversary-climate-change-authority", "type": "article", "sectionId": "commentisfree", "sectionName": "Opinion", "webPublicationDate": "2013-06-30T23:59:58Z", "webTitle": "Carbon pricing, one year on: independent expertise is crucial | Lisa Caripis ", "webUrl": "https://www.theguardian.com/commentisfree/2013/jul/01/carbon-tax-anniversary-climate-change-authority", "apiUrl": "https://content.guardianapis.com/commentisfree/2013/jul/01/carbon-tax-anniversary-climate-change-authority", "isHosted": false, "pillarId": "pillar/opinion", "pillarName": "Opinion"}, {"id": "world/2013/jul/01/arizona-wildfire-investigation-begins-firefighters", "type": "article", "sectionId": "world", "sectionName": "World news", "webPublicationDate": "2013-06-30T23:17:00Z", "webTitle": "Arizona wildfire investigation begins as Governor Brewer laments 'darkest day'", "webUrl": "https://www.theguardian.com/world/2013/jul/01/arizona-wildfire-investigation-begins-firefighters", "apiUrl": "https://content.guardianapis.com/world/2013/jul/01/arizona-wildfire-investigation-begins-firefighters", "isHosted": false, "pillarId": "pillar/news", "pillarName": "News"}, {"id": "politics/2013/jun/30/spend-money-shovel-ready-schemes", "type": "article", "sectionId": "politics", "sectionName": "Politics", "webPublicationDate": "2013-06-30T20:00:02Z", "webTitle": "Letters: Spend the money now on shovel-ready schemes", "webUrl": "https://www.theguardian.com/politics/2013/jun/30/spend-money-shovel-ready-schemes", "apiUrl": "https://content.guardianapis.com/politics/2013/jun/30/spend-money-shovel-ready-schemes", "isHosted": false, "pillarId": "pillar/news", "pillarName": "News"}, {"id": "environment/2013/jun/30/keswick-on-crutches-gambolling-herdwicks", "type": "article", "sectionId": "environment", "sectionName": "Environment", "webPublicationDate": "2013-06-30T20:00:00Z", "webTitle": "Country diary: Keswick, Lake District: On crutches amid the gambolling Herdwicks", "webUrl": "https://www.theguardian.com/environment/2013/jun/30/keswick-on-crutches-gambolling-herdwicks", "apiUrl": "https://content.guardianapis.com/environment/2013/jun/30/keswick-on-crutches-gambolling-herdwicks", "isHosted": false, "pillarId": "pillar/news", "pillarName": "News"}, {"id": "environment/2013/jun/30/climate-change-security-threat-envoy", "type": "article", "sectionId": "environment", "sectionName": "Environment", "webPublicationDate": "2013-06-30T17:19:58Z", "webTitle": "Climate change poses grave threat to security, says UK envoy", "webUrl": "https://www.theguardian.com/environment/2013/jun/30/climate-change-security-threat-envoy", "apiUrl": "https://content.guardianapis.com/environment/2013/jun/30/climate-change-security-threat-envoy", "isHosted": false, "pillarId": "pillar/news", "pillarName": "News"}, {"id": "commentisfree/2013/jun/30/science-hard-evidence-rhetoric", "type": "article", "sectionId": "commentisfree", "sectionName": "Opinion", "webPublicationDate": "2013-06-30T08:00:05Z", "webTitle": "Enough rhetoric. It's evidence that should shape key public decisions | Paul Nurse", "webUrl": "https://www.theguardian.com/commentisfree/2013/jun/30/science-hard-evidence-rhetoric", "apiUrl": "https://content.guardianapis.com/commentisfree/2013/jun/30/science-hard-evidence-rhetoric", "isHosted": false, "pillarId": "pillar/opinion", "pillarName": "Opinion"}, {"id": "environment/2013/jun/30/ancient-forests-clone-super-trees", "type": "article", "sectionId": "environment", "sectionName": "Environment", "webPublicationDate": "2013-06-30T08:00:04Z", "webTitle": "UK's ancient forests could spread again thanks to plan to clone 'super-trees'", "webUrl": "https://www.theguardian.com/environment/2013/jun/30/ancient-forests-clone-super-trees", "apiUrl": "https://content.guardianapis.com/environment/2013/jun/30/ancient-forests-clone-super-trees", "isHosted": false, "pillarId": "pillar/news", "pillarName": "News"}, {"id": "environment/2013/jun/30/should-i-look-into-voluntourism", "type": "article", "sectionId": "environment", "sectionName": "Environment", "webPublicationDate": "2013-06-30T07:36:01Z", "webTitle": "Should I look into voluntourism?", "webUrl": "https://www.theguardian.com/environment/2013/jun/30/should-i-look-into-voluntourism", "apiUrl": "https://content.guardianapis.com/environment/2013/jun/30/should-i-look-into-voluntourism", "isHosted": false, "pillarId": "pillar/news", "pillarName": "News"}, {"id": "science/2013/jun/30/carlia-decora-rainbow-skink-lizard-australia", "type": "article", "sectionId": "science", "sectionName": "Science", "webPublicationDate": "2013-06-29T23:05:02Z", "webTitle": "New to nature No 108: Carlia decora", "webUrl": "https://www.theguardian.com/science/2013/jun/30/carlia-decora-rainbow-skink-lizard-australia", "apiUrl": "https://content.guardianapis.com/science/2013/jun/30/carlia-decora-rainbow-skink-lizard-australia", "isHosted": false, "pillarId": "pillar/news", "pillarName": "News"}, {"id": "world/2013/jun/30/stephen-emmott-windfarms-not-the-answer", "type": "article", "sectionId": "world", "sectionName": "World news", "webPublicationDate": "2013-06-29T23:00:00Z", "webTitle": "Stephen Emmott Q&A: 'Windfarms are not the answer to our problems'", "webUrl": "https://www.theguardian.com/world/2013/jun/30/stephen-emmott-windfarms-not-the-answer", "apiUrl": "https://content.guardianapis.com/world/2013/jun/30/stephen-emmott-windfarms-not-the-answer", "isHosted": false, "pillarId": "pillar/news", "pillarName": "News"}, {"id": "commentisfree/2013/jun/29/angela-merkel-eu-car-emissions-deal", "type": "article", "sectionId": "commentisfree", "sectionName": "Opinion", "webPublicationDate": "2013-06-29T10:00:09Z", "webTitle": "Angela Merkel's wrecking of EU car emissions deal risks her reputation | Hanna Gersmann", "webUrl": "https://www.theguardian.com/commentisfree/2013/jun/29/angela-merkel-eu-car-emissions-deal", "apiUrl": "https://content.guardianapis.com/commentisfree/2013/jun/29/angela-merkel-eu-car-emissions-deal", "isHosted": false, "pillarId": "pillar/opinion", "pillarName": "Opinion"}, {"id": "local-government-network/2013/jun/29/greg-barker-local-energy-live-chat", "type": "article", "sectionId": "society", "sectionName": "Society", "webPublicationDate": "2013-06-29T09:00:00Z", "webTitle": "Expert roundup: Q&A with Greg Barker", "webUrl": "https://www.theguardian.com/local-government-network/2013/jun/29/greg-barker-local-energy-live-chat", "apiUrl": "https://content.guardianapis.com/local-government-network/2013/jun/29/greg-barker-local-energy-live-chat", "isHosted": false, "pillarId": "pillar/news", "pillarName": "News"}, {"id": "lifeandstyle/2013/jun/29/ask-grown-up-butterflies-patrick-barkham", "type": "article", "sectionId": "lifeandstyle", "sectionName": "Life and style", "webPublicationDate": "2013-06-29T06:00:09Z", "webTitle": "Ask a grown-up: why are butterflies so beautiful but their faces so ugly?", "webUrl": "https://www.theguardian.com/lifeandstyle/2013/jun/29/ask-grown-up-butterflies-patrick-barkham", "apiUrl": "https://content.guardianapis.com/lifeandstyle/2013/jun/29/ask-grown-up-butterflies-patrick-barkham", "isHosted": false, "pillarId": "pillar/lifestyle", "pillarName": "Lifestyle"}, {"id": "money/blog/2013/jun/29/how-kick-start-green-deal", "type": "article", "sectionId": "money", "sectionName": "Money", "webPublicationDate": "2013-06-29T05:59:02Z", "webTitle": "How to kick-start a real green deal", "webUrl": "https://www.theguardian.com/money/blog/2013/jun/29/how-kick-start-green-deal", "apiUrl": "https://content.guardianapis.com/money/blog/2013/jun/29/how-kick-start-green-deal", "isHosted": false, "pillarId": "pillar/lifestyle", "pillarName": "Lifestyle"}, {"id": "environment/2013/jun/28/sandy-bedfordshire-corn-bunting-jingling-ringtone", "type": "article", "sectionId": "environment", "sectionName": "Environment", "webPublicationDate": "2013-06-28T19:59:00Z", "webTitle": "Country diary: Sandy, Bedfordshire: Our dog walks are punctuated by the corn bunting's jingling ringtone", "webUrl": "https://www.theguardian.com/environment/2013/jun/28/sandy-bedfordshire-corn-bunting-jingling-ringtone", "apiUrl": "https://content.guardianapis.com/environment/2013/jun/28/sandy-bedfordshire-corn-bunting-jingling-ringtone", "isHosted": false, "pillarId": "pillar/news", "pillarName": "News"}, {"id": "commentisfree/2013/jun/28/britain-candlelight-energy-policy", "type": "article", "sectionId": "commentisfree", "sectionName": "Opinion", "webPublicationDate": "2013-06-28T19:00:02Z", "webTitle": "Is Britain by candlelight our energy policy of the future? | Marina Hyde", "webUrl": "https://www.theguardian.com/commentisfree/2013/jun/28/britain-candlelight-energy-policy", "apiUrl": "https://content.guardianapis.com/commentisfree/2013/jun/28/britain-candlelight-energy-policy", "isHosted": false, "pillarId": "pillar/opinion", "pillarName": "Opinion"}, {"id": "environment/2013/jun/28/scotland-5p-charge-carrier-bags", "type": "article", "sectionId": "environment", "sectionName": "Environment", "webPublicationDate": "2013-06-28T17:57:46Z", "webTitle": "Scotland introduces 5p charge on carrier bags", "webUrl": "https://www.theguardian.com/environment/2013/jun/28/scotland-5p-charge-carrier-bags", "apiUrl": "https://content.guardianapis.com/environment/2013/jun/28/scotland-5p-charge-carrier-bags", "isHosted": false, "pillarId": "pillar/news", "pillarName": "News"}, {"id": "environment/2013/jun/28/strawberry-spain-donana-wildlife-iberian-lynx", "type": "article", "sectionId": "environment", "sectionName": "Environment", "webPublicationDate": "2013-06-28T16:57:06Z", "webTitle": "Spanish national park could lose Unesco status over illegal boreholes", "webUrl": "https://www.theguardian.com/environment/2013/jun/28/strawberry-spain-donana-wildlife-iberian-lynx", "apiUrl": "https://content.guardianapis.com/environment/2013/jun/28/strawberry-spain-donana-wildlife-iberian-lynx", "isHosted": false, "pillarId": "pillar/news", "pillarName": "News"}, {"id": "science/blog/2013/jun/28/six-chemicals-food-drink-banned", "type": "article", "sectionId": "science", "sectionName": "Science", "webPublicationDate": "2013-06-28T16:37:54Z", "webTitle": "Six chemicals we consume in our food and drink that should be banned | Dr Mark Lorch", "webUrl": "https://www.theguardian.com/science/blog/2013/jun/28/six-chemicals-food-drink-banned", "apiUrl": "https://content.guardianapis.com/science/blog/2013/jun/28/six-chemicals-food-drink-banned", "isHosted": false, "pillarId": "pillar/news", "pillarName": "News"}, {"id": "environment/2013/jun/28/fracking-dash-gas-rural-england", "type": "article", "sectionId": "environment", "sectionName": "Environment", "webPublicationDate": "2013-06-28T16:09:00Z", "webTitle": "Fracking the nation: the dash for gas beneath rural Britain", "webUrl": "https://www.theguardian.com/environment/2013/jun/28/fracking-dash-gas-rural-england", "apiUrl": "https://content.guardianapis.com/environment/2013/jun/28/fracking-dash-gas-rural-england", "isHosted": false, "pillarId": "pillar/news", "pillarName": "News"}, {"id": "environment/2013/jun/28/angela-merkel-eu-car-emissions", "type": "article", "sectionId": "environment", "sectionName": "Environment", "webPublicationDate": "2013-06-28T15:09:03Z", "webTitle": "Angela Merkel 'blocks' EU plan on limiting emissions from new cars", "webUrl": "https://www.theguardian.com/environment/2013/jun/28/angela-merkel-eu-car-emissions", "apiUrl": "https://content.guardianapis.com/environment/2013/jun/28/angela-merkel-eu-car-emissions", "isHosted": false, "pillarId": "pillar/news", "pillarName": "News"}, {"id": "artanddesign/2013/jun/28/grasshopper-breeder-lepsis-design-award-food", "type": "article", "sectionId": "artanddesign", "sectionName": "Art and design", "webPublicationDate": "2013-06-28T14:52:46Z", "webTitle": "Grasshopper breeder up for design award and educating western palates", "webUrl": "https://www.theguardian.com/artanddesign/2013/jun/28/grasshopper-breeder-lepsis-design-award-food", "apiUrl": "https://content.guardianapis.com/artanddesign/2013/jun/28/grasshopper-breeder-lepsis-design-award-food", "isHosted": false, "pillarId": "pillar/arts", "pillarName": "Arts"}, {"id": "commentisfree/2013/jun/28/shale-gas-40-years-fracking", "type": "article", "sectionId": "commentisfree", "sectionName": "Opinion", "webPublicationDate": "2013-06-28T14:24:31Z", "webTitle": "So shale gas could meet demand for 40 years. What then? | Andrew Simms", "webUrl": "https://www.theguardian.com/commentisfree/2013/jun/28/shale-gas-40-years-fracking", "apiUrl": "https://content.guardianapis.com/commentisfree/2013/jun/28/shale-gas-40-years-fracking", "isHosted": false, "pillarId": "pillar/opinion", "pillarName": "Opinion"}, {"id": "environment/blog/2013/jun/28/white-throated-needletail-wind-turbines", "type": "article", "sectionId": "environment", "sectionName": "Environment", "webPublicationDate": "2013-06-28T13:51:25Z", "webTitle": "Let's not martyr the white-throated needletail to the anti-wind cause | Harry Huyton", "webUrl": "https://www.theguardian.com/environment/blog/2013/jun/28/white-throated-needletail-wind-turbines", "apiUrl": "https://content.guardianapis.com/environment/blog/2013/jun/28/white-throated-needletail-wind-turbines", "isHosted": false, "pillarId": "pillar/news", "pillarName": "News"}, {"id": "science/political-science/2013/jun/28/gm-food", "type": "article", "sectionId": "science", "sectionName": "Science", "webPublicationDate": "2013-06-28T13:20:58Z", "webTitle": "Why all the fuss about GM food? Other innovations are available | Andy Stirling", "webUrl": "https://www.theguardian.com/science/political-science/2013/jun/28/gm-food", "apiUrl": "https://content.guardianapis.com/science/political-science/2013/jun/28/gm-food", "isHosted": false, "pillarId": "pillar/news", "pillarName": "News"}, {"id": "science/2013/jun/28/nick-clegg-kids-gm-food", "type": "article", "sectionId": "science", "sectionName": "Science", "webPublicationDate": "2013-06-28T12:13:18Z", "webTitle": "Whether Nick Clegg feeds GM food to his kids or not is irrelevant | Tracey Brown", "webUrl": "https://www.theguardian.com/science/2013/jun/28/nick-clegg-kids-gm-food", "apiUrl": "https://content.guardianapis.com/science/2013/jun/28/nick-clegg-kids-gm-food", "isHosted": false, "pillarId": "pillar/news", "pillarName": "News"}, {"id": "commentisfree/andrewbrown/2013/jun/28/evangelical-sex-activists-fuck-for-forest", "type": "article", "sectionId": "commentisfree", "sectionName": "Opinion", "webPublicationDate": "2013-06-28T12:05:37Z", "webTitle": "Evangelical sex activists are no better than religious moralists | Andrew Brown", "webUrl": "https://www.theguardian.com/commentisfree/andrewbrown/2013/jun/28/evangelical-sex-activists-fuck-for-forest", "apiUrl": "https://content.guardianapis.com/commentisfree/andrewbrown/2013/jun/28/evangelical-sex-activists-fuck-for-forest", "isHosted": false, "pillarId": "pillar/opinion", "pillarName": "Opinion"}, {"id": "environment/2013/jun/28/does-uk-face-electricity-blackouts", "type": "article", "sectionId": "environment", "sectionName": "Environment", "webPublicationDate": "2013-06-28T11:34:18Z", "webTitle": "Does the UK really face electricity blackouts?", "webUrl": "https://www.theguardian.com/environment/2013/jun/28/does-uk-face-electricity-blackouts", "apiUrl": "https://content.guardianapis.com/environment/2013/jun/28/does-uk-face-electricity-blackouts", "isHosted": false, "pillarId": "pillar/news", "pillarName": "News"}, {"id": "global-development/gallery/2013/jun/28/india-seed-corporate-grain-in-pictures", "type": "gallery", "sectionId": "global-development", "sectionName": "Global development", "webPublicationDate": "2013-06-28T11:09:00Z", "webTitle": "India's seed saviour goes against the corporate grain \u2013 in pictures", "webUrl": "https://www.theguardian.com/global-development/gallery/2013/jun/28/india-seed-corporate-grain-in-pictures", "apiUrl": "https://content.guardianapis.com/global-development/gallery/2013/jun/28/india-seed-corporate-grain-in-pictures", "isHosted": false, "pillarId": "pillar/news", "pillarName": "News"}, {"id": "science/blog/2013/jun/28/dead-dodo-old-bird", "type": "article", "sectionId": "science", "sectionName": "Science", "webPublicationDate": "2013-06-28T10:50:00Z", "webTitle": "Dead as a dodo? There's life in this old bird yet | Henry Nicholls", "webUrl": "https://www.theguardian.com/science/blog/2013/jun/28/dead-dodo-old-bird", "apiUrl": "https://content.guardianapis.com/science/blog/2013/jun/28/dead-dodo-old-bird", "isHosted": false, "pillarId": "pillar/news", "pillarName": "News"}, {"id": "environment/gallery/2013/jun/28/week-in-wildlife-black-bear-pictures", "type": "gallery", "sectionId": "environment", "sectionName": "Environment", "webPublicationDate": "2013-06-28T10:47:16Z", "webTitle": "The week in wildlife \u2013 in pictures", "webUrl": "https://www.theguardian.com/environment/gallery/2013/jun/28/week-in-wildlife-black-bear-pictures", "apiUrl": "https://content.guardianapis.com/environment/gallery/2013/jun/28/week-in-wildlife-black-bear-pictures", "isHosted": false, "pillarId": "pillar/news", "pillarName": "News"}, {"id": "environment/2013/jun/28/bee-crisis-urgent-review", "type": "article", "sectionId": "environment", "sectionName": "Environment", "webPublicationDate": "2013-06-28T10:19:42Z", "webTitle": "Bee crisis: UK government launches 'urgent' review", "webUrl": "https://www.theguardian.com/environment/2013/jun/28/bee-crisis-urgent-review", "apiUrl": "https://content.guardianapis.com/environment/2013/jun/28/bee-crisis-urgent-review", "isHosted": false, "pillarId": "pillar/news", "pillarName": "News"}, {"id": "world/2013/jun/28/indians-flash-flooding-disaster-manmade", "type": "article", "sectionId": "world", "sectionName": "World news", "webPublicationDate": "2013-06-28T09:36:09Z", "webTitle": "Indians question how far flash-flooding disaster was manmade", "webUrl": "https://www.theguardian.com/world/2013/jun/28/indians-flash-flooding-disaster-manmade", "apiUrl": "https://content.guardianapis.com/world/2013/jun/28/indians-flash-flooding-disaster-manmade", "isHosted": false, "pillarId": "pillar/news", "pillarName": "News"}, {"id": "lifeandstyle/gardening-blog/2013/jun/28/oxeye-daisies", "type": "article", "sectionId": "lifeandstyle", "sectionName": "Life and style", "webPublicationDate": "2013-06-28T09:34:00Z", "webTitle": "Oxeye daisies", "webUrl": "https://www.theguardian.com/lifeandstyle/gardening-blog/2013/jun/28/oxeye-daisies", "apiUrl": "https://content.guardianapis.com/lifeandstyle/gardening-blog/2013/jun/28/oxeye-daisies", "isHosted": false, "pillarId": "pillar/lifestyle", "pillarName": "Lifestyle"}, {"id": "environment/southern-crossroads/2013/jun/28/kevin-rudd-australian-climate-election", "type": "article", "sectionId": "environment", "sectionName": "Environment", "webPublicationDate": "2013-06-28T08:00:00Z", "webTitle": "Kevin Rudd's return could herald a second Australian climate election | Alexander White", "webUrl": "https://www.theguardian.com/environment/southern-crossroads/2013/jun/28/kevin-rudd-australian-climate-election", "apiUrl": "https://content.guardianapis.com/environment/southern-crossroads/2013/jun/28/kevin-rudd-australian-climate-election", "isHosted": false, "pillarId": "pillar/news", "pillarName": "News"}, {"id": "commentisfree/2013/jun/28/india-floods-man-made-disaster", "type": "article", "sectionId": "commentisfree", "sectionName": "Opinion", "webPublicationDate": "2013-06-28T07:00:09Z", "webTitle": "India floods: a man-made disaster | Praful Bidwai", "webUrl": "https://www.theguardian.com/commentisfree/2013/jun/28/india-floods-man-made-disaster", "apiUrl": "https://content.guardianapis.com/commentisfree/2013/jun/28/india-floods-man-made-disaster", "isHosted": false, "pillarId": "pillar/opinion", "pillarName": "Opinion"}, {"id": "world/2013/jun/28/rudd-carbon-tax-policy", "type": "article", "sectionId": "australia-news", "sectionName": "Australia news", "webPublicationDate": "2013-06-28T01:48:00Z", "webTitle": "Dumping the carbon tax: easier said than done", "webUrl": "https://www.theguardian.com/world/2013/jun/28/rudd-carbon-tax-policy", "apiUrl": "https://content.guardianapis.com/world/2013/jun/28/rudd-carbon-tax-policy", "isHosted": false, "pillarId": "pillar/news", "pillarName": "News"}, {"id": "world/2013/jun/28/coalition-environment-policy-states", "type": "article", "sectionId": "australia-news", "sectionName": "Australia news", "webPublicationDate": "2013-06-28T00:41:00Z", "webTitle": "Coalition to hand mines and ports approval powers back to the states", "webUrl": "https://www.theguardian.com/world/2013/jun/28/coalition-environment-policy-states", "apiUrl": "https://content.guardianapis.com/world/2013/jun/28/coalition-environment-policy-states", "isHosted": false, "pillarId": "pillar/news", "pillarName": "News"}, {"id": "environment/2013/jun/28/wildlife-nature-weather-summer-gardens", "type": "article", "sectionId": "environment", "sectionName": "Environment", "webPublicationDate": "2013-06-27T23:30:00Z", "webTitle": "UK wildlife and nature hit hard by erratic weather", "webUrl": "https://www.theguardian.com/environment/2013/jun/28/wildlife-nature-weather-summer-gardens", "apiUrl": "https://content.guardianapis.com/environment/2013/jun/28/wildlife-nature-weather-summer-gardens", "isHosted": false, "pillarId": "pillar/news", "pillarName": "News"}, {"id": "commentisfree/2013/jun/27/fracking-energy-futures", "type": "article", "sectionId": "commentisfree", "sectionName": "Opinion", "webPublicationDate": "2013-06-27T21:53:17Z", "webTitle": "Fracking: energy futures | Editorial", "webUrl": "https://www.theguardian.com/commentisfree/2013/jun/27/fracking-energy-futures", "apiUrl": "https://content.guardianapis.com/commentisfree/2013/jun/27/fracking-energy-futures", "isHosted": false, "pillarId": "pillar/opinion", "pillarName": "Opinion"}, {"id": "environment/2013/jun/27/nuclear-power-10billion-financial-guarantee", "type": "article", "sectionId": "politics", "sectionName": "Politics", "webPublicationDate": "2013-06-27T20:44:50Z", "webTitle": "Nuclear power gets \u00a310bn financial guarantee boost", "webUrl": "https://www.theguardian.com/environment/2013/jun/27/nuclear-power-10billion-financial-guarantee", "apiUrl": "https://content.guardianapis.com/environment/2013/jun/27/nuclear-power-10billion-financial-guarantee", "isHosted": false, "pillarId": "pillar/news", "pillarName": "News"}, {"id": "environment/2013/jun/27/south-uist-blackbirds-nestbuilding-early", "type": "article", "sectionId": "environment", "sectionName": "Environment", "webPublicationDate": "2013-06-27T19:59:02Z", "webTitle": "Country diary: South Uist: Our garden's blackbirds started their nest-building early this year", "webUrl": "https://www.theguardian.com/environment/2013/jun/27/south-uist-blackbirds-nestbuilding-early", "apiUrl": "https://content.guardianapis.com/environment/2013/jun/27/south-uist-blackbirds-nestbuilding-early", "isHosted": false, "pillarId": "pillar/news", "pillarName": "News"}, {"id": "environment/2013/jun/27/370millionpounds-spending-boost-flood-defences", "type": "article", "sectionId": "environment", "sectionName": "Environment", "webPublicationDate": "2013-06-27T18:46:39Z", "webTitle": "\u00a3370m spending boost for new flood defences", "webUrl": "https://www.theguardian.com/environment/2013/jun/27/370millionpounds-spending-boost-flood-defences", "apiUrl": "https://content.guardianapis.com/environment/2013/jun/27/370millionpounds-spending-boost-flood-defences", "isHosted": false, "pillarId": "pillar/news", "pillarName": "News"}, {"id": "environment/2013/jun/27/windfarms-renewable-energy-subsidies", "type": "article", "sectionId": "environment", "sectionName": "Environment", "webPublicationDate": "2013-06-27T16:34:24Z", "webTitle": "Investment in renewables may get hit despite rise in wind farm subsidies", "webUrl": "https://www.theguardian.com/environment/2013/jun/27/windfarms-renewable-energy-subsidies", "apiUrl": "https://content.guardianapis.com/environment/2013/jun/27/windfarms-renewable-energy-subsidies", "isHosted": false, "pillarId": "pillar/news", "pillarName": "News"}, {"id": "uk/scotland-blog/2013/jun/27/scotland-climate-targets", "type": "article", "sectionId": "uk-news", "sectionName": "UK news", "webPublicationDate": "2013-06-27T16:23:07Z", "webTitle": "Scottish ministers accused of 'dismal' strategy to cut climate emissions", "webUrl": "https://www.theguardian.com/uk/scotland-blog/2013/jun/27/scotland-climate-targets", "apiUrl": "https://content.guardianapis.com/uk/scotland-blog/2013/jun/27/scotland-climate-targets", "isHosted": false, "pillarId": "pillar/news", "pillarName": "News"}, {"id": "environment/picture/2013/jun/27/map-rivers-united-states-america", "type": "picture", "sectionId": "environment", "sectionName": "Environment", "webPublicationDate": "2013-06-27T15:06:54Z", "webTitle": "Map of the rivers of the United States of America - big picture", "webUrl": "https://www.theguardian.com/environment/picture/2013/jun/27/map-rivers-united-states-america", "apiUrl": "https://content.guardianapis.com/environment/picture/2013/jun/27/map-rivers-united-states-america", "isHosted": false, "pillarId": "pillar/news", "pillarName": "News"}, {"id": "environment/damian-carrington-blog/2013/jun/27/coalition-teamwork-greenest-government", "type": "article", "sectionId": "environment", "sectionName": "Environment", "webPublicationDate": "2013-06-27T15:05:37Z", "webTitle": "Does the coalition have the teamwork to be the greenest government? | Damian Carrington", "webUrl": "https://www.theguardian.com/environment/damian-carrington-blog/2013/jun/27/coalition-teamwork-greenest-government", "apiUrl": "https://content.guardianapis.com/environment/damian-carrington-blog/2013/jun/27/coalition-teamwork-greenest-government", "isHosted": false, "pillarId": "pillar/news", "pillarName": "News"}, {"id": "environment/2013/jun/27/best-worst-beaches-your-pictures", "type": "article", "sectionId": "environment", "sectionName": "Environment", "webPublicationDate": "2013-06-27T14:38:23Z", "webTitle": "Best and worst beaches \u2013 share your pictures and videos", "webUrl": "https://www.theguardian.com/environment/2013/jun/27/best-worst-beaches-your-pictures", "apiUrl": "https://content.guardianapis.com/environment/2013/jun/27/best-worst-beaches-your-pictures", "isHosted": false, "pillarId": "pillar/news", "pillarName": "News"}, {"id": "environment/2013/jun/27/britain-shale-gas-deposits-supply-25-years", "type": "article", "sectionId": "environment", "sectionName": "Environment", "webPublicationDate": "2013-06-27T14:30:08Z", "webTitle": "Britain's shale gas deposits 'could supply country for 25 years'", "webUrl": "https://www.theguardian.com/environment/2013/jun/27/britain-shale-gas-deposits-supply-25-years", "apiUrl": "https://content.guardianapis.com/environment/2013/jun/27/britain-shale-gas-deposits-supply-25-years", "isHosted": false, "pillarId": "pillar/news", "pillarName": "News"}, {"id": "uk/scotland-blog/2013/jun/27/scotland-communities-northkelvin", "type": "article", "sectionId": "uk-news", "sectionName": "UK news", "webPublicationDate": "2013-06-27T14:23:34Z", "webTitle": "Scottish ministers threaten action over North Kelvin Meadow planning bid", "webUrl": "https://www.theguardian.com/uk/scotland-blog/2013/jun/27/scotland-communities-northkelvin", "apiUrl": "https://content.guardianapis.com/uk/scotland-blog/2013/jun/27/scotland-communities-northkelvin", "isHosted": false, "pillarId": "pillar/news", "pillarName": "News"}]}}