{"response": {"status": "ok", "userTier": "developer", "total": 88693, "startIndex": 1, "pageSize": 50, "currentPage": 1, "pages": 1774, "orderBy": "newest", "results": [{"id": "football/2013/jun/30/brazil-spain-live-confederations-cup-final", "type": "liveblog", "sectionId": "football", "sectionName": "Football", "webPublicationDate": "2013-06-30T23:57:00Z", "webTitle": "Brazil v Spain: Confederations Cup final \u2013 as it happened | Rob Bagchi", "webUrl": "https://www.theguardian.com/football/2013/jun/30/brazil-spain-live-confederations-cup-final", "apiUrl": "https://content.guardianapis.com/football/2013/jun/30/brazil-spain-live-confederations-cup-final", "isHosted": false, "pillarId": "pillar/sport", "pillarName": "Sport"}, {"id": "science/audio/2013/jul/01/podcast-science-weekly-mathematics-john-barrow", "type": "audio", "sectionId": "science", "sectionName": "Science", "webPublicationDate": "2013-06-30T23:05:00Z", "webTitle": "Science Weekly podcast: the mathematics of sport", "webUrl": "https://www.theguardian.com/science/audio/2013/jul/01/podcast-science-weekly-mathematics-john-barrow", "apiUrl": "https://content.guardianapis.com/science/audio/2013/jul/01/podcast-science-weekly-mathematics-john-barrow", "isHosted": false, "pillarId": "pillar/news", "pillarName": "News"}, {"id": "football/2013/jun/30/tom-ince-cardiff-blackpool", "type": "article", "sectionId": "football", "sectionName": "Football", "webPublicationDate": "2013-06-30T20:55:00Z", "webTitle": "Blackpool accept Cardiff's \u00a38m offer on Tom Ince \u2013 to uncertain effect", "webUrl": "https://www.theguardian.com/football/2013/jun/30/tom-ince-cardiff-blackpool", "apiUrl": "https://content.guardianapis.com/football/2013/jun/30/tom-ince-cardiff-blackpool", "isHosted": false, "pillarId": "pillar/sport", "pillarName": "Sport"}, {"id": "sport/gallery/2013/jun/30/formulaone-cycling", "type": "gallery", "sectionId": "sport", "sectionName": "Sport", "webPublicationDate": "2013-06-30T18:09:00Z", "webTitle": "The week in sport \u2013 in pictures", "webUrl": "https://www.theguardian.com/sport/gallery/2013/jun/30/formulaone-cycling", "apiUrl": "https://content.guardianapis.com/sport/gallery/2013/jun/30/formulaone-cycling", "isHosted": false, "pillarId": "pillar/sport", "pillarName": "Sport"}, {"id": "football/2013/jun/30/manchester-united-david-moyes-manager", "type": "article", "sectionId": "football", "sectionName": "Football", "webPublicationDate": "2013-06-30T16:48:37Z", "webTitle": "David Moyes faces daunting first day as Manchester United manager", "webUrl": "https://www.theguardian.com/football/2013/jun/30/manchester-united-david-moyes-manager", "apiUrl": "https://content.guardianapis.com/football/2013/jun/30/manchester-united-david-moyes-manager", "isHosted": false, "pillarId": "pillar/sport", "pillarName": "Sport"}, {"id": "football/2013/jun/30/paolo-di-canio-daniel-bessa-sunderland-inter", "type": "article", "sectionId": "football", "sectionName": "Football", "webPublicationDate": "2013-06-30T15:17:32Z", "webTitle": "Paolo Di Canio poised to take Daniel Bessa to Sunderland from Inter", "webUrl": "https://www.theguardian.com/football/2013/jun/30/paolo-di-canio-daniel-bessa-sunderland-inter", "apiUrl": "https://content.guardianapis.com/football/2013/jun/30/paolo-di-canio-daniel-bessa-sunderland-inter", "isHosted": false, "pillarId": "pillar/sport", "pillarName": "Sport"}, {"id": "football/picture/2013/jun/30/sport-picture-of-the-day-maracana-lights-up", "type": "picture", "sectionId": "football", "sectionName": "Football", "webPublicationDate": "2013-06-30T12:19:29Z", "webTitle": "Sport picture of the day: Maracan\u00e3 lights up for Confederations Cup final", "webUrl": "https://www.theguardian.com/football/picture/2013/jun/30/sport-picture-of-the-day-maracana-lights-up", "apiUrl": "https://content.guardianapis.com/football/picture/2013/jun/30/sport-picture-of-the-day-maracana-lights-up", "isHosted": false, "pillarId": "pillar/sport", "pillarName": "Sport"}, {"id": "football/2013/jun/30/newcastle-braced-psg-bid-yohan-cabaye", "type": "article", "sectionId": "football", "sectionName": "Football", "webPublicationDate": "2013-06-30T11:01:26Z", "webTitle": "Newcastle braced for \u00a320m Yohan Cabaye bid from Paris Saint-Germain", "webUrl": "https://www.theguardian.com/football/2013/jun/30/newcastle-braced-psg-bid-yohan-cabaye", "apiUrl": "https://content.guardianapis.com/football/2013/jun/30/newcastle-braced-psg-bid-yohan-cabaye", "isHosted": false, "pillarId": "pillar/sport", "pillarName": "Sport"}, {"id": "football/2013/jun/30/england-egypt-world-cup-defeat", "type": "article", "sectionId": "football", "sectionName": "Football", "webPublicationDate": "2013-06-30T10:19:31Z", "webTitle": "Peter Taylor bemoans 'worst performance' as England crash out of U-20 World Cup", "webUrl": "https://www.theguardian.com/football/2013/jun/30/england-egypt-world-cup-defeat", "apiUrl": "https://content.guardianapis.com/football/2013/jun/30/england-egypt-world-cup-defeat", "isHosted": false, "pillarId": "pillar/sport", "pillarName": "Sport"}, {"id": "football/2013/jun/30/arsenal-julio-cesar-qpr", "type": "article", "sectionId": "football", "sectionName": "Football", "webPublicationDate": "2013-06-30T09:19:41Z", "webTitle": "Arsenal join chase to sign QPR goalkeeper J\u00falio C\u00e9sar", "webUrl": "https://www.theguardian.com/football/2013/jun/30/arsenal-julio-cesar-qpr", "apiUrl": "https://content.guardianapis.com/football/2013/jun/30/arsenal-julio-cesar-qpr", "isHosted": false, "pillarId": "pillar/sport", "pillarName": "Sport"}, {"id": "football/2013/jun/29/wolverhampton-wanderers-bakary-sako-fulham", "type": "article", "sectionId": "football", "sectionName": "Football", "webPublicationDate": "2013-06-29T21:29:01Z", "webTitle": "Wolverhampton Wanderers' Bakary Sako pleads for move to Fulham", "webUrl": "https://www.theguardian.com/football/2013/jun/29/wolverhampton-wanderers-bakary-sako-fulham", "apiUrl": "https://content.guardianapis.com/football/2013/jun/29/wolverhampton-wanderers-bakary-sako-fulham", "isHosted": false, "pillarId": "pillar/sport", "pillarName": "Sport"}, {"id": "sport/blog/2013/jun/29/trapped-wrong-sporting-body-cruel", "type": "article", "sectionId": "sport", "sectionName": "Sport", "webPublicationDate": "2013-06-29T21:00:02Z", "webTitle": "Being trapped in the wrong sporting body is a cruel cosmic joke | Emma John", "webUrl": "https://www.theguardian.com/sport/blog/2013/jun/29/trapped-wrong-sporting-body-cruel", "apiUrl": "https://content.guardianapis.com/sport/blog/2013/jun/29/trapped-wrong-sporting-body-cruel", "isHosted": false, "pillarId": "pillar/sport", "pillarName": "Sport"}, {"id": "football/blog/2013/jun/29/spain-brazil-confederations-cup-final", "type": "article", "sectionId": "football", "sectionName": "Football", "webPublicationDate": "2013-06-29T19:41:00Z", "webTitle": "Spain can teach Brazil a lesson in Confederations Cup final | Paul Wilson", "webUrl": "https://www.theguardian.com/football/blog/2013/jun/29/spain-brazil-confederations-cup-final", "apiUrl": "https://content.guardianapis.com/football/blog/2013/jun/29/spain-brazil-confederations-cup-final", "isHosted": false, "pillarId": "pillar/sport", "pillarName": "Sport"}, {"id": "football/2013/jun/29/doncaster-belles-relegation-womens-football", "type": "article", "sectionId": "football", "sectionName": "Football", "webPublicationDate": "2013-06-29T12:54:40Z", "webTitle": "Doncaster Rovers Belles appeal against relegation rejected by FA", "webUrl": "https://www.theguardian.com/football/2013/jun/29/doncaster-belles-relegation-womens-football", "apiUrl": "https://content.guardianapis.com/football/2013/jun/29/doncaster-belles-relegation-womens-football", "isHosted": false, "pillarId": "pillar/sport", "pillarName": "Sport"}, {"id": "football/2013/jun/28/everton-leighton-baines-manchester-united", "type": "article", "sectionId": "football", "sectionName": "Football", "webPublicationDate": "2013-06-28T18:35:10Z", "webTitle": "Everton resist Leighton Baines bid, but Manchester United may go higher", "webUrl": "https://www.theguardian.com/football/2013/jun/28/everton-leighton-baines-manchester-united", "apiUrl": "https://content.guardianapis.com/football/2013/jun/28/everton-leighton-baines-manchester-united", "isHosted": false, "pillarId": "pillar/sport", "pillarName": "Sport"}, {"id": "football/2013/jun/28/football-news", "type": "article", "sectionId": "football", "sectionName": "Football", "webPublicationDate": "2013-06-28T18:23:13Z", "webTitle": "Everton resist Leighton Baines bid, but Manchester United may go higher", "webUrl": "https://www.theguardian.com/football/2013/jun/28/football-news", "apiUrl": "https://content.guardianapis.com/football/2013/jun/28/football-news", "isHosted": false, "pillarId": "pillar/sport", "pillarName": "Sport"}, {"id": "football/2013/jun/28/tottenham-barcelona-david-villa", "type": "article", "sectionId": "football", "sectionName": "Football", "webPublicationDate": "2013-06-28T18:02:45Z", "webTitle": "Tottenham want Barcelona forward David Villa, but not for \u00a312m", "webUrl": "https://www.theguardian.com/football/2013/jun/28/tottenham-barcelona-david-villa", "apiUrl": "https://content.guardianapis.com/football/2013/jun/28/tottenham-barcelona-david-villa", "isHosted": false, "pillarId": "pillar/sport", "pillarName": "Sport"}, {"id": "football/2013/jun/28/landon-donovan-usa-klinsmann-gold-cup", "type": "article", "sectionId": "football", "sectionName": "Football", "webPublicationDate": "2013-06-28T16:22:32Z", "webTitle": "Landon Donovan's USA recall is key to Klinsmann's Gold Cup selection | Graham Parker", "webUrl": "https://www.theguardian.com/football/2013/jun/28/landon-donovan-usa-klinsmann-gold-cup", "apiUrl": "https://content.guardianapis.com/football/2013/jun/28/landon-donovan-usa-klinsmann-gold-cup", "isHosted": false, "pillarId": "pillar/sport", "pillarName": "Sport"}, {"id": "world/2013/jun/28/world-cup-2014-official-champagne-brazil-protests", "type": "article", "sectionId": "world", "sectionName": "World news", "webPublicationDate": "2013-06-28T16:22:09Z", "webTitle": "World Cup 2014 official champagne unveiled amid Brazil protests", "webUrl": "https://www.theguardian.com/world/2013/jun/28/world-cup-2014-official-champagne-brazil-protests", "apiUrl": "https://content.guardianapis.com/world/2013/jun/28/world-cup-2014-official-champagne-brazil-protests", "isHosted": false, "pillarId": "pillar/news", "pillarName": "News"}, {"id": "football/blog/2013/jun/28/penalty-shootout-confederations-cup-spain-italy", "type": "article", "sectionId": "football", "sectionName": "Football", "webPublicationDate": "2013-06-28T15:33:56Z", "webTitle": "Shootouts are for ice-cool marksmen as Spain and Italy proved | Paul Doyle", "webUrl": "https://www.theguardian.com/football/blog/2013/jun/28/penalty-shootout-confederations-cup-spain-italy", "apiUrl": "https://content.guardianapis.com/football/blog/2013/jun/28/penalty-shootout-confederations-cup-spain-italy", "isHosted": false, "pillarId": "pillar/sport", "pillarName": "Sport"}, {"id": "football/2013/jun/28/football-fiver-spain-italy-confederations-cup", "type": "article", "sectionId": "football", "sectionName": "Football", "webPublicationDate": "2013-06-28T15:11:27Z", "webTitle": "The Fiver: Hopelessly Addicted To Crack Cocaine | Scott Murray", "webUrl": "https://www.theguardian.com/football/2013/jun/28/football-fiver-spain-italy-confederations-cup", "apiUrl": "https://content.guardianapis.com/football/2013/jun/28/football-fiver-spain-italy-confederations-cup", "isHosted": false, "pillarId": "pillar/sport", "pillarName": "Sport"}, {"id": "football/2013/jun/28/england-under-20s-junior-world-cup", "type": "article", "sectionId": "football", "sectionName": "Football", "webPublicationDate": "2013-06-28T14:55:42Z", "webTitle": "England Under-20s aim to end winless run at junior World Cup finals", "webUrl": "https://www.theguardian.com/football/2013/jun/28/england-under-20s-junior-world-cup", "apiUrl": "https://content.guardianapis.com/football/2013/jun/28/england-under-20s-junior-world-cup", "isHosted": false, "pillarId": "pillar/sport", "pillarName": "Sport"}, {"id": "football/2013/jun/28/newcastle-united-pierre-emerick-aubameyang", "type": "article", "sectionId": "football", "sectionName": "Football", "webPublicationDate": "2013-06-28T14:19:55Z", "webTitle": "Newcastle United make Pierre-Emerick Aubameyang top attacking target", "webUrl": "https://www.theguardian.com/football/2013/jun/28/newcastle-united-pierre-emerick-aubameyang", "apiUrl": "https://content.guardianapis.com/football/2013/jun/28/newcastle-united-pierre-emerick-aubameyang", "isHosted": false, "pillarId": "pillar/sport", "pillarName": "Sport"}, {"id": "sport/2013/jun/28/mls-fan-previews-reviews-week-18-la-galaxy-san-jose-earthquakes", "type": "article", "sectionId": "sport", "sectionName": "Sport", "webPublicationDate": "2013-06-28T14:00:00Z", "webTitle": "MLS week 18: reviews and previews | Graham Parker", "webUrl": "https://www.theguardian.com/sport/2013/jun/28/mls-fan-previews-reviews-week-18-la-galaxy-san-jose-earthquakes", "apiUrl": "https://content.guardianapis.com/sport/2013/jun/28/mls-fan-previews-reviews-week-18-la-galaxy-san-jose-earthquakes", "isHosted": false, "pillarId": "pillar/sport", "pillarName": "Sport"}, {"id": "sport/picture/2013/jun/28/confederations-cup-spain", "type": "picture", "sectionId": "sport", "sectionName": "Sport", "webPublicationDate": "2013-06-28T13:24:24Z", "webTitle": "Sport picture of the day: congestion at the Confederations Cup", "webUrl": "https://www.theguardian.com/sport/picture/2013/jun/28/confederations-cup-spain", "apiUrl": "https://content.guardianapis.com/sport/picture/2013/jun/28/confederations-cup-spain", "isHosted": false, "pillarId": "pillar/sport", "pillarName": "Sport"}, {"id": "football/2013/jun/28/jimmy-nielsen-sporting-kc-autobiography-gambling", "type": "article", "sectionId": "football", "sectionName": "Football", "webPublicationDate": "2013-06-28T13:00:00Z", "webTitle": "Sporting Kansas City's Jimmy Nielsen: 'I was sick in my head for gambling'", "webUrl": "https://www.theguardian.com/football/2013/jun/28/jimmy-nielsen-sporting-kc-autobiography-gambling", "apiUrl": "https://content.guardianapis.com/football/2013/jun/28/jimmy-nielsen-sporting-kc-autobiography-gambling", "isHosted": false, "pillarId": "pillar/sport", "pillarName": "Sport"}, {"id": "football/2013/jun/28/sunderland-tottenham-hotspur-tom-huddlestone", "type": "article", "sectionId": "football", "sectionName": "Football", "webPublicationDate": "2013-06-28T11:37:02Z", "webTitle": "Sunderland close in on Tottenham Hotspur midfielder Tom Huddlestone", "webUrl": "https://www.theguardian.com/football/2013/jun/28/sunderland-tottenham-hotspur-tom-huddlestone", "apiUrl": "https://content.guardianapis.com/football/2013/jun/28/sunderland-tottenham-hotspur-tom-huddlestone", "isHosted": false, "pillarId": "pillar/sport", "pillarName": "Sport"}, {"id": "football/video/2013/jun/28/carlos-tevez-del-pieros-juventus-video", "type": "video", "sectionId": "football", "sectionName": "Football", "webPublicationDate": "2013-06-28T10:15:00Z", "webTitle": "Carlos Tevez happy to inherit Del Piero's No10 shirt at Juventus - video", "webUrl": "https://www.theguardian.com/football/video/2013/jun/28/carlos-tevez-del-pieros-juventus-video", "apiUrl": "https://content.guardianapis.com/football/video/2013/jun/28/carlos-tevez-del-pieros-juventus-video", "isHosted": false, "pillarId": "pillar/sport", "pillarName": "Sport"}, {"id": "football/2013/jun/28/crystal-palace-peterborough-united-dwight-gayle", "type": "article", "sectionId": "football", "sectionName": "Football", "webPublicationDate": "2013-06-28T10:11:41Z", "webTitle": "Crystal Palace agree fee for Peterborough United striker Dwight Gayle", "webUrl": "https://www.theguardian.com/football/2013/jun/28/crystal-palace-peterborough-united-dwight-gayle", "apiUrl": "https://content.guardianapis.com/football/2013/jun/28/crystal-palace-peterborough-united-dwight-gayle", "isHosted": false, "pillarId": "pillar/sport", "pillarName": "Sport"}, {"id": "football/2013/jun/28/football-transfer-rumours", "type": "article", "sectionId": "football", "sectionName": "Football", "webPublicationDate": "2013-06-28T07:59:05Z", "webTitle": "Football transfer rumours: Willy Caballero to replace Joe Hart at Man City?", "webUrl": "https://www.theguardian.com/football/2013/jun/28/football-transfer-rumours", "apiUrl": "https://content.guardianapis.com/football/2013/jun/28/football-transfer-rumours", "isHosted": false, "pillarId": "pillar/sport", "pillarName": "Sport"}, {"id": "football/blog/audio/2013/jun/28/confederations-cup-football-daily-podcast-spain-italy-semi", "type": "audio", "sectionId": "football", "sectionName": "Football", "webPublicationDate": "2013-06-27T23:09:10Z", "webTitle": "Confederations Cup Football Daily: Spain set up showdown with Brazil", "webUrl": "https://www.theguardian.com/football/blog/audio/2013/jun/28/confederations-cup-football-daily-podcast-spain-italy-semi", "apiUrl": "https://content.guardianapis.com/football/blog/audio/2013/jun/28/confederations-cup-football-daily-podcast-spain-italy-semi", "isHosted": false, "pillarId": "pillar/sport", "pillarName": "Sport"}, {"id": "football/quiz/2013/jun/28/football-computer-games-quiz", "type": "article", "sectionId": "global", "sectionName": "Global", "webPublicationDate": "2013-06-27T23:06:00Z", "webTitle": "Football quiz: guess the computer game", "webUrl": "https://www.theguardian.com/football/quiz/2013/jun/28/football-computer-games-quiz", "apiUrl": "https://content.guardianapis.com/football/quiz/2013/jun/28/football-computer-games-quiz", "isHosted": false}, {"id": "football/2013/jun/27/newcastle-united-aston-villa-darren-bent", "type": "article", "sectionId": "football", "sectionName": "Football", "webPublicationDate": "2013-06-27T22:11:00Z", "webTitle": "Newcastle United favourites to sign Aston Villa's Darren Bent", "webUrl": "https://www.theguardian.com/football/2013/jun/27/newcastle-united-aston-villa-darren-bent", "apiUrl": "https://content.guardianapis.com/football/2013/jun/27/newcastle-united-aston-villa-darren-bent", "isHosted": false, "pillarId": "pillar/sport", "pillarName": "Sport"}, {"id": "football/2013/jun/27/spain-italy-confederations-cup-live", "type": "liveblog", "sectionId": "football", "sectionName": "Football", "webPublicationDate": "2013-06-27T21:49:00Z", "webTitle": "Spain v Italy: Confederations Cup \u2013 as it happened! | Paul Doyle", "webUrl": "https://www.theguardian.com/football/2013/jun/27/spain-italy-confederations-cup-live", "apiUrl": "https://content.guardianapis.com/football/2013/jun/27/spain-italy-confederations-cup-live", "isHosted": false, "pillarId": "pillar/sport", "pillarName": "Sport"}, {"id": "football/2013/jun/27/swansea-wilfried-bony-vitesse-chelsea", "type": "article", "sectionId": "football", "sectionName": "Football", "webPublicationDate": "2013-06-27T20:33:00Z", "webTitle": "Swansea hope to land Wilfried Bony from Vitesse despite Chelsea interest", "webUrl": "https://www.theguardian.com/football/2013/jun/27/swansea-wilfried-bony-vitesse-chelsea", "apiUrl": "https://content.guardianapis.com/football/2013/jun/27/swansea-wilfried-bony-vitesse-chelsea", "isHosted": false, "pillarId": "pillar/sport", "pillarName": "Sport"}, {"id": "technology/video/2013/jun/27/robocup-robot-football-championship-video", "type": "video", "sectionId": "technology", "sectionName": "Technology", "webPublicationDate": "2013-06-27T18:15:00Z", "webTitle": "RoboCup: the robot football world championship - video", "webUrl": "https://www.theguardian.com/technology/video/2013/jun/27/robocup-robot-football-championship-video", "apiUrl": "https://content.guardianapis.com/technology/video/2013/jun/27/robocup-robot-football-championship-video", "isHosted": false, "pillarId": "pillar/news", "pillarName": "News"}, {"id": "football/2013/jun/27/manchester-city-aleksandar-kolarov-juventus", "type": "article", "sectionId": "football", "sectionName": "Football", "webPublicationDate": "2013-06-27T16:40:00Z", "webTitle": "Manchester City's Aleksandar Kolarov may follow Tevez to Juventus", "webUrl": "https://www.theguardian.com/football/2013/jun/27/manchester-city-aleksandar-kolarov-juventus", "apiUrl": "https://content.guardianapis.com/football/2013/jun/27/manchester-city-aleksandar-kolarov-juventus", "isHosted": false, "pillarId": "pillar/sport", "pillarName": "Sport"}, {"id": "football/2013/jun/27/manchester-united-move-leighton-baines", "type": "article", "sectionId": "football", "sectionName": "Football", "webPublicationDate": "2013-06-27T16:16:45Z", "webTitle": "Manchester United will have to raise \u00a312m offer to land Leighton Baines", "webUrl": "https://www.theguardian.com/football/2013/jun/27/manchester-united-move-leighton-baines", "apiUrl": "https://content.guardianapis.com/football/2013/jun/27/manchester-united-move-leighton-baines", "isHosted": false, "pillarId": "pillar/sport", "pillarName": "Sport"}, {"id": "football/2013/jun/27/us-open-cup-quarter-final-roundup", "type": "article", "sectionId": "football", "sectionName": "Football", "webPublicationDate": "2013-06-27T15:32:00Z", "webTitle": "US Open Cup quarter-finals shed last non-MLS teams from competition", "webUrl": "https://www.theguardian.com/football/2013/jun/27/us-open-cup-quarter-final-roundup", "apiUrl": "https://content.guardianapis.com/football/2013/jun/27/us-open-cup-quarter-final-roundup", "isHosted": false, "pillarId": "pillar/sport", "pillarName": "Sport"}, {"id": "football/2013/jun/27/qpr-danny-simpson-newcastle", "type": "article", "sectionId": "football", "sectionName": "Football", "webPublicationDate": "2013-06-27T15:20:21Z", "webTitle": "QPR sign right-back Danny Simpson from Newcastle United", "webUrl": "https://www.theguardian.com/football/2013/jun/27/qpr-danny-simpson-newcastle", "apiUrl": "https://content.guardianapis.com/football/2013/jun/27/qpr-danny-simpson-newcastle", "isHosted": false, "pillarId": "pillar/sport", "pillarName": "Sport"}, {"id": "football/2013/jun/27/the-fiver-confederations-cup-brazil", "type": "article", "sectionId": "football", "sectionName": "Football", "webPublicationDate": "2013-06-27T14:59:21Z", "webTitle": "The Fiver | Another plan: clutch at straws | Paul Doyle", "webUrl": "https://www.theguardian.com/football/2013/jun/27/the-fiver-confederations-cup-brazil", "apiUrl": "https://content.guardianapis.com/football/2013/jun/27/the-fiver-confederations-cup-brazil", "isHosted": false, "pillarId": "pillar/sport", "pillarName": "Sport"}, {"id": "media/2013/jun/27/bt-vision-pay-tv-sky-sports", "type": "article", "sectionId": "media", "sectionName": "Media", "webPublicationDate": "2013-06-27T11:20:29Z", "webTitle": "BT Vision pay-TV viewers could lose Sky Sports after broadband switch", "webUrl": "https://www.theguardian.com/media/2013/jun/27/bt-vision-pay-tv-sky-sports", "apiUrl": "https://content.guardianapis.com/media/2013/jun/27/bt-vision-pay-tv-sky-sports", "isHosted": false, "pillarId": "pillar/news", "pillarName": "News"}, {"id": "football/video/2013/jun/27/pep-guardiola-bayern-munich-video", "type": "video", "sectionId": "football", "sectionName": "Football", "webPublicationDate": "2013-06-27T11:07:00Z", "webTitle": "Pep Guardiola conducts first training session at Bayern Munich \u2013 video", "webUrl": "https://www.theguardian.com/football/video/2013/jun/27/pep-guardiola-bayern-munich-video", "apiUrl": "https://content.guardianapis.com/football/video/2013/jun/27/pep-guardiola-bayern-munich-video", "isHosted": false, "pillarId": "pillar/sport", "pillarName": "Sport"}, {"id": "football/2013/jun/27/sky-free-premier-league-match", "type": "article", "sectionId": "football", "sectionName": "Football", "webPublicationDate": "2013-06-27T11:06:51Z", "webTitle": "Sky to broadcast its first ever free-to-air live Premier League match", "webUrl": "https://www.theguardian.com/football/2013/jun/27/sky-free-premier-league-match", "apiUrl": "https://content.guardianapis.com/football/2013/jun/27/sky-free-premier-league-match", "isHosted": false, "pillarId": "pillar/sport", "pillarName": "Sport"}, {"id": "sport/blog/2013/jun/27/classic-youtube-video-sport-clips", "type": "article", "sectionId": "sport", "sectionName": "Sport", "webPublicationDate": "2013-06-27T08:30:00Z", "webTitle": "Classic YouTube | Liverpool's white suits, 100 years of the Tour de France and old Silverstone", "webUrl": "https://www.theguardian.com/sport/blog/2013/jun/27/classic-youtube-video-sport-clips", "apiUrl": "https://content.guardianapis.com/sport/blog/2013/jun/27/classic-youtube-video-sport-clips", "isHosted": false, "pillarId": "pillar/sport", "pillarName": "Sport"}, {"id": "football/2013/jun/27/football-transfer-rumours", "type": "article", "sectionId": "football", "sectionName": "Football", "webPublicationDate": "2013-06-27T08:03:26Z", "webTitle": "Football transfer rumours: Darren Bent to Newcastle United?", "webUrl": "https://www.theguardian.com/football/2013/jun/27/football-transfer-rumours", "apiUrl": "https://content.guardianapis.com/football/2013/jun/27/football-transfer-rumours", "isHosted": false, "pillarId": "pillar/sport", "pillarName": "Sport"}, {"id": "football/quiz/2013/jun/27/football-quiz-liverpool-iago-aspas-luis-alberto", "type": "article", "sectionId": "global", "sectionName": "Global", "webPublicationDate": "2013-06-26T23:01:01Z", "webTitle": "Football quiz: Liverpool's new recruits", "webUrl": "https://www.theguardian.com/football/quiz/2013/jun/27/football-quiz-liverpool-iago-aspas-luis-alberto", "apiUrl": "https://content.guardianapis.com/football/quiz/2013/jun/27/football-quiz-liverpool-iago-aspas-luis-alberto", "isHosted": false}, {"id": "football/blog/audio/2013/jun/26/confederations-cup-football-daily-podcast-brazil-uruguay", "type": "audio", "sectionId": "football", "sectionName": "Football", "webPublicationDate": "2013-06-26T22:47:07Z", "webTitle": "Confederations Cup Football Daily: Fred stars as Brazil advance to the final", "webUrl": "https://www.theguardian.com/football/blog/audio/2013/jun/26/confederations-cup-football-daily-podcast-brazil-uruguay", "apiUrl": "https://content.guardianapis.com/football/blog/audio/2013/jun/26/confederations-cup-football-daily-podcast-brazil-uruguay", "isHosted": false, "pillarId": "pillar/sport", "pillarName": "Sport"}, {"id": "football/2013/jun/26/football-in-brief", "type": "article", "sectionId": "football", "sectionName": "Football", "webPublicationDate": "2013-06-26T22:00:03Z", "webTitle": "West Ham close to signing Ecuador's Jefferson Montero for \u00a33m", "webUrl": "https://www.theguardian.com/football/2013/jun/26/football-in-brief", "apiUrl": "https://content.guardianapis.com/football/2013/jun/26/football-in-brief", "isHosted": false, "pillarId": "pillar/sport", "pillarName": "Sport"}, {"id": "football/2013/jun/26/carlos-tevez-signs-juventus-manchester-city", "type": "article", "sectionId": "football", "sectionName": "Football", "webPublicationDate": "2013-06-26T21:02:27Z", "webTitle": "Carlos Tevez completes \u00a37.6m move from Manchester City to Juventus", "webUrl": "https://www.theguardian.com/football/2013/jun/26/carlos-tevez-signs-juventus-manchester-city", "apiUrl": "https://content.guardianapis.com/football/2013/jun/26/carlos-tevez-signs-juventus-manchester-city", "isHosted": false, "pillarId": "pillar/sport", "pillarName": "Sport"}]}}