{"response": {"status": "ok", "userTier": "developer", "total": 20286, "startIndex": 1, "pageSize": 50, "currentPage": 1, "pages": 406, "orderBy": "newest", "results": [{"id": "lifeandstyle/wordofmouth/2014/jun/30/potatoes-end-spud-sales-chips-how-do-you-cook", "type": "article", "sectionId": "lifeandstyle", "sectionName": "Life and style", "webPublicationDate": "2014-06-30T12:43:00Z", "webTitle": "Have potatoes had their chips?", "webUrl": "https://www.theguardian.com/lifeandstyle/wordofmouth/2014/jun/30/potatoes-end-spud-sales-chips-how-do-you-cook", "apiUrl": "https://content.guardianapis.com/lifeandstyle/wordofmouth/2014/jun/30/potatoes-end-spud-sales-chips-how-do-you-cook", "isHosted": false, "pillarId": "pillar/lifestyle", "pillarName": "Lifestyle"}, {"id": "lifeandstyle/wordofmouth/2014/jun/30/snowballs-cakes-tax-tribunal-marshmallows-sweets", "type": "article", "sectionId": "lifeandstyle", "sectionName": "Life and style", "webPublicationDate": "2014-06-30T10:05:27Z", "webTitle": "Snowballs aren't cakes, and that's a cold hard fact", "webUrl": "https://www.theguardian.com/lifeandstyle/wordofmouth/2014/jun/30/snowballs-cakes-tax-tribunal-marshmallows-sweets", "apiUrl": "https://content.guardianapis.com/lifeandstyle/wordofmouth/2014/jun/30/snowballs-cakes-tax-tribunal-marshmallows-sweets", "isHosted": false, "pillarId": "pillar/lifestyle", "pillarName": "Lifestyle"}, {"id": "lifeandstyle/video/2014/jun/30/let-the-child-go-wild-foraging-on-the-edge-of-europe-video", "type": "video", "sectionId": "lifeandstyle", "sectionName": "Life and style", "webPublicationDate": "2014-06-30T09:30:00Z", "webTitle": "Let the child go wild: foraging on the edge of Europe - video", "webUrl": "https://www.theguardian.com/lifeandstyle/video/2014/jun/30/let-the-child-go-wild-foraging-on-the-edge-of-europe-video", "apiUrl": "https://content.guardianapis.com/lifeandstyle/video/2014/jun/30/let-the-child-go-wild-foraging-on-the-edge-of-europe-video", "isHosted": false, "pillarId": "pillar/lifestyle", "pillarName": "Lifestyle"}, {"id": "world/2014/jun/30/australias-largest-truffle-dug-up-in-southern-highlands-of-nsw", "type": "article", "sectionId": "world", "sectionName": "World news", "webPublicationDate": "2014-06-30T08:23:01Z", "webTitle": "Australia's largest truffle dug up in southern highlands of NSW", "webUrl": "https://www.theguardian.com/world/2014/jun/30/australias-largest-truffle-dug-up-in-southern-highlands-of-nsw", "apiUrl": "https://content.guardianapis.com/world/2014/jun/30/australias-largest-truffle-dug-up-in-southern-highlands-of-nsw", "isHosted": false, "pillarId": "pillar/news", "pillarName": "News"}, {"id": "lifeandstyle/australia-food-blog/2014/jun/30/truffle-kerfuffle-australias-latest-food-export", "type": "article", "sectionId": "lifeandstyle", "sectionName": "Life and style", "webPublicationDate": "2014-06-30T06:42:49Z", "webTitle": "Truffle kerfuffle: Australia's latest food export", "webUrl": "https://www.theguardian.com/lifeandstyle/australia-food-blog/2014/jun/30/truffle-kerfuffle-australias-latest-food-export", "apiUrl": "https://content.guardianapis.com/lifeandstyle/australia-food-blog/2014/jun/30/truffle-kerfuffle-australias-latest-food-export", "isHosted": false, "pillarId": "pillar/lifestyle", "pillarName": "Lifestyle"}, {"id": "sustainable-business/food-blog/romanticising-where-food-comes-from-sustainability", "type": "article", "sectionId": "sustainable-business", "sectionName": "Guardian Sustainable Business", "webPublicationDate": "2014-06-30T06:00:00Z", "webTitle": "It's time to stop romanticising where our food comes from", "webUrl": "https://www.theguardian.com/sustainable-business/food-blog/romanticising-where-food-comes-from-sustainability", "apiUrl": "https://content.guardianapis.com/sustainable-business/food-blog/romanticising-where-food-comes-from-sustainability", "isHosted": false}, {"id": "culture/australia-culture-blog/2014/jun/30/harvest-review-a-flavoursome-but-unfocused-exhibition", "type": "article", "sectionId": "culture", "sectionName": "Culture", "webPublicationDate": "2014-06-30T05:44:52Z", "webTitle": "Harvest review \u2014 a flavoursome but unfocused exhibition", "webUrl": "https://www.theguardian.com/culture/australia-culture-blog/2014/jun/30/harvest-review-a-flavoursome-but-unfocused-exhibition", "apiUrl": "https://content.guardianapis.com/culture/australia-culture-blog/2014/jun/30/harvest-review-a-flavoursome-but-unfocused-exhibition", "isHosted": false, "pillarId": "pillar/arts", "pillarName": "Arts"}, {"id": "business/2014/jun/29/potato-blight-spud-sales-fall-growing-taste-rice", "type": "article", "sectionId": "business", "sectionName": "Business", "webPublicationDate": "2014-06-29T17:16:35Z", "webTitle": "Potato blight: sales of spuds slump due to growing taste for rice", "webUrl": "https://www.theguardian.com/business/2014/jun/29/potato-blight-spud-sales-fall-growing-taste-rice", "apiUrl": "https://content.guardianapis.com/business/2014/jun/29/potato-blight-spud-sales-fall-growing-taste-rice", "isHosted": false, "pillarId": "pillar/news", "pillarName": "News"}, {"id": "travel/2014/jun/29/wine-tour-of-sicily", "type": "article", "sectionId": "travel", "sectionName": "Travel", "webPublicationDate": "2014-06-29T06:00:00Z", "webTitle": "Vintage Sicily: a wine tour of the island", "webUrl": "https://www.theguardian.com/travel/2014/jun/29/wine-tour-of-sicily", "apiUrl": "https://content.guardianapis.com/travel/2014/jun/29/wine-tour-of-sicily", "isHosted": false, "pillarId": "pillar/lifestyle", "pillarName": "Lifestyle"}, {"id": "lifeandstyle/2014/jun/29/wines-of-week-trio-of-beaujolais", "type": "article", "sectionId": "food", "sectionName": "Food", "webPublicationDate": "2014-06-29T05:00:05Z", "webTitle": "Wines of the week: a trio of Beaujolais | David Williams", "webUrl": "https://www.theguardian.com/lifeandstyle/2014/jun/29/wines-of-week-trio-of-beaujolais", "apiUrl": "https://content.guardianapis.com/lifeandstyle/2014/jun/29/wines-of-week-trio-of-beaujolais", "isHosted": false, "pillarId": "pillar/lifestyle", "pillarName": "Lifestyle"}, {"id": "lifeandstyle/2014/jun/29/city-social-restaurant-review-jay-rayner", "type": "article", "sectionId": "food", "sectionName": "Food", "webPublicationDate": "2014-06-29T05:00:03Z", "webTitle": "City Social: restaurant review | Jay Rayner", "webUrl": "https://www.theguardian.com/lifeandstyle/2014/jun/29/city-social-restaurant-review-jay-rayner", "apiUrl": "https://content.guardianapis.com/lifeandstyle/2014/jun/29/city-social-restaurant-review-jay-rayner", "isHosted": false, "pillarId": "pillar/lifestyle", "pillarName": "Lifestyle"}, {"id": "lifeandstyle/2014/jun/28/wine-to-drink-at-barbecues-fiona-beckett", "type": "article", "sectionId": "food", "sectionName": "Food", "webPublicationDate": "2014-06-28T08:00:02Z", "webTitle": "Wine: the best bottles for barbecues", "webUrl": "https://www.theguardian.com/lifeandstyle/2014/jun/28/wine-to-drink-at-barbecues-fiona-beckett", "apiUrl": "https://content.guardianapis.com/lifeandstyle/2014/jun/28/wine-to-drink-at-barbecues-fiona-beckett", "isHosted": false, "pillarId": "pillar/lifestyle", "pillarName": "Lifestyle"}, {"id": "lifeandstyle/2014/jun/28/pizza-delivery-man-really-thinking", "type": "article", "sectionId": "lifeandstyle", "sectionName": "Life and style", "webPublicationDate": "2014-06-28T07:00:00Z", "webTitle": "What I'm really thinking: the pizza delivery man", "webUrl": "https://www.theguardian.com/lifeandstyle/2014/jun/28/pizza-delivery-man-really-thinking", "apiUrl": "https://content.guardianapis.com/lifeandstyle/2014/jun/28/pizza-delivery-man-really-thinking", "isHosted": false, "pillarId": "pillar/lifestyle", "pillarName": "Lifestyle"}, {"id": "lifeandstyle/2014/jun/28/homemade-tent-billy-bragg-cheese-straws", "type": "article", "sectionId": "lifeandstyle", "sectionName": "Life and style", "webPublicationDate": "2014-06-28T06:45:00Z", "webTitle": "Family life: Mum's homemade tent, Tank Park Salute by Billy Bragg and Nan's cheese straws", "webUrl": "https://www.theguardian.com/lifeandstyle/2014/jun/28/homemade-tent-billy-bragg-cheese-straws", "apiUrl": "https://content.guardianapis.com/lifeandstyle/2014/jun/28/homemade-tent-billy-bragg-cheese-straws", "isHosted": false, "pillarId": "pillar/lifestyle", "pillarName": "Lifestyle"}, {"id": "lifeandstyle/2014/jun/28/oyster-soup-beef-shin-panna-cotta-recipe-tom-kerridge", "type": "article", "sectionId": "lifeandstyle", "sectionName": "Life and style", "webPublicationDate": "2014-06-28T06:00:00Z", "webTitle": "Fresh and seasonal: recipes from the Garden of England | Tom Kerridge", "webUrl": "https://www.theguardian.com/lifeandstyle/2014/jun/28/oyster-soup-beef-shin-panna-cotta-recipe-tom-kerridge", "apiUrl": "https://content.guardianapis.com/lifeandstyle/2014/jun/28/oyster-soup-beef-shin-panna-cotta-recipe-tom-kerridge", "isHosted": false, "pillarId": "pillar/lifestyle", "pillarName": "Lifestyle"}, {"id": "lifeandstyle/2014/jun/28/bill-or-beak-street-kerb-kings-cross-food-stall-behind-the-scenes", "type": "article", "sectionId": "lifeandstyle", "sectionName": "Life and style", "webPublicationDate": "2014-06-28T06:00:00Z", "webTitle": "Behind the scenes with Bill or Beak street food | Behind the scenes", "webUrl": "https://www.theguardian.com/lifeandstyle/2014/jun/28/bill-or-beak-street-kerb-kings-cross-food-stall-behind-the-scenes", "apiUrl": "https://content.guardianapis.com/lifeandstyle/2014/jun/28/bill-or-beak-street-kerb-kings-cross-food-stall-behind-the-scenes", "isHosted": false, "pillarId": "pillar/lifestyle", "pillarName": "Lifestyle"}, {"id": "lifeandstyle/2014/jun/28/how-to-grow-your-own-fennel", "type": "article", "sectionId": "food", "sectionName": "Food", "webPublicationDate": "2014-06-28T06:00:00Z", "webTitle": "How to grow your own fennel | Phil Daoust", "webUrl": "https://www.theguardian.com/lifeandstyle/2014/jun/28/how-to-grow-your-own-fennel", "apiUrl": "https://content.guardianapis.com/lifeandstyle/2014/jun/28/how-to-grow-your-own-fennel", "isHosted": false, "pillarId": "pillar/lifestyle", "pillarName": "Lifestyle"}, {"id": "lifeandstyle/2014/jun/28/picnic-bhaji-cornbread-empanada-recipes-readers-recipe-swap", "type": "article", "sectionId": "lifeandstyle", "sectionName": "Life and style", "webPublicationDate": "2014-06-28T06:00:00Z", "webTitle": "Readers' recipe swap: Picnics | Felicity Cloake", "webUrl": "https://www.theguardian.com/lifeandstyle/2014/jun/28/picnic-bhaji-cornbread-empanada-recipes-readers-recipe-swap", "apiUrl": "https://content.guardianapis.com/lifeandstyle/2014/jun/28/picnic-bhaji-cornbread-empanada-recipes-readers-recipe-swap", "isHosted": false, "pillarId": "pillar/lifestyle", "pillarName": "Lifestyle"}, {"id": "lifeandstyle/2014/jun/28/chocolate-stout-pudding-apple-ginger-cake-recipe-ruby-tandoh", "type": "article", "sectionId": "lifeandstyle", "sectionName": "Life and style", "webPublicationDate": "2014-06-28T05:59:00Z", "webTitle": "Making dessert using stout | Ruby Tandoh", "webUrl": "https://www.theguardian.com/lifeandstyle/2014/jun/28/chocolate-stout-pudding-apple-ginger-cake-recipe-ruby-tandoh", "apiUrl": "https://content.guardianapis.com/lifeandstyle/2014/jun/28/chocolate-stout-pudding-apple-ginger-cake-recipe-ruby-tandoh", "isHosted": false, "pillarId": "pillar/lifestyle", "pillarName": "Lifestyle"}, {"id": "lifeandstyle/2014/jun/28/10-best-barbecue-recipes-bbq", "type": "article", "sectionId": "lifeandstyle", "sectionName": "Life and style", "webPublicationDate": "2014-06-28T05:59:00Z", "webTitle": "Our 10 best barbecue recipes", "webUrl": "https://www.theguardian.com/lifeandstyle/2014/jun/28/10-best-barbecue-recipes-bbq", "apiUrl": "https://content.guardianapis.com/lifeandstyle/2014/jun/28/10-best-barbecue-recipes-bbq", "isHosted": false, "pillarId": "pillar/lifestyle", "pillarName": "Lifestyle"}, {"id": "lifeandstyle/2014/jun/27/chiltern-firehouse-restaurant-review-marina-oloughlin", "type": "article", "sectionId": "lifeandstyle", "sectionName": "Life and style", "webPublicationDate": "2014-06-27T20:00:00Z", "webTitle": "Chiltern Firehouse, London \u2013 restaurant review | Marina O'Loughlin", "webUrl": "https://www.theguardian.com/lifeandstyle/2014/jun/27/chiltern-firehouse-restaurant-review-marina-oloughlin", "apiUrl": "https://content.guardianapis.com/lifeandstyle/2014/jun/27/chiltern-firehouse-restaurant-review-marina-oloughlin", "isHosted": false, "pillarId": "pillar/lifestyle", "pillarName": "Lifestyle"}, {"id": "lifeandstyle/2014/jun/27/vegetarian-barbecue-recipes-mary-ellen-mctague", "type": "article", "sectionId": "lifeandstyle", "sectionName": "Life and style", "webPublicationDate": "2014-06-27T19:59:00Z", "webTitle": "Look, no meat: Mary-Ellen McTague's vegetarian and vegan barbecue recipes", "webUrl": "https://www.theguardian.com/lifeandstyle/2014/jun/27/vegetarian-barbecue-recipes-mary-ellen-mctague", "apiUrl": "https://content.guardianapis.com/lifeandstyle/2014/jun/27/vegetarian-barbecue-recipes-mary-ellen-mctague", "isHosted": false, "pillarId": "pillar/lifestyle", "pillarName": "Lifestyle"}, {"id": "lifeandstyle/2014/jun/27/sustainable-blog-of-the-week-the-flexitarian", "type": "article", "sectionId": "lifeandstyle", "sectionName": "Life and style", "webPublicationDate": "2014-06-27T11:38:11Z", "webTitle": "Sustainable blog of the week: The Flexitarian", "webUrl": "https://www.theguardian.com/lifeandstyle/2014/jun/27/sustainable-blog-of-the-week-the-flexitarian", "apiUrl": "https://content.guardianapis.com/lifeandstyle/2014/jun/27/sustainable-blog-of-the-week-the-flexitarian", "isHosted": false, "pillarId": "pillar/lifestyle", "pillarName": "Lifestyle"}, {"id": "lifeandstyle/2014/jun/27/dairy-free-ice-cream-recipe-chocolate-prune-brandy", "type": "article", "sectionId": "lifeandstyle", "sectionName": "Life and style", "webPublicationDate": "2014-06-27T11:30:00Z", "webTitle": "Dairy-free prune, brandy and chocolate ice-cream recipe | Just as tasty", "webUrl": "https://www.theguardian.com/lifeandstyle/2014/jun/27/dairy-free-ice-cream-recipe-chocolate-prune-brandy", "apiUrl": "https://content.guardianapis.com/lifeandstyle/2014/jun/27/dairy-free-ice-cream-recipe-chocolate-prune-brandy", "isHosted": false, "pillarId": "pillar/lifestyle", "pillarName": "Lifestyle"}, {"id": "lifeandstyle/2014/jun/27/fruit-strawberries-raspberries-blackberries-gratin-recipe-dimbleby", "type": "article", "sectionId": "lifeandstyle", "sectionName": "Life and style", "webPublicationDate": "2014-06-27T11:30:00Z", "webTitle": "The sweet science of baking with fruit | Back to basics", "webUrl": "https://www.theguardian.com/lifeandstyle/2014/jun/27/fruit-strawberries-raspberries-blackberries-gratin-recipe-dimbleby", "apiUrl": "https://content.guardianapis.com/lifeandstyle/2014/jun/27/fruit-strawberries-raspberries-blackberries-gratin-recipe-dimbleby", "isHosted": false, "pillarId": "pillar/lifestyle", "pillarName": "Lifestyle"}, {"id": "lifeandstyle/2014/jun/27/amanda-hesser-final-meal-last-bites-oysters-lobster-bubbly", "type": "article", "sectionId": "lifeandstyle", "sectionName": "Life and style", "webPublicationDate": "2014-06-27T11:30:00Z", "webTitle": "Amanda Hesser's final meal | Last bites", "webUrl": "https://www.theguardian.com/lifeandstyle/2014/jun/27/amanda-hesser-final-meal-last-bites-oysters-lobster-bubbly", "apiUrl": "https://content.guardianapis.com/lifeandstyle/2014/jun/27/amanda-hesser-final-meal-last-bites-oysters-lobster-bubbly", "isHosted": false, "pillarId": "pillar/lifestyle", "pillarName": "Lifestyle"}, {"id": "lifeandstyle/2014/jun/27/bored-with-salad-the-willy-wonka-of-edible-leaves-offers-help", "type": "article", "sectionId": "lifeandstyle", "sectionName": "Life and style", "webPublicationDate": "2014-06-27T11:10:57Z", "webTitle": "Bored with salad? The Willy Wonka of  edible leaves offers help", "webUrl": "https://www.theguardian.com/lifeandstyle/2014/jun/27/bored-with-salad-the-willy-wonka-of-edible-leaves-offers-help", "apiUrl": "https://content.guardianapis.com/lifeandstyle/2014/jun/27/bored-with-salad-the-willy-wonka-of-edible-leaves-offers-help", "isHosted": false, "pillarId": "pillar/lifestyle", "pillarName": "Lifestyle"}, {"id": "lifeandstyle/2014/jun/27/red-camargue-rice-mint-almonds-recipe-salad", "type": "article", "sectionId": "food", "sectionName": "Food", "webPublicationDate": "2014-06-27T09:00:00Z", "webTitle": "Red Camargue rice with mint and almonds \u2013 recipe", "webUrl": "https://www.theguardian.com/lifeandstyle/2014/jun/27/red-camargue-rice-mint-almonds-recipe-salad", "apiUrl": "https://content.guardianapis.com/lifeandstyle/2014/jun/27/red-camargue-rice-mint-almonds-recipe-salad", "isHosted": false, "pillarId": "pillar/lifestyle", "pillarName": "Lifestyle"}, {"id": "lifeandstyle/2014/jun/27/how-to-make-gooseberry-snow-recipe", "type": "article", "sectionId": "lifeandstyle", "sectionName": "Life and style", "webPublicationDate": "2014-06-27T09:00:00Z", "webTitle": "How to make gooseberry snow \u2013 recipe", "webUrl": "https://www.theguardian.com/lifeandstyle/2014/jun/27/how-to-make-gooseberry-snow-recipe", "apiUrl": "https://content.guardianapis.com/lifeandstyle/2014/jun/27/how-to-make-gooseberry-snow-recipe", "isHosted": false, "pillarId": "pillar/lifestyle", "pillarName": "Lifestyle"}, {"id": "film/2014/jun/26/chef-jon-favreau-film-review", "type": "article", "sectionId": "film", "sectionName": "Film", "webPublicationDate": "2014-06-26T21:10:00Z", "webTitle": "Chef review \u2013 making toasties in a van", "webUrl": "https://www.theguardian.com/film/2014/jun/26/chef-jon-favreau-film-review", "apiUrl": "https://content.guardianapis.com/film/2014/jun/26/chef-jon-favreau-film-review", "isHosted": false, "pillarId": "pillar/arts", "pillarName": "Arts"}, {"id": "commentisfree/2014/jun/26/end-sugar-rush-tackle-obesity-crisis", "type": "article", "sectionId": "commentisfree", "sectionName": "Opinion", "webPublicationDate": "2014-06-26T18:56:37Z", "webTitle": "End this sugar rush \u2013 it's the only way to tackle the obesity crisis | Simon Capewell", "webUrl": "https://www.theguardian.com/commentisfree/2014/jun/26/end-sugar-rush-tackle-obesity-crisis", "apiUrl": "https://content.guardianapis.com/commentisfree/2014/jun/26/end-sugar-rush-tackle-obesity-crisis", "isHosted": false, "pillarId": "pillar/opinion", "pillarName": "Opinion"}, {"id": "society/2014/jun/26/limit-sugar-intake-one-can-soft-drink-advisers", "type": "article", "sectionId": "society", "sectionName": "Society", "webPublicationDate": "2014-06-26T15:44:59Z", "webTitle": "Limit sugar intake to equivalent of one can of soft drink a day, say advisers", "webUrl": "https://www.theguardian.com/society/2014/jun/26/limit-sugar-intake-one-can-soft-drink-advisers", "apiUrl": "https://content.guardianapis.com/society/2014/jun/26/limit-sugar-intake-one-can-soft-drink-advisers", "isHosted": false, "pillarId": "pillar/news", "pillarName": "News"}, {"id": "world/2014/jun/26/california-sip-and-spit-wine-bill", "type": "article", "sectionId": "world", "sectionName": "World news", "webPublicationDate": "2014-06-26T14:00:14Z", "webTitle": "California introduces 'sip and spit' bill so wine students can taste the bouquet", "webUrl": "https://www.theguardian.com/world/2014/jun/26/california-sip-and-spit-wine-bill", "apiUrl": "https://content.guardianapis.com/world/2014/jun/26/california-sip-and-spit-wine-bill", "isHosted": false, "pillarId": "pillar/news", "pillarName": "News"}, {"id": "world/2014/jun/26/north-korean-restaurants-springing-up-around-asia-to-raise-money-for-regime", "type": "article", "sectionId": "world", "sectionName": "World news", "webPublicationDate": "2014-06-26T12:22:44Z", "webTitle": "North Korean restaurants springing up around Asia to raise money for regime", "webUrl": "https://www.theguardian.com/world/2014/jun/26/north-korean-restaurants-springing-up-around-asia-to-raise-money-for-regime", "apiUrl": "https://content.guardianapis.com/world/2014/jun/26/north-korean-restaurants-springing-up-around-asia-to-raise-money-for-regime", "isHosted": false, "pillarId": "pillar/news", "pillarName": "News"}, {"id": "travel/2014/jun/26/10-of-the-best-restaurants-cafes-in-lisbon", "type": "article", "sectionId": "travel", "sectionName": "Travel", "webPublicationDate": "2014-06-26T11:49:00Z", "webTitle": "10 of the best restaurants and cafes in Lisbon", "webUrl": "https://www.theguardian.com/travel/2014/jun/26/10-of-the-best-restaurants-cafes-in-lisbon", "apiUrl": "https://content.guardianapis.com/travel/2014/jun/26/10-of-the-best-restaurants-cafes-in-lisbon", "isHosted": false, "pillarId": "pillar/lifestyle", "pillarName": "Lifestyle"}, {"id": "commentisfree/2014/jun/26/government-bad-health-policies-drink-water-juice", "type": "article", "sectionId": "commentisfree", "sectionName": "Opinion", "webPublicationDate": "2014-06-26T10:32:10Z", "webTitle": "Note to the government: you can't switch off bad health like a tap | Anne Perkins", "webUrl": "https://www.theguardian.com/commentisfree/2014/jun/26/government-bad-health-policies-drink-water-juice", "apiUrl": "https://content.guardianapis.com/commentisfree/2014/jun/26/government-bad-health-policies-drink-water-juice", "isHosted": false, "pillarId": "pillar/opinion", "pillarName": "Opinion"}, {"id": "lifeandstyle/wordofmouth/2014/jun/26/how-make-perfect-saag-paneer-vegetarian-indian", "type": "article", "sectionId": "food", "sectionName": "Food", "webPublicationDate": "2014-06-26T09:28:00Z", "webTitle": "How to make the perfect saag paneer", "webUrl": "https://www.theguardian.com/lifeandstyle/wordofmouth/2014/jun/26/how-make-perfect-saag-paneer-vegetarian-indian", "apiUrl": "https://content.guardianapis.com/lifeandstyle/wordofmouth/2014/jun/26/how-make-perfect-saag-paneer-vegetarian-indian", "isHosted": false, "pillarId": "pillar/lifestyle", "pillarName": "Lifestyle"}, {"id": "lifeandstyle/2014/jun/26/prawn-noodle-salad-recipe-lunch-thai", "type": "article", "sectionId": "food", "sectionName": "Food", "webPublicationDate": "2014-06-26T09:00:00Z", "webTitle": "Prawn noodle salad \u2013 recipe", "webUrl": "https://www.theguardian.com/lifeandstyle/2014/jun/26/prawn-noodle-salad-recipe-lunch-thai", "apiUrl": "https://content.guardianapis.com/lifeandstyle/2014/jun/26/prawn-noodle-salad-recipe-lunch-thai", "isHosted": false, "pillarId": "pillar/lifestyle", "pillarName": "Lifestyle"}, {"id": "lifeandstyle/2014/jun/26/how-to-invent-local-food-culture", "type": "article", "sectionId": "food", "sectionName": "Food", "webPublicationDate": "2014-06-26T07:00:00Z", "webTitle": "How to invent a local food culture", "webUrl": "https://www.theguardian.com/lifeandstyle/2014/jun/26/how-to-invent-local-food-culture", "apiUrl": "https://content.guardianapis.com/lifeandstyle/2014/jun/26/how-to-invent-local-food-culture", "isHosted": false, "pillarId": "pillar/lifestyle", "pillarName": "Lifestyle"}, {"id": "lifeandstyle/2014/jun/25/water-table-stop-fizzy-drinks-nutrition-experts-families", "type": "article", "sectionId": "lifeandstyle", "sectionName": "Life and style", "webPublicationDate": "2014-06-25T16:14:15Z", "webTitle": "Put water on table and stop buying fizzy drinks, nutrition experts tell families", "webUrl": "https://www.theguardian.com/lifeandstyle/2014/jun/25/water-table-stop-fizzy-drinks-nutrition-experts-families", "apiUrl": "https://content.guardianapis.com/lifeandstyle/2014/jun/25/water-table-stop-fizzy-drinks-nutrition-experts-families", "isHosted": false, "pillarId": "pillar/lifestyle", "pillarName": "Lifestyle"}, {"id": "travel/2014/jun/25/noma-restaurant-garden-buffer-zone", "type": "article", "sectionId": "travel", "sectionName": "Travel", "webPublicationDate": "2014-06-25T11:25:00Z", "webTitle": "Noma restaurant creates garden as buffer zone against gawkers", "webUrl": "https://www.theguardian.com/travel/2014/jun/25/noma-restaurant-garden-buffer-zone", "apiUrl": "https://content.guardianapis.com/travel/2014/jun/25/noma-restaurant-garden-buffer-zone", "isHosted": false, "pillarId": "pillar/lifestyle", "pillarName": "Lifestyle"}, {"id": "lifeandstyle/2014/jun/25/jack-monroe-pork-black-bean-feijoada-recipe", "type": "article", "sectionId": "lifeandstyle", "sectionName": "Life and style", "webPublicationDate": "2014-06-25T10:39:17Z", "webTitle": "Jack Monroe's pork and black bean feijoada recipe", "webUrl": "https://www.theguardian.com/lifeandstyle/2014/jun/25/jack-monroe-pork-black-bean-feijoada-recipe", "apiUrl": "https://content.guardianapis.com/lifeandstyle/2014/jun/25/jack-monroe-pork-black-bean-feijoada-recipe", "isHosted": false, "pillarId": "pillar/lifestyle", "pillarName": "Lifestyle"}, {"id": "lifeandstyle/2014/jun/25/lamb-buns-lunch-recipe", "type": "article", "sectionId": "food", "sectionName": "Food", "webPublicationDate": "2014-06-25T09:45:00Z", "webTitle": "Spiced lamb buns \u2013 recipe", "webUrl": "https://www.theguardian.com/lifeandstyle/2014/jun/25/lamb-buns-lunch-recipe", "apiUrl": "https://content.guardianapis.com/lifeandstyle/2014/jun/25/lamb-buns-lunch-recipe", "isHosted": false, "pillarId": "pillar/lifestyle", "pillarName": "Lifestyle"}, {"id": "tv-and-radio/australia-culture-blog/2014/jun/25/kitchens-enfant-terrible-marco-pierre-white-descends-on-masterchef", "type": "article", "sectionId": "tv-and-radio", "sectionName": "Television & radio", "webPublicationDate": "2014-06-25T08:00:14Z", "webTitle": "Kitchen's enfant terrible Marco Pierre White descends on MasterChef", "webUrl": "https://www.theguardian.com/tv-and-radio/australia-culture-blog/2014/jun/25/kitchens-enfant-terrible-marco-pierre-white-descends-on-masterchef", "apiUrl": "https://content.guardianapis.com/tv-and-radio/australia-culture-blog/2014/jun/25/kitchens-enfant-terrible-marco-pierre-white-descends-on-masterchef", "isHosted": false, "pillarId": "pillar/arts", "pillarName": "Arts"}, {"id": "lifeandstyle/australia-food-blog/2014/jun/25/peak-froyo-10-memorable-australian-food-trends", "type": "article", "sectionId": "lifeandstyle", "sectionName": "Life and style", "webPublicationDate": "2014-06-25T02:16:37Z", "webTitle": "Peak froyo: 10 memorable Australian food trends", "webUrl": "https://www.theguardian.com/lifeandstyle/australia-food-blog/2014/jun/25/peak-froyo-10-memorable-australian-food-trends", "apiUrl": "https://content.guardianapis.com/lifeandstyle/australia-food-blog/2014/jun/25/peak-froyo-10-memorable-australian-food-trends", "isHosted": false, "pillarId": "pillar/lifestyle", "pillarName": "Lifestyle"}, {"id": "lifeandstyle/australia-food-blog/2014/jun/25/hey-hipsters-hands-off-my-flat-white", "type": "article", "sectionId": "lifeandstyle", "sectionName": "Life and style", "webPublicationDate": "2014-06-25T01:09:32Z", "webTitle": "Hey hipsters, hands off my flat white", "webUrl": "https://www.theguardian.com/lifeandstyle/australia-food-blog/2014/jun/25/hey-hipsters-hands-off-my-flat-white", "apiUrl": "https://content.guardianapis.com/lifeandstyle/australia-food-blog/2014/jun/25/hey-hipsters-hands-off-my-flat-white", "isHosted": false, "pillarId": "pillar/lifestyle", "pillarName": "Lifestyle"}, {"id": "uk-news/the-northerner/2014/jun/24/otley-pubs-translate-their-names-into-french-tour-de-france-yorkshire-2014", "type": "article", "sectionId": "uk-news", "sectionName": "UK news", "webPublicationDate": "2014-06-24T15:38:49Z", "webTitle": "Bienvenue dans le Yorkshire! Voulez-vous une bi\u00e8re au Lion Rouge?", "webUrl": "https://www.theguardian.com/uk-news/the-northerner/2014/jun/24/otley-pubs-translate-their-names-into-french-tour-de-france-yorkshire-2014", "apiUrl": "https://content.guardianapis.com/uk-news/the-northerner/2014/jun/24/otley-pubs-translate-their-names-into-french-tour-de-france-yorkshire-2014", "isHosted": false, "pillarId": "pillar/news", "pillarName": "News"}, {"id": "sport/2014/jun/24/wimbledon-security-confiscates-vacuum-flasks-tennis-fans-terrorism-threats", "type": "article", "sectionId": "sport", "sectionName": "Sport", "webPublicationDate": "2014-06-24T14:53:59Z", "webTitle": "Wimbledon security confiscates vacuum flasks from tennis fans", "webUrl": "https://www.theguardian.com/sport/2014/jun/24/wimbledon-security-confiscates-vacuum-flasks-tennis-fans-terrorism-threats", "apiUrl": "https://content.guardianapis.com/sport/2014/jun/24/wimbledon-security-confiscates-vacuum-flasks-tennis-fans-terrorism-threats", "isHosted": false, "pillarId": "pillar/sport", "pillarName": "Sport"}, {"id": "lifeandstyle/2014/jun/24/20-recipe-ideas-for-leftover-fizzy-drinks", "type": "article", "sectionId": "lifeandstyle", "sectionName": "Life and style", "webPublicationDate": "2014-06-24T12:26:30Z", "webTitle": "20 recipe ideas for leftover fizzy drinks", "webUrl": "https://www.theguardian.com/lifeandstyle/2014/jun/24/20-recipe-ideas-for-leftover-fizzy-drinks", "apiUrl": "https://content.guardianapis.com/lifeandstyle/2014/jun/24/20-recipe-ideas-for-leftover-fizzy-drinks", "isHosted": false, "pillarId": "pillar/lifestyle", "pillarName": "Lifestyle"}, {"id": "lifeandstyle/2014/jun/24/aubergine-tagine-bulgar-wheat-pilaf-lunch-recipe", "type": "article", "sectionId": "food", "sectionName": "Food", "webPublicationDate": "2014-06-24T09:00:00Z", "webTitle": "Aubergine tagine with bulgar wheat pilaf \u2013 recipe", "webUrl": "https://www.theguardian.com/lifeandstyle/2014/jun/24/aubergine-tagine-bulgar-wheat-pilaf-lunch-recipe", "apiUrl": "https://content.guardianapis.com/lifeandstyle/2014/jun/24/aubergine-tagine-bulgar-wheat-pilaf-lunch-recipe", "isHosted": false, "pillarId": "pillar/lifestyle", "pillarName": "Lifestyle"}]}}