{"response": {"status": "ok", "userTier": "developer", "total": 17774, "startIndex": 1, "pageSize": 50, "currentPage": 1, "pages": 356, "orderBy": "newest", "results": [{"id": "lifeandstyle/2012/jul/01/jay-rayner-whitelocks-restaurant-review", "type": "article", "sectionId": "food", "sectionName": "Food", "webPublicationDate": "2012-06-30T23:07:00Z", "webTitle": "Restaurant review: Whitelock's, Leeds", "webUrl": "https://www.theguardian.com/lifeandstyle/2012/jul/01/jay-rayner-whitelocks-restaurant-review", "apiUrl": "https://content.guardianapis.com/lifeandstyle/2012/jul/01/jay-rayner-whitelocks-restaurant-review", "isHosted": false, "pillarId": "pillar/lifestyle", "pillarName": "Lifestyle"}, {"id": "lifeandstyle/2012/jul/01/wines-of-the-week-david-williams", "type": "article", "sectionId": "food", "sectionName": "Food", "webPublicationDate": "2012-06-30T23:04:01Z", "webTitle": "Wines of the week: David Williams", "webUrl": "https://www.theguardian.com/lifeandstyle/2012/jul/01/wines-of-the-week-david-williams", "apiUrl": "https://content.guardianapis.com/lifeandstyle/2012/jul/01/wines-of-the-week-david-williams", "isHosted": false, "pillarId": "pillar/lifestyle", "pillarName": "Lifestyle"}, {"id": "lifeandstyle/2012/jun/30/california-foie-gras-off-menu", "type": "article", "sectionId": "food", "sectionName": "Food", "webPublicationDate": "2012-06-30T16:18:00Z", "webTitle": "California takes foie gras off the menu, but some chefs say ban is a bit rich", "webUrl": "https://www.theguardian.com/lifeandstyle/2012/jun/30/california-foie-gras-off-menu", "apiUrl": "https://content.guardianapis.com/lifeandstyle/2012/jun/30/california-foie-gras-off-menu", "isHosted": false, "pillarId": "pillar/lifestyle", "pillarName": "Lifestyle"}, {"id": "lifeandstyle/2012/jun/29/easy-drinking-everyday-french-red-wine", "type": "article", "sectionId": "food", "sectionName": "Food", "webPublicationDate": "2012-06-29T21:59:09Z", "webTitle": "Wine: easy-drinking everyday French reds", "webUrl": "https://www.theguardian.com/lifeandstyle/2012/jun/29/easy-drinking-everyday-french-red-wine", "apiUrl": "https://content.guardianapis.com/lifeandstyle/2012/jun/29/easy-drinking-everyday-french-red-wine", "isHosted": false, "pillarId": "pillar/lifestyle", "pillarName": "Lifestyle"}, {"id": "lifeandstyle/2012/jun/29/choux-buns-recipe-crab-cakes", "type": "article", "sectionId": "food", "sectionName": "Food", "webPublicationDate": "2012-06-29T21:59:03Z", "webTitle": "Spring onion and chilli buns recipe, plus crab, bulgur and sumac cakes", "webUrl": "https://www.theguardian.com/lifeandstyle/2012/jun/29/choux-buns-recipe-crab-cakes", "apiUrl": "https://content.guardianapis.com/lifeandstyle/2012/jun/29/choux-buns-recipe-crab-cakes", "isHosted": false, "pillarId": "pillar/lifestyle", "pillarName": "Lifestyle"}, {"id": "lifeandstyle/2012/jun/29/iced-summer-charlotte-savoiardi-recipe", "type": "article", "sectionId": "lifeandstyle", "sectionName": "Life and style", "webPublicationDate": "2012-06-29T21:59:02Z", "webTitle": "Iced summer charlotte recipe, plus savoiardi biscuits | Dan Lepard", "webUrl": "https://www.theguardian.com/lifeandstyle/2012/jun/29/iced-summer-charlotte-savoiardi-recipe", "apiUrl": "https://content.guardianapis.com/lifeandstyle/2012/jun/29/iced-summer-charlotte-savoiardi-recipe", "isHosted": false, "pillarId": "pillar/lifestyle", "pillarName": "Lifestyle"}, {"id": "lifeandstyle/2012/jun/29/gooseberry-recipes-hugh-fearnley-whittingstall", "type": "article", "sectionId": "lifeandstyle", "sectionName": "Life and style", "webPublicationDate": "2012-06-29T21:59:00Z", "webTitle": "Gooseberry recipes | Hugh Fearnley-Whittingstall", "webUrl": "https://www.theguardian.com/lifeandstyle/2012/jun/29/gooseberry-recipes-hugh-fearnley-whittingstall", "apiUrl": "https://content.guardianapis.com/lifeandstyle/2012/jun/29/gooseberry-recipes-hugh-fearnley-whittingstall", "isHosted": false, "pillarId": "pillar/lifestyle", "pillarName": "Lifestyle"}, {"id": "lifeandstyle/2012/jun/29/tramshed-london-hix-restaurant-review", "type": "article", "sectionId": "lifeandstyle", "sectionName": "Life and style", "webPublicationDate": "2012-06-29T21:59:00Z", "webTitle": "Restaurants: Tramshed, London EC2", "webUrl": "https://www.theguardian.com/lifeandstyle/2012/jun/29/tramshed-london-hix-restaurant-review", "apiUrl": "https://content.guardianapis.com/lifeandstyle/2012/jun/29/tramshed-london-hix-restaurant-review", "isHosted": false, "pillarId": "pillar/lifestyle", "pillarName": "Lifestyle"}, {"id": "lifeandstyle/2012/jun/29/alternative-culinary-herbs-mark-diacono", "type": "article", "sectionId": "lifeandstyle", "sectionName": "Life and style", "webPublicationDate": "2012-06-29T21:59:00Z", "webTitle": "Gardens: culinary herbs \u2013 but not the usual suspects | Mark Diacono", "webUrl": "https://www.theguardian.com/lifeandstyle/2012/jun/29/alternative-culinary-herbs-mark-diacono", "apiUrl": "https://content.guardianapis.com/lifeandstyle/2012/jun/29/alternative-culinary-herbs-mark-diacono", "isHosted": false, "pillarId": "pillar/lifestyle", "pillarName": "Lifestyle"}, {"id": "lifeandstyle/wordofmouth/2012/jun/29/cocktails-with-dinner", "type": "article", "sectionId": "food", "sectionName": "Food", "webPublicationDate": "2012-06-29T09:00:00Z", "webTitle": "Cocktails with dinner?", "webUrl": "https://www.theguardian.com/lifeandstyle/wordofmouth/2012/jun/29/cocktails-with-dinner", "apiUrl": "https://content.guardianapis.com/lifeandstyle/wordofmouth/2012/jun/29/cocktails-with-dinner", "isHosted": false, "pillarId": "pillar/lifestyle", "pillarName": "Lifestyle"}, {"id": "money/work-blog/2012/jun/28/beans-coffee-drink-high-achievers", "type": "article", "sectionId": "money", "sectionName": "Money", "webPublicationDate": "2012-06-28T14:46:27Z", "webTitle": "Full of beans: is coffee really the drink of high achievers?", "webUrl": "https://www.theguardian.com/money/work-blog/2012/jun/28/beans-coffee-drink-high-achievers", "apiUrl": "https://content.guardianapis.com/money/work-blog/2012/jun/28/beans-coffee-drink-high-achievers", "isHosted": false, "pillarId": "pillar/lifestyle", "pillarName": "Lifestyle"}, {"id": "commentisfree/video/2012/jun/28/david-mitchell-soapbox-buttons-video", "type": "video", "sectionId": "commentisfree", "sectionName": "Opinion", "webPublicationDate": "2012-06-28T09:48:00Z", "webTitle": "David Mitchell's Soapbox: 'I'm ready-to-order' buttons in restaurants \u2013 video", "webUrl": "https://www.theguardian.com/commentisfree/video/2012/jun/28/david-mitchell-soapbox-buttons-video", "apiUrl": "https://content.guardianapis.com/commentisfree/video/2012/jun/28/david-mitchell-soapbox-buttons-video", "isHosted": false, "pillarId": "pillar/opinion", "pillarName": "Opinion"}, {"id": "lifeandstyle/wordofmouth/2012/jun/28/how-to-cook-perfect-american-pancakes", "type": "article", "sectionId": "food", "sectionName": "Food", "webPublicationDate": "2012-06-27T23:10:00Z", "webTitle": "How to cook perfect American pancakes", "webUrl": "https://www.theguardian.com/lifeandstyle/wordofmouth/2012/jun/28/how-to-cook-perfect-american-pancakes", "apiUrl": "https://content.guardianapis.com/lifeandstyle/wordofmouth/2012/jun/28/how-to-cook-perfect-american-pancakes", "isHosted": false, "pillarId": "pillar/lifestyle", "pillarName": "Lifestyle"}, {"id": "lifeandstyle/2012/jun/27/people-power-way-buy-food", "type": "article", "sectionId": "food", "sectionName": "Food", "webPublicationDate": "2012-06-27T18:30:00Z", "webTitle": "People power is revolutionising the way we buy food", "webUrl": "https://www.theguardian.com/lifeandstyle/2012/jun/27/people-power-way-buy-food", "apiUrl": "https://content.guardianapis.com/lifeandstyle/2012/jun/27/people-power-way-buy-food", "isHosted": false, "pillarId": "pillar/lifestyle", "pillarName": "Lifestyle"}, {"id": "commentisfree/2012/jun/27/pink-milk-new-pink-slime", "type": "article", "sectionId": "commentisfree", "sectionName": "Opinion", "webPublicationDate": "2012-06-27T16:28:20Z", "webTitle": "Is pink milk the new pink slime? | Anna M Clark", "webUrl": "https://www.theguardian.com/commentisfree/2012/jun/27/pink-milk-new-pink-slime", "apiUrl": "https://content.guardianapis.com/commentisfree/2012/jun/27/pink-milk-new-pink-slime", "isHosted": false, "pillarId": "pillar/opinion", "pillarName": "Opinion"}, {"id": "lifeandstyle/2012/jun/27/courgette-yoghurt-runner-bean-recipe", "type": "article", "sectionId": "food", "sectionName": "Food", "webPublicationDate": "2012-06-27T14:45:00Z", "webTitle": "Courgette, yoghurt and runner bean salad recipe | Angela Hartnett", "webUrl": "https://www.theguardian.com/lifeandstyle/2012/jun/27/courgette-yoghurt-runner-bean-recipe", "apiUrl": "https://content.guardianapis.com/lifeandstyle/2012/jun/27/courgette-yoghurt-runner-bean-recipe", "isHosted": false, "pillarId": "pillar/lifestyle", "pillarName": "Lifestyle"}, {"id": "commentisfree/2012/jun/27/food-photography-hungry-done-extremely-well", "type": "article", "sectionId": "commentisfree", "sectionName": "Opinion", "webPublicationDate": "2012-06-27T13:43:00Z", "webTitle": "Does food photography make you hungry? Only when it's done very well | Oliver Thring", "webUrl": "https://www.theguardian.com/commentisfree/2012/jun/27/food-photography-hungry-done-extremely-well", "apiUrl": "https://content.guardianapis.com/commentisfree/2012/jun/27/food-photography-hungry-done-extremely-well", "isHosted": false, "pillarId": "pillar/opinion", "pillarName": "Opinion"}, {"id": "environment/2012/jun/27/catering-industry-cut-waste", "type": "article", "sectionId": "environment", "sectionName": "Environment", "webPublicationDate": "2012-06-27T04:59:00Z", "webTitle": "UK catering industry pledges to cut waste", "webUrl": "https://www.theguardian.com/environment/2012/jun/27/catering-industry-cut-waste", "apiUrl": "https://content.guardianapis.com/environment/2012/jun/27/catering-industry-cut-waste", "isHosted": false, "pillarId": "pillar/news", "pillarName": "News"}, {"id": "lifeandstyle/wordofmouth/2012/jun/26/coca-cola-still-the-real-thing", "type": "article", "sectionId": "food", "sectionName": "Food", "webPublicationDate": "2012-06-26T15:00:00Z", "webTitle": "Coca-Cola: still the real thing?", "webUrl": "https://www.theguardian.com/lifeandstyle/wordofmouth/2012/jun/26/coca-cola-still-the-real-thing", "apiUrl": "https://content.guardianapis.com/lifeandstyle/wordofmouth/2012/jun/26/coca-cola-still-the-real-thing", "isHosted": false, "pillarId": "pillar/lifestyle", "pillarName": "Lifestyle"}, {"id": "tv-and-radio/tvandradioblog/2012/jun/26/food-factory-jimmy-doherty", "type": "article", "sectionId": "tv-and-radio", "sectionName": "Television & radio", "webPublicationDate": "2012-06-26T13:00:47Z", "webTitle": "Can a change of presenter ever improve a show?", "webUrl": "https://www.theguardian.com/tv-and-radio/tvandradioblog/2012/jun/26/food-factory-jimmy-doherty", "apiUrl": "https://content.guardianapis.com/tv-and-radio/tvandradioblog/2012/jun/26/food-factory-jimmy-doherty", "isHosted": false, "pillarId": "pillar/arts", "pillarName": "Arts"}, {"id": "lifeandstyle/wordofmouth/2012/jun/26/rene-redzepi-claridges-noma-heroes", "type": "article", "sectionId": "food", "sectionName": "Food", "webPublicationDate": "2012-06-26T09:15:00Z", "webTitle": "Ren\u00e9 Redzepi at Claridge's: Noma heroes any more", "webUrl": "https://www.theguardian.com/lifeandstyle/wordofmouth/2012/jun/26/rene-redzepi-claridges-noma-heroes", "apiUrl": "https://content.guardianapis.com/lifeandstyle/wordofmouth/2012/jun/26/rene-redzepi-claridges-noma-heroes", "isHosted": false, "pillarId": "pillar/lifestyle", "pillarName": "Lifestyle"}, {"id": "business/2012/jun/25/mcdonalds-london-olympic-games-restaurant", "type": "article", "sectionId": "business", "sectionName": "Business", "webPublicationDate": "2012-06-25T19:31:07Z", "webTitle": "McDonald's pops-up its biggest ever restaurant for Olympics", "webUrl": "https://www.theguardian.com/business/2012/jun/25/mcdonalds-london-olympic-games-restaurant", "apiUrl": "https://content.guardianapis.com/business/2012/jun/25/mcdonalds-london-olympic-games-restaurant", "isHosted": false, "pillarId": "pillar/news", "pillarName": "News"}, {"id": "commentisfree/2012/jun/25/foie-gras-torture-ban-california", "type": "article", "sectionId": "commentisfree", "sectionName": "Opinion", "webPublicationDate": "2012-06-25T13:00:02Z", "webTitle": "Foie gras is torture in a tin. It's time for a ban | Steven Berkoff", "webUrl": "https://www.theguardian.com/commentisfree/2012/jun/25/foie-gras-torture-ban-california", "apiUrl": "https://content.guardianapis.com/commentisfree/2012/jun/25/foie-gras-torture-ban-california", "isHosted": false, "pillarId": "pillar/opinion", "pillarName": "Opinion"}, {"id": "lifeandstyle/wordofmouth/2012/jun/25/fine-wine-why-britain-splashing-out", "type": "article", "sectionId": "food", "sectionName": "Food", "webPublicationDate": "2012-06-25T09:30:00Z", "webTitle": "Fine wine: why is Britain splashing out?", "webUrl": "https://www.theguardian.com/lifeandstyle/wordofmouth/2012/jun/25/fine-wine-why-britain-splashing-out", "apiUrl": "https://content.guardianapis.com/lifeandstyle/wordofmouth/2012/jun/25/fine-wine-why-britain-splashing-out", "isHosted": false, "pillarId": "pillar/lifestyle", "pillarName": "Lifestyle"}, {"id": "travel/2012/jun/24/free-cornwall-independence-campaign", "type": "article", "sectionId": "travel", "sectionName": "Travel", "webPublicationDate": "2012-06-23T23:08:00Z", "webTitle": "Free Cornwall!", "webUrl": "https://www.theguardian.com/travel/2012/jun/24/free-cornwall-independence-campaign", "apiUrl": "https://content.guardianapis.com/travel/2012/jun/24/free-cornwall-independence-campaign", "isHosted": false, "pillarId": "pillar/lifestyle", "pillarName": "Lifestyle"}, {"id": "lifeandstyle/2012/jun/24/wine-food-and-drink", "type": "article", "sectionId": "food", "sectionName": "Food", "webPublicationDate": "2012-06-23T23:07:04Z", "webTitle": "Wines of the week", "webUrl": "https://www.theguardian.com/lifeandstyle/2012/jun/24/wine-food-and-drink", "apiUrl": "https://content.guardianapis.com/lifeandstyle/2012/jun/24/wine-food-and-drink", "isHosted": false, "pillarId": "pillar/lifestyle", "pillarName": "Lifestyle"}, {"id": "lifeandstyle/2012/jun/24/jay-rayner-restaurant-review-karpo", "type": "article", "sectionId": "food", "sectionName": "Food", "webPublicationDate": "2012-06-23T23:07:01Z", "webTitle": "Restaurant review: Karpo, London NW1", "webUrl": "https://www.theguardian.com/lifeandstyle/2012/jun/24/jay-rayner-restaurant-review-karpo", "apiUrl": "https://content.guardianapis.com/lifeandstyle/2012/jun/24/jay-rayner-restaurant-review-karpo", "isHosted": false, "pillarId": "pillar/lifestyle", "pillarName": "Lifestyle"}, {"id": "lifeandstyle/2012/jun/23/moscato-wine-summer-drinking", "type": "article", "sectionId": "food", "sectionName": "Food", "webPublicationDate": "2012-06-23T09:43:59Z", "webTitle": "Wine: see the light with moscato", "webUrl": "https://www.theguardian.com/lifeandstyle/2012/jun/23/moscato-wine-summer-drinking", "apiUrl": "https://content.guardianapis.com/lifeandstyle/2012/jun/23/moscato-wine-summer-drinking", "isHosted": false, "pillarId": "pillar/lifestyle", "pillarName": "Lifestyle"}, {"id": "lifeandstyle/2012/jun/22/petersham-nurseries-cafe-restaurant-review", "type": "article", "sectionId": "lifeandstyle", "sectionName": "Life and style", "webPublicationDate": "2012-06-22T21:59:28Z", "webTitle": "Restaurant: Petersham Nurseries Cafe, Richmond", "webUrl": "https://www.theguardian.com/lifeandstyle/2012/jun/22/petersham-nurseries-cafe-restaurant-review", "apiUrl": "https://content.guardianapis.com/lifeandstyle/2012/jun/22/petersham-nurseries-cafe-restaurant-review", "isHosted": false, "pillarId": "pillar/lifestyle", "pillarName": "Lifestyle"}, {"id": "lifeandstyle/2012/jun/22/summer-baking-recipes-fearnley-whittingstall", "type": "article", "sectionId": "lifeandstyle", "sectionName": "Life and style", "webPublicationDate": "2012-06-22T21:59:20Z", "webTitle": "Summer baking recipes | Hugh Fearnley-Whittingstall", "webUrl": "https://www.theguardian.com/lifeandstyle/2012/jun/22/summer-baking-recipes-fearnley-whittingstall", "apiUrl": "https://content.guardianapis.com/lifeandstyle/2012/jun/22/summer-baking-recipes-fearnley-whittingstall", "isHosted": false, "pillarId": "pillar/lifestyle", "pillarName": "Lifestyle"}, {"id": "science/2012/jun/22/fake-meat-scientific-breakthroughs-research", "type": "article", "sectionId": "science", "sectionName": "Science", "webPublicationDate": "2012-06-22T21:59:00Z", "webTitle": "Fake meat: is science fiction on the verge of becoming fact?", "webUrl": "https://www.theguardian.com/science/2012/jun/22/fake-meat-scientific-breakthroughs-research", "apiUrl": "https://content.guardianapis.com/science/2012/jun/22/fake-meat-scientific-breakthroughs-research", "isHosted": false, "pillarId": "pillar/news", "pillarName": "News"}, {"id": "lifeandstyle/2012/jun/22/duck-curry-recipe-lemon-rice", "type": "article", "sectionId": "food", "sectionName": "Food", "webPublicationDate": "2012-06-22T21:58:01Z", "webTitle": "Duck and mango curry recipe, plus lemon and curry leaf rice", "webUrl": "https://www.theguardian.com/lifeandstyle/2012/jun/22/duck-curry-recipe-lemon-rice", "apiUrl": "https://content.guardianapis.com/lifeandstyle/2012/jun/22/duck-curry-recipe-lemon-rice", "isHosted": false, "pillarId": "pillar/lifestyle", "pillarName": "Lifestyle"}, {"id": "business/2012/jun/22/coffee-shop-revolution-continues", "type": "article", "sectionId": "business", "sectionName": "Business", "webPublicationDate": "2012-06-22T16:19:58Z", "webTitle": "Coffee shop revolution continues to stimulate the high street", "webUrl": "https://www.theguardian.com/business/2012/jun/22/coffee-shop-revolution-continues", "apiUrl": "https://content.guardianapis.com/business/2012/jun/22/coffee-shop-revolution-continues", "isHosted": false, "pillarId": "pillar/news", "pillarName": "News"}, {"id": "money/2012/jun/22/store-wars-pret-a-manger-eat", "type": "article", "sectionId": "money", "sectionName": "Money", "webPublicationDate": "2012-06-22T10:52:41Z", "webTitle": "Store Wars: Pret a Manger and Eat", "webUrl": "https://www.theguardian.com/money/2012/jun/22/store-wars-pret-a-manger-eat", "apiUrl": "https://content.guardianapis.com/money/2012/jun/22/store-wars-pret-a-manger-eat", "isHosted": false, "pillarId": "pillar/lifestyle", "pillarName": "Lifestyle"}, {"id": "lifeandstyle/wordofmouth/2012/jun/22/changing-tastes-the-wandering-palate", "type": "article", "sectionId": "lifeandstyle", "sectionName": "Life and style", "webPublicationDate": "2012-06-22T09:00:00Z", "webTitle": "Changing tastes: the wandering palate", "webUrl": "https://www.theguardian.com/lifeandstyle/wordofmouth/2012/jun/22/changing-tastes-the-wandering-palate", "apiUrl": "https://content.guardianapis.com/lifeandstyle/wordofmouth/2012/jun/22/changing-tastes-the-wandering-palate", "isHosted": false, "pillarId": "pillar/lifestyle", "pillarName": "Lifestyle"}, {"id": "travel/2012/jun/22/nashville-tennessee-top-10-budget-restaurants", "type": "article", "sectionId": "travel", "sectionName": "Travel", "webPublicationDate": "2012-06-22T04:00:00Z", "webTitle": "Where to eat in Music City: Nashville's top 10 budget restaurants", "webUrl": "https://www.theguardian.com/travel/2012/jun/22/nashville-tennessee-top-10-budget-restaurants", "apiUrl": "https://content.guardianapis.com/travel/2012/jun/22/nashville-tennessee-top-10-budget-restaurants", "isHosted": false, "pillarId": "pillar/lifestyle", "pillarName": "Lifestyle"}, {"id": "lifeandstyle/wordofmouth/2012/jun/21/how-cook-perfect-moules-marinieres", "type": "article", "sectionId": "food", "sectionName": "Food", "webPublicationDate": "2012-06-20T23:10:00Z", "webTitle": "How to cook perfect moules marini\u00e8res", "webUrl": "https://www.theguardian.com/lifeandstyle/wordofmouth/2012/jun/21/how-cook-perfect-moules-marinieres", "apiUrl": "https://content.guardianapis.com/lifeandstyle/wordofmouth/2012/jun/21/how-cook-perfect-moules-marinieres", "isHosted": false, "pillarId": "pillar/lifestyle", "pillarName": "Lifestyle"}, {"id": "lifeandstyle/2012/jun/20/bringing-back-forgotten-foods", "type": "article", "sectionId": "food", "sectionName": "Food", "webPublicationDate": "2012-06-20T19:00:00Z", "webTitle": "Bringing back forgotten foods", "webUrl": "https://www.theguardian.com/lifeandstyle/2012/jun/20/bringing-back-forgotten-foods", "apiUrl": "https://content.guardianapis.com/lifeandstyle/2012/jun/20/bringing-back-forgotten-foods", "isHosted": false, "pillarId": "pillar/lifestyle", "pillarName": "Lifestyle"}, {"id": "lifeandstyle/2012/jun/20/stir-fried-beef-ginger-recipe", "type": "article", "sectionId": "food", "sectionName": "Food", "webPublicationDate": "2012-06-20T15:50:01Z", "webTitle": "Stir-fried beef with ginger and asparagus recipe | Angela Hartnett", "webUrl": "https://www.theguardian.com/lifeandstyle/2012/jun/20/stir-fried-beef-ginger-recipe", "apiUrl": "https://content.guardianapis.com/lifeandstyle/2012/jun/20/stir-fried-beef-ginger-recipe", "isHosted": false, "pillarId": "pillar/lifestyle", "pillarName": "Lifestyle"}, {"id": "money/work-blog/2012/jun/20/mad-man-mcdonalds-olympic-uniform", "type": "article", "sectionId": "money", "sectionName": "Money", "webPublicationDate": "2012-06-20T13:58:54Z", "webTitle": "Inspired by Mad Men: McDonald's Olympic uniform", "webUrl": "https://www.theguardian.com/money/work-blog/2012/jun/20/mad-man-mcdonalds-olympic-uniform", "apiUrl": "https://content.guardianapis.com/money/work-blog/2012/jun/20/mad-man-mcdonalds-olympic-uniform", "isHosted": false, "pillarId": "pillar/lifestyle", "pillarName": "Lifestyle"}, {"id": "commentisfree/2012/jun/20/joy-of-picnic", "type": "article", "sectionId": "commentisfree", "sectionName": "Opinion", "webPublicationDate": "2012-06-20T10:46:08Z", "webTitle": "The joy of a proper picnic, rabbit poo and all | Ian Vince", "webUrl": "https://www.theguardian.com/commentisfree/2012/jun/20/joy-of-picnic", "apiUrl": "https://content.guardianapis.com/commentisfree/2012/jun/20/joy-of-picnic", "isHosted": false, "pillarId": "pillar/opinion", "pillarName": "Opinion"}, {"id": "lifeandstyle/wordofmouth/2012/jun/20/how-do-you-store-your-recipes", "type": "article", "sectionId": "food", "sectionName": "Food", "webPublicationDate": "2012-06-20T09:00:00Z", "webTitle": "How do you store your recipes?", "webUrl": "https://www.theguardian.com/lifeandstyle/wordofmouth/2012/jun/20/how-do-you-store-your-recipes", "apiUrl": "https://content.guardianapis.com/lifeandstyle/wordofmouth/2012/jun/20/how-do-you-store-your-recipes", "isHosted": false, "pillarId": "pillar/lifestyle", "pillarName": "Lifestyle"}, {"id": "uk/the-northerner/2012/jun/19/ampleforth-abbey-beer-monks-brew-cider", "type": "article", "sectionId": "uk-news", "sectionName": "UK news", "webPublicationDate": "2012-06-19T17:55:00Z", "webTitle": "Ampleforth's new beer - the movie(s)", "webUrl": "https://www.theguardian.com/uk/the-northerner/2012/jun/19/ampleforth-abbey-beer-monks-brew-cider", "apiUrl": "https://content.guardianapis.com/uk/the-northerner/2012/jun/19/ampleforth-abbey-beer-monks-brew-cider", "isHosted": false, "pillarId": "pillar/news", "pillarName": "News"}, {"id": "lifeandstyle/2012/jun/19/ampleforth-abbey-monastic-beer-secrets", "type": "article", "sectionId": "food", "sectionName": "Food", "webPublicationDate": "2012-06-19T15:15:14Z", "webTitle": "How Ampleforth Abbey brewed an authentic monastic beer", "webUrl": "https://www.theguardian.com/lifeandstyle/2012/jun/19/ampleforth-abbey-monastic-beer-secrets", "apiUrl": "https://content.guardianapis.com/lifeandstyle/2012/jun/19/ampleforth-abbey-monastic-beer-secrets", "isHosted": false, "pillarId": "pillar/lifestyle", "pillarName": "Lifestyle"}, {"id": "lifeandstyle/2012/jun/19/ampleforth-abbey-brews-beer", "type": "article", "sectionId": "food", "sectionName": "Food", "webPublicationDate": "2012-06-19T15:11:34Z", "webTitle": "Ampleforth monks mix history, religion and malts in unique new beer", "webUrl": "https://www.theguardian.com/lifeandstyle/2012/jun/19/ampleforth-abbey-brews-beer", "apiUrl": "https://content.guardianapis.com/lifeandstyle/2012/jun/19/ampleforth-abbey-brews-beer", "isHosted": false, "pillarId": "pillar/lifestyle", "pillarName": "Lifestyle"}, {"id": "lifeandstyle/video/2012/jun/19/polpo-russell-norman-inspiration-venice-video", "type": "video", "sectionId": "food", "sectionName": "Food", "webPublicationDate": "2012-06-19T14:30:00Z", "webTitle": "Polpo's Russell Norman on his inspiration: Venice - video", "webUrl": "https://www.theguardian.com/lifeandstyle/video/2012/jun/19/polpo-russell-norman-inspiration-venice-video", "apiUrl": "https://content.guardianapis.com/lifeandstyle/video/2012/jun/19/polpo-russell-norman-inspiration-venice-video", "isHosted": false, "pillarId": "pillar/lifestyle", "pillarName": "Lifestyle"}, {"id": "lifeandstyle/wordofmouth/2012/jun/19/outstanding-in-their-fields", "type": "article", "sectionId": "food", "sectionName": "Food", "webPublicationDate": "2012-06-19T09:40:00Z", "webTitle": "Outstanding in their fields", "webUrl": "https://www.theguardian.com/lifeandstyle/wordofmouth/2012/jun/19/outstanding-in-their-fields", "apiUrl": "https://content.guardianapis.com/lifeandstyle/wordofmouth/2012/jun/19/outstanding-in-their-fields", "isHosted": false, "pillarId": "pillar/lifestyle", "pillarName": "Lifestyle"}, {"id": "education/2012/jun/18/prison-food-self-esteem-prisoners-value", "type": "article", "sectionId": "education", "sectionName": "Education", "webPublicationDate": "2012-06-18T17:45:01Z", "webTitle": "In prison, food is all about self-esteem", "webUrl": "https://www.theguardian.com/education/2012/jun/18/prison-food-self-esteem-prisoners-value", "apiUrl": "https://content.guardianapis.com/education/2012/jun/18/prison-food-self-esteem-prisoners-value", "isHosted": false, "pillarId": "pillar/news", "pillarName": "News"}, {"id": "lifeandstyle/wordofmouth/2012/jun/18/the-real-raw-food-resurgence", "type": "article", "sectionId": "lifeandstyle", "sectionName": "Life and style", "webPublicationDate": "2012-06-18T09:00:00Z", "webTitle": "The real raw food resurgence", "webUrl": "https://www.theguardian.com/lifeandstyle/wordofmouth/2012/jun/18/the-real-raw-food-resurgence", "apiUrl": "https://content.guardianapis.com/lifeandstyle/wordofmouth/2012/jun/18/the-real-raw-food-resurgence", "isHosted": false, "pillarId": "pillar/lifestyle", "pillarName": "Lifestyle"}, {"id": "world/shortcuts/2012/jun/17/shorter-cuts-michelle-obama", "type": "article", "sectionId": "us-news", "sectionName": "US news", "webPublicationDate": "2012-06-17T19:00:08Z", "webTitle": "Shorter cuts: the news doesn't get any smaller", "webUrl": "https://www.theguardian.com/world/shortcuts/2012/jun/17/shorter-cuts-michelle-obama", "apiUrl": "https://content.guardianapis.com/world/shortcuts/2012/jun/17/shorter-cuts-michelle-obama", "isHosted": false, "pillarId": "pillar/news", "pillarName": "News"}]}}