{"response": {"status": "ok", "userTier": "developer", "total": 29735, "startIndex": 1, "pageSize": 50, "currentPage": 1, "pages": 595, "orderBy": "newest", "results": [{"id": "environment/2011/jul/01/country-diary-south-uist", "type": "article", "sectionId": "environment", "sectionName": "Environment", "webPublicationDate": "2011-06-30T23:05:04Z", "webTitle": "Country diary: South Uist", "webUrl": "https://www.theguardian.com/environment/2011/jul/01/country-diary-south-uist", "apiUrl": "https://content.guardianapis.com/environment/2011/jul/01/country-diary-south-uist", "isHosted": false, "pillarId": "pillar/news", "pillarName": "News"}, {"id": "environment/2011/jun/30/british-government-plan-play-down-fukushima", "type": "article", "sectionId": "environment", "sectionName": "Environment", "webPublicationDate": "2011-06-30T20:36:00Z", "webTitle": "Revealed: British government's plan to play down Fukushima", "webUrl": "https://www.theguardian.com/environment/2011/jun/30/british-government-plan-play-down-fukushima", "apiUrl": "https://content.guardianapis.com/environment/2011/jun/30/british-government-plan-play-down-fukushima", "isHosted": false, "pillarId": "pillar/news", "pillarName": "News"}, {"id": "business/2011/jun/30/electricity-companies-switch-to-coal", "type": "article", "sectionId": "business", "sectionName": "Business", "webPublicationDate": "2011-06-30T19:35:00Z", "webTitle": "Power from green sources surges \u2013 but so does coal consumption", "webUrl": "https://www.theguardian.com/business/2011/jun/30/electricity-companies-switch-to-coal", "apiUrl": "https://content.guardianapis.com/business/2011/jun/30/electricity-companies-switch-to-coal", "isHosted": false, "pillarId": "pillar/news", "pillarName": "News"}, {"id": "environment/2011/jun/30/electric-highway-policy-uturn", "type": "article", "sectionId": "environment", "sectionName": "Environment", "webPublicationDate": "2011-06-30T16:08:46Z", "webTitle": "'Electric highway' policy marks latest coalition U-turn", "webUrl": "https://www.theguardian.com/environment/2011/jun/30/electric-highway-policy-uturn", "apiUrl": "https://content.guardianapis.com/environment/2011/jun/30/electric-highway-policy-uturn", "isHosted": false, "pillarId": "pillar/news", "pillarName": "News"}, {"id": "science/punctuated-equilibrium/2011/jun/30/3", "type": "article", "sectionId": "science", "sectionName": "Science", "webPublicationDate": "2011-06-30T15:25:00Z", "webTitle": "Shell Games: Rogues, Smugglers, and the Hunt for Nature's Bounty - review | GrrlScientist", "webUrl": "https://www.theguardian.com/science/punctuated-equilibrium/2011/jun/30/3", "apiUrl": "https://content.guardianapis.com/science/punctuated-equilibrium/2011/jun/30/3", "isHosted": false, "pillarId": "pillar/news", "pillarName": "News"}, {"id": "world/2011/jun/30/fukushima-children-radiation-tests-caesium", "type": "article", "sectionId": "world", "sectionName": "World news", "webPublicationDate": "2011-06-30T14:47:31Z", "webTitle": "Fukushima children test positive for internal radiation exposure", "webUrl": "https://www.theguardian.com/world/2011/jun/30/fukushima-children-radiation-tests-caesium", "apiUrl": "https://content.guardianapis.com/world/2011/jun/30/fukushima-children-radiation-tests-caesium", "isHosted": false, "pillarId": "pillar/news", "pillarName": "News"}, {"id": "environment/damian-carrington-blog/2011/jun/30/overseas-aid-biodiversity-ecosystems-green-economy", "type": "article", "sectionId": "environment", "sectionName": "Environment", "webPublicationDate": "2011-06-30T13:23:00Z", "webTitle": "Valuing ecosystems 3: Privatising overseas aid, profiting from nature | Damian Carrington", "webUrl": "https://www.theguardian.com/environment/damian-carrington-blog/2011/jun/30/overseas-aid-biodiversity-ecosystems-green-economy", "apiUrl": "https://content.guardianapis.com/environment/damian-carrington-blog/2011/jun/30/overseas-aid-biodiversity-ecosystems-green-economy", "isHosted": false, "pillarId": "pillar/news", "pillarName": "News"}, {"id": "world/2011/jun/30/snake-alert-ipswich-boa-constrictor-escapes", "type": "article", "sectionId": "world", "sectionName": "World news", "webPublicationDate": "2011-06-30T13:01:08Z", "webTitle": "Snake alert in Ipswich as boa constrictor escapes", "webUrl": "https://www.theguardian.com/world/2011/jun/30/snake-alert-ipswich-boa-constrictor-escapes", "apiUrl": "https://content.guardianapis.com/world/2011/jun/30/snake-alert-ipswich-boa-constrictor-escapes", "isHosted": false, "pillarId": "pillar/news", "pillarName": "News"}, {"id": "environment/2011/jun/30/jellyfish-shut-nuclear-reactors-torness", "type": "article", "sectionId": "environment", "sectionName": "Environment", "webPublicationDate": "2011-06-30T12:45:00Z", "webTitle": "Jellyfish shut down nuclear reactors", "webUrl": "https://www.theguardian.com/environment/2011/jun/30/jellyfish-shut-nuclear-reactors-torness", "apiUrl": "https://content.guardianapis.com/environment/2011/jun/30/jellyfish-shut-nuclear-reactors-torness", "isHosted": false, "pillarId": "pillar/news", "pillarName": "News"}, {"id": "environment/2011/jun/30/shale-gas-europe-leinen", "type": "article", "sectionId": "environment", "sectionName": "Environment", "webPublicationDate": "2011-06-30T11:27:03Z", "webTitle": "Influential MEP calls for shale gas regulation", "webUrl": "https://www.theguardian.com/environment/2011/jun/30/shale-gas-europe-leinen", "apiUrl": "https://content.guardianapis.com/environment/2011/jun/30/shale-gas-europe-leinen", "isHosted": false, "pillarId": "pillar/news", "pillarName": "News"}, {"id": "environment/gallery/2011/jun/30/wildlife-farne-islands-in-pictures", "type": "gallery", "sectionId": "environment", "sectionName": "Environment", "webPublicationDate": "2011-06-30T11:23:00Z", "webTitle": "Puffins, seals and jellyfish of the Farne Islands \u2013 in pictures", "webUrl": "https://www.theguardian.com/environment/gallery/2011/jun/30/wildlife-farne-islands-in-pictures", "apiUrl": "https://content.guardianapis.com/environment/gallery/2011/jun/30/wildlife-farne-islands-in-pictures", "isHosted": false, "pillarId": "pillar/news", "pillarName": "News"}, {"id": "global-development/poverty-matters/2011/jun/30/bangladesh-climate-change-loans", "type": "article", "sectionId": "global-development", "sectionName": "Global development", "webPublicationDate": "2011-06-30T06:00:02Z", "webTitle": "Why Bangladesh doesn't want climate adaptation loans | Rezaul Karim Chowdhury", "webUrl": "https://www.theguardian.com/global-development/poverty-matters/2011/jun/30/bangladesh-climate-change-loans", "apiUrl": "https://content.guardianapis.com/global-development/poverty-matters/2011/jun/30/bangladesh-climate-change-loans", "isHosted": false, "pillarId": "pillar/news", "pillarName": "News"}, {"id": "environment/blog/2011/jun/30/toughest-nature-questions-answered", "type": "article", "sectionId": "environment", "sectionName": "Environment", "webPublicationDate": "2011-06-30T06:00:00Z", "webTitle": "Your toughest nature questions answered", "webUrl": "https://www.theguardian.com/environment/blog/2011/jun/30/toughest-nature-questions-answered", "apiUrl": "https://content.guardianapis.com/environment/blog/2011/jun/30/toughest-nature-questions-answered", "isHosted": false, "pillarId": "pillar/news", "pillarName": "News"}, {"id": "environment/2011/jun/30/country-diary-strathnairn-orchid", "type": "article", "sectionId": "environment", "sectionName": "Environment", "webPublicationDate": "2011-06-29T23:05:02Z", "webTitle": "Country diary: Strathnairn", "webUrl": "https://www.theguardian.com/environment/2011/jun/30/country-diary-strathnairn-orchid", "apiUrl": "https://content.guardianapis.com/environment/2011/jun/30/country-diary-strathnairn-orchid", "isHosted": false, "pillarId": "pillar/news", "pillarName": "News"}, {"id": "environment/2011/jun/30/energy-companies-uk-homes-insulation", "type": "article", "sectionId": "environment", "sectionName": "Environment", "webPublicationDate": "2011-06-29T23:01:03Z", "webTitle": "Force energy companies to insulate UK homes, climate advisers say", "webUrl": "https://www.theguardian.com/environment/2011/jun/30/energy-companies-uk-homes-insulation", "apiUrl": "https://content.guardianapis.com/environment/2011/jun/30/energy-companies-uk-homes-insulation", "isHosted": false, "pillarId": "pillar/news", "pillarName": "News"}, {"id": "environment/2011/jun/29/david-orton-obituary", "type": "article", "sectionId": "environment", "sectionName": "Environment", "webPublicationDate": "2011-06-29T17:30:22Z", "webTitle": "David Orton obituary", "webUrl": "https://www.theguardian.com/environment/2011/jun/29/david-orton-obituary", "apiUrl": "https://content.guardianapis.com/environment/2011/jun/29/david-orton-obituary", "isHosted": false, "pillarId": "pillar/news", "pillarName": "News"}, {"id": "environment/2011/jun/29/tsunami-cornish-shifting-water-landslide", "type": "article", "sectionId": "environment", "sectionName": "Environment", "webPublicationDate": "2011-06-29T17:12:51Z", "webTitle": "Mild tsunami strikes Cornish coast, shifting water levels 'in a flash'", "webUrl": "https://www.theguardian.com/environment/2011/jun/29/tsunami-cornish-shifting-water-landslide", "apiUrl": "https://content.guardianapis.com/environment/2011/jun/29/tsunami-cornish-shifting-water-landslide", "isHosted": false, "pillarId": "pillar/news", "pillarName": "News"}, {"id": "world/2011/jun/29/skunk-nature-lovers-sightings-false", "type": "article", "sectionId": "world", "sectionName": "World news", "webPublicationDate": "2011-06-29T13:01:36Z", "webTitle": "Skunk buzz in Cornwall leaves nature lovers fuming as sightings prove false", "webUrl": "https://www.theguardian.com/world/2011/jun/29/skunk-nature-lovers-sightings-false", "apiUrl": "https://content.guardianapis.com/world/2011/jun/29/skunk-nature-lovers-sightings-false", "isHosted": false, "pillarId": "pillar/news", "pillarName": "News"}, {"id": "environment/green-living-blog/2011/jun/29/coastlines-marine-life-beach-forage", "type": "article", "sectionId": "environment", "sectionName": "Environment", "webPublicationDate": "2011-06-29T11:33:53Z", "webTitle": "Can I collect and keep anything I find on a beach? | Leo Hickman", "webUrl": "https://www.theguardian.com/environment/green-living-blog/2011/jun/29/coastlines-marine-life-beach-forage", "apiUrl": "https://content.guardianapis.com/environment/green-living-blog/2011/jun/29/coastlines-marine-life-beach-forage", "isHosted": false, "pillarId": "pillar/news", "pillarName": "News"}, {"id": "environment/damian-carrington-blog/2011/jun/29/green-economy-biodiversity", "type": "article", "sectionId": "environment", "sectionName": "Environment", "webPublicationDate": "2011-06-29T10:22:00Z", "webTitle": "Valuing ecosystem 2: OECD to put green factors into economic analyses | Damian Carrington", "webUrl": "https://www.theguardian.com/environment/damian-carrington-blog/2011/jun/29/green-economy-biodiversity", "apiUrl": "https://content.guardianapis.com/environment/damian-carrington-blog/2011/jun/29/green-economy-biodiversity", "isHosted": false, "pillarId": "pillar/news", "pillarName": "News"}, {"id": "environment/2011/jun/29/world-bank-subsidies-dirty-power", "type": "article", "sectionId": "environment", "sectionName": "Environment", "webPublicationDate": "2011-06-29T10:19:43Z", "webTitle": "UK must not support World Bank's 'dirty' power subsidies, say MPs", "webUrl": "https://www.theguardian.com/environment/2011/jun/29/world-bank-subsidies-dirty-power", "apiUrl": "https://content.guardianapis.com/environment/2011/jun/29/world-bank-subsidies-dirty-power", "isHosted": false, "pillarId": "pillar/news", "pillarName": "News"}, {"id": "environment/damian-carrington-blog/2011/jun/29/biodiversity-wildlife", "type": "article", "sectionId": "environment", "sectionName": "Environment", "webPublicationDate": "2011-06-29T07:44:00Z", "webTitle": "Valuing ecosystem services: From 'reversing entropy' to the price of voles | Damian Carrington", "webUrl": "https://www.theguardian.com/environment/damian-carrington-blog/2011/jun/29/biodiversity-wildlife", "apiUrl": "https://content.guardianapis.com/environment/damian-carrington-blog/2011/jun/29/biodiversity-wildlife", "isHosted": false, "pillarId": "pillar/news", "pillarName": "News"}, {"id": "environment/gallery/2011/jun/29/world-forum-enterprise-environment", "type": "gallery", "sectionId": "environment", "sectionName": "Environment", "webPublicationDate": "2011-06-29T06:00:00Z", "webTitle": "What you value about nature - in pictures", "webUrl": "https://www.theguardian.com/environment/gallery/2011/jun/29/world-forum-enterprise-environment", "apiUrl": "https://content.guardianapis.com/environment/gallery/2011/jun/29/world-forum-enterprise-environment", "isHosted": false, "pillarId": "pillar/news", "pillarName": "News"}, {"id": "environment/2011/jun/29/climate-change-david-cameron-king", "type": "article", "sectionId": "environment", "sectionName": "Environment", "webPublicationDate": "2011-06-29T05:01:01Z", "webTitle": "David Cameron must speak out on climate change, says top scientist", "webUrl": "https://www.theguardian.com/environment/2011/jun/29/climate-change-david-cameron-king", "apiUrl": "https://content.guardianapis.com/environment/2011/jun/29/climate-change-david-cameron-king", "isHosted": false, "pillarId": "pillar/news", "pillarName": "News"}, {"id": "environment/2011/jun/28/country-diary-marazion-cornwall", "type": "article", "sectionId": "environment", "sectionName": "Environment", "webPublicationDate": "2011-06-28T21:08:00Z", "webTitle": "Country diary: Marazion, Cornwall", "webUrl": "https://www.theguardian.com/environment/2011/jun/28/country-diary-marazion-cornwall", "apiUrl": "https://content.guardianapis.com/environment/2011/jun/28/country-diary-marazion-cornwall", "isHosted": false, "pillarId": "pillar/news", "pillarName": "News"}, {"id": "environment/2011/jun/28/climate-change-religiosity-greg-barker", "type": "article", "sectionId": "environment", "sectionName": "Environment", "webPublicationDate": "2011-06-28T21:00:06Z", "webTitle": "Climate change arguments incite 'weird religiosity', says Greg Barker", "webUrl": "https://www.theguardian.com/environment/2011/jun/28/climate-change-religiosity-greg-barker", "apiUrl": "https://content.guardianapis.com/environment/2011/jun/28/climate-change-religiosity-greg-barker", "isHosted": false, "pillarId": "pillar/news", "pillarName": "News"}, {"id": "commentisfree/2011/jun/28/david-cameron-climate-change-leadership", "type": "article", "sectionId": "commentisfree", "sectionName": "Opinion", "webPublicationDate": "2011-06-28T21:00:00Z", "webTitle": "Needed: a world leader | David King", "webUrl": "https://www.theguardian.com/commentisfree/2011/jun/28/david-cameron-climate-change-leadership", "apiUrl": "https://content.guardianapis.com/commentisfree/2011/jun/28/david-cameron-climate-change-leadership", "isHosted": false, "pillarId": "pillar/opinion", "pillarName": "Opinion"}, {"id": "environment/2011/jun/28/water-tables-el-paso-surrey", "type": "article", "sectionId": "environment", "sectionName": "Environment", "webPublicationDate": "2011-06-28T20:00:05Z", "webTitle": "Letters: Water tables", "webUrl": "https://www.theguardian.com/environment/2011/jun/28/water-tables-el-paso-surrey", "apiUrl": "https://content.guardianapis.com/environment/2011/jun/28/water-tables-el-paso-surrey", "isHosted": false, "pillarId": "pillar/news", "pillarName": "News"}, {"id": "environment/2011/jun/28/climate-change-sceptic-willie-soon", "type": "article", "sectionId": "environment", "sectionName": "Environment", "webPublicationDate": "2011-06-28T17:37:24Z", "webTitle": "Climate sceptic Willie Soon received $1m from oil companies, papers show", "webUrl": "https://www.theguardian.com/environment/2011/jun/28/climate-change-sceptic-willie-soon", "apiUrl": "https://content.guardianapis.com/environment/2011/jun/28/climate-change-sceptic-willie-soon", "isHosted": false, "pillarId": "pillar/news", "pillarName": "News"}, {"id": "environment/gallery/2011/jun/28/2010-year-global-weirding", "type": "gallery", "sectionId": "environment", "sectionName": "Environment", "webPublicationDate": "2011-06-28T14:48:00Z", "webTitle": "2010: The year of global weirding - in pictures", "webUrl": "https://www.theguardian.com/environment/gallery/2011/jun/28/2010-year-global-weirding", "apiUrl": "https://content.guardianapis.com/environment/gallery/2011/jun/28/2010-year-global-weirding", "isHosted": false, "pillarId": "pillar/news", "pillarName": "News"}, {"id": "uk/2011/jun/28/flood-alert-britain-storms", "type": "article", "sectionId": "uk-news", "sectionName": "UK news", "webPublicationDate": "2011-06-28T14:41:28Z", "webTitle": "Flash flood alert as thunderstorms hit southern England", "webUrl": "https://www.theguardian.com/uk/2011/jun/28/flood-alert-britain-storms", "apiUrl": "https://content.guardianapis.com/uk/2011/jun/28/flood-alert-britain-storms", "isHosted": false, "pillarId": "pillar/news", "pillarName": "News"}, {"id": "environment/2011/jun/28/water-yellow-river-china", "type": "article", "sectionId": "environment", "sectionName": "Environment", "webPublicationDate": "2011-06-28T13:48:00Z", "webTitle": "Provincial tug-of-war waters down China's Yellow river success story", "webUrl": "https://www.theguardian.com/environment/2011/jun/28/water-yellow-river-china", "apiUrl": "https://content.guardianapis.com/environment/2011/jun/28/water-yellow-river-china", "isHosted": false, "pillarId": "pillar/news", "pillarName": "News"}, {"id": "world/2011/jun/28/fukushima-radiation-fears-children-monitors", "type": "article", "sectionId": "world", "sectionName": "World news", "webPublicationDate": "2011-06-28T12:26:39Z", "webTitle": "Fukushima radiation fears: children near nuclear plant to be given monitors", "webUrl": "https://www.theguardian.com/world/2011/jun/28/fukushima-radiation-fears-children-monitors", "apiUrl": "https://content.guardianapis.com/world/2011/jun/28/fukushima-radiation-fears-children-monitors", "isHosted": false, "pillarId": "pillar/news", "pillarName": "News"}, {"id": "environment/2011/jun/28/forests-un-funding", "type": "article", "sectionId": "environment", "sectionName": "Environment", "webPublicationDate": "2011-06-28T12:05:44Z", "webTitle": "Forests in danger as study warns UN funding is unlikely", "webUrl": "https://www.theguardian.com/environment/2011/jun/28/forests-un-funding", "apiUrl": "https://content.guardianapis.com/environment/2011/jun/28/forests-un-funding", "isHosted": false, "pillarId": "pillar/news", "pillarName": "News"}, {"id": "environment/2011/jun/28/water-desalination-plant-beckton-london", "type": "article", "sectionId": "environment", "sectionName": "Environment", "webPublicationDate": "2011-06-28T09:56:03Z", "webTitle": "Water desalination plant opens for testing in Beckton, London", "webUrl": "https://www.theguardian.com/environment/2011/jun/28/water-desalination-plant-beckton-london", "apiUrl": "https://content.guardianapis.com/environment/2011/jun/28/water-desalination-plant-beckton-london", "isHosted": false, "pillarId": "pillar/news", "pillarName": "News"}, {"id": "environment/datablog/2011/jun/28/water-scarcity-africa-middle-east", "type": "article", "sectionId": "environment", "sectionName": "Environment", "webPublicationDate": "2011-06-28T09:44:00Z", "webTitle": "Water scarcity in Africa and the Middle East: get the data", "webUrl": "https://www.theguardian.com/environment/datablog/2011/jun/28/water-scarcity-africa-middle-east", "apiUrl": "https://content.guardianapis.com/environment/datablog/2011/jun/28/water-scarcity-africa-middle-east", "isHosted": false, "pillarId": "pillar/news", "pillarName": "News"}, {"id": "environment/2011/jun/28/china-food-water", "type": "article", "sectionId": "environment", "sectionName": "Environment", "webPublicationDate": "2011-06-28T09:16:57Z", "webTitle": "China told to reduce food production or face 'dire' water levels", "webUrl": "https://www.theguardian.com/environment/2011/jun/28/china-food-water", "apiUrl": "https://content.guardianapis.com/environment/2011/jun/28/china-food-water", "isHosted": false, "pillarId": "pillar/news", "pillarName": "News"}, {"id": "environment/video/2011/jun/28/dawn-chorus-birdwatching-video", "type": "video", "sectionId": "travel", "sectionName": "Travel", "webPublicationDate": "2011-06-28T08:04:00Z", "webTitle": "How to ... listen to the dawn chorus \u2013 video", "webUrl": "https://www.theguardian.com/environment/video/2011/jun/28/dawn-chorus-birdwatching-video", "apiUrl": "https://content.guardianapis.com/environment/video/2011/jun/28/dawn-chorus-birdwatching-video", "isHosted": false, "pillarId": "pillar/lifestyle", "pillarName": "Lifestyle"}, {"id": "environment/2011/jun/27/country-diary-horsington-somerset", "type": "article", "sectionId": "environment", "sectionName": "Environment", "webPublicationDate": "2011-06-27T22:09:00Z", "webTitle": "Country diary: Horsington, Somerset", "webUrl": "https://www.theguardian.com/environment/2011/jun/27/country-diary-horsington-somerset", "apiUrl": "https://content.guardianapis.com/environment/2011/jun/27/country-diary-horsington-somerset", "isHosted": false, "pillarId": "pillar/news", "pillarName": "News"}, {"id": "environment/2011/jun/27/water-shortages-threaten-renewable-energy", "type": "article", "sectionId": "environment", "sectionName": "Environment", "webPublicationDate": "2011-06-27T17:38:33Z", "webTitle": "Water shortages threaten renewable energy production, experts warn", "webUrl": "https://www.theguardian.com/environment/2011/jun/27/water-shortages-threaten-renewable-energy", "apiUrl": "https://content.guardianapis.com/environment/2011/jun/27/water-shortages-threaten-renewable-energy", "isHosted": false, "pillarId": "pillar/news", "pillarName": "News"}, {"id": "global-development/poverty-matters/2011/jun/27/donor-aversion-water-projects", "type": "article", "sectionId": "global-development", "sectionName": "Global development", "webPublicationDate": "2011-06-27T17:02:00Z", "webTitle": "Donor aversion to 'unsexy' water projects threatens development goal | Fiona Harvey", "webUrl": "https://www.theguardian.com/global-development/poverty-matters/2011/jun/27/donor-aversion-water-projects", "apiUrl": "https://content.guardianapis.com/global-development/poverty-matters/2011/jun/27/donor-aversion-water-projects", "isHosted": false, "pillarId": "pillar/news", "pillarName": "News"}, {"id": "environment/damian-carrington-blog/2011/jun/27/water-shortage-china-middle-east", "type": "article", "sectionId": "environment", "sectionName": "Environment", "webPublicationDate": "2011-06-27T16:34:35Z", "webTitle": "Water use in China and the Middle East is an environmental Ponzi scheme | Damian Carrington", "webUrl": "https://www.theguardian.com/environment/damian-carrington-blog/2011/jun/27/water-shortage-china-middle-east", "apiUrl": "https://content.guardianapis.com/environment/damian-carrington-blog/2011/jun/27/water-shortage-china-middle-east", "isHosted": false, "pillarId": "pillar/news", "pillarName": "News"}, {"id": "environment/2011/jun/27/climate-change-extreme-weather-2010", "type": "article", "sectionId": "environment", "sectionName": "Environment", "webPublicationDate": "2011-06-27T15:08:52Z", "webTitle": "Climate change hots up in 2010, the year of extreme weather", "webUrl": "https://www.theguardian.com/environment/2011/jun/27/climate-change-extreme-weather-2010", "apiUrl": "https://content.guardianapis.com/environment/2011/jun/27/climate-change-extreme-weather-2010", "isHosted": false, "pillarId": "pillar/news", "pillarName": "News"}, {"id": "environment/2011/jun/27/lord-monckton-university-lecture1", "type": "article", "sectionId": "environment", "sectionName": "Environment", "webPublicationDate": "2011-06-27T14:41:22Z", "webTitle": "Cancel Lord Monckton's university lecture, say academics", "webUrl": "https://www.theguardian.com/environment/2011/jun/27/lord-monckton-university-lecture1", "apiUrl": "https://content.guardianapis.com/environment/2011/jun/27/lord-monckton-university-lecture1", "isHosted": false, "pillarId": "pillar/news", "pillarName": "News"}, {"id": "world/2011/jun/27/nicolas-sarkozy-france-nuclear-power", "type": "article", "sectionId": "world", "sectionName": "World news", "webPublicationDate": "2011-06-27T12:53:30Z", "webTitle": "Nicolas Sarkozy makes \u20ac1bn commitment to nuclear power", "webUrl": "https://www.theguardian.com/world/2011/jun/27/nicolas-sarkozy-france-nuclear-power", "apiUrl": "https://content.guardianapis.com/world/2011/jun/27/nicolas-sarkozy-france-nuclear-power", "isHosted": false, "pillarId": "pillar/news", "pillarName": "News"}, {"id": "environment/quiz/2011/jun/27/spot-real-animal-fake-quiz", "type": "article", "sectionId": "global", "sectionName": "Global", "webPublicationDate": "2011-06-27T10:35:00Z", "webTitle": "Do you know your hagfish from your honey badger? \u2013 quiz", "webUrl": "https://www.theguardian.com/environment/quiz/2011/jun/27/spot-real-animal-fake-quiz", "apiUrl": "https://content.guardianapis.com/environment/quiz/2011/jun/27/spot-real-animal-fake-quiz", "isHosted": false}, {"id": "environment/2011/jun/27/country-diary-holt-norfolk-nightjar", "type": "article", "sectionId": "environment", "sectionName": "Environment", "webPublicationDate": "2011-06-26T23:06:05Z", "webTitle": "Country diary: Holt, Norfolk", "webUrl": "https://www.theguardian.com/environment/2011/jun/27/country-diary-holt-norfolk-nightjar", "apiUrl": "https://content.guardianapis.com/environment/2011/jun/27/country-diary-holt-norfolk-nightjar", "isHosted": false, "pillarId": "pillar/news", "pillarName": "News"}, {"id": "news/2011/jun/27/weatherwatch-summer-storms", "type": "article", "sectionId": "news", "sectionName": "News", "webPublicationDate": "2011-06-26T23:06:03Z", "webTitle": "Weatherwatch: English summer storms", "webUrl": "https://www.theguardian.com/news/2011/jun/27/weatherwatch-summer-storms", "apiUrl": "https://content.guardianapis.com/news/2011/jun/27/weatherwatch-summer-storms", "isHosted": false, "pillarId": "pillar/news", "pillarName": "News"}, {"id": "science/audio/2011/jun/27/science-weekly-podcast-tim-harford", "type": "audio", "sectionId": "science", "sectionName": "Science", "webPublicationDate": "2011-06-26T23:05:00Z", "webTitle": "Science Weekly podcast: How to achieve success through failure", "webUrl": "https://www.theguardian.com/science/audio/2011/jun/27/science-weekly-podcast-tim-harford", "apiUrl": "https://content.guardianapis.com/science/audio/2011/jun/27/science-weekly-podcast-tim-harford", "isHosted": false, "pillarId": "pillar/news", "pillarName": "News"}, {"id": "environment/2011/jun/27/uk-solar-energy-national-grid", "type": "article", "sectionId": "environment", "sectionName": "Environment", "webPublicationDate": "2011-06-26T23:01:00Z", "webTitle": "UK's biggest solar energy farm connects to national grid", "webUrl": "https://www.theguardian.com/environment/2011/jun/27/uk-solar-energy-national-grid", "apiUrl": "https://content.guardianapis.com/environment/2011/jun/27/uk-solar-energy-national-grid", "isHosted": false, "pillarId": "pillar/news", "pillarName": "News"}]}}