{"response": {"status": "ok", "userTier": "developer", "total": 19020, "startIndex": 1, "pageSize": 50, "currentPage": 1, "pages": 381, "orderBy": "newest", "results": [{"id": "lifeandstyle/2013/jun/30/bike-workshops-cater-cyclist-needs", "type": "article", "sectionId": "lifeandstyle", "sectionName": "Life and style", "webPublicationDate": "2013-06-29T23:06:47Z", "webTitle": "Cycling's growing cafe society offers the ideal place to sit and watch the Tour", "webUrl": "https://www.theguardian.com/lifeandstyle/2013/jun/30/bike-workshops-cater-cyclist-needs", "apiUrl": "https://content.guardianapis.com/lifeandstyle/2013/jun/30/bike-workshops-cater-cyclist-needs", "isHosted": false, "pillarId": "pillar/lifestyle", "pillarName": "Lifestyle"}, {"id": "lifeandstyle/2013/jun/30/yuzu-manchester-restaurant-review", "type": "article", "sectionId": "food", "sectionName": "Food", "webPublicationDate": "2013-06-29T23:05:21Z", "webTitle": "Yuzu, Manchester: restaurant review", "webUrl": "https://www.theguardian.com/lifeandstyle/2013/jun/30/yuzu-manchester-restaurant-review", "apiUrl": "https://content.guardianapis.com/lifeandstyle/2013/jun/30/yuzu-manchester-restaurant-review", "isHosted": false, "pillarId": "pillar/lifestyle", "pillarName": "Lifestyle"}, {"id": "lifeandstyle/2013/jun/29/wines-of-the-week-pinot-grigios", "type": "article", "sectionId": "food", "sectionName": "Food", "webPublicationDate": "2013-06-29T12:00:01Z", "webTitle": "Wines of the week: three exciting Pinot Grigios", "webUrl": "https://www.theguardian.com/lifeandstyle/2013/jun/29/wines-of-the-week-pinot-grigios", "apiUrl": "https://content.guardianapis.com/lifeandstyle/2013/jun/29/wines-of-the-week-pinot-grigios", "isHosted": false, "pillarId": "pillar/lifestyle", "pillarName": "Lifestyle"}, {"id": "society/2013/jun/29/hospitals-throw-away-quarter-of-food", "type": "article", "sectionId": "society", "sectionName": "Society", "webPublicationDate": "2013-06-29T11:33:02Z", "webTitle": "Hospitals are wasting 82,000 meals a day", "webUrl": "https://www.theguardian.com/society/2013/jun/29/hospitals-throw-away-quarter-of-food", "apiUrl": "https://content.guardianapis.com/society/2013/jun/29/hospitals-throw-away-quarter-of-food", "isHosted": false, "pillarId": "pillar/news", "pillarName": "News"}, {"id": "lifeandstyle/2013/jun/29/bells-diner-bristol-restaurant-review", "type": "article", "sectionId": "lifeandstyle", "sectionName": "Life and style", "webPublicationDate": "2013-06-29T08:00:43Z", "webTitle": "Restaurant: Bell's Diner & Bar Rooms, Bristol", "webUrl": "https://www.theguardian.com/lifeandstyle/2013/jun/29/bells-diner-bristol-restaurant-review", "apiUrl": "https://content.guardianapis.com/lifeandstyle/2013/jun/29/bells-diner-bristol-restaurant-review", "isHosted": false, "pillarId": "pillar/lifestyle", "pillarName": "Lifestyle"}, {"id": "lifeandstyle/2013/jun/29/wine-for-barbecues-fiona-beckett", "type": "article", "sectionId": "food", "sectionName": "Food", "webPublicationDate": "2013-06-29T08:00:00Z", "webTitle": "Wine: supermarket bottles for barbecues", "webUrl": "https://www.theguardian.com/lifeandstyle/2013/jun/29/wine-for-barbecues-fiona-beckett", "apiUrl": "https://content.guardianapis.com/lifeandstyle/2013/jun/29/wine-for-barbecues-fiona-beckett", "isHosted": false, "pillarId": "pillar/lifestyle", "pillarName": "Lifestyle"}, {"id": "lifeandstyle/2013/jun/29/readers-recipe-swap-vegan", "type": "article", "sectionId": "lifeandstyle", "sectionName": "Life and style", "webPublicationDate": "2013-06-29T07:00:37Z", "webTitle": "Readers' recipe swap: vegan | Felicity Cloake", "webUrl": "https://www.theguardian.com/lifeandstyle/2013/jun/29/readers-recipe-swap-vegan", "apiUrl": "https://content.guardianapis.com/lifeandstyle/2013/jun/29/readers-recipe-swap-vegan", "isHosted": false, "pillarId": "pillar/lifestyle", "pillarName": "Lifestyle"}, {"id": "lifeandstyle/2013/jun/29/10-best-ice-recipes-food-and-drink", "type": "article", "sectionId": "lifeandstyle", "sectionName": "Life and style", "webPublicationDate": "2013-06-29T07:00:00Z", "webTitle": "The 10 best iced recipes", "webUrl": "https://www.theguardian.com/lifeandstyle/2013/jun/29/10-best-ice-recipes-food-and-drink", "apiUrl": "https://content.guardianapis.com/lifeandstyle/2013/jun/29/10-best-ice-recipes-food-and-drink", "isHosted": false, "pillarId": "pillar/lifestyle", "pillarName": "Lifestyle"}, {"id": "lifeandstyle/2013/jun/29/meet-the-producer-corned-beef", "type": "article", "sectionId": "lifeandstyle", "sectionName": "Life and style", "webPublicationDate": "2013-06-29T06:53:00Z", "webTitle": "The corned beef revival | Meet the producer", "webUrl": "https://www.theguardian.com/lifeandstyle/2013/jun/29/meet-the-producer-corned-beef", "apiUrl": "https://content.guardianapis.com/lifeandstyle/2013/jun/29/meet-the-producer-corned-beef", "isHosted": false, "pillarId": "pillar/lifestyle", "pillarName": "Lifestyle"}, {"id": "lifeandstyle/2013/jun/29/dads-adventures-manchester-city-chicken-stuffing", "type": "article", "sectionId": "lifeandstyle", "sectionName": "Life and style", "webPublicationDate": "2013-06-29T06:15:00Z", "webTitle": "Family life: Dad's adventures, Manchester City FC and Mum's chicken stuffing", "webUrl": "https://www.theguardian.com/lifeandstyle/2013/jun/29/dads-adventures-manchester-city-chicken-stuffing", "apiUrl": "https://content.guardianapis.com/lifeandstyle/2013/jun/29/dads-adventures-manchester-city-chicken-stuffing", "isHosted": false, "pillarId": "pillar/lifestyle", "pillarName": "Lifestyle"}, {"id": "lifeandstyle/2013/jun/29/good-for-you-cherries", "type": "article", "sectionId": "lifeandstyle", "sectionName": "Life and style", "webPublicationDate": "2013-06-29T06:00:43Z", "webTitle": "Why cherries are good for you", "webUrl": "https://www.theguardian.com/lifeandstyle/2013/jun/29/good-for-you-cherries", "apiUrl": "https://content.guardianapis.com/lifeandstyle/2013/jun/29/good-for-you-cherries", "isHosted": false, "pillarId": "pillar/lifestyle", "pillarName": "Lifestyle"}, {"id": "lifeandstyle/2013/jun/29/henry-dimbleby-drinks-elderflower-gooseberry", "type": "article", "sectionId": "lifeandstyle", "sectionName": "Life and style", "webPublicationDate": "2013-06-29T06:00:40Z", "webTitle": "Make your own elderflower and gooseberry cordial", "webUrl": "https://www.theguardian.com/lifeandstyle/2013/jun/29/henry-dimbleby-drinks-elderflower-gooseberry", "apiUrl": "https://content.guardianapis.com/lifeandstyle/2013/jun/29/henry-dimbleby-drinks-elderflower-gooseberry", "isHosted": false, "pillarId": "pillar/lifestyle", "pillarName": "Lifestyle"}, {"id": "lifeandstyle/2013/jun/29/cooking-quinoa-lentils-couscous", "type": "article", "sectionId": "lifeandstyle", "sectionName": "Life and style", "webPublicationDate": "2013-06-29T06:00:38Z", "webTitle": "Add interest to a bland bowl of grains | Ask Sonya", "webUrl": "https://www.theguardian.com/lifeandstyle/2013/jun/29/cooking-quinoa-lentils-couscous", "apiUrl": "https://content.guardianapis.com/lifeandstyle/2013/jun/29/cooking-quinoa-lentils-couscous", "isHosted": false, "pillarId": "pillar/lifestyle", "pillarName": "Lifestyle"}, {"id": "lifeandstyle/2013/jun/29/persian-picnic-get-together", "type": "article", "sectionId": "global", "sectionName": "Global", "webPublicationDate": "2013-06-29T05:59:03Z", "webTitle": "Get-togethers: a Persian picnic", "webUrl": "https://www.theguardian.com/lifeandstyle/2013/jun/29/persian-picnic-get-together", "apiUrl": "https://content.guardianapis.com/lifeandstyle/2013/jun/29/persian-picnic-get-together", "isHosted": false}, {"id": "lifeandstyle/2013/jun/28/meringue-recipes-hugh-fearnley-whittingstall", "type": "article", "sectionId": "lifeandstyle", "sectionName": "Life and style", "webPublicationDate": "2013-06-28T20:00:01Z", "webTitle": "Gee whisk: Hugh Fearnley-Whittingstall's meringue recipes", "webUrl": "https://www.theguardian.com/lifeandstyle/2013/jun/28/meringue-recipes-hugh-fearnley-whittingstall", "apiUrl": "https://content.guardianapis.com/lifeandstyle/2013/jun/28/meringue-recipes-hugh-fearnley-whittingstall", "isHosted": false, "pillarId": "pillar/lifestyle", "pillarName": "Lifestyle"}, {"id": "science/blog/2013/jun/28/six-chemicals-food-drink-banned", "type": "article", "sectionId": "science", "sectionName": "Science", "webPublicationDate": "2013-06-28T16:37:54Z", "webTitle": "Six chemicals we consume in our food and drink that should be banned | Dr Mark Lorch", "webUrl": "https://www.theguardian.com/science/blog/2013/jun/28/six-chemicals-food-drink-banned", "apiUrl": "https://content.guardianapis.com/science/blog/2013/jun/28/six-chemicals-food-drink-banned", "isHosted": false, "pillarId": "pillar/news", "pillarName": "News"}, {"id": "business/2013/jun/28/burger-battle-five-guys-shake-shack-london", "type": "article", "sectionId": "business", "sectionName": "Business", "webPublicationDate": "2013-06-28T15:57:51Z", "webTitle": "Burger battle heats up as Five Guys and Shake Shack arrive in UK", "webUrl": "https://www.theguardian.com/business/2013/jun/28/burger-battle-five-guys-shake-shack-london", "apiUrl": "https://content.guardianapis.com/business/2013/jun/28/burger-battle-five-guys-shake-shack-london", "isHosted": false, "pillarId": "pillar/news", "pillarName": "News"}, {"id": "artanddesign/2013/jun/28/grasshopper-breeder-lepsis-design-award-food", "type": "article", "sectionId": "artanddesign", "sectionName": "Art and design", "webPublicationDate": "2013-06-28T14:52:46Z", "webTitle": "Grasshopper breeder up for design award and educating western palates", "webUrl": "https://www.theguardian.com/artanddesign/2013/jun/28/grasshopper-breeder-lepsis-design-award-food", "apiUrl": "https://content.guardianapis.com/artanddesign/2013/jun/28/grasshopper-breeder-lepsis-design-award-food", "isHosted": false, "pillarId": "pillar/arts", "pillarName": "Arts"}, {"id": "politics/2013/jun/27/george-osborne-wise-byron-burger", "type": "article", "sectionId": "politics", "sectionName": "Politics", "webPublicationDate": "2013-06-27T14:54:11Z", "webTitle": "Why George Osborne was wise to choose a Byron burger", "webUrl": "https://www.theguardian.com/politics/2013/jun/27/george-osborne-wise-byron-burger", "apiUrl": "https://content.guardianapis.com/politics/2013/jun/27/george-osborne-wise-byron-burger", "isHosted": false, "pillarId": "pillar/news", "pillarName": "News"}, {"id": "lifeandstyle/wordofmouth/2013/jun/27/chefs-not-rock-stars-cooking", "type": "article", "sectionId": "lifeandstyle", "sectionName": "Life and style", "webPublicationDate": "2013-06-27T09:17:00Z", "webTitle": "Hey chefs, we're not rock stars", "webUrl": "https://www.theguardian.com/lifeandstyle/wordofmouth/2013/jun/27/chefs-not-rock-stars-cooking", "apiUrl": "https://content.guardianapis.com/lifeandstyle/wordofmouth/2013/jun/27/chefs-not-rock-stars-cooking", "isHosted": false, "pillarId": "pillar/lifestyle", "pillarName": "Lifestyle"}, {"id": "lifeandstyle/2013/jun/27/isle-of-man-scallops-shellfish-success-story", "type": "article", "sectionId": "food", "sectionName": "Food", "webPublicationDate": "2013-06-27T07:00:00Z", "webTitle": "Isle of Man queen scallops: a shellfish success story", "webUrl": "https://www.theguardian.com/lifeandstyle/2013/jun/27/isle-of-man-scallops-shellfish-success-story", "apiUrl": "https://content.guardianapis.com/lifeandstyle/2013/jun/27/isle-of-man-scallops-shellfish-success-story", "isHosted": false, "pillarId": "pillar/lifestyle", "pillarName": "Lifestyle"}, {"id": "travel/2013/jun/27/top-10-budget-restaurants-cafes-aberystwyth-wales", "type": "article", "sectionId": "travel", "sectionName": "Travel", "webPublicationDate": "2013-06-27T06:00:00Z", "webTitle": "Top 10 budget restaurants and cafes in Aberystwyth", "webUrl": "https://www.theguardian.com/travel/2013/jun/27/top-10-budget-restaurants-cafes-aberystwyth-wales", "apiUrl": "https://content.guardianapis.com/travel/2013/jun/27/top-10-budget-restaurants-cafes-aberystwyth-wales", "isHosted": false, "pillarId": "pillar/lifestyle", "pillarName": "Lifestyle"}, {"id": "commentisfree/2013/jun/26/colour-coded-cutlery-science-taste", "type": "article", "sectionId": "commentisfree", "sectionName": "Opinion", "webPublicationDate": "2013-06-26T17:07:47Z", "webTitle": "Colour-coded cutlery and the science of taste | Amy Fleming", "webUrl": "https://www.theguardian.com/commentisfree/2013/jun/26/colour-coded-cutlery-science-taste", "apiUrl": "https://content.guardianapis.com/commentisfree/2013/jun/26/colour-coded-cutlery-science-taste", "isHosted": false, "pillarId": "pillar/opinion", "pillarName": "Opinion"}, {"id": "lifeandstyle/2013/jun/26/why-no-word-for-horse-meat", "type": "article", "sectionId": "lifeandstyle", "sectionName": "Life and style", "webPublicationDate": "2013-06-26T14:00:00Z", "webTitle": "Why is there no other word for horsemeat?", "webUrl": "https://www.theguardian.com/lifeandstyle/2013/jun/26/why-no-word-for-horse-meat", "apiUrl": "https://content.guardianapis.com/lifeandstyle/2013/jun/26/why-no-word-for-horse-meat", "isHosted": false, "pillarId": "pillar/lifestyle", "pillarName": "Lifestyle"}, {"id": "lifeandstyle/wordofmouth/2013/jun/26/how-to-make-perfect-banoffee-pie", "type": "article", "sectionId": "food", "sectionName": "Food", "webPublicationDate": "2013-06-26T11:41:00Z", "webTitle": "How to make the perfect banoffee pie", "webUrl": "https://www.theguardian.com/lifeandstyle/wordofmouth/2013/jun/26/how-to-make-perfect-banoffee-pie", "apiUrl": "https://content.guardianapis.com/lifeandstyle/wordofmouth/2013/jun/26/how-to-make-perfect-banoffee-pie", "isHosted": false, "pillarId": "pillar/lifestyle", "pillarName": "Lifestyle"}, {"id": "lifeandstyle/video/2013/jun/26/how-to-make-banoffee-pie-video", "type": "video", "sectionId": "food", "sectionName": "Food", "webPublicationDate": "2013-06-26T10:17:00Z", "webTitle": "How to make the perfect banoffee pie - video", "webUrl": "https://www.theguardian.com/lifeandstyle/video/2013/jun/26/how-to-make-banoffee-pie-video", "apiUrl": "https://content.guardianapis.com/lifeandstyle/video/2013/jun/26/how-to-make-banoffee-pie-video", "isHosted": false, "pillarId": "pillar/lifestyle", "pillarName": "Lifestyle"}, {"id": "lifeandstyle/2013/jun/26/angela-hartnett-cod-broad-beans-salami-recipe", "type": "article", "sectionId": "lifeandstyle", "sectionName": "Life and style", "webPublicationDate": "2013-06-26T08:53:00Z", "webTitle": "Angela Hartnett's cod with broad beans, salami and mint recipe", "webUrl": "https://www.theguardian.com/lifeandstyle/2013/jun/26/angela-hartnett-cod-broad-beans-salami-recipe", "apiUrl": "https://content.guardianapis.com/lifeandstyle/2013/jun/26/angela-hartnett-cod-broad-beans-salami-recipe", "isHosted": false, "pillarId": "pillar/lifestyle", "pillarName": "Lifestyle"}, {"id": "lifeandstyle/wordofmouth/2013/jun/25/french-food-need-rescuing", "type": "article", "sectionId": "food", "sectionName": "Food", "webPublicationDate": "2013-06-25T09:00:00Z", "webTitle": "Does French food need rescuing?", "webUrl": "https://www.theguardian.com/lifeandstyle/wordofmouth/2013/jun/25/french-food-need-rescuing", "apiUrl": "https://content.guardianapis.com/lifeandstyle/wordofmouth/2013/jun/25/french-food-need-rescuing", "isHosted": false, "pillarId": "pillar/lifestyle", "pillarName": "Lifestyle"}, {"id": "lifeandstyle/video/2013/jun/25/le-becasse-clockjack-oven-video", "type": "video", "sectionId": "lifeandstyle", "sectionName": "Life and style", "webPublicationDate": "2013-06-25T08:34:00Z", "webTitle": "Le Becasse chef recommends Clockjack Oven - video", "webUrl": "https://www.theguardian.com/lifeandstyle/video/2013/jun/25/le-becasse-clockjack-oven-video", "apiUrl": "https://content.guardianapis.com/lifeandstyle/video/2013/jun/25/le-becasse-clockjack-oven-video", "isHosted": false, "pillarId": "pillar/lifestyle", "pillarName": "Lifestyle"}, {"id": "lifeandstyle/2013/jun/24/food-and-drink", "type": "article", "sectionId": "lifeandstyle", "sectionName": "Life and style", "webPublicationDate": "2013-06-25T06:00:00Z", "webTitle": "Buy of the day", "webUrl": "https://www.theguardian.com/lifeandstyle/2013/jun/24/food-and-drink", "apiUrl": "https://content.guardianapis.com/lifeandstyle/2013/jun/24/food-and-drink", "isHosted": false, "pillarId": "pillar/lifestyle", "pillarName": "Lifestyle"}, {"id": "lifeandstyle/shortcuts/2013/jun/24/should-we-listen-wine-critics", "type": "article", "sectionId": "food", "sectionName": "Food", "webPublicationDate": "2013-06-24T14:31:00Z", "webTitle": "Should we listen to wine critics?", "webUrl": "https://www.theguardian.com/lifeandstyle/shortcuts/2013/jun/24/should-we-listen-wine-critics", "apiUrl": "https://content.guardianapis.com/lifeandstyle/shortcuts/2013/jun/24/should-we-listen-wine-critics", "isHosted": false, "pillarId": "pillar/lifestyle", "pillarName": "Lifestyle"}, {"id": "lifeandstyle/video/2013/jun/24/how-to-joint-rabbit-video", "type": "video", "sectionId": "food", "sectionName": "Food", "webPublicationDate": "2013-06-24T08:00:00Z", "webTitle": "How to joint a rabbit - video", "webUrl": "https://www.theguardian.com/lifeandstyle/video/2013/jun/24/how-to-joint-rabbit-video", "apiUrl": "https://content.guardianapis.com/lifeandstyle/video/2013/jun/24/how-to-joint-rabbit-video", "isHosted": false, "pillarId": "pillar/lifestyle", "pillarName": "Lifestyle"}, {"id": "lifeandstyle/australia-food-blog/video/2013/jun/24/video-recipe-jam-persimmon-strawberry-bondi-harvest", "type": "video", "sectionId": "lifeandstyle", "sectionName": "Life and style", "webPublicationDate": "2013-06-24T00:20:00Z", "webTitle": "Persimmon, strawberry, ginger and vanilla bean jam \u2013 Bondi Harvest video recipe", "webUrl": "https://www.theguardian.com/lifeandstyle/australia-food-blog/video/2013/jun/24/video-recipe-jam-persimmon-strawberry-bondi-harvest", "apiUrl": "https://content.guardianapis.com/lifeandstyle/australia-food-blog/video/2013/jun/24/video-recipe-jam-persimmon-strawberry-bondi-harvest", "isHosted": false, "pillarId": "pillar/lifestyle", "pillarName": "Lifestyle"}, {"id": "lifeandstyle/2013/jun/23/stk-restaurant-review-jay-rayner", "type": "article", "sectionId": "food", "sectionName": "Food", "webPublicationDate": "2013-06-23T06:37:01Z", "webTitle": "STK: restaurant review", "webUrl": "https://www.theguardian.com/lifeandstyle/2013/jun/23/stk-restaurant-review-jay-rayner", "apiUrl": "https://content.guardianapis.com/lifeandstyle/2013/jun/23/stk-restaurant-review-jay-rayner", "isHosted": false, "pillarId": "pillar/lifestyle", "pillarName": "Lifestyle"}, {"id": "lifeandstyle/2013/jun/23/wine-tasting-junk-science-analysis", "type": "article", "sectionId": "food", "sectionName": "Food", "webPublicationDate": "2013-06-22T23:01:01Z", "webTitle": "Wine-tasting: it's junk science", "webUrl": "https://www.theguardian.com/lifeandstyle/2013/jun/23/wine-tasting-junk-science-analysis", "apiUrl": "https://content.guardianapis.com/lifeandstyle/2013/jun/23/wine-tasting-junk-science-analysis", "isHosted": false, "pillarId": "pillar/lifestyle", "pillarName": "Lifestyle"}, {"id": "lifeandstyle/2013/jun/22/wines-of-the-week-rieslings-summer", "type": "article", "sectionId": "food", "sectionName": "Food", "webPublicationDate": "2013-06-22T11:59:01Z", "webTitle": "Wines of the week: a trio of Rieslings for summer", "webUrl": "https://www.theguardian.com/lifeandstyle/2013/jun/22/wines-of-the-week-rieslings-summer", "apiUrl": "https://content.guardianapis.com/lifeandstyle/2013/jun/22/wines-of-the-week-rieslings-summer", "isHosted": false, "pillarId": "pillar/lifestyle", "pillarName": "Lifestyle"}, {"id": "lifeandstyle/2013/jun/22/baiwei-london-wc2-restaurant-review", "type": "article", "sectionId": "lifeandstyle", "sectionName": "Life and style", "webPublicationDate": "2013-06-22T08:02:25Z", "webTitle": "Restaurant: Baiwei, London WC2", "webUrl": "https://www.theguardian.com/lifeandstyle/2013/jun/22/baiwei-london-wc2-restaurant-review", "apiUrl": "https://content.guardianapis.com/lifeandstyle/2013/jun/22/baiwei-london-wc2-restaurant-review", "isHosted": false, "pillarId": "pillar/lifestyle", "pillarName": "Lifestyle"}, {"id": "lifeandstyle/2013/jun/22/wine-australian-fiona-beckett", "type": "article", "sectionId": "food", "sectionName": "Food", "webPublicationDate": "2013-06-22T08:00:55Z", "webTitle": "Wine: best Australian bottles", "webUrl": "https://www.theguardian.com/lifeandstyle/2013/jun/22/wine-australian-fiona-beckett", "apiUrl": "https://content.guardianapis.com/lifeandstyle/2013/jun/22/wine-australian-fiona-beckett", "isHosted": false, "pillarId": "pillar/lifestyle", "pillarName": "Lifestyle"}, {"id": "uk/2013/jun/22/40-consequences-10-wet-summers", "type": "article", "sectionId": "uk-news", "sectionName": "UK news", "webPublicationDate": "2013-06-22T08:00:00Z", "webTitle": "40 consequences of 10 wet summers: what will a decade of rain do to us?", "webUrl": "https://www.theguardian.com/uk/2013/jun/22/40-consequences-10-wet-summers", "apiUrl": "https://content.guardianapis.com/uk/2013/jun/22/40-consequences-10-wet-summers", "isHosted": false, "pillarId": "pillar/news", "pillarName": "News"}, {"id": "lifeandstyle/2013/jun/22/happiness-hammock-long-ago-yorkshire-pudding", "type": "article", "sectionId": "lifeandstyle", "sectionName": "Life and style", "webPublicationDate": "2013-06-22T06:30:00Z", "webTitle": "Family life: Happiness is a hammock, Long Ago and Far Away and Yorkshire pudding", "webUrl": "https://www.theguardian.com/lifeandstyle/2013/jun/22/happiness-hammock-long-ago-yorkshire-pudding", "apiUrl": "https://content.guardianapis.com/lifeandstyle/2013/jun/22/happiness-hammock-long-ago-yorkshire-pudding", "isHosted": false, "pillarId": "pillar/lifestyle", "pillarName": "Lifestyle"}, {"id": "lifeandstyle/2013/jun/22/ask-sonya-simple-meals", "type": "article", "sectionId": "lifeandstyle", "sectionName": "Life and style", "webPublicationDate": "2013-06-22T06:01:08Z", "webTitle": "Simple meals for teens | Ask Sonya", "webUrl": "https://www.theguardian.com/lifeandstyle/2013/jun/22/ask-sonya-simple-meals", "apiUrl": "https://content.guardianapis.com/lifeandstyle/2013/jun/22/ask-sonya-simple-meals", "isHosted": false, "pillarId": "pillar/lifestyle", "pillarName": "Lifestyle"}, {"id": "lifeandstyle/2013/jun/22/henry-dimbleby-strawberry-basil-soda", "type": "article", "sectionId": "lifeandstyle", "sectionName": "Life and style", "webPublicationDate": "2013-06-22T06:01:05Z", "webTitle": "How to make strawberry and basil soda", "webUrl": "https://www.theguardian.com/lifeandstyle/2013/jun/22/henry-dimbleby-strawberry-basil-soda", "apiUrl": "https://content.guardianapis.com/lifeandstyle/2013/jun/22/henry-dimbleby-strawberry-basil-soda", "isHosted": false, "pillarId": "pillar/lifestyle", "pillarName": "Lifestyle"}, {"id": "lifeandstyle/2013/jun/22/get-togethers-finninsh-feast", "type": "article", "sectionId": "lifeandstyle", "sectionName": "Life and style", "webPublicationDate": "2013-06-22T06:00:59Z", "webTitle": "A midsummer Finnish feast", "webUrl": "https://www.theguardian.com/lifeandstyle/2013/jun/22/get-togethers-finninsh-feast", "apiUrl": "https://content.guardianapis.com/lifeandstyle/2013/jun/22/get-togethers-finninsh-feast", "isHosted": false, "pillarId": "pillar/lifestyle", "pillarName": "Lifestyle"}, {"id": "lifeandstyle/2013/jun/22/sourdough-bread-good-for-you", "type": "article", "sectionId": "lifeandstyle", "sectionName": "Life and style", "webPublicationDate": "2013-06-22T06:00:55Z", "webTitle": "Why sourdough bread is good for you", "webUrl": "https://www.theguardian.com/lifeandstyle/2013/jun/22/sourdough-bread-good-for-you", "apiUrl": "https://content.guardianapis.com/lifeandstyle/2013/jun/22/sourdough-bread-good-for-you", "isHosted": false, "pillarId": "pillar/lifestyle", "pillarName": "Lifestyle"}, {"id": "lifeandstyle/2013/jun/22/meet-the-producer-chocolatier-amelia-rope", "type": "article", "sectionId": "lifeandstyle", "sectionName": "Life and style", "webPublicationDate": "2013-06-22T06:00:53Z", "webTitle": "Meet the producer: 'My background in aromatherapy is vital' | Meet the producer", "webUrl": "https://www.theguardian.com/lifeandstyle/2013/jun/22/meet-the-producer-chocolatier-amelia-rope", "apiUrl": "https://content.guardianapis.com/lifeandstyle/2013/jun/22/meet-the-producer-chocolatier-amelia-rope", "isHosted": false, "pillarId": "pillar/lifestyle", "pillarName": "Lifestyle"}, {"id": "lifeandstyle/2013/jun/22/10-best-pizza-recipes", "type": "article", "sectionId": "lifeandstyle", "sectionName": "Life and style", "webPublicationDate": "2013-06-22T06:00:46Z", "webTitle": "The 10 best pizza recipes", "webUrl": "https://www.theguardian.com/lifeandstyle/2013/jun/22/10-best-pizza-recipes", "apiUrl": "https://content.guardianapis.com/lifeandstyle/2013/jun/22/10-best-pizza-recipes", "isHosted": false, "pillarId": "pillar/lifestyle", "pillarName": "Lifestyle"}, {"id": "lifeandstyle/2013/jun/22/readers-recipe-swap-pressure-cooked-felicity-cloake", "type": "article", "sectionId": "lifeandstyle", "sectionName": "Life and style", "webPublicationDate": "2013-06-22T06:00:00Z", "webTitle": "Readers' recipe swap: Pressure cooked | Felicity Cloake", "webUrl": "https://www.theguardian.com/lifeandstyle/2013/jun/22/readers-recipe-swap-pressure-cooked-felicity-cloake", "apiUrl": "https://content.guardianapis.com/lifeandstyle/2013/jun/22/readers-recipe-swap-pressure-cooked-felicity-cloake", "isHosted": false, "pillarId": "pillar/lifestyle", "pillarName": "Lifestyle"}, {"id": "travel/2013/jun/22/austin-texas-food-music-festivals", "type": "article", "sectionId": "travel", "sectionName": "Travel", "webPublicationDate": "2013-06-21T23:10:00Z", "webTitle": "Austin, Texas: music, food, more food, and a touch of the weird", "webUrl": "https://www.theguardian.com/travel/2013/jun/22/austin-texas-food-music-festivals", "apiUrl": "https://content.guardianapis.com/travel/2013/jun/22/austin-texas-food-music-festivals", "isHosted": false, "pillarId": "pillar/lifestyle", "pillarName": "Lifestyle"}, {"id": "travel/2013/jun/22/top-10-restaurants-cafes-albuquerque-new-mexico", "type": "article", "sectionId": "travel", "sectionName": "Travel", "webPublicationDate": "2013-06-21T23:10:00Z", "webTitle": "Top 10 restaurants, cafes and diners in Albuquerque, New Mexico", "webUrl": "https://www.theguardian.com/travel/2013/jun/22/top-10-restaurants-cafes-albuquerque-new-mexico", "apiUrl": "https://content.guardianapis.com/travel/2013/jun/22/top-10-restaurants-cafes-albuquerque-new-mexico", "isHosted": false, "pillarId": "pillar/lifestyle", "pillarName": "Lifestyle"}, {"id": "travel/2013/jun/22/amarillo-texas-us-food-restaurants-hotels-attractions", "type": "article", "sectionId": "travel", "sectionName": "Travel", "webPublicationDate": "2013-06-21T23:10:00Z", "webTitle": "Amarillo, Texas: show me the way to eat, sleep and have fun", "webUrl": "https://www.theguardian.com/travel/2013/jun/22/amarillo-texas-us-food-restaurants-hotels-attractions", "apiUrl": "https://content.guardianapis.com/travel/2013/jun/22/amarillo-texas-us-food-restaurants-hotels-attractions", "isHosted": false, "pillarId": "pillar/lifestyle", "pillarName": "Lifestyle"}]}}