{"response": {"status": "ok", "userTier": "developer", "total": 85661, "startIndex": 1, "pageSize": 50, "currentPage": 1, "pages": 1714, "orderBy": "newest", "results": [{"id": "football/quiz/2011/jul/01/football-quiz-copa-america", "type": "article", "sectionId": "global", "sectionName": "Global", "webPublicationDate": "2011-06-30T23:06:00Z", "webTitle": "Football quiz: Copa Am\u00e9rica", "webUrl": "https://www.theguardian.com/football/quiz/2011/jul/01/football-quiz-copa-america", "apiUrl": "https://content.guardianapis.com/football/quiz/2011/jul/01/football-quiz-copa-america", "isHosted": false}, {"id": "sport/2011/jun/30/jill-scott-small-talk", "type": "article", "sectionId": "sport", "sectionName": "Sport", "webPublicationDate": "2011-06-30T23:00:42Z", "webTitle": "Jill Scott: 'If it came down to it, I think Anita could knock you out' | Small Talk | John Ashdown", "webUrl": "https://www.theguardian.com/sport/2011/jun/30/jill-scott-small-talk", "apiUrl": "https://content.guardianapis.com/sport/2011/jun/30/jill-scott-small-talk", "isHosted": false, "pillarId": "pillar/sport", "pillarName": "Sport"}, {"id": "football/2011/jun/30/england-eniola-aluko-womens-world-cup", "type": "article", "sectionId": "football", "sectionName": "Football", "webPublicationDate": "2011-06-30T21:00:07Z", "webTitle": "England's Eniola Aluko hits back at Twitter abuse for World Cup misses", "webUrl": "https://www.theguardian.com/football/2011/jun/30/england-eniola-aluko-womens-world-cup", "apiUrl": "https://content.guardianapis.com/football/2011/jun/30/england-eniola-aluko-womens-world-cup", "isHosted": false, "pillarId": "pillar/sport", "pillarName": "Sport"}, {"id": "football/2011/jun/30/fulham-nsi-runavik-europa-league", "type": "article", "sectionId": "football", "sectionName": "Football", "webPublicationDate": "2011-06-30T20:46:50Z", "webTitle": "Fulham begin season in June with Europe League win over NSI Runavik", "webUrl": "https://www.theguardian.com/football/2011/jun/30/fulham-nsi-runavik-europa-league", "apiUrl": "https://content.guardianapis.com/football/2011/jun/30/fulham-nsi-runavik-europa-league", "isHosted": false, "pillarId": "pillar/sport", "pillarName": "Sport"}, {"id": "football/gallery/2011/jun/30/ten-to-watch-copa-america", "type": "gallery", "sectionId": "football", "sectionName": "Football", "webPublicationDate": "2011-06-30T20:14:52Z", "webTitle": "Ten to watch at the 2011 Copa Am\u00e9rica - in pictures", "webUrl": "https://www.theguardian.com/football/gallery/2011/jun/30/ten-to-watch-copa-america", "apiUrl": "https://content.guardianapis.com/football/gallery/2011/jun/30/ten-to-watch-copa-america", "isHosted": false, "pillarId": "pillar/sport", "pillarName": "Sport"}, {"id": "football/2011/jun/30/football-league-carson-yeung-birmingham-city", "type": "article", "sectionId": "football", "sectionName": "Football", "webPublicationDate": "2011-06-30T19:58:00Z", "webTitle": "No Football League sanctions yet for Carson Yeung or Birmingham City", "webUrl": "https://www.theguardian.com/football/2011/jun/30/football-league-carson-yeung-birmingham-city", "apiUrl": "https://content.guardianapis.com/football/2011/jun/30/football-league-carson-yeung-birmingham-city", "isHosted": false, "pillarId": "pillar/sport", "pillarName": "Sport"}, {"id": "football/2011/jun/30/manchester-city-gael-clichy-samir-nasri", "type": "article", "sectionId": "football", "sectionName": "Football", "webPublicationDate": "2011-06-30T18:28:38Z", "webTitle": "Manchester City close in on Ga\u00ebl Clichy but deny move for Samir Nasri", "webUrl": "https://www.theguardian.com/football/2011/jun/30/manchester-city-gael-clichy-samir-nasri", "apiUrl": "https://content.guardianapis.com/football/2011/jun/30/manchester-city-gael-clichy-samir-nasri", "isHosted": false, "pillarId": "pillar/sport", "pillarName": "Sport"}, {"id": "football/2011/jun/30/the-fiver-gael-clichy-manchester-city", "type": "article", "sectionId": "football", "sectionName": "Football", "webPublicationDate": "2011-06-30T15:42:02Z", "webTitle": "The Fiver | Wenger proving as good as his word | Simon Burnton", "webUrl": "https://www.theguardian.com/football/2011/jun/30/the-fiver-gael-clichy-manchester-city", "apiUrl": "https://content.guardianapis.com/football/2011/jun/30/the-fiver-gael-clichy-manchester-city", "isHosted": false, "pillarId": "pillar/sport", "pillarName": "Sport"}, {"id": "football/blog/2011/jun/30/carson-yeung-birmingham-city", "type": "article", "sectionId": "football", "sectionName": "Football", "webPublicationDate": "2011-06-30T15:05:03Z", "webTitle": "Carson Yeung's legal troubles cast cloud over Birmingham City | Stuart James", "webUrl": "https://www.theguardian.com/football/blog/2011/jun/30/carson-yeung-birmingham-city", "apiUrl": "https://content.guardianapis.com/football/blog/2011/jun/30/carson-yeung-birmingham-city", "isHosted": false, "pillarId": "pillar/sport", "pillarName": "Sport"}, {"id": "football/2011/jun/30/ji-dong-won-sunderland-signing", "type": "article", "sectionId": "football", "sectionName": "Football", "webPublicationDate": "2011-06-30T15:03:00Z", "webTitle": "Sunderland close in on Manchester United defender John O'Shea", "webUrl": "https://www.theguardian.com/football/2011/jun/30/ji-dong-won-sunderland-signing", "apiUrl": "https://content.guardianapis.com/football/2011/jun/30/ji-dong-won-sunderland-signing", "isHosted": false, "pillarId": "pillar/sport", "pillarName": "Sport"}, {"id": "books/2011/jun/30/christina-stead-home-footballer", "type": "article", "sectionId": "books", "sectionName": "Books", "webPublicationDate": "2011-06-30T14:58:58Z", "webTitle": "Campaign to preserve Christina Stead's home seen off by footballer", "webUrl": "https://www.theguardian.com/books/2011/jun/30/christina-stead-home-footballer", "apiUrl": "https://content.guardianapis.com/books/2011/jun/30/christina-stead-home-footballer", "isHosted": false, "pillarId": "pillar/arts", "pillarName": "Arts"}, {"id": "football/blog/2011/jun/30/joe-fagan-liverpool-manager-remembering", "type": "article", "sectionId": "football", "sectionName": "Football", "webPublicationDate": "2011-06-30T14:07:24Z", "webTitle": "Joe Fagan was more than a co-pilot, he validated the Liverpool Way | Gregg Roughley", "webUrl": "https://www.theguardian.com/football/blog/2011/jun/30/joe-fagan-liverpool-manager-remembering", "apiUrl": "https://content.guardianapis.com/football/blog/2011/jun/30/joe-fagan-liverpool-manager-remembering", "isHosted": false, "pillarId": "pillar/sport", "pillarName": "Sport"}, {"id": "football/2011/jun/30/joey-barton-newcastle-alan-pardew", "type": "article", "sectionId": "football", "sectionName": "Football", "webPublicationDate": "2011-06-30T14:00:04Z", "webTitle": "Newcastle happy to allow Joey Barton to run down his contract", "webUrl": "https://www.theguardian.com/football/2011/jun/30/joey-barton-newcastle-alan-pardew", "apiUrl": "https://content.guardianapis.com/football/2011/jun/30/joey-barton-newcastle-alan-pardew", "isHosted": false, "pillarId": "pillar/sport", "pillarName": "Sport"}, {"id": "football/blog/2011/jun/30/argentina-copa-america-brazil", "type": "article", "sectionId": "football", "sectionName": "Football", "webPublicationDate": "2011-06-30T12:30:22Z", "webTitle": "Argentina approach Copa Am\u00e9rica less in hope than trepidation | Jonathan Wilson", "webUrl": "https://www.theguardian.com/football/blog/2011/jun/30/argentina-copa-america-brazil", "apiUrl": "https://content.guardianapis.com/football/blog/2011/jun/30/argentina-copa-america-brazil", "isHosted": false, "pillarId": "pillar/sport", "pillarName": "Sport"}, {"id": "football/2011/jun/30/arsenal-gael-clichy-manchester-city", "type": "article", "sectionId": "football", "sectionName": "Football", "webPublicationDate": "2011-06-30T12:30:13Z", "webTitle": "Arsenal defender Ga\u00ebl Clichy set to seal \u00a37m move to Manchester City", "webUrl": "https://www.theguardian.com/football/2011/jun/30/arsenal-gael-clichy-manchester-city", "apiUrl": "https://content.guardianapis.com/football/2011/jun/30/arsenal-gael-clichy-manchester-city", "isHosted": false, "pillarId": "pillar/sport", "pillarName": "Sport"}, {"id": "football/blog/2011/jun/30/womens-world-cup-lack-goals", "type": "article", "sectionId": "football", "sectionName": "Football", "webPublicationDate": "2011-06-30T11:00:47Z", "webTitle": "Goals, goals, goals? Not yet. But fans are still having a good time | John Ashdown", "webUrl": "https://www.theguardian.com/football/blog/2011/jun/30/womens-world-cup-lack-goals", "apiUrl": "https://content.guardianapis.com/football/blog/2011/jun/30/womens-world-cup-lack-goals", "isHosted": false, "pillarId": "pillar/sport", "pillarName": "Sport"}, {"id": "football/2011/jun/30/the-rumour-mill-liverpool-spurs-juan-mata", "type": "article", "sectionId": "football", "sectionName": "Football", "webPublicationDate": "2011-06-30T09:24:24Z", "webTitle": "Football transfer rumours: Liverpool, Spurs or Arsenal to land Juan Mata? | Simon Burnton", "webUrl": "https://www.theguardian.com/football/2011/jun/30/the-rumour-mill-liverpool-spurs-juan-mata", "apiUrl": "https://content.guardianapis.com/football/2011/jun/30/the-rumour-mill-liverpool-spurs-juan-mata", "isHosted": false, "pillarId": "pillar/sport", "pillarName": "Sport"}, {"id": "sport/blog/2011/jun/30/classic-youtube-sports-clips", "type": "article", "sectionId": "sport", "sectionName": "Sport", "webPublicationDate": "2011-06-30T07:30:00Z", "webTitle": "Classic YouTube | Sneaky old Lance Armstrong, Copa Am\u00e9rica magic and the first golden goal", "webUrl": "https://www.theguardian.com/sport/blog/2011/jun/30/classic-youtube-sports-clips", "apiUrl": "https://content.guardianapis.com/sport/blog/2011/jun/30/classic-youtube-sports-clips", "isHosted": false, "pillarId": "pillar/sport", "pillarName": "Sport"}, {"id": "football/quiz/2011/jun/30/football-quiz-roberto-carlos", "type": "article", "sectionId": "global", "sectionName": "Global", "webPublicationDate": "2011-06-29T23:06:00Z", "webTitle": "Football quiz: Roberto Carlos", "webUrl": "https://www.theguardian.com/football/quiz/2011/jun/30/football-quiz-roberto-carlos", "apiUrl": "https://content.guardianapis.com/football/quiz/2011/jun/30/football-quiz-roberto-carlos", "isHosted": false}, {"id": "football/2011/jun/30/david-gill-fa-manchester-united", "type": "article", "sectionId": "football", "sectionName": "Football", "webPublicationDate": "2011-06-29T23:05:00Z", "webTitle": "David Gill slates FA colleagues for Manchester United 'victimisation'", "webUrl": "https://www.theguardian.com/football/2011/jun/30/david-gill-fa-manchester-united", "apiUrl": "https://content.guardianapis.com/football/2011/jun/30/david-gill-fa-manchester-united", "isHosted": false, "pillarId": "pillar/sport", "pillarName": "Sport"}, {"id": "football/2011/jun/29/andre-villas-boas-chelsea", "type": "article", "sectionId": "football", "sectionName": "Football", "webPublicationDate": "2011-06-29T21:05:00Z", "webTitle": "Andr\u00e9 Villas-Boas: 'I'm expected to win straight away at Chelsea'", "webUrl": "https://www.theguardian.com/football/2011/jun/29/andre-villas-boas-chelsea", "apiUrl": "https://content.guardianapis.com/football/2011/jun/29/andre-villas-boas-chelsea", "isHosted": false, "pillarId": "pillar/sport", "pillarName": "Sport"}, {"id": "football/2011/jun/29/nottingham-forest-mcgoldrick-bristol-city-maynard", "type": "article", "sectionId": "football", "sectionName": "Football", "webPublicationDate": "2011-06-29T20:46:58Z", "webTitle": "Nottingham Forest offer McGoldrick in bid to get Bristol City's Maynard", "webUrl": "https://www.theguardian.com/football/2011/jun/29/nottingham-forest-mcgoldrick-bristol-city-maynard", "apiUrl": "https://content.guardianapis.com/football/2011/jun/29/nottingham-forest-mcgoldrick-bristol-city-maynard", "isHosted": false, "pillarId": "pillar/sport", "pillarName": "Sport"}, {"id": "football/2011/jun/29/river-plate-referee-death-threats", "type": "article", "sectionId": "football", "sectionName": "Football", "webPublicationDate": "2011-06-29T20:41:34Z", "webTitle": "River Plate accused of allowing ultras to threaten referee at half-time", "webUrl": "https://www.theguardian.com/football/2011/jun/29/river-plate-referee-death-threats", "apiUrl": "https://content.guardianapis.com/football/2011/jun/29/river-plate-referee-death-threats", "isHosted": false, "pillarId": "pillar/sport", "pillarName": "Sport"}, {"id": "football/2011/jun/29/west-ham-stoke-city-carlton-cole", "type": "article", "sectionId": "football", "sectionName": "Football", "webPublicationDate": "2011-06-29T20:40:36Z", "webTitle": "West Ham reject Stoke City's opening bid for Carlton Cole", "webUrl": "https://www.theguardian.com/football/2011/jun/29/west-ham-stoke-city-carlton-cole", "apiUrl": "https://content.guardianapis.com/football/2011/jun/29/west-ham-stoke-city-carlton-cole", "isHosted": false, "pillarId": "pillar/sport", "pillarName": "Sport"}, {"id": "football/blog/2011/jun/29/cska-moscow-leonid-slutsky", "type": "article", "sectionId": "football", "sectionName": "Football", "webPublicationDate": "2011-06-29T18:25:54Z", "webTitle": "CSKA Moscow's form could yet turn Leonid Slutsky's frown upside down", "webUrl": "https://www.theguardian.com/football/blog/2011/jun/29/cska-moscow-leonid-slutsky", "apiUrl": "https://content.guardianapis.com/football/blog/2011/jun/29/cska-moscow-leonid-slutsky", "isHosted": false, "pillarId": "pillar/sport", "pillarName": "Sport"}, {"id": "football/2011/jun/29/david-de-gea-manchester-united", "type": "article", "sectionId": "football", "sectionName": "Football", "webPublicationDate": "2011-06-29T17:59:01Z", "webTitle": "David de Gea: I want to be the new Van der Sar at Manchester United", "webUrl": "https://www.theguardian.com/football/2011/jun/29/david-de-gea-manchester-united", "apiUrl": "https://content.guardianapis.com/football/2011/jun/29/david-de-gea-manchester-united", "isHosted": false, "pillarId": "pillar/sport", "pillarName": "Sport"}, {"id": "football/2011/jun/29/the-fiver-fifa-chelsea-villas-boas", "type": "article", "sectionId": "football", "sectionName": "Football", "webPublicationDate": "2011-06-29T14:52:33Z", "webTitle": "The Fiver | Fifa; and American vouchers | Evan Fanning", "webUrl": "https://www.theguardian.com/football/2011/jun/29/the-fiver-fifa-chelsea-villas-boas", "apiUrl": "https://content.guardianapis.com/football/2011/jun/29/the-fiver-fifa-chelsea-villas-boas", "isHosted": false, "pillarId": "pillar/sport", "pillarName": "Sport"}, {"id": "football/blog/2011/jun/29/andre-villas-boas-chelsea", "type": "article", "sectionId": "football", "sectionName": "Football", "webPublicationDate": "2011-06-29T14:23:30Z", "webTitle": "Andr\u00e9 Villas-Boas's debut Chelsea performance is a slow-burn seduction | Barney Ronay", "webUrl": "https://www.theguardian.com/football/blog/2011/jun/29/andre-villas-boas-chelsea", "apiUrl": "https://content.guardianapis.com/football/blog/2011/jun/29/andre-villas-boas-chelsea", "isHosted": false, "pillarId": "pillar/sport", "pillarName": "Sport"}, {"id": "football/video/2011/jun/29/andre-villas-boas-chelsea-press-conference", "type": "video", "sectionId": "football", "sectionName": "Football", "webPublicationDate": "2011-06-29T13:04:00Z", "webTitle": "Andr\u00e9 Villas-Boas meets the press as Chelsea manager for the first time - video", "webUrl": "https://www.theguardian.com/football/video/2011/jun/29/andre-villas-boas-chelsea-press-conference", "apiUrl": "https://content.guardianapis.com/football/video/2011/jun/29/andre-villas-boas-chelsea-press-conference", "isHosted": false, "pillarId": "pillar/sport", "pillarName": "Sport"}, {"id": "football/blog/2011/jun/29/england-fourth-fifa-world-rankings", "type": "article", "sectionId": "football", "sectionName": "Football", "webPublicationDate": "2011-06-29T12:17:23Z", "webTitle": "England the fourth best team in the world \u2026 erm \u2026 how? | Rob Bagchi", "webUrl": "https://www.theguardian.com/football/blog/2011/jun/29/england-fourth-fifa-world-rankings", "apiUrl": "https://content.guardianapis.com/football/blog/2011/jun/29/england-fourth-fifa-world-rankings", "isHosted": false, "pillarId": "pillar/sport", "pillarName": "Sport"}, {"id": "media/greenslade/2011/jun/29/pcc-dailytelegraph", "type": "article", "sectionId": "media", "sectionName": "Media", "webPublicationDate": "2011-06-29T11:53:06Z", "webTitle": "PCC deals with Pippa pictures, a nightclubbing footballer and AV", "webUrl": "https://www.theguardian.com/media/greenslade/2011/jun/29/pcc-dailytelegraph", "apiUrl": "https://content.guardianapis.com/media/greenslade/2011/jun/29/pcc-dailytelegraph", "isHosted": false, "pillarId": "pillar/news", "pillarName": "News"}, {"id": "football/2011/jun/29/barcelona-bid-arsenal-cesc-fabregas", "type": "article", "sectionId": "football", "sectionName": "Football", "webPublicationDate": "2011-06-29T11:23:16Z", "webTitle": "Barcelona lodge new \u00a335m bid for Arsenal captain Cesc F\u00e1bregas", "webUrl": "https://www.theguardian.com/football/2011/jun/29/barcelona-bid-arsenal-cesc-fabregas", "apiUrl": "https://content.guardianapis.com/football/2011/jun/29/barcelona-bid-arsenal-cesc-fabregas", "isHosted": false, "pillarId": "pillar/sport", "pillarName": "Sport"}, {"id": "football/blog/2011/jun/29/north-korea-lightning-bolt", "type": "article", "sectionId": "football", "sectionName": "Football", "webPublicationDate": "2011-06-29T10:51:01Z", "webTitle": "North Korea's lightning excuse very much a bolt from the blue | John Ashdown", "webUrl": "https://www.theguardian.com/football/blog/2011/jun/29/north-korea-lightning-bolt", "apiUrl": "https://content.guardianapis.com/football/blog/2011/jun/29/north-korea-lightning-bolt", "isHosted": false, "pillarId": "pillar/sport", "pillarName": "Sport"}, {"id": "football/blog/2011/jun/29/sunderland-connor-wickham", "type": "article", "sectionId": "football", "sectionName": "Football", "webPublicationDate": "2011-06-29T10:24:07Z", "webTitle": "Sunderland punch above their weight with canny move for Connor Wickham | Will Taylor", "webUrl": "https://www.theguardian.com/football/blog/2011/jun/29/sunderland-connor-wickham", "apiUrl": "https://content.guardianapis.com/football/blog/2011/jun/29/sunderland-connor-wickham", "isHosted": false, "pillarId": "pillar/sport", "pillarName": "Sport"}, {"id": "football/2011/jun/29/sammy-lee-liverpool", "type": "article", "sectionId": "football", "sectionName": "Football", "webPublicationDate": "2011-06-29T10:05:47Z", "webTitle": "Sammy Lee departs Liverpool as Steve Clarke set to be new assistant", "webUrl": "https://www.theguardian.com/football/2011/jun/29/sammy-lee-liverpool", "apiUrl": "https://content.guardianapis.com/football/2011/jun/29/sammy-lee-liverpool", "isHosted": false, "pillarId": "pillar/sport", "pillarName": "Sport"}, {"id": "football/2011/jun/29/fifa-rankings-england-fourth-brazil", "type": "article", "sectionId": "football", "sectionName": "Football", "webPublicationDate": "2011-06-29T09:34:00Z", "webTitle": "Fifa world rankings: England soar to fourth place, ahead of Brazil", "webUrl": "https://www.theguardian.com/football/2011/jun/29/fifa-rankings-england-fourth-brazil", "apiUrl": "https://content.guardianapis.com/football/2011/jun/29/fifa-rankings-england-fourth-brazil", "isHosted": false, "pillarId": "pillar/sport", "pillarName": "Sport"}, {"id": "football/2011/jun/29/the-rumour-mill-sergio-canales-villa", "type": "article", "sectionId": "football", "sectionName": "Football", "webPublicationDate": "2011-06-29T07:57:42Z", "webTitle": "Football transfer rumours: Sergio Canales to join Aston Villa? | Tom Lutz", "webUrl": "https://www.theguardian.com/football/2011/jun/29/the-rumour-mill-sergio-canales-villa", "apiUrl": "https://content.guardianapis.com/football/2011/jun/29/the-rumour-mill-sergio-canales-villa", "isHosted": false, "pillarId": "pillar/sport", "pillarName": "Sport"}, {"id": "football/2011/jun/29/roberto-di-matteo-chelsea-assistant", "type": "article", "sectionId": "football", "sectionName": "Football", "webPublicationDate": "2011-06-28T23:47:15Z", "webTitle": "Roberto Di Matteo set to return to Chelsea as assistant manager", "webUrl": "https://www.theguardian.com/football/2011/jun/29/roberto-di-matteo-chelsea-assistant", "apiUrl": "https://content.guardianapis.com/football/2011/jun/29/roberto-di-matteo-chelsea-assistant", "isHosted": false, "pillarId": "pillar/sport", "pillarName": "Sport"}, {"id": "football/2011/jun/29/knowledge-football-album-covers", "type": "article", "sectionId": "football", "sectionName": "Football", "webPublicationDate": "2011-06-28T23:05:00Z", "webTitle": "Which football teams have been referenced on album covers? | The Knowledge", "webUrl": "https://www.theguardian.com/football/2011/jun/29/knowledge-football-album-covers", "apiUrl": "https://content.guardianapis.com/football/2011/jun/29/knowledge-football-album-covers", "isHosted": false, "pillarId": "pillar/sport", "pillarName": "Sport"}, {"id": "football/quiz/2011/jun/29/football-quiz-river-plate", "type": "article", "sectionId": "global", "sectionName": "Global", "webPublicationDate": "2011-06-28T23:05:00Z", "webTitle": "Football quiz: River Plate", "webUrl": "https://www.theguardian.com/football/quiz/2011/jun/29/football-quiz-river-plate", "apiUrl": "https://content.guardianapis.com/football/quiz/2011/jun/29/football-quiz-river-plate", "isHosted": false}, {"id": "football/2011/jun/28/chelsea-didier-drogba-marseille", "type": "article", "sectionId": "football", "sectionName": "Football", "webPublicationDate": "2011-06-28T21:30:12Z", "webTitle": "Chelsea aim to keep Didier Drogba from the clutches of Marseille", "webUrl": "https://www.theguardian.com/football/2011/jun/28/chelsea-didier-drogba-marseille", "apiUrl": "https://content.guardianapis.com/football/2011/jun/28/chelsea-didier-drogba-marseille", "isHosted": false, "pillarId": "pillar/sport", "pillarName": "Sport"}, {"id": "football/2011/jun/28/england-womens-world-cup", "type": "article", "sectionId": "football", "sectionName": "Football", "webPublicationDate": "2011-06-28T21:09:01Z", "webTitle": "England eager to forget draw against Mexico and focus on New Zealand", "webUrl": "https://www.theguardian.com/football/2011/jun/28/england-womens-world-cup", "apiUrl": "https://content.guardianapis.com/football/2011/jun/28/england-womens-world-cup", "isHosted": false, "pillarId": "pillar/sport", "pillarName": "Sport"}, {"id": "football/2011/jun/28/north-korea-usa-womens-world-cup", "type": "article", "sectionId": "football", "sectionName": "Football", "webPublicationDate": "2011-06-28T20:56:09Z", "webTitle": "USA v North Korea | Women's World Cup match report", "webUrl": "https://www.theguardian.com/football/2011/jun/28/north-korea-usa-womens-world-cup", "apiUrl": "https://content.guardianapis.com/football/2011/jun/28/north-korea-usa-womens-world-cup", "isHosted": false, "pillarId": "pillar/sport", "pillarName": "Sport"}, {"id": "football/2011/jun/28/manchester-city-stefan-savic", "type": "article", "sectionId": "football", "sectionName": "Football", "webPublicationDate": "2011-06-28T20:35:29Z", "webTitle": "Manchester City shift transfer focus to target Partizan's Stefan Savic", "webUrl": "https://www.theguardian.com/football/2011/jun/28/manchester-city-stefan-savic", "apiUrl": "https://content.guardianapis.com/football/2011/jun/28/manchester-city-stefan-savic", "isHosted": false, "pillarId": "pillar/sport", "pillarName": "Sport"}, {"id": "football/2011/jun/28/new-egypt-old-sporting-rivalry", "type": "article", "sectionId": "football", "sectionName": "Football", "webPublicationDate": "2011-06-28T19:08:46Z", "webTitle": "New Egypt sees old sporting rivalry resume", "webUrl": "https://www.theguardian.com/football/2011/jun/28/new-egypt-old-sporting-rivalry", "apiUrl": "https://content.guardianapis.com/football/2011/jun/28/new-egypt-old-sporting-rivalry", "isHosted": false, "pillarId": "pillar/sport", "pillarName": "Sport"}, {"id": "football/2011/jun/28/craig-thomson-suspended-over-sex-conviction", "type": "article", "sectionId": "football", "sectionName": "Football", "webPublicationDate": "2011-06-28T18:29:11Z", "webTitle": "SPL footballer Craig Thomson suspended over sex conviction", "webUrl": "https://www.theguardian.com/football/2011/jun/28/craig-thomson-suspended-over-sex-conviction", "apiUrl": "https://content.guardianapis.com/football/2011/jun/28/craig-thomson-suspended-over-sex-conviction", "isHosted": false, "pillarId": "pillar/sport", "pillarName": "Sport"}, {"id": "football/2011/jun/28/bracewell-smith-wants-arsenal-board-sacked", "type": "article", "sectionId": "football", "sectionName": "Football", "webPublicationDate": "2011-06-28T17:17:04Z", "webTitle": "Arsenal should sack board, says former director Lady Bracewell-Smith", "webUrl": "https://www.theguardian.com/football/2011/jun/28/bracewell-smith-wants-arsenal-board-sacked", "apiUrl": "https://content.guardianapis.com/football/2011/jun/28/bracewell-smith-wants-arsenal-board-sacked", "isHosted": false, "pillarId": "pillar/sport", "pillarName": "Sport"}, {"id": "football/2011/jun/28/the-fiver-stoke-hearts", "type": "article", "sectionId": "football", "sectionName": "Football", "webPublicationDate": "2011-06-28T15:07:50Z", "webTitle": "The Fiver | The harrying Potters | Paul Doyle", "webUrl": "https://www.theguardian.com/football/2011/jun/28/the-fiver-stoke-hearts", "apiUrl": "https://content.guardianapis.com/football/2011/jun/28/the-fiver-stoke-hearts", "isHosted": false, "pillarId": "pillar/sport", "pillarName": "Sport"}, {"id": "football/2011/jun/28/sunderland-connor-wickham-ipswich", "type": "article", "sectionId": "football", "sectionName": "Football", "webPublicationDate": "2011-06-28T12:32:00Z", "webTitle": "Ipswich accept Sunderland's \u00a313m offer for Connor Wickham", "webUrl": "https://www.theguardian.com/football/2011/jun/28/sunderland-connor-wickham-ipswich", "apiUrl": "https://content.guardianapis.com/football/2011/jun/28/sunderland-connor-wickham-ipswich", "isHosted": false, "pillarId": "pillar/sport", "pillarName": "Sport"}, {"id": "football/blog/2011/jun/28/river-plate-relegation-problems", "type": "article", "sectionId": "football", "sectionName": "Football", "webPublicationDate": "2011-06-28T11:30:08Z", "webTitle": "River Plate problems run deeper than just relegation | Joel Richards", "webUrl": "https://www.theguardian.com/football/blog/2011/jun/28/river-plate-relegation-problems", "apiUrl": "https://content.guardianapis.com/football/blog/2011/jun/28/river-plate-relegation-problems", "isHosted": false, "pillarId": "pillar/sport", "pillarName": "Sport"}]}}