{"response": {"status": "ok", "userTier": "developer", "total": 33597, "startIndex": 1, "pageSize": 50, "currentPage": 1, "pages": 672, "orderBy": "newest", "results": [{"id": "environment/2012/jul/01/household-energy-trackers-threat-privacy", "type": "article", "sectionId": "environment", "sectionName": "Environment", "webPublicationDate": "2012-06-30T23:06:06Z", "webTitle": "Energy smart meters are a threat to privacy, says watchdog", "webUrl": "https://www.theguardian.com/environment/2012/jul/01/household-energy-trackers-threat-privacy", "apiUrl": "https://content.guardianapis.com/environment/2012/jul/01/household-energy-trackers-threat-privacy", "isHosted": false, "pillarId": "pillar/news", "pillarName": "News"}, {"id": "environment/2012/jul/01/ethical-living-fat-people-blamed-ecological-problems", "type": "article", "sectionId": "environment", "sectionName": "Environment", "webPublicationDate": "2012-06-30T23:05:16Z", "webTitle": "Ethical living: Should fat people be blamed for our ecological problems?", "webUrl": "https://www.theguardian.com/environment/2012/jul/01/ethical-living-fat-people-blamed-ecological-problems", "apiUrl": "https://content.guardianapis.com/environment/2012/jul/01/ethical-living-fat-people-blamed-ecological-problems", "isHosted": false, "pillarId": "pillar/news", "pillarName": "News"}, {"id": "lifeandstyle/2012/jul/01/eva-wiseman-why-i-hate-moths", "type": "article", "sectionId": "lifeandstyle", "sectionName": "Life and style", "webPublicationDate": "2012-06-30T23:05:14Z", "webTitle": "Why I hate moths", "webUrl": "https://www.theguardian.com/lifeandstyle/2012/jul/01/eva-wiseman-why-i-hate-moths", "apiUrl": "https://content.guardianapis.com/lifeandstyle/2012/jul/01/eva-wiseman-why-i-hate-moths", "isHosted": false, "pillarId": "pillar/lifestyle", "pillarName": "Lifestyle"}, {"id": "world/2012/jul/01/amazon-highway-peru-tribes-risk", "type": "article", "sectionId": "world", "sectionName": "World news", "webPublicationDate": "2012-06-30T23:03:00Z", "webTitle": "New Amazon highway 'would put Peru's last lost tribes at risk'", "webUrl": "https://www.theguardian.com/world/2012/jul/01/amazon-highway-peru-tribes-risk", "apiUrl": "https://content.guardianapis.com/world/2012/jul/01/amazon-highway-peru-tribes-risk", "isHosted": false, "pillarId": "pillar/news", "pillarName": "News"}, {"id": "theguardian/2012/jun/30/lucy-lawless-xena-ecowarrior-protest", "type": "article", "sectionId": "theguardian", "sectionName": "From the Guardian", "webPublicationDate": "2012-06-29T23:04:05Z", "webTitle": "Saturday interview: Lucy Lawless \u2013 Xena the Ecowarrior", "webUrl": "https://www.theguardian.com/theguardian/2012/jun/30/lucy-lawless-xena-ecowarrior-protest", "apiUrl": "https://content.guardianapis.com/theguardian/2012/jun/30/lucy-lawless-xena-ecowarrior-protest", "isHosted": false, "pillarId": "pillar/news", "pillarName": "News"}, {"id": "world/2012/jun/29/barack-obama-visits-colorado-springs", "type": "article", "sectionId": "us-news", "sectionName": "US news", "webPublicationDate": "2012-06-29T20:43:00Z", "webTitle": "Barack Obama visits Colorado Springs neighbourhood destroyed by wildfires", "webUrl": "https://www.theguardian.com/world/2012/jun/29/barack-obama-visits-colorado-springs", "apiUrl": "https://content.guardianapis.com/world/2012/jun/29/barack-obama-visits-colorado-springs", "isHosted": false, "pillarId": "pillar/news", "pillarName": "News"}, {"id": "commentisfree/2012/jun/29/while-colorado-burns-washington-fiddles", "type": "article", "sectionId": "commentisfree", "sectionName": "Opinion", "webPublicationDate": "2012-06-29T20:11:00Z", "webTitle": "While Colorado burns, Washington fiddles | Bill McKibben", "webUrl": "https://www.theguardian.com/commentisfree/2012/jun/29/while-colorado-burns-washington-fiddles", "apiUrl": "https://content.guardianapis.com/commentisfree/2012/jun/29/while-colorado-burns-washington-fiddles", "isHosted": false, "pillarId": "pillar/opinion", "pillarName": "Opinion"}, {"id": "environment/2012/jun/29/tempsford-bedfordshire-comedy-insect-comic-situation", "type": "article", "sectionId": "environment", "sectionName": "Environment", "webPublicationDate": "2012-06-29T20:00:01Z", "webTitle": "Country diary: Tempsford, Bedfordshire: A comedy insect in a comic situation", "webUrl": "https://www.theguardian.com/environment/2012/jun/29/tempsford-bedfordshire-comedy-insect-comic-situation", "apiUrl": "https://content.guardianapis.com/environment/2012/jun/29/tempsford-bedfordshire-comedy-insect-comic-situation", "isHosted": false, "pillarId": "pillar/news", "pillarName": "News"}, {"id": "environment/2012/jun/29/plasticbags-waste", "type": "article", "sectionId": "environment", "sectionName": "Environment", "webPublicationDate": "2012-06-29T16:51:21Z", "webTitle": "Toronto council votes for plastic bag ban", "webUrl": "https://www.theguardian.com/environment/2012/jun/29/plasticbags-waste", "apiUrl": "https://content.guardianapis.com/environment/2012/jun/29/plasticbags-waste", "isHosted": false, "pillarId": "pillar/news", "pillarName": "News"}, {"id": "world/blog/2012/jun/29/colorado-wildfires-visible-video-space", "type": "article", "sectionId": "us-news", "sectionName": "US news", "webPublicationDate": "2012-06-29T16:23:00Z", "webTitle": "Colorado wildfires visible in video from International Space Station", "webUrl": "https://www.theguardian.com/world/blog/2012/jun/29/colorado-wildfires-visible-video-space", "apiUrl": "https://content.guardianapis.com/world/blog/2012/jun/29/colorado-wildfires-visible-video-space", "isHosted": false, "pillarId": "pillar/news", "pillarName": "News"}, {"id": "environment/2012/jun/29/ccs-leak-experiment", "type": "article", "sectionId": "environment", "sectionName": "Environment", "webPublicationDate": "2012-06-29T16:16:28Z", "webTitle": "World's first CCS leak experiment completed in sea off Scotland", "webUrl": "https://www.theguardian.com/environment/2012/jun/29/ccs-leak-experiment", "apiUrl": "https://content.guardianapis.com/environment/2012/jun/29/ccs-leak-experiment", "isHosted": false, "pillarId": "pillar/news", "pillarName": "News"}, {"id": "environment/2012/jun/29/fires-indonesia-orangutan", "type": "article", "sectionId": "environment", "sectionName": "Environment", "webPublicationDate": "2012-06-29T15:36:16Z", "webTitle": "Fires threaten to 'extinguish' critical Indonesian orangutan population", "webUrl": "https://www.theguardian.com/environment/2012/jun/29/fires-indonesia-orangutan", "apiUrl": "https://content.guardianapis.com/environment/2012/jun/29/fires-indonesia-orangutan", "isHosted": false, "pillarId": "pillar/news", "pillarName": "News"}, {"id": "environment/gallery/2012/jun/29/week-in-wildlife-in-pictures", "type": "gallery", "sectionId": "environment", "sectionName": "Environment", "webPublicationDate": "2012-06-29T14:58:00Z", "webTitle": "The week in wildlife - in pictures", "webUrl": "https://www.theguardian.com/environment/gallery/2012/jun/29/week-in-wildlife-in-pictures", "apiUrl": "https://content.guardianapis.com/environment/gallery/2012/jun/29/week-in-wildlife-in-pictures", "isHosted": false, "pillarId": "pillar/news", "pillarName": "News"}, {"id": "sport/2012/jun/29/london-olympics-campaigners-target-sponsors", "type": "article", "sectionId": "sport", "sectionName": "Sport", "webPublicationDate": "2012-06-29T13:58:41Z", "webTitle": "London Olympics: campaigners target ethical records of corporate sponsors", "webUrl": "https://www.theguardian.com/sport/2012/jun/29/london-olympics-campaigners-target-sponsors", "apiUrl": "https://content.guardianapis.com/sport/2012/jun/29/london-olympics-campaigners-target-sponsors", "isHosted": false, "pillarId": "pillar/sport", "pillarName": "Sport"}, {"id": "environment/blog/2012/jun/29/fracking-debate-climate-change-risks", "type": "article", "sectionId": "environment", "sectionName": "Environment", "webPublicationDate": "2012-06-29T10:52:18Z", "webTitle": "Fracking: where's the debate about its climate change risks? | Leo Hickman", "webUrl": "https://www.theguardian.com/environment/blog/2012/jun/29/fracking-debate-climate-change-risks", "apiUrl": "https://content.guardianapis.com/environment/blog/2012/jun/29/fracking-debate-climate-change-risks", "isHosted": false, "pillarId": "pillar/news", "pillarName": "News"}, {"id": "environment/2012/jun/29/australia-carbon-tax", "type": "article", "sectionId": "environment", "sectionName": "Environment", "webPublicationDate": "2012-06-29T10:51:56Z", "webTitle": "Uncertainty hangs over Australia on eve of carbon tax introduction", "webUrl": "https://www.theguardian.com/environment/2012/jun/29/australia-carbon-tax", "apiUrl": "https://content.guardianapis.com/environment/2012/jun/29/australia-carbon-tax", "isHosted": false, "pillarId": "pillar/news", "pillarName": "News"}, {"id": "lifeandstyle/gardening-blog/2012/jun/29/grass-snake-slow-worm-lizard", "type": "article", "sectionId": "lifeandstyle", "sectionName": "Life and style", "webPublicationDate": "2012-06-29T09:02:00Z", "webTitle": "Drawn to scale: Attracting reptiles to your garden", "webUrl": "https://www.theguardian.com/lifeandstyle/gardening-blog/2012/jun/29/grass-snake-slow-worm-lizard", "apiUrl": "https://content.guardianapis.com/lifeandstyle/gardening-blog/2012/jun/29/grass-snake-slow-worm-lizard", "isHosted": false, "pillarId": "pillar/lifestyle", "pillarName": "Lifestyle"}, {"id": "uk/gallery/2012/jun/29/flash-floods-uk-in-pictures", "type": "gallery", "sectionId": "uk-news", "sectionName": "UK news", "webPublicationDate": "2012-06-29T08:35:00Z", "webTitle": "Flash floods hit UK - in pictures", "webUrl": "https://www.theguardian.com/uk/gallery/2012/jun/29/flash-floods-uk-in-pictures", "apiUrl": "https://content.guardianapis.com/uk/gallery/2012/jun/29/flash-floods-uk-in-pictures", "isHosted": false, "pillarId": "pillar/news", "pillarName": "News"}, {"id": "environment/2012/jun/29/conservationists-pearl-mussel-decline", "type": "article", "sectionId": "environment", "sectionName": "Environment", "webPublicationDate": "2012-06-29T06:00:05Z", "webTitle": "Conservationists call for public inquiry into pearl mussel decline", "webUrl": "https://www.theguardian.com/environment/2012/jun/29/conservationists-pearl-mussel-decline", "apiUrl": "https://content.guardianapis.com/environment/2012/jun/29/conservationists-pearl-mussel-decline", "isHosted": false, "pillarId": "pillar/news", "pillarName": "News"}, {"id": "environment/2012/jun/29/shale-gas-fracking-expanded-regulated", "type": "article", "sectionId": "environment", "sectionName": "Environment", "webPublicationDate": "2012-06-29T05:30:02Z", "webTitle": "UK fracking should be expanded, but better regulated, says report", "webUrl": "https://www.theguardian.com/environment/2012/jun/29/shale-gas-fracking-expanded-regulated", "apiUrl": "https://content.guardianapis.com/environment/2012/jun/29/shale-gas-fracking-expanded-regulated", "isHosted": false, "pillarId": "pillar/news", "pillarName": "News"}, {"id": "uk/2012/jun/28/flood-sweeps-man-death-uk-storms", "type": "article", "sectionId": "uk-news", "sectionName": "UK news", "webPublicationDate": "2012-06-29T00:52:00Z", "webTitle": "Flood sweeps man to death as UK storms continue", "webUrl": "https://www.theguardian.com/uk/2012/jun/28/flood-sweeps-man-death-uk-storms", "apiUrl": "https://content.guardianapis.com/uk/2012/jun/28/flood-sweeps-man-death-uk-storms", "isHosted": false, "pillarId": "pillar/news", "pillarName": "News"}, {"id": "environment/2012/jun/29/government-dash-gas-environmental-advisers", "type": "article", "sectionId": "environment", "sectionName": "Environment", "webPublicationDate": "2012-06-28T23:09:02Z", "webTitle": "Government must give up 'dash for gas', say environmental advisers", "webUrl": "https://www.theguardian.com/environment/2012/jun/29/government-dash-gas-environmental-advisers", "apiUrl": "https://content.guardianapis.com/environment/2012/jun/29/government-dash-gas-environmental-advisers", "isHosted": false, "pillarId": "pillar/news", "pillarName": "News"}, {"id": "environment/2012/jun/28/ruralaffairs-scotland", "type": "article", "sectionId": "environment", "sectionName": "Environment", "webPublicationDate": "2012-06-28T19:59:01Z", "webTitle": "Country diary: South Uist: In the shimmering heat of a lochside morning", "webUrl": "https://www.theguardian.com/environment/2012/jun/28/ruralaffairs-scotland", "apiUrl": "https://content.guardianapis.com/environment/2012/jun/28/ruralaffairs-scotland", "isHosted": false, "pillarId": "pillar/news", "pillarName": "News"}, {"id": "world/2012/jun/28/colorado-wildfires-wreck-homes-weather", "type": "article", "sectionId": "us-news", "sectionName": "US news", "webPublicationDate": "2012-06-28T16:42:00Z", "webTitle": "Colorado wildfires wreck homes but officials hope for break in weather", "webUrl": "https://www.theguardian.com/world/2012/jun/28/colorado-wildfires-wreck-homes-weather", "apiUrl": "https://content.guardianapis.com/world/2012/jun/28/colorado-wildfires-wreck-homes-weather", "isHosted": false, "pillarId": "pillar/news", "pillarName": "News"}, {"id": "environment/2012/jun/28/wales-recycling-rates", "type": "article", "sectionId": "environment", "sectionName": "Environment", "webPublicationDate": "2012-06-28T15:57:20Z", "webTitle": "Welsh recycling rates hit 48%", "webUrl": "https://www.theguardian.com/environment/2012/jun/28/wales-recycling-rates", "apiUrl": "https://content.guardianapis.com/environment/2012/jun/28/wales-recycling-rates", "isHosted": false, "pillarId": "pillar/news", "pillarName": "News"}, {"id": "environment/2012/jun/28/paul-watson-costa-rica-charges", "type": "article", "sectionId": "environment", "sectionName": "Environment", "webPublicationDate": "2012-06-28T15:42:28Z", "webTitle": "Detained anti-whaling activist urges Costa Rica to drop charges", "webUrl": "https://www.theguardian.com/environment/2012/jun/28/paul-watson-costa-rica-charges", "apiUrl": "https://content.guardianapis.com/environment/2012/jun/28/paul-watson-costa-rica-charges", "isHosted": false, "pillarId": "pillar/news", "pillarName": "News"}, {"id": "environment/2012/jun/28/uk-cities-ban-polluting-traffic", "type": "article", "sectionId": "environment", "sectionName": "Environment", "webPublicationDate": "2012-06-28T12:30:06Z", "webTitle": "UK cities face ban on heavily polluting traffic", "webUrl": "https://www.theguardian.com/environment/2012/jun/28/uk-cities-ban-polluting-traffic", "apiUrl": "https://content.guardianapis.com/environment/2012/jun/28/uk-cities-ban-polluting-traffic", "isHosted": false, "pillarId": "pillar/news", "pillarName": "News"}, {"id": "environment/blog/2012/jun/28/boat-engineering-hydrogen-power", "type": "article", "sectionId": "environment", "sectionName": "Environment", "webPublicationDate": "2012-06-28T11:27:15Z", "webTitle": "How boat engineering is keeping hydrogen power hopes buoyant", "webUrl": "https://www.theguardian.com/environment/blog/2012/jun/28/boat-engineering-hydrogen-power", "apiUrl": "https://content.guardianapis.com/environment/blog/2012/jun/28/boat-engineering-hydrogen-power", "isHosted": false, "pillarId": "pillar/news", "pillarName": "News"}, {"id": "environment/2012/jun/28/exxonmobil-climate-change-rex-tillerson", "type": "article", "sectionId": "environment", "sectionName": "Environment", "webPublicationDate": "2012-06-28T09:50:34Z", "webTitle": "Climate change fears overblown, says ExxonMobil boss", "webUrl": "https://www.theguardian.com/environment/2012/jun/28/exxonmobil-climate-change-rex-tillerson", "apiUrl": "https://content.guardianapis.com/environment/2012/jun/28/exxonmobil-climate-change-rex-tillerson", "isHosted": false, "pillarId": "pillar/news", "pillarName": "News"}, {"id": "environment/2012/jun/28/1", "type": "article", "sectionId": "environment", "sectionName": "Environment", "webPublicationDate": "2012-06-28T09:30:54Z", "webTitle": "Green news roundup: Arctic sea ice, Lonesome George and Rio+20", "webUrl": "https://www.theguardian.com/environment/2012/jun/28/1", "apiUrl": "https://content.guardianapis.com/environment/2012/jun/28/1", "isHosted": false, "pillarId": "pillar/news", "pillarName": "News"}, {"id": "teacher-network/teacher-blog/2012/jun/28/save-childhood-forest-schools", "type": "article", "sectionId": "teacher-network", "sectionName": "Teacher Network", "webPublicationDate": "2012-06-28T07:15:00Z", "webTitle": "Saving childhoods in the forest", "webUrl": "https://www.theguardian.com/teacher-network/teacher-blog/2012/jun/28/save-childhood-forest-schools", "apiUrl": "https://content.guardianapis.com/teacher-network/teacher-blog/2012/jun/28/save-childhood-forest-schools", "isHosted": false, "pillarId": "pillar/news", "pillarName": "News"}, {"id": "world/2012/jun/27/colorado-springs-waldo-canyon-wildfire", "type": "article", "sectionId": "world", "sectionName": "World news", "webPublicationDate": "2012-06-27T22:46:00Z", "webTitle": "Colorado Springs Waldo Canyon wildfire forces thousands to flee flames", "webUrl": "https://www.theguardian.com/world/2012/jun/27/colorado-springs-waldo-canyon-wildfire", "apiUrl": "https://content.guardianapis.com/world/2012/jun/27/colorado-springs-waldo-canyon-wildfire", "isHosted": false, "pillarId": "pillar/news", "pillarName": "News"}, {"id": "theguardian/2012/jun/27/post-rio-call-mass-movement", "type": "article", "sectionId": "global", "sectionName": "Global", "webPublicationDate": "2012-06-27T19:59:02Z", "webTitle": "Letters: Post-Rio call for mass people's movement and a green economy", "webUrl": "https://www.theguardian.com/theguardian/2012/jun/27/post-rio-call-mass-movement", "apiUrl": "https://content.guardianapis.com/theguardian/2012/jun/27/post-rio-call-mass-movement", "isHosted": false}, {"id": "environment/2012/jun/27/loch-flemington-highlands-coots-grebes-swans", "type": "article", "sectionId": "environment", "sectionName": "Environment", "webPublicationDate": "2012-06-27T19:59:01Z", "webTitle": "Country diary: Loch Flemington, Highlands: Diving coots, squabbling grebes and mute swans line astern", "webUrl": "https://www.theguardian.com/environment/2012/jun/27/loch-flemington-highlands-coots-grebes-swans", "apiUrl": "https://content.guardianapis.com/environment/2012/jun/27/loch-flemington-highlands-coots-grebes-swans", "isHosted": false, "pillarId": "pillar/news", "pillarName": "News"}, {"id": "world/gallery/2012/jun/27/colorado-wildfires-rage-in-pictures", "type": "gallery", "sectionId": "world", "sectionName": "World news", "webPublicationDate": "2012-06-27T18:44:00Z", "webTitle": "Colorado wildfires rage out of control - in pictures", "webUrl": "https://www.theguardian.com/world/gallery/2012/jun/27/colorado-wildfires-rage-in-pictures", "apiUrl": "https://content.guardianapis.com/world/gallery/2012/jun/27/colorado-wildfires-rage-in-pictures", "isHosted": false, "pillarId": "pillar/news", "pillarName": "News"}, {"id": "world/2012/jun/27/colorado-waldo-canyon-fire-air-force", "type": "article", "sectionId": "world", "sectionName": "World news", "webPublicationDate": "2012-06-27T17:59:00Z", "webTitle": "Colorado firefighters battling Waldo Canyon fire get help from US air force", "webUrl": "https://www.theguardian.com/world/2012/jun/27/colorado-waldo-canyon-fire-air-force", "apiUrl": "https://content.guardianapis.com/world/2012/jun/27/colorado-waldo-canyon-fire-air-force", "isHosted": false, "pillarId": "pillar/news", "pillarName": "News"}, {"id": "world/2012/jun/27/colorado-wildfires-32000-evacuated-flames", "type": "article", "sectionId": "world", "sectionName": "World news", "webPublicationDate": "2012-06-27T16:27:00Z", "webTitle": "Colorado 'like worst movie set you can imagine' as wildfires force 32,000 to flee", "webUrl": "https://www.theguardian.com/world/2012/jun/27/colorado-wildfires-32000-evacuated-flames", "apiUrl": "https://content.guardianapis.com/world/2012/jun/27/colorado-wildfires-32000-evacuated-flames", "isHosted": false, "pillarId": "pillar/news", "pillarName": "News"}, {"id": "environment/2012/jun/27/arctic-sea-ice-melt-rate", "type": "article", "sectionId": "environment", "sectionName": "Environment", "webPublicationDate": "2012-06-27T15:58:00Z", "webTitle": "Arctic sea-ice levels at record low for June", "webUrl": "https://www.theguardian.com/environment/2012/jun/27/arctic-sea-ice-melt-rate", "apiUrl": "https://content.guardianapis.com/environment/2012/jun/27/arctic-sea-ice-melt-rate", "isHosted": false, "pillarId": "pillar/news", "pillarName": "News"}, {"id": "global-development/poverty-matters/2012/jun/27/rio20-missed-opportunity-human-rights", "type": "article", "sectionId": "global-development", "sectionName": "Global development", "webPublicationDate": "2012-06-27T15:50:52Z", "webTitle": "Rio+20 missed an opportunity to bolster human rights | Jan Egeland and Jessica Evans", "webUrl": "https://www.theguardian.com/global-development/poverty-matters/2012/jun/27/rio20-missed-opportunity-human-rights", "apiUrl": "https://content.guardianapis.com/global-development/poverty-matters/2012/jun/27/rio20-missed-opportunity-human-rights", "isHosted": false, "pillarId": "pillar/news", "pillarName": "News"}, {"id": "artanddesign/2012/jun/27/alison-stolwood-best-photograph", "type": "article", "sectionId": "artanddesign", "sectionName": "Art and design", "webPublicationDate": "2012-06-27T15:46:56Z", "webTitle": "Alison Stolwood's best photograph", "webUrl": "https://www.theguardian.com/artanddesign/2012/jun/27/alison-stolwood-best-photograph", "apiUrl": "https://content.guardianapis.com/artanddesign/2012/jun/27/alison-stolwood-best-photograph", "isHosted": false, "pillarId": "pillar/arts", "pillarName": "Arts"}, {"id": "environment/2012/jun/27/gabon-burn-ivory", "type": "article", "sectionId": "environment", "sectionName": "Environment", "webPublicationDate": "2012-06-27T15:39:13Z", "webTitle": "Gabon burns ivory stockpiles", "webUrl": "https://www.theguardian.com/environment/2012/jun/27/gabon-burn-ivory", "apiUrl": "https://content.guardianapis.com/environment/2012/jun/27/gabon-burn-ivory", "isHosted": false, "pillarId": "pillar/news", "pillarName": "News"}, {"id": "environment/blog/2012/jun/27/gina-rinehart-fairfax-climate-change", "type": "article", "sectionId": "environment", "sectionName": "Environment", "webPublicationDate": "2012-06-27T14:44:45Z", "webTitle": "Is Gina Rinehart planning to use Fairfax to push her climate scepticism? | Leo Hickman", "webUrl": "https://www.theguardian.com/environment/blog/2012/jun/27/gina-rinehart-fairfax-climate-change", "apiUrl": "https://content.guardianapis.com/environment/blog/2012/jun/27/gina-rinehart-fairfax-climate-change", "isHosted": false, "pillarId": "pillar/news", "pillarName": "News"}, {"id": "environment/blog/2012/jun/27/fuel-duty-u-turn-motoring-policy", "type": "article", "sectionId": "environment", "sectionName": "Environment", "webPublicationDate": "2012-06-27T14:42:46Z", "webTitle": "Fuel duty U-turn highlights need for full service of motoring policy | David Powell", "webUrl": "https://www.theguardian.com/environment/blog/2012/jun/27/fuel-duty-u-turn-motoring-policy", "apiUrl": "https://content.guardianapis.com/environment/blog/2012/jun/27/fuel-duty-u-turn-motoring-policy", "isHosted": false, "pillarId": "pillar/news", "pillarName": "News"}, {"id": "global-development/poverty-matters/2012/jun/27/rio20-reasons-cheerful", "type": "article", "sectionId": "global-development", "sectionName": "Global development", "webPublicationDate": "2012-06-27T14:21:12Z", "webTitle": "Rio+20: reasons to be cheerful | John Vidal", "webUrl": "https://www.theguardian.com/global-development/poverty-matters/2012/jun/27/rio20-reasons-cheerful", "apiUrl": "https://content.guardianapis.com/global-development/poverty-matters/2012/jun/27/rio20-reasons-cheerful", "isHosted": false, "pillarId": "pillar/news", "pillarName": "News"}, {"id": "travel/2012/jun/27/uk-national-parks-car-free-days-out", "type": "article", "sectionId": "travel", "sectionName": "Travel", "webPublicationDate": "2012-06-27T10:35:11Z", "webTitle": "Car-free guide to the UK's national parks (part two)", "webUrl": "https://www.theguardian.com/travel/2012/jun/27/uk-national-parks-car-free-days-out", "apiUrl": "https://content.guardianapis.com/travel/2012/jun/27/uk-national-parks-car-free-days-out", "isHosted": false, "pillarId": "pillar/lifestyle", "pillarName": "Lifestyle"}, {"id": "environment/2012/jun/27/catering-industry-cut-waste", "type": "article", "sectionId": "environment", "sectionName": "Environment", "webPublicationDate": "2012-06-27T04:59:00Z", "webTitle": "UK catering industry pledges to cut waste", "webUrl": "https://www.theguardian.com/environment/2012/jun/27/catering-industry-cut-waste", "apiUrl": "https://content.guardianapis.com/environment/2012/jun/27/catering-industry-cut-waste", "isHosted": false, "pillarId": "pillar/news", "pillarName": "News"}, {"id": "uk/2012/jun/27/national-trust-appeal-white-cliffs-dover", "type": "article", "sectionId": "uk-news", "sectionName": "UK news", "webPublicationDate": "2012-06-26T23:06:01Z", "webTitle": "National Trust launched appeal to buy white cliffs of Dover's 'missing link'", "webUrl": "https://www.theguardian.com/uk/2012/jun/27/national-trust-appeal-white-cliffs-dover", "apiUrl": "https://content.guardianapis.com/uk/2012/jun/27/national-trust-appeal-white-cliffs-dover", "isHosted": false, "pillarId": "pillar/news", "pillarName": "News"}, {"id": "environment/the-northerner/2012/jun/26/spiders-rain-wenlock-edge", "type": "article", "sectionId": "environment", "sectionName": "Environment", "webPublicationDate": "2012-06-26T19:59:01Z", "webTitle": "Country diary: Wenlock Edge: Spiders get a brief break from the rain amid a transformed landscape", "webUrl": "https://www.theguardian.com/environment/the-northerner/2012/jun/26/spiders-rain-wenlock-edge", "apiUrl": "https://content.guardianapis.com/environment/the-northerner/2012/jun/26/spiders-rain-wenlock-edge", "isHosted": false, "pillarId": "pillar/news", "pillarName": "News"}, {"id": "environment/2012/jun/26/plans-carbon-capture-power-station-abandoned", "type": "article", "sectionId": "environment", "sectionName": "Environment", "webPublicationDate": "2012-06-26T18:53:47Z", "webTitle": "Plans for carbon-capture power station abandoned", "webUrl": "https://www.theguardian.com/environment/2012/jun/26/plans-carbon-capture-power-station-abandoned", "apiUrl": "https://content.guardianapis.com/environment/2012/jun/26/plans-carbon-capture-power-station-abandoned", "isHosted": false, "pillarId": "pillar/news", "pillarName": "News"}, {"id": "world/2012/jun/26/paris-farmers-saclay-land-rights", "type": "article", "sectionId": "world", "sectionName": "World news", "webPublicationDate": "2012-06-26T13:02:50Z", "webTitle": "Can Paris keep its farms?", "webUrl": "https://www.theguardian.com/world/2012/jun/26/paris-farmers-saclay-land-rights", "apiUrl": "https://content.guardianapis.com/world/2012/jun/26/paris-farmers-saclay-land-rights", "isHosted": false, "pillarId": "pillar/news", "pillarName": "News"}]}}