{"response": {"status": "ok", "userTier": "developer", "total": 133748, "startIndex": 1, "pageSize": 50, "currentPage": 1, "pages": 2675, "orderBy": "newest", "results": [{"id": "commentisfree/2013/jul/01/kim-salmon-guitar-punk", "type": "article", "sectionId": "commentisfree", "sectionName": "Opinion", "webPublicationDate": "2013-06-30T23:17:35Z", "webTitle": "What happened when I learned to play guitar with my idol Kim Salmon | Dan Cass", "webUrl": "https://www.theguardian.com/commentisfree/2013/jul/01/kim-salmon-guitar-punk", "apiUrl": "https://content.guardianapis.com/commentisfree/2013/jul/01/kim-salmon-guitar-punk", "isHosted": false, "pillarId": "pillar/opinion", "pillarName": "Opinion"}, {"id": "money/2013/jul/01/payday-loans-archbishop-justin-welby", "type": "article", "sectionId": "money", "sectionName": "Money", "webPublicationDate": "2013-06-30T23:01:03Z", "webTitle": "Archbishop backs payday loans alternatives", "webUrl": "https://www.theguardian.com/money/2013/jul/01/payday-loans-archbishop-justin-welby", "apiUrl": "https://content.guardianapis.com/money/2013/jul/01/payday-loans-archbishop-justin-welby", "isHosted": false, "pillarId": "pillar/lifestyle", "pillarName": "Lifestyle"}, {"id": "commentisfree/2013/jun/30/labour-unions-battle-falkirk-editorial", "type": "article", "sectionId": "commentisfree", "sectionName": "Opinion", "webPublicationDate": "2013-06-30T21:15:41Z", "webTitle": "Labour and the unions: battle of Falkirk | Editorial", "webUrl": "https://www.theguardian.com/commentisfree/2013/jun/30/labour-unions-battle-falkirk-editorial", "apiUrl": "https://content.guardianapis.com/commentisfree/2013/jun/30/labour-unions-battle-falkirk-editorial", "isHosted": false, "pillarId": "pillar/opinion", "pillarName": "Opinion"}, {"id": "politics/2013/jun/30/married-tax-allowance-legislation-autumn", "type": "article", "sectionId": "politics", "sectionName": "Politics", "webPublicationDate": "2013-06-30T21:08:00Z", "webTitle": "David Cameron pushed into early vote on marriage tax break", "webUrl": "https://www.theguardian.com/politics/2013/jun/30/married-tax-allowance-legislation-autumn", "apiUrl": "https://content.guardianapis.com/politics/2013/jun/30/married-tax-allowance-legislation-autumn", "isHosted": false, "pillarId": "pillar/news", "pillarName": "News"}, {"id": "politics/2013/jun/30/david-cameron-nick-clegg-eu-referendum", "type": "article", "sectionId": "politics", "sectionName": "Politics", "webPublicationDate": "2013-06-30T21:00:08Z", "webTitle": "David Cameron challenges Nick Clegg over EU referendum", "webUrl": "https://www.theguardian.com/politics/2013/jun/30/david-cameron-nick-clegg-eu-referendum", "apiUrl": "https://content.guardianapis.com/politics/2013/jun/30/david-cameron-nick-clegg-eu-referendum", "isHosted": false, "pillarId": "pillar/news", "pillarName": "News"}, {"id": "politics/2013/jun/30/mps-pay-rise-westminster-costs-cameron", "type": "article", "sectionId": "politics", "sectionName": "Politics", "webPublicationDate": "2013-06-30T21:00:05Z", "webTitle": "MPs may get pay rise if other perks are cut, says David Cameron", "webUrl": "https://www.theguardian.com/politics/2013/jun/30/mps-pay-rise-westminster-costs-cameron", "apiUrl": "https://content.guardianapis.com/politics/2013/jun/30/mps-pay-rise-westminster-costs-cameron", "isHosted": false, "pillarId": "pillar/news", "pillarName": "News"}, {"id": "uk/2013/jun/30/cameron-policing-inquiries-lawrence", "type": "article", "sectionId": "uk-news", "sectionName": "UK news", "webPublicationDate": "2013-06-30T21:00:03Z", "webTitle": "Cameron considers widening policing inquiries after Lawrence allegations", "webUrl": "https://www.theguardian.com/uk/2013/jun/30/cameron-policing-inquiries-lawrence", "apiUrl": "https://content.guardianapis.com/uk/2013/jun/30/cameron-policing-inquiries-lawrence", "isHosted": false, "pillarId": "pillar/news", "pillarName": "News"}, {"id": "politics/2013/jun/30/david-cameron-meddling-eu-referendum-bill", "type": "article", "sectionId": "politics", "sectionName": "Politics", "webPublicationDate": "2013-06-30T20:59:01Z", "webTitle": "David Cameron accused of 'partisan meddling' in EU referendum bill", "webUrl": "https://www.theguardian.com/politics/2013/jun/30/david-cameron-meddling-eu-referendum-bill", "apiUrl": "https://content.guardianapis.com/politics/2013/jun/30/david-cameron-meddling-eu-referendum-bill", "isHosted": false, "pillarId": "pillar/news", "pillarName": "News"}, {"id": "politics/2013/jun/30/spend-money-shovel-ready-schemes", "type": "article", "sectionId": "politics", "sectionName": "Politics", "webPublicationDate": "2013-06-30T20:00:02Z", "webTitle": "Letters: Spend the money now on shovel-ready schemes", "webUrl": "https://www.theguardian.com/politics/2013/jun/30/spend-money-shovel-ready-schemes", "apiUrl": "https://content.guardianapis.com/politics/2013/jun/30/spend-money-shovel-ready-schemes", "isHosted": false, "pillarId": "pillar/news", "pillarName": "News"}, {"id": "commentisfree/2013/jun/30/patriotism-history-coalition-ukip-labour", "type": "article", "sectionId": "commentisfree", "sectionName": "Opinion", "webPublicationDate": "2013-06-30T19:30:01Z", "webTitle": "Who owns patriotism? | Tanya Gold", "webUrl": "https://www.theguardian.com/commentisfree/2013/jun/30/patriotism-history-coalition-ukip-labour", "apiUrl": "https://content.guardianapis.com/commentisfree/2013/jun/30/patriotism-history-coalition-ukip-labour", "isHosted": false, "pillarId": "pillar/opinion", "pillarName": "Opinion"}, {"id": "politics/2013/jun/30/labour-falkirk-union-row-kim-howells", "type": "article", "sectionId": "politics", "sectionName": "Politics", "webPublicationDate": "2013-06-30T17:44:58Z", "webTitle": "Labour's reputation at stake in Falkirk union row, says former minister", "webUrl": "https://www.theguardian.com/politics/2013/jun/30/labour-falkirk-union-row-kim-howells", "apiUrl": "https://content.guardianapis.com/politics/2013/jun/30/labour-falkirk-union-row-kim-howells", "isHosted": false, "pillarId": "pillar/news", "pillarName": "News"}, {"id": "environment/2013/jun/30/climate-change-security-threat-envoy", "type": "article", "sectionId": "environment", "sectionName": "Environment", "webPublicationDate": "2013-06-30T17:19:58Z", "webTitle": "Climate change poses grave threat to security, says UK envoy", "webUrl": "https://www.theguardian.com/environment/2013/jun/30/climate-change-security-threat-envoy", "apiUrl": "https://content.guardianapis.com/environment/2013/jun/30/climate-change-security-threat-envoy", "isHosted": false, "pillarId": "pillar/news", "pillarName": "News"}, {"id": "commentisfree/2013/jun/30/eu-vote-is-blue-referendum", "type": "article", "sectionId": "commentisfree", "sectionName": "Opinion", "webPublicationDate": "2013-06-30T16:00:05Z", "webTitle": "The EU vote: this is a blue referendum | John Mills", "webUrl": "https://www.theguardian.com/commentisfree/2013/jun/30/eu-vote-is-blue-referendum", "apiUrl": "https://content.guardianapis.com/commentisfree/2013/jun/30/eu-vote-is-blue-referendum", "isHosted": false, "pillarId": "pillar/opinion", "pillarName": "Opinion"}, {"id": "politics/2013/jun/30/lord-fraser-of-carmyllie", "type": "article", "sectionId": "politics", "sectionName": "Politics", "webPublicationDate": "2013-06-30T14:24:32Z", "webTitle": "Letter: Lord Fraser and the public order bill", "webUrl": "https://www.theguardian.com/politics/2013/jun/30/lord-fraser-of-carmyllie", "apiUrl": "https://content.guardianapis.com/politics/2013/jun/30/lord-fraser-of-carmyllie", "isHosted": false, "pillarId": "pillar/news", "pillarName": "News"}, {"id": "world/2013/jun/30/kazakhstan-strategically-valuable-democracy", "type": "article", "sectionId": "world", "sectionName": "World news", "webPublicationDate": "2013-06-30T13:44:14Z", "webTitle": "Kazakhstan: strategically valuable but democracy is 'work in progress'", "webUrl": "https://www.theguardian.com/world/2013/jun/30/kazakhstan-strategically-valuable-democracy", "apiUrl": "https://content.guardianapis.com/world/2013/jun/30/kazakhstan-strategically-valuable-democracy", "isHosted": false, "pillarId": "pillar/news", "pillarName": "News"}, {"id": "world/2013/jun/30/tony-blair-pave-way-kazakhstan", "type": "article", "sectionId": "world", "sectionName": "World news", "webPublicationDate": "2013-06-30T13:43:57Z", "webTitle": "How Tony Blair paved way for first visit by serving British PM to Kazakhstan", "webUrl": "https://www.theguardian.com/world/2013/jun/30/tony-blair-pave-way-kazakhstan", "apiUrl": "https://content.guardianapis.com/world/2013/jun/30/tony-blair-pave-way-kazakhstan", "isHosted": false, "pillarId": "pillar/news", "pillarName": "News"}, {"id": "world/2013/jun/30/kazakhstan-cameron-blair-human-rights", "type": "article", "sectionId": "world", "sectionName": "World news", "webPublicationDate": "2013-06-30T13:43:44Z", "webTitle": "Kazakhstan praises Cameron and Blair for helping improving country's image", "webUrl": "https://www.theguardian.com/world/2013/jun/30/kazakhstan-cameron-blair-human-rights", "apiUrl": "https://content.guardianapis.com/world/2013/jun/30/kazakhstan-cameron-blair-human-rights", "isHosted": false, "pillarId": "pillar/news", "pillarName": "News"}, {"id": "commentisfree/2013/jun/30/bombardier-thameslink-contract", "type": "article", "sectionId": "commentisfree", "sectionName": "Opinion", "webPublicationDate": "2013-06-30T13:00:00Z", "webTitle": "Why Bombardier really missed out on the Thameslink contract | Ren\u00e9 Lavanchy", "webUrl": "https://www.theguardian.com/commentisfree/2013/jun/30/bombardier-thameslink-contract", "apiUrl": "https://content.guardianapis.com/commentisfree/2013/jun/30/bombardier-thameslink-contract", "isHosted": false, "pillarId": "pillar/opinion", "pillarName": "Opinion"}, {"id": "society/2013/jun/30/opt-out-organ-donation-scheme-uk-wales", "type": "article", "sectionId": "society", "sectionName": "Society", "webPublicationDate": "2013-06-30T12:17:00Z", "webTitle": "First opt-out organ donation scheme in UK set to be approved in Wales", "webUrl": "https://www.theguardian.com/society/2013/jun/30/opt-out-organ-donation-scheme-uk-wales", "apiUrl": "https://content.guardianapis.com/society/2013/jun/30/opt-out-organ-donation-scheme-uk-wales", "isHosted": false, "pillarId": "pillar/news", "pillarName": "News"}, {"id": "politics/2013/jun/30/liberal-democrats-eu-referendum-debate", "type": "article", "sectionId": "politics", "sectionName": "Politics", "webPublicationDate": "2013-06-30T11:34:42Z", "webTitle": "Liberal Democrats to abstain from Commons debate on EU membership", "webUrl": "https://www.theguardian.com/politics/2013/jun/30/liberal-democrats-eu-referendum-debate", "apiUrl": "https://content.guardianapis.com/politics/2013/jun/30/liberal-democrats-eu-referendum-debate", "isHosted": false, "pillarId": "pillar/news", "pillarName": "News"}, {"id": "books/2013/jun/30/trouble-with-billionaires-mcquaig-review", "type": "article", "sectionId": "books", "sectionName": "Books", "webPublicationDate": "2013-06-30T11:00:01Z", "webTitle": "The Trouble With Billionaires by Linda McQuaig and Neil Brooks\u2013 review", "webUrl": "https://www.theguardian.com/books/2013/jun/30/trouble-with-billionaires-mcquaig-review", "apiUrl": "https://content.guardianapis.com/books/2013/jun/30/trouble-with-billionaires-mcquaig-review", "isHosted": false, "pillarId": "pillar/arts", "pillarName": "Arts"}, {"id": "commentisfree/2013/jun/30/science-hard-evidence-rhetoric", "type": "article", "sectionId": "commentisfree", "sectionName": "Opinion", "webPublicationDate": "2013-06-30T08:00:05Z", "webTitle": "Enough rhetoric. It's evidence that should shape key public decisions | Paul Nurse", "webUrl": "https://www.theguardian.com/commentisfree/2013/jun/30/science-hard-evidence-rhetoric", "apiUrl": "https://content.guardianapis.com/commentisfree/2013/jun/30/science-hard-evidence-rhetoric", "isHosted": false, "pillarId": "pillar/opinion", "pillarName": "Opinion"}, {"id": "politics/2013/jun/30/labour-economy-poll", "type": "article", "sectionId": "politics", "sectionName": "Politics", "webPublicationDate": "2013-06-30T07:00:04Z", "webTitle": "Labour still to blame for economy, say 46% in Opinium/Observer poll", "webUrl": "https://www.theguardian.com/politics/2013/jun/30/labour-economy-poll", "apiUrl": "https://content.guardianapis.com/politics/2013/jun/30/labour-economy-poll", "isHosted": false, "pillarId": "pillar/news", "pillarName": "News"}, {"id": "politics/2013/jun/29/party-leaders-block-mp-pay-rise-cuts", "type": "article", "sectionId": "politics", "sectionName": "Politics", "webPublicationDate": "2013-06-29T23:42:00Z", "webTitle": "Party leaders prepare to block MPs' pay rise in same week as cuts", "webUrl": "https://www.theguardian.com/politics/2013/jun/29/party-leaders-block-mp-pay-rise-cuts", "apiUrl": "https://content.guardianapis.com/politics/2013/jun/29/party-leaders-block-mp-pay-rise-cuts", "isHosted": false, "pillarId": "pillar/news", "pillarName": "News"}, {"id": "society/2013/jun/30/big-society-network-grant", "type": "article", "sectionId": "society", "sectionName": "Society", "webPublicationDate": "2013-06-29T23:06:40Z", "webTitle": "'Big society' network given extra \u00a31m grant despite years of failure", "webUrl": "https://www.theguardian.com/society/2013/jun/30/big-society-network-grant", "apiUrl": "https://content.guardianapis.com/society/2013/jun/30/big-society-network-grant", "isHosted": false, "pillarId": "pillar/news", "pillarName": "News"}, {"id": "commentisfree/2013/jun/30/osborne-cameron-byron-burgers-coalition", "type": "article", "sectionId": "commentisfree", "sectionName": "Opinion", "webPublicationDate": "2013-06-29T23:06:38Z", "webTitle": "The rich get richer, the poor get poorer and the coalition plays silly burgers", "webUrl": "https://www.theguardian.com/commentisfree/2013/jun/30/osborne-cameron-byron-burgers-coalition", "apiUrl": "https://content.guardianapis.com/commentisfree/2013/jun/30/osborne-cameron-byron-burgers-coalition", "isHosted": false, "pillarId": "pillar/opinion", "pillarName": "Opinion"}, {"id": "theobserver/2013/jun/30/the-big-issue-old-people-austerity", "type": "article", "sectionId": "news", "sectionName": "News", "webPublicationDate": "2013-06-29T23:06:29Z", "webTitle": "Austerity: the elderly can be part of the solution to this economic mess | letters", "webUrl": "https://www.theguardian.com/theobserver/2013/jun/30/the-big-issue-old-people-austerity", "apiUrl": "https://content.guardianapis.com/theobserver/2013/jun/30/the-big-issue-old-people-austerity", "isHosted": false, "pillarId": "pillar/news", "pillarName": "News"}, {"id": "business/2013/jun/30/labour-must-not-surrender-economic-principles", "type": "article", "sectionId": "business", "sectionName": "Business", "webPublicationDate": "2013-06-29T23:04:18Z", "webTitle": "Labour must not surrender its economic principles over Osborne's cuts", "webUrl": "https://www.theguardian.com/business/2013/jun/30/labour-must-not-surrender-economic-principles", "apiUrl": "https://content.guardianapis.com/business/2013/jun/30/labour-must-not-surrender-economic-principles", "isHosted": false, "pillarId": "pillar/news", "pillarName": "News"}, {"id": "commentisfree/2013/jun/29/new-brutalism-at-westminster", "type": "article", "sectionId": "commentisfree", "sectionName": "Opinion", "webPublicationDate": "2013-06-29T21:30:02Z", "webTitle": "In language and action, there's a new brutalism in Westminster | Will Hutton", "webUrl": "https://www.theguardian.com/commentisfree/2013/jun/29/new-brutalism-at-westminster", "apiUrl": "https://content.guardianapis.com/commentisfree/2013/jun/29/new-brutalism-at-westminster", "isHosted": false, "pillarId": "pillar/opinion", "pillarName": "Opinion"}, {"id": "uk/2013/jun/29/jeremy-hunt-immigrants-free-nhs-services", "type": "article", "sectionId": "uk-news", "sectionName": "UK news", "webPublicationDate": "2013-06-29T21:23:00Z", "webTitle": "GPs told to charge non-Britons for NHS services", "webUrl": "https://www.theguardian.com/uk/2013/jun/29/jeremy-hunt-immigrants-free-nhs-services", "apiUrl": "https://content.guardianapis.com/uk/2013/jun/29/jeremy-hunt-immigrants-free-nhs-services", "isHosted": false, "pillarId": "pillar/news", "pillarName": "News"}, {"id": "commentisfree/2013/jun/29/labour-needs-to-look-credible", "type": "article", "sectionId": "commentisfree", "sectionName": "Opinion", "webPublicationDate": "2013-06-29T20:00:02Z", "webTitle": "Labour's big problem isn't being different: it's how to look credible | Andrew Rawnsley", "webUrl": "https://www.theguardian.com/commentisfree/2013/jun/29/labour-needs-to-look-credible", "apiUrl": "https://content.guardianapis.com/commentisfree/2013/jun/29/labour-needs-to-look-credible", "isHosted": false, "pillarId": "pillar/opinion", "pillarName": "Opinion"}, {"id": "uk/2013/jun/29/hs2-ministers-misled-public-report", "type": "article", "sectionId": "uk-news", "sectionName": "UK news", "webPublicationDate": "2013-06-29T19:52:44Z", "webTitle": "HS2: ministers 'have misled public' over report on costs", "webUrl": "https://www.theguardian.com/uk/2013/jun/29/hs2-ministers-misled-public-report", "apiUrl": "https://content.guardianapis.com/uk/2013/jun/29/hs2-ministers-misled-public-report", "isHosted": false, "pillarId": "pillar/news", "pillarName": "News"}, {"id": "world/2013/jun/29/david-cameron-army-afghanistan", "type": "article", "sectionId": "world", "sectionName": "World news", "webPublicationDate": "2013-06-29T18:28:02Z", "webTitle": "David Cameron and army divided over Afghanistan role after 2014", "webUrl": "https://www.theguardian.com/world/2013/jun/29/david-cameron-army-afghanistan", "apiUrl": "https://content.guardianapis.com/world/2013/jun/29/david-cameron-army-afghanistan", "isHosted": false, "pillarId": "pillar/news", "pillarName": "News"}, {"id": "society/2013/jun/29/when-elderly-care-goes-wrong", "type": "article", "sectionId": "society", "sectionName": "Society", "webPublicationDate": "2013-06-29T08:00:00Z", "webTitle": "When elderly care goes wrong", "webUrl": "https://www.theguardian.com/society/2013/jun/29/when-elderly-care-goes-wrong", "apiUrl": "https://content.guardianapis.com/society/2013/jun/29/when-elderly-care-goes-wrong", "isHosted": false, "pillarId": "pillar/news", "pillarName": "News"}, {"id": "culture/2013/jun/28/russell-brand-morning-joe-question-time", "type": "article", "sectionId": "culture", "sectionName": "Culture", "webPublicationDate": "2013-06-28T21:15:00Z", "webTitle": "Russell Brand: what I made of Morning Joe and Question Time", "webUrl": "https://www.theguardian.com/culture/2013/jun/28/russell-brand-morning-joe-question-time", "apiUrl": "https://content.guardianapis.com/culture/2013/jun/28/russell-brand-morning-joe-question-time", "isHosted": false, "pillarId": "pillar/arts", "pillarName": "Arts"}, {"id": "culture/2013/jun/28/economic-impact-funding-arts", "type": "article", "sectionId": "culture", "sectionName": "Culture", "webPublicationDate": "2013-06-28T20:00:12Z", "webTitle": "Letters: Economic impact of funding for the arts", "webUrl": "https://www.theguardian.com/culture/2013/jun/28/economic-impact-funding-arts", "apiUrl": "https://content.guardianapis.com/culture/2013/jun/28/economic-impact-funding-arts", "isHosted": false, "pillarId": "pillar/arts", "pillarName": "Arts"}, {"id": "commentisfree/2013/jun/28/editorial-bank-of-england", "type": "article", "sectionId": "commentisfree", "sectionName": "Opinion", "webPublicationDate": "2013-06-28T19:22:07Z", "webTitle": "Bank of England: new man for the Old Lady | Editorial", "webUrl": "https://www.theguardian.com/commentisfree/2013/jun/28/editorial-bank-of-england", "apiUrl": "https://content.guardianapis.com/commentisfree/2013/jun/28/editorial-bank-of-england", "isHosted": false, "pillarId": "pillar/opinion", "pillarName": "Opinion"}, {"id": "politics/2013/jun/28/labour-early-vote-uk-eu-membership", "type": "article", "sectionId": "politics", "sectionName": "Politics", "webPublicationDate": "2013-06-28T18:52:14Z", "webTitle": "Labour may back early vote on UK's EU membership", "webUrl": "https://www.theguardian.com/politics/2013/jun/28/labour-early-vote-uk-eu-membership", "apiUrl": "https://content.guardianapis.com/politics/2013/jun/28/labour-early-vote-uk-eu-membership", "isHosted": false, "pillarId": "pillar/news", "pillarName": "News"}, {"id": "world/2013/jun/28/david-cameron-france-eu-rebate", "type": "article", "sectionId": "world", "sectionName": "World news", "webPublicationDate": "2013-06-28T18:49:43Z", "webTitle": "David Cameron denounces French 'ambush' on Britain's EU rebate", "webUrl": "https://www.theguardian.com/world/2013/jun/28/david-cameron-france-eu-rebate", "apiUrl": "https://content.guardianapis.com/world/2013/jun/28/david-cameron-france-eu-rebate", "isHosted": false, "pillarId": "pillar/news", "pillarName": "News"}, {"id": "education/2013/jun/28/christian-faith-schools-islamic-hindu", "type": "article", "sectionId": "education", "sectionName": "Education", "webPublicationDate": "2013-06-28T18:33:55Z", "webTitle": "Education ministry gives go-ahead to two-thirds of Christian faith schools", "webUrl": "https://www.theguardian.com/education/2013/jun/28/christian-faith-schools-islamic-hindu", "apiUrl": "https://content.guardianapis.com/education/2013/jun/28/christian-faith-schools-islamic-hindu", "isHosted": false, "pillarId": "pillar/news", "pillarName": "News"}, {"id": "business/2013/jun/28/bank-racism-report-delay-nick-clegg", "type": "article", "sectionId": "business", "sectionName": "Business", "webPublicationDate": "2013-06-28T17:55:24Z", "webTitle": "Bank racism report 'gathering dust' more than 18 months on", "webUrl": "https://www.theguardian.com/business/2013/jun/28/bank-racism-report-delay-nick-clegg", "apiUrl": "https://content.guardianapis.com/business/2013/jun/28/bank-racism-report-delay-nick-clegg", "isHosted": false, "pillarId": "pillar/news", "pillarName": "News"}, {"id": "politics/2013/jun/28/peter-ackhurst", "type": "article", "sectionId": "politics", "sectionName": "Politics", "webPublicationDate": "2013-06-28T16:32:42Z", "webTitle": "Peter Ackhurst obituary", "webUrl": "https://www.theguardian.com/politics/2013/jun/28/peter-ackhurst", "apiUrl": "https://content.guardianapis.com/politics/2013/jun/28/peter-ackhurst", "isHosted": false, "pillarId": "pillar/news", "pillarName": "News"}, {"id": "theguardian/2013/jun/28/hilda-smith-obituary", "type": "article", "sectionId": "theguardian", "sectionName": "From the Guardian", "webPublicationDate": "2013-06-28T16:31:01Z", "webTitle": "Hilda Smith obituary", "webUrl": "https://www.theguardian.com/theguardian/2013/jun/28/hilda-smith-obituary", "apiUrl": "https://content.guardianapis.com/theguardian/2013/jun/28/hilda-smith-obituary", "isHosted": false, "pillarId": "pillar/news", "pillarName": "News"}, {"id": "world/2013/jun/28/talks-taliban-british-officer-afghanistan", "type": "article", "sectionId": "world", "sectionName": "World news", "webPublicationDate": "2013-06-28T16:30:02Z", "webTitle": "'We should have talked to Taliban' says top British officer in Afghanistan", "webUrl": "https://www.theguardian.com/world/2013/jun/28/talks-taliban-british-officer-afghanistan", "apiUrl": "https://content.guardianapis.com/world/2013/jun/28/talks-taliban-british-officer-afghanistan", "isHosted": false, "pillarId": "pillar/news", "pillarName": "News"}, {"id": "environment/2013/jun/28/angela-merkel-eu-car-emissions", "type": "article", "sectionId": "environment", "sectionName": "Environment", "webPublicationDate": "2013-06-28T15:09:03Z", "webTitle": "Angela Merkel 'blocks' EU plan on limiting emissions from new cars", "webUrl": "https://www.theguardian.com/environment/2013/jun/28/angela-merkel-eu-car-emissions", "apiUrl": "https://content.guardianapis.com/environment/2013/jun/28/angela-merkel-eu-car-emissions", "isHosted": false, "pillarId": "pillar/news", "pillarName": "News"}, {"id": "commentisfree/2013/jun/28/prime-minister-miliband-world-stage", "type": "article", "sectionId": "commentisfree", "sectionName": "Opinion", "webPublicationDate": "2013-06-28T15:00:02Z", "webTitle": "How would Prime Minister Miliband perform on the world stage? | David Clark", "webUrl": "https://www.theguardian.com/commentisfree/2013/jun/28/prime-minister-miliband-world-stage", "apiUrl": "https://content.guardianapis.com/commentisfree/2013/jun/28/prime-minister-miliband-world-stage", "isHosted": false, "pillarId": "pillar/opinion", "pillarName": "Opinion"}, {"id": "politics/2013/jun/28/alex-salmond-boycott-open-muirfield", "type": "article", "sectionId": "politics", "sectionName": "Politics", "webPublicationDate": "2013-06-28T14:32:34Z", "webTitle": "Alex Salmond to boycott Open over Muirfield's men-only policy", "webUrl": "https://www.theguardian.com/politics/2013/jun/28/alex-salmond-boycott-open-muirfield", "apiUrl": "https://content.guardianapis.com/politics/2013/jun/28/alex-salmond-boycott-open-muirfield", "isHosted": false, "pillarId": "pillar/news", "pillarName": "News"}, {"id": "politics/2013/jun/28/scottish-prisoners-ban-voting-independence-referendum", "type": "article", "sectionId": "politics", "sectionName": "Politics", "webPublicationDate": "2013-06-28T14:21:35Z", "webTitle": "Scottish prisoners challenge ban on voting in independence referendum", "webUrl": "https://www.theguardian.com/politics/2013/jun/28/scottish-prisoners-ban-voting-independence-referendum", "apiUrl": "https://content.guardianapis.com/politics/2013/jun/28/scottish-prisoners-ban-voting-independence-referendum", "isHosted": false, "pillarId": "pillar/news", "pillarName": "News"}, {"id": "politics/2013/jun/28/eric-pickles-communities-department-overdraft", "type": "article", "sectionId": "politics", "sectionName": "Politics", "webPublicationDate": "2013-06-28T14:06:41Z", "webTitle": "Watchdog reprimands Eric Pickles' department for \u00a3217m overdraft", "webUrl": "https://www.theguardian.com/politics/2013/jun/28/eric-pickles-communities-department-overdraft", "apiUrl": "https://content.guardianapis.com/politics/2013/jun/28/eric-pickles-communities-department-overdraft", "isHosted": false, "pillarId": "pillar/news", "pillarName": "News"}, {"id": "business/2013/jun/28/government-selling-stake-lloyds-rbs", "type": "article", "sectionId": "business", "sectionName": "Business", "webPublicationDate": "2013-06-28T13:16:56Z", "webTitle": "Government takes another step towards selling stake in Lloyds and RBS", "webUrl": "https://www.theguardian.com/business/2013/jun/28/government-selling-stake-lloyds-rbs", "apiUrl": "https://content.guardianapis.com/business/2013/jun/28/government-selling-stake-lloyds-rbs", "isHosted": false, "pillarId": "pillar/news", "pillarName": "News"}]}}