{"response": {"status": "ok", "userTier": "developer", "total": 40864, "startIndex": 1, "pageSize": 50, "currentPage": 1, "pages": 818, "orderBy": "newest", "results": [{"id": "environment/the-northerner/2014/jul/30/tynemouth-twenty-minutes-fog", "type": "article", "sectionId": "environment", "sectionName": "Environment", "webPublicationDate": "2014-07-30T20:00:05Z", "webTitle": "Country diary: Tynemouth: Twenty minutes of fog", "webUrl": "https://www.theguardian.com/environment/the-northerner/2014/jul/30/tynemouth-twenty-minutes-fog", "apiUrl": "https://content.guardianapis.com/environment/the-northerner/2014/jul/30/tynemouth-twenty-minutes-fog", "isHosted": false, "pillarId": "pillar/news", "pillarName": "News"}, {"id": "science/2014/jul/30/african-jackass-penguins-calls", "type": "article", "sectionId": "science", "sectionName": "Science", "webPublicationDate": "2014-07-30T18:00:00Z", "webTitle": "Secret language of penguins decoded", "webUrl": "https://www.theguardian.com/science/2014/jul/30/african-jackass-penguins-calls", "apiUrl": "https://content.guardianapis.com/science/2014/jul/30/african-jackass-penguins-calls", "isHosted": false, "pillarId": "pillar/news", "pillarName": "News"}, {"id": "environment/2014/jul/30/green-groups-too-white-too-male-other-sectors-report", "type": "article", "sectionId": "environment", "sectionName": "Environment", "webPublicationDate": "2014-07-30T17:06:34Z", "webTitle": "Green groups too white and too male compared to other sectors \u2013 report", "webUrl": "https://www.theguardian.com/environment/2014/jul/30/green-groups-too-white-too-male-other-sectors-report", "apiUrl": "https://content.guardianapis.com/environment/2014/jul/30/green-groups-too-white-too-male-other-sectors-report", "isHosted": false, "pillarId": "pillar/news", "pillarName": "News"}, {"id": "politics/2014/jul/30/lib-dems-forests-trusts-avoid-privatisation-trees", "type": "article", "sectionId": "politics", "sectionName": "Politics", "webPublicationDate": "2014-07-30T16:33:12Z", "webTitle": "Lib Dems suggest putting forests in trusts to avoid privatisation", "webUrl": "https://www.theguardian.com/politics/2014/jul/30/lib-dems-forests-trusts-avoid-privatisation-trees", "apiUrl": "https://content.guardianapis.com/politics/2014/jul/30/lib-dems-forests-trusts-avoid-privatisation-trees", "isHosted": false, "pillarId": "pillar/news", "pillarName": "News"}, {"id": "environment/2014/jul/30/boris-johnson-defends-londons-record-on-air-pollution", "type": "article", "sectionId": "environment", "sectionName": "Environment", "webPublicationDate": "2014-07-30T16:09:22Z", "webTitle": "Boris Johnson defends London's record on air pollution", "webUrl": "https://www.theguardian.com/environment/2014/jul/30/boris-johnson-defends-londons-record-on-air-pollution", "apiUrl": "https://content.guardianapis.com/environment/2014/jul/30/boris-johnson-defends-londons-record-on-air-pollution", "isHosted": false, "pillarId": "pillar/news", "pillarName": "News"}, {"id": "environment/2014/jul/30/wetland-bird-survey-wading-birds-britain-climate-change", "type": "article", "sectionId": "environment", "sectionName": "Environment", "webPublicationDate": "2014-07-30T14:33:57Z", "webTitle": "Wading birds declining in the UK", "webUrl": "https://www.theguardian.com/environment/2014/jul/30/wetland-bird-survey-wading-birds-britain-climate-change", "apiUrl": "https://content.guardianapis.com/environment/2014/jul/30/wetland-bird-survey-wading-birds-britain-climate-change", "isHosted": false, "pillarId": "pillar/news", "pillarName": "News"}, {"id": "environment/2014/jul/30/green-news-roundup", "type": "article", "sectionId": "environment", "sectionName": "Environment", "webPublicationDate": "2014-07-30T14:20:07Z", "webTitle": "Green news roundup: solar Apple, London air and threats to pangolins", "webUrl": "https://www.theguardian.com/environment/2014/jul/30/green-news-roundup", "apiUrl": "https://content.guardianapis.com/environment/2014/jul/30/green-news-roundup", "isHosted": false, "pillarId": "pillar/news", "pillarName": "News"}, {"id": "environment/2014/jul/30/volvo-renault-electric-car-sales-double-in-eu", "type": "article", "sectionId": "environment", "sectionName": "Environment", "webPublicationDate": "2014-07-30T11:49:41Z", "webTitle": "Volvo and Renault lead way as electric car sales double in EU", "webUrl": "https://www.theguardian.com/environment/2014/jul/30/volvo-renault-electric-car-sales-double-in-eu", "apiUrl": "https://content.guardianapis.com/environment/2014/jul/30/volvo-renault-electric-car-sales-double-in-eu", "isHosted": false, "pillarId": "pillar/news", "pillarName": "News"}, {"id": "lifeandstyle/2014/jul/30/zaragoza-smarter-urban-water-zaragoza-spain-learned-to-use-less", "type": "article", "sectionId": "lifeandstyle", "sectionName": "Life and style", "webPublicationDate": "2014-07-30T08:55:48Z", "webTitle": "Smarter urban water: how Spain's Zaragoza learned to use less", "webUrl": "https://www.theguardian.com/lifeandstyle/2014/jul/30/zaragoza-smarter-urban-water-zaragoza-spain-learned-to-use-less", "apiUrl": "https://content.guardianapis.com/lifeandstyle/2014/jul/30/zaragoza-smarter-urban-water-zaragoza-spain-learned-to-use-less", "isHosted": false, "pillarId": "pillar/lifestyle", "pillarName": "Lifestyle"}, {"id": "lifeandstyle/2014/jul/30/melbourne-smarter-urban-water-why-melbourne-needed-to-catch-and-store", "type": "article", "sectionId": "lifeandstyle", "sectionName": "Life and style", "webPublicationDate": "2014-07-30T08:55:45Z", "webTitle": "Smarter urban water: why Melbourne needed to catch and store", "webUrl": "https://www.theguardian.com/lifeandstyle/2014/jul/30/melbourne-smarter-urban-water-why-melbourne-needed-to-catch-and-store", "apiUrl": "https://content.guardianapis.com/lifeandstyle/2014/jul/30/melbourne-smarter-urban-water-why-melbourne-needed-to-catch-and-store", "isHosted": false, "pillarId": "pillar/lifestyle", "pillarName": "Lifestyle"}, {"id": "lifeandstyle/2014/jul/30/denver-smarter-urban-water-how-dammed-denver-turned-to-ridiculing-waste", "type": "article", "sectionId": "lifeandstyle", "sectionName": "Life and style", "webPublicationDate": "2014-07-30T08:55:43Z", "webTitle": "Smarter urban water: how dammed Denver turned to ridiculing waste", "webUrl": "https://www.theguardian.com/lifeandstyle/2014/jul/30/denver-smarter-urban-water-how-dammed-denver-turned-to-ridiculing-waste", "apiUrl": "https://content.guardianapis.com/lifeandstyle/2014/jul/30/denver-smarter-urban-water-how-dammed-denver-turned-to-ridiculing-waste", "isHosted": false, "pillarId": "pillar/lifestyle", "pillarName": "Lifestyle"}, {"id": "commentisfree/cartoon/2014/jul/30/first-dog-mine", "type": "picture", "sectionId": "global", "sectionName": "Global", "webPublicationDate": "2014-07-30T06:14:34Z", "webTitle": "First Dog on the Moon on ... Australia's new giant mine - cartoon", "webUrl": "https://www.theguardian.com/commentisfree/cartoon/2014/jul/30/first-dog-mine", "apiUrl": "https://content.guardianapis.com/commentisfree/cartoon/2014/jul/30/first-dog-mine", "isHosted": false}, {"id": "global-development/2014/jul/30/kenya-drought-food-starvation", "type": "article", "sectionId": "global-development", "sectionName": "Global development", "webPublicationDate": "2014-07-30T05:59:00Z", "webTitle": "Drought in northern Kenya: 'Today you are rich, tomorrow you have nothing' | Jessica Hatcher", "webUrl": "https://www.theguardian.com/global-development/2014/jul/30/kenya-drought-food-starvation", "apiUrl": "https://content.guardianapis.com/global-development/2014/jul/30/kenya-drought-food-starvation", "isHosted": false, "pillarId": "pillar/news", "pillarName": "News"}, {"id": "environment/2014/jul/30/reasons-hopeful-overcome-climate-change-solar", "type": "article", "sectionId": "environment", "sectionName": "Environment", "webPublicationDate": "2014-07-30T04:00:04Z", "webTitle": "10 reasons to be hopeful that we will overcome climate change", "webUrl": "https://www.theguardian.com/environment/2014/jul/30/reasons-hopeful-overcome-climate-change-solar", "apiUrl": "https://content.guardianapis.com/environment/2014/jul/30/reasons-hopeful-overcome-climate-change-solar", "isHosted": false, "pillarId": "pillar/news", "pillarName": "News"}, {"id": "environment/2014/jul/29/an-ant-orgy", "type": "article", "sectionId": "environment", "sectionName": "Environment", "webPublicationDate": "2014-07-29T19:59:09Z", "webTitle": "Country diary: Wenlock Edge: An ant orgy", "webUrl": "https://www.theguardian.com/environment/2014/jul/29/an-ant-orgy", "apiUrl": "https://content.guardianapis.com/environment/2014/jul/29/an-ant-orgy", "isHosted": false, "pillarId": "pillar/news", "pillarName": "News"}, {"id": "commentisfree/2014/jul/29/anti-fracking-battle-wind-emissions-nimbys-green-groups", "type": "article", "sectionId": "commentisfree", "sectionName": "Opinion", "webPublicationDate": "2014-07-29T16:30:05Z", "webTitle": "So the fracking battle begins, but is it clear who\u2019s right? | Fred Pearce", "webUrl": "https://www.theguardian.com/commentisfree/2014/jul/29/anti-fracking-battle-wind-emissions-nimbys-green-groups", "apiUrl": "https://content.guardianapis.com/commentisfree/2014/jul/29/anti-fracking-battle-wind-emissions-nimbys-green-groups", "isHosted": false, "pillarId": "pillar/opinion", "pillarName": "Opinion"}, {"id": "sustainable-business/tackling-food-waste-technology-refrigeration-packaging", "type": "article", "sectionId": "sustainable-business", "sectionName": "Guardian Sustainable Business", "webPublicationDate": "2014-07-29T16:30:00Z", "webTitle": "Tackling the food waste challenge with technology", "webUrl": "https://www.theguardian.com/sustainable-business/tackling-food-waste-technology-refrigeration-packaging", "apiUrl": "https://content.guardianapis.com/sustainable-business/tackling-food-waste-technology-refrigeration-packaging", "isHosted": false}, {"id": "environment/2014/jul/29/climate-change-disney-no-mickey-mouse-operation", "type": "article", "sectionId": "environment", "sectionName": "Environment", "webPublicationDate": "2014-07-29T16:25:12Z", "webTitle": "On climate change, Disney is no Mickey-Mouse operation | @guardianletters", "webUrl": "https://www.theguardian.com/environment/2014/jul/29/climate-change-disney-no-mickey-mouse-operation", "apiUrl": "https://content.guardianapis.com/environment/2014/jul/29/climate-change-disney-no-mickey-mouse-operation", "isHosted": false, "pillarId": "pillar/news", "pillarName": "News"}, {"id": "sustainable-business/2014/jul/29/walmart-target-beauty-hygiene-chemical-products-chicago-summit", "type": "article", "sectionId": "sustainable-business", "sectionName": "Guardian Sustainable Business", "webPublicationDate": "2014-07-29T14:02:01Z", "webTitle": "Rivals Walmart and Target make up over cosmetics", "webUrl": "https://www.theguardian.com/sustainable-business/2014/jul/29/walmart-target-beauty-hygiene-chemical-products-chicago-summit", "apiUrl": "https://content.guardianapis.com/sustainable-business/2014/jul/29/walmart-target-beauty-hygiene-chemical-products-chicago-summit", "isHosted": false}, {"id": "sustainable-business/natural-capital-financial-markets-investment-nature-live-chat", "type": "article", "sectionId": "sustainable-business", "sectionName": "Guardian Sustainable Business", "webPublicationDate": "2014-07-29T13:30:00Z", "webTitle": "How to encourage financial markets to engage in natural capital? - live chat", "webUrl": "https://www.theguardian.com/sustainable-business/natural-capital-financial-markets-investment-nature-live-chat", "apiUrl": "https://content.guardianapis.com/sustainable-business/natural-capital-financial-markets-investment-nature-live-chat", "isHosted": false}, {"id": "travel/2014/jul/29/wiildlife-charity-calls-for-end-tiger-selfies", "type": "article", "sectionId": "travel", "sectionName": "Travel", "webPublicationDate": "2014-07-29T12:18:20Z", "webTitle": "Wildlife charity calls for an end to \u2018tiger selfies\u2019", "webUrl": "https://www.theguardian.com/travel/2014/jul/29/wiildlife-charity-calls-for-end-tiger-selfies", "apiUrl": "https://content.guardianapis.com/travel/2014/jul/29/wiildlife-charity-calls-for-end-tiger-selfies", "isHosted": false, "pillarId": "pillar/lifestyle", "pillarName": "Lifestyle"}, {"id": "sustainable-business/sustainable-fashion-blog/nature-fabrics-fashion-industry-biomimicry", "type": "article", "sectionId": "sustainable-business", "sectionName": "Guardian Sustainable Business", "webPublicationDate": "2014-07-29T11:30:00Z", "webTitle": "Seven fabrics inspired by nature: from the lotus leaf to butterflies and sharks", "webUrl": "https://www.theguardian.com/sustainable-business/sustainable-fashion-blog/nature-fabrics-fashion-industry-biomimicry", "apiUrl": "https://content.guardianapis.com/sustainable-business/sustainable-fashion-blog/nature-fabrics-fashion-industry-biomimicry", "isHosted": false}, {"id": "environment/2014/jul/29/delaying-climate-action-economic-cost-white-house-epa", "type": "article", "sectionId": "environment", "sectionName": "Environment", "webPublicationDate": "2014-07-29T10:00:01Z", "webTitle": "Delaying climate action will carry heavy economic cost, White House warned", "webUrl": "https://www.theguardian.com/environment/2014/jul/29/delaying-climate-action-economic-cost-white-house-epa", "apiUrl": "https://content.guardianapis.com/environment/2014/jul/29/delaying-climate-action-economic-cost-white-house-epa", "isHosted": false, "pillarId": "pillar/news", "pillarName": "News"}, {"id": "lifeandstyle/video/2014/jul/29/basingstoke-vulnerable-floods-video", "type": "video", "sectionId": "lifeandstyle", "sectionName": "Life and style", "webPublicationDate": "2014-07-29T08:26:00Z", "webTitle": "After the deluge: why Basingstoke is still vulnerable to floods \u2013 video", "webUrl": "https://www.theguardian.com/lifeandstyle/video/2014/jul/29/basingstoke-vulnerable-floods-video", "apiUrl": "https://content.guardianapis.com/lifeandstyle/video/2014/jul/29/basingstoke-vulnerable-floods-video", "isHosted": false, "pillarId": "pillar/lifestyle", "pillarName": "Lifestyle"}, {"id": "world/2014/jul/29/new-zealands-dramatic-ice-loss-could-lead-to-severe-decline-of-glaciers", "type": "article", "sectionId": "world", "sectionName": "World news", "webPublicationDate": "2014-07-29T06:51:43Z", "webTitle": "New Zealand\u2019s 'dramatic' ice loss could lead to severe decline of glaciers", "webUrl": "https://www.theguardian.com/world/2014/jul/29/new-zealands-dramatic-ice-loss-could-lead-to-severe-decline-of-glaciers", "apiUrl": "https://content.guardianapis.com/world/2014/jul/29/new-zealands-dramatic-ice-loss-could-lead-to-severe-decline-of-glaciers", "isHosted": false, "pillarId": "pillar/news", "pillarName": "News"}, {"id": "environment/2014/jul/29/ipcc-climate-change-reports-findings-must-be-accepted-mps-say", "type": "article", "sectionId": "environment", "sectionName": "Environment", "webPublicationDate": "2014-07-29T04:00:08Z", "webTitle": "IPCC climate change report's findings must be accepted, MPs say", "webUrl": "https://www.theguardian.com/environment/2014/jul/29/ipcc-climate-change-reports-findings-must-be-accepted-mps-say", "apiUrl": "https://content.guardianapis.com/environment/2014/jul/29/ipcc-climate-change-reports-findings-must-be-accepted-mps-say", "isHosted": false, "pillarId": "pillar/news", "pillarName": "News"}, {"id": "environment/blog/2014/jul/29/why-worrying-leopard-killed-my-dog-india", "type": "article", "sectionId": "environment", "sectionName": "Environment", "webPublicationDate": "2014-07-29T04:00:08Z", "webTitle": "Why I want to save the leopard that killed my dog", "webUrl": "https://www.theguardian.com/environment/blog/2014/jul/29/why-worrying-leopard-killed-my-dog-india", "apiUrl": "https://content.guardianapis.com/environment/blog/2014/jul/29/why-worrying-leopard-killed-my-dog-india", "isHosted": false, "pillarId": "pillar/news", "pillarName": "News"}, {"id": "environment/2014/jul/29/greg-hunt-clashes-with-environment-groups-over-carmichael-mine-approval", "type": "article", "sectionId": "environment", "sectionName": "Environment", "webPublicationDate": "2014-07-29T03:20:20Z", "webTitle": "Greg Hunt clashes with environment groups over Carmichael mine approval", "webUrl": "https://www.theguardian.com/environment/2014/jul/29/greg-hunt-clashes-with-environment-groups-over-carmichael-mine-approval", "apiUrl": "https://content.guardianapis.com/environment/2014/jul/29/greg-hunt-clashes-with-environment-groups-over-carmichael-mine-approval", "isHosted": false, "pillarId": "pillar/news", "pillarName": "News"}, {"id": "environment/2014/jul/29/stunning-dawn-follows-spectacular-sunsets-in-pictures", "type": "article", "sectionId": "environment", "sectionName": "Environment", "webPublicationDate": "2014-07-29T02:07:50Z", "webTitle": "Stunning dawn follows spectacular sunsets in NSW \u2013 in pictures", "webUrl": "https://www.theguardian.com/environment/2014/jul/29/stunning-dawn-follows-spectacular-sunsets-in-pictures", "apiUrl": "https://content.guardianapis.com/environment/2014/jul/29/stunning-dawn-follows-spectacular-sunsets-in-pictures", "isHosted": false, "pillarId": "pillar/news", "pillarName": "News"}, {"id": "environment/2014/jul/29/accc-has-companies-carbon-tax-repeal-savings-in-its-sights", "type": "article", "sectionId": "environment", "sectionName": "Environment", "webPublicationDate": "2014-07-29T01:37:46Z", "webTitle": "ACCC has companies' carbon tax repeal savings in its sights", "webUrl": "https://www.theguardian.com/environment/2014/jul/29/accc-has-companies-carbon-tax-repeal-savings-in-its-sights", "apiUrl": "https://content.guardianapis.com/environment/2014/jul/29/accc-has-companies-carbon-tax-repeal-savings-in-its-sights", "isHosted": false, "pillarId": "pillar/news", "pillarName": "News"}, {"id": "environment/2014/jul/29/pangolins-being-eaten-to-extinction-conservationists-warn-anteaters", "type": "article", "sectionId": "environment", "sectionName": "Environment", "webPublicationDate": "2014-07-28T23:01:02Z", "webTitle": "Pangolins being eaten to extinction, conservationists warn", "webUrl": "https://www.theguardian.com/environment/2014/jul/29/pangolins-being-eaten-to-extinction-conservationists-warn-anteaters", "apiUrl": "https://content.guardianapis.com/environment/2014/jul/29/pangolins-being-eaten-to-extinction-conservationists-warn-anteaters", "isHosted": false, "pillarId": "pillar/news", "pillarName": "News"}, {"id": "sustainable-business/2014/jul/28/general-mills-climate-change-lobbying-suppliers-kelloggs-oxfam", "type": "article", "sectionId": "sustainable-business", "sectionName": "Guardian Sustainable Business", "webPublicationDate": "2014-07-28T22:02:37Z", "webTitle": "General Mills joins climate change fight and requires pledges from suppliers too", "webUrl": "https://www.theguardian.com/sustainable-business/2014/jul/28/general-mills-climate-change-lobbying-suppliers-kelloggs-oxfam", "apiUrl": "https://content.guardianapis.com/sustainable-business/2014/jul/28/general-mills-climate-change-lobbying-suppliers-kelloggs-oxfam", "isHosted": false}, {"id": "commentisfree/cartoon/2014/jul/28/martin-rowson-cartoon-fracking-britain-expansion-drilling-shale-gas", "type": "picture", "sectionId": "commentisfree", "sectionName": "Opinion", "webPublicationDate": "2014-07-28T20:09:00Z", "webTitle": "Martin Rowson on fracking \u2013 cartoon", "webUrl": "https://www.theguardian.com/commentisfree/cartoon/2014/jul/28/martin-rowson-cartoon-fracking-britain-expansion-drilling-shale-gas", "apiUrl": "https://content.guardianapis.com/commentisfree/cartoon/2014/jul/28/martin-rowson-cartoon-fracking-britain-expansion-drilling-shale-gas", "isHosted": false, "pillarId": "pillar/opinion", "pillarName": "Opinion"}, {"id": "environment/2014/jul/28/fossil-forest-lulworth-dorset-jurassic-reptiles-roam", "type": "article", "sectionId": "environment", "sectionName": "Environment", "webPublicationDate": "2014-07-28T20:00:21Z", "webTitle": "Country diary: Fossil Forest, Lulworth Ranges, Dorset: The Jurassic forest where reptiles still roam", "webUrl": "https://www.theguardian.com/environment/2014/jul/28/fossil-forest-lulworth-dorset-jurassic-reptiles-roam", "apiUrl": "https://content.guardianapis.com/environment/2014/jul/28/fossil-forest-lulworth-dorset-jurassic-reptiles-roam", "isHosted": false, "pillarId": "pillar/news", "pillarName": "News"}, {"id": "world/2014/jul/28/scunthorpe-llangefni-chicken-fsa-inspection-jeremy-hunt", "type": "article", "sectionId": "world", "sectionName": "World news", "webPublicationDate": "2014-07-28T19:39:24Z", "webTitle": "FSA inspects chicken abattoirs at request of health secretary", "webUrl": "https://www.theguardian.com/world/2014/jul/28/scunthorpe-llangefni-chicken-fsa-inspection-jeremy-hunt", "apiUrl": "https://content.guardianapis.com/world/2014/jul/28/scunthorpe-llangefni-chicken-fsa-inspection-jeremy-hunt", "isHosted": false, "pillarId": "pillar/news", "pillarName": "News"}, {"id": "commentisfree/2014/jul/28/guardian-view-dash-shale-gas", "type": "article", "sectionId": "commentisfree", "sectionName": "Opinion", "webPublicationDate": "2014-07-28T18:59:45Z", "webTitle": "The Guardian view on the dash for shale gas | Editorial", "webUrl": "https://www.theguardian.com/commentisfree/2014/jul/28/guardian-view-dash-shale-gas", "apiUrl": "https://content.guardianapis.com/commentisfree/2014/jul/28/guardian-view-dash-shale-gas", "isHosted": false, "pillarId": "pillar/opinion", "pillarName": "Opinion"}, {"id": "environment/2014/jul/28/fracking-expansion-shale-gas-opposition-britain", "type": "article", "sectionId": "environment", "sectionName": "Environment", "webPublicationDate": "2014-07-28T18:27:52Z", "webTitle": "Government pushes ahead with fracking plan despite wide opposition", "webUrl": "https://www.theguardian.com/environment/2014/jul/28/fracking-expansion-shale-gas-opposition-britain", "apiUrl": "https://content.guardianapis.com/environment/2014/jul/28/fracking-expansion-shale-gas-opposition-britain", "isHosted": false, "pillarId": "pillar/news", "pillarName": "News"}, {"id": "travel/2014/jul/28/the-best-of-uk-national-parks", "type": "article", "sectionId": "travel", "sectionName": "Travel", "webPublicationDate": "2014-07-28T14:11:36Z", "webTitle": "The best of the UK\u2019s national parks", "webUrl": "https://www.theguardian.com/travel/2014/jul/28/the-best-of-uk-national-parks", "apiUrl": "https://content.guardianapis.com/travel/2014/jul/28/the-best-of-uk-national-parks", "isHosted": false, "pillarId": "pillar/lifestyle", "pillarName": "Lifestyle"}, {"id": "sustainable-business/2014/jul/28/eat-well-nutrition-grass-fed-local-recipes-fisheries-resources-carbon-soil", "type": "article", "sectionId": "sustainable-business", "sectionName": "Guardian Sustainable Business", "webPublicationDate": "2014-07-28T13:45:15Z", "webTitle": "The new low-carbon diet: eat well without gobbling up resources", "webUrl": "https://www.theguardian.com/sustainable-business/2014/jul/28/eat-well-nutrition-grass-fed-local-recipes-fisheries-resources-carbon-soil", "apiUrl": "https://content.guardianapis.com/sustainable-business/2014/jul/28/eat-well-nutrition-grass-fed-local-recipes-fisheries-resources-carbon-soil", "isHosted": false}, {"id": "environment/2014/jul/28/fracking-national-parks-protecting-houses", "type": "article", "sectionId": "environment", "sectionName": "Environment", "webPublicationDate": "2014-07-28T13:12:50Z", "webTitle": "Fracking: it's not just our national parks that need protecting, but our houses too | Natalie Bennett", "webUrl": "https://www.theguardian.com/environment/2014/jul/28/fracking-national-parks-protecting-houses", "apiUrl": "https://content.guardianapis.com/environment/2014/jul/28/fracking-national-parks-protecting-houses", "isHosted": false, "pillarId": "pillar/news", "pillarName": "News"}, {"id": "sustainable-business/2014/jul/28/carbon-tax-australia-british-columbia-business-revenue-neutral", "type": "article", "sectionId": "sustainable-business", "sectionName": "Guardian Sustainable Business", "webPublicationDate": "2014-07-28T13:00:13Z", "webTitle": "A carbon tax that's good for business?", "webUrl": "https://www.theguardian.com/sustainable-business/2014/jul/28/carbon-tax-australia-british-columbia-business-revenue-neutral", "apiUrl": "https://content.guardianapis.com/sustainable-business/2014/jul/28/carbon-tax-australia-british-columbia-business-revenue-neutral", "isHosted": false}, {"id": "lifeandstyle/2014/jul/28/how-to-mend-clothes-with-faulty-zips", "type": "article", "sectionId": "lifeandstyle", "sectionName": "Life and style", "webPublicationDate": "2014-07-28T11:53:25Z", "webTitle": "How to mend ... clothes with faulty zips", "webUrl": "https://www.theguardian.com/lifeandstyle/2014/jul/28/how-to-mend-clothes-with-faulty-zips", "apiUrl": "https://content.guardianapis.com/lifeandstyle/2014/jul/28/how-to-mend-clothes-with-faulty-zips", "isHosted": false, "pillarId": "pillar/lifestyle", "pillarName": "Lifestyle"}, {"id": "environment/video/2014/jul/28/apple-green-solar-powered-data-centres", "type": "video", "sectionId": "environment", "sectionName": "Environment", "webPublicationDate": "2014-07-28T11:26:00Z", "webTitle": "Apple goes green with solar-powered data centres \u2013 video", "webUrl": "https://www.theguardian.com/environment/video/2014/jul/28/apple-green-solar-powered-data-centres", "apiUrl": "https://content.guardianapis.com/environment/video/2014/jul/28/apple-green-solar-powered-data-centres", "isHosted": false, "pillarId": "pillar/news", "pillarName": "News"}, {"id": "books/booksblog/2014/jul/28/book-beach-the-sea-around-us-rachel-carson", "type": "article", "sectionId": "books", "sectionName": "Books", "webPublicationDate": "2014-07-28T11:20:48Z", "webTitle": "A book for the beach: The Sea Around Us by Rachel Carson", "webUrl": "https://www.theguardian.com/books/booksblog/2014/jul/28/book-beach-the-sea-around-us-rachel-carson", "apiUrl": "https://content.guardianapis.com/books/booksblog/2014/jul/28/book-beach-the-sea-around-us-rachel-carson", "isHosted": false, "pillarId": "pillar/arts", "pillarName": "Arts"}, {"id": "lifeandstyle/2014/jul/28/fatberg-descent-dark-world-london-sewers", "type": "article", "sectionId": "lifeandstyle", "sectionName": "Life and style", "webPublicationDate": "2014-07-28T09:46:36Z", "webTitle": "In search of the fatberg: a descent to the dark world of London's sewers", "webUrl": "https://www.theguardian.com/lifeandstyle/2014/jul/28/fatberg-descent-dark-world-london-sewers", "apiUrl": "https://content.guardianapis.com/lifeandstyle/2014/jul/28/fatberg-descent-dark-world-london-sewers", "isHosted": false, "pillarId": "pillar/lifestyle", "pillarName": "Lifestyle"}, {"id": "environment/2014/jul/28/fracking-oil-exploration-national-parks-decades-energy-minister", "type": "article", "sectionId": "environment", "sectionName": "Environment", "webPublicationDate": "2014-07-28T09:22:48Z", "webTitle": "Fracking: oil exploration already occurs in national parks, says energy minister", "webUrl": "https://www.theguardian.com/environment/2014/jul/28/fracking-oil-exploration-national-parks-decades-energy-minister", "apiUrl": "https://content.guardianapis.com/environment/2014/jul/28/fracking-oil-exploration-national-parks-decades-energy-minister", "isHosted": false, "pillarId": "pillar/news", "pillarName": "News"}, {"id": "environment/2014/jul/28/fracking-office-single-unit-shale-gas-produced", "type": "article", "sectionId": "environment", "sectionName": "Environment", "webPublicationDate": "2014-07-28T09:20:04Z", "webTitle": "Fracking office gets \u00a32.5m before single unit of shale gas produced", "webUrl": "https://www.theguardian.com/environment/2014/jul/28/fracking-office-single-unit-shale-gas-produced", "apiUrl": "https://content.guardianapis.com/environment/2014/jul/28/fracking-office-single-unit-shale-gas-produced", "isHosted": false, "pillarId": "pillar/news", "pillarName": "News"}, {"id": "environment/2014/jul/28/koala-found-clinging-to-cars-grille-after-88km-drive-in-queensland", "type": "article", "sectionId": "environment", "sectionName": "Environment", "webPublicationDate": "2014-07-28T09:06:45Z", "webTitle": "Koala found clinging to car\u2019s grille after 88km drive in Queensland", "webUrl": "https://www.theguardian.com/environment/2014/jul/28/koala-found-clinging-to-cars-grille-after-88km-drive-in-queensland", "apiUrl": "https://content.guardianapis.com/environment/2014/jul/28/koala-found-clinging-to-cars-grille-after-88km-drive-in-queensland", "isHosted": false, "pillarId": "pillar/news", "pillarName": "News"}, {"id": "sustainable-business/bank-holiday-local-environmental-projects-fabian-society-report-climate-change", "type": "article", "sectionId": "sustainable-business", "sectionName": "Guardian Sustainable Business", "webPublicationDate": "2014-07-28T06:00:00Z", "webTitle": "Climate change activism should be brought to doorsteps with bank holiday", "webUrl": "https://www.theguardian.com/sustainable-business/bank-holiday-local-environmental-projects-fabian-society-report-climate-change", "apiUrl": "https://content.guardianapis.com/sustainable-business/bank-holiday-local-environmental-projects-fabian-society-report-climate-change", "isHosted": false}, {"id": "global-development/2014/jul/28/rwanda-gorillas-community-tourism", "type": "article", "sectionId": "global-development", "sectionName": "Global development", "webPublicationDate": "2014-07-28T06:00:00Z", "webTitle": "How Rwanda's gorillas are helping to sustain entire communities | Usher Komugisha and Andy Nicolson", "webUrl": "https://www.theguardian.com/global-development/2014/jul/28/rwanda-gorillas-community-tourism", "apiUrl": "https://content.guardianapis.com/global-development/2014/jul/28/rwanda-gorillas-community-tourism", "isHosted": false, "pillarId": "pillar/news", "pillarName": "News"}]}}