{"response": {"status": "ok", "userTier": "developer", "total": 15029, "startIndex": 1, "pageSize": 50, "currentPage": 1, "pages": 301, "orderBy": "newest", "results": [{"id": "lifeandstyle/2010/jul/31/food-picks-of-the-week", "type": "article", "sectionId": "food", "sectionName": "Food", "webPublicationDate": "2010-07-30T23:06:23Z", "webTitle": "Food picks of the week", "webUrl": "https://www.theguardian.com/lifeandstyle/2010/jul/31/food-picks-of-the-week", "apiUrl": "https://content.guardianapis.com/lifeandstyle/2010/jul/31/food-picks-of-the-week", "isHosted": false, "pillarId": "pillar/lifestyle", "pillarName": "Lifestyle"}, {"id": "lifeandstyle/2010/jul/31/giorgio-locatelli-family-values", "type": "article", "sectionId": "lifeandstyle", "sectionName": "Life and style", "webPublicationDate": "2010-07-30T23:05:00Z", "webTitle": "My family values: Giorgio Locatelli", "webUrl": "https://www.theguardian.com/lifeandstyle/2010/jul/31/giorgio-locatelli-family-values", "apiUrl": "https://content.guardianapis.com/lifeandstyle/2010/jul/31/giorgio-locatelli-family-values", "isHosted": false, "pillarId": "pillar/lifestyle", "pillarName": "Lifestyle"}, {"id": "lifeandstyle/2010/jul/31/readers-favourite-photographs-songs-recipes", "type": "article", "sectionId": "lifeandstyle", "sectionName": "Life and style", "webPublicationDate": "2010-07-30T23:04:49Z", "webTitle": "Family life", "webUrl": "https://www.theguardian.com/lifeandstyle/2010/jul/31/readers-favourite-photographs-songs-recipes", "apiUrl": "https://content.guardianapis.com/lifeandstyle/2010/jul/31/readers-favourite-photographs-songs-recipes", "isHosted": false, "pillarId": "pillar/lifestyle", "pillarName": "Lifestyle"}, {"id": "lifeandstyle/2010/jul/31/unbreakable-cafetieres-roast-beef-condensed-milk", "type": "article", "sectionId": "lifeandstyle", "sectionName": "Life and style", "webPublicationDate": "2010-07-30T23:03:02Z", "webTitle": "Food for Fort: Unbreakable cafeti\u00e8res, small joints and condensed milk", "webUrl": "https://www.theguardian.com/lifeandstyle/2010/jul/31/unbreakable-cafetieres-roast-beef-condensed-milk", "apiUrl": "https://content.guardianapis.com/lifeandstyle/2010/jul/31/unbreakable-cafetieres-roast-beef-condensed-milk", "isHosted": false, "pillarId": "pillar/lifestyle", "pillarName": "Lifestyle"}, {"id": "lifeandstyle/2010/jul/31/children-cooking-recipes-fearnley-whittingstall", "type": "article", "sectionId": "lifeandstyle", "sectionName": "Life and style", "webPublicationDate": "2010-07-30T23:03:01Z", "webTitle": "Cooking with children recipes | Hugh Fearnley-Whittingstall | Food", "webUrl": "https://www.theguardian.com/lifeandstyle/2010/jul/31/children-cooking-recipes-fearnley-whittingstall", "apiUrl": "https://content.guardianapis.com/lifeandstyle/2010/jul/31/children-cooking-recipes-fearnley-whittingstall", "isHosted": false, "pillarId": "pillar/lifestyle", "pillarName": "Lifestyle"}, {"id": "lifeandstyle/2010/jul/31/ganapati-london-se15-review", "type": "article", "sectionId": "food", "sectionName": "Food", "webPublicationDate": "2010-07-30T23:02:57Z", "webTitle": "Restaurant: Ganapati, London SE15", "webUrl": "https://www.theguardian.com/lifeandstyle/2010/jul/31/ganapati-london-se15-review", "apiUrl": "https://content.guardianapis.com/lifeandstyle/2010/jul/31/ganapati-london-se15-review", "isHosted": false, "pillarId": "pillar/lifestyle", "pillarName": "Lifestyle"}, {"id": "lifeandstyle/2010/jul/31/white-wine-hot-days-reviews", "type": "article", "sectionId": "lifeandstyle", "sectionName": "Life and style", "webPublicationDate": "2010-07-30T23:02:57Z", "webTitle": "Wine: Cool whites for hot days | Victoria Moore", "webUrl": "https://www.theguardian.com/lifeandstyle/2010/jul/31/white-wine-hot-days-reviews", "apiUrl": "https://content.guardianapis.com/lifeandstyle/2010/jul/31/white-wine-hot-days-reviews", "isHosted": false, "pillarId": "pillar/lifestyle", "pillarName": "Lifestyle"}, {"id": "lifeandstyle/2010/jul/31/parsley-cheese-scone-recipe-lepard", "type": "article", "sectionId": "lifeandstyle", "sectionName": "Life and style", "webPublicationDate": "2010-07-30T23:02:55Z", "webTitle": "Parsley cheese scones recipe | Dan Lepard | Baking | Food", "webUrl": "https://www.theguardian.com/lifeandstyle/2010/jul/31/parsley-cheese-scone-recipe-lepard", "apiUrl": "https://content.guardianapis.com/lifeandstyle/2010/jul/31/parsley-cheese-scone-recipe-lepard", "isHosted": false, "pillarId": "pillar/lifestyle", "pillarName": "Lifestyle"}, {"id": "lifeandstyle/2010/jul/31/comte-polenta-tart-recipe-ottolenghi", "type": "article", "sectionId": "lifeandstyle", "sectionName": "Life and style", "webPublicationDate": "2010-07-30T23:02:54Z", "webTitle": "Comt\u00e9 and polenta tart recipe | Yotam Ottolenghi | Vegetarian | Food", "webUrl": "https://www.theguardian.com/lifeandstyle/2010/jul/31/comte-polenta-tart-recipe-ottolenghi", "apiUrl": "https://content.guardianapis.com/lifeandstyle/2010/jul/31/comte-polenta-tart-recipe-ottolenghi", "isHosted": false, "pillarId": "pillar/lifestyle", "pillarName": "Lifestyle"}, {"id": "lifeandstyle/cartoon/2010/jul/31/berger-and-wyse", "type": "picture", "sectionId": "food", "sectionName": "Food", "webPublicationDate": "2010-07-30T23:02:00Z", "webTitle": "Berger & Wyse", "webUrl": "https://www.theguardian.com/lifeandstyle/cartoon/2010/jul/31/berger-and-wyse", "apiUrl": "https://content.guardianapis.com/lifeandstyle/cartoon/2010/jul/31/berger-and-wyse", "isHosted": false, "pillarId": "pillar/lifestyle", "pillarName": "Lifestyle"}, {"id": "business/2010/jul/30/heinz-baked-beans-screwtop-jar", "type": "article", "sectionId": "business", "sectionName": "Business", "webPublicationDate": "2010-07-30T16:17:08Z", "webTitle": "Beanz meanz canz? Heinz to sell plastic jars", "webUrl": "https://www.theguardian.com/business/2010/jul/30/heinz-baked-beans-screwtop-jar", "apiUrl": "https://content.guardianapis.com/business/2010/jul/30/heinz-baked-beans-screwtop-jar", "isHosted": false, "pillarId": "pillar/news", "pillarName": "News"}, {"id": "lifeandstyle/wordofmouth/2010/jul/30/restaurant-music", "type": "article", "sectionId": "lifeandstyle", "sectionName": "Life and style", "webPublicationDate": "2010-07-30T11:45:00Z", "webTitle": "A musical accompaniment", "webUrl": "https://www.theguardian.com/lifeandstyle/wordofmouth/2010/jul/30/restaurant-music", "apiUrl": "https://content.guardianapis.com/lifeandstyle/wordofmouth/2010/jul/30/restaurant-music", "isHosted": false, "pillarId": "pillar/lifestyle", "pillarName": "Lifestyle"}, {"id": "lifeandstyle/wordofmouth/2010/jul/30/home-brewing", "type": "article", "sectionId": "food", "sectionName": "Food", "webPublicationDate": "2010-07-30T08:30:00Z", "webTitle": "Brewing's coming home", "webUrl": "https://www.theguardian.com/lifeandstyle/wordofmouth/2010/jul/30/home-brewing", "apiUrl": "https://content.guardianapis.com/lifeandstyle/wordofmouth/2010/jul/30/home-brewing", "isHosted": false, "pillarId": "pillar/lifestyle", "pillarName": "Lifestyle"}, {"id": "environment/2010/jul/29/squirrel-meat-supermarket", "type": "article", "sectionId": "environment", "sectionName": "Environment", "webPublicationDate": "2010-07-29T10:22:12Z", "webTitle": "Squirrel meat flies off supermarket's shelves", "webUrl": "https://www.theguardian.com/environment/2010/jul/29/squirrel-meat-supermarket", "apiUrl": "https://content.guardianapis.com/environment/2010/jul/29/squirrel-meat-supermarket", "isHosted": false, "pillarId": "pillar/news", "pillarName": "News"}, {"id": "lifeandstyle/2010/jul/29/foraging-wild-food-hedgerow", "type": "article", "sectionId": "food", "sectionName": "Food", "webPublicationDate": "2010-07-29T06:30:00Z", "webTitle": "Grasp the nettle", "webUrl": "https://www.theguardian.com/lifeandstyle/2010/jul/29/foraging-wild-food-hedgerow", "apiUrl": "https://content.guardianapis.com/lifeandstyle/2010/jul/29/foraging-wild-food-hedgerow", "isHosted": false, "pillarId": "pillar/lifestyle", "pillarName": "Lifestyle"}, {"id": "lifeandstyle/2010/jul/29/foraging-recipes", "type": "article", "sectionId": "food", "sectionName": "Food", "webPublicationDate": "2010-07-29T06:30:00Z", "webTitle": "Foragers' recipes", "webUrl": "https://www.theguardian.com/lifeandstyle/2010/jul/29/foraging-recipes", "apiUrl": "https://content.guardianapis.com/lifeandstyle/2010/jul/29/foraging-recipes", "isHosted": false, "pillarId": "pillar/lifestyle", "pillarName": "Lifestyle"}, {"id": "lifeandstyle/wordofmouth/2010/jul/29/how-to-cook-spanish-omelette", "type": "article", "sectionId": "lifeandstyle", "sectionName": "Life and style", "webPublicationDate": "2010-07-29T06:00:00Z", "webTitle": "How to make a perfect Spanish omelette", "webUrl": "https://www.theguardian.com/lifeandstyle/wordofmouth/2010/jul/29/how-to-cook-spanish-omelette", "apiUrl": "https://content.guardianapis.com/lifeandstyle/wordofmouth/2010/jul/29/how-to-cook-spanish-omelette", "isHosted": false, "pillarId": "pillar/lifestyle", "pillarName": "Lifestyle"}, {"id": "commentisfree/2010/jul/29/in-praise-of-the-gooseberry", "type": "article", "sectionId": "commentisfree", "sectionName": "Opinion", "webPublicationDate": "2010-07-28T23:05:48Z", "webTitle": "In praise of \u2026 the gooseberry | Editorial", "webUrl": "https://www.theguardian.com/commentisfree/2010/jul/29/in-praise-of-the-gooseberry", "apiUrl": "https://content.guardianapis.com/commentisfree/2010/jul/29/in-praise-of-the-gooseberry", "isHosted": false, "pillarId": "pillar/opinion", "pillarName": "Opinion"}, {"id": "lifeandstyle/wordofmouth/2010/jul/27/live-chat-rick-stein", "type": "article", "sectionId": "lifeandstyle", "sectionName": "Life and style", "webPublicationDate": "2010-07-28T09:00:00Z", "webTitle": "Live chat: Rick Stein", "webUrl": "https://www.theguardian.com/lifeandstyle/wordofmouth/2010/jul/27/live-chat-rick-stein", "apiUrl": "https://content.guardianapis.com/lifeandstyle/wordofmouth/2010/jul/27/live-chat-rick-stein", "isHosted": false, "pillarId": "pillar/lifestyle", "pillarName": "Lifestyle"}, {"id": "lifeandstyle/2010/jul/28/seasonal-food-green-peas", "type": "article", "sectionId": "food", "sectionName": "Food", "webPublicationDate": "2010-07-28T09:00:00Z", "webTitle": "Seasonal food: green peas", "webUrl": "https://www.theguardian.com/lifeandstyle/2010/jul/28/seasonal-food-green-peas", "apiUrl": "https://content.guardianapis.com/lifeandstyle/2010/jul/28/seasonal-food-green-peas", "isHosted": false, "pillarId": "pillar/lifestyle", "pillarName": "Lifestyle"}, {"id": "commentisfree/2010/jul/27/effort-secret-ingredient", "type": "article", "sectionId": "commentisfree", "sectionName": "Opinion", "webPublicationDate": "2010-07-27T13:25:00Z", "webTitle": "Jam's secret ingredient: effort | Jenna Woginrich", "webUrl": "https://www.theguardian.com/commentisfree/2010/jul/27/effort-secret-ingredient", "apiUrl": "https://content.guardianapis.com/commentisfree/2010/jul/27/effort-secret-ingredient", "isHosted": false, "pillarId": "pillar/opinion", "pillarName": "Opinion"}, {"id": "environment/green-living-blog/2010/jul/27/moneyless-man-party-for-free", "type": "article", "sectionId": "environment", "sectionName": "Environment", "webPublicationDate": "2010-07-27T12:01:51Z", "webTitle": "Green, fun and free: How to dance and make merry without spending a penny", "webUrl": "https://www.theguardian.com/environment/green-living-blog/2010/jul/27/moneyless-man-party-for-free", "apiUrl": "https://content.guardianapis.com/environment/green-living-blog/2010/jul/27/moneyless-man-party-for-free", "isHosted": false, "pillarId": "pillar/news", "pillarName": "News"}, {"id": "lifeandstyle/2010/jul/27/rick-stein-chargrilled-sea-bass", "type": "article", "sectionId": "food", "sectionName": "Food", "webPublicationDate": "2010-07-27T11:00:00Z", "webTitle": "Chargrilled sea bass stuffed with shrimp and lemongrass curry paste recipe", "webUrl": "https://www.theguardian.com/lifeandstyle/2010/jul/27/rick-stein-chargrilled-sea-bass", "apiUrl": "https://content.guardianapis.com/lifeandstyle/2010/jul/27/rick-stein-chargrilled-sea-bass", "isHosted": false, "pillarId": "pillar/lifestyle", "pillarName": "Lifestyle"}, {"id": "lifeandstyle/wordofmouth/2010/jul/27/consider-ice-lolly-popsicle", "type": "article", "sectionId": "lifeandstyle", "sectionName": "Life and style", "webPublicationDate": "2010-07-27T08:45:00Z", "webTitle": "Consider ice lollies", "webUrl": "https://www.theguardian.com/lifeandstyle/wordofmouth/2010/jul/27/consider-ice-lolly-popsicle", "apiUrl": "https://content.guardianapis.com/lifeandstyle/wordofmouth/2010/jul/27/consider-ice-lolly-popsicle", "isHosted": false, "pillarId": "pillar/lifestyle", "pillarName": "Lifestyle"}, {"id": "travel/2010/jul/26/palma-mallorca-top-10-tapas", "type": "article", "sectionId": "travel", "sectionName": "Travel", "webPublicationDate": "2010-07-26T12:35:00Z", "webTitle": "Ten top eats in Palma, Mallorca", "webUrl": "https://www.theguardian.com/travel/2010/jul/26/palma-mallorca-top-10-tapas", "apiUrl": "https://content.guardianapis.com/travel/2010/jul/26/palma-mallorca-top-10-tapas", "isHosted": false, "pillarId": "pillar/lifestyle", "pillarName": "Lifestyle"}, {"id": "lifeandstyle/2010/jul/26/rick-stein-malaysian-seafood-curry", "type": "article", "sectionId": "food", "sectionName": "Food", "webPublicationDate": "2010-07-26T11:40:00Z", "webTitle": "A simple coconut and seafood curry recipe", "webUrl": "https://www.theguardian.com/lifeandstyle/2010/jul/26/rick-stein-malaysian-seafood-curry", "apiUrl": "https://content.guardianapis.com/lifeandstyle/2010/jul/26/rick-stein-malaysian-seafood-curry", "isHosted": false, "pillarId": "pillar/lifestyle", "pillarName": "Lifestyle"}, {"id": "lifeandstyle/wordofmouth/2010/jul/26/italian-cookery-books", "type": "article", "sectionId": "lifeandstyle", "sectionName": "Life and style", "webPublicationDate": "2010-07-26T09:40:00Z", "webTitle": "Italian cookery books: binding love", "webUrl": "https://www.theguardian.com/lifeandstyle/wordofmouth/2010/jul/26/italian-cookery-books", "apiUrl": "https://content.guardianapis.com/lifeandstyle/wordofmouth/2010/jul/26/italian-cookery-books", "isHosted": false, "pillarId": "pillar/lifestyle", "pillarName": "Lifestyle"}, {"id": "environment/2010/jul/25/british-mange-tout-sale-first", "type": "article", "sectionId": "environment", "sectionName": "Environment", "webPublicationDate": "2010-07-25T19:04:48Z", "webTitle": "British mangetout goes on sale for the first time", "webUrl": "https://www.theguardian.com/environment/2010/jul/25/british-mange-tout-sale-first", "apiUrl": "https://content.guardianapis.com/environment/2010/jul/25/british-mange-tout-sale-first", "isHosted": false, "pillarId": "pillar/news", "pillarName": "News"}, {"id": "environment/2010/jul/25/miniature-cattle-environmentally-friendly-beef", "type": "article", "sectionId": "environment", "sectionName": "Environment", "webPublicationDate": "2010-07-25T19:00:48Z", "webTitle": "Why mini cows could save the planet", "webUrl": "https://www.theguardian.com/environment/2010/jul/25/miniature-cattle-environmentally-friendly-beef", "apiUrl": "https://content.guardianapis.com/environment/2010/jul/25/miniature-cattle-environmentally-friendly-beef", "isHosted": false, "pillarId": "pillar/news", "pillarName": "News"}, {"id": "lifeandstyle/2010/jul/25/jay-rayner-restaurant-review-trullo", "type": "article", "sectionId": "food", "sectionName": "Food", "webPublicationDate": "2010-07-24T23:04:48Z", "webTitle": "Restaurant review: Trullo", "webUrl": "https://www.theguardian.com/lifeandstyle/2010/jul/25/jay-rayner-restaurant-review-trullo", "apiUrl": "https://content.guardianapis.com/lifeandstyle/2010/jul/25/jay-rayner-restaurant-review-trullo", "isHosted": false, "pillarId": "pillar/lifestyle", "pillarName": "Lifestyle"}, {"id": "lifeandstyle/2010/jul/24/readers-favourite-photographs-songs-recipes", "type": "article", "sectionId": "lifeandstyle", "sectionName": "Life and style", "webPublicationDate": "2010-07-23T23:05:45Z", "webTitle": "Family life", "webUrl": "https://www.theguardian.com/lifeandstyle/2010/jul/24/readers-favourite-photographs-songs-recipes", "apiUrl": "https://content.guardianapis.com/lifeandstyle/2010/jul/24/readers-favourite-photographs-songs-recipes", "isHosted": false, "pillarId": "pillar/lifestyle", "pillarName": "Lifestyle"}, {"id": "lifeandstyle/2010/jul/24/dogs-pubs-food", "type": "article", "sectionId": "lifeandstyle", "sectionName": "Life and style", "webPublicationDate": "2010-07-23T23:03:05Z", "webTitle": "Pub chain puts free dogs' dinners on the menu", "webUrl": "https://www.theguardian.com/lifeandstyle/2010/jul/24/dogs-pubs-food", "apiUrl": "https://content.guardianapis.com/lifeandstyle/2010/jul/24/dogs-pubs-food", "isHosted": false, "pillarId": "pillar/lifestyle", "pillarName": "Lifestyle"}, {"id": "lifeandstyle/2010/jul/24/summer-drinks-recipes-fearnley-whittingstall", "type": "article", "sectionId": "lifeandstyle", "sectionName": "Life and style", "webPublicationDate": "2010-07-23T23:02:57Z", "webTitle": "Summer drinks recipes | Hugh Fearnley-Whittingstall | Food and drink", "webUrl": "https://www.theguardian.com/lifeandstyle/2010/jul/24/summer-drinks-recipes-fearnley-whittingstall", "apiUrl": "https://content.guardianapis.com/lifeandstyle/2010/jul/24/summer-drinks-recipes-fearnley-whittingstall", "isHosted": false, "pillarId": "pillar/lifestyle", "pillarName": "Lifestyle"}, {"id": "lifeandstyle/2010/jul/24/black-pudding-soggy-loaf-ricotta-substitute", "type": "article", "sectionId": "lifeandstyle", "sectionName": "Life and style", "webPublicationDate": "2010-07-23T23:02:54Z", "webTitle": "Food for Fort: Black pudding, misshapen loaves, heavy pans and ricotta substitutes", "webUrl": "https://www.theguardian.com/lifeandstyle/2010/jul/24/black-pudding-soggy-loaf-ricotta-substitute", "apiUrl": "https://content.guardianapis.com/lifeandstyle/2010/jul/24/black-pudding-soggy-loaf-ricotta-substitute", "isHosted": false, "pillarId": "pillar/lifestyle", "pillarName": "Lifestyle"}, {"id": "lifeandstyle/2010/jul/24/lanterna-scarborough-restauarant-review", "type": "article", "sectionId": "food", "sectionName": "Food", "webPublicationDate": "2010-07-23T23:02:46Z", "webTitle": "Restaurant: Lanterna, Scarborough | Food", "webUrl": "https://www.theguardian.com/lifeandstyle/2010/jul/24/lanterna-scarborough-restauarant-review", "apiUrl": "https://content.guardianapis.com/lifeandstyle/2010/jul/24/lanterna-scarborough-restauarant-review", "isHosted": false, "pillarId": "pillar/lifestyle", "pillarName": "Lifestyle"}, {"id": "lifeandstyle/2010/jul/24/halva-flapjacks-recipe-dan-lepard", "type": "article", "sectionId": "lifeandstyle", "sectionName": "Life and style", "webPublicationDate": "2010-07-23T23:02:45Z", "webTitle": "Halva flapjacks | Dan Lepard | Baking | Food", "webUrl": "https://www.theguardian.com/lifeandstyle/2010/jul/24/halva-flapjacks-recipe-dan-lepard", "apiUrl": "https://content.guardianapis.com/lifeandstyle/2010/jul/24/halva-flapjacks-recipe-dan-lepard", "isHosted": false, "pillarId": "pillar/lifestyle", "pillarName": "Lifestyle"}, {"id": "lifeandstyle/2010/jul/24/old-wine-victoria-moore-review", "type": "article", "sectionId": "lifeandstyle", "sectionName": "Life and style", "webPublicationDate": "2010-07-23T23:02:00Z", "webTitle": "Wine: The golden age | Victoria Moore", "webUrl": "https://www.theguardian.com/lifeandstyle/2010/jul/24/old-wine-victoria-moore-review", "apiUrl": "https://content.guardianapis.com/lifeandstyle/2010/jul/24/old-wine-victoria-moore-review", "isHosted": false, "pillarId": "pillar/lifestyle", "pillarName": "Lifestyle"}, {"id": "lifeandstyle/2010/jul/24/one-pot-recipe-yotam-ottolenghi", "type": "article", "sectionId": "lifeandstyle", "sectionName": "Life and style", "webPublicationDate": "2010-07-23T23:01:42Z", "webTitle": "One-pan wonder recipe | Yotam Ottolenghi | Vegetarian | Food", "webUrl": "https://www.theguardian.com/lifeandstyle/2010/jul/24/one-pot-recipe-yotam-ottolenghi", "apiUrl": "https://content.guardianapis.com/lifeandstyle/2010/jul/24/one-pot-recipe-yotam-ottolenghi", "isHosted": false, "pillarId": "pillar/lifestyle", "pillarName": "Lifestyle"}, {"id": "commentisfree/cif-green/2010/jul/23/flello-right-tackle-soya-cultivation", "type": "article", "sectionId": "commentisfree", "sectionName": "Opinion", "webPublicationDate": "2010-07-23T11:30:41Z", "webTitle": "Flello is right to tackle soya cultivation | Graham Harvey", "webUrl": "https://www.theguardian.com/commentisfree/cif-green/2010/jul/23/flello-right-tackle-soya-cultivation", "apiUrl": "https://content.guardianapis.com/commentisfree/cif-green/2010/jul/23/flello-right-tackle-soya-cultivation", "isHosted": false, "pillarId": "pillar/opinion", "pillarName": "Opinion"}, {"id": "lifeandstyle/wordofmouth/2010/jul/23/david-cameron-hot-dog-mustard", "type": "article", "sectionId": "lifeandstyle", "sectionName": "Life and style", "webPublicationDate": "2010-07-23T10:20:00Z", "webTitle": "Is David Cameron sniffy about mustard?", "webUrl": "https://www.theguardian.com/lifeandstyle/wordofmouth/2010/jul/23/david-cameron-hot-dog-mustard", "apiUrl": "https://content.guardianapis.com/lifeandstyle/wordofmouth/2010/jul/23/david-cameron-hot-dog-mustard", "isHosted": false, "pillarId": "pillar/lifestyle", "pillarName": "Lifestyle"}, {"id": "lifeandstyle/wordofmouth/2010/jul/23/oysters-oyster-festival", "type": "article", "sectionId": "lifeandstyle", "sectionName": "Life and style", "webPublicationDate": "2010-07-23T08:30:00Z", "webTitle": "A world without oysters?", "webUrl": "https://www.theguardian.com/lifeandstyle/wordofmouth/2010/jul/23/oysters-oyster-festival", "apiUrl": "https://content.guardianapis.com/lifeandstyle/wordofmouth/2010/jul/23/oysters-oyster-festival", "isHosted": false, "pillarId": "pillar/lifestyle", "pillarName": "Lifestyle"}, {"id": "lifeandstyle/wordofmouth/2010/jul/22/fay-maschler-page-one-paywall", "type": "article", "sectionId": "lifeandstyle", "sectionName": "Life and style", "webPublicationDate": "2010-07-22T12:30:00Z", "webTitle": "The paywall comes to food criticism", "webUrl": "https://www.theguardian.com/lifeandstyle/wordofmouth/2010/jul/22/fay-maschler-page-one-paywall", "apiUrl": "https://content.guardianapis.com/lifeandstyle/wordofmouth/2010/jul/22/fay-maschler-page-one-paywall", "isHosted": false, "pillarId": "pillar/lifestyle", "pillarName": "Lifestyle"}, {"id": "lifeandstyle/2010/jul/22/spoonfed-suppers-plans-your-meals", "type": "article", "sectionId": "food", "sectionName": "Food", "webPublicationDate": "2010-07-22T06:00:38Z", "webTitle": "Supper on a plate", "webUrl": "https://www.theguardian.com/lifeandstyle/2010/jul/22/spoonfed-suppers-plans-your-meals", "apiUrl": "https://content.guardianapis.com/lifeandstyle/2010/jul/22/spoonfed-suppers-plans-your-meals", "isHosted": false, "pillarId": "pillar/lifestyle", "pillarName": "Lifestyle"}, {"id": "lifeandstyle/gallery/2010/jul/22/dark-chocolate-for-cooking", "type": "gallery", "sectionId": "food", "sectionName": "Food", "webPublicationDate": "2010-07-22T06:00:00Z", "webTitle": "The test . . . dark chocolate for cooking", "webUrl": "https://www.theguardian.com/lifeandstyle/gallery/2010/jul/22/dark-chocolate-for-cooking", "apiUrl": "https://content.guardianapis.com/lifeandstyle/gallery/2010/jul/22/dark-chocolate-for-cooking", "isHosted": false, "pillarId": "pillar/lifestyle", "pillarName": "Lifestyle"}, {"id": "lifeandstyle/wordofmouth/2010/jul/22/how-to-make-chocolate-mousse", "type": "article", "sectionId": "lifeandstyle", "sectionName": "Life and style", "webPublicationDate": "2010-07-22T06:00:00Z", "webTitle": "How to make perfect chocolate mousse", "webUrl": "https://www.theguardian.com/lifeandstyle/wordofmouth/2010/jul/22/how-to-make-chocolate-mousse", "apiUrl": "https://content.guardianapis.com/lifeandstyle/wordofmouth/2010/jul/22/how-to-make-chocolate-mousse", "isHosted": false, "pillarId": "pillar/lifestyle", "pillarName": "Lifestyle"}, {"id": "commentisfree/2010/jul/21/fsa-what-a-carve-up", "type": "article", "sectionId": "commentisfree", "sectionName": "Opinion", "webPublicationDate": "2010-07-21T20:30:37Z", "webTitle": "Food Standards Agency: what a carve up | Tim Lang", "webUrl": "https://www.theguardian.com/commentisfree/2010/jul/21/fsa-what-a-carve-up", "apiUrl": "https://content.guardianapis.com/commentisfree/2010/jul/21/fsa-what-a-carve-up", "isHosted": false, "pillarId": "pillar/opinion", "pillarName": "Opinion"}, {"id": "lifeandstyle/wordofmouth/2010/jul/21/picky-fussy-eaters", "type": "article", "sectionId": "lifeandstyle", "sectionName": "Life and style", "webPublicationDate": "2010-07-21T09:20:00Z", "webTitle": "Are you a picky eater?", "webUrl": "https://www.theguardian.com/lifeandstyle/wordofmouth/2010/jul/21/picky-fussy-eaters", "apiUrl": "https://content.guardianapis.com/lifeandstyle/wordofmouth/2010/jul/21/picky-fussy-eaters", "isHosted": false, "pillarId": "pillar/lifestyle", "pillarName": "Lifestyle"}, {"id": "travel/2010/jul/20/eat-like-local-in-rome", "type": "article", "sectionId": "travel", "sectionName": "Travel", "webPublicationDate": "2010-07-20T13:17:00Z", "webTitle": "Eat like a local in Rome", "webUrl": "https://www.theguardian.com/travel/2010/jul/20/eat-like-local-in-rome", "apiUrl": "https://content.guardianapis.com/travel/2010/jul/20/eat-like-local-in-rome", "isHosted": false, "pillarId": "pillar/lifestyle", "pillarName": "Lifestyle"}, {"id": "lifeandstyle/2010/jul/20/top-chefs-vegetarian-recipes", "type": "article", "sectionId": "lifeandstyle", "sectionName": "Life and style", "webPublicationDate": "2010-07-20T10:00:00Z", "webTitle": "Vegetarian recipe special: the chefs (part two)", "webUrl": "https://www.theguardian.com/lifeandstyle/2010/jul/20/top-chefs-vegetarian-recipes", "apiUrl": "https://content.guardianapis.com/lifeandstyle/2010/jul/20/top-chefs-vegetarian-recipes", "isHosted": false, "pillarId": "pillar/lifestyle", "pillarName": "Lifestyle"}, {"id": "lifeandstyle/wordofmouth/2010/jul/20/yoghurt-yogurt", "type": "article", "sectionId": "lifeandstyle", "sectionName": "Life and style", "webPublicationDate": "2010-07-20T08:30:00Z", "webTitle": "Consider yoghurt", "webUrl": "https://www.theguardian.com/lifeandstyle/wordofmouth/2010/jul/20/yoghurt-yogurt", "apiUrl": "https://content.guardianapis.com/lifeandstyle/wordofmouth/2010/jul/20/yoghurt-yogurt", "isHosted": false, "pillarId": "pillar/lifestyle", "pillarName": "Lifestyle"}]}}