{"response": {"status": "ok", "userTier": "developer", "total": 26240, "startIndex": 1, "pageSize": 50, "currentPage": 1, "pages": 525, "orderBy": "newest", "results": [{"id": "environment/2010/jul/31/country-diary-bedfordshire", "type": "article", "sectionId": "environment", "sectionName": "Environment", "webPublicationDate": "2010-07-30T23:48:49Z", "webTitle": "Country diary: Bedfordshire", "webUrl": "https://www.theguardian.com/environment/2010/jul/31/country-diary-bedfordshire", "apiUrl": "https://content.guardianapis.com/environment/2010/jul/31/country-diary-bedfordshire", "isHosted": false, "pillarId": "pillar/news", "pillarName": "News"}, {"id": "environment/gallery/2010/jul/30/week-in-wildlife", "type": "gallery", "sectionId": "environment", "sectionName": "Environment", "webPublicationDate": "2010-07-30T11:00:00Z", "webTitle": "In pictures: The week in wildlife", "webUrl": "https://www.theguardian.com/environment/gallery/2010/jul/30/week-in-wildlife", "apiUrl": "https://content.guardianapis.com/environment/gallery/2010/jul/30/week-in-wildlife", "isHosted": false, "pillarId": "pillar/news", "pillarName": "News"}, {"id": "travel/2010/jul/30/montreal-london-bike-hire-scheme", "type": "article", "sectionId": "travel", "sectionName": "Travel", "webPublicationDate": "2010-07-30T10:15:06Z", "webTitle": "In Montreal's tracks", "webUrl": "https://www.theguardian.com/travel/2010/jul/30/montreal-london-bike-hire-scheme", "apiUrl": "https://content.guardianapis.com/travel/2010/jul/30/montreal-london-bike-hire-scheme", "isHosted": false, "pillarId": "pillar/lifestyle", "pillarName": "Lifestyle"}, {"id": "world/2010/jul/30/dead-humpback-whale-alaska-cruise", "type": "article", "sectionId": "environment", "sectionName": "Environment", "webPublicationDate": "2010-07-30T09:22:41Z", "webTitle": "Dead humpback whale pinned to Alaska cruise ship", "webUrl": "https://www.theguardian.com/world/2010/jul/30/dead-humpback-whale-alaska-cruise", "apiUrl": "https://content.guardianapis.com/world/2010/jul/30/dead-humpback-whale-alaska-cruise", "isHosted": false, "pillarId": "pillar/news", "pillarName": "News"}, {"id": "environment/picture/2010/jul/30/wildlife-falklands", "type": "picture", "sectionId": "environment", "sectionName": "Environment", "webPublicationDate": "2010-07-30T07:53:11Z", "webTitle": "Eyewitness: The big sleep", "webUrl": "https://www.theguardian.com/environment/picture/2010/jul/30/wildlife-falklands", "apiUrl": "https://content.guardianapis.com/environment/picture/2010/jul/30/wildlife-falklands", "isHosted": false, "pillarId": "pillar/news", "pillarName": "News"}, {"id": "uk/davehillblog/2010/jul/30/london-cycle-hire-first-day-whitechapel", "type": "article", "sectionId": "uk-news", "sectionName": "UK news", "webPublicationDate": "2010-07-30T07:13:02Z", "webTitle": "London cycle hire: a first ride", "webUrl": "https://www.theguardian.com/uk/davehillblog/2010/jul/30/london-cycle-hire-first-day-whitechapel", "apiUrl": "https://content.guardianapis.com/uk/davehillblog/2010/jul/30/london-cycle-hire-first-day-whitechapel", "isHosted": false, "pillarId": "pillar/news", "pillarName": "News"}, {"id": "commentisfree/cifamerica/2010/jul/30/tony-hayward-bp", "type": "article", "sectionId": "commentisfree", "sectionName": "Opinion", "webPublicationDate": "2010-07-30T06:01:05Z", "webTitle": "Maybe Tony Hayward was right all along | Alexander Chancellor", "webUrl": "https://www.theguardian.com/commentisfree/cifamerica/2010/jul/30/tony-hayward-bp", "apiUrl": "https://content.guardianapis.com/commentisfree/cifamerica/2010/jul/30/tony-hayward-bp", "isHosted": false, "pillarId": "pillar/opinion", "pillarName": "Opinion"}, {"id": "environment/2010/jul/30/country-diary-shetland", "type": "article", "sectionId": "environment", "sectionName": "Environment", "webPublicationDate": "2010-07-29T23:05:51Z", "webTitle": "Country diary: Shetland", "webUrl": "https://www.theguardian.com/environment/2010/jul/30/country-diary-shetland", "apiUrl": "https://content.guardianapis.com/environment/2010/jul/30/country-diary-shetland", "isHosted": false, "pillarId": "pillar/news", "pillarName": "News"}, {"id": "environment/2010/jul/29/america-bp-oil-industry-safety-record", "type": "article", "sectionId": "environment", "sectionName": "Environment", "webPublicationDate": "2010-07-29T19:18:40Z", "webTitle": "Oil industry safety record blown open", "webUrl": "https://www.theguardian.com/environment/2010/jul/29/america-bp-oil-industry-safety-record", "apiUrl": "https://content.guardianapis.com/environment/2010/jul/29/america-bp-oil-industry-safety-record", "isHosted": false, "pillarId": "pillar/news", "pillarName": "News"}, {"id": "environment/2010/jul/29/rare-tadpole-shrimps-found-scotland", "type": "article", "sectionId": "science", "sectionName": "Science", "webPublicationDate": "2010-07-29T18:55:42Z", "webTitle": "World's most ancient creatures found in Scottish field", "webUrl": "https://www.theguardian.com/environment/2010/jul/29/rare-tadpole-shrimps-found-scotland", "apiUrl": "https://content.guardianapis.com/environment/2010/jul/29/rare-tadpole-shrimps-found-scotland", "isHosted": false, "pillarId": "pillar/news", "pillarName": "News"}, {"id": "world/2010/jul/29/galapagos-withdrawn-heritage-danger-list", "type": "article", "sectionId": "environment", "sectionName": "Environment", "webPublicationDate": "2010-07-29T17:49:00Z", "webTitle": "UN withdraws Gal\u00e1pagos from world heritage danger list", "webUrl": "https://www.theguardian.com/world/2010/jul/29/galapagos-withdrawn-heritage-danger-list", "apiUrl": "https://content.guardianapis.com/world/2010/jul/29/galapagos-withdrawn-heritage-danger-list", "isHosted": false, "pillarId": "pillar/news", "pillarName": "News"}, {"id": "environment/2010/jul/29/farmland-birds-record-low", "type": "article", "sectionId": "environment", "sectionName": "Environment", "webPublicationDate": "2010-07-29T16:15:28Z", "webTitle": "Farmland bird numbers in England fall to record low", "webUrl": "https://www.theguardian.com/environment/2010/jul/29/farmland-birds-record-low", "apiUrl": "https://content.guardianapis.com/environment/2010/jul/29/farmland-birds-record-low", "isHosted": false, "pillarId": "pillar/news", "pillarName": "News"}, {"id": "environment/gallery/2010/jul/29/galapagos-islands-endangered-list", "type": "gallery", "sectionId": "environment", "sectionName": "Environment", "webPublicationDate": "2010-07-29T15:56:45Z", "webTitle": "Gal\u00e1pagos Islands are taken off the Unesco endangered list", "webUrl": "https://www.theguardian.com/environment/gallery/2010/jul/29/galapagos-islands-endangered-list", "apiUrl": "https://content.guardianapis.com/environment/gallery/2010/jul/29/galapagos-islands-endangered-list", "isHosted": false, "pillarId": "pillar/news", "pillarName": "News"}, {"id": "environment/2010/jul/29/lydd-airport-expansion-rspb", "type": "article", "sectionId": "environment", "sectionName": "Environment", "webPublicationDate": "2010-07-29T14:25:36Z", "webTitle": "Lydd Airport expansion: RSPB reserve threatened", "webUrl": "https://www.theguardian.com/environment/2010/jul/29/lydd-airport-expansion-rspb", "apiUrl": "https://content.guardianapis.com/environment/2010/jul/29/lydd-airport-expansion-rspb", "isHosted": false, "pillarId": "pillar/news", "pillarName": "News"}, {"id": "commentisfree/2010/jul/29/vegetarianism-arab-culture-environment", "type": "article", "sectionId": "commentisfree", "sectionName": "Opinion", "webPublicationDate": "2010-07-29T12:05:11Z", "webTitle": "Vegetarianism is not contrary to Arab culture | Joseph Mayton", "webUrl": "https://www.theguardian.com/commentisfree/2010/jul/29/vegetarianism-arab-culture-environment", "apiUrl": "https://content.guardianapis.com/commentisfree/2010/jul/29/vegetarianism-arab-culture-environment", "isHosted": false, "pillarId": "pillar/opinion", "pillarName": "Opinion"}, {"id": "environment/2010/jul/29/upper-thames-reservoir", "type": "article", "sectionId": "environment", "sectionName": "Environment", "webPublicationDate": "2010-07-29T10:32:02Z", "webTitle": "Upper Thames Reservoir: Wildlife habitats under threat", "webUrl": "https://www.theguardian.com/environment/2010/jul/29/upper-thames-reservoir", "apiUrl": "https://content.guardianapis.com/environment/2010/jul/29/upper-thames-reservoir", "isHosted": false, "pillarId": "pillar/news", "pillarName": "News"}, {"id": "environment/video/2010/jul/28/great-yellow-bumblebee", "type": "video", "sectionId": "environment", "sectionName": "Environment", "webPublicationDate": "2010-07-29T10:00:00Z", "webTitle": "Video: Saving the great yellow bumblebee", "webUrl": "https://www.theguardian.com/environment/video/2010/jul/28/great-yellow-bumblebee", "apiUrl": "https://content.guardianapis.com/environment/video/2010/jul/28/great-yellow-bumblebee", "isHosted": false, "pillarId": "pillar/news", "pillarName": "News"}, {"id": "environment/2010/jul/29/wildlife-conservation-projects-more-harm", "type": "article", "sectionId": "environment", "sectionName": "Environment", "webPublicationDate": "2010-07-29T09:31:30Z", "webTitle": "Wildlife conservation projects do more harm than good, says expert", "webUrl": "https://www.theguardian.com/environment/2010/jul/29/wildlife-conservation-projects-more-harm", "apiUrl": "https://content.guardianapis.com/environment/2010/jul/29/wildlife-conservation-projects-more-harm", "isHosted": false, "pillarId": "pillar/news", "pillarName": "News"}, {"id": "environment/2010/jul/29/vertical-farms-urban-food", "type": "article", "sectionId": "environment", "sectionName": "Environment", "webPublicationDate": "2010-07-29T09:20:33Z", "webTitle": "Are vertical farms the future of urban food?", "webUrl": "https://www.theguardian.com/environment/2010/jul/29/vertical-farms-urban-food", "apiUrl": "https://content.guardianapis.com/environment/2010/jul/29/vertical-farms-urban-food", "isHosted": false, "pillarId": "pillar/news", "pillarName": "News"}, {"id": "environment/2010/jul/29/country-diary-achvaneran", "type": "article", "sectionId": "environment", "sectionName": "Environment", "webPublicationDate": "2010-07-28T23:07:42Z", "webTitle": "Country diary: Achvaneran", "webUrl": "https://www.theguardian.com/environment/2010/jul/29/country-diary-achvaneran", "apiUrl": "https://content.guardianapis.com/environment/2010/jul/29/country-diary-achvaneran", "isHosted": false, "pillarId": "pillar/news", "pillarName": "News"}, {"id": "business/2010/jul/28/vedanta-criticism-mine-orissa-india-tribal-people", "type": "article", "sectionId": "business", "sectionName": "Business", "webPublicationDate": "2010-07-28T19:17:18Z", "webTitle": "Vedanta comes under fire for plan to build mine on 'sacred' land in India", "webUrl": "https://www.theguardian.com/business/2010/jul/28/vedanta-criticism-mine-orissa-india-tribal-people", "apiUrl": "https://content.guardianapis.com/business/2010/jul/28/vedanta-criticism-mine-orissa-india-tribal-people", "isHosted": false, "pillarId": "pillar/news", "pillarName": "News"}, {"id": "environment/cif-green/2010/jul/28/sachs-obama-climate-change", "type": "article", "sectionId": "environment", "sectionName": "Environment", "webPublicationDate": "2010-07-28T17:04:00Z", "webTitle": "Obama must take a lead on climate change \u2013 and soon | Jeffrey Sachs", "webUrl": "https://www.theguardian.com/environment/cif-green/2010/jul/28/sachs-obama-climate-change", "apiUrl": "https://content.guardianapis.com/environment/cif-green/2010/jul/28/sachs-obama-climate-change", "isHosted": false, "pillarId": "pillar/news", "pillarName": "News"}, {"id": "environment/2010/jul/28/global-temperatures-2010-record", "type": "article", "sectionId": "environment", "sectionName": "Environment", "webPublicationDate": "2010-07-28T17:02:03Z", "webTitle": "Global warming pushes 2010 temperatures to record highs", "webUrl": "https://www.theguardian.com/environment/2010/jul/28/global-temperatures-2010-record", "apiUrl": "https://content.guardianapis.com/environment/2010/jul/28/global-temperatures-2010-record", "isHosted": false, "pillarId": "pillar/news", "pillarName": "News"}, {"id": "environment/2010/jul/28/phytoplankton-decline-nature", "type": "article", "sectionId": "environment", "sectionName": "Environment", "webPublicationDate": "2010-07-28T17:02:00Z", "webTitle": "Scientists warn of global warming threat to marine food chain", "webUrl": "https://www.theguardian.com/environment/2010/jul/28/phytoplankton-decline-nature", "apiUrl": "https://content.guardianapis.com/environment/2010/jul/28/phytoplankton-decline-nature", "isHosted": false, "pillarId": "pillar/news", "pillarName": "News"}, {"id": "environment/2010/jul/28/midges-tall-men-overweight-women", "type": "article", "sectionId": "environment", "sectionName": "Environment", "webPublicationDate": "2010-07-28T14:11:34Z", "webTitle": "Midges favour tall men and overweight women, study finds", "webUrl": "https://www.theguardian.com/environment/2010/jul/28/midges-tall-men-overweight-women", "apiUrl": "https://content.guardianapis.com/environment/2010/jul/28/midges-tall-men-overweight-women", "isHosted": false, "pillarId": "pillar/news", "pillarName": "News"}, {"id": "environment/2010/jul/28/2", "type": "article", "sectionId": "environment", "sectionName": "Environment", "webPublicationDate": "2010-07-28T13:38:07Z", "webTitle": "Ashford link road and housing estate: Oak trees under threat", "webUrl": "https://www.theguardian.com/environment/2010/jul/28/2", "apiUrl": "https://content.guardianapis.com/environment/2010/jul/28/2", "isHosted": false, "pillarId": "pillar/news", "pillarName": "News"}, {"id": "environment/2010/jul/28/electric-car-grant-scheme", "type": "article", "sectionId": "environment", "sectionName": "Environment", "webPublicationDate": "2010-07-28T12:39:16Z", "webTitle": "UK electric car grant scheme 'cut by 80%'", "webUrl": "https://www.theguardian.com/environment/2010/jul/28/electric-car-grant-scheme", "apiUrl": "https://content.guardianapis.com/environment/2010/jul/28/electric-car-grant-scheme", "isHosted": false, "pillarId": "pillar/news", "pillarName": "News"}, {"id": "money/2010/jul/28/switching-tariff-reduce-energy-bills", "type": "article", "sectionId": "money", "sectionName": "Money", "webPublicationDate": "2010-07-28T12:22:11Z", "webTitle": "Switching tariff: how to reduce your energy bills", "webUrl": "https://www.theguardian.com/money/2010/jul/28/switching-tariff-reduce-energy-bills", "apiUrl": "https://content.guardianapis.com/money/2010/jul/28/switching-tariff-reduce-energy-bills", "isHosted": false, "pillarId": "pillar/lifestyle", "pillarName": "Lifestyle"}, {"id": "business/2010/jul/28/house-insurance-premiums-flooding", "type": "article", "sectionId": "business", "sectionName": "Business", "webPublicationDate": "2010-07-28T11:41:10Z", "webTitle": "UK house insurance premiums to rise dramatically as climate change increases flood risk", "webUrl": "https://www.theguardian.com/business/2010/jul/28/house-insurance-premiums-flooding", "apiUrl": "https://content.guardianapis.com/business/2010/jul/28/house-insurance-premiums-flooding", "isHosted": false, "pillarId": "pillar/news", "pillarName": "News"}, {"id": "environment/2010/jul/28/1", "type": "article", "sectionId": "environment", "sectionName": "Environment", "webPublicationDate": "2010-07-28T11:22:32Z", "webTitle": "Green light: Mega turbines, UK mange tout, and mini cows pull their weight", "webUrl": "https://www.theguardian.com/environment/2010/jul/28/1", "apiUrl": "https://content.guardianapis.com/environment/2010/jul/28/1", "isHosted": false, "pillarId": "pillar/news", "pillarName": "News"}, {"id": "commentisfree/2010/jul/28/bp-oil-spill-gulf-reaction", "type": "article", "sectionId": "commentisfree", "sectionName": "Opinion", "webPublicationDate": "2010-07-28T00:35:53Z", "webTitle": "BP: A near-death experience | Editorial", "webUrl": "https://www.theguardian.com/commentisfree/2010/jul/28/bp-oil-spill-gulf-reaction", "apiUrl": "https://content.guardianapis.com/commentisfree/2010/jul/28/bp-oil-spill-gulf-reaction", "isHosted": false, "pillarId": "pillar/opinion", "pillarName": "Opinion"}, {"id": "business/2010/jul/27/tony-hayward-bp-social-corporate-responsibility", "type": "article", "sectionId": "business", "sectionName": "Business", "webPublicationDate": "2010-07-27T23:28:00Z", "webTitle": "Tony Hayward's parting shot: 'I'm too busy to attend Senate hearing'", "webUrl": "https://www.theguardian.com/business/2010/jul/27/tony-hayward-bp-social-corporate-responsibility", "apiUrl": "https://content.guardianapis.com/business/2010/jul/27/tony-hayward-bp-social-corporate-responsibility", "isHosted": false, "pillarId": "pillar/news", "pillarName": "News"}, {"id": "business/2010/jul/27/tony-hayward-leaves-bp-1m-payoff", "type": "article", "sectionId": "business", "sectionName": "Business", "webPublicationDate": "2010-07-27T18:35:00Z", "webTitle": "BP makes record loss as Tony Hayward quits", "webUrl": "https://www.theguardian.com/business/2010/jul/27/tony-hayward-leaves-bp-1m-payoff", "apiUrl": "https://content.guardianapis.com/business/2010/jul/27/tony-hayward-leaves-bp-1m-payoff", "isHosted": false, "pillarId": "pillar/news", "pillarName": "News"}, {"id": "environment/2010/jul/27/huhne-wind-nuclear-energy", "type": "article", "sectionId": "environment", "sectionName": "Environment", "webPublicationDate": "2010-07-27T17:14:00Z", "webTitle": "UK businesses face steep rise in energy bills", "webUrl": "https://www.theguardian.com/environment/2010/jul/27/huhne-wind-nuclear-energy", "apiUrl": "https://content.guardianapis.com/environment/2010/jul/27/huhne-wind-nuclear-energy", "isHosted": false, "pillarId": "pillar/news", "pillarName": "News"}, {"id": "business/2010/jul/27/vedantaresources-mining", "type": "article", "sectionId": "business", "sectionName": "Business", "webPublicationDate": "2010-07-27T17:02:00Z", "webTitle": "Vedanta rejects Amnesty International claims of human rights abuses", "webUrl": "https://www.theguardian.com/business/2010/jul/27/vedantaresources-mining", "apiUrl": "https://content.guardianapis.com/business/2010/jul/27/vedantaresources-mining", "isHosted": false, "pillarId": "pillar/news", "pillarName": "News"}, {"id": "environment/gallery/2010/jul/27/bp-petrol-station-protests", "type": "gallery", "sectionId": "environment", "sectionName": "Environment", "webPublicationDate": "2010-07-27T15:47:34Z", "webTitle": "In pictures: BP petrol station protests", "webUrl": "https://www.theguardian.com/environment/gallery/2010/jul/27/bp-petrol-station-protests", "apiUrl": "https://content.guardianapis.com/environment/gallery/2010/jul/27/bp-petrol-station-protests", "isHosted": false, "pillarId": "pillar/news", "pillarName": "News"}, {"id": "environment/2010/jul/27/epa-approval-canada-texas-oil-pipleine", "type": "article", "sectionId": "environment", "sectionName": "Environment", "webPublicationDate": "2010-07-27T15:42:40Z", "webTitle": "EPA slows approval for Canada-Texas oil pipeline", "webUrl": "https://www.theguardian.com/environment/2010/jul/27/epa-approval-canada-texas-oil-pipleine", "apiUrl": "https://content.guardianapis.com/environment/2010/jul/27/epa-approval-canada-texas-oil-pipleine", "isHosted": false, "pillarId": "pillar/news", "pillarName": "News"}, {"id": "environment/blog/2010/jul/27/decc-carbon-calculator", "type": "article", "sectionId": "environment", "sectionName": "Environment", "webPublicationDate": "2010-07-27T15:17:48Z", "webTitle": "Go for nuclear or ramp up solar with DECC's carbon calculator | Adam Vaughan", "webUrl": "https://www.theguardian.com/environment/blog/2010/jul/27/decc-carbon-calculator", "apiUrl": "https://content.guardianapis.com/environment/blog/2010/jul/27/decc-carbon-calculator", "isHosted": false, "pillarId": "pillar/news", "pillarName": "News"}, {"id": "society/2010/jul/27/grow-your-own-legal-perils", "type": "article", "sectionId": "society", "sectionName": "Society", "webPublicationDate": "2010-07-27T15:00:15Z", "webTitle": "The legal perils of 'grow your own'", "webUrl": "https://www.theguardian.com/society/2010/jul/27/grow-your-own-legal-perils", "apiUrl": "https://content.guardianapis.com/society/2010/jul/27/grow-your-own-legal-perils", "isHosted": false, "pillarId": "pillar/news", "pillarName": "News"}, {"id": "commentisfree/cif-green/2010/jul/27/divided-green-lobby-will-fall", "type": "article", "sectionId": "commentisfree", "sectionName": "Opinion", "webPublicationDate": "2010-07-27T14:29:15Z", "webTitle": "Divided, the green lobby will fall | Nicholas Milton", "webUrl": "https://www.theguardian.com/commentisfree/cif-green/2010/jul/27/divided-green-lobby-will-fall", "apiUrl": "https://content.guardianapis.com/commentisfree/cif-green/2010/jul/27/divided-green-lobby-will-fall", "isHosted": false, "pillarId": "pillar/opinion", "pillarName": "Opinion"}, {"id": "environment/blog/2010/jul/27/energy-energy", "type": "article", "sectionId": "environment", "sectionName": "Environment", "webPublicationDate": "2010-07-27T13:26:16Z", "webTitle": "Government says carbon cutting measures will add just \u00a313 to household energy bills", "webUrl": "https://www.theguardian.com/environment/blog/2010/jul/27/energy-energy", "apiUrl": "https://content.guardianapis.com/environment/blog/2010/jul/27/energy-energy", "isHosted": false, "pillarId": "pillar/news", "pillarName": "News"}, {"id": "commentisfree/cif-green/2010/jul/27/bp-end-oil-age-early", "type": "article", "sectionId": "commentisfree", "sectionName": "Opinion", "webPublicationDate": "2010-07-27T13:01:01Z", "webTitle": "BP should end the oil age early | John Sauven", "webUrl": "https://www.theguardian.com/commentisfree/cif-green/2010/jul/27/bp-end-oil-age-early", "apiUrl": "https://content.guardianapis.com/commentisfree/cif-green/2010/jul/27/bp-end-oil-age-early", "isHosted": false, "pillarId": "pillar/opinion", "pillarName": "Opinion"}, {"id": "world/2010/jul/27/romania", "type": "article", "sectionId": "environment", "sectionName": "Environment", "webPublicationDate": "2010-07-27T13:00:27Z", "webTitle": "Romanians split over environmental impact of Danube delta's wild horses", "webUrl": "https://www.theguardian.com/world/2010/jul/27/romania", "apiUrl": "https://content.guardianapis.com/world/2010/jul/27/romania", "isHosted": false, "pillarId": "pillar/news", "pillarName": "News"}, {"id": "environment/green-living-blog/2010/jul/27/moneyless-man-party-for-free", "type": "article", "sectionId": "environment", "sectionName": "Environment", "webPublicationDate": "2010-07-27T12:01:51Z", "webTitle": "Green, fun and free: How to dance and make merry without spending a penny", "webUrl": "https://www.theguardian.com/environment/green-living-blog/2010/jul/27/moneyless-man-party-for-free", "apiUrl": "https://content.guardianapis.com/environment/green-living-blog/2010/jul/27/moneyless-man-party-for-free", "isHosted": false, "pillarId": "pillar/news", "pillarName": "News"}, {"id": "environment/2010/jul/27/vestas-wind-turbine", "type": "article", "sectionId": "environment", "sectionName": "Environment", "webPublicationDate": "2010-07-27T11:56:51Z", "webTitle": "Former Vestas staff open wind turbine manufacturer on Isle of Wight", "webUrl": "https://www.theguardian.com/environment/2010/jul/27/vestas-wind-turbine", "apiUrl": "https://content.guardianapis.com/environment/2010/jul/27/vestas-wind-turbine", "isHosted": false, "pillarId": "pillar/news", "pillarName": "News"}, {"id": "commentisfree/belief/2010/jul/27/river-jordan-pollution", "type": "article", "sectionId": "commentisfree", "sectionName": "Opinion", "webPublicationDate": "2010-07-27T11:35:15Z", "webTitle": "The river Jordan's shame | Martin Palmer", "webUrl": "https://www.theguardian.com/commentisfree/belief/2010/jul/27/river-jordan-pollution", "apiUrl": "https://content.guardianapis.com/commentisfree/belief/2010/jul/27/river-jordan-pollution", "isHosted": false, "pillarId": "pillar/opinion", "pillarName": "Opinion"}, {"id": "business/2010/jul/27/bp-record-losses-what-the-analysts-say", "type": "article", "sectionId": "business", "sectionName": "Business", "webPublicationDate": "2010-07-27T11:00:00Z", "webTitle": "BP's record losses: what the analysts say", "webUrl": "https://www.theguardian.com/business/2010/jul/27/bp-record-losses-what-the-analysts-say", "apiUrl": "https://content.guardianapis.com/business/2010/jul/27/bp-record-losses-what-the-analysts-say", "isHosted": false, "pillarId": "pillar/news", "pillarName": "News"}, {"id": "business/2010/jul/27/deepwater-horizon-oil-spill-bp-gaffes", "type": "article", "sectionId": "business", "sectionName": "Business", "webPublicationDate": "2010-07-27T09:48:57Z", "webTitle": "Deepwater Horizon oil spill: BP gaffes in full", "webUrl": "https://www.theguardian.com/business/2010/jul/27/deepwater-horizon-oil-spill-bp-gaffes", "apiUrl": "https://content.guardianapis.com/business/2010/jul/27/deepwater-horizon-oil-spill-bp-gaffes", "isHosted": false, "pillarId": "pillar/news", "pillarName": "News"}, {"id": "environment/2010/jul/27/bp-stations-pumps-closed-greenpeace", "type": "article", "sectionId": "environment", "sectionName": "Environment", "webPublicationDate": "2010-07-27T09:15:24Z", "webTitle": "BP petrol stations have pumps closed by Greenpeace activists", "webUrl": "https://www.theguardian.com/environment/2010/jul/27/bp-stations-pumps-closed-greenpeace", "apiUrl": "https://content.guardianapis.com/environment/2010/jul/27/bp-stations-pumps-closed-greenpeace", "isHosted": false, "pillarId": "pillar/news", "pillarName": "News"}, {"id": "environment/blog/2010/jul/27/piece-by-piece-forum", "type": "article", "sectionId": "environment", "sectionName": "Environment", "webPublicationDate": "2010-07-27T08:10:14Z", "webTitle": "A forum for local campaigners to swap tips and tactics", "webUrl": "https://www.theguardian.com/environment/blog/2010/jul/27/piece-by-piece-forum", "apiUrl": "https://content.guardianapis.com/environment/blog/2010/jul/27/piece-by-piece-forum", "isHosted": false, "pillarId": "pillar/news", "pillarName": "News"}]}}