{"response": {"status": "ok", "userTier": "developer", "total": 133720, "startIndex": 1, "pageSize": 50, "currentPage": 1, "pages": 2675, "orderBy": "newest", "results": [{"id": "politics/2012/jul/30/hugh-muir-diary-tony-blair", "type": "article", "sectionId": "politics", "sectionName": "Politics", "webPublicationDate": "2012-07-30T21:50:00Z", "webTitle": "Hugh Muir's diary", "webUrl": "https://www.theguardian.com/politics/2012/jul/30/hugh-muir-diary-tony-blair", "apiUrl": "https://content.guardianapis.com/politics/2012/jul/30/hugh-muir-diary-tony-blair", "isHosted": false, "pillarId": "pillar/news", "pillarName": "News"}, {"id": "commentisfree/2012/jul/30/education-academic-arguments-editorial", "type": "article", "sectionId": "commentisfree", "sectionName": "Opinion", "webPublicationDate": "2012-07-30T21:31:56Z", "webTitle": "Education: academic arguments | Editorial", "webUrl": "https://www.theguardian.com/commentisfree/2012/jul/30/education-academic-arguments-editorial", "apiUrl": "https://content.guardianapis.com/commentisfree/2012/jul/30/education-academic-arguments-editorial", "isHosted": false, "pillarId": "pillar/opinion", "pillarName": "Opinion"}, {"id": "commentisfree/2012/jul/30/danny-boyle-olympics-ceremony-partial-history", "type": "article", "sectionId": "commentisfree", "sectionName": "Opinion", "webPublicationDate": "2012-07-30T20:45:00Z", "webTitle": "London 2012: Danny Boyle's opening ceremony history is only a partial truth | Polly Toynbee", "webUrl": "https://www.theguardian.com/commentisfree/2012/jul/30/danny-boyle-olympics-ceremony-partial-history", "apiUrl": "https://content.guardianapis.com/commentisfree/2012/jul/30/danny-boyle-olympics-ceremony-partial-history", "isHosted": false, "pillarId": "pillar/opinion", "pillarName": "Opinion"}, {"id": "tv-and-radio/2012/jul/30/tv-review-panorama-disabled-faking", "type": "article", "sectionId": "tv-and-radio", "sectionName": "Television & radio", "webPublicationDate": "2012-07-30T20:05:01Z", "webTitle": "TV review: Panorama: Disabled or Faking it?; Britain's Oldest Stand Up; Simply Italian", "webUrl": "https://www.theguardian.com/tv-and-radio/2012/jul/30/tv-review-panorama-disabled-faking", "apiUrl": "https://content.guardianapis.com/tv-and-radio/2012/jul/30/tv-review-panorama-disabled-faking", "isHosted": false, "pillarId": "pillar/arts", "pillarName": "Arts"}, {"id": "commentisfree/2012/jul/30/economic-ruin-super-rich-totalitarian-capitalism", "type": "article", "sectionId": "commentisfree", "sectionName": "Opinion", "webPublicationDate": "2012-07-30T19:45:00Z", "webTitle": "Our economic ruin means freedom for the super-rich | George Monbiot", "webUrl": "https://www.theguardian.com/commentisfree/2012/jul/30/economic-ruin-super-rich-totalitarian-capitalism", "apiUrl": "https://content.guardianapis.com/commentisfree/2012/jul/30/economic-ruin-super-rich-totalitarian-capitalism", "isHosted": false, "pillarId": "pillar/opinion", "pillarName": "Opinion"}, {"id": "world/2012/jul/30/abu-qatada-seeks-judicial-review", "type": "article", "sectionId": "world", "sectionName": "World news", "webPublicationDate": "2012-07-30T19:24:40Z", "webTitle": "Abu Qatada seeks judicial review of detention", "webUrl": "https://www.theguardian.com/world/2012/jul/30/abu-qatada-seeks-judicial-review", "apiUrl": "https://content.guardianapis.com/world/2012/jul/30/abu-qatada-seeks-judicial-review", "isHosted": false, "pillarId": "pillar/news", "pillarName": "News"}, {"id": "commentisfree/2012/jul/30/olympics-opening-ceremony-economy", "type": "article", "sectionId": "commentisfree", "sectionName": "Opinion", "webPublicationDate": "2012-07-30T19:00:05Z", "webTitle": "What the Olympics opening ceremony tells us about our economy", "webUrl": "https://www.theguardian.com/commentisfree/2012/jul/30/olympics-opening-ceremony-economy", "apiUrl": "https://content.guardianapis.com/commentisfree/2012/jul/30/olympics-opening-ceremony-economy", "isHosted": false, "pillarId": "pillar/opinion", "pillarName": "Opinion"}, {"id": "education/2012/jul/30/best-educatioon-state-school-not-private", "type": "article", "sectionId": "education", "sectionName": "Education", "webPublicationDate": "2012-07-30T19:00:00Z", "webTitle": "Why I choose state education over private school", "webUrl": "https://www.theguardian.com/education/2012/jul/30/best-educatioon-state-school-not-private", "apiUrl": "https://content.guardianapis.com/education/2012/jul/30/best-educatioon-state-school-not-private", "isHosted": false, "pillarId": "pillar/news", "pillarName": "News"}, {"id": "education/2012/jul/30/for-profit-schools-opinion", "type": "article", "sectionId": "education", "sectionName": "Education", "webPublicationDate": "2012-07-30T18:15:00Z", "webTitle": "For-profit schools would be no more virtuous than other private-sector firms", "webUrl": "https://www.theguardian.com/education/2012/jul/30/for-profit-schools-opinion", "apiUrl": "https://content.guardianapis.com/education/2012/jul/30/for-profit-schools-opinion", "isHosted": false, "pillarId": "pillar/news", "pillarName": "News"}, {"id": "commentisfree/2012/jul/30/london-2012-david-cameron-tube-caption-competition", "type": "article", "sectionId": "commentisfree", "sectionName": "Opinion", "webPublicationDate": "2012-07-30T18:00:38Z", "webTitle": "London 2012: David Cameron takes the tube \u2013 caption competition | Open thread", "webUrl": "https://www.theguardian.com/commentisfree/2012/jul/30/london-2012-david-cameron-tube-caption-competition", "apiUrl": "https://content.guardianapis.com/commentisfree/2012/jul/30/london-2012-david-cameron-tube-caption-competition", "isHosted": false, "pillarId": "pillar/opinion", "pillarName": "Opinion"}, {"id": "politics/2012/jul/30/tory-mp-olympic-opening-ceremony", "type": "article", "sectionId": "politics", "sectionName": "Politics", "webPublicationDate": "2012-07-30T17:47:29Z", "webTitle": "David Cameron: Tory MP's attack on Olympic opening ceremony was idiotic", "webUrl": "https://www.theguardian.com/politics/2012/jul/30/tory-mp-olympic-opening-ceremony", "apiUrl": "https://content.guardianapis.com/politics/2012/jul/30/tory-mp-olympic-opening-ceremony", "isHosted": false, "pillarId": "pillar/news", "pillarName": "News"}, {"id": "society/2012/jul/30/care-quality-commission-critic-stays", "type": "article", "sectionId": "society", "sectionName": "Society", "webPublicationDate": "2012-07-30T17:43:27Z", "webTitle": "Care Quality Commission critic can stay on board, rules Andrew Lansley", "webUrl": "https://www.theguardian.com/society/2012/jul/30/care-quality-commission-critic-stays", "apiUrl": "https://content.guardianapis.com/society/2012/jul/30/care-quality-commission-critic-stays", "isHosted": false, "pillarId": "pillar/news", "pillarName": "News"}, {"id": "uk/the-northerner/2012/jul/30/liverpool-pride-patron-mp", "type": "article", "sectionId": "uk-news", "sectionName": "UK news", "webPublicationDate": "2012-07-30T17:08:42Z", "webTitle": "Merseyside MP is Liverpool Pride's first patron", "webUrl": "https://www.theguardian.com/uk/the-northerner/2012/jul/30/liverpool-pride-patron-mp", "apiUrl": "https://content.guardianapis.com/uk/the-northerner/2012/jul/30/liverpool-pride-patron-mp", "isHosted": false, "pillarId": "pillar/news", "pillarName": "News"}, {"id": "higher-education-network/blog/2012/jul/30/destinations-data-and-widening-participation", "type": "article", "sectionId": "education", "sectionName": "Education", "webPublicationDate": "2012-07-30T16:11:00Z", "webTitle": "Widening participation: understanding why London schools are winning", "webUrl": "https://www.theguardian.com/higher-education-network/blog/2012/jul/30/destinations-data-and-widening-participation", "apiUrl": "https://content.guardianapis.com/higher-education-network/blog/2012/jul/30/destinations-data-and-widening-participation", "isHosted": false, "pillarId": "pillar/news", "pillarName": "News"}, {"id": "sport/video/2012/jul/30/david-cameron-tube-olympic-video", "type": "video", "sectionId": "sport", "sectionName": "Sport", "webPublicationDate": "2012-07-30T14:36:00Z", "webTitle": "David Cameron takes London tube to Olympic Games - video", "webUrl": "https://www.theguardian.com/sport/video/2012/jul/30/david-cameron-tube-olympic-video", "apiUrl": "https://content.guardianapis.com/sport/video/2012/jul/30/david-cameron-tube-olympic-video", "isHosted": false, "pillarId": "pillar/sport", "pillarName": "Sport"}, {"id": "uk/2012/jul/30/trident-bases-run-private-companies", "type": "article", "sectionId": "uk-news", "sectionName": "UK news", "webPublicationDate": "2012-07-30T13:07:13Z", "webTitle": "Trident bases to be run by private companies", "webUrl": "https://www.theguardian.com/uk/2012/jul/30/trident-bases-run-private-companies", "apiUrl": "https://content.guardianapis.com/uk/2012/jul/30/trident-bases-run-private-companies", "isHosted": false, "pillarId": "pillar/news", "pillarName": "News"}, {"id": "commentisfree/2012/jul/30/boris-johnson-comedian-of-politics", "type": "article", "sectionId": "commentisfree", "sectionName": "Opinion", "webPublicationDate": "2012-07-30T12:00:01Z", "webTitle": "Boris Johnson, the comedian of politics, has the last laugh | Brian Logan", "webUrl": "https://www.theguardian.com/commentisfree/2012/jul/30/boris-johnson-comedian-of-politics", "apiUrl": "https://content.guardianapis.com/commentisfree/2012/jul/30/boris-johnson-comedian-of-politics", "isHosted": false, "pillarId": "pillar/opinion", "pillarName": "Opinion"}, {"id": "commentisfree/2012/jul/30/economic-policy-adam-smith", "type": "article", "sectionId": "commentisfree", "sectionName": "Opinion", "webPublicationDate": "2012-07-30T11:30:02Z", "webTitle": "Economic policy in the hands of the few serves those few \u2013 just ask Adam Smith | David Wearing", "webUrl": "https://www.theguardian.com/commentisfree/2012/jul/30/economic-policy-adam-smith", "apiUrl": "https://content.guardianapis.com/commentisfree/2012/jul/30/economic-policy-adam-smith", "isHosted": false, "pillarId": "pillar/opinion", "pillarName": "Opinion"}, {"id": "politics/2012/jul/30/boris-johnson-tory-favourite-david-cameron", "type": "article", "sectionId": "politics", "sectionName": "Politics", "webPublicationDate": "2012-07-30T10:49:51Z", "webTitle": "Boris Johnson is Tories' favourite to succeed David Cameron as leader", "webUrl": "https://www.theguardian.com/politics/2012/jul/30/boris-johnson-tory-favourite-david-cameron", "apiUrl": "https://content.guardianapis.com/politics/2012/jul/30/boris-johnson-tory-favourite-david-cameron", "isHosted": false, "pillarId": "pillar/news", "pillarName": "News"}, {"id": "politics/blog/2012/jul/30/peoples-olympics-money-isnt-everything", "type": "article", "sectionId": "politics", "sectionName": "Politics", "webPublicationDate": "2012-07-30T09:37:48Z", "webTitle": "In the people's Olympics, money isn't everything", "webUrl": "https://www.theguardian.com/politics/blog/2012/jul/30/peoples-olympics-money-isnt-everything", "apiUrl": "https://content.guardianapis.com/politics/blog/2012/jul/30/peoples-olympics-money-isnt-everything", "isHosted": false, "pillarId": "pillar/news", "pillarName": "News"}, {"id": "politics/2012/jul/30/politics-live-readers-edition-30-july", "type": "article", "sectionId": "politics", "sectionName": "Politics", "webPublicationDate": "2012-07-30T07:58:10Z", "webTitle": "Politics live: readers' edition - Monday 30 July", "webUrl": "https://www.theguardian.com/politics/2012/jul/30/politics-live-readers-edition-30-july", "apiUrl": "https://content.guardianapis.com/politics/2012/jul/30/politics-live-readers-edition-30-july", "isHosted": false, "pillarId": "pillar/news", "pillarName": "News"}, {"id": "business/2012/jul/30/credit-ratings-osborne-economic-recovery", "type": "article", "sectionId": "business", "sectionName": "Business", "webPublicationDate": "2012-07-29T23:02:00Z", "webTitle": "Pursuit of top credit ratings has clouded George Osborne's vision of recovery", "webUrl": "https://www.theguardian.com/business/2012/jul/30/credit-ratings-osborne-economic-recovery", "apiUrl": "https://content.guardianapis.com/business/2012/jul/30/credit-ratings-osborne-economic-recovery", "isHosted": false, "pillarId": "pillar/news", "pillarName": "News"}, {"id": "commentisfree/cartoon/2012/jul/29/olympics-london-2012-aidan-burley", "type": "picture", "sectionId": "commentisfree", "sectionName": "Opinion", "webPublicationDate": "2012-07-29T22:54:40Z", "webTitle": "Martin Rowson on Aidan Burley's 'multicultural crap' tweet - cartoon", "webUrl": "https://www.theguardian.com/commentisfree/cartoon/2012/jul/29/olympics-london-2012-aidan-burley", "apiUrl": "https://content.guardianapis.com/commentisfree/cartoon/2012/jul/29/olympics-london-2012-aidan-burley", "isHosted": false, "pillarId": "pillar/opinion", "pillarName": "Opinion"}, {"id": "lifeandstyle/2012/jul/29/how-much-exercise-should-i-do", "type": "article", "sectionId": "lifeandstyle", "sectionName": "Life and style", "webPublicationDate": "2012-07-29T19:30:00Z", "webTitle": "Dr Dillner's health dilemmas: how much exercise must I do to stay healthy?", "webUrl": "https://www.theguardian.com/lifeandstyle/2012/jul/29/how-much-exercise-should-i-do", "apiUrl": "https://content.guardianapis.com/lifeandstyle/2012/jul/29/how-much-exercise-should-i-do", "isHosted": false, "pillarId": "pillar/lifestyle", "pillarName": "Lifestyle"}, {"id": "society/2012/jul/29/politics-mental-health", "type": "article", "sectionId": "society", "sectionName": "Society", "webPublicationDate": "2012-07-29T19:00:04Z", "webTitle": "The politics of mental health", "webUrl": "https://www.theguardian.com/society/2012/jul/29/politics-mental-health", "apiUrl": "https://content.guardianapis.com/society/2012/jul/29/politics-mental-health", "isHosted": false, "pillarId": "pillar/news", "pillarName": "News"}, {"id": "commentisfree/2012/jul/29/things-miss-about-20th-century", "type": "article", "sectionId": "commentisfree", "sectionName": "Opinion", "webPublicationDate": "2012-07-29T19:00:00Z", "webTitle": "Ten things I miss about the 20th century | Ian Martin", "webUrl": "https://www.theguardian.com/commentisfree/2012/jul/29/things-miss-about-20th-century", "apiUrl": "https://content.guardianapis.com/commentisfree/2012/jul/29/things-miss-about-20th-century", "isHosted": false, "pillarId": "pillar/opinion", "pillarName": "Opinion"}, {"id": "sport/2012/jul/29/opening-cermony-trojan-horse-socialism", "type": "article", "sectionId": "sport", "sectionName": "Sport", "webPublicationDate": "2012-07-29T17:33:01Z", "webTitle": "Opening ceremony was a Trojan horse for socialist values, says Labour MP", "webUrl": "https://www.theguardian.com/sport/2012/jul/29/opening-cermony-trojan-horse-socialism", "apiUrl": "https://content.guardianapis.com/sport/2012/jul/29/opening-cermony-trojan-horse-socialism", "isHosted": false, "pillarId": "pillar/sport", "pillarName": "Sport"}, {"id": "politics/2012/jul/29/sovereign-capital-tory-donors-millions", "type": "article", "sectionId": "politics", "sectionName": "Politics", "webPublicationDate": "2012-07-29T16:09:08Z", "webTitle": "Firm established by two Tory donors made millions from work schemes", "webUrl": "https://www.theguardian.com/politics/2012/jul/29/sovereign-capital-tory-donors-millions", "apiUrl": "https://content.guardianapis.com/politics/2012/jul/29/sovereign-capital-tory-donors-millions", "isHosted": false, "pillarId": "pillar/news", "pillarName": "News"}, {"id": "film/2012/jul/29/rajesh-khanna", "type": "article", "sectionId": "film", "sectionName": "Film", "webPublicationDate": "2012-07-29T12:10:07Z", "webTitle": "Rajesh Khanna obituary", "webUrl": "https://www.theguardian.com/film/2012/jul/29/rajesh-khanna", "apiUrl": "https://content.guardianapis.com/film/2012/jul/29/rajesh-khanna", "isHosted": false, "pillarId": "pillar/arts", "pillarName": "Arts"}, {"id": "society/2012/jul/29/long-term-unemployed-unpaid-work", "type": "article", "sectionId": "society", "sectionName": "Society", "webPublicationDate": "2012-07-29T11:59:04Z", "webTitle": "Million jobless may face six months' unpaid work or have benefits stopped", "webUrl": "https://www.theguardian.com/society/2012/jul/29/long-term-unemployed-unpaid-work", "apiUrl": "https://content.guardianapis.com/society/2012/jul/29/long-term-unemployed-unpaid-work", "isHosted": false, "pillarId": "pillar/news", "pillarName": "News"}, {"id": "commentisfree/2012/jul/29/andrew-rawnsley-hollande-inspiration-to-miliband", "type": "article", "sectionId": "commentisfree", "sectionName": "Opinion", "webPublicationDate": "2012-07-28T23:07:03Z", "webTitle": "The promises and the perils of Ed Miliband's French connection | Andrew Rawnsley", "webUrl": "https://www.theguardian.com/commentisfree/2012/jul/29/andrew-rawnsley-hollande-inspiration-to-miliband", "apiUrl": "https://content.guardianapis.com/commentisfree/2012/jul/29/andrew-rawnsley-hollande-inspiration-to-miliband", "isHosted": false, "pillarId": "pillar/opinion", "pillarName": "Opinion"}, {"id": "education/2012/jul/29/michael-gove-elitist-alevel-reform", "type": "article", "sectionId": "education", "sectionName": "Education", "webPublicationDate": "2012-07-28T23:06:50Z", "webTitle": "Michael Gove's 'elitist' A-level reform will scare off pupils, says schools chief", "webUrl": "https://www.theguardian.com/education/2012/jul/29/michael-gove-elitist-alevel-reform", "apiUrl": "https://content.guardianapis.com/education/2012/jul/29/michael-gove-elitist-alevel-reform", "isHosted": false, "pillarId": "pillar/news", "pillarName": "News"}, {"id": "travel/2012/jul/29/cameron-clegg-shun-british-holidays", "type": "article", "sectionId": "travel", "sectionName": "Travel", "webPublicationDate": "2012-07-28T23:06:36Z", "webTitle": "David Cameron and Nick Clegg shun UK for summer break", "webUrl": "https://www.theguardian.com/travel/2012/jul/29/cameron-clegg-shun-british-holidays", "apiUrl": "https://content.guardianapis.com/travel/2012/jul/29/cameron-clegg-shun-british-holidays", "isHosted": false, "pillarId": "pillar/lifestyle", "pillarName": "Lifestyle"}, {"id": "commentisfree/2012/jul/29/rachel-cooke-tony-blair-comeback", "type": "article", "sectionId": "commentisfree", "sectionName": "Opinion", "webPublicationDate": "2012-07-28T23:06:32Z", "webTitle": "Both pop stars and ex-PMs should resist comebacks | Rachel Cooke", "webUrl": "https://www.theguardian.com/commentisfree/2012/jul/29/rachel-cooke-tony-blair-comeback", "apiUrl": "https://content.guardianapis.com/commentisfree/2012/jul/29/rachel-cooke-tony-blair-comeback", "isHosted": false, "pillarId": "pillar/opinion", "pillarName": "Opinion"}, {"id": "commentisfree/2012/jul/29/politicians-summer-holidays-debate", "type": "article", "sectionId": "commentisfree", "sectionName": "Opinion", "webPublicationDate": "2012-07-28T23:06:00Z", "webTitle": "Does it matter where politicians go on holiday? | The debate", "webUrl": "https://www.theguardian.com/commentisfree/2012/jul/29/politicians-summer-holidays-debate", "apiUrl": "https://content.guardianapis.com/commentisfree/2012/jul/29/politicians-summer-holidays-debate", "isHosted": false, "pillarId": "pillar/opinion", "pillarName": "Opinion"}, {"id": "business/2012/jul/28/osborne-world-confidence-british-economy", "type": "article", "sectionId": "business", "sectionName": "Business", "webPublicationDate": "2012-07-28T16:20:51Z", "webTitle": "Osborne hails S&P 'stable' rating outlook", "webUrl": "https://www.theguardian.com/business/2012/jul/28/osborne-world-confidence-british-economy", "apiUrl": "https://content.guardianapis.com/business/2012/jul/28/osborne-world-confidence-british-economy", "isHosted": false, "pillarId": "pillar/news", "pillarName": "News"}, {"id": "world/2012/jul/28/arms-trade-treaty-william-hague", "type": "article", "sectionId": "world", "sectionName": "World news", "webPublicationDate": "2012-07-28T14:53:48Z", "webTitle": "Arms trade treaty failure is disappointing, says William Hague", "webUrl": "https://www.theguardian.com/world/2012/jul/28/arms-trade-treaty-william-hague", "apiUrl": "https://content.guardianapis.com/world/2012/jul/28/arms-trade-treaty-william-hague", "isHosted": false, "pillarId": "pillar/news", "pillarName": "News"}, {"id": "politics/2012/jul/28/olympics-multicultural-crap-tweet-misunderstood", "type": "article", "sectionId": "politics", "sectionName": "Politics", "webPublicationDate": "2012-07-28T13:44:22Z", "webTitle": "Olympics 'multicultural crap' tweet misunderstood, says Tory MP", "webUrl": "https://www.theguardian.com/politics/2012/jul/28/olympics-multicultural-crap-tweet-misunderstood", "apiUrl": "https://content.guardianapis.com/politics/2012/jul/28/olympics-multicultural-crap-tweet-misunderstood", "isHosted": false, "pillarId": "pillar/news", "pillarName": "News"}, {"id": "politics/2012/jul/28/george-osborne-disaster-will-hutton", "type": "article", "sectionId": "commentisfree", "sectionName": "Opinion", "webPublicationDate": "2012-07-28T12:28:02Z", "webTitle": "George Osborne is the worst of all the British chancellors I've known | Will Hutton", "webUrl": "https://www.theguardian.com/politics/2012/jul/28/george-osborne-disaster-will-hutton", "apiUrl": "https://content.guardianapis.com/politics/2012/jul/28/george-osborne-disaster-will-hutton", "isHosted": false, "pillarId": "pillar/opinion", "pillarName": "Opinion"}, {"id": "sport/2012/jul/28/olympics-opening-ceremony-tristram-hunt-review", "type": "article", "sectionId": "sport", "sectionName": "Sport", "webPublicationDate": "2012-07-28T11:34:07Z", "webTitle": "Olympic opening ceremony: Tristram Hunt's review", "webUrl": "https://www.theguardian.com/sport/2012/jul/28/olympics-opening-ceremony-tristram-hunt-review", "apiUrl": "https://content.guardianapis.com/sport/2012/jul/28/olympics-opening-ceremony-tristram-hunt-review", "isHosted": false, "pillarId": "pillar/sport", "pillarName": "Sport"}, {"id": "politics/2012/jul/28/olympics-opening-ceremony-multicultural-crap-tory-mp", "type": "article", "sectionId": "politics", "sectionName": "Politics", "webPublicationDate": "2012-07-27T23:11:55Z", "webTitle": "Olympics opening ceremony was 'multicultural crap', Tory MP tweets", "webUrl": "https://www.theguardian.com/politics/2012/jul/28/olympics-opening-ceremony-multicultural-crap-tory-mp", "apiUrl": "https://content.guardianapis.com/politics/2012/jul/28/olympics-opening-ceremony-multicultural-crap-tory-mp", "isHosted": false, "pillarId": "pillar/news", "pillarName": "News"}, {"id": "commentisfree/2012/jul/27/britain-easy-date-mitt-romney-mess", "type": "article", "sectionId": "commentisfree", "sectionName": "Opinion", "webPublicationDate": "2012-07-27T21:00:01Z", "webTitle": "Britain is an easy date. So how did Mitt Romney mess up so badly? | Jonathan Freedland", "webUrl": "https://www.theguardian.com/commentisfree/2012/jul/27/britain-easy-date-mitt-romney-mess", "apiUrl": "https://content.guardianapis.com/commentisfree/2012/jul/27/britain-easy-date-mitt-romney-mess", "isHosted": false, "pillarId": "pillar/opinion", "pillarName": "Opinion"}, {"id": "theguardian/2012/jul/27/simon-hoggarts-week-politicians-nonverbal-signals", "type": "article", "sectionId": "theguardian", "sectionName": "From the Guardian", "webPublicationDate": "2012-07-27T20:03:01Z", "webTitle": "Simon Hoggart's Week: Politicians' nonverbal signals are a hard to report", "webUrl": "https://www.theguardian.com/theguardian/2012/jul/27/simon-hoggarts-week-politicians-nonverbal-signals", "apiUrl": "https://content.guardianapis.com/theguardian/2012/jul/27/simon-hoggarts-week-politicians-nonverbal-signals", "isHosted": false, "pillarId": "pillar/news", "pillarName": "News"}, {"id": "commentisfree/2012/jul/27/editorial-northern-ireland", "type": "article", "sectionId": "commentisfree", "sectionName": "Opinion", "webPublicationDate": "2012-07-27T20:02:39Z", "webTitle": "Northern Ireland: keep focused | Editorial", "webUrl": "https://www.theguardian.com/commentisfree/2012/jul/27/editorial-northern-ireland", "apiUrl": "https://content.guardianapis.com/commentisfree/2012/jul/27/editorial-northern-ireland", "isHosted": false, "pillarId": "pillar/opinion", "pillarName": "Opinion"}, {"id": "commentisfree/2012/jul/27/amy-winehouse-influence-decline-drugs-campaign", "type": "article", "sectionId": "commentisfree", "sectionName": "Opinion", "webPublicationDate": "2012-07-27T20:00:02Z", "webTitle": "Amy Winehouse's influence on falling drug use is greater than any policy | William Sutcliffe", "webUrl": "https://www.theguardian.com/commentisfree/2012/jul/27/amy-winehouse-influence-decline-drugs-campaign", "apiUrl": "https://content.guardianapis.com/commentisfree/2012/jul/27/amy-winehouse-influence-decline-drugs-campaign", "isHosted": false, "pillarId": "pillar/opinion", "pillarName": "Opinion"}, {"id": "society/2012/jul/27/gay-friendly-school-alliance-milwaukee", "type": "article", "sectionId": "society", "sectionName": "Society", "webPublicationDate": "2012-07-27T19:51:00Z", "webTitle": "When school is out: gay-friendly education in the US", "webUrl": "https://www.theguardian.com/society/2012/jul/27/gay-friendly-school-alliance-milwaukee", "apiUrl": "https://content.guardianapis.com/society/2012/jul/27/gay-friendly-school-alliance-milwaukee", "isHosted": false, "pillarId": "pillar/news", "pillarName": "News"}, {"id": "commentisfree/2012/jul/27/unthinkable-all-working-class-shortlists", "type": "article", "sectionId": "commentisfree", "sectionName": "Opinion", "webPublicationDate": "2012-07-27T19:49:35Z", "webTitle": "Unthinkable? All working-class shortlists | Editorial", "webUrl": "https://www.theguardian.com/commentisfree/2012/jul/27/unthinkable-all-working-class-shortlists", "apiUrl": "https://content.guardianapis.com/commentisfree/2012/jul/27/unthinkable-all-working-class-shortlists", "isHosted": false, "pillarId": "pillar/opinion", "pillarName": "Opinion"}, {"id": "commentisfree/2012/jul/27/london-2012-idiot-games-leaders", "type": "article", "sectionId": "commentisfree", "sectionName": "Opinion", "webPublicationDate": "2012-07-27T19:00:00Z", "webTitle": "London 2012: welcome to the Idiot Games, where our leaders do battle | Tanya Gold", "webUrl": "https://www.theguardian.com/commentisfree/2012/jul/27/london-2012-idiot-games-leaders", "apiUrl": "https://content.guardianapis.com/commentisfree/2012/jul/27/london-2012-idiot-games-leaders", "isHosted": false, "pillarId": "pillar/opinion", "pillarName": "Opinion"}, {"id": "commentisfree/2012/jul/27/deborah-orr-spending-borrowing-consumerism", "type": "article", "sectionId": "commentisfree", "sectionName": "Opinion", "webPublicationDate": "2012-07-27T18:30:01Z", "webTitle": "Now Cameron wants us to spend again. And borrow. Have we learned nothing? | Deborah Orr", "webUrl": "https://www.theguardian.com/commentisfree/2012/jul/27/deborah-orr-spending-borrowing-consumerism", "apiUrl": "https://content.guardianapis.com/commentisfree/2012/jul/27/deborah-orr-spending-borrowing-consumerism", "isHosted": false, "pillarId": "pillar/opinion", "pillarName": "Opinion"}, {"id": "education/2012/jul/27/gove-academies-unqualified-teaching-staff", "type": "article", "sectionId": "education", "sectionName": "Education", "webPublicationDate": "2012-07-27T18:29:03Z", "webTitle": "Michael Gove tells academies they can hire unqualified teaching staff", "webUrl": "https://www.theguardian.com/education/2012/jul/27/gove-academies-unqualified-teaching-staff", "apiUrl": "https://content.guardianapis.com/education/2012/jul/27/gove-academies-unqualified-teaching-staff", "isHosted": false, "pillarId": "pillar/news", "pillarName": "News"}]}}