{"response": {"status": "ok", "userTier": "developer", "total": 87193, "startIndex": 1, "pageSize": 50, "currentPage": 1, "pages": 1744, "orderBy": "newest", "results": [{"id": "football/gallery/2012/jul/31/football-at-the-olympics-the-gallery", "type": "gallery", "sectionId": "football", "sectionName": "Football", "webPublicationDate": "2012-07-30T23:03:00Z", "webTitle": "Football at the Olympics: The Gallery", "webUrl": "https://www.theguardian.com/football/gallery/2012/jul/31/football-at-the-olympics-the-gallery", "apiUrl": "https://content.guardianapis.com/football/gallery/2012/jul/31/football-at-the-olympics-the-gallery", "isHosted": false, "pillarId": "pillar/sport", "pillarName": "Sport"}, {"id": "football/2012/jul/30/andy-carroll-west-ham-liverpool", "type": "article", "sectionId": "football", "sectionName": "Football", "webPublicationDate": "2012-07-30T22:21:00Z", "webTitle": "Andy Carroll will resist \u00a319m West Ham deal to sign him from Liverpool", "webUrl": "https://www.theguardian.com/football/2012/jul/30/andy-carroll-west-ham-liverpool", "apiUrl": "https://content.guardianapis.com/football/2012/jul/30/andy-carroll-west-ham-liverpool", "isHosted": false, "pillarId": "pillar/sport", "pillarName": "Sport"}, {"id": "sport/2012/jul/30/olympic-breakfasts-kelly-parker-footballer", "type": "article", "sectionId": "sport", "sectionName": "Sport", "webPublicationDate": "2012-07-30T19:04:13Z", "webTitle": "Olympic breakfasts: Kelly Parker, footballer", "webUrl": "https://www.theguardian.com/sport/2012/jul/30/olympic-breakfasts-kelly-parker-footballer", "apiUrl": "https://content.guardianapis.com/sport/2012/jul/30/olympic-breakfasts-kelly-parker-footballer", "isHosted": false, "pillarId": "pillar/sport", "pillarName": "Sport"}, {"id": "uk/2012/jul/30/black-footballer-gillingham-racism-mark-mccammon", "type": "article", "sectionId": "uk-news", "sectionName": "UK news", "webPublicationDate": "2012-07-30T16:09:08Z", "webTitle": "Mark McCammon wins racism case against Gillingham FC", "webUrl": "https://www.theguardian.com/uk/2012/jul/30/black-footballer-gillingham-racism-mark-mccammon", "apiUrl": "https://content.guardianapis.com/uk/2012/jul/30/black-footballer-gillingham-racism-mark-mccammon", "isHosted": false, "pillarId": "pillar/news", "pillarName": "News"}, {"id": "football/2012/jul/30/the-fiver-gareth-bale-charlie-adam", "type": "article", "sectionId": "football", "sectionName": "Football", "webPublicationDate": "2012-07-30T15:31:53Z", "webTitle": "The Fiver | The kind of patter usually only heard on Baltimore's west side | Gregg Bakowski", "webUrl": "https://www.theguardian.com/football/2012/jul/30/the-fiver-gareth-bale-charlie-adam", "apiUrl": "https://content.guardianapis.com/football/2012/jul/30/the-fiver-gareth-bale-charlie-adam", "isHosted": false, "pillarId": "pillar/sport", "pillarName": "Sport"}, {"id": "sport/blog/2012/jul/30/vancouver-whitecaps-jay-demerit-san-jose-earthquakes", "type": "article", "sectionId": "football", "sectionName": "Football", "webPublicationDate": "2012-07-30T15:20:10Z", "webTitle": "MLS: five things we learned in week 21 | Graham Parker and Joe Prince-Wright", "webUrl": "https://www.theguardian.com/sport/blog/2012/jul/30/vancouver-whitecaps-jay-demerit-san-jose-earthquakes", "apiUrl": "https://content.guardianapis.com/sport/blog/2012/jul/30/vancouver-whitecaps-jay-demerit-san-jose-earthquakes", "isHosted": false, "pillarId": "pillar/sport", "pillarName": "Sport"}, {"id": "football/2012/jul/30/rio-ferdinand-fa-charge-twitter", "type": "article", "sectionId": "football", "sectionName": "Football", "webPublicationDate": "2012-07-30T15:16:25Z", "webTitle": "Manchester United's Rio Ferdinand charged by FA over Twitter comments", "webUrl": "https://www.theguardian.com/football/2012/jul/30/rio-ferdinand-fa-charge-twitter", "apiUrl": "https://content.guardianapis.com/football/2012/jul/30/rio-ferdinand-fa-charge-twitter", "isHosted": false, "pillarId": "pillar/sport", "pillarName": "Sport"}, {"id": "football/2012/jul/30/football-transfer-rumours-agger-manchester-city", "type": "article", "sectionId": "football", "sectionName": "Football", "webPublicationDate": "2012-07-30T10:27:00Z", "webTitle": "Football transfer rumours: Daniel Agger to Manchester City?", "webUrl": "https://www.theguardian.com/football/2012/jul/30/football-transfer-rumours-agger-manchester-city", "apiUrl": "https://content.guardianapis.com/football/2012/jul/30/football-transfer-rumours-agger-manchester-city", "isHosted": false, "pillarId": "pillar/sport", "pillarName": "Sport"}, {"id": "football/2012/jul/29/philadelphia-union-new-england-revolution-live", "type": "article", "sectionId": "football", "sectionName": "Football", "webPublicationDate": "2012-07-30T01:29:00Z", "webTitle": "Philadelphia Union 2-1 New England Revolution - as it happened", "webUrl": "https://www.theguardian.com/football/2012/jul/29/philadelphia-union-new-england-revolution-live", "apiUrl": "https://content.guardianapis.com/football/2012/jul/29/philadelphia-union-new-england-revolution-live", "isHosted": false, "pillarId": "pillar/sport", "pillarName": "Sport"}, {"id": "football/2012/jul/29/rangers-brechin-return-ramsdens-cup", "type": "article", "sectionId": "football", "sectionName": "Football", "webPublicationDate": "2012-07-29T22:00:01Z", "webTitle": "Smoke bombs and torrential rain welcome Rangers on return at Brechin", "webUrl": "https://www.theguardian.com/football/2012/jul/29/rangers-brechin-return-ramsdens-cup", "apiUrl": "https://content.guardianapis.com/football/2012/jul/29/rangers-brechin-return-ramsdens-cup", "isHosted": false, "pillarId": "pillar/sport", "pillarName": "Sport"}, {"id": "sport/2012/jul/29/london-2012-team-gb-uae", "type": "article", "sectionId": "sport", "sectionName": "Sport", "webPublicationDate": "2012-07-29T21:00:07Z", "webTitle": "London 2012: Team GB 3-1 UAE | Men's football Group A match report", "webUrl": "https://www.theguardian.com/sport/2012/jul/29/london-2012-team-gb-uae", "apiUrl": "https://content.guardianapis.com/sport/2012/jul/29/london-2012-team-gb-uae", "isHosted": false, "pillarId": "pillar/sport", "pillarName": "Sport"}, {"id": "sport/2012/jul/29/london-2012-spain-honduras", "type": "article", "sectionId": "sport", "sectionName": "Sport", "webPublicationDate": "2012-07-29T20:58:26Z", "webTitle": "London 2012: Spain 0-1 Honduras | Group D match report", "webUrl": "https://www.theguardian.com/sport/2012/jul/29/london-2012-spain-honduras", "apiUrl": "https://content.guardianapis.com/sport/2012/jul/29/london-2012-spain-honduras", "isHosted": false, "pillarId": "pillar/sport", "pillarName": "Sport"}, {"id": "football/gallery/2012/jul/29/olympics-football-team-gb-in-pictures", "type": "gallery", "sectionId": "football", "sectionName": "Football", "webPublicationDate": "2012-07-29T20:20:00Z", "webTitle": "Olympic men's football: Team GB v UAE - in pictures", "webUrl": "https://www.theguardian.com/football/gallery/2012/jul/29/olympics-football-team-gb-in-pictures", "apiUrl": "https://content.guardianapis.com/football/gallery/2012/jul/29/olympics-football-team-gb-in-pictures", "isHosted": false, "pillarId": "pillar/sport", "pillarName": "Sport"}, {"id": "sport/2012/jul/29/london-2012-senegal-uruguay", "type": "article", "sectionId": "sport", "sectionName": "Sport", "webPublicationDate": "2012-07-29T18:41:35Z", "webTitle": "London 2012: Senegal 2-0 Uruguay | Olympic men's football Group A", "webUrl": "https://www.theguardian.com/sport/2012/jul/29/london-2012-senegal-uruguay", "apiUrl": "https://content.guardianapis.com/sport/2012/jul/29/london-2012-senegal-uruguay", "isHosted": false, "pillarId": "pillar/sport", "pillarName": "Sport"}, {"id": "sport/2012/jul/29/london-2012-neymar-brazil-belarus", "type": "article", "sectionId": "sport", "sectionName": "Sport", "webPublicationDate": "2012-07-29T16:17:37Z", "webTitle": "London 2012: Brazil 3-1 Belarus | Olympic men's football Group C", "webUrl": "https://www.theguardian.com/sport/2012/jul/29/london-2012-neymar-brazil-belarus", "apiUrl": "https://content.guardianapis.com/sport/2012/jul/29/london-2012-neymar-brazil-belarus", "isHosted": false, "pillarId": "pillar/sport", "pillarName": "Sport"}, {"id": "football/2012/jul/29/jack-taylor", "type": "article", "sectionId": "football", "sectionName": "Football", "webPublicationDate": "2012-07-29T16:04:56Z", "webTitle": "Jack Taylor obituary", "webUrl": "https://www.theguardian.com/football/2012/jul/29/jack-taylor", "apiUrl": "https://content.guardianapis.com/football/2012/jul/29/jack-taylor", "isHosted": false, "pillarId": "pillar/sport", "pillarName": "Sport"}, {"id": "sport/video/2012/jul/29/us-olympic-football-party-usa-video", "type": "video", "sectionId": "sport", "sectionName": "Sport", "webPublicationDate": "2012-07-29T09:55:00Z", "webTitle": "US Olympic women's football team cover Miley Cyrus's 'Party in the USA' - video", "webUrl": "https://www.theguardian.com/sport/video/2012/jul/29/us-olympic-football-party-usa-video", "apiUrl": "https://content.guardianapis.com/sport/video/2012/jul/29/us-olympic-football-party-usa-video", "isHosted": false, "pillarId": "pillar/sport", "pillarName": "Sport"}, {"id": "tv-and-radio/2012/jul/29/an-unspeakable-act-blaggers-radio", "type": "article", "sectionId": "tv-and-radio", "sectionName": "Television & radio", "webPublicationDate": "2012-07-28T23:06:19Z", "webTitle": "Rewind radio: An Unspeakable Act; Olympics; The Blagger's Guide; Fun Kids \u2013 review", "webUrl": "https://www.theguardian.com/tv-and-radio/2012/jul/29/an-unspeakable-act-blaggers-radio", "apiUrl": "https://content.guardianapis.com/tv-and-radio/2012/jul/29/an-unspeakable-act-blaggers-radio", "isHosted": false, "pillarId": "pillar/arts", "pillarName": "Arts"}, {"id": "football/2012/jul/28/tottenham-andre-villas-boas-gareth-bale", "type": "article", "sectionId": "football", "sectionName": "Football", "webPublicationDate": "2012-07-28T22:40:33Z", "webTitle": "Tottenham's Andr\u00e9 Villas-Boas hits out after new Gareth Bale injury", "webUrl": "https://www.theguardian.com/football/2012/jul/28/tottenham-andre-villas-boas-gareth-bale", "apiUrl": "https://content.guardianapis.com/football/2012/jul/28/tottenham-andre-villas-boas-gareth-bale", "isHosted": false, "pillarId": "pillar/sport", "pillarName": "Sport"}, {"id": "football/2012/jul/28/rangers-uncharted-waters-fears", "type": "article", "sectionId": "football", "sectionName": "Football", "webPublicationDate": "2012-07-28T22:00:00Z", "webTitle": "Rangers sail into uncharted waters amid myriad fears and flaws", "webUrl": "https://www.theguardian.com/football/2012/jul/28/rangers-uncharted-waters-fears", "apiUrl": "https://content.guardianapis.com/football/2012/jul/28/rangers-uncharted-waters-fears", "isHosted": false, "pillarId": "pillar/sport", "pillarName": "Sport"}, {"id": "football/blog/2012/jul/28/manchester-city-transfer-mire", "type": "article", "sectionId": "football", "sectionName": "Football", "webPublicationDate": "2012-07-28T21:55:01Z", "webTitle": "Manchester City are in a transfer mire of their own making | Paul Wilson", "webUrl": "https://www.theguardian.com/football/blog/2012/jul/28/manchester-city-transfer-mire", "apiUrl": "https://content.guardianapis.com/football/blog/2012/jul/28/manchester-city-transfer-mire", "isHosted": false, "pillarId": "pillar/sport", "pillarName": "Sport"}, {"id": "football/2012/jul/28/john-terry-england-fa-charge", "type": "article", "sectionId": "football", "sectionName": "Football", "webPublicationDate": "2012-07-28T21:30:01Z", "webTitle": "John Terry's England future hangs on FA verdict on racial abuse charge", "webUrl": "https://www.theguardian.com/football/2012/jul/28/john-terry-england-fa-charge", "apiUrl": "https://content.guardianapis.com/football/2012/jul/28/john-terry-england-fa-charge", "isHosted": false, "pillarId": "pillar/sport", "pillarName": "Sport"}, {"id": "football/2012/jul/28/arsenal-santi-cazorla-nuri-sahin", "type": "article", "sectionId": "football", "sectionName": "Football", "webPublicationDate": "2012-07-28T21:29:01Z", "webTitle": "Arsenal bid for M\u00e1laga's Santi Cazorla and close in on Nuri Sahin", "webUrl": "https://www.theguardian.com/football/2012/jul/28/arsenal-santi-cazorla-nuri-sahin", "apiUrl": "https://content.guardianapis.com/football/2012/jul/28/arsenal-santi-cazorla-nuri-sahin", "isHosted": false, "pillarId": "pillar/sport", "pillarName": "Sport"}, {"id": "football/2012/jul/28/tottenham-steven-pienaar-return-everton", "type": "article", "sectionId": "football", "sectionName": "Football", "webPublicationDate": "2012-07-28T19:08:02Z", "webTitle": "Tottenham's Steven Pienaar closes in on a permanent return to Everton", "webUrl": "https://www.theguardian.com/football/2012/jul/28/tottenham-steven-pienaar-return-everton", "apiUrl": "https://content.guardianapis.com/football/2012/jul/28/tottenham-steven-pienaar-return-everton", "isHosted": false, "pillarId": "pillar/sport", "pillarName": "Sport"}, {"id": "sport/2012/jul/28/usa-colombia-womens-football-olympics-2012", "type": "article", "sectionId": "sport", "sectionName": "Sport", "webPublicationDate": "2012-07-28T18:32:02Z", "webTitle": "London 2012: USA 3-0 Colombia", "webUrl": "https://www.theguardian.com/sport/2012/jul/28/usa-colombia-womens-football-olympics-2012", "apiUrl": "https://content.guardianapis.com/sport/2012/jul/28/usa-colombia-womens-football-olympics-2012", "isHosted": false, "pillarId": "pillar/sport", "pillarName": "Sport"}, {"id": "sport/2012/jul/28/london-2012-team-gb-women-cameroon", "type": "article", "sectionId": "sport", "sectionName": "Sport", "webPublicationDate": "2012-07-28T18:16:53Z", "webTitle": "London 2012: Team GB 3-0 Cameroon | Olympic women's football Group E", "webUrl": "https://www.theguardian.com/sport/2012/jul/28/london-2012-team-gb-women-cameroon", "apiUrl": "https://content.guardianapis.com/sport/2012/jul/28/london-2012-team-gb-women-cameroon", "isHosted": false, "pillarId": "pillar/sport", "pillarName": "Sport"}, {"id": "sport/london-2012-olympics-blog/2012/jul/28/usa-colombia-womens-olympic-soccer-live", "type": "article", "sectionId": "sport", "sectionName": "Sport", "webPublicationDate": "2012-07-28T17:58:00Z", "webTitle": "Olympics 2012: USA 3-0 Colombia - as it happened", "webUrl": "https://www.theguardian.com/sport/london-2012-olympics-blog/2012/jul/28/usa-colombia-womens-olympic-soccer-live", "apiUrl": "https://content.guardianapis.com/sport/london-2012-olympics-blog/2012/jul/28/usa-colombia-womens-olympic-soccer-live", "isHosted": false, "pillarId": "pillar/sport", "pillarName": "Sport"}, {"id": "sport/2012/jul/28/london-2012-review-empty-seats", "type": "article", "sectionId": "sport", "sectionName": "Sport", "webPublicationDate": "2012-07-28T16:58:26Z", "webTitle": "London 2012 organisers pledge full review of empty seats problem", "webUrl": "https://www.theguardian.com/sport/2012/jul/28/london-2012-review-empty-seats", "apiUrl": "https://content.guardianapis.com/sport/2012/jul/28/london-2012-review-empty-seats", "isHosted": false, "pillarId": "pillar/sport", "pillarName": "Sport"}, {"id": "commentisfree/2012/jul/28/london-2012-team-gb-football-chant", "type": "article", "sectionId": "commentisfree", "sectionName": "Opinion", "webPublicationDate": "2012-07-28T10:00:00Z", "webTitle": "London 2012: can you suggest a football chant for Team GB? | Open thread", "webUrl": "https://www.theguardian.com/commentisfree/2012/jul/28/london-2012-team-gb-football-chant", "apiUrl": "https://content.guardianapis.com/commentisfree/2012/jul/28/london-2012-team-gb-football-chant", "isHosted": false, "pillarId": "pillar/opinion", "pillarName": "Opinion"}, {"id": "sport/2012/jul/27/london-2012-team-gb-craig-bellamy", "type": "article", "sectionId": "sport", "sectionName": "Sport", "webPublicationDate": "2012-07-27T21:29:02Z", "webTitle": "London 2012: Team GB's Craig Bellamy honoured by Old Trafford ovation", "webUrl": "https://www.theguardian.com/sport/2012/jul/27/london-2012-team-gb-craig-bellamy", "apiUrl": "https://content.guardianapis.com/sport/2012/jul/27/london-2012-team-gb-craig-bellamy", "isHosted": false, "pillarId": "pillar/sport", "pillarName": "Sport"}, {"id": "commentisfree/2012/jul/27/womens-sport-media-coverage-olympics", "type": "article", "sectionId": "commentisfree", "sectionName": "Opinion", "webPublicationDate": "2012-07-27T19:30:00Z", "webTitle": "The conversation: Is sport sexist?", "webUrl": "https://www.theguardian.com/commentisfree/2012/jul/27/womens-sport-media-coverage-olympics", "apiUrl": "https://content.guardianapis.com/commentisfree/2012/jul/27/womens-sport-media-coverage-olympics", "isHosted": false, "pillarId": "pillar/opinion", "pillarName": "Opinion"}, {"id": "football/2012/jul/27/rangers-time-runs-short", "type": "article", "sectionId": "football", "sectionName": "Football", "webPublicationDate": "2012-07-27T17:47:18Z", "webTitle": "Rangers sell Brechin tickets but time runs short for SFA go-ahead", "webUrl": "https://www.theguardian.com/football/2012/jul/27/rangers-time-runs-short", "apiUrl": "https://content.guardianapis.com/football/2012/jul/27/rangers-time-runs-short", "isHosted": false, "pillarId": "pillar/sport", "pillarName": "Sport"}, {"id": "football/2012/jul/27/john-terry-fa-abusive-language", "type": "article", "sectionId": "football", "sectionName": "Football", "webPublicationDate": "2012-07-27T17:09:13Z", "webTitle": "John Terry charged by FA with using abusive language", "webUrl": "https://www.theguardian.com/football/2012/jul/27/john-terry-fa-abusive-language", "apiUrl": "https://content.guardianapis.com/football/2012/jul/27/john-terry-fa-abusive-language", "isHosted": false, "pillarId": "pillar/sport", "pillarName": "Sport"}, {"id": "football/2012/jul/27/the-fiver-olympics-football", "type": "article", "sectionId": "football", "sectionName": "Football", "webPublicationDate": "2012-07-27T16:07:33Z", "webTitle": "The Fiver | Aurally accompanied by a Tom and Jerry xylophone trill | Scott Murray", "webUrl": "https://www.theguardian.com/football/2012/jul/27/the-fiver-olympics-football", "apiUrl": "https://content.guardianapis.com/football/2012/jul/27/the-fiver-olympics-football", "isHosted": false, "pillarId": "pillar/sport", "pillarName": "Sport"}, {"id": "uk/the-northerner/2012/jul/27/manchester-subbuteo", "type": "article", "sectionId": "uk-news", "sectionName": "UK news", "webPublicationDate": "2012-07-27T14:00:00Z", "webTitle": "Manchester's big Subbuteo revival", "webUrl": "https://www.theguardian.com/uk/the-northerner/2012/jul/27/manchester-subbuteo", "apiUrl": "https://content.guardianapis.com/uk/the-northerner/2012/jul/27/manchester-subbuteo", "isHosted": false, "pillarId": "pillar/news", "pillarName": "News"}, {"id": "football/2012/jul/27/junior-hoilett-qpr-blackburn", "type": "article", "sectionId": "football", "sectionName": "Football", "webPublicationDate": "2012-07-27T13:51:36Z", "webTitle": "Junior Hoilett joins Queens Park Rangers from Blackburn Rovers", "webUrl": "https://www.theguardian.com/football/2012/jul/27/junior-hoilett-qpr-blackburn", "apiUrl": "https://content.guardianapis.com/football/2012/jul/27/junior-hoilett-qpr-blackburn", "isHosted": false, "pillarId": "pillar/sport", "pillarName": "Sport"}, {"id": "football/blog/2012/jul/27/mls-week-21-real-salt-lake-vancouver-whitecaps", "type": "article", "sectionId": "football", "sectionName": "Football", "webPublicationDate": "2012-07-27T13:00:00Z", "webTitle": "MLS Week 21: fan previews | Graham Parker", "webUrl": "https://www.theguardian.com/football/blog/2012/jul/27/mls-week-21-real-salt-lake-vancouver-whitecaps", "apiUrl": "https://content.guardianapis.com/football/blog/2012/jul/27/mls-week-21-real-salt-lake-vancouver-whitecaps", "isHosted": false, "pillarId": "pillar/sport", "pillarName": "Sport"}, {"id": "football/2012/jul/27/football-transfer-rumours-dimitar-berbatov", "type": "article", "sectionId": "football", "sectionName": "Football", "webPublicationDate": "2012-07-27T12:37:55Z", "webTitle": "Football transfer rumours: Dimitar Berbatov to Galatasaray? | Simon Burnton", "webUrl": "https://www.theguardian.com/football/2012/jul/27/football-transfer-rumours-dimitar-berbatov", "apiUrl": "https://content.guardianapis.com/football/2012/jul/27/football-transfer-rumours-dimitar-berbatov", "isHosted": false, "pillarId": "pillar/sport", "pillarName": "Sport"}, {"id": "football/2012/jul/27/malaga-arsenal-santi-cazorla", "type": "article", "sectionId": "football", "sectionName": "Football", "webPublicationDate": "2012-07-27T00:20:21Z", "webTitle": "M\u00e1laga pour cold water on Santi Cazorla-to-Arsenal transfer talk", "webUrl": "https://www.theguardian.com/football/2012/jul/27/malaga-arsenal-santi-cazorla", "apiUrl": "https://content.guardianapis.com/football/2012/jul/27/malaga-arsenal-santi-cazorla", "isHosted": false, "pillarId": "pillar/sport", "pillarName": "Sport"}, {"id": "sport/gallery/2012/jul/27/olympics-2012-great-britain-senegal-pictures", "type": "gallery", "sectionId": "sport", "sectionName": "Sport", "webPublicationDate": "2012-07-26T23:33:24Z", "webTitle": "London 2012: Great Britain v Senegal \u2013 in pictures", "webUrl": "https://www.theguardian.com/sport/gallery/2012/jul/27/olympics-2012-great-britain-senegal-pictures", "apiUrl": "https://content.guardianapis.com/sport/gallery/2012/jul/27/olympics-2012-great-britain-senegal-pictures", "isHosted": false, "pillarId": "pillar/sport", "pillarName": "Sport"}, {"id": "sport/2012/jul/26/london-2012-team-gb-senegal", "type": "article", "sectionId": "sport", "sectionName": "Sport", "webPublicationDate": "2012-07-26T23:27:00Z", "webTitle": "London 2012: Team GB 1-1 Senegal | Olympic men's football Group A", "webUrl": "https://www.theguardian.com/sport/2012/jul/26/london-2012-team-gb-senegal", "apiUrl": "https://content.guardianapis.com/sport/2012/jul/26/london-2012-team-gb-senegal", "isHosted": false, "pillarId": "pillar/sport", "pillarName": "Sport"}, {"id": "football/2012/jul/27/team-gb-senegal-london-2012", "type": "article", "sectionId": "football", "sectionName": "Football", "webPublicationDate": "2012-07-26T23:10:26Z", "webTitle": "London  2012: Team GB Ryan Giggs demands protection after Senegal draw", "webUrl": "https://www.theguardian.com/football/2012/jul/27/team-gb-senegal-london-2012", "apiUrl": "https://content.guardianapis.com/football/2012/jul/27/team-gb-senegal-london-2012", "isHosted": false, "pillarId": "pillar/sport", "pillarName": "Sport"}, {"id": "football/2012/jul/26/west-ham-liverpool-andy-carroll", "type": "article", "sectionId": "football", "sectionName": "Football", "webPublicationDate": "2012-07-26T22:09:19Z", "webTitle": "West Ham increase their efforts to sign Liverpool's Andy Carroll", "webUrl": "https://www.theguardian.com/football/2012/jul/26/west-ham-liverpool-andy-carroll", "apiUrl": "https://content.guardianapis.com/football/2012/jul/26/west-ham-liverpool-andy-carroll", "isHosted": false, "pillarId": "pillar/sport", "pillarName": "Sport"}, {"id": "sport/2012/jul/26/brazil-egypt-football-london-2012", "type": "article", "sectionId": "sport", "sectionName": "Sport", "webPublicationDate": "2012-07-26T22:00:00Z", "webTitle": "London 2012: Brazil v Egypt | Olympic men's football Group C report", "webUrl": "https://www.theguardian.com/sport/2012/jul/26/brazil-egypt-football-london-2012", "apiUrl": "https://content.guardianapis.com/sport/2012/jul/26/brazil-egypt-football-london-2012", "isHosted": false, "pillarId": "pillar/sport", "pillarName": "Sport"}, {"id": "football/2012/jul/26/great-britain-senegal-olympic-football", "type": "article", "sectionId": "football", "sectionName": "Football", "webPublicationDate": "2012-07-26T21:43:00Z", "webTitle": "Team GB at the Olympics: the return of an improbable entity", "webUrl": "https://www.theguardian.com/football/2012/jul/26/great-britain-senegal-olympic-football", "apiUrl": "https://content.guardianapis.com/football/2012/jul/26/great-britain-senegal-olympic-football", "isHosted": false, "pillarId": "pillar/sport", "pillarName": "Sport"}, {"id": "football/2012/jul/26/fabio-capello-england-russia", "type": "article", "sectionId": "football", "sectionName": "Football", "webPublicationDate": "2012-07-26T21:30:02Z", "webTitle": "From Russia with loathing: Fabio Capello's message to the FA", "webUrl": "https://www.theguardian.com/football/2012/jul/26/fabio-capello-england-russia", "apiUrl": "https://content.guardianapis.com/football/2012/jul/26/fabio-capello-england-russia", "isHosted": false, "pillarId": "pillar/sport", "pillarName": "Sport"}, {"id": "football/2012/jul/26/john-terry-tactics-title", "type": "article", "sectionId": "football", "sectionName": "Football", "webPublicationDate": "2012-07-26T21:30:01Z", "webTitle": "John Terry happy to focus on tactics and titles ahead of new season", "webUrl": "https://www.theguardian.com/football/2012/jul/26/john-terry-tactics-title", "apiUrl": "https://content.guardianapis.com/football/2012/jul/26/john-terry-tactics-title", "isHosted": false, "pillarId": "pillar/sport", "pillarName": "Sport"}, {"id": "football/2012/jul/26/manchester-city-roberto-mancini-van-persie", "type": "article", "sectionId": "football", "sectionName": "Football", "webPublicationDate": "2012-07-26T18:15:39Z", "webTitle": "Manchester City's Roberto Mancini frustrated by slow Van Persie talks", "webUrl": "https://www.theguardian.com/football/2012/jul/26/manchester-city-roberto-mancini-van-persie", "apiUrl": "https://content.guardianapis.com/football/2012/jul/26/manchester-city-roberto-mancini-van-persie", "isHosted": false, "pillarId": "pillar/sport", "pillarName": "Sport"}, {"id": "world/2012/jul/26/north-korea-south-korea", "type": "article", "sectionId": "world", "sectionName": "World news", "webPublicationDate": "2012-07-26T18:14:15Z", "webTitle": "David Cameron joins scramble to placate North Korea after flag fiasco", "webUrl": "https://www.theguardian.com/world/2012/jul/26/north-korea-south-korea", "apiUrl": "https://content.guardianapis.com/world/2012/jul/26/north-korea-south-korea", "isHosted": false, "pillarId": "pillar/news", "pillarName": "News"}, {"id": "football/blog/2012/jul/26/manchester-united-glazers-new-york", "type": "article", "sectionId": "football", "sectionName": "Football", "webPublicationDate": "2012-07-26T18:10:16Z", "webTitle": "Manchester United's New York setback exposes failings of Glazers plan | Stuart James", "webUrl": "https://www.theguardian.com/football/blog/2012/jul/26/manchester-united-glazers-new-york", "apiUrl": "https://content.guardianapis.com/football/blog/2012/jul/26/manchester-united-glazers-new-york", "isHosted": false, "pillarId": "pillar/sport", "pillarName": "Sport"}]}}