{"response": {"status": "ok", "userTier": "developer", "total": 133413, "startIndex": 1, "pageSize": 50, "currentPage": 1, "pages": 2669, "orderBy": "newest", "results": [{"id": "world/2013/jul/31/bradley-manning-uk-supporters", "type": "article", "sectionId": "us-news", "sectionName": "US news", "webPublicationDate": "2013-07-30T23:28:32Z", "webTitle": "Manning's UK supporters say questions remain over espionage charges", "webUrl": "https://www.theguardian.com/world/2013/jul/31/bradley-manning-uk-supporters", "apiUrl": "https://content.guardianapis.com/world/2013/jul/31/bradley-manning-uk-supporters", "isHosted": false, "pillarId": "pillar/news", "pillarName": "News"}, {"id": "politics/2013/jul/31/scottish-independence-scotland", "type": "article", "sectionId": "politics", "sectionName": "Politics", "webPublicationDate": "2013-07-30T23:06:01Z", "webTitle": "Scottish independence 'yes' camp given fillip by welfare analysis", "webUrl": "https://www.theguardian.com/politics/2013/jul/31/scottish-independence-scotland", "apiUrl": "https://content.guardianapis.com/politics/2013/jul/31/scottish-independence-scotland", "isHosted": false, "pillarId": "pillar/news", "pillarName": "News"}, {"id": "business/2013/jul/31/tax-avoidance-schemes-crackdown-lords", "type": "article", "sectionId": "business", "sectionName": "Business", "webPublicationDate": "2013-07-30T23:01:04Z", "webTitle": "Lords say Amazon-style tax avoidance schemes must end", "webUrl": "https://www.theguardian.com/business/2013/jul/31/tax-avoidance-schemes-crackdown-lords", "apiUrl": "https://content.guardianapis.com/business/2013/jul/31/tax-avoidance-schemes-crackdown-lords", "isHosted": false, "pillarId": "pillar/news", "pillarName": "News"}, {"id": "money/2013/jul/30/buckingham-palace-zero-hours-contracts", "type": "article", "sectionId": "money", "sectionName": "Money", "webPublicationDate": "2013-07-30T20:23:25Z", "webTitle": "Buckingham Palace uses zero-hours contracts for summer staff", "webUrl": "https://www.theguardian.com/money/2013/jul/30/buckingham-palace-zero-hours-contracts", "apiUrl": "https://content.guardianapis.com/money/2013/jul/30/buckingham-palace-zero-hours-contracts", "isHosted": false, "pillarId": "pillar/lifestyle", "pillarName": "Lifestyle"}, {"id": "science/2013/jul/30/libidinal-politics-karl-marx", "type": "article", "sectionId": "science", "sectionName": "Science", "webPublicationDate": "2013-07-30T20:00:03Z", "webTitle": "Letters: Libidinal politics", "webUrl": "https://www.theguardian.com/science/2013/jul/30/libidinal-politics-karl-marx", "apiUrl": "https://content.guardianapis.com/science/2013/jul/30/libidinal-politics-karl-marx", "isHosted": false, "pillarId": "pillar/news", "pillarName": "News"}, {"id": "education/2013/jul/30/lessons-performance-related-pay", "type": "article", "sectionId": "education", "sectionName": "Education", "webPublicationDate": "2013-07-30T20:00:02Z", "webTitle": "Letters: Lessons in performance-related pay", "webUrl": "https://www.theguardian.com/education/2013/jul/30/lessons-performance-related-pay", "apiUrl": "https://content.guardianapis.com/education/2013/jul/30/lessons-performance-related-pay", "isHosted": false, "pillarId": "pillar/news", "pillarName": "News"}, {"id": "politics/2013/jul/30/iain-duncan-smith-agressive-welfare-philosophy", "type": "article", "sectionId": "politics", "sectionName": "Politics", "webPublicationDate": "2013-07-30T20:00:01Z", "webTitle": "Letters: Iain Duncan Smith's aggressive welfare philosophy", "webUrl": "https://www.theguardian.com/politics/2013/jul/30/iain-duncan-smith-agressive-welfare-philosophy", "apiUrl": "https://content.guardianapis.com/politics/2013/jul/30/iain-duncan-smith-agressive-welfare-philosophy", "isHosted": false, "pillarId": "pillar/news", "pillarName": "News"}, {"id": "commentisfree/2013/jul/30/workers-role-global-middle-class-revolutions", "type": "article", "sectionId": "commentisfree", "sectionName": "Opinion", "webPublicationDate": "2013-07-30T20:00:00Z", "webTitle": "Workers play a big role in these global 'middle-class' revolutions | Richard Seymour", "webUrl": "https://www.theguardian.com/commentisfree/2013/jul/30/workers-role-global-middle-class-revolutions", "apiUrl": "https://content.guardianapis.com/commentisfree/2013/jul/30/workers-role-global-middle-class-revolutions", "isHosted": false, "pillarId": "pillar/opinion", "pillarName": "Opinion"}, {"id": "politics/2013/jul/30/labour-fundamental-principles-new-leader", "type": "article", "sectionId": "politics", "sectionName": "Politics", "webPublicationDate": "2013-07-30T19:59:01Z", "webTitle": "Letters: Labour must assert fundamental principles \u2013 and get a new leader", "webUrl": "https://www.theguardian.com/politics/2013/jul/30/labour-fundamental-principles-new-leader", "apiUrl": "https://content.guardianapis.com/politics/2013/jul/30/labour-fundamental-principles-new-leader", "isHosted": false, "pillarId": "pillar/news", "pillarName": "News"}, {"id": "commentisfree/2013/jul/30/free-schools-academies-abroad-suffer-profit", "type": "article", "sectionId": "commentisfree", "sectionName": "Opinion", "webPublicationDate": "2013-07-30T19:45:00Z", "webTitle": "If free schools and academies open abroad, our children will suffer", "webUrl": "https://www.theguardian.com/commentisfree/2013/jul/30/free-schools-academies-abroad-suffer-profit", "apiUrl": "https://content.guardianapis.com/commentisfree/2013/jul/30/free-schools-academies-abroad-suffer-profit", "isHosted": false, "pillarId": "pillar/opinion", "pillarName": "Opinion"}, {"id": "uk-news/2013/jul/30/twittter-abuse-arrest-of-second-man", "type": "article", "sectionId": "uk-news", "sectionName": "UK news", "webPublicationDate": "2013-07-30T18:59:47Z", "webTitle": "Police in north-east England arrest man as part of Twitter abuse investigation", "webUrl": "https://www.theguardian.com/uk-news/2013/jul/30/twittter-abuse-arrest-of-second-man", "apiUrl": "https://content.guardianapis.com/uk-news/2013/jul/30/twittter-abuse-arrest-of-second-man", "isHosted": false, "pillarId": "pillar/news", "pillarName": "News"}, {"id": "business/2013/jul/30/banks-not-racially-discriminating-black-businesses", "type": "article", "sectionId": "business", "sectionName": "Business", "webPublicationDate": "2013-07-30T18:35:09Z", "webTitle": "Banks not racially discriminating against black businesses, says report", "webUrl": "https://www.theguardian.com/business/2013/jul/30/banks-not-racially-discriminating-black-businesses", "apiUrl": "https://content.guardianapis.com/business/2013/jul/30/banks-not-racially-discriminating-black-businesses", "isHosted": false, "pillarId": "pillar/news", "pillarName": "News"}, {"id": "commentisfree/2013/jul/30/generation-y-halfhearted-its-a-lie", "type": "article", "sectionId": "commentisfree", "sectionName": "Opinion", "webPublicationDate": "2013-07-30T18:12:42Z", "webTitle": "We are told Generation Y  is hard-hearted, but it's a lie | David Stuckler and Aaron Reeves", "webUrl": "https://www.theguardian.com/commentisfree/2013/jul/30/generation-y-halfhearted-its-a-lie", "apiUrl": "https://content.guardianapis.com/commentisfree/2013/jul/30/generation-y-halfhearted-its-a-lie", "isHosted": false, "pillarId": "pillar/opinion", "pillarName": "Opinion"}, {"id": "commentisfree/2013/jul/30/bedroom-tax-high-court-judgment-anomalies", "type": "article", "sectionId": "commentisfree", "sectionName": "Opinion", "webPublicationDate": "2013-07-30T17:22:48Z", "webTitle": "The bedroom tax court judgment has thrown up some puzzling anomalies | Jane Young", "webUrl": "https://www.theguardian.com/commentisfree/2013/jul/30/bedroom-tax-high-court-judgment-anomalies", "apiUrl": "https://content.guardianapis.com/commentisfree/2013/jul/30/bedroom-tax-high-court-judgment-anomalies", "isHosted": false, "pillarId": "pillar/opinion", "pillarName": "Opinion"}, {"id": "science/political-science/2013/jul/30/greens-science-policy", "type": "article", "sectionId": "science", "sectionName": "Science", "webPublicationDate": "2013-07-30T17:03:00Z", "webTitle": "The greens are far from \"finished\" | Andy Stirling", "webUrl": "https://www.theguardian.com/science/political-science/2013/jul/30/greens-science-policy", "apiUrl": "https://content.guardianapis.com/science/political-science/2013/jul/30/greens-science-policy", "isHosted": false, "pillarId": "pillar/news", "pillarName": "News"}, {"id": "uk-news/2013/jul/30/vicky-pryce-stripped-queen-honour", "type": "article", "sectionId": "uk-news", "sectionName": "UK news", "webPublicationDate": "2013-07-30T17:01:55Z", "webTitle": "Vicky Pryce stripped of Queen's honour", "webUrl": "https://www.theguardian.com/uk-news/2013/jul/30/vicky-pryce-stripped-queen-honour", "apiUrl": "https://content.guardianapis.com/uk-news/2013/jul/30/vicky-pryce-stripped-queen-honour", "isHosted": false, "pillarId": "pillar/news", "pillarName": "News"}, {"id": "science/political-science/2013/jul/30/green-movement-science", "type": "article", "sectionId": "science", "sectionName": "Science", "webPublicationDate": "2013-07-30T15:43:00Z", "webTitle": "The green movement is not pro-science | Robert Wilson", "webUrl": "https://www.theguardian.com/science/political-science/2013/jul/30/green-movement-science", "apiUrl": "https://content.guardianapis.com/science/political-science/2013/jul/30/green-movement-science", "isHosted": false, "pillarId": "pillar/news", "pillarName": "News"}, {"id": "environment/video/2013/jul/30/fracking-north-east-video", "type": "video", "sectionId": "environment", "sectionName": "Environment", "webPublicationDate": "2013-07-30T15:35:00Z", "webTitle": "Fracking can take place in 'desolate' north-east, says Tory peer - video", "webUrl": "https://www.theguardian.com/environment/video/2013/jul/30/fracking-north-east-video", "apiUrl": "https://content.guardianapis.com/environment/video/2013/jul/30/fracking-north-east-video", "isHosted": false, "pillarId": "pillar/news", "pillarName": "News"}, {"id": "world/shortcuts/2013/jul/30/italy-racism-cecile-kyenge-esterofilia", "type": "article", "sectionId": "world", "sectionName": "World news", "webPublicationDate": "2013-07-30T15:27:41Z", "webTitle": "Why is Italy still so racist?", "webUrl": "https://www.theguardian.com/world/shortcuts/2013/jul/30/italy-racism-cecile-kyenge-esterofilia", "apiUrl": "https://content.guardianapis.com/world/shortcuts/2013/jul/30/italy-racism-cecile-kyenge-esterofilia", "isHosted": false, "pillarId": "pillar/news", "pillarName": "News"}, {"id": "politics/2013/jul/30/david-cameron-music-playlist-g8-leaders", "type": "article", "sectionId": "politics", "sectionName": "Politics", "webPublicationDate": "2013-07-30T15:14:34Z", "webTitle": "David Cameron's music playlist for G8 leaders revealed", "webUrl": "https://www.theguardian.com/politics/2013/jul/30/david-cameron-music-playlist-g8-leaders", "apiUrl": "https://content.guardianapis.com/politics/2013/jul/30/david-cameron-music-playlist-g8-leaders", "isHosted": false, "pillarId": "pillar/news", "pillarName": "News"}, {"id": "world/shortcuts/2013/jul/30/pope-francis-mid-air-news-conference", "type": "article", "sectionId": "world", "sectionName": "World news", "webPublicationDate": "2013-07-30T14:36:30Z", "webTitle": "Pope Francis' mid-air news conference: a time-honoured political stunt", "webUrl": "https://www.theguardian.com/world/shortcuts/2013/jul/30/pope-francis-mid-air-news-conference", "apiUrl": "https://content.guardianapis.com/world/shortcuts/2013/jul/30/pope-francis-mid-air-news-conference", "isHosted": false, "pillarId": "pillar/news", "pillarName": "News"}, {"id": "local-government-network/2013/jul/30/funding-reductions-due-to-government-miscalculations", "type": "article", "sectionId": "guardian-professional", "sectionName": "Guardian Professional", "webPublicationDate": "2013-07-30T14:07:36Z", "webTitle": "Funding reductions due to government miscalculations: expert views", "webUrl": "https://www.theguardian.com/local-government-network/2013/jul/30/funding-reductions-due-to-government-miscalculations", "apiUrl": "https://content.guardianapis.com/local-government-network/2013/jul/30/funding-reductions-due-to-government-miscalculations", "isHosted": false, "pillarId": "pillar/news", "pillarName": "News"}, {"id": "technology/video/2013/jul/30/cyber-criminals-crime-mps-video", "type": "video", "sectionId": "technology", "sectionName": "Technology", "webPublicationDate": "2013-07-30T13:28:00Z", "webTitle": "Cyber criminals targeting UK, say MPs - video", "webUrl": "https://www.theguardian.com/technology/video/2013/jul/30/cyber-criminals-crime-mps-video", "apiUrl": "https://content.guardianapis.com/technology/video/2013/jul/30/cyber-criminals-crime-mps-video", "isHosted": false, "pillarId": "pillar/news", "pillarName": "News"}, {"id": "society/2013/jul/30/nhs-choices-website-patients-hospital-ratings", "type": "article", "sectionId": "society", "sectionName": "Society", "webPublicationDate": "2013-07-30T13:19:00Z", "webTitle": "Thirty-six NHS wards fail 'friends and family' test", "webUrl": "https://www.theguardian.com/society/2013/jul/30/nhs-choices-website-patients-hospital-ratings", "apiUrl": "https://content.guardianapis.com/society/2013/jul/30/nhs-choices-website-patients-hospital-ratings", "isHosted": false, "pillarId": "pillar/news", "pillarName": "News"}, {"id": "society/video/2013/jul/30/bedroom-tax-high-court-video", "type": "video", "sectionId": "society", "sectionName": "Society", "webPublicationDate": "2013-07-30T13:09:00Z", "webTitle": "Bedroom tax: high court judgment 'bitterly disappointing' - video", "webUrl": "https://www.theguardian.com/society/video/2013/jul/30/bedroom-tax-high-court-video", "apiUrl": "https://content.guardianapis.com/society/video/2013/jul/30/bedroom-tax-high-court-video", "isHosted": false, "pillarId": "pillar/news", "pillarName": "News"}, {"id": "politics/2013/jul/30/clegg-go-home-illegal-immigrants-campaign", "type": "article", "sectionId": "politics", "sectionName": "Politics", "webPublicationDate": "2013-07-30T12:56:16Z", "webTitle": "Clegg attacks 'go home' campaign against illegal immigrants", "webUrl": "https://www.theguardian.com/politics/2013/jul/30/clegg-go-home-illegal-immigrants-campaign", "apiUrl": "https://content.guardianapis.com/politics/2013/jul/30/clegg-go-home-illegal-immigrants-campaign", "isHosted": false, "pillarId": "pillar/news", "pillarName": "News"}, {"id": "global-development/2013/jul/30/eu-water-sanitation-sub-saharan-africa", "type": "article", "sectionId": "global-development", "sectionName": "Global development", "webPublicationDate": "2013-07-30T12:52:45Z", "webTitle": "Lords lambast EU water and sanitation projects in sub-Saharan Africa", "webUrl": "https://www.theguardian.com/global-development/2013/jul/30/eu-water-sanitation-sub-saharan-africa", "apiUrl": "https://content.guardianapis.com/global-development/2013/jul/30/eu-water-sanitation-sub-saharan-africa", "isHosted": false, "pillarId": "pillar/news", "pillarName": "News"}, {"id": "media/2013/jul/30/bbc-welfare-reforms-impartiality-john-humphrys", "type": "article", "sectionId": "media", "sectionName": "Media", "webPublicationDate": "2013-07-30T12:17:42Z", "webTitle": "BBC programme on welfare reforms broke impartiality and accuracy rules", "webUrl": "https://www.theguardian.com/media/2013/jul/30/bbc-welfare-reforms-impartiality-john-humphrys", "apiUrl": "https://content.guardianapis.com/media/2013/jul/30/bbc-welfare-reforms-impartiality-john-humphrys", "isHosted": false, "pillarId": "pillar/news", "pillarName": "News"}, {"id": "politics/2013/jul/30/twitter-mp-committee-threats-women", "type": "article", "sectionId": "technology", "sectionName": "Technology", "webPublicationDate": "2013-07-30T11:48:52Z", "webTitle": "Twitter chiefs to face MP committee over abusive threats to women", "webUrl": "https://www.theguardian.com/politics/2013/jul/30/twitter-mp-committee-threats-women", "apiUrl": "https://content.guardianapis.com/politics/2013/jul/30/twitter-mp-committee-threats-women", "isHosted": false, "pillarId": "pillar/news", "pillarName": "News"}, {"id": "uk-news/2013/jul/30/police-watchdog-cps-thomas-orchard-death", "type": "article", "sectionId": "uk-news", "sectionName": "UK news", "webPublicationDate": "2013-07-30T11:16:54Z", "webTitle": "Police watchdog submits evidence to CPS over death of man in custody", "webUrl": "https://www.theguardian.com/uk-news/2013/jul/30/police-watchdog-cps-thomas-orchard-death", "apiUrl": "https://content.guardianapis.com/uk-news/2013/jul/30/police-watchdog-cps-thomas-orchard-death", "isHosted": false, "pillarId": "pillar/news", "pillarName": "News"}, {"id": "politics/blog/2013/jul/30/politics-live-readers-edition", "type": "article", "sectionId": "politics", "sectionName": "Politics", "webPublicationDate": "2013-07-30T10:35:12Z", "webTitle": "Politics live: readers' edition - Tuesday 30 July", "webUrl": "https://www.theguardian.com/politics/blog/2013/jul/30/politics-live-readers-edition", "apiUrl": "https://content.guardianapis.com/politics/blog/2013/jul/30/politics-live-readers-edition", "isHosted": false, "pillarId": "pillar/news", "pillarName": "News"}, {"id": "society/2013/jul/30/bedroom-tax-legal-high-court", "type": "article", "sectionId": "society", "sectionName": "Society", "webPublicationDate": "2013-07-30T10:19:41Z", "webTitle": "Bedroom tax legal challenge dismissed by high court", "webUrl": "https://www.theguardian.com/society/2013/jul/30/bedroom-tax-legal-high-court", "apiUrl": "https://content.guardianapis.com/society/2013/jul/30/bedroom-tax-legal-high-court", "isHosted": false, "pillarId": "pillar/news", "pillarName": "News"}, {"id": "commentisfree/2013/jul/30/nhs-direct-111-helpline", "type": "article", "sectionId": "commentisfree", "sectionName": "Opinion", "webPublicationDate": "2013-07-30T09:29:57Z", "webTitle": "Do you use the NHS 111 helpline? | Open thread", "webUrl": "https://www.theguardian.com/commentisfree/2013/jul/30/nhs-direct-111-helpline", "apiUrl": "https://content.guardianapis.com/commentisfree/2013/jul/30/nhs-direct-111-helpline", "isHosted": false, "pillarId": "pillar/opinion", "pillarName": "Opinion"}, {"id": "uk-news/2013/jul/30/illegal-immigrant-poster-go-home", "type": "article", "sectionId": "uk-news", "sectionName": "UK news", "webPublicationDate": "2013-07-30T09:05:37Z", "webTitle": "Illegal immigrant 'go home' posters defended by Tory minister", "webUrl": "https://www.theguardian.com/uk-news/2013/jul/30/illegal-immigrant-poster-go-home", "apiUrl": "https://content.guardianapis.com/uk-news/2013/jul/30/illegal-immigrant-poster-go-home", "isHosted": false, "pillarId": "pillar/news", "pillarName": "News"}, {"id": "society/2013/jul/29/nhs-direct-pullout-111-helpline", "type": "article", "sectionId": "society", "sectionName": "Society", "webPublicationDate": "2013-07-30T07:45:00Z", "webTitle": "NHS Direct's withdrawal leaves 111 helpline on life support", "webUrl": "https://www.theguardian.com/society/2013/jul/29/nhs-direct-pullout-111-helpline", "apiUrl": "https://content.guardianapis.com/society/2013/jul/29/nhs-direct-pullout-111-helpline", "isHosted": false, "pillarId": "pillar/news", "pillarName": "News"}, {"id": "technology/2013/jul/30/police-death-threats-stella-creasy-twitter", "type": "article", "sectionId": "technology", "sectionName": "Technology", "webPublicationDate": "2013-07-30T07:38:00Z", "webTitle": "Police investigate new death threats against MP Stella Creasy", "webUrl": "https://www.theguardian.com/technology/2013/jul/30/police-death-threats-stella-creasy-twitter", "apiUrl": "https://content.guardianapis.com/technology/2013/jul/30/police-death-threats-stella-creasy-twitter", "isHosted": false, "pillarId": "pillar/news", "pillarName": "News"}, {"id": "law/2013/jul/30/criminals-cars-seized-legal-aid", "type": "article", "sectionId": "law", "sectionName": "Law", "webPublicationDate": "2013-07-30T05:30:00Z", "webTitle": "Convicted criminals can have cars seized under plan to cut legal aid bill", "webUrl": "https://www.theguardian.com/law/2013/jul/30/criminals-cars-seized-legal-aid", "apiUrl": "https://content.guardianapis.com/law/2013/jul/30/criminals-cars-seized-legal-aid", "isHosted": false, "pillarId": "pillar/news", "pillarName": "News"}, {"id": "commentisfree/2013/jul/30/pc-world-nhs-neither-what-got", "type": "article", "sectionId": "commentisfree", "sectionName": "Opinion", "webPublicationDate": "2013-07-30T04:00:01Z", "webTitle": "We won't need a PC World NHS if more of us go private | Melissa Kite", "webUrl": "https://www.theguardian.com/commentisfree/2013/jul/30/pc-world-nhs-neither-what-got", "apiUrl": "https://content.guardianapis.com/commentisfree/2013/jul/30/pc-world-nhs-neither-what-got", "isHosted": false, "pillarId": "pillar/opinion", "pillarName": "Opinion"}, {"id": "politics/2013/jul/29/adieu-comrade-delta-swp-sex-allegations", "type": "article", "sectionId": "politics", "sectionName": "Politics", "webPublicationDate": "2013-07-29T22:00:00Z", "webTitle": "Hugh Muir's diary: Adieu, Comrade Delta. The SWP leader at the centre of sex abuse allegations departs", "webUrl": "https://www.theguardian.com/politics/2013/jul/29/adieu-comrade-delta-swp-sex-allegations", "apiUrl": "https://content.guardianapis.com/politics/2013/jul/29/adieu-comrade-delta-swp-sex-allegations", "isHosted": false, "pillarId": "pillar/news", "pillarName": "News"}, {"id": "politics/2013/jul/29/david-cameron-lobbying-tricky-dilemma", "type": "article", "sectionId": "commentisfree", "sectionName": "Opinion", "webPublicationDate": "2013-07-29T20:30:00Z", "webTitle": "The lobbying row has given David Cameron a very tricky dilemma | Peter Bingle", "webUrl": "https://www.theguardian.com/politics/2013/jul/29/david-cameron-lobbying-tricky-dilemma", "apiUrl": "https://content.guardianapis.com/politics/2013/jul/29/david-cameron-lobbying-tricky-dilemma", "isHosted": false, "pillarId": "pillar/opinion", "pillarName": "Opinion"}, {"id": "world/2013/jul/29/population-counts-green-party", "type": "article", "sectionId": "world", "sectionName": "World news", "webPublicationDate": "2013-07-29T20:00:03Z", "webTitle": "Letters: Population counts", "webUrl": "https://www.theguardian.com/world/2013/jul/29/population-counts-green-party", "apiUrl": "https://content.guardianapis.com/world/2013/jul/29/population-counts-green-party", "isHosted": false, "pillarId": "pillar/news", "pillarName": "News"}, {"id": "money/2013/jul/29/employment-tribunal-fees", "type": "article", "sectionId": "money", "sectionName": "Money", "webPublicationDate": "2013-07-29T20:00:01Z", "webTitle": "Letters: Tribunal fees", "webUrl": "https://www.theguardian.com/money/2013/jul/29/employment-tribunal-fees", "apiUrl": "https://content.guardianapis.com/money/2013/jul/29/employment-tribunal-fees", "isHosted": false, "pillarId": "pillar/lifestyle", "pillarName": "Lifestyle"}, {"id": "politics/2013/jul/29/great-game-public-service-outsourcing", "type": "article", "sectionId": "politics", "sectionName": "Politics", "webPublicationDate": "2013-07-29T20:00:01Z", "webTitle": "Letters: The great game of public service outsourcing", "webUrl": "https://www.theguardian.com/politics/2013/jul/29/great-game-public-service-outsourcing", "apiUrl": "https://content.guardianapis.com/politics/2013/jul/29/great-game-public-service-outsourcing", "isHosted": false, "pillarId": "pillar/news", "pillarName": "News"}, {"id": "society/2013/jul/29/111-helpline-flaw-critics", "type": "article", "sectionId": "society", "sectionName": "Society", "webPublicationDate": "2013-07-29T19:13:00Z", "webTitle": "111 helpline has fundamental flaw, say critics", "webUrl": "https://www.theguardian.com/society/2013/jul/29/111-helpline-flaw-critics", "apiUrl": "https://content.guardianapis.com/society/2013/jul/29/111-helpline-flaw-critics", "isHosted": false, "pillarId": "pillar/news", "pillarName": "News"}, {"id": "law/2013/jul/29/jurors-jailed-contempt-court-internet", "type": "article", "sectionId": "law", "sectionName": "Law", "webPublicationDate": "2013-07-29T18:22:19Z", "webTitle": "Two jurors jailed for contempt of court after misusing internet during trials", "webUrl": "https://www.theguardian.com/law/2013/jul/29/jurors-jailed-contempt-court-internet", "apiUrl": "https://content.guardianapis.com/law/2013/jul/29/jurors-jailed-contempt-court-internet", "isHosted": false, "pillarId": "pillar/news", "pillarName": "News"}, {"id": "lifeandstyle/2013/jul/29/nhs-111-non-emergency-helpline", "type": "article", "sectionId": "lifeandstyle", "sectionName": "Life and style", "webPublicationDate": "2013-07-29T18:20:18Z", "webTitle": "NHS 111: 'We'll call you back'", "webUrl": "https://www.theguardian.com/lifeandstyle/2013/jul/29/nhs-111-non-emergency-helpline", "apiUrl": "https://content.guardianapis.com/lifeandstyle/2013/jul/29/nhs-111-non-emergency-helpline", "isHosted": false, "pillarId": "pillar/lifestyle", "pillarName": "Lifestyle"}, {"id": "business/2013/jul/29/serco-biggest-company-never-heard-of", "type": "article", "sectionId": "business", "sectionName": "Business", "webPublicationDate": "2013-07-29T18:03:04Z", "webTitle": "Serco: the company that is running Britain", "webUrl": "https://www.theguardian.com/business/2013/jul/29/serco-biggest-company-never-heard-of", "apiUrl": "https://content.guardianapis.com/business/2013/jul/29/serco-biggest-company-never-heard-of", "isHosted": false, "pillarId": "pillar/news", "pillarName": "News"}, {"id": "commentisfree/2013/jul/29/blacklisting-crossrail-erosion-workers-rights", "type": "article", "sectionId": "commentisfree", "sectionName": "Opinion", "webPublicationDate": "2013-07-29T17:35:00Z", "webTitle": "Blacklisting is getting easier, thanks to the erosion of workers' rights | Frances O'Grady", "webUrl": "https://www.theguardian.com/commentisfree/2013/jul/29/blacklisting-crossrail-erosion-workers-rights", "apiUrl": "https://content.guardianapis.com/commentisfree/2013/jul/29/blacklisting-crossrail-erosion-workers-rights", "isHosted": false, "pillarId": "pillar/opinion", "pillarName": "Opinion"}, {"id": "politics/2013/jul/29/tory-minister-charles-hendry-donor", "type": "article", "sectionId": "politics", "sectionName": "Politics", "webPublicationDate": "2013-07-29T17:34:57Z", "webTitle": "Former Tory minister Charles Hendry takes job with party donor", "webUrl": "https://www.theguardian.com/politics/2013/jul/29/tory-minister-charles-hendry-donor", "apiUrl": "https://content.guardianapis.com/politics/2013/jul/29/tory-minister-charles-hendry-donor", "isHosted": false, "pillarId": "pillar/news", "pillarName": "News"}, {"id": "uk-news/2013/jul/29/lib-dem-double-yellow-line-parking", "type": "article", "sectionId": "uk-news", "sectionName": "UK news", "webPublicationDate": "2013-07-29T16:49:05Z", "webTitle": "Lib Dem calls double yellow line parking idea unworkable", "webUrl": "https://www.theguardian.com/uk-news/2013/jul/29/lib-dem-double-yellow-line-parking", "apiUrl": "https://content.guardianapis.com/uk-news/2013/jul/29/lib-dem-double-yellow-line-parking", "isHosted": false, "pillarId": "pillar/news", "pillarName": "News"}]}}