{"response": {"status": "ok", "userTier": "developer", "total": 20378, "startIndex": 1, "pageSize": 50, "currentPage": 1, "pages": 408, "orderBy": "newest", "results": [{"id": "lifeandstyle/wordofmouth/2014/jul/30/how-to-make-perfect-coffee-granita", "type": "article", "sectionId": "food", "sectionName": "Food", "webPublicationDate": "2014-07-30T11:03:00Z", "webTitle": "How to make the perfect coffee granita", "webUrl": "https://www.theguardian.com/lifeandstyle/wordofmouth/2014/jul/30/how-to-make-perfect-coffee-granita", "apiUrl": "https://content.guardianapis.com/lifeandstyle/wordofmouth/2014/jul/30/how-to-make-perfect-coffee-granita", "isHosted": false, "pillarId": "pillar/lifestyle", "pillarName": "Lifestyle"}, {"id": "tv-and-radio/2014/jul/29/ross-burden", "type": "article", "sectionId": "tv-and-radio", "sectionName": "Television & radio", "webPublicationDate": "2014-07-29T17:40:17Z", "webTitle": "Ross Burden obituary", "webUrl": "https://www.theguardian.com/tv-and-radio/2014/jul/29/ross-burden", "apiUrl": "https://content.guardianapis.com/tv-and-radio/2014/jul/29/ross-burden", "isHosted": false, "pillarId": "pillar/arts", "pillarName": "Arts"}, {"id": "sustainable-business/tackling-food-waste-technology-refrigeration-packaging", "type": "article", "sectionId": "sustainable-business", "sectionName": "Guardian Sustainable Business", "webPublicationDate": "2014-07-29T16:30:00Z", "webTitle": "Tackling the food waste challenge with technology", "webUrl": "https://www.theguardian.com/sustainable-business/tackling-food-waste-technology-refrigeration-packaging", "apiUrl": "https://content.guardianapis.com/sustainable-business/tackling-food-waste-technology-refrigeration-packaging", "isHosted": false}, {"id": "lifeandstyle/shortcuts/2014/jul/29/tunnocks-teacakes-scotland-price-commonwealth-games-trampoline-costume", "type": "article", "sectionId": "food", "sectionName": "Food", "webPublicationDate": "2014-07-29T12:37:36Z", "webTitle": "Tunnock's teacakes: the nostalgic taste of Scotland, yours at a price", "webUrl": "https://www.theguardian.com/lifeandstyle/shortcuts/2014/jul/29/tunnocks-teacakes-scotland-price-commonwealth-games-trampoline-costume", "apiUrl": "https://content.guardianapis.com/lifeandstyle/shortcuts/2014/jul/29/tunnocks-teacakes-scotland-price-commonwealth-games-trampoline-costume", "isHosted": false, "pillarId": "pillar/lifestyle", "pillarName": "Lifestyle"}, {"id": "lifeandstyle/2014/jul/29/13-recipe-ideas-for-leftover-salad", "type": "article", "sectionId": "lifeandstyle", "sectionName": "Life and style", "webPublicationDate": "2014-07-29T12:29:11Z", "webTitle": "13 recipe ideas for leftover salad", "webUrl": "https://www.theguardian.com/lifeandstyle/2014/jul/29/13-recipe-ideas-for-leftover-salad", "apiUrl": "https://content.guardianapis.com/lifeandstyle/2014/jul/29/13-recipe-ideas-for-leftover-salad", "isHosted": false, "pillarId": "pillar/lifestyle", "pillarName": "Lifestyle"}, {"id": "lifeandstyle/wordofmouth/2014/jul/29/why-some-people-love-earthy-flavours", "type": "article", "sectionId": "lifeandstyle", "sectionName": "Life and style", "webPublicationDate": "2014-07-29T11:17:18Z", "webTitle": "Why do some people love 'earthy' flavours in food?", "webUrl": "https://www.theguardian.com/lifeandstyle/wordofmouth/2014/jul/29/why-some-people-love-earthy-flavours", "apiUrl": "https://content.guardianapis.com/lifeandstyle/wordofmouth/2014/jul/29/why-some-people-love-earthy-flavours", "isHosted": false, "pillarId": "pillar/lifestyle", "pillarName": "Lifestyle"}, {"id": "world/2014/jul/28/scunthorpe-llangefni-chicken-fsa-inspection-jeremy-hunt", "type": "article", "sectionId": "world", "sectionName": "World news", "webPublicationDate": "2014-07-28T19:39:24Z", "webTitle": "FSA inspects chicken abattoirs at request of health secretary", "webUrl": "https://www.theguardian.com/world/2014/jul/28/scunthorpe-llangefni-chicken-fsa-inspection-jeremy-hunt", "apiUrl": "https://content.guardianapis.com/world/2014/jul/28/scunthorpe-llangefni-chicken-fsa-inspection-jeremy-hunt", "isHosted": false, "pillarId": "pillar/news", "pillarName": "News"}, {"id": "world/2014/jul/28/rooibos-tea-trademark-awarded-south-africa-deal-eu", "type": "article", "sectionId": "world", "sectionName": "World news", "webPublicationDate": "2014-07-28T15:43:06Z", "webTitle": "Rooibos tea trademark awarded to South Africa in deal with EU", "webUrl": "https://www.theguardian.com/world/2014/jul/28/rooibos-tea-trademark-awarded-south-africa-deal-eu", "apiUrl": "https://content.guardianapis.com/world/2014/jul/28/rooibos-tea-trademark-awarded-south-africa-deal-eu", "isHosted": false, "pillarId": "pillar/news", "pillarName": "News"}, {"id": "commentisfree/2014/jul/28/chicken-regulations-obama-poultry-industry", "type": "article", "sectionId": "commentisfree", "sectionName": "Opinion", "webPublicationDate": "2014-07-28T10:45:10Z", "webTitle": "Your chicken is about to get more full of feces | Monica Potts", "webUrl": "https://www.theguardian.com/commentisfree/2014/jul/28/chicken-regulations-obama-poultry-industry", "apiUrl": "https://content.guardianapis.com/commentisfree/2014/jul/28/chicken-regulations-obama-poultry-industry", "isHosted": false, "pillarId": "pillar/opinion", "pillarName": "Opinion"}, {"id": "lifeandstyle/wordofmouth/2014/jul/28/great-meals-cooking-for-one-treat-yourself-recipes", "type": "article", "sectionId": "lifeandstyle", "sectionName": "Life and style", "webPublicationDate": "2014-07-28T10:23:00Z", "webTitle": "Great meals for one \u2013 go on, treat yourself", "webUrl": "https://www.theguardian.com/lifeandstyle/wordofmouth/2014/jul/28/great-meals-cooking-for-one-treat-yourself-recipes", "apiUrl": "https://content.guardianapis.com/lifeandstyle/wordofmouth/2014/jul/28/great-meals-cooking-for-one-treat-yourself-recipes", "isHosted": false, "pillarId": "pillar/lifestyle", "pillarName": "Lifestyle"}, {"id": "travel/2014/jul/28/top-10-dive-bars-new-york-city-readers-tips", "type": "article", "sectionId": "travel", "sectionName": "Travel", "webPublicationDate": "2014-07-28T06:00:05Z", "webTitle": "Top 10 dive bars in New York City: readers\u2019 tips", "webUrl": "https://www.theguardian.com/travel/2014/jul/28/top-10-dive-bars-new-york-city-readers-tips", "apiUrl": "https://content.guardianapis.com/travel/2014/jul/28/top-10-dive-bars-new-york-city-readers-tips", "isHosted": false, "pillarId": "pillar/lifestyle", "pillarName": "Lifestyle"}, {"id": "money/2014/jul/28/tricks-restaurant-menu-boost-profits", "type": "article", "sectionId": "money", "sectionName": "Money", "webPublicationDate": "2014-07-28T06:00:00Z", "webTitle": "Sneaky tricks of the restaurant trade and how to avoid forking out too much", "webUrl": "https://www.theguardian.com/money/2014/jul/28/tricks-restaurant-menu-boost-profits", "apiUrl": "https://content.guardianapis.com/money/2014/jul/28/tricks-restaurant-menu-boost-profits", "isHosted": false, "pillarId": "pillar/lifestyle", "pillarName": "Lifestyle"}, {"id": "travel/2014/jul/27/10-best-restaurants-palma-de-mallorca-on-a-budget", "type": "article", "sectionId": "travel", "sectionName": "Travel", "webPublicationDate": "2014-07-27T06:00:05Z", "webTitle": "10 of the best restaurants in Palma de Mallorca \u2013 on a budget", "webUrl": "https://www.theguardian.com/travel/2014/jul/27/10-best-restaurants-palma-de-mallorca-on-a-budget", "apiUrl": "https://content.guardianapis.com/travel/2014/jul/27/10-best-restaurants-palma-de-mallorca-on-a-budget", "isHosted": false, "pillarId": "pillar/lifestyle", "pillarName": "Lifestyle"}, {"id": "lifeandstyle/2014/jul/27/restaurant-review-bettys-harrogate", "type": "article", "sectionId": "food", "sectionName": "Food", "webPublicationDate": "2014-07-27T05:00:03Z", "webTitle": "Bettys: restaurant review", "webUrl": "https://www.theguardian.com/lifeandstyle/2014/jul/27/restaurant-review-bettys-harrogate", "apiUrl": "https://content.guardianapis.com/lifeandstyle/2014/jul/27/restaurant-review-bettys-harrogate", "isHosted": false, "pillarId": "pillar/lifestyle", "pillarName": "Lifestyle"}, {"id": "lifeandstyle/2014/jul/27/white-wines-rhone-valley-david-williams", "type": "article", "sectionId": "food", "sectionName": "Food", "webPublicationDate": "2014-07-27T04:59:03Z", "webTitle": "White wines from the Rh\u00f4ne Valley | David Williams", "webUrl": "https://www.theguardian.com/lifeandstyle/2014/jul/27/white-wines-rhone-valley-david-williams", "apiUrl": "https://content.guardianapis.com/lifeandstyle/2014/jul/27/white-wines-rhone-valley-david-williams", "isHosted": false, "pillarId": "pillar/lifestyle", "pillarName": "Lifestyle"}, {"id": "lifeandstyle/2014/jul/26/lettuce-salad-recipes-10-best", "type": "article", "sectionId": "food", "sectionName": "Food", "webPublicationDate": "2014-07-26T09:15:00Z", "webTitle": "Our 10 best lettuce recipes", "webUrl": "https://www.theguardian.com/lifeandstyle/2014/jul/26/lettuce-salad-recipes-10-best", "apiUrl": "https://content.guardianapis.com/lifeandstyle/2014/jul/26/lettuce-salad-recipes-10-best", "isHosted": false, "pillarId": "pillar/lifestyle", "pillarName": "Lifestyle"}, {"id": "lifeandstyle/2014/jul/26/oddbins-new-wine-range-fiona-beckett", "type": "article", "sectionId": "food", "sectionName": "Food", "webPublicationDate": "2014-07-26T08:00:00Z", "webTitle": "Wine: Oddbins' brave new world", "webUrl": "https://www.theguardian.com/lifeandstyle/2014/jul/26/oddbins-new-wine-range-fiona-beckett", "apiUrl": "https://content.guardianapis.com/lifeandstyle/2014/jul/26/oddbins-new-wine-range-fiona-beckett", "isHosted": false, "pillarId": "pillar/lifestyle", "pillarName": "Lifestyle"}, {"id": "lifeandstyle/2014/jul/26/thames-american-signal-crayfish-bob-behind-the-scenes", "type": "article", "sectionId": "food", "sectionName": "Food", "webPublicationDate": "2014-07-26T07:00:00Z", "webTitle": "Crayfish Bob's tasty solution to Thames invasion | Behind the scenes", "webUrl": "https://www.theguardian.com/lifeandstyle/2014/jul/26/thames-american-signal-crayfish-bob-behind-the-scenes", "apiUrl": "https://content.guardianapis.com/lifeandstyle/2014/jul/26/thames-american-signal-crayfish-bob-behind-the-scenes", "isHosted": false, "pillarId": "pillar/lifestyle", "pillarName": "Lifestyle"}, {"id": "travel/2014/jul/26/tickton-grange-beverley-east-yorkshire-hotel-review", "type": "article", "sectionId": "travel", "sectionName": "Travel", "webPublicationDate": "2014-07-26T06:00:07Z", "webTitle": "Tickton Grange, Beverley, East Yorkshire: hotel review", "webUrl": "https://www.theguardian.com/travel/2014/jul/26/tickton-grange-beverley-east-yorkshire-hotel-review", "apiUrl": "https://content.guardianapis.com/travel/2014/jul/26/tickton-grange-beverley-east-yorkshire-hotel-review", "isHosted": false, "pillarId": "pillar/lifestyle", "pillarName": "Lifestyle"}, {"id": "money/2014/jul/26/uk-cities-food-prices-survey", "type": "article", "sectionId": "money", "sectionName": "Money", "webPublicationDate": "2014-07-26T06:00:00Z", "webTitle": "Why the UK's food prices aren't so high after all", "webUrl": "https://www.theguardian.com/money/2014/jul/26/uk-cities-food-prices-survey", "apiUrl": "https://content.guardianapis.com/money/2014/jul/26/uk-cities-food-prices-survey", "isHosted": false, "pillarId": "pillar/lifestyle", "pillarName": "Lifestyle"}, {"id": "lifeandstyle/2014/jul/26/ginger-ice-cream-cone-recipes-ruby-tandoh", "type": "article", "sectionId": "food", "sectionName": "Food", "webPublicationDate": "2014-07-26T06:00:00Z", "webTitle": "Ginger ice-cream and chocolate cones for a summer heatwave | Ruby bakes", "webUrl": "https://www.theguardian.com/lifeandstyle/2014/jul/26/ginger-ice-cream-cone-recipes-ruby-tandoh", "apiUrl": "https://content.guardianapis.com/lifeandstyle/2014/jul/26/ginger-ice-cream-cone-recipes-ruby-tandoh", "isHosted": false, "pillarId": "pillar/lifestyle", "pillarName": "Lifestyle"}, {"id": "lifeandstyle/2014/jul/26/tomato-slow-roasted-soup-recipe-swap-felicity-cloake", "type": "article", "sectionId": "food", "sectionName": "Food", "webPublicationDate": "2014-07-26T05:59:00Z", "webTitle": "Readers' recipe swap: Tomatoes | Felicity Cloake", "webUrl": "https://www.theguardian.com/lifeandstyle/2014/jul/26/tomato-slow-roasted-soup-recipe-swap-felicity-cloake", "apiUrl": "https://content.guardianapis.com/lifeandstyle/2014/jul/26/tomato-slow-roasted-soup-recipe-swap-felicity-cloake", "isHosted": false, "pillarId": "pillar/lifestyle", "pillarName": "Lifestyle"}, {"id": "lifeandstyle/2014/jul/25/dysart-petersham-restaurant-review-oloughlin", "type": "article", "sectionId": "lifeandstyle", "sectionName": "Life and style", "webPublicationDate": "2014-07-25T21:00:00Z", "webTitle": "The Dysart, Petersham, Surrey \u2013 restaurant review", "webUrl": "https://www.theguardian.com/lifeandstyle/2014/jul/25/dysart-petersham-restaurant-review-oloughlin", "apiUrl": "https://content.guardianapis.com/lifeandstyle/2014/jul/25/dysart-petersham-restaurant-review-oloughlin", "isHosted": false, "pillarId": "pillar/lifestyle", "pillarName": "Lifestyle"}, {"id": "lifeandstyle/2014/jul/25/nectarine-recipes-mary-ellen-mctague", "type": "article", "sectionId": "lifeandstyle", "sectionName": "Life and style", "webPublicationDate": "2014-07-25T20:00:00Z", "webTitle": "Peachy keen: Mary-Ellen McTague's nectarine recipes", "webUrl": "https://www.theguardian.com/lifeandstyle/2014/jul/25/nectarine-recipes-mary-ellen-mctague", "apiUrl": "https://content.guardianapis.com/lifeandstyle/2014/jul/25/nectarine-recipes-mary-ellen-mctague", "isHosted": false, "pillarId": "pillar/lifestyle", "pillarName": "Lifestyle"}, {"id": "business/2014/jul/25/chicken-factories-inspected-fsa-tesco-reveals-surprise-spot-check", "type": "article", "sectionId": "world", "sectionName": "World news", "webPublicationDate": "2014-07-25T19:23:39Z", "webTitle": "Chicken factories inspected by FSA as Tesco reveals surprise spot check", "webUrl": "https://www.theguardian.com/business/2014/jul/25/chicken-factories-inspected-fsa-tesco-reveals-surprise-spot-check", "apiUrl": "https://content.guardianapis.com/business/2014/jul/25/chicken-factories-inspected-fsa-tesco-reveals-surprise-spot-check", "isHosted": false, "pillarId": "pillar/news", "pillarName": "News"}, {"id": "lifeandstyle/wordofmouth/2014/jul/25/how-to-eat-crisps", "type": "article", "sectionId": "food", "sectionName": "Food", "webPublicationDate": "2014-07-25T13:15:00Z", "webTitle": "How to eat: crisps", "webUrl": "https://www.theguardian.com/lifeandstyle/wordofmouth/2014/jul/25/how-to-eat-crisps", "apiUrl": "https://content.guardianapis.com/lifeandstyle/wordofmouth/2014/jul/25/how-to-eat-crisps", "isHosted": false, "pillarId": "pillar/lifestyle", "pillarName": "Lifestyle"}, {"id": "lifeandstyle/2014/jul/25/simon-hopkinson-final-meal-poached-eggs-last-bites", "type": "article", "sectionId": "food", "sectionName": "Food", "webPublicationDate": "2014-07-25T11:30:00Z", "webTitle": "Simon Hopkinson | Last bites", "webUrl": "https://www.theguardian.com/lifeandstyle/2014/jul/25/simon-hopkinson-final-meal-poached-eggs-last-bites", "apiUrl": "https://content.guardianapis.com/lifeandstyle/2014/jul/25/simon-hopkinson-final-meal-poached-eggs-last-bites", "isHosted": false, "pillarId": "pillar/lifestyle", "pillarName": "Lifestyle"}, {"id": "lifeandstyle/2014/jul/25/tom-kerridge-sunday-lunch-recipes-north-west-england-britain-on-a-plate", "type": "article", "sectionId": "global", "sectionName": "Global", "webPublicationDate": "2014-07-25T11:30:00Z", "webTitle": "A modern Sunday lunch inspired by north-west England's classic dishes| Britain on a plate", "webUrl": "https://www.theguardian.com/lifeandstyle/2014/jul/25/tom-kerridge-sunday-lunch-recipes-north-west-england-britain-on-a-plate", "apiUrl": "https://content.guardianapis.com/lifeandstyle/2014/jul/25/tom-kerridge-sunday-lunch-recipes-north-west-england-britain-on-a-plate", "isHosted": false}, {"id": "lifeandstyle/2014/jul/25/drinks-how-to-choose-value-quality-wine-party-christian-holthausen", "type": "article", "sectionId": "food", "sectionName": "Food", "webPublicationDate": "2014-07-25T11:30:00Z", "webTitle": "How to choose the best value, good-quality party wines| Drinks aloud", "webUrl": "https://www.theguardian.com/lifeandstyle/2014/jul/25/drinks-how-to-choose-value-quality-wine-party-christian-holthausen", "apiUrl": "https://content.guardianapis.com/lifeandstyle/2014/jul/25/drinks-how-to-choose-value-quality-wine-party-christian-holthausen", "isHosted": false, "pillarId": "pillar/lifestyle", "pillarName": "Lifestyle"}, {"id": "lifeandstyle/2014/jul/25/how-to-make-salad-dressing-recipes-henry-dimbleby", "type": "article", "sectionId": "lifeandstyle", "sectionName": "Life and style", "webPublicationDate": "2014-07-25T11:29:00Z", "webTitle": "How to make a quick and easy salad dressing | Back to basics", "webUrl": "https://www.theguardian.com/lifeandstyle/2014/jul/25/how-to-make-salad-dressing-recipes-henry-dimbleby", "apiUrl": "https://content.guardianapis.com/lifeandstyle/2014/jul/25/how-to-make-salad-dressing-recipes-henry-dimbleby", "isHosted": false, "pillarId": "pillar/lifestyle", "pillarName": "Lifestyle"}, {"id": "lifeandstyle/2014/jul/25/lunch-box-office-work-toast-pitta-bread-recipes", "type": "article", "sectionId": "food", "sectionName": "Food", "webPublicationDate": "2014-07-25T11:00:00Z", "webTitle": "The sandwich is toast: alternative lunchbox ideas | The Lunch Box", "webUrl": "https://www.theguardian.com/lifeandstyle/2014/jul/25/lunch-box-office-work-toast-pitta-bread-recipes", "apiUrl": "https://content.guardianapis.com/lifeandstyle/2014/jul/25/lunch-box-office-work-toast-pitta-bread-recipes", "isHosted": false, "pillarId": "pillar/lifestyle", "pillarName": "Lifestyle"}, {"id": "commentisfree/2014/jul/25/culinary-messiahs-obnoxious-dining-out", "type": "article", "sectionId": "commentisfree", "sectionName": "Opinion", "webPublicationDate": "2014-07-25T10:15:28Z", "webTitle": "In this age of culinary Messiahs, we're rubes who need to be taught how to eat | Elizabeth Gunnison Dunn", "webUrl": "https://www.theguardian.com/commentisfree/2014/jul/25/culinary-messiahs-obnoxious-dining-out", "apiUrl": "https://content.guardianapis.com/commentisfree/2014/jul/25/culinary-messiahs-obnoxious-dining-out", "isHosted": false, "pillarId": "pillar/opinion", "pillarName": "Opinion"}, {"id": "lifeandstyle/2014/jul/25/how-tom-make-peach-melba-ice-lollies", "type": "article", "sectionId": "food", "sectionName": "Food", "webPublicationDate": "2014-07-25T05:00:00Z", "webTitle": "How to make peach melba ice lollies \u2013 recipe", "webUrl": "https://www.theguardian.com/lifeandstyle/2014/jul/25/how-tom-make-peach-melba-ice-lollies", "apiUrl": "https://content.guardianapis.com/lifeandstyle/2014/jul/25/how-tom-make-peach-melba-ice-lollies", "isHosted": false, "pillarId": "pillar/lifestyle", "pillarName": "Lifestyle"}, {"id": "world/2014/jul/24/health-secretary-demands-investigation-chicken-industry", "type": "article", "sectionId": "world", "sectionName": "World news", "webPublicationDate": "2014-07-24T19:29:26Z", "webTitle": "Jeremy Hunt demands urgent inspections of chicken factories", "webUrl": "https://www.theguardian.com/world/2014/jul/24/health-secretary-demands-investigation-chicken-industry", "apiUrl": "https://content.guardianapis.com/world/2014/jul/24/health-secretary-demands-investigation-chicken-industry", "isHosted": false, "pillarId": "pillar/news", "pillarName": "News"}, {"id": "world/2014/jul/24/scandal-profits-come-before-food-safety", "type": "article", "sectionId": "world", "sectionName": "World news", "webPublicationDate": "2014-07-24T18:36:24Z", "webTitle": "It\u2019s a scandal that profits come before food safety | @guardianletters", "webUrl": "https://www.theguardian.com/world/2014/jul/24/scandal-profits-come-before-food-safety", "apiUrl": "https://content.guardianapis.com/world/2014/jul/24/scandal-profits-come-before-food-safety", "isHosted": false, "pillarId": "pillar/news", "pillarName": "News"}, {"id": "lifeandstyle/2014/jul/24/sustainable-blog-of-the-week-hungry-city-hippy", "type": "article", "sectionId": "lifeandstyle", "sectionName": "Life and style", "webPublicationDate": "2014-07-24T15:09:10Z", "webTitle": "Sustainable blog of the week: Hungry City Hippy", "webUrl": "https://www.theguardian.com/lifeandstyle/2014/jul/24/sustainable-blog-of-the-week-hungry-city-hippy", "apiUrl": "https://content.guardianapis.com/lifeandstyle/2014/jul/24/sustainable-blog-of-the-week-hungry-city-hippy", "isHosted": false, "pillarId": "pillar/lifestyle", "pillarName": "Lifestyle"}, {"id": "world/2014/jul/24/food-standards-agency-investigation-poultry-industry", "type": "article", "sectionId": "global", "sectionName": "Global", "webPublicationDate": "2014-07-24T13:35:00Z", "webTitle": "Food Standards Agency investigates poultry factories", "webUrl": "https://www.theguardian.com/world/2014/jul/24/food-standards-agency-investigation-poultry-industry", "apiUrl": "https://content.guardianapis.com/world/2014/jul/24/food-standards-agency-investigation-poultry-industry", "isHosted": false}, {"id": "lifeandstyle/wordofmouth/2014/jul/24/home-sweet-home-lifesize-hansel-and-gretel-house-childrens-party", "type": "article", "sectionId": "lifeandstyle", "sectionName": "Life and style", "webPublicationDate": "2014-07-24T11:47:34Z", "webTitle": "Home sweet home: how to make a lifesize Hansel and Gretel house", "webUrl": "https://www.theguardian.com/lifeandstyle/wordofmouth/2014/jul/24/home-sweet-home-lifesize-hansel-and-gretel-house-childrens-party", "apiUrl": "https://content.guardianapis.com/lifeandstyle/wordofmouth/2014/jul/24/home-sweet-home-lifesize-hansel-and-gretel-house-childrens-party", "isHosted": false, "pillarId": "pillar/lifestyle", "pillarName": "Lifestyle"}, {"id": "lifeandstyle/2014/jul/24/deep-fried-pizza-just-like-make-in-naples", "type": "article", "sectionId": "food", "sectionName": "Food", "webPublicationDate": "2014-07-24T07:00:00Z", "webTitle": "Deep-fried pizza \u2013 just like they make it in Naples", "webUrl": "https://www.theguardian.com/lifeandstyle/2014/jul/24/deep-fried-pizza-just-like-make-in-naples", "apiUrl": "https://content.guardianapis.com/lifeandstyle/2014/jul/24/deep-fried-pizza-just-like-make-in-naples", "isHosted": false, "pillarId": "pillar/lifestyle", "pillarName": "Lifestyle"}, {"id": "commentisfree/2014/jul/24/canberra-is-a-city-of-risk-takers-and-thinkers-not-just-a-backdrop-for-politics", "type": "article", "sectionId": "commentisfree", "sectionName": "Opinion", "webPublicationDate": "2014-07-24T00:32:45Z", "webTitle": "Canberra is a city of risk takers and thinkers, not just a backdrop for politics | Ginger Gorman", "webUrl": "https://www.theguardian.com/commentisfree/2014/jul/24/canberra-is-a-city-of-risk-takers-and-thinkers-not-just-a-backdrop-for-politics", "apiUrl": "https://content.guardianapis.com/commentisfree/2014/jul/24/canberra-is-a-city-of-risk-takers-and-thinkers-not-just-a-backdrop-for-politics", "isHosted": false, "pillarId": "pillar/opinion", "pillarName": "Opinion"}, {"id": "commentisfree/2014/jul/23/food-safety-cost-of-cost-cutting", "type": "article", "sectionId": "commentisfree", "sectionName": "Opinion", "webPublicationDate": "2014-07-23T18:31:42Z", "webTitle": "The Guardian view on the cost of cost-cutting", "webUrl": "https://www.theguardian.com/commentisfree/2014/jul/23/food-safety-cost-of-cost-cutting", "apiUrl": "https://content.guardianapis.com/commentisfree/2014/jul/23/food-safety-cost-of-cost-cutting", "isHosted": false, "pillarId": "pillar/opinion", "pillarName": "Opinion"}, {"id": "society/2014/jul/23/-sp-food-poisoning-scandal-how-chicken-spreads-campylobacter", "type": "article", "sectionId": "society", "sectionName": "Society", "webPublicationDate": "2014-07-23T14:49:22Z", "webTitle": "Food poisoning scandal: how chicken spreads campylobacter", "webUrl": "https://www.theguardian.com/society/2014/jul/23/-sp-food-poisoning-scandal-how-chicken-spreads-campylobacter", "apiUrl": "https://content.guardianapis.com/society/2014/jul/23/-sp-food-poisoning-scandal-how-chicken-spreads-campylobacter", "isHosted": false, "pillarId": "pillar/news", "pillarName": "News"}, {"id": "world/2014/jul/23/-sp-poultry-processors-retailers-respond-campylobacter-claims", "type": "article", "sectionId": "world", "sectionName": "World news", "webPublicationDate": "2014-07-23T14:48:25Z", "webTitle": "Poultry processors and retailers respond to the campylobacter claims", "webUrl": "https://www.theguardian.com/world/2014/jul/23/-sp-poultry-processors-retailers-respond-campylobacter-claims", "apiUrl": "https://content.guardianapis.com/world/2014/jul/23/-sp-poultry-processors-retailers-respond-campylobacter-claims", "isHosted": false, "pillarId": "pillar/news", "pillarName": "News"}, {"id": "world/2014/jul/23/-sp-revealed-dirty-secret-uk-poultry-industry-chicken-campylobacter", "type": "article", "sectionId": "world", "sectionName": "World news", "webPublicationDate": "2014-07-23T14:47:08Z", "webTitle": "Revealed: the dirty secret of the UK\u2019s poultry industry", "webUrl": "https://www.theguardian.com/world/2014/jul/23/-sp-revealed-dirty-secret-uk-poultry-industry-chicken-campylobacter", "apiUrl": "https://content.guardianapis.com/world/2014/jul/23/-sp-revealed-dirty-secret-uk-poultry-industry-chicken-campylobacter", "isHosted": false, "pillarId": "pillar/news", "pillarName": "News"}, {"id": "commentisfree/2014/jul/23/whats-beef-chicken-meat-eaters-health-environment", "type": "article", "sectionId": "commentisfree", "sectionName": "Opinion", "webPublicationDate": "2014-07-23T13:49:33Z", "webTitle": "What\u2019s the beef with chicken? | Richard Young", "webUrl": "https://www.theguardian.com/commentisfree/2014/jul/23/whats-beef-chicken-meat-eaters-health-environment", "apiUrl": "https://content.guardianapis.com/commentisfree/2014/jul/23/whats-beef-chicken-meat-eaters-health-environment", "isHosted": false, "pillarId": "pillar/opinion", "pillarName": "Opinion"}, {"id": "business/2014/jul/23/tetley-pg-tips-teabags-advert-claims-pyramid-round-asa", "type": "article", "sectionId": "business", "sectionName": "Business", "webPublicationDate": "2014-07-23T12:29:01Z", "webTitle": "PG Tips triumphs as ASA rules pyramid teabags make better cuppa", "webUrl": "https://www.theguardian.com/business/2014/jul/23/tetley-pg-tips-teabags-advert-claims-pyramid-round-asa", "apiUrl": "https://content.guardianapis.com/business/2014/jul/23/tetley-pg-tips-teabags-advert-claims-pyramid-round-asa", "isHosted": false, "pillarId": "pillar/news", "pillarName": "News"}, {"id": "lifeandstyle/2014/jul/22/20-recipe-ideas-for-leftover-cucumber", "type": "article", "sectionId": "lifeandstyle", "sectionName": "Life and style", "webPublicationDate": "2014-07-22T13:28:16Z", "webTitle": "20 recipe ideas for leftover cucumber", "webUrl": "https://www.theguardian.com/lifeandstyle/2014/jul/22/20-recipe-ideas-for-leftover-cucumber", "apiUrl": "https://content.guardianapis.com/lifeandstyle/2014/jul/22/20-recipe-ideas-for-leftover-cucumber", "isHosted": false, "pillarId": "pillar/lifestyle", "pillarName": "Lifestyle"}, {"id": "lifeandstyle/wordofmouth/2014/jul/22/chefs-gastro-porn-films-food-bradley-cooper", "type": "article", "sectionId": "lifeandstyle", "sectionName": "Life and style", "webPublicationDate": "2014-07-22T13:07:46Z", "webTitle": "Two Chefs and beyond \u2013 how gastro porn hit the big screen", "webUrl": "https://www.theguardian.com/lifeandstyle/wordofmouth/2014/jul/22/chefs-gastro-porn-films-food-bradley-cooper", "apiUrl": "https://content.guardianapis.com/lifeandstyle/wordofmouth/2014/jul/22/chefs-gastro-porn-films-food-bradley-cooper", "isHosted": false, "pillarId": "pillar/lifestyle", "pillarName": "Lifestyle"}, {"id": "travel/2014/jul/22/three-days-in-the-coromandel-new-zealand-travel-guide", "type": "article", "sectionId": "travel", "sectionName": "Travel", "webPublicationDate": "2014-07-22T00:43:48Z", "webTitle": "Three days in the Coromandel, New Zealand \u2013 travel guide", "webUrl": "https://www.theguardian.com/travel/2014/jul/22/three-days-in-the-coromandel-new-zealand-travel-guide", "apiUrl": "https://content.guardianapis.com/travel/2014/jul/22/three-days-in-the-coromandel-new-zealand-travel-guide", "isHosted": false, "pillarId": "pillar/lifestyle", "pillarName": "Lifestyle"}, {"id": "environment/2014/jul/21/giving-up-beef-reduce-carbon-footprint-more-than-cars", "type": "article", "sectionId": "environment", "sectionName": "Environment", "webPublicationDate": "2014-07-21T21:00:05Z", "webTitle": "Giving up beef will reduce carbon footprint more than cars, says expert", "webUrl": "https://www.theguardian.com/environment/2014/jul/21/giving-up-beef-reduce-carbon-footprint-more-than-cars", "apiUrl": "https://content.guardianapis.com/environment/2014/jul/21/giving-up-beef-reduce-carbon-footprint-more-than-cars", "isHosted": false, "pillarId": "pillar/news", "pillarName": "News"}]}}