{"response": {"status": "ok", "userTier": "developer", "total": 131017, "startIndex": 1, "pageSize": 50, "currentPage": 1, "pages": 2621, "orderBy": "newest", "results": [{"id": "world/2014/jul/31/nato-unprepared-threats-from-russia", "type": "article", "sectionId": "world", "sectionName": "World news", "webPublicationDate": "2014-07-30T23:30:00Z", "webTitle": "Nato unprepared for potential threats from Russia, say MPs", "webUrl": "https://www.theguardian.com/world/2014/jul/31/nato-unprepared-threats-from-russia", "apiUrl": "https://content.guardianapis.com/world/2014/jul/31/nato-unprepared-threats-from-russia", "isHosted": false, "pillarId": "pillar/news", "pillarName": "News"}, {"id": "money/2014/jul/31/homebuyers-72k-deposit-if-tories-win", "type": "article", "sectionId": "money", "sectionName": "Money", "webPublicationDate": "2014-07-30T23:01:00Z", "webTitle": "Homebuyers will need a \u00a372,000 deposit if Tories win, says Labour", "webUrl": "https://www.theguardian.com/money/2014/jul/31/homebuyers-72k-deposit-if-tories-win", "apiUrl": "https://content.guardianapis.com/money/2014/jul/31/homebuyers-72k-deposit-if-tories-win", "isHosted": false, "pillarId": "pillar/lifestyle", "pillarName": "Lifestyle"}, {"id": "global-development/2014/jul/31/home-office-campaign-modern-day-slavery", "type": "article", "sectionId": "global-development", "sectionName": "Global development", "webPublicationDate": "2014-07-30T23:01:00Z", "webTitle": "Home Office launches ad campaign against modern-day slavery", "webUrl": "https://www.theguardian.com/global-development/2014/jul/31/home-office-campaign-modern-day-slavery", "apiUrl": "https://content.guardianapis.com/global-development/2014/jul/31/home-office-campaign-modern-day-slavery", "isHosted": false, "pillarId": "pillar/news", "pillarName": "News"}, {"id": "politics/2014/jul/30/stephen-bates-diary-boris-christian-gay", "type": "article", "sectionId": "politics", "sectionName": "Politics", "webPublicationDate": "2014-07-30T22:00:08Z", "webTitle": "Stephen Bates\u2019s diary: The Christian Legal Centre racks up another defeat", "webUrl": "https://www.theguardian.com/politics/2014/jul/30/stephen-bates-diary-boris-christian-gay", "apiUrl": "https://content.guardianapis.com/politics/2014/jul/30/stephen-bates-diary-boris-christian-gay", "isHosted": false, "pillarId": "pillar/news", "pillarName": "News"}, {"id": "politics/2014/jul/30/labour-comes-out-fighting", "type": "article", "sectionId": "politics", "sectionName": "Politics", "webPublicationDate": "2014-07-30T19:55:31Z", "webTitle": "Labour finally comes out fighting in a 'summer offensive'", "webUrl": "https://www.theguardian.com/politics/2014/jul/30/labour-comes-out-fighting", "apiUrl": "https://content.guardianapis.com/politics/2014/jul/30/labour-comes-out-fighting", "isHosted": false, "pillarId": "pillar/news", "pillarName": "News"}, {"id": "money/2014/jul/30/david-cameron-hints-giveaway-higher-rate-taxpayers", "type": "article", "sectionId": "politics", "sectionName": "Politics", "webPublicationDate": "2014-07-30T19:53:01Z", "webTitle": "David Cameron hints at giveaway for higher-rate taxpayers", "webUrl": "https://www.theguardian.com/money/2014/jul/30/david-cameron-hints-giveaway-higher-rate-taxpayers", "apiUrl": "https://content.guardianapis.com/money/2014/jul/30/david-cameron-hints-giveaway-higher-rate-taxpayers", "isHosted": false, "pillarId": "pillar/news", "pillarName": "News"}, {"id": "media/2014/jul/30/greg-dyke-politicians-bbc-trust-job", "type": "article", "sectionId": "media", "sectionName": "Media", "webPublicationDate": "2014-07-30T19:29:48Z", "webTitle": "Greg Dyke criticises political intervention in BBC Trust appointment", "webUrl": "https://www.theguardian.com/media/2014/jul/30/greg-dyke-politicians-bbc-trust-job", "apiUrl": "https://content.guardianapis.com/media/2014/jul/30/greg-dyke-politicians-bbc-trust-job", "isHosted": false, "pillarId": "pillar/news", "pillarName": "News"}, {"id": "commentisfree/2014/jul/30/flat-tax-fat-chance-labour-oliver-letwin", "type": "article", "sectionId": "commentisfree", "sectionName": "Opinion", "webPublicationDate": "2014-07-30T18:41:29Z", "webTitle": "Flat tax? Fat chance | Tim Bale", "webUrl": "https://www.theguardian.com/commentisfree/2014/jul/30/flat-tax-fat-chance-labour-oliver-letwin", "apiUrl": "https://content.guardianapis.com/commentisfree/2014/jul/30/flat-tax-fat-chance-labour-oliver-letwin", "isHosted": false, "pillarId": "pillar/opinion", "pillarName": "Opinion"}, {"id": "commentisfree/2014/jul/30/scottish-independence-2014-last-golden-summer-old-britain", "type": "article", "sectionId": "commentisfree", "sectionName": "Opinion", "webPublicationDate": "2014-07-30T18:39:04Z", "webTitle": "Scottish independence: Remember 2014, the last golden summer of the old Britain", "webUrl": "https://www.theguardian.com/commentisfree/2014/jul/30/scottish-independence-2014-last-golden-summer-old-britain", "apiUrl": "https://content.guardianapis.com/commentisfree/2014/jul/30/scottish-independence-2014-last-golden-summer-old-britain", "isHosted": false, "pillarId": "pillar/opinion", "pillarName": "Opinion"}, {"id": "world/2014/jul/30/uk-embassy-libya-open-tripoli-fighting", "type": "article", "sectionId": "world", "sectionName": "World news", "webPublicationDate": "2014-07-30T18:14:37Z", "webTitle": "UK embassy in Libya remains open as French flee fierce fighting", "webUrl": "https://www.theguardian.com/world/2014/jul/30/uk-embassy-libya-open-tripoli-fighting", "apiUrl": "https://content.guardianapis.com/world/2014/jul/30/uk-embassy-libya-open-tripoli-fighting", "isHosted": false, "pillarId": "pillar/news", "pillarName": "News"}, {"id": "society/2014/jul/30/drug-treatment-success-hit-funding-threat", "type": "article", "sectionId": "society", "sectionName": "Society", "webPublicationDate": "2014-07-30T18:04:12Z", "webTitle": "Drug treatment success hit by funding threat | @guardianletters", "webUrl": "https://www.theguardian.com/society/2014/jul/30/drug-treatment-success-hit-funding-threat", "apiUrl": "https://content.guardianapis.com/society/2014/jul/30/drug-treatment-success-hit-funding-threat", "isHosted": false, "pillarId": "pillar/news", "pillarName": "News"}, {"id": "world/2014/jul/30/driverless-cars-british-roads-next-year-vince-cable", "type": "article", "sectionId": "world", "sectionName": "World news", "webPublicationDate": "2014-07-30T17:26:40Z", "webTitle": "Driverless cars to make debut on British roads next year, Vince Cable says", "webUrl": "https://www.theguardian.com/world/2014/jul/30/driverless-cars-british-roads-next-year-vince-cable", "apiUrl": "https://content.guardianapis.com/world/2014/jul/30/driverless-cars-british-roads-next-year-vince-cable", "isHosted": false, "pillarId": "pillar/news", "pillarName": "News"}, {"id": "uk-news/2014/jul/30/london-orbital-railway-infrastructure-plan-boris-johnson", "type": "article", "sectionId": "uk-news", "sectionName": "UK news", "webPublicationDate": "2014-07-30T16:36:51Z", "webTitle": "London orbital railway on mayor's \u00a31.3tn wishlist", "webUrl": "https://www.theguardian.com/uk-news/2014/jul/30/london-orbital-railway-infrastructure-plan-boris-johnson", "apiUrl": "https://content.guardianapis.com/uk-news/2014/jul/30/london-orbital-railway-infrastructure-plan-boris-johnson", "isHosted": false, "pillarId": "pillar/news", "pillarName": "News"}, {"id": "politics/2014/jul/30/lib-dems-forests-trusts-avoid-privatisation-trees", "type": "article", "sectionId": "politics", "sectionName": "Politics", "webPublicationDate": "2014-07-30T16:33:12Z", "webTitle": "Lib Dems suggest putting forests in trusts to avoid privatisation", "webUrl": "https://www.theguardian.com/politics/2014/jul/30/lib-dems-forests-trusts-avoid-privatisation-trees", "apiUrl": "https://content.guardianapis.com/politics/2014/jul/30/lib-dems-forests-trusts-avoid-privatisation-trees", "isHosted": false, "pillarId": "pillar/news", "pillarName": "News"}, {"id": "business/2014/jul/30/centrica-talks-government-impact-russia-sanctions", "type": "article", "sectionId": "business", "sectionName": "Business", "webPublicationDate": "2014-07-30T16:11:28Z", "webTitle": "Centrica in talks with government over impact of Russia sanctions", "webUrl": "https://www.theguardian.com/business/2014/jul/30/centrica-talks-government-impact-russia-sanctions", "apiUrl": "https://content.guardianapis.com/business/2014/jul/30/centrica-talks-government-impact-russia-sanctions", "isHosted": false, "pillarId": "pillar/news", "pillarName": "News"}, {"id": "environment/2014/jul/30/boris-johnson-defends-londons-record-on-air-pollution", "type": "article", "sectionId": "environment", "sectionName": "Environment", "webPublicationDate": "2014-07-30T16:09:22Z", "webTitle": "Boris Johnson defends London's record on air pollution", "webUrl": "https://www.theguardian.com/environment/2014/jul/30/boris-johnson-defends-londons-record-on-air-pollution", "apiUrl": "https://content.guardianapis.com/environment/2014/jul/30/boris-johnson-defends-londons-record-on-air-pollution", "isHosted": false, "pillarId": "pillar/news", "pillarName": "News"}, {"id": "global/2014/jul/30/frank-dobson-interview-labour-needs-knocking-lumps-off-this-government", "type": "article", "sectionId": "global", "sectionName": "Global", "webPublicationDate": "2014-07-30T15:02:00Z", "webTitle": "Frank Dobson: Labour needs to be 'knocking lumps off' this government", "webUrl": "https://www.theguardian.com/global/2014/jul/30/frank-dobson-interview-labour-needs-knocking-lumps-off-this-government", "apiUrl": "https://content.guardianapis.com/global/2014/jul/30/frank-dobson-interview-labour-needs-knocking-lumps-off-this-government", "isHosted": false}, {"id": "world/2014/jul/30/chris-de-broglio", "type": "article", "sectionId": "world", "sectionName": "World news", "webPublicationDate": "2014-07-30T14:48:54Z", "webTitle": "Chris de Broglio obituary", "webUrl": "https://www.theguardian.com/world/2014/jul/30/chris-de-broglio", "apiUrl": "https://content.guardianapis.com/world/2014/jul/30/chris-de-broglio", "isHosted": false, "pillarId": "pillar/news", "pillarName": "News"}, {"id": "politics/2014/jul/30/ukip-resigned-occult-jake-baynes-graham-livings", "type": "article", "sectionId": "politics", "sectionName": "Politics", "webPublicationDate": "2014-07-30T13:22:21Z", "webTitle": "Ukip duo resign claiming 'occultists' have infiltrated the party", "webUrl": "https://www.theguardian.com/politics/2014/jul/30/ukip-resigned-occult-jake-baynes-graham-livings", "apiUrl": "https://content.guardianapis.com/politics/2014/jul/30/ukip-resigned-occult-jake-baynes-graham-livings", "isHosted": false, "pillarId": "pillar/news", "pillarName": "News"}, {"id": "politics/2014/jul/30/david-cameron-pr-stunt-suspected-illegal-migrants", "type": "article", "sectionId": "politics", "sectionName": "Politics", "webPublicationDate": "2014-07-30T12:53:30Z", "webTitle": "David Cameron criticised for PR stunt in home of suspected illegal immigrants", "webUrl": "https://www.theguardian.com/politics/2014/jul/30/david-cameron-pr-stunt-suspected-illegal-migrants", "apiUrl": "https://content.guardianapis.com/politics/2014/jul/30/david-cameron-pr-stunt-suspected-illegal-migrants", "isHosted": false, "pillarId": "pillar/news", "pillarName": "News"}, {"id": "books/2014/jul/30/kirklees-close-24-26-libraries-cuts", "type": "article", "sectionId": "books", "sectionName": "Books", "webPublicationDate": "2014-07-30T12:42:24Z", "webTitle": "Kirklees set to close 24 of its 26 libraries", "webUrl": "https://www.theguardian.com/books/2014/jul/30/kirklees-close-24-26-libraries-cuts", "apiUrl": "https://content.guardianapis.com/books/2014/jul/30/kirklees-close-24-26-libraries-cuts", "isHosted": false, "pillarId": "pillar/arts", "pillarName": "Arts"}, {"id": "society/2014/jul/30/labour-call-lift-ban-books-prisons", "type": "article", "sectionId": "society", "sectionName": "Society", "webPublicationDate": "2014-07-30T11:57:33Z", "webTitle": "Labour renews call to lift ban on sending books to prisons", "webUrl": "https://www.theguardian.com/society/2014/jul/30/labour-call-lift-ban-books-prisons", "apiUrl": "https://content.guardianapis.com/society/2014/jul/30/labour-call-lift-ban-books-prisons", "isHosted": false, "pillarId": "pillar/news", "pillarName": "News"}, {"id": "lifeandstyle/2014/jul/30/mrs-camerons-diary-holiday-beach-reads", "type": "article", "sectionId": "commentisfree", "sectionName": "Opinion", "webPublicationDate": "2014-07-30T11:39:31Z", "webTitle": "It's holiday season \u2013 time to think about beach reads!", "webUrl": "https://www.theguardian.com/lifeandstyle/2014/jul/30/mrs-camerons-diary-holiday-beach-reads", "apiUrl": "https://content.guardianapis.com/lifeandstyle/2014/jul/30/mrs-camerons-diary-holiday-beach-reads", "isHosted": false, "pillarId": "pillar/opinion", "pillarName": "Opinion"}, {"id": "politics/2014/jul/30/tory-mps-visit-israel-condemned-bad-timing", "type": "article", "sectionId": "politics", "sectionName": "Politics", "webPublicationDate": "2014-07-30T11:29:28Z", "webTitle": "Tory MPs' visit to Israel condemned as bad timing", "webUrl": "https://www.theguardian.com/politics/2014/jul/30/tory-mps-visit-israel-condemned-bad-timing", "apiUrl": "https://content.guardianapis.com/politics/2014/jul/30/tory-mps-visit-israel-condemned-bad-timing", "isHosted": false, "pillarId": "pillar/news", "pillarName": "News"}, {"id": "technology/2014/jul/30/how-to-find-out-when-uk-politician-edits-wikipedia-page", "type": "article", "sectionId": "technology", "sectionName": "Technology", "webPublicationDate": "2014-07-30T10:56:57Z", "webTitle": "How to find out when UK politicians are editing Wikipedia pages", "webUrl": "https://www.theguardian.com/technology/2014/jul/30/how-to-find-out-when-uk-politician-edits-wikipedia-page", "apiUrl": "https://content.guardianapis.com/technology/2014/jul/30/how-to-find-out-when-uk-politician-edits-wikipedia-page", "isHosted": false, "pillarId": "pillar/news", "pillarName": "News"}, {"id": "world/2014/jul/30/mh17-west-ratchet-eu-sanctions-russia-hammond", "type": "article", "sectionId": "world", "sectionName": "World news", "webPublicationDate": "2014-07-30T10:20:19Z", "webTitle": "West is ready to ratchet up sanctions against Russia, says Hammond", "webUrl": "https://www.theguardian.com/world/2014/jul/30/mh17-west-ratchet-eu-sanctions-russia-hammond", "apiUrl": "https://content.guardianapis.com/world/2014/jul/30/mh17-west-ratchet-eu-sanctions-russia-hammond", "isHosted": false, "pillarId": "pillar/news", "pillarName": "News"}, {"id": "politics/2014/jul/30/tories-rich-poor-pay-31-percent-ed-balls", "type": "article", "sectionId": "politics", "sectionName": "Politics", "webPublicationDate": "2014-07-30T09:52:47Z", "webTitle": "Tories want rich and poor to pay 31% flat tax, claims Ed Balls", "webUrl": "https://www.theguardian.com/politics/2014/jul/30/tories-rich-poor-pay-31-percent-ed-balls", "apiUrl": "https://content.guardianapis.com/politics/2014/jul/30/tories-rich-poor-pay-31-percent-ed-balls", "isHosted": false, "pillarId": "pillar/news", "pillarName": "News"}, {"id": "world/2014/jul/30/gaza-crisis-israel-undermining-support-west-philip-hammond", "type": "article", "sectionId": "world", "sectionName": "World news", "webPublicationDate": "2014-07-30T09:47:27Z", "webTitle": "Israel undermining its support in the west, Philip Hammond says", "webUrl": "https://www.theguardian.com/world/2014/jul/30/gaza-crisis-israel-undermining-support-west-philip-hammond", "apiUrl": "https://content.guardianapis.com/world/2014/jul/30/gaza-crisis-israel-undermining-support-west-philip-hammond", "isHosted": false, "pillarId": "pillar/news", "pillarName": "News"}, {"id": "books/2014/jul/30/send-chris-grayling-books-prison-ban-howard-league", "type": "article", "sectionId": "books", "sectionName": "Books", "webPublicationDate": "2014-07-30T09:17:08Z", "webTitle": "Send Chris Grayling books, urge campaigners against prison ban", "webUrl": "https://www.theguardian.com/books/2014/jul/30/send-chris-grayling-books-prison-ban-howard-league", "apiUrl": "https://content.guardianapis.com/books/2014/jul/30/send-chris-grayling-books-prison-ban-howard-league", "isHosted": false, "pillarId": "pillar/arts", "pillarName": "Arts"}, {"id": "technology/2014/jul/30/government-driverless-car-self-driving-car", "type": "article", "sectionId": "technology", "sectionName": "Technology", "webPublicationDate": "2014-07-30T09:09:06Z", "webTitle": "Driverless cars get green light for testing on public roads in UK", "webUrl": "https://www.theguardian.com/technology/2014/jul/30/government-driverless-car-self-driving-car", "apiUrl": "https://content.guardianapis.com/technology/2014/jul/30/government-driverless-car-self-driving-car", "isHosted": false, "pillarId": "pillar/news", "pillarName": "News"}, {"id": "politics/2014/jul/30/politics-live-blog-readers-edition-wednesday-30-july", "type": "article", "sectionId": "politics", "sectionName": "Politics", "webPublicationDate": "2014-07-30T07:48:28Z", "webTitle": "Politics Live blog - readers' edition: Wednesday 30 July", "webUrl": "https://www.theguardian.com/politics/2014/jul/30/politics-live-blog-readers-edition-wednesday-30-july", "apiUrl": "https://content.guardianapis.com/politics/2014/jul/30/politics-live-blog-readers-edition-wednesday-30-july", "isHosted": false, "pillarId": "pillar/news", "pillarName": "News"}, {"id": "commentisfree/2014/jul/30/lib-dems-government-roots-party-local-mps", "type": "article", "sectionId": "commentisfree", "sectionName": "Opinion", "webPublicationDate": "2014-07-30T05:29:05Z", "webTitle": "The Lib Dems could survive in government by going back to their roots  | Rafael Behr", "webUrl": "https://www.theguardian.com/commentisfree/2014/jul/30/lib-dems-government-roots-party-local-mps", "apiUrl": "https://content.guardianapis.com/commentisfree/2014/jul/30/lib-dems-government-roots-party-local-mps", "isHosted": false, "pillarId": "pillar/opinion", "pillarName": "Opinion"}, {"id": "world/2014/jul/29/gaza-power-plant-destroyed-israeli-airstrike-100-palestinians-dead", "type": "article", "sectionId": "world", "sectionName": "World news", "webPublicationDate": "2014-07-30T02:58:00Z", "webTitle": "Gaza's only power plant destroyed in Israel's most intense air strike yet", "webUrl": "https://www.theguardian.com/world/2014/jul/29/gaza-power-plant-destroyed-israeli-airstrike-100-palestinians-dead", "apiUrl": "https://content.guardianapis.com/world/2014/jul/29/gaza-power-plant-destroyed-israeli-airstrike-100-palestinians-dead", "isHosted": false, "pillarId": "pillar/news", "pillarName": "News"}, {"id": "technology/2014/jul/30/right-to-be-forgotten-unworkable-peers", "type": "article", "sectionId": "technology", "sectionName": "Technology", "webPublicationDate": "2014-07-29T23:21:00Z", "webTitle": "Right to be forgotten is unworkable, say peers", "webUrl": "https://www.theguardian.com/technology/2014/jul/30/right-to-be-forgotten-unworkable-peers", "apiUrl": "https://content.guardianapis.com/technology/2014/jul/30/right-to-be-forgotten-unworkable-peers", "isHosted": false, "pillarId": "pillar/news", "pillarName": "News"}, {"id": "politics/2014/jul/30/tories-tax-rich-ed-balls-speech-bedford", "type": "article", "sectionId": "politics", "sectionName": "Politics", "webPublicationDate": "2014-07-29T23:04:00Z", "webTitle": "Tories keen to cut tax for rich again, says Ed Balls", "webUrl": "https://www.theguardian.com/politics/2014/jul/30/tories-tax-rich-ed-balls-speech-bedford", "apiUrl": "https://content.guardianapis.com/politics/2014/jul/30/tories-tax-rich-ed-balls-speech-bedford", "isHosted": false, "pillarId": "pillar/news", "pillarName": "News"}, {"id": "politics/2014/jul/29/stephen-bates-diary-gaza", "type": "article", "sectionId": "politics", "sectionName": "Politics", "webPublicationDate": "2014-07-29T22:00:11Z", "webTitle": "Diary: The man ranting about \u2018lies from Gaza\u2019 is economical with the truth | Stephen Bates", "webUrl": "https://www.theguardian.com/politics/2014/jul/29/stephen-bates-diary-gaza", "apiUrl": "https://content.guardianapis.com/politics/2014/jul/29/stephen-bates-diary-gaza", "isHosted": false, "pillarId": "pillar/news", "pillarName": "News"}, {"id": "media/2014/jul/29/city-grandee-nick-prettejohn-leading-contender-head-bbc-trust", "type": "article", "sectionId": "media", "sectionName": "Media", "webPublicationDate": "2014-07-29T20:31:06Z", "webTitle": "City grandee Nick Prettejohn emerges as leading contender to head BBC", "webUrl": "https://www.theguardian.com/media/2014/jul/29/city-grandee-nick-prettejohn-leading-contender-head-bbc-trust", "apiUrl": "https://content.guardianapis.com/media/2014/jul/29/city-grandee-nick-prettejohn-leading-contender-head-bbc-trust", "isHosted": false, "pillarId": "pillar/news", "pillarName": "News"}, {"id": "politics/2014/jul/29/ed-miliband-pmqs-different-nature", "type": "article", "sectionId": "politics", "sectionName": "Politics", "webPublicationDate": "2014-07-29T20:00:09Z", "webTitle": "Ed Miliband must address questions of a different nature | @guardianletters", "webUrl": "https://www.theguardian.com/politics/2014/jul/29/ed-miliband-pmqs-different-nature", "apiUrl": "https://content.guardianapis.com/politics/2014/jul/29/ed-miliband-pmqs-different-nature", "isHosted": false, "pillarId": "pillar/news", "pillarName": "News"}, {"id": "commentisfree/2014/jul/29/rich-wealth-good-inequality-green-party", "type": "article", "sectionId": "commentisfree", "sectionName": "Opinion", "webPublicationDate": "2014-07-29T19:30:08Z", "webTitle": "The rich want us to believe their wealth is good for us all | George Monbiot", "webUrl": "https://www.theguardian.com/commentisfree/2014/jul/29/rich-wealth-good-inequality-green-party", "apiUrl": "https://content.guardianapis.com/commentisfree/2014/jul/29/rich-wealth-good-inequality-green-party", "isHosted": false, "pillarId": "pillar/opinion", "pillarName": "Opinion"}, {"id": "theguardian/2014/jul/29/david-turner-obituary", "type": "article", "sectionId": "theguardian", "sectionName": "From the Guardian", "webPublicationDate": "2014-07-29T17:33:03Z", "webTitle": "David Turner obituary", "webUrl": "https://www.theguardian.com/theguardian/2014/jul/29/david-turner-obituary", "apiUrl": "https://content.guardianapis.com/theguardian/2014/jul/29/david-turner-obituary", "isHosted": false, "pillarId": "pillar/news", "pillarName": "News"}, {"id": "politics/2014/jul/29/david-ruffley-step-down-immediately-mp-domestic-violence", "type": "article", "sectionId": "politics", "sectionName": "Politics", "webPublicationDate": "2014-07-29T16:58:27Z", "webTitle": "David Ruffley 'should step down as MP immediately over domestic violence'", "webUrl": "https://www.theguardian.com/politics/2014/jul/29/david-ruffley-step-down-immediately-mp-domestic-violence", "apiUrl": "https://content.guardianapis.com/politics/2014/jul/29/david-ruffley-step-down-immediately-mp-domestic-violence", "isHosted": false, "pillarId": "pillar/news", "pillarName": "News"}, {"id": "politics/2014/jul/29/boris-johnson-stand-mp-2015-london-mayor", "type": "article", "sectionId": "politics", "sectionName": "Politics", "webPublicationDate": "2014-07-29T16:55:21Z", "webTitle": "Boris Johnson refuses to say if he plans to stand as MP in 2015", "webUrl": "https://www.theguardian.com/politics/2014/jul/29/boris-johnson-stand-mp-2015-london-mayor", "apiUrl": "https://content.guardianapis.com/politics/2014/jul/29/boris-johnson-stand-mp-2015-london-mayor", "isHosted": false, "pillarId": "pillar/news", "pillarName": "News"}, {"id": "environment/2014/jul/29/increase-diesel-taxes-fight-pollution-boris-johnson-green-groups-fuel", "type": "article", "sectionId": "environment", "sectionName": "Environment", "webPublicationDate": "2014-07-29T16:27:24Z", "webTitle": "Increase diesel taxes to fight pollution, say Boris Johnson and green groups", "webUrl": "https://www.theguardian.com/environment/2014/jul/29/increase-diesel-taxes-fight-pollution-boris-johnson-green-groups-fuel", "apiUrl": "https://content.guardianapis.com/environment/2014/jul/29/increase-diesel-taxes-fight-pollution-boris-johnson-green-groups-fuel", "isHosted": false, "pillarId": "pillar/news", "pillarName": "News"}, {"id": "society/2014/jul/29/disabled-not-lazy-stop-hounding", "type": "article", "sectionId": "society", "sectionName": "Society", "webPublicationDate": "2014-07-29T16:19:01Z", "webTitle": "Disabled people are not lazy: stop hounding us | @guardianletters", "webUrl": "https://www.theguardian.com/society/2014/jul/29/disabled-not-lazy-stop-hounding", "apiUrl": "https://content.guardianapis.com/society/2014/jul/29/disabled-not-lazy-stop-hounding", "isHosted": false, "pillarId": "pillar/news", "pillarName": "News"}, {"id": "commentisfree/2014/jul/29/gaddafi-gone-libya-dangerous-west", "type": "article", "sectionId": "commentisfree", "sectionName": "Opinion", "webPublicationDate": "2014-07-29T15:40:12Z", "webTitle": "Gaddafi has gone but Libya is more dangerous than ever, thanks to the west | Nabila Ramdani", "webUrl": "https://www.theguardian.com/commentisfree/2014/jul/29/gaddafi-gone-libya-dangerous-west", "apiUrl": "https://content.guardianapis.com/commentisfree/2014/jul/29/gaddafi-gone-libya-dangerous-west", "isHosted": false, "pillarId": "pillar/opinion", "pillarName": "Opinion"}, {"id": "commentisfree/2014/jul/29/labour-loves-andy-burnham-nhs-high-priest", "type": "article", "sectionId": "commentisfree", "sectionName": "Opinion", "webPublicationDate": "2014-07-29T15:05:25Z", "webTitle": "Why Labour loves Andy Burnham | Emma Burnell", "webUrl": "https://www.theguardian.com/commentisfree/2014/jul/29/labour-loves-andy-burnham-nhs-high-priest", "apiUrl": "https://content.guardianapis.com/commentisfree/2014/jul/29/labour-loves-andy-burnham-nhs-high-priest", "isHosted": false, "pillarId": "pillar/opinion", "pillarName": "Opinion"}, {"id": "uk-news/2014/jul/29/david-cameron-illegal-immigrants-find-you-send-home", "type": "article", "sectionId": "uk-news", "sectionName": "UK news", "webPublicationDate": "2014-07-29T14:07:50Z", "webTitle": "Cameron warns illegal immigrants: we will find you and send you home", "webUrl": "https://www.theguardian.com/uk-news/2014/jul/29/david-cameron-illegal-immigrants-find-you-send-home", "apiUrl": "https://content.guardianapis.com/uk-news/2014/jul/29/david-cameron-illegal-immigrants-find-you-send-home", "isHosted": false, "pillarId": "pillar/news", "pillarName": "News"}, {"id": "politics/video/2014/jul/29/gaza-heartbreaking-david-cameron-video", "type": "video", "sectionId": "politics", "sectionName": "Politics", "webPublicationDate": "2014-07-29T13:41:00Z", "webTitle": "Gaza crisis heartbreaking, says David Cameron \u2013 video", "webUrl": "https://www.theguardian.com/politics/video/2014/jul/29/gaza-heartbreaking-david-cameron-video", "apiUrl": "https://content.guardianapis.com/politics/video/2014/jul/29/gaza-heartbreaking-david-cameron-video", "isHosted": false, "pillarId": "pillar/news", "pillarName": "News"}, {"id": "politics/2014/jul/29/rich-tory-cabinet-ministers-salaries-baroness-beyonce", "type": "article", "sectionId": "politics", "sectionName": "Politics", "webPublicationDate": "2014-07-29T11:41:01Z", "webTitle": "Rich Tory cabinet ministers urged to give salaries to 'Baroness Beyonc\u00e9'", "webUrl": "https://www.theguardian.com/politics/2014/jul/29/rich-tory-cabinet-ministers-salaries-baroness-beyonce", "apiUrl": "https://content.guardianapis.com/politics/2014/jul/29/rich-tory-cabinet-ministers-salaries-baroness-beyonce", "isHosted": false, "pillarId": "pillar/news", "pillarName": "News"}, {"id": "media/2014/jul/29/lord-coe-bbc-trust-government", "type": "article", "sectionId": "media", "sectionName": "Media", "webPublicationDate": "2014-07-29T11:40:18Z", "webTitle": "Lord Coe\u2019s withdrawal from BBC Trust race leaves field wide open", "webUrl": "https://www.theguardian.com/media/2014/jul/29/lord-coe-bbc-trust-government", "apiUrl": "https://content.guardianapis.com/media/2014/jul/29/lord-coe-bbc-trust-government", "isHosted": false, "pillarId": "pillar/news", "pillarName": "News"}]}}