{"response": {"status": "ok", "userTier": "developer", "total": 22095, "startIndex": 1, "pageSize": 50, "currentPage": 1, "pages": 442, "orderBy": "newest", "results": [{"id": "lifeandstyle/2018/jul/30/rachel-roddy-recipe-almond-basil-tomato-pesto", "type": "article", "sectionId": "food", "sectionName": "Food", "webPublicationDate": "2018-07-30T11:00:27Z", "webTitle": "Rachel Roddy\u2019s recipe for almond, basil and tomato pesto", "webUrl": "https://www.theguardian.com/lifeandstyle/2018/jul/30/rachel-roddy-recipe-almond-basil-tomato-pesto", "apiUrl": "https://content.guardianapis.com/lifeandstyle/2018/jul/30/rachel-roddy-recipe-almond-basil-tomato-pesto", "isHosted": false, "pillarId": "pillar/lifestyle", "pillarName": "Lifestyle"}, {"id": "lifeandstyle/2018/jul/30/thomasina-miers-recipe-for-roasted-aubergine-and-tomato-salad-with-black-beans", "type": "article", "sectionId": "food", "sectionName": "Food", "webPublicationDate": "2018-07-30T11:00:26Z", "webTitle": "Thomasina Miers\u2019 recipe for roasted aubergine and tomato salad with black beans", "webUrl": "https://www.theguardian.com/lifeandstyle/2018/jul/30/thomasina-miers-recipe-for-roasted-aubergine-and-tomato-salad-with-black-beans", "apiUrl": "https://content.guardianapis.com/lifeandstyle/2018/jul/30/thomasina-miers-recipe-for-roasted-aubergine-and-tomato-salad-with-black-beans", "isHosted": false, "pillarId": "pillar/lifestyle", "pillarName": "Lifestyle"}, {"id": "environment/2018/jul/30/extreme-weather-could-push-uk-food-prices-up-this-year-say-farmers", "type": "article", "sectionId": "environment", "sectionName": "Environment", "webPublicationDate": "2018-07-30T10:24:22Z", "webTitle": "Extreme weather could push UK food prices up this year, say farmers", "webUrl": "https://www.theguardian.com/environment/2018/jul/30/extreme-weather-could-push-uk-food-prices-up-this-year-say-farmers", "apiUrl": "https://content.guardianapis.com/environment/2018/jul/30/extreme-weather-could-push-uk-food-prices-up-this-year-say-farmers", "isHosted": false, "pillarId": "pillar/news", "pillarName": "News"}, {"id": "lifeandstyle/2018/jul/30/pineapple-tacos-duck-doughnuts-and-apple-beer-how-cancer-patients-are-being-tempted-to-eat-well", "type": "article", "sectionId": "lifeandstyle", "sectionName": "Life and style", "webPublicationDate": "2018-07-30T07:00:21Z", "webTitle": "Pineapple tacos, duck doughnuts and apple beer: how cancer patients are being tempted to eat well", "webUrl": "https://www.theguardian.com/lifeandstyle/2018/jul/30/pineapple-tacos-duck-doughnuts-and-apple-beer-how-cancer-patients-are-being-tempted-to-eat-well", "apiUrl": "https://content.guardianapis.com/lifeandstyle/2018/jul/30/pineapple-tacos-duck-doughnuts-and-apple-beer-how-cancer-patients-are-being-tempted-to-eat-well", "isHosted": false, "pillarId": "pillar/lifestyle", "pillarName": "Lifestyle"}, {"id": "travel/2018/jul/30/locals-guide-to-genoa-10-top-tips-food-pesto-pasta-city-break", "type": "article", "sectionId": "travel", "sectionName": "Travel", "webPublicationDate": "2018-07-30T05:30:19Z", "webTitle": "A local\u2019s guide to Genoa: 10 top tips", "webUrl": "https://www.theguardian.com/travel/2018/jul/30/locals-guide-to-genoa-10-top-tips-food-pesto-pasta-city-break", "apiUrl": "https://content.guardianapis.com/travel/2018/jul/30/locals-guide-to-genoa-10-top-tips-food-pesto-pasta-city-break", "isHosted": false, "pillarId": "pillar/lifestyle", "pillarName": "Lifestyle"}, {"id": "business/2018/jul/30/uk-trademarks-spirits-liqueurs-gin-unusual-flavours-artisanal-brands", "type": "article", "sectionId": "business", "sectionName": "Business", "webPublicationDate": "2018-07-30T05:01:18Z", "webTitle": "Trademarks for spirits and liqueurs up 41% as UK goes all in for gin", "webUrl": "https://www.theguardian.com/business/2018/jul/30/uk-trademarks-spirits-liqueurs-gin-unusual-flavours-artisanal-brands", "apiUrl": "https://content.guardianapis.com/business/2018/jul/30/uk-trademarks-spirits-liqueurs-gin-unusual-flavours-artisanal-brands", "isHosted": false, "pillarId": "pillar/news", "pillarName": "News"}, {"id": "travel/2018/jul/29/10-best-cooking-holidays-worldwide-italy-france-vietnam", "type": "article", "sectionId": "travel", "sectionName": "Travel", "webPublicationDate": "2018-07-29T06:00:51Z", "webTitle": "Recipes for adventure: 10 of the best cooking holidays worldwide", "webUrl": "https://www.theguardian.com/travel/2018/jul/29/10-best-cooking-holidays-worldwide-italy-france-vietnam", "apiUrl": "https://content.guardianapis.com/travel/2018/jul/29/10-best-cooking-holidays-worldwide-italy-france-vietnam", "isHosted": false, "pillarId": "pillar/lifestyle", "pillarName": "Lifestyle"}, {"id": "lifeandstyle/2018/jul/29/great-wines-for-salad-days-summer-drinks", "type": "article", "sectionId": "food", "sectionName": "Food", "webPublicationDate": "2018-07-29T04:59:50Z", "webTitle": "Great wines for salad days | David Williams", "webUrl": "https://www.theguardian.com/lifeandstyle/2018/jul/29/great-wines-for-salad-days-summer-drinks", "apiUrl": "https://content.guardianapis.com/lifeandstyle/2018/jul/29/great-wines-for-salad-days-summer-drinks", "isHosted": false, "pillarId": "pillar/lifestyle", "pillarName": "Lifestyle"}, {"id": "lifeandstyle/2018/jul/29/forza-win-peckham-an-exceptionally-brave-venture-restaurant-review", "type": "article", "sectionId": "food", "sectionName": "Food", "webPublicationDate": "2018-07-29T04:59:50Z", "webTitle": "Forza Win, Peckham: \u2018Exceptionally brave venture\u2019 \u2013 restaurant review", "webUrl": "https://www.theguardian.com/lifeandstyle/2018/jul/29/forza-win-peckham-an-exceptionally-brave-venture-restaurant-review", "apiUrl": "https://content.guardianapis.com/lifeandstyle/2018/jul/29/forza-win-peckham-an-exceptionally-brave-venture-restaurant-review", "isHosted": false, "pillarId": "pillar/lifestyle", "pillarName": "Lifestyle"}, {"id": "commentisfree/2018/jul/28/elin-ersson-heroine-deportation-video", "type": "article", "sectionId": "commentisfree", "sectionName": "Opinion", "webPublicationDate": "2018-07-28T15:00:36Z", "webTitle": "For me, heroine Elin Ersson can\u2019t protest too much | Rebecca Nicholson", "webUrl": "https://www.theguardian.com/commentisfree/2018/jul/28/elin-ersson-heroine-deportation-video", "apiUrl": "https://content.guardianapis.com/commentisfree/2018/jul/28/elin-ersson-heroine-deportation-video", "isHosted": false, "pillarId": "pillar/opinion", "pillarName": "Opinion"}, {"id": "lifeandstyle/2018/jul/28/meera-sodha-recipe-for-sunken-plum-spelt-and-ginger-cake", "type": "article", "sectionId": "food", "sectionName": "Food", "webPublicationDate": "2018-07-28T09:00:27Z", "webTitle": "Meera Sodha\u2019s recipe for sunken plum, spelt and ginger cake", "webUrl": "https://www.theguardian.com/lifeandstyle/2018/jul/28/meera-sodha-recipe-for-sunken-plum-spelt-and-ginger-cake", "apiUrl": "https://content.guardianapis.com/lifeandstyle/2018/jul/28/meera-sodha-recipe-for-sunken-plum-spelt-and-ginger-cake", "isHosted": false, "pillarId": "pillar/lifestyle", "pillarName": "Lifestyle"}, {"id": "lifeandstyle/2018/jul/28/liam-charles-recipe-dessert-nachos-popcorn-sugar-lime-dip", "type": "article", "sectionId": "food", "sectionName": "Food", "webPublicationDate": "2018-07-28T05:00:21Z", "webTitle": "Liam Charles\u2019s recipe for sweet nachos with a popcorn sugar and lime dip", "webUrl": "https://www.theguardian.com/lifeandstyle/2018/jul/28/liam-charles-recipe-dessert-nachos-popcorn-sugar-lime-dip", "apiUrl": "https://content.guardianapis.com/lifeandstyle/2018/jul/28/liam-charles-recipe-dessert-nachos-popcorn-sugar-lime-dip", "isHosted": false, "pillarId": "pillar/lifestyle", "pillarName": "Lifestyle"}, {"id": "lifeandstyle/2018/jul/28/sam-clarke-moro-paula-wolfert", "type": "article", "sectionId": "food", "sectionName": "Food", "webPublicationDate": "2018-07-28T05:00:21Z", "webTitle": "Sam Clark: the woman who changed how I cook", "webUrl": "https://www.theguardian.com/lifeandstyle/2018/jul/28/sam-clarke-moro-paula-wolfert", "apiUrl": "https://content.guardianapis.com/lifeandstyle/2018/jul/28/sam-clarke-moro-paula-wolfert", "isHosted": false, "pillarId": "pillar/lifestyle", "pillarName": "Lifestyle"}, {"id": "lifeandstyle/2018/jul/28/bin-lettuce-barbecue-leaves-salad", "type": "article", "sectionId": "food", "sectionName": "Food", "webPublicationDate": "2018-07-28T05:00:21Z", "webTitle": "Don\u2019t bin limp lettuce \u2013 barbecue it instead", "webUrl": "https://www.theguardian.com/lifeandstyle/2018/jul/28/bin-lettuce-barbecue-leaves-salad", "apiUrl": "https://content.guardianapis.com/lifeandstyle/2018/jul/28/bin-lettuce-barbecue-leaves-salad", "isHosted": false, "pillarId": "pillar/lifestyle", "pillarName": "Lifestyle"}, {"id": "commentisfree/2018/jul/28/brexit-stockpiling-food-fear-government-feed", "type": "article", "sectionId": "commentisfree", "sectionName": "Opinion", "webPublicationDate": "2018-07-28T05:00:20Z", "webTitle": "As Brexit looms, stockpiling food seems the only sensible response | Ian Jack", "webUrl": "https://www.theguardian.com/commentisfree/2018/jul/28/brexit-stockpiling-food-fear-government-feed", "apiUrl": "https://content.guardianapis.com/commentisfree/2018/jul/28/brexit-stockpiling-food-fear-government-feed", "isHosted": false, "pillarId": "pillar/opinion", "pillarName": "Opinion"}, {"id": "lifeandstyle/2018/jul/27/wine-to-help-keep-you-cool", "type": "article", "sectionId": "food", "sectionName": "Food", "webPublicationDate": "2018-07-27T13:00:23Z", "webTitle": "Wine to help keep you cool", "webUrl": "https://www.theguardian.com/lifeandstyle/2018/jul/27/wine-to-help-keep-you-cool", "apiUrl": "https://content.guardianapis.com/lifeandstyle/2018/jul/27/wine-to-help-keep-you-cool", "isHosted": false, "pillarId": "pillar/lifestyle", "pillarName": "Lifestyle"}, {"id": "lifeandstyle/2018/jul/27/anna-jones-summer-pasta-recipes", "type": "article", "sectionId": "food", "sectionName": "Food", "webPublicationDate": "2018-07-27T11:09:50Z", "webTitle": "Anna Jones\u2019s summer pasta recipes", "webUrl": "https://www.theguardian.com/lifeandstyle/2018/jul/27/anna-jones-summer-pasta-recipes", "apiUrl": "https://content.guardianapis.com/lifeandstyle/2018/jul/27/anna-jones-summer-pasta-recipes", "isHosted": false, "pillarId": "pillar/lifestyle", "pillarName": "Lifestyle"}, {"id": "lifeandstyle/2018/jul/27/grace-dent-the-kitchen-falmouth-restaurant-review", "type": "article", "sectionId": "food", "sectionName": "Food", "webPublicationDate": "2018-07-27T10:20:20Z", "webTitle": "The Kitchen, Falmouth: \u2018Fantastic, unabashed weirdness\u2019 | Grace Dent", "webUrl": "https://www.theguardian.com/lifeandstyle/2018/jul/27/grace-dent-the-kitchen-falmouth-restaurant-review", "apiUrl": "https://content.guardianapis.com/lifeandstyle/2018/jul/27/grace-dent-the-kitchen-falmouth-restaurant-review", "isHosted": false, "pillarId": "pillar/lifestyle", "pillarName": "Lifestyle"}, {"id": "lifeandstyle/2018/jul/27/hot-cheetos-takis-gallbladder-surgery-biopic-film", "type": "article", "sectionId": "food", "sectionName": "Food", "webPublicationDate": "2018-07-27T10:00:20Z", "webTitle": "Hot Cheetos are getting their own biopic, but might land you in hospital", "webUrl": "https://www.theguardian.com/lifeandstyle/2018/jul/27/hot-cheetos-takis-gallbladder-surgery-biopic-film", "apiUrl": "https://content.guardianapis.com/lifeandstyle/2018/jul/27/hot-cheetos-takis-gallbladder-surgery-biopic-film", "isHosted": false, "pillarId": "pillar/lifestyle", "pillarName": "Lifestyle"}, {"id": "travel/2018/jul/27/the-rose-hotel-deal-kent-review-bed-and-breakfast", "type": "article", "sectionId": "travel", "sectionName": "Travel", "webPublicationDate": "2018-07-27T09:00:19Z", "webTitle": "The Rose, Deal, Kent: \u2018A riot of colour and character\u2019 \u2013 hotel review", "webUrl": "https://www.theguardian.com/travel/2018/jul/27/the-rose-hotel-deal-kent-review-bed-and-breakfast", "apiUrl": "https://content.guardianapis.com/travel/2018/jul/27/the-rose-hotel-deal-kent-review-bed-and-breakfast", "isHosted": false, "pillarId": "pillar/lifestyle", "pillarName": "Lifestyle"}, {"id": "australia-news/2018/jul/27/malcolm-in-a-muddle-is-it-ever-acceptable-to-eat-a-pie-with-a-knife-and-fork", "type": "article", "sectionId": "australia-news", "sectionName": "Australia news", "webPublicationDate": "2018-07-27T04:25:24Z", "webTitle": "Malcolm in a muddle:  is it ever acceptable to eat a pie with a knife and fork?", "webUrl": "https://www.theguardian.com/australia-news/2018/jul/27/malcolm-in-a-muddle-is-it-ever-acceptable-to-eat-a-pie-with-a-knife-and-fork", "apiUrl": "https://content.guardianapis.com/australia-news/2018/jul/27/malcolm-in-a-muddle-is-it-ever-acceptable-to-eat-a-pie-with-a-knife-and-fork", "isHosted": false, "pillarId": "pillar/news", "pillarName": "News"}, {"id": "sport/2018/jul/26/happy-days-zaheer-again-again", "type": "article", "sectionId": "sport", "sectionName": "Sport", "webPublicationDate": "2018-07-26T17:20:57Z", "webTitle": "Happy days Zaheer again. Again | Brief letters", "webUrl": "https://www.theguardian.com/sport/2018/jul/26/happy-days-zaheer-again-again", "apiUrl": "https://content.guardianapis.com/sport/2018/jul/26/happy-days-zaheer-again-again", "isHosted": false, "pillarId": "pillar/sport", "pillarName": "Sport"}, {"id": "lifeandstyle/2018/jul/26/cup-brie-cheese-tea-naigai-cha", "type": "article", "sectionId": "food", "sectionName": "Food", "webPublicationDate": "2018-07-26T09:00:36Z", "webTitle": "My cup of brie: is cheese tea as grim as it sounds?", "webUrl": "https://www.theguardian.com/lifeandstyle/2018/jul/26/cup-brie-cheese-tea-naigai-cha", "apiUrl": "https://content.guardianapis.com/lifeandstyle/2018/jul/26/cup-brie-cheese-tea-naigai-cha", "isHosted": false, "pillarId": "pillar/lifestyle", "pillarName": "Lifestyle"}, {"id": "commentisfree/2018/jul/26/stockpile-food-no-deal-brexit-dream-on", "type": "article", "sectionId": "commentisfree", "sectionName": "Opinion", "webPublicationDate": "2018-07-26T08:00:32Z", "webTitle": "Stockpile food in the event of a no-deal Brexit? Dream on | James Ball", "webUrl": "https://www.theguardian.com/commentisfree/2018/jul/26/stockpile-food-no-deal-brexit-dream-on", "apiUrl": "https://content.guardianapis.com/commentisfree/2018/jul/26/stockpile-food-no-deal-brexit-dream-on", "isHosted": false, "pillarId": "pillar/opinion", "pillarName": "Opinion"}, {"id": "lifeandstyle/2018/jul/26/spritz-up-your-life-venetian-aperitif-drink-summer", "type": "article", "sectionId": "food", "sectionName": "Food", "webPublicationDate": "2018-07-26T06:00:30Z", "webTitle": "Greatest spritz: how a Venetian aperitif became the drink of the summer", "webUrl": "https://www.theguardian.com/lifeandstyle/2018/jul/26/spritz-up-your-life-venetian-aperitif-drink-summer", "apiUrl": "https://content.guardianapis.com/lifeandstyle/2018/jul/26/spritz-up-your-life-venetian-aperitif-drink-summer", "isHosted": false, "pillarId": "pillar/lifestyle", "pillarName": "Lifestyle"}, {"id": "technology/2018/jul/25/facebook-free-lunch-banned-silicon-valley-restaurants", "type": "article", "sectionId": "technology", "sectionName": "Technology", "webPublicationDate": "2018-07-25T17:19:18Z", "webTitle": "Facebook's free food banned as Silicon Valley restaurants hit back", "webUrl": "https://www.theguardian.com/technology/2018/jul/25/facebook-free-lunch-banned-silicon-valley-restaurants", "apiUrl": "https://content.guardianapis.com/technology/2018/jul/25/facebook-free-lunch-banned-silicon-valley-restaurants", "isHosted": false, "pillarId": "pillar/news", "pillarName": "News"}, {"id": "lifeandstyle/2018/jul/25/henry-firth-ian-theasby-sticky-shiitake-mushrooms", "type": "article", "sectionId": "food", "sectionName": "Food", "webPublicationDate": "2018-07-25T11:48:54Z", "webTitle": "Henry Firth and Ian Theasby\u2019s recipe for sticky shiitake mushrooms", "webUrl": "https://www.theguardian.com/lifeandstyle/2018/jul/25/henry-firth-ian-theasby-sticky-shiitake-mushrooms", "apiUrl": "https://content.guardianapis.com/lifeandstyle/2018/jul/25/henry-firth-ian-theasby-sticky-shiitake-mushrooms", "isHosted": false, "pillarId": "pillar/lifestyle", "pillarName": "Lifestyle"}, {"id": "lifeandstyle/2018/jul/25/french-dessert-iles-flottantes-creme-anglaise-custard-meringue-recipe", "type": "article", "sectionId": "food", "sectionName": "Food", "webPublicationDate": "2018-07-25T11:00:12Z", "webTitle": "How to make the perfect \u00eeles flottantes | Felicity Cloake", "webUrl": "https://www.theguardian.com/lifeandstyle/2018/jul/25/french-dessert-iles-flottantes-creme-anglaise-custard-meringue-recipe", "apiUrl": "https://content.guardianapis.com/lifeandstyle/2018/jul/25/french-dessert-iles-flottantes-creme-anglaise-custard-meringue-recipe", "isHosted": false, "pillarId": "pillar/lifestyle", "pillarName": "Lifestyle"}, {"id": "lifeandstyle/2018/jul/25/fish-oil-hype-health-planet-supplements-study-no-benefit", "type": "article", "sectionId": "lifeandstyle", "sectionName": "Life and style", "webPublicationDate": "2018-07-25T05:00:04Z", "webTitle": "Fool\u2019s gold: what fish oil is doing to our health and the planet", "webUrl": "https://www.theguardian.com/lifeandstyle/2018/jul/25/fish-oil-hype-health-planet-supplements-study-no-benefit", "apiUrl": "https://content.guardianapis.com/lifeandstyle/2018/jul/25/fish-oil-hype-health-planet-supplements-study-no-benefit", "isHosted": false, "pillarId": "pillar/lifestyle", "pillarName": "Lifestyle"}, {"id": "lifeandstyle/2018/jul/24/best-vegetarian-vegan-recipes-mapo-tofu-shawarma-aubergine-thai-ghanaian", "type": "article", "sectionId": "food", "sectionName": "Food", "webPublicationDate": "2018-07-24T07:00:07Z", "webTitle": "A classic mapo tofu and a shawarma with a twist: 20 best vegetarian and vegan recipes \u2013 part 2", "webUrl": "https://www.theguardian.com/lifeandstyle/2018/jul/24/best-vegetarian-vegan-recipes-mapo-tofu-shawarma-aubergine-thai-ghanaian", "apiUrl": "https://content.guardianapis.com/lifeandstyle/2018/jul/24/best-vegetarian-vegan-recipes-mapo-tofu-shawarma-aubergine-thai-ghanaian", "isHosted": false, "pillarId": "pillar/lifestyle", "pillarName": "Lifestyle"}, {"id": "travel/2018/jul/24/north-spain-road-trip-san-sebastian-basque-country-a-coruna-galicia", "type": "article", "sectionId": "travel", "sectionName": "Travel", "webPublicationDate": "2018-07-24T05:30:05Z", "webTitle": "Northern Spain road trip: pull over for pintxos", "webUrl": "https://www.theguardian.com/travel/2018/jul/24/north-spain-road-trip-san-sebastian-basque-country-a-coruna-galicia", "apiUrl": "https://content.guardianapis.com/travel/2018/jul/24/north-spain-road-trip-san-sebastian-basque-country-a-coruna-galicia", "isHosted": false, "pillarId": "pillar/lifestyle", "pillarName": "Lifestyle"}, {"id": "travel/2018/jul/23/the-car-for-a-true-guardian-reader", "type": "article", "sectionId": "travel", "sectionName": "Travel", "webPublicationDate": "2018-07-23T16:19:43Z", "webTitle": "The car for a true Guardian reader | Brief letters", "webUrl": "https://www.theguardian.com/travel/2018/jul/23/the-car-for-a-true-guardian-reader", "apiUrl": "https://content.guardianapis.com/travel/2018/jul/23/the-car-for-a-true-guardian-reader", "isHosted": false, "pillarId": "pillar/lifestyle", "pillarName": "Lifestyle"}, {"id": "lifeandstyle/2018/jul/23/rachel-roddy-recipe-tomato-risotto", "type": "article", "sectionId": "food", "sectionName": "Food", "webPublicationDate": "2018-07-23T11:00:34Z", "webTitle": "Rachel Roddy\u2019s recipe for tomato risotto", "webUrl": "https://www.theguardian.com/lifeandstyle/2018/jul/23/rachel-roddy-recipe-tomato-risotto", "apiUrl": "https://content.guardianapis.com/lifeandstyle/2018/jul/23/rachel-roddy-recipe-tomato-risotto", "isHosted": false, "pillarId": "pillar/lifestyle", "pillarName": "Lifestyle"}, {"id": "lifeandstyle/shortcuts/2018/jul/23/suck-it-up-can-pasta-straws-really-replace-plastic-ones", "type": "article", "sectionId": "food", "sectionName": "Food", "webPublicationDate": "2018-07-23T10:30:32Z", "webTitle": "Suck it up! Can pasta straws really replace plastic ones?", "webUrl": "https://www.theguardian.com/lifeandstyle/shortcuts/2018/jul/23/suck-it-up-can-pasta-straws-really-replace-plastic-ones", "apiUrl": "https://content.guardianapis.com/lifeandstyle/shortcuts/2018/jul/23/suck-it-up-can-pasta-straws-really-replace-plastic-ones", "isHosted": false, "pillarId": "pillar/lifestyle", "pillarName": "Lifestyle"}, {"id": "lifeandstyle/2018/jul/23/why-sardines-horrible-flat-tins-notes-queries", "type": "article", "sectionId": "lifeandstyle", "sectionName": "Life and style", "webPublicationDate": "2018-07-23T10:30:31Z", "webTitle": "Why are sardines sold in those horrible flat tins that spray you on opening? | Notes and queries", "webUrl": "https://www.theguardian.com/lifeandstyle/2018/jul/23/why-sardines-horrible-flat-tins-notes-queries", "apiUrl": "https://content.guardianapis.com/lifeandstyle/2018/jul/23/why-sardines-horrible-flat-tins-notes-queries", "isHosted": false, "pillarId": "pillar/lifestyle", "pillarName": "Lifestyle"}, {"id": "travel/2018/jul/23/road-trip-italy-piacenza-rimini-food-emilia-romagna-bologna", "type": "article", "sectionId": "travel", "sectionName": "Travel", "webPublicationDate": "2018-07-23T05:30:25Z", "webTitle": "All roads lead to Romagna", "webUrl": "https://www.theguardian.com/travel/2018/jul/23/road-trip-italy-piacenza-rimini-food-emilia-romagna-bologna", "apiUrl": "https://content.guardianapis.com/travel/2018/jul/23/road-trip-italy-piacenza-rimini-food-emilia-romagna-bologna", "isHosted": false, "pillarId": "pillar/lifestyle", "pillarName": "Lifestyle"}, {"id": "technology/2018/jul/22/the-five-ancient-food-bread-wine-chocolate-beer-popcorn", "type": "article", "sectionId": "technology", "sectionName": "Technology", "webPublicationDate": "2018-07-22T07:00:09Z", "webTitle": "Ancient food", "webUrl": "https://www.theguardian.com/technology/2018/jul/22/the-five-ancient-food-bread-wine-chocolate-beer-popcorn", "apiUrl": "https://content.guardianapis.com/technology/2018/jul/22/the-five-ancient-food-bread-wine-chocolate-beer-popcorn", "isHosted": false, "pillarId": "pillar/news", "pillarName": "News"}, {"id": "lifeandstyle/2018/jul/22/rosemary-ferguson-nutritionist-model-tastebuds-warped", "type": "article", "sectionId": "lifeandstyle", "sectionName": "Life and style", "webPublicationDate": "2018-07-22T05:00:10Z", "webTitle": "Rosemary Ferguson: \u2018I do realise my tastebuds are a bit warped\u2019", "webUrl": "https://www.theguardian.com/lifeandstyle/2018/jul/22/rosemary-ferguson-nutritionist-model-tastebuds-warped", "apiUrl": "https://content.guardianapis.com/lifeandstyle/2018/jul/22/rosemary-ferguson-nutritionist-model-tastebuds-warped", "isHosted": false, "pillarId": "pillar/lifestyle", "pillarName": "Lifestyle"}, {"id": "world/2018/jul/22/italy-farmers-olive-trees-xylella-blight-cow-dung-puglia", "type": "article", "sectionId": "world", "sectionName": "World news", "webPublicationDate": "2018-07-22T05:00:08Z", "webTitle": "Italy\u2019s farmers turn to cow dung to save beloved olive trees", "webUrl": "https://www.theguardian.com/world/2018/jul/22/italy-farmers-olive-trees-xylella-blight-cow-dung-puglia", "apiUrl": "https://content.guardianapis.com/world/2018/jul/22/italy-farmers-olive-trees-xylella-blight-cow-dung-puglia", "isHosted": false, "pillarId": "pillar/news", "pillarName": "News"}, {"id": "cities/2018/jul/22/shoreditch-east-end-london-art-hub-big-business-gentrification", "type": "article", "sectionId": "cities", "sectionName": "Cities", "webPublicationDate": "2018-07-22T05:00:07Z", "webTitle": "Shoreditch: is hipster heaven now falling prey to \u2018cultural cleansing\u2019?", "webUrl": "https://www.theguardian.com/cities/2018/jul/22/shoreditch-east-end-london-art-hub-big-business-gentrification", "apiUrl": "https://content.guardianapis.com/cities/2018/jul/22/shoreditch-east-end-london-art-hub-big-business-gentrification", "isHosted": false, "pillarId": "pillar/news", "pillarName": "News"}, {"id": "lifeandstyle/2018/jul/22/same-name-different-game-famous-producers-making-wine-away-from-home", "type": "article", "sectionId": "food", "sectionName": "Food", "webPublicationDate": "2018-07-22T04:59:07Z", "webTitle": "Same name, different game | David Williams", "webUrl": "https://www.theguardian.com/lifeandstyle/2018/jul/22/same-name-different-game-famous-producers-making-wine-away-from-home", "apiUrl": "https://content.guardianapis.com/lifeandstyle/2018/jul/22/same-name-different-game-famous-producers-making-wine-away-from-home", "isHosted": false, "pillarId": "pillar/lifestyle", "pillarName": "Lifestyle"}, {"id": "lifeandstyle/2018/jul/22/duke-richmond-hackney-restaurant-review-jay-rayner", "type": "article", "sectionId": "food", "sectionName": "Food", "webPublicationDate": "2018-07-22T04:59:06Z", "webTitle": "The Duke of Richmond, Hackney: \u2018Nothing prissy or mannered here\u2019 \u2013 restaurant review", "webUrl": "https://www.theguardian.com/lifeandstyle/2018/jul/22/duke-richmond-hackney-restaurant-review-jay-rayner", "apiUrl": "https://content.guardianapis.com/lifeandstyle/2018/jul/22/duke-richmond-hackney-restaurant-review-jay-rayner", "isHosted": false, "pillarId": "pillar/lifestyle", "pillarName": "Lifestyle"}, {"id": "lifeandstyle/2018/jul/21/tamal-ray-recipe-white-nougat-dried-apricot-cherry", "type": "article", "sectionId": "food", "sectionName": "Food", "webPublicationDate": "2018-07-21T11:00:36Z", "webTitle": "Tamal Ray\u2019s recipe for white nougat with dried apricot and cherry", "webUrl": "https://www.theguardian.com/lifeandstyle/2018/jul/21/tamal-ray-recipe-white-nougat-dried-apricot-cherry", "apiUrl": "https://content.guardianapis.com/lifeandstyle/2018/jul/21/tamal-ray-recipe-white-nougat-dried-apricot-cherry", "isHosted": false, "pillarId": "pillar/lifestyle", "pillarName": "Lifestyle"}, {"id": "lifeandstyle/2018/jul/21/thomasina-miers-recipe-for-green-bean-and-new-potato-tonnato-salad", "type": "article", "sectionId": "food", "sectionName": "Food", "webPublicationDate": "2018-07-21T11:00:34Z", "webTitle": "Thomasina Miers\u2019 recipe for green bean and new potato \u2018tonnato\u2019 salad", "webUrl": "https://www.theguardian.com/lifeandstyle/2018/jul/21/thomasina-miers-recipe-for-green-bean-and-new-potato-tonnato-salad", "apiUrl": "https://content.guardianapis.com/lifeandstyle/2018/jul/21/thomasina-miers-recipe-for-green-bean-and-new-potato-tonnato-salad", "isHosted": false, "pillarId": "pillar/lifestyle", "pillarName": "Lifestyle"}, {"id": "lifeandstyle/2018/jul/21/six-of-the-best-strawberry-recipes", "type": "article", "sectionId": "food", "sectionName": "Food", "webPublicationDate": "2018-07-21T06:00:37Z", "webTitle": "Six of the best strawberry recipes", "webUrl": "https://www.theguardian.com/lifeandstyle/2018/jul/21/six-of-the-best-strawberry-recipes", "apiUrl": "https://content.guardianapis.com/lifeandstyle/2018/jul/21/six-of-the-best-strawberry-recipes", "isHosted": false, "pillarId": "pillar/lifestyle", "pillarName": "Lifestyle"}, {"id": "lifeandstyle/2018/jul/21/anna-jones-egg-recipes", "type": "article", "sectionId": "food", "sectionName": "Food", "webPublicationDate": "2018-07-21T06:00:37Z", "webTitle": "Anna Jones\u2019s egg recipes", "webUrl": "https://www.theguardian.com/lifeandstyle/2018/jul/21/anna-jones-egg-recipes", "apiUrl": "https://content.guardianapis.com/lifeandstyle/2018/jul/21/anna-jones-egg-recipes", "isHosted": false, "pillarId": "pillar/lifestyle", "pillarName": "Lifestyle"}, {"id": "lifeandstyle/2018/jul/21/waste-not-beetroot-tops-yoghurt-dip", "type": "article", "sectionId": "food", "sectionName": "Food", "webPublicationDate": "2018-07-21T06:00:37Z", "webTitle": "Don't chuck those beetroot tops", "webUrl": "https://www.theguardian.com/lifeandstyle/2018/jul/21/waste-not-beetroot-tops-yoghurt-dip", "apiUrl": "https://content.guardianapis.com/lifeandstyle/2018/jul/21/waste-not-beetroot-tops-yoghurt-dip", "isHosted": false, "pillarId": "pillar/lifestyle", "pillarName": "Lifestyle"}, {"id": "lifeandstyle/2018/jul/21/meera-sodha-recipe-clay-pot-noodles-beetroot-walnut-smoked-tofu", "type": "article", "sectionId": "food", "sectionName": "Food", "webPublicationDate": "2018-07-21T06:00:28Z", "webTitle": "Meera Sodha\u2019s recipe for vegan clay pot noodles with smoked tofu", "webUrl": "https://www.theguardian.com/lifeandstyle/2018/jul/21/meera-sodha-recipe-clay-pot-noodles-beetroot-walnut-smoked-tofu", "apiUrl": "https://content.guardianapis.com/lifeandstyle/2018/jul/21/meera-sodha-recipe-clay-pot-noodles-beetroot-walnut-smoked-tofu", "isHosted": false, "pillarId": "pillar/lifestyle", "pillarName": "Lifestyle"}, {"id": "environment/2018/jul/21/country-diary-birds-cherrypick-their-share-of-fruit", "type": "article", "sectionId": "environment", "sectionName": "Environment", "webPublicationDate": "2018-07-21T04:30:26Z", "webTitle": "Country diary: birds cherrypick their share of fruit", "webUrl": "https://www.theguardian.com/environment/2018/jul/21/country-diary-birds-cherrypick-their-share-of-fruit", "apiUrl": "https://content.guardianapis.com/environment/2018/jul/21/country-diary-birds-cherrypick-their-share-of-fruit", "isHosted": false, "pillarId": "pillar/news", "pillarName": "News"}, {"id": "lifeandstyle/2018/jul/20/is-eating-bananas-whole-gay-fragile-masculinitys-bizarre-new-hetiquette", "type": "article", "sectionId": "food", "sectionName": "Food", "webPublicationDate": "2018-07-20T17:44:01Z", "webTitle": "Is eating bananas whole gay? Fragile masculinity's bizarre new 'hetiquette' | Arwa Mahdawi", "webUrl": "https://www.theguardian.com/lifeandstyle/2018/jul/20/is-eating-bananas-whole-gay-fragile-masculinitys-bizarre-new-hetiquette", "apiUrl": "https://content.guardianapis.com/lifeandstyle/2018/jul/20/is-eating-bananas-whole-gay-fragile-masculinitys-bizarre-new-hetiquette", "isHosted": false, "pillarId": "pillar/lifestyle", "pillarName": "Lifestyle"}]}}