{"response": {"status": "ok", "userTier": "developer", "total": 85829, "startIndex": 1, "pageSize": 50, "currentPage": 1, "pages": 1717, "orderBy": "newest", "results": [{"id": "football/2011/jul/31/premier-league-goalline-technology", "type": "article", "sectionId": "football", "sectionName": "Football", "webPublicationDate": "2011-07-30T23:50:44Z", "webTitle": "Premier League must wait until March for goalline technology decision", "webUrl": "https://www.theguardian.com/football/2011/jul/31/premier-league-goalline-technology", "apiUrl": "https://content.guardianapis.com/football/2011/jul/31/premier-league-goalline-technology", "isHosted": false, "pillarId": "pillar/sport", "pillarName": "Sport"}, {"id": "football/2011/jul/31/championship-predictions-new-season", "type": "article", "sectionId": "football", "sectionName": "Football", "webPublicationDate": "2011-07-30T23:29:55Z", "webTitle": "Don Goodman: My predictions for the 2011-12 Championship season", "webUrl": "https://www.theguardian.com/football/2011/jul/31/championship-predictions-new-season", "apiUrl": "https://content.guardianapis.com/football/2011/jul/31/championship-predictions-new-season", "isHosted": false, "pillarId": "pillar/sport", "pillarName": "Sport"}, {"id": "football/2011/jul/31/david-gill-manchester-united", "type": "article", "sectionId": "football", "sectionName": "Football", "webPublicationDate": "2011-07-30T23:08:01Z", "webTitle": "Manchester United have post-Sir Alex Ferguson plan, says David Gill", "webUrl": "https://www.theguardian.com/football/2011/jul/31/david-gill-manchester-united", "apiUrl": "https://content.guardianapis.com/football/2011/jul/31/david-gill-manchester-united", "isHosted": false, "pillarId": "pillar/sport", "pillarName": "Sport"}, {"id": "football/2011/jul/30/sam-allardyce-west-ham", "type": "article", "sectionId": "football", "sectionName": "Football", "webPublicationDate": "2011-07-30T22:44:00Z", "webTitle": "West Ham's promotion dream is safe is my hands, says Sam Allardyce", "webUrl": "https://www.theguardian.com/football/2011/jul/30/sam-allardyce-west-ham", "apiUrl": "https://content.guardianapis.com/football/2011/jul/30/sam-allardyce-west-ham", "isHosted": false, "pillarId": "pillar/sport", "pillarName": "Sport"}, {"id": "football/2011/jul/30/harry-redknapp-tottenham-luka-modric", "type": "article", "sectionId": "football", "sectionName": "Football", "webPublicationDate": "2011-07-30T22:34:01Z", "webTitle": "Harry Redknapp confirms Tottenham interest in signing Juan Mata", "webUrl": "https://www.theguardian.com/football/2011/jul/30/harry-redknapp-tottenham-luka-modric", "apiUrl": "https://content.guardianapis.com/football/2011/jul/30/harry-redknapp-tottenham-luka-modric", "isHosted": false, "pillarId": "pillar/sport", "pillarName": "Sport"}, {"id": "football/blog/2011/jul/30/world-cup-2014-qualifying-england", "type": "article", "sectionId": "football", "sectionName": "Football", "webPublicationDate": "2011-07-30T22:24:52Z", "webTitle": "England breathe a sigh of relief at World Cup 2014 qualifying draw | Paul Wilson", "webUrl": "https://www.theguardian.com/football/blog/2011/jul/30/world-cup-2014-qualifying-england", "apiUrl": "https://content.guardianapis.com/football/blog/2011/jul/30/world-cup-2014-qualifying-england", "isHosted": false, "pillarId": "pillar/sport", "pillarName": "Sport"}, {"id": "football/blog/2011/jul/30/karl-heinz-rummenigge-fifa", "type": "article", "sectionId": "football", "sectionName": "Football", "webPublicationDate": "2011-07-30T22:00:00Z", "webTitle": "Karl-Heinz Rummenigge provides a refuge for football's disillusioned | Lawrence Donegan", "webUrl": "https://www.theguardian.com/football/blog/2011/jul/30/karl-heinz-rummenigge-fifa", "apiUrl": "https://content.guardianapis.com/football/blog/2011/jul/30/karl-heinz-rummenigge-fifa", "isHosted": false, "pillarId": "pillar/sport", "pillarName": "Sport"}, {"id": "football/blog/2011/jul/30/football-management-courses", "type": "article", "sectionId": "football", "sectionName": "Football", "webPublicationDate": "2011-07-30T21:55:03Z", "webTitle": "Playing the coach in front of your peers deserves a badge of courage | David James", "webUrl": "https://www.theguardian.com/football/blog/2011/jul/30/football-management-courses", "apiUrl": "https://content.guardianapis.com/football/blog/2011/jul/30/football-management-courses", "isHosted": false, "pillarId": "pillar/sport", "pillarName": "Sport"}, {"id": "football/2011/jul/30/afc-wimbledon-football-league", "type": "article", "sectionId": "football", "sectionName": "Football", "webPublicationDate": "2011-07-30T21:55:00Z", "webTitle": "AFC Wimbledon feel 'sense of wonder' after odyssey to Football League", "webUrl": "https://www.theguardian.com/football/2011/jul/30/afc-wimbledon-football-league", "apiUrl": "https://content.guardianapis.com/football/2011/jul/30/afc-wimbledon-football-league", "isHosted": false, "pillarId": "pillar/sport", "pillarName": "Sport"}, {"id": "football/2011/jul/30/world-cup-2014-draw-england", "type": "article", "sectionId": "football", "sectionName": "Football", "webPublicationDate": "2011-07-30T21:45:35Z", "webTitle": "Fabio Capello warns England against World Cup qualifiers complacency", "webUrl": "https://www.theguardian.com/football/2011/jul/30/world-cup-2014-draw-england", "apiUrl": "https://content.guardianapis.com/football/2011/jul/30/world-cup-2014-draw-england", "isHosted": false, "pillarId": "pillar/sport", "pillarName": "Sport"}, {"id": "football/2011/jul/30/arsenal-boca-juniors-emirates-cup", "type": "article", "sectionId": "football", "sectionName": "Football", "webPublicationDate": "2011-07-30T20:50:32Z", "webTitle": "Ars\u00e8ne Wenger still has work to do as Boca Juniors claim a 2-2 draw", "webUrl": "https://www.theguardian.com/football/2011/jul/30/arsenal-boca-juniors-emirates-cup", "apiUrl": "https://content.guardianapis.com/football/2011/jul/30/arsenal-boca-juniors-emirates-cup", "isHosted": false, "pillarId": "pillar/sport", "pillarName": "Sport"}, {"id": "football/2011/jul/30/brighton-tottenham-hotspur-amex-stadium", "type": "article", "sectionId": "football", "sectionName": "Football", "webPublicationDate": "2011-07-30T19:21:11Z", "webTitle": "Brighton rock into new stadium but Tottenham come out on top", "webUrl": "https://www.theguardian.com/football/2011/jul/30/brighton-tottenham-hotspur-amex-stadium", "apiUrl": "https://content.guardianapis.com/football/2011/jul/30/brighton-tottenham-hotspur-amex-stadium", "isHosted": false, "pillarId": "pillar/sport", "pillarName": "Sport"}, {"id": "football/2011/jul/30/leicester-city-real-madrid-friendly", "type": "article", "sectionId": "football", "sectionName": "Football", "webPublicationDate": "2011-07-30T18:55:14Z", "webTitle": "Leicester City get a peek at the future with the visit of Real Madrid", "webUrl": "https://www.theguardian.com/football/2011/jul/30/leicester-city-real-madrid-friendly", "apiUrl": "https://content.guardianapis.com/football/2011/jul/30/leicester-city-real-madrid-friendly", "isHosted": false, "pillarId": "pillar/sport", "pillarName": "Sport"}, {"id": "football/2011/jul/30/aberdeen-st-mirren-spl", "type": "article", "sectionId": "football", "sectionName": "Football", "webPublicationDate": "2011-07-30T18:04:26Z", "webTitle": "Nigel Hasselbaink scores as St Mirren defeat Aberdeen | Nial Briggs", "webUrl": "https://www.theguardian.com/football/2011/jul/30/aberdeen-st-mirren-spl", "apiUrl": "https://content.guardianapis.com/football/2011/jul/30/aberdeen-st-mirren-spl", "isHosted": false, "pillarId": "pillar/sport", "pillarName": "Sport"}, {"id": "football/2011/jul/30/steven-gerrard-charlie-adam-liverpool", "type": "article", "sectionId": "football", "sectionName": "Football", "webPublicationDate": "2011-07-30T17:13:33Z", "webTitle": "Charlie Adam ready to step into limelight after Steven Gerrard injury", "webUrl": "https://www.theguardian.com/football/2011/jul/30/steven-gerrard-charlie-adam-liverpool", "apiUrl": "https://content.guardianapis.com/football/2011/jul/30/steven-gerrard-charlie-adam-liverpool", "isHosted": false, "pillarId": "pillar/sport", "pillarName": "Sport"}, {"id": "football/2011/jul/30/world-cup-2014-qualifying-draw-live", "type": "article", "sectionId": "football", "sectionName": "Football", "webPublicationDate": "2011-07-30T16:29:00Z", "webTitle": "World Cup 2014: Preliminary draw - as it happened | Scott Murray", "webUrl": "https://www.theguardian.com/football/2011/jul/30/world-cup-2014-qualifying-draw-live", "apiUrl": "https://content.guardianapis.com/football/2011/jul/30/world-cup-2014-qualifying-draw-live", "isHosted": false, "pillarId": "pillar/sport", "pillarName": "Sport"}, {"id": "football/2011/jul/30/chelsea-aston-villa-barclays-asia-cup", "type": "article", "sectionId": "football", "sectionName": "Football", "webPublicationDate": "2011-07-30T15:44:12Z", "webTitle": "Chelsea 2-0 Aston Villa | Barclays Asia Cup match report", "webUrl": "https://www.theguardian.com/football/2011/jul/30/chelsea-aston-villa-barclays-asia-cup", "apiUrl": "https://content.guardianapis.com/football/2011/jul/30/chelsea-aston-villa-barclays-asia-cup", "isHosted": false, "pillarId": "pillar/sport", "pillarName": "Sport"}, {"id": "football/2011/jul/30/mauro-formica-blackburn-rovers-asia-friendly", "type": "article", "sectionId": "football", "sectionName": "Football", "webPublicationDate": "2011-07-30T12:05:19Z", "webTitle": "Blackburn Rovers 3-0 Kitchee | Asia Trophy match report", "webUrl": "https://www.theguardian.com/football/2011/jul/30/mauro-formica-blackburn-rovers-asia-friendly", "apiUrl": "https://content.guardianapis.com/football/2011/jul/30/mauro-formica-blackburn-rovers-asia-friendly", "isHosted": false, "pillarId": "pillar/sport", "pillarName": "Sport"}, {"id": "football/blog/2011/jul/30/scotland-early-start", "type": "article", "sectionId": "football", "sectionName": "Football", "webPublicationDate": "2011-07-30T11:00:00Z", "webTitle": "Why the SPL's early start has caught Scotland cold | Ewan Murray", "webUrl": "https://www.theguardian.com/football/blog/2011/jul/30/scotland-early-start", "apiUrl": "https://content.guardianapis.com/football/blog/2011/jul/30/scotland-early-start", "isHosted": false, "pillarId": "pillar/sport", "pillarName": "Sport"}, {"id": "football/2011/jul/30/tottenham-hotspur-juan-mata", "type": "article", "sectionId": "football", "sectionName": "Football", "webPublicationDate": "2011-07-29T23:35:15Z", "webTitle": "Tottenham try to preempt Arsenal with \u00a322m bid for Juan Mata", "webUrl": "https://www.theguardian.com/football/2011/jul/30/tottenham-hotspur-juan-mata", "apiUrl": "https://content.guardianapis.com/football/2011/jul/30/tottenham-hotspur-juan-mata", "isHosted": false, "pillarId": "pillar/sport", "pillarName": "Sport"}, {"id": "football/2011/jul/29/manchester-united-summer-signings", "type": "article", "sectionId": "football", "sectionName": "Football", "webPublicationDate": "2011-07-29T22:43:00Z", "webTitle": "Manchester United's hopes fade on Wesley Sneijder and Samir Nasri", "webUrl": "https://www.theguardian.com/football/2011/jul/29/manchester-united-summer-signings", "apiUrl": "https://content.guardianapis.com/football/2011/jul/29/manchester-united-summer-signings", "isHosted": false, "pillarId": "pillar/sport", "pillarName": "Sport"}, {"id": "football/blog/2011/jul/29/stoke-britannia-stadium-rainy-tuesday", "type": "article", "sectionId": "football", "sectionName": "Football", "webPublicationDate": "2011-07-29T21:54:01Z", "webTitle": "Why wet, windy Stoke has the answer to everything | Rob Smyth", "webUrl": "https://www.theguardian.com/football/blog/2011/jul/29/stoke-britannia-stadium-rainy-tuesday", "apiUrl": "https://content.guardianapis.com/football/blog/2011/jul/29/stoke-britannia-stadium-rainy-tuesday", "isHosted": false, "pillarId": "pillar/sport", "pillarName": "Sport"}, {"id": "football/2011/jul/29/michael-carrick-manchester-united-midfield", "type": "article", "sectionId": "football", "sectionName": "Football", "webPublicationDate": "2011-07-29T21:45:07Z", "webTitle": "Michael Carrick: I need to have more influence at Manchester United", "webUrl": "https://www.theguardian.com/football/2011/jul/29/michael-carrick-manchester-united-midfield", "apiUrl": "https://content.guardianapis.com/football/2011/jul/29/michael-carrick-manchester-united-midfield", "isHosted": false, "pillarId": "pillar/sport", "pillarName": "Sport"}, {"id": "football/2011/jul/29/josh-mceachran-homegrown-chelsea", "type": "article", "sectionId": "football", "sectionName": "Football", "webPublicationDate": "2011-07-29T21:29:01Z", "webTitle": "Josh McEachran hopes to sate home-grown hunger at Chelsea", "webUrl": "https://www.theguardian.com/football/2011/jul/29/josh-mceachran-homegrown-chelsea", "apiUrl": "https://content.guardianapis.com/football/2011/jul/29/josh-mceachran-homegrown-chelsea", "isHosted": false, "pillarId": "pillar/sport", "pillarName": "Sport"}, {"id": "football/2011/jul/29/aston-villa-alex-mcleish", "type": "article", "sectionId": "football", "sectionName": "Football", "webPublicationDate": "2011-07-29T21:00:02Z", "webTitle": "Aston Villa's Alex McLeish concerned by 'three-tier' Premier League", "webUrl": "https://www.theguardian.com/football/2011/jul/29/aston-villa-alex-mcleish", "apiUrl": "https://content.guardianapis.com/football/2011/jul/29/aston-villa-alex-mcleish", "isHosted": false, "pillarId": "pillar/sport", "pillarName": "Sport"}, {"id": "football/blog/2011/jul/29/fa-reform-select-committee-report", "type": "article", "sectionId": "football", "sectionName": "Football", "webPublicationDate": "2011-07-29T18:28:13Z", "webTitle": "Familiar failings at the FA \u2013 this time they must act | Owen Gibson", "webUrl": "https://www.theguardian.com/football/blog/2011/jul/29/fa-reform-select-committee-report", "apiUrl": "https://content.guardianapis.com/football/blog/2011/jul/29/fa-reform-select-committee-report", "isHosted": false, "pillarId": "pillar/sport", "pillarName": "Sport"}, {"id": "football/2011/jul/29/arsenal-cesc-fabregas-thierry-henry", "type": "article", "sectionId": "football", "sectionName": "Football", "webPublicationDate": "2011-07-29T18:10:29Z", "webTitle": "Arsenal can survive without Cesc F\u00e1bregas, says Thierry Henry", "webUrl": "https://www.theguardian.com/football/2011/jul/29/arsenal-cesc-fabregas-thierry-henry", "apiUrl": "https://content.guardianapis.com/football/2011/jul/29/arsenal-cesc-fabregas-thierry-henry", "isHosted": false, "pillarId": "pillar/sport", "pillarName": "Sport"}, {"id": "football/2011/jul/29/the-fiver-football-select-committee", "type": "article", "sectionId": "football", "sectionName": "Football", "webPublicationDate": "2011-07-29T15:09:20Z", "webTitle": "The Fiver | Totally jiggered by capitalism | Scott Murray", "webUrl": "https://www.theguardian.com/football/2011/jul/29/the-fiver-football-select-committee", "apiUrl": "https://content.guardianapis.com/football/2011/jul/29/the-fiver-football-select-committee", "isHosted": false, "pillarId": "pillar/sport", "pillarName": "Sport"}, {"id": "football/2011/jul/29/arsenal-barcelona-cesc-fabregas", "type": "article", "sectionId": "football", "sectionName": "Football", "webPublicationDate": "2011-07-29T15:02:42Z", "webTitle": "Ars\u00e8ne Wenger wants situation over unsettled Cesc F\u00e1bregas resolved", "webUrl": "https://www.theguardian.com/football/2011/jul/29/arsenal-barcelona-cesc-fabregas", "apiUrl": "https://content.guardianapis.com/football/2011/jul/29/arsenal-barcelona-cesc-fabregas", "isHosted": false, "pillarId": "pillar/sport", "pillarName": "Sport"}, {"id": "football/2011/jul/29/blackburn-rovers-david-goodwillie-dundee0united", "type": "article", "sectionId": "football", "sectionName": "Football", "webPublicationDate": "2011-07-29T12:15:11Z", "webTitle": "Radosav PetrovicBlackburn Rovers join race to sign Dundee United's David Goodwillie", "webUrl": "https://www.theguardian.com/football/2011/jul/29/blackburn-rovers-david-goodwillie-dundee0united", "apiUrl": "https://content.guardianapis.com/football/2011/jul/29/blackburn-rovers-david-goodwillie-dundee0united", "isHosted": false, "pillarId": "pillar/sport", "pillarName": "Sport"}, {"id": "football/blog/2011/jul/29/france-world-cup-draw-england", "type": "article", "sectionId": "football", "sectionName": "Football", "webPublicationDate": "2011-07-29T11:41:26Z", "webTitle": "France haunt World Cup draw for an England flattered by Fifa rankings | Paul Wilson", "webUrl": "https://www.theguardian.com/football/blog/2011/jul/29/france-world-cup-draw-england", "apiUrl": "https://content.guardianapis.com/football/blog/2011/jul/29/france-world-cup-draw-england", "isHosted": false, "pillarId": "pillar/sport", "pillarName": "Sport"}, {"id": "football/2011/jul/29/parliamentary-committee-fa-urgent-reform", "type": "article", "sectionId": "football", "sectionName": "Football", "webPublicationDate": "2011-07-29T11:00:04Z", "webTitle": "Parliamentary committee says FA needs radical and 'urgent reform'", "webUrl": "https://www.theguardian.com/football/2011/jul/29/parliamentary-committee-fa-urgent-reform", "apiUrl": "https://content.guardianapis.com/football/2011/jul/29/parliamentary-committee-fa-urgent-reform", "isHosted": false, "pillarId": "pillar/sport", "pillarName": "Sport"}, {"id": "sport/blog/2011/jul/29/joy-of-six-football-youtube", "type": "article", "sectionId": "sport", "sectionName": "Sport", "webPublicationDate": "2011-07-29T10:06:34Z", "webTitle": "The Joy of Six: Football on YouTube | Scott Murray", "webUrl": "https://www.theguardian.com/sport/blog/2011/jul/29/joy-of-six-football-youtube", "apiUrl": "https://content.guardianapis.com/sport/blog/2011/jul/29/joy-of-six-football-youtube", "isHosted": false, "pillarId": "pillar/sport", "pillarName": "Sport"}, {"id": "football/2011/jul/29/football-transfer-rumours-javier-pastore", "type": "article", "sectionId": "football", "sectionName": "Football", "webPublicationDate": "2011-07-29T07:39:37Z", "webTitle": "Football transfer rumours: Javier Pastore to Chelsea?", "webUrl": "https://www.theguardian.com/football/2011/jul/29/football-transfer-rumours-javier-pastore", "apiUrl": "https://content.guardianapis.com/football/2011/jul/29/football-transfer-rumours-javier-pastore", "isHosted": false, "pillarId": "pillar/sport", "pillarName": "Sport"}, {"id": "sport/2011/jul/29/small-talk-mark-lawrenson", "type": "article", "sectionId": "sport", "sectionName": "Sport", "webPublicationDate": "2011-07-28T23:31:00Z", "webTitle": "Mark Lawrenson: 'We had no warm-up, no warm-down, we drank like fish' | Small Talk", "webUrl": "https://www.theguardian.com/sport/2011/jul/29/small-talk-mark-lawrenson", "apiUrl": "https://content.guardianapis.com/sport/2011/jul/29/small-talk-mark-lawrenson", "isHosted": false, "pillarId": "pillar/sport", "pillarName": "Sport"}, {"id": "football/2011/jul/29/marcel-desailly-andre-villas-boas", "type": "article", "sectionId": "football", "sectionName": "Football", "webPublicationDate": "2011-07-28T23:06:01Z", "webTitle": "Marcel Desailly: Andr\u00e9 Villas-Boas must hit the ground running", "webUrl": "https://www.theguardian.com/football/2011/jul/29/marcel-desailly-andre-villas-boas", "apiUrl": "https://content.guardianapis.com/football/2011/jul/29/marcel-desailly-andre-villas-boas", "isHosted": false, "pillarId": "pillar/sport", "pillarName": "Sport"}, {"id": "football/quiz/2011/jul/29/football-quiz-alberto-aquilani", "type": "article", "sectionId": "global", "sectionName": "Global", "webPublicationDate": "2011-07-28T23:01:00Z", "webTitle": "Football quiz: Alberto Aquilani", "webUrl": "https://www.theguardian.com/football/quiz/2011/jul/29/football-quiz-alberto-aquilani", "apiUrl": "https://content.guardianapis.com/football/quiz/2011/jul/29/football-quiz-alberto-aquilani", "isHosted": false}, {"id": "football/2011/jul/28/stoke-city-hadjuk-split", "type": "article", "sectionId": "football", "sectionName": "Football", "webPublicationDate": "2011-07-28T22:37:00Z", "webTitle": "Stoke City 1-0 Hajduk Split | Europa League match report", "webUrl": "https://www.theguardian.com/football/2011/jul/28/stoke-city-hadjuk-split", "apiUrl": "https://content.guardianapis.com/football/2011/jul/28/stoke-city-hadjuk-split", "isHosted": false, "pillarId": "pillar/sport", "pillarName": "Sport"}, {"id": "football/2011/jul/28/arsenal-phil-jagielka-juan-mata", "type": "article", "sectionId": "football", "sectionName": "Football", "webPublicationDate": "2011-07-28T22:15:00Z", "webTitle": "Arsenal's Ars\u00e8ne Wenger ready to move for Phil Jagielka and Juan Mata", "webUrl": "https://www.theguardian.com/football/2011/jul/28/arsenal-phil-jagielka-juan-mata", "apiUrl": "https://content.guardianapis.com/football/2011/jul/28/arsenal-phil-jagielka-juan-mata", "isHosted": false, "pillarId": "pillar/sport", "pillarName": "Sport"}, {"id": "football/2011/jul/28/javier-hernandez-head-concussion", "type": "article", "sectionId": "football", "sectionName": "Football", "webPublicationDate": "2011-07-28T22:00:00Z", "webTitle": "Javier Hern\u00e1ndez's former club claim he has a neurological condition", "webUrl": "https://www.theguardian.com/football/2011/jul/28/javier-hernandez-head-concussion", "apiUrl": "https://content.guardianapis.com/football/2011/jul/28/javier-hernandez-head-concussion", "isHosted": false, "pillarId": "pillar/sport", "pillarName": "Sport"}, {"id": "football/2011/jul/28/shay-given-manchester-city-title", "type": "article", "sectionId": "football", "sectionName": "Football", "webPublicationDate": "2011-07-28T21:30:03Z", "webTitle": "Shay Given: Manchester City can win the Premier League next season", "webUrl": "https://www.theguardian.com/football/2011/jul/28/shay-given-manchester-city-title", "apiUrl": "https://content.guardianapis.com/football/2011/jul/28/shay-given-manchester-city-title", "isHosted": false, "pillarId": "pillar/sport", "pillarName": "Sport"}, {"id": "football/2011/jul/28/peter-pannu-birmingham-city", "type": "article", "sectionId": "football", "sectionName": "Football", "webPublicationDate": "2011-07-28T20:41:26Z", "webTitle": "Peter Pannu warns that player exodus at Birmingham City will continue", "webUrl": "https://www.theguardian.com/football/2011/jul/28/peter-pannu-birmingham-city", "apiUrl": "https://content.guardianapis.com/football/2011/jul/28/peter-pannu-birmingham-city", "isHosted": false, "pillarId": "pillar/sport", "pillarName": "Sport"}, {"id": "football/2011/jul/28/fifa-fans-super-league-opposition", "type": "article", "sectionId": "football", "sectionName": "Football", "webPublicationDate": "2011-07-28T19:50:00Z", "webTitle": "Football Supporters' Federation warns against elite clubs' breakaway", "webUrl": "https://www.theguardian.com/football/2011/jul/28/fifa-fans-super-league-opposition", "apiUrl": "https://content.guardianapis.com/football/2011/jul/28/fifa-fans-super-league-opposition", "isHosted": false, "pillarId": "pillar/sport", "pillarName": "Sport"}, {"id": "football/2011/jul/28/the-fa-reform-legislative-change", "type": "article", "sectionId": "football", "sectionName": "Football", "webPublicationDate": "2011-07-28T19:44:43Z", "webTitle": "The FA to be given a year to reform or face change through legislation", "webUrl": "https://www.theguardian.com/football/2011/jul/28/the-fa-reform-legislative-change", "apiUrl": "https://content.guardianapis.com/football/2011/jul/28/the-fa-reform-legislative-change", "isHosted": false, "pillarId": "pillar/sport", "pillarName": "Sport"}, {"id": "football/2011/jul/28/sergio-aguero-manchester-city", "type": "article", "sectionId": "football", "sectionName": "Football", "webPublicationDate": "2011-07-28T17:57:57Z", "webTitle": "Sergio Ag\u00fcero signs five-year deal at Manchester City", "webUrl": "https://www.theguardian.com/football/2011/jul/28/sergio-aguero-manchester-city", "apiUrl": "https://content.guardianapis.com/football/2011/jul/28/sergio-aguero-manchester-city", "isHosted": false, "pillarId": "pillar/sport", "pillarName": "Sport"}, {"id": "football/blog/2011/jul/28/football-select-committee-report", "type": "article", "sectionId": "football", "sectionName": "Football", "webPublicationDate": "2011-07-28T17:05:49Z", "webTitle": "Football cannot deliver the reform needed without outside assistance | Dave Boyle", "webUrl": "https://www.theguardian.com/football/blog/2011/jul/28/football-select-committee-report", "apiUrl": "https://content.guardianapis.com/football/blog/2011/jul/28/football-select-committee-report", "isHosted": false, "pillarId": "pillar/sport", "pillarName": "Sport"}, {"id": "football/2011/jul/28/select-committee-english-football-report", "type": "article", "sectionId": "football", "sectionName": "Football", "webPublicationDate": "2011-07-28T17:00:01Z", "webTitle": "Select committee to propose radical overhaul of English football", "webUrl": "https://www.theguardian.com/football/2011/jul/28/select-committee-english-football-report", "apiUrl": "https://content.guardianapis.com/football/2011/jul/28/select-committee-english-football-report", "isHosted": false, "pillarId": "pillar/sport", "pillarName": "Sport"}, {"id": "football/2011/jul/28/the-fiver-european-breakaway-threat", "type": "article", "sectionId": "football", "sectionName": "Football", "webPublicationDate": "2011-07-28T15:07:22Z", "webTitle": "The Fiver | Same as the old version, except with the money going to it, not Fifa and Uefa | Rob Smyth", "webUrl": "https://www.theguardian.com/football/2011/jul/28/the-fiver-european-breakaway-threat", "apiUrl": "https://content.guardianapis.com/football/2011/jul/28/the-fiver-european-breakaway-threat", "isHosted": false, "pillarId": "pillar/sport", "pillarName": "Sport"}, {"id": "football/video/2011/jul/28/manchester-united-mls-allstars-video", "type": "video", "sectionId": "football", "sectionName": "Football", "webPublicationDate": "2011-07-28T11:24:00Z", "webTitle": "Manchester United beat the MLS All-Stars \u2013 video", "webUrl": "https://www.theguardian.com/football/video/2011/jul/28/manchester-united-mls-allstars-video", "apiUrl": "https://content.guardianapis.com/football/video/2011/jul/28/manchester-united-mls-allstars-video", "isHosted": false, "pillarId": "pillar/sport", "pillarName": "Sport"}, {"id": "football/football-league-blog/2011/jul/28/calling-football-league-bloggers-again", "type": "article", "sectionId": "football", "sectionName": "Football", "webPublicationDate": "2011-07-28T11:10:24Z", "webTitle": "Calling Football League bloggers. Again | James Dart", "webUrl": "https://www.theguardian.com/football/football-league-blog/2011/jul/28/calling-football-league-bloggers-again", "apiUrl": "https://content.guardianapis.com/football/football-league-blog/2011/jul/28/calling-football-league-bloggers-again", "isHosted": false, "pillarId": "pillar/sport", "pillarName": "Sport"}]}}