{"response": {"status": "ok", "userTier": "developer", "total": 37026, "startIndex": 1, "pageSize": 50, "currentPage": 1, "pages": 741, "orderBy": "newest", "results": [{"id": "science/2013/jul/31/woolly-mammoth-dna-cloning", "type": "article", "sectionId": "science", "sectionName": "Science", "webPublicationDate": "2013-07-30T23:01:00Z", "webTitle": "Woolly mammoth DNA may lead to a resurrection of the ancient beast", "webUrl": "https://www.theguardian.com/science/2013/jul/31/woolly-mammoth-dna-cloning", "apiUrl": "https://content.guardianapis.com/science/2013/jul/31/woolly-mammoth-dna-cloning", "isHosted": false, "pillarId": "pillar/news", "pillarName": "News"}, {"id": "environment/2013/jul/30/biofuels-threaten-food-production-kendall", "type": "article", "sectionId": "environment", "sectionName": "Environment", "webPublicationDate": "2013-07-30T19:59:01Z", "webTitle": "Letters: Biofuels threaten food production", "webUrl": "https://www.theguardian.com/environment/2013/jul/30/biofuels-threaten-food-production-kendall", "apiUrl": "https://content.guardianapis.com/environment/2013/jul/30/biofuels-threaten-food-production-kendall", "isHosted": false, "pillarId": "pillar/news", "pillarName": "News"}, {"id": "environment/2013/jul/30/wenlock-edge-drunkenly-delirious-insect-music", "type": "article", "sectionId": "environment", "sectionName": "Environment", "webPublicationDate": "2013-07-30T19:59:00Z", "webTitle": "Country diary: Wenlock Edge: Drunkenly delirious insect music", "webUrl": "https://www.theguardian.com/environment/2013/jul/30/wenlock-edge-drunkenly-delirious-insect-music", "apiUrl": "https://content.guardianapis.com/environment/2013/jul/30/wenlock-edge-drunkenly-delirious-insect-music", "isHosted": false, "pillarId": "pillar/news", "pillarName": "News"}, {"id": "business/2013/jul/30/bp-deepwater-compensation-fund-running-dry", "type": "article", "sectionId": "business", "sectionName": "Business", "webPublicationDate": "2013-07-30T18:00:00Z", "webTitle": "BP's Deepwater compensation fund running dry", "webUrl": "https://www.theguardian.com/business/2013/jul/30/bp-deepwater-compensation-fund-running-dry", "apiUrl": "https://content.guardianapis.com/business/2013/jul/30/bp-deepwater-compensation-fund-running-dry", "isHosted": false, "pillarId": "pillar/news", "pillarName": "News"}, {"id": "business/2013/jul/30/dash-gas-needed-drax-ceo", "type": "article", "sectionId": "business", "sectionName": "Business", "webPublicationDate": "2013-07-30T17:59:36Z", "webTitle": "Dash for gas needed to prevent power cuts, says Drax CEO", "webUrl": "https://www.theguardian.com/business/2013/jul/30/dash-gas-needed-drax-ceo", "apiUrl": "https://content.guardianapis.com/business/2013/jul/30/dash-gas-needed-drax-ceo", "isHosted": false, "pillarId": "pillar/news", "pillarName": "News"}, {"id": "environment/2013/jul/30/nepal-tiger-population-rises", "type": "article", "sectionId": "environment", "sectionName": "Environment", "webPublicationDate": "2013-07-30T17:29:10Z", "webTitle": "Nepal's tiger population on the rise", "webUrl": "https://www.theguardian.com/environment/2013/jul/30/nepal-tiger-population-rises", "apiUrl": "https://content.guardianapis.com/environment/2013/jul/30/nepal-tiger-population-rises", "isHosted": false, "pillarId": "pillar/news", "pillarName": "News"}, {"id": "environment/2013/jul/30/jelly-fish-welcome-british-shores", "type": "article", "sectionId": "environment", "sectionName": "Environment", "webPublicationDate": "2013-07-30T17:05:26Z", "webTitle": "Jellyfish: welcome to Britain", "webUrl": "https://www.theguardian.com/environment/2013/jul/30/jelly-fish-welcome-british-shores", "apiUrl": "https://content.guardianapis.com/environment/2013/jul/30/jelly-fish-welcome-british-shores", "isHosted": false, "pillarId": "pillar/news", "pillarName": "News"}, {"id": "science/political-science/2013/jul/30/greens-science-policy", "type": "article", "sectionId": "science", "sectionName": "Science", "webPublicationDate": "2013-07-30T17:03:00Z", "webTitle": "The greens are far from \"finished\" | Andy Stirling", "webUrl": "https://www.theguardian.com/science/political-science/2013/jul/30/greens-science-policy", "apiUrl": "https://content.guardianapis.com/science/political-science/2013/jul/30/greens-science-policy", "isHosted": false, "pillarId": "pillar/news", "pillarName": "News"}, {"id": "environment/video/2013/jul/30/fracking-north-east-video", "type": "video", "sectionId": "environment", "sectionName": "Environment", "webPublicationDate": "2013-07-30T15:35:00Z", "webTitle": "Fracking can take place in 'desolate' north-east, says Tory peer - video", "webUrl": "https://www.theguardian.com/environment/video/2013/jul/30/fracking-north-east-video", "apiUrl": "https://content.guardianapis.com/environment/video/2013/jul/30/fracking-north-east-video", "isHosted": false, "pillarId": "pillar/news", "pillarName": "News"}, {"id": "environment/2013/jul/30/forests-energy", "type": "article", "sectionId": "environment", "sectionName": "Environment", "webPublicationDate": "2013-07-30T15:19:00Z", "webTitle": "Exploitation of Peru's 'miracle' oil deposits in the Amazon is delayed", "webUrl": "https://www.theguardian.com/environment/2013/jul/30/forests-energy", "apiUrl": "https://content.guardianapis.com/environment/2013/jul/30/forests-energy", "isHosted": false, "pillarId": "pillar/news", "pillarName": "News"}, {"id": "science/political-science/2013/jul/30/climate-sceptics-scientific-method", "type": "article", "sectionId": "science", "sectionName": "Science", "webPublicationDate": "2013-07-30T14:59:00Z", "webTitle": "Are climate sceptics the real champions of the scientific method? | Warren Pearce", "webUrl": "https://www.theguardian.com/science/political-science/2013/jul/30/climate-sceptics-scientific-method", "apiUrl": "https://content.guardianapis.com/science/political-science/2013/jul/30/climate-sceptics-scientific-method", "isHosted": false, "pillarId": "pillar/news", "pillarName": "News"}, {"id": "uk-news/video/2013/jul/30/flash-floods-walsden-west-yorkshire-video", "type": "video", "sectionId": "uk-news", "sectionName": "UK news", "webPublicationDate": "2013-07-30T14:41:00Z", "webTitle": "Flash floods devastate Walsden, West Yorkshire - video", "webUrl": "https://www.theguardian.com/uk-news/video/2013/jul/30/flash-floods-walsden-west-yorkshire-video", "apiUrl": "https://content.guardianapis.com/uk-news/video/2013/jul/30/flash-floods-walsden-west-yorkshire-video", "isHosted": false, "pillarId": "pillar/news", "pillarName": "News"}, {"id": "environment/2013/jul/30/buzzfeeds-bees-colony-collapse-disorder", "type": "article", "sectionId": "environment", "sectionName": "Environment", "webPublicationDate": "2013-07-30T14:35:00Z", "webTitle": "Buzzfeeds: the effects of colony collapse disorder and other bee news", "webUrl": "https://www.theguardian.com/environment/2013/jul/30/buzzfeeds-bees-colony-collapse-disorder", "apiUrl": "https://content.guardianapis.com/environment/2013/jul/30/buzzfeeds-bees-colony-collapse-disorder", "isHosted": false, "pillarId": "pillar/news", "pillarName": "News"}, {"id": "environment/2013/jul/30/peter-kendall-climate-change-farming", "type": "article", "sectionId": "environment", "sectionName": "Environment", "webPublicationDate": "2013-07-30T14:25:03Z", "webTitle": "Peter Kendall puts all our eggs in one basket | Martin Harper", "webUrl": "https://www.theguardian.com/environment/2013/jul/30/peter-kendall-climate-change-farming", "apiUrl": "https://content.guardianapis.com/environment/2013/jul/30/peter-kendall-climate-change-farming", "isHosted": false, "pillarId": "pillar/news", "pillarName": "News"}, {"id": "environment/2013/jul/30/environmentalists-government-scrap-forestry-deal", "type": "article", "sectionId": "environment", "sectionName": "Environment", "webPublicationDate": "2013-07-30T14:00:00Z", "webTitle": "Environmentalists urge Rudd to scrap 'failed' forestry deal with states", "webUrl": "https://www.theguardian.com/environment/2013/jul/30/environmentalists-government-scrap-forestry-deal", "apiUrl": "https://content.guardianapis.com/environment/2013/jul/30/environmentalists-government-scrap-forestry-deal", "isHosted": false, "pillarId": "pillar/news", "pillarName": "News"}, {"id": "environment/shortcuts/2013/jul/30/fracking-protest-battle-of-balcombe", "type": "article", "sectionId": "environment", "sectionName": "Environment", "webPublicationDate": "2013-07-30T13:55:22Z", "webTitle": "Fracking protest: who's who in the battle of Balcombe?", "webUrl": "https://www.theguardian.com/environment/shortcuts/2013/jul/30/fracking-protest-battle-of-balcombe", "apiUrl": "https://content.guardianapis.com/environment/shortcuts/2013/jul/30/fracking-protest-battle-of-balcombe", "isHosted": false, "pillarId": "pillar/news", "pillarName": "News"}, {"id": "world/video/2013/jul/30/thailand-oil-spill-video", "type": "video", "sectionId": "world", "sectionName": "World news", "webPublicationDate": "2013-07-30T13:14:00Z", "webTitle": "Thailand oil spill reaches tourist island - video", "webUrl": "https://www.theguardian.com/world/video/2013/jul/30/thailand-oil-spill-video", "apiUrl": "https://content.guardianapis.com/world/video/2013/jul/30/thailand-oil-spill-video", "isHosted": false, "pillarId": "pillar/news", "pillarName": "News"}, {"id": "business/video/2013/jul/30/bmw-i3-electric-car-video", "type": "video", "sectionId": "business", "sectionName": "Business", "webPublicationDate": "2013-07-30T11:52:00Z", "webTitle": "BMW unveils new i3 electric car - video", "webUrl": "https://www.theguardian.com/business/video/2013/jul/30/bmw-i3-electric-car-video", "apiUrl": "https://content.guardianapis.com/business/video/2013/jul/30/bmw-i3-electric-car-video", "isHosted": false, "pillarId": "pillar/news", "pillarName": "News"}, {"id": "world/video/2013/jul/30/great-white-shark-south-africa-video", "type": "video", "sectionId": "world", "sectionName": "World news", "webPublicationDate": "2013-07-30T11:24:00Z", "webTitle": "Great white shark: a close encounter at Port Elizabeth, South Africa - video", "webUrl": "https://www.theguardian.com/world/video/2013/jul/30/great-white-shark-south-africa-video", "apiUrl": "https://content.guardianapis.com/world/video/2013/jul/30/great-white-shark-south-africa-video", "isHosted": false, "pillarId": "pillar/news", "pillarName": "News"}, {"id": "environment/video/2013/jul/30/research-boat-escort-video-pilot-whale-video", "type": "video", "sectionId": "environment", "sectionName": "Environment", "webPublicationDate": "2013-07-30T09:28:00Z", "webTitle": "Song of the Whale research boat gets unexpected escort - video", "webUrl": "https://www.theguardian.com/environment/video/2013/jul/30/research-boat-escort-video-pilot-whale-video", "apiUrl": "https://content.guardianapis.com/environment/video/2013/jul/30/research-boat-escort-video-pilot-whale-video", "isHosted": false, "pillarId": "pillar/news", "pillarName": "News"}, {"id": "environment/2013/jul/30/dead-mako-shark-strung-stabbed", "type": "article", "sectionId": "environment", "sectionName": "Environment", "webPublicationDate": "2013-07-30T07:37:00Z", "webTitle": "Diver finds dead mako shark, strung up and stabbed", "webUrl": "https://www.theguardian.com/environment/2013/jul/30/dead-mako-shark-strung-stabbed", "apiUrl": "https://content.guardianapis.com/environment/2013/jul/30/dead-mako-shark-strung-stabbed", "isHosted": false, "pillarId": "pillar/news", "pillarName": "News"}, {"id": "environment/2013/jul/30/gladstone-harbour-dredging-link-mud-crab-disease", "type": "article", "sectionId": "environment", "sectionName": "Environment", "webPublicationDate": "2013-07-30T07:11:29Z", "webTitle": "Gladstone Harbour dredging project linked to mud crab disease", "webUrl": "https://www.theguardian.com/environment/2013/jul/30/gladstone-harbour-dredging-link-mud-crab-disease", "apiUrl": "https://content.guardianapis.com/environment/2013/jul/30/gladstone-harbour-dredging-link-mud-crab-disease", "isHosted": false, "pillarId": "pillar/news", "pillarName": "News"}, {"id": "environment/2013/jul/30/marshall-islands-australia-leadership-climate", "type": "article", "sectionId": "environment", "sectionName": "Environment", "webPublicationDate": "2013-07-30T07:11:00Z", "webTitle": "Marshall Islands calls for leadership from Australia on climate change", "webUrl": "https://www.theguardian.com/environment/2013/jul/30/marshall-islands-australia-leadership-climate", "apiUrl": "https://content.guardianapis.com/environment/2013/jul/30/marshall-islands-australia-leadership-climate", "isHosted": false, "pillarId": "pillar/news", "pillarName": "News"}, {"id": "business/2013/jul/30/beny-steinmetz-international-israeli-profile", "type": "article", "sectionId": "business", "sectionName": "Business", "webPublicationDate": "2013-07-30T07:00:04Z", "webTitle": "Beny Steinmetz: Israeli diamond dealer who likes to keep a low profile", "webUrl": "https://www.theguardian.com/business/2013/jul/30/beny-steinmetz-international-israeli-profile", "apiUrl": "https://content.guardianapis.com/business/2013/jul/30/beny-steinmetz-international-israeli-profile", "isHosted": false, "pillarId": "pillar/news", "pillarName": "News"}, {"id": "environment/2013/jul/30/lundy-bird-populations-rats-eradicated", "type": "article", "sectionId": "environment", "sectionName": "Environment", "webPublicationDate": "2013-07-30T06:00:00Z", "webTitle": "Lundy bird populations soar after rats eradicated", "webUrl": "https://www.theguardian.com/environment/2013/jul/30/lundy-bird-populations-rats-eradicated", "apiUrl": "https://content.guardianapis.com/environment/2013/jul/30/lundy-bird-populations-rats-eradicated", "isHosted": false, "pillarId": "pillar/news", "pillarName": "News"}, {"id": "global/planet-oz/2013/jul/30/marshall-islands-climate-change-pacific-forum-nuclear-testing", "type": "article", "sectionId": "environment", "sectionName": "Environment", "webPublicationDate": "2013-07-30T04:44:00Z", "webTitle": "After surviving nuclear tests, can the Marshall Islands survive the great climate experiment? | Graham Readfearn", "webUrl": "https://www.theguardian.com/global/planet-oz/2013/jul/30/marshall-islands-climate-change-pacific-forum-nuclear-testing", "apiUrl": "https://content.guardianapis.com/global/planet-oz/2013/jul/30/marshall-islands-climate-change-pacific-forum-nuclear-testing", "isHosted": false, "pillarId": "pillar/news", "pillarName": "News"}, {"id": "environment/2013/jul/29/climate-new-york-boston-miami-sea-level", "type": "article", "sectionId": "environment", "sectionName": "Environment", "webPublicationDate": "2013-07-30T00:17:00Z", "webTitle": "Climate study predicts a watery future for New York, Boston and Miami", "webUrl": "https://www.theguardian.com/environment/2013/jul/29/climate-new-york-boston-miami-sea-level", "apiUrl": "https://content.guardianapis.com/environment/2013/jul/29/climate-new-york-boston-miami-sea-level", "isHosted": false, "pillarId": "pillar/news", "pillarName": "News"}, {"id": "world/2013/jul/29/population-counts-green-party", "type": "article", "sectionId": "world", "sectionName": "World news", "webPublicationDate": "2013-07-29T20:00:03Z", "webTitle": "Letters: Population counts", "webUrl": "https://www.theguardian.com/world/2013/jul/29/population-counts-green-party", "apiUrl": "https://content.guardianapis.com/world/2013/jul/29/population-counts-green-party", "isHosted": false, "pillarId": "pillar/news", "pillarName": "News"}, {"id": "environment/2013/jul/29/allotments-havant-hampshire-sunset", "type": "article", "sectionId": "environment", "sectionName": "Environment", "webPublicationDate": "2013-07-29T19:59:00Z", "webTitle": "Country diary: At sunset would-be diners flock onto the plots", "webUrl": "https://www.theguardian.com/environment/2013/jul/29/allotments-havant-hampshire-sunset", "apiUrl": "https://content.guardianapis.com/environment/2013/jul/29/allotments-havant-hampshire-sunset", "isHosted": false, "pillarId": "pillar/news", "pillarName": "News"}, {"id": "politics/2013/jul/29/tory-minister-charles-hendry-donor", "type": "article", "sectionId": "politics", "sectionName": "Politics", "webPublicationDate": "2013-07-29T17:34:57Z", "webTitle": "Former Tory minister Charles Hendry takes job with party donor", "webUrl": "https://www.theguardian.com/politics/2013/jul/29/tory-minister-charles-hendry-donor", "apiUrl": "https://content.guardianapis.com/politics/2013/jul/29/tory-minister-charles-hendry-donor", "isHosted": false, "pillarId": "pillar/news", "pillarName": "News"}, {"id": "artanddesign/jonathanjonesblog/2013/jul/29/walter-de-maria-art-lightning", "type": "article", "sectionId": "artanddesign", "sectionName": "Art and design", "webPublicationDate": "2013-07-29T16:19:50Z", "webTitle": "Farewell Walter de Maria, force of nature who lit up the art world", "webUrl": "https://www.theguardian.com/artanddesign/jonathanjonesblog/2013/jul/29/walter-de-maria-art-lightning", "apiUrl": "https://content.guardianapis.com/artanddesign/jonathanjonesblog/2013/jul/29/walter-de-maria-art-lightning", "isHosted": false, "pillarId": "pillar/arts", "pillarName": "Arts"}, {"id": "science/political-science/2013/jul/29/messing-nature-geoengineering-green-thought", "type": "article", "sectionId": "science", "sectionName": "Science", "webPublicationDate": "2013-07-29T11:14:03Z", "webTitle": "Messing with nature? Geoengineering and green thought | Adam Corner", "webUrl": "https://www.theguardian.com/science/political-science/2013/jul/29/messing-nature-geoengineering-green-thought", "apiUrl": "https://content.guardianapis.com/science/political-science/2013/jul/29/messing-nature-geoengineering-green-thought", "isHosted": false, "pillarId": "pillar/news", "pillarName": "News"}, {"id": "environment/planet-oz/2013/jul/29/hobbit-new-zealand-lord-of-the-rings-middle-earth-oil-gas-drilling", "type": "article", "sectionId": "environment", "sectionName": "Environment", "webPublicationDate": "2013-07-29T11:06:41Z", "webTitle": "New Zealand pushing plans to drill Middle-earth as Hobbit filming ends | Graham Readfearn", "webUrl": "https://www.theguardian.com/environment/planet-oz/2013/jul/29/hobbit-new-zealand-lord-of-the-rings-middle-earth-oil-gas-drilling", "apiUrl": "https://content.guardianapis.com/environment/planet-oz/2013/jul/29/hobbit-new-zealand-lord-of-the-rings-middle-earth-oil-gas-drilling", "isHosted": false, "pillarId": "pillar/news", "pillarName": "News"}, {"id": "science/political-science/2013/jul/29/scientists-greens-children-enlightenment", "type": "article", "sectionId": "science", "sectionName": "Science", "webPublicationDate": "2013-07-29T10:53:00Z", "webTitle": "Like scientists, greens are children of the Enlightenment | Anne Chapman", "webUrl": "https://www.theguardian.com/science/political-science/2013/jul/29/scientists-greens-children-enlightenment", "apiUrl": "https://content.guardianapis.com/science/political-science/2013/jul/29/scientists-greens-children-enlightenment", "isHosted": false, "pillarId": "pillar/news", "pillarName": "News"}, {"id": "environment/2013/jul/29/conservation-climate-change-species", "type": "article", "sectionId": "environment", "sectionName": "Environment", "webPublicationDate": "2013-07-29T10:24:36Z", "webTitle": "We've been asking the wrong questions about conservation", "webUrl": "https://www.theguardian.com/environment/2013/jul/29/conservation-climate-change-species", "apiUrl": "https://content.guardianapis.com/environment/2013/jul/29/conservation-climate-change-species", "isHosted": false, "pillarId": "pillar/news", "pillarName": "News"}, {"id": "environment/2013/jul/29/biggest-battery-energy-technology-trial", "type": "article", "sectionId": "environment", "sectionName": "Environment", "webPublicationDate": "2013-07-29T06:30:00Z", "webTitle": "Trial run for biggest battery in Europe that could help power Britain", "webUrl": "https://www.theguardian.com/environment/2013/jul/29/biggest-battery-energy-technology-trial", "apiUrl": "https://content.guardianapis.com/environment/2013/jul/29/biggest-battery-energy-technology-trial", "isHosted": false, "pillarId": "pillar/news", "pillarName": "News"}, {"id": "environment/2013/jul/28/lake-district-great-gable-memorial-climbers", "type": "article", "sectionId": "environment", "sectionName": "Environment", "webPublicationDate": "2013-07-28T20:00:00Z", "webTitle": "Country diary: Lake District: Great Gable: Who would steal a memorial to climbers killed in war?", "webUrl": "https://www.theguardian.com/environment/2013/jul/28/lake-district-great-gable-memorial-climbers", "apiUrl": "https://content.guardianapis.com/environment/2013/jul/28/lake-district-great-gable-memorial-climbers", "isHosted": false, "pillarId": "pillar/news", "pillarName": "News"}, {"id": "world/2013/jul/28/explorer-discovers-uncharted-waterfalls-canada", "type": "article", "sectionId": "world", "sectionName": "World news", "webPublicationDate": "2013-07-28T14:27:39Z", "webTitle": "Canoeist discovers uncharted waterfalls in Canada", "webUrl": "https://www.theguardian.com/world/2013/jul/28/explorer-discovers-uncharted-waterfalls-canada", "apiUrl": "https://content.guardianapis.com/world/2013/jul/28/explorer-discovers-uncharted-waterfalls-canada", "isHosted": false, "pillarId": "pillar/news", "pillarName": "News"}, {"id": "environment/2013/jul/28/heatwaves-weather-farms-crops", "type": "article", "sectionId": "environment", "sectionName": "Environment", "webPublicationDate": "2013-07-28T14:16:46Z", "webTitle": "Heatwaves will make crops produce smaller grains", "webUrl": "https://www.theguardian.com/environment/2013/jul/28/heatwaves-weather-farms-crops", "apiUrl": "https://content.guardianapis.com/environment/2013/jul/28/heatwaves-weather-farms-crops", "isHosted": false, "pillarId": "pillar/news", "pillarName": "News"}, {"id": "environment/2013/jul/28/weather-heatwaves-climate-change-uk-farming", "type": "article", "sectionId": "environment", "sectionName": "Environment", "webPublicationDate": "2013-07-28T14:15:26Z", "webTitle": "NFU claims extreme weather poses biggest threat to British farming", "webUrl": "https://www.theguardian.com/environment/2013/jul/28/weather-heatwaves-climate-change-uk-farming", "apiUrl": "https://content.guardianapis.com/environment/2013/jul/28/weather-heatwaves-climate-change-uk-farming", "isHosted": false, "pillarId": "pillar/news", "pillarName": "News"}, {"id": "environment/2013/jul/28/obama-reservations-keystone-pipeline-project", "type": "article", "sectionId": "environment", "sectionName": "Environment", "webPublicationDate": "2013-07-28T12:50:15Z", "webTitle": "Barack Obama expresses reservations about Keystone XL pipeline project", "webUrl": "https://www.theguardian.com/environment/2013/jul/28/obama-reservations-keystone-pipeline-project", "apiUrl": "https://content.guardianapis.com/environment/2013/jul/28/obama-reservations-keystone-pipeline-project", "isHosted": false, "pillarId": "pillar/news", "pillarName": "News"}, {"id": "uk-news/2013/jul/28/foreign-donors-parties-northern-ireland", "type": "article", "sectionId": "uk-news", "sectionName": "UK news", "webPublicationDate": "2013-07-28T10:42:10Z", "webTitle": "Ban on foreign donors funding parties 'should extend to Northern Ireland'", "webUrl": "https://www.theguardian.com/uk-news/2013/jul/28/foreign-donors-parties-northern-ireland", "apiUrl": "https://content.guardianapis.com/uk-news/2013/jul/28/foreign-donors-parties-northern-ireland", "isHosted": false, "pillarId": "pillar/news", "pillarName": "News"}, {"id": "environment/2013/jul/28/is-it-safe-to-swim-in-the-sea", "type": "article", "sectionId": "environment", "sectionName": "Environment", "webPublicationDate": "2013-07-28T07:29:00Z", "webTitle": "Is it safe to swim in the sea?", "webUrl": "https://www.theguardian.com/environment/2013/jul/28/is-it-safe-to-swim-in-the-sea", "apiUrl": "https://content.guardianapis.com/environment/2013/jul/28/is-it-safe-to-swim-in-the-sea", "isHosted": false, "pillarId": "pillar/news", "pillarName": "News"}, {"id": "environment/southern-crossroads/2013/jul/23/divestment-campaign-climate-change-fossil-fuels-australia", "type": "article", "sectionId": "environment", "sectionName": "Environment", "webPublicationDate": "2013-07-28T07:00:00Z", "webTitle": "Climate change divestment campaigns go on the offence | Alexander White", "webUrl": "https://www.theguardian.com/environment/southern-crossroads/2013/jul/23/divestment-campaign-climate-change-fossil-fuels-australia", "apiUrl": "https://content.guardianapis.com/environment/southern-crossroads/2013/jul/23/divestment-campaign-climate-change-fossil-fuels-australia", "isHosted": false, "pillarId": "pillar/news", "pillarName": "News"}, {"id": "science/2013/jul/28/new-to-nature-sandalolitha-boucheti", "type": "article", "sectionId": "science", "sectionName": "Science", "webPublicationDate": "2013-07-27T23:05:11Z", "webTitle": "New to nature no 110: Sandalolitha boucheti", "webUrl": "https://www.theguardian.com/science/2013/jul/28/new-to-nature-sandalolitha-boucheti", "apiUrl": "https://content.guardianapis.com/science/2013/jul/28/new-to-nature-sandalolitha-boucheti", "isHosted": false, "pillarId": "pillar/news", "pillarName": "News"}, {"id": "environment/2013/jul/28/tigers-extinct-endangered-patrol-nepal", "type": "article", "sectionId": "environment", "sectionName": "Environment", "webPublicationDate": "2013-07-27T23:04:06Z", "webTitle": "In the Himalayas, Nepali villagers hunt down poachers to help save the tiger", "webUrl": "https://www.theguardian.com/environment/2013/jul/28/tigers-extinct-endangered-patrol-nepal", "apiUrl": "https://content.guardianapis.com/environment/2013/jul/28/tigers-extinct-endangered-patrol-nepal", "isHosted": false, "pillarId": "pillar/news", "pillarName": "News"}, {"id": "environment/2013/jul/27/twelve-charged-sussex-fracking-protests", "type": "article", "sectionId": "environment", "sectionName": "Environment", "webPublicationDate": "2013-07-27T15:45:07Z", "webTitle": "Twelve charged over West Sussex anti-fracking protests", "webUrl": "https://www.theguardian.com/environment/2013/jul/27/twelve-charged-sussex-fracking-protests", "apiUrl": "https://content.guardianapis.com/environment/2013/jul/27/twelve-charged-sussex-fracking-protests", "isHosted": false, "pillarId": "pillar/news", "pillarName": "News"}, {"id": "books/2013/jul/27/wings-desire-mark-cocker-birds", "type": "article", "sectionId": "books", "sectionName": "Books", "webPublicationDate": "2013-07-27T07:00:00Z", "webTitle": "Wings of desire: why birds captivate us", "webUrl": "https://www.theguardian.com/books/2013/jul/27/wings-desire-mark-cocker-birds", "apiUrl": "https://content.guardianapis.com/books/2013/jul/27/wings-desire-mark-cocker-birds", "isHosted": false, "pillarId": "pillar/arts", "pillarName": "Arts"}, {"id": "environment/2013/jul/27/uk-arctic-drilling", "type": "article", "sectionId": "environment", "sectionName": "Environment", "webPublicationDate": "2013-07-27T06:00:53Z", "webTitle": "UK failing to protect the Arctic from drilling, warn MPs", "webUrl": "https://www.theguardian.com/environment/2013/jul/27/uk-arctic-drilling", "apiUrl": "https://content.guardianapis.com/environment/2013/jul/27/uk-arctic-drilling", "isHosted": false, "pillarId": "pillar/news", "pillarName": "News"}, {"id": "lifeandstyle/2013/jul/27/ask-a-grown-up-nuclear-waste", "type": "article", "sectionId": "lifeandstyle", "sectionName": "Life and style", "webPublicationDate": "2013-07-27T06:00:02Z", "webTitle": "Ask a grown-up: why can't we put our nuclear waste into a rocket and fire it into the sun?", "webUrl": "https://www.theguardian.com/lifeandstyle/2013/jul/27/ask-a-grown-up-nuclear-waste", "apiUrl": "https://content.guardianapis.com/lifeandstyle/2013/jul/27/ask-a-grown-up-nuclear-waste", "isHosted": false, "pillarId": "pillar/lifestyle", "pillarName": "Lifestyle"}]}}