{"response": {"status": "ok", "userTier": "developer", "total": 131795, "startIndex": 1, "pageSize": 50, "currentPage": 1, "pages": 2636, "orderBy": "newest", "results": [{"id": "commentisfree/2011/jul/31/glasgow-edinburgh-poverty-chasm", "type": "article", "sectionId": "commentisfree", "sectionName": "Opinion", "webPublicationDate": "2011-07-30T23:06:00Z", "webTitle": "A chilling and cruel tale of two cities | Kevin McKenna", "webUrl": "https://www.theguardian.com/commentisfree/2011/jul/31/glasgow-edinburgh-poverty-chasm", "apiUrl": "https://content.guardianapis.com/commentisfree/2011/jul/31/glasgow-edinburgh-poverty-chasm", "isHosted": false, "pillarId": "pillar/opinion", "pillarName": "Opinion"}, {"id": "business/2011/jul/31/tea-party-economics-could-get-the-whole-world-in-a-stew", "type": "article", "sectionId": "business", "sectionName": "Business", "webPublicationDate": "2011-07-30T23:05:58Z", "webTitle": "Tea Party economics could get the whole world in a stew", "webUrl": "https://www.theguardian.com/business/2011/jul/31/tea-party-economics-could-get-the-whole-world-in-a-stew", "apiUrl": "https://content.guardianapis.com/business/2011/jul/31/tea-party-economics-could-get-the-whole-world-in-a-stew", "isHosted": false, "pillarId": "pillar/news", "pillarName": "News"}, {"id": "commentisfree/2011/jul/31/andrew-rawnsley-steve-hilton-maurice-glasman", "type": "article", "sectionId": "commentisfree", "sectionName": "Opinion", "webPublicationDate": "2011-07-30T23:04:23Z", "webTitle": "In praise of unconventional men whose mad ideas make us think | Andrew Rawnsley", "webUrl": "https://www.theguardian.com/commentisfree/2011/jul/31/andrew-rawnsley-steve-hilton-maurice-glasman", "apiUrl": "https://content.guardianapis.com/commentisfree/2011/jul/31/andrew-rawnsley-steve-hilton-maurice-glasman", "isHosted": false, "pillarId": "pillar/opinion", "pillarName": "Opinion"}, {"id": "commentisfree/2011/jul/31/jon-stewart-parliament-broadcast-satire", "type": "article", "sectionId": "commentisfree", "sectionName": "Opinion", "webPublicationDate": "2011-07-30T23:04:20Z", "webTitle": "Not poke fun at Parliament? That's a laugh | John O'Farrell", "webUrl": "https://www.theguardian.com/commentisfree/2011/jul/31/jon-stewart-parliament-broadcast-satire", "apiUrl": "https://content.guardianapis.com/commentisfree/2011/jul/31/jon-stewart-parliament-broadcast-satire", "isHosted": false, "pillarId": "pillar/opinion", "pillarName": "Opinion"}, {"id": "politics/wintour-and-watt/2011/jul/30/piersmorgan-newsoftheworld", "type": "article", "sectionId": "politics", "sectionName": "Politics", "webPublicationDate": "2011-07-30T19:49:02Z", "webTitle": "Mystery journalist who challenged Louise Mensch emerges \u2013 sort of", "webUrl": "https://www.theguardian.com/politics/wintour-and-watt/2011/jul/30/piersmorgan-newsoftheworld", "apiUrl": "https://content.guardianapis.com/politics/wintour-and-watt/2011/jul/30/piersmorgan-newsoftheworld", "isHosted": false, "pillarId": "pillar/news", "pillarName": "News"}, {"id": "politics/2011/jul/30/public-sector-jobs-oliver-letwin", "type": "article", "sectionId": "politics", "sectionName": "Politics", "webPublicationDate": "2011-07-30T19:42:00Z", "webTitle": "Public sector workers need 'discipline and fear', says Oliver Letwin", "webUrl": "https://www.theguardian.com/politics/2011/jul/30/public-sector-jobs-oliver-letwin", "apiUrl": "https://content.guardianapis.com/politics/2011/jul/30/public-sector-jobs-oliver-letwin", "isHosted": false, "pillarId": "pillar/news", "pillarName": "News"}, {"id": "politics/2011/jul/30/david-cameron-far-right-nobel-warning", "type": "article", "sectionId": "world", "sectionName": "World news", "webPublicationDate": "2011-07-30T17:53:31Z", "webTitle": "Nobel chairman warns Europe's leaders over 'inflaming far-right sentiment'", "webUrl": "https://www.theguardian.com/politics/2011/jul/30/david-cameron-far-right-nobel-warning", "apiUrl": "https://content.guardianapis.com/politics/2011/jul/30/david-cameron-far-right-nobel-warning", "isHosted": false, "pillarId": "pillar/news", "pillarName": "News"}, {"id": "commentisfree/2011/jul/30/pensioners-strike-coalition-pensions", "type": "article", "sectionId": "commentisfree", "sectionName": "Opinion", "webPublicationDate": "2011-07-30T11:00:01Z", "webTitle": "Why I'm calling a pensioners' strike | Brian Schofield", "webUrl": "https://www.theguardian.com/commentisfree/2011/jul/30/pensioners-strike-coalition-pensions", "apiUrl": "https://content.guardianapis.com/commentisfree/2011/jul/30/pensioners-strike-coalition-pensions", "isHosted": false, "pillarId": "pillar/opinion", "pillarName": "Opinion"}, {"id": "theguardian/2011/jul/30/pick-of-the-week-blue-sky-thinking", "type": "article", "sectionId": "theguardian", "sectionName": "From the Guardian", "webPublicationDate": "2011-07-29T23:15:01Z", "webTitle": "Our pick of the week: The story, the stat, the quote, the tweet", "webUrl": "https://www.theguardian.com/theguardian/2011/jul/30/pick-of-the-week-blue-sky-thinking", "apiUrl": "https://content.guardianapis.com/theguardian/2011/jul/30/pick-of-the-week-blue-sky-thinking", "isHosted": false, "pillarId": "pillar/news", "pillarName": "News"}, {"id": "money/2011/jul/30/hmrc-treasury-select-committee", "type": "article", "sectionId": "money", "sectionName": "Money", "webPublicationDate": "2011-07-29T23:02:01Z", "webTitle": "HM Revenue & Customs under fire for breakdown in service", "webUrl": "https://www.theguardian.com/money/2011/jul/30/hmrc-treasury-select-committee", "apiUrl": "https://content.guardianapis.com/money/2011/jul/30/hmrc-treasury-select-committee", "isHosted": false, "pillarId": "pillar/lifestyle", "pillarName": "Lifestyle"}, {"id": "politics/wintour-and-watt/2011/jul/29/piersmorgan-phone-hacking", "type": "article", "sectionId": "politics", "sectionName": "Politics", "webPublicationDate": "2011-07-29T21:14:00Z", "webTitle": "Louise Mensch hires City PR firm to answer questions about colourful past", "webUrl": "https://www.theguardian.com/politics/wintour-and-watt/2011/jul/29/piersmorgan-phone-hacking", "apiUrl": "https://content.guardianapis.com/politics/wintour-and-watt/2011/jul/29/piersmorgan-phone-hacking", "isHosted": false, "pillarId": "pillar/news", "pillarName": "News"}, {"id": "politics/2011/jul/29/david-miliband-reconciliation-labour-role", "type": "article", "sectionId": "politics", "sectionName": "Politics", "webPublicationDate": "2011-07-29T21:00:03Z", "webTitle": "David Miliband takes first step to reconciliation with new Labour role", "webUrl": "https://www.theguardian.com/politics/2011/jul/29/david-miliband-reconciliation-labour-role", "apiUrl": "https://content.guardianapis.com/politics/2011/jul/29/david-miliband-reconciliation-labour-role", "isHosted": false, "pillarId": "pillar/news", "pillarName": "News"}, {"id": "commentisfree/2011/jul/29/loreal-adverts-pulled-by-asa-beauty-tanya-gold", "type": "article", "sectionId": "commentisfree", "sectionName": "Opinion", "webPublicationDate": "2011-07-29T20:45:00Z", "webTitle": "L'Or\u00e9al's pulled adverts: this ideal of female beauty is an abomination | Tanya Gold", "webUrl": "https://www.theguardian.com/commentisfree/2011/jul/29/loreal-adverts-pulled-by-asa-beauty-tanya-gold", "apiUrl": "https://content.guardianapis.com/commentisfree/2011/jul/29/loreal-adverts-pulled-by-asa-beauty-tanya-gold", "isHosted": false, "pillarId": "pillar/opinion", "pillarName": "Opinion"}, {"id": "commentisfree/2011/jul/29/phone-hacking-inquiry-unanswered-questions", "type": "article", "sectionId": "commentisfree", "sectionName": "Opinion", "webPublicationDate": "2011-07-29T20:27:12Z", "webTitle": "Phone hacking inquiry: unanswered questions | editorial", "webUrl": "https://www.theguardian.com/commentisfree/2011/jul/29/phone-hacking-inquiry-unanswered-questions", "apiUrl": "https://content.guardianapis.com/commentisfree/2011/jul/29/phone-hacking-inquiry-unanswered-questions", "isHosted": false, "pillarId": "pillar/opinion", "pillarName": "Opinion"}, {"id": "commentisfree/2011/jul/29/ed-miliband-surgery-voice", "type": "article", "sectionId": "commentisfree", "sectionName": "Opinion", "webPublicationDate": "2011-07-29T19:59:00Z", "webTitle": "Surgery can't fix Ed Miliband's voice | Anne Karpf", "webUrl": "https://www.theguardian.com/commentisfree/2011/jul/29/ed-miliband-surgery-voice", "apiUrl": "https://content.guardianapis.com/commentisfree/2011/jul/29/ed-miliband-surgery-voice", "isHosted": false, "pillarId": "pillar/opinion", "pillarName": "Opinion"}, {"id": "commentisfree/2011/jul/29/david-camerons-nhs-competition", "type": "article", "sectionId": "commentisfree", "sectionName": "Opinion", "webPublicationDate": "2011-07-29T19:45:01Z", "webTitle": "David Cameron's NHS chaos won't save money \u2013 let alone lives | Polly Toynbee", "webUrl": "https://www.theguardian.com/commentisfree/2011/jul/29/david-camerons-nhs-competition", "apiUrl": "https://content.guardianapis.com/commentisfree/2011/jul/29/david-camerons-nhs-competition", "isHosted": false, "pillarId": "pillar/opinion", "pillarName": "Opinion"}, {"id": "world/2011/jul/29/radical-muslim-bilal-ahmad-jailed", "type": "article", "sectionId": "world", "sectionName": "World news", "webPublicationDate": "2011-07-29T19:08:52Z", "webTitle": "Radical Muslim jailed for calling for jihad against MPs", "webUrl": "https://www.theguardian.com/world/2011/jul/29/radical-muslim-bilal-ahmad-jailed", "apiUrl": "https://content.guardianapis.com/world/2011/jul/29/radical-muslim-bilal-ahmad-jailed", "isHosted": false, "pillarId": "pillar/news", "pillarName": "News"}, {"id": "politics/2011/jul/29/david-cameron-pressure-andy-coulson", "type": "article", "sectionId": "media", "sectionName": "Media", "webPublicationDate": "2011-07-29T18:57:17Z", "webTitle": "David Cameron faces growing pressure over Andy Coulson hiring", "webUrl": "https://www.theguardian.com/politics/2011/jul/29/david-cameron-pressure-andy-coulson", "apiUrl": "https://content.guardianapis.com/politics/2011/jul/29/david-cameron-pressure-andy-coulson", "isHosted": false, "pillarId": "pillar/news", "pillarName": "News"}, {"id": "media/2011/jul/29/louise-mensch-apologises-piers-morgan1", "type": "article", "sectionId": "media", "sectionName": "Media", "webPublicationDate": "2011-07-29T18:54:18Z", "webTitle": "MP Louise Mensch apologises to Piers Morgan over phone-hacking comment", "webUrl": "https://www.theguardian.com/media/2011/jul/29/louise-mensch-apologises-piers-morgan1", "apiUrl": "https://content.guardianapis.com/media/2011/jul/29/louise-mensch-apologises-piers-morgan1", "isHosted": false, "pillarId": "pillar/news", "pillarName": "News"}, {"id": "media/2011/jul/29/piers-morgan-apologies-louise-mensch", "type": "article", "sectionId": "media", "sectionName": "Media", "webPublicationDate": "2011-07-29T18:46:54Z", "webTitle": "Piers Morgan wins apologies from Channel 4 News and Louise Mensch", "webUrl": "https://www.theguardian.com/media/2011/jul/29/piers-morgan-apologies-louise-mensch", "apiUrl": "https://content.guardianapis.com/media/2011/jul/29/piers-morgan-apologies-louise-mensch", "isHosted": false, "pillarId": "pillar/news", "pillarName": "News"}, {"id": "uk/2011/jul/29/boris-johnson-high-speed-rail", "type": "article", "sectionId": "uk-news", "sectionName": "UK news", "webPublicationDate": "2011-07-29T17:58:31Z", "webTitle": "Boris Johnson embroiled in new row over high-speed rail link", "webUrl": "https://www.theguardian.com/uk/2011/jul/29/boris-johnson-high-speed-rail", "apiUrl": "https://content.guardianapis.com/uk/2011/jul/29/boris-johnson-high-speed-rail", "isHosted": false, "pillarId": "pillar/news", "pillarName": "News"}, {"id": "society/2011/jul/29/prk", "type": "article", "sectionId": "society", "sectionName": "Society", "webPublicationDate": "2011-07-29T17:19:32Z", "webTitle": "Private healthcare group lobbied competition body for NHS inquiry", "webUrl": "https://www.theguardian.com/society/2011/jul/29/prk", "apiUrl": "https://content.guardianapis.com/society/2011/jul/29/prk", "isHosted": false, "pillarId": "pillar/news", "pillarName": "News"}, {"id": "uk/2011/jul/29/ministry-of-defence-job-cuts-condemned", "type": "article", "sectionId": "uk-news", "sectionName": "UK news", "webPublicationDate": "2011-07-29T16:54:42Z", "webTitle": "Ministry of Defence job cuts condemned as shameful by unions", "webUrl": "https://www.theguardian.com/uk/2011/jul/29/ministry-of-defence-job-cuts-condemned", "apiUrl": "https://content.guardianapis.com/uk/2011/jul/29/ministry-of-defence-job-cuts-condemned", "isHosted": false, "pillarId": "pillar/news", "pillarName": "News"}, {"id": "politics/2011/jul/29/conservative-party-spending-exceeded-earnings", "type": "article", "sectionId": "politics", "sectionName": "Politics", "webPublicationDate": "2011-07-29T16:05:01Z", "webTitle": "Conservative party spending exceeded earnings by \u00a36m last year", "webUrl": "https://www.theguardian.com/politics/2011/jul/29/conservative-party-spending-exceeded-earnings", "apiUrl": "https://content.guardianapis.com/politics/2011/jul/29/conservative-party-spending-exceeded-earnings", "isHosted": false, "pillarId": "pillar/news", "pillarName": "News"}, {"id": "media/2011/jul/29/louise-mensch-apologises-piers-morgan", "type": "article", "sectionId": "media", "sectionName": "Media", "webPublicationDate": "2011-07-29T15:13:05Z", "webTitle": "MP Louise Mensch apologises to Piers Morgan over phone hacking comments", "webUrl": "https://www.theguardian.com/media/2011/jul/29/louise-mensch-apologises-piers-morgan", "apiUrl": "https://content.guardianapis.com/media/2011/jul/29/louise-mensch-apologises-piers-morgan", "isHosted": false, "pillarId": "pillar/news", "pillarName": "News"}, {"id": "media/2011/jul/29/james-murdoch-likely-recalled-mps", "type": "article", "sectionId": "media", "sectionName": "Media", "webPublicationDate": "2011-07-29T14:59:01Z", "webTitle": "James Murdoch likely to be recalled to face MPs after challenges to his evidence", "webUrl": "https://www.theguardian.com/media/2011/jul/29/james-murdoch-likely-recalled-mps", "apiUrl": "https://content.guardianapis.com/media/2011/jul/29/james-murdoch-likely-recalled-mps", "isHosted": false, "pillarId": "pillar/news", "pillarName": "News"}, {"id": "business/2011/jul/29/bradford-bingley-interest-rates-rise", "type": "article", "sectionId": "business", "sectionName": "Business", "webPublicationDate": "2011-07-29T13:47:34Z", "webTitle": "Bradford & Bingley hit by interest rise from Treasury", "webUrl": "https://www.theguardian.com/business/2011/jul/29/bradford-bingley-interest-rates-rise", "apiUrl": "https://content.guardianapis.com/business/2011/jul/29/bradford-bingley-interest-rates-rise", "isHosted": false, "pillarId": "pillar/news", "pillarName": "News"}, {"id": "commentisfree/2011/jul/29/care-home-crisis-imaginative-solutions", "type": "article", "sectionId": "commentisfree", "sectionName": "Opinion", "webPublicationDate": "2011-07-29T13:03:32Z", "webTitle": "Care home crisis requires reform, not fire-fighting | Rory Coonan", "webUrl": "https://www.theguardian.com/commentisfree/2011/jul/29/care-home-crisis-imaginative-solutions", "apiUrl": "https://content.guardianapis.com/commentisfree/2011/jul/29/care-home-crisis-imaginative-solutions", "isHosted": false, "pillarId": "pillar/opinion", "pillarName": "Opinion"}, {"id": "politics/2011/jul/29/labour-military-veterans-1p-membership", "type": "article", "sectionId": "politics", "sectionName": "Politics", "webPublicationDate": "2011-07-29T12:38:27Z", "webTitle": "Labour party to offer military veterans membership for 1p", "webUrl": "https://www.theguardian.com/politics/2011/jul/29/labour-military-veterans-1p-membership", "apiUrl": "https://content.guardianapis.com/politics/2011/jul/29/labour-military-veterans-1p-membership", "isHosted": false, "pillarId": "pillar/news", "pillarName": "News"}, {"id": "commentisfree/2011/jul/29/government-big-it-report", "type": "article", "sectionId": "commentisfree", "sectionName": "Opinion", "webPublicationDate": "2011-07-29T10:15:00Z", "webTitle": "Government must break its dependency on 'big IT' | Michael Cross", "webUrl": "https://www.theguardian.com/commentisfree/2011/jul/29/government-big-it-report", "apiUrl": "https://content.guardianapis.com/commentisfree/2011/jul/29/government-big-it-report", "isHosted": false, "pillarId": "pillar/opinion", "pillarName": "Opinion"}, {"id": "environment/2011/jul/29/planners-approve-nuclear-power-station-preparatory-work", "type": "article", "sectionId": "environment", "sectionName": "Environment", "webPublicationDate": "2011-07-29T09:47:44Z", "webTitle": "Hinkley C nuclear power station gets green light for preparatory work", "webUrl": "https://www.theguardian.com/environment/2011/jul/29/planners-approve-nuclear-power-station-preparatory-work", "apiUrl": "https://content.guardianapis.com/environment/2011/jul/29/planners-approve-nuclear-power-station-preparatory-work", "isHosted": false, "pillarId": "pillar/news", "pillarName": "News"}, {"id": "commentisfree/2011/jul/29/probation-officers-government", "type": "article", "sectionId": "commentisfree", "sectionName": "Opinion", "webPublicationDate": "2011-07-29T09:06:41Z", "webTitle": "Probation officers don't need telling off | Violet Towers", "webUrl": "https://www.theguardian.com/commentisfree/2011/jul/29/probation-officers-government", "apiUrl": "https://content.guardianapis.com/commentisfree/2011/jul/29/probation-officers-government", "isHosted": false, "pillarId": "pillar/opinion", "pillarName": "Opinion"}, {"id": "media/2011/jul/28/pcc-chair-retirement-phone-hacking", "type": "article", "sectionId": "media", "sectionName": "Media", "webPublicationDate": "2011-07-29T00:43:00Z", "webTitle": "PCC chair expected to resign after NoW phone hacking scandal", "webUrl": "https://www.theguardian.com/media/2011/jul/28/pcc-chair-retirement-phone-hacking", "apiUrl": "https://content.guardianapis.com/media/2011/jul/28/pcc-chair-retirement-phone-hacking", "isHosted": false, "pillarId": "pillar/news", "pillarName": "News"}, {"id": "politics/2011/jul/28/diary-hugh-muir-wapping-farrers", "type": "article", "sectionId": "politics", "sectionName": "Politics", "webPublicationDate": "2011-07-28T21:54:00Z", "webTitle": "Hugh Muir's diary", "webUrl": "https://www.theguardian.com/politics/2011/jul/28/diary-hugh-muir-wapping-farrers", "apiUrl": "https://content.guardianapis.com/politics/2011/jul/28/diary-hugh-muir-wapping-farrers", "isHosted": false, "pillarId": "pillar/news", "pillarName": "News"}, {"id": "politics/2011/jul/28/nhs-spending-fall-cameron", "type": "article", "sectionId": "politics", "sectionName": "Politics", "webPublicationDate": "2011-07-28T21:00:07Z", "webTitle": "Cameron accused of breaking pledge on NHS, as health spending falls", "webUrl": "https://www.theguardian.com/politics/2011/jul/28/nhs-spending-fall-cameron", "apiUrl": "https://content.guardianapis.com/politics/2011/jul/28/nhs-spending-fall-cameron", "isHosted": false, "pillarId": "pillar/news", "pillarName": "News"}, {"id": "commentisfree/2011/jul/28/downing-street-blue-skies-editorial", "type": "article", "sectionId": "commentisfree", "sectionName": "Opinion", "webPublicationDate": "2011-07-28T20:59:02Z", "webTitle": "Downing Street: Blue skies and red tape | Editorial", "webUrl": "https://www.theguardian.com/commentisfree/2011/jul/28/downing-street-blue-skies-editorial", "apiUrl": "https://content.guardianapis.com/commentisfree/2011/jul/28/downing-street-blue-skies-editorial", "isHosted": false, "pillarId": "pillar/opinion", "pillarName": "Opinion"}, {"id": "commentisfree/2011/jul/28/making-top-cops-police-leadership", "type": "article", "sectionId": "commentisfree", "sectionName": "Opinion", "webPublicationDate": "2011-07-28T20:30:01Z", "webTitle": "The making of top cops | Sara Thornton", "webUrl": "https://www.theguardian.com/commentisfree/2011/jul/28/making-top-cops-police-leadership", "apiUrl": "https://content.guardianapis.com/commentisfree/2011/jul/28/making-top-cops-police-leadership", "isHosted": false, "pillarId": "pillar/opinion", "pillarName": "Opinion"}, {"id": "business/2011/jul/28/bae-rolls-royce-urge-chancellor-not-to-cut-research-funding-for-manufacturers", "type": "article", "sectionId": "business", "sectionName": "Business", "webPublicationDate": "2011-07-28T20:13:52Z", "webTitle": "BAE and Rolls-Royce urge chancellor not to cut research and education funding", "webUrl": "https://www.theguardian.com/business/2011/jul/28/bae-rolls-royce-urge-chancellor-not-to-cut-research-funding-for-manufacturers", "apiUrl": "https://content.guardianapis.com/business/2011/jul/28/bae-rolls-royce-urge-chancellor-not-to-cut-research-funding-for-manufacturers", "isHosted": false, "pillarId": "pillar/news", "pillarName": "News"}, {"id": "commentisfree/2011/jul/28/hacking-inquiry-leveson-editorial", "type": "article", "sectionId": "commentisfree", "sectionName": "Opinion", "webPublicationDate": "2011-07-28T20:02:04Z", "webTitle": "Hacking inquiry: Leveson's length and breadth | Editorial", "webUrl": "https://www.theguardian.com/commentisfree/2011/jul/28/hacking-inquiry-leveson-editorial", "apiUrl": "https://content.guardianapis.com/commentisfree/2011/jul/28/hacking-inquiry-leveson-editorial", "isHosted": false, "pillarId": "pillar/opinion", "pillarName": "Opinion"}, {"id": "commentisfree/2011/jul/28/localism-bill-sacrifice-countryside-market", "type": "article", "sectionId": "commentisfree", "sectionName": "Opinion", "webPublicationDate": "2011-07-28T20:00:09Z", "webTitle": "This localism bill will sacrifice our countryside to market forces | Simon Jenkins", "webUrl": "https://www.theguardian.com/commentisfree/2011/jul/28/localism-bill-sacrifice-countryside-market", "apiUrl": "https://content.guardianapis.com/commentisfree/2011/jul/28/localism-bill-sacrifice-countryside-market", "isHosted": false, "pillarId": "pillar/opinion", "pillarName": "Opinion"}, {"id": "environment/2011/jul/28/badger-culls-grey-area-science", "type": "article", "sectionId": "environment", "sectionName": "Environment", "webPublicationDate": "2011-07-28T20:00:07Z", "webTitle": "Letters: Badger culls and a grey area of science", "webUrl": "https://www.theguardian.com/environment/2011/jul/28/badger-culls-grey-area-science", "apiUrl": "https://content.guardianapis.com/environment/2011/jul/28/badger-culls-grey-area-science", "isHosted": false, "pillarId": "pillar/news", "pillarName": "News"}, {"id": "society/2011/jul/28/moved-mike-marqusee-cancer-piece", "type": "article", "sectionId": "society", "sectionName": "Society", "webPublicationDate": "2011-07-28T20:00:07Z", "webTitle": "Letters: I've rarely been so moved by a piece", "webUrl": "https://www.theguardian.com/society/2011/jul/28/moved-mike-marqusee-cancer-piece", "apiUrl": "https://content.guardianapis.com/society/2011/jul/28/moved-mike-marqusee-cancer-piece", "isHosted": false, "pillarId": "pillar/news", "pillarName": "News"}, {"id": "politics/2011/jul/28/us-industrial-policy-to-follow", "type": "article", "sectionId": "politics", "sectionName": "Politics", "webPublicationDate": "2011-07-28T20:00:06Z", "webTitle": "Letters: US industrial policy is the one to follow", "webUrl": "https://www.theguardian.com/politics/2011/jul/28/us-industrial-policy-to-follow", "apiUrl": "https://content.guardianapis.com/politics/2011/jul/28/us-industrial-policy-to-follow", "isHosted": false, "pillarId": "pillar/news", "pillarName": "News"}, {"id": "politics/2011/jul/28/loosening-green-belt-rules", "type": "article", "sectionId": "politics", "sectionName": "Politics", "webPublicationDate": "2011-07-28T20:00:05Z", "webTitle": "Letters: Loosening green belt rules", "webUrl": "https://www.theguardian.com/politics/2011/jul/28/loosening-green-belt-rules", "apiUrl": "https://content.guardianapis.com/politics/2011/jul/28/loosening-green-belt-rules", "isHosted": false, "pillarId": "pillar/news", "pillarName": "News"}, {"id": "world/2011/jul/28/europe-political-map", "type": "article", "sectionId": "world", "sectionName": "World news", "webPublicationDate": "2011-07-28T20:00:04Z", "webTitle": "The changing political map of Europe", "webUrl": "https://www.theguardian.com/world/2011/jul/28/europe-political-map", "apiUrl": "https://content.guardianapis.com/world/2011/jul/28/europe-political-map", "isHosted": false, "pillarId": "pillar/news", "pillarName": "News"}, {"id": "lifeandstyle/2011/jul/28/airbrushing-loreal-adverts-jo-swinson", "type": "article", "sectionId": "fashion", "sectionName": "Fashion", "webPublicationDate": "2011-07-28T20:00:00Z", "webTitle": "L'Or\u00e9al adverts: Don't airbrush over the truth", "webUrl": "https://www.theguardian.com/lifeandstyle/2011/jul/28/airbrushing-loreal-adverts-jo-swinson", "apiUrl": "https://content.guardianapis.com/lifeandstyle/2011/jul/28/airbrushing-loreal-adverts-jo-swinson", "isHosted": false, "pillarId": "pillar/lifestyle", "pillarName": "Lifestyle"}, {"id": "society/2011/jul/28/public-sector-pensions-strikes", "type": "article", "sectionId": "society", "sectionName": "Society", "webPublicationDate": "2011-07-28T19:48:12Z", "webTitle": "Public sector workers 'frogmarched' into strike action over pensions", "webUrl": "https://www.theguardian.com/society/2011/jul/28/public-sector-pensions-strikes", "apiUrl": "https://content.guardianapis.com/society/2011/jul/28/public-sector-pensions-strikes", "isHosted": false, "pillarId": "pillar/news", "pillarName": "News"}, {"id": "politics/2011/jul/28/steve-hilton-policies-coalition-split", "type": "article", "sectionId": "politics", "sectionName": "Politics", "webPublicationDate": "2011-07-28T19:47:22Z", "webTitle": "Steve Hilton policy leaks show Downing Street divide over David Cameron aide", "webUrl": "https://www.theguardian.com/politics/2011/jul/28/steve-hilton-policies-coalition-split", "apiUrl": "https://content.guardianapis.com/politics/2011/jul/28/steve-hilton-policies-coalition-split", "isHosted": false, "pillarId": "pillar/news", "pillarName": "News"}, {"id": "media/2011/jul/28/phone-hacking-scandal-tarnished-met", "type": "article", "sectionId": "media", "sectionName": "Media", "webPublicationDate": "2011-07-28T19:46:23Z", "webTitle": "Phone-hacking scandal has tarnished Met, says acting chief", "webUrl": "https://www.theguardian.com/media/2011/jul/28/phone-hacking-scandal-tarnished-met", "apiUrl": "https://content.guardianapis.com/media/2011/jul/28/phone-hacking-scandal-tarnished-met", "isHosted": false, "pillarId": "pillar/news", "pillarName": "News"}, {"id": "politics/2011/jul/28/pension-reform-union-leaders-strikes", "type": "article", "sectionId": "politics", "sectionName": "Politics", "webPublicationDate": "2011-07-28T19:02:48Z", "webTitle": "Union leaders consider more strikes over public sector pension reform", "webUrl": "https://www.theguardian.com/politics/2011/jul/28/pension-reform-union-leaders-strikes", "apiUrl": "https://content.guardianapis.com/politics/2011/jul/28/pension-reform-union-leaders-strikes", "isHosted": false, "pillarId": "pillar/news", "pillarName": "News"}]}}