{"response": {"status": "ok", "userTier": "developer", "total": 21737, "startIndex": 1, "pageSize": 50, "currentPage": 1, "pages": 435, "orderBy": "newest", "results": [{"id": "music/musicblog/2015/jul/30/readers-recommend-songs-about-farming", "type": "article", "sectionId": "music", "sectionName": "Music", "webPublicationDate": "2015-07-30T19:00:00Z", "webTitle": "Readers recommend: songs about farming | Peter Kimpton", "webUrl": "https://www.theguardian.com/music/musicblog/2015/jul/30/readers-recommend-songs-about-farming", "apiUrl": "https://content.guardianapis.com/music/musicblog/2015/jul/30/readers-recommend-songs-about-farming", "isHosted": false, "pillarId": "pillar/arts", "pillarName": "Arts"}, {"id": "lifeandstyle/2015/jul/30/wine-for-barbecue-spanish-fiona-beckett", "type": "article", "sectionId": "food", "sectionName": "Food", "webPublicationDate": "2015-07-30T17:00:05Z", "webTitle": "Wine: why Spanish wines work with barbecues", "webUrl": "https://www.theguardian.com/lifeandstyle/2015/jul/30/wine-for-barbecue-spanish-fiona-beckett", "apiUrl": "https://content.guardianapis.com/lifeandstyle/2015/jul/30/wine-for-barbecue-spanish-fiona-beckett", "isHosted": false, "pillarId": "pillar/lifestyle", "pillarName": "Lifestyle"}, {"id": "commentisfree/2015/jul/30/yorkshire-pudding-british-food-apple-pie-traditional-speciality-guaranteed-list", "type": "article", "sectionId": "commentisfree", "sectionName": "Opinion", "webPublicationDate": "2015-07-30T16:35:28Z", "webTitle": "Why is yorkshire pudding not protected? Eight classic British foods to preserve | Tony Naylor", "webUrl": "https://www.theguardian.com/commentisfree/2015/jul/30/yorkshire-pudding-british-food-apple-pie-traditional-speciality-guaranteed-list", "apiUrl": "https://content.guardianapis.com/commentisfree/2015/jul/30/yorkshire-pudding-british-food-apple-pie-traditional-speciality-guaranteed-list", "isHosted": false, "pillarId": "pillar/opinion", "pillarName": "Opinion"}, {"id": "travel/2015/jul/30/restaurants-in-sardinia-italy-readers-travel-tips", "type": "article", "sectionId": "travel", "sectionName": "Travel", "webPublicationDate": "2015-07-30T12:30:12Z", "webTitle": "Favourite restaurants in Sardinia: readers\u2019 travel tips", "webUrl": "https://www.theguardian.com/travel/2015/jul/30/restaurants-in-sardinia-italy-readers-travel-tips", "apiUrl": "https://content.guardianapis.com/travel/2015/jul/30/restaurants-in-sardinia-italy-readers-travel-tips", "isHosted": false, "pillarId": "pillar/lifestyle", "pillarName": "Lifestyle"}, {"id": "lifeandstyle/2015/jul/30/how-to-cook-like-chef-home-ed-smith", "type": "article", "sectionId": "food", "sectionName": "Food", "webPublicationDate": "2015-07-30T12:27:59Z", "webTitle": "How to cook like a chef at home | Cook residency", "webUrl": "https://www.theguardian.com/lifeandstyle/2015/jul/30/how-to-cook-like-chef-home-ed-smith", "apiUrl": "https://content.guardianapis.com/lifeandstyle/2015/jul/30/how-to-cook-like-chef-home-ed-smith", "isHosted": false, "pillarId": "pillar/lifestyle", "pillarName": "Lifestyle"}, {"id": "lifeandstyle/2015/jul/30/carry-on-cooking-the-crazy-culinary-world-of-1970s-and-80s-cookbooks", "type": "article", "sectionId": "food", "sectionName": "Food", "webPublicationDate": "2015-07-30T06:00:15Z", "webTitle": "Carry on cooking: the crazy culinary world of 1970s and 80s cookbooks", "webUrl": "https://www.theguardian.com/lifeandstyle/2015/jul/30/carry-on-cooking-the-crazy-culinary-world-of-1970s-and-80s-cookbooks", "apiUrl": "https://content.guardianapis.com/lifeandstyle/2015/jul/30/carry-on-cooking-the-crazy-culinary-world-of-1970s-and-80s-cookbooks", "isHosted": false, "pillarId": "pillar/lifestyle", "pillarName": "Lifestyle"}, {"id": "travel/2015/jul/30/top-10-budget-seafood-restaurants-cafes-northumberland-coast", "type": "article", "sectionId": "travel", "sectionName": "Travel", "webPublicationDate": "2015-07-30T05:30:13Z", "webTitle": "Top 10 budget seafood restaurants and cafes on the Northumberland coast", "webUrl": "https://www.theguardian.com/travel/2015/jul/30/top-10-budget-seafood-restaurants-cafes-northumberland-coast", "apiUrl": "https://content.guardianapis.com/travel/2015/jul/30/top-10-budget-seafood-restaurants-cafes-northumberland-coast", "isHosted": false, "pillarId": "pillar/lifestyle", "pillarName": "Lifestyle"}, {"id": "business/2015/jul/29/bramley-apple-pie-filling-protected-status-traditional-speciality-guaranteed", "type": "article", "sectionId": "business", "sectionName": "Business", "webPublicationDate": "2015-07-29T20:12:57Z", "webTitle": "Bramley apple pie filling wins protected status from European commission", "webUrl": "https://www.theguardian.com/business/2015/jul/29/bramley-apple-pie-filling-protected-status-traditional-speciality-guaranteed", "apiUrl": "https://content.guardianapis.com/business/2015/jul/29/bramley-apple-pie-filling-protected-status-traditional-speciality-guaranteed", "isHosted": false, "pillarId": "pillar/news", "pillarName": "News"}, {"id": "lifeandstyle/2015/jul/29/spaghetti-cone-new-york-miracle-of-physics-genius-food-delivery-system", "type": "article", "sectionId": "food", "sectionName": "Food", "webPublicationDate": "2015-07-29T16:52:52Z", "webTitle": "Spaghetti in a cone: a miracle of physics, a genius food delivery system", "webUrl": "https://www.theguardian.com/lifeandstyle/2015/jul/29/spaghetti-cone-new-york-miracle-of-physics-genius-food-delivery-system", "apiUrl": "https://content.guardianapis.com/lifeandstyle/2015/jul/29/spaghetti-cone-new-york-miracle-of-physics-genius-food-delivery-system", "isHosted": false, "pillarId": "pillar/lifestyle", "pillarName": "Lifestyle"}, {"id": "lifeandstyle/2015/jul/29/how-to-cook-perfect-caponata-felicity-cloake", "type": "article", "sectionId": "food", "sectionName": "Food", "webPublicationDate": "2015-07-29T14:45:09Z", "webTitle": "How to cook the perfect caponata", "webUrl": "https://www.theguardian.com/lifeandstyle/2015/jul/29/how-to-cook-perfect-caponata-felicity-cloake", "apiUrl": "https://content.guardianapis.com/lifeandstyle/2015/jul/29/how-to-cook-perfect-caponata-felicity-cloake", "isHosted": false, "pillarId": "pillar/lifestyle", "pillarName": "Lifestyle"}, {"id": "lifeandstyle/2015/jul/29/recipe-swap-honey", "type": "article", "sectionId": "food", "sectionName": "Food", "webPublicationDate": "2015-07-29T13:07:35Z", "webTitle": "Recipe swap: honey", "webUrl": "https://www.theguardian.com/lifeandstyle/2015/jul/29/recipe-swap-honey", "apiUrl": "https://content.guardianapis.com/lifeandstyle/2015/jul/29/recipe-swap-honey", "isHosted": false, "pillarId": "pillar/lifestyle", "pillarName": "Lifestyle"}, {"id": "sustainable-business/2015/jul/29/theo-chocolate-nespresso-timberland-nestle-cocoa-beans", "type": "article", "sectionId": "sustainable-business", "sectionName": "Guardian Sustainable Business", "webPublicationDate": "2015-07-29T13:00:00Z", "webTitle": "Theo Chocolate and others aim to end farmers' cycle of poverty", "webUrl": "https://www.theguardian.com/sustainable-business/2015/jul/29/theo-chocolate-nespresso-timberland-nestle-cocoa-beans", "apiUrl": "https://content.guardianapis.com/sustainable-business/2015/jul/29/theo-chocolate-nespresso-timberland-nestle-cocoa-beans", "isHosted": false}, {"id": "travel/2015/jul/29/yalicapkini-restaurant-dalyan-turkey-great-little-place-i-know", "type": "article", "sectionId": "travel", "sectionName": "Travel", "webPublicationDate": "2015-07-29T11:30:06Z", "webTitle": "Yali\u00e7apkini restaurant is only two miles from Turkey\u2019s raucous Dalyan \u2013 but also a world away", "webUrl": "https://www.theguardian.com/travel/2015/jul/29/yalicapkini-restaurant-dalyan-turkey-great-little-place-i-know", "apiUrl": "https://content.guardianapis.com/travel/2015/jul/29/yalicapkini-restaurant-dalyan-turkey-great-little-place-i-know", "isHosted": false, "pillarId": "pillar/lifestyle", "pillarName": "Lifestyle"}, {"id": "lifeandstyle/2015/jul/29/kitchen-gadgets-review-the-ozpig-the-vaguely-druidic-way-to-heat-your-patio-and-cook-a-chicken", "type": "article", "sectionId": "lifeandstyle", "sectionName": "Life and style", "webPublicationDate": "2015-07-29T11:17:44Z", "webTitle": "Kitchen gadgets review: the Ozpig \u2013 the vaguely druidic way to heat your patio and cook a chicken", "webUrl": "https://www.theguardian.com/lifeandstyle/2015/jul/29/kitchen-gadgets-review-the-ozpig-the-vaguely-druidic-way-to-heat-your-patio-and-cook-a-chicken", "apiUrl": "https://content.guardianapis.com/lifeandstyle/2015/jul/29/kitchen-gadgets-review-the-ozpig-the-vaguely-druidic-way-to-heat-your-patio-and-cook-a-chicken", "isHosted": false, "pillarId": "pillar/lifestyle", "pillarName": "Lifestyle"}, {"id": "lifeandstyle/2015/jul/29/baby-boomers-feeding-america-aarp-food-insecurity-health", "type": "article", "sectionId": "lifeandstyle", "sectionName": "Life and style", "webPublicationDate": "2015-07-29T11:00:06Z", "webTitle": "In US, 8 million baby boomers go hungry amid health and economic challenges", "webUrl": "https://www.theguardian.com/lifeandstyle/2015/jul/29/baby-boomers-feeding-america-aarp-food-insecurity-health", "apiUrl": "https://content.guardianapis.com/lifeandstyle/2015/jul/29/baby-boomers-feeding-america-aarp-food-insecurity-health", "isHosted": false, "pillarId": "pillar/lifestyle", "pillarName": "Lifestyle"}, {"id": "world/2015/jul/28/divided-cyprus-unites-to-apply-for-eu-protected-status-for-halloumi", "type": "article", "sectionId": "world", "sectionName": "World news", "webPublicationDate": "2015-07-28T15:55:31Z", "webTitle": "Divided Cyprus unites to apply for EU protected status for halloumi", "webUrl": "https://www.theguardian.com/world/2015/jul/28/divided-cyprus-unites-to-apply-for-eu-protected-status-for-halloumi", "apiUrl": "https://content.guardianapis.com/world/2015/jul/28/divided-cyprus-unites-to-apply-for-eu-protected-status-for-halloumi", "isHosted": false, "pillarId": "pillar/news", "pillarName": "News"}, {"id": "business/2015/jul/28/tesco-stop-selling-childrens-high-sugar-drinks-ribena-capri-sun", "type": "article", "sectionId": "business", "sectionName": "Business", "webPublicationDate": "2015-07-28T11:41:59Z", "webTitle": "Tesco to stop selling lunchbox-size sugary Ribena and Capri-Sun", "webUrl": "https://www.theguardian.com/business/2015/jul/28/tesco-stop-selling-childrens-high-sugar-drinks-ribena-capri-sun", "apiUrl": "https://content.guardianapis.com/business/2015/jul/28/tesco-stop-selling-childrens-high-sugar-drinks-ribena-capri-sun", "isHosted": false, "pillarId": "pillar/news", "pillarName": "News"}, {"id": "lifeandstyle/wordofmouth/2015/jul/28/scotch-eggs-world-british-india-belgium-brazil-poland-gastropub", "type": "article", "sectionId": "food", "sectionName": "Food", "webPublicationDate": "2015-07-28T09:48:15Z", "webTitle": "Scotch eggs around the world \u2013\u00a0it has never been just a British thing", "webUrl": "https://www.theguardian.com/lifeandstyle/wordofmouth/2015/jul/28/scotch-eggs-world-british-india-belgium-brazil-poland-gastropub", "apiUrl": "https://content.guardianapis.com/lifeandstyle/wordofmouth/2015/jul/28/scotch-eggs-world-british-india-belgium-brazil-poland-gastropub", "isHosted": false, "pillarId": "pillar/lifestyle", "pillarName": "Lifestyle"}, {"id": "commentisfree/2015/jul/27/america-tv-british-exports", "type": "article", "sectionId": "commentisfree", "sectionName": "Opinion", "webPublicationDate": "2015-07-27T17:27:09Z", "webTitle": "Dear America, it's not just TV we're good at. Take a look at this lot", "webUrl": "https://www.theguardian.com/commentisfree/2015/jul/27/america-tv-british-exports", "apiUrl": "https://content.guardianapis.com/commentisfree/2015/jul/27/america-tv-british-exports", "isHosted": false, "pillarId": "pillar/opinion", "pillarName": "Opinion"}, {"id": "cities/2015/jul/27/californian-city-arcata-marijuana-innovation-zone", "type": "article", "sectionId": "cities", "sectionName": "Cities", "webPublicationDate": "2015-07-27T10:07:33Z", "webTitle": "Californian city to get 'marijuana innovation zone'", "webUrl": "https://www.theguardian.com/cities/2015/jul/27/californian-city-arcata-marijuana-innovation-zone", "apiUrl": "https://content.guardianapis.com/cities/2015/jul/27/californian-city-arcata-marijuana-innovation-zone", "isHosted": false, "pillarId": "pillar/news", "pillarName": "News"}, {"id": "lifeandstyle/australia-food-blog/2015/jul/27/adam-liaw-five-lessons-ive-learned-since-winning-masterchef", "type": "article", "sectionId": "lifeandstyle", "sectionName": "Life and style", "webPublicationDate": "2015-07-27T06:54:59Z", "webTitle": "Adam Liaw: five lessons I've learned since winning MasterChef", "webUrl": "https://www.theguardian.com/lifeandstyle/australia-food-blog/2015/jul/27/adam-liaw-five-lessons-ive-learned-since-winning-masterchef", "apiUrl": "https://content.guardianapis.com/lifeandstyle/australia-food-blog/2015/jul/27/adam-liaw-five-lessons-ive-learned-since-winning-masterchef", "isHosted": false, "pillarId": "pillar/lifestyle", "pillarName": "Lifestyle"}, {"id": "lifeandstyle/2015/jul/26/lunch-recipes-baked-frittata-sausage-roll", "type": "article", "sectionId": "food", "sectionName": "Food", "webPublicationDate": "2015-07-26T09:00:00Z", "webTitle": "Simple savoury baked recipes for lunchtime | The Lunch Box", "webUrl": "https://www.theguardian.com/lifeandstyle/2015/jul/26/lunch-recipes-baked-frittata-sausage-roll", "apiUrl": "https://content.guardianapis.com/lifeandstyle/2015/jul/26/lunch-recipes-baked-frittata-sausage-roll", "isHosted": false, "pillarId": "pillar/lifestyle", "pillarName": "Lifestyle"}, {"id": "travel/2015/jul/26/burgundy-cycling-wine-tour-france", "type": "article", "sectionId": "travel", "sectionName": "Travel", "webPublicationDate": "2015-07-26T06:00:01Z", "webTitle": "Burgundy by bike: a wine-tasting weekend", "webUrl": "https://www.theguardian.com/travel/2015/jul/26/burgundy-cycling-wine-tour-france", "apiUrl": "https://content.guardianapis.com/travel/2015/jul/26/burgundy-cycling-wine-tour-france", "isHosted": false, "pillarId": "pillar/lifestyle", "pillarName": "Lifestyle"}, {"id": "travel/2015/jul/26/foodie-traveller-turkish-pizza-pide-turkey", "type": "article", "sectionId": "travel", "sectionName": "Travel", "webPublicationDate": "2015-07-26T06:00:01Z", "webTitle": "The foodie traveller \u2026 takes a test of pide, Turkish pizza", "webUrl": "https://www.theguardian.com/travel/2015/jul/26/foodie-traveller-turkish-pizza-pide-turkey", "apiUrl": "https://content.guardianapis.com/travel/2015/jul/26/foodie-traveller-turkish-pizza-pide-turkey", "isHosted": false, "pillarId": "pillar/lifestyle", "pillarName": "Lifestyle"}, {"id": "travel/2015/jul/26/top-10-bike-friendly-wine-routes", "type": "article", "sectionId": "travel", "sectionName": "Travel", "webPublicationDate": "2015-07-26T06:00:01Z", "webTitle": "Top 10 bike-friendly wine routes", "webUrl": "https://www.theguardian.com/travel/2015/jul/26/top-10-bike-friendly-wine-routes", "apiUrl": "https://content.guardianapis.com/travel/2015/jul/26/top-10-bike-friendly-wine-routes", "isHosted": false, "pillarId": "pillar/lifestyle", "pillarName": "Lifestyle"}, {"id": "lifeandstyle/2015/jul/26/three-red-wines-to-go-with-a-barbecue", "type": "article", "sectionId": "food", "sectionName": "Food", "webPublicationDate": "2015-07-26T05:00:11Z", "webTitle": "Three red wines to go with a barbecue", "webUrl": "https://www.theguardian.com/lifeandstyle/2015/jul/26/three-red-wines-to-go-with-a-barbecue", "apiUrl": "https://content.guardianapis.com/lifeandstyle/2015/jul/26/three-red-wines-to-go-with-a-barbecue", "isHosted": false, "pillarId": "pillar/lifestyle", "pillarName": "Lifestyle"}, {"id": "lifeandstyle/2015/jul/26/le-chabanais-restaurant-review-jay-rayner", "type": "article", "sectionId": "food", "sectionName": "Food", "webPublicationDate": "2015-07-26T04:59:11Z", "webTitle": "Le Chabanais: restaurant review | Jay Rayner", "webUrl": "https://www.theguardian.com/lifeandstyle/2015/jul/26/le-chabanais-restaurant-review-jay-rayner", "apiUrl": "https://content.guardianapis.com/lifeandstyle/2015/jul/26/le-chabanais-restaurant-review-jay-rayner", "isHosted": false, "pillarId": "pillar/lifestyle", "pillarName": "Lifestyle"}, {"id": "commentisfree/2015/jul/26/alcoholic-fog-much-to-recommend-it", "type": "article", "sectionId": "commentisfree", "sectionName": "Opinion", "webPublicationDate": "2015-07-25T23:11:04Z", "webTitle": "An alcoholic fog has much to recommend it | Barbara Ellen", "webUrl": "https://www.theguardian.com/commentisfree/2015/jul/26/alcoholic-fog-much-to-recommend-it", "apiUrl": "https://content.guardianapis.com/commentisfree/2015/jul/26/alcoholic-fog-much-to-recommend-it", "isHosted": false, "pillarId": "pillar/opinion", "pillarName": "Opinion"}, {"id": "lifeandstyle/2015/jul/25/green-beans-recipes-soup-stew-chutney-pancake", "type": "article", "sectionId": "food", "sectionName": "Food", "webPublicationDate": "2015-07-25T11:00:05Z", "webTitle": "Four recipes from a summer glut of green beans | Get Ahead", "webUrl": "https://www.theguardian.com/lifeandstyle/2015/jul/25/green-beans-recipes-soup-stew-chutney-pancake", "apiUrl": "https://content.guardianapis.com/lifeandstyle/2015/jul/25/green-beans-recipes-soup-stew-chutney-pancake", "isHosted": false, "pillarId": "pillar/lifestyle", "pillarName": "Lifestyle"}, {"id": "lifeandstyle/2015/jul/25/barbecued-leg-of-lamb-recipes-poached-apricots-thomasina-miers", "type": "article", "sectionId": "food", "sectionName": "Food", "webPublicationDate": "2015-07-25T07:00:01Z", "webTitle": "The weekend cook: Thomasina Miers\u2019 recipes for Moorish-style barbecued leg of lamb, and poached spiced apricots", "webUrl": "https://www.theguardian.com/lifeandstyle/2015/jul/25/barbecued-leg-of-lamb-recipes-poached-apricots-thomasina-miers", "apiUrl": "https://content.guardianapis.com/lifeandstyle/2015/jul/25/barbecued-leg-of-lamb-recipes-poached-apricots-thomasina-miers", "isHosted": false, "pillarId": "pillar/lifestyle", "pillarName": "Lifestyle"}, {"id": "travel/2015/jul/25/malaga-holiday-guide-spain-best-hotels-bars-restaurants", "type": "article", "sectionId": "travel", "sectionName": "Travel", "webPublicationDate": "2015-07-25T06:00:03Z", "webTitle": "M\u00e1laga holiday guide: what to see plus the best bars, hotels and restaurants", "webUrl": "https://www.theguardian.com/travel/2015/jul/25/malaga-holiday-guide-spain-best-hotels-bars-restaurants", "apiUrl": "https://content.guardianapis.com/travel/2015/jul/25/malaga-holiday-guide-spain-best-hotels-bars-restaurants", "isHosted": false, "pillarId": "pillar/lifestyle", "pillarName": "Lifestyle"}, {"id": "money/blog/2015/jul/25/who-are-best-tippers-americans", "type": "article", "sectionId": "money", "sectionName": "Money", "webPublicationDate": "2015-07-25T06:00:01Z", "webTitle": "Who are the best tippers? Yanks for asking \u2026", "webUrl": "https://www.theguardian.com/money/blog/2015/jul/25/who-are-best-tippers-americans", "apiUrl": "https://content.guardianapis.com/money/blog/2015/jul/25/who-are-best-tippers-americans", "isHosted": false, "pillarId": "pillar/lifestyle", "pillarName": "Lifestyle"}, {"id": "lifeandstyle/2015/jul/25/family-life-mystery-girl-eagle-by-abba-and-uncle-petes-pink-parsnip-dip", "type": "article", "sectionId": "lifeandstyle", "sectionName": "Life and style", "webPublicationDate": "2015-07-25T05:30:07Z", "webTitle": "Family life: Mystery girl, Eagle by Abba and Uncle Pete\u2019s pink parsnip dip", "webUrl": "https://www.theguardian.com/lifeandstyle/2015/jul/25/family-life-mystery-girl-eagle-by-abba-and-uncle-petes-pink-parsnip-dip", "apiUrl": "https://content.guardianapis.com/lifeandstyle/2015/jul/25/family-life-mystery-girl-eagle-by-abba-and-uncle-petes-pink-parsnip-dip", "isHosted": false, "pillarId": "pillar/lifestyle", "pillarName": "Lifestyle"}, {"id": "lifeandstyle/2015/jul/25/readers-recipe-swap-marinades-fish-meat-vegetables", "type": "article", "sectionId": "lifeandstyle", "sectionName": "Life and style", "webPublicationDate": "2015-07-25T05:00:09Z", "webTitle": "Readers\u2019 recipe swap: marinades", "webUrl": "https://www.theguardian.com/lifeandstyle/2015/jul/25/readers-recipe-swap-marinades-fish-meat-vegetables", "apiUrl": "https://content.guardianapis.com/lifeandstyle/2015/jul/25/readers-recipe-swap-marinades-fish-meat-vegetables", "isHosted": false, "pillarId": "pillar/lifestyle", "pillarName": "Lifestyle"}, {"id": "lifeandstyle/2015/jul/25/ruby-tandoh-baking-swiss-roll-roulade-recipes", "type": "article", "sectionId": "food", "sectionName": "Food", "webPublicationDate": "2015-07-25T05:00:08Z", "webTitle": "Ruby Tandoh's rolls with a punch | Ruby Tandoh", "webUrl": "https://www.theguardian.com/lifeandstyle/2015/jul/25/ruby-tandoh-baking-swiss-roll-roulade-recipes", "apiUrl": "https://content.guardianapis.com/lifeandstyle/2015/jul/25/ruby-tandoh-baking-swiss-roll-roulade-recipes", "isHosted": false, "pillarId": "pillar/lifestyle", "pillarName": "Lifestyle"}, {"id": "lifeandstyle/australia-food-blog/2015/jul/25/seasons-eating-fresh-turmeric-and-chicken-curry", "type": "article", "sectionId": "lifeandstyle", "sectionName": "Life and style", "webPublicationDate": "2015-07-25T02:22:53Z", "webTitle": "Season's eating: fresh turmeric and chicken curry", "webUrl": "https://www.theguardian.com/lifeandstyle/australia-food-blog/2015/jul/25/seasons-eating-fresh-turmeric-and-chicken-curry", "apiUrl": "https://content.guardianapis.com/lifeandstyle/australia-food-blog/2015/jul/25/seasons-eating-fresh-turmeric-and-chicken-curry", "isHosted": false, "pillarId": "pillar/lifestyle", "pillarName": "Lifestyle"}, {"id": "commentisfree/2015/jul/24/middle-class-drinking-drunk-hangover", "type": "article", "sectionId": "commentisfree", "sectionName": "Opinion", "webPublicationDate": "2015-07-24T16:49:02Z", "webTitle": "Middle-class drinking? It\u2019s one of my favourite things | Christina Patterson", "webUrl": "https://www.theguardian.com/commentisfree/2015/jul/24/middle-class-drinking-drunk-hangover", "apiUrl": "https://content.guardianapis.com/commentisfree/2015/jul/24/middle-class-drinking-drunk-hangover", "isHosted": false, "pillarId": "pillar/opinion", "pillarName": "Opinion"}, {"id": "lifeandstyle/2015/jul/24/blender-lemonade-recipe-claire-thomson", "type": "article", "sectionId": "food", "sectionName": "Food", "webPublicationDate": "2015-07-24T16:30:01Z", "webTitle": "The good mixer: blender lemonade recipe", "webUrl": "https://www.theguardian.com/lifeandstyle/2015/jul/24/blender-lemonade-recipe-claire-thomson", "apiUrl": "https://content.guardianapis.com/lifeandstyle/2015/jul/24/blender-lemonade-recipe-claire-thomson", "isHosted": false, "pillarId": "pillar/lifestyle", "pillarName": "Lifestyle"}, {"id": "technology/2015/jul/24/uber-free-ice-cream-delivery", "type": "article", "sectionId": "technology", "sectionName": "Technology", "webPublicationDate": "2015-07-24T16:18:07Z", "webTitle": "Uber's ice-cream sweetener turns sour, after users lose cool over lack of delivery", "webUrl": "https://www.theguardian.com/technology/2015/jul/24/uber-free-ice-cream-delivery", "apiUrl": "https://content.guardianapis.com/technology/2015/jul/24/uber-free-ice-cream-delivery", "isHosted": false, "pillarId": "pillar/news", "pillarName": "News"}, {"id": "film/2015/jul/24/hunger-game-match-the-actor-to-their-on-screen-food-quiz", "type": "article", "sectionId": "film", "sectionName": "Film", "webPublicationDate": "2015-07-24T15:44:50Z", "webTitle": "Hunger game: match the actor to their on screen food - quiz", "webUrl": "https://www.theguardian.com/film/2015/jul/24/hunger-game-match-the-actor-to-their-on-screen-food-quiz", "apiUrl": "https://content.guardianapis.com/film/2015/jul/24/hunger-game-match-the-actor-to-their-on-screen-food-quiz", "isHosted": false, "pillarId": "pillar/arts", "pillarName": "Arts"}, {"id": "lifeandstyle/wordofmouth/2015/jul/24/marina-oloughlins-food-feed-gordon-ramsay-gets-his-carrots-in-a-twist-and-et-arrives-on-a-plate", "type": "article", "sectionId": "lifeandstyle", "sectionName": "Life and style", "webPublicationDate": "2015-07-24T15:20:30Z", "webTitle": "Marina O'Loughlin's food feed: Gordon Ramsay gets his carrots in a twist and ET arrives on a plate", "webUrl": "https://www.theguardian.com/lifeandstyle/wordofmouth/2015/jul/24/marina-oloughlins-food-feed-gordon-ramsay-gets-his-carrots-in-a-twist-and-et-arrives-on-a-plate", "apiUrl": "https://content.guardianapis.com/lifeandstyle/wordofmouth/2015/jul/24/marina-oloughlins-food-feed-gordon-ramsay-gets-his-carrots-in-a-twist-and-et-arrives-on-a-plate", "isHosted": false, "pillarId": "pillar/lifestyle", "pillarName": "Lifestyle"}, {"id": "uk-news/2015/jul/24/culinary-explorers-discover-theres-life-yet-in-deep-fried-mars-bars", "type": "article", "sectionId": "uk-news", "sectionName": "UK news", "webPublicationDate": "2015-07-24T14:53:36Z", "webTitle": "Culinary explorers discover there's life yet in deep-fried Mars bars", "webUrl": "https://www.theguardian.com/uk-news/2015/jul/24/culinary-explorers-discover-theres-life-yet-in-deep-fried-mars-bars", "apiUrl": "https://content.guardianapis.com/uk-news/2015/jul/24/culinary-explorers-discover-theres-life-yet-in-deep-fried-mars-bars", "isHosted": false, "pillarId": "pillar/news", "pillarName": "News"}, {"id": "lifeandstyle/2015/jul/24/trout-fish-could-disappear-uk-supermarket-warns", "type": "article", "sectionId": "food", "sectionName": "Food", "webPublicationDate": "2015-07-24T13:17:01Z", "webTitle": "The rout of trout: how 70s British dinner staple could disappear from plates", "webUrl": "https://www.theguardian.com/lifeandstyle/2015/jul/24/trout-fish-could-disappear-uk-supermarket-warns", "apiUrl": "https://content.guardianapis.com/lifeandstyle/2015/jul/24/trout-fish-could-disappear-uk-supermarket-warns", "isHosted": false, "pillarId": "pillar/lifestyle", "pillarName": "Lifestyle"}, {"id": "lifeandstyle/2015/jul/24/howard-street-belfast-restaurant-review-marina-oloughlin", "type": "article", "sectionId": "lifeandstyle", "sectionName": "Life and style", "webPublicationDate": "2015-07-24T13:00:06Z", "webTitle": "Howard Street, Belfast \u2013 restaurant review | Marina O\u2019Loughlin", "webUrl": "https://www.theguardian.com/lifeandstyle/2015/jul/24/howard-street-belfast-restaurant-review-marina-oloughlin", "apiUrl": "https://content.guardianapis.com/lifeandstyle/2015/jul/24/howard-street-belfast-restaurant-review-marina-oloughlin", "isHosted": false, "pillarId": "pillar/lifestyle", "pillarName": "Lifestyle"}, {"id": "lifeandstyle/2015/jul/17/vin-dorange-white-wine-punch-recipe-ruth-spivey", "type": "article", "sectionId": "food", "sectionName": "Food", "webPublicationDate": "2015-07-24T11:54:19Z", "webTitle": "The good mixer: vin d\u2019orange \u2013 a recipe for a white wine punch with a difference", "webUrl": "https://www.theguardian.com/lifeandstyle/2015/jul/17/vin-dorange-white-wine-punch-recipe-ruth-spivey", "apiUrl": "https://content.guardianapis.com/lifeandstyle/2015/jul/17/vin-dorange-white-wine-punch-recipe-ruth-spivey", "isHosted": false, "pillarId": "pillar/lifestyle", "pillarName": "Lifestyle"}, {"id": "lifeandstyle/2015/jul/24/henry-dimbleby-jane-baxter-vegan-italian-recipes-puglia-pasta-chickpeas", "type": "article", "sectionId": "food", "sectionName": "Food", "webPublicationDate": "2015-07-24T11:00:23Z", "webTitle": "A vegan feast from southern Italy | Feasting", "webUrl": "https://www.theguardian.com/lifeandstyle/2015/jul/24/henry-dimbleby-jane-baxter-vegan-italian-recipes-puglia-pasta-chickpeas", "apiUrl": "https://content.guardianapis.com/lifeandstyle/2015/jul/24/henry-dimbleby-jane-baxter-vegan-italian-recipes-puglia-pasta-chickpeas", "isHosted": false, "pillarId": "pillar/lifestyle", "pillarName": "Lifestyle"}, {"id": "lifeandstyle/2015/jul/24/empire-of-drinks-beer-and-food-matching", "type": "article", "sectionId": "food", "sectionName": "Food", "webPublicationDate": "2015-07-24T11:00:23Z", "webTitle": "How to get the Brits to drink more beer", "webUrl": "https://www.theguardian.com/lifeandstyle/2015/jul/24/empire-of-drinks-beer-and-food-matching", "apiUrl": "https://content.guardianapis.com/lifeandstyle/2015/jul/24/empire-of-drinks-beer-and-food-matching", "isHosted": false, "pillarId": "pillar/lifestyle", "pillarName": "Lifestyle"}, {"id": "lifeandstyle/2015/jul/24/prue-leith-final-meal-mackerel-lentil-mango-salad-recipe", "type": "article", "sectionId": "food", "sectionName": "Food", "webPublicationDate": "2015-07-24T10:59:23Z", "webTitle": "Life was a bowl of cherries: Prue Leith\u2019s final meal | Last Bites", "webUrl": "https://www.theguardian.com/lifeandstyle/2015/jul/24/prue-leith-final-meal-mackerel-lentil-mango-salad-recipe", "apiUrl": "https://content.guardianapis.com/lifeandstyle/2015/jul/24/prue-leith-final-meal-mackerel-lentil-mango-salad-recipe", "isHosted": false, "pillarId": "pillar/lifestyle", "pillarName": "Lifestyle"}, {"id": "lifeandstyle/2015/jul/23/craft-beer-supermarket-high-street", "type": "article", "sectionId": "food", "sectionName": "Food", "webPublicationDate": "2015-07-24T09:44:06Z", "webTitle": "Beer: craft beer goes mainstream", "webUrl": "https://www.theguardian.com/lifeandstyle/2015/jul/23/craft-beer-supermarket-high-street", "apiUrl": "https://content.guardianapis.com/lifeandstyle/2015/jul/23/craft-beer-supermarket-high-street", "isHosted": false, "pillarId": "pillar/lifestyle", "pillarName": "Lifestyle"}, {"id": "film/2015/jul/24/jake-gyllenhaal-i-love-greggs", "type": "article", "sectionId": "film", "sectionName": "Film", "webPublicationDate": "2015-07-24T08:47:45Z", "webTitle": "Jake Gyllenhaal: I love Greggs", "webUrl": "https://www.theguardian.com/film/2015/jul/24/jake-gyllenhaal-i-love-greggs", "apiUrl": "https://content.guardianapis.com/film/2015/jul/24/jake-gyllenhaal-i-love-greggs", "isHosted": false, "pillarId": "pillar/arts", "pillarName": "Arts"}]}}