{"response": {"status": "ok", "userTier": "developer", "total": 82500, "startIndex": 1, "pageSize": 50, "currentPage": 1, "pages": 1650, "orderBy": "newest", "results": [{"id": "football/2010/jul/31/lucas-leiva-liverpool", "type": "article", "sectionId": "football", "sectionName": "Football", "webPublicationDate": "2010-07-30T23:06:51Z", "webTitle": "Lucas Leiva ready to fill void if Javier Mascherano leaves Liverpool", "webUrl": "https://www.theguardian.com/football/2010/jul/31/lucas-leiva-liverpool", "apiUrl": "https://content.guardianapis.com/football/2010/jul/31/lucas-leiva-liverpool", "isHosted": false, "pillarId": "pillar/sport", "pillarName": "Sport"}, {"id": "football/2010/jul/30/harry-redknapp-tottenham-pre-season-games", "type": "article", "sectionId": "football", "sectionName": "Football", "webPublicationDate": "2010-07-30T22:00:49Z", "webTitle": "Harry Redknapp rages at 'crazy' number of pre-season games", "webUrl": "https://www.theguardian.com/football/2010/jul/30/harry-redknapp-tottenham-pre-season-games", "apiUrl": "https://content.guardianapis.com/football/2010/jul/30/harry-redknapp-tottenham-pre-season-games", "isHosted": false, "pillarId": "pillar/sport", "pillarName": "Sport"}, {"id": "football/2010/jul/30/fulham-court-action-premier-league-dave-richards", "type": "article", "sectionId": "football", "sectionName": "Football", "webPublicationDate": "2010-07-30T21:01:50Z", "webTitle": "Fulham want Sir Dave Richards thrown out as Premier League chairman", "webUrl": "https://www.theguardian.com/football/2010/jul/30/fulham-court-action-premier-league-dave-richards", "apiUrl": "https://content.guardianapis.com/football/2010/jul/30/fulham-court-action-premier-league-dave-richards", "isHosted": false, "pillarId": "pillar/sport", "pillarName": "Sport"}, {"id": "football/2010/jul/30/arsene-wenger-arsenal-cesc-fabregas", "type": "article", "sectionId": "football", "sectionName": "Football", "webPublicationDate": "2010-07-30T18:54:20Z", "webTitle": "Ars\u00e8ne Wenger calls on Cesc F\u00e1bregas to lead Arsenal to league title", "webUrl": "https://www.theguardian.com/football/2010/jul/30/arsene-wenger-arsenal-cesc-fabregas", "apiUrl": "https://content.guardianapis.com/football/2010/jul/30/arsene-wenger-arsenal-cesc-fabregas", "isHosted": false, "pillarId": "pillar/sport", "pillarName": "Sport"}, {"id": "football/2010/jul/30/david-james-bristol-city", "type": "article", "sectionId": "football", "sectionName": "Football", "webPublicationDate": "2010-07-30T17:30:08Z", "webTitle": "David James puts family before Premier League to sign for Bristol City", "webUrl": "https://www.theguardian.com/football/2010/jul/30/david-james-bristol-city", "apiUrl": "https://content.guardianapis.com/football/2010/jul/30/david-james-bristol-city", "isHosted": false, "pillarId": "pillar/sport", "pillarName": "Sport"}, {"id": "world/2010/jul/30/north-korea-footballers-public-mauling", "type": "article", "sectionId": "world", "sectionName": "World news", "webPublicationDate": "2010-07-30T16:31:12Z", "webTitle": "North Korea's failed World Cup footballers undergo public mauling", "webUrl": "https://www.theguardian.com/world/2010/jul/30/north-korea-footballers-public-mauling", "apiUrl": "https://content.guardianapis.com/world/2010/jul/30/north-korea-footballers-public-mauling", "isHosted": false, "pillarId": "pillar/news", "pillarName": "News"}, {"id": "football/2010/jul/30/the-fiver-liverpool", "type": "article", "sectionId": "football", "sectionName": "Football", "webPublicationDate": "2010-07-30T14:43:02Z", "webTitle": "The Fiver | Dunderheaded Professional Sportsmen | Barry Glendenning", "webUrl": "https://www.theguardian.com/football/2010/jul/30/the-fiver-liverpool", "apiUrl": "https://content.guardianapis.com/football/2010/jul/30/the-fiver-liverpool", "isHosted": false, "pillarId": "pillar/sport", "pillarName": "Sport"}, {"id": "football/blog/2010/jul/30/premier-league-academy-homegrown-players", "type": "article", "sectionId": "football", "sectionName": "Football", "webPublicationDate": "2010-07-30T14:14:00Z", "webTitle": "England expects as Premier League gears up for a homegrown revolution | David Hytner", "webUrl": "https://www.theguardian.com/football/blog/2010/jul/30/premier-league-academy-homegrown-players", "apiUrl": "https://content.guardianapis.com/football/blog/2010/jul/30/premier-league-academy-homegrown-players", "isHosted": false, "pillarId": "pillar/sport", "pillarName": "Sport"}, {"id": "sport/blog/2010/jul/30/joy-of-six-football-surprise-packages", "type": "article", "sectionId": "sport", "sectionName": "Sport", "webPublicationDate": "2010-07-30T10:00:10Z", "webTitle": "The Joy of Six: Football's surprise packages | Scott Murray and Paul Doyle", "webUrl": "https://www.theguardian.com/sport/blog/2010/jul/30/joy-of-six-football-surprise-packages", "apiUrl": "https://content.guardianapis.com/sport/blog/2010/jul/30/joy-of-six-football-surprise-packages", "isHosted": false, "pillarId": "pillar/sport", "pillarName": "Sport"}, {"id": "football/2010/jul/30/aston-villa-tottenham-hotspur", "type": "article", "sectionId": "football", "sectionName": "Football", "webPublicationDate": "2010-07-30T08:13:00Z", "webTitle": "Football transfer rumours: Bentley, Jenas and Keane to Villa in exchange for Ashley Young?", "webUrl": "https://www.theguardian.com/football/2010/jul/30/aston-villa-tottenham-hotspur", "apiUrl": "https://content.guardianapis.com/football/2010/jul/30/aston-villa-tottenham-hotspur", "isHosted": false, "pillarId": "pillar/sport", "pillarName": "Sport"}, {"id": "sport/blog/2010/jul/30/today-in-sport-30-july", "type": "article", "sectionId": "sport", "sectionName": "Sport", "webPublicationDate": "2010-07-30T07:52:59Z", "webTitle": "Today in Sport \u2013 as it happened!", "webUrl": "https://www.theguardian.com/sport/blog/2010/jul/30/today-in-sport-30-july", "apiUrl": "https://content.guardianapis.com/sport/blog/2010/jul/30/today-in-sport-30-july", "isHosted": false, "pillarId": "pillar/sport", "pillarName": "Sport"}, {"id": "football/2010/jul/30/tottenham-hotspur-villarreal", "type": "article", "sectionId": "football", "sectionName": "Football", "webPublicationDate": "2010-07-30T00:18:26Z", "webTitle": "Tottenham Hotspur 1-4 Villareal | Pre-season friendly match report", "webUrl": "https://www.theguardian.com/football/2010/jul/30/tottenham-hotspur-villarreal", "apiUrl": "https://content.guardianapis.com/football/2010/jul/30/tottenham-hotspur-villarreal", "isHosted": false, "pillarId": "pillar/sport", "pillarName": "Sport"}, {"id": "football/2010/jul/30/harry-redknapp-scott-parker-spurs-west-ham", "type": "article", "sectionId": "football", "sectionName": "Football", "webPublicationDate": "2010-07-30T00:06:52Z", "webTitle": "Harry Redknapp hits out at West Ham in Scott Parker dispute", "webUrl": "https://www.theguardian.com/football/2010/jul/30/harry-redknapp-scott-parker-spurs-west-ham", "apiUrl": "https://content.guardianapis.com/football/2010/jul/30/harry-redknapp-scott-parker-spurs-west-ham", "isHosted": false, "pillarId": "pillar/sport", "pillarName": "Sport"}, {"id": "football/2010/jul/29/robinho-manchester-city-santos", "type": "article", "sectionId": "football", "sectionName": "Football", "webPublicationDate": "2010-07-29T23:31:00Z", "webTitle": "Unwanted and unhappy Robinho heads back to Manchester City from Santos", "webUrl": "https://www.theguardian.com/football/2010/jul/29/robinho-manchester-city-santos", "apiUrl": "https://content.guardianapis.com/football/2010/jul/29/robinho-manchester-city-santos", "isHosted": false, "pillarId": "pillar/sport", "pillarName": "Sport"}, {"id": "football/2010/jul/30/federicho-macheda-javier-hernandez-ferguson", "type": "article", "sectionId": "football", "sectionName": "Football", "webPublicationDate": "2010-07-29T23:08:46Z", "webTitle": "Federico Macheda and Javier Hern\u00e1ndez hope to ease Rooney's burden", "webUrl": "https://www.theguardian.com/football/2010/jul/30/federicho-macheda-javier-hernandez-ferguson", "apiUrl": "https://content.guardianapis.com/football/2010/jul/30/federicho-macheda-javier-hernandez-ferguson", "isHosted": false, "pillarId": "pillar/sport", "pillarName": "Sport"}, {"id": "football/2010/jul/30/portsmouth-high-court-taxman", "type": "article", "sectionId": "football", "sectionName": "Football", "webPublicationDate": "2010-07-29T23:08:45Z", "webTitle": "Clubs root for Portsmouth in \u00a318.2m high court battle with taxman", "webUrl": "https://www.theguardian.com/football/2010/jul/30/portsmouth-high-court-taxman", "apiUrl": "https://content.guardianapis.com/football/2010/jul/30/portsmouth-high-court-taxman", "isHosted": false, "pillarId": "pillar/sport", "pillarName": "Sport"}, {"id": "football/2010/jul/30/landon-donovan-everton-manchester-city", "type": "article", "sectionId": "football", "sectionName": "Football", "webPublicationDate": "2010-07-29T23:06:46Z", "webTitle": "Landon Donovan holds preliminary talks about Premier League return", "webUrl": "https://www.theguardian.com/football/2010/jul/30/landon-donovan-everton-manchester-city", "apiUrl": "https://content.guardianapis.com/football/2010/jul/30/landon-donovan-everton-manchester-city", "isHosted": false, "pillarId": "pillar/sport", "pillarName": "Sport"}, {"id": "football/quiz/2010/jul/30/london-2012-two-years-to-go", "type": "article", "sectionId": "global", "sectionName": "Global", "webPublicationDate": "2010-07-29T23:05:00Z", "webTitle": "Football quiz: The Olympics", "webUrl": "https://www.theguardian.com/football/quiz/2010/jul/30/london-2012-two-years-to-go", "apiUrl": "https://content.guardianapis.com/football/quiz/2010/jul/30/london-2012-two-years-to-go", "isHosted": false}, {"id": "football/2010/jul/29/mark-hughes-craig-bellamy-fulham", "type": "article", "sectionId": "football", "sectionName": "Football", "webPublicationDate": "2010-07-29T22:35:51Z", "webTitle": "Fulham's Mark Hughes plans to hijack Tottenham's bid for Craig Bellamy", "webUrl": "https://www.theguardian.com/football/2010/jul/29/mark-hughes-craig-bellamy-fulham", "apiUrl": "https://content.guardianapis.com/football/2010/jul/29/mark-hughes-craig-bellamy-fulham", "isHosted": false, "pillarId": "pillar/sport", "pillarName": "Sport"}, {"id": "football/2010/jul/29/liverpool-roy-hodgson-david-ngog", "type": "article", "sectionId": "football", "sectionName": "Football", "webPublicationDate": "2010-07-29T21:37:49Z", "webTitle": "Rabotnicki 0-2 Liverpool | Europa League qualifying match report", "webUrl": "https://www.theguardian.com/football/2010/jul/29/liverpool-roy-hodgson-david-ngog", "apiUrl": "https://content.guardianapis.com/football/2010/jul/29/liverpool-roy-hodgson-david-ngog", "isHosted": false, "pillarId": "pillar/sport", "pillarName": "Sport"}, {"id": "football/2010/jul/29/luke-young-aston-villa-liverpool-transfer", "type": "article", "sectionId": "football", "sectionName": "Football", "webPublicationDate": "2010-07-29T21:31:45Z", "webTitle": "Liverpool fail to complete the signing of Aston Villa's Luke Young", "webUrl": "https://www.theguardian.com/football/2010/jul/29/luke-young-aston-villa-liverpool-transfer", "apiUrl": "https://content.guardianapis.com/football/2010/jul/29/luke-young-aston-villa-liverpool-transfer", "isHosted": false, "pillarId": "pillar/sport", "pillarName": "Sport"}, {"id": "football/2010/jul/29/rachael-yankey-england-turkey-womens", "type": "article", "sectionId": "football", "sectionName": "Football", "webPublicationDate": "2010-07-29T20:54:06Z", "webTitle": "Rachel Yankey sets England on path to women's World Cup play-offs", "webUrl": "https://www.theguardian.com/football/2010/jul/29/rachael-yankey-england-turkey-womens", "apiUrl": "https://content.guardianapis.com/football/2010/jul/29/rachael-yankey-england-turkey-womens", "isHosted": false, "pillarId": "pillar/sport", "pillarName": "Sport"}, {"id": "football/2010/jul/29/celtic-aiden-mcgeady-spartak-moscow", "type": "article", "sectionId": "football", "sectionName": "Football", "webPublicationDate": "2010-07-29T18:00:26Z", "webTitle": "Celtic refusenik Aiden McGeady still a target for Spartak Moscow", "webUrl": "https://www.theguardian.com/football/2010/jul/29/celtic-aiden-mcgeady-spartak-moscow", "apiUrl": "https://content.guardianapis.com/football/2010/jul/29/celtic-aiden-mcgeady-spartak-moscow", "isHosted": false, "pillarId": "pillar/sport", "pillarName": "Sport"}, {"id": "football/2010/jul/29/the-fiver-mark-hughes-north-korea", "type": "article", "sectionId": "football", "sectionName": "Football", "webPublicationDate": "2010-07-29T15:35:59Z", "webTitle": "The Fiver: Bob Nudd, and Hamburger Phone | John Ashdown and Paul Doyle", "webUrl": "https://www.theguardian.com/football/2010/jul/29/the-fiver-mark-hughes-north-korea", "apiUrl": "https://content.guardianapis.com/football/2010/jul/29/the-fiver-mark-hughes-north-korea", "isHosted": false, "pillarId": "pillar/sport", "pillarName": "Sport"}, {"id": "football/blog/2010/jul/29/diego-maradona-argentina", "type": "article", "sectionId": "football", "sectionName": "Football", "webPublicationDate": "2010-07-29T11:11:56Z", "webTitle": "Diego Maradona's exit from Argentina proved as chaotic as his tenure | Joel Richards", "webUrl": "https://www.theguardian.com/football/blog/2010/jul/29/diego-maradona-argentina", "apiUrl": "https://content.guardianapis.com/football/blog/2010/jul/29/diego-maradona-argentina", "isHosted": false, "pillarId": "pillar/sport", "pillarName": "Sport"}, {"id": "football/2010/jul/29/football-transfer-rumours-dirk-kuyt-inter", "type": "article", "sectionId": "football", "sectionName": "Football", "webPublicationDate": "2010-07-29T09:00:42Z", "webTitle": "Football transfer rumours: Dirk Kuyt to leave Liverpool for Inter?", "webUrl": "https://www.theguardian.com/football/2010/jul/29/football-transfer-rumours-dirk-kuyt-inter", "apiUrl": "https://content.guardianapis.com/football/2010/jul/29/football-transfer-rumours-dirk-kuyt-inter", "isHosted": false, "pillarId": "pillar/sport", "pillarName": "Sport"}, {"id": "sport/blog/2010/jul/29/today-in-sport-29-july-2010", "type": "article", "sectionId": "sport", "sectionName": "Sport", "webPublicationDate": "2010-07-29T08:29:30Z", "webTitle": "Today in Sport \u2013 as it happened | Paolo Bandini, Gregg Roughley and Barry Glendenning", "webUrl": "https://www.theguardian.com/sport/blog/2010/jul/29/today-in-sport-29-july-2010", "apiUrl": "https://content.guardianapis.com/sport/blog/2010/jul/29/today-in-sport-29-july-2010", "isHosted": false, "pillarId": "pillar/sport", "pillarName": "Sport"}, {"id": "football/2010/jul/29/manchester-united-mls-all-stars-friendly", "type": "article", "sectionId": "football", "sectionName": "Football", "webPublicationDate": "2010-07-29T06:33:28Z", "webTitle": "Javier Hern\u00e1ndez shows potential with goal on Manchester United debut", "webUrl": "https://www.theguardian.com/football/2010/jul/29/manchester-united-mls-all-stars-friendly", "apiUrl": "https://content.guardianapis.com/football/2010/jul/29/manchester-united-mls-all-stars-friendly", "isHosted": false, "pillarId": "pillar/sport", "pillarName": "Sport"}, {"id": "sport/blog/2010/jul/29/classic-youtube-sports-clips", "type": "article", "sectionId": "sport", "sectionName": "Sport", "webPublicationDate": "2010-07-29T06:06:43Z", "webTitle": "Hurricane Higgins, sensational showboats and the greatest penalty ever", "webUrl": "https://www.theguardian.com/sport/blog/2010/jul/29/classic-youtube-sports-clips", "apiUrl": "https://content.guardianapis.com/sport/blog/2010/jul/29/classic-youtube-sports-clips", "isHosted": false, "pillarId": "pillar/sport", "pillarName": "Sport"}, {"id": "football/2010/jul/29/david-james-bristol-city-transfer", "type": "article", "sectionId": "football", "sectionName": "Football", "webPublicationDate": "2010-07-29T00:19:57Z", "webTitle": "Bristol City launch bid to sign England goalkeeper David James", "webUrl": "https://www.theguardian.com/football/2010/jul/29/david-james-bristol-city-transfer", "apiUrl": "https://content.guardianapis.com/football/2010/jul/29/david-james-bristol-city-transfer", "isHosted": false, "pillarId": "pillar/sport", "pillarName": "Sport"}, {"id": "football/2010/jul/29/javier-garrido-manchester-city-lazio", "type": "article", "sectionId": "football", "sectionName": "Football", "webPublicationDate": "2010-07-29T00:08:58Z", "webTitle": "Javier Garrido set to leave Manchester City for Lazio in \u00a32.5m deal", "webUrl": "https://www.theguardian.com/football/2010/jul/29/javier-garrido-manchester-city-lazio", "apiUrl": "https://content.guardianapis.com/football/2010/jul/29/javier-garrido-manchester-city-lazio", "isHosted": false, "pillarId": "pillar/sport", "pillarName": "Sport"}, {"id": "football/2010/jul/29/liverpool-europa-league-roy-hodgson", "type": "article", "sectionId": "football", "sectionName": "Football", "webPublicationDate": "2010-07-28T23:06:45Z", "webTitle": "Roy Hodgson is 'far from confident' ahead of Liverpool debut", "webUrl": "https://www.theguardian.com/football/2010/jul/29/liverpool-europa-league-roy-hodgson", "apiUrl": "https://content.guardianapis.com/football/2010/jul/29/liverpool-europa-league-roy-hodgson", "isHosted": false, "pillarId": "pillar/sport", "pillarName": "Sport"}, {"id": "football/2010/jul/29/sir-dave-richards-football-association", "type": "article", "sectionId": "football", "sectionName": "Football", "webPublicationDate": "2010-07-28T23:06:43Z", "webTitle": "Multi-role Sir Dave Richards shows his sensitivity to scrutiny", "webUrl": "https://www.theguardian.com/football/2010/jul/29/sir-dave-richards-football-association", "apiUrl": "https://content.guardianapis.com/football/2010/jul/29/sir-dave-richards-football-association", "isHosted": false, "pillarId": "pillar/sport", "pillarName": "Sport"}, {"id": "football/2010/jul/28/scott-parker-tottenham-west-ham", "type": "article", "sectionId": "football", "sectionName": "Football", "webPublicationDate": "2010-07-28T22:00:44Z", "webTitle": "Scott Parker wants to hear Tottenham offer despite West Ham's refusal", "webUrl": "https://www.theguardian.com/football/2010/jul/28/scott-parker-tottenham-west-ham", "apiUrl": "https://content.guardianapis.com/football/2010/jul/28/scott-parker-tottenham-west-ham", "isHosted": false, "pillarId": "pillar/sport", "pillarName": "Sport"}, {"id": "football/2010/jul/28/mark-hughes-fulham-manager", "type": "article", "sectionId": "football", "sectionName": "Football", "webPublicationDate": "2010-07-28T21:39:00Z", "webTitle": "Mark Hughes accepts offer from Fulham to be the club's next manager", "webUrl": "https://www.theguardian.com/football/2010/jul/28/mark-hughes-fulham-manager", "apiUrl": "https://content.guardianapis.com/football/2010/jul/28/mark-hughes-fulham-manager", "isHosted": false, "pillarId": "pillar/sport", "pillarName": "Sport"}, {"id": "football/blog/2010/jul/28/mark-hughes-fulham-manager", "type": "article", "sectionId": "football", "sectionName": "Football", "webPublicationDate": "2010-07-28T21:30:45Z", "webTitle": "Mark Hughes and Fulham a perfect fit | Daniel Taylor", "webUrl": "https://www.theguardian.com/football/blog/2010/jul/28/mark-hughes-fulham-manager", "apiUrl": "https://content.guardianapis.com/football/blog/2010/jul/28/mark-hughes-fulham-manager", "isHosted": false, "pillarId": "pillar/sport", "pillarName": "Sport"}, {"id": "football/2010/jul/28/robin-van-persie-cesc-fabregas", "type": "article", "sectionId": "football", "sectionName": "Football", "webPublicationDate": "2010-07-28T21:30:44Z", "webTitle": "Cesc F\u00e1bregas and Robin van Persie likely to miss opener at Liverpool", "webUrl": "https://www.theguardian.com/football/2010/jul/28/robin-van-persie-cesc-fabregas", "apiUrl": "https://content.guardianapis.com/football/2010/jul/28/robin-van-persie-cesc-fabregas", "isHosted": false, "pillarId": "pillar/sport", "pillarName": "Sport"}, {"id": "football/2010/jul/28/stewart-regan-scottish-football-association", "type": "article", "sectionId": "football", "sectionName": "Football", "webPublicationDate": "2010-07-28T21:30:00Z", "webTitle": "Stewart Regan aims to rein in conflict as head of Scottish football", "webUrl": "https://www.theguardian.com/football/2010/jul/28/stewart-regan-scottish-football-association", "apiUrl": "https://content.guardianapis.com/football/2010/jul/28/stewart-regan-scottish-football-association", "isHosted": false, "pillarId": "pillar/sport", "pillarName": "Sport"}, {"id": "football/2010/jul/28/sir-alex-ferguson-glazers-manchester-united", "type": "article", "sectionId": "football", "sectionName": "Football", "webPublicationDate": "2010-07-28T21:00:47Z", "webTitle": "Sir Alex Ferguson hits out at Manchester United fans' criticism of Glazers", "webUrl": "https://www.theguardian.com/football/2010/jul/28/sir-alex-ferguson-glazers-manchester-united", "apiUrl": "https://content.guardianapis.com/football/2010/jul/28/sir-alex-ferguson-glazers-manchester-united", "isHosted": false, "pillarId": "pillar/sport", "pillarName": "Sport"}, {"id": "football/2010/jul/28/the-fiver-liverpool-manchester-city-aston-villa", "type": "article", "sectionId": "football", "sectionName": "Football", "webPublicationDate": "2010-07-28T15:17:13Z", "webTitle": "The Fiver: Over 500 Words About Nothing Happening | Paul Doyle", "webUrl": "https://www.theguardian.com/football/2010/jul/28/the-fiver-liverpool-manchester-city-aston-villa", "apiUrl": "https://content.guardianapis.com/football/2010/jul/28/the-fiver-liverpool-manchester-city-aston-villa", "isHosted": false, "pillarId": "pillar/sport", "pillarName": "Sport"}, {"id": "football/2010/jul/28/football-transfer-rumours", "type": "article", "sectionId": "football", "sectionName": "Football", "webPublicationDate": "2010-07-28T08:45:00Z", "webTitle": "Football transfer rumours: Arsenal chase Per Mertesacker", "webUrl": "https://www.theguardian.com/football/2010/jul/28/football-transfer-rumours", "apiUrl": "https://content.guardianapis.com/football/2010/jul/28/football-transfer-rumours", "isHosted": false, "pillarId": "pillar/sport", "pillarName": "Sport"}, {"id": "sport/blog/2010/jul/28/today-in-sport-28-july", "type": "article", "sectionId": "sport", "sectionName": "Sport", "webPublicationDate": "2010-07-28T08:40:00Z", "webTitle": "Today in Sport - as it happened | Tom Lutz and Katy Murrells", "webUrl": "https://www.theguardian.com/sport/blog/2010/jul/28/today-in-sport-28-july", "apiUrl": "https://content.guardianapis.com/sport/blog/2010/jul/28/today-in-sport-28-july", "isHosted": false, "pillarId": "pillar/sport", "pillarName": "Sport"}, {"id": "football/2010/jul/28/fernando-torres-liverpool-future", "type": "article", "sectionId": "football", "sectionName": "Football", "webPublicationDate": "2010-07-27T23:06:20Z", "webTitle": "Liverpool relief after Fernando Torres says he wants to stay", "webUrl": "https://www.theguardian.com/football/2010/jul/28/fernando-torres-liverpool-future", "apiUrl": "https://content.guardianapis.com/football/2010/jul/28/fernando-torres-liverpool-future", "isHosted": false, "pillarId": "pillar/sport", "pillarName": "Sport"}, {"id": "football/2010/jul/28/joleon-lescott-manchester-city", "type": "article", "sectionId": "football", "sectionName": "Football", "webPublicationDate": "2010-07-27T23:06:19Z", "webTitle": "Manchester City's Joleon Lescott hoping to repay the club's faith", "webUrl": "https://www.theguardian.com/football/2010/jul/28/joleon-lescott-manchester-city", "apiUrl": "https://content.guardianapis.com/football/2010/jul/28/joleon-lescott-manchester-city", "isHosted": false, "pillarId": "pillar/sport", "pillarName": "Sport"}, {"id": "football/2010/jul/28/stoke-city-roque-santa-cruz", "type": "article", "sectionId": "football", "sectionName": "Football", "webPublicationDate": "2010-07-27T23:06:18Z", "webTitle": "Stoke City line up bold move for Manchester City's Roque Santa Cruz", "webUrl": "https://www.theguardian.com/football/2010/jul/28/stoke-city-roque-santa-cruz", "apiUrl": "https://content.guardianapis.com/football/2010/jul/28/stoke-city-roque-santa-cruz", "isHosted": false, "pillarId": "pillar/sport", "pillarName": "Sport"}, {"id": "football/2010/jul/27/liverpool-luke-young-aston-villa", "type": "article", "sectionId": "football", "sectionName": "Football", "webPublicationDate": "2010-07-27T21:30:00Z", "webTitle": "Liverpool agree fee of \u00a32.5m for Aston Villa's Luke Young", "webUrl": "https://www.theguardian.com/football/2010/jul/27/liverpool-luke-young-aston-villa", "apiUrl": "https://content.guardianapis.com/football/2010/jul/27/liverpool-luke-young-aston-villa", "isHosted": false, "pillarId": "pillar/sport", "pillarName": "Sport"}, {"id": "football/2010/jul/27/gael-clichy-arsenal-title-bid", "type": "article", "sectionId": "football", "sectionName": "Football", "webPublicationDate": "2010-07-27T20:15:51Z", "webTitle": "Ga\u00ebl Clichy admits Arsenal need to mount a title challenge this season", "webUrl": "https://www.theguardian.com/football/2010/jul/27/gael-clichy-arsenal-title-bid", "apiUrl": "https://content.guardianapis.com/football/2010/jul/27/gael-clichy-arsenal-title-bid", "isHosted": false, "pillarId": "pillar/sport", "pillarName": "Sport"}, {"id": "football/2010/jul/27/javier-hernandez-manchester-united-debut", "type": "article", "sectionId": "football", "sectionName": "Football", "webPublicationDate": "2010-07-27T20:08:57Z", "webTitle": "Javier Hern\u00e1ndez set for lift-off in Houston on Manchester United duty", "webUrl": "https://www.theguardian.com/football/2010/jul/27/javier-hernandez-manchester-united-debut", "apiUrl": "https://content.guardianapis.com/football/2010/jul/27/javier-hernandez-manchester-united-debut", "isHosted": false, "pillarId": "pillar/sport", "pillarName": "Sport"}, {"id": "football/2010/jul/27/sol-campbell-newcastle", "type": "article", "sectionId": "football", "sectionName": "Football", "webPublicationDate": "2010-07-27T19:35:33Z", "webTitle": "Sol Campbell ready to check in at Newcastle on \u00a335,000-a-week", "webUrl": "https://www.theguardian.com/football/2010/jul/27/sol-campbell-newcastle", "apiUrl": "https://content.guardianapis.com/football/2010/jul/27/sol-campbell-newcastle", "isHosted": false, "pillarId": "pillar/sport", "pillarName": "Sport"}, {"id": "theguardian/2010/jul/27/calvente-greatest-penalty", "type": "article", "sectionId": "global", "sectionName": "Global", "webPublicationDate": "2010-07-27T19:00:18Z", "webTitle": "Calvente's amazing penalty kick: our DIY version", "webUrl": "https://www.theguardian.com/theguardian/2010/jul/27/calvente-greatest-penalty", "apiUrl": "https://content.guardianapis.com/theguardian/2010/jul/27/calvente-greatest-penalty", "isHosted": false}]}}