{"response": {"status": "ok", "userTier": "developer", "total": 88788, "startIndex": 1, "pageSize": 50, "currentPage": 1, "pages": 1776, "orderBy": "newest", "results": [{"id": "football/2013/jul/31/fulham-darren-bent-newcastle-aston-villa", "type": "article", "sectionId": "football", "sectionName": "Football", "webPublicationDate": "2013-07-30T23:30:00Z", "webTitle": "Fulham weigh up third bid for Darren Bent after \u00a34m move is rejected", "webUrl": "https://www.theguardian.com/football/2013/jul/31/fulham-darren-bent-newcastle-aston-villa", "apiUrl": "https://content.guardianapis.com/football/2013/jul/31/fulham-darren-bent-newcastle-aston-villa", "isHosted": false, "pillarId": "pillar/sport", "pillarName": "Sport"}, {"id": "football/2013/jul/31/transfer-talk-in-brief", "type": "article", "sectionId": "football", "sectionName": "Football", "webPublicationDate": "2013-07-30T23:06:02Z", "webTitle": "Transfer talk in brief", "webUrl": "https://www.theguardian.com/football/2013/jul/31/transfer-talk-in-brief", "apiUrl": "https://content.guardianapis.com/football/2013/jul/31/transfer-talk-in-brief", "isHosted": false, "pillarId": "pillar/sport", "pillarName": "Sport"}, {"id": "football/2013/jul/31/knowledge-posh-footballers-castle", "type": "article", "sectionId": "football", "sectionName": "Football", "webPublicationDate": "2013-07-30T23:06:01Z", "webTitle": "The Knowledge archive special | Who is the poshest footballer in modern times?", "webUrl": "https://www.theguardian.com/football/2013/jul/31/knowledge-posh-footballers-castle", "apiUrl": "https://content.guardianapis.com/football/2013/jul/31/knowledge-posh-footballers-castle", "isHosted": false, "pillarId": "pillar/sport", "pillarName": "Sport"}, {"id": "football/2013/jul/30/rio-ferdinand-manchester-united-moyes", "type": "article", "sectionId": "football", "sectionName": "Football", "webPublicationDate": "2013-07-30T22:00:00Z", "webTitle": "Rio Ferdinand says senior Manchester United players can help David Moyes", "webUrl": "https://www.theguardian.com/football/2013/jul/30/rio-ferdinand-manchester-united-moyes", "apiUrl": "https://content.guardianapis.com/football/2013/jul/30/rio-ferdinand-manchester-united-moyes", "isHosted": false, "pillarId": "pillar/sport", "pillarName": "Sport"}, {"id": "football/2013/jul/30/papiss-cisse-newcastle-wonga", "type": "article", "sectionId": "football", "sectionName": "Football", "webPublicationDate": "2013-07-30T21:50:00Z", "webTitle": "Papiss Ciss\u00e9's first Newcastle game in Wonga shirt is full of interest", "webUrl": "https://www.theguardian.com/football/2013/jul/30/papiss-cisse-newcastle-wonga", "apiUrl": "https://content.guardianapis.com/football/2013/jul/30/papiss-cisse-newcastle-wonga", "isHosted": false, "pillarId": "pillar/sport", "pillarName": "Sport"}, {"id": "football/2013/jul/30/liverpool-luis-suarez-transfer-arsenal", "type": "article", "sectionId": "football", "sectionName": "Football", "webPublicationDate": "2013-07-30T21:30:00Z", "webTitle": "Liverpool's Luis Su\u00e1rez stays clear of outside help over transfer", "webUrl": "https://www.theguardian.com/football/2013/jul/30/liverpool-luis-suarez-transfer-arsenal", "apiUrl": "https://content.guardianapis.com/football/2013/jul/30/liverpool-luis-suarez-transfer-arsenal", "isHosted": false, "pillarId": "pillar/sport", "pillarName": "Sport"}, {"id": "football/2013/jul/30/cardiff-city-tottenham-steven-caulker", "type": "article", "sectionId": "football", "sectionName": "Football", "webPublicationDate": "2013-07-30T21:30:00Z", "webTitle": "Cardiff City pursue deal for Tottenham's Steven Caulker", "webUrl": "https://www.theguardian.com/football/2013/jul/30/cardiff-city-tottenham-steven-caulker", "apiUrl": "https://content.guardianapis.com/football/2013/jul/30/cardiff-city-tottenham-steven-caulker", "isHosted": false, "pillarId": "pillar/sport", "pillarName": "Sport"}, {"id": "football/2013/jul/30/gareth-bale-tottenham-real-madrid", "type": "article", "sectionId": "football", "sectionName": "Football", "webPublicationDate": "2013-07-30T21:00:00Z", "webTitle": "Gareth Bale reports for Tottenham duty but heart is set on Real Madrid", "webUrl": "https://www.theguardian.com/football/2013/jul/30/gareth-bale-tottenham-real-madrid", "apiUrl": "https://content.guardianapis.com/football/2013/jul/30/gareth-bale-tottenham-real-madrid", "isHosted": false, "pillarId": "pillar/sport", "pillarName": "Sport"}, {"id": "football/2013/jul/30/chelsea-wallace-internazionale-loan-move", "type": "article", "sectionId": "football", "sectionName": "Football", "webPublicationDate": "2013-07-30T19:19:00Z", "webTitle": "Chelsea's Wallace attracts interest of Internazionale over loan move", "webUrl": "https://www.theguardian.com/football/2013/jul/30/chelsea-wallace-internazionale-loan-move", "apiUrl": "https://content.guardianapis.com/football/2013/jul/30/chelsea-wallace-internazionale-loan-move", "isHosted": false, "pillarId": "pillar/sport", "pillarName": "Sport"}, {"id": "football/2013/jul/30/manchester-city-human-rights-accusations", "type": "article", "sectionId": "football", "sectionName": "Football", "webPublicationDate": "2013-07-30T16:04:04Z", "webTitle": "Abu Dhabi accused of 'using Manchester City to launder image'", "webUrl": "https://www.theguardian.com/football/2013/jul/30/manchester-city-human-rights-accusations", "apiUrl": "https://content.guardianapis.com/football/2013/jul/30/manchester-city-human-rights-accusations", "isHosted": false, "pillarId": "pillar/sport", "pillarName": "Sport"}, {"id": "football/2013/jul/30/the-fiver-dressing-room-access-liverpool-list", "type": "article", "sectionId": "football", "sectionName": "Football", "webPublicationDate": "2013-07-30T15:48:00Z", "webTitle": "The Fiver | Dressing-room mystique; and Liverpool's lexicon | Georgina Turner and Gregg Bakowski", "webUrl": "https://www.theguardian.com/football/2013/jul/30/the-fiver-dressing-room-access-liverpool-list", "apiUrl": "https://content.guardianapis.com/football/2013/jul/30/the-fiver-dressing-room-access-liverpool-list", "isHosted": false, "pillarId": "pillar/sport", "pillarName": "Sport"}, {"id": "football/2013/jul/30/bayern-rule-out-david-luiz-chelsea", "type": "article", "sectionId": "football", "sectionName": "Football", "webPublicationDate": "2013-07-30T15:45:31Z", "webTitle": "Pep Guardiola rules out Bayern Munich move for Chelsea's David Luiz", "webUrl": "https://www.theguardian.com/football/2013/jul/30/bayern-rule-out-david-luiz-chelsea", "apiUrl": "https://content.guardianapis.com/football/2013/jul/30/bayern-rule-out-david-luiz-chelsea", "isHosted": false, "pillarId": "pillar/sport", "pillarName": "Sport"}, {"id": "football/2013/jul/30/liverpool-unacceptable-words-discrimination", "type": "article", "sectionId": "football", "sectionName": "Football", "webPublicationDate": "2013-07-30T15:24:22Z", "webTitle": "Liverpool issue list of 'unacceptable' words to fight discrimination", "webUrl": "https://www.theguardian.com/football/2013/jul/30/liverpool-unacceptable-words-discrimination", "apiUrl": "https://content.guardianapis.com/football/2013/jul/30/liverpool-unacceptable-words-discrimination", "isHosted": false, "pillarId": "pillar/sport", "pillarName": "Sport"}, {"id": "football/video/2013/jul/30/gareth-bale-tottenham-hotspur-video", "type": "video", "sectionId": "football", "sectionName": "Football", "webPublicationDate": "2013-07-30T15:08:00Z", "webTitle": "Gareth Bale: Tottenham Hotspur fans contemplate life without Welsh star - video", "webUrl": "https://www.theguardian.com/football/video/2013/jul/30/gareth-bale-tottenham-hotspur-video", "apiUrl": "https://content.guardianapis.com/football/video/2013/jul/30/gareth-bale-tottenham-hotspur-video", "isHosted": false, "pillarId": "pillar/sport", "pillarName": "Sport"}, {"id": "football/blog/2013/jul/30/big-transfer-comfort-food-clubs", "type": "article", "sectionId": "football", "sectionName": "Football", "webPublicationDate": "2013-07-30T13:26:28Z", "webTitle": "A big-name transfer has become the comfort food of failing clubs | Jonathan Wilson", "webUrl": "https://www.theguardian.com/football/blog/2013/jul/30/big-transfer-comfort-food-clubs", "apiUrl": "https://content.guardianapis.com/football/blog/2013/jul/30/big-transfer-comfort-food-clubs", "isHosted": false, "pillarId": "pillar/sport", "pillarName": "Sport"}, {"id": "football/2013/jul/30/television-dressing-room-access-scudamore", "type": "article", "sectionId": "football", "sectionName": "Football", "webPublicationDate": "2013-07-30T11:21:59Z", "webTitle": "Television access to Premier League dressing rooms 'unlikely'", "webUrl": "https://www.theguardian.com/football/2013/jul/30/television-dressing-room-access-scudamore", "apiUrl": "https://content.guardianapis.com/football/2013/jul/30/television-dressing-room-access-scudamore", "isHosted": false, "pillarId": "pillar/sport", "pillarName": "Sport"}, {"id": "football/blog/2013/jul/30/euro-2012-ukraine-one-year-on", "type": "article", "sectionId": "football", "sectionName": "Football", "webPublicationDate": "2013-07-30T10:50:03Z", "webTitle": "Euro 2012 one year on \u2013 was it worth it for Ukraine? | Igor Boyko", "webUrl": "https://www.theguardian.com/football/blog/2013/jul/30/euro-2012-ukraine-one-year-on", "apiUrl": "https://content.guardianapis.com/football/blog/2013/jul/30/euro-2012-ukraine-one-year-on", "isHosted": false, "pillarId": "pillar/sport", "pillarName": "Sport"}, {"id": "commentisfree/2013/jul/30/arsenal-luis-suarez-racism", "type": "article", "sectionId": "commentisfree", "sectionName": "Opinion", "webPublicationDate": "2013-07-30T10:30:00Z", "webTitle": "Arsenal shouldn't embrace Luis Su\u00e1rez, however desperate we are for success | Jonathan Freedland", "webUrl": "https://www.theguardian.com/commentisfree/2013/jul/30/arsenal-luis-suarez-racism", "apiUrl": "https://content.guardianapis.com/commentisfree/2013/jul/30/arsenal-luis-suarez-racism", "isHosted": false, "pillarId": "pillar/opinion", "pillarName": "Opinion"}, {"id": "media/greenslade/2013/jul/30/premierleague-nfl", "type": "article", "sectionId": "media", "sectionName": "Media", "webPublicationDate": "2013-07-30T10:26:39Z", "webTitle": "If only English football clubs treated journalists like America's NFL", "webUrl": "https://www.theguardian.com/media/greenslade/2013/jul/30/premierleague-nfl", "apiUrl": "https://content.guardianapis.com/media/greenslade/2013/jul/30/premierleague-nfl", "isHosted": false, "pillarId": "pillar/news", "pillarName": "News"}, {"id": "football/video/2013/jul/30/brighton-oscar-garcia-barcelona-video", "type": "video", "sectionId": "football", "sectionName": "Football", "webPublicationDate": "2013-07-30T09:39:00Z", "webTitle": "New Brighton manager \u00d3scar Garc\u00eda looks to Barcelona roots - video", "webUrl": "https://www.theguardian.com/football/video/2013/jul/30/brighton-oscar-garcia-barcelona-video", "apiUrl": "https://content.guardianapis.com/football/video/2013/jul/30/brighton-oscar-garcia-barcelona-video", "isHosted": false, "pillarId": "pillar/sport", "pillarName": "Sport"}, {"id": "football/2013/jul/30/west-ham-salomon-kalou-lille", "type": "article", "sectionId": "football", "sectionName": "Football", "webPublicationDate": "2013-07-30T09:23:53Z", "webTitle": "West Ham hope to woo Salomon Kalou after \u00a32.7m fee agreed with Lille", "webUrl": "https://www.theguardian.com/football/2013/jul/30/west-ham-salomon-kalou-lille", "apiUrl": "https://content.guardianapis.com/football/2013/jul/30/west-ham-salomon-kalou-lille", "isHosted": false, "pillarId": "pillar/sport", "pillarName": "Sport"}, {"id": "football/2013/jul/30/football-transfer-rumours-luka-modric-manchester-united", "type": "article", "sectionId": "football", "sectionName": "Football", "webPublicationDate": "2013-07-30T08:55:20Z", "webTitle": "Football transfer rumours: Luka Modric to Manchester United?", "webUrl": "https://www.theguardian.com/football/2013/jul/30/football-transfer-rumours-luka-modric-manchester-united", "apiUrl": "https://content.guardianapis.com/football/2013/jul/30/football-transfer-rumours-luka-modric-manchester-united", "isHosted": false, "pillarId": "pillar/sport", "pillarName": "Sport"}, {"id": "football/video/2013/jul/30/neymar-gerardo-martino-barcelona-video", "type": "video", "sectionId": "football", "sectionName": "Football", "webPublicationDate": "2013-07-30T08:39:00Z", "webTitle": "Neymar and Gerardo Martino take part in first Barcelona training session - video", "webUrl": "https://www.theguardian.com/football/video/2013/jul/30/neymar-gerardo-martino-barcelona-video", "apiUrl": "https://content.guardianapis.com/football/video/2013/jul/30/neymar-gerardo-martino-barcelona-video", "isHosted": false, "pillarId": "pillar/sport", "pillarName": "Sport"}, {"id": "football/2013/jul/29/david-moyes-cesc-fabregas-nani-united", "type": "article", "sectionId": "football", "sectionName": "Football", "webPublicationDate": "2013-07-29T21:39:38Z", "webTitle": "David Moyes returns to urgent talks over Cesc F\u00e1bregas and Nani", "webUrl": "https://www.theguardian.com/football/2013/jul/29/david-moyes-cesc-fabregas-nani-united", "apiUrl": "https://content.guardianapis.com/football/2013/jul/29/david-moyes-cesc-fabregas-nani-united", "isHosted": false, "pillarId": "pillar/sport", "pillarName": "Sport"}, {"id": "football/blog/2013/jul/29/five-things-manchester-united-tour", "type": "article", "sectionId": "football", "sectionName": "Football", "webPublicationDate": "2013-07-29T20:40:00Z", "webTitle": "Five things we learned from Manchester United's pre-season tour | Jamie Jackson", "webUrl": "https://www.theguardian.com/football/blog/2013/jul/29/five-things-manchester-united-tour", "apiUrl": "https://content.guardianapis.com/football/blog/2013/jul/29/five-things-manchester-united-tour", "isHosted": false, "pillarId": "pillar/sport", "pillarName": "Sport"}, {"id": "football/blog/2013/jul/29/gareth-bale-tottenham-real-madrid-questions", "type": "article", "sectionId": "football", "sectionName": "Football", "webPublicationDate": "2013-07-29T20:27:00Z", "webTitle": "Gareth Bale, Tottenham Hotspur and Real Madrid: the key questions", "webUrl": "https://www.theguardian.com/football/blog/2013/jul/29/gareth-bale-tottenham-real-madrid-questions", "apiUrl": "https://content.guardianapis.com/football/blog/2013/jul/29/gareth-bale-tottenham-real-madrid-questions", "isHosted": false, "pillarId": "pillar/sport", "pillarName": "Sport"}, {"id": "football/2013/jul/29/gareth-bale-tottenham-real-madrid-levy", "type": "article", "sectionId": "football", "sectionName": "Football", "webPublicationDate": "2013-07-29T20:24:00Z", "webTitle": "Gareth Bale is putting pressure on Spurs to let him go to Real Madrid", "webUrl": "https://www.theguardian.com/football/2013/jul/29/gareth-bale-tottenham-real-madrid-levy", "apiUrl": "https://content.guardianapis.com/football/2013/jul/29/gareth-bale-tottenham-real-madrid-levy", "isHosted": false, "pillarId": "pillar/sport", "pillarName": "Sport"}, {"id": "football/2013/jul/29/football-league-chief-shaun-harvey", "type": "article", "sectionId": "football", "sectionName": "Football", "webPublicationDate": "2013-07-29T19:35:43Z", "webTitle": "Football League appoints Shaun Harvey as new chief executive", "webUrl": "https://www.theguardian.com/football/2013/jul/29/football-league-chief-shaun-harvey", "apiUrl": "https://content.guardianapis.com/football/2013/jul/29/football-league-chief-shaun-harvey", "isHosted": false, "pillarId": "pillar/sport", "pillarName": "Sport"}, {"id": "football/blog/2013/jul/29/gareth-bale-cristiano-ronaldo-real-madrid", "type": "article", "sectionId": "football", "sectionName": "Football", "webPublicationDate": "2013-07-29T18:00:00Z", "webTitle": "Cristiano Ronaldo would have to make way for Gareth Bale at Real Madrid | Michael Cox", "webUrl": "https://www.theguardian.com/football/blog/2013/jul/29/gareth-bale-cristiano-ronaldo-real-madrid", "apiUrl": "https://content.guardianapis.com/football/blog/2013/jul/29/gareth-bale-cristiano-ronaldo-real-madrid", "isHosted": false, "pillarId": "pillar/sport", "pillarName": "Sport"}, {"id": "football/blog/2013/jul/29/usa-win-gold-cup-2013", "type": "article", "sectionId": "football", "sectionName": "Football", "webPublicationDate": "2013-07-29T16:47:00Z", "webTitle": "USA's Gold Cup win: five things we learned | Graham Parker", "webUrl": "https://www.theguardian.com/football/blog/2013/jul/29/usa-win-gold-cup-2013", "apiUrl": "https://content.guardianapis.com/football/blog/2013/jul/29/usa-win-gold-cup-2013", "isHosted": false, "pillarId": "pillar/sport", "pillarName": "Sport"}, {"id": "football/2013/jul/29/the-fiver-gareth-bale", "type": "article", "sectionId": "football", "sectionName": "Football", "webPublicationDate": "2013-07-29T15:16:09Z", "webTitle": "The Fiver | An entirely shocking turn of tedious events | Daniel Harris", "webUrl": "https://www.theguardian.com/football/2013/jul/29/the-fiver-gareth-bale", "apiUrl": "https://content.guardianapis.com/football/2013/jul/29/the-fiver-gareth-bale", "isHosted": false, "pillarId": "pillar/sport", "pillarName": "Sport"}, {"id": "football/2013/jul/29/newcastle-united-bafetimbi-gomis", "type": "article", "sectionId": "football", "sectionName": "Football", "webPublicationDate": "2013-07-29T15:09:46Z", "webTitle": "Newcastle United test Lyon's nerve over transfer of Baf\u00e9timbi Gomis", "webUrl": "https://www.theguardian.com/football/2013/jul/29/newcastle-united-bafetimbi-gomis", "apiUrl": "https://content.guardianapis.com/football/2013/jul/29/newcastle-united-bafetimbi-gomis", "isHosted": false, "pillarId": "pillar/sport", "pillarName": "Sport"}, {"id": "football/2013/jul/29/manchester-united-kitchee-match-report", "type": "article", "sectionId": "football", "sectionName": "Football", "webPublicationDate": "2013-07-29T15:02:02Z", "webTitle": "Kitchee 2-5 Manchester United | Friendly match report", "webUrl": "https://www.theguardian.com/football/2013/jul/29/manchester-united-kitchee-match-report", "apiUrl": "https://content.guardianapis.com/football/2013/jul/29/manchester-united-kitchee-match-report", "isHosted": false, "pillarId": "pillar/sport", "pillarName": "Sport"}, {"id": "sport/2013/jul/29/new-york-red-bulls-real-salt-lake-thriller", "type": "article", "sectionId": "football", "sectionName": "Football", "webPublicationDate": "2013-07-29T14:35:00Z", "webTitle": "MLS: five things we learned in week 22 | Graham Parker and Richard Farley", "webUrl": "https://www.theguardian.com/sport/2013/jul/29/new-york-red-bulls-real-salt-lake-thriller", "apiUrl": "https://content.guardianapis.com/sport/2013/jul/29/new-york-red-bulls-real-salt-lake-thriller", "isHosted": false, "pillarId": "pillar/sport", "pillarName": "Sport"}, {"id": "football/2013/jul/29/manchester-united-kitchee-sc-live-mbm", "type": "liveblog", "sectionId": "football", "sectionName": "Football", "webPublicationDate": "2013-07-29T14:04:00Z", "webTitle": "Manchester United v Kitchee SC \u2013 as it happened | Daniel Harris", "webUrl": "https://www.theguardian.com/football/2013/jul/29/manchester-united-kitchee-sc-live-mbm", "apiUrl": "https://content.guardianapis.com/football/2013/jul/29/manchester-united-kitchee-sc-live-mbm", "isHosted": false, "pillarId": "pillar/sport", "pillarName": "Sport"}, {"id": "football/video/2013/jul/29/manchester-united-moyes-fabregas-bid-video", "type": "video", "sectionId": "football", "sectionName": "Football", "webPublicationDate": "2013-07-29T09:52:00Z", "webTitle": "Manchester United's David Moyes on Cesc F\u00e0bregas bid - video", "webUrl": "https://www.theguardian.com/football/video/2013/jul/29/manchester-united-moyes-fabregas-bid-video", "apiUrl": "https://content.guardianapis.com/football/video/2013/jul/29/manchester-united-moyes-fabregas-bid-video", "isHosted": false, "pillarId": "pillar/sport", "pillarName": "Sport"}, {"id": "football/2013/jul/29/pepe-reina-disappointment-surprise-liverpool", "type": "article", "sectionId": "football", "sectionName": "Football", "webPublicationDate": "2013-07-29T09:23:50Z", "webTitle": "Pepe Reina admits disappointment and surprise over Liverpool exit", "webUrl": "https://www.theguardian.com/football/2013/jul/29/pepe-reina-disappointment-surprise-liverpool", "apiUrl": "https://content.guardianapis.com/football/2013/jul/29/pepe-reina-disappointment-surprise-liverpool", "isHosted": false, "pillarId": "pillar/sport", "pillarName": "Sport"}, {"id": "football/2013/jul/29/football-tranfer-rumours-robert-soldado-tottenham-hotspur", "type": "article", "sectionId": "football", "sectionName": "Football", "webPublicationDate": "2013-07-29T08:15:35Z", "webTitle": "Football transfer rumours: Roberto Soldado to Tottenham Hotspur?", "webUrl": "https://www.theguardian.com/football/2013/jul/29/football-tranfer-rumours-robert-soldado-tottenham-hotspur", "apiUrl": "https://content.guardianapis.com/football/2013/jul/29/football-tranfer-rumours-robert-soldado-tottenham-hotspur", "isHosted": false, "pillarId": "pillar/sport", "pillarName": "Sport"}, {"id": "football/blog/2013/jul/29/australia-east-asian-cup-tournament-tactics", "type": "article", "sectionId": "football", "sectionName": "Football", "webPublicationDate": "2013-07-29T06:21:48Z", "webTitle": "Socceroos at the East Asian Cup: a tactical overview", "webUrl": "https://www.theguardian.com/football/blog/2013/jul/29/australia-east-asian-cup-tournament-tactics", "apiUrl": "https://content.guardianapis.com/football/blog/2013/jul/29/australia-east-asian-cup-tournament-tactics", "isHosted": false, "pillarId": "pillar/sport", "pillarName": "Sport"}, {"id": "football/blog/2013/jul/29/australia-east-asian-cup-tournament-review", "type": "article", "sectionId": "football", "sectionName": "Football", "webPublicationDate": "2013-07-29T00:26:09Z", "webTitle": "Socceroos at the East Asian Cup: five things we learned", "webUrl": "https://www.theguardian.com/football/blog/2013/jul/29/australia-east-asian-cup-tournament-review", "apiUrl": "https://content.guardianapis.com/football/blog/2013/jul/29/australia-east-asian-cup-tournament-review", "isHosted": false, "pillarId": "pillar/sport", "pillarName": "Sport"}, {"id": "football/2013/jul/28/premier-league-asia-trophy-richard-scudamore", "type": "article", "sectionId": "football", "sectionName": "Football", "webPublicationDate": "2013-07-28T22:01:00Z", "webTitle": "Premier League summer tournament may extend to Africa and United States", "webUrl": "https://www.theguardian.com/football/2013/jul/28/premier-league-asia-trophy-richard-scudamore", "apiUrl": "https://content.guardianapis.com/football/2013/jul/28/premier-league-asia-trophy-richard-scudamore", "isHosted": false, "pillarId": "pillar/sport", "pillarName": "Sport"}, {"id": "football/2013/jul/28/premier-league-scudamore-fa-england", "type": "article", "sectionId": "football", "sectionName": "Football", "webPublicationDate": "2013-07-28T22:00:01Z", "webTitle": "Richard Scudamore: Premier League is not to blame for England's failures", "webUrl": "https://www.theguardian.com/football/2013/jul/28/premier-league-scudamore-fa-england", "apiUrl": "https://content.guardianapis.com/football/2013/jul/28/premier-league-scudamore-fa-england", "isHosted": false, "pillarId": "pillar/sport", "pillarName": "Sport"}, {"id": "football/blog/2013/jul/28/asia-trophy-five-talking-points", "type": "article", "sectionId": "football", "sectionName": "Football", "webPublicationDate": "2013-07-28T22:00:01Z", "webTitle": "Asia Trophy: Five talking points", "webUrl": "https://www.theguardian.com/football/blog/2013/jul/28/asia-trophy-five-talking-points", "apiUrl": "https://content.guardianapis.com/football/blog/2013/jul/28/asia-trophy-five-talking-points", "isHosted": false, "pillarId": "pillar/sport", "pillarName": "Sport"}, {"id": "football/2013/jul/28/matija-nastasic-injury-manchester-city-transfer", "type": "article", "sectionId": "football", "sectionName": "Football", "webPublicationDate": "2013-07-28T22:00:00Z", "webTitle": "Matija Nastasic injury could force Manchester City into transfer market", "webUrl": "https://www.theguardian.com/football/2013/jul/28/matija-nastasic-injury-manchester-city-transfer", "apiUrl": "https://content.guardianapis.com/football/2013/jul/28/matija-nastasic-injury-manchester-city-transfer", "isHosted": false, "pillarId": "pillar/sport", "pillarName": "Sport"}, {"id": "football/2013/jul/28/transfer-window-news-brief", "type": "article", "sectionId": "football", "sectionName": "Football", "webPublicationDate": "2013-07-28T21:43:58Z", "webTitle": "Transfer window news in brief", "webUrl": "https://www.theguardian.com/football/2013/jul/28/transfer-window-news-brief", "apiUrl": "https://content.guardianapis.com/football/2013/jul/28/transfer-window-news-brief", "isHosted": false, "pillarId": "pillar/sport", "pillarName": "Sport"}, {"id": "football/2013/jul/28/newcastle-lyon-baftimbi-gomis", "type": "article", "sectionId": "football", "sectionName": "Football", "webPublicationDate": "2013-07-28T21:33:00Z", "webTitle": "Newcastle hope to sign Lyon's 'Baby Drogba' Baf\u00e9timbi Gomis", "webUrl": "https://www.theguardian.com/football/2013/jul/28/newcastle-lyon-baftimbi-gomis", "apiUrl": "https://content.guardianapis.com/football/2013/jul/28/newcastle-lyon-baftimbi-gomis", "isHosted": false, "pillarId": "pillar/sport", "pillarName": "Sport"}, {"id": "football/2013/jul/28/liverpool-brendan-rodgers-benfica", "type": "article", "sectionId": "football", "sectionName": "Football", "webPublicationDate": "2013-07-28T21:30:01Z", "webTitle": "Liverpool make approach for Benfica left-back Lorenzo Melgarejo", "webUrl": "https://www.theguardian.com/football/2013/jul/28/liverpool-brendan-rodgers-benfica", "apiUrl": "https://content.guardianapis.com/football/2013/jul/28/liverpool-brendan-rodgers-benfica", "isHosted": false, "pillarId": "pillar/sport", "pillarName": "Sport"}, {"id": "football/2013/jul/28/usa-panama-live-gold-cup-final", "type": "liveblog", "sectionId": "football", "sectionName": "Football", "webPublicationDate": "2013-07-28T19:38:00Z", "webTitle": "USA 1-0 Panama - as it happened", "webUrl": "https://www.theguardian.com/football/2013/jul/28/usa-panama-live-gold-cup-final", "apiUrl": "https://content.guardianapis.com/football/2013/jul/28/usa-panama-live-gold-cup-final", "isHosted": false, "pillarId": "pillar/sport", "pillarName": "Sport"}, {"id": "football/2013/jul/28/cristiano-ronaldo-gareth-bale-real-madrid", "type": "article", "sectionId": "football", "sectionName": "Football", "webPublicationDate": "2013-07-28T18:16:02Z", "webTitle": "Usurping Cristiano Ronaldo would be final step in Gareth Bale evolution", "webUrl": "https://www.theguardian.com/football/2013/jul/28/cristiano-ronaldo-gareth-bale-real-madrid", "apiUrl": "https://content.guardianapis.com/football/2013/jul/28/cristiano-ronaldo-gareth-bale-real-madrid", "isHosted": false, "pillarId": "pillar/sport", "pillarName": "Sport"}, {"id": "football/2013/jul/28/women-s-euro-2013-final-germany-norway-live", "type": "liveblog", "sectionId": "football", "sectionName": "Football", "webPublicationDate": "2013-07-28T16:08:00Z", "webTitle": "Germany win Euro 2013 final against Norway - as it happened", "webUrl": "https://www.theguardian.com/football/2013/jul/28/women-s-euro-2013-final-germany-norway-live", "apiUrl": "https://content.guardianapis.com/football/2013/jul/28/women-s-euro-2013-final-germany-norway-live", "isHosted": false, "pillarId": "pillar/sport", "pillarName": "Sport"}]}}