{"response": {"status": "ok", "userTier": "developer", "total": 17864, "startIndex": 1, "pageSize": 50, "currentPage": 1, "pages": 358, "orderBy": "newest", "results": [{"id": "sport/2012/jul/30/olympic-breakfasts-kelly-parker-footballer", "type": "article", "sectionId": "sport", "sectionName": "Sport", "webPublicationDate": "2012-07-30T19:04:13Z", "webTitle": "Olympic breakfasts: Kelly Parker, footballer", "webUrl": "https://www.theguardian.com/sport/2012/jul/30/olympic-breakfasts-kelly-parker-footballer", "apiUrl": "https://content.guardianapis.com/sport/2012/jul/30/olympic-breakfasts-kelly-parker-footballer", "isHosted": false, "pillarId": "pillar/sport", "pillarName": "Sport"}, {"id": "uk/the-northerner/2012/jul/30/liquorice-pontefract", "type": "article", "sectionId": "uk-news", "sectionName": "UK news", "webPublicationDate": "2012-07-30T18:00:00Z", "webTitle": "Liquorice to grow again in Pontefract", "webUrl": "https://www.theguardian.com/uk/the-northerner/2012/jul/30/liquorice-pontefract", "apiUrl": "https://content.guardianapis.com/uk/the-northerner/2012/jul/30/liquorice-pontefract", "isHosted": false, "pillarId": "pillar/news", "pillarName": "News"}, {"id": "lifeandstyle/wordofmouth/2012/jul/30/lizzie-armitstead-vegetarian-athletes-olympics-2012", "type": "article", "sectionId": "food", "sectionName": "Food", "webPublicationDate": "2012-07-30T15:09:39Z", "webTitle": "Olympian vegetarians", "webUrl": "https://www.theguardian.com/lifeandstyle/wordofmouth/2012/jul/30/lizzie-armitstead-vegetarian-athletes-olympics-2012", "apiUrl": "https://content.guardianapis.com/lifeandstyle/wordofmouth/2012/jul/30/lizzie-armitstead-vegetarian-athletes-olympics-2012", "isHosted": false, "pillarId": "pillar/lifestyle", "pillarName": "Lifestyle"}, {"id": "lifeandstyle/gallery/2012/jul/30/best-salad-bowls-in-pictures", "type": "gallery", "sectionId": "lifeandstyle", "sectionName": "Life and style", "webPublicationDate": "2012-07-30T11:46:00Z", "webTitle": "The best salad bowls - in pictures", "webUrl": "https://www.theguardian.com/lifeandstyle/gallery/2012/jul/30/best-salad-bowls-in-pictures", "apiUrl": "https://content.guardianapis.com/lifeandstyle/gallery/2012/jul/30/best-salad-bowls-in-pictures", "isHosted": false, "pillarId": "pillar/lifestyle", "pillarName": "Lifestyle"}, {"id": "lifeandstyle/wordofmouth/2012/jul/30/red-wine-and-cola", "type": "article", "sectionId": "food", "sectionName": "Food", "webPublicationDate": "2012-07-30T09:00:00Z", "webTitle": "Is yours a red wine and cola?", "webUrl": "https://www.theguardian.com/lifeandstyle/wordofmouth/2012/jul/30/red-wine-and-cola", "apiUrl": "https://content.guardianapis.com/lifeandstyle/wordofmouth/2012/jul/30/red-wine-and-cola", "isHosted": false, "pillarId": "pillar/lifestyle", "pillarName": "Lifestyle"}, {"id": "sport/2012/jul/29/olympic-breakfasts-james-goddard", "type": "article", "sectionId": "sport", "sectionName": "Sport", "webPublicationDate": "2012-07-29T22:59:01Z", "webTitle": "Olympic breakfasts: James Goddard and Robbie Renwick, swimmers", "webUrl": "https://www.theguardian.com/sport/2012/jul/29/olympic-breakfasts-james-goddard", "apiUrl": "https://content.guardianapis.com/sport/2012/jul/29/olympic-breakfasts-james-goddard", "isHosted": false, "pillarId": "pillar/sport", "pillarName": "Sport"}, {"id": "lifeandstyle/shortcuts/2012/jul/29/shorter-cuts-vegetarian-oysters", "type": "article", "sectionId": "food", "sectionName": "Food", "webPublicationDate": "2012-07-29T19:00:08Z", "webTitle": "Shorter cuts: news doesn't get any smaller", "webUrl": "https://www.theguardian.com/lifeandstyle/shortcuts/2012/jul/29/shorter-cuts-vegetarian-oysters", "apiUrl": "https://content.guardianapis.com/lifeandstyle/shortcuts/2012/jul/29/shorter-cuts-vegetarian-oysters", "isHosted": false, "pillarId": "pillar/lifestyle", "pillarName": "Lifestyle"}, {"id": "lifeandstyle/2012/jul/29/flavoured-beers-popularity-food-pairing", "type": "article", "sectionId": "food", "sectionName": "Food", "webPublicationDate": "2012-07-29T15:25:47Z", "webTitle": "Flavoured beers see surge in popularity", "webUrl": "https://www.theguardian.com/lifeandstyle/2012/jul/29/flavoured-beers-popularity-food-pairing", "apiUrl": "https://content.guardianapis.com/lifeandstyle/2012/jul/29/flavoured-beers-popularity-food-pairing", "isHosted": false, "pillarId": "pillar/lifestyle", "pillarName": "Lifestyle"}, {"id": "world/2012/jul/29/chilli-indian-army-farmers", "type": "article", "sectionId": "world", "sectionName": "World news", "webPublicationDate": "2012-07-29T14:30:08Z", "webTitle": "Chilli used by Indian army in weaponry is hot property for poor farmers", "webUrl": "https://www.theguardian.com/world/2012/jul/29/chilli-indian-army-farmers", "apiUrl": "https://content.guardianapis.com/world/2012/jul/29/chilli-indian-army-farmers", "isHosted": false, "pillarId": "pillar/news", "pillarName": "News"}, {"id": "lifeandstyle/2012/jul/29/jay-rayner-restaurant-review-sushi-tetsu", "type": "article", "sectionId": "food", "sectionName": "Food", "webPublicationDate": "2012-07-28T23:08:01Z", "webTitle": "Restaurant review: Sushi Tetsu, London EC1", "webUrl": "https://www.theguardian.com/lifeandstyle/2012/jul/29/jay-rayner-restaurant-review-sushi-tetsu", "apiUrl": "https://content.guardianapis.com/lifeandstyle/2012/jul/29/jay-rayner-restaurant-review-sushi-tetsu", "isHosted": false, "pillarId": "pillar/lifestyle", "pillarName": "Lifestyle"}, {"id": "lifeandstyle/2012/jul/29/wine-food-and-drink", "type": "article", "sectionId": "food", "sectionName": "Food", "webPublicationDate": "2012-07-28T23:04:07Z", "webTitle": "Wines of the week: David Williams", "webUrl": "https://www.theguardian.com/lifeandstyle/2012/jul/29/wine-food-and-drink", "apiUrl": "https://content.guardianapis.com/lifeandstyle/2012/jul/29/wine-food-and-drink", "isHosted": false, "pillarId": "pillar/lifestyle", "pillarName": "Lifestyle"}, {"id": "sport/2012/jul/28/london-2012-mcdonalds-branch-queus", "type": "article", "sectionId": "sport", "sectionName": "Sport", "webPublicationDate": "2012-07-28T14:02:23Z", "webTitle": "London 2012: A supersized McDonald's branch with publicity to match", "webUrl": "https://www.theguardian.com/sport/2012/jul/28/london-2012-mcdonalds-branch-queus", "apiUrl": "https://content.guardianapis.com/sport/2012/jul/28/london-2012-mcdonalds-branch-queus", "isHosted": false, "pillarId": "pillar/sport", "pillarName": "Sport"}, {"id": "sport/2012/jul/28/olympic-breakfasts-jack-oliver-weightlifter", "type": "article", "sectionId": "sport", "sectionName": "Sport", "webPublicationDate": "2012-07-28T06:30:01Z", "webTitle": "Olympic breakfasts: Jack Oliver, weightlifter", "webUrl": "https://www.theguardian.com/sport/2012/jul/28/olympic-breakfasts-jack-oliver-weightlifter", "apiUrl": "https://content.guardianapis.com/sport/2012/jul/28/olympic-breakfasts-jack-oliver-weightlifter", "isHosted": false, "pillarId": "pillar/sport", "pillarName": "Sport"}, {"id": "lifeandstyle/2012/jul/27/parsley-recipes-hugh-fearnley-whittingstall", "type": "article", "sectionId": "lifeandstyle", "sectionName": "Life and style", "webPublicationDate": "2012-07-27T21:59:16Z", "webTitle": "Parsley recipes | Hugh Fearnley-Whittingstall", "webUrl": "https://www.theguardian.com/lifeandstyle/2012/jul/27/parsley-recipes-hugh-fearnley-whittingstall", "apiUrl": "https://content.guardianapis.com/lifeandstyle/2012/jul/27/parsley-recipes-hugh-fearnley-whittingstall", "isHosted": false, "pillarId": "pillar/lifestyle", "pillarName": "Lifestyle"}, {"id": "lifeandstyle/2012/jul/27/basque-biscuit-recipes-dan-lepard", "type": "article", "sectionId": "lifeandstyle", "sectionName": "Life and style", "webPublicationDate": "2012-07-27T21:59:09Z", "webTitle": "Basque tea-time treats recipes | Dan Lepard", "webUrl": "https://www.theguardian.com/lifeandstyle/2012/jul/27/basque-biscuit-recipes-dan-lepard", "apiUrl": "https://content.guardianapis.com/lifeandstyle/2012/jul/27/basque-biscuit-recipes-dan-lepard", "isHosted": false, "pillarId": "pillar/lifestyle", "pillarName": "Lifestyle"}, {"id": "lifeandstyle/2012/jul/27/scallops-sausages-avocado-soup-recipes", "type": "article", "sectionId": "food", "sectionName": "Food", "webPublicationDate": "2012-07-27T21:59:03Z", "webTitle": "Scallops with chinese sausage and peas recipe, plus chilled avocado soup with tomato croutons | Yotam Ottolenghi", "webUrl": "https://www.theguardian.com/lifeandstyle/2012/jul/27/scallops-sausages-avocado-soup-recipes", "apiUrl": "https://content.guardianapis.com/lifeandstyle/2012/jul/27/scallops-sausages-avocado-soup-recipes", "isHosted": false, "pillarId": "pillar/lifestyle", "pillarName": "Lifestyle"}, {"id": "lifeandstyle/2012/jul/27/olympics-2012-wine-fiona-beckett", "type": "article", "sectionId": "food", "sectionName": "Food", "webPublicationDate": "2012-07-27T21:59:00Z", "webTitle": "Wine: what to drink while watching the Olympics", "webUrl": "https://www.theguardian.com/lifeandstyle/2012/jul/27/olympics-2012-wine-fiona-beckett", "apiUrl": "https://content.guardianapis.com/lifeandstyle/2012/jul/27/olympics-2012-wine-fiona-beckett", "isHosted": false, "pillarId": "pillar/lifestyle", "pillarName": "Lifestyle"}, {"id": "lifeandstyle/2012/jul/27/63-degrees-manchester-restaurant-review", "type": "article", "sectionId": "food", "sectionName": "Food", "webPublicationDate": "2012-07-27T21:59:00Z", "webTitle": "Restaurant: 63 Degrees, Manchester", "webUrl": "https://www.theguardian.com/lifeandstyle/2012/jul/27/63-degrees-manchester-restaurant-review", "apiUrl": "https://content.guardianapis.com/lifeandstyle/2012/jul/27/63-degrees-manchester-restaurant-review", "isHosted": false, "pillarId": "pillar/lifestyle", "pillarName": "Lifestyle"}, {"id": "travel/2012/jul/27/london-top-five-live-music-pubs", "type": "article", "sectionId": "travel", "sectionName": "Travel", "webPublicationDate": "2012-07-27T21:45:03Z", "webTitle": "London's top five live music pubs", "webUrl": "https://www.theguardian.com/travel/2012/jul/27/london-top-five-live-music-pubs", "apiUrl": "https://content.guardianapis.com/travel/2012/jul/27/london-top-five-live-music-pubs", "isHosted": false, "pillarId": "pillar/lifestyle", "pillarName": "Lifestyle"}, {"id": "travel/2012/jul/27/london-top-five-curry-houses", "type": "article", "sectionId": "travel", "sectionName": "Travel", "webPublicationDate": "2012-07-27T21:45:00Z", "webTitle": "London's top five curry houses", "webUrl": "https://www.theguardian.com/travel/2012/jul/27/london-top-five-curry-houses", "apiUrl": "https://content.guardianapis.com/travel/2012/jul/27/london-top-five-curry-houses", "isHosted": false, "pillarId": "pillar/lifestyle", "pillarName": "Lifestyle"}, {"id": "travel/2012/jul/27/london-top-five-hip-restaurants", "type": "article", "sectionId": "travel", "sectionName": "Travel", "webPublicationDate": "2012-07-27T21:45:00Z", "webTitle": "London's top five hip restaurants where you can get a table", "webUrl": "https://www.theguardian.com/travel/2012/jul/27/london-top-five-hip-restaurants", "apiUrl": "https://content.guardianapis.com/travel/2012/jul/27/london-top-five-hip-restaurants", "isHosted": false, "pillarId": "pillar/lifestyle", "pillarName": "Lifestyle"}, {"id": "lifeandstyle/wordofmouth/2012/jul/27/olympic-park-picnic-olympic-games", "type": "article", "sectionId": "food", "sectionName": "Food", "webPublicationDate": "2012-07-27T11:04:47Z", "webTitle": "Taking a picnic to the Olympic park", "webUrl": "https://www.theguardian.com/lifeandstyle/wordofmouth/2012/jul/27/olympic-park-picnic-olympic-games", "apiUrl": "https://content.guardianapis.com/lifeandstyle/wordofmouth/2012/jul/27/olympic-park-picnic-olympic-games", "isHosted": false, "pillarId": "pillar/lifestyle", "pillarName": "Lifestyle"}, {"id": "commentisfree/2012/jul/27/waiters-tricks-bump-up-bill", "type": "article", "sectionId": "commentisfree", "sectionName": "Opinion", "webPublicationDate": "2012-07-27T09:23:04Z", "webTitle": "What waiters' tricks have you noticed to bump up your meal bill? | Open thread", "webUrl": "https://www.theguardian.com/commentisfree/2012/jul/27/waiters-tricks-bump-up-bill", "apiUrl": "https://content.guardianapis.com/commentisfree/2012/jul/27/waiters-tricks-bump-up-bill", "isHosted": false, "pillarId": "pillar/opinion", "pillarName": "Opinion"}, {"id": "commentisfree/2012/jul/26/eat-like-olympian-exercise", "type": "article", "sectionId": "commentisfree", "sectionName": "Opinion", "webPublicationDate": "2012-07-26T19:32:00Z", "webTitle": "Could you eat like an Olympian? Sure, but you'd have to exercise like one too", "webUrl": "https://www.theguardian.com/commentisfree/2012/jul/26/eat-like-olympian-exercise", "apiUrl": "https://content.guardianapis.com/commentisfree/2012/jul/26/eat-like-olympian-exercise", "isHosted": false, "pillarId": "pillar/opinion", "pillarName": "Opinion"}, {"id": "world/2012/jul/26/french-waiters-tricks-customers-money", "type": "article", "sectionId": "world", "sectionName": "World news", "webPublicationDate": "2012-07-26T15:07:27Z", "webTitle": "French website reveals waiters' tricks to make customers part with money", "webUrl": "https://www.theguardian.com/world/2012/jul/26/french-waiters-tricks-customers-money", "apiUrl": "https://content.guardianapis.com/world/2012/jul/26/french-waiters-tricks-customers-money", "isHosted": false, "pillarId": "pillar/news", "pillarName": "News"}, {"id": "film/video/2012/jul/26/el-bulli-video-review", "type": "video", "sectionId": "film", "sectionName": "Film", "webPublicationDate": "2012-07-26T12:58:00Z", "webTitle": "El Bulli: Cooking in Progress \u2013 video review", "webUrl": "https://www.theguardian.com/film/video/2012/jul/26/el-bulli-video-review", "apiUrl": "https://content.guardianapis.com/film/video/2012/jul/26/el-bulli-video-review", "isHosted": false, "pillarId": "pillar/arts", "pillarName": "Arts"}, {"id": "film/video/2012/jul/26/guardian-film-show-lorax-video", "type": "video", "sectionId": "film", "sectionName": "Film", "webPublicationDate": "2012-07-26T09:52:00Z", "webTitle": "The Guardian Film Show: Dr Seuss' The Lorax and Searching for Sugar Man - video", "webUrl": "https://www.theguardian.com/film/video/2012/jul/26/guardian-film-show-lorax-video", "apiUrl": "https://content.guardianapis.com/film/video/2012/jul/26/guardian-film-show-lorax-video", "isHosted": false, "pillarId": "pillar/arts", "pillarName": "Arts"}, {"id": "lifeandstyle/2012/jul/26/olympics-attacked-fast-food-fizzy-drink-links", "type": "article", "sectionId": "food", "sectionName": "Food", "webPublicationDate": "2012-07-26T00:02:00Z", "webTitle": "Olympics attacked for fast food and fizzy drink links", "webUrl": "https://www.theguardian.com/lifeandstyle/2012/jul/26/olympics-attacked-fast-food-fizzy-drink-links", "apiUrl": "https://content.guardianapis.com/lifeandstyle/2012/jul/26/olympics-attacked-fast-food-fizzy-drink-links", "isHosted": false, "pillarId": "pillar/lifestyle", "pillarName": "Lifestyle"}, {"id": "lifeandstyle/wordofmouth/2012/jul/26/how-to-cook-perfect-pea-soup", "type": "article", "sectionId": "food", "sectionName": "Food", "webPublicationDate": "2012-07-25T23:10:00Z", "webTitle": "How to cook perfect pea soup", "webUrl": "https://www.theguardian.com/lifeandstyle/wordofmouth/2012/jul/26/how-to-cook-perfect-pea-soup", "apiUrl": "https://content.guardianapis.com/lifeandstyle/wordofmouth/2012/jul/26/how-to-cook-perfect-pea-soup", "isHosted": false, "pillarId": "pillar/lifestyle", "pillarName": "Lifestyle"}, {"id": "lifeandstyle/2012/jul/25/coke-isnt-it-more-soft-drinks", "type": "article", "sectionId": "food", "sectionName": "Food", "webPublicationDate": "2012-07-25T19:30:00Z", "webTitle": "Coke isn't it", "webUrl": "https://www.theguardian.com/lifeandstyle/2012/jul/25/coke-isnt-it-more-soft-drinks", "apiUrl": "https://content.guardianapis.com/lifeandstyle/2012/jul/25/coke-isnt-it-more-soft-drinks", "isHosted": false, "pillarId": "pillar/lifestyle", "pillarName": "Lifestyle"}, {"id": "lifeandstyle/2012/jul/25/pork-escalope-and-pak-choi-recipe", "type": "article", "sectionId": "food", "sectionName": "Food", "webPublicationDate": "2012-07-25T13:54:00Z", "webTitle": "Pork escalope with peppers and pak choi recipe | Angela Hartnett", "webUrl": "https://www.theguardian.com/lifeandstyle/2012/jul/25/pork-escalope-and-pak-choi-recipe", "apiUrl": "https://content.guardianapis.com/lifeandstyle/2012/jul/25/pork-escalope-and-pak-choi-recipe", "isHosted": false, "pillarId": "pillar/lifestyle", "pillarName": "Lifestyle"}, {"id": "lifeandstyle/wordofmouth/2012/jul/25/beer-cocktails-do-opposites-attract", "type": "article", "sectionId": "food", "sectionName": "Food", "webPublicationDate": "2012-07-25T08:50:00Z", "webTitle": "Beer cocktails: do opposites attract?", "webUrl": "https://www.theguardian.com/lifeandstyle/wordofmouth/2012/jul/25/beer-cocktails-do-opposites-attract", "apiUrl": "https://content.guardianapis.com/lifeandstyle/wordofmouth/2012/jul/25/beer-cocktails-do-opposites-attract", "isHosted": false, "pillarId": "pillar/lifestyle", "pillarName": "Lifestyle"}, {"id": "business/2012/jul/24/wal-mart-supplier-fines-conditions", "type": "article", "sectionId": "business", "sectionName": "Business", "webPublicationDate": "2012-07-24T21:56:00Z", "webTitle": "Walmart supplier ordered to pay fines over hazardous working conditions", "webUrl": "https://www.theguardian.com/business/2012/jul/24/wal-mart-supplier-fines-conditions", "apiUrl": "https://content.guardianapis.com/business/2012/jul/24/wal-mart-supplier-fines-conditions", "isHosted": false, "pillarId": "pillar/news", "pillarName": "News"}, {"id": "world/2012/jul/24/tunisian-bakers-take-over-baguette", "type": "article", "sectionId": "world", "sectionName": "World news", "webPublicationDate": "2012-07-24T13:00:48Z", "webTitle": "Tunisian bakers warm to baguette", "webUrl": "https://www.theguardian.com/world/2012/jul/24/tunisian-bakers-take-over-baguette", "apiUrl": "https://content.guardianapis.com/world/2012/jul/24/tunisian-bakers-take-over-baguette", "isHosted": false, "pillarId": "pillar/news", "pillarName": "News"}, {"id": "lifeandstyle/wordofmouth/2012/jul/24/the-best-ice-cream-cookbooks-scoop", "type": "article", "sectionId": "food", "sectionName": "Food", "webPublicationDate": "2012-07-24T08:45:00Z", "webTitle": "Sundae worship: the best ice-cream recipe books", "webUrl": "https://www.theguardian.com/lifeandstyle/wordofmouth/2012/jul/24/the-best-ice-cream-cookbooks-scoop", "apiUrl": "https://content.guardianapis.com/lifeandstyle/wordofmouth/2012/jul/24/the-best-ice-cream-cookbooks-scoop", "isHosted": false, "pillarId": "pillar/lifestyle", "pillarName": "Lifestyle"}, {"id": "lifeandstyle/2012/jul/23/kfc-fast-food-degree", "type": "article", "sectionId": "food", "sectionName": "Food", "webPublicationDate": "2012-07-23T16:45:20Z", "webTitle": "KFC Hons: fast food chain offers business management degree", "webUrl": "https://www.theguardian.com/lifeandstyle/2012/jul/23/kfc-fast-food-degree", "apiUrl": "https://content.guardianapis.com/lifeandstyle/2012/jul/23/kfc-fast-food-degree", "isHosted": false, "pillarId": "pillar/lifestyle", "pillarName": "Lifestyle"}, {"id": "environment/2012/jul/23/us-drought-global-food-crisis", "type": "article", "sectionId": "environment", "sectionName": "Environment", "webPublicationDate": "2012-07-23T14:30:00Z", "webTitle": "US drought could trigger repeat of global food crisis, experts warn", "webUrl": "https://www.theguardian.com/environment/2012/jul/23/us-drought-global-food-crisis", "apiUrl": "https://content.guardianapis.com/environment/2012/jul/23/us-drought-global-food-crisis", "isHosted": false, "pillarId": "pillar/news", "pillarName": "News"}, {"id": "lifeandstyle/wordofmouth/2012/jul/23/champagne-sales-lose-their-sparkle", "type": "article", "sectionId": "food", "sectionName": "Food", "webPublicationDate": "2012-07-23T11:50:00Z", "webTitle": "Champagne sales lose their sparkle", "webUrl": "https://www.theguardian.com/lifeandstyle/wordofmouth/2012/jul/23/champagne-sales-lose-their-sparkle", "apiUrl": "https://content.guardianapis.com/lifeandstyle/wordofmouth/2012/jul/23/champagne-sales-lose-their-sparkle", "isHosted": false, "pillarId": "pillar/lifestyle", "pillarName": "Lifestyle"}, {"id": "sport/2012/jul/23/archive-1948-olympics-rationing-american-diet", "type": "article", "sectionId": "sport", "sectionName": "Sport", "webPublicationDate": "2012-07-23T06:30:00Z", "webTitle": "1948 Olympics: Americans arrive with steak and chops", "webUrl": "https://www.theguardian.com/sport/2012/jul/23/archive-1948-olympics-rationing-american-diet", "apiUrl": "https://content.guardianapis.com/sport/2012/jul/23/archive-1948-olympics-rationing-american-diet", "isHosted": false, "pillarId": "pillar/sport", "pillarName": "Sport"}, {"id": "uk/the-northerner/2012/jul/23/wine-food-and-drink-yorkshire-wine-vineyards-doncaster-ryedale-leeds", "type": "article", "sectionId": "uk-news", "sectionName": "UK news", "webPublicationDate": "2012-07-23T06:00:00Z", "webTitle": "Fingers crossed for this year's northern wine", "webUrl": "https://www.theguardian.com/uk/the-northerner/2012/jul/23/wine-food-and-drink-yorkshire-wine-vineyards-doncaster-ryedale-leeds", "apiUrl": "https://content.guardianapis.com/uk/the-northerner/2012/jul/23/wine-food-and-drink-yorkshire-wine-vineyards-doncaster-ryedale-leeds", "isHosted": false, "pillarId": "pillar/news", "pillarName": "News"}, {"id": "money/2012/jul/22/food-and-drink-ethical-living", "type": "article", "sectionId": "money", "sectionName": "Money", "webPublicationDate": "2012-07-22T10:54:00Z", "webTitle": "Picnic recipes for animal lovers", "webUrl": "https://www.theguardian.com/money/2012/jul/22/food-and-drink-ethical-living", "apiUrl": "https://content.guardianapis.com/money/2012/jul/22/food-and-drink-ethical-living", "isHosted": false, "pillarId": "pillar/lifestyle", "pillarName": "Lifestyle"}, {"id": "lifeandstyle/2012/jul/22/david-williams-cinsault-rose-white", "type": "article", "sectionId": "food", "sectionName": "Food", "webPublicationDate": "2012-07-21T23:07:03Z", "webTitle": "Wines of the week", "webUrl": "https://www.theguardian.com/lifeandstyle/2012/jul/22/david-williams-cinsault-rose-white", "apiUrl": "https://content.guardianapis.com/lifeandstyle/2012/jul/22/david-williams-cinsault-rose-white", "isHosted": false, "pillarId": "pillar/lifestyle", "pillarName": "Lifestyle"}, {"id": "lifeandstyle/2012/jul/22/jay-rayner-neptune-norfolk-hunstanton-review", "type": "article", "sectionId": "food", "sectionName": "Food", "webPublicationDate": "2012-07-21T23:07:02Z", "webTitle": "Restaurant review: Neptune Inn, Hunstanton, Norfolk", "webUrl": "https://www.theguardian.com/lifeandstyle/2012/jul/22/jay-rayner-neptune-norfolk-hunstanton-review", "apiUrl": "https://content.guardianapis.com/lifeandstyle/2012/jul/22/jay-rayner-neptune-norfolk-hunstanton-review", "isHosted": false, "pillarId": "pillar/lifestyle", "pillarName": "Lifestyle"}, {"id": "lifeandstyle/2012/jul/21/readers-favourite-photographs-songs-recipes", "type": "article", "sectionId": "lifeandstyle", "sectionName": "Life and style", "webPublicationDate": "2012-07-20T23:05:04Z", "webTitle": "Family life", "webUrl": "https://www.theguardian.com/lifeandstyle/2012/jul/21/readers-favourite-photographs-songs-recipes", "apiUrl": "https://content.guardianapis.com/lifeandstyle/2012/jul/21/readers-favourite-photographs-songs-recipes", "isHosted": false, "pillarId": "pillar/lifestyle", "pillarName": "Lifestyle"}, {"id": "lifeandstyle/2012/jul/20/il-pirata-belfast-restaurant-review", "type": "article", "sectionId": "food", "sectionName": "Food", "webPublicationDate": "2012-07-20T22:00:01Z", "webTitle": "Restaurant: Il Pirata, Belfast", "webUrl": "https://www.theguardian.com/lifeandstyle/2012/jul/20/il-pirata-belfast-restaurant-review", "apiUrl": "https://content.guardianapis.com/lifeandstyle/2012/jul/20/il-pirata-belfast-restaurant-review", "isHosted": false, "pillarId": "pillar/lifestyle", "pillarName": "Lifestyle"}, {"id": "lifeandstyle/2012/jul/20/raw-vegetable-recipes-fearnley-whittingstall", "type": "article", "sectionId": "lifeandstyle", "sectionName": "Life and style", "webPublicationDate": "2012-07-20T21:59:45Z", "webTitle": "Raw vegetable recipes | Hugh Fearnley-Whittingstall", "webUrl": "https://www.theguardian.com/lifeandstyle/2012/jul/20/raw-vegetable-recipes-fearnley-whittingstall", "apiUrl": "https://content.guardianapis.com/lifeandstyle/2012/jul/20/raw-vegetable-recipes-fearnley-whittingstall", "isHosted": false, "pillarId": "pillar/lifestyle", "pillarName": "Lifestyle"}, {"id": "lifeandstyle/2012/jul/20/fish-fingers-almond-soup-recipes", "type": "article", "sectionId": "food", "sectionName": "Food", "webPublicationDate": "2012-07-20T21:59:36Z", "webTitle": "Grown-up fish fingers with caraway dipping sauce recipe, plus chilled almond and ginger soup | Yotam Ottolenghi", "webUrl": "https://www.theguardian.com/lifeandstyle/2012/jul/20/fish-fingers-almond-soup-recipes", "apiUrl": "https://content.guardianapis.com/lifeandstyle/2012/jul/20/fish-fingers-almond-soup-recipes", "isHosted": false, "pillarId": "pillar/lifestyle", "pillarName": "Lifestyle"}, {"id": "lifeandstyle/2012/jul/20/basque-butter-buns-torrija-recipes", "type": "article", "sectionId": "lifeandstyle", "sectionName": "Life and style", "webPublicationDate": "2012-07-20T21:59:32Z", "webTitle": "Basque butter buns recipe, plus torrija, or fried milk bread | Dan Lepard", "webUrl": "https://www.theguardian.com/lifeandstyle/2012/jul/20/basque-butter-buns-torrija-recipes", "apiUrl": "https://content.guardianapis.com/lifeandstyle/2012/jul/20/basque-butter-buns-torrija-recipes", "isHosted": false, "pillarId": "pillar/lifestyle", "pillarName": "Lifestyle"}, {"id": "lifeandstyle/2012/jul/20/rose-wine-sweet-fruity-review", "type": "article", "sectionId": "food", "sectionName": "Food", "webPublicationDate": "2012-07-20T21:59:00Z", "webTitle": "Wine: why is ros\u00e9 so sweet these days?", "webUrl": "https://www.theguardian.com/lifeandstyle/2012/jul/20/rose-wine-sweet-fruity-review", "apiUrl": "https://content.guardianapis.com/lifeandstyle/2012/jul/20/rose-wine-sweet-fruity-review", "isHosted": false, "pillarId": "pillar/lifestyle", "pillarName": "Lifestyle"}, {"id": "lifeandstyle/2012/jul/20/challah-sabbath-bread-recipe", "type": "article", "sectionId": "food", "sectionName": "Food", "webPublicationDate": "2012-07-20T11:00:00Z", "webTitle": "Super-rich challah recipe", "webUrl": "https://www.theguardian.com/lifeandstyle/2012/jul/20/challah-sabbath-bread-recipe", "apiUrl": "https://content.guardianapis.com/lifeandstyle/2012/jul/20/challah-sabbath-bread-recipe", "isHosted": false, "pillarId": "pillar/lifestyle", "pillarName": "Lifestyle"}]}}