{"response": {"status": "ok", "userTier": "developer", "total": 30042, "startIndex": 1, "pageSize": 50, "currentPage": 1, "pages": 601, "orderBy": "newest", "results": [{"id": "commentisfree/2011/jul/31/somalia-aid-john-sentamu", "type": "article", "sectionId": "commentisfree", "sectionName": "Opinion", "webPublicationDate": "2011-07-30T23:07:00Z", "webTitle": "Buying a sisal bag can make a real difference to Africa's starving millions | John Sentamu", "webUrl": "https://www.theguardian.com/commentisfree/2011/jul/31/somalia-aid-john-sentamu", "apiUrl": "https://content.guardianapis.com/commentisfree/2011/jul/31/somalia-aid-john-sentamu", "isHosted": false, "pillarId": "pillar/opinion", "pillarName": "Opinion"}, {"id": "business/2011/jul/31/comment-bp-doldrums-oil-shell", "type": "article", "sectionId": "business", "sectionName": "Business", "webPublicationDate": "2011-07-30T23:06:00Z", "webTitle": "BP clutches at Iraq deal in the absence of a big idea", "webUrl": "https://www.theguardian.com/business/2011/jul/31/comment-bp-doldrums-oil-shell", "apiUrl": "https://content.guardianapis.com/business/2011/jul/31/comment-bp-doldrums-oil-shell", "isHosted": false, "pillarId": "pillar/news", "pillarName": "News"}, {"id": "environment/2011/jul/31/eco-pirate-paul-watson-flagship", "type": "article", "sectionId": "environment", "sectionName": "Environment", "webPublicationDate": "2011-07-30T23:06:00Z", "webTitle": "'Eco-pirate' Paul Watson is in danger of losing his boat", "webUrl": "https://www.theguardian.com/environment/2011/jul/31/eco-pirate-paul-watson-flagship", "apiUrl": "https://content.guardianapis.com/environment/2011/jul/31/eco-pirate-paul-watson-flagship", "isHosted": false, "pillarId": "pillar/news", "pillarName": "News"}, {"id": "environment/2011/jul/31/lucy-siegle-cat-food-fish", "type": "article", "sectionId": "environment", "sectionName": "Environment", "webPublicationDate": "2011-07-30T23:05:21Z", "webTitle": "Paws for thought", "webUrl": "https://www.theguardian.com/environment/2011/jul/31/lucy-siegle-cat-food-fish", "apiUrl": "https://content.guardianapis.com/environment/2011/jul/31/lucy-siegle-cat-food-fish", "isHosted": false, "pillarId": "pillar/news", "pillarName": "News"}, {"id": "science/2011/jul/31/new-to-nature-caecilian-rwanda", "type": "article", "sectionId": "science", "sectionName": "Science", "webPublicationDate": "2011-07-30T23:05:09Z", "webTitle": "New to Nature No 48: Boulengerula fischeri", "webUrl": "https://www.theguardian.com/science/2011/jul/31/new-to-nature-caecilian-rwanda", "apiUrl": "https://content.guardianapis.com/science/2011/jul/31/new-to-nature-caecilian-rwanda", "isHosted": false, "pillarId": "pillar/news", "pillarName": "News"}, {"id": "environment/video/2011/jul/31/wwf-video-rare-species", "type": "video", "sectionId": "environment", "sectionName": "Environment", "webPublicationDate": "2011-07-30T22:01:00Z", "webTitle": "Astonish Me: a short film about the world's most extraordinary species - video", "webUrl": "https://www.theguardian.com/environment/video/2011/jul/31/wwf-video-rare-species", "apiUrl": "https://content.guardianapis.com/environment/video/2011/jul/31/wwf-video-rare-species", "isHosted": false, "pillarId": "pillar/news", "pillarName": "News"}, {"id": "environment/2011/jul/29/arctic-scientist-charles-monnett-suspension", "type": "article", "sectionId": "environment", "sectionName": "Environment", "webPublicationDate": "2011-07-29T22:31:11Z", "webTitle": "Arctic scientist suspended over 'integrity issues'", "webUrl": "https://www.theguardian.com/environment/2011/jul/29/arctic-scientist-charles-monnett-suspension", "apiUrl": "https://content.guardianapis.com/environment/2011/jul/29/arctic-scientist-charles-monnett-suspension", "isHosted": false, "pillarId": "pillar/news", "pillarName": "News"}, {"id": "environment/2011/jul/29/ruralaffairs-bees", "type": "article", "sectionId": "environment", "sectionName": "Environment", "webPublicationDate": "2011-07-29T22:04:01Z", "webTitle": "Country diary: Cambridge botanic garden", "webUrl": "https://www.theguardian.com/environment/2011/jul/29/ruralaffairs-bees", "apiUrl": "https://content.guardianapis.com/environment/2011/jul/29/ruralaffairs-bees", "isHosted": false, "pillarId": "pillar/news", "pillarName": "News"}, {"id": "money/blog/2011/jul/29/ill-take-throwaway-society", "type": "article", "sectionId": "money", "sectionName": "Money", "webPublicationDate": "2011-07-29T22:02:36Z", "webTitle": "I'll take our 'throwaway society' over the days of the dodgy twin tub washer", "webUrl": "https://www.theguardian.com/money/blog/2011/jul/29/ill-take-throwaway-society", "apiUrl": "https://content.guardianapis.com/money/blog/2011/jul/29/ill-take-throwaway-society", "isHosted": false, "pillarId": "pillar/lifestyle", "pillarName": "Lifestyle"}, {"id": "money/2011/jul/29/housing-co-op-affordable-home", "type": "article", "sectionId": "money", "sectionName": "Money", "webPublicationDate": "2011-07-29T22:02:02Z", "webTitle": "Housing co-ops: one way to find an affordable home", "webUrl": "https://www.theguardian.com/money/2011/jul/29/housing-co-op-affordable-home", "apiUrl": "https://content.guardianapis.com/money/2011/jul/29/housing-co-op-affordable-home", "isHosted": false, "pillarId": "pillar/lifestyle", "pillarName": "Lifestyle"}, {"id": "travel/2011/jul/29/forest-of-dean-holiday-dome-garden", "type": "article", "sectionId": "travel", "sectionName": "Travel", "webPublicationDate": "2011-07-29T21:45:07Z", "webTitle": "Forest gumption: A sense of space in the Forest of Dean", "webUrl": "https://www.theguardian.com/travel/2011/jul/29/forest-of-dean-holiday-dome-garden", "apiUrl": "https://content.guardianapis.com/travel/2011/jul/29/forest-of-dean-holiday-dome-garden", "isHosted": false, "pillarId": "pillar/lifestyle", "pillarName": "Lifestyle"}, {"id": "commentisfree/cifamerica/2011/jul/29/us-debt-crisis-environment", "type": "article", "sectionId": "business", "sectionName": "Business", "webPublicationDate": "2011-07-29T21:00:00Z", "webTitle": "America's other debt crisis | Ros Coward", "webUrl": "https://www.theguardian.com/commentisfree/cifamerica/2011/jul/29/us-debt-crisis-environment", "apiUrl": "https://content.guardianapis.com/commentisfree/cifamerica/2011/jul/29/us-debt-crisis-environment", "isHosted": false, "pillarId": "pillar/news", "pillarName": "News"}, {"id": "environment/2011/jul/29/transcript-jeffrey-gleason", "type": "article", "sectionId": "environment", "sectionName": "Environment", "webPublicationDate": "2011-07-29T17:43:00Z", "webTitle": "Transcript of an interview with Jeffrey Gleason", "webUrl": "https://www.theguardian.com/environment/2011/jul/29/transcript-jeffrey-gleason", "apiUrl": "https://content.guardianapis.com/environment/2011/jul/29/transcript-jeffrey-gleason", "isHosted": false, "pillarId": "pillar/news", "pillarName": "News"}, {"id": "commentisfree/2011/jul/29/hinkley-c-nuclear-power-station", "type": "article", "sectionId": "commentisfree", "sectionName": "Opinion", "webPublicationDate": "2011-07-29T17:21:03Z", "webTitle": "Hinckley C nuclear power station: a good thing? | John Vidal", "webUrl": "https://www.theguardian.com/commentisfree/2011/jul/29/hinkley-c-nuclear-power-station", "apiUrl": "https://content.guardianapis.com/commentisfree/2011/jul/29/hinkley-c-nuclear-power-station", "isHosted": false, "pillarId": "pillar/opinion", "pillarName": "Opinion"}, {"id": "environment/2011/jul/29/barack-obama-fuel-economy-standards", "type": "article", "sectionId": "environment", "sectionName": "Environment", "webPublicationDate": "2011-07-29T16:59:36Z", "webTitle": "Barack Obama unveils 'historic' agreement on fuel economy standards", "webUrl": "https://www.theguardian.com/environment/2011/jul/29/barack-obama-fuel-economy-standards", "apiUrl": "https://content.guardianapis.com/environment/2011/jul/29/barack-obama-fuel-economy-standards", "isHosted": false, "pillarId": "pillar/news", "pillarName": "News"}, {"id": "environment/blog/2011/jul/29/jon-huntsman-republican-green-kamikaze", "type": "article", "sectionId": "environment", "sectionName": "Environment", "webPublicationDate": "2011-07-29T15:49:00Z", "webTitle": "Jon Huntsman may be setting himself up as Republican green kamikaze | Suzanne Goldenberg", "webUrl": "https://www.theguardian.com/environment/blog/2011/jul/29/jon-huntsman-republican-green-kamikaze", "apiUrl": "https://content.guardianapis.com/environment/blog/2011/jul/29/jon-huntsman-republican-green-kamikaze", "isHosted": false, "pillarId": "pillar/news", "pillarName": "News"}, {"id": "environment/2011/jul/29/nuclearpower-energy", "type": "article", "sectionId": "environment", "sectionName": "Environment", "webPublicationDate": "2011-07-29T15:31:00Z", "webTitle": "How Germany plans to succeed in a nuclear free, low-carbon economy", "webUrl": "https://www.theguardian.com/environment/2011/jul/29/nuclearpower-energy", "apiUrl": "https://content.guardianapis.com/environment/2011/jul/29/nuclearpower-energy", "isHosted": false, "pillarId": "pillar/news", "pillarName": "News"}, {"id": "global-development/video/2011/jul/29/pakistan-floods-one-year-on-video", "type": "video", "sectionId": "global-development", "sectionName": "Global development", "webPublicationDate": "2011-07-29T11:02:00Z", "webTitle": "Pakistan: After the floods - video", "webUrl": "https://www.theguardian.com/global-development/video/2011/jul/29/pakistan-floods-one-year-on-video", "apiUrl": "https://content.guardianapis.com/global-development/video/2011/jul/29/pakistan-floods-one-year-on-video", "isHosted": false, "pillarId": "pillar/news", "pillarName": "News"}, {"id": "environment/gallery/2011/jul/29/week-in-wildlife-in-pictures", "type": "gallery", "sectionId": "environment", "sectionName": "Environment", "webPublicationDate": "2011-07-29T10:43:00Z", "webTitle": "The week in wildlife - in pictures", "webUrl": "https://www.theguardian.com/environment/gallery/2011/jul/29/week-in-wildlife-in-pictures", "apiUrl": "https://content.guardianapis.com/environment/gallery/2011/jul/29/week-in-wildlife-in-pictures", "isHosted": false, "pillarId": "pillar/news", "pillarName": "News"}, {"id": "environment/2011/jul/29/flat-screen-tv-electricity", "type": "article", "sectionId": "environment", "sectionName": "Environment", "webPublicationDate": "2011-07-29T10:11:18Z", "webTitle": "Flat-screen TV electricity consumption falls by 60%", "webUrl": "https://www.theguardian.com/environment/2011/jul/29/flat-screen-tv-electricity", "apiUrl": "https://content.guardianapis.com/environment/2011/jul/29/flat-screen-tv-electricity", "isHosted": false, "pillarId": "pillar/news", "pillarName": "News"}, {"id": "environment/2011/jul/29/planners-approve-nuclear-power-station-preparatory-work", "type": "article", "sectionId": "environment", "sectionName": "Environment", "webPublicationDate": "2011-07-29T09:47:44Z", "webTitle": "Hinkley C nuclear power station gets green light for preparatory work", "webUrl": "https://www.theguardian.com/environment/2011/jul/29/planners-approve-nuclear-power-station-preparatory-work", "apiUrl": "https://content.guardianapis.com/environment/2011/jul/29/planners-approve-nuclear-power-station-preparatory-work", "isHosted": false, "pillarId": "pillar/news", "pillarName": "News"}, {"id": "environment/2011/jul/28/country-diary-south-uist", "type": "article", "sectionId": "environment", "sectionName": "Environment", "webPublicationDate": "2011-07-28T22:09:00Z", "webTitle": "Country diary: South Uist", "webUrl": "https://www.theguardian.com/environment/2011/jul/28/country-diary-south-uist", "apiUrl": "https://content.guardianapis.com/environment/2011/jul/28/country-diary-south-uist", "isHosted": false, "pillarId": "pillar/news", "pillarName": "News"}, {"id": "commentisfree/2011/jul/28/china-fast-train-to-disaster", "type": "article", "sectionId": "commentisfree", "sectionName": "Opinion", "webPublicationDate": "2011-07-28T21:00:04Z", "webTitle": "China is on the fast train to disaster | Isabel Hilton", "webUrl": "https://www.theguardian.com/commentisfree/2011/jul/28/china-fast-train-to-disaster", "apiUrl": "https://content.guardianapis.com/commentisfree/2011/jul/28/china-fast-train-to-disaster", "isHosted": false, "pillarId": "pillar/opinion", "pillarName": "Opinion"}, {"id": "commentisfree/2011/jul/28/localism-bill-sacrifice-countryside-market", "type": "article", "sectionId": "commentisfree", "sectionName": "Opinion", "webPublicationDate": "2011-07-28T20:00:09Z", "webTitle": "This localism bill will sacrifice our countryside to market forces | Simon Jenkins", "webUrl": "https://www.theguardian.com/commentisfree/2011/jul/28/localism-bill-sacrifice-countryside-market", "apiUrl": "https://content.guardianapis.com/commentisfree/2011/jul/28/localism-bill-sacrifice-countryside-market", "isHosted": false, "pillarId": "pillar/opinion", "pillarName": "Opinion"}, {"id": "environment/2011/jul/28/badger-culls-grey-area-science", "type": "article", "sectionId": "environment", "sectionName": "Environment", "webPublicationDate": "2011-07-28T20:00:07Z", "webTitle": "Letters: Badger culls and a grey area of science", "webUrl": "https://www.theguardian.com/environment/2011/jul/28/badger-culls-grey-area-science", "apiUrl": "https://content.guardianapis.com/environment/2011/jul/28/badger-culls-grey-area-science", "isHosted": false, "pillarId": "pillar/news", "pillarName": "News"}, {"id": "politics/2011/jul/28/loosening-green-belt-rules", "type": "article", "sectionId": "politics", "sectionName": "Politics", "webPublicationDate": "2011-07-28T20:00:05Z", "webTitle": "Letters: Loosening green belt rules", "webUrl": "https://www.theguardian.com/politics/2011/jul/28/loosening-green-belt-rules", "apiUrl": "https://content.guardianapis.com/politics/2011/jul/28/loosening-green-belt-rules", "isHosted": false, "pillarId": "pillar/news", "pillarName": "News"}, {"id": "world/2011/jul/28/arctic-scientist-polar-bear-oil", "type": "article", "sectionId": "environment", "sectionName": "Environment", "webPublicationDate": "2011-07-28T19:43:32Z", "webTitle": "Arctic scientist who exposed climate threat to polar bear is suspended", "webUrl": "https://www.theguardian.com/world/2011/jul/28/arctic-scientist-polar-bear-oil", "apiUrl": "https://content.guardianapis.com/world/2011/jul/28/arctic-scientist-polar-bear-oil", "isHosted": false, "pillarId": "pillar/news", "pillarName": "News"}, {"id": "commentisfree/2011/jul/28/centrica-british-gas-profits", "type": "article", "sectionId": "commentisfree", "sectionName": "Opinion", "webPublicationDate": "2011-07-28T18:00:00Z", "webTitle": "Centrica and the great British Gas price hike | Terry Macalister", "webUrl": "https://www.theguardian.com/commentisfree/2011/jul/28/centrica-british-gas-profits", "apiUrl": "https://content.guardianapis.com/commentisfree/2011/jul/28/centrica-british-gas-profits", "isHosted": false, "pillarId": "pillar/opinion", "pillarName": "Opinion"}, {"id": "world/2011/jul/28/terrapin-haven-tuscany-derelict-carapax", "type": "article", "sectionId": "world", "sectionName": "World news", "webPublicationDate": "2011-07-28T17:49:22Z", "webTitle": "Terrapin haven in Tuscany for UK rescued reptiles is ruined and overrun", "webUrl": "https://www.theguardian.com/world/2011/jul/28/terrapin-haven-tuscany-derelict-carapax", "apiUrl": "https://content.guardianapis.com/world/2011/jul/28/terrapin-haven-tuscany-derelict-carapax", "isHosted": false, "pillarId": "pillar/news", "pillarName": "News"}, {"id": "environment/2011/jul/28/solar-boom-uk", "type": "article", "sectionId": "environment", "sectionName": "Environment", "webPublicationDate": "2011-07-28T14:37:27Z", "webTitle": "Subsidies deadline drives UK solar power boom", "webUrl": "https://www.theguardian.com/environment/2011/jul/28/solar-boom-uk", "apiUrl": "https://content.guardianapis.com/environment/2011/jul/28/solar-boom-uk", "isHosted": false, "pillarId": "pillar/news", "pillarName": "News"}, {"id": "uk/2011/jul/28/london-cycle-hire-scheme-expand-west", "type": "article", "sectionId": "uk-news", "sectionName": "UK news", "webPublicationDate": "2011-07-28T12:19:23Z", "webTitle": "London cycle hire scheme to expand west", "webUrl": "https://www.theguardian.com/uk/2011/jul/28/london-cycle-hire-scheme-expand-west", "apiUrl": "https://content.guardianapis.com/uk/2011/jul/28/london-cycle-hire-scheme-expand-west", "isHosted": false, "pillarId": "pillar/news", "pillarName": "News"}, {"id": "environment/blog/2011/jul/28/oil-tar-sands-canada-ethical", "type": "article", "sectionId": "environment", "sectionName": "Environment", "webPublicationDate": "2011-07-28T12:15:33Z", "webTitle": "Canadian campaign puts the spin on 'ethical oil' | Leo Hickman", "webUrl": "https://www.theguardian.com/environment/blog/2011/jul/28/oil-tar-sands-canada-ethical", "apiUrl": "https://content.guardianapis.com/environment/blog/2011/jul/28/oil-tar-sands-canada-ethical", "isHosted": false, "pillarId": "pillar/news", "pillarName": "News"}, {"id": "environment/damian-carrington-blog/2011/jul/28/ipcc-climate-change-science-pachauri", "type": "article", "sectionId": "environment", "sectionName": "Environment", "webPublicationDate": "2011-07-28T12:07:00Z", "webTitle": "In defence of the IPCC: critics ignore the real scandal | Damian Carrington", "webUrl": "https://www.theguardian.com/environment/damian-carrington-blog/2011/jul/28/ipcc-climate-change-science-pachauri", "apiUrl": "https://content.guardianapis.com/environment/damian-carrington-blog/2011/jul/28/ipcc-climate-change-science-pachauri", "isHosted": false, "pillarId": "pillar/news", "pillarName": "News"}, {"id": "environment/2011/jul/28/plastic-bag-rise", "type": "article", "sectionId": "environment", "sectionName": "Environment", "webPublicationDate": "2011-07-28T11:17:33Z", "webTitle": "Plastic bag use on the rise after years of decline", "webUrl": "https://www.theguardian.com/environment/2011/jul/28/plastic-bag-rise", "apiUrl": "https://content.guardianapis.com/environment/2011/jul/28/plastic-bag-rise", "isHosted": false, "pillarId": "pillar/news", "pillarName": "News"}, {"id": "environment/2011/jul/28/scilly-islands-rats-infestation", "type": "article", "sectionId": "environment", "sectionName": "Environment", "webPublicationDate": "2011-07-28T09:19:00Z", "webTitle": "Rat race: Scilly islands back plans to get rid of 3,100 rodents", "webUrl": "https://www.theguardian.com/environment/2011/jul/28/scilly-islands-rats-infestation", "apiUrl": "https://content.guardianapis.com/environment/2011/jul/28/scilly-islands-rats-infestation", "isHosted": false, "pillarId": "pillar/news", "pillarName": "News"}, {"id": "commentisfree/2011/jul/28/illegal-wildlife-trade-snakes-plane-bangkok", "type": "article", "sectionId": "commentisfree", "sectionName": "Opinion", "webPublicationDate": "2011-07-28T09:08:14Z", "webTitle": "Illegal wildlife trade is far more terrifying than just snakes on a plane | Andrew Chambers", "webUrl": "https://www.theguardian.com/commentisfree/2011/jul/28/illegal-wildlife-trade-snakes-plane-bangkok", "apiUrl": "https://content.guardianapis.com/commentisfree/2011/jul/28/illegal-wildlife-trade-snakes-plane-bangkok", "isHosted": false, "pillarId": "pillar/opinion", "pillarName": "Opinion"}, {"id": "environment/2011/jul/28/tequila-biofuel-agave", "type": "article", "sectionId": "environment", "sectionName": "Environment", "webPublicationDate": "2011-07-28T05:59:00Z", "webTitle": "Tequila gives new biofuel crops a shot", "webUrl": "https://www.theguardian.com/environment/2011/jul/28/tequila-biofuel-agave", "apiUrl": "https://content.guardianapis.com/environment/2011/jul/28/tequila-biofuel-agave", "isHosted": false, "pillarId": "pillar/news", "pillarName": "News"}, {"id": "environment/2011/jul/27/country-diary-achvaneran-highlands", "type": "article", "sectionId": "environment", "sectionName": "Environment", "webPublicationDate": "2011-07-27T22:01:00Z", "webTitle": "Country diary: Achvaneran, Highlands", "webUrl": "https://www.theguardian.com/environment/2011/jul/27/country-diary-achvaneran-highlands", "apiUrl": "https://content.guardianapis.com/environment/2011/jul/27/country-diary-achvaneran-highlands", "isHosted": false, "pillarId": "pillar/news", "pillarName": "News"}, {"id": "commentisfree/2011/jul/27/planning-laws-government-proposals-editorial", "type": "article", "sectionId": "commentisfree", "sectionName": "Opinion", "webPublicationDate": "2011-07-27T21:32:24Z", "webTitle": "Planning: Concrete proposals | Editorial", "webUrl": "https://www.theguardian.com/commentisfree/2011/jul/27/planning-laws-government-proposals-editorial", "apiUrl": "https://content.guardianapis.com/commentisfree/2011/jul/27/planning-laws-government-proposals-editorial", "isHosted": false, "pillarId": "pillar/opinion", "pillarName": "Opinion"}, {"id": "environment/2011/jul/27/brittany-beaches-toxic-algae-boars", "type": "article", "sectionId": "environment", "sectionName": "Environment", "webPublicationDate": "2011-07-27T20:13:36Z", "webTitle": "Brittany beaches hit by toxic algae", "webUrl": "https://www.theguardian.com/environment/2011/jul/27/brittany-beaches-toxic-algae-boars", "apiUrl": "https://content.guardianapis.com/environment/2011/jul/27/brittany-beaches-toxic-algae-boars", "isHosted": false, "pillarId": "pillar/news", "pillarName": "News"}, {"id": "world/2011/jul/27/french-axe-thousands-plane-trees", "type": "article", "sectionId": "world", "sectionName": "World news", "webPublicationDate": "2011-07-27T19:00:00Z", "webTitle": "French to say au revoir to canalside trees", "webUrl": "https://www.theguardian.com/world/2011/jul/27/french-axe-thousands-plane-trees", "apiUrl": "https://content.guardianapis.com/world/2011/jul/27/french-axe-thousands-plane-trees", "isHosted": false, "pillarId": "pillar/news", "pillarName": "News"}, {"id": "business/2011/jul/27/vedanta-protests-annual-meeting-pollution-human-rights", "type": "article", "sectionId": "business", "sectionName": "Business", "webPublicationDate": "2011-07-27T18:26:49Z", "webTitle": "Vedanta bosses clash with protesters over pollution and human rights", "webUrl": "https://www.theguardian.com/business/2011/jul/27/vedanta-protests-annual-meeting-pollution-human-rights", "apiUrl": "https://content.guardianapis.com/business/2011/jul/27/vedanta-protests-annual-meeting-pollution-human-rights", "isHosted": false, "pillarId": "pillar/news", "pillarName": "News"}, {"id": "environment/2011/jul/27/tim-dechristopher-prison-oil-protest", "type": "article", "sectionId": "environment", "sectionName": "Environment", "webPublicationDate": "2011-07-27T16:40:11Z", "webTitle": "Tim DeChristopher supporters issue oil protest 'call to action'", "webUrl": "https://www.theguardian.com/environment/2011/jul/27/tim-dechristopher-prison-oil-protest", "apiUrl": "https://content.guardianapis.com/environment/2011/jul/27/tim-dechristopher-prison-oil-protest", "isHosted": false, "pillarId": "pillar/news", "pillarName": "News"}, {"id": "environment/green-living-blog/2011/jul/27/green-ethical-moving-home-utilities", "type": "article", "sectionId": "environment", "sectionName": "Environment", "webPublicationDate": "2011-07-27T11:18:58Z", "webTitle": "How can I 'green-up' my new home? | Leo Hickman", "webUrl": "https://www.theguardian.com/environment/green-living-blog/2011/jul/27/green-ethical-moving-home-utilities", "apiUrl": "https://content.guardianapis.com/environment/green-living-blog/2011/jul/27/green-ethical-moving-home-utilities", "isHosted": false, "pillarId": "pillar/news", "pillarName": "News"}, {"id": "environment/2011/jul/27/1", "type": "article", "sectionId": "environment", "sectionName": "Environment", "webPublicationDate": "2011-07-27T11:12:22Z", "webTitle": "Green news roundup: Offshore wind, Euro-cycling and smuggled animals", "webUrl": "https://www.theguardian.com/environment/2011/jul/27/1", "apiUrl": "https://content.guardianapis.com/environment/2011/jul/27/1", "isHosted": false, "pillarId": "pillar/news", "pillarName": "News"}, {"id": "global-development/poverty-matters/2011/jul/27/africa-potential-to-feed-world", "type": "article", "sectionId": "global-development", "sectionName": "Global development", "webPublicationDate": "2011-07-27T10:24:00Z", "webTitle": "'Africa can feed the world' | Mark Tran", "webUrl": "https://www.theguardian.com/global-development/poverty-matters/2011/jul/27/africa-potential-to-feed-world", "apiUrl": "https://content.guardianapis.com/global-development/poverty-matters/2011/jul/27/africa-potential-to-feed-world", "isHosted": false, "pillarId": "pillar/news", "pillarName": "News"}, {"id": "environment/2011/jul/27/uk-offshore-wind-power", "type": "article", "sectionId": "environment", "sectionName": "Environment", "webPublicationDate": "2011-07-27T09:45:30Z", "webTitle": "UK sails ahead in offshore wind power generation", "webUrl": "https://www.theguardian.com/environment/2011/jul/27/uk-offshore-wind-power", "apiUrl": "https://content.guardianapis.com/environment/2011/jul/27/uk-offshore-wind-power", "isHosted": false, "pillarId": "pillar/news", "pillarName": "News"}, {"id": "environment/2011/jul/27/electric-motorway-green-cars", "type": "article", "sectionId": "environment", "sectionName": "Environment", "webPublicationDate": "2011-07-27T06:00:02Z", "webTitle": "Our electric highway will kickstart Britain's green car revolution | Dale Vince", "webUrl": "https://www.theguardian.com/environment/2011/jul/27/electric-motorway-green-cars", "apiUrl": "https://content.guardianapis.com/environment/2011/jul/27/electric-motorway-green-cars", "isHosted": false, "pillarId": "pillar/news", "pillarName": "News"}, {"id": "world/2011/jul/27/tim-dechristopher-jailed-two-years", "type": "article", "sectionId": "environment", "sectionName": "Environment", "webPublicationDate": "2011-07-27T00:13:19Z", "webTitle": "US eco-activist jailed for two years", "webUrl": "https://www.theguardian.com/world/2011/jul/27/tim-dechristopher-jailed-two-years", "apiUrl": "https://content.guardianapis.com/world/2011/jul/27/tim-dechristopher-jailed-two-years", "isHosted": false, "pillarId": "pillar/news", "pillarName": "News"}, {"id": "environment/2011/jul/26/country-diary-wenlock-edge", "type": "article", "sectionId": "environment", "sectionName": "Environment", "webPublicationDate": "2011-07-26T22:08:01Z", "webTitle": "Country diary: Wenlock Edge", "webUrl": "https://www.theguardian.com/environment/2011/jul/26/country-diary-wenlock-edge", "apiUrl": "https://content.guardianapis.com/environment/2011/jul/26/country-diary-wenlock-edge", "isHosted": false, "pillarId": "pillar/news", "pillarName": "News"}]}}