{"response": {"status": "ok", "userTier": "developer", "total": 91851, "startIndex": 1, "pageSize": 50, "currentPage": 1, "pages": 1838, "orderBy": "newest", "results": [{"id": "football/2014/jul/31/glazers-share-offer-manchester-united", "type": "article", "sectionId": "football", "sectionName": "Football", "webPublicationDate": "2014-07-30T23:57:41Z", "webTitle": "Glazers to make \u00a389m from new Manchester United share offer", "webUrl": "https://www.theguardian.com/football/2014/jul/31/glazers-share-offer-manchester-united", "apiUrl": "https://content.guardianapis.com/football/2014/jul/31/glazers-share-offer-manchester-united", "isHosted": false, "pillarId": "pillar/sport", "pillarName": "Sport"}, {"id": "football/2014/jul/30/wilfried-zaha-david-moyes-manchester-united-louis-van-gaal", "type": "article", "sectionId": "football", "sectionName": "Football", "webPublicationDate": "2014-07-30T21:30:07Z", "webTitle": "Wilfried Zaha: I was not David Moyes\u2019s cup of tea at Manchester United", "webUrl": "https://www.theguardian.com/football/2014/jul/30/wilfried-zaha-david-moyes-manchester-united-louis-van-gaal", "apiUrl": "https://content.guardianapis.com/football/2014/jul/30/wilfried-zaha-david-moyes-manchester-united-louis-van-gaal", "isHosted": false, "pillarId": "pillar/sport", "pillarName": "Sport"}, {"id": "global-development/2014/jul/30/fifa-monitor-qatar-treatment-migrant-world-cup-workers-closely", "type": "article", "sectionId": "global-development", "sectionName": "Global development", "webPublicationDate": "2014-07-30T18:16:21Z", "webTitle": "Fifa: we will monitor Qatar's treatment of migrant World Cup workers closely", "webUrl": "https://www.theguardian.com/global-development/2014/jul/30/fifa-monitor-qatar-treatment-migrant-world-cup-workers-closely", "apiUrl": "https://content.guardianapis.com/global-development/2014/jul/30/fifa-monitor-qatar-treatment-migrant-world-cup-workers-closely", "isHosted": false, "pillarId": "pillar/news", "pillarName": "News"}, {"id": "football/2014/jul/30/premier-league-introduce-vanishing-spray", "type": "article", "sectionId": "football", "sectionName": "Football", "webPublicationDate": "2014-07-30T16:32:43Z", "webTitle": "Premier League referees will use vanishing spray in new season", "webUrl": "https://www.theguardian.com/football/2014/jul/30/premier-league-introduce-vanishing-spray", "apiUrl": "https://content.guardianapis.com/football/2014/jul/30/premier-league-introduce-vanishing-spray", "isHosted": false, "pillarId": "pillar/sport", "pillarName": "Sport"}, {"id": "football/2014/jul/30/the-fiver-mr-perfect", "type": "article", "sectionId": "football", "sectionName": "Football", "webPublicationDate": "2014-07-30T15:32:06Z", "webTitle": "The Fiver | Mr Perfect", "webUrl": "https://www.theguardian.com/football/2014/jul/30/the-fiver-mr-perfect", "apiUrl": "https://content.guardianapis.com/football/2014/jul/30/the-fiver-mr-perfect", "isHosted": false, "pillarId": "pillar/sport", "pillarName": "Sport"}, {"id": "football/2014/jul/30/everton-sign-romelu-lukaku-chelsea", "type": "article", "sectionId": "football", "sectionName": "Football", "webPublicationDate": "2014-07-30T14:13:35Z", "webTitle": "Everton close to completing deal to sign Romelu Lukaku from Chelsea", "webUrl": "https://www.theguardian.com/football/2014/jul/30/everton-sign-romelu-lukaku-chelsea", "apiUrl": "https://content.guardianapis.com/football/2014/jul/30/everton-sign-romelu-lukaku-chelsea", "isHosted": false, "pillarId": "pillar/sport", "pillarName": "Sport"}, {"id": "media/greenslade/2014/jul/30/mazher-mahmood-sun-on-sunday", "type": "article", "sectionId": "media", "sectionName": "Media", "webPublicationDate": "2014-07-30T13:39:00Z", "webTitle": "13 arrested after fake sheikh story are released from police bail", "webUrl": "https://www.theguardian.com/media/greenslade/2014/jul/30/mazher-mahmood-sun-on-sunday", "apiUrl": "https://content.guardianapis.com/media/greenslade/2014/jul/30/mazher-mahmood-sun-on-sunday", "isHosted": false, "pillarId": "pillar/news", "pillarName": "News"}, {"id": "football/2014/jul/30/pepe-syedou-keita-row-real-madrid-roma", "type": "article", "sectionId": "football", "sectionName": "Football", "webPublicationDate": "2014-07-30T13:11:04Z", "webTitle": "Real Madrid and Roma brawl after Seydou Keita and Pepe reignite feud", "webUrl": "https://www.theguardian.com/football/2014/jul/30/pepe-syedou-keita-row-real-madrid-roma", "apiUrl": "https://content.guardianapis.com/football/2014/jul/30/pepe-syedou-keita-row-real-madrid-roma", "isHosted": false, "pillarId": "pillar/sport", "pillarName": "Sport"}, {"id": "football/video/2014/jul/30/manchester-city-premier-league-manuel-pellegrini-video", "type": "video", "sectionId": "football", "sectionName": "Football", "webPublicationDate": "2014-07-30T10:27:00Z", "webTitle": "Manchester City face tough fight for Premier League title, says Manuel Pellegrini \u2013 video", "webUrl": "https://www.theguardian.com/football/video/2014/jul/30/manchester-city-premier-league-manuel-pellegrini-video", "apiUrl": "https://content.guardianapis.com/football/video/2014/jul/30/manchester-city-premier-league-manuel-pellegrini-video", "isHosted": false, "pillarId": "pillar/sport", "pillarName": "Sport"}, {"id": "football/video/2014/jul/30/liverpool-divock-origi-brendan-rogers-video", "type": "video", "sectionId": "football", "sectionName": "Football", "webPublicationDate": "2014-07-30T09:08:00Z", "webTitle": "Liverpool delighted to sign Divock Origi, says Brendan Rogers \u2013 video", "webUrl": "https://www.theguardian.com/football/video/2014/jul/30/liverpool-divock-origi-brendan-rogers-video", "apiUrl": "https://content.guardianapis.com/football/video/2014/jul/30/liverpool-divock-origi-brendan-rogers-video", "isHosted": false, "pillarId": "pillar/sport", "pillarName": "Sport"}, {"id": "football/blog/2014/jul/30/luzenac-french-fairytale", "type": "article", "sectionId": "football", "sectionName": "Football", "webPublicationDate": "2014-07-30T08:22:34Z", "webTitle": "Will tiny Luzenac be stopped from continuing their French fairytale? | Paul Doyle", "webUrl": "https://www.theguardian.com/football/blog/2014/jul/30/luzenac-french-fairytale", "apiUrl": "https://content.guardianapis.com/football/blog/2014/jul/30/luzenac-french-fairytale", "isHosted": false, "pillarId": "pillar/sport", "pillarName": "Sport"}, {"id": "football/2014/jul/30/football-transfer-rumours-wilfried-bony-tottenham", "type": "article", "sectionId": "football", "sectionName": "Football", "webPublicationDate": "2014-07-30T08:04:08Z", "webTitle": "Football transfer rumours: Wilfried Bony to Tottenham?", "webUrl": "https://www.theguardian.com/football/2014/jul/30/football-transfer-rumours-wilfried-bony-tottenham", "apiUrl": "https://content.guardianapis.com/football/2014/jul/30/football-transfer-rumours-wilfried-bony-tottenham", "isHosted": false, "pillarId": "pillar/sport", "pillarName": "Sport"}, {"id": "football/2014/jul/30/luke-shaw-manchester-united-fitness", "type": "article", "sectionId": "football", "sectionName": "Football", "webPublicationDate": "2014-07-30T02:54:50Z", "webTitle": "Luke Shaw lucky to play in Manchester United friendly, says Louis van Gaal", "webUrl": "https://www.theguardian.com/football/2014/jul/30/luke-shaw-manchester-united-fitness", "apiUrl": "https://content.guardianapis.com/football/2014/jul/30/luke-shaw-manchester-united-fitness", "isHosted": false, "pillarId": "pillar/sport", "pillarName": "Sport"}, {"id": "football/2014/jul/30/manchester-united-internazionale-friendly-match-report", "type": "article", "sectionId": "football", "sectionName": "Football", "webPublicationDate": "2014-07-30T02:34:39Z", "webTitle": "Manchester United 0-0 Internazionale (5-3 pens) | Match report", "webUrl": "https://www.theguardian.com/football/2014/jul/30/manchester-united-internazionale-friendly-match-report", "apiUrl": "https://content.guardianapis.com/football/2014/jul/30/manchester-united-internazionale-friendly-match-report", "isHosted": false, "pillarId": "pillar/sport", "pillarName": "Sport"}, {"id": "football/2014/jul/30/the-knowledge-aston-villa-players-penalties", "type": "article", "sectionId": "football", "sectionName": "Football", "webPublicationDate": "2014-07-29T23:02:00Z", "webTitle": "Should Aston Villa players be allowed to take penalties in shootouts?", "webUrl": "https://www.theguardian.com/football/2014/jul/30/the-knowledge-aston-villa-players-penalties", "apiUrl": "https://content.guardianapis.com/football/2014/jul/30/the-knowledge-aston-villa-players-penalties", "isHosted": false, "pillarId": "pillar/sport", "pillarName": "Sport"}, {"id": "football/2014/jul/29/ray-whelan-still-prison-doubts-world-cup-touting-charges", "type": "article", "sectionId": "football", "sectionName": "Football", "webPublicationDate": "2014-07-29T22:41:45Z", "webTitle": "Ray Whelan still in prison amid doubts over World Cup touting charges", "webUrl": "https://www.theguardian.com/football/2014/jul/29/ray-whelan-still-prison-doubts-world-cup-touting-charges", "apiUrl": "https://content.guardianapis.com/football/2014/jul/29/ray-whelan-still-prison-doubts-world-cup-touting-charges", "isHosted": false, "pillarId": "pillar/sport", "pillarName": "Sport"}, {"id": "football/2014/jul/29/louis-van-gaal-manchester-united-q-and-a", "type": "article", "sectionId": "football", "sectionName": "Football", "webPublicationDate": "2014-07-29T22:40:00Z", "webTitle": "Louis van Gaal: \u2018We are changing way United play \u2013 that\u2019s hard for them\u2019", "webUrl": "https://www.theguardian.com/football/2014/jul/29/louis-van-gaal-manchester-united-q-and-a", "apiUrl": "https://content.guardianapis.com/football/2014/jul/29/louis-van-gaal-manchester-united-q-and-a", "isHosted": false, "pillarId": "pillar/sport", "pillarName": "Sport"}, {"id": "football/blog/2014/jul/30/from-rhodes-to-brisbane-the-ffa-cup-is-finally-born", "type": "article", "sectionId": "football", "sectionName": "Football", "webPublicationDate": "2014-07-29T22:33:54Z", "webTitle": "From Rhodes to Brisbane, the FFA Cup is finally born", "webUrl": "https://www.theguardian.com/football/blog/2014/jul/30/from-rhodes-to-brisbane-the-ffa-cup-is-finally-born", "apiUrl": "https://content.guardianapis.com/football/blog/2014/jul/30/from-rhodes-to-brisbane-the-ffa-cup-is-finally-born", "isHosted": false, "pillarId": "pillar/sport", "pillarName": "Sport"}, {"id": "football/2014/jul/29/yaya-toure-stay-manchester-city-as-long-as-possible", "type": "article", "sectionId": "football", "sectionName": "Football", "webPublicationDate": "2014-07-29T21:55:00Z", "webTitle": "Yaya Tour\u00e9 says he will stay at Manchester City \u2018as long as possible\u2019", "webUrl": "https://www.theguardian.com/football/2014/jul/29/yaya-toure-stay-manchester-city-as-long-as-possible", "apiUrl": "https://content.guardianapis.com/football/2014/jul/29/yaya-toure-stay-manchester-city-as-long-as-possible", "isHosted": false, "pillarId": "pillar/sport", "pillarName": "Sport"}, {"id": "football/2014/jul/29/manchester-united-louis-van-gaal-vows-not-provoked-jose-mourinho", "type": "article", "sectionId": "football", "sectionName": "Football", "webPublicationDate": "2014-07-29T21:41:00Z", "webTitle": "Manchester United\u2019s Louis van Gaal vows not to be provoked by Mourinho", "webUrl": "https://www.theguardian.com/football/2014/jul/29/manchester-united-louis-van-gaal-vows-not-provoked-jose-mourinho", "apiUrl": "https://content.guardianapis.com/football/2014/jul/29/manchester-united-louis-van-gaal-vows-not-provoked-jose-mourinho", "isHosted": false, "pillarId": "pillar/sport", "pillarName": "Sport"}, {"id": "football/2014/jul/29/morgan-schneiderlin-hits-out-saints-spurs-twitter", "type": "article", "sectionId": "football", "sectionName": "Football", "webPublicationDate": "2014-07-29T20:33:51Z", "webTitle": "Morgan Schneiderlin hits out at Saints over blocked move to Spurs", "webUrl": "https://www.theguardian.com/football/2014/jul/29/morgan-schneiderlin-hits-out-saints-spurs-twitter", "apiUrl": "https://content.guardianapis.com/football/2014/jul/29/morgan-schneiderlin-hits-out-saints-spurs-twitter", "isHosted": false, "pillarId": "pillar/sport", "pillarName": "Sport"}, {"id": "football/video/2014/jul/29/barcelona-train-st-georges-park-ahead-video", "type": "video", "sectionId": "football", "sectionName": "Football", "webPublicationDate": "2014-07-29T20:07:00Z", "webTitle": "Barcelona train at St George's Park ahead of the new season - video", "webUrl": "https://www.theguardian.com/football/video/2014/jul/29/barcelona-train-st-georges-park-ahead-video", "apiUrl": "https://content.guardianapis.com/football/video/2014/jul/29/barcelona-train-st-georges-park-ahead-video", "isHosted": false, "pillarId": "pillar/sport", "pillarName": "Sport"}, {"id": "football/2014/jul/29/ross-barkley-everton-new-contract-manchester-united", "type": "article", "sectionId": "football", "sectionName": "Football", "webPublicationDate": "2014-07-29T18:46:00Z", "webTitle": "Ross Barkley signs new four-year contract at Everton", "webUrl": "https://www.theguardian.com/football/2014/jul/29/ross-barkley-everton-new-contract-manchester-united", "apiUrl": "https://content.guardianapis.com/football/2014/jul/29/ross-barkley-everton-new-contract-manchester-united", "isHosted": false, "pillarId": "pillar/sport", "pillarName": "Sport"}, {"id": "football/blog/2014/jul/29/southampton-playing-with-fire-sales-assets-manager-ronald-koeman", "type": "article", "sectionId": "football", "sectionName": "Football", "webPublicationDate": "2014-07-29T17:35:21Z", "webTitle": "Southampton are playing with fire but will sales leave them burned? | David Hytner", "webUrl": "https://www.theguardian.com/football/blog/2014/jul/29/southampton-playing-with-fire-sales-assets-manager-ronald-koeman", "apiUrl": "https://content.guardianapis.com/football/blog/2014/jul/29/southampton-playing-with-fire-sales-assets-manager-ronald-koeman", "isHosted": false, "pillarId": "pillar/sport", "pillarName": "Sport"}, {"id": "football/2014/jul/29/liverpool-complete-divock-origi-deal", "type": "article", "sectionId": "football", "sectionName": "Football", "webPublicationDate": "2014-07-29T16:22:11Z", "webTitle": "Liverpool complete \u00a310m signing of Divock Origi from Lille", "webUrl": "https://www.theguardian.com/football/2014/jul/29/liverpool-complete-divock-origi-deal", "apiUrl": "https://content.guardianapis.com/football/2014/jul/29/liverpool-complete-divock-origi-deal", "isHosted": false, "pillarId": "pillar/sport", "pillarName": "Sport"}, {"id": "football/2014/jul/29/carlos-tevez-father-kidnapped-held-ransom", "type": "article", "sectionId": "football", "sectionName": "Football", "webPublicationDate": "2014-07-29T15:53:01Z", "webTitle": "Carlos Tevez\u2019s father released by kidnappers in Argentina", "webUrl": "https://www.theguardian.com/football/2014/jul/29/carlos-tevez-father-kidnapped-held-ransom", "apiUrl": "https://content.guardianapis.com/football/2014/jul/29/carlos-tevez-father-kidnapped-held-ransom", "isHosted": false, "pillarId": "pillar/sport", "pillarName": "Sport"}, {"id": "football/blog/2014/jul/29/carlo-tavecchio-italy-racism", "type": "article", "sectionId": "football", "sectionName": "Football", "webPublicationDate": "2014-07-29T15:31:56Z", "webTitle": "Carlo Tavecchio still set for top job in Italian football despite racist comment | Lizzy Davies", "webUrl": "https://www.theguardian.com/football/blog/2014/jul/29/carlo-tavecchio-italy-racism", "apiUrl": "https://content.guardianapis.com/football/blog/2014/jul/29/carlo-tavecchio-italy-racism", "isHosted": false, "pillarId": "pillar/sport", "pillarName": "Sport"}, {"id": "sport/2014/jul/29/mls-five-things-galaxy-sounders", "type": "article", "sectionId": "football", "sectionName": "Football", "webPublicationDate": "2014-07-29T15:03:03Z", "webTitle": "Five things we learned in MLS: Galaxy stun Sounders, and KC grind it out", "webUrl": "https://www.theguardian.com/sport/2014/jul/29/mls-five-things-galaxy-sounders", "apiUrl": "https://content.guardianapis.com/sport/2014/jul/29/mls-five-things-galaxy-sounders", "isHosted": false, "pillarId": "pillar/sport", "pillarName": "Sport"}, {"id": "football/2014/jul/29/harry-maguire-hull-city-sheffield-united-transfer", "type": "article", "sectionId": "football", "sectionName": "Football", "webPublicationDate": "2014-07-29T14:56:48Z", "webTitle": "Harry Maguire completes \u00a32.5m switch from Sheffield United to Hull", "webUrl": "https://www.theguardian.com/football/2014/jul/29/harry-maguire-hull-city-sheffield-united-transfer", "apiUrl": "https://content.guardianapis.com/football/2014/jul/29/harry-maguire-hull-city-sheffield-united-transfer", "isHosted": false, "pillarId": "pillar/sport", "pillarName": "Sport"}, {"id": "football/2014/jul/29/the-fiver-luke-shaw-manchester-united", "type": "article", "sectionId": "football", "sectionName": "Football", "webPublicationDate": "2014-07-29T14:43:06Z", "webTitle": "The Fiver | Sentenced to solitary | Paul Doyle", "webUrl": "https://www.theguardian.com/football/2014/jul/29/the-fiver-luke-shaw-manchester-united", "apiUrl": "https://content.guardianapis.com/football/2014/jul/29/the-fiver-luke-shaw-manchester-united", "isHosted": false, "pillarId": "pillar/sport", "pillarName": "Sport"}, {"id": "football/2014/jul/29/paul-scholes-manchester-united-bt-pundit", "type": "article", "sectionId": "football", "sectionName": "Football", "webPublicationDate": "2014-07-29T13:49:40Z", "webTitle": "Former Manchester United midfielder Paul Scholes signs for BT", "webUrl": "https://www.theguardian.com/football/2014/jul/29/paul-scholes-manchester-united-bt-pundit", "apiUrl": "https://content.guardianapis.com/football/2014/jul/29/paul-scholes-manchester-united-bt-pundit", "isHosted": false, "pillarId": "pillar/sport", "pillarName": "Sport"}, {"id": "global-development/2014/jul/29/qatar-world-cup-stadium-workers-earn-45p-hour", "type": "article", "sectionId": "global", "sectionName": "Global", "webPublicationDate": "2014-07-29T13:34:39Z", "webTitle": "Qatar World Cup stadium workers earn as little as 45p an hour", "webUrl": "https://www.theguardian.com/global-development/2014/jul/29/qatar-world-cup-stadium-workers-earn-45p-hour", "apiUrl": "https://content.guardianapis.com/global-development/2014/jul/29/qatar-world-cup-stadium-workers-earn-45p-hour", "isHosted": false}, {"id": "football/2014/jul/29/match-fixing-thailand-emerald-buddha", "type": "article", "sectionId": "football", "sectionName": "Football", "webPublicationDate": "2014-07-29T12:19:32Z", "webTitle": "How to beat match-fixing, Thai-style: swear an oath to the Emerald Buddha", "webUrl": "https://www.theguardian.com/football/2014/jul/29/match-fixing-thailand-emerald-buddha", "apiUrl": "https://content.guardianapis.com/football/2014/jul/29/match-fixing-thailand-emerald-buddha", "isHosted": false, "pillarId": "pillar/sport", "pillarName": "Sport"}, {"id": "global-development/video/2014/jul/29/qatar-world-cup-2022-construction-workers-accommodation-video", "type": "video", "sectionId": "global-development", "sectionName": "Global development", "webPublicationDate": "2014-07-29T12:05:00Z", "webTitle": "Qatar World Cup 2022: inside construction workers' accommodation \u2013 video", "webUrl": "https://www.theguardian.com/global-development/video/2014/jul/29/qatar-world-cup-2022-construction-workers-accommodation-video", "apiUrl": "https://content.guardianapis.com/global-development/video/2014/jul/29/qatar-world-cup-2022-construction-workers-accommodation-video", "isHosted": false, "pillarId": "pillar/news", "pillarName": "News"}, {"id": "global-development/2014/jul/29/qatar-world-cup-migrant-workers-fifa-chief", "type": "article", "sectionId": "global-development", "sectionName": "Global development", "webPublicationDate": "2014-07-29T10:31:21Z", "webTitle": "Qatar World Cup: Fifa vice-president demands payment of migrant workers", "webUrl": "https://www.theguardian.com/global-development/2014/jul/29/qatar-world-cup-migrant-workers-fifa-chief", "apiUrl": "https://content.guardianapis.com/global-development/2014/jul/29/qatar-world-cup-migrant-workers-fifa-chief", "isHosted": false, "pillarId": "pillar/news", "pillarName": "News"}, {"id": "football/video/2014/jul/29/luke-shaw-manchester-united-louis-van-gaal-video", "type": "video", "sectionId": "football", "sectionName": "Football", "webPublicationDate": "2014-07-29T09:35:00Z", "webTitle": "Luke Shaw working to improve fitness, says Manchester United coach Louis van Gaal \u2013 video", "webUrl": "https://www.theguardian.com/football/video/2014/jul/29/luke-shaw-manchester-united-louis-van-gaal-video", "apiUrl": "https://content.guardianapis.com/football/video/2014/jul/29/luke-shaw-manchester-united-louis-van-gaal-video", "isHosted": false, "pillarId": "pillar/sport", "pillarName": "Sport"}, {"id": "football/video/2014/jul/29/rio-ferdinand-qpr-video", "type": "video", "sectionId": "football", "sectionName": "Football", "webPublicationDate": "2014-07-29T08:51:00Z", "webTitle": "Rio Ferdinand: move to QPR a fairytale finish to career \u2013 video", "webUrl": "https://www.theguardian.com/football/video/2014/jul/29/rio-ferdinand-qpr-video", "apiUrl": "https://content.guardianapis.com/football/video/2014/jul/29/rio-ferdinand-qpr-video", "isHosted": false, "pillarId": "pillar/sport", "pillarName": "Sport"}, {"id": "football/2014/jul/29/west-ham-qpr-mathieu-valbuena", "type": "article", "sectionId": "football", "sectionName": "Football", "webPublicationDate": "2014-07-29T08:41:30Z", "webTitle": "West Ham join chase for France midfielder Mathieu Valbuena", "webUrl": "https://www.theguardian.com/football/2014/jul/29/west-ham-qpr-mathieu-valbuena", "apiUrl": "https://content.guardianapis.com/football/2014/jul/29/west-ham-qpr-mathieu-valbuena", "isHosted": false, "pillarId": "pillar/sport", "pillarName": "Sport"}, {"id": "football/2014/jul/29/football-transfer-rumours-ross-barkley-manchester-united", "type": "article", "sectionId": "football", "sectionName": "Football", "webPublicationDate": "2014-07-29T08:25:33Z", "webTitle": "Football transfer rumours: Ross Barkley to Manchester United?", "webUrl": "https://www.theguardian.com/football/2014/jul/29/football-transfer-rumours-ross-barkley-manchester-united", "apiUrl": "https://content.guardianapis.com/football/2014/jul/29/football-transfer-rumours-ross-barkley-manchester-united", "isHosted": false, "pillarId": "pillar/sport", "pillarName": "Sport"}, {"id": "football/2014/jul/29/louis-van-gaal-luke-shaw-manchester-united", "type": "article", "sectionId": "football", "sectionName": "Football", "webPublicationDate": "2014-07-29T04:16:44Z", "webTitle": "Manchester United's Louis van Gaal tells Luke Shaw to work on fitness", "webUrl": "https://www.theguardian.com/football/2014/jul/29/louis-van-gaal-luke-shaw-manchester-united", "apiUrl": "https://content.guardianapis.com/football/2014/jul/29/louis-van-gaal-luke-shaw-manchester-united", "isHosted": false, "pillarId": "pillar/sport", "pillarName": "Sport"}, {"id": "football/2014/jul/29/louis-van-gaal-broken-manchester-united-squad-david-moyes", "type": "article", "sectionId": "football", "sectionName": "Football", "webPublicationDate": "2014-07-29T00:08:00Z", "webTitle": "Louis van Gaal: I have inherited a broken Manchester United squad", "webUrl": "https://www.theguardian.com/football/2014/jul/29/louis-van-gaal-broken-manchester-united-squad-david-moyes", "apiUrl": "https://content.guardianapis.com/football/2014/jul/29/louis-van-gaal-broken-manchester-united-squad-david-moyes", "isHosted": false, "pillarId": "pillar/sport", "pillarName": "Sport"}, {"id": "football/gallery/2014/jul/29/steven-gerrard-england-career-gallery", "type": "gallery", "sectionId": "football", "sectionName": "Football", "webPublicationDate": "2014-07-28T23:05:00Z", "webTitle": "Steven Gerrard's England career | The Gallery", "webUrl": "https://www.theguardian.com/football/gallery/2014/jul/29/steven-gerrard-england-career-gallery", "apiUrl": "https://content.guardianapis.com/football/gallery/2014/jul/29/steven-gerrard-england-career-gallery", "isHosted": false, "pillarId": "pillar/sport", "pillarName": "Sport"}, {"id": "football/2014/jul/28/manchester-united-talks-napoli-marouane-fellaini-shinji-kagawa", "type": "article", "sectionId": "football", "sectionName": "Football", "webPublicationDate": "2014-07-28T22:06:00Z", "webTitle": "Manchester United hold talks with Napoli over Marouane Fellaini exit", "webUrl": "https://www.theguardian.com/football/2014/jul/28/manchester-united-talks-napoli-marouane-fellaini-shinji-kagawa", "apiUrl": "https://content.guardianapis.com/football/2014/jul/28/manchester-united-talks-napoli-marouane-fellaini-shinji-kagawa", "isHosted": false, "pillarId": "pillar/sport", "pillarName": "Sport"}, {"id": "football/2014/jul/28/louis-van-gaal-manchester-united-usa-tour", "type": "article", "sectionId": "football", "sectionName": "Football", "webPublicationDate": "2014-07-28T21:30:00Z", "webTitle": "Louis van Gaal to decide on extent of Manchester United\u2019s USA return", "webUrl": "https://www.theguardian.com/football/2014/jul/28/louis-van-gaal-manchester-united-usa-tour", "apiUrl": "https://content.guardianapis.com/football/2014/jul/28/louis-van-gaal-manchester-united-usa-tour", "isHosted": false, "pillarId": "pillar/sport", "pillarName": "Sport"}, {"id": "football/2014/jul/28/southampton-morgan-schneiderlin-jay-rodriguez-tottenham", "type": "article", "sectionId": "football", "sectionName": "Football", "webPublicationDate": "2014-07-28T18:12:14Z", "webTitle": "Southampton\u2019s Morgan Schneiderlin and Jay Rodriguez set for Tottenham", "webUrl": "https://www.theguardian.com/football/2014/jul/28/southampton-morgan-schneiderlin-jay-rodriguez-tottenham", "apiUrl": "https://content.guardianapis.com/football/2014/jul/28/southampton-morgan-schneiderlin-jay-rodriguez-tottenham", "isHosted": false, "pillarId": "pillar/sport", "pillarName": "Sport"}, {"id": "commentisfree/2014/jul/28/qatar-migrant-workers-world-cup-exploited-unpaid", "type": "article", "sectionId": "commentisfree", "sectionName": "Opinion", "webPublicationDate": "2014-07-28T16:51:31Z", "webTitle": "Qatar\u2019s migrant workers have been abandoned | James Lynch", "webUrl": "https://www.theguardian.com/commentisfree/2014/jul/28/qatar-migrant-workers-world-cup-exploited-unpaid", "apiUrl": "https://content.guardianapis.com/commentisfree/2014/jul/28/qatar-migrant-workers-world-cup-exploited-unpaid", "isHosted": false, "pillarId": "pillar/opinion", "pillarName": "Opinion"}, {"id": "football/2014/jul/28/everton-sign-muhamed-besic-ferencvaros", "type": "article", "sectionId": "football", "sectionName": "Football", "webPublicationDate": "2014-07-28T16:38:45Z", "webTitle": "Everton sign Muhamed Besic from Ferencvaros for \u00a34m", "webUrl": "https://www.theguardian.com/football/2014/jul/28/everton-sign-muhamed-besic-ferencvaros", "apiUrl": "https://content.guardianapis.com/football/2014/jul/28/everton-sign-muhamed-besic-ferencvaros", "isHosted": false, "pillarId": "pillar/sport", "pillarName": "Sport"}, {"id": "football/2014/jul/28/the-fiver-kevin-the-budgie", "type": "article", "sectionId": "football", "sectionName": "Football", "webPublicationDate": "2014-07-28T15:34:44Z", "webTitle": "The Fiver | Kevin the Budgie", "webUrl": "https://www.theguardian.com/football/2014/jul/28/the-fiver-kevin-the-budgie", "apiUrl": "https://content.guardianapis.com/football/2014/jul/28/the-fiver-kevin-the-budgie", "isHosted": false, "pillarId": "pillar/sport", "pillarName": "Sport"}, {"id": "football/blog/2014/jul/28/premier-league-ticket-prices-football", "type": "article", "sectionId": "football", "sectionName": "Football", "webPublicationDate": "2014-07-28T15:12:27Z", "webTitle": "Premier League ticket prices defy the very culture that built the game | David Conn", "webUrl": "https://www.theguardian.com/football/blog/2014/jul/28/premier-league-ticket-prices-football", "apiUrl": "https://content.guardianapis.com/football/blog/2014/jul/28/premier-league-ticket-prices-football", "isHosted": false, "pillarId": "pillar/sport", "pillarName": "Sport"}, {"id": "football/2014/jul/28/arsenal-sign-calum-chambers-southampton", "type": "article", "sectionId": "football", "sectionName": "Football", "webPublicationDate": "2014-07-28T14:25:30Z", "webTitle": "Arsenal sign Calum Chambers from Southampton in deal rising to \u00a316m", "webUrl": "https://www.theguardian.com/football/2014/jul/28/arsenal-sign-calum-chambers-southampton", "apiUrl": "https://content.guardianapis.com/football/2014/jul/28/arsenal-sign-calum-chambers-southampton", "isHosted": false, "pillarId": "pillar/sport", "pillarName": "Sport"}]}}