{"response": {"status": "ok", "userTier": "developer", "total": 19144, "startIndex": 1, "pageSize": 50, "currentPage": 1, "pages": 383, "orderBy": "newest", "results": [{"id": "lifeandstyle/wordofmouth/2013/jul/30/tripadvisor-restaurant-reviews-trust-travel", "type": "article", "sectionId": "lifeandstyle", "sectionName": "Life and style", "webPublicationDate": "2013-07-30T11:43:25Z", "webTitle": "TripAdvisor restaurant reviews: how much can you trust them?", "webUrl": "https://www.theguardian.com/lifeandstyle/wordofmouth/2013/jul/30/tripadvisor-restaurant-reviews-trust-travel", "apiUrl": "https://content.guardianapis.com/lifeandstyle/wordofmouth/2013/jul/30/tripadvisor-restaurant-reviews-trust-travel", "isHosted": false, "pillarId": "pillar/lifestyle", "pillarName": "Lifestyle"}, {"id": "lifeandstyle/2013/jul/30/20-summer-recipes-soups-middle-east", "type": "article", "sectionId": "food", "sectionName": "Food", "webPublicationDate": "2013-07-30T07:00:00Z", "webTitle": "20 great summer recipes: 6-10", "webUrl": "https://www.theguardian.com/lifeandstyle/2013/jul/30/20-summer-recipes-soups-middle-east", "apiUrl": "https://content.guardianapis.com/lifeandstyle/2013/jul/30/20-summer-recipes-soups-middle-east", "isHosted": false, "pillarId": "pillar/lifestyle", "pillarName": "Lifestyle"}, {"id": "lifeandstyle/australia-food-blog/video/2013/jul/30/dan-lepard-baking-pumpkin-cupcakes-video", "type": "video", "sectionId": "tv-and-radio", "sectionName": "Television & radio", "webPublicationDate": "2013-07-30T01:09:00Z", "webTitle": "Dan Lepard's Australian Baking Bible: pumpkin and ginger cupcakes recipe - video", "webUrl": "https://www.theguardian.com/lifeandstyle/australia-food-blog/video/2013/jul/30/dan-lepard-baking-pumpkin-cupcakes-video", "apiUrl": "https://content.guardianapis.com/lifeandstyle/australia-food-blog/video/2013/jul/30/dan-lepard-baking-pumpkin-cupcakes-video", "isHosted": false, "pillarId": "pillar/arts", "pillarName": "Arts"}, {"id": "business/2013/jul/29/heawave-ice-cream-sales", "type": "article", "sectionId": "business", "sectionName": "Business", "webPublicationDate": "2013-07-29T18:14:07Z", "webTitle": "Heatwave boosts ice-cream makers after 2012 washout", "webUrl": "https://www.theguardian.com/business/2013/jul/29/heawave-ice-cream-sales", "apiUrl": "https://content.guardianapis.com/business/2013/jul/29/heawave-ice-cream-sales", "isHosted": false, "pillarId": "pillar/news", "pillarName": "News"}, {"id": "lifeandstyle/2013/jul/29/tapenade-recipe-for-kids", "type": "article", "sectionId": "food", "sectionName": "Food", "webPublicationDate": "2013-07-29T14:00:04Z", "webTitle": "A tapenade recipe for kids", "webUrl": "https://www.theguardian.com/lifeandstyle/2013/jul/29/tapenade-recipe-for-kids", "apiUrl": "https://content.guardianapis.com/lifeandstyle/2013/jul/29/tapenade-recipe-for-kids", "isHosted": false, "pillarId": "pillar/lifestyle", "pillarName": "Lifestyle"}, {"id": "lifeandstyle/2013/jul/29/chicken-kievs-for-kids", "type": "article", "sectionId": "food", "sectionName": "Food", "webPublicationDate": "2013-07-29T14:00:02Z", "webTitle": "Chicken kievs for kids", "webUrl": "https://www.theguardian.com/lifeandstyle/2013/jul/29/chicken-kievs-for-kids", "apiUrl": "https://content.guardianapis.com/lifeandstyle/2013/jul/29/chicken-kievs-for-kids", "isHosted": false, "pillarId": "pillar/lifestyle", "pillarName": "Lifestyle"}, {"id": "lifeandstyle/2013/jul/29/courgette-pikelets-in-pitta-bread-for-kids", "type": "article", "sectionId": "food", "sectionName": "Food", "webPublicationDate": "2013-07-29T14:00:00Z", "webTitle": "Courgette pikelets in pitta bread with sesame dressing", "webUrl": "https://www.theguardian.com/lifeandstyle/2013/jul/29/courgette-pikelets-in-pitta-bread-for-kids", "apiUrl": "https://content.guardianapis.com/lifeandstyle/2013/jul/29/courgette-pikelets-in-pitta-bread-for-kids", "isHosted": false, "pillarId": "pillar/lifestyle", "pillarName": "Lifestyle"}, {"id": "lifeandstyle/2013/jul/29/pizza-omelette-for-kids", "type": "article", "sectionId": "food", "sectionName": "Food", "webPublicationDate": "2013-07-29T14:00:00Z", "webTitle": "Pizza omelette for kids", "webUrl": "https://www.theguardian.com/lifeandstyle/2013/jul/29/pizza-omelette-for-kids", "apiUrl": "https://content.guardianapis.com/lifeandstyle/2013/jul/29/pizza-omelette-for-kids", "isHosted": false, "pillarId": "pillar/lifestyle", "pillarName": "Lifestyle"}, {"id": "lifeandstyle/2013/jul/29/sticky-toffee-pudding-for-kids", "type": "article", "sectionId": "lifeandstyle", "sectionName": "Life and style", "webPublicationDate": "2013-07-29T14:00:00Z", "webTitle": "Sticky toffee pudding in a jar for kids", "webUrl": "https://www.theguardian.com/lifeandstyle/2013/jul/29/sticky-toffee-pudding-for-kids", "apiUrl": "https://content.guardianapis.com/lifeandstyle/2013/jul/29/sticky-toffee-pudding-for-kids", "isHosted": false, "pillarId": "pillar/lifestyle", "pillarName": "Lifestyle"}, {"id": "lifeandstyle/2013/jul/29/jamaican-hotpot-with-spinners-for-kids", "type": "article", "sectionId": "lifeandstyle", "sectionName": "Life and style", "webPublicationDate": "2013-07-29T14:00:00Z", "webTitle": "Jamaican hotpot with spinners for kids", "webUrl": "https://www.theguardian.com/lifeandstyle/2013/jul/29/jamaican-hotpot-with-spinners-for-kids", "apiUrl": "https://content.guardianapis.com/lifeandstyle/2013/jul/29/jamaican-hotpot-with-spinners-for-kids", "isHosted": false, "pillarId": "pillar/lifestyle", "pillarName": "Lifestyle"}, {"id": "lifeandstyle/2013/jul/29/puffed-rice-fish-fingers-with-tangy-mayo", "type": "article", "sectionId": "food", "sectionName": "Food", "webPublicationDate": "2013-07-29T14:00:00Z", "webTitle": "Puffed rice fish fingers for kids", "webUrl": "https://www.theguardian.com/lifeandstyle/2013/jul/29/puffed-rice-fish-fingers-with-tangy-mayo", "apiUrl": "https://content.guardianapis.com/lifeandstyle/2013/jul/29/puffed-rice-fish-fingers-with-tangy-mayo", "isHosted": false, "pillarId": "pillar/lifestyle", "pillarName": "Lifestyle"}, {"id": "lifeandstyle/2013/jul/29/orange-crisps-biscuits-recipe", "type": "article", "sectionId": "food", "sectionName": "Food", "webPublicationDate": "2013-07-29T14:00:00Z", "webTitle": "Orange crisp biscuits for kids", "webUrl": "https://www.theguardian.com/lifeandstyle/2013/jul/29/orange-crisps-biscuits-recipe", "apiUrl": "https://content.guardianapis.com/lifeandstyle/2013/jul/29/orange-crisps-biscuits-recipe", "isHosted": false, "pillarId": "pillar/lifestyle", "pillarName": "Lifestyle"}, {"id": "lifeandstyle/2013/jul/29/chicken-shawarma-pitta-with-chop-chop", "type": "article", "sectionId": "food", "sectionName": "Food", "webPublicationDate": "2013-07-29T12:23:00Z", "webTitle": "Chicken shawarma pitta with chop-chop salad for kids", "webUrl": "https://www.theguardian.com/lifeandstyle/2013/jul/29/chicken-shawarma-pitta-with-chop-chop", "apiUrl": "https://content.guardianapis.com/lifeandstyle/2013/jul/29/chicken-shawarma-pitta-with-chop-chop", "isHosted": false, "pillarId": "pillar/lifestyle", "pillarName": "Lifestyle"}, {"id": "lifeandstyle/wordofmouth/2013/jul/29/artisan-food-urban-peasants-foodie-fad", "type": "article", "sectionId": "lifeandstyle", "sectionName": "Life and style", "webPublicationDate": "2013-07-29T12:20:37Z", "webTitle": "Artisan food and urban 'peasants': is this more than just a foodie fad?", "webUrl": "https://www.theguardian.com/lifeandstyle/wordofmouth/2013/jul/29/artisan-food-urban-peasants-foodie-fad", "apiUrl": "https://content.guardianapis.com/lifeandstyle/wordofmouth/2013/jul/29/artisan-food-urban-peasants-foodie-fad", "isHosted": false, "pillarId": "pillar/lifestyle", "pillarName": "Lifestyle"}, {"id": "lifeandstyle/2013/jul/29/mix-and-match-crumbly-cookies", "type": "article", "sectionId": "lifeandstyle", "sectionName": "Life and style", "webPublicationDate": "2013-07-29T12:13:00Z", "webTitle": "Mix and match crumbly cookies for kids", "webUrl": "https://www.theguardian.com/lifeandstyle/2013/jul/29/mix-and-match-crumbly-cookies", "apiUrl": "https://content.guardianapis.com/lifeandstyle/2013/jul/29/mix-and-match-crumbly-cookies", "isHosted": false, "pillarId": "pillar/lifestyle", "pillarName": "Lifestyle"}, {"id": "lifeandstyle/2013/jul/29/dairy-free-tropical-ice-cream-with-gluten-free-waffle-cones", "type": "article", "sectionId": "food", "sectionName": "Food", "webPublicationDate": "2013-07-29T11:49:04Z", "webTitle": "Dairy-free tropical ice-cream with gluten-free waffle cones", "webUrl": "https://www.theguardian.com/lifeandstyle/2013/jul/29/dairy-free-tropical-ice-cream-with-gluten-free-waffle-cones", "apiUrl": "https://content.guardianapis.com/lifeandstyle/2013/jul/29/dairy-free-tropical-ice-cream-with-gluten-free-waffle-cones", "isHosted": false, "pillarId": "pillar/lifestyle", "pillarName": "Lifestyle"}, {"id": "lifeandstyle/2013/jul/29/mexican-salad", "type": "article", "sectionId": "food", "sectionName": "Food", "webPublicationDate": "2013-07-29T11:00:01Z", "webTitle": "Mexican salad for kids", "webUrl": "https://www.theguardian.com/lifeandstyle/2013/jul/29/mexican-salad", "apiUrl": "https://content.guardianapis.com/lifeandstyle/2013/jul/29/mexican-salad", "isHosted": false, "pillarId": "pillar/lifestyle", "pillarName": "Lifestyle"}, {"id": "lifeandstyle/2013/jul/29/cook-kids-savoury-muffins", "type": "article", "sectionId": "lifeandstyle", "sectionName": "Life and style", "webPublicationDate": "2013-07-29T10:59:00Z", "webTitle": "Feta, spinach and red pepper savoury muffins for kids", "webUrl": "https://www.theguardian.com/lifeandstyle/2013/jul/29/cook-kids-savoury-muffins", "apiUrl": "https://content.guardianapis.com/lifeandstyle/2013/jul/29/cook-kids-savoury-muffins", "isHosted": false, "pillarId": "pillar/lifestyle", "pillarName": "Lifestyle"}, {"id": "lifeandstyle/2013/jul/29/kids-cooking-rainbow-cupcakes", "type": "article", "sectionId": "lifeandstyle", "sectionName": "Life and style", "webPublicationDate": "2013-07-29T10:51:00Z", "webTitle": "Rainbow cupcakes for kids", "webUrl": "https://www.theguardian.com/lifeandstyle/2013/jul/29/kids-cooking-rainbow-cupcakes", "apiUrl": "https://content.guardianapis.com/lifeandstyle/2013/jul/29/kids-cooking-rainbow-cupcakes", "isHosted": false, "pillarId": "pillar/lifestyle", "pillarName": "Lifestyle"}, {"id": "lifeandstyle/2013/jul/29/choc-chip-cookies-cook-with-kids", "type": "article", "sectionId": "food", "sectionName": "Food", "webPublicationDate": "2013-07-29T10:41:00Z", "webTitle": "Choc-chip cookies cook with kids", "webUrl": "https://www.theguardian.com/lifeandstyle/2013/jul/29/choc-chip-cookies-cook-with-kids", "apiUrl": "https://content.guardianapis.com/lifeandstyle/2013/jul/29/choc-chip-cookies-cook-with-kids", "isHosted": false, "pillarId": "pillar/lifestyle", "pillarName": "Lifestyle"}, {"id": "theguardian/2013/jul/29/paola-tomato-sauce-recipe", "type": "article", "sectionId": "lifeandstyle", "sectionName": "Life and style", "webPublicationDate": "2013-07-29T10:34:00Z", "webTitle": "Tomato sauce recipe for kids", "webUrl": "https://www.theguardian.com/theguardian/2013/jul/29/paola-tomato-sauce-recipe", "apiUrl": "https://content.guardianapis.com/theguardian/2013/jul/29/paola-tomato-sauce-recipe", "isHosted": false, "pillarId": "pillar/lifestyle", "pillarName": "Lifestyle"}, {"id": "lifeandstyle/2013/jul/29/frozen-yoghurt-dots", "type": "article", "sectionId": "lifeandstyle", "sectionName": "Life and style", "webPublicationDate": "2013-07-29T10:05:00Z", "webTitle": "Frozen yoghurt dots for kids", "webUrl": "https://www.theguardian.com/lifeandstyle/2013/jul/29/frozen-yoghurt-dots", "apiUrl": "https://content.guardianapis.com/lifeandstyle/2013/jul/29/frozen-yoghurt-dots", "isHosted": false, "pillarId": "pillar/lifestyle", "pillarName": "Lifestyle"}, {"id": "lifeandstyle/2013/jul/29/chocolate-salami", "type": "article", "sectionId": "lifeandstyle", "sectionName": "Life and style", "webPublicationDate": "2013-07-29T10:04:00Z", "webTitle": "Chocolate salami for kids", "webUrl": "https://www.theguardian.com/lifeandstyle/2013/jul/29/chocolate-salami", "apiUrl": "https://content.guardianapis.com/lifeandstyle/2013/jul/29/chocolate-salami", "isHosted": false, "pillarId": "pillar/lifestyle", "pillarName": "Lifestyle"}, {"id": "lifeandstyle/2013/jul/29/jamaican-ginger-beer", "type": "article", "sectionId": "lifeandstyle", "sectionName": "Life and style", "webPublicationDate": "2013-07-29T10:03:00Z", "webTitle": "Jamaican ginger beer", "webUrl": "https://www.theguardian.com/lifeandstyle/2013/jul/29/jamaican-ginger-beer", "apiUrl": "https://content.guardianapis.com/lifeandstyle/2013/jul/29/jamaican-ginger-beer", "isHosted": false, "pillarId": "pillar/lifestyle", "pillarName": "Lifestyle"}, {"id": "lifeandstyle/2013/jul/29/vegetable-sushi", "type": "article", "sectionId": "food", "sectionName": "Food", "webPublicationDate": "2013-07-29T09:54:00Z", "webTitle": "Vegetable sushi for kids", "webUrl": "https://www.theguardian.com/lifeandstyle/2013/jul/29/vegetable-sushi", "apiUrl": "https://content.guardianapis.com/lifeandstyle/2013/jul/29/vegetable-sushi", "isHosted": false, "pillarId": "pillar/lifestyle", "pillarName": "Lifestyle"}, {"id": "lifeandstyle/2013/jul/29/20-great-summer-recipes-ofm", "type": "article", "sectionId": "food", "sectionName": "Food", "webPublicationDate": "2013-07-29T07:00:00Z", "webTitle": "20 great summer recipes: 1-5", "webUrl": "https://www.theguardian.com/lifeandstyle/2013/jul/29/20-great-summer-recipes-ofm", "apiUrl": "https://content.guardianapis.com/lifeandstyle/2013/jul/29/20-great-summer-recipes-ofm", "isHosted": false, "pillarId": "pillar/lifestyle", "pillarName": "Lifestyle"}, {"id": "lifeandstyle/australia-food-blog/video/2013/jul/29/prawns-pan-fried-video-recipe", "type": "video", "sectionId": "lifeandstyle", "sectionName": "Life and style", "webPublicationDate": "2013-07-28T23:31:00Z", "webTitle": "Perfect butterflied prawns - Bondi Harvest video recipe", "webUrl": "https://www.theguardian.com/lifeandstyle/australia-food-blog/video/2013/jul/29/prawns-pan-fried-video-recipe", "apiUrl": "https://content.guardianapis.com/lifeandstyle/australia-food-blog/video/2013/jul/29/prawns-pan-fried-video-recipe", "isHosted": false, "pillarId": "pillar/lifestyle", "pillarName": "Lifestyle"}, {"id": "lifeandstyle/2013/jul/29/readers-recipe-swap-kids-recipes-felicity-cloake", "type": "article", "sectionId": "lifeandstyle", "sectionName": "Life and style", "webPublicationDate": "2013-07-28T23:01:00Z", "webTitle": "Readers' recipe swap: kids | Felicity Cloake", "webUrl": "https://www.theguardian.com/lifeandstyle/2013/jul/29/readers-recipe-swap-kids-recipes-felicity-cloake", "apiUrl": "https://content.guardianapis.com/lifeandstyle/2013/jul/29/readers-recipe-swap-kids-recipes-felicity-cloake", "isHosted": false, "pillarId": "pillar/lifestyle", "pillarName": "Lifestyle"}, {"id": "lifeandstyle/2013/jul/29/get-togethers-kids-food-and-drink", "type": "article", "sectionId": "lifeandstyle", "sectionName": "Life and style", "webPublicationDate": "2013-07-28T23:01:00Z", "webTitle": "Bakers in the making", "webUrl": "https://www.theguardian.com/lifeandstyle/2013/jul/29/get-togethers-kids-food-and-drink", "apiUrl": "https://content.guardianapis.com/lifeandstyle/2013/jul/29/get-togethers-kids-food-and-drink", "isHosted": false, "pillarId": "pillar/lifestyle", "pillarName": "Lifestyle"}, {"id": "lifeandstyle/2013/jul/29/meet-the-producer-kids-issue-egg-farmer", "type": "article", "sectionId": "lifeandstyle", "sectionName": "Life and style", "webPublicationDate": "2013-07-28T23:01:00Z", "webTitle": "'All my eggs won the first prize' | Meet the producer", "webUrl": "https://www.theguardian.com/lifeandstyle/2013/jul/29/meet-the-producer-kids-issue-egg-farmer", "apiUrl": "https://content.guardianapis.com/lifeandstyle/2013/jul/29/meet-the-producer-kids-issue-egg-farmer", "isHosted": false, "pillarId": "pillar/lifestyle", "pillarName": "Lifestyle"}, {"id": "lifeandstyle/2013/jul/29/dairy-free-tropical-ice-cream-gluten-free-waffle-cones", "type": "article", "sectionId": "lifeandstyle", "sectionName": "Life and style", "webPublicationDate": "2013-07-28T23:01:00Z", "webTitle": "Dairy-free tropical ice-cream with gluten-free waffle cones", "webUrl": "https://www.theguardian.com/lifeandstyle/2013/jul/29/dairy-free-tropical-ice-cream-gluten-free-waffle-cones", "apiUrl": "https://content.guardianapis.com/lifeandstyle/2013/jul/29/dairy-free-tropical-ice-cream-gluten-free-waffle-cones", "isHosted": false, "pillarId": "pillar/lifestyle", "pillarName": "Lifestyle"}, {"id": "lifeandstyle/2013/jul/29/henry-dimbleby-drinks-kids-ginger-beer", "type": "article", "sectionId": "lifeandstyle", "sectionName": "Life and style", "webPublicationDate": "2013-07-28T23:01:00Z", "webTitle": "Make your own ginger beer", "webUrl": "https://www.theguardian.com/lifeandstyle/2013/jul/29/henry-dimbleby-drinks-kids-ginger-beer", "apiUrl": "https://content.guardianapis.com/lifeandstyle/2013/jul/29/henry-dimbleby-drinks-kids-ginger-beer", "isHosted": false, "pillarId": "pillar/lifestyle", "pillarName": "Lifestyle"}, {"id": "lifeandstyle/2013/jul/29/10-best-kids-recipes", "type": "article", "sectionId": "lifeandstyle", "sectionName": "Life and style", "webPublicationDate": "2013-07-28T23:01:00Z", "webTitle": "The 10 best kids recipes", "webUrl": "https://www.theguardian.com/lifeandstyle/2013/jul/29/10-best-kids-recipes", "apiUrl": "https://content.guardianapis.com/lifeandstyle/2013/jul/29/10-best-kids-recipes", "isHosted": false, "pillarId": "pillar/lifestyle", "pillarName": "Lifestyle"}, {"id": "lifeandstyle/2013/jul/29/good-for-you-courgettes-food-and-drink-health-and-wellbeing", "type": "article", "sectionId": "lifeandstyle", "sectionName": "Life and style", "webPublicationDate": "2013-07-28T23:01:00Z", "webTitle": "Why courgettes are good for you", "webUrl": "https://www.theguardian.com/lifeandstyle/2013/jul/29/good-for-you-courgettes-food-and-drink-health-and-wellbeing", "apiUrl": "https://content.guardianapis.com/lifeandstyle/2013/jul/29/good-for-you-courgettes-food-and-drink-health-and-wellbeing", "isHosted": false, "pillarId": "pillar/lifestyle", "pillarName": "Lifestyle"}, {"id": "lifeandstyle/video/2013/jul/29/how-to-cream-butter-and-sugar-video", "type": "video", "sectionId": "lifeandstyle", "sectionName": "Life and style", "webPublicationDate": "2013-07-28T22:01:00Z", "webTitle": "How to cream butter and sugar - video", "webUrl": "https://www.theguardian.com/lifeandstyle/video/2013/jul/29/how-to-cream-butter-and-sugar-video", "apiUrl": "https://content.guardianapis.com/lifeandstyle/video/2013/jul/29/how-to-cream-butter-and-sugar-video", "isHosted": false, "pillarId": "pillar/lifestyle", "pillarName": "Lifestyle"}, {"id": "lifeandstyle/video/2013/jul/29/how-to-destone-an-avocado-video", "type": "video", "sectionId": "lifeandstyle", "sectionName": "Life and style", "webPublicationDate": "2013-07-28T22:01:00Z", "webTitle": "How to destone an avocado \u2013 video", "webUrl": "https://www.theguardian.com/lifeandstyle/video/2013/jul/29/how-to-destone-an-avocado-video", "apiUrl": "https://content.guardianapis.com/lifeandstyle/video/2013/jul/29/how-to-destone-an-avocado-video", "isHosted": false, "pillarId": "pillar/lifestyle", "pillarName": "Lifestyle"}, {"id": "lifeandstyle/video/2013/jul/29/how-to-crumb-butter-and-flour-video", "type": "video", "sectionId": "lifeandstyle", "sectionName": "Life and style", "webPublicationDate": "2013-07-28T22:01:00Z", "webTitle": "How to combine butter and flour - video", "webUrl": "https://www.theguardian.com/lifeandstyle/video/2013/jul/29/how-to-crumb-butter-and-flour-video", "apiUrl": "https://content.guardianapis.com/lifeandstyle/video/2013/jul/29/how-to-crumb-butter-and-flour-video", "isHosted": false, "pillarId": "pillar/lifestyle", "pillarName": "Lifestyle"}, {"id": "lifeandstyle/video/2013/jul/29/how-to-beat-egg-video", "type": "video", "sectionId": "lifeandstyle", "sectionName": "Life and style", "webPublicationDate": "2013-07-28T22:01:00Z", "webTitle": "How to beat an egg - video", "webUrl": "https://www.theguardian.com/lifeandstyle/video/2013/jul/29/how-to-beat-egg-video", "apiUrl": "https://content.guardianapis.com/lifeandstyle/video/2013/jul/29/how-to-beat-egg-video", "isHosted": false, "pillarId": "pillar/lifestyle", "pillarName": "Lifestyle"}, {"id": "lifeandstyle/video/2013/jul/29/how-to-melt-chocolate-video", "type": "video", "sectionId": "lifeandstyle", "sectionName": "Life and style", "webPublicationDate": "2013-07-28T22:01:00Z", "webTitle": "How to melt chocolate - video", "webUrl": "https://www.theguardian.com/lifeandstyle/video/2013/jul/29/how-to-melt-chocolate-video", "apiUrl": "https://content.guardianapis.com/lifeandstyle/video/2013/jul/29/how-to-melt-chocolate-video", "isHosted": false, "pillarId": "pillar/lifestyle", "pillarName": "Lifestyle"}, {"id": "lifeandstyle/2013/jul/28/friends-of-ham-leeds-restaurant", "type": "article", "sectionId": "food", "sectionName": "Food", "webPublicationDate": "2013-07-28T06:30:00Z", "webTitle": "Friends of Ham: restaurant review", "webUrl": "https://www.theguardian.com/lifeandstyle/2013/jul/28/friends-of-ham-leeds-restaurant", "apiUrl": "https://content.guardianapis.com/lifeandstyle/2013/jul/28/friends-of-ham-leeds-restaurant", "isHosted": false, "pillarId": "pillar/lifestyle", "pillarName": "Lifestyle"}, {"id": "lifeandstyle/2013/jul/28/a-love-letter-to-bread-eva-wiseman", "type": "article", "sectionId": "lifeandstyle", "sectionName": "Life and style", "webPublicationDate": "2013-07-28T05:30:00Z", "webTitle": "A love letter to bread", "webUrl": "https://www.theguardian.com/lifeandstyle/2013/jul/28/a-love-letter-to-bread-eva-wiseman", "apiUrl": "https://content.guardianapis.com/lifeandstyle/2013/jul/28/a-love-letter-to-bread-eva-wiseman", "isHosted": false, "pillarId": "pillar/lifestyle", "pillarName": "Lifestyle"}, {"id": "lifeandstyle/2013/jul/27/wines-of-the-week-intriguing-blends", "type": "article", "sectionId": "food", "sectionName": "Food", "webPublicationDate": "2013-07-27T11:59:00Z", "webTitle": "Wines of the week: three intriguing white blends", "webUrl": "https://www.theguardian.com/lifeandstyle/2013/jul/27/wines-of-the-week-intriguing-blends", "apiUrl": "https://content.guardianapis.com/lifeandstyle/2013/jul/27/wines-of-the-week-intriguing-blends", "isHosted": false, "pillarId": "pillar/lifestyle", "pillarName": "Lifestyle"}, {"id": "lifeandstyle/2013/jul/27/barbecue-recipes-hugh-fearnley-whittingstall", "type": "article", "sectionId": "lifeandstyle", "sectionName": "Life and style", "webPublicationDate": "2013-07-27T08:04:00Z", "webTitle": "Summer barbecue recipes by Hugh Fearnley-Whittingstall", "webUrl": "https://www.theguardian.com/lifeandstyle/2013/jul/27/barbecue-recipes-hugh-fearnley-whittingstall", "apiUrl": "https://content.guardianapis.com/lifeandstyle/2013/jul/27/barbecue-recipes-hugh-fearnley-whittingstall", "isHosted": false, "pillarId": "pillar/lifestyle", "pillarName": "Lifestyle"}, {"id": "lifeandstyle/2013/jul/27/ice-lollies-sorbet-recipes-angela-hartnett", "type": "article", "sectionId": "lifeandstyle", "sectionName": "Life and style", "webPublicationDate": "2013-07-27T08:03:00Z", "webTitle": "Summer ices recipes by Angela Hartnett", "webUrl": "https://www.theguardian.com/lifeandstyle/2013/jul/27/ice-lollies-sorbet-recipes-angela-hartnett", "apiUrl": "https://content.guardianapis.com/lifeandstyle/2013/jul/27/ice-lollies-sorbet-recipes-angela-hartnett", "isHosted": false, "pillarId": "pillar/lifestyle", "pillarName": "Lifestyle"}, {"id": "lifeandstyle/2013/jul/27/safe-way-cook-meat-barbecue", "type": "article", "sectionId": "lifeandstyle", "sectionName": "Life and style", "webPublicationDate": "2013-07-27T08:01:00Z", "webTitle": "Summer food & drink special: how not to poison family and friends at a barbecue", "webUrl": "https://www.theguardian.com/lifeandstyle/2013/jul/27/safe-way-cook-meat-barbecue", "apiUrl": "https://content.guardianapis.com/lifeandstyle/2013/jul/27/safe-way-cook-meat-barbecue", "isHosted": false, "pillarId": "pillar/lifestyle", "pillarName": "Lifestyle"}, {"id": "lifeandstyle/2013/jul/27/how-to-make-a-proper-burger", "type": "article", "sectionId": "food", "sectionName": "Food", "webPublicationDate": "2013-07-27T08:01:00Z", "webTitle": "Summer food & drink special: how to make a proper burger at home", "webUrl": "https://www.theguardian.com/lifeandstyle/2013/jul/27/how-to-make-a-proper-burger", "apiUrl": "https://content.guardianapis.com/lifeandstyle/2013/jul/27/how-to-make-a-proper-burger", "isHosted": false, "pillarId": "pillar/lifestyle", "pillarName": "Lifestyle"}, {"id": "lifeandstyle/2013/jul/27/how-to-make-great-cocktail", "type": "article", "sectionId": "lifeandstyle", "sectionName": "Life and style", "webPublicationDate": "2013-07-27T08:00:00Z", "webTitle": "Summer food & drink special: how to make a great cocktail", "webUrl": "https://www.theguardian.com/lifeandstyle/2013/jul/27/how-to-make-great-cocktail", "apiUrl": "https://content.guardianapis.com/lifeandstyle/2013/jul/27/how-to-make-great-cocktail", "isHosted": false, "pillarId": "pillar/lifestyle", "pillarName": "Lifestyle"}, {"id": "lifeandstyle/2013/jul/27/make-ice-cream-without-machine", "type": "article", "sectionId": "lifeandstyle", "sectionName": "Life and style", "webPublicationDate": "2013-07-27T07:59:00Z", "webTitle": "Summer food & drink special: no ice-cream machine? No\u00a0problem", "webUrl": "https://www.theguardian.com/lifeandstyle/2013/jul/27/make-ice-cream-without-machine", "apiUrl": "https://content.guardianapis.com/lifeandstyle/2013/jul/27/make-ice-cream-without-machine", "isHosted": false, "pillarId": "pillar/lifestyle", "pillarName": "Lifestyle"}, {"id": "lifeandstyle/2013/jul/27/summer-playlists-food-and-drink", "type": "article", "sectionId": "lifeandstyle", "sectionName": "Life and style", "webPublicationDate": "2013-07-27T07:57:00Z", "webTitle": "Summer food & drink special: pop critic Alexis Petridis's playlists", "webUrl": "https://www.theguardian.com/lifeandstyle/2013/jul/27/summer-playlists-food-and-drink", "apiUrl": "https://content.guardianapis.com/lifeandstyle/2013/jul/27/summer-playlists-food-and-drink", "isHosted": false, "pillarId": "pillar/lifestyle", "pillarName": "Lifestyle"}, {"id": "lifeandstyle/2013/jul/27/how-to-have-swell-summer-party", "type": "article", "sectionId": "lifeandstyle", "sectionName": "Life and style", "webPublicationDate": "2013-07-27T07:54:00Z", "webTitle": "Summer food & drink special: how to have a swell summer party", "webUrl": "https://www.theguardian.com/lifeandstyle/2013/jul/27/how-to-have-swell-summer-party", "apiUrl": "https://content.guardianapis.com/lifeandstyle/2013/jul/27/how-to-have-swell-summer-party", "isHosted": false, "pillarId": "pillar/lifestyle", "pillarName": "Lifestyle"}]}}