{"response": {"status": "ok", "userTier": "developer", "total": 33879, "startIndex": 1, "pageSize": 50, "currentPage": 1, "pages": 678, "orderBy": "newest", "results": [{"id": "world/2012/jul/30/farmers-obama-administration-ethanol-drought", "type": "article", "sectionId": "us-news", "sectionName": "US news", "webPublicationDate": "2012-07-30T18:13:21Z", "webTitle": "US farmers urge Obama administration to suspend ethanol quota amid drought", "webUrl": "https://www.theguardian.com/world/2012/jul/30/farmers-obama-administration-ethanol-drought", "apiUrl": "https://content.guardianapis.com/world/2012/jul/30/farmers-obama-administration-ethanol-drought", "isHosted": false, "pillarId": "pillar/news", "pillarName": "News"}, {"id": "world/2012/jul/30/wildlife-tracker-south-africa", "type": "article", "sectionId": "world", "sectionName": "World news", "webPublicationDate": "2012-07-30T14:52:29Z", "webTitle": "South African schoolboy wows Google with Kruger wildlife-tracking website", "webUrl": "https://www.theguardian.com/world/2012/jul/30/wildlife-tracker-south-africa", "apiUrl": "https://content.guardianapis.com/world/2012/jul/30/wildlife-tracker-south-africa", "isHosted": false, "pillarId": "pillar/news", "pillarName": "News"}, {"id": "environment/2012/jul/30/japan-green-party-nuclear-power", "type": "article", "sectionId": "environment", "sectionName": "Environment", "webPublicationDate": "2012-07-30T14:24:51Z", "webTitle": "Anti-nuclear campaigners launch Japan's first green party", "webUrl": "https://www.theguardian.com/environment/2012/jul/30/japan-green-party-nuclear-power", "apiUrl": "https://content.guardianapis.com/environment/2012/jul/30/japan-green-party-nuclear-power", "isHosted": false, "pillarId": "pillar/news", "pillarName": "News"}, {"id": "global-development/2012/jul/30/logging-companies-png-forests-greenpeace", "type": "article", "sectionId": "global-development", "sectionName": "Global development", "webPublicationDate": "2012-07-30T14:07:55Z", "webTitle": "Logging companies gain easy access to PNG's forests, says Greenpeace", "webUrl": "https://www.theguardian.com/global-development/2012/jul/30/logging-companies-png-forests-greenpeace", "apiUrl": "https://content.guardianapis.com/global-development/2012/jul/30/logging-companies-png-forests-greenpeace", "isHosted": false, "pillarId": "pillar/news", "pillarName": "News"}, {"id": "environment/blog/2012/jul/30/what-evidence-take-convince-climate-sceptics", "type": "article", "sectionId": "environment", "sectionName": "Environment", "webPublicationDate": "2012-07-30T12:59:00Z", "webTitle": "What evidence will it take to convince climate sceptics? | Leo Hickman", "webUrl": "https://www.theguardian.com/environment/blog/2012/jul/30/what-evidence-take-convince-climate-sceptics", "apiUrl": "https://content.guardianapis.com/environment/blog/2012/jul/30/what-evidence-take-convince-climate-sceptics", "isHosted": false, "pillarId": "pillar/news", "pillarName": "News"}, {"id": "environment/2012/jul/30/japan-tsunami-dock-wildlife", "type": "article", "sectionId": "environment", "sectionName": "Environment", "webPublicationDate": "2012-07-30T12:30:49Z", "webTitle": "Oregon authorities to demolish Japanese tsunami dock", "webUrl": "https://www.theguardian.com/environment/2012/jul/30/japan-tsunami-dock-wildlife", "apiUrl": "https://content.guardianapis.com/environment/2012/jul/30/japan-tsunami-dock-wildlife", "isHosted": false, "pillarId": "pillar/news", "pillarName": "News"}, {"id": "environment/2012/jul/30/gas-industry-buying-academics", "type": "article", "sectionId": "environment", "sectionName": "Environment", "webPublicationDate": "2012-07-30T10:43:52Z", "webTitle": "Is the gas industry buying academics? | Tim McDonnell", "webUrl": "https://www.theguardian.com/environment/2012/jul/30/gas-industry-buying-academics", "apiUrl": "https://content.guardianapis.com/environment/2012/jul/30/gas-industry-buying-academics", "isHosted": false, "pillarId": "pillar/news", "pillarName": "News"}, {"id": "environment/blog/2012/jul/30/queen-alexandras-birdwing-butterfly", "type": "article", "sectionId": "environment", "sectionName": "Environment", "webPublicationDate": "2012-07-30T10:35:28Z", "webTitle": "World's largest butterfly disappearing from Papua New Guinea rainforests", "webUrl": "https://www.theguardian.com/environment/blog/2012/jul/30/queen-alexandras-birdwing-butterfly", "apiUrl": "https://content.guardianapis.com/environment/blog/2012/jul/30/queen-alexandras-birdwing-butterfly", "isHosted": false, "pillarId": "pillar/news", "pillarName": "News"}, {"id": "global-development/2012/jul/30/india-aphrodisiac-fungus-supply-droops", "type": "article", "sectionId": "global-development", "sectionName": "Global development", "webPublicationDate": "2012-07-30T06:00:01Z", "webTitle": "India banks on rush for aphrodisiac fungus before supply droops", "webUrl": "https://www.theguardian.com/global-development/2012/jul/30/india-aphrodisiac-fungus-supply-droops", "apiUrl": "https://content.guardianapis.com/global-development/2012/jul/30/india-aphrodisiac-fungus-supply-droops", "isHosted": false, "pillarId": "pillar/news", "pillarName": "News"}, {"id": "business/2012/jul/30/government-green-policies-incoherent-say-manufacturers", "type": "article", "sectionId": "business", "sectionName": "Business", "webPublicationDate": "2012-07-29T23:01:02Z", "webTitle": "Coalition green policies are 'incoherent and failing to achieve objectives'", "webUrl": "https://www.theguardian.com/business/2012/jul/30/government-green-policies-incoherent-say-manufacturers", "apiUrl": "https://content.guardianapis.com/business/2012/jul/30/government-green-policies-incoherent-say-manufacturers", "isHosted": false, "pillarId": "pillar/news", "pillarName": "News"}, {"id": "environment/2012/jul/29/country-diary-sty-head-pass", "type": "article", "sectionId": "environment", "sectionName": "Environment", "webPublicationDate": "2012-07-29T19:59:01Z", "webTitle": "Methuselah slips into the icy current | Country diary", "webUrl": "https://www.theguardian.com/environment/2012/jul/29/country-diary-sty-head-pass", "apiUrl": "https://content.guardianapis.com/environment/2012/jul/29/country-diary-sty-head-pass", "isHosted": false, "pillarId": "pillar/news", "pillarName": "News"}, {"id": "environment/shortcuts/2012/jul/29/swiss-glacier-power-prayer", "type": "article", "sectionId": "environment", "sectionName": "Environment", "webPublicationDate": "2012-07-29T19:00:02Z", "webTitle": "The Swiss glacier that responded to the power of prayer \u2026 finally", "webUrl": "https://www.theguardian.com/environment/shortcuts/2012/jul/29/swiss-glacier-power-prayer", "apiUrl": "https://content.guardianapis.com/environment/shortcuts/2012/jul/29/swiss-glacier-power-prayer", "isHosted": false, "pillarId": "pillar/news", "pillarName": "News"}, {"id": "science/2012/jul/29/climate-change-sceptics-change-mind", "type": "article", "sectionId": "environment", "sectionName": "Environment", "webPublicationDate": "2012-07-29T13:03:36Z", "webTitle": "Climate change study forces sceptical scientists to change minds", "webUrl": "https://www.theguardian.com/science/2012/jul/29/climate-change-sceptics-change-mind", "apiUrl": "https://content.guardianapis.com/science/2012/jul/29/climate-change-sceptics-change-mind", "isHosted": false, "pillarId": "pillar/news", "pillarName": "News"}, {"id": "environment/2012/jul/29/lucy-siegle-ethical-living-banking", "type": "article", "sectionId": "environment", "sectionName": "Environment", "webPublicationDate": "2012-07-28T23:04:00Z", "webTitle": "Ethical living: should I swap my bank?", "webUrl": "https://www.theguardian.com/environment/2012/jul/29/lucy-siegle-ethical-living-banking", "apiUrl": "https://content.guardianapis.com/environment/2012/jul/29/lucy-siegle-ethical-living-banking", "isHosted": false, "pillarId": "pillar/news", "pillarName": "News"}, {"id": "science/2012/jul/29/crocodile-fossil-origins-bauru-basin-brazil", "type": "article", "sectionId": "science", "sectionName": "Science", "webPublicationDate": "2012-07-28T23:02:03Z", "webTitle": "New to Nature No 78: Campinasuchus dinizi", "webUrl": "https://www.theguardian.com/science/2012/jul/29/crocodile-fossil-origins-bauru-basin-brazil", "apiUrl": "https://content.guardianapis.com/science/2012/jul/29/crocodile-fossil-origins-bauru-basin-brazil", "isHosted": false, "pillarId": "pillar/news", "pillarName": "News"}, {"id": "world/2012/jul/28/chinese-protesters-industrial-waste-pipeline", "type": "article", "sectionId": "world", "sectionName": "World news", "webPublicationDate": "2012-07-28T14:10:11Z", "webTitle": "Chinese protesters force officials to cancel industrial waste pipeline project", "webUrl": "https://www.theguardian.com/world/2012/jul/28/chinese-protesters-industrial-waste-pipeline", "apiUrl": "https://content.guardianapis.com/world/2012/jul/28/chinese-protesters-industrial-waste-pipeline", "isHosted": false, "pillarId": "pillar/news", "pillarName": "News"}, {"id": "science/2012/jul/27/plantwatch-orchids-bees-weather", "type": "article", "sectionId": "science", "sectionName": "Science", "webPublicationDate": "2012-07-27T21:30:01Z", "webTitle": "Plantwatch: Bumper crop of orchids", "webUrl": "https://www.theguardian.com/science/2012/jul/27/plantwatch-orchids-bees-weather", "apiUrl": "https://content.guardianapis.com/science/2012/jul/27/plantwatch-orchids-bees-weather", "isHosted": false, "pillarId": "pillar/news", "pillarName": "News"}, {"id": "environment/2012/jul/27/sandy-bedfordshire-falcons-crows-nest", "type": "article", "sectionId": "environment", "sectionName": "Environment", "webPublicationDate": "2012-07-27T20:00:01Z", "webTitle": "Falcons have taken over an old crow's nest high above the valley", "webUrl": "https://www.theguardian.com/environment/2012/jul/27/sandy-bedfordshire-falcons-crows-nest", "apiUrl": "https://content.guardianapis.com/environment/2012/jul/27/sandy-bedfordshire-falcons-crows-nest", "isHosted": false, "pillarId": "pillar/news", "pillarName": "News"}, {"id": "world/2012/jul/27/two-dead-storms-north-east", "type": "article", "sectionId": "world", "sectionName": "World news", "webPublicationDate": "2012-07-27T17:25:00Z", "webTitle": "Two dead and 100,000 without power after storms hit north-east US", "webUrl": "https://www.theguardian.com/world/2012/jul/27/two-dead-storms-north-east", "apiUrl": "https://content.guardianapis.com/world/2012/jul/27/two-dead-storms-north-east", "isHosted": false, "pillarId": "pillar/news", "pillarName": "News"}, {"id": "environment/picture/2012/jul/27/glaciers-flooding", "type": "picture", "sectionId": "environment", "sectionName": "Environment", "webPublicationDate": "2012-07-27T15:07:00Z", "webTitle": "Flooding in Kangerlussuaq, Greenland - big picture", "webUrl": "https://www.theguardian.com/environment/picture/2012/jul/27/glaciers-flooding", "apiUrl": "https://content.guardianapis.com/environment/picture/2012/jul/27/glaciers-flooding", "isHosted": false, "pillarId": "pillar/news", "pillarName": "News"}, {"id": "environment/gallery/2012/jul/27/week-in-wildlife-in-pictures", "type": "gallery", "sectionId": "environment", "sectionName": "Environment", "webPublicationDate": "2012-07-27T15:06:00Z", "webTitle": "In pictures: the week in wildlife", "webUrl": "https://www.theguardian.com/environment/gallery/2012/jul/27/week-in-wildlife-in-pictures", "apiUrl": "https://content.guardianapis.com/environment/gallery/2012/jul/27/week-in-wildlife-in-pictures", "isHosted": false, "pillarId": "pillar/news", "pillarName": "News"}, {"id": "environment/video/2012/jul/27/future-energy-video", "type": "video", "sectionId": "environment", "sectionName": "Environment", "webPublicationDate": "2012-07-27T14:35:00Z", "webTitle": "The future of energy - video", "webUrl": "https://www.theguardian.com/environment/video/2012/jul/27/future-energy-video", "apiUrl": "https://content.guardianapis.com/environment/video/2012/jul/27/future-energy-video", "isHosted": false, "pillarId": "pillar/news", "pillarName": "News"}, {"id": "environment/blog/2012/jul/27/return-great-crane-uk", "type": "article", "sectionId": "environment", "sectionName": "Environment", "webPublicationDate": "2012-07-27T12:08:00Z", "webTitle": "Citizen crane \u2013 UK welcomes back a once-common bird | Stanley Johnson", "webUrl": "https://www.theguardian.com/environment/blog/2012/jul/27/return-great-crane-uk", "apiUrl": "https://content.guardianapis.com/environment/blog/2012/jul/27/return-great-crane-uk", "isHosted": false, "pillarId": "pillar/news", "pillarName": "News"}, {"id": "environment/2012/jul/27/london-amphibian-reptile-map", "type": "article", "sectionId": "environment", "sectionName": "Environment", "webPublicationDate": "2012-07-27T11:32:38Z", "webTitle": "London's amphibians and reptile populations mapped", "webUrl": "https://www.theguardian.com/environment/2012/jul/27/london-amphibian-reptile-map", "apiUrl": "https://content.guardianapis.com/environment/2012/jul/27/london-amphibian-reptile-map", "isHosted": false, "pillarId": "pillar/news", "pillarName": "News"}, {"id": "commentisfree/2012/jul/27/greenland-ice-sheet-melt", "type": "article", "sectionId": "commentisfree", "sectionName": "Opinion", "webPublicationDate": "2012-07-27T11:02:13Z", "webTitle": "Greenland's ice sheet melt: a sensational picture of a blunt fact | Jonathan Jones", "webUrl": "https://www.theguardian.com/commentisfree/2012/jul/27/greenland-ice-sheet-melt", "apiUrl": "https://content.guardianapis.com/commentisfree/2012/jul/27/greenland-ice-sheet-melt", "isHosted": false, "pillarId": "pillar/opinion", "pillarName": "Opinion"}, {"id": "environment/blog/2012/jul/27/climate-sceptics-conspiracy-theorists", "type": "article", "sectionId": "environment", "sectionName": "Environment", "webPublicationDate": "2012-07-27T10:38:19Z", "webTitle": "Are climate sceptics more likely to be conspiracy theorists? | Adam Corner", "webUrl": "https://www.theguardian.com/environment/blog/2012/jul/27/climate-sceptics-conspiracy-theorists", "apiUrl": "https://content.guardianapis.com/environment/blog/2012/jul/27/climate-sceptics-conspiracy-theorists", "isHosted": false, "pillarId": "pillar/news", "pillarName": "News"}, {"id": "environment/2012/jul/27/cites-sanctions-endangered-species", "type": "article", "sectionId": "environment", "sectionName": "Environment", "webPublicationDate": "2012-07-27T10:09:55Z", "webTitle": "Seven nations face sanctions over endangered species", "webUrl": "https://www.theguardian.com/environment/2012/jul/27/cites-sanctions-endangered-species", "apiUrl": "https://content.guardianapis.com/environment/2012/jul/27/cites-sanctions-endangered-species", "isHosted": false, "pillarId": "pillar/news", "pillarName": "News"}, {"id": "environment/2012/jul/27/farmers-step-up-milk-protests", "type": "article", "sectionId": "environment", "sectionName": "Environment", "webPublicationDate": "2012-07-27T09:06:04Z", "webTitle": "Farmers step up milk protests over price cuts", "webUrl": "https://www.theguardian.com/environment/2012/jul/27/farmers-step-up-milk-protests", "apiUrl": "https://content.guardianapis.com/environment/2012/jul/27/farmers-step-up-milk-protests", "isHosted": false, "pillarId": "pillar/news", "pillarName": "News"}, {"id": "science/video/2012/jul/27/scienceofclimatechange-ianmcewan", "type": "video", "sectionId": "science", "sectionName": "Science", "webPublicationDate": "2012-07-27T05:30:00Z", "webTitle": "Ian McEwan reveals the inspiration for the 'hero' of his climate change novel Solar \u2013 video", "webUrl": "https://www.theguardian.com/science/video/2012/jul/27/scienceofclimatechange-ianmcewan", "apiUrl": "https://content.guardianapis.com/science/video/2012/jul/27/scienceofclimatechange-ianmcewan", "isHosted": false, "pillarId": "pillar/news", "pillarName": "News"}, {"id": "environment/2012/jul/26/sutherland-burn-side-quest-for-mountain-aven", "type": "article", "sectionId": "environment", "sectionName": "Environment", "webPublicationDate": "2012-07-26T19:59:01Z", "webTitle": "Country diary: Sutherland: Burn-side quest for mountain avens", "webUrl": "https://www.theguardian.com/environment/2012/jul/26/sutherland-burn-side-quest-for-mountain-aven", "apiUrl": "https://content.guardianapis.com/environment/2012/jul/26/sutherland-burn-side-quest-for-mountain-aven", "isHosted": false, "pillarId": "pillar/news", "pillarName": "News"}, {"id": "environment/2012/jul/26/anglo-spanish-fishing-fine", "type": "article", "sectionId": "environment", "sectionName": "Environment", "webPublicationDate": "2012-07-26T19:10:27Z", "webTitle": "Anglo-Spanish fishing racket ordered to pay record \u00a31.6m fine", "webUrl": "https://www.theguardian.com/environment/2012/jul/26/anglo-spanish-fishing-fine", "apiUrl": "https://content.guardianapis.com/environment/2012/jul/26/anglo-spanish-fishing-fine", "isHosted": false, "pillarId": "pillar/news", "pillarName": "News"}, {"id": "environment/2012/jul/26/central-african-nations-poaching", "type": "article", "sectionId": "environment", "sectionName": "Environment", "webPublicationDate": "2012-07-26T15:56:38Z", "webTitle": "Central African nations launch joint initiative to tackle poaching", "webUrl": "https://www.theguardian.com/environment/2012/jul/26/central-african-nations-poaching", "apiUrl": "https://content.guardianapis.com/environment/2012/jul/26/central-african-nations-poaching", "isHosted": false, "pillarId": "pillar/news", "pillarName": "News"}, {"id": "environment/2012/jul/26/paul-watson-skips-bail-germany", "type": "article", "sectionId": "environment", "sectionName": "Environment", "webPublicationDate": "2012-07-26T15:54:00Z", "webTitle": "Paul Watson skips bail in Germany", "webUrl": "https://www.theguardian.com/environment/2012/jul/26/paul-watson-skips-bail-germany", "apiUrl": "https://content.guardianapis.com/environment/2012/jul/26/paul-watson-skips-bail-germany", "isHosted": false, "pillarId": "pillar/news", "pillarName": "News"}, {"id": "business/2012/jul/26/dairy-farmers-blockade-supermarket-depots", "type": "article", "sectionId": "business", "sectionName": "Business", "webPublicationDate": "2012-07-26T15:30:32Z", "webTitle": "Dairy farmers to blockade supermarket depots in milk price row", "webUrl": "https://www.theguardian.com/business/2012/jul/26/dairy-farmers-blockade-supermarket-depots", "apiUrl": "https://content.guardianapis.com/business/2012/jul/26/dairy-farmers-blockade-supermarket-depots", "isHosted": false, "pillarId": "pillar/news", "pillarName": "News"}, {"id": "environment/2012/jul/26/london-2012-refuse-plastic-bags", "type": "article", "sectionId": "environment", "sectionName": "Environment", "webPublicationDate": "2012-07-26T15:23:28Z", "webTitle": "London 2012 visitors urged to refuse plastic bags at Games", "webUrl": "https://www.theguardian.com/environment/2012/jul/26/london-2012-refuse-plastic-bags", "apiUrl": "https://content.guardianapis.com/environment/2012/jul/26/london-2012-refuse-plastic-bags", "isHosted": false, "pillarId": "pillar/news", "pillarName": "News"}, {"id": "commentisfree/2012/jul/26/greenland-ice-sheet-borrowed-time", "type": "article", "sectionId": "commentisfree", "sectionName": "Opinion", "webPublicationDate": "2012-07-26T14:46:09Z", "webTitle": "Greenland's ice sheet is melting fast \u2013 I'm not surprised | Edward Hanna", "webUrl": "https://www.theguardian.com/commentisfree/2012/jul/26/greenland-ice-sheet-borrowed-time", "apiUrl": "https://content.guardianapis.com/commentisfree/2012/jul/26/greenland-ice-sheet-borrowed-time", "isHosted": false, "pillarId": "pillar/opinion", "pillarName": "Opinion"}, {"id": "environment/2012/jul/26/china-ban-tiger-farms", "type": "article", "sectionId": "environment", "sectionName": "Environment", "webPublicationDate": "2012-07-26T14:24:34Z", "webTitle": "UK and India call on China to ban tiger farms", "webUrl": "https://www.theguardian.com/environment/2012/jul/26/china-ban-tiger-farms", "apiUrl": "https://content.guardianapis.com/environment/2012/jul/26/china-ban-tiger-farms", "isHosted": false, "pillarId": "pillar/news", "pillarName": "News"}, {"id": "sport/2012/jul/26/london-2012-olympic-park-sustainability", "type": "article", "sectionId": "sport", "sectionName": "Sport", "webPublicationDate": "2012-07-26T13:09:49Z", "webTitle": "London Olympic Park's 10,000 toilets and one unique challenge", "webUrl": "https://www.theguardian.com/sport/2012/jul/26/london-2012-olympic-park-sustainability", "apiUrl": "https://content.guardianapis.com/sport/2012/jul/26/london-2012-olympic-park-sustainability", "isHosted": false, "pillarId": "pillar/sport", "pillarName": "Sport"}, {"id": "environment/2012/jul/26/spanish-fishermen-fines", "type": "article", "sectionId": "environment", "sectionName": "Environment", "webPublicationDate": "2012-07-26T12:47:22Z", "webTitle": "Spanish fishermen receive some of biggest fines in UK maritime history", "webUrl": "https://www.theguardian.com/environment/2012/jul/26/spanish-fishermen-fines", "apiUrl": "https://content.guardianapis.com/environment/2012/jul/26/spanish-fishermen-fines", "isHosted": false, "pillarId": "pillar/news", "pillarName": "News"}, {"id": "environment/2012/jul/26/olympics-london-smog", "type": "article", "sectionId": "environment", "sectionName": "Environment", "webPublicationDate": "2012-07-26T11:27:18Z", "webTitle": "Olympic athletes and public warned of London's high 'summer smog' levels", "webUrl": "https://www.theguardian.com/environment/2012/jul/26/olympics-london-smog", "apiUrl": "https://content.guardianapis.com/environment/2012/jul/26/olympics-london-smog", "isHosted": false, "pillarId": "pillar/news", "pillarName": "News"}, {"id": "environment/georgemonbiot/2012/jul/26/countryside-alliance-shotgun-lead-campaign", "type": "article", "sectionId": "environment", "sectionName": "Environment", "webPublicationDate": "2012-07-26T10:45:39Z", "webTitle": "The Countryside Alliance's neo-feudal shotgun lead campaign | George Monbiot", "webUrl": "https://www.theguardian.com/environment/georgemonbiot/2012/jul/26/countryside-alliance-shotgun-lead-campaign", "apiUrl": "https://content.guardianapis.com/environment/georgemonbiot/2012/jul/26/countryside-alliance-shotgun-lead-campaign", "isHosted": false, "pillarId": "pillar/news", "pillarName": "News"}, {"id": "lifeandstyle/2012/jul/26/bee-orchid-lawns", "type": "article", "sectionId": "lifeandstyle", "sectionName": "Life and style", "webPublicationDate": "2012-07-26T08:14:00Z", "webTitle": "The bee orchid: nature's mimic", "webUrl": "https://www.theguardian.com/lifeandstyle/2012/jul/26/bee-orchid-lawns", "apiUrl": "https://content.guardianapis.com/lifeandstyle/2012/jul/26/bee-orchid-lawns", "isHosted": false, "pillarId": "pillar/lifestyle", "pillarName": "Lifestyle"}, {"id": "world/2012/jul/26/arctic-climate-change", "type": "article", "sectionId": "environment", "sectionName": "Environment", "webPublicationDate": "2012-07-25T23:05:00Z", "webTitle": "Loss of Arctic sea ice '70% man-made'", "webUrl": "https://www.theguardian.com/world/2012/jul/26/arctic-climate-change", "apiUrl": "https://content.guardianapis.com/world/2012/jul/26/arctic-climate-change", "isHosted": false, "pillarId": "pillar/news", "pillarName": "News"}, {"id": "environment/2012/jul/25/greenland-glacier-bridge-destroyed-video", "type": "article", "sectionId": "environment", "sectionName": "Environment", "webPublicationDate": "2012-07-25T22:05:00Z", "webTitle": "Meltwater from Greenland glacier wipes out key crossing", "webUrl": "https://www.theguardian.com/environment/2012/jul/25/greenland-glacier-bridge-destroyed-video", "apiUrl": "https://content.guardianapis.com/environment/2012/jul/25/greenland-glacier-bridge-destroyed-video", "isHosted": false, "pillarId": "pillar/news", "pillarName": "News"}, {"id": "environment/2012/jul/25/cadboll-highlands-when-doves-cry", "type": "article", "sectionId": "environment", "sectionName": "Environment", "webPublicationDate": "2012-07-25T19:59:01Z", "webTitle": "Country diary: Cadboll, Highlands: When doves cry", "webUrl": "https://www.theguardian.com/environment/2012/jul/25/cadboll-highlands-when-doves-cry", "apiUrl": "https://content.guardianapis.com/environment/2012/jul/25/cadboll-highlands-when-doves-cry", "isHosted": false, "pillarId": "pillar/news", "pillarName": "News"}, {"id": "commentisfree/2012/jul/25/prowind-antiwind-depressingly-irrelevant", "type": "article", "sectionId": "commentisfree", "sectionName": "Opinion", "webPublicationDate": "2012-07-25T19:30:00Z", "webTitle": "Pro-wind. Anti-wind. It's all so depressingly irrelevant | Zoe Williams", "webUrl": "https://www.theguardian.com/commentisfree/2012/jul/25/prowind-antiwind-depressingly-irrelevant", "apiUrl": "https://content.guardianapis.com/commentisfree/2012/jul/25/prowind-antiwind-depressingly-irrelevant", "isHosted": false, "pillarId": "pillar/opinion", "pillarName": "Opinion"}, {"id": "business/nils-pratley-on-finance/2012/jul/25/drax-biomass-market-panic", "type": "article", "sectionId": "business", "sectionName": "Business", "webPublicationDate": "2012-07-25T17:27:21Z", "webTitle": "Drax suffers a market panic over biomass subsidies", "webUrl": "https://www.theguardian.com/business/nils-pratley-on-finance/2012/jul/25/drax-biomass-market-panic", "apiUrl": "https://content.guardianapis.com/business/nils-pratley-on-finance/2012/jul/25/drax-biomass-market-panic", "isHosted": false, "pillarId": "pillar/news", "pillarName": "News"}, {"id": "artanddesign/2012/jul/25/nyaba-leon-ouedraogo-best-photograph", "type": "article", "sectionId": "artanddesign", "sectionName": "Art and design", "webPublicationDate": "2012-07-25T17:07:45Z", "webTitle": "Nyaba Leon Ouedraogo's best photograph: Ghana's computer dump", "webUrl": "https://www.theguardian.com/artanddesign/2012/jul/25/nyaba-leon-ouedraogo-best-photograph", "apiUrl": "https://content.guardianapis.com/artanddesign/2012/jul/25/nyaba-leon-ouedraogo-best-photograph", "isHosted": false, "pillarId": "pillar/arts", "pillarName": "Arts"}, {"id": "environment/2012/jul/25/eu-price-carbon-emissions", "type": "article", "sectionId": "environment", "sectionName": "Environment", "webPublicationDate": "2012-07-25T16:43:12Z", "webTitle": "EU moves to shore up price of carbon emissions", "webUrl": "https://www.theguardian.com/environment/2012/jul/25/eu-price-carbon-emissions", "apiUrl": "https://content.guardianapis.com/environment/2012/jul/25/eu-price-carbon-emissions", "isHosted": false, "pillarId": "pillar/news", "pillarName": "News"}, {"id": "theguardian/2012/jul/25/why-do-stinging-nettles-sting", "type": "article", "sectionId": "lifeandstyle", "sectionName": "Life and style", "webPublicationDate": "2012-07-25T14:01:36Z", "webTitle": "Notes & Queries: Why do stinging nettles sting?", "webUrl": "https://www.theguardian.com/theguardian/2012/jul/25/why-do-stinging-nettles-sting", "apiUrl": "https://content.guardianapis.com/theguardian/2012/jul/25/why-do-stinging-nettles-sting", "isHosted": false, "pillarId": "pillar/lifestyle", "pillarName": "Lifestyle"}]}}