{"response": {"status": "ok", "userTier": "developer", "total": 126383, "startIndex": 1, "pageSize": 50, "currentPage": 1, "pages": 2528, "orderBy": "newest", "results": [{"id": "world/2010/jul/31/pakistan-security-cancels-uk-visit", "type": "article", "sectionId": "world", "sectionName": "World news", "webPublicationDate": "2010-07-30T23:56:34Z", "webTitle": "Pakistan security officers cancel UK visit", "webUrl": "https://www.theguardian.com/world/2010/jul/31/pakistan-security-cancels-uk-visit", "apiUrl": "https://content.guardianapis.com/world/2010/jul/31/pakistan-security-cancels-uk-visit", "isHosted": false, "pillarId": "pillar/news", "pillarName": "News"}, {"id": "global/2010/jul/31/iaian-duncan-smith-question-time", "type": "article", "sectionId": "commentisfree", "sectionName": "Opinion", "webPublicationDate": "2010-07-30T23:46:14Z", "webTitle": "Iain Duncan Smith: Question time | Editorial", "webUrl": "https://www.theguardian.com/global/2010/jul/31/iaian-duncan-smith-question-time", "apiUrl": "https://content.guardianapis.com/global/2010/jul/31/iaian-duncan-smith-question-time", "isHosted": false, "pillarId": "pillar/opinion", "pillarName": "Opinion"}, {"id": "theguardian/2010/jul/31/simon-hoggarts-week-lot-valley", "type": "article", "sectionId": "theguardian", "sectionName": "From the Guardian", "webPublicationDate": "2010-07-30T23:10:49Z", "webTitle": "Simon Hoggart's week: Lot valley? The French aren't kidding", "webUrl": "https://www.theguardian.com/theguardian/2010/jul/31/simon-hoggarts-week-lot-valley", "apiUrl": "https://content.guardianapis.com/theguardian/2010/jul/31/simon-hoggarts-week-lot-valley", "isHosted": false, "pillarId": "pillar/news", "pillarName": "News"}, {"id": "culture/2010/jul/31/commitment-to-arts-rock-solid", "type": "article", "sectionId": "culture", "sectionName": "Culture", "webPublicationDate": "2010-07-30T23:06:25Z", "webTitle": "Letters: Our commitment to the arts is rock solid", "webUrl": "https://www.theguardian.com/culture/2010/jul/31/commitment-to-arts-rock-solid", "apiUrl": "https://content.guardianapis.com/culture/2010/jul/31/commitment-to-arts-rock-solid", "isHosted": false, "pillarId": "pillar/arts", "pillarName": "Arts"}, {"id": "uk/2010/jul/31/sport-for-all-olympic-elite", "type": "article", "sectionId": "sport", "sectionName": "Sport", "webPublicationDate": "2010-07-30T23:06:25Z", "webTitle": "Letters: Sport for all \u2013 or an Olympic elite?", "webUrl": "https://www.theguardian.com/uk/2010/jul/31/sport-for-all-olympic-elite", "apiUrl": "https://content.guardianapis.com/uk/2010/jul/31/sport-for-all-olympic-elite", "isHosted": false, "pillarId": "pillar/sport", "pillarName": "Sport"}, {"id": "education/2010/jul/30/outstanding-school-rejected-academy-status", "type": "article", "sectionId": "education", "sectionName": "Education", "webPublicationDate": "2010-07-30T22:43:50Z", "webTitle": "Outstanding school rejected for academy status", "webUrl": "https://www.theguardian.com/education/2010/jul/30/outstanding-school-rejected-academy-status", "apiUrl": "https://content.guardianapis.com/education/2010/jul/30/outstanding-school-rejected-academy-status", "isHosted": false, "pillarId": "pillar/news", "pillarName": "News"}, {"id": "commentisfree/2010/jul/30/graciousness-cameron-era-virtue", "type": "article", "sectionId": "commentisfree", "sectionName": "Opinion", "webPublicationDate": "2010-07-30T22:00:50Z", "webTitle": "Off with your graciousness | Andrew Martin", "webUrl": "https://www.theguardian.com/commentisfree/2010/jul/30/graciousness-cameron-era-virtue", "apiUrl": "https://content.guardianapis.com/commentisfree/2010/jul/30/graciousness-cameron-era-virtue", "isHosted": false, "pillarId": "pillar/opinion", "pillarName": "Opinion"}, {"id": "politics/2010/jul/30/francis-maude-interview-coalition-cuts", "type": "article", "sectionId": "politics", "sectionName": "Politics", "webPublicationDate": "2010-07-30T21:31:00Z", "webTitle": "Francis Maude drives the pace of coalition's deep spending cuts", "webUrl": "https://www.theguardian.com/politics/2010/jul/30/francis-maude-interview-coalition-cuts", "apiUrl": "https://content.guardianapis.com/politics/2010/jul/30/francis-maude-interview-coalition-cuts", "isHosted": false, "pillarId": "pillar/news", "pillarName": "News"}, {"id": "politics/2010/jul/30/brokeback-coalition-francis-maude", "type": "article", "sectionId": "politics", "sectionName": "Politics", "webPublicationDate": "2010-07-30T21:26:11Z", "webTitle": "'Brokeback coalition' label has positive side, says minister", "webUrl": "https://www.theguardian.com/politics/2010/jul/30/brokeback-coalition-francis-maude", "apiUrl": "https://content.guardianapis.com/politics/2010/jul/30/brokeback-coalition-francis-maude", "isHosted": false, "pillarId": "pillar/news", "pillarName": "News"}, {"id": "politics/2010/jul/30/welfare-tax-benefits-duncan-smith", "type": "article", "sectionId": "politics", "sectionName": "Politics", "webPublicationDate": "2010-07-30T21:00:52Z", "webTitle": "Iain Duncan Smith plots welfare revolution despite Treasury resistance", "webUrl": "https://www.theguardian.com/politics/2010/jul/30/welfare-tax-benefits-duncan-smith", "apiUrl": "https://content.guardianapis.com/politics/2010/jul/30/welfare-tax-benefits-duncan-smith", "isHosted": false, "pillarId": "pillar/news", "pillarName": "News"}, {"id": "politics/2010/jul/30/coalition-government-reforms-francis-maude", "type": "article", "sectionId": "politics", "sectionName": "Politics", "webPublicationDate": "2010-07-30T21:00:50Z", "webTitle": "Coalition is more radical than Thatcher government, says senior Tory minister", "webUrl": "https://www.theguardian.com/politics/2010/jul/30/coalition-government-reforms-francis-maude", "apiUrl": "https://content.guardianapis.com/politics/2010/jul/30/coalition-government-reforms-francis-maude", "isHosted": false, "pillarId": "pillar/news", "pillarName": "News"}, {"id": "commentisfree/2010/jul/30/labour-opposition-blairites-in-power", "type": "article", "sectionId": "commentisfree", "sectionName": "Opinion", "webPublicationDate": "2010-07-30T20:00:49Z", "webTitle": "What can Labour do, with the\u00a0Blairites still in power? | John Harris", "webUrl": "https://www.theguardian.com/commentisfree/2010/jul/30/labour-opposition-blairites-in-power", "apiUrl": "https://content.guardianapis.com/commentisfree/2010/jul/30/labour-opposition-blairites-in-power", "isHosted": false, "pillarId": "pillar/opinion", "pillarName": "Opinion"}, {"id": "commentisfree/2010/jul/30/asbo-icon-new-labour-negligence", "type": "article", "sectionId": "commentisfree", "sectionName": "Opinion", "webPublicationDate": "2010-07-30T19:00:48Z", "webTitle": "The asbo is an icon of New Labour's negligence | Richard Sennett", "webUrl": "https://www.theguardian.com/commentisfree/2010/jul/30/asbo-icon-new-labour-negligence", "apiUrl": "https://content.guardianapis.com/commentisfree/2010/jul/30/asbo-icon-new-labour-negligence", "isHosted": false, "pillarId": "pillar/opinion", "pillarName": "Opinion"}, {"id": "politics/2010/jul/30/conservatives-accused-over-hospitals-policy", "type": "article", "sectionId": "politics", "sectionName": "Politics", "webPublicationDate": "2010-07-30T18:15:49Z", "webTitle": "Health secretary accused of U-turn on hospital cutbacks", "webUrl": "https://www.theguardian.com/politics/2010/jul/30/conservatives-accused-over-hospitals-policy", "apiUrl": "https://content.guardianapis.com/politics/2010/jul/30/conservatives-accused-over-hospitals-policy", "isHosted": false, "pillarId": "pillar/news", "pillarName": "News"}, {"id": "business/2010/jul/30/britishairways-theairlineindustry", "type": "article", "sectionId": "business", "sectionName": "Business", "webPublicationDate": "2010-07-30T18:08:31Z", "webTitle": "British Airways divides workers over pay and perks", "webUrl": "https://www.theguardian.com/business/2010/jul/30/britishairways-theairlineindustry", "apiUrl": "https://content.guardianapis.com/business/2010/jul/30/britishairways-theairlineindustry", "isHosted": false, "pillarId": "pillar/news", "pillarName": "News"}, {"id": "politics/2010/jul/30/rushed-conservative-coalition-policy", "type": "article", "sectionId": "politics", "sectionName": "Politics", "webPublicationDate": "2010-07-30T17:49:30Z", "webTitle": "Coalition government: Hasty plans, lengthy mistakes", "webUrl": "https://www.theguardian.com/politics/2010/jul/30/rushed-conservative-coalition-policy", "apiUrl": "https://content.guardianapis.com/politics/2010/jul/30/rushed-conservative-coalition-policy", "isHosted": false, "pillarId": "pillar/news", "pillarName": "News"}, {"id": "politics/2010/jul/30/mps-expenses-parliamentary-privilege-rejected", "type": "article", "sectionId": "politics", "sectionName": "Politics", "webPublicationDate": "2010-07-30T17:36:29Z", "webTitle": "Expenses: Court denies accused defence of parliamentary privilege", "webUrl": "https://www.theguardian.com/politics/2010/jul/30/mps-expenses-parliamentary-privilege-rejected", "apiUrl": "https://content.guardianapis.com/politics/2010/jul/30/mps-expenses-parliamentary-privilege-rejected", "isHosted": false, "pillarId": "pillar/news", "pillarName": "News"}, {"id": "commentisfree/2010/jul/30/trident-blows-up", "type": "article", "sectionId": "commentisfree", "sectionName": "Opinion", "webPublicationDate": "2010-07-30T17:30:48Z", "webTitle": "Trident blows up | Richard Norton-Taylor", "webUrl": "https://www.theguardian.com/commentisfree/2010/jul/30/trident-blows-up", "apiUrl": "https://content.guardianapis.com/commentisfree/2010/jul/30/trident-blows-up", "isHosted": false, "pillarId": "pillar/opinion", "pillarName": "Opinion"}, {"id": "commentisfree/2010/jul/30/iain-duncan-smith-benefit-reform", "type": "article", "sectionId": "commentisfree", "sectionName": "Opinion", "webPublicationDate": "2010-07-30T17:00:48Z", "webTitle": "Iain Duncan Smith's welfare reform deserves support | Kate Stanley", "webUrl": "https://www.theguardian.com/commentisfree/2010/jul/30/iain-duncan-smith-benefit-reform", "apiUrl": "https://content.guardianapis.com/commentisfree/2010/jul/30/iain-duncan-smith-benefit-reform", "isHosted": false, "pillarId": "pillar/opinion", "pillarName": "Opinion"}, {"id": "technology/pda/2010/jul/30/internet-explorer-6-uk-government", "type": "article", "sectionId": "technology", "sectionName": "Technology", "webPublicationDate": "2010-07-30T16:29:44Z", "webTitle": "Government rules out upgrading from Internet Explorer 6", "webUrl": "https://www.theguardian.com/technology/pda/2010/jul/30/internet-explorer-6-uk-government", "apiUrl": "https://content.guardianapis.com/technology/pda/2010/jul/30/internet-explorer-6-uk-government", "isHosted": false, "pillarId": "pillar/news", "pillarName": "News"}, {"id": "uk/2010/jul/30/prescott-last-witness-chilcot-inquiry", "type": "article", "sectionId": "uk-news", "sectionName": "UK news", "webPublicationDate": "2010-07-30T16:16:49Z", "webTitle": "The sofa deflates \u2013 Lord Prescott, the Chilcot inquiry's final public witness", "webUrl": "https://www.theguardian.com/uk/2010/jul/30/prescott-last-witness-chilcot-inquiry", "apiUrl": "https://content.guardianapis.com/uk/2010/jul/30/prescott-last-witness-chilcot-inquiry", "isHosted": false, "pillarId": "pillar/news", "pillarName": "News"}, {"id": "commentisfree/2010/jul/30/indians-david-cameron-visit", "type": "article", "sectionId": "commentisfree", "sectionName": "Opinion", "webPublicationDate": "2010-07-30T16:00:48Z", "webTitle": "Why Indians don't care about David Cameron | Leo Mirani", "webUrl": "https://www.theguardian.com/commentisfree/2010/jul/30/indians-david-cameron-visit", "apiUrl": "https://content.guardianapis.com/commentisfree/2010/jul/30/indians-david-cameron-visit", "isHosted": false, "pillarId": "pillar/opinion", "pillarName": "Opinion"}, {"id": "business/2010/jul/30/us-economy-falters-consumer-spending-slows", "type": "article", "sectionId": "business", "sectionName": "Business", "webPublicationDate": "2010-07-30T15:34:06Z", "webTitle": "US economy shows signs of slowdown as consumer spending falters", "webUrl": "https://www.theguardian.com/business/2010/jul/30/us-economy-falters-consumer-spending-slows", "apiUrl": "https://content.guardianapis.com/business/2010/jul/30/us-economy-falters-consumer-spending-slows", "isHosted": false, "pillarId": "pillar/news", "pillarName": "News"}, {"id": "politics/2010/jul/30/iain-duncan-smith-benefits-system", "type": "article", "sectionId": "politics", "sectionName": "Politics", "webPublicationDate": "2010-07-30T15:04:00Z", "webTitle": "Iain Duncan Smith reveals radical benefits plan", "webUrl": "https://www.theguardian.com/politics/2010/jul/30/iain-duncan-smith-benefits-system", "apiUrl": "https://content.guardianapis.com/politics/2010/jul/30/iain-duncan-smith-benefits-system", "isHosted": false, "pillarId": "pillar/news", "pillarName": "News"}, {"id": "commentisfree/2010/jul/30/george-osborne-recovery-slow-lane", "type": "article", "sectionId": "commentisfree", "sectionName": "Opinion", "webPublicationDate": "2010-07-30T15:00:47Z", "webTitle": "George Osborne has put the UK in the recovery slow lane | Liam Byrne", "webUrl": "https://www.theguardian.com/commentisfree/2010/jul/30/george-osborne-recovery-slow-lane", "apiUrl": "https://content.guardianapis.com/commentisfree/2010/jul/30/george-osborne-recovery-slow-lane", "isHosted": false, "pillarId": "pillar/opinion", "pillarName": "Opinion"}, {"id": "news/datablog/2010/jul/30/manchester-gmpte-open-data-odm-bus-transport", "type": "article", "sectionId": "news", "sectionName": "News", "webPublicationDate": "2010-07-30T13:51:04Z", "webTitle": "Manchester's bus timetable data sets released", "webUrl": "https://www.theguardian.com/news/datablog/2010/jul/30/manchester-gmpte-open-data-odm-bus-transport", "apiUrl": "https://content.guardianapis.com/news/datablog/2010/jul/30/manchester-gmpte-open-data-odm-bus-transport", "isHosted": false, "pillarId": "pillar/news", "pillarName": "News"}, {"id": "news/datablog/2010/jul/30/information-beautiful-india-cameron", "type": "article", "sectionId": "news", "sectionName": "News", "webPublicationDate": "2010-07-30T13:42:09Z", "webTitle": "Information is Beautiful hacks in India with David Cameron", "webUrl": "https://www.theguardian.com/news/datablog/2010/jul/30/information-beautiful-india-cameron", "apiUrl": "https://content.guardianapis.com/news/datablog/2010/jul/30/information-beautiful-india-cameron", "isHosted": false, "pillarId": "pillar/news", "pillarName": "News"}, {"id": "environment/audio/2010/jul/30/london-cycle-hire-scheme", "type": "audio", "sectionId": "environment", "sectionName": "Environment", "webPublicationDate": "2010-07-30T13:02:07Z", "webTitle": "The bike podcast: London's cycle hire scheme", "webUrl": "https://www.theguardian.com/environment/audio/2010/jul/30/london-cycle-hire-scheme", "apiUrl": "https://content.guardianapis.com/environment/audio/2010/jul/30/london-cycle-hire-scheme", "isHosted": false, "pillarId": "pillar/news", "pillarName": "News"}, {"id": "business/2010/jul/30/asil-nadir-offered-bail-to-return-uk-trial", "type": "article", "sectionId": "law", "sectionName": "Law", "webPublicationDate": "2010-07-30T12:49:19Z", "webTitle": "Fugitive tycoon Asil Nadir offered deal to return to Britain for trial", "webUrl": "https://www.theguardian.com/business/2010/jul/30/asil-nadir-offered-bail-to-return-uk-trial", "apiUrl": "https://content.guardianapis.com/business/2010/jul/30/asil-nadir-offered-bail-to-return-uk-trial", "isHosted": false, "pillarId": "pillar/news", "pillarName": "News"}, {"id": "commentisfree/2010/jul/30/welfare-reform-iain-duncan-smith", "type": "article", "sectionId": "commentisfree", "sectionName": "Opinion", "webPublicationDate": "2010-07-30T12:33:39Z", "webTitle": "Welfare reform: devil is in lack of detail | John McTernan", "webUrl": "https://www.theguardian.com/commentisfree/2010/jul/30/welfare-reform-iain-duncan-smith", "apiUrl": "https://content.guardianapis.com/commentisfree/2010/jul/30/welfare-reform-iain-duncan-smith", "isHosted": false, "pillarId": "pillar/opinion", "pillarName": "Opinion"}, {"id": "money/cartoon/2010/jul/30/big-society-ills", "type": "picture", "sectionId": "money", "sectionName": "Money", "webPublicationDate": "2010-07-30T12:19:15Z", "webTitle": "Pushing envelopes: Big society ills", "webUrl": "https://www.theguardian.com/money/cartoon/2010/jul/30/big-society-ills", "apiUrl": "https://content.guardianapis.com/money/cartoon/2010/jul/30/big-society-ills", "isHosted": false, "pillarId": "pillar/lifestyle", "pillarName": "Lifestyle"}, {"id": "commentisfree/2010/jul/30/lib-dems-five-days-that-changed-britain", "type": "article", "sectionId": "commentisfree", "sectionName": "Opinion", "webPublicationDate": "2010-07-30T12:13:29Z", "webTitle": "Democracy was loser in coalition deal | Tom Clark", "webUrl": "https://www.theguardian.com/commentisfree/2010/jul/30/lib-dems-five-days-that-changed-britain", "apiUrl": "https://content.guardianapis.com/commentisfree/2010/jul/30/lib-dems-five-days-that-changed-britain", "isHosted": false, "pillarId": "pillar/opinion", "pillarName": "Opinion"}, {"id": "business/2010/jul/30/british-airways-losses-union-reaction", "type": "article", "sectionId": "business", "sectionName": "Business", "webPublicationDate": "2010-07-30T11:12:21Z", "webTitle": "BA losses show cabin crew deal is vital, says union", "webUrl": "https://www.theguardian.com/business/2010/jul/30/british-airways-losses-union-reaction", "apiUrl": "https://content.guardianapis.com/business/2010/jul/30/british-airways-losses-union-reaction", "isHosted": false, "pillarId": "pillar/news", "pillarName": "News"}, {"id": "politics/2010/jul/30/lord-prescott-chilcot-inquiry", "type": "article", "sectionId": "politics", "sectionName": "Politics", "webPublicationDate": "2010-07-30T10:59:21Z", "webTitle": "Lord Prescott admits intelligence doubts prior to Iraq war", "webUrl": "https://www.theguardian.com/politics/2010/jul/30/lord-prescott-chilcot-inquiry", "apiUrl": "https://content.guardianapis.com/politics/2010/jul/30/lord-prescott-chilcot-inquiry", "isHosted": false, "pillarId": "pillar/news", "pillarName": "News"}, {"id": "media/greenslade/2010/jul/30/pauldacre-pcc", "type": "article", "sectionId": "media", "sectionName": "Media", "webPublicationDate": "2010-07-30T09:38:15Z", "webTitle": "Daily Mail's Paul Dacre slams PCC critics as ignorant and predjudiced", "webUrl": "https://www.theguardian.com/media/greenslade/2010/jul/30/pauldacre-pcc", "apiUrl": "https://content.guardianapis.com/media/greenslade/2010/jul/30/pauldacre-pcc", "isHosted": false, "pillarId": "pillar/news", "pillarName": "News"}, {"id": "global/blog/2010/jul/30/john-prescott-iraq-war-inquiry", "type": "article", "sectionId": "politics", "sectionName": "Politics", "webPublicationDate": "2010-07-30T08:30:52Z", "webTitle": "Politics live blog \u2013 John Prescott at the Iraq inquiry", "webUrl": "https://www.theguardian.com/global/blog/2010/jul/30/john-prescott-iraq-war-inquiry", "apiUrl": "https://content.guardianapis.com/global/blog/2010/jul/30/john-prescott-iraq-war-inquiry", "isHosted": false, "pillarId": "pillar/news", "pillarName": "News"}, {"id": "uk/2010/jul/29/george-osborne-trident-defence-budget", "type": "article", "sectionId": "uk-news", "sectionName": "UK news", "webPublicationDate": "2010-07-30T07:24:00Z", "webTitle": "George Osborne: Trident costs will be met by defence budget", "webUrl": "https://www.theguardian.com/uk/2010/jul/29/george-osborne-trident-defence-budget", "apiUrl": "https://content.guardianapis.com/uk/2010/jul/29/george-osborne-trident-defence-budget", "isHosted": false, "pillarId": "pillar/news", "pillarName": "News"}, {"id": "commentisfree/2010/jul/30/no-secret-pakistan-taliban", "type": "article", "sectionId": "commentisfree", "sectionName": "Opinion", "webPublicationDate": "2010-07-30T06:30:47Z", "webTitle": "It's no secret what Pakistan's been doing with the Taliban  | Tariq Ali", "webUrl": "https://www.theguardian.com/commentisfree/2010/jul/30/no-secret-pakistan-taliban", "apiUrl": "https://content.guardianapis.com/commentisfree/2010/jul/30/no-secret-pakistan-taliban", "isHosted": false, "pillarId": "pillar/opinion", "pillarName": "Opinion"}, {"id": "uk/2010/jul/30/ipcc-police-cs-gas", "type": "article", "sectionId": "uk-news", "sectionName": "UK news", "webPublicationDate": "2010-07-30T05:00:46Z", "webTitle": "Police officers cleared over use of CS gas in Essex pub", "webUrl": "https://www.theguardian.com/uk/2010/jul/30/ipcc-police-cs-gas", "apiUrl": "https://content.guardianapis.com/uk/2010/jul/30/ipcc-police-cs-gas", "isHosted": false, "pillarId": "pillar/news", "pillarName": "News"}, {"id": "commentisfree/cartoon/2010/jul/30/david-cameron-india-tanya-tier", "type": "picture", "sectionId": "commentisfree", "sectionName": "Opinion", "webPublicationDate": "2010-07-29T23:15:29Z", "webTitle": "Cartoon: David Cameron abroad", "webUrl": "https://www.theguardian.com/commentisfree/cartoon/2010/jul/30/david-cameron-india-tanya-tier", "apiUrl": "https://content.guardianapis.com/commentisfree/cartoon/2010/jul/30/david-cameron-india-tanya-tier", "isHosted": false, "pillarId": "pillar/opinion", "pillarName": "Opinion"}, {"id": "politics/2010/jul/30/hugh-muirs-diary", "type": "article", "sectionId": "politics", "sectionName": "Politics", "webPublicationDate": "2010-07-29T23:14:45Z", "webTitle": "Hugh Muir's Diary", "webUrl": "https://www.theguardian.com/politics/2010/jul/30/hugh-muirs-diary", "apiUrl": "https://content.guardianapis.com/politics/2010/jul/30/hugh-muirs-diary", "isHosted": false, "pillarId": "pillar/news", "pillarName": "News"}, {"id": "commentisfree/2010/jul/30/default-retirement-age-job", "type": "article", "sectionId": "commentisfree", "sectionName": "Opinion", "webPublicationDate": "2010-07-29T23:05:52Z", "webTitle": "Default retirement age: No longer up to the job | Editorial", "webUrl": "https://www.theguardian.com/commentisfree/2010/jul/30/default-retirement-age-job", "apiUrl": "https://content.guardianapis.com/commentisfree/2010/jul/30/default-retirement-age-job", "isHosted": false, "pillarId": "pillar/opinion", "pillarName": "Opinion"}, {"id": "commentisfree/2010/jul/30/coalition-talks-history", "type": "article", "sectionId": "commentisfree", "sectionName": "Opinion", "webPublicationDate": "2010-07-29T23:05:51Z", "webTitle": "Coalition talks: Making history | Editorial", "webUrl": "https://www.theguardian.com/commentisfree/2010/jul/30/coalition-talks-history", "apiUrl": "https://content.guardianapis.com/commentisfree/2010/jul/30/coalition-talks-history", "isHosted": false, "pillarId": "pillar/opinion", "pillarName": "Opinion"}, {"id": "world/2010/jul/30/uk-india-partnership-hopes", "type": "article", "sectionId": "world", "sectionName": "World news", "webPublicationDate": "2010-07-29T23:05:50Z", "webTitle": "Letters: Visa issues upset UK-India partnership hopes", "webUrl": "https://www.theguardian.com/world/2010/jul/30/uk-india-partnership-hopes", "apiUrl": "https://content.guardianapis.com/world/2010/jul/30/uk-india-partnership-hopes", "isHosted": false, "pillarId": "pillar/news", "pillarName": "News"}, {"id": "uk/2010/jul/30/protest-at-shocking-tomlinson-decision", "type": "article", "sectionId": "uk-news", "sectionName": "UK news", "webPublicationDate": "2010-07-29T23:05:47Z", "webTitle": "Letters: Protest at shocking Tomlinson decision", "webUrl": "https://www.theguardian.com/uk/2010/jul/30/protest-at-shocking-tomlinson-decision", "apiUrl": "https://content.guardianapis.com/uk/2010/jul/30/protest-at-shocking-tomlinson-decision", "isHosted": false, "pillarId": "pillar/news", "pillarName": "News"}, {"id": "politics/2010/jul/30/voting-reform-and-vested-interests", "type": "article", "sectionId": "politics", "sectionName": "Politics", "webPublicationDate": "2010-07-29T23:04:45Z", "webTitle": "Letters: Voting reform and vested interests", "webUrl": "https://www.theguardian.com/politics/2010/jul/30/voting-reform-and-vested-interests", "apiUrl": "https://content.guardianapis.com/politics/2010/jul/30/voting-reform-and-vested-interests", "isHosted": false, "pillarId": "pillar/news", "pillarName": "News"}, {"id": "politics/2010/jul/29/david-cameron-letter-thanks-conservatives", "type": "article", "sectionId": "politics", "sectionName": "Politics", "webPublicationDate": "2010-07-29T22:54:38Z", "webTitle": "David Cameron looks to reassure backbenchers with letter of thanks", "webUrl": "https://www.theguardian.com/politics/2010/jul/29/david-cameron-letter-thanks-conservatives", "apiUrl": "https://content.guardianapis.com/politics/2010/jul/29/david-cameron-letter-thanks-conservatives", "isHosted": false, "pillarId": "pillar/news", "pillarName": "News"}, {"id": "uk/2010/jul/29/maze-prison-peace-centre", "type": "article", "sectionId": "uk-news", "sectionName": "UK news", "webPublicationDate": "2010-07-29T21:32:53Z", "webTitle": "Maze prison peace centre gets go-ahead", "webUrl": "https://www.theguardian.com/uk/2010/jul/29/maze-prison-peace-centre", "apiUrl": "https://content.guardianapis.com/uk/2010/jul/29/maze-prison-peace-centre", "isHosted": false, "pillarId": "pillar/news", "pillarName": "News"}, {"id": "politics/2010/jul/29/iain-duncan-smith-benefits-job-incentives", "type": "article", "sectionId": "politics", "sectionName": "Politics", "webPublicationDate": "2010-07-29T21:17:00Z", "webTitle": "Duncan Smith shakes up benefits in bid to cut costs and increase job incentives", "webUrl": "https://www.theguardian.com/politics/2010/jul/29/iain-duncan-smith-benefits-job-incentives", "apiUrl": "https://content.guardianapis.com/politics/2010/jul/29/iain-duncan-smith-benefits-job-incentives", "isHosted": false, "pillarId": "pillar/news", "pillarName": "News"}, {"id": "commentisfree/2010/jul/29/right-to-work-recession-women-at-work", "type": "article", "sectionId": "commentisfree", "sectionName": "Opinion", "webPublicationDate": "2010-07-29T21:00:49Z", "webTitle": "Right to Work: In search of a new slogan | Nina Power", "webUrl": "https://www.theguardian.com/commentisfree/2010/jul/29/right-to-work-recession-women-at-work", "apiUrl": "https://content.guardianapis.com/commentisfree/2010/jul/29/right-to-work-recession-women-at-work", "isHosted": false, "pillarId": "pillar/opinion", "pillarName": "Opinion"}]}}