{"response": {"status": "ok", "userTier": "developer", "total": 16611, "startIndex": 1, "pageSize": 50, "currentPage": 1, "pages": 333, "orderBy": "newest", "results": [{"id": "world/2011/jul/31/ferran-adria-el-bulli-closure", "type": "article", "sectionId": "world", "sectionName": "World news", "webPublicationDate": "2011-07-30T23:07:00Z", "webTitle": "How a wartime romance gave birth to the best restaurant in the world", "webUrl": "https://www.theguardian.com/world/2011/jul/31/ferran-adria-el-bulli-closure", "apiUrl": "https://content.guardianapis.com/world/2011/jul/31/ferran-adria-el-bulli-closure", "isHosted": false, "pillarId": "pillar/news", "pillarName": "News"}, {"id": "lifeandstyle/2011/jul/31/jay-rayner-royal-academy-arts", "type": "article", "sectionId": "food", "sectionName": "Food", "webPublicationDate": "2011-07-30T23:05:00Z", "webTitle": "Restaurant review: Royal Academy of Arts", "webUrl": "https://www.theguardian.com/lifeandstyle/2011/jul/31/jay-rayner-royal-academy-arts", "apiUrl": "https://content.guardianapis.com/lifeandstyle/2011/jul/31/jay-rayner-royal-academy-arts", "isHosted": false, "pillarId": "pillar/lifestyle", "pillarName": "Lifestyle"}, {"id": "lifeandstyle/gallery/2011/jul/31/el-bulli-last-meal-pictures", "type": "gallery", "sectionId": "food", "sectionName": "Food", "webPublicationDate": "2011-07-30T23:04:00Z", "webTitle": "El Bulli: the last meal \u2013 in pictures", "webUrl": "https://www.theguardian.com/lifeandstyle/gallery/2011/jul/31/el-bulli-last-meal-pictures", "apiUrl": "https://content.guardianapis.com/lifeandstyle/gallery/2011/jul/31/el-bulli-last-meal-pictures", "isHosted": false, "pillarId": "pillar/lifestyle", "pillarName": "Lifestyle"}, {"id": "lifeandstyle/2011/jul/30/el-bulli-closes-ferran-adria", "type": "article", "sectionId": "food", "sectionName": "Food", "webPublicationDate": "2011-07-29T23:12:00Z", "webTitle": "El Bulli closes: Farewell parmesan frozen air ...", "webUrl": "https://www.theguardian.com/lifeandstyle/2011/jul/30/el-bulli-closes-ferran-adria", "apiUrl": "https://content.guardianapis.com/lifeandstyle/2011/jul/30/el-bulli-closes-ferran-adria", "isHosted": false, "pillarId": "pillar/lifestyle", "pillarName": "Lifestyle"}, {"id": "artanddesign/2011/jul/30/readers-favourite-photographs-songs-recipes", "type": "article", "sectionId": "artanddesign", "sectionName": "Art and design", "webPublicationDate": "2011-07-29T23:04:01Z", "webTitle": "Family life", "webUrl": "https://www.theguardian.com/artanddesign/2011/jul/30/readers-favourite-photographs-songs-recipes", "apiUrl": "https://content.guardianapis.com/artanddesign/2011/jul/30/readers-favourite-photographs-songs-recipes", "isHosted": false, "pillarId": "pillar/arts", "pillarName": "Arts"}, {"id": "lifeandstyle/2011/jul/29/mixed-bean-salad-recipe-aubergine-curry", "type": "article", "sectionId": "food", "sectionName": "Food", "webPublicationDate": "2011-07-29T22:00:15Z", "webTitle": "Mixed bean salad, plus aubergine pahi recipes | Yotam Ottolenghi", "webUrl": "https://www.theguardian.com/lifeandstyle/2011/jul/29/mixed-bean-salad-recipe-aubergine-curry", "apiUrl": "https://content.guardianapis.com/lifeandstyle/2011/jul/29/mixed-bean-salad-recipe-aubergine-curry", "isHosted": false, "pillarId": "pillar/lifestyle", "pillarName": "Lifestyle"}, {"id": "lifeandstyle/2011/jul/29/wholewheat-spiced-plum-tart-recipe", "type": "article", "sectionId": "lifeandstyle", "sectionName": "Life and style", "webPublicationDate": "2011-07-29T21:59:53Z", "webTitle": "Wholewheat plum tart with sherry cream recipe | Dan Lepard", "webUrl": "https://www.theguardian.com/lifeandstyle/2011/jul/29/wholewheat-spiced-plum-tart-recipe", "apiUrl": "https://content.guardianapis.com/lifeandstyle/2011/jul/29/wholewheat-spiced-plum-tart-recipe", "isHosted": false, "pillarId": "pillar/lifestyle", "pillarName": "Lifestyle"}, {"id": "lifeandstyle/2011/jul/29/pittcue-buen-provecho-restaurant-review", "type": "article", "sectionId": "lifeandstyle", "sectionName": "Life and style", "webPublicationDate": "2011-07-29T21:59:38Z", "webTitle": "Restaurant: PittCue Co and Buen Provecho, both London SE1 | John Lanchester", "webUrl": "https://www.theguardian.com/lifeandstyle/2011/jul/29/pittcue-buen-provecho-restaurant-review", "apiUrl": "https://content.guardianapis.com/lifeandstyle/2011/jul/29/pittcue-buen-provecho-restaurant-review", "isHosted": false, "pillarId": "pillar/lifestyle", "pillarName": "Lifestyle"}, {"id": "lifeandstyle/2011/jul/29/oat-flour-recipes-elephant-garlic-fort", "type": "article", "sectionId": "lifeandstyle", "sectionName": "Life and style", "webPublicationDate": "2011-07-29T21:59:21Z", "webTitle": "Food for Fort: On oat flour and elephant garlic", "webUrl": "https://www.theguardian.com/lifeandstyle/2011/jul/29/oat-flour-recipes-elephant-garlic-fort", "apiUrl": "https://content.guardianapis.com/lifeandstyle/2011/jul/29/oat-flour-recipes-elephant-garlic-fort", "isHosted": false, "pillarId": "pillar/lifestyle", "pillarName": "Lifestyle"}, {"id": "lifeandstyle/2011/jul/29/which-wine-with-which-dish-review", "type": "article", "sectionId": "food", "sectionName": "Food", "webPublicationDate": "2011-07-29T21:59:19Z", "webTitle": "Wine: Which bottle with which dish?", "webUrl": "https://www.theguardian.com/lifeandstyle/2011/jul/29/which-wine-with-which-dish-review", "apiUrl": "https://content.guardianapis.com/lifeandstyle/2011/jul/29/which-wine-with-which-dish-review", "isHosted": false, "pillarId": "pillar/lifestyle", "pillarName": "Lifestyle"}, {"id": "lifeandstyle/cartoon/2011/jul/29/food-and-drink", "type": "picture", "sectionId": "lifeandstyle", "sectionName": "Life and style", "webPublicationDate": "2011-07-29T21:59:00Z", "webTitle": "Berger & Wyse", "webUrl": "https://www.theguardian.com/lifeandstyle/cartoon/2011/jul/29/food-and-drink", "apiUrl": "https://content.guardianapis.com/lifeandstyle/cartoon/2011/jul/29/food-and-drink", "isHosted": false, "pillarId": "pillar/lifestyle", "pillarName": "Lifestyle"}, {"id": "commentisfree/2011/jul/29/unthinkable-serviceable-service-stations", "type": "article", "sectionId": "commentisfree", "sectionName": "Opinion", "webPublicationDate": "2011-07-29T21:48:03Z", "webTitle": "Unthinkable? Serviceable service stations | Editorial", "webUrl": "https://www.theguardian.com/commentisfree/2011/jul/29/unthinkable-serviceable-service-stations", "apiUrl": "https://content.guardianapis.com/commentisfree/2011/jul/29/unthinkable-serviceable-service-stations", "isHosted": false, "pillarId": "pillar/opinion", "pillarName": "Opinion"}, {"id": "travel/2011/jul/29/food-cookery-courses-britain-restaurants", "type": "article", "sectionId": "travel", "sectionName": "Travel", "webPublicationDate": "2011-07-29T21:45:00Z", "webTitle": "Five alternative treats  for foodies", "webUrl": "https://www.theguardian.com/travel/2011/jul/29/food-cookery-courses-britain-restaurants", "apiUrl": "https://content.guardianapis.com/travel/2011/jul/29/food-cookery-courses-britain-restaurants", "isHosted": false, "pillarId": "pillar/lifestyle", "pillarName": "Lifestyle"}, {"id": "lifeandstyle/wordofmouth/2011/jul/29/cut-the-el-bulli", "type": "article", "sectionId": "food", "sectionName": "Food", "webPublicationDate": "2011-07-29T15:46:35Z", "webTitle": "El Bulli is closing: now let's cut the bull", "webUrl": "https://www.theguardian.com/lifeandstyle/wordofmouth/2011/jul/29/cut-the-el-bulli", "apiUrl": "https://content.guardianapis.com/lifeandstyle/wordofmouth/2011/jul/29/cut-the-el-bulli", "isHosted": false, "pillarId": "pillar/lifestyle", "pillarName": "Lifestyle"}, {"id": "science/blog/2011/jul/29/science-magic-beer", "type": "article", "sectionId": "science", "sectionName": "Science", "webPublicationDate": "2011-07-29T11:33:00Z", "webTitle": "The science and magic of beer | Andy Connelly", "webUrl": "https://www.theguardian.com/science/blog/2011/jul/29/science-magic-beer", "apiUrl": "https://content.guardianapis.com/science/blog/2011/jul/29/science-magic-beer", "isHosted": false, "pillarId": "pillar/news", "pillarName": "News"}, {"id": "lifeandstyle/wordofmouth/2011/jul/29/alcohol-consumption-still-falling", "type": "article", "sectionId": "lifeandstyle", "sectionName": "Life and style", "webPublicationDate": "2011-07-29T09:00:00Z", "webTitle": "Teetotal numbers on the rise", "webUrl": "https://www.theguardian.com/lifeandstyle/wordofmouth/2011/jul/29/alcohol-consumption-still-falling", "apiUrl": "https://content.guardianapis.com/lifeandstyle/wordofmouth/2011/jul/29/alcohol-consumption-still-falling", "isHosted": false, "pillarId": "pillar/lifestyle", "pillarName": "Lifestyle"}, {"id": "lifeandstyle/wordofmouth/2011/jul/28/how-to-make-perfect-lemon-sorbet", "type": "article", "sectionId": "food", "sectionName": "Food", "webPublicationDate": "2011-07-28T06:00:00Z", "webTitle": "How to make perfect lemon sorbet", "webUrl": "https://www.theguardian.com/lifeandstyle/wordofmouth/2011/jul/28/how-to-make-perfect-lemon-sorbet", "apiUrl": "https://content.guardianapis.com/lifeandstyle/wordofmouth/2011/jul/28/how-to-make-perfect-lemon-sorbet", "isHosted": false, "pillarId": "pillar/lifestyle", "pillarName": "Lifestyle"}, {"id": "lifeandstyle/2011/jul/27/leftovers-challenge-to-valentine-warner", "type": "article", "sectionId": "food", "sectionName": "Food", "webPublicationDate": "2011-07-27T20:00:00Z", "webTitle": "Valentine Warner takes up our leftovers challenge", "webUrl": "https://www.theguardian.com/lifeandstyle/2011/jul/27/leftovers-challenge-to-valentine-warner", "apiUrl": "https://content.guardianapis.com/lifeandstyle/2011/jul/27/leftovers-challenge-to-valentine-warner", "isHosted": false, "pillarId": "pillar/lifestyle", "pillarName": "Lifestyle"}, {"id": "lifeandstyle/2011/jul/27/chicken-sweet-potato-hotpot-recipe", "type": "article", "sectionId": "lifeandstyle", "sectionName": "Life and style", "webPublicationDate": "2011-07-27T17:00:00Z", "webTitle": "Chicken and sweet potato hotpot recipe | Angela Hartnett", "webUrl": "https://www.theguardian.com/lifeandstyle/2011/jul/27/chicken-sweet-potato-hotpot-recipe", "apiUrl": "https://content.guardianapis.com/lifeandstyle/2011/jul/27/chicken-sweet-potato-hotpot-recipe", "isHosted": false, "pillarId": "pillar/lifestyle", "pillarName": "Lifestyle"}, {"id": "lifeandstyle/wordofmouth/2011/jul/27/water-in-bacon-new-rasher-regulations", "type": "article", "sectionId": "food", "sectionName": "Food", "webPublicationDate": "2011-07-27T15:54:00Z", "webTitle": "Water in bacon: new rasher regulations", "webUrl": "https://www.theguardian.com/lifeandstyle/wordofmouth/2011/jul/27/water-in-bacon-new-rasher-regulations", "apiUrl": "https://content.guardianapis.com/lifeandstyle/wordofmouth/2011/jul/27/water-in-bacon-new-rasher-regulations", "isHosted": false, "pillarId": "pillar/lifestyle", "pillarName": "Lifestyle"}, {"id": "world/view-from-jerusalem-with-harriet-sherwood/2011/jul/27/israel-israel", "type": "article", "sectionId": "world", "sectionName": "World news", "webPublicationDate": "2011-07-27T09:04:00Z", "webTitle": "Jerusalem promotes culinary attractions alongside religion and history", "webUrl": "https://www.theguardian.com/world/view-from-jerusalem-with-harriet-sherwood/2011/jul/27/israel-israel", "apiUrl": "https://content.guardianapis.com/world/view-from-jerusalem-with-harriet-sherwood/2011/jul/27/israel-israel", "isHosted": false, "pillarId": "pillar/news", "pillarName": "News"}, {"id": "lifeandstyle/2011/jul/26/fast-food-study-calories-labelling", "type": "article", "sectionId": "food", "sectionName": "Food", "webPublicationDate": "2011-07-26T22:30:00Z", "webTitle": "Fast-food study finds calories count for little for most customers", "webUrl": "https://www.theguardian.com/lifeandstyle/2011/jul/26/fast-food-study-calories-labelling", "apiUrl": "https://content.guardianapis.com/lifeandstyle/2011/jul/26/fast-food-study-calories-labelling", "isHosted": false, "pillarId": "pillar/lifestyle", "pillarName": "Lifestyle"}, {"id": "lifeandstyle/2011/jul/26/vintage-cake-stand-how-to-make", "type": "article", "sectionId": "lifeandstyle", "sectionName": "Life and style", "webPublicationDate": "2011-07-26T10:33:00Z", "webTitle": "How to make a vintage cake stand", "webUrl": "https://www.theguardian.com/lifeandstyle/2011/jul/26/vintage-cake-stand-how-to-make", "apiUrl": "https://content.guardianapis.com/lifeandstyle/2011/jul/26/vintage-cake-stand-how-to-make", "isHosted": false, "pillarId": "pillar/lifestyle", "pillarName": "Lifestyle"}, {"id": "commentisfree/2011/jul/26/britain-tip-jar", "type": "article", "sectionId": "commentisfree", "sectionName": "Opinion", "webPublicationDate": "2011-07-26T08:59:00Z", "webTitle": "Britain, say no to the tip jar | Susan Bradley", "webUrl": "https://www.theguardian.com/commentisfree/2011/jul/26/britain-tip-jar", "apiUrl": "https://content.guardianapis.com/commentisfree/2011/jul/26/britain-tip-jar", "isHosted": false, "pillarId": "pillar/opinion", "pillarName": "Opinion"}, {"id": "lifeandstyle/wordofmouth/2011/jul/26/consider-sushi", "type": "article", "sectionId": "food", "sectionName": "Food", "webPublicationDate": "2011-07-26T08:40:00Z", "webTitle": "Consider sushi", "webUrl": "https://www.theguardian.com/lifeandstyle/wordofmouth/2011/jul/26/consider-sushi", "apiUrl": "https://content.guardianapis.com/lifeandstyle/wordofmouth/2011/jul/26/consider-sushi", "isHosted": false, "pillarId": "pillar/lifestyle", "pillarName": "Lifestyle"}, {"id": "business/2011/jul/25/dominos-pizza-raises-marketing-budget", "type": "article", "sectionId": "business", "sectionName": "Business", "webPublicationDate": "2011-07-25T17:48:37Z", "webTitle": "Domino's Pizza tops up marketing budget to challenge upmarket rivals", "webUrl": "https://www.theguardian.com/business/2011/jul/25/dominos-pizza-raises-marketing-budget", "apiUrl": "https://content.guardianapis.com/business/2011/jul/25/dominos-pizza-raises-marketing-budget", "isHosted": false, "pillarId": "pillar/news", "pillarName": "News"}, {"id": "lifeandstyle/wordofmouth/2011/jul/25/return-of-the-cheesecake", "type": "article", "sectionId": "lifeandstyle", "sectionName": "Life and style", "webPublicationDate": "2011-07-25T10:15:00Z", "webTitle": "Return of the cheesecake", "webUrl": "https://www.theguardian.com/lifeandstyle/wordofmouth/2011/jul/25/return-of-the-cheesecake", "apiUrl": "https://content.guardianapis.com/lifeandstyle/wordofmouth/2011/jul/25/return-of-the-cheesecake", "isHosted": false, "pillarId": "pillar/lifestyle", "pillarName": "Lifestyle"}, {"id": "lifeandstyle/2011/jul/25/beetroot-salad-recipe", "type": "article", "sectionId": "food", "sectionName": "Food", "webPublicationDate": "2011-07-25T09:15:00Z", "webTitle": "Beetroot salad recipe", "webUrl": "https://www.theguardian.com/lifeandstyle/2011/jul/25/beetroot-salad-recipe", "apiUrl": "https://content.guardianapis.com/lifeandstyle/2011/jul/25/beetroot-salad-recipe", "isHosted": false, "pillarId": "pillar/lifestyle", "pillarName": "Lifestyle"}, {"id": "lifeandstyle/wordofmouth/video/2011/jul/25/how-to-cook-beetroot-salad-video", "type": "video", "sectionId": "lifeandstyle", "sectionName": "Life and style", "webPublicationDate": "2011-07-25T08:00:00Z", "webTitle": "How to cook beetroot salad - video", "webUrl": "https://www.theguardian.com/lifeandstyle/wordofmouth/video/2011/jul/25/how-to-cook-beetroot-salad-video", "apiUrl": "https://content.guardianapis.com/lifeandstyle/wordofmouth/video/2011/jul/25/how-to-cook-beetroot-salad-video", "isHosted": false, "pillarId": "pillar/lifestyle", "pillarName": "Lifestyle"}, {"id": "lifeandstyle/2011/jul/24/david-williams-wines-of-the-week", "type": "article", "sectionId": "food", "sectionName": "Food", "webPublicationDate": "2011-07-23T23:05:38Z", "webTitle": "Wines of the week: David Williams", "webUrl": "https://www.theguardian.com/lifeandstyle/2011/jul/24/david-williams-wines-of-the-week", "apiUrl": "https://content.guardianapis.com/lifeandstyle/2011/jul/24/david-williams-wines-of-the-week", "isHosted": false, "pillarId": "pillar/lifestyle", "pillarName": "Lifestyle"}, {"id": "lifeandstyle/2011/jul/24/jay-rayner-restaurants-bbq-shack", "type": "article", "sectionId": "food", "sectionName": "Food", "webPublicationDate": "2011-07-23T23:05:00Z", "webTitle": "Restaurant review: BBQ Shack", "webUrl": "https://www.theguardian.com/lifeandstyle/2011/jul/24/jay-rayner-restaurants-bbq-shack", "apiUrl": "https://content.guardianapis.com/lifeandstyle/2011/jul/24/jay-rayner-restaurants-bbq-shack", "isHosted": false, "pillarId": "pillar/lifestyle", "pillarName": "Lifestyle"}, {"id": "culture/gallery/2011/jul/24/food-and-drink", "type": "gallery", "sectionId": "culture", "sectionName": "Culture", "webPublicationDate": "2011-07-23T23:01:00Z", "webTitle": "The 10 best meals in the movies", "webUrl": "https://www.theguardian.com/culture/gallery/2011/jul/24/food-and-drink", "apiUrl": "https://content.guardianapis.com/culture/gallery/2011/jul/24/food-and-drink", "isHosted": false, "pillarId": "pillar/arts", "pillarName": "Arts"}, {"id": "tv-and-radio/2011/jul/23/the-good-cook-grace-dent-tv-od", "type": "article", "sectionId": "tv-and-radio", "sectionName": "Television & radio", "webPublicationDate": "2011-07-22T23:06:00Z", "webTitle": "The Good Cook: Grace Dent's TV OD", "webUrl": "https://www.theguardian.com/tv-and-radio/2011/jul/23/the-good-cook-grace-dent-tv-od", "apiUrl": "https://content.guardianapis.com/tv-and-radio/2011/jul/23/the-good-cook-grace-dent-tv-od", "isHosted": false, "pillarId": "pillar/arts", "pillarName": "Arts"}, {"id": "lifeandstyle/2011/jul/22/medlar-london-sw1-restaurant-review", "type": "article", "sectionId": "lifeandstyle", "sectionName": "Life and style", "webPublicationDate": "2011-07-22T21:59:28Z", "webTitle": "Restaurant: Medlar, London SW1 | John Lanchester", "webUrl": "https://www.theguardian.com/lifeandstyle/2011/jul/22/medlar-london-sw1-restaurant-review", "apiUrl": "https://content.guardianapis.com/lifeandstyle/2011/jul/22/medlar-london-sw1-restaurant-review", "isHosted": false, "pillarId": "pillar/lifestyle", "pillarName": "Lifestyle"}, {"id": "lifeandstyle/2011/jul/22/tomato-baguette-cherry-fritter-recipes", "type": "article", "sectionId": "food", "sectionName": "Food", "webPublicationDate": "2011-07-22T21:59:14Z", "webTitle": "Baked tomatoes with baguette recipe, plus cherry and apple fritters with fennel sugar | Yotam Ottolenghi", "webUrl": "https://www.theguardian.com/lifeandstyle/2011/jul/22/tomato-baguette-cherry-fritter-recipes", "apiUrl": "https://content.guardianapis.com/lifeandstyle/2011/jul/22/tomato-baguette-cherry-fritter-recipes", "isHosted": false, "pillarId": "pillar/lifestyle", "pillarName": "Lifestyle"}, {"id": "lifeandstyle/2011/jul/22/green-fruit-jelly-ginger-cordial", "type": "article", "sectionId": "lifeandstyle", "sectionName": "Life and style", "webPublicationDate": "2011-07-22T21:59:11Z", "webTitle": "Food for Fort: On green jelly and ginger | Matthew Fort", "webUrl": "https://www.theguardian.com/lifeandstyle/2011/jul/22/green-fruit-jelly-ginger-cordial", "apiUrl": "https://content.guardianapis.com/lifeandstyle/2011/jul/22/green-fruit-jelly-ginger-cordial", "isHosted": false, "pillarId": "pillar/lifestyle", "pillarName": "Lifestyle"}, {"id": "lifeandstyle/2011/jul/22/cheesy-torpedoes-recipe-dan-lepard", "type": "article", "sectionId": "lifeandstyle", "sectionName": "Life and style", "webPublicationDate": "2011-07-22T21:59:00Z", "webTitle": "Cheddar torpedoes recipe | Dan Lepard", "webUrl": "https://www.theguardian.com/lifeandstyle/2011/jul/22/cheesy-torpedoes-recipe-dan-lepard", "apiUrl": "https://content.guardianapis.com/lifeandstyle/2011/jul/22/cheesy-torpedoes-recipe-dan-lepard", "isHosted": false, "pillarId": "pillar/lifestyle", "pillarName": "Lifestyle"}, {"id": "lifeandstyle/2011/jul/22/supermarket-wine-review", "type": "article", "sectionId": "food", "sectionName": "Food", "webPublicationDate": "2011-07-22T21:59:00Z", "webTitle": "Wine: The supermarkets' end of term report | Fiona Beckett", "webUrl": "https://www.theguardian.com/lifeandstyle/2011/jul/22/supermarket-wine-review", "apiUrl": "https://content.guardianapis.com/lifeandstyle/2011/jul/22/supermarket-wine-review", "isHosted": false, "pillarId": "pillar/lifestyle", "pillarName": "Lifestyle"}, {"id": "lifeandstyle/cartoon/2011/jul/22/1", "type": "picture", "sectionId": "lifeandstyle", "sectionName": "Life and style", "webPublicationDate": "2011-07-22T21:59:00Z", "webTitle": "Berger & Wyse", "webUrl": "https://www.theguardian.com/lifeandstyle/cartoon/2011/jul/22/1", "apiUrl": "https://content.guardianapis.com/lifeandstyle/cartoon/2011/jul/22/1", "isHosted": false, "pillarId": "pillar/lifestyle", "pillarName": "Lifestyle"}, {"id": "commentisfree/2011/jul/22/giving-up-an-unhealthy-habit", "type": "article", "sectionId": "commentisfree", "sectionName": "Opinion", "webPublicationDate": "2011-07-22T15:04:32Z", "webTitle": "Comment is free readers on... giving up an unhealthy habit | The people's panel", "webUrl": "https://www.theguardian.com/commentisfree/2011/jul/22/giving-up-an-unhealthy-habit", "apiUrl": "https://content.guardianapis.com/commentisfree/2011/jul/22/giving-up-an-unhealthy-habit", "isHosted": false, "pillarId": "pillar/opinion", "pillarName": "Opinion"}, {"id": "lifeandstyle/wordofmouth/2011/jul/22/new-chips-off-the-old-block", "type": "article", "sectionId": "lifeandstyle", "sectionName": "Life and style", "webPublicationDate": "2011-07-22T10:15:00Z", "webTitle": "New chips off the old block", "webUrl": "https://www.theguardian.com/lifeandstyle/wordofmouth/2011/jul/22/new-chips-off-the-old-block", "apiUrl": "https://content.guardianapis.com/lifeandstyle/wordofmouth/2011/jul/22/new-chips-off-the-old-block", "isHosted": false, "pillarId": "pillar/lifestyle", "pillarName": "Lifestyle"}, {"id": "lifeandstyle/wordofmouth/2011/jul/22/premier-crue-celebrity-branded-drinks", "type": "article", "sectionId": "food", "sectionName": "Food", "webPublicationDate": "2011-07-22T08:45:00Z", "webTitle": "Premier Cr\u00fce: celebrity branded drinks", "webUrl": "https://www.theguardian.com/lifeandstyle/wordofmouth/2011/jul/22/premier-crue-celebrity-branded-drinks", "apiUrl": "https://content.guardianapis.com/lifeandstyle/wordofmouth/2011/jul/22/premier-crue-celebrity-branded-drinks", "isHosted": false, "pillarId": "pillar/lifestyle", "pillarName": "Lifestyle"}, {"id": "lifeandstyle/gallery/2011/jul/21/off-taste-awards-pictures", "type": "gallery", "sectionId": "fashion", "sectionName": "Fashion", "webPublicationDate": "2011-07-21T19:00:00Z", "webTitle": "The off-taste awards \u2013 in pictures", "webUrl": "https://www.theguardian.com/lifeandstyle/gallery/2011/jul/21/off-taste-awards-pictures", "apiUrl": "https://content.guardianapis.com/lifeandstyle/gallery/2011/jul/21/off-taste-awards-pictures", "isHosted": false, "pillarId": "pillar/lifestyle", "pillarName": "Lifestyle"}, {"id": "world/gallery/2011/jul/21/jesus-food-sightings", "type": "gallery", "sectionId": "world", "sectionName": "World news", "webPublicationDate": "2011-07-21T16:17:00Z", "webTitle": "Jesus sightings in food (and walls) - in pictures", "webUrl": "https://www.theguardian.com/world/gallery/2011/jul/21/jesus-food-sightings", "apiUrl": "https://content.guardianapis.com/world/gallery/2011/jul/21/jesus-food-sightings", "isHosted": false, "pillarId": "pillar/news", "pillarName": "News"}, {"id": "lifeandstyle/2011/jul/20/organic-fruit-veg-made-easy", "type": "article", "sectionId": "food", "sectionName": "Food", "webPublicationDate": "2011-07-20T20:00:00Z", "webTitle": "Organic fruit and veg made easy", "webUrl": "https://www.theguardian.com/lifeandstyle/2011/jul/20/organic-fruit-veg-made-easy", "apiUrl": "https://content.guardianapis.com/lifeandstyle/2011/jul/20/organic-fruit-veg-made-easy", "isHosted": false, "pillarId": "pillar/lifestyle", "pillarName": "Lifestyle"}, {"id": "lifeandstyle/wordofmouth/2011/jul/20/how-cook-perfect-potted-shrimps", "type": "article", "sectionId": "food", "sectionName": "Food", "webPublicationDate": "2011-07-20T19:00:00Z", "webTitle": "How to cook perfect potted shrimps", "webUrl": "https://www.theguardian.com/lifeandstyle/wordofmouth/2011/jul/20/how-cook-perfect-potted-shrimps", "apiUrl": "https://content.guardianapis.com/lifeandstyle/wordofmouth/2011/jul/20/how-cook-perfect-potted-shrimps", "isHosted": false, "pillarId": "pillar/lifestyle", "pillarName": "Lifestyle"}, {"id": "uk/2011/jul/20/mcdonalds-olympics-biggest-mac-diner", "type": "article", "sectionId": "business", "sectionName": "Business", "webPublicationDate": "2011-07-20T17:28:12Z", "webTitle": "McDonald's makes 2012 Olympics pledge to create the biggest and busiest Big Mac diner", "webUrl": "https://www.theguardian.com/uk/2011/jul/20/mcdonalds-olympics-biggest-mac-diner", "apiUrl": "https://content.guardianapis.com/uk/2011/jul/20/mcdonalds-olympics-biggest-mac-diner", "isHosted": false, "pillarId": "pillar/news", "pillarName": "News"}, {"id": "world/2011/jul/20/pernod-staff-drink-test-claim", "type": "article", "sectionId": "world", "sectionName": "World news", "webPublicationDate": "2011-07-20T17:20:24Z", "webTitle": "Pernod loses legal challenge over staff drink test claim", "webUrl": "https://www.theguardian.com/world/2011/jul/20/pernod-staff-drink-test-claim", "apiUrl": "https://content.guardianapis.com/world/2011/jul/20/pernod-staff-drink-test-claim", "isHosted": false, "pillarId": "pillar/news", "pillarName": "News"}, {"id": "business/2011/jul/20/starbucks-uk-boss-kris-engskov", "type": "article", "sectionId": "business", "sectionName": "Business", "webPublicationDate": "2011-07-20T16:52:25Z", "webTitle": "Former Clinton aide to lead Starbucks in UK and Ireland", "webUrl": "https://www.theguardian.com/business/2011/jul/20/starbucks-uk-boss-kris-engskov", "apiUrl": "https://content.guardianapis.com/business/2011/jul/20/starbucks-uk-boss-kris-engskov", "isHosted": false, "pillarId": "pillar/news", "pillarName": "News"}, {"id": "lifeandstyle/2011/jul/20/bean-salad-goats-cheese-recipe", "type": "article", "sectionId": "food", "sectionName": "Food", "webPublicationDate": "2011-07-20T14:45:00Z", "webTitle": "Bean salad with goat's cheese recipe | Angela Hartnett", "webUrl": "https://www.theguardian.com/lifeandstyle/2011/jul/20/bean-salad-goats-cheese-recipe", "apiUrl": "https://content.guardianapis.com/lifeandstyle/2011/jul/20/bean-salad-goats-cheese-recipe", "isHosted": false, "pillarId": "pillar/lifestyle", "pillarName": "Lifestyle"}]}}