{"response": {"status": "ok", "userTier": "developer", "total": 93757, "startIndex": 1, "pageSize": 50, "currentPage": 1, "pages": 1876, "orderBy": "newest", "results": [{"id": "football/2015/jul/30/john-terry-radamel-falcao-chelsea", "type": "article", "sectionId": "football", "sectionName": "Football", "webPublicationDate": "2015-07-30T21:30:03Z", "webTitle": "John Terry backs \u2018top, top player\u2019 Radamel Falcao to succeed at Chelsea", "webUrl": "https://www.theguardian.com/football/2015/jul/30/john-terry-radamel-falcao-chelsea", "apiUrl": "https://content.guardianapis.com/football/2015/jul/30/john-terry-radamel-falcao-chelsea", "isHosted": false, "pillarId": "pillar/sport", "pillarName": "Sport"}, {"id": "football/2015/jul/30/liverpool-omit-balotelli-borini-jose-enrique", "type": "article", "sectionId": "football", "sectionName": "Football", "webPublicationDate": "2015-07-30T21:30:03Z", "webTitle": "Liverpool omit Balotelli, Borini and Jos\u00e9 Enrique for final pre-season games", "webUrl": "https://www.theguardian.com/football/2015/jul/30/liverpool-omit-balotelli-borini-jose-enrique", "apiUrl": "https://content.guardianapis.com/football/2015/jul/30/liverpool-omit-balotelli-borini-jose-enrique", "isHosted": false, "pillarId": "pillar/sport", "pillarName": "Sport"}, {"id": "football/2015/jul/30/west-ham-astra-giurgiu-europa-league", "type": "article", "sectionId": "football", "sectionName": "Football", "webPublicationDate": "2015-07-30T21:11:45Z", "webTitle": "West Ham 2-2 Astra Giurgiu | Europa League third qualifying round match report", "webUrl": "https://www.theguardian.com/football/2015/jul/30/west-ham-astra-giurgiu-europa-league", "apiUrl": "https://content.guardianapis.com/football/2015/jul/30/west-ham-astra-giurgiu-europa-league", "isHosted": false, "pillarId": "pillar/sport", "pillarName": "Sport"}, {"id": "football/2015/jul/30/southampton-vitesse-europa-league-report", "type": "article", "sectionId": "football", "sectionName": "Football", "webPublicationDate": "2015-07-30T21:06:16Z", "webTitle": "Southampton 3-0 Vitesse | Europa League third qualifying round match report", "webUrl": "https://www.theguardian.com/football/2015/jul/30/southampton-vitesse-europa-league-report", "apiUrl": "https://content.guardianapis.com/football/2015/jul/30/southampton-vitesse-europa-league-report", "isHosted": false, "pillarId": "pillar/sport", "pillarName": "Sport"}, {"id": "football/2015/jul/30/crystal-palace-connor-wickham-sunderland-agree-fee", "type": "article", "sectionId": "football", "sectionName": "Football", "webPublicationDate": "2015-07-30T20:26:41Z", "webTitle": "Crystal Palace agree fee of around \u00a38m for Sunderland\u2019s Connor Wickham", "webUrl": "https://www.theguardian.com/football/2015/jul/30/crystal-palace-connor-wickham-sunderland-agree-fee", "apiUrl": "https://content.guardianapis.com/football/2015/jul/30/crystal-palace-connor-wickham-sunderland-agree-fee", "isHosted": false, "pillarId": "pillar/sport", "pillarName": "Sport"}, {"id": "football/2015/jul/30/arsenal-isaac-hayden-hull-city-loan", "type": "article", "sectionId": "football", "sectionName": "Football", "webPublicationDate": "2015-07-30T18:54:53Z", "webTitle": "Arsenal prospect Isaac Hayden ready to go to Hull City on loan", "webUrl": "https://www.theguardian.com/football/2015/jul/30/arsenal-isaac-hayden-hull-city-loan", "apiUrl": "https://content.guardianapis.com/football/2015/jul/30/arsenal-isaac-hayden-hull-city-loan", "isHosted": false, "pillarId": "pillar/sport", "pillarName": "Sport"}, {"id": "football/2015/jul/30/newcastle-chancel-mbemba-anderlecht", "type": "article", "sectionId": "football", "sectionName": "Football", "webPublicationDate": "2015-07-30T18:23:14Z", "webTitle": "Newcastle sign Anderlecht\u2019s Chancel Mbemba for \u00a38m", "webUrl": "https://www.theguardian.com/football/2015/jul/30/newcastle-chancel-mbemba-anderlecht", "apiUrl": "https://content.guardianapis.com/football/2015/jul/30/newcastle-chancel-mbemba-anderlecht", "isHosted": false, "pillarId": "pillar/sport", "pillarName": "Sport"}, {"id": "football/2015/jul/30/psg-manchester-united-angel-di-maria", "type": "article", "sectionId": "football", "sectionName": "Football", "webPublicationDate": "2015-07-30T17:12:21Z", "webTitle": "PSG close to sealing \u00a340m deal for Manchester United\u2019s \u00c1ngel Di Mar\u00eda", "webUrl": "https://www.theguardian.com/football/2015/jul/30/psg-manchester-united-angel-di-maria", "apiUrl": "https://content.guardianapis.com/football/2015/jul/30/psg-manchester-united-angel-di-maria", "isHosted": false, "pillarId": "pillar/sport", "pillarName": "Sport"}, {"id": "football/2015/jul/30/the-fiver-fifa-on-it-goes", "type": "article", "sectionId": "football", "sectionName": "Football", "webPublicationDate": "2015-07-30T14:54:17Z", "webTitle": "The Fiver | Feel that minty fresh air whipping through the corridors of power", "webUrl": "https://www.theguardian.com/football/2015/jul/30/the-fiver-fifa-on-it-goes", "apiUrl": "https://content.guardianapis.com/football/2015/jul/30/the-fiver-fifa-on-it-goes", "isHosted": false, "pillarId": "pillar/sport", "pillarName": "Sport"}, {"id": "football/blog/2015/jul/30/liverpool-premier-league-preview-2015-16-brendan-rodgers", "type": "article", "sectionId": "football", "sectionName": "Football", "webPublicationDate": "2015-07-30T14:42:00Z", "webTitle": "Premier League 2015-16 preview No8: Liverpool | Sachin Nakrani", "webUrl": "https://www.theguardian.com/football/blog/2015/jul/30/liverpool-premier-league-preview-2015-16-brendan-rodgers", "apiUrl": "https://content.guardianapis.com/football/blog/2015/jul/30/liverpool-premier-league-preview-2015-16-brendan-rodgers", "isHosted": false, "pillarId": "pillar/sport", "pillarName": "Sport"}, {"id": "football/2015/jul/30/kang-soo-il-drugs-ban-mixed-race-koreans", "type": "article", "sectionId": "football", "sectionName": "Football", "webPublicationDate": "2015-07-30T14:39:22Z", "webTitle": "Kang Soo-il\u2019s drugs ban ruins inspirational tale for mixed-race Koreans", "webUrl": "https://www.theguardian.com/football/2015/jul/30/kang-soo-il-drugs-ban-mixed-race-koreans", "apiUrl": "https://content.guardianapis.com/football/2015/jul/30/kang-soo-il-drugs-ban-mixed-race-koreans", "isHosted": false, "pillarId": "pillar/sport", "pillarName": "Sport"}, {"id": "football/2015/jul/30/rickie-lambert-move-liverpool-west-bromwich-albion", "type": "article", "sectionId": "football", "sectionName": "Football", "webPublicationDate": "2015-07-30T13:14:16Z", "webTitle": "Rickie Lambert set to finalise move from Liverpool to West Brom", "webUrl": "https://www.theguardian.com/football/2015/jul/30/rickie-lambert-move-liverpool-west-bromwich-albion", "apiUrl": "https://content.guardianapis.com/football/2015/jul/30/rickie-lambert-move-liverpool-west-bromwich-albion", "isHosted": false, "pillarId": "pillar/sport", "pillarName": "Sport"}, {"id": "football/2015/jul/30/oldham-sign-david-dunn-blackburn-rovers", "type": "article", "sectionId": "football", "sectionName": "Football", "webPublicationDate": "2015-07-30T11:30:56Z", "webTitle": "Oldham sign David Dunn following his release by Blackburn Rovers", "webUrl": "https://www.theguardian.com/football/2015/jul/30/oldham-sign-david-dunn-blackburn-rovers", "apiUrl": "https://content.guardianapis.com/football/2015/jul/30/oldham-sign-david-dunn-blackburn-rovers", "isHosted": false, "pillarId": "pillar/sport", "pillarName": "Sport"}, {"id": "football/2015/jul/30/chelsea-ji-so-yun-fa-cup", "type": "article", "sectionId": "football", "sectionName": "Football", "webPublicationDate": "2015-07-30T11:26:51Z", "webTitle": "Chelsea\u2019s Ji So-yun eager to crown brilliant season with FA Cup glory", "webUrl": "https://www.theguardian.com/football/2015/jul/30/chelsea-ji-so-yun-fa-cup", "apiUrl": "https://content.guardianapis.com/football/2015/jul/30/chelsea-ji-so-yun-fa-cup", "isHosted": false, "pillarId": "pillar/sport", "pillarName": "Sport"}, {"id": "football/2015/jul/30/1966-world-cup-england-memories-photos", "type": "article", "sectionId": "football", "sectionName": "Football", "webPublicationDate": "2015-07-30T11:23:13Z", "webTitle": "Do you remember the 1966 World Cup in England? If so, we want to hear from you", "webUrl": "https://www.theguardian.com/football/2015/jul/30/1966-world-cup-england-memories-photos", "apiUrl": "https://content.guardianapis.com/football/2015/jul/30/1966-world-cup-england-memories-photos", "isHosted": false, "pillarId": "pillar/sport", "pillarName": "Sport"}, {"id": "football/blog/2015/jul/30/championship-managers-sackings-promotion-relegation", "type": "article", "sectionId": "football", "sectionName": "Football", "webPublicationDate": "2015-07-30T10:00:02Z", "webTitle": "Championship sackings prove it is the toughest of all managerial challenges | Paul Wilson", "webUrl": "https://www.theguardian.com/football/blog/2015/jul/30/championship-managers-sackings-promotion-relegation", "apiUrl": "https://content.guardianapis.com/football/blog/2015/jul/30/championship-managers-sackings-promotion-relegation", "isHosted": false, "pillarId": "pillar/sport", "pillarName": "Sport"}, {"id": "football/blog/2015/jul/30/salah-hasarma-hapoel-ironi-kiryat-shmona-europa-league", "type": "article", "sectionId": "football", "sectionName": "Football", "webPublicationDate": "2015-07-30T09:30:01Z", "webTitle": "Salah Hasarma prepares to make history for Israeli club Kiryat Shmona | Shaul Adar", "webUrl": "https://www.theguardian.com/football/blog/2015/jul/30/salah-hasarma-hapoel-ironi-kiryat-shmona-europa-league", "apiUrl": "https://content.guardianapis.com/football/blog/2015/jul/30/salah-hasarma-hapoel-ironi-kiryat-shmona-europa-league", "isHosted": false, "pillarId": "pillar/sport", "pillarName": "Sport"}, {"id": "football/blog/2015/jul/30/david-de-gea-manchester-united-louis-van-gaal", "type": "article", "sectionId": "football", "sectionName": "Football", "webPublicationDate": "2015-07-30T09:06:51Z", "webTitle": "David de Gea question is still the live issue in Manchester United squad | Jamie Jackson", "webUrl": "https://www.theguardian.com/football/blog/2015/jul/30/david-de-gea-manchester-united-louis-van-gaal", "apiUrl": "https://content.guardianapis.com/football/blog/2015/jul/30/david-de-gea-manchester-united-louis-van-gaal", "isHosted": false, "pillarId": "pillar/sport", "pillarName": "Sport"}, {"id": "sport/blog/2015/jul/30/classic-youtube-best-sports-clips", "type": "article", "sectionId": "sport", "sectionName": "Sport", "webPublicationDate": "2015-07-30T09:05:01Z", "webTitle": "When Robin Williams made the World Cup 1994 draw with Sepp Blatter | Classic YouTube", "webUrl": "https://www.theguardian.com/sport/blog/2015/jul/30/classic-youtube-best-sports-clips", "apiUrl": "https://content.guardianapis.com/sport/blog/2015/jul/30/classic-youtube-best-sports-clips", "isHosted": false, "pillarId": "pillar/sport", "pillarName": "Sport"}, {"id": "football/2015/jul/30/oscar-pareja-fc-dallas-colombia-pablo-escobar", "type": "article", "sectionId": "football", "sectionName": "Football", "webPublicationDate": "2015-07-30T09:00:01Z", "webTitle": "The day FC Dallas coach Oscar Pareja took on drug lord Pablo Escobar", "webUrl": "https://www.theguardian.com/football/2015/jul/30/oscar-pareja-fc-dallas-colombia-pablo-escobar", "apiUrl": "https://content.guardianapis.com/football/2015/jul/30/oscar-pareja-fc-dallas-colombia-pablo-escobar", "isHosted": false, "pillarId": "pillar/sport", "pillarName": "Sport"}, {"id": "football/2015/jul/30/football-transfer-rumours-sergio-busquets-arsenal", "type": "article", "sectionId": "football", "sectionName": "Football", "webPublicationDate": "2015-07-30T08:16:50Z", "webTitle": "Football transfer rumours: Sergio Busquets to Arsenal?", "webUrl": "https://www.theguardian.com/football/2015/jul/30/football-transfer-rumours-sergio-busquets-arsenal", "apiUrl": "https://content.guardianapis.com/football/2015/jul/30/football-transfer-rumours-sergio-busquets-arsenal", "isHosted": false, "pillarId": "pillar/sport", "pillarName": "Sport"}, {"id": "business/2015/jul/30/bt-adds-more-fibre-broadband-customers-profits-rise", "type": "article", "sectionId": "business", "sectionName": "Business", "webPublicationDate": "2015-07-30T08:07:38Z", "webTitle": "BT television boosted by sports channel screening Uefa Champions League", "webUrl": "https://www.theguardian.com/business/2015/jul/30/bt-adds-more-fibre-broadband-customers-profits-rise", "apiUrl": "https://content.guardianapis.com/business/2015/jul/30/bt-adds-more-fibre-broadband-customers-profits-rise", "isHosted": false, "pillarId": "pillar/news", "pillarName": "News"}, {"id": "football/2015/jul/30/chung-mong-joon-sepp-blatter-president-fifa", "type": "article", "sectionId": "football", "sectionName": "Football", "webPublicationDate": "2015-07-30T07:56:19Z", "webTitle": "Fifa president candidate Chung Mong-joon compares Sepp Blatter to \u2018cannibal\u2019", "webUrl": "https://www.theguardian.com/football/2015/jul/30/chung-mong-joon-sepp-blatter-president-fifa", "apiUrl": "https://content.guardianapis.com/football/2015/jul/30/chung-mong-joon-sepp-blatter-president-fifa", "isHosted": false, "pillarId": "pillar/sport", "pillarName": "Sport"}, {"id": "football/blog/2015/jul/30/premier-league-2015-16-preview-leicester-city", "type": "article", "sectionId": "football", "sectionName": "Football", "webPublicationDate": "2015-07-30T07:46:24Z", "webTitle": "Premier League 2015-16 preview No7: Leicester City | Paul Doyle", "webUrl": "https://www.theguardian.com/football/blog/2015/jul/30/premier-league-2015-16-preview-leicester-city", "apiUrl": "https://content.guardianapis.com/football/blog/2015/jul/30/premier-league-2015-16-preview-leicester-city", "isHosted": false, "pillarId": "pillar/sport", "pillarName": "Sport"}, {"id": "football/2015/jul/30/mls-all-stars-tottenham-hotspur-match-report", "type": "article", "sectionId": "football", "sectionName": "Football", "webPublicationDate": "2015-07-30T07:24:53Z", "webTitle": "MLS All-Stars 2-1 Tottenham Hotspur | pre-season match report", "webUrl": "https://www.theguardian.com/football/2015/jul/30/mls-all-stars-tottenham-hotspur-match-report", "apiUrl": "https://content.guardianapis.com/football/2015/jul/30/mls-all-stars-tottenham-hotspur-match-report", "isHosted": false, "pillarId": "pillar/sport", "pillarName": "Sport"}, {"id": "football/2015/jul/30/manchester-city-loan-new-signing-enes-unal-genk", "type": "article", "sectionId": "football", "sectionName": "Football", "webPublicationDate": "2015-07-30T07:00:14Z", "webTitle": "Manchester City set to loan new signing Enes Unal to Genk", "webUrl": "https://www.theguardian.com/football/2015/jul/30/manchester-city-loan-new-signing-enes-unal-genk", "apiUrl": "https://content.guardianapis.com/football/2015/jul/30/manchester-city-loan-new-signing-enes-unal-genk", "isHosted": false, "pillarId": "pillar/sport", "pillarName": "Sport"}, {"id": "football/2015/jul/30/louis-van-gaal-david-de-gea-flux-is-not-favourable-for-all-parties-concerned", "type": "article", "sectionId": "football", "sectionName": "Football", "webPublicationDate": "2015-07-30T05:17:12Z", "webTitle": "Louis van Gaal: David de Gea flux is 'not favourable' for all parties concerned", "webUrl": "https://www.theguardian.com/football/2015/jul/30/louis-van-gaal-david-de-gea-flux-is-not-favourable-for-all-parties-concerned", "apiUrl": "https://content.guardianapis.com/football/2015/jul/30/louis-van-gaal-david-de-gea-flux-is-not-favourable-for-all-parties-concerned", "isHosted": false, "pillarId": "pillar/sport", "pillarName": "Sport"}, {"id": "football/2015/jul/29/manchester-united-psg-david-de-gea", "type": "article", "sectionId": "football", "sectionName": "Football", "webPublicationDate": "2015-07-30T03:21:13Z", "webTitle": "Manchester United 0-2 PSG | Match report", "webUrl": "https://www.theguardian.com/football/2015/jul/29/manchester-united-psg-david-de-gea", "apiUrl": "https://content.guardianapis.com/football/2015/jul/29/manchester-united-psg-david-de-gea", "isHosted": false, "pillarId": "pillar/sport", "pillarName": "Sport"}, {"id": "football/live/2015/jul/29/manchester-united-psg-international-champions-cup-live", "type": "liveblog", "sectionId": "football", "sectionName": "Football", "webPublicationDate": "2015-07-30T03:05:18Z", "webTitle": "Manchester United 0-2 PSG: International Champions Cup \u2013 as it happened", "webUrl": "https://www.theguardian.com/football/live/2015/jul/29/manchester-united-psg-international-champions-cup-live", "apiUrl": "https://content.guardianapis.com/football/live/2015/jul/29/manchester-united-psg-international-champions-cup-live", "isHosted": false, "pillarId": "pillar/sport", "pillarName": "Sport"}, {"id": "football/blog/2015/jul/30/ffa-cup-returns-with-a-bang-as-hume-city-edge-seven-goal-extra-time-thriller", "type": "article", "sectionId": "football", "sectionName": "Football", "webPublicationDate": "2015-07-30T00:35:11Z", "webTitle": "The FFA Cup returns with a seven-goal extra-time thriller at Hume City | Paul Connolly", "webUrl": "https://www.theguardian.com/football/blog/2015/jul/30/ffa-cup-returns-with-a-bang-as-hume-city-edge-seven-goal-extra-time-thriller", "apiUrl": "https://content.guardianapis.com/football/blog/2015/jul/30/ffa-cup-returns-with-a-bang-as-hume-city-edge-seven-goal-extra-time-thriller", "isHosted": false, "pillarId": "pillar/sport", "pillarName": "Sport"}, {"id": "football/2015/jul/29/fa-michel-platini-fifa-blatter-prince-ali", "type": "article", "sectionId": "football", "sectionName": "Football", "webPublicationDate": "2015-07-29T22:07:30Z", "webTitle": "FA backs Michel Platini as Fifa president while nominations stay open", "webUrl": "https://www.theguardian.com/football/2015/jul/29/fa-michel-platini-fifa-blatter-prince-ali", "apiUrl": "https://content.guardianapis.com/football/2015/jul/29/fa-michel-platini-fifa-blatter-prince-ali", "isHosted": false, "pillarId": "pillar/sport", "pillarName": "Sport"}, {"id": "football/2015/jul/29/sunderland-doncaster-rovers-friendly-defeat", "type": "article", "sectionId": "football", "sectionName": "Football", "webPublicationDate": "2015-07-29T21:58:56Z", "webTitle": "Doncaster Rovers 2-0 Sunderland | Pre-season friendly match report", "webUrl": "https://www.theguardian.com/football/2015/jul/29/sunderland-doncaster-rovers-friendly-defeat", "apiUrl": "https://content.guardianapis.com/football/2015/jul/29/sunderland-doncaster-rovers-friendly-defeat", "isHosted": false, "pillarId": "pillar/sport", "pillarName": "Sport"}, {"id": "football/2015/jul/29/chelsea-champions-league-nemanja-matic-barcelona", "type": "article", "sectionId": "football", "sectionName": "Football", "webPublicationDate": "2015-07-29T21:50:00Z", "webTitle": "Chelsea have nothing to fear in the Champions League \u2013 Nemanja Matic", "webUrl": "https://www.theguardian.com/football/2015/jul/29/chelsea-champions-league-nemanja-matic-barcelona", "apiUrl": "https://content.guardianapis.com/football/2015/jul/29/chelsea-champions-league-nemanja-matic-barcelona", "isHosted": false, "pillarId": "pillar/sport", "pillarName": "Sport"}, {"id": "football/2015/jul/29/callum-wilson-signs-new-bournemouth-deal", "type": "article", "sectionId": "football", "sectionName": "Football", "webPublicationDate": "2015-07-29T21:30:03Z", "webTitle": "Callum Wilson signs new four-year deal with Bournemouth", "webUrl": "https://www.theguardian.com/football/2015/jul/29/callum-wilson-signs-new-bournemouth-deal", "apiUrl": "https://content.guardianapis.com/football/2015/jul/29/callum-wilson-signs-new-bournemouth-deal", "isHosted": false, "pillarId": "pillar/sport", "pillarName": "Sport"}, {"id": "football/2015/jul/29/manchester-united-china-tour", "type": "article", "sectionId": "football", "sectionName": "Football", "webPublicationDate": "2015-07-29T21:30:03Z", "webTitle": "Manchester United\u2019s proposed China tour may upset Louis van Gaal", "webUrl": "https://www.theguardian.com/football/2015/jul/29/manchester-united-china-tour", "apiUrl": "https://content.guardianapis.com/football/2015/jul/29/manchester-united-china-tour", "isHosted": false, "pillarId": "pillar/sport", "pillarName": "Sport"}, {"id": "football/2015/jul/29/celtic-qarabag-champions-league-third-qualifying-round", "type": "article", "sectionId": "football", "sectionName": "Football", "webPublicationDate": "2015-07-29T20:55:29Z", "webTitle": "Celtic 1-0 Qarabag | Champions League third qualifying round first leg", "webUrl": "https://www.theguardian.com/football/2015/jul/29/celtic-qarabag-champions-league-third-qualifying-round", "apiUrl": "https://content.guardianapis.com/football/2015/jul/29/celtic-qarabag-champions-league-third-qualifying-round", "isHosted": false, "pillarId": "pillar/sport", "pillarName": "Sport"}, {"id": "football/2015/jul/29/everton-reject-chelsea-bid-manchester-united-john-stones", "type": "article", "sectionId": "football", "sectionName": "Football", "webPublicationDate": "2015-07-29T18:49:00Z", "webTitle": "Everton reject Chelsea\u2019s \u00a326m as Manchester United target John Stones", "webUrl": "https://www.theguardian.com/football/2015/jul/29/everton-reject-chelsea-bid-manchester-united-john-stones", "apiUrl": "https://content.guardianapis.com/football/2015/jul/29/everton-reject-chelsea-bid-manchester-united-john-stones", "isHosted": false, "pillarId": "pillar/sport", "pillarName": "Sport"}, {"id": "football/blog/2015/jul/29/jose-mourinho-confident-chelsea-john-stones", "type": "article", "sectionId": "football", "sectionName": "Football", "webPublicationDate": "2015-07-29T18:21:05Z", "webTitle": "Jos\u00e9 Mourinho confident in Chelsea but still wants John Stones | Steve Brenner", "webUrl": "https://www.theguardian.com/football/blog/2015/jul/29/jose-mourinho-confident-chelsea-john-stones", "apiUrl": "https://content.guardianapis.com/football/blog/2015/jul/29/jose-mourinho-confident-chelsea-john-stones", "isHosted": false, "pillarId": "pillar/sport", "pillarName": "Sport"}, {"id": "football/2015/jul/29/fifa-exhibit-to-open-at-americas-national-museum-of-organized", "type": "article", "sectionId": "football", "sectionName": "Football", "webPublicationDate": "2015-07-29T17:10:42Z", "webTitle": "Fifa exhibit to open at America's national museum of organized crime", "webUrl": "https://www.theguardian.com/football/2015/jul/29/fifa-exhibit-to-open-at-americas-national-museum-of-organized", "apiUrl": "https://content.guardianapis.com/football/2015/jul/29/fifa-exhibit-to-open-at-americas-national-museum-of-organized", "isHosted": false, "pillarId": "pillar/sport", "pillarName": "Sport"}, {"id": "football/2015/jul/29/jose-mourinho-chelsea-rafael-benitez-make-it-stop-please", "type": "article", "sectionId": "football", "sectionName": "Football", "webPublicationDate": "2015-07-29T14:54:59Z", "webTitle": "The Fiver | Throwing haymakers around in the flamboyant style", "webUrl": "https://www.theguardian.com/football/2015/jul/29/jose-mourinho-chelsea-rafael-benitez-make-it-stop-please", "apiUrl": "https://content.guardianapis.com/football/2015/jul/29/jose-mourinho-chelsea-rafael-benitez-make-it-stop-please", "isHosted": false, "pillarId": "pillar/sport", "pillarName": "Sport"}, {"id": "football/2015/jul/29/palm-beach-see-off-south-melbourne-in-ffa-cup-shootout-thriller", "type": "article", "sectionId": "football", "sectionName": "Football", "webPublicationDate": "2015-07-29T13:57:31Z", "webTitle": "Palm Beach see off South Melbourne in FFA Cup shootout thriller", "webUrl": "https://www.theguardian.com/football/2015/jul/29/palm-beach-see-off-south-melbourne-in-ffa-cup-shootout-thriller", "apiUrl": "https://content.guardianapis.com/football/2015/jul/29/palm-beach-see-off-south-melbourne-in-ffa-cup-shootout-thriller", "isHosted": false, "pillarId": "pillar/sport", "pillarName": "Sport"}, {"id": "football/blog/2015/jul/29/jose-mourinho-rafael-benitez-wife-montse-diet-chelsea-real-madrid", "type": "article", "sectionId": "football", "sectionName": "Football", "webPublicationDate": "2015-07-29T12:30:13Z", "webTitle": "Jos\u00e9 Mourinho\u2019s Ben\u00edtez barb shows his propensity to overstep the mark | David Hytner", "webUrl": "https://www.theguardian.com/football/blog/2015/jul/29/jose-mourinho-rafael-benitez-wife-montse-diet-chelsea-real-madrid", "apiUrl": "https://content.guardianapis.com/football/blog/2015/jul/29/jose-mourinho-rafael-benitez-wife-montse-diet-chelsea-real-madrid", "isHosted": false, "pillarId": "pillar/sport", "pillarName": "Sport"}, {"id": "football/blog/2015/jul/29/premier-league-preview-2015-16-everton", "type": "article", "sectionId": "football", "sectionName": "Football", "webPublicationDate": "2015-07-29T12:00:18Z", "webTitle": "Premier League 2015-16 preview No6: Everton | Andy Hunter", "webUrl": "https://www.theguardian.com/football/blog/2015/jul/29/premier-league-preview-2015-16-everton", "apiUrl": "https://content.guardianapis.com/football/blog/2015/jul/29/premier-league-preview-2015-16-everton", "isHosted": false, "pillarId": "pillar/sport", "pillarName": "Sport"}, {"id": "football/blog/2015/jul/29/farewell-then-miguel-herrera-a-coach-too-exuberant-for-mexicos-big-boy-pants", "type": "article", "sectionId": "football", "sectionName": "Football", "webPublicationDate": "2015-07-29T11:37:33Z", "webTitle": "Farewell then Miguel Herrera, a coach too exuberant for Mexico's big-boy pants", "webUrl": "https://www.theguardian.com/football/blog/2015/jul/29/farewell-then-miguel-herrera-a-coach-too-exuberant-for-mexicos-big-boy-pants", "apiUrl": "https://content.guardianapis.com/football/blog/2015/jul/29/farewell-then-miguel-herrera-a-coach-too-exuberant-for-mexicos-big-boy-pants", "isHosted": false, "pillarId": "pillar/sport", "pillarName": "Sport"}, {"id": "football/2015/jul/29/gordon-taylor-time-for-pfa-chief-executive-to-step-down", "type": "article", "sectionId": "football", "sectionName": "Football", "webPublicationDate": "2015-07-29T11:11:29Z", "webTitle": "High time Gordon Taylor did a decent thing for the game and stepped down", "webUrl": "https://www.theguardian.com/football/2015/jul/29/gordon-taylor-time-for-pfa-chief-executive-to-step-down", "apiUrl": "https://content.guardianapis.com/football/2015/jul/29/gordon-taylor-time-for-pfa-chief-executive-to-step-down", "isHosted": false, "pillarId": "pillar/sport", "pillarName": "Sport"}, {"id": "football/2015/jul/29/kenedy-chelsea-jose-mourinho-pre-season-tour-barcelona", "type": "article", "sectionId": "football", "sectionName": "Football", "webPublicationDate": "2015-07-29T11:00:07Z", "webTitle": "Jos\u00e9 Mourinho hails Kenedy and predicts immediate impact at Chelsea", "webUrl": "https://www.theguardian.com/football/2015/jul/29/kenedy-chelsea-jose-mourinho-pre-season-tour-barcelona", "apiUrl": "https://content.guardianapis.com/football/2015/jul/29/kenedy-chelsea-jose-mourinho-pre-season-tour-barcelona", "isHosted": false, "pillarId": "pillar/sport", "pillarName": "Sport"}, {"id": "football/blog/2015/jul/29/newcastle-united-aleksander-mitrovic-diamond-striker", "type": "article", "sectionId": "football", "sectionName": "Football", "webPublicationDate": "2015-07-29T10:00:07Z", "webTitle": "Aleksandar Mitrovic the Newcastle diamond with some rough edges", "webUrl": "https://www.theguardian.com/football/blog/2015/jul/29/newcastle-united-aleksander-mitrovic-diamond-striker", "apiUrl": "https://content.guardianapis.com/football/blog/2015/jul/29/newcastle-united-aleksander-mitrovic-diamond-striker", "isHosted": false, "pillarId": "pillar/sport", "pillarName": "Sport"}, {"id": "football/2015/jul/29/kaka-mls-mvp-orlando-city", "type": "article", "sectionId": "football", "sectionName": "Football", "webPublicationDate": "2015-07-29T10:00:07Z", "webTitle": "Kak\u00e1 for MVP? 'He's a brilliant human being. You can't fail to be impressed'", "webUrl": "https://www.theguardian.com/football/2015/jul/29/kaka-mls-mvp-orlando-city", "apiUrl": "https://content.guardianapis.com/football/2015/jul/29/kaka-mls-mvp-orlando-city", "isHosted": false, "pillarId": "pillar/sport", "pillarName": "Sport"}, {"id": "media/2015/jul/29/fa-chairman-urged-to-stop-football-clubs-from-banning-news-outlets", "type": "article", "sectionId": "media", "sectionName": "Media", "webPublicationDate": "2015-07-29T09:37:24Z", "webTitle": "FA chairman urged to stop football clubs from banning news outlets", "webUrl": "https://www.theguardian.com/media/2015/jul/29/fa-chairman-urged-to-stop-football-clubs-from-banning-news-outlets", "apiUrl": "https://content.guardianapis.com/media/2015/jul/29/fa-chairman-urged-to-stop-football-clubs-from-banning-news-outlets", "isHosted": false, "pillarId": "pillar/news", "pillarName": "News"}, {"id": "football/2015/jul/29/knowledge-england-1986-squad-worst-bunch-managers", "type": "article", "sectionId": "football", "sectionName": "Football", "webPublicationDate": "2015-07-29T09:30:01Z", "webTitle": "England's 1986 squad: the worst bunch of managers ever?", "webUrl": "https://www.theguardian.com/football/2015/jul/29/knowledge-england-1986-squad-worst-bunch-managers", "apiUrl": "https://content.guardianapis.com/football/2015/jul/29/knowledge-england-1986-squad-worst-bunch-managers", "isHosted": false, "pillarId": "pillar/sport", "pillarName": "Sport"}]}}