{"response": {"status": "ok", "userTier": "developer", "total": 21994, "startIndex": 1, "pageSize": 50, "currentPage": 1, "pages": 440, "orderBy": "newest", "results": [{"id": "lifeandstyle/2018/aug/30/stretchy-gloves-offer-handy-protection", "type": "article", "sectionId": "lifeandstyle", "sectionName": "Life and style", "webPublicationDate": "2018-08-30T16:46:32Z", "webTitle": "Stretchy gloves offer handy protection | Brief letters", "webUrl": "https://www.theguardian.com/lifeandstyle/2018/aug/30/stretchy-gloves-offer-handy-protection", "apiUrl": "https://content.guardianapis.com/lifeandstyle/2018/aug/30/stretchy-gloves-offer-handy-protection", "isHosted": false, "pillarId": "pillar/lifestyle", "pillarName": "Lifestyle"}, {"id": "food/2018/aug/30/jamie-oliver-spent-13m-to-save-italian-chain-hours-before-bankruptcy", "type": "article", "sectionId": "food", "sectionName": "Food", "webPublicationDate": "2018-08-30T15:52:22Z", "webTitle": "Jamie Oliver spent \u00a313m to save Italian chain hours before bankruptcy", "webUrl": "https://www.theguardian.com/food/2018/aug/30/jamie-oliver-spent-13m-to-save-italian-chain-hours-before-bankruptcy", "apiUrl": "https://content.guardianapis.com/food/2018/aug/30/jamie-oliver-spent-13m-to-save-italian-chain-hours-before-bankruptcy", "isHosted": false, "pillarId": "pillar/lifestyle", "pillarName": "Lifestyle"}, {"id": "food/2018/aug/30/sugar-coated-crisps-they-taste-like-elevated-cereal", "type": "article", "sectionId": "food", "sectionName": "Food", "webPublicationDate": "2018-08-30T06:00:48Z", "webTitle": "Sugar-coated crisps? They taste like elevated cereal", "webUrl": "https://www.theguardian.com/food/2018/aug/30/sugar-coated-crisps-they-taste-like-elevated-cereal", "apiUrl": "https://content.guardianapis.com/food/2018/aug/30/sugar-coated-crisps-they-taste-like-elevated-cereal", "isHosted": false, "pillarId": "pillar/lifestyle", "pillarName": "Lifestyle"}, {"id": "world/2018/aug/30/south-korea-bans-coffee-from-every-school", "type": "article", "sectionId": "world", "sectionName": "World news", "webPublicationDate": "2018-08-30T01:31:48Z", "webTitle": "Caffeine hit: South Korea bans coffee from every school", "webUrl": "https://www.theguardian.com/world/2018/aug/30/south-korea-bans-coffee-from-every-school", "apiUrl": "https://content.guardianapis.com/world/2018/aug/30/south-korea-bans-coffee-from-every-school", "isHosted": false, "pillarId": "pillar/news", "pillarName": "News"}, {"id": "society/2018/aug/29/energy-drinks-why-it-is-high-time-their-wings-should-be-clipped", "type": "article", "sectionId": "society", "sectionName": "Society", "webPublicationDate": "2018-08-29T21:30:38Z", "webTitle": "Energy drinks: why it is high time their wings should be clipped | Sarah Boseley", "webUrl": "https://www.theguardian.com/society/2018/aug/29/energy-drinks-why-it-is-high-time-their-wings-should-be-clipped", "apiUrl": "https://content.guardianapis.com/society/2018/aug/29/energy-drinks-why-it-is-high-time-their-wings-should-be-clipped", "isHosted": false, "pillarId": "pillar/news", "pillarName": "News"}, {"id": "food/2018/aug/29/tell-us-do-you-think-teenagers-should-be-banned-from-buying-energy-drinks", "type": "article", "sectionId": "food", "sectionName": "Food", "webPublicationDate": "2018-08-29T21:30:37Z", "webTitle": "Tell us: do you think teenagers should be banned from buying energy drinks?", "webUrl": "https://www.theguardian.com/food/2018/aug/29/tell-us-do-you-think-teenagers-should-be-banned-from-buying-energy-drinks", "apiUrl": "https://content.guardianapis.com/food/2018/aug/29/tell-us-do-you-think-teenagers-should-be-banned-from-buying-energy-drinks", "isHosted": false, "pillarId": "pillar/lifestyle", "pillarName": "Lifestyle"}, {"id": "food/2018/aug/29/gravity-defying-dessert-195-macncheese-and-beyonces-guacamole-the-tastiest-food-tv", "type": "article", "sectionId": "food", "sectionName": "Food", "webPublicationDate": "2018-08-29T14:17:21Z", "webTitle": "Gravity-defying dessert, $195 mac\u2019n\u2019cheese and Beyonc\u00e9\u2019s guacamole: the tastiest food TV", "webUrl": "https://www.theguardian.com/food/2018/aug/29/gravity-defying-dessert-195-macncheese-and-beyonces-guacamole-the-tastiest-food-tv", "apiUrl": "https://content.guardianapis.com/food/2018/aug/29/gravity-defying-dessert-195-macncheese-and-beyonces-guacamole-the-tastiest-food-tv", "isHosted": false, "pillarId": "pillar/lifestyle", "pillarName": "Lifestyle"}, {"id": "food/2018/aug/29/chippy-battered-fish-recipe-felicity-cloake", "type": "article", "sectionId": "food", "sectionName": "Food", "webPublicationDate": "2018-08-29T11:00:39Z", "webTitle": "How to cook fish in batter | Felicity Cloake\u2019s masterclass", "webUrl": "https://www.theguardian.com/food/2018/aug/29/chippy-battered-fish-recipe-felicity-cloake", "apiUrl": "https://content.guardianapis.com/food/2018/aug/29/chippy-battered-fish-recipe-felicity-cloake", "isHosted": false, "pillarId": "pillar/lifestyle", "pillarName": "Lifestyle"}, {"id": "food/2018/aug/28/good-riddance-to-our-cold-soggy-blt-sandwich", "type": "article", "sectionId": "food", "sectionName": "Food", "webPublicationDate": "2018-08-28T16:41:59Z", "webTitle": "Good riddance to our cold, soggy BLT sandwich | Letter", "webUrl": "https://www.theguardian.com/food/2018/aug/28/good-riddance-to-our-cold-soggy-blt-sandwich", "apiUrl": "https://content.guardianapis.com/food/2018/aug/28/good-riddance-to-our-cold-soggy-blt-sandwich", "isHosted": false, "pillarId": "pillar/lifestyle", "pillarName": "Lifestyle"}, {"id": "science/2018/aug/27/climate-change-will-make-hundreds-of-millions-more-people-nutrient-deficient", "type": "article", "sectionId": "science", "sectionName": "Science", "webPublicationDate": "2018-08-27T15:00:44Z", "webTitle": "Climate change will make hundreds of millions more people nutrient deficient", "webUrl": "https://www.theguardian.com/science/2018/aug/27/climate-change-will-make-hundreds-of-millions-more-people-nutrient-deficient", "apiUrl": "https://content.guardianapis.com/science/2018/aug/27/climate-change-will-make-hundreds-of-millions-more-people-nutrient-deficient", "isHosted": false, "pillarId": "pillar/news", "pillarName": "News"}, {"id": "food/2018/aug/27/thomasina-miers-recipe-for-freekeh-salad-with-nectarine-and-halloumi", "type": "article", "sectionId": "food", "sectionName": "Food", "webPublicationDate": "2018-08-27T11:00:40Z", "webTitle": "Thomasina Miers\u2019 recipe for freekeh salad with nectarine and halloumi", "webUrl": "https://www.theguardian.com/food/2018/aug/27/thomasina-miers-recipe-for-freekeh-salad-with-nectarine-and-halloumi", "apiUrl": "https://content.guardianapis.com/food/2018/aug/27/thomasina-miers-recipe-for-freekeh-salad-with-nectarine-and-halloumi", "isHosted": false, "pillarId": "pillar/lifestyle", "pillarName": "Lifestyle"}, {"id": "food/2018/aug/27/mezze-maniche-summer-pasta-recipe-rachel-roddy", "type": "article", "sectionId": "food", "sectionName": "Food", "webPublicationDate": "2018-08-27T11:00:39Z", "webTitle": "Rachel Roddy\u2019s summer veg pasta | A Kitchen in Rome", "webUrl": "https://www.theguardian.com/food/2018/aug/27/mezze-maniche-summer-pasta-recipe-rachel-roddy", "apiUrl": "https://content.guardianapis.com/food/2018/aug/27/mezze-maniche-summer-pasta-recipe-rachel-roddy", "isHosted": false, "pillarId": "pillar/lifestyle", "pillarName": "Lifestyle"}, {"id": "money/2018/aug/27/one-in-five-vanilla-ice-creams-has-no-vanilla-cream-or-fresh-milk", "type": "article", "sectionId": "money", "sectionName": "Money", "webPublicationDate": "2018-08-26T23:01:27Z", "webTitle": "One in five vanilla ice-creams have no vanilla, cream or fresh milk", "webUrl": "https://www.theguardian.com/money/2018/aug/27/one-in-five-vanilla-ice-creams-has-no-vanilla-cream-or-fresh-milk", "apiUrl": "https://content.guardianapis.com/money/2018/aug/27/one-in-five-vanilla-ice-creams-has-no-vanilla-cream-or-fresh-milk", "isHosted": false, "pillarId": "pillar/lifestyle", "pillarName": "Lifestyle"}, {"id": "food/2018/aug/26/three-sicilians-that-make-you-an-offer-you-cant-refuse", "type": "article", "sectionId": "food", "sectionName": "Food", "webPublicationDate": "2018-08-26T10:08:36Z", "webTitle": "Three Sicilian wines that make you an offer you can\u2019t refuse", "webUrl": "https://www.theguardian.com/food/2018/aug/26/three-sicilians-that-make-you-an-offer-you-cant-refuse", "apiUrl": "https://content.guardianapis.com/food/2018/aug/26/three-sicilians-that-make-you-an-offer-you-cant-refuse", "isHosted": false, "pillarId": "pillar/lifestyle", "pillarName": "Lifestyle"}, {"id": "food/2018/aug/26/laurent-at-cafe-royal-london-shameful-pricing-restaurant-review", "type": "article", "sectionId": "food", "sectionName": "Food", "webPublicationDate": "2018-08-26T05:00:09Z", "webTitle": "Laurent at Caf\u00e9 Royal, London: \u2018Shameful pricing\u2019 \u2013 restaurant review", "webUrl": "https://www.theguardian.com/food/2018/aug/26/laurent-at-cafe-royal-london-shameful-pricing-restaurant-review", "apiUrl": "https://content.guardianapis.com/food/2018/aug/26/laurent-at-cafe-royal-london-shameful-pricing-restaurant-review", "isHosted": false, "pillarId": "pillar/lifestyle", "pillarName": "Lifestyle"}, {"id": "food/2018/aug/25/the-best-autumn-food-jay-rayner", "type": "article", "sectionId": "food", "sectionName": "Food", "webPublicationDate": "2018-08-25T16:30:49Z", "webTitle": "The best of autumn food", "webUrl": "https://www.theguardian.com/food/2018/aug/25/the-best-autumn-food-jay-rayner", "apiUrl": "https://content.guardianapis.com/food/2018/aug/25/the-best-autumn-food-jay-rayner", "isHosted": false, "pillarId": "pillar/lifestyle", "pillarName": "Lifestyle"}, {"id": "culture/2018/aug/25/the-ultimate-guide-to-autumn-tv-film-music-theatre-politics-sport", "type": "article", "sectionId": "culture", "sectionName": "Culture", "webPublicationDate": "2018-08-25T16:30:49Z", "webTitle": "The Observer\u2019s ultimate guide to autumn culture", "webUrl": "https://www.theguardian.com/culture/2018/aug/25/the-ultimate-guide-to-autumn-tv-film-music-theatre-politics-sport", "apiUrl": "https://content.guardianapis.com/culture/2018/aug/25/the-ultimate-guide-to-autumn-tv-film-music-theatre-politics-sport", "isHosted": false, "pillarId": "pillar/arts", "pillarName": "Arts"}, {"id": "food/2018/aug/25/burmese-mango-peanut-lime-recipe-meera-sodha", "type": "article", "sectionId": "food", "sectionName": "Food", "webPublicationDate": "2018-08-25T09:00:39Z", "webTitle": "Burmese mango, peanut and lime salad (Tayat thi toke) recipe | The New Vegan", "webUrl": "https://www.theguardian.com/food/2018/aug/25/burmese-mango-peanut-lime-recipe-meera-sodha", "apiUrl": "https://content.guardianapis.com/food/2018/aug/25/burmese-mango-peanut-lime-recipe-meera-sodha", "isHosted": false, "pillarId": "pillar/lifestyle", "pillarName": "Lifestyle"}, {"id": "food/2018/aug/25/four-favourite-salmon-recipes", "type": "article", "sectionId": "food", "sectionName": "Food", "webPublicationDate": "2018-08-25T06:00:39Z", "webTitle": "Four favourite salmon recipes", "webUrl": "https://www.theguardian.com/food/2018/aug/25/four-favourite-salmon-recipes", "apiUrl": "https://content.guardianapis.com/food/2018/aug/25/four-favourite-salmon-recipes", "isHosted": false, "pillarId": "pillar/lifestyle", "pillarName": "Lifestyle"}, {"id": "food/2018/aug/25/carters-moseley-restaurant-review-grace-dent", "type": "article", "sectionId": "food", "sectionName": "Food", "webPublicationDate": "2018-08-25T05:30:35Z", "webTitle": "Carters of Moseley, B13 \u2013 wonky, weird, pretty much perfect \u2013 restaurant review | Grace Dent on restaurants", "webUrl": "https://www.theguardian.com/food/2018/aug/25/carters-moseley-restaurant-review-grace-dent", "apiUrl": "https://content.guardianapis.com/food/2018/aug/25/carters-moseley-restaurant-review-grace-dent", "isHosted": false, "pillarId": "pillar/lifestyle", "pillarName": "Lifestyle"}, {"id": "food/2018/aug/25/dairy-milk-food-waste-not-tom-hunt", "type": "article", "sectionId": "food", "sectionName": "Food", "webPublicationDate": "2018-08-25T05:00:37Z", "webTitle": "Don\u2019t chuck that sour milk \u2013 it\u2019s perfect for baking | Waste Not", "webUrl": "https://www.theguardian.com/food/2018/aug/25/dairy-milk-food-waste-not-tom-hunt", "apiUrl": "https://content.guardianapis.com/food/2018/aug/25/dairy-milk-food-waste-not-tom-hunt", "isHosted": false, "pillarId": "pillar/lifestyle", "pillarName": "Lifestyle"}, {"id": "food/2018/aug/25/rum-and-raisin-cookie-ice-cream-sandwich-recipe-liam-charles", "type": "article", "sectionId": "food", "sectionName": "Food", "webPublicationDate": "2018-08-25T05:00:37Z", "webTitle": "Rum \u2018n\u2019 raisin ice-cream sandwich recipe | Liam Charles", "webUrl": "https://www.theguardian.com/food/2018/aug/25/rum-and-raisin-cookie-ice-cream-sandwich-recipe-liam-charles", "apiUrl": "https://content.guardianapis.com/food/2018/aug/25/rum-and-raisin-cookie-ice-cream-sandwich-recipe-liam-charles", "isHosted": false, "pillarId": "pillar/lifestyle", "pillarName": "Lifestyle"}, {"id": "food/2018/aug/24/holiday-drink-booze-wine-fiona-beckett", "type": "article", "sectionId": "food", "sectionName": "Food", "webPublicationDate": "2018-08-24T14:00:16Z", "webTitle": "Holiday wine to bring home the sunshine | Fiona Beckett", "webUrl": "https://www.theguardian.com/food/2018/aug/24/holiday-drink-booze-wine-fiona-beckett", "apiUrl": "https://content.guardianapis.com/food/2018/aug/24/holiday-drink-booze-wine-fiona-beckett", "isHosted": false, "pillarId": "pillar/lifestyle", "pillarName": "Lifestyle"}, {"id": "food/2018/aug/24/anna-jones-sweetcorn-recipes", "type": "article", "sectionId": "food", "sectionName": "Food", "webPublicationDate": "2018-08-24T11:00:12Z", "webTitle": "Anna Jones\u2019s sweetcorn recipes", "webUrl": "https://www.theguardian.com/food/2018/aug/24/anna-jones-sweetcorn-recipes", "apiUrl": "https://content.guardianapis.com/food/2018/aug/24/anna-jones-sweetcorn-recipes", "isHosted": false, "pillarId": "pillar/lifestyle", "pillarName": "Lifestyle"}, {"id": "politics/2018/aug/23/blt-sandwich-will-survive-no-deal-brexit-says-raab-bacon-shortage", "type": "article", "sectionId": "politics", "sectionName": "Politics", "webPublicationDate": "2018-08-23T17:50:34Z", "webTitle": "BLT will survive no-deal Brexit \u2013 but it is likely to cost you more", "webUrl": "https://www.theguardian.com/politics/2018/aug/23/blt-sandwich-will-survive-no-deal-brexit-says-raab-bacon-shortage", "apiUrl": "https://content.guardianapis.com/politics/2018/aug/23/blt-sandwich-will-survive-no-deal-brexit-says-raab-bacon-shortage", "isHosted": false, "pillarId": "pillar/news", "pillarName": "News"}, {"id": "uk-news/2018/aug/23/yorkshire-chippys-mandarin-menu-proves-popular-with-chinese-tourists", "type": "article", "sectionId": "uk-news", "sectionName": "UK news", "webPublicationDate": "2018-08-23T17:00:49Z", "webTitle": "Yorkshire chippy's Mandarin menu proves popular with Chinese tourists", "webUrl": "https://www.theguardian.com/uk-news/2018/aug/23/yorkshire-chippys-mandarin-menu-proves-popular-with-chinese-tourists", "apiUrl": "https://content.guardianapis.com/uk-news/2018/aug/23/yorkshire-chippys-mandarin-menu-proves-popular-with-chinese-tourists", "isHosted": false, "pillarId": "pillar/news", "pillarName": "News"}, {"id": "music/2018/aug/23/snoop-dogg-to-publish-cookbook-from-crook-to-cook", "type": "article", "sectionId": "music", "sectionName": "Music", "webPublicationDate": "2018-08-23T09:37:41Z", "webTitle": "Snoop Dogg to publish cookbook, From Crook to Cook", "webUrl": "https://www.theguardian.com/music/2018/aug/23/snoop-dogg-to-publish-cookbook-from-crook-to-cook", "apiUrl": "https://content.guardianapis.com/music/2018/aug/23/snoop-dogg-to-publish-cookbook-from-crook-to-cook", "isHosted": false, "pillarId": "pillar/arts", "pillarName": "Arts"}, {"id": "food/2018/aug/23/ultra-low-calorie-ice-cream-is-flying-off-the-shelves-but-can-it-really-beat-ben-jerrys", "type": "article", "sectionId": "food", "sectionName": "Food", "webPublicationDate": "2018-08-23T09:00:41Z", "webTitle": "Ultra low-calorie ice-cream is flying off the shelves \u2013 but can it really beat Ben & Jerry\u2019s?", "webUrl": "https://www.theguardian.com/food/2018/aug/23/ultra-low-calorie-ice-cream-is-flying-off-the-shelves-but-can-it-really-beat-ben-jerrys", "apiUrl": "https://content.guardianapis.com/food/2018/aug/23/ultra-low-calorie-ice-cream-is-flying-off-the-shelves-but-can-it-really-beat-ben-jerrys", "isHosted": false, "pillarId": "pillar/lifestyle", "pillarName": "Lifestyle"}, {"id": "food/2018/aug/22/barnums-animals-crackers-change-design-after-pressure-from-rights-group", "type": "article", "sectionId": "food", "sectionName": "Food", "webPublicationDate": "2018-08-22T17:06:28Z", "webTitle": "Free at last: Animals Crackers change design after pressure from Peta", "webUrl": "https://www.theguardian.com/food/2018/aug/22/barnums-animals-crackers-change-design-after-pressure-from-rights-group", "apiUrl": "https://content.guardianapis.com/food/2018/aug/22/barnums-animals-crackers-change-design-after-pressure-from-rights-group", "isHosted": false, "pillarId": "pillar/lifestyle", "pillarName": "Lifestyle"}, {"id": "food/2018/aug/22/karan-gokani-omelette-curry-fast-food-recipe", "type": "article", "sectionId": "food", "sectionName": "Food", "webPublicationDate": "2018-08-22T17:00:20Z", "webTitle": "Karan Gokani\u2019s recipe for Sri Lankan omelette curry", "webUrl": "https://www.theguardian.com/food/2018/aug/22/karan-gokani-omelette-curry-fast-food-recipe", "apiUrl": "https://content.guardianapis.com/food/2018/aug/22/karan-gokani-omelette-curry-fast-food-recipe", "isHosted": false, "pillarId": "pillar/lifestyle", "pillarName": "Lifestyle"}, {"id": "environment/2018/aug/22/ban-offers-of-three-for-the-price-of-two", "type": "article", "sectionId": "environment", "sectionName": "Environment", "webPublicationDate": "2018-08-22T15:39:11Z", "webTitle": "Ban offers of three for the price of two | Brief letters", "webUrl": "https://www.theguardian.com/environment/2018/aug/22/ban-offers-of-three-for-the-price-of-two", "apiUrl": "https://content.guardianapis.com/environment/2018/aug/22/ban-offers-of-three-for-the-price-of-two", "isHosted": false, "pillarId": "pillar/news", "pillarName": "News"}, {"id": "food/2018/aug/22/coconut-oil-is-pure-poison-says-harvard-professor", "type": "article", "sectionId": "food", "sectionName": "Food", "webPublicationDate": "2018-08-22T12:31:37Z", "webTitle": "Coconut oil is 'pure poison', says Harvard professor", "webUrl": "https://www.theguardian.com/food/2018/aug/22/coconut-oil-is-pure-poison-says-harvard-professor", "apiUrl": "https://content.guardianapis.com/food/2018/aug/22/coconut-oil-is-pure-poison-says-harvard-professor", "isHosted": false, "pillarId": "pillar/lifestyle", "pillarName": "Lifestyle"}, {"id": "food/2018/aug/22/sweet-hummus-chocolate-spread-hou", "type": "article", "sectionId": "food", "sectionName": "Food", "webPublicationDate": "2018-08-22T11:30:23Z", "webTitle": "Can sweet hummus really take on chocolate spread?", "webUrl": "https://www.theguardian.com/food/2018/aug/22/sweet-hummus-chocolate-spread-hou", "apiUrl": "https://content.guardianapis.com/food/2018/aug/22/sweet-hummus-chocolate-spread-hou", "isHosted": false, "pillarId": "pillar/lifestyle", "pillarName": "Lifestyle"}, {"id": "food/2018/aug/22/how-to-cook-the-perfect-spanakopita-greek-spinach-feta-pie", "type": "article", "sectionId": "food", "sectionName": "Food", "webPublicationDate": "2018-08-22T11:00:22Z", "webTitle": "How to make the perfect spanakopita | Felicity Cloake", "webUrl": "https://www.theguardian.com/food/2018/aug/22/how-to-cook-the-perfect-spanakopita-greek-spinach-feta-pie", "apiUrl": "https://content.guardianapis.com/food/2018/aug/22/how-to-cook-the-perfect-spanakopita-greek-spinach-feta-pie", "isHosted": false, "pillarId": "pillar/lifestyle", "pillarName": "Lifestyle"}, {"id": "environment/2018/aug/21/specieswatch-black-soldier-fly-the-uks-newest-farmed-creature", "type": "article", "sectionId": "environment", "sectionName": "Environment", "webPublicationDate": "2018-08-21T20:30:38Z", "webTitle": "Specieswatch: black soldier fly the UK's newest farmed creature", "webUrl": "https://www.theguardian.com/environment/2018/aug/21/specieswatch-black-soldier-fly-the-uks-newest-farmed-creature", "apiUrl": "https://content.guardianapis.com/environment/2018/aug/21/specieswatch-black-soldier-fly-the-uks-newest-farmed-creature", "isHosted": false, "pillarId": "pillar/news", "pillarName": "News"}, {"id": "food/2018/aug/21/from-pasta-to-stir-fry-foods-children-should-learn-to-cook-in-school", "type": "article", "sectionId": "food", "sectionName": "Food", "webPublicationDate": "2018-08-21T16:28:29Z", "webTitle": "From pasta to stir-fry: foods children should learn to cook in school", "webUrl": "https://www.theguardian.com/food/2018/aug/21/from-pasta-to-stir-fry-foods-children-should-learn-to-cook-in-school", "apiUrl": "https://content.guardianapis.com/food/2018/aug/21/from-pasta-to-stir-fry-foods-children-should-learn-to-cook-in-school", "isHosted": false, "pillarId": "pillar/lifestyle", "pillarName": "Lifestyle"}, {"id": "food/shortcuts/2018/aug/20/jamie-oliver-jerk-rice-recipe-for-disaster-caribbean-marinade", "type": "article", "sectionId": "food", "sectionName": "Food", "webPublicationDate": "2018-08-20T16:21:17Z", "webTitle": "Jamie Oliver\u2019s jerk rice was a recipe for disaster \u2013 here\u2019s how to make a great Caribbean marinade", "webUrl": "https://www.theguardian.com/food/shortcuts/2018/aug/20/jamie-oliver-jerk-rice-recipe-for-disaster-caribbean-marinade", "apiUrl": "https://content.guardianapis.com/food/shortcuts/2018/aug/20/jamie-oliver-jerk-rice-recipe-for-disaster-caribbean-marinade", "isHosted": false, "pillarId": "pillar/lifestyle", "pillarName": "Lifestyle"}, {"id": "uk-news/2018/aug/20/jamie-olivers-jerk-rice-dish-a-mistake-says-jamaica-born-chef", "type": "article", "sectionId": "uk-news", "sectionName": "UK news", "webPublicationDate": "2018-08-20T11:16:21Z", "webTitle": "Jamie Oliver jerk dish a mistake, says Jamaica-born chef Levi Roots", "webUrl": "https://www.theguardian.com/uk-news/2018/aug/20/jamie-olivers-jerk-rice-dish-a-mistake-says-jamaica-born-chef", "apiUrl": "https://content.guardianapis.com/uk-news/2018/aug/20/jamie-olivers-jerk-rice-dish-a-mistake-says-jamaica-born-chef", "isHosted": false, "pillarId": "pillar/news", "pillarName": "News"}, {"id": "food/2018/aug/20/rachel-roddy-recipe-cheesy-aubergines", "type": "article", "sectionId": "food", "sectionName": "Food", "webPublicationDate": "2018-08-20T11:00:48Z", "webTitle": "Rachel Roddy\u2019s recipe for baked cheesy aubergines", "webUrl": "https://www.theguardian.com/food/2018/aug/20/rachel-roddy-recipe-cheesy-aubergines", "apiUrl": "https://content.guardianapis.com/food/2018/aug/20/rachel-roddy-recipe-cheesy-aubergines", "isHosted": false, "pillarId": "pillar/lifestyle", "pillarName": "Lifestyle"}, {"id": "food/2018/aug/20/thomasina-miers-jerk-lamb-burger-with-grilled-sweetcorn-and-lime-salad", "type": "article", "sectionId": "food", "sectionName": "Food", "webPublicationDate": "2018-08-20T11:00:47Z", "webTitle": "Thomasina Miers\u2019 jerk lamb burger with grilled sweetcorn and lime salad", "webUrl": "https://www.theguardian.com/food/2018/aug/20/thomasina-miers-jerk-lamb-burger-with-grilled-sweetcorn-and-lime-salad", "apiUrl": "https://content.guardianapis.com/food/2018/aug/20/thomasina-miers-jerk-lamb-burger-with-grilled-sweetcorn-and-lime-salad", "isHosted": false, "pillarId": "pillar/lifestyle", "pillarName": "Lifestyle"}, {"id": "food/2018/aug/20/food-for-thoughts-you-dont-have-to-eat-like-every-meal-is-your-last", "type": "article", "sectionId": "food", "sectionName": "Food", "webPublicationDate": "2018-08-19T18:00:26Z", "webTitle": "Food for thoughts: you don't have to eat like every meal is your last", "webUrl": "https://www.theguardian.com/food/2018/aug/20/food-for-thoughts-you-dont-have-to-eat-like-every-meal-is-your-last", "apiUrl": "https://content.guardianapis.com/food/2018/aug/20/food-for-thoughts-you-dont-have-to-eat-like-every-meal-is-your-last", "isHosted": false, "pillarId": "pillar/lifestyle", "pillarName": "Lifestyle"}, {"id": "lifeandstyle/2018/aug/19/suburban-wine-grand-crus-napa-valley-gentrification", "type": "article", "sectionId": "food", "sectionName": "Food", "webPublicationDate": "2018-08-19T11:00:17Z", "webTitle": "It\u2019s time to explore \u2018suburban wine\u2019", "webUrl": "https://www.theguardian.com/lifeandstyle/2018/aug/19/suburban-wine-grand-crus-napa-valley-gentrification", "apiUrl": "https://content.guardianapis.com/lifeandstyle/2018/aug/19/suburban-wine-grand-crus-napa-valley-gentrification", "isHosted": false, "pillarId": "pillar/lifestyle", "pillarName": "Lifestyle"}, {"id": "artanddesign/2018/aug/19/jeremy-deller-cafes-pubs-endangered-species-political-art-gentrification", "type": "article", "sectionId": "artanddesign", "sectionName": "Art and design", "webPublicationDate": "2018-08-19T11:00:17Z", "webTitle": "Jeremy Deller: \u2018Cafes and pubs are endangered species. They should be listed\u2019", "webUrl": "https://www.theguardian.com/artanddesign/2018/aug/19/jeremy-deller-cafes-pubs-endangered-species-political-art-gentrification", "apiUrl": "https://content.guardianapis.com/artanddesign/2018/aug/19/jeremy-deller-cafes-pubs-endangered-species-political-art-gentrification", "isHosted": false, "pillarId": "pillar/arts", "pillarName": "Arts"}, {"id": "food/2018/aug/19/grand-dishes-grandmothers-recipes-stories", "type": "article", "sectionId": "food", "sectionName": "Food", "webPublicationDate": "2018-08-19T10:30:16Z", "webTitle": "Grand Dishes: the kitchen stories of our grandmothers", "webUrl": "https://www.theguardian.com/food/2018/aug/19/grand-dishes-grandmothers-recipes-stories", "apiUrl": "https://content.guardianapis.com/food/2018/aug/19/grand-dishes-grandmothers-recipes-stories", "isHosted": false, "pillarId": "pillar/lifestyle", "pillarName": "Lifestyle"}, {"id": "food/2018/aug/19/tomos-parry-brat-restaurant-chef-recipes-beef-prawns-romesco-egg-salad", "type": "article", "sectionId": "food", "sectionName": "Food", "webPublicationDate": "2018-08-19T10:00:17Z", "webTitle": "How Brat's Tomos Parry became Britain's hottest chef", "webUrl": "https://www.theguardian.com/food/2018/aug/19/tomos-parry-brat-restaurant-chef-recipes-beef-prawns-romesco-egg-salad", "apiUrl": "https://content.guardianapis.com/food/2018/aug/19/tomos-parry-brat-restaurant-chef-recipes-beef-prawns-romesco-egg-salad", "isHosted": false, "pillarId": "pillar/lifestyle", "pillarName": "Lifestyle"}, {"id": "food/2018/aug/19/three-classic-french-whites-that-go-perfectly-with-seafood", "type": "article", "sectionId": "food", "sectionName": "Food", "webPublicationDate": "2018-08-19T05:00:12Z", "webTitle": "Three classic French whites that go perfectly with seafood", "webUrl": "https://www.theguardian.com/food/2018/aug/19/three-classic-french-whites-that-go-perfectly-with-seafood", "apiUrl": "https://content.guardianapis.com/food/2018/aug/19/three-classic-french-whites-that-go-perfectly-with-seafood", "isHosted": false, "pillarId": "pillar/lifestyle", "pillarName": "Lifestyle"}, {"id": "food/2018/aug/19/stem-london---we-are-fed-delightfully---restaurant-review", "type": "article", "sectionId": "food", "sectionName": "Food", "webPublicationDate": "2018-08-19T05:00:11Z", "webTitle": "Stem, London: \u2018We are fed delightfully\u2019 \u2013 restaurant review", "webUrl": "https://www.theguardian.com/food/2018/aug/19/stem-london---we-are-fed-delightfully---restaurant-review", "apiUrl": "https://content.guardianapis.com/food/2018/aug/19/stem-london---we-are-fed-delightfully---restaurant-review", "isHosted": false, "pillarId": "pillar/lifestyle", "pillarName": "Lifestyle"}, {"id": "lifeandstyle/2018/aug/18/cheese-dairy-brexit-no-deal-rachel-cooke", "type": "article", "sectionId": "food", "sectionName": "Food", "webPublicationDate": "2018-08-18T17:00:55Z", "webTitle": "Cheese and Brexit: now they\u2019re both giving me nightmares | Rachel Cooke", "webUrl": "https://www.theguardian.com/lifeandstyle/2018/aug/18/cheese-dairy-brexit-no-deal-rachel-cooke", "apiUrl": "https://content.guardianapis.com/lifeandstyle/2018/aug/18/cheese-dairy-brexit-no-deal-rachel-cooke", "isHosted": false, "pillarId": "pillar/lifestyle", "pillarName": "Lifestyle"}, {"id": "food/2018/aug/18/chicken-is-where-its-at-the-unstoppable-rise-of-kfc", "type": "article", "sectionId": "food", "sectionName": "Food", "webPublicationDate": "2018-08-18T10:00:47Z", "webTitle": "\u2018Chicken is where it's at\u2019: the unstoppable rise of KFC", "webUrl": "https://www.theguardian.com/food/2018/aug/18/chicken-is-where-its-at-the-unstoppable-rise-of-kfc", "apiUrl": "https://content.guardianapis.com/food/2018/aug/18/chicken-is-where-its-at-the-unstoppable-rise-of-kfc", "isHosted": false, "pillarId": "pillar/lifestyle", "pillarName": "Lifestyle"}, {"id": "food/2018/aug/18/meera-sodha-recipe-ratatouille", "type": "article", "sectionId": "food", "sectionName": "Food", "webPublicationDate": "2018-08-18T09:00:47Z", "webTitle": "Meera Sodha\u2019s recipe for ratatouille", "webUrl": "https://www.theguardian.com/food/2018/aug/18/meera-sodha-recipe-ratatouille", "apiUrl": "https://content.guardianapis.com/food/2018/aug/18/meera-sodha-recipe-ratatouille", "isHosted": false, "pillarId": "pillar/lifestyle", "pillarName": "Lifestyle"}]}}