{"response": {"status": "ok", "userTier": "developer", "total": 94221, "startIndex": 1, "pageSize": 50, "currentPage": 1, "pages": 1885, "orderBy": "newest", "results": [{"id": "football/2016/aug/30/michail-antonio-smile-raw-talent-england-slovakia", "type": "article", "sectionId": "football", "sectionName": "Football", "webPublicationDate": "2016-08-30T21:41:00Z", "webTitle": "Michail Antonio brings a smile and raw talent to England camp in need of both | Dominic Fifield", "webUrl": "https://www.theguardian.com/football/2016/aug/30/michail-antonio-smile-raw-talent-england-slovakia", "apiUrl": "https://content.guardianapis.com/football/2016/aug/30/michail-antonio-smile-raw-talent-england-slovakia", "isHosted": false, "pillarId": "pillar/sport", "pillarName": "Sport"}, {"id": "football/2016/aug/30/wayne-rooney-decision-corners-england-euro-2016", "type": "article", "sectionId": "football", "sectionName": "Football", "webPublicationDate": "2016-08-30T21:35:00Z", "webTitle": "Wayne Rooney: I made decision to take corners for England at Euro 2016", "webUrl": "https://www.theguardian.com/football/2016/aug/30/wayne-rooney-decision-corners-england-euro-2016", "apiUrl": "https://content.guardianapis.com/football/2016/aug/30/wayne-rooney-decision-corners-england-euro-2016", "isHosted": false, "pillarId": "pillar/sport", "pillarName": "Sport"}, {"id": "football/2016/aug/30/hope-solo-us-soccer-nwsl-seattle-reign", "type": "article", "sectionId": "football", "sectionName": "Football", "webPublicationDate": "2016-08-30T21:10:16Z", "webTitle": "Hope Solo ends club season early after 'devastating' suspension from US Soccer", "webUrl": "https://www.theguardian.com/football/2016/aug/30/hope-solo-us-soccer-nwsl-seattle-reign", "apiUrl": "https://content.guardianapis.com/football/2016/aug/30/hope-solo-us-soccer-nwsl-seattle-reign", "isHosted": false, "pillarId": "pillar/sport", "pillarName": "Sport"}, {"id": "football/2016/aug/30/joe-hart-torino-serie-a-fans", "type": "article", "sectionId": "football", "sectionName": "Football", "webPublicationDate": "2016-08-30T20:31:31Z", "webTitle": "Joe Hart heads for Torino but is not the first to seek Italian renaissance", "webUrl": "https://www.theguardian.com/football/2016/aug/30/joe-hart-torino-serie-a-fans", "apiUrl": "https://content.guardianapis.com/football/2016/aug/30/joe-hart-torino-serie-a-fans", "isHosted": false, "pillarId": "pillar/sport", "pillarName": "Sport"}, {"id": "football/2016/aug/30/eliaquim-mangala-porto-loan-manchester-city-samir-nasri", "type": "article", "sectionId": "football", "sectionName": "Football", "webPublicationDate": "2016-08-30T20:03:00Z", "webTitle": "Eliaquim Mangala may return to Porto on loan from Manchester City", "webUrl": "https://www.theguardian.com/football/2016/aug/30/eliaquim-mangala-porto-loan-manchester-city-samir-nasri", "apiUrl": "https://content.guardianapis.com/football/2016/aug/30/eliaquim-mangala-porto-loan-manchester-city-samir-nasri", "isHosted": false, "pillarId": "pillar/sport", "pillarName": "Sport"}, {"id": "football/2016/aug/30/arsenal-complete-signing-shkodran-mustafi", "type": "article", "sectionId": "football", "sectionName": "Football", "webPublicationDate": "2016-08-30T19:58:40Z", "webTitle": "Arsenal complete signing of defender Shkodran Mustafi from Valencia", "webUrl": "https://www.theguardian.com/football/2016/aug/30/arsenal-complete-signing-shkodran-mustafi", "apiUrl": "https://content.guardianapis.com/football/2016/aug/30/arsenal-complete-signing-shkodran-mustafi", "isHosted": false, "pillarId": "pillar/sport", "pillarName": "Sport"}, {"id": "football/live/2016/aug/30/transfer-window-live-wilshere-hart-chambers-berahino-and-more", "type": "liveblog", "sectionId": "football", "sectionName": "Football", "webPublicationDate": "2016-08-30T18:32:08Z", "webTitle": "Transfer news live: Arsenal sign Lucas P\u00e9rez, Hart to Torino, Barcelona seal Alc\u00e1cer - as it happened", "webUrl": "https://www.theguardian.com/football/live/2016/aug/30/transfer-window-live-wilshere-hart-chambers-berahino-and-more", "apiUrl": "https://content.guardianapis.com/football/live/2016/aug/30/transfer-window-live-wilshere-hart-chambers-berahino-and-more", "isHosted": false, "pillarId": "pillar/sport", "pillarName": "Sport"}, {"id": "football/2016/aug/30/crystal-palace-loic-remy-loan-wilfried-zaha-tottenham", "type": "article", "sectionId": "football", "sectionName": "Football", "webPublicationDate": "2016-08-30T17:47:00Z", "webTitle": "Crystal Palace sign R\u00e9my on loan and reject new Tottenham bid for Zaha", "webUrl": "https://www.theguardian.com/football/2016/aug/30/crystal-palace-loic-remy-loan-wilfried-zaha-tottenham", "apiUrl": "https://content.guardianapis.com/football/2016/aug/30/crystal-palace-loic-remy-loan-wilfried-zaha-tottenham", "isHosted": false, "pillarId": "pillar/sport", "pillarName": "Sport"}, {"id": "law/2016/aug/30/lord-goff-of-chieveley-obituary", "type": "article", "sectionId": "law", "sectionName": "Law", "webPublicationDate": "2016-08-30T16:53:03Z", "webTitle": "Lord Goff of Chieveley obituary", "webUrl": "https://www.theguardian.com/law/2016/aug/30/lord-goff-of-chieveley-obituary", "apiUrl": "https://content.guardianapis.com/law/2016/aug/30/lord-goff-of-chieveley-obituary", "isHosted": false, "pillarId": "pillar/news", "pillarName": "News"}, {"id": "football/2016/aug/30/stoke-set-to-sign-bruno-martins-indi-from-fc-porto-on-season-long-loan", "type": "article", "sectionId": "football", "sectionName": "Football", "webPublicationDate": "2016-08-30T16:38:13Z", "webTitle": "Stoke set to sign Bruno Martins Indi from FC Porto on season-long loan", "webUrl": "https://www.theguardian.com/football/2016/aug/30/stoke-set-to-sign-bruno-martins-indi-from-fc-porto-on-season-long-loan", "apiUrl": "https://content.guardianapis.com/football/2016/aug/30/stoke-set-to-sign-bruno-martins-indi-from-fc-porto-on-season-long-loan", "isHosted": false, "pillarId": "pillar/sport", "pillarName": "Sport"}, {"id": "football/2016/aug/30/sergio-aguero-could-miss-manchester-derby-after-fa-misconduct-charge", "type": "article", "sectionId": "football", "sectionName": "Football", "webPublicationDate": "2016-08-30T16:21:59Z", "webTitle": "Sergio Ag\u00fcero could miss Manchester derby after FA misconduct charge", "webUrl": "https://www.theguardian.com/football/2016/aug/30/sergio-aguero-could-miss-manchester-derby-after-fa-misconduct-charge", "apiUrl": "https://content.guardianapis.com/football/2016/aug/30/sergio-aguero-could-miss-manchester-derby-after-fa-misconduct-charge", "isHosted": false, "pillarId": "pillar/sport", "pillarName": "Sport"}, {"id": "football/2016/aug/30/hull-city-sign-ryan-mason-from-tottenham-for-club-record-fee", "type": "article", "sectionId": "football", "sectionName": "Football", "webPublicationDate": "2016-08-30T16:13:36Z", "webTitle": "Hull City sign Ryan Mason from Tottenham for club record fee", "webUrl": "https://www.theguardian.com/football/2016/aug/30/hull-city-sign-ryan-mason-from-tottenham-for-club-record-fee", "apiUrl": "https://content.guardianapis.com/football/2016/aug/30/hull-city-sign-ryan-mason-from-tottenham-for-club-record-fee", "isHosted": false, "pillarId": "pillar/sport", "pillarName": "Sport"}, {"id": "football/2016/aug/30/the-portuguese-kidders-nose-growing-ever-longer", "type": "article", "sectionId": "football", "sectionName": "Football", "webPublicationDate": "2016-08-30T15:23:50Z", "webTitle": "The Portuguese kidder\u2019s nose growing ever longer", "webUrl": "https://www.theguardian.com/football/2016/aug/30/the-portuguese-kidders-nose-growing-ever-longer", "apiUrl": "https://content.guardianapis.com/football/2016/aug/30/the-portuguese-kidders-nose-growing-ever-longer", "isHosted": false, "pillarId": "pillar/sport", "pillarName": "Sport"}, {"id": "football/2016/aug/30/jack-wilshere-joe-hart-manchester-city-arsenal", "type": "article", "sectionId": "football", "sectionName": "Football", "webPublicationDate": "2016-08-30T15:04:50Z", "webTitle": "Jack Wilshere beats Joe Hart in transfer tales of woe table this summer", "webUrl": "https://www.theguardian.com/football/2016/aug/30/jack-wilshere-joe-hart-manchester-city-arsenal", "apiUrl": "https://content.guardianapis.com/football/2016/aug/30/jack-wilshere-joe-hart-manchester-city-arsenal", "isHosted": false, "pillarId": "pillar/sport", "pillarName": "Sport"}, {"id": "football/2016/aug/30/chelsea-marcos-alonso-fiorentina-signing", "type": "article", "sectionId": "football", "sectionName": "Football", "webPublicationDate": "2016-08-30T12:45:25Z", "webTitle": "Chelsea close to signing Fiorentina\u2019s Marcos Alonso for \u00a323m", "webUrl": "https://www.theguardian.com/football/2016/aug/30/chelsea-marcos-alonso-fiorentina-signing", "apiUrl": "https://content.guardianapis.com/football/2016/aug/30/chelsea-marcos-alonso-fiorentina-signing", "isHosted": false, "pillarId": "pillar/sport", "pillarName": "Sport"}, {"id": "football/2016/aug/30/bastian-schweinsteiger-i-have-no-problem-with-jose-mourinho", "type": "article", "sectionId": "football", "sectionName": "Football", "webPublicationDate": "2016-08-30T12:16:48Z", "webTitle": "Bastian Schweinsteiger: I have no problem with Jos\u00e9 Mourinho", "webUrl": "https://www.theguardian.com/football/2016/aug/30/bastian-schweinsteiger-i-have-no-problem-with-jose-mourinho", "apiUrl": "https://content.guardianapis.com/football/2016/aug/30/bastian-schweinsteiger-i-have-no-problem-with-jose-mourinho", "isHosted": false, "pillarId": "pillar/sport", "pillarName": "Sport"}, {"id": "football/2016/aug/30/being-forced-out-of-club-professional-trauma-partner-leaving-sport-psychologists", "type": "article", "sectionId": "football", "sectionName": "Football", "webPublicationDate": "2016-08-30T09:07:57Z", "webTitle": "Being frozen out at a football club is \u2018professional trauma\u2019 akin to a partner leaving", "webUrl": "https://www.theguardian.com/football/2016/aug/30/being-forced-out-of-club-professional-trauma-partner-leaving-sport-psychologists", "apiUrl": "https://content.guardianapis.com/football/2016/aug/30/being-forced-out-of-club-professional-trauma-partner-leaving-sport-psychologists", "isHosted": false, "pillarId": "pillar/sport", "pillarName": "Sport"}, {"id": "football/2016/aug/30/football-transfer-rumours-arsenals-jack-wilshere-to-valencia-on-loan", "type": "article", "sectionId": "football", "sectionName": "Football", "webPublicationDate": "2016-08-30T07:49:12Z", "webTitle": "Football transfer rumours: Arsenal's Jack Wilshere to Valencia on loan?", "webUrl": "https://www.theguardian.com/football/2016/aug/30/football-transfer-rumours-arsenals-jack-wilshere-to-valencia-on-loan", "apiUrl": "https://content.guardianapis.com/football/2016/aug/30/football-transfer-rumours-arsenals-jack-wilshere-to-valencia-on-loan", "isHosted": false, "pillarId": "pillar/sport", "pillarName": "Sport"}, {"id": "football/2016/aug/29/wayne-rooney-play-no10-england-captain-sam-allardyce-marcus-rashford", "type": "article", "sectionId": "football", "sectionName": "Football", "webPublicationDate": "2016-08-29T22:10:00Z", "webTitle": "Wayne Rooney to play in No10 role as England captain for Sam Allardyce", "webUrl": "https://www.theguardian.com/football/2016/aug/29/wayne-rooney-play-no10-england-captain-sam-allardyce-marcus-rashford", "apiUrl": "https://content.guardianapis.com/football/2016/aug/29/wayne-rooney-play-no10-england-captain-sam-allardyce-marcus-rashford", "isHosted": false, "pillarId": "pillar/sport", "pillarName": "Sport"}, {"id": "football/2016/aug/29/hull-city-manchester-united-derby-keane-hendrick", "type": "article", "sectionId": "football", "sectionName": "Football", "webPublicationDate": "2016-08-29T21:36:12Z", "webTitle": "Hull City\u2019s Mike Phelan set to make first signings of difficult summer", "webUrl": "https://www.theguardian.com/football/2016/aug/29/hull-city-manchester-united-derby-keane-hendrick", "apiUrl": "https://content.guardianapis.com/football/2016/aug/29/hull-city-manchester-united-derby-keane-hendrick", "isHosted": false, "pillarId": "pillar/sport", "pillarName": "Sport"}, {"id": "football/2016/aug/29/allardyce-england-foreign-players", "type": "article", "sectionId": "football", "sectionName": "Football", "webPublicationDate": "2016-08-29T21:30:12Z", "webTitle": "Sam Allardyce: If England are to win something, we must look at \u2018foreigners\u2019", "webUrl": "https://www.theguardian.com/football/2016/aug/29/allardyce-england-foreign-players", "apiUrl": "https://content.guardianapis.com/football/2016/aug/29/allardyce-england-foreign-players", "isHosted": false, "pillarId": "pillar/sport", "pillarName": "Sport"}, {"id": "football/2016/aug/29/raheem-sterling-manchester-city-work-harder-guardiola", "type": "article", "sectionId": "football", "sectionName": "Football", "webPublicationDate": "2016-08-29T19:30:10Z", "webTitle": "Raheem Sterling says new work ethic behind improved Manchester City form", "webUrl": "https://www.theguardian.com/football/2016/aug/29/raheem-sterling-manchester-city-work-harder-guardiola", "apiUrl": "https://content.guardianapis.com/football/2016/aug/29/raheem-sterling-manchester-city-work-harder-guardiola", "isHosted": false, "pillarId": "pillar/sport", "pillarName": "Sport"}, {"id": "football/2016/aug/29/leicester-city-ranieri-silva", "type": "article", "sectionId": "football", "sectionName": "Football", "webPublicationDate": "2016-08-29T19:07:27Z", "webTitle": "Leicester City line up \u00a350m swoop for Adrien Silva and Islam Slimani", "webUrl": "https://www.theguardian.com/football/2016/aug/29/leicester-city-ranieri-silva", "apiUrl": "https://content.guardianapis.com/football/2016/aug/29/leicester-city-ranieri-silva", "isHosted": false, "pillarId": "pillar/sport", "pillarName": "Sport"}, {"id": "football/2016/aug/29/michail-antonio-morphs-invisible-man-shining-light-west-ham-england-sam-allardyce", "type": "article", "sectionId": "football", "sectionName": "Football", "webPublicationDate": "2016-08-29T18:58:27Z", "webTitle": "Michail Antonio morphs from so-called invisible man to shining light", "webUrl": "https://www.theguardian.com/football/2016/aug/29/michail-antonio-morphs-invisible-man-shining-light-west-ham-england-sam-allardyce", "apiUrl": "https://content.guardianapis.com/football/2016/aug/29/michail-antonio-morphs-invisible-man-shining-light-west-ham-england-sam-allardyce", "isHosted": false, "pillarId": "pillar/sport", "pillarName": "Sport"}, {"id": "football/2016/aug/29/joe-hart-torino-loan-manchester-city", "type": "article", "sectionId": "football", "sectionName": "Football", "webPublicationDate": "2016-08-29T17:00:00Z", "webTitle": "Joe Hart agrees deal to join Torino on loan from Manchester City", "webUrl": "https://www.theguardian.com/football/2016/aug/29/joe-hart-torino-loan-manchester-city", "apiUrl": "https://content.guardianapis.com/football/2016/aug/29/joe-hart-torino-loan-manchester-city", "isHosted": false, "pillarId": "pillar/sport", "pillarName": "Sport"}, {"id": "football/blog/2016/aug/29/noisy-neighours-leganes-atletico-madrid-real", "type": "article", "sectionId": "football", "sectionName": "Football", "webPublicationDate": "2016-08-29T16:05:11Z", "webTitle": "Noisy neighbours Legan\u00e9s give Atl\u00e9tico blues to take back corner of Madrid", "webUrl": "https://www.theguardian.com/football/blog/2016/aug/29/noisy-neighours-leganes-atletico-madrid-real", "apiUrl": "https://content.guardianapis.com/football/blog/2016/aug/29/noisy-neighours-leganes-atletico-madrid-real", "isHosted": false, "pillarId": "pillar/sport", "pillarName": "Sport"}, {"id": "football/2016/aug/29/bayern-begin-as-they-mean-to-go-on-schalke-are-in-a-sticky-patch-bundesliga", "type": "article", "sectionId": "football", "sectionName": "Football", "webPublicationDate": "2016-08-29T15:45:24Z", "webTitle": "Bayern begin as they mean to go on but Schalke are in a sticky patch | Raphael Honigstein", "webUrl": "https://www.theguardian.com/football/2016/aug/29/bayern-begin-as-they-mean-to-go-on-schalke-are-in-a-sticky-patch-bundesliga", "apiUrl": "https://content.guardianapis.com/football/2016/aug/29/bayern-begin-as-they-mean-to-go-on-schalke-are-in-a-sticky-patch-bundesliga", "isHosted": false, "pillarId": "pillar/sport", "pillarName": "Sport"}, {"id": "football/blog/2016/aug/29/orlando-jason-kreis-new-york-city-fc-clint-dempsey-mls", "type": "article", "sectionId": "football", "sectionName": "Football", "webPublicationDate": "2016-08-29T11:43:27Z", "webTitle": "Orlando win the Jason Kreis derby, and Clint Dempsey's absence a worry for all", "webUrl": "https://www.theguardian.com/football/blog/2016/aug/29/orlando-jason-kreis-new-york-city-fc-clint-dempsey-mls", "apiUrl": "https://content.guardianapis.com/football/blog/2016/aug/29/orlando-jason-kreis-new-york-city-fc-clint-dempsey-mls", "isHosted": false, "pillarId": "pillar/sport", "pillarName": "Sport"}, {"id": "football/blog/2016/aug/29/napoli-milan-milik-mertens-serie-a", "type": "article", "sectionId": "football", "sectionName": "Football", "webPublicationDate": "2016-08-29T10:13:01Z", "webTitle": "Arkadiusz Milik and Dries Mertens help Napoli fans forget the heartache", "webUrl": "https://www.theguardian.com/football/blog/2016/aug/29/napoli-milan-milik-mertens-serie-a", "apiUrl": "https://content.guardianapis.com/football/blog/2016/aug/29/napoli-milan-milik-mertens-serie-a", "isHosted": false, "pillarId": "pillar/sport", "pillarName": "Sport"}, {"id": "football/football-league-blog/2016/aug/29/football-league-weekly-lookman-bolton-charlton", "type": "article", "sectionId": "football", "sectionName": "Football", "webPublicationDate": "2016-08-29T09:00:01Z", "webTitle": "Football League Weekly: Bolton remain in light after their darkest period", "webUrl": "https://www.theguardian.com/football/football-league-blog/2016/aug/29/football-league-weekly-lookman-bolton-charlton", "apiUrl": "https://content.guardianapis.com/football/football-league-blog/2016/aug/29/football-league-weekly-lookman-bolton-charlton", "isHosted": false, "pillarId": "pillar/sport", "pillarName": "Sport"}, {"id": "football/2016/aug/29/football-transfer-rumours-chelsea-to-sign-real-madrids-james-rodriguez", "type": "article", "sectionId": "football", "sectionName": "Football", "webPublicationDate": "2016-08-29T08:20:36Z", "webTitle": "Football transfer rumours: Chelsea to sign Real Madrid's James Rodr\u00edguez?", "webUrl": "https://www.theguardian.com/football/2016/aug/29/football-transfer-rumours-chelsea-to-sign-real-madrids-james-rodriguez", "apiUrl": "https://content.guardianapis.com/football/2016/aug/29/football-transfer-rumours-chelsea-to-sign-real-madrids-james-rodriguez", "isHosted": false, "pillarId": "pillar/sport", "pillarName": "Sport"}, {"id": "football/blog/2016/aug/29/premier-league-talking-points", "type": "article", "sectionId": "football", "sectionName": "Football", "webPublicationDate": "2016-08-29T08:00:00Z", "webTitle": "Premier League: 10 talking points from the weekend\u2019s action", "webUrl": "https://www.theguardian.com/football/blog/2016/aug/29/premier-league-talking-points", "apiUrl": "https://content.guardianapis.com/football/blog/2016/aug/29/premier-league-talking-points", "isHosted": false, "pillarId": "pillar/sport", "pillarName": "Sport"}, {"id": "football/2016/aug/28/marcus-rashford-jose-mourinho-manchester-united", "type": "article", "sectionId": "football", "sectionName": "Football", "webPublicationDate": "2016-08-28T21:30:43Z", "webTitle": "Marcus Rashford stakes new claim for United starting spot with stellar cameo", "webUrl": "https://www.theguardian.com/football/2016/aug/28/marcus-rashford-jose-mourinho-manchester-united", "apiUrl": "https://content.guardianapis.com/football/2016/aug/28/marcus-rashford-jose-mourinho-manchester-united", "isHosted": false, "pillarId": "pillar/sport", "pillarName": "Sport"}, {"id": "football/blog/2016/aug/28/daniel-sturridge-jurgen-klopp-liverpool", "type": "article", "sectionId": "football", "sectionName": "Football", "webPublicationDate": "2016-08-28T21:30:43Z", "webTitle": "Daniel Sturridge now needs to work flexitime to fit in at Liverpool", "webUrl": "https://www.theguardian.com/football/blog/2016/aug/28/daniel-sturridge-jurgen-klopp-liverpool", "apiUrl": "https://content.guardianapis.com/football/blog/2016/aug/28/daniel-sturridge-jurgen-klopp-liverpool", "isHosted": false, "pillarId": "pillar/sport", "pillarName": "Sport"}, {"id": "football/2016/aug/28/watford-arsenal-mesut-ozil-alexis-sanchez", "type": "article", "sectionId": "football", "sectionName": "Football", "webPublicationDate": "2016-08-28T21:30:43Z", "webTitle": "Arsenal\u2019s Mesut \u00d6zil and Alexis S\u00e1nchez orchestrate win at Watford", "webUrl": "https://www.theguardian.com/football/2016/aug/28/watford-arsenal-mesut-ozil-alexis-sanchez", "apiUrl": "https://content.guardianapis.com/football/2016/aug/28/watford-arsenal-mesut-ozil-alexis-sanchez", "isHosted": false, "pillarId": "pillar/sport", "pillarName": "Sport"}, {"id": "football/2016/aug/28/wayne-rooney-jose-mourinho-revived-manchester-united-winning-mentality", "type": "article", "sectionId": "football", "sectionName": "Football", "webPublicationDate": "2016-08-28T21:30:43Z", "webTitle": "Jos\u00e9 Mourinho has revived Manchester United\u2019s winning mentality, says Wayne Rooney", "webUrl": "https://www.theguardian.com/football/2016/aug/28/wayne-rooney-jose-mourinho-revived-manchester-united-winning-mentality", "apiUrl": "https://content.guardianapis.com/football/2016/aug/28/wayne-rooney-jose-mourinho-revived-manchester-united-winning-mentality", "isHosted": false, "pillarId": "pillar/sport", "pillarName": "Sport"}, {"id": "football/2016/aug/28/west-brom-nacer-chadli-tottenham", "type": "article", "sectionId": "football", "sectionName": "Football", "webPublicationDate": "2016-08-28T20:20:51Z", "webTitle": "West Brom set to sign Nacer Chadli from Tottenham in \u00a313m deal", "webUrl": "https://www.theguardian.com/football/2016/aug/28/west-brom-nacer-chadli-tottenham", "apiUrl": "https://content.guardianapis.com/football/2016/aug/28/west-brom-nacer-chadli-tottenham", "isHosted": false, "pillarId": "pillar/sport", "pillarName": "Sport"}, {"id": "football/live/2016/aug/28/athletic-bilbao-v-barcelona-la-liga-live", "type": "liveblog", "sectionId": "football", "sectionName": "Football", "webPublicationDate": "2016-08-28T20:08:21Z", "webTitle": "Athletic Bilbao 0-1 Barcelona: La Liga \u2013\u00a0as it happened!", "webUrl": "https://www.theguardian.com/football/live/2016/aug/28/athletic-bilbao-v-barcelona-la-liga-live", "apiUrl": "https://content.guardianapis.com/football/live/2016/aug/28/athletic-bilbao-v-barcelona-la-liga-live", "isHosted": false, "pillarId": "pillar/sport", "pillarName": "Sport"}, {"id": "football/2016/aug/28/sergio-aguero-miss-manchester-united-clash", "type": "article", "sectionId": "football", "sectionName": "Football", "webPublicationDate": "2016-08-28T19:35:30Z", "webTitle": "Sergio Ag\u00fcero could miss Manchester derby after elbow incident mars City win", "webUrl": "https://www.theguardian.com/football/2016/aug/28/sergio-aguero-miss-manchester-united-clash", "apiUrl": "https://content.guardianapis.com/football/2016/aug/28/sergio-aguero-miss-manchester-united-clash", "isHosted": false, "pillarId": "pillar/sport", "pillarName": "Sport"}, {"id": "football/blog/2016/aug/28/pep-guardiola-manchester-city-west-ham", "type": "article", "sectionId": "football", "sectionName": "Football", "webPublicationDate": "2016-08-28T19:21:41Z", "webTitle": "Pep Guardiola\u2019s tactical nous upstaged by Manchester City\u2019s sheer will to win", "webUrl": "https://www.theguardian.com/football/blog/2016/aug/28/pep-guardiola-manchester-city-west-ham", "apiUrl": "https://content.guardianapis.com/football/blog/2016/aug/28/pep-guardiola-manchester-city-west-ham", "isHosted": false, "pillarId": "pillar/sport", "pillarName": "Sport"}, {"id": "football/2016/aug/28/manchester-city-west-ham-united-premier-league-match-report", "type": "article", "sectionId": "football", "sectionName": "Football", "webPublicationDate": "2016-08-28T17:08:23Z", "webTitle": "Manchester City continue winning start as Raheem Sterling sees off West Ham", "webUrl": "https://www.theguardian.com/football/2016/aug/28/manchester-city-west-ham-united-premier-league-match-report", "apiUrl": "https://content.guardianapis.com/football/2016/aug/28/manchester-city-west-ham-united-premier-league-match-report", "isHosted": false, "pillarId": "pillar/sport", "pillarName": "Sport"}, {"id": "football/live/2016/aug/28/manchester-city-v-west-ham-united-premier-league-live", "type": "liveblog", "sectionId": "football", "sectionName": "Football", "webPublicationDate": "2016-08-28T16:58:27Z", "webTitle": "Manchester City 3-1 West Ham United: Premier League \u2013\u00a0as it happened", "webUrl": "https://www.theguardian.com/football/live/2016/aug/28/manchester-city-v-west-ham-united-premier-league-live", "apiUrl": "https://content.guardianapis.com/football/live/2016/aug/28/manchester-city-v-west-ham-united-premier-league-live", "isHosted": false, "pillarId": "pillar/sport", "pillarName": "Sport"}, {"id": "football/blog/2016/aug/28/west-brom-tony-pulis", "type": "article", "sectionId": "football", "sectionName": "Football", "webPublicationDate": "2016-08-28T16:35:05Z", "webTitle": "West Brom\u2019s direct route is easily cut off as Tony Pulis struggles for answers", "webUrl": "https://www.theguardian.com/football/blog/2016/aug/28/west-brom-tony-pulis", "apiUrl": "https://content.guardianapis.com/football/blog/2016/aug/28/west-brom-tony-pulis", "isHosted": false, "pillarId": "pillar/sport", "pillarName": "Sport"}, {"id": "football/2016/aug/28/leicester-islam-slimani-talks-sporting", "type": "article", "sectionId": "football", "sectionName": "Football", "webPublicationDate": "2016-08-28T15:15:17Z", "webTitle": "Leicester in talks with Sporting Lisbon over \u00a330m Islam Slimani deal", "webUrl": "https://www.theguardian.com/football/2016/aug/28/leicester-islam-slimani-talks-sporting", "apiUrl": "https://content.guardianapis.com/football/2016/aug/28/leicester-islam-slimani-talks-sporting", "isHosted": false, "pillarId": "pillar/sport", "pillarName": "Sport"}, {"id": "football/live/2016/aug/28/west-bromwich-albion-v-middlesbrough-premier-league-live", "type": "liveblog", "sectionId": "football", "sectionName": "Football", "webPublicationDate": "2016-08-28T14:50:19Z", "webTitle": "West Bromwich Albion 0-0 Middlesbrough: Premier League \u2013\u00a0as it happened", "webUrl": "https://www.theguardian.com/football/live/2016/aug/28/west-bromwich-albion-v-middlesbrough-premier-league-live", "apiUrl": "https://content.guardianapis.com/football/live/2016/aug/28/west-bromwich-albion-v-middlesbrough-premier-league-live", "isHosted": false, "pillarId": "pillar/sport", "pillarName": "Sport"}, {"id": "football/2016/aug/28/west-bromwich-albion-middlesbrough-premier-league-match-report", "type": "article", "sectionId": "football", "sectionName": "Football", "webPublicationDate": "2016-08-28T14:42:16Z", "webTitle": "West Brom\u2019s need for new blood laid bare in dour draw with Middlesbrough", "webUrl": "https://www.theguardian.com/football/2016/aug/28/west-bromwich-albion-middlesbrough-premier-league-match-report", "apiUrl": "https://content.guardianapis.com/football/2016/aug/28/west-bromwich-albion-middlesbrough-premier-league-match-report", "isHosted": false, "pillarId": "pillar/sport", "pillarName": "Sport"}, {"id": "lifeandstyle/2016/aug/28/the-hot-summer-2016-sports-quiz", "type": "article", "sectionId": "lifeandstyle", "sectionName": "Life and style", "webPublicationDate": "2016-08-28T14:00:34Z", "webTitle": "The hot summer 2016 sports quiz", "webUrl": "https://www.theguardian.com/lifeandstyle/2016/aug/28/the-hot-summer-2016-sports-quiz", "apiUrl": "https://content.guardianapis.com/lifeandstyle/2016/aug/28/the-hot-summer-2016-sports-quiz", "isHosted": false, "pillarId": "pillar/lifestyle", "pillarName": "Lifestyle"}, {"id": "football/2016/aug/28/marouane-fellaini-manchester-united-supporter-crushed-hull-city", "type": "article", "sectionId": "football", "sectionName": "Football", "webPublicationDate": "2016-08-28T11:06:45Z", "webTitle": "Marouane Fellaini rescues fan caught in crush amid Manchester United elation", "webUrl": "https://www.theguardian.com/football/2016/aug/28/marouane-fellaini-manchester-united-supporter-crushed-hull-city", "apiUrl": "https://content.guardianapis.com/football/2016/aug/28/marouane-fellaini-manchester-united-supporter-crushed-hull-city", "isHosted": false, "pillarId": "pillar/sport", "pillarName": "Sport"}, {"id": "football/2016/aug/28/jermain-defoe-sunderland-england-sam-allardyce", "type": "article", "sectionId": "football", "sectionName": "Football", "webPublicationDate": "2016-08-28T10:05:42Z", "webTitle": "Sunderland\u2019s Jermain Defoe dreaming of England call-up by Sam Allardyce", "webUrl": "https://www.theguardian.com/football/2016/aug/28/jermain-defoe-sunderland-england-sam-allardyce", "apiUrl": "https://content.guardianapis.com/football/2016/aug/28/jermain-defoe-sunderland-england-sam-allardyce", "isHosted": false, "pillarId": "pillar/sport", "pillarName": "Sport"}, {"id": "football/2016/aug/28/sam-allardyce-steven-nzonzi-england-call-up-squad", "type": "article", "sectionId": "football", "sectionName": "Football", "webPublicationDate": "2016-08-28T09:08:04Z", "webTitle": "Sam Allardyce reveals failed attempt to call up Steven N\u2019Zonzi for England", "webUrl": "https://www.theguardian.com/football/2016/aug/28/sam-allardyce-steven-nzonzi-england-call-up-squad", "apiUrl": "https://content.guardianapis.com/football/2016/aug/28/sam-allardyce-steven-nzonzi-england-call-up-squad", "isHosted": false, "pillarId": "pillar/sport", "pillarName": "Sport"}]}}