{"response": {"status": "ok", "userTier": "developer", "total": 89226, "startIndex": 1, "pageSize": 50, "currentPage": 1, "pages": 1785, "orderBy": "newest", "results": [{"id": "football/2013/aug/31/chelsea-jose-mourinho-conspiracy", "type": "article", "sectionId": "football", "sectionName": "Football", "webPublicationDate": "2013-08-30T23:27:00Z", "webTitle": "Chelsea's Jos\u00e9 Mourinho: my teams are victims of Uefa conspiracy", "webUrl": "https://www.theguardian.com/football/2013/aug/31/chelsea-jose-mourinho-conspiracy", "apiUrl": "https://content.guardianapis.com/football/2013/aug/31/chelsea-jose-mourinho-conspiracy", "isHosted": false, "pillarId": "pillar/sport", "pillarName": "Sport"}, {"id": "football/2013/aug/30/chelsea-bayern-munich-super-cup", "type": "article", "sectionId": "football", "sectionName": "Football", "webPublicationDate": "2013-08-30T23:09:00Z", "webTitle": "Bayern Munich 2-2 Chelsea (aet; Bayern 5-4 on pens) | Super Cup report", "webUrl": "https://www.theguardian.com/football/2013/aug/30/chelsea-bayern-munich-super-cup", "apiUrl": "https://content.guardianapis.com/football/2013/aug/30/chelsea-bayern-munich-super-cup", "isHosted": false, "pillarId": "pillar/sport", "pillarName": "Sport"}, {"id": "football/2013/aug/30/transfer-window-news-brief", "type": "article", "sectionId": "football", "sectionName": "Football", "webPublicationDate": "2013-08-30T22:35:00Z", "webTitle": "Transfer window news in brief", "webUrl": "https://www.theguardian.com/football/2013/aug/30/transfer-window-news-brief", "apiUrl": "https://content.guardianapis.com/football/2013/aug/30/transfer-window-news-brief", "isHosted": false, "pillarId": "pillar/sport", "pillarName": "Sport"}, {"id": "football/2013/aug/30/di-canio-holoway-sunderland-palace", "type": "article", "sectionId": "football", "sectionName": "Football", "webPublicationDate": "2013-08-30T22:30:00Z", "webTitle": "Paolo Di Canio and Ian Holloway: we're passionate, not crazy", "webUrl": "https://www.theguardian.com/football/2013/aug/30/di-canio-holoway-sunderland-palace", "apiUrl": "https://content.guardianapis.com/football/2013/aug/30/di-canio-holoway-sunderland-palace", "isHosted": false, "pillarId": "pillar/sport", "pillarName": "Sport"}, {"id": "football/2013/aug/30/sporting-director-tottenham", "type": "article", "sectionId": "football", "sectionName": "Football", "webPublicationDate": "2013-08-30T22:06:00Z", "webTitle": "Angel or devil? How the sporting director is taking root in football", "webUrl": "https://www.theguardian.com/football/2013/aug/30/sporting-director-tottenham", "apiUrl": "https://content.guardianapis.com/football/2013/aug/30/sporting-director-tottenham", "isHosted": false, "pillarId": "pillar/sport", "pillarName": "Sport"}, {"id": "football/2013/aug/30/manuel-pellegrini-joe-hart", "type": "article", "sectionId": "football", "sectionName": "Football", "webPublicationDate": "2013-08-30T22:04:00Z", "webTitle": "Manuel Pellegrini: Joe Hart's Manchester City place is not guaranteed", "webUrl": "https://www.theguardian.com/football/2013/aug/30/manuel-pellegrini-joe-hart", "apiUrl": "https://content.guardianapis.com/football/2013/aug/30/manuel-pellegrini-joe-hart", "isHosted": false, "pillarId": "pillar/sport", "pillarName": "Sport"}, {"id": "football/2013/aug/30/david-moyes-midfielder-ander-herrera", "type": "article", "sectionId": "football", "sectionName": "Football", "webPublicationDate": "2013-08-30T21:53:00Z", "webTitle": "David Moyes remains in market for two midfielders plus Ander Herrera", "webUrl": "https://www.theguardian.com/football/2013/aug/30/david-moyes-midfielder-ander-herrera", "apiUrl": "https://content.guardianapis.com/football/2013/aug/30/david-moyes-midfielder-ander-herrera", "isHosted": false, "pillarId": "pillar/sport", "pillarName": "Sport"}, {"id": "football/2013/aug/30/super-cup-bayern-munich-chelsea-live", "type": "liveblog", "sectionId": "football", "sectionName": "Football", "webPublicationDate": "2013-08-30T21:32:00Z", "webTitle": "Super Cup: Bayern Munich 2-2 Chelsea (Bayern win on pens)", "webUrl": "https://www.theguardian.com/football/2013/aug/30/super-cup-bayern-munich-chelsea-live", "apiUrl": "https://content.guardianapis.com/football/2013/aug/30/super-cup-bayern-munich-chelsea-live", "isHosted": false, "pillarId": "pillar/sport", "pillarName": "Sport"}, {"id": "football/blog/2013/aug/30/chelsea-jose-mourinho-financial-fair-play", "type": "article", "sectionId": "football", "sectionName": "Football", "webPublicationDate": "2013-08-30T21:30:05Z", "webTitle": "Chelsea's Jos\u00e9 Mourinho unconvinced by effects of financial fair play | Dominic Fifield", "webUrl": "https://www.theguardian.com/football/blog/2013/aug/30/chelsea-jose-mourinho-financial-fair-play", "apiUrl": "https://content.guardianapis.com/football/blog/2013/aug/30/chelsea-jose-mourinho-financial-fair-play", "isHosted": false, "pillarId": "pillar/sport", "pillarName": "Sport"}, {"id": "football/2013/aug/30/liverpool-manchester-united-rodgers-moyes-ferguson", "type": "article", "sectionId": "football", "sectionName": "Football", "webPublicationDate": "2013-08-30T21:30:04Z", "webTitle": "Brendan Rodgers: Alex Ferguson's absence will affect Manchester United", "webUrl": "https://www.theguardian.com/football/2013/aug/30/liverpool-manchester-united-rodgers-moyes-ferguson", "apiUrl": "https://content.guardianapis.com/football/2013/aug/30/liverpool-manchester-united-rodgers-moyes-ferguson", "isHosted": false, "pillarId": "pillar/sport", "pillarName": "Sport"}, {"id": "football/2013/aug/30/liverpool-manchester-united-player-power", "type": "article", "sectionId": "football", "sectionName": "Football", "webPublicationDate": "2013-08-30T21:30:03Z", "webTitle": "Liverpool and Manchester United share common ground over player power", "webUrl": "https://www.theguardian.com/football/2013/aug/30/liverpool-manchester-united-player-power", "apiUrl": "https://content.guardianapis.com/football/2013/aug/30/liverpool-manchester-united-player-power", "isHosted": false, "pillarId": "pillar/sport", "pillarName": "Sport"}, {"id": "football/2013/aug/30/wenger-gareth-bale-arsenal-tottenham", "type": "article", "sectionId": "football", "sectionName": "Football", "webPublicationDate": "2013-08-30T21:30:02Z", "webTitle": "Ars\u00e8ne Wenger warns Gareth Bale sale could destabilise Tottenham", "webUrl": "https://www.theguardian.com/football/2013/aug/30/wenger-gareth-bale-arsenal-tottenham", "apiUrl": "https://content.guardianapis.com/football/2013/aug/30/wenger-gareth-bale-arsenal-tottenham", "isHosted": false, "pillarId": "pillar/sport", "pillarName": "Sport"}, {"id": "football/2013/aug/30/philippe-coutinho-liverpool-manchester-united", "type": "article", "sectionId": "football", "sectionName": "Football", "webPublicationDate": "2013-08-30T21:30:00Z", "webTitle": "Philippe Coutinho: Liverpool v Manchester United is why I left Italy", "webUrl": "https://www.theguardian.com/football/2013/aug/30/philippe-coutinho-liverpool-manchester-united", "apiUrl": "https://content.guardianapis.com/football/2013/aug/30/philippe-coutinho-liverpool-manchester-united", "isHosted": false, "pillarId": "pillar/sport", "pillarName": "Sport"}, {"id": "football/blog/2013/aug/30/tactical-analysis-liverpool-luis-suarez", "type": "article", "sectionId": "football", "sectionName": "Football", "webPublicationDate": "2013-08-30T21:30:00Z", "webTitle": "Tactical analysis: how Liverpool have managed without Luis Su\u00e1rez | Michael Cox", "webUrl": "https://www.theguardian.com/football/blog/2013/aug/30/tactical-analysis-liverpool-luis-suarez", "apiUrl": "https://content.guardianapis.com/football/blog/2013/aug/30/tactical-analysis-liverpool-luis-suarez", "isHosted": false, "pillarId": "pillar/sport", "pillarName": "Sport"}, {"id": "football/2013/aug/30/tottenham-hotspur-erik-lamela-christian-eriksen", "type": "article", "sectionId": "football", "sectionName": "Football", "webPublicationDate": "2013-08-30T20:20:00Z", "webTitle": "Tottenham's spend passing \u00a3110m with Erik Lamela and Christian Eriksen", "webUrl": "https://www.theguardian.com/football/2013/aug/30/tottenham-hotspur-erik-lamela-christian-eriksen", "apiUrl": "https://content.guardianapis.com/football/2013/aug/30/tottenham-hotspur-erik-lamela-christian-eriksen", "isHosted": false, "pillarId": "pillar/sport", "pillarName": "Sport"}, {"id": "football/2013/aug/30/europa-league-swansea-tottenham-wigan-russia", "type": "article", "sectionId": "football", "sectionName": "Football", "webPublicationDate": "2013-08-30T18:39:37Z", "webTitle": "England's Europa League qualifiers face long nights back from Russia", "webUrl": "https://www.theguardian.com/football/2013/aug/30/europa-league-swansea-tottenham-wigan-russia", "apiUrl": "https://content.guardianapis.com/football/2013/aug/30/europa-league-swansea-tottenham-wigan-russia", "isHosted": false, "pillarId": "pillar/sport", "pillarName": "Sport"}, {"id": "football/2013/aug/30/wba-swansea-premier-league-squad-sheets", "type": "article", "sectionId": "football", "sectionName": "Football", "webPublicationDate": "2013-08-30T17:43:41Z", "webTitle": "Squad sheets: West Bromwich Albion v Swansea City", "webUrl": "https://www.theguardian.com/football/2013/aug/30/wba-swansea-premier-league-squad-sheets", "apiUrl": "https://content.guardianapis.com/football/2013/aug/30/wba-swansea-premier-league-squad-sheets", "isHosted": false, "pillarId": "pillar/sport", "pillarName": "Sport"}, {"id": "football/2013/aug/30/west-ham-stoke-squad-sheets", "type": "article", "sectionId": "football", "sectionName": "Football", "webPublicationDate": "2013-08-30T17:21:11Z", "webTitle": "West Ham United v Stoke City: Squad sheets", "webUrl": "https://www.theguardian.com/football/2013/aug/30/west-ham-stoke-squad-sheets", "apiUrl": "https://content.guardianapis.com/football/2013/aug/30/west-ham-stoke-squad-sheets", "isHosted": false, "pillarId": "pillar/sport", "pillarName": "Sport"}, {"id": "football/2013/aug/30/cardiff-everton-premier-league-squad-sheets", "type": "article", "sectionId": "football", "sectionName": "Football", "webPublicationDate": "2013-08-30T17:12:42Z", "webTitle": "Cardiff City v Everton: Squad sheets", "webUrl": "https://www.theguardian.com/football/2013/aug/30/cardiff-everton-premier-league-squad-sheets", "apiUrl": "https://content.guardianapis.com/football/2013/aug/30/cardiff-everton-premier-league-squad-sheets", "isHosted": false, "pillarId": "pillar/sport", "pillarName": "Sport"}, {"id": "football/2013/aug/30/transfer-news-latest-bale-fellaini-baines-eriksen-live", "type": "liveblog", "sectionId": "football", "sectionName": "Football", "webPublicationDate": "2013-08-30T17:03:16Z", "webTitle": "Transfer news latest (Bale, Fellaini, Baines) \u2013 live!", "webUrl": "https://www.theguardian.com/football/2013/aug/30/transfer-news-latest-bale-fellaini-baines-eriksen-live", "apiUrl": "https://content.guardianapis.com/football/2013/aug/30/transfer-news-latest-bale-fellaini-baines-eriksen-live", "isHosted": false, "pillarId": "pillar/sport", "pillarName": "Sport"}, {"id": "football/2013/aug/30/arsenal-tottenham-premier-league-squad-sheets", "type": "article", "sectionId": "football", "sectionName": "Football", "webPublicationDate": "2013-08-30T16:52:05Z", "webTitle": "Arsenal v Tottenham Hotspur: Squad sheets", "webUrl": "https://www.theguardian.com/football/2013/aug/30/arsenal-tottenham-premier-league-squad-sheets", "apiUrl": "https://content.guardianapis.com/football/2013/aug/30/arsenal-tottenham-premier-league-squad-sheets", "isHosted": false, "pillarId": "pillar/sport", "pillarName": "Sport"}, {"id": "football/2013/aug/30/manchester-city-hull-squad-sheets", "type": "article", "sectionId": "football", "sectionName": "Football", "webPublicationDate": "2013-08-30T16:27:33Z", "webTitle": "Manchester City v Hull City: Squad sheets", "webUrl": "https://www.theguardian.com/football/2013/aug/30/manchester-city-hull-squad-sheets", "apiUrl": "https://content.guardianapis.com/football/2013/aug/30/manchester-city-hull-squad-sheets", "isHosted": false, "pillarId": "pillar/sport", "pillarName": "Sport"}, {"id": "football/2013/aug/30/norwich-southampton-premier-league-squad-sheets", "type": "article", "sectionId": "football", "sectionName": "Football", "webPublicationDate": "2013-08-30T16:01:27Z", "webTitle": "Norwich City v Southampton", "webUrl": "https://www.theguardian.com/football/2013/aug/30/norwich-southampton-premier-league-squad-sheets", "apiUrl": "https://content.guardianapis.com/football/2013/aug/30/norwich-southampton-premier-league-squad-sheets", "isHosted": false, "pillarId": "pillar/sport", "pillarName": "Sport"}, {"id": "football/blog/2013/aug/30/boredom-football-manchester-united-chelsea", "type": "article", "sectionId": "football", "sectionName": "Football", "webPublicationDate": "2013-08-30T16:00:03Z", "webTitle": "Boredom is an essential part of football \u2013 so bloody well enjoy it | Barney Ronay", "webUrl": "https://www.theguardian.com/football/blog/2013/aug/30/boredom-football-manchester-united-chelsea", "apiUrl": "https://content.guardianapis.com/football/blog/2013/aug/30/boredom-football-manchester-united-chelsea", "isHosted": false, "pillarId": "pillar/sport", "pillarName": "Sport"}, {"id": "football/2013/aug/30/liverpool-manchester-united-squad-sheets", "type": "article", "sectionId": "football", "sectionName": "Football", "webPublicationDate": "2013-08-30T15:54:05Z", "webTitle": "Liverpool v Manchester United: Squad sheets", "webUrl": "https://www.theguardian.com/football/2013/aug/30/liverpool-manchester-united-squad-sheets", "apiUrl": "https://content.guardianapis.com/football/2013/aug/30/liverpool-manchester-united-squad-sheets", "isHosted": false, "pillarId": "pillar/sport", "pillarName": "Sport"}, {"id": "football/2013/aug/30/football-fiver-europa-league-manchester-united-liverpool", "type": "article", "sectionId": "football", "sectionName": "Football", "webPublicationDate": "2013-08-30T15:26:06Z", "webTitle": "The Fiver: Some Bovine Dig Posted By An Idiot | Scott Murray", "webUrl": "https://www.theguardian.com/football/2013/aug/30/football-fiver-europa-league-manchester-united-liverpool", "apiUrl": "https://content.guardianapis.com/football/2013/aug/30/football-fiver-europa-league-manchester-united-liverpool", "isHosted": false, "pillarId": "pillar/sport", "pillarName": "Sport"}, {"id": "sport/blog/2013/aug/30/mls-week-27-reviews-and-previews", "type": "article", "sectionId": "sport", "sectionName": "Sport", "webPublicationDate": "2013-08-30T13:54:07Z", "webTitle": "MLS Week 27: reviews and previews", "webUrl": "https://www.theguardian.com/sport/blog/2013/aug/30/mls-week-27-reviews-and-previews", "apiUrl": "https://content.guardianapis.com/sport/blog/2013/aug/30/mls-week-27-reviews-and-previews", "isHosted": false, "pillarId": "pillar/sport", "pillarName": "Sport"}, {"id": "football/video/2013/aug/30/arsene-wenger-gareth-bale-video", "type": "video", "sectionId": "football", "sectionName": "Football", "webPublicationDate": "2013-08-30T12:44:00Z", "webTitle": "Ars\u00e8ne Wenger says Gareth Bale isn't worth the price he'll command - video", "webUrl": "https://www.theguardian.com/football/video/2013/aug/30/arsene-wenger-gareth-bale-video", "apiUrl": "https://content.guardianapis.com/football/video/2013/aug/30/arsene-wenger-gareth-bale-video", "isHosted": false, "pillarId": "pillar/sport", "pillarName": "Sport"}, {"id": "football/2013/aug/30/manchester-united-ander-herrera-bilbao", "type": "article", "sectionId": "football", "sectionName": "Football", "webPublicationDate": "2013-08-30T12:40:55Z", "webTitle": "Manchester United move for Ander Herrera and 'bid for Daniele De Rossi'", "webUrl": "https://www.theguardian.com/football/2013/aug/30/manchester-united-ander-herrera-bilbao", "apiUrl": "https://content.guardianapis.com/football/2013/aug/30/manchester-united-ander-herrera-bilbao", "isHosted": false, "pillarId": "pillar/sport", "pillarName": "Sport"}, {"id": "football/2013/aug/30/uefa-europa-league-draw-live", "type": "liveblog", "sectionId": "football", "sectionName": "Football", "webPublicationDate": "2013-08-30T12:11:35Z", "webTitle": "Uefa Europa League draw - live! | Barry Glendenning", "webUrl": "https://www.theguardian.com/football/2013/aug/30/uefa-europa-league-draw-live", "apiUrl": "https://content.guardianapis.com/football/2013/aug/30/uefa-europa-league-draw-live", "isHosted": false, "pillarId": "pillar/sport", "pillarName": "Sport"}, {"id": "football/2013/aug/30/uefa-europa-league-groups-2013", "type": "article", "sectionId": "football", "sectionName": "Football", "webPublicationDate": "2013-08-30T12:08:40Z", "webTitle": "Uefa Europa League groups 2013 \u2013 in full", "webUrl": "https://www.theguardian.com/football/2013/aug/30/uefa-europa-league-groups-2013", "apiUrl": "https://content.guardianapis.com/football/2013/aug/30/uefa-europa-league-groups-2013", "isHosted": false, "pillarId": "pillar/sport", "pillarName": "Sport"}, {"id": "football/2013/aug/30/palace-sunderland-premier-league-squad-sheets", "type": "article", "sectionId": "football", "sectionName": "Football", "webPublicationDate": "2013-08-30T12:08:21Z", "webTitle": "Crystal Palace v Sunderland: Squad sheets", "webUrl": "https://www.theguardian.com/football/2013/aug/30/palace-sunderland-premier-league-squad-sheets", "apiUrl": "https://content.guardianapis.com/football/2013/aug/30/palace-sunderland-premier-league-squad-sheets", "isHosted": false, "pillarId": "pillar/sport", "pillarName": "Sport"}, {"id": "football/2013/aug/30/newcastle-fulham-premier-league-squad-sheets", "type": "article", "sectionId": "football", "sectionName": "Football", "webPublicationDate": "2013-08-30T11:59:22Z", "webTitle": "Newcastle United v Fulham: Squad sheets", "webUrl": "https://www.theguardian.com/football/2013/aug/30/newcastle-fulham-premier-league-squad-sheets", "apiUrl": "https://content.guardianapis.com/football/2013/aug/30/newcastle-fulham-premier-league-squad-sheets", "isHosted": false, "pillarId": "pillar/sport", "pillarName": "Sport"}, {"id": "sport/blog/2013/aug/30/10-favourite-things-week-sports-journalism-novak-djokovic", "type": "article", "sectionId": "sport", "sectionName": "Sport", "webPublicationDate": "2013-08-30T11:05:00Z", "webTitle": "10 favourite things this week: the best sports journalism from around the web", "webUrl": "https://www.theguardian.com/sport/blog/2013/aug/30/10-favourite-things-week-sports-journalism-novak-djokovic", "apiUrl": "https://content.guardianapis.com/sport/blog/2013/aug/30/10-favourite-things-week-sports-journalism-novak-djokovic", "isHosted": false, "pillarId": "pillar/sport", "pillarName": "Sport"}, {"id": "football/blog/2013/aug/30/ten-things-premier-league", "type": "article", "sectionId": "football", "sectionName": "Football", "webPublicationDate": "2013-08-30T10:57:39Z", "webTitle": "Premier League: 10 things to look out for this weekend | Jacob Steinberg and Paul Doyle", "webUrl": "https://www.theguardian.com/football/blog/2013/aug/30/ten-things-premier-league", "apiUrl": "https://content.guardianapis.com/football/blog/2013/aug/30/ten-things-premier-league", "isHosted": false, "pillarId": "pillar/sport", "pillarName": "Sport"}, {"id": "football/2013/aug/30/daniel-agger-liverpool-barcelona", "type": "article", "sectionId": "football", "sectionName": "Football", "webPublicationDate": "2013-08-30T10:40:56Z", "webTitle": "Daniel Agger reveals why he stayed at Liverpool despite Barcelona offer", "webUrl": "https://www.theguardian.com/football/2013/aug/30/daniel-agger-liverpool-barcelona", "apiUrl": "https://content.guardianapis.com/football/2013/aug/30/daniel-agger-liverpool-barcelona", "isHosted": false, "pillarId": "pillar/sport", "pillarName": "Sport"}, {"id": "football/2013/aug/30/liverpool-twitter-munich-air-disaster", "type": "article", "sectionId": "football", "sectionName": "Football", "webPublicationDate": "2013-08-30T10:14:25Z", "webTitle": "Liverpool apologise after Twitter account mocks Munich air disaster", "webUrl": "https://www.theguardian.com/football/2013/aug/30/liverpool-twitter-munich-air-disaster", "apiUrl": "https://content.guardianapis.com/football/2013/aug/30/liverpool-twitter-munich-air-disaster", "isHosted": false, "pillarId": "pillar/sport", "pillarName": "Sport"}, {"id": "football/video/2013/aug/30/swanseas-michael-laudrup-europa-league-petrolul-video", "type": "video", "sectionId": "football", "sectionName": "Football", "webPublicationDate": "2013-08-30T09:58:00Z", "webTitle": "Swansea's Michael Laudrup reflects on tough Europa League tie against Petrolul - video", "webUrl": "https://www.theguardian.com/football/video/2013/aug/30/swanseas-michael-laudrup-europa-league-petrolul-video", "apiUrl": "https://content.guardianapis.com/football/video/2013/aug/30/swanseas-michael-laudrup-europa-league-petrolul-video", "isHosted": false, "pillarId": "pillar/sport", "pillarName": "Sport"}, {"id": "football/blog/2013/aug/30/the-joy-of-six-record-transfers", "type": "article", "sectionId": "football", "sectionName": "Football", "webPublicationDate": "2013-08-30T09:56:04Z", "webTitle": "The Joy of Six: record transfers", "webUrl": "https://www.theguardian.com/football/blog/2013/aug/30/the-joy-of-six-record-transfers", "apiUrl": "https://content.guardianapis.com/football/blog/2013/aug/30/the-joy-of-six-record-transfers", "isHosted": false, "pillarId": "pillar/sport", "pillarName": "Sport"}, {"id": "football/video/2013/aug/30/andre-villas-boas-transfer-talk-chelseas-willian-signing-video", "type": "video", "sectionId": "football", "sectionName": "Football", "webPublicationDate": "2013-08-30T09:00:00Z", "webTitle": "Andr\u00e9 Villas-Boas wary of transfer talk after Chelsea's last-minute Willian signing - video", "webUrl": "https://www.theguardian.com/football/video/2013/aug/30/andre-villas-boas-transfer-talk-chelseas-willian-signing-video", "apiUrl": "https://content.guardianapis.com/football/video/2013/aug/30/andre-villas-boas-transfer-talk-chelseas-willian-signing-video", "isHosted": false, "pillarId": "pillar/sport", "pillarName": "Sport"}, {"id": "football/2013/aug/30/football-transfer-rumours-arsenal-benzema-di-maria-ozil", "type": "article", "sectionId": "football", "sectionName": "Football", "webPublicationDate": "2013-08-30T08:11:16Z", "webTitle": "Football transfer rumours: Arsenal to sign Benzema, Ozil and Di Mar\u00eda? | Scott Murray", "webUrl": "https://www.theguardian.com/football/2013/aug/30/football-transfer-rumours-arsenal-benzema-di-maria-ozil", "apiUrl": "https://content.guardianapis.com/football/2013/aug/30/football-transfer-rumours-arsenal-benzema-di-maria-ozil", "isHosted": false, "pillarId": "pillar/sport", "pillarName": "Sport"}, {"id": "football/blog/2013/aug/30/champions-league-group-analysis", "type": "article", "sectionId": "football", "sectionName": "Football", "webPublicationDate": "2013-08-30T00:05:30Z", "webTitle": "Champions League draw 2013-14: group-by-group analysis | Michael Cox", "webUrl": "https://www.theguardian.com/football/blog/2013/aug/30/champions-league-group-analysis", "apiUrl": "https://content.guardianapis.com/football/blog/2013/aug/30/champions-league-group-analysis", "isHosted": false, "pillarId": "pillar/sport", "pillarName": "Sport"}, {"id": "football/2013/aug/29/tottenham-gareth-bale-real-madrid", "type": "article", "sectionId": "football", "sectionName": "Football", "webPublicationDate": "2013-08-29T21:52:59Z", "webTitle": "Tottenham have dragged feet on Gareth Bale deal, Real Madrid VP says", "webUrl": "https://www.theguardian.com/football/2013/aug/29/tottenham-gareth-bale-real-madrid", "apiUrl": "https://content.guardianapis.com/football/2013/aug/29/tottenham-gareth-bale-real-madrid", "isHosted": false, "pillarId": "pillar/sport", "pillarName": "Sport"}, {"id": "football/2013/aug/29/stephane-sessegnon-sunderland-crystal-palace", "type": "article", "sectionId": "football", "sectionName": "Football", "webPublicationDate": "2013-08-29T21:45:05Z", "webTitle": "St\u00e9phane Sess\u00e8gnon dropped from Sunderland squad to face Crystal Palace", "webUrl": "https://www.theguardian.com/football/2013/aug/29/stephane-sessegnon-sunderland-crystal-palace", "apiUrl": "https://content.guardianapis.com/football/2013/aug/29/stephane-sessegnon-sunderland-crystal-palace", "isHosted": false, "pillarId": "pillar/sport", "pillarName": "Sport"}, {"id": "football/2013/aug/29/liverpool-brendan-rodgers-shay-given", "type": "article", "sectionId": "football", "sectionName": "Football", "webPublicationDate": "2013-08-29T21:31:02Z", "webTitle": "Liverpool's Brendan Rodgers lines up move for goalkeeper Shay Given", "webUrl": "https://www.theguardian.com/football/2013/aug/29/liverpool-brendan-rodgers-shay-given", "apiUrl": "https://content.guardianapis.com/football/2013/aug/29/liverpool-brendan-rodgers-shay-given", "isHosted": false, "pillarId": "pillar/sport", "pillarName": "Sport"}, {"id": "football/2013/aug/29/manchester-united-baines-fellaini-everton", "type": "article", "sectionId": "football", "sectionName": "Football", "webPublicationDate": "2013-08-29T21:31:01Z", "webTitle": "Everton reject Manchester United bid of \u00a336m for Baines and Fellaini", "webUrl": "https://www.theguardian.com/football/2013/aug/29/manchester-united-baines-fellaini-everton", "apiUrl": "https://content.guardianapis.com/football/2013/aug/29/manchester-united-baines-fellaini-everton", "isHosted": false, "pillarId": "pillar/sport", "pillarName": "Sport"}, {"id": "football/2013/aug/29/arsenal-matthieu-flamini-lukas-podolski", "type": "article", "sectionId": "football", "sectionName": "Football", "webPublicationDate": "2013-08-29T21:29:58Z", "webTitle": "Arsenal sign Mathieu Flamini but Lukas Podolski faces 10 weeks out", "webUrl": "https://www.theguardian.com/football/2013/aug/29/arsenal-matthieu-flamini-lukas-podolski", "apiUrl": "https://content.guardianapis.com/football/2013/aug/29/arsenal-matthieu-flamini-lukas-podolski", "isHosted": false, "pillarId": "pillar/sport", "pillarName": "Sport"}, {"id": "football/blog/2013/aug/29/chelsea-arsenal-champions-league", "type": "article", "sectionId": "football", "sectionName": "Football", "webPublicationDate": "2013-08-29T21:24:54Z", "webTitle": "Chelsea look in for a smooth ride but Arsenal have to avoid potholes | Daniel Taylor", "webUrl": "https://www.theguardian.com/football/blog/2013/aug/29/chelsea-arsenal-champions-league", "apiUrl": "https://content.guardianapis.com/football/blog/2013/aug/29/chelsea-arsenal-champions-league", "isHosted": false, "pillarId": "pillar/sport", "pillarName": "Sport"}, {"id": "football/2013/aug/29/tottenham-dinamo-tbilisi-europa-league", "type": "article", "sectionId": "football", "sectionName": "Football", "webPublicationDate": "2013-08-29T21:16:06Z", "webTitle": "Tottenham 3-0 Dinamo Tbilisi (agg 8-0) | Europa League play-off second leg report", "webUrl": "https://www.theguardian.com/football/2013/aug/29/tottenham-dinamo-tbilisi-europa-league", "apiUrl": "https://content.guardianapis.com/football/2013/aug/29/tottenham-dinamo-tbilisi-europa-league", "isHosted": false, "pillarId": "pillar/sport", "pillarName": "Sport"}, {"id": "football/2013/aug/29/you-are-the-ref-trevillion", "type": "article", "sectionId": "football", "sectionName": "Football", "webPublicationDate": "2013-08-29T19:59:00Z", "webTitle": "251. Gareth Bale, Tottenham", "webUrl": "https://www.theguardian.com/football/2013/aug/29/you-are-the-ref-trevillion", "apiUrl": "https://content.guardianapis.com/football/2013/aug/29/you-are-the-ref-trevillion", "isHosted": false, "pillarId": "pillar/sport", "pillarName": "Sport"}]}}