{"response": {"status": "ok", "userTier": "developer", "total": 87400, "startIndex": 1, "pageSize": 50, "currentPage": 1, "pages": 1748, "orderBy": "newest", "results": [{"id": "football/2012/aug/30/liverpool-hearts-europa-league-match-report", "type": "article", "sectionId": "football", "sectionName": "Football", "webPublicationDate": "2012-08-30T23:20:00Z", "webTitle": "Liverpool line up Chelsea's Daniel Sturridge to replace Andy Carroll", "webUrl": "https://www.theguardian.com/football/2012/aug/30/liverpool-hearts-europa-league-match-report", "apiUrl": "https://content.guardianapis.com/football/2012/aug/30/liverpool-hearts-europa-league-match-report", "isHosted": false, "pillarId": "pillar/sport", "pillarName": "Sport"}, {"id": "football/2012/aug/30/sam-allardyce-support-qpr-robert-green", "type": "article", "sectionId": "football", "sectionName": "Football", "webPublicationDate": "2012-08-30T22:17:00Z", "webTitle": "Sam Allardyce offers support to QPR goalkeeper Robert Green", "webUrl": "https://www.theguardian.com/football/2012/aug/30/sam-allardyce-support-qpr-robert-green", "apiUrl": "https://content.guardianapis.com/football/2012/aug/30/sam-allardyce-support-qpr-robert-green", "isHosted": false, "pillarId": "pillar/sport", "pillarName": "Sport"}, {"id": "football/2012/aug/30/manchester-city-real-madrid-champions-league", "type": "article", "sectionId": "football", "sectionName": "Football", "webPublicationDate": "2012-08-30T22:01:02Z", "webTitle": "Manchester City to face Real Madrid in toughest Champions League group", "webUrl": "https://www.theguardian.com/football/2012/aug/30/manchester-city-real-madrid-champions-league", "apiUrl": "https://content.guardianapis.com/football/2012/aug/30/manchester-city-real-madrid-champions-league", "isHosted": false, "pillarId": "pillar/sport", "pillarName": "Sport"}, {"id": "football/2012/aug/30/arsene-wenger-theo-walcott-arsenal", "type": "article", "sectionId": "football", "sectionName": "Football", "webPublicationDate": "2012-08-30T22:01:00Z", "webTitle": "Ars\u00e8ne Wenger hopes a deal can still be done with Theo Walcott", "webUrl": "https://www.theguardian.com/football/2012/aug/30/arsene-wenger-theo-walcott-arsenal", "apiUrl": "https://content.guardianapis.com/football/2012/aug/30/arsene-wenger-theo-walcott-arsenal", "isHosted": false, "pillarId": "pillar/sport", "pillarName": "Sport"}, {"id": "football/2012/aug/30/adam-johnson-sunderland", "type": "article", "sectionId": "football", "sectionName": "Football", "webPublicationDate": "2012-08-30T21:59:01Z", "webTitle": "Adam Johnson happy to swap negatives for positives with Sunderland move", "webUrl": "https://www.theguardian.com/football/2012/aug/30/adam-johnson-sunderland", "apiUrl": "https://content.guardianapis.com/football/2012/aug/30/adam-johnson-sunderland", "isHosted": false, "pillarId": "pillar/sport", "pillarName": "Sport"}, {"id": "football/2012/aug/30/fulham-manchester-united-dimitar-berbatov", "type": "article", "sectionId": "football", "sectionName": "Football", "webPublicationDate": "2012-08-30T21:58:00Z", "webTitle": "Fulham secure \u00a35m deal for Manchester United's Dimitar Berbatov", "webUrl": "https://www.theguardian.com/football/2012/aug/30/fulham-manchester-united-dimitar-berbatov", "apiUrl": "https://content.guardianapis.com/football/2012/aug/30/fulham-manchester-united-dimitar-berbatov", "isHosted": false, "pillarId": "pillar/sport", "pillarName": "Sport"}, {"id": "football/blog/2012/aug/30/manchestercity-manchester-united", "type": "article", "sectionId": "football", "sectionName": "Football", "webPublicationDate": "2012-08-30T21:45:20Z", "webTitle": "Deadly Champions League draw will test Manchester City's mettle  | Daniel Taylor", "webUrl": "https://www.theguardian.com/football/blog/2012/aug/30/manchestercity-manchester-united", "apiUrl": "https://content.guardianapis.com/football/blog/2012/aug/30/manchestercity-manchester-united", "isHosted": false, "pillarId": "pillar/sport", "pillarName": "Sport"}, {"id": "football/2012/aug/30/chelsea-loan-daniel-sturrudge-andre-schurrle", "type": "article", "sectionId": "football", "sectionName": "Football", "webPublicationDate": "2012-08-30T21:30:04Z", "webTitle": "Chelsea may loan out Daniel Sturridge if Andr\u00e9 Sch\u00fcrrle deal is done", "webUrl": "https://www.theguardian.com/football/2012/aug/30/chelsea-loan-daniel-sturrudge-andre-schurrle", "apiUrl": "https://content.guardianapis.com/football/2012/aug/30/chelsea-loan-daniel-sturrudge-andre-schurrle", "isHosted": false, "pillarId": "pillar/sport", "pillarName": "Sport"}, {"id": "football/2012/aug/30/aston-villa-genk-christian-benteke", "type": "article", "sectionId": "football", "sectionName": "Football", "webPublicationDate": "2012-08-30T21:30:04Z", "webTitle": "Aston Villa grow frustrated with Genk as Christian Benteke seeks move", "webUrl": "https://www.theguardian.com/football/2012/aug/30/aston-villa-genk-christian-benteke", "apiUrl": "https://content.guardianapis.com/football/2012/aug/30/aston-villa-genk-christian-benteke", "isHosted": false, "pillarId": "pillar/sport", "pillarName": "Sport"}, {"id": "football/2012/aug/30/alex-oxlade-chamberlain-england-world-cup", "type": "article", "sectionId": "football", "sectionName": "Football", "webPublicationDate": "2012-08-30T21:30:03Z", "webTitle": "Alex Oxlade-Chamberlain may start in England World Cup qualifying games", "webUrl": "https://www.theguardian.com/football/2012/aug/30/alex-oxlade-chamberlain-england-world-cup", "apiUrl": "https://content.guardianapis.com/football/2012/aug/30/alex-oxlade-chamberlain-england-world-cup", "isHosted": false, "pillarId": "pillar/sport", "pillarName": "Sport"}, {"id": "football/2012/aug/30/newcastle-united-atromitos-europa-league", "type": "article", "sectionId": "football", "sectionName": "Football", "webPublicationDate": "2012-08-30T21:25:03Z", "webTitle": "Newcastle United 1-0 Atromitos; agg 2-1 | Europa League match report", "webUrl": "https://www.theguardian.com/football/2012/aug/30/newcastle-united-atromitos-europa-league", "apiUrl": "https://content.guardianapis.com/football/2012/aug/30/newcastle-united-atromitos-europa-league", "isHosted": false, "pillarId": "pillar/sport", "pillarName": "Sport"}, {"id": "football/2012/aug/30/liverpool-hearts-europa-league-live-mbm-report", "type": "article", "sectionId": "football", "sectionName": "Football", "webPublicationDate": "2012-08-30T20:55:00Z", "webTitle": "Liverpool v Heart of Midlothian \u2013 as it happened | Scott Murray", "webUrl": "https://www.theguardian.com/football/2012/aug/30/liverpool-hearts-europa-league-live-mbm-report", "apiUrl": "https://content.guardianapis.com/football/2012/aug/30/liverpool-hearts-europa-league-live-mbm-report", "isHosted": false, "pillarId": "pillar/sport", "pillarName": "Sport"}, {"id": "football/2012/aug/30/andy-carroll-west-ham-united-liverpool", "type": "article", "sectionId": "football", "sectionName": "Football", "webPublicationDate": "2012-08-30T18:24:23Z", "webTitle": "Andy Carroll poised to join West Ham after Liverpool agree loan deal", "webUrl": "https://www.theguardian.com/football/2012/aug/30/andy-carroll-west-ham-united-liverpool", "apiUrl": "https://content.guardianapis.com/football/2012/aug/30/andy-carroll-west-ham-united-liverpool", "isHosted": false, "pillarId": "pillar/sport", "pillarName": "Sport"}, {"id": "football/2012/aug/30/chelsea-atletico-madrid-super-cup", "type": "article", "sectionId": "football", "sectionName": "Football", "webPublicationDate": "2012-08-30T16:50:44Z", "webTitle": "Fernando Torres faces old friends Atl\u00e9tico Madrid in Super Cup", "webUrl": "https://www.theguardian.com/football/2012/aug/30/chelsea-atletico-madrid-super-cup", "apiUrl": "https://content.guardianapis.com/football/2012/aug/30/chelsea-atletico-madrid-super-cup", "isHosted": false, "pillarId": "pillar/sport", "pillarName": "Sport"}, {"id": "football/2012/aug/30/the-fiver-dimitar-berbatov", "type": "article", "sectionId": "football", "sectionName": "Football", "webPublicationDate": "2012-08-30T15:35:46Z", "webTitle": "The Fiver | Dimitar Berbatov does not play football | Scott Murray", "webUrl": "https://www.theguardian.com/football/2012/aug/30/the-fiver-dimitar-berbatov", "apiUrl": "https://content.guardianapis.com/football/2012/aug/30/the-fiver-dimitar-berbatov", "isHosted": false, "pillarId": "pillar/sport", "pillarName": "Sport"}, {"id": "football/2012/aug/30/liverpool-bayer-leverkusen-samed-yesil", "type": "article", "sectionId": "football", "sectionName": "Football", "webPublicationDate": "2012-08-30T14:47:00Z", "webTitle": "Liverpool agree \u00a31m fee for Bayer Leverkusen striker Samed Yesil", "webUrl": "https://www.theguardian.com/football/2012/aug/30/liverpool-bayer-leverkusen-samed-yesil", "apiUrl": "https://content.guardianapis.com/football/2012/aug/30/liverpool-bayer-leverkusen-samed-yesil", "isHosted": false, "pillarId": "pillar/sport", "pillarName": "Sport"}, {"id": "football/2012/aug/30/midweek-roundup-dc-united-new-york-red-bulls-philadelphia-union", "type": "article", "sectionId": "football", "sectionName": "Football", "webPublicationDate": "2012-08-30T14:11:00Z", "webTitle": "MLS midweek roundup | Graham Parker", "webUrl": "https://www.theguardian.com/football/2012/aug/30/midweek-roundup-dc-united-new-york-red-bulls-philadelphia-union", "apiUrl": "https://content.guardianapis.com/football/2012/aug/30/midweek-roundup-dc-united-new-york-red-bulls-philadelphia-union", "isHosted": false, "pillarId": "pillar/sport", "pillarName": "Sport"}, {"id": "football/blog/audio/2012/aug/30/football-weekly-extra-podcast-transfer-window", "type": "audio", "sectionId": "football", "sectionName": "Football", "webPublicationDate": "2012-08-30T13:52:17Z", "webTitle": "Football Weekly Extra: J\u00falio C\u00e9sar to QPR and more deadline-day madness", "webUrl": "https://www.theguardian.com/football/blog/audio/2012/aug/30/football-weekly-extra-podcast-transfer-window", "apiUrl": "https://content.guardianapis.com/football/blog/audio/2012/aug/30/football-weekly-extra-podcast-transfer-window", "isHosted": false, "pillarId": "pillar/sport", "pillarName": "Sport"}, {"id": "football/2012/aug/30/thibaut-courtois-atletico-madrid-chelsea", "type": "article", "sectionId": "football", "sectionName": "Football", "webPublicationDate": "2012-08-30T13:02:36Z", "webTitle": "All right on the night for Atl\u00e9tico Madrid's Chelsea-owned keeper", "webUrl": "https://www.theguardian.com/football/2012/aug/30/thibaut-courtois-atletico-madrid-chelsea", "apiUrl": "https://content.guardianapis.com/football/2012/aug/30/thibaut-courtois-atletico-madrid-chelsea", "isHosted": false, "pillarId": "pillar/sport", "pillarName": "Sport"}, {"id": "football/gallery/2012/aug/30/champions-league-team-guide-pictures", "type": "gallery", "sectionId": "football", "sectionName": "Football", "webPublicationDate": "2012-08-30T11:49:44Z", "webTitle": "Champions League 2012-13: a team-by-team guide \u2013 in pictures", "webUrl": "https://www.theguardian.com/football/gallery/2012/aug/30/champions-league-team-guide-pictures", "apiUrl": "https://content.guardianapis.com/football/gallery/2012/aug/30/champions-league-team-guide-pictures", "isHosted": false, "pillarId": "pillar/sport", "pillarName": "Sport"}, {"id": "football/2012/aug/30/michael-carrick-manchester-united", "type": "article", "sectionId": "football", "sectionName": "Football", "webPublicationDate": "2012-08-30T10:11:10Z", "webTitle": "Michael Carrick confident Manchester United will improve in Europe", "webUrl": "https://www.theguardian.com/football/2012/aug/30/michael-carrick-manchester-united", "apiUrl": "https://content.guardianapis.com/football/2012/aug/30/michael-carrick-manchester-united", "isHosted": false, "pillarId": "pillar/sport", "pillarName": "Sport"}, {"id": "football/2012/aug/30/transfer-rumours-manchester-city-dzeko-arsenal", "type": "article", "sectionId": "football", "sectionName": "Football", "webPublicationDate": "2012-08-30T08:17:55Z", "webTitle": "Football transfer rumours: Manchester City's Edin Dzeko to Arsenal?", "webUrl": "https://www.theguardian.com/football/2012/aug/30/transfer-rumours-manchester-city-dzeko-arsenal", "apiUrl": "https://content.guardianapis.com/football/2012/aug/30/transfer-rumours-manchester-city-dzeko-arsenal", "isHosted": false, "pillarId": "pillar/sport", "pillarName": "Sport"}, {"id": "sport/blog/2012/aug/30/classic-youtube-best-sports-clips", "type": "article", "sectionId": "sport", "sectionName": "Sport", "webPublicationDate": "2012-08-30T07:30:00Z", "webTitle": "Classic YouTube | Romario v The Crystal Method, motor racing backwards and the Wong show", "webUrl": "https://www.theguardian.com/sport/blog/2012/aug/30/classic-youtube-best-sports-clips", "apiUrl": "https://content.guardianapis.com/sport/blog/2012/aug/30/classic-youtube-best-sports-clips", "isHosted": false, "pillarId": "pillar/sport", "pillarName": "Sport"}, {"id": "football/2012/aug/30/realmadrid-barcelona", "type": "article", "sectionId": "football", "sectionName": "Football", "webPublicationDate": "2012-08-29T23:56:08Z", "webTitle": "Real Madrid beat Barcelona to win Spain's Super Cup", "webUrl": "https://www.theguardian.com/football/2012/aug/30/realmadrid-barcelona", "apiUrl": "https://content.guardianapis.com/football/2012/aug/30/realmadrid-barcelona", "isHosted": false, "pillarId": "pillar/sport", "pillarName": "Sport"}, {"id": "football/2012/aug/30/dimitar-berbatov-fulham-fiorentina-juventus", "type": "article", "sectionId": "football", "sectionName": "Football", "webPublicationDate": "2012-08-29T23:01:56Z", "webTitle": "Fulham join race for Dimitar Berbatov after losing Moussa Demb\u00e9l\u00e9", "webUrl": "https://www.theguardian.com/football/2012/aug/30/dimitar-berbatov-fulham-fiorentina-juventus", "apiUrl": "https://content.guardianapis.com/football/2012/aug/30/dimitar-berbatov-fulham-fiorentina-juventus", "isHosted": false, "pillarId": "pillar/sport", "pillarName": "Sport"}, {"id": "football/2012/aug/29/real-madrid-barcelona-live-mbm", "type": "article", "sectionId": "football", "sectionName": "Football", "webPublicationDate": "2012-08-29T22:22:00Z", "webTitle": "Real Madrid v Barcelona: Spanish Super Cup second leg \u2013 as it happened", "webUrl": "https://www.theguardian.com/football/2012/aug/29/real-madrid-barcelona-live-mbm", "apiUrl": "https://content.guardianapis.com/football/2012/aug/29/real-madrid-barcelona-live-mbm", "isHosted": false, "pillarId": "pillar/sport", "pillarName": "Sport"}, {"id": "football/2012/aug/29/andy-carroll-alan-pardew-newcastle", "type": "article", "sectionId": "football", "sectionName": "Football", "webPublicationDate": "2012-08-29T22:18:00Z", "webTitle": "Alan Pardew has refused to rule out a Newcastle move for Andy Carroll", "webUrl": "https://www.theguardian.com/football/2012/aug/29/andy-carroll-alan-pardew-newcastle", "apiUrl": "https://content.guardianapis.com/football/2012/aug/29/andy-carroll-alan-pardew-newcastle", "isHosted": false, "pillarId": "pillar/sport", "pillarName": "Sport"}, {"id": "football/2012/aug/29/alex-oxlade-chamberlain-england-world-cup", "type": "article", "sectionId": "football", "sectionName": "Football", "webPublicationDate": "2012-08-29T21:47:00Z", "webTitle": "Alex Oxlade-Chamberlain gets call-up for England's World Cup qualifiers", "webUrl": "https://www.theguardian.com/football/2012/aug/29/alex-oxlade-chamberlain-england-world-cup", "apiUrl": "https://content.guardianapis.com/football/2012/aug/29/alex-oxlade-chamberlain-england-world-cup", "isHosted": false, "pillarId": "pillar/sport", "pillarName": "Sport"}, {"id": "football/2012/aug/29/aston-villa-genk-christian-benteke", "type": "article", "sectionId": "football", "sectionName": "Football", "webPublicationDate": "2012-08-29T21:30:01Z", "webTitle": "Aston Villa ready to abandon bid for Genk's Christian Benteke", "webUrl": "https://www.theguardian.com/football/2012/aug/29/aston-villa-genk-christian-benteke", "apiUrl": "https://content.guardianapis.com/football/2012/aug/29/aston-villa-genk-christian-benteke", "isHosted": false, "pillarId": "pillar/sport", "pillarName": "Sport"}, {"id": "football/2012/aug/29/fulham-moussa-dembele-tottenham", "type": "article", "sectionId": "football", "sectionName": "Football", "webPublicationDate": "2012-08-29T21:29:01Z", "webTitle": "Fulham hoping to make up for Moussa Demb\u00e9l\u00e9's departure to Tottenham", "webUrl": "https://www.theguardian.com/football/2012/aug/29/fulham-moussa-dembele-tottenham", "apiUrl": "https://content.guardianapis.com/football/2012/aug/29/fulham-moussa-dembele-tottenham", "isHosted": false, "pillarId": "pillar/sport", "pillarName": "Sport"}, {"id": "football/2012/aug/29/everton-leyton-orient-capital-one-cup", "type": "article", "sectionId": "football", "sectionName": "Football", "webPublicationDate": "2012-08-29T21:01:09Z", "webTitle": "Everton 5-0 Leyton Orient | Capital One Cup match report", "webUrl": "https://www.theguardian.com/football/2012/aug/29/everton-leyton-orient-capital-one-cup", "apiUrl": "https://content.guardianapis.com/football/2012/aug/29/everton-leyton-orient-capital-one-cup", "isHosted": false, "pillarId": "pillar/sport", "pillarName": "Sport"}, {"id": "football/2012/aug/29/arsenal-theo-walcott-contract", "type": "article", "sectionId": "football", "sectionName": "Football", "webPublicationDate": "2012-08-29T21:00:00Z", "webTitle": "Arsenal's Theo Walcott not for sale despite delay over new contract", "webUrl": "https://www.theguardian.com/football/2012/aug/29/arsenal-theo-walcott-contract", "apiUrl": "https://content.guardianapis.com/football/2012/aug/29/arsenal-theo-walcott-contract", "isHosted": false, "pillarId": "pillar/sport", "pillarName": "Sport"}, {"id": "football/2012/aug/29/celtic-helsingborg-champions-league-play-off", "type": "article", "sectionId": "football", "sectionName": "Football", "webPublicationDate": "2012-08-29T20:57:00Z", "webTitle": "Celtic 2-0 Helsingborg (Celtic win 4-0) | Champions League play-off", "webUrl": "https://www.theguardian.com/football/2012/aug/29/celtic-helsingborg-champions-league-play-off", "apiUrl": "https://content.guardianapis.com/football/2012/aug/29/celtic-helsingborg-champions-league-play-off", "isHosted": false, "pillarId": "pillar/sport", "pillarName": "Sport"}, {"id": "football/2012/aug/29/wayne-rooney-manchester-united", "type": "article", "sectionId": "football", "sectionName": "Football", "webPublicationDate": "2012-08-29T20:54:06Z", "webTitle": "Wayne Rooney calls reports he is to leave Manchester United 'rubbish'", "webUrl": "https://www.theguardian.com/football/2012/aug/29/wayne-rooney-manchester-united", "apiUrl": "https://content.guardianapis.com/football/2012/aug/29/wayne-rooney-manchester-united", "isHosted": false, "pillarId": "pillar/sport", "pillarName": "Sport"}, {"id": "football/2012/aug/29/brendan-rogers-andy-carroll-liverpool", "type": "article", "sectionId": "football", "sectionName": "Football", "webPublicationDate": "2012-08-29T20:42:50Z", "webTitle": "Brendan Rodgers says Liverpool must sell players before buying more", "webUrl": "https://www.theguardian.com/football/2012/aug/29/brendan-rogers-andy-carroll-liverpool", "apiUrl": "https://content.guardianapis.com/football/2012/aug/29/brendan-rogers-andy-carroll-liverpool", "isHosted": false, "pillarId": "pillar/sport", "pillarName": "Sport"}, {"id": "football/2012/aug/29/manchester-city-internazionale-maicon", "type": "article", "sectionId": "football", "sectionName": "Football", "webPublicationDate": "2012-08-29T19:03:38Z", "webTitle": "Manchester City step up their chase for Internazionale's Maicon", "webUrl": "https://www.theguardian.com/football/2012/aug/29/manchester-city-internazionale-maicon", "apiUrl": "https://content.guardianapis.com/football/2012/aug/29/manchester-city-internazionale-maicon", "isHosted": false, "pillarId": "pillar/sport", "pillarName": "Sport"}, {"id": "football/2012/aug/29/freddie-fletcher", "type": "article", "sectionId": "football", "sectionName": "Football", "webPublicationDate": "2012-08-29T17:36:01Z", "webTitle": "Freddie Fletcher obituary", "webUrl": "https://www.theguardian.com/football/2012/aug/29/freddie-fletcher", "apiUrl": "https://content.guardianapis.com/football/2012/aug/29/freddie-fletcher", "isHosted": false, "pillarId": "pillar/sport", "pillarName": "Sport"}, {"id": "media/2012/aug/29/sunday-sun-abc-figures-down-20-percent", "type": "article", "sectionId": "media", "sectionName": "Media", "webPublicationDate": "2012-08-29T15:54:50Z", "webTitle": "Sunday Sun down as Magpies soar", "webUrl": "https://www.theguardian.com/media/2012/aug/29/sunday-sun-abc-figures-down-20-percent", "apiUrl": "https://content.guardianapis.com/media/2012/aug/29/sunday-sun-abc-figures-down-20-percent", "isHosted": false, "pillarId": "pillar/news", "pillarName": "News"}, {"id": "football/blog/2012/aug/29/manchester-united-chelsea-arsenal", "type": "article", "sectionId": "football", "sectionName": "Football", "webPublicationDate": "2012-08-29T15:35:20Z", "webTitle": "Champions League elite in a privileged position ahead of group stage draw | Kevin McCarra", "webUrl": "https://www.theguardian.com/football/blog/2012/aug/29/manchester-united-chelsea-arsenal", "apiUrl": "https://content.guardianapis.com/football/blog/2012/aug/29/manchester-united-chelsea-arsenal", "isHosted": false, "pillarId": "pillar/sport", "pillarName": "Sport"}, {"id": "football/2012/aug/29/the-fiver-theo-walcott", "type": "article", "sectionId": "football", "sectionName": "Football", "webPublicationDate": "2012-08-29T15:34:55Z", "webTitle": "The Fiver | A harsh rap from fans and pundits | Paul Doyle", "webUrl": "https://www.theguardian.com/football/2012/aug/29/the-fiver-theo-walcott", "apiUrl": "https://content.guardianapis.com/football/2012/aug/29/the-fiver-theo-walcott", "isHosted": false, "pillarId": "pillar/sport", "pillarName": "Sport"}, {"id": "football/2012/aug/29/nemanja-vidic-manchester-united", "type": "article", "sectionId": "football", "sectionName": "Football", "webPublicationDate": "2012-08-29T12:36:44Z", "webTitle": "Nemanja Vidic calls on Manchester United to show no mercy", "webUrl": "https://www.theguardian.com/football/2012/aug/29/nemanja-vidic-manchester-united", "apiUrl": "https://content.guardianapis.com/football/2012/aug/29/nemanja-vidic-manchester-united", "isHosted": false, "pillarId": "pillar/sport", "pillarName": "Sport"}, {"id": "football/blog/2012/aug/29/theo-walcott-arsenal-transfer-window", "type": "article", "sectionId": "football", "sectionName": "Football", "webPublicationDate": "2012-08-29T12:27:27Z", "webTitle": "Theo Walcott's pace is still an asset but No10s have the greatest currency | Paul Wilson", "webUrl": "https://www.theguardian.com/football/blog/2012/aug/29/theo-walcott-arsenal-transfer-window", "apiUrl": "https://content.guardianapis.com/football/blog/2012/aug/29/theo-walcott-arsenal-transfer-window", "isHosted": false, "pillarId": "pillar/sport", "pillarName": "Sport"}, {"id": "sport/blog/2012/aug/29/football-review-readers-respond-weekend-europe", "type": "article", "sectionId": "football", "sectionName": "Football", "webPublicationDate": "2012-08-29T11:23:56Z", "webTitle": "Football review: readers respond to the action across Europe", "webUrl": "https://www.theguardian.com/sport/blog/2012/aug/29/football-review-readers-respond-weekend-europe", "apiUrl": "https://content.guardianapis.com/sport/blog/2012/aug/29/football-review-readers-respond-weekend-europe", "isHosted": false, "pillarId": "pillar/sport", "pillarName": "Sport"}, {"id": "football/2012/aug/29/countries-no-premier-league-player", "type": "article", "sectionId": "football", "sectionName": "Football", "webPublicationDate": "2012-08-29T08:04:00Z", "webTitle": "Which countries have never produced a Premier League player? | The Knowledge", "webUrl": "https://www.theguardian.com/football/2012/aug/29/countries-no-premier-league-player", "apiUrl": "https://content.guardianapis.com/football/2012/aug/29/countries-no-premier-league-player", "isHosted": false, "pillarId": "pillar/sport", "pillarName": "Sport"}, {"id": "football/2012/aug/28/theo-walcott-rejects-arsenal-deal", "type": "article", "sectionId": "football", "sectionName": "Football", "webPublicationDate": "2012-08-29T07:55:00Z", "webTitle": "Walcott rejects Arsenal deal, alerting Manchester City", "webUrl": "https://www.theguardian.com/football/2012/aug/28/theo-walcott-rejects-arsenal-deal", "apiUrl": "https://content.guardianapis.com/football/2012/aug/28/theo-walcott-rejects-arsenal-deal", "isHosted": false, "pillarId": "pillar/sport", "pillarName": "Sport"}, {"id": "football/2012/aug/29/football-transfer-rumours-wayne-rooney", "type": "article", "sectionId": "football", "sectionName": "Football", "webPublicationDate": "2012-08-29T07:54:39Z", "webTitle": "Football transfer rumours: Wayne Rooney to Basingstoke Town?", "webUrl": "https://www.theguardian.com/football/2012/aug/29/football-transfer-rumours-wayne-rooney", "apiUrl": "https://content.guardianapis.com/football/2012/aug/29/football-transfer-rumours-wayne-rooney", "isHosted": false, "pillarId": "pillar/sport", "pillarName": "Sport"}, {"id": "football/2012/aug/29/rio-ferdinand-manchester-united", "type": "article", "sectionId": "football", "sectionName": "Football", "webPublicationDate": "2012-08-28T23:58:30Z", "webTitle": "Rio Ferdinand's return for Manchester United delayed for two weeks", "webUrl": "https://www.theguardian.com/football/2012/aug/29/rio-ferdinand-manchester-united", "apiUrl": "https://content.guardianapis.com/football/2012/aug/29/rio-ferdinand-manchester-united", "isHosted": false, "pillarId": "pillar/sport", "pillarName": "Sport"}, {"id": "football/2012/aug/29/chelsea-bayer-leverkusen-andre-schurrle", "type": "article", "sectionId": "football", "sectionName": "Football", "webPublicationDate": "2012-08-28T23:52:16Z", "webTitle": "Chelsea ponder higher bid for Bayer Leverkusen's Andr\u00e9 Sch\u00fcrrle", "webUrl": "https://www.theguardian.com/football/2012/aug/29/chelsea-bayer-leverkusen-andre-schurrle", "apiUrl": "https://content.guardianapis.com/football/2012/aug/29/chelsea-bayer-leverkusen-andre-schurrle", "isHosted": false, "pillarId": "pillar/sport", "pillarName": "Sport"}, {"id": "football/2012/aug/29/real-madrid-luka-modric-position", "type": "article", "sectionId": "football", "sectionName": "Football", "webPublicationDate": "2012-08-28T23:39:39Z", "webTitle": "Luka Modric now facing the challenge of breaking into Real Madrid team", "webUrl": "https://www.theguardian.com/football/2012/aug/29/real-madrid-luka-modric-position", "apiUrl": "https://content.guardianapis.com/football/2012/aug/29/real-madrid-luka-modric-position", "isHosted": false, "pillarId": "pillar/sport", "pillarName": "Sport"}, {"id": "football/2012/aug/29/liverpool-nuri-sahin-arsenal", "type": "article", "sectionId": "football", "sectionName": "Football", "webPublicationDate": "2012-08-28T23:27:10Z", "webTitle": "Why Nuri Sahin thinks Liverpool will soon be back in the Champions League", "webUrl": "https://www.theguardian.com/football/2012/aug/29/liverpool-nuri-sahin-arsenal", "apiUrl": "https://content.guardianapis.com/football/2012/aug/29/liverpool-nuri-sahin-arsenal", "isHosted": false, "pillarId": "pillar/sport", "pillarName": "Sport"}]}}