{"response": {"status": "ok", "userTier": "developer", "total": 34064, "startIndex": 1, "pageSize": 50, "currentPage": 1, "pages": 682, "orderBy": "newest", "results": [{"id": "environment/2012/aug/30/badger-cull-complaint-ruling", "type": "article", "sectionId": "environment", "sectionName": "Environment", "webPublicationDate": "2012-08-30T20:00:09Z", "webTitle": "Letters: Badger cull should wait on complaint ruling", "webUrl": "https://www.theguardian.com/environment/2012/aug/30/badger-cull-complaint-ruling", "apiUrl": "https://content.guardianapis.com/environment/2012/aug/30/badger-cull-complaint-ruling", "isHosted": false, "pillarId": "pillar/news", "pillarName": "News"}, {"id": "environment/2012/aug/30/allendale-northumberland-after-flood", "type": "article", "sectionId": "environment", "sectionName": "Environment", "webPublicationDate": "2012-08-30T19:59:01Z", "webTitle": "Country diary: Allendale, Northumberland: After the flood, the view from the bridge feels dizzyingly different", "webUrl": "https://www.theguardian.com/environment/2012/aug/30/allendale-northumberland-after-flood", "apiUrl": "https://content.guardianapis.com/environment/2012/aug/30/allendale-northumberland-after-flood", "isHosted": false, "pillarId": "pillar/news", "pillarName": "News"}, {"id": "global-development/2012/aug/30/world-bank-global-hunger-warning-drought", "type": "article", "sectionId": "global-development", "sectionName": "Global development", "webPublicationDate": "2012-08-30T18:27:15Z", "webTitle": "World Bank issues hunger warning after droughts in US and Europe", "webUrl": "https://www.theguardian.com/global-development/2012/aug/30/world-bank-global-hunger-warning-drought", "apiUrl": "https://content.guardianapis.com/global-development/2012/aug/30/world-bank-global-hunger-warning-drought", "isHosted": false, "pillarId": "pillar/news", "pillarName": "News"}, {"id": "world/2012/aug/30/isaac-inland-warnings-arkansas-missouri", "type": "article", "sectionId": "us-news", "sectionName": "US news", "webPublicationDate": "2012-08-30T17:50:00Z", "webTitle": "Isaac moves inland and prompts warnings for Arkansas and Missouri", "webUrl": "https://www.theguardian.com/world/2012/aug/30/isaac-inland-warnings-arkansas-missouri", "apiUrl": "https://content.guardianapis.com/world/2012/aug/30/isaac-inland-warnings-arkansas-missouri", "isHosted": false, "pillarId": "pillar/news", "pillarName": "News"}, {"id": "uk/2012/aug/30/rain-chaos-summer-wettest-years", "type": "article", "sectionId": "uk-news", "sectionName": "UK news", "webPublicationDate": "2012-08-30T16:54:29Z", "webTitle": "Heavy rain causes chaos as summer confirmed as wettest in 100 years", "webUrl": "https://www.theguardian.com/uk/2012/aug/30/rain-chaos-summer-wettest-years", "apiUrl": "https://content.guardianapis.com/uk/2012/aug/30/rain-chaos-summer-wettest-years", "isHosted": false, "pillarId": "pillar/news", "pillarName": "News"}, {"id": "money/blog/2012/aug/30/free-loft-insulation-british-gas", "type": "article", "sectionId": "money", "sectionName": "Money", "webPublicationDate": "2012-08-30T14:15:03Z", "webTitle": "Free loft insulation from British Gas \u2026 what's the catch?", "webUrl": "https://www.theguardian.com/money/blog/2012/aug/30/free-loft-insulation-british-gas", "apiUrl": "https://content.guardianapis.com/money/blog/2012/aug/30/free-loft-insulation-british-gas", "isHosted": false, "pillarId": "pillar/lifestyle", "pillarName": "Lifestyle"}, {"id": "environment/2012/aug/30/tate-modern-activist-wind-turbine", "type": "article", "sectionId": "environment", "sectionName": "Environment", "webPublicationDate": "2012-08-30T14:13:41Z", "webTitle": "Tate Modern considers activists' wind turbine for art collection", "webUrl": "https://www.theguardian.com/environment/2012/aug/30/tate-modern-activist-wind-turbine", "apiUrl": "https://content.guardianapis.com/environment/2012/aug/30/tate-modern-activist-wind-turbine", "isHosted": false, "pillarId": "pillar/news", "pillarName": "News"}, {"id": "world/gallery/2012/aug/30/tropical-storm-isaac-north", "type": "gallery", "sectionId": "us-news", "sectionName": "US news", "webPublicationDate": "2012-08-30T13:17:05Z", "webTitle": "Tropical storm Isaac heads north from New Orleans \u2013 in pictures", "webUrl": "https://www.theguardian.com/world/gallery/2012/aug/30/tropical-storm-isaac-north", "apiUrl": "https://content.guardianapis.com/world/gallery/2012/aug/30/tropical-storm-isaac-north", "isHosted": false, "pillarId": "pillar/news", "pillarName": "News"}, {"id": "lifeandstyle/gardening-blog/2012/aug/30/peacock-butterfly", "type": "article", "sectionId": "lifeandstyle", "sectionName": "Life and style", "webPublicationDate": "2012-08-30T11:41:00Z", "webTitle": "Kate Bradbury on her summer-long search for the peacock butterfly", "webUrl": "https://www.theguardian.com/lifeandstyle/gardening-blog/2012/aug/30/peacock-butterfly", "apiUrl": "https://content.guardianapis.com/lifeandstyle/gardening-blog/2012/aug/30/peacock-butterfly", "isHosted": false, "pillarId": "pillar/lifestyle", "pillarName": "Lifestyle"}, {"id": "environment/2012/aug/30/uk-badger-cull-breach-eu-law", "type": "article", "sectionId": "environment", "sectionName": "Environment", "webPublicationDate": "2012-08-30T11:29:54Z", "webTitle": "Delay badger cull until European review, urge campaigners", "webUrl": "https://www.theguardian.com/environment/2012/aug/30/uk-badger-cull-breach-eu-law", "apiUrl": "https://content.guardianapis.com/environment/2012/aug/30/uk-badger-cull-breach-eu-law", "isHosted": false, "pillarId": "pillar/news", "pillarName": "News"}, {"id": "global-development/gallery/2012/aug/30/gold-mining-ethiopia-in-pictures", "type": "gallery", "sectionId": "global-development", "sectionName": "Global development", "webPublicationDate": "2012-08-30T11:15:00Z", "webTitle": "Intensive gold mining in southern Ethiopia \u2013 in pictures", "webUrl": "https://www.theguardian.com/global-development/gallery/2012/aug/30/gold-mining-ethiopia-in-pictures", "apiUrl": "https://content.guardianapis.com/global-development/gallery/2012/aug/30/gold-mining-ethiopia-in-pictures", "isHosted": false, "pillarId": "pillar/news", "pillarName": "News"}, {"id": "environment/2012/aug/30/pacific-marine-park", "type": "article", "sectionId": "environment", "sectionName": "Environment", "webPublicationDate": "2012-08-30T10:37:54Z", "webTitle": "Tiny Pacific island nations create world's largest marine parks", "webUrl": "https://www.theguardian.com/environment/2012/aug/30/pacific-marine-park", "apiUrl": "https://content.guardianapis.com/environment/2012/aug/30/pacific-marine-park", "isHosted": false, "pillarId": "pillar/news", "pillarName": "News"}, {"id": "environment/2012/aug/30/water-crisis-gaza", "type": "article", "sectionId": "environment", "sectionName": "Environment", "webPublicationDate": "2012-08-30T06:00:00Z", "webTitle": "Water crisis will make Gaza strip 'unliveable'", "webUrl": "https://www.theguardian.com/environment/2012/aug/30/water-crisis-gaza", "apiUrl": "https://content.guardianapis.com/environment/2012/aug/30/water-crisis-gaza", "isHosted": false, "pillarId": "pillar/news", "pillarName": "News"}, {"id": "environment/2012/aug/29/whitburn-rocks-hermit-crabs-housing", "type": "article", "sectionId": "environment", "sectionName": "Environment", "webPublicationDate": "2012-08-29T19:59:01Z", "webTitle": "Country diary: Whitburn Rocks, Tyne & Wear: Hermit crabs in housing crisis", "webUrl": "https://www.theguardian.com/environment/2012/aug/29/whitburn-rocks-hermit-crabs-housing", "apiUrl": "https://content.guardianapis.com/environment/2012/aug/29/whitburn-rocks-hermit-crabs-housing", "isHosted": false, "pillarId": "pillar/news", "pillarName": "News"}, {"id": "world/2012/aug/29/new-orleans-defences-strained-hurricane-isaac", "type": "article", "sectionId": "world", "sectionName": "World news", "webPublicationDate": "2012-08-29T18:33:01Z", "webTitle": "New Orleans defences strained as hurricane Isaac pounds Gulf coast", "webUrl": "https://www.theguardian.com/world/2012/aug/29/new-orleans-defences-strained-hurricane-isaac", "apiUrl": "https://content.guardianapis.com/world/2012/aug/29/new-orleans-defences-strained-hurricane-isaac", "isHosted": false, "pillarId": "pillar/news", "pillarName": "News"}, {"id": "world/2012/aug/29/shtokman-russia-arctic-gas-shale", "type": "article", "sectionId": "world", "sectionName": "World news", "webPublicationDate": "2012-08-29T18:12:51Z", "webTitle": "Plug pulled on Russia's flagship Shtokman energy project", "webUrl": "https://www.theguardian.com/world/2012/aug/29/shtokman-russia-arctic-gas-shale", "apiUrl": "https://content.guardianapis.com/world/2012/aug/29/shtokman-russia-arctic-gas-shale", "isHosted": false, "pillarId": "pillar/news", "pillarName": "News"}, {"id": "artanddesign/2012/aug/29/thomas-ball-best-photograph", "type": "article", "sectionId": "artanddesign", "sectionName": "Art and design", "webPublicationDate": "2012-08-29T18:09:00Z", "webTitle": "Thomas Ball's best photograph: Canada's oil sands in Alberta", "webUrl": "https://www.theguardian.com/artanddesign/2012/aug/29/thomas-ball-best-photograph", "apiUrl": "https://content.guardianapis.com/artanddesign/2012/aug/29/thomas-ball-best-photograph", "isHosted": false, "pillarId": "pillar/arts", "pillarName": "Arts"}, {"id": "science/occams-corner/2012/aug/29/traces-imprints-moon-deep-blue-sea", "type": "article", "sectionId": "science", "sectionName": "Science", "webPublicationDate": "2012-08-29T17:36:01Z", "webTitle": "Of traces and imprints: from the moon to the deep blue sea | Steffi Suhr", "webUrl": "https://www.theguardian.com/science/occams-corner/2012/aug/29/traces-imprints-moon-deep-blue-sea", "apiUrl": "https://content.guardianapis.com/science/occams-corner/2012/aug/29/traces-imprints-moon-deep-blue-sea", "isHosted": false, "pillarId": "pillar/news", "pillarName": "News"}, {"id": "business/2012/aug/29/hanwha-acquires-german-q-cells-renewable-energy", "type": "article", "sectionId": "environment", "sectionName": "Environment", "webPublicationDate": "2012-08-29T16:16:57Z", "webTitle": "South Korea's Hanwha buys German solar business", "webUrl": "https://www.theguardian.com/business/2012/aug/29/hanwha-acquires-german-q-cells-renewable-energy", "apiUrl": "https://content.guardianapis.com/business/2012/aug/29/hanwha-acquires-german-q-cells-renewable-energy", "isHosted": false, "pillarId": "pillar/news", "pillarName": "News"}, {"id": "business/2012/aug/29/wind-power-study-claims-unfounded", "type": "article", "sectionId": "environment", "sectionName": "Environment", "webPublicationDate": "2012-08-29T15:56:54Z", "webTitle": "Wind power study says opponents' claims are unfounded", "webUrl": "https://www.theguardian.com/business/2012/aug/29/wind-power-study-claims-unfounded", "apiUrl": "https://content.guardianapis.com/business/2012/aug/29/wind-power-study-claims-unfounded", "isHosted": false, "pillarId": "pillar/news", "pillarName": "News"}, {"id": "environment/2012/aug/29/1", "type": "article", "sectionId": "environment", "sectionName": "Environment", "webPublicationDate": "2012-08-29T12:52:43Z", "webTitle": "Green news roundup: Heathrow, sea ice and wildlife photography", "webUrl": "https://www.theguardian.com/environment/2012/aug/29/1", "apiUrl": "https://content.guardianapis.com/environment/2012/aug/29/1", "isHosted": false, "pillarId": "pillar/news", "pillarName": "News"}, {"id": "world/picture/2012/aug/29/eyewitness-new-south-wales-australia", "type": "picture", "sectionId": "world", "sectionName": "World news", "webPublicationDate": "2012-08-29T11:59:19Z", "webTitle": "Eyewitness: New South Wales, Australia", "webUrl": "https://www.theguardian.com/world/picture/2012/aug/29/eyewitness-new-south-wales-australia", "apiUrl": "https://content.guardianapis.com/world/picture/2012/aug/29/eyewitness-new-south-wales-australia", "isHosted": false, "pillarId": "pillar/news", "pillarName": "News"}, {"id": "environment/blog/2012/aug/29/heathrow-expansionists-third-runway", "type": "article", "sectionId": "environment", "sectionName": "Environment", "webPublicationDate": "2012-08-29T10:58:09Z", "webTitle": "Heathrow expansionists must drop their third runway obsession | Caroline Lucas", "webUrl": "https://www.theguardian.com/environment/blog/2012/aug/29/heathrow-expansionists-third-runway", "apiUrl": "https://content.guardianapis.com/environment/blog/2012/aug/29/heathrow-expansionists-third-runway", "isHosted": false, "pillarId": "pillar/news", "pillarName": "News"}, {"id": "politics/2012/aug/29/green-party-search-new-face", "type": "article", "sectionId": "politics", "sectionName": "Politics", "webPublicationDate": "2012-08-29T10:44:31Z", "webTitle": "Green party searches for new leader", "webUrl": "https://www.theguardian.com/politics/2012/aug/29/green-party-search-new-face", "apiUrl": "https://content.guardianapis.com/politics/2012/aug/29/green-party-search-new-face", "isHosted": false, "pillarId": "pillar/news", "pillarName": "News"}, {"id": "environment/georgemonbiot/2012/aug/29/day-world-went-mad", "type": "article", "sectionId": "environment", "sectionName": "Environment", "webPublicationDate": "2012-08-29T09:41:01Z", "webTitle": "The day the world went mad | George Monbiot", "webUrl": "https://www.theguardian.com/environment/georgemonbiot/2012/aug/29/day-world-went-mad", "apiUrl": "https://content.guardianapis.com/environment/georgemonbiot/2012/aug/29/day-world-went-mad", "isHosted": false, "pillarId": "pillar/news", "pillarName": "News"}, {"id": "media/2012/aug/29/pork-not-porkies-ads-banned", "type": "article", "sectionId": "media", "sectionName": "Media", "webPublicationDate": "2012-08-28T23:02:00Z", "webTitle": "Red Tractor 'pork not porkies' ads banned", "webUrl": "https://www.theguardian.com/media/2012/aug/29/pork-not-porkies-ads-banned", "apiUrl": "https://content.guardianapis.com/media/2012/aug/29/pork-not-porkies-ads-banned", "isHosted": false, "pillarId": "pillar/news", "pillarName": "News"}, {"id": "environment/gallery/2012/aug/29/veolia-wildlife-photographer-2012-in-pictures", "type": "gallery", "sectionId": "environment", "sectionName": "Environment", "webPublicationDate": "2012-08-28T23:01:00Z", "webTitle": "Veolia wildlife photographer of the year 2012 commended images - in pictures", "webUrl": "https://www.theguardian.com/environment/gallery/2012/aug/29/veolia-wildlife-photographer-2012-in-pictures", "apiUrl": "https://content.guardianapis.com/environment/gallery/2012/aug/29/veolia-wildlife-photographer-2012-in-pictures", "isHosted": false, "pillarId": "pillar/news", "pillarName": "News"}, {"id": "world/2012/aug/28/too-many-people-overcrowded-planet", "type": "article", "sectionId": "world", "sectionName": "World news", "webPublicationDate": "2012-08-28T20:00:07Z", "webTitle": "Letters: There are too many people on this overcrowded planet", "webUrl": "https://www.theguardian.com/world/2012/aug/28/too-many-people-overcrowded-planet", "apiUrl": "https://content.guardianapis.com/world/2012/aug/28/too-many-people-overcrowded-planet", "isHosted": false, "pillarId": "pillar/news", "pillarName": "News"}, {"id": "world/2012/aug/28/antarctic-climate", "type": "article", "sectionId": "world", "sectionName": "World news", "webPublicationDate": "2012-08-28T20:00:02Z", "webTitle": "Letters: Antarctic climate", "webUrl": "https://www.theguardian.com/world/2012/aug/28/antarctic-climate", "apiUrl": "https://content.guardianapis.com/world/2012/aug/28/antarctic-climate", "isHosted": false, "pillarId": "pillar/news", "pillarName": "News"}, {"id": "environment/2012/aug/28/wenlock-edge-butterflies-autumn", "type": "article", "sectionId": "environment", "sectionName": "Environment", "webPublicationDate": "2012-08-28T19:59:01Z", "webTitle": "Country diary: Wenlock Edge: The peacock butterflies are late this year", "webUrl": "https://www.theguardian.com/environment/2012/aug/28/wenlock-edge-butterflies-autumn", "apiUrl": "https://content.guardianapis.com/environment/2012/aug/28/wenlock-edge-butterflies-autumn", "isHosted": false, "pillarId": "pillar/news", "pillarName": "News"}, {"id": "world/2012/aug/28/nuclear-row-splits-french-government", "type": "article", "sectionId": "world", "sectionName": "World news", "webPublicationDate": "2012-08-28T19:45:47Z", "webTitle": "Nuclear row splits French government", "webUrl": "https://www.theguardian.com/world/2012/aug/28/nuclear-row-splits-french-government", "apiUrl": "https://content.guardianapis.com/world/2012/aug/28/nuclear-row-splits-french-government", "isHosted": false, "pillarId": "pillar/news", "pillarName": "News"}, {"id": "commentisfree/2012/aug/28/heathrow-third-runway-big-willy-politics", "type": "article", "sectionId": "commentisfree", "sectionName": "Opinion", "webPublicationDate": "2012-08-28T19:30:01Z", "webTitle": "Yeo's runway taunt is big-willy politics, and that is the most dangerous politics of all | Simon Jenkins", "webUrl": "https://www.theguardian.com/commentisfree/2012/aug/28/heathrow-third-runway-big-willy-politics", "apiUrl": "https://content.guardianapis.com/commentisfree/2012/aug/28/heathrow-third-runway-big-willy-politics", "isHosted": false, "pillarId": "pillar/opinion", "pillarName": "Opinion"}, {"id": "environment/2012/aug/28/orkney-green-energy-wave-power", "type": "article", "sectionId": "environment", "sectionName": "Environment", "webPublicationDate": "2012-08-28T18:11:44Z", "webTitle": "Orkney introduces wave power competition", "webUrl": "https://www.theguardian.com/environment/2012/aug/28/orkney-green-energy-wave-power", "apiUrl": "https://content.guardianapis.com/environment/2012/aug/28/orkney-green-energy-wave-power", "isHosted": false, "pillarId": "pillar/news", "pillarName": "News"}, {"id": "environment/video/2012/aug/28/heathrow-third-runway-coalition-video", "type": "video", "sectionId": "environment", "sectionName": "Environment", "webPublicationDate": "2012-08-28T18:06:00Z", "webTitle": "Heathrow third runway: coalition will not give go-ahead, says Nick Clegg - video", "webUrl": "https://www.theguardian.com/environment/video/2012/aug/28/heathrow-third-runway-coalition-video", "apiUrl": "https://content.guardianapis.com/environment/video/2012/aug/28/heathrow-third-runway-coalition-video", "isHosted": false, "pillarId": "pillar/news", "pillarName": "News"}, {"id": "business/2012/aug/28/virgin-trains-legal-challenge-franchise", "type": "article", "sectionId": "politics", "sectionName": "Politics", "webPublicationDate": "2012-08-28T17:57:34Z", "webTitle": "Rail and air transport policy left in chaos", "webUrl": "https://www.theguardian.com/business/2012/aug/28/virgin-trains-legal-challenge-franchise", "apiUrl": "https://content.guardianapis.com/business/2012/aug/28/virgin-trains-legal-challenge-franchise", "isHosted": false, "pillarId": "pillar/news", "pillarName": "News"}, {"id": "uk/2012/aug/28/nick-clegg-heathrow-third-runway", "type": "article", "sectionId": "uk-news", "sectionName": "UK news", "webPublicationDate": "2012-08-28T17:30:46Z", "webTitle": "Nick Clegg: coalition will stick to 'no third runway' Heathrow promise", "webUrl": "https://www.theguardian.com/uk/2012/aug/28/nick-clegg-heathrow-third-runway", "apiUrl": "https://content.guardianapis.com/uk/2012/aug/28/nick-clegg-heathrow-third-runway", "isHosted": false, "pillarId": "pillar/news", "pillarName": "News"}, {"id": "environment/2012/aug/28/three-big-transport-headaches-government", "type": "article", "sectionId": "environment", "sectionName": "Environment", "webPublicationDate": "2012-08-28T15:10:57Z", "webTitle": "Heathrow is one of three big transport headaches for the government", "webUrl": "https://www.theguardian.com/environment/2012/aug/28/three-big-transport-headaches-government", "apiUrl": "https://content.guardianapis.com/environment/2012/aug/28/three-big-transport-headaches-government", "isHosted": false, "pillarId": "pillar/news", "pillarName": "News"}, {"id": "commentisfree/2012/aug/28/tim-yeo-man-or-mouse", "type": "article", "sectionId": "commentisfree", "sectionName": "Opinion", "webPublicationDate": "2012-08-28T14:45:31Z", "webTitle": "Highbrow debate? Bring on the playground politics any day | Simon Lancaster", "webUrl": "https://www.theguardian.com/commentisfree/2012/aug/28/tim-yeo-man-or-mouse", "apiUrl": "https://content.guardianapis.com/commentisfree/2012/aug/28/tim-yeo-man-or-mouse", "isHosted": false, "pillarId": "pillar/opinion", "pillarName": "Opinion"}, {"id": "theguardian/2012/aug/28/julian-maslinski-obituary", "type": "article", "sectionId": "theguardian", "sectionName": "From the Guardian", "webPublicationDate": "2012-08-28T13:47:44Z", "webTitle": "Julian Maslinski obituary", "webUrl": "https://www.theguardian.com/theguardian/2012/aug/28/julian-maslinski-obituary", "apiUrl": "https://content.guardianapis.com/theguardian/2012/aug/28/julian-maslinski-obituary", "isHosted": false, "pillarId": "pillar/news", "pillarName": "News"}, {"id": "world/video/2012/aug/28/forest-fire-evacuation-madrid-video", "type": "video", "sectionId": "world", "sectionName": "World news", "webPublicationDate": "2012-08-28T13:29:00Z", "webTitle": "Forest fire forces evacuation west of Madrid - video", "webUrl": "https://www.theguardian.com/world/video/2012/aug/28/forest-fire-evacuation-madrid-video", "apiUrl": "https://content.guardianapis.com/world/video/2012/aug/28/forest-fire-evacuation-madrid-video", "isHosted": false, "pillarId": "pillar/news", "pillarName": "News"}, {"id": "environment/2012/aug/28/australia-eu-carbon-markets", "type": "article", "sectionId": "environment", "sectionName": "Environment", "webPublicationDate": "2012-08-28T13:27:25Z", "webTitle": "Australian and EU carbon markets to be linked", "webUrl": "https://www.theguardian.com/environment/2012/aug/28/australia-eu-carbon-markets", "apiUrl": "https://content.guardianapis.com/environment/2012/aug/28/australia-eu-carbon-markets", "isHosted": false, "pillarId": "pillar/news", "pillarName": "News"}, {"id": "environment/video/2012/aug/28/heathrow-third-runway-cross-part-consensus-video", "type": "video", "sectionId": "environment", "sectionName": "Environment", "webPublicationDate": "2012-08-28T12:51:00Z", "webTitle": "Heathrow expansion: there is a cross-party consensus against third runway, says Greening - video", "webUrl": "https://www.theguardian.com/environment/video/2012/aug/28/heathrow-third-runway-cross-part-consensus-video", "apiUrl": "https://content.guardianapis.com/environment/video/2012/aug/28/heathrow-third-runway-cross-part-consensus-video", "isHosted": false, "pillarId": "pillar/news", "pillarName": "News"}, {"id": "environment/blog/2012/aug/28/heathrow-third-runway-fourth-party", "type": "article", "sectionId": "environment", "sectionName": "Environment", "webPublicationDate": "2012-08-28T11:38:37Z", "webTitle": "Heathrow's third runway meets fourth-party politics | Michael White", "webUrl": "https://www.theguardian.com/environment/blog/2012/aug/28/heathrow-third-runway-fourth-party", "apiUrl": "https://content.guardianapis.com/environment/blog/2012/aug/28/heathrow-third-runway-fourth-party", "isHosted": false, "pillarId": "pillar/news", "pillarName": "News"}, {"id": "commentisfree/2012/aug/28/forget-meat-vegetarian-food-shortages", "type": "article", "sectionId": "commentisfree", "sectionName": "Opinion", "webPublicationDate": "2012-08-28T11:16:40Z", "webTitle": "Forget meat \u2013 there's a world of vegetarian food out there | Lagusta Yearwood", "webUrl": "https://www.theguardian.com/commentisfree/2012/aug/28/forget-meat-vegetarian-food-shortages", "apiUrl": "https://content.guardianapis.com/commentisfree/2012/aug/28/forget-meat-vegetarian-food-shortages", "isHosted": false, "pillarId": "pillar/opinion", "pillarName": "Opinion"}, {"id": "environment/2012/aug/28/heathrow-third-runway-not-solution", "type": "article", "sectionId": "environment", "sectionName": "Environment", "webPublicationDate": "2012-08-28T10:01:00Z", "webTitle": "Heathrow third runway 'not a long-term solution', says Greening", "webUrl": "https://www.theguardian.com/environment/2012/aug/28/heathrow-third-runway-not-solution", "apiUrl": "https://content.guardianapis.com/environment/2012/aug/28/heathrow-third-runway-not-solution", "isHosted": false, "pillarId": "pillar/news", "pillarName": "News"}, {"id": "uk/the-northerner/2012/aug/28/leeds-festival-recycling-sustainability", "type": "article", "sectionId": "uk-news", "sectionName": "UK news", "webPublicationDate": "2012-08-28T10:00:00Z", "webTitle": "Leeds Festival scavengers have 72 pairs of wellies for sale, and hundreds more tents", "webUrl": "https://www.theguardian.com/uk/the-northerner/2012/aug/28/leeds-festival-recycling-sustainability", "apiUrl": "https://content.guardianapis.com/uk/the-northerner/2012/aug/28/leeds-festival-recycling-sustainability", "isHosted": false, "pillarId": "pillar/news", "pillarName": "News"}, {"id": "world/video/2012/aug/28/new-orleans-tropical-storm-isaac-video", "type": "video", "sectionId": "world", "sectionName": "World news", "webPublicationDate": "2012-08-28T08:34:00Z", "webTitle": "New Orleans prepares for tropical storm Isaac - video", "webUrl": "https://www.theguardian.com/world/video/2012/aug/28/new-orleans-tropical-storm-isaac-video", "apiUrl": "https://content.guardianapis.com/world/video/2012/aug/28/new-orleans-tropical-storm-isaac-video", "isHosted": false, "pillarId": "pillar/news", "pillarName": "News"}, {"id": "world/2012/aug/27/los-angeles-river-storm-drains", "type": "article", "sectionId": "us-news", "sectionName": "US news", "webPublicationDate": "2012-08-27T21:33:00Z", "webTitle": "The Los Angeles river lives again", "webUrl": "https://www.theguardian.com/world/2012/aug/27/los-angeles-river-storm-drains", "apiUrl": "https://content.guardianapis.com/world/2012/aug/27/los-angeles-river-storm-drains", "isHosted": false, "pillarId": "pillar/news", "pillarName": "News"}, {"id": "environment/2012/aug/27/resist-lobby-third-runway-heathrow", "type": "article", "sectionId": "environment", "sectionName": "Environment", "webPublicationDate": "2012-08-27T20:00:04Z", "webTitle": "Letters: Call to resist the lobby for a third runway at Heathrow", "webUrl": "https://www.theguardian.com/environment/2012/aug/27/resist-lobby-third-runway-heathrow", "apiUrl": "https://content.guardianapis.com/environment/2012/aug/27/resist-lobby-third-runway-heathrow", "isHosted": false, "pillarId": "pillar/news", "pillarName": "News"}, {"id": "environment/2012/aug/27/country-diary-dunford-bridge-yorkshire", "type": "article", "sectionId": "environment", "sectionName": "Environment", "webPublicationDate": "2012-08-27T20:00:02Z", "webTitle": "Country diary: Dunford Bridge, South Yorkshire", "webUrl": "https://www.theguardian.com/environment/2012/aug/27/country-diary-dunford-bridge-yorkshire", "apiUrl": "https://content.guardianapis.com/environment/2012/aug/27/country-diary-dunford-bridge-yorkshire", "isHosted": false, "pillarId": "pillar/news", "pillarName": "News"}]}}