{"response": {"status": "ok", "userTier": "developer", "total": 131707, "startIndex": 1, "pageSize": 50, "currentPage": 1, "pages": 2635, "orderBy": "newest", "results": [{"id": "uk/2011/aug/31/nhs-bill-amendments-mainly-name-changes", "type": "article", "sectionId": "society", "sectionName": "Society", "webPublicationDate": "2011-08-30T23:57:36Z", "webTitle": "Labour attacks NHS bill amendments", "webUrl": "https://www.theguardian.com/uk/2011/aug/31/nhs-bill-amendments-mainly-name-changes", "apiUrl": "https://content.guardianapis.com/uk/2011/aug/31/nhs-bill-amendments-mainly-name-changes", "isHosted": false, "pillarId": "pillar/news", "pillarName": "News"}, {"id": "politics/2011/aug/31/vince-cable-bankers-reforms", "type": "article", "sectionId": "politics", "sectionName": "Politics", "webPublicationDate": "2011-08-30T23:49:14Z", "webTitle": "Vince Cable: disingenuous bankers are trying to derail reforms", "webUrl": "https://www.theguardian.com/politics/2011/aug/31/vince-cable-bankers-reforms", "apiUrl": "https://content.guardianapis.com/politics/2011/aug/31/vince-cable-bankers-reforms", "isHosted": false, "pillarId": "pillar/news", "pillarName": "News"}, {"id": "world/2011/aug/30/libya-1bn-cash-unfrozen", "type": "article", "sectionId": "world", "sectionName": "World news", "webPublicationDate": "2011-08-30T22:26:32Z", "webTitle": "Libya: \u00a31bn of UK-held currency to be unfrozen", "webUrl": "https://www.theguardian.com/world/2011/aug/30/libya-1bn-cash-unfrozen", "apiUrl": "https://content.guardianapis.com/world/2011/aug/30/libya-1bn-cash-unfrozen", "isHosted": false, "pillarId": "pillar/news", "pillarName": "News"}, {"id": "commentisfree/2011/aug/30/andrew-lansley-nhs-safe-direct", "type": "article", "sectionId": "commentisfree", "sectionName": "Opinion", "webPublicationDate": "2011-08-30T21:59:01Z", "webTitle": "Who wants responsibility for NHS delivery? Not Andrew Lansley | Alan Maynard", "webUrl": "https://www.theguardian.com/commentisfree/2011/aug/30/andrew-lansley-nhs-safe-direct", "apiUrl": "https://content.guardianapis.com/commentisfree/2011/aug/30/andrew-lansley-nhs-safe-direct", "isHosted": false, "pillarId": "pillar/opinion", "pillarName": "Opinion"}, {"id": "politics/2011/aug/30/stephen-bates-diary-michael-gove", "type": "article", "sectionId": "politics", "sectionName": "Politics", "webPublicationDate": "2011-08-30T21:50:01Z", "webTitle": "Stephen Bates's diary", "webUrl": "https://www.theguardian.com/politics/2011/aug/30/stephen-bates-diary-michael-gove", "apiUrl": "https://content.guardianapis.com/politics/2011/aug/30/stephen-bates-diary-michael-gove", "isHosted": false, "pillarId": "pillar/news", "pillarName": "News"}, {"id": "commentisfree/2011/aug/30/coalition-government-lobbyists-vested-interests", "type": "article", "sectionId": "commentisfree", "sectionName": "Opinion", "webPublicationDate": "2011-08-30T21:30:03Z", "webTitle": "The maths of coalition has opened the door to lobbyists | Simon Jenkins", "webUrl": "https://www.theguardian.com/commentisfree/2011/aug/30/coalition-government-lobbyists-vested-interests", "apiUrl": "https://content.guardianapis.com/commentisfree/2011/aug/30/coalition-government-lobbyists-vested-interests", "isHosted": false, "pillarId": "pillar/opinion", "pillarName": "Opinion"}, {"id": "commentisfree/2011/aug/30/evo-stik-premier-league-grassroots", "type": "article", "sectionId": "commentisfree", "sectionName": "Opinion", "webPublicationDate": "2011-08-30T21:00:00Z", "webTitle": "In the Evo-Stik, fans can still tell a team from a business | John Harris", "webUrl": "https://www.theguardian.com/commentisfree/2011/aug/30/evo-stik-premier-league-grassroots", "apiUrl": "https://content.guardianapis.com/commentisfree/2011/aug/30/evo-stik-premier-league-grassroots", "isHosted": false, "pillarId": "pillar/opinion", "pillarName": "Opinion"}, {"id": "commentisfree/2011/aug/30/politicians-oust-foreign-tyrants-alternatives", "type": "article", "sectionId": "commentisfree", "sectionName": "Opinion", "webPublicationDate": "2011-08-30T19:35:00Z", "webTitle": "Why wait for politicians to oust foreign tyrants? Every one of us can do our bit | Jonathan Freedland", "webUrl": "https://www.theguardian.com/commentisfree/2011/aug/30/politicians-oust-foreign-tyrants-alternatives", "apiUrl": "https://content.guardianapis.com/commentisfree/2011/aug/30/politicians-oust-foreign-tyrants-alternatives", "isHosted": false, "pillarId": "pillar/opinion", "pillarName": "Opinion"}, {"id": "society/2011/aug/30/housing-minister-get-britain-building", "type": "article", "sectionId": "society", "sectionName": "Society", "webPublicationDate": "2011-08-30T19:25:48Z", "webTitle": "Housing minister to 'get Britain building again' in market crisis", "webUrl": "https://www.theguardian.com/society/2011/aug/30/housing-minister-get-britain-building", "apiUrl": "https://content.guardianapis.com/society/2011/aug/30/housing-minister-get-britain-building", "isHosted": false, "pillarId": "pillar/news", "pillarName": "News"}, {"id": "world/2011/aug/30/dick-cheney-autobiography-tony-blair", "type": "article", "sectionId": "us-news", "sectionName": "US news", "webPublicationDate": "2011-08-30T19:13:00Z", "webTitle": "Dick Cheney autobiography heaps praise on Tony Blair", "webUrl": "https://www.theguardian.com/world/2011/aug/30/dick-cheney-autobiography-tony-blair", "apiUrl": "https://content.guardianapis.com/world/2011/aug/30/dick-cheney-autobiography-tony-blair", "isHosted": false, "pillarId": "pillar/news", "pillarName": "News"}, {"id": "commentisfree/cifamerica/2011/aug/30/hurricane-irene-misogynistic-attitudes-scarier", "type": "article", "sectionId": "us-news", "sectionName": "US news", "webPublicationDate": "2011-08-30T19:00:00Z", "webTitle": "Hurricane Irene or Britain adopting misogynistic attitudes: I know which I find scarier | Hadley Freeman", "webUrl": "https://www.theguardian.com/commentisfree/cifamerica/2011/aug/30/hurricane-irene-misogynistic-attitudes-scarier", "apiUrl": "https://content.guardianapis.com/commentisfree/cifamerica/2011/aug/30/hurricane-irene-misogynistic-attitudes-scarier", "isHosted": false, "pillarId": "pillar/news", "pillarName": "News"}, {"id": "politics/2011/aug/30/minister-displays-sensitive-afghanistan-documents", "type": "article", "sectionId": "politics", "sectionName": "Politics", "webPublicationDate": "2011-08-30T18:33:00Z", "webTitle": "Minister inadvertently displays sensitive Afghanistan documents", "webUrl": "https://www.theguardian.com/politics/2011/aug/30/minister-displays-sensitive-afghanistan-documents", "apiUrl": "https://content.guardianapis.com/politics/2011/aug/30/minister-displays-sensitive-afghanistan-documents", "isHosted": false, "pillarId": "pillar/news", "pillarName": "News"}, {"id": "commentisfree/2011/aug/30/employment-only-part-answer-troubled-families", "type": "article", "sectionId": "commentisfree", "sectionName": "Opinion", "webPublicationDate": "2011-08-30T17:59:01Z", "webTitle": "Response: Don't ignore local councils' work in tackling troubled families", "webUrl": "https://www.theguardian.com/commentisfree/2011/aug/30/employment-only-part-answer-troubled-families", "apiUrl": "https://content.guardianapis.com/commentisfree/2011/aug/30/employment-only-part-answer-troubled-families", "isHosted": false, "pillarId": "pillar/opinion", "pillarName": "Opinion"}, {"id": "society/2011/aug/30/nhs-training-do-not-resuscitate", "type": "article", "sectionId": "society", "sectionName": "Society", "webPublicationDate": "2011-08-30T17:57:14Z", "webTitle": "NHS training on 'do not resuscitate' orders must not be cut, says doctor", "webUrl": "https://www.theguardian.com/society/2011/aug/30/nhs-training-do-not-resuscitate", "apiUrl": "https://content.guardianapis.com/society/2011/aug/30/nhs-training-do-not-resuscitate", "isHosted": false, "pillarId": "pillar/news", "pillarName": "News"}, {"id": "uk/2011/aug/30/labour-plans-police-epetition-push", "type": "article", "sectionId": "uk-news", "sectionName": "UK news", "webPublicationDate": "2011-08-30T17:44:08Z", "webTitle": "Labour plans police e-petition push", "webUrl": "https://www.theguardian.com/uk/2011/aug/30/labour-plans-police-epetition-push", "apiUrl": "https://content.guardianapis.com/uk/2011/aug/30/labour-plans-police-epetition-push", "isHosted": false, "pillarId": "pillar/news", "pillarName": "News"}, {"id": "politics/2011/aug/30/electoral-commission-ni-andy-coulson", "type": "article", "sectionId": "politics", "sectionName": "Politics", "webPublicationDate": "2011-08-30T17:38:46Z", "webTitle": "Electoral Commission rules out inquiry into NI payments to Andy Coulson", "webUrl": "https://www.theguardian.com/politics/2011/aug/30/electoral-commission-ni-andy-coulson", "apiUrl": "https://content.guardianapis.com/politics/2011/aug/30/electoral-commission-ni-andy-coulson", "isHosted": false, "pillarId": "pillar/news", "pillarName": "News"}, {"id": "politics/2011/aug/30/blair-iraq-war-note-published", "type": "article", "sectionId": "politics", "sectionName": "Politics", "webPublicationDate": "2011-08-30T16:30:19Z", "webTitle": "Blair aide's Iraq war note must be published, says former foreign secretary", "webUrl": "https://www.theguardian.com/politics/2011/aug/30/blair-iraq-war-note-published", "apiUrl": "https://content.guardianapis.com/politics/2011/aug/30/blair-iraq-war-note-published", "isHosted": false, "pillarId": "pillar/news", "pillarName": "News"}, {"id": "politics/2011/aug/30/eric-pickles-communities-bowling-greens", "type": "article", "sectionId": "politics", "sectionName": "Politics", "webPublicationDate": "2011-08-30T16:23:17Z", "webTitle": "Eric Pickles urges communities to take to their own bowling greens", "webUrl": "https://www.theguardian.com/politics/2011/aug/30/eric-pickles-communities-bowling-greens", "apiUrl": "https://content.guardianapis.com/politics/2011/aug/30/eric-pickles-communities-bowling-greens", "isHosted": false, "pillarId": "pillar/news", "pillarName": "News"}, {"id": "politics/gallery/2011/aug/30/political-documents-accidentally-revealed", "type": "gallery", "sectionId": "politics", "sectionName": "Politics", "webPublicationDate": "2011-08-30T16:11:59Z", "webTitle": "Political documents (accidentally) revealed \u2013 gallery", "webUrl": "https://www.theguardian.com/politics/gallery/2011/aug/30/political-documents-accidentally-revealed", "apiUrl": "https://content.guardianapis.com/politics/gallery/2011/aug/30/political-documents-accidentally-revealed", "isHosted": false, "pillarId": "pillar/news", "pillarName": "News"}, {"id": "business/2011/aug/30/hurdles-to-lasting-economic-recovery", "type": "article", "sectionId": "business", "sectionName": "Business", "webPublicationDate": "2011-08-30T15:09:48Z", "webTitle": "The 5 big hurdles on the road to lasting economic recovery", "webUrl": "https://www.theguardian.com/business/2011/aug/30/hurdles-to-lasting-economic-recovery", "apiUrl": "https://content.guardianapis.com/business/2011/aug/30/hurdles-to-lasting-economic-recovery", "isHosted": false, "pillarId": "pillar/news", "pillarName": "News"}, {"id": "commentisfree/belief/2011/aug/30/riots-tariq-johan-faith", "type": "article", "sectionId": "commentisfree", "sectionName": "Opinion", "webPublicationDate": "2011-08-30T14:46:25Z", "webTitle": "The riots: an opportunity to build trust | Austen Ivereigh", "webUrl": "https://www.theguardian.com/commentisfree/belief/2011/aug/30/riots-tariq-johan-faith", "apiUrl": "https://content.guardianapis.com/commentisfree/belief/2011/aug/30/riots-tariq-johan-faith", "isHosted": false, "pillarId": "pillar/opinion", "pillarName": "Opinion"}, {"id": "uk/2011/aug/30/scottish-government-edinburgh-tram-funding", "type": "article", "sectionId": "uk-news", "sectionName": "UK news", "webPublicationDate": "2011-08-30T14:11:08Z", "webTitle": "Scottish government withholds Edinburgh tram funding", "webUrl": "https://www.theguardian.com/uk/2011/aug/30/scottish-government-edinburgh-tram-funding", "apiUrl": "https://content.guardianapis.com/uk/2011/aug/30/scottish-government-edinburgh-tram-funding", "isHosted": false, "pillarId": "pillar/news", "pillarName": "News"}, {"id": "society/joepublic/2011/aug/30/forget-welfare-underclass-must-rely-charity", "type": "article", "sectionId": "society", "sectionName": "Society", "webPublicationDate": "2011-08-30T14:00:01Z", "webTitle": "Forget welfare, the poorest people must now rely on 'charity'", "webUrl": "https://www.theguardian.com/society/joepublic/2011/aug/30/forget-welfare-underclass-must-rely-charity", "apiUrl": "https://content.guardianapis.com/society/joepublic/2011/aug/30/forget-welfare-underclass-must-rely-charity", "isHosted": false, "pillarId": "pillar/news", "pillarName": "News"}, {"id": "uk/2011/aug/30/uk-riots-david-cameron-policy-review", "type": "article", "sectionId": "uk-news", "sectionName": "UK news", "webPublicationDate": "2011-08-30T13:08:00Z", "webTitle": "UK riots: David Cameron kicks off social policy review", "webUrl": "https://www.theguardian.com/uk/2011/aug/30/uk-riots-david-cameron-policy-review", "apiUrl": "https://content.guardianapis.com/uk/2011/aug/30/uk-riots-david-cameron-policy-review", "isHosted": false, "pillarId": "pillar/news", "pillarName": "News"}, {"id": "world/2011/aug/30/libya-david-cameron-national-security-council", "type": "article", "sectionId": "world", "sectionName": "World news", "webPublicationDate": "2011-08-30T12:26:32Z", "webTitle": "Libya conflict: David Cameron chairs national security council meeting", "webUrl": "https://www.theguardian.com/world/2011/aug/30/libya-david-cameron-national-security-council", "apiUrl": "https://content.guardianapis.com/world/2011/aug/30/libya-david-cameron-national-security-council", "isHosted": false, "pillarId": "pillar/news", "pillarName": "News"}, {"id": "commentisfree/2011/aug/30/political-party-donations-cap", "type": "article", "sectionId": "commentisfree", "sectionName": "Opinion", "webPublicationDate": "2011-08-30T12:07:10Z", "webTitle": "How should political parties be funded? | Open thread", "webUrl": "https://www.theguardian.com/commentisfree/2011/aug/30/political-party-donations-cap", "apiUrl": "https://content.guardianapis.com/commentisfree/2011/aug/30/political-party-donations-cap", "isHosted": false, "pillarId": "pillar/opinion", "pillarName": "Opinion"}, {"id": "politics/london-2012-olympics-blog/2011/aug/30/boris-johnson-community-land-trust-london-olympic-park", "type": "article", "sectionId": "politics", "sectionName": "Politics", "webPublicationDate": "2011-08-30T11:57:00Z", "webTitle": "Will Boris give housing crisis \"silver bullet\" a chance in the Olympic Park?", "webUrl": "https://www.theguardian.com/politics/london-2012-olympics-blog/2011/aug/30/boris-johnson-community-land-trust-london-olympic-park", "apiUrl": "https://content.guardianapis.com/politics/london-2012-olympics-blog/2011/aug/30/boris-johnson-community-land-trust-london-olympic-park", "isHosted": false, "pillarId": "pillar/news", "pillarName": "News"}, {"id": "world/gallery/2011/aug/30/anc-african-national-congress-africa", "type": "gallery", "sectionId": "world", "sectionName": "World news", "webPublicationDate": "2011-08-30T11:52:15Z", "webTitle": "Supporters of ANC youth leader Julius Malema protest - in pictures", "webUrl": "https://www.theguardian.com/world/gallery/2011/aug/30/anc-african-national-congress-africa", "apiUrl": "https://content.guardianapis.com/world/gallery/2011/aug/30/anc-african-national-congress-africa", "isHosted": false, "pillarId": "pillar/news", "pillarName": "News"}, {"id": "politics/2011/aug/30/planning-reform-undemocratic-green-groups", "type": "article", "sectionId": "politics", "sectionName": "Politics", "webPublicationDate": "2011-08-30T11:02:31Z", "webTitle": "Planning reform will lead to development 'free-for-all'", "webUrl": "https://www.theguardian.com/politics/2011/aug/30/planning-reform-undemocratic-green-groups", "apiUrl": "https://content.guardianapis.com/politics/2011/aug/30/planning-reform-undemocratic-green-groups", "isHosted": false, "pillarId": "pillar/news", "pillarName": "News"}, {"id": "commentisfree/2011/aug/30/let-english-defence-league-march", "type": "article", "sectionId": "commentisfree", "sectionName": "Opinion", "webPublicationDate": "2011-08-30T06:59:00Z", "webTitle": "A protest ban isn't the way to stop the racist EDL | Nina Power", "webUrl": "https://www.theguardian.com/commentisfree/2011/aug/30/let-english-defence-league-march", "apiUrl": "https://content.guardianapis.com/commentisfree/2011/aug/30/let-english-defence-league-march", "isHosted": false, "pillarId": "pillar/opinion", "pillarName": "Opinion"}, {"id": "uk/the-northerner/2011/aug/30/blackpool-gordon-marsden", "type": "article", "sectionId": "uk-news", "sectionName": "UK news", "webPublicationDate": "2011-08-30T06:01:00Z", "webTitle": "Blackpool MP calls for 'real localism'", "webUrl": "https://www.theguardian.com/uk/the-northerner/2011/aug/30/blackpool-gordon-marsden", "apiUrl": "https://content.guardianapis.com/uk/the-northerner/2011/aug/30/blackpool-gordon-marsden", "isHosted": false, "pillarId": "pillar/news", "pillarName": "News"}, {"id": "society/2011/aug/29/nhs-bill-lansley-wash-hands", "type": "article", "sectionId": "society", "sectionName": "Society", "webPublicationDate": "2011-08-30T00:42:00Z", "webTitle": "NHS bill 'will let Andrew Lansley wash his hands of health service'", "webUrl": "https://www.theguardian.com/society/2011/aug/29/nhs-bill-lansley-wash-hands", "apiUrl": "https://content.guardianapis.com/society/2011/aug/29/nhs-bill-lansley-wash-hands", "isHosted": false, "pillarId": "pillar/news", "pillarName": "News"}, {"id": "education/2011/aug/29/emails-hidden-costs-free-schools", "type": "article", "sectionId": "education", "sectionName": "Education", "webPublicationDate": "2011-08-30T00:02:00Z", "webTitle": "Whitehall emails reveal the hidden costs of promoting free schools", "webUrl": "https://www.theguardian.com/education/2011/aug/29/emails-hidden-costs-free-schools", "apiUrl": "https://content.guardianapis.com/education/2011/aug/29/emails-hidden-costs-free-schools", "isHosted": false, "pillarId": "pillar/news", "pillarName": "News"}, {"id": "politics/2011/aug/30/labour-ruined-by-cap-donations", "type": "article", "sectionId": "politics", "sectionName": "Politics", "webPublicationDate": "2011-08-29T23:00:02Z", "webTitle": "Labour could be ruined by proposed cap on political donations", "webUrl": "https://www.theguardian.com/politics/2011/aug/30/labour-ruined-by-cap-donations", "apiUrl": "https://content.guardianapis.com/politics/2011/aug/30/labour-ruined-by-cap-donations", "isHosted": false, "pillarId": "pillar/news", "pillarName": "News"}, {"id": "commentisfree/2011/aug/29/hugh-muir-diary", "type": "article", "sectionId": "politics", "sectionName": "Politics", "webPublicationDate": "2011-08-29T21:50:01Z", "webTitle": "Hugh Muir's diary", "webUrl": "https://www.theguardian.com/commentisfree/2011/aug/29/hugh-muir-diary", "apiUrl": "https://content.guardianapis.com/commentisfree/2011/aug/29/hugh-muir-diary", "isHosted": false, "pillarId": "pillar/news", "pillarName": "News"}, {"id": "education/2011/aug/29/24-pioneering-free-schools", "type": "article", "sectionId": "education", "sectionName": "Education", "webPublicationDate": "2011-08-29T21:00:04Z", "webTitle": "The 24 pioneering free schools", "webUrl": "https://www.theguardian.com/education/2011/aug/29/24-pioneering-free-schools", "apiUrl": "https://content.guardianapis.com/education/2011/aug/29/24-pioneering-free-schools", "isHosted": false, "pillarId": "pillar/news", "pillarName": "News"}, {"id": "education/2011/aug/29/michael-gove-stumbles-brake-reforms", "type": "article", "sectionId": "education", "sectionName": "Education", "webPublicationDate": "2011-08-29T21:00:03Z", "webTitle": "Michael Gove's embarrassing stumbles fail to put the brake on reforms", "webUrl": "https://www.theguardian.com/education/2011/aug/29/michael-gove-stumbles-brake-reforms", "apiUrl": "https://content.guardianapis.com/education/2011/aug/29/michael-gove-stumbles-brake-reforms", "isHosted": false, "pillarId": "pillar/news", "pillarName": "News"}, {"id": "commentisfree/2011/aug/29/myth-social-class-dead", "type": "article", "sectionId": "commentisfree", "sectionName": "Opinion", "webPublicationDate": "2011-08-29T21:00:00Z", "webTitle": "Money busts the convenient myth that social class is dead | Polly Toynbee", "webUrl": "https://www.theguardian.com/commentisfree/2011/aug/29/myth-social-class-dead", "apiUrl": "https://content.guardianapis.com/commentisfree/2011/aug/29/myth-social-class-dead", "isHosted": false, "pillarId": "pillar/opinion", "pillarName": "Opinion"}, {"id": "uk/2011/aug/29/end-for-seaside-amusements", "type": "article", "sectionId": "uk-news", "sectionName": "UK news", "webPublicationDate": "2011-08-29T20:00:07Z", "webTitle": "Letters: End of the show for seaside amusements", "webUrl": "https://www.theguardian.com/uk/2011/aug/29/end-for-seaside-amusements", "apiUrl": "https://content.guardianapis.com/uk/2011/aug/29/end-for-seaside-amusements", "isHosted": false, "pillarId": "pillar/news", "pillarName": "News"}, {"id": "society/2011/aug/29/do-not-resuscitate-regulation-janet-tracey", "type": "article", "sectionId": "society", "sectionName": "Society", "webPublicationDate": "2011-08-29T19:37:01Z", "webTitle": "Patient Concern demands national policy on 'do not resuscitate' orders", "webUrl": "https://www.theguardian.com/society/2011/aug/29/do-not-resuscitate-regulation-janet-tracey", "apiUrl": "https://content.guardianapis.com/society/2011/aug/29/do-not-resuscitate-regulation-janet-tracey", "isHosted": false, "pillarId": "pillar/news", "pillarName": "News"}, {"id": "world/2011/aug/29/abortion-counselling-rules-shakeup-gps", "type": "article", "sectionId": "world", "sectionName": "World news", "webPublicationDate": "2011-08-29T19:30:14Z", "webTitle": "Abortion rules shakeup could set system back 25 years, says GPs' chief", "webUrl": "https://www.theguardian.com/world/2011/aug/29/abortion-counselling-rules-shakeup-gps", "apiUrl": "https://content.guardianapis.com/world/2011/aug/29/abortion-counselling-rules-shakeup-gps", "isHosted": false, "pillarId": "pillar/news", "pillarName": "News"}, {"id": "business/2011/aug/29/banking-reforms-john-vickers", "type": "article", "sectionId": "business", "sectionName": "Business", "webPublicationDate": "2011-08-29T19:11:29Z", "webTitle": "Bankers say put reforms on hold until markets and economy recover", "webUrl": "https://www.theguardian.com/business/2011/aug/29/banking-reforms-john-vickers", "apiUrl": "https://content.guardianapis.com/business/2011/aug/29/banking-reforms-john-vickers", "isHosted": false, "pillarId": "pillar/news", "pillarName": "News"}, {"id": "politics/2011/aug/29/green-party-100-days-brighton", "type": "article", "sectionId": "politics", "sectionName": "Politics", "webPublicationDate": "2011-08-29T18:30:39Z", "webTitle": "Green party's first 100 days in Brighton: the honeymoon's not over yet", "webUrl": "https://www.theguardian.com/politics/2011/aug/29/green-party-100-days-brighton", "apiUrl": "https://content.guardianapis.com/politics/2011/aug/29/green-party-100-days-brighton", "isHosted": false, "pillarId": "pillar/news", "pillarName": "News"}, {"id": "uk/2011/aug/29/crossrail-train-manufacturing-contract", "type": "article", "sectionId": "uk-news", "sectionName": "UK news", "webPublicationDate": "2011-08-29T18:16:29Z", "webTitle": "Crossrail delays competition for \u00a316bn train manufacturing contract", "webUrl": "https://www.theguardian.com/uk/2011/aug/29/crossrail-train-manufacturing-contract", "apiUrl": "https://content.guardianapis.com/uk/2011/aug/29/crossrail-train-manufacturing-contract", "isHosted": false, "pillarId": "pillar/news", "pillarName": "News"}, {"id": "education/2011/aug/29/university-inform-vulnerable-muslim-students", "type": "article", "sectionId": "education", "sectionName": "Education", "webPublicationDate": "2011-08-29T17:51:36Z", "webTitle": "University staff asked to inform on 'vulnerable' Muslim students", "webUrl": "https://www.theguardian.com/education/2011/aug/29/university-inform-vulnerable-muslim-students", "apiUrl": "https://content.guardianapis.com/education/2011/aug/29/university-inform-vulnerable-muslim-students", "isHosted": false, "pillarId": "pillar/news", "pillarName": "News"}, {"id": "politics/2011/aug/29/liam-fox-pressure-adam-werritty", "type": "article", "sectionId": "politics", "sectionName": "Politics", "webPublicationDate": "2011-08-29T17:44:23Z", "webTitle": "Liam Fox under fresh pressure over adviser", "webUrl": "https://www.theguardian.com/politics/2011/aug/29/liam-fox-pressure-adam-werritty", "apiUrl": "https://content.guardianapis.com/politics/2011/aug/29/liam-fox-pressure-adam-werritty", "isHosted": false, "pillarId": "pillar/news", "pillarName": "News"}, {"id": "politics/2011/aug/29/tony-blair-iraq-un-resolution", "type": "article", "sectionId": "politics", "sectionName": "Politics", "webPublicationDate": "2011-08-29T15:32:19Z", "webTitle": "Blair and Bush planned Iraq war without second UN vote, letter shows", "webUrl": "https://www.theguardian.com/politics/2011/aug/29/tony-blair-iraq-un-resolution", "apiUrl": "https://content.guardianapis.com/politics/2011/aug/29/tony-blair-iraq-un-resolution", "isHosted": false, "pillarId": "pillar/news", "pillarName": "News"}, {"id": "business/2011/aug/29/household-finances-squeezed", "type": "article", "sectionId": "business", "sectionName": "Business", "webPublicationDate": "2011-08-28T23:02:01Z", "webTitle": "Household finances squeezed by food and travel costs as inflation continues to rise", "webUrl": "https://www.theguardian.com/business/2011/aug/29/household-finances-squeezed", "apiUrl": "https://content.guardianapis.com/business/2011/aug/29/household-finances-squeezed", "isHosted": false, "pillarId": "pillar/news", "pillarName": "News"}, {"id": "commentisfree/2011/aug/28/robin-hood-poor-welfare", "type": "article", "sectionId": "commentisfree", "sectionName": "Opinion", "webPublicationDate": "2011-08-28T21:00:02Z", "webTitle": "Our social security system must guarantee real welfare | Ruth Lister", "webUrl": "https://www.theguardian.com/commentisfree/2011/aug/28/robin-hood-poor-welfare", "apiUrl": "https://content.guardianapis.com/commentisfree/2011/aug/28/robin-hood-poor-welfare", "isHosted": false, "pillarId": "pillar/opinion", "pillarName": "Opinion"}, {"id": "politics/2011/aug/28/lib-dems-seek-police-commissioners", "type": "article", "sectionId": "politics", "sectionName": "Politics", "webPublicationDate": "2011-08-28T20:22:19Z", "webTitle": "Lib Dems seek candidates for police commissioner posts, despite peer revolt", "webUrl": "https://www.theguardian.com/politics/2011/aug/28/lib-dems-seek-police-commissioners", "apiUrl": "https://content.guardianapis.com/politics/2011/aug/28/lib-dems-seek-police-commissioners", "isHosted": false, "pillarId": "pillar/news", "pillarName": "News"}]}}