{"response": {"status": "ok", "userTier": "developer", "total": 26596, "startIndex": 1, "pageSize": 50, "currentPage": 1, "pages": 532, "orderBy": "newest", "results": [{"id": "environment/2010/aug/31/country-diary-north-derbyshire", "type": "article", "sectionId": "environment", "sectionName": "Environment", "webPublicationDate": "2010-08-30T23:05:09Z", "webTitle": "Country diary: North Derbyshire", "webUrl": "https://www.theguardian.com/environment/2010/aug/31/country-diary-north-derbyshire", "apiUrl": "https://content.guardianapis.com/environment/2010/aug/31/country-diary-north-derbyshire", "isHosted": false, "pillarId": "pillar/news", "pillarName": "News"}, {"id": "environment/2010/aug/30/bjorn-lomborg-climate-change-profile", "type": "article", "sectionId": "environment", "sectionName": "Environment", "webPublicationDate": "2010-08-30T22:19:48Z", "webTitle": "Bj\u00f8rn Lomborg: the dissenting climate change voice who changed his tune", "webUrl": "https://www.theguardian.com/environment/2010/aug/30/bjorn-lomborg-climate-change-profile", "apiUrl": "https://content.guardianapis.com/environment/2010/aug/30/bjorn-lomborg-climate-change-profile", "isHosted": false, "pillarId": "pillar/news", "pillarName": "News"}, {"id": "commentisfree/cif-green/2010/aug/30/lombard-missing-questions-climate-change", "type": "article", "sectionId": "commentisfree", "sectionName": "Opinion", "webPublicationDate": "2010-08-30T21:00:03Z", "webTitle": "Bj\u00f8rn Lomborg's missing questions | Howard Friel", "webUrl": "https://www.theguardian.com/commentisfree/cif-green/2010/aug/30/lombard-missing-questions-climate-change", "apiUrl": "https://content.guardianapis.com/commentisfree/cif-green/2010/aug/30/lombard-missing-questions-climate-change", "isHosted": false, "pillarId": "pillar/opinion", "pillarName": "Opinion"}, {"id": "environment/2010/aug/30/cbi-climate-change-debate-king", "type": "article", "sectionId": "environment", "sectionName": "Environment", "webPublicationDate": "2010-08-30T21:00:02Z", "webTitle": "CBI to host climate change 'clash of the titans' debate", "webUrl": "https://www.theguardian.com/environment/2010/aug/30/cbi-climate-change-debate-king", "apiUrl": "https://content.guardianapis.com/environment/2010/aug/30/cbi-climate-change-debate-king", "isHosted": false, "pillarId": "pillar/news", "pillarName": "News"}, {"id": "environment/2010/aug/30/bjorn-lomborg-climate-change-u-turn", "type": "article", "sectionId": "environment", "sectionName": "Environment", "webPublicationDate": "2010-08-30T19:17:15Z", "webTitle": "Bj\u00f8rn Lomborg: $100bn a year needed to fight climate change", "webUrl": "https://www.theguardian.com/environment/2010/aug/30/bjorn-lomborg-climate-change-u-turn", "apiUrl": "https://content.guardianapis.com/environment/2010/aug/30/bjorn-lomborg-climate-change-u-turn", "isHosted": false, "pillarId": "pillar/news", "pillarName": "News"}, {"id": "environment/2010/aug/30/bjorn-lomborg-climate-change-quotes", "type": "article", "sectionId": "environment", "sectionName": "Environment", "webPublicationDate": "2010-08-30T19:00:02Z", "webTitle": "Bj\u00f8rn Lomborg: in his own words", "webUrl": "https://www.theguardian.com/environment/2010/aug/30/bjorn-lomborg-climate-change-quotes", "apiUrl": "https://content.guardianapis.com/environment/2010/aug/30/bjorn-lomborg-climate-change-quotes", "isHosted": false, "pillarId": "pillar/news", "pillarName": "News"}, {"id": "environment/2010/aug/30/rajendra-pachauri-un-climate-change-pressure-resign", "type": "article", "sectionId": "environment", "sectionName": "Environment", "webPublicationDate": "2010-08-30T18:34:16Z", "webTitle": "Rajendra Pachauri, head of UN climate change body, under pressure to resign", "webUrl": "https://www.theguardian.com/environment/2010/aug/30/rajendra-pachauri-un-climate-change-pressure-resign", "apiUrl": "https://content.guardianapis.com/environment/2010/aug/30/rajendra-pachauri-un-climate-change-pressure-resign", "isHosted": false, "pillarId": "pillar/news", "pillarName": "News"}, {"id": "world/2010/aug/30/angela-merkel-commits-nuclear-energy", "type": "article", "sectionId": "world", "sectionName": "World news", "webPublicationDate": "2010-08-30T17:35:57Z", "webTitle": "Angela Merkel risks Germans' ire with fresh commitment to nuclear energy", "webUrl": "https://www.theguardian.com/world/2010/aug/30/angela-merkel-commits-nuclear-energy", "apiUrl": "https://content.guardianapis.com/world/2010/aug/30/angela-merkel-commits-nuclear-energy", "isHosted": false, "pillarId": "pillar/news", "pillarName": "News"}, {"id": "world/2010/aug/30/chile-miners-phone-call-families", "type": "article", "sectionId": "world", "sectionName": "World news", "webPublicationDate": "2010-08-30T16:08:13Z", "webTitle": "Trapped Chilean miners speak to their families by phone", "webUrl": "https://www.theguardian.com/world/2010/aug/30/chile-miners-phone-call-families", "apiUrl": "https://content.guardianapis.com/world/2010/aug/30/chile-miners-phone-call-families", "isHosted": false, "pillarId": "pillar/news", "pillarName": "News"}, {"id": "business/2010/aug/30/carbon-emissions-offset-civil-aviation-authority", "type": "article", "sectionId": "business", "sectionName": "Business", "webPublicationDate": "2010-08-30T13:36:03Z", "webTitle": "Few air travellers offset carbon emissions, study finds", "webUrl": "https://www.theguardian.com/business/2010/aug/30/carbon-emissions-offset-civil-aviation-authority", "apiUrl": "https://content.guardianapis.com/business/2010/aug/30/carbon-emissions-offset-civil-aviation-authority", "isHosted": false, "pillarId": "pillar/news", "pillarName": "News"}, {"id": "environment/2010/aug/30/country-diary-lake-district", "type": "article", "sectionId": "environment", "sectionName": "Environment", "webPublicationDate": "2010-08-29T23:06:01Z", "webTitle": "Country diary: Lake District", "webUrl": "https://www.theguardian.com/environment/2010/aug/30/country-diary-lake-district", "apiUrl": "https://content.guardianapis.com/environment/2010/aug/30/country-diary-lake-district", "isHosted": false, "pillarId": "pillar/news", "pillarName": "News"}, {"id": "environment/2010/aug/30/biofuels-land-grab-friends-of-the-earth", "type": "article", "sectionId": "environment", "sectionName": "Environment", "webPublicationDate": "2010-08-29T23:05:58Z", "webTitle": "Friends of the Earth urges end to 'land grab' for biofuels", "webUrl": "https://www.theguardian.com/environment/2010/aug/30/biofuels-land-grab-friends-of-the-earth", "apiUrl": "https://content.guardianapis.com/environment/2010/aug/30/biofuels-land-grab-friends-of-the-earth", "isHosted": false, "pillarId": "pillar/news", "pillarName": "News"}, {"id": "commentisfree/2010/aug/29/liberal-guilt-good-for-you", "type": "article", "sectionId": "commentisfree", "sectionName": "Opinion", "webPublicationDate": "2010-08-29T19:00:56Z", "webTitle": "Liberal guilt? Good for you | Theo Hobson", "webUrl": "https://www.theguardian.com/commentisfree/2010/aug/29/liberal-guilt-good-for-you", "apiUrl": "https://content.guardianapis.com/commentisfree/2010/aug/29/liberal-guilt-good-for-you", "isHosted": false, "pillarId": "pillar/opinion", "pillarName": "Opinion"}, {"id": "business/2010/aug/29/new-houses-carbon-emission-targets-reduced", "type": "article", "sectionId": "business", "sectionName": "Business", "webPublicationDate": "2010-08-29T17:40:07Z", "webTitle": "Housebuilders to win reduced carbon target for homes", "webUrl": "https://www.theguardian.com/business/2010/aug/29/new-houses-carbon-emission-targets-reduced", "apiUrl": "https://content.guardianapis.com/business/2010/aug/29/new-houses-carbon-emission-targets-reduced", "isHosted": false, "pillarId": "pillar/news", "pillarName": "News"}, {"id": "commentisfree/cif-green/2010/aug/29/carbon-upsets-offsets-cap-and-trade", "type": "article", "sectionId": "commentisfree", "sectionName": "Opinion", "webPublicationDate": "2010-08-29T11:00:52Z", "webTitle": "Not carbon offsets, but carbon upsets | Douglas Kysar", "webUrl": "https://www.theguardian.com/commentisfree/cif-green/2010/aug/29/carbon-upsets-offsets-cap-and-trade", "apiUrl": "https://content.guardianapis.com/commentisfree/cif-green/2010/aug/29/carbon-upsets-offsets-cap-and-trade", "isHosted": false, "pillarId": "pillar/opinion", "pillarName": "Opinion"}, {"id": "environment/2010/aug/29/ethical-school-uniform", "type": "article", "sectionId": "environment", "sectionName": "Environment", "webPublicationDate": "2010-08-28T23:09:47Z", "webTitle": "Where can I buy an eco school uniform?", "webUrl": "https://www.theguardian.com/environment/2010/aug/29/ethical-school-uniform", "apiUrl": "https://content.guardianapis.com/environment/2010/aug/29/ethical-school-uniform", "isHosted": false, "pillarId": "pillar/news", "pillarName": "News"}, {"id": "environment/2010/aug/29/radhika-oswal-low-carbon-restaurant-otarian", "type": "article", "sectionId": "environment", "sectionName": "Environment", "webPublicationDate": "2010-08-28T23:08:47Z", "webTitle": "Radhika Oswal innovation: the low-carbon restaurant", "webUrl": "https://www.theguardian.com/environment/2010/aug/29/radhika-oswal-low-carbon-restaurant-otarian", "apiUrl": "https://content.guardianapis.com/environment/2010/aug/29/radhika-oswal-low-carbon-restaurant-otarian", "isHosted": false, "pillarId": "pillar/news", "pillarName": "News"}, {"id": "commentisfree/2010/aug/29/observer-editorial-corporate-responsibility", "type": "article", "sectionId": "commentisfree", "sectionName": "Opinion", "webPublicationDate": "2010-08-28T23:06:51Z", "webTitle": "Big business: There is profit to be made in decency | Observer editorial", "webUrl": "https://www.theguardian.com/commentisfree/2010/aug/29/observer-editorial-corporate-responsibility", "apiUrl": "https://content.guardianapis.com/commentisfree/2010/aug/29/observer-editorial-corporate-responsibility", "isHosted": false, "pillarId": "pillar/opinion", "pillarName": "Opinion"}, {"id": "commentisfree/2010/aug/29/henry-porter-science-britain-discoveries", "type": "article", "sectionId": "commentisfree", "sectionName": "Opinion", "webPublicationDate": "2010-08-28T23:06:36Z", "webTitle": "Let's have a scientific Olympiad as well as one devoted to the arts | Henry Porter", "webUrl": "https://www.theguardian.com/commentisfree/2010/aug/29/henry-porter-science-britain-discoveries", "apiUrl": "https://content.guardianapis.com/commentisfree/2010/aug/29/henry-porter-science-britain-discoveries", "isHosted": false, "pillarId": "pillar/opinion", "pillarName": "Opinion"}, {"id": "environment/2010/aug/29/deepwater-horizon-greenland-oil-drilling-arctic", "type": "article", "sectionId": "environment", "sectionName": "Environment", "webPublicationDate": "2010-08-28T23:06:34Z", "webTitle": "Deepwater Horizon fears resurface as rigs probe for oil under Arctic ice", "webUrl": "https://www.theguardian.com/environment/2010/aug/29/deepwater-horizon-greenland-oil-drilling-arctic", "apiUrl": "https://content.guardianapis.com/environment/2010/aug/29/deepwater-horizon-greenland-oil-drilling-arctic", "isHosted": false, "pillarId": "pillar/news", "pillarName": "News"}, {"id": "business/2010/aug/29/ftse-350-companies-sustainable-business-model", "type": "article", "sectionId": "business", "sectionName": "Business", "webPublicationDate": "2010-08-28T23:06:30Z", "webTitle": "Good Companies Guide: Winners and losers in the corporate sustainability stakes", "webUrl": "https://www.theguardian.com/business/2010/aug/29/ftse-350-companies-sustainable-business-model", "apiUrl": "https://content.guardianapis.com/business/2010/aug/29/ftse-350-companies-sustainable-business-model", "isHosted": false, "pillarId": "pillar/news", "pillarName": "News"}, {"id": "business/2010/aug/29/good-companies-guide-2010", "type": "article", "sectionId": "business", "sectionName": "Business", "webPublicationDate": "2010-08-28T23:06:23Z", "webTitle": "Good Companies Guide: easing the planet's growing pains will help business to profit", "webUrl": "https://www.theguardian.com/business/2010/aug/29/good-companies-guide-2010", "apiUrl": "https://content.guardianapis.com/business/2010/aug/29/good-companies-guide-2010", "isHosted": false, "pillarId": "pillar/news", "pillarName": "News"}, {"id": "environment/2010/aug/29/frozen-zoo-san-diego-rhino", "type": "article", "sectionId": "environment", "sectionName": "Environment", "webPublicationDate": "2010-08-28T23:05:51Z", "webTitle": "The Frozen Zoo aiming to bring endangered species back from the brink", "webUrl": "https://www.theguardian.com/environment/2010/aug/29/frozen-zoo-san-diego-rhino", "apiUrl": "https://content.guardianapis.com/environment/2010/aug/29/frozen-zoo-san-diego-rhino", "isHosted": false, "pillarId": "pillar/news", "pillarName": "News"}, {"id": "science/2010/aug/29/new-to-nature-lungless-salamander", "type": "article", "sectionId": "science", "sectionName": "Science", "webPublicationDate": "2010-08-28T23:04:46Z", "webTitle": "New to Nature No 18: Urspelerpes brucei", "webUrl": "https://www.theguardian.com/science/2010/aug/29/new-to-nature-lungless-salamander", "apiUrl": "https://content.guardianapis.com/science/2010/aug/29/new-to-nature-lungless-salamander", "isHosted": false, "pillarId": "pillar/news", "pillarName": "News"}, {"id": "world/2010/aug/28/pakistan-floods-rescue", "type": "article", "sectionId": "world", "sectionName": "World news", "webPublicationDate": "2010-08-28T15:28:56Z", "webTitle": "Saved from Pakistan's endless sea", "webUrl": "https://www.theguardian.com/world/2010/aug/28/pakistan-floods-rescue", "apiUrl": "https://content.guardianapis.com/world/2010/aug/28/pakistan-floods-rescue", "isHosted": false, "pillarId": "pillar/news", "pillarName": "News"}, {"id": "world/2010/aug/27/33-trapped-chilean-miners-rescue", "type": "article", "sectionId": "world", "sectionName": "World news", "webPublicationDate": "2010-08-27T20:06:30Z", "webTitle": "How to keep the trapped Chilean miners alive", "webUrl": "https://www.theguardian.com/world/2010/aug/27/33-trapped-chilean-miners-rescue", "apiUrl": "https://content.guardianapis.com/world/2010/aug/27/33-trapped-chilean-miners-rescue", "isHosted": false, "pillarId": "pillar/news", "pillarName": "News"}, {"id": "environment/cif-green/2010/aug/27/gm-fish-meat-environment", "type": "article", "sectionId": "environment", "sectionName": "Environment", "webPublicationDate": "2010-08-27T15:32:12Z", "webTitle": "Why the case for GM salmon is still hard to stomach | Robin McKie", "webUrl": "https://www.theguardian.com/environment/cif-green/2010/aug/27/gm-fish-meat-environment", "apiUrl": "https://content.guardianapis.com/environment/cif-green/2010/aug/27/gm-fish-meat-environment", "isHosted": false, "pillarId": "pillar/news", "pillarName": "News"}, {"id": "environment/green-living-blog/2010/aug/23/school-uniforms-cheap-ethical-concerns", "type": "article", "sectionId": "environment", "sectionName": "Environment", "webPublicationDate": "2010-08-27T13:50:00Z", "webTitle": "Should I buy the cheapest school uniform? | Leo Hickman", "webUrl": "https://www.theguardian.com/environment/green-living-blog/2010/aug/23/school-uniforms-cheap-ethical-concerns", "apiUrl": "https://content.guardianapis.com/environment/green-living-blog/2010/aug/23/school-uniforms-cheap-ethical-concerns", "isHosted": false, "pillarId": "pillar/news", "pillarName": "News"}, {"id": "science/2010/aug/27/james-lovelock-gaia", "type": "article", "sectionId": "science", "sectionName": "Science", "webPublicationDate": "2010-08-27T11:39:05Z", "webTitle": "How James Lovelock introduced Gaia to an unsuspecting world | Science Book Club", "webUrl": "https://www.theguardian.com/science/2010/aug/27/james-lovelock-gaia", "apiUrl": "https://content.guardianapis.com/science/2010/aug/27/james-lovelock-gaia", "isHosted": false, "pillarId": "pillar/news", "pillarName": "News"}, {"id": "environment/gallery/2010/aug/27/week-in-wildlife", "type": "gallery", "sectionId": "environment", "sectionName": "Environment", "webPublicationDate": "2010-08-27T11:37:15Z", "webTitle": "In pictures: The week in wildlife", "webUrl": "https://www.theguardian.com/environment/gallery/2010/aug/27/week-in-wildlife", "apiUrl": "https://content.guardianapis.com/environment/gallery/2010/aug/27/week-in-wildlife", "isHosted": false, "pillarId": "pillar/news", "pillarName": "News"}, {"id": "environment/2010/aug/27/legal-costs-environment-un", "type": "article", "sectionId": "environment", "sectionName": "Environment", "webPublicationDate": "2010-08-27T11:34:41Z", "webTitle": "High UK legal costs deter challenges to environmental damage, UN warns", "webUrl": "https://www.theguardian.com/environment/2010/aug/27/legal-costs-environment-un", "apiUrl": "https://content.guardianapis.com/environment/2010/aug/27/legal-costs-environment-un", "isHosted": false, "pillarId": "pillar/news", "pillarName": "News"}, {"id": "politics/2010/aug/27/decision-time-labour-leadership-race", "type": "article", "sectionId": "politics", "sectionName": "Politics", "webPublicationDate": "2010-08-26T23:07:03Z", "webTitle": "Letters: Decision time in the Labour leadership race", "webUrl": "https://www.theguardian.com/politics/2010/aug/27/decision-time-labour-leadership-race", "apiUrl": "https://content.guardianapis.com/politics/2010/aug/27/decision-time-labour-leadership-race", "isHosted": false, "pillarId": "pillar/news", "pillarName": "News"}, {"id": "environment/2010/aug/27/ountry-diary-south-uist", "type": "article", "sectionId": "environment", "sectionName": "Environment", "webPublicationDate": "2010-08-26T23:05:12Z", "webTitle": "Country diary: South Uist", "webUrl": "https://www.theguardian.com/environment/2010/aug/27/ountry-diary-south-uist", "apiUrl": "https://content.guardianapis.com/environment/2010/aug/27/ountry-diary-south-uist", "isHosted": false, "pillarId": "pillar/news", "pillarName": "News"}, {"id": "environment/2010/aug/26/shetland-fish-herring-mackerel", "type": "article", "sectionId": "environment", "sectionName": "Environment", "webPublicationDate": "2010-08-26T16:45:01Z", "webTitle": "Shetland trawlermen illegally caught \u00a315m worth of herring and mackerel", "webUrl": "https://www.theguardian.com/environment/2010/aug/26/shetland-fish-herring-mackerel", "apiUrl": "https://content.guardianapis.com/environment/2010/aug/26/shetland-fish-herring-mackerel", "isHosted": false, "pillarId": "pillar/news", "pillarName": "News"}, {"id": "environment/cif-green/2010/aug/26/james-hansen-climate-change", "type": "article", "sectionId": "environment", "sectionName": "Environment", "webPublicationDate": "2010-08-26T15:59:53Z", "webTitle": "Am I an activist for caring about my grandchildren's future? I guess I am | James Hansen", "webUrl": "https://www.theguardian.com/environment/cif-green/2010/aug/26/james-hansen-climate-change", "apiUrl": "https://content.guardianapis.com/environment/cif-green/2010/aug/26/james-hansen-climate-change", "isHosted": false, "pillarId": "pillar/news", "pillarName": "News"}, {"id": "environment/2010/aug/26/rajendra-pachauri-cleared-financial-dealings", "type": "article", "sectionId": "environment", "sectionName": "Environment", "webPublicationDate": "2010-08-26T15:13:18Z", "webTitle": "Rajendra Pachauri cleared of financial misdealings", "webUrl": "https://www.theguardian.com/environment/2010/aug/26/rajendra-pachauri-cleared-financial-dealings", "apiUrl": "https://content.guardianapis.com/environment/2010/aug/26/rajendra-pachauri-cleared-financial-dealings", "isHosted": false, "pillarId": "pillar/news", "pillarName": "News"}, {"id": "environment/georgemonbiot/2010/aug/26/rajendra-pachauri-financial-relationships", "type": "article", "sectionId": "environment", "sectionName": "Environment", "webPublicationDate": "2010-08-26T13:03:25Z", "webTitle": "Rajendra Pachauri innocent of financial misdealings but smears will continue | George Monbiot", "webUrl": "https://www.theguardian.com/environment/georgemonbiot/2010/aug/26/rajendra-pachauri-financial-relationships", "apiUrl": "https://content.guardianapis.com/environment/georgemonbiot/2010/aug/26/rajendra-pachauri-financial-relationships", "isHosted": false, "pillarId": "pillar/news", "pillarName": "News"}, {"id": "commentisfree/2010/aug/26/russia-buckwheat-shortage", "type": "article", "sectionId": "commentisfree", "sectionName": "Opinion", "webPublicationDate": "2010-08-26T12:00:01Z", "webTitle": "Buckwheat crisis hurts Russian pride | Alexey Kovalev", "webUrl": "https://www.theguardian.com/commentisfree/2010/aug/26/russia-buckwheat-shortage", "apiUrl": "https://content.guardianapis.com/commentisfree/2010/aug/26/russia-buckwheat-shortage", "isHosted": false, "pillarId": "pillar/opinion", "pillarName": "Opinion"}, {"id": "environment/blog/2010/aug/26/climate-camp-free-speech", "type": "article", "sectionId": "environment", "sectionName": "Environment", "webPublicationDate": "2010-08-26T10:06:02Z", "webTitle": "Climate Camp is restricting free speech   | Marc Vall\u00e9e", "webUrl": "https://www.theguardian.com/environment/blog/2010/aug/26/climate-camp-free-speech", "apiUrl": "https://content.guardianapis.com/environment/blog/2010/aug/26/climate-camp-free-speech", "isHosted": false, "pillarId": "pillar/news", "pillarName": "News"}, {"id": "environment/gallery/2010/aug/26/atlas-of-rare-birds", "type": "gallery", "sectionId": "environment", "sectionName": "Environment", "webPublicationDate": "2010-08-26T07:00:00Z", "webTitle": "In pictures: Atlas of Rare Birds by Dominic Couzens", "webUrl": "https://www.theguardian.com/environment/gallery/2010/aug/26/atlas-of-rare-birds", "apiUrl": "https://content.guardianapis.com/environment/gallery/2010/aug/26/atlas-of-rare-birds", "isHosted": false, "pillarId": "pillar/news", "pillarName": "News"}, {"id": "environment/video/2010/aug/26/snails-national-trust", "type": "video", "sectionId": "environment", "sectionName": "Environment", "webPublicationDate": "2010-08-26T04:55:00Z", "webTitle": "Video: The hunt for a tiny Mediterranean snail", "webUrl": "https://www.theguardian.com/environment/video/2010/aug/26/snails-national-trust", "apiUrl": "https://content.guardianapis.com/environment/video/2010/aug/26/snails-national-trust", "isHosted": false, "pillarId": "pillar/news", "pillarName": "News"}, {"id": "environment/2010/aug/26/country-diary-highlands", "type": "article", "sectionId": "environment", "sectionName": "Environment", "webPublicationDate": "2010-08-25T23:18:39Z", "webTitle": "Country diary: Highlands", "webUrl": "https://www.theguardian.com/environment/2010/aug/26/country-diary-highlands", "apiUrl": "https://content.guardianapis.com/environment/2010/aug/26/country-diary-highlands", "isHosted": false, "pillarId": "pillar/news", "pillarName": "News"}, {"id": "environment/2010/aug/26/apple-turns-off-green-pathway", "type": "article", "sectionId": "environment", "sectionName": "Environment", "webPublicationDate": "2010-08-25T23:05:55Z", "webTitle": "Letters: Apple turns off the green pathway", "webUrl": "https://www.theguardian.com/environment/2010/aug/26/apple-turns-off-green-pathway", "apiUrl": "https://content.guardianapis.com/environment/2010/aug/26/apple-turns-off-green-pathway", "isHosted": false, "pillarId": "pillar/news", "pillarName": "News"}, {"id": "commentisfree/2010/aug/26/editorial-fertiliser-resources-global-economy", "type": "article", "sectionId": "commentisfree", "sectionName": "Opinion", "webPublicationDate": "2010-08-25T23:02:06Z", "webTitle": "The world economy: Getting resource-ful | Editorial", "webUrl": "https://www.theguardian.com/commentisfree/2010/aug/26/editorial-fertiliser-resources-global-economy", "apiUrl": "https://content.guardianapis.com/commentisfree/2010/aug/26/editorial-fertiliser-resources-global-economy", "isHosted": false, "pillarId": "pillar/opinion", "pillarName": "Opinion"}, {"id": "environment/2010/aug/25/gm-salmon-us-fda-consultation", "type": "article", "sectionId": "environment", "sectionName": "Environment", "webPublicationDate": "2010-08-25T20:24:22Z", "webTitle": "GM salmon may go on sale in US after public consultation", "webUrl": "https://www.theguardian.com/environment/2010/aug/25/gm-salmon-us-fda-consultation", "apiUrl": "https://content.guardianapis.com/environment/2010/aug/25/gm-salmon-us-fda-consultation", "isHosted": false, "pillarId": "pillar/news", "pillarName": "News"}, {"id": "business/2010/aug/25/nuclear-reactors-behind-schedule", "type": "article", "sectionId": "environment", "sectionName": "Environment", "webPublicationDate": "2010-08-25T19:25:08Z", "webTitle": "UK's nuclear reactor programme falls behind as designs await safety approval", "webUrl": "https://www.theguardian.com/business/2010/aug/25/nuclear-reactors-behind-schedule", "apiUrl": "https://content.guardianapis.com/business/2010/aug/25/nuclear-reactors-behind-schedule", "isHosted": false, "pillarId": "pillar/news", "pillarName": "News"}, {"id": "environment/2010/aug/25/scotland-hebrides-gannet-hunt", "type": "article", "sectionId": "environment", "sectionName": "Environment", "webPublicationDate": "2010-08-25T19:18:26Z", "webTitle": "Cliffhanger for a bloody tradition as last of Scotland's gannet hunters set sail", "webUrl": "https://www.theguardian.com/environment/2010/aug/25/scotland-hebrides-gannet-hunt", "apiUrl": "https://content.guardianapis.com/environment/2010/aug/25/scotland-hebrides-gannet-hunt", "isHosted": false, "pillarId": "pillar/news", "pillarName": "News"}, {"id": "environment/2010/aug/25/honeybees-virus-superbee-saviour-swindon", "type": "article", "sectionId": "environment", "sectionName": "Environment", "webPublicationDate": "2010-08-25T19:00:42Z", "webTitle": "Could a superbee from Swindon save the world?", "webUrl": "https://www.theguardian.com/environment/2010/aug/25/honeybees-virus-superbee-saviour-swindon", "apiUrl": "https://content.guardianapis.com/environment/2010/aug/25/honeybees-virus-superbee-saviour-swindon", "isHosted": false, "pillarId": "pillar/news", "pillarName": "News"}, {"id": "environment/2010/aug/25/bp-arctic-greenland-oil-drilling", "type": "article", "sectionId": "environment", "sectionName": "Environment", "webPublicationDate": "2010-08-25T18:30:07Z", "webTitle": "BP frozen out of Arctic oil drilling race", "webUrl": "https://www.theguardian.com/environment/2010/aug/25/bp-arctic-greenland-oil-drilling", "apiUrl": "https://content.guardianapis.com/environment/2010/aug/25/bp-arctic-greenland-oil-drilling", "isHosted": false, "pillarId": "pillar/news", "pillarName": "News"}, {"id": "environment/2010/aug/25/plastic-bag-use-plummets-supermarkets", "type": "article", "sectionId": "environment", "sectionName": "Environment", "webPublicationDate": "2010-08-25T16:14:41Z", "webTitle": "Plastic bag use plummets in supermarkets since 2006", "webUrl": "https://www.theguardian.com/environment/2010/aug/25/plastic-bag-use-plummets-supermarkets", "apiUrl": "https://content.guardianapis.com/environment/2010/aug/25/plastic-bag-use-plummets-supermarkets", "isHosted": false, "pillarId": "pillar/news", "pillarName": "News"}]}}