{"response": {"status": "ok", "userTier": "developer", "total": 83097, "startIndex": 1, "pageSize": 50, "currentPage": 1, "pages": 1662, "orderBy": "newest", "results": [{"id": "football/2010/aug/30/aston-villa-manager", "type": "article", "sectionId": "football", "sectionName": "Football", "webPublicationDate": "2010-08-30T23:53:00Z", "webTitle": "Aston Villa to step up hunt for new manager during international break", "webUrl": "https://www.theguardian.com/football/2010/aug/30/aston-villa-manager", "apiUrl": "https://content.guardianapis.com/football/2010/aug/30/aston-villa-manager", "isHosted": false, "pillarId": "pillar/sport", "pillarName": "Sport"}, {"id": "football/quiz/2010/aug/31/football-quiz-fictional-footballers", "type": "article", "sectionId": "global", "sectionName": "Global", "webPublicationDate": "2010-08-30T23:15:00Z", "webTitle": "Football quiz: Fictional Footballers", "webUrl": "https://www.theguardian.com/football/quiz/2010/aug/31/football-quiz-fictional-footballers", "apiUrl": "https://content.guardianapis.com/football/quiz/2010/aug/31/football-quiz-fictional-footballers", "isHosted": false}, {"id": "football/2010/aug/31/roy-hodgson-liverpool-transfer-deadline", "type": "article", "sectionId": "football", "sectionName": "Football", "webPublicationDate": "2010-08-30T23:06:05Z", "webTitle": "Roy Hodgson wants quality striker to take pressure off Fernando Torres", "webUrl": "https://www.theguardian.com/football/2010/aug/31/roy-hodgson-liverpool-transfer-deadline", "apiUrl": "https://content.guardianapis.com/football/2010/aug/31/roy-hodgson-liverpool-transfer-deadline", "isHosted": false, "pillarId": "pillar/sport", "pillarName": "Sport"}, {"id": "football/blog/2010/aug/31/fabio-capello-england-bulgaria-switzerland", "type": "article", "sectionId": "football", "sectionName": "Football", "webPublicationDate": "2010-08-30T23:06:04Z", "webTitle": "Fabio Capello keen to convey sense of the new and regain old renown | Kevin McCarra", "webUrl": "https://www.theguardian.com/football/blog/2010/aug/31/fabio-capello-england-bulgaria-switzerland", "apiUrl": "https://content.guardianapis.com/football/blog/2010/aug/31/fabio-capello-england-bulgaria-switzerland", "isHosted": false, "pillarId": "pillar/sport", "pillarName": "Sport"}, {"id": "football/2010/aug/31/championship-transfer-window-income", "type": "article", "sectionId": "football", "sectionName": "Football", "webPublicationDate": "2010-08-30T23:06:04Z", "webTitle": "Championship clubs hit by drop in summer transfer income", "webUrl": "https://www.theguardian.com/football/2010/aug/31/championship-transfer-window-income", "apiUrl": "https://content.guardianapis.com/football/2010/aug/31/championship-transfer-window-income", "isHosted": false, "pillarId": "pillar/sport", "pillarName": "Sport"}, {"id": "football/gallery/2010/aug/31/gareth-bale-tottenham-the-gallery", "type": "gallery", "sectionId": "football", "sectionName": "Football", "webPublicationDate": "2010-08-30T23:00:00Z", "webTitle": "Gareth Bale | The Gallery", "webUrl": "https://www.theguardian.com/football/gallery/2010/aug/31/gareth-bale-tottenham-the-gallery", "apiUrl": "https://content.guardianapis.com/football/gallery/2010/aug/31/gareth-bale-tottenham-the-gallery", "isHosted": false, "pillarId": "pillar/sport", "pillarName": "Sport"}, {"id": "football/2010/aug/30/blackburn-rovers-takeover", "type": "article", "sectionId": "football", "sectionName": "Football", "webPublicationDate": "2010-08-30T22:45:24Z", "webTitle": "Blackburn takeover tycoon Ahsan Ali Syed forced to close company", "webUrl": "https://www.theguardian.com/football/2010/aug/30/blackburn-rovers-takeover", "apiUrl": "https://content.guardianapis.com/football/2010/aug/30/blackburn-rovers-takeover", "isHosted": false, "pillarId": "pillar/sport", "pillarName": "Sport"}, {"id": "football/gallery/2010/aug/30/bourton-on-the-water-football-river-match", "type": "gallery", "sectionId": "football", "sectionName": "Football", "webPublicationDate": "2010-08-30T22:32:17Z", "webTitle": "Gallery: Bourton-on-the-Water's football in the river match", "webUrl": "https://www.theguardian.com/football/gallery/2010/aug/30/bourton-on-the-water-football-river-match", "apiUrl": "https://content.guardianapis.com/football/gallery/2010/aug/30/bourton-on-the-water-football-river-match", "isHosted": false, "pillarId": "pillar/sport", "pillarName": "Sport"}, {"id": "football/2010/aug/30/scott-parker-west-ham-tottenham", "type": "article", "sectionId": "football", "sectionName": "Football", "webPublicationDate": "2010-08-30T22:01:02Z", "webTitle": "Spurs to make new bid for Scott Parker, offering Robbie Keane as bait", "webUrl": "https://www.theguardian.com/football/2010/aug/30/scott-parker-west-ham-tottenham", "apiUrl": "https://content.guardianapis.com/football/2010/aug/30/scott-parker-west-ham-tottenham", "isHosted": false, "pillarId": "pillar/sport", "pillarName": "Sport"}, {"id": "football/2010/aug/30/javier-mascherano-barcelona-liverpool", "type": "article", "sectionId": "football", "sectionName": "Football", "webPublicationDate": "2010-08-30T21:57:02Z", "webTitle": "Javier Mascherano promises to reveal truth behind Liverpool departure", "webUrl": "https://www.theguardian.com/football/2010/aug/30/javier-mascherano-barcelona-liverpool", "apiUrl": "https://content.guardianapis.com/football/2010/aug/30/javier-mascherano-barcelona-liverpool", "isHosted": false, "pillarId": "pillar/sport", "pillarName": "Sport"}, {"id": "football/2010/aug/30/scotlandfootballteam-craig-levein", "type": "article", "sectionId": "football", "sectionName": "Football", "webPublicationDate": "2010-08-30T21:01:02Z", "webTitle": "Mikel Arteta for England would break agreement, says Craig Levein", "webUrl": "https://www.theguardian.com/football/2010/aug/30/scotlandfootballteam-craig-levein", "apiUrl": "https://content.guardianapis.com/football/2010/aug/30/scotlandfootballteam-craig-levein", "isHosted": false, "pillarId": "pillar/sport", "pillarName": "Sport"}, {"id": "football/2010/aug/30/javier-mascherano-move-liverpool-barcelona", "type": "article", "sectionId": "football", "sectionName": "Football", "webPublicationDate": "2010-08-30T19:31:19Z", "webTitle": "Javier Mascherano completes move from Liverpool to Barcelona", "webUrl": "https://www.theguardian.com/football/2010/aug/30/javier-mascherano-move-liverpool-barcelona", "apiUrl": "https://content.guardianapis.com/football/2010/aug/30/javier-mascherano-move-liverpool-barcelona", "isHosted": false, "pillarId": "pillar/sport", "pillarName": "Sport"}, {"id": "football/2010/aug/30/arsenal-robin-van-persie-ankle", "type": "article", "sectionId": "football", "sectionName": "Football", "webPublicationDate": "2010-08-30T18:56:31Z", "webTitle": "Arsenal's Robin van Persie ruled out for four weeks with damaged ankle", "webUrl": "https://www.theguardian.com/football/2010/aug/30/arsenal-robin-van-persie-ankle", "apiUrl": "https://content.guardianapis.com/football/2010/aug/30/arsenal-robin-van-persie-ankle", "isHosted": false, "pillarId": "pillar/sport", "pillarName": "Sport"}, {"id": "football/2010/aug/30/fernando-torres-spain-liverpool", "type": "article", "sectionId": "football", "sectionName": "Football", "webPublicationDate": "2010-08-30T18:41:43Z", "webTitle": "Spain to ignore Liverpool manager's plea to spare Fernando Torres", "webUrl": "https://www.theguardian.com/football/2010/aug/30/fernando-torres-spain-liverpool", "apiUrl": "https://content.guardianapis.com/football/2010/aug/30/fernando-torres-spain-liverpool", "isHosted": false, "pillarId": "pillar/sport", "pillarName": "Sport"}, {"id": "football/2010/aug/30/damien-duff-injury-ireland-armenia", "type": "article", "sectionId": "football", "sectionName": "Football", "webPublicationDate": "2010-08-30T17:45:07Z", "webTitle": "Damien Duff to miss Ireland's Euro 2012 qualifier against Armenia", "webUrl": "https://www.theguardian.com/football/2010/aug/30/damien-duff-injury-ireland-armenia", "apiUrl": "https://content.guardianapis.com/football/2010/aug/30/damien-duff-injury-ireland-armenia", "isHosted": false, "pillarId": "pillar/sport", "pillarName": "Sport"}, {"id": "football/2010/aug/30/robin-van-persie-injured", "type": "article", "sectionId": "football", "sectionName": "Football", "webPublicationDate": "2010-08-30T16:02:40Z", "webTitle": "Arsenal's Robin van Persie out for 'at least a few weeks' with ankle injury", "webUrl": "https://www.theguardian.com/football/2010/aug/30/robin-van-persie-injured", "apiUrl": "https://content.guardianapis.com/football/2010/aug/30/robin-van-persie-injured", "isHosted": false, "pillarId": "pillar/sport", "pillarName": "Sport"}, {"id": "football/2010/aug/30/shay-given-stays-manchester-city", "type": "article", "sectionId": "football", "sectionName": "Football", "webPublicationDate": "2010-08-30T15:55:56Z", "webTitle": "Shay Given chooses to stay at Manchester City and fight for No1 place", "webUrl": "https://www.theguardian.com/football/2010/aug/30/shay-given-stays-manchester-city", "apiUrl": "https://content.guardianapis.com/football/2010/aug/30/shay-given-stays-manchester-city", "isHosted": false, "pillarId": "pillar/sport", "pillarName": "Sport"}, {"id": "football/blog/audio/2010/aug/30/football-weekly-podcast-redknapp-zlatan", "type": "audio", "sectionId": "football", "sectionName": "Football", "webPublicationDate": "2010-08-30T15:31:02Z", "webTitle": "Football Weekly: Red-hot Redknapp, Zlatan's move and German shocks", "webUrl": "https://www.theguardian.com/football/blog/audio/2010/aug/30/football-weekly-podcast-redknapp-zlatan", "apiUrl": "https://content.guardianapis.com/football/blog/audio/2010/aug/30/football-weekly-podcast-redknapp-zlatan", "isHosted": false, "pillarId": "pillar/sport", "pillarName": "Sport"}, {"id": "football/2010/aug/30/stoke-city-eidur-gudjohnsen", "type": "article", "sectionId": "football", "sectionName": "Football", "webPublicationDate": "2010-08-30T14:52:37Z", "webTitle": "Stoke City confirm interest in Monaco striker Eidur Gudjohnsen", "webUrl": "https://www.theguardian.com/football/2010/aug/30/stoke-city-eidur-gudjohnsen", "apiUrl": "https://content.guardianapis.com/football/2010/aug/30/stoke-city-eidur-gudjohnsen", "isHosted": false, "pillarId": "pillar/sport", "pillarName": "Sport"}, {"id": "football/2010/aug/30/luis-fabiano-sevilla", "type": "article", "sectionId": "football", "sectionName": "Football", "webPublicationDate": "2010-08-30T14:29:44Z", "webTitle": "Lu\u00eds Fabiano opts to stay with Sevilla by signing new two-year deal", "webUrl": "https://www.theguardian.com/football/2010/aug/30/luis-fabiano-sevilla", "apiUrl": "https://content.guardianapis.com/football/2010/aug/30/luis-fabiano-sevilla", "isHosted": false, "pillarId": "pillar/sport", "pillarName": "Sport"}, {"id": "football/2010/aug/30/ryan-giggs-nani-manchester-united", "type": "article", "sectionId": "football", "sectionName": "Football", "webPublicationDate": "2010-08-30T13:19:51Z", "webTitle": "Ryan Giggs lavishes praise on Manchester United team-mate Nani", "webUrl": "https://www.theguardian.com/football/2010/aug/30/ryan-giggs-nani-manchester-united", "apiUrl": "https://content.guardianapis.com/football/2010/aug/30/ryan-giggs-nani-manchester-united", "isHosted": false, "pillarId": "pillar/sport", "pillarName": "Sport"}, {"id": "football/blog/2010/aug/30/five-things-learned-premier-league", "type": "article", "sectionId": "football", "sectionName": "Football", "webPublicationDate": "2010-08-30T13:07:23Z", "webTitle": "Five things we learned from watching football this weekend | Tom Lutz", "webUrl": "https://www.theguardian.com/football/blog/2010/aug/30/five-things-learned-premier-league", "apiUrl": "https://content.guardianapis.com/football/blog/2010/aug/30/five-things-learned-premier-league", "isHosted": false, "pillarId": "pillar/sport", "pillarName": "Sport"}, {"id": "football/blog/2010/aug/30/wolfsburg-mainz-bundesliga-round-up", "type": "article", "sectionId": "football", "sectionName": "Football", "webPublicationDate": "2010-08-30T10:26:25Z", "webTitle": "Wolfsburg show their Mr Hyde side as Tuchel inspires Mainz magic | Raphael Honigstein", "webUrl": "https://www.theguardian.com/football/blog/2010/aug/30/wolfsburg-mainz-bundesliga-round-up", "apiUrl": "https://content.guardianapis.com/football/blog/2010/aug/30/wolfsburg-mainz-bundesliga-round-up", "isHosted": false, "pillarId": "pillar/sport", "pillarName": "Sport"}, {"id": "football/blog/2010/aug/30/serie-a-week-one-round-up", "type": "article", "sectionId": "football", "sectionName": "Football", "webPublicationDate": "2010-08-30T10:05:27Z", "webTitle": "Ghost goals, grand unveilings and a sacking before the season even begins | Paolo Bandini", "webUrl": "https://www.theguardian.com/football/blog/2010/aug/30/serie-a-week-one-round-up", "apiUrl": "https://content.guardianapis.com/football/blog/2010/aug/30/serie-a-week-one-round-up", "isHosted": false, "pillarId": "pillar/sport", "pillarName": "Sport"}, {"id": "football/2010/aug/30/premier-league-chalkboards-analysis", "type": "article", "sectionId": "football", "sectionName": "Football", "webPublicationDate": "2010-08-30T09:29:08Z", "webTitle": "Premier League chalkboards analysis", "webUrl": "https://www.theguardian.com/football/2010/aug/30/premier-league-chalkboards-analysis", "apiUrl": "https://content.guardianapis.com/football/2010/aug/30/premier-league-chalkboards-analysis", "isHosted": false, "pillarId": "pillar/sport", "pillarName": "Sport"}, {"id": "football/blog/2010/aug/30/zlatan-ibrahimovic-barcelona-david-villa", "type": "article", "sectionId": "football", "sectionName": "Football", "webPublicationDate": "2010-08-30T09:23:41Z", "webTitle": "Zlat's all folks: Barcelona finally get their man ... but at a price | Sid Lowe", "webUrl": "https://www.theguardian.com/football/blog/2010/aug/30/zlatan-ibrahimovic-barcelona-david-villa", "apiUrl": "https://content.guardianapis.com/football/blog/2010/aug/30/zlatan-ibrahimovic-barcelona-david-villa", "isHosted": false, "pillarId": "pillar/sport", "pillarName": "Sport"}, {"id": "football/football-league-blog/2010/aug/30/southampton-sack-alan-pardew-open-thread", "type": "article", "sectionId": "football", "sectionName": "Football", "webPublicationDate": "2010-08-30T08:14:50Z", "webTitle": "Alan Pardew's Southampton sacking raises questions on the south coast | Open thread", "webUrl": "https://www.theguardian.com/football/football-league-blog/2010/aug/30/southampton-sack-alan-pardew-open-thread", "apiUrl": "https://content.guardianapis.com/football/football-league-blog/2010/aug/30/southampton-sack-alan-pardew-open-thread", "isHosted": false, "pillarId": "pillar/sport", "pillarName": "Sport"}, {"id": "football/2010/aug/30/southampton-sack-alan-pardew", "type": "article", "sectionId": "football", "sectionName": "Football", "webPublicationDate": "2010-08-30T08:02:23Z", "webTitle": "Southampton sack Alan Pardew, Wally Downes and Stuart Murdoch", "webUrl": "https://www.theguardian.com/football/2010/aug/30/southampton-sack-alan-pardew", "apiUrl": "https://content.guardianapis.com/football/2010/aug/30/southampton-sack-alan-pardew", "isHosted": false, "pillarId": "pillar/sport", "pillarName": "Sport"}, {"id": "football/2010/aug/30/football-transfer-rumours-jack-rodwell-manchester-united", "type": "article", "sectionId": "football", "sectionName": "Football", "webPublicationDate": "2010-08-30T07:42:08Z", "webTitle": "Football transfer rumours: Everton's Jack Rodwell to Manchester United? | John Ashdown", "webUrl": "https://www.theguardian.com/football/2010/aug/30/football-transfer-rumours-jack-rodwell-manchester-united", "apiUrl": "https://content.guardianapis.com/football/2010/aug/30/football-transfer-rumours-jack-rodwell-manchester-united", "isHosted": false, "pillarId": "pillar/sport", "pillarName": "Sport"}, {"id": "football/2010/aug/30/sunderland-manchester-city-premier-league", "type": "article", "sectionId": "football", "sectionName": "Football", "webPublicationDate": "2010-08-30T07:38:05Z", "webTitle": "Sunderland 1-0 Manchester City | Premier League match report", "webUrl": "https://www.theguardian.com/football/2010/aug/30/sunderland-manchester-city-premier-league", "apiUrl": "https://content.guardianapis.com/football/2010/aug/30/sunderland-manchester-city-premier-league", "isHosted": false, "pillarId": "pillar/sport", "pillarName": "Sport"}, {"id": "football/2010/aug/30/tottenham-hotspur-wigan-athletic-premier-league", "type": "article", "sectionId": "football", "sectionName": "Football", "webPublicationDate": "2010-08-30T06:01:56Z", "webTitle": "Harry Redknapp has no sympathy for Tottenham hangover", "webUrl": "https://www.theguardian.com/football/2010/aug/30/tottenham-hotspur-wigan-athletic-premier-league", "apiUrl": "https://content.guardianapis.com/football/2010/aug/30/tottenham-hotspur-wigan-athletic-premier-league", "isHosted": false, "pillarId": "pillar/sport", "pillarName": "Sport"}, {"id": "football/blog/2010/aug/30/crystal-palace-simon-jordan", "type": "article", "sectionId": "football", "sectionName": "Football", "webPublicationDate": "2010-08-30T00:18:00Z", "webTitle": "I'm a former Crystal Palace owner \u2026 get me out of here | Mark Tallentire", "webUrl": "https://www.theguardian.com/football/blog/2010/aug/30/crystal-palace-simon-jordan", "apiUrl": "https://content.guardianapis.com/football/blog/2010/aug/30/crystal-palace-simon-jordan", "isHosted": false, "pillarId": "pillar/sport", "pillarName": "Sport"}, {"id": "football/quiz/2010/aug/30/englandfootballteam", "type": "article", "sectionId": "global", "sectionName": "Global", "webPublicationDate": "2010-08-29T23:15:00Z", "webTitle": "Football quiz: England outsiders", "webUrl": "https://www.theguardian.com/football/quiz/2010/aug/30/englandfootballteam", "apiUrl": "https://content.guardianapis.com/football/quiz/2010/aug/30/englandfootballteam", "isHosted": false}, {"id": "sport/blog/2010/aug/30/alan-hansen-plum-job-motd", "type": "article", "sectionId": "sport", "sectionName": "Sport", "webPublicationDate": "2010-08-29T23:11:00Z", "webTitle": "Why Alan Shearer could find plum job as a behavioural geneticist | Martin Kelner", "webUrl": "https://www.theguardian.com/sport/blog/2010/aug/30/alan-hansen-plum-job-motd", "apiUrl": "https://content.guardianapis.com/sport/blog/2010/aug/30/alan-hansen-plum-job-motd", "isHosted": false, "pillarId": "pillar/sport", "pillarName": "Sport"}, {"id": "football/2010/aug/30/tottenham-hotspur-wigan-athletic-premier-league1", "type": "article", "sectionId": "football", "sectionName": "Football", "webPublicationDate": "2010-08-29T23:06:57Z", "webTitle": "Harry Redknapp refuses to blame Champions League hangover for defeatTot", "webUrl": "https://www.theguardian.com/football/2010/aug/30/tottenham-hotspur-wigan-athletic-premier-league1", "apiUrl": "https://content.guardianapis.com/football/2010/aug/30/tottenham-hotspur-wigan-athletic-premier-league1", "isHosted": false, "pillarId": "pillar/sport", "pillarName": "Sport"}, {"id": "football/2010/aug/30/blackpool-fulham-premier-league", "type": "article", "sectionId": "football", "sectionName": "Football", "webPublicationDate": "2010-08-29T23:06:56Z", "webTitle": "Blackpool 2-2 Fulham | Premier League match report", "webUrl": "https://www.theguardian.com/football/2010/aug/30/blackpool-fulham-premier-league", "apiUrl": "https://content.guardianapis.com/football/2010/aug/30/blackpool-fulham-premier-league", "isHosted": false, "pillarId": "pillar/sport", "pillarName": "Sport"}, {"id": "football/2010/aug/30/blackburn-rovers-arsenal-premier-league", "type": "article", "sectionId": "football", "sectionName": "Football", "webPublicationDate": "2010-08-29T23:06:56Z", "webTitle": "Wenger hails Arsenal's returning 'leader' F\u00e1bregas after Blackburn win", "webUrl": "https://www.theguardian.com/football/2010/aug/30/blackburn-rovers-arsenal-premier-league", "apiUrl": "https://content.guardianapis.com/football/2010/aug/30/blackburn-rovers-arsenal-premier-league", "isHosted": false, "pillarId": "pillar/sport", "pillarName": "Sport"}, {"id": "football/2010/aug/30/chelsea-stoke-city-premier-league", "type": "article", "sectionId": "football", "sectionName": "Football", "webPublicationDate": "2010-08-29T23:06:56Z", "webTitle": "Chelsea 2-0 Stoke City | Premier League match report", "webUrl": "https://www.theguardian.com/football/2010/aug/30/chelsea-stoke-city-premier-league", "apiUrl": "https://content.guardianapis.com/football/2010/aug/30/chelsea-stoke-city-premier-league", "isHosted": false, "pillarId": "pillar/sport", "pillarName": "Sport"}, {"id": "football/2010/aug/30/wolves-newcastle-united-premier-league", "type": "article", "sectionId": "football", "sectionName": "Football", "webPublicationDate": "2010-08-29T23:06:55Z", "webTitle": "Newcastle bully-boy Andy Carroll tipped for England after Wolves goal", "webUrl": "https://www.theguardian.com/football/2010/aug/30/wolves-newcastle-united-premier-league", "apiUrl": "https://content.guardianapis.com/football/2010/aug/30/wolves-newcastle-united-premier-league", "isHosted": false, "pillarId": "pillar/sport", "pillarName": "Sport"}, {"id": "football/2010/aug/30/manchester-united-west-ham-united-premier-league", "type": "article", "sectionId": "football", "sectionName": "Football", "webPublicationDate": "2010-08-29T23:05:58Z", "webTitle": "Manchester United 3-0 West Ham United | Premier League match report", "webUrl": "https://www.theguardian.com/football/2010/aug/30/manchester-united-west-ham-united-premier-league", "apiUrl": "https://content.guardianapis.com/football/2010/aug/30/manchester-united-west-ham-united-premier-league", "isHosted": false, "pillarId": "pillar/sport", "pillarName": "Sport"}, {"id": "football/2010/aug/29/mallorca-real-madrid-la-liga", "type": "article", "sectionId": "football", "sectionName": "Football", "webPublicationDate": "2010-08-29T22:55:00Z", "webTitle": "Real Mallorca 0-0 Real Madrid | La Liga match report", "webUrl": "https://www.theguardian.com/football/2010/aug/29/mallorca-real-madrid-la-liga", "apiUrl": "https://content.guardianapis.com/football/2010/aug/29/mallorca-real-madrid-la-liga", "isHosted": false, "pillarId": "pillar/sport", "pillarName": "Sport"}, {"id": "football/2010/aug/29/leeds-sunderland-premier-league-cup", "type": "article", "sectionId": "football", "sectionName": "Football", "webPublicationDate": "2010-08-29T22:05:00Z", "webTitle": "Leeds kick off defence of Premier League Cup in United form", "webUrl": "https://www.theguardian.com/football/2010/aug/29/leeds-sunderland-premier-league-cup", "apiUrl": "https://content.guardianapis.com/football/2010/aug/29/leeds-sunderland-premier-league-cup", "isHosted": false, "pillarId": "pillar/sport", "pillarName": "Sport"}, {"id": "football/2010/aug/29/aston-villa-everton-premier-league", "type": "article", "sectionId": "football", "sectionName": "Football", "webPublicationDate": "2010-08-29T21:44:01Z", "webTitle": "Aston Villa 1-0 Everton | Premier League match report", "webUrl": "https://www.theguardian.com/football/2010/aug/29/aston-villa-everton-premier-league", "apiUrl": "https://content.guardianapis.com/football/2010/aug/29/aston-villa-everton-premier-league", "isHosted": false, "pillarId": "pillar/sport", "pillarName": "Sport"}, {"id": "football/blog/2010/aug/29/david-pleat-chalkboard-everton-aston-villa", "type": "article", "sectionId": "football", "sectionName": "Football", "webPublicationDate": "2010-08-29T21:37:19Z", "webTitle": "Leighton Baines gives a masterful display in front of Fabio Capello | David Pleat", "webUrl": "https://www.theguardian.com/football/blog/2010/aug/29/david-pleat-chalkboard-everton-aston-villa", "apiUrl": "https://content.guardianapis.com/football/blog/2010/aug/29/david-pleat-chalkboard-everton-aston-villa", "isHosted": false, "pillarId": "pillar/sport", "pillarName": "Sport"}, {"id": "football/2010/aug/29/england-euro-2012-fabio-capello", "type": "article", "sectionId": "football", "sectionName": "Football", "webPublicationDate": "2010-08-29T21:31:00Z", "webTitle": "Fabio Capello forced to fall back on the usual suspects for England", "webUrl": "https://www.theguardian.com/football/2010/aug/29/england-euro-2012-fabio-capello", "apiUrl": "https://content.guardianapis.com/football/2010/aug/29/england-euro-2012-fabio-capello", "isHosted": false, "pillarId": "pillar/sport", "pillarName": "Sport"}, {"id": "football/2010/aug/29/sunderland-manchester-city-premier-league", "type": "article", "sectionId": "football", "sectionName": "Football", "webPublicationDate": "2010-08-29T16:40:25Z", "webTitle": "Sunderland 1-0 Manchester City | Premier League match report", "webUrl": "https://www.theguardian.com/football/2010/aug/29/sunderland-manchester-city-premier-league", "apiUrl": "https://content.guardianapis.com/football/2010/aug/29/sunderland-manchester-city-premier-league", "isHosted": false, "pillarId": "pillar/sport", "pillarName": "Sport"}, {"id": "football/2010/aug/29/liverpool-west-bromwich-albion-premier-league", "type": "article", "sectionId": "football", "sectionName": "Football", "webPublicationDate": "2010-08-29T16:24:03Z", "webTitle": "Liverpool 1-0 West Bromwich Albion | Premier League match report", "webUrl": "https://www.theguardian.com/football/2010/aug/29/liverpool-west-bromwich-albion-premier-league", "apiUrl": "https://content.guardianapis.com/football/2010/aug/29/liverpool-west-bromwich-albion-premier-league", "isHosted": false, "pillarId": "pillar/sport", "pillarName": "Sport"}, {"id": "football/2010/aug/29/bolton-birmingham-city-premier-league", "type": "article", "sectionId": "football", "sectionName": "Football", "webPublicationDate": "2010-08-29T14:56:07Z", "webTitle": "Bolton Wanderers 2-2 Birmingham City | Premier League match report", "webUrl": "https://www.theguardian.com/football/2010/aug/29/bolton-birmingham-city-premier-league", "apiUrl": "https://content.guardianapis.com/football/2010/aug/29/bolton-birmingham-city-premier-league", "isHosted": false, "pillarId": "pillar/sport", "pillarName": "Sport"}, {"id": "football/2010/aug/29/aston-villa-v-everton-live-report", "type": "article", "sectionId": "football", "sectionName": "Football", "webPublicationDate": "2010-08-29T14:29:20Z", "webTitle": "Aston Villa v Everton - as it happened", "webUrl": "https://www.theguardian.com/football/2010/aug/29/aston-villa-v-everton-live-report", "apiUrl": "https://content.guardianapis.com/football/2010/aug/29/aston-villa-v-everton-live-report", "isHosted": false, "pillarId": "pillar/sport", "pillarName": "Sport"}, {"id": "football/2010/aug/29/motherwell-celtic-spl-match-report", "type": "article", "sectionId": "football", "sectionName": "Football", "webPublicationDate": "2010-08-29T13:38:09Z", "webTitle": "Motherwell 0-1 Celtic | Scottish Premier League match report", "webUrl": "https://www.theguardian.com/football/2010/aug/29/motherwell-celtic-spl-match-report", "apiUrl": "https://content.guardianapis.com/football/2010/aug/29/motherwell-celtic-spl-match-report", "isHosted": false, "pillarId": "pillar/sport", "pillarName": "Sport"}]}}