{"response": {"status": "ok", "userTier": "developer", "total": 16699, "startIndex": 1, "pageSize": 50, "currentPage": 1, "pages": 334, "orderBy": "newest", "results": [{"id": "lifeandstyle/wordofmouth/2011/aug/30/how-far-you-go-food", "type": "article", "sectionId": "lifeandstyle", "sectionName": "Life and style", "webPublicationDate": "2011-08-30T09:55:00Z", "webTitle": "How far will you go for a great meal?", "webUrl": "https://www.theguardian.com/lifeandstyle/wordofmouth/2011/aug/30/how-far-you-go-food", "apiUrl": "https://content.guardianapis.com/lifeandstyle/wordofmouth/2011/aug/30/how-far-you-go-food", "isHosted": false, "pillarId": "pillar/lifestyle", "pillarName": "Lifestyle"}, {"id": "lifeandstyle/2011/aug/29/britons-rediscover-taste-for-beer", "type": "article", "sectionId": "food", "sectionName": "Food", "webPublicationDate": "2011-08-29T18:59:00Z", "webTitle": "Cheers! It's a real ale renaissance", "webUrl": "https://www.theguardian.com/lifeandstyle/2011/aug/29/britons-rediscover-taste-for-beer", "apiUrl": "https://content.guardianapis.com/lifeandstyle/2011/aug/29/britons-rediscover-taste-for-beer", "isHosted": false, "pillarId": "pillar/lifestyle", "pillarName": "Lifestyle"}, {"id": "lifeandstyle/2011/aug/29/chocolate-is-good-for-you-study", "type": "article", "sectionId": "food", "sectionName": "Food", "webPublicationDate": "2011-08-29T15:24:25Z", "webTitle": "Chocolate is good for you, declares study (well, sort of)", "webUrl": "https://www.theguardian.com/lifeandstyle/2011/aug/29/chocolate-is-good-for-you-study", "apiUrl": "https://content.guardianapis.com/lifeandstyle/2011/aug/29/chocolate-is-good-for-you-study", "isHosted": false, "pillarId": "pillar/lifestyle", "pillarName": "Lifestyle"}, {"id": "commentisfree/2011/aug/29/pub-games-closures", "type": "article", "sectionId": "commentisfree", "sectionName": "Opinion", "webPublicationDate": "2011-08-29T10:03:58Z", "webTitle": "Pub games \u2013 the lifeblood of the English pub? | Patrick Chaplin", "webUrl": "https://www.theguardian.com/commentisfree/2011/aug/29/pub-games-closures", "apiUrl": "https://content.guardianapis.com/commentisfree/2011/aug/29/pub-games-closures", "isHosted": false, "pillarId": "pillar/opinion", "pillarName": "Opinion"}, {"id": "lifeandstyle/video/2011/aug/29/new-nordic-cuisine-food-foraging-video", "type": "video", "sectionId": "food", "sectionName": "Food", "webPublicationDate": "2011-08-29T06:00:00Z", "webTitle": "New Nordic cuisine: the art of food foraging - video", "webUrl": "https://www.theguardian.com/lifeandstyle/video/2011/aug/29/new-nordic-cuisine-food-foraging-video", "apiUrl": "https://content.guardianapis.com/lifeandstyle/video/2011/aug/29/new-nordic-cuisine-food-foraging-video", "isHosted": false, "pillarId": "pillar/lifestyle", "pillarName": "Lifestyle"}, {"id": "commentisfree/2011/aug/28/history-pineapple-ring-chicken-biriani", "type": "article", "sectionId": "commentisfree", "sectionName": "Opinion", "webPublicationDate": "2011-08-28T21:55:00Z", "webTitle": "The past in a pineapple ring | Peter Preston", "webUrl": "https://www.theguardian.com/commentisfree/2011/aug/28/history-pineapple-ring-chicken-biriani", "apiUrl": "https://content.guardianapis.com/commentisfree/2011/aug/28/history-pineapple-ring-chicken-biriani", "isHosted": false, "pillarId": "pillar/opinion", "pillarName": "Opinion"}, {"id": "lifeandstyle/2011/aug/28/david-williams-wine-of-week", "type": "article", "sectionId": "food", "sectionName": "Food", "webPublicationDate": "2011-08-27T23:05:21Z", "webTitle": "Wine of the week: David Williams", "webUrl": "https://www.theguardian.com/lifeandstyle/2011/aug/28/david-williams-wine-of-week", "apiUrl": "https://content.guardianapis.com/lifeandstyle/2011/aug/28/david-williams-wine-of-week", "isHosted": false, "pillarId": "pillar/lifestyle", "pillarName": "Lifestyle"}, {"id": "lifeandstyle/2011/aug/28/jay-rayner-manchurian-legends-review", "type": "article", "sectionId": "food", "sectionName": "Food", "webPublicationDate": "2011-08-27T23:05:12Z", "webTitle": "Restaurant review: Manchurian Legends", "webUrl": "https://www.theguardian.com/lifeandstyle/2011/aug/28/jay-rayner-manchurian-legends-review", "apiUrl": "https://content.guardianapis.com/lifeandstyle/2011/aug/28/jay-rayner-manchurian-legends-review", "isHosted": false, "pillarId": "pillar/lifestyle", "pillarName": "Lifestyle"}, {"id": "lifeandstyle/2011/aug/27/readers-favourite-photographs-recipes-songs", "type": "article", "sectionId": "lifeandstyle", "sectionName": "Life and style", "webPublicationDate": "2011-08-26T23:04:01Z", "webTitle": "Family life", "webUrl": "https://www.theguardian.com/lifeandstyle/2011/aug/27/readers-favourite-photographs-recipes-songs", "apiUrl": "https://content.guardianapis.com/lifeandstyle/2011/aug/27/readers-favourite-photographs-recipes-songs", "isHosted": false, "pillarId": "pillar/lifestyle", "pillarName": "Lifestyle"}, {"id": "money/2011/aug/26/working-life-ice-cream-maker", "type": "article", "sectionId": "money", "sectionName": "Money", "webPublicationDate": "2011-08-26T22:01:25Z", "webTitle": "A working life: the ice-cream maker", "webUrl": "https://www.theguardian.com/money/2011/aug/26/working-life-ice-cream-maker", "apiUrl": "https://content.guardianapis.com/money/2011/aug/26/working-life-ice-cream-maker", "isHosted": false, "pillarId": "pillar/lifestyle", "pillarName": "Lifestyle"}, {"id": "lifeandstyle/2011/aug/26/vegetarian-wine-review", "type": "article", "sectionId": "food", "sectionName": "Food", "webPublicationDate": "2011-08-26T22:01:00Z", "webTitle": "Wine: the veggie options", "webUrl": "https://www.theguardian.com/lifeandstyle/2011/aug/26/vegetarian-wine-review", "apiUrl": "https://content.guardianapis.com/lifeandstyle/2011/aug/26/vegetarian-wine-review", "isHosted": false, "pillarId": "pillar/lifestyle", "pillarName": "Lifestyle"}, {"id": "lifeandstyle/2011/aug/26/hugh-fearnley-whittingstall-vegetables", "type": "article", "sectionId": "food", "sectionName": "Food", "webPublicationDate": "2011-08-26T22:00:00Z", "webTitle": "Hugh Fearnley-Whittingstall: the joy of veg", "webUrl": "https://www.theguardian.com/lifeandstyle/2011/aug/26/hugh-fearnley-whittingstall-vegetables", "apiUrl": "https://content.guardianapis.com/lifeandstyle/2011/aug/26/hugh-fearnley-whittingstall-vegetables", "isHosted": false, "pillarId": "pillar/lifestyle", "pillarName": "Lifestyle"}, {"id": "lifeandstyle/2011/aug/26/pan-hob-grill-bean-sprouts-safe", "type": "article", "sectionId": "lifeandstyle", "sectionName": "Life and style", "webPublicationDate": "2011-08-26T21:59:16Z", "webTitle": "Food for Fort: On omelette pans and bean sprouts", "webUrl": "https://www.theguardian.com/lifeandstyle/2011/aug/26/pan-hob-grill-bean-sprouts-safe", "apiUrl": "https://content.guardianapis.com/lifeandstyle/2011/aug/26/pan-hob-grill-bean-sprouts-safe", "isHosted": false, "pillarId": "pillar/lifestyle", "pillarName": "Lifestyle"}, {"id": "lifeandstyle/2011/aug/26/nectarine-strudel-recipe-dan-lepard", "type": "article", "sectionId": "lifeandstyle", "sectionName": "Life and style", "webPublicationDate": "2011-08-26T21:59:07Z", "webTitle": "Nectarine strudel recipe | Dan Lepard", "webUrl": "https://www.theguardian.com/lifeandstyle/2011/aug/26/nectarine-strudel-recipe-dan-lepard", "apiUrl": "https://content.guardianapis.com/lifeandstyle/2011/aug/26/nectarine-strudel-recipe-dan-lepard", "isHosted": false, "pillarId": "pillar/lifestyle", "pillarName": "Lifestyle"}, {"id": "lifeandstyle/2011/aug/26/rocksalt-folkestone-kent-restaurant-review", "type": "article", "sectionId": "food", "sectionName": "Food", "webPublicationDate": "2011-08-26T21:59:05Z", "webTitle": "Restaurant: Rocksalt, Folkestone", "webUrl": "https://www.theguardian.com/lifeandstyle/2011/aug/26/rocksalt-folkestone-kent-restaurant-review", "apiUrl": "https://content.guardianapis.com/lifeandstyle/2011/aug/26/rocksalt-folkestone-kent-restaurant-review", "isHosted": false, "pillarId": "pillar/lifestyle", "pillarName": "Lifestyle"}, {"id": "lifeandstyle/2011/aug/26/fish-ceviche-fried-peppers-recipes", "type": "article", "sectionId": "food", "sectionName": "Food", "webPublicationDate": "2011-08-26T21:59:01Z", "webTitle": "White fish, grapefruit and fennel ceviche, plus fried piquillo peppers recipe | Yotam Ottolenghi", "webUrl": "https://www.theguardian.com/lifeandstyle/2011/aug/26/fish-ceviche-fried-peppers-recipes", "apiUrl": "https://content.guardianapis.com/lifeandstyle/2011/aug/26/fish-ceviche-fried-peppers-recipes", "isHosted": false, "pillarId": "pillar/lifestyle", "pillarName": "Lifestyle"}, {"id": "travel/2011/aug/26/dewsall-court-pop-up-hotel-review", "type": "article", "sectionId": "travel", "sectionName": "Travel", "webPublicationDate": "2011-08-26T21:45:00Z", "webTitle": "Hotel review: Dewsall Court, Callow, Herefordshire", "webUrl": "https://www.theguardian.com/travel/2011/aug/26/dewsall-court-pop-up-hotel-review", "apiUrl": "https://content.guardianapis.com/travel/2011/aug/26/dewsall-court-pop-up-hotel-review", "isHosted": false, "pillarId": "pillar/lifestyle", "pillarName": "Lifestyle"}, {"id": "business/2011/aug/26/british-english-uk-wines-confuse", "type": "article", "sectionId": "business", "sectionName": "Business", "webPublicationDate": "2011-08-26T21:09:09Z", "webTitle": "British or English? UK wines confuse consumers", "webUrl": "https://www.theguardian.com/business/2011/aug/26/british-english-uk-wines-confuse", "apiUrl": "https://content.guardianapis.com/business/2011/aug/26/british-english-uk-wines-confuse", "isHosted": false, "pillarId": "pillar/news", "pillarName": "News"}, {"id": "lifeandstyle/2011/aug/26/dominos-gourmet-v-pizza-express", "type": "article", "sectionId": "food", "sectionName": "Food", "webPublicationDate": "2011-08-26T14:20:00Z", "webTitle": "Domino's 'gourmet' v Pizza Express pizzas", "webUrl": "https://www.theguardian.com/lifeandstyle/2011/aug/26/dominos-gourmet-v-pizza-express", "apiUrl": "https://content.guardianapis.com/lifeandstyle/2011/aug/26/dominos-gourmet-v-pizza-express", "isHosted": false, "pillarId": "pillar/lifestyle", "pillarName": "Lifestyle"}, {"id": "lifeandstyle/wordofmouth/2011/aug/26/fast-food-goes-gourmet", "type": "article", "sectionId": "food", "sectionName": "Food", "webPublicationDate": "2011-08-26T10:10:00Z", "webTitle": "Fast food goes gourmet", "webUrl": "https://www.theguardian.com/lifeandstyle/wordofmouth/2011/aug/26/fast-food-goes-gourmet", "apiUrl": "https://content.guardianapis.com/lifeandstyle/wordofmouth/2011/aug/26/fast-food-goes-gourmet", "isHosted": false, "pillarId": "pillar/lifestyle", "pillarName": "Lifestyle"}, {"id": "business/2011/aug/25/guinness-sales-fall-in-ireland-prompts-job-fears", "type": "article", "sectionId": "business", "sectionName": "Business", "webPublicationDate": "2011-08-25T11:37:03Z", "webTitle": "Obama effect fails to lift Irish Guinness sales", "webUrl": "https://www.theguardian.com/business/2011/aug/25/guinness-sales-fall-in-ireland-prompts-job-fears", "apiUrl": "https://content.guardianapis.com/business/2011/aug/25/guinness-sales-fall-in-ireland-prompts-job-fears", "isHosted": false, "pillarId": "pillar/news", "pillarName": "News"}, {"id": "commentisfree/video/2011/aug/25/david-mitchell-soapbox-drinking-culture-video", "type": "video", "sectionId": "commentisfree", "sectionName": "Opinion", "webPublicationDate": "2011-08-25T10:45:00Z", "webTitle": "David Mitchell's Soapbox: drinking culture - video", "webUrl": "https://www.theguardian.com/commentisfree/video/2011/aug/25/david-mitchell-soapbox-drinking-culture-video", "apiUrl": "https://content.guardianapis.com/commentisfree/video/2011/aug/25/david-mitchell-soapbox-drinking-culture-video", "isHosted": false, "pillarId": "pillar/opinion", "pillarName": "Opinion"}, {"id": "environment/damian-carrington-blog/2011/aug/25/food-price-arab-middle-east-protests", "type": "article", "sectionId": "environment", "sectionName": "Environment", "webPublicationDate": "2011-08-25T06:00:00Z", "webTitle": "Are food prices approaching a violent tipping point? | Damian Carrington", "webUrl": "https://www.theguardian.com/environment/damian-carrington-blog/2011/aug/25/food-price-arab-middle-east-protests", "apiUrl": "https://content.guardianapis.com/environment/damian-carrington-blog/2011/aug/25/food-price-arab-middle-east-protests", "isHosted": false, "pillarId": "pillar/news", "pillarName": "News"}, {"id": "lifeandstyle/wordofmouth/2011/aug/25/how-to-make-perfect-panna-cotta", "type": "article", "sectionId": "food", "sectionName": "Food", "webPublicationDate": "2011-08-25T06:00:00Z", "webTitle": "How to cook perfect panna cotta", "webUrl": "https://www.theguardian.com/lifeandstyle/wordofmouth/2011/aug/25/how-to-make-perfect-panna-cotta", "apiUrl": "https://content.guardianapis.com/lifeandstyle/wordofmouth/2011/aug/25/how-to-make-perfect-panna-cotta", "isHosted": false, "pillarId": "pillar/lifestyle", "pillarName": "Lifestyle"}, {"id": "lifeandstyle/2011/aug/24/gin-tonic-cocktail-bars", "type": "article", "sectionId": "food", "sectionName": "Food", "webPublicationDate": "2011-08-24T19:00:00Z", "webTitle": "Mixing up the gin and tonic", "webUrl": "https://www.theguardian.com/lifeandstyle/2011/aug/24/gin-tonic-cocktail-bars", "apiUrl": "https://content.guardianapis.com/lifeandstyle/2011/aug/24/gin-tonic-cocktail-bars", "isHosted": false, "pillarId": "pillar/lifestyle", "pillarName": "Lifestyle"}, {"id": "lifeandstyle/2011/aug/24/angela-hartnett-spaghetti-puttanesca-recipe", "type": "article", "sectionId": "food", "sectionName": "Food", "webPublicationDate": "2011-08-24T14:54:00Z", "webTitle": "Spaghetti alla puttanesca recipe | Angela Hartnett", "webUrl": "https://www.theguardian.com/lifeandstyle/2011/aug/24/angela-hartnett-spaghetti-puttanesca-recipe", "apiUrl": "https://content.guardianapis.com/lifeandstyle/2011/aug/24/angela-hartnett-spaghetti-puttanesca-recipe", "isHosted": false, "pillarId": "pillar/lifestyle", "pillarName": "Lifestyle"}, {"id": "lifeandstyle/wordofmouth/2011/aug/24/alex-james-plastic-cheese-punk", "type": "article", "sectionId": "food", "sectionName": "Food", "webPublicationDate": "2011-08-24T11:20:00Z", "webTitle": "Alex James: plastic cheese punk", "webUrl": "https://www.theguardian.com/lifeandstyle/wordofmouth/2011/aug/24/alex-james-plastic-cheese-punk", "apiUrl": "https://content.guardianapis.com/lifeandstyle/wordofmouth/2011/aug/24/alex-james-plastic-cheese-punk", "isHosted": false, "pillarId": "pillar/lifestyle", "pillarName": "Lifestyle"}, {"id": "lifeandstyle/wordofmouth/2011/aug/23/people-at-the-next-table", "type": "article", "sectionId": "food", "sectionName": "Food", "webPublicationDate": "2011-08-23T08:30:00Z", "webTitle": "The people at the next table", "webUrl": "https://www.theguardian.com/lifeandstyle/wordofmouth/2011/aug/23/people-at-the-next-table", "apiUrl": "https://content.guardianapis.com/lifeandstyle/wordofmouth/2011/aug/23/people-at-the-next-table", "isHosted": false, "pillarId": "pillar/lifestyle", "pillarName": "Lifestyle"}, {"id": "world/2011/aug/23/south-african-wine-industry-misery", "type": "article", "sectionId": "world", "sectionName": "World news", "webPublicationDate": "2011-08-23T07:29:00Z", "webTitle": "South African wine industry rooted in human misery, says report", "webUrl": "https://www.theguardian.com/world/2011/aug/23/south-african-wine-industry-misery", "apiUrl": "https://content.guardianapis.com/world/2011/aug/23/south-african-wine-industry-misery", "isHosted": false, "pillarId": "pillar/news", "pillarName": "News"}, {"id": "lifeandstyle/2011/aug/22/should-i-give-up-fizzy-drinks", "type": "article", "sectionId": "lifeandstyle", "sectionName": "Life and style", "webPublicationDate": "2011-08-22T20:00:00Z", "webTitle": "Dr Dillner's health dilemmas: should I give up fizzy drinks?", "webUrl": "https://www.theguardian.com/lifeandstyle/2011/aug/22/should-i-give-up-fizzy-drinks", "apiUrl": "https://content.guardianapis.com/lifeandstyle/2011/aug/22/should-i-give-up-fizzy-drinks", "isHosted": false, "pillarId": "pillar/lifestyle", "pillarName": "Lifestyle"}, {"id": "science/2011/aug/22/cooking-origins-homo-erectus", "type": "article", "sectionId": "science", "sectionName": "Science", "webPublicationDate": "2011-08-22T19:02:00Z", "webTitle": "Cooking may be 1.9m years old, say scientists", "webUrl": "https://www.theguardian.com/science/2011/aug/22/cooking-origins-homo-erectus", "apiUrl": "https://content.guardianapis.com/science/2011/aug/22/cooking-origins-homo-erectus", "isHosted": false, "pillarId": "pillar/news", "pillarName": "News"}, {"id": "world/2011/aug/22/russians-bill-sardinia-billionaire-nightclub", "type": "article", "sectionId": "world", "sectionName": "World news", "webPublicationDate": "2011-08-22T17:30:19Z", "webTitle": "Russians dodge \u00a375,000 bill at Sardinia's Billionaire nightclub", "webUrl": "https://www.theguardian.com/world/2011/aug/22/russians-bill-sardinia-billionaire-nightclub", "apiUrl": "https://content.guardianapis.com/world/2011/aug/22/russians-bill-sardinia-billionaire-nightclub", "isHosted": false, "pillarId": "pillar/news", "pillarName": "News"}, {"id": "lifeandstyle/video/2011/aug/22/strawberry-white-chocolate-tart-video", "type": "video", "sectionId": "food", "sectionName": "Food", "webPublicationDate": "2011-08-22T08:56:00Z", "webTitle": "How to cook strawberry cheesecake tart - video", "webUrl": "https://www.theguardian.com/lifeandstyle/video/2011/aug/22/strawberry-white-chocolate-tart-video", "apiUrl": "https://content.guardianapis.com/lifeandstyle/video/2011/aug/22/strawberry-white-chocolate-tart-video", "isHosted": false, "pillarId": "pillar/lifestyle", "pillarName": "Lifestyle"}, {"id": "society/2011/aug/21/us-craft-beers-take-off", "type": "article", "sectionId": "society", "sectionName": "Society", "webPublicationDate": "2011-08-20T23:06:35Z", "webTitle": "After real ale, brewers cash in on trend for 'real lagers'", "webUrl": "https://www.theguardian.com/society/2011/aug/21/us-craft-beers-take-off", "apiUrl": "https://content.guardianapis.com/society/2011/aug/21/us-craft-beers-take-off", "isHosted": false, "pillarId": "pillar/news", "pillarName": "News"}, {"id": "lifeandstyle/2011/aug/21/hand-and-flowers-allan-jenkins", "type": "article", "sectionId": "food", "sectionName": "Food", "webPublicationDate": "2011-08-20T23:03:00Z", "webTitle": "Restaurant review: Hand & Flowers", "webUrl": "https://www.theguardian.com/lifeandstyle/2011/aug/21/hand-and-flowers-allan-jenkins", "apiUrl": "https://content.guardianapis.com/lifeandstyle/2011/aug/21/hand-and-flowers-allan-jenkins", "isHosted": false, "pillarId": "pillar/lifestyle", "pillarName": "Lifestyle"}, {"id": "lifeandstyle/cartoon/2011/aug/20/berger-and-wyse", "type": "picture", "sectionId": "lifeandstyle", "sectionName": "Life and style", "webPublicationDate": "2011-08-20T02:00:00Z", "webTitle": "Berger & Wyse", "webUrl": "https://www.theguardian.com/lifeandstyle/cartoon/2011/aug/20/berger-and-wyse", "apiUrl": "https://content.guardianapis.com/lifeandstyle/cartoon/2011/aug/20/berger-and-wyse", "isHosted": false, "pillarId": "pillar/lifestyle", "pillarName": "Lifestyle"}, {"id": "lifeandstyle/2011/aug/19/british-beer-review-breweries-ipa", "type": "article", "sectionId": "food", "sectionName": "Food", "webPublicationDate": "2011-08-19T22:00:00Z", "webTitle": "Beer: ale and hearty \u2013 the best of British", "webUrl": "https://www.theguardian.com/lifeandstyle/2011/aug/19/british-beer-review-breweries-ipa", "apiUrl": "https://content.guardianapis.com/lifeandstyle/2011/aug/19/british-beer-review-breweries-ipa", "isHosted": false, "pillarId": "pillar/lifestyle", "pillarName": "Lifestyle"}, {"id": "lifeandstyle/2011/aug/19/salted-capers-just-dug-potatoes", "type": "article", "sectionId": "lifeandstyle", "sectionName": "Life and style", "webPublicationDate": "2011-08-19T21:59:18Z", "webTitle": "Food for Fort: On salted capers and cooking fresh-dug potatoes | Matthew Fort", "webUrl": "https://www.theguardian.com/lifeandstyle/2011/aug/19/salted-capers-just-dug-potatoes", "apiUrl": "https://content.guardianapis.com/lifeandstyle/2011/aug/19/salted-capers-just-dug-potatoes", "isHosted": false, "pillarId": "pillar/lifestyle", "pillarName": "Lifestyle"}, {"id": "lifeandstyle/2011/aug/19/sweet-potato-brownies-recipe-lepard", "type": "article", "sectionId": "lifeandstyle", "sectionName": "Life and style", "webPublicationDate": "2011-08-19T21:59:15Z", "webTitle": "Sweet potato brownies recipe | Dan Lepard", "webUrl": "https://www.theguardian.com/lifeandstyle/2011/aug/19/sweet-potato-brownies-recipe-lepard", "apiUrl": "https://content.guardianapis.com/lifeandstyle/2011/aug/19/sweet-potato-brownies-recipe-lepard", "isHosted": false, "pillarId": "pillar/lifestyle", "pillarName": "Lifestyle"}, {"id": "lifeandstyle/2011/aug/19/the-honours-edinburgh-restaurant-review", "type": "article", "sectionId": "food", "sectionName": "Food", "webPublicationDate": "2011-08-19T21:59:03Z", "webTitle": "Restaurant: The Honours, Edinburgh | Joanna Blythman", "webUrl": "https://www.theguardian.com/lifeandstyle/2011/aug/19/the-honours-edinburgh-restaurant-review", "apiUrl": "https://content.guardianapis.com/lifeandstyle/2011/aug/19/the-honours-edinburgh-restaurant-review", "isHosted": false, "pillarId": "pillar/lifestyle", "pillarName": "Lifestyle"}, {"id": "lifeandstyle/2011/aug/19/courgette-recipes-yotam-ottolenghi", "type": "article", "sectionId": "food", "sectionName": "Food", "webPublicationDate": "2011-08-19T21:59:02Z", "webTitle": "Courgette recipes | Yotam Ottolenghi", "webUrl": "https://www.theguardian.com/lifeandstyle/2011/aug/19/courgette-recipes-yotam-ottolenghi", "apiUrl": "https://content.guardianapis.com/lifeandstyle/2011/aug/19/courgette-recipes-yotam-ottolenghi", "isHosted": false, "pillarId": "pillar/lifestyle", "pillarName": "Lifestyle"}, {"id": "travel/2011/aug/19/bogota-colombia-city-restaurants", "type": "article", "sectionId": "travel", "sectionName": "Travel", "webPublicationDate": "2011-08-19T21:45:03Z", "webTitle": "Bogot\u00e1's age of rediscovery", "webUrl": "https://www.theguardian.com/travel/2011/aug/19/bogota-colombia-city-restaurants", "apiUrl": "https://content.guardianapis.com/travel/2011/aug/19/bogota-colombia-city-restaurants", "isHosted": false, "pillarId": "pillar/lifestyle", "pillarName": "Lifestyle"}, {"id": "lifeandstyle/wordofmouth/2011/aug/19/return-of-the-homemade-cocktail", "type": "article", "sectionId": "food", "sectionName": "Food", "webPublicationDate": "2011-08-19T10:46:00Z", "webTitle": "Return of the homemade cocktail", "webUrl": "https://www.theguardian.com/lifeandstyle/wordofmouth/2011/aug/19/return-of-the-homemade-cocktail", "apiUrl": "https://content.guardianapis.com/lifeandstyle/wordofmouth/2011/aug/19/return-of-the-homemade-cocktail", "isHosted": false, "pillarId": "pillar/lifestyle", "pillarName": "Lifestyle"}, {"id": "lifeandstyle/wordofmouth/2011/aug/19/budget-eats-swansea", "type": "article", "sectionId": "lifeandstyle", "sectionName": "Life and style", "webPublicationDate": "2011-08-19T09:00:00Z", "webTitle": "Budget eats: taking a bite out of Swansea Bay", "webUrl": "https://www.theguardian.com/lifeandstyle/wordofmouth/2011/aug/19/budget-eats-swansea", "apiUrl": "https://content.guardianapis.com/lifeandstyle/wordofmouth/2011/aug/19/budget-eats-swansea", "isHosted": false, "pillarId": "pillar/lifestyle", "pillarName": "Lifestyle"}, {"id": "travel/2011/aug/19/swansea-top-10-budget-eats", "type": "article", "sectionId": "travel", "sectionName": "Travel", "webPublicationDate": "2011-08-19T05:00:00Z", "webTitle": "Swansea's top 10 budget eats", "webUrl": "https://www.theguardian.com/travel/2011/aug/19/swansea-top-10-budget-eats", "apiUrl": "https://content.guardianapis.com/travel/2011/aug/19/swansea-top-10-budget-eats", "isHosted": false, "pillarId": "pillar/lifestyle", "pillarName": "Lifestyle"}, {"id": "lifeandstyle/2011/aug/18/how-to-cook-perfect-paella", "type": "article", "sectionId": "food", "sectionName": "Food", "webPublicationDate": "2011-08-18T06:02:00Z", "webTitle": "How to cook the perfect paella", "webUrl": "https://www.theguardian.com/lifeandstyle/2011/aug/18/how-to-cook-perfect-paella", "apiUrl": "https://content.guardianapis.com/lifeandstyle/2011/aug/18/how-to-cook-perfect-paella", "isHosted": false, "pillarId": "pillar/lifestyle", "pillarName": "Lifestyle"}, {"id": "lifeandstyle/2011/aug/17/sea-bream-ceviche-recipe", "type": "article", "sectionId": "lifeandstyle", "sectionName": "Life and style", "webPublicationDate": "2011-08-17T18:01:00Z", "webTitle": "Sea bream ceviche recipe | Angela Hartnett", "webUrl": "https://www.theguardian.com/lifeandstyle/2011/aug/17/sea-bream-ceviche-recipe", "apiUrl": "https://content.guardianapis.com/lifeandstyle/2011/aug/17/sea-bream-ceviche-recipe", "isHosted": false, "pillarId": "pillar/lifestyle", "pillarName": "Lifestyle"}, {"id": "lifeandstyle/wordofmouth/2011/aug/17/butchers-return-high-street-independent", "type": "article", "sectionId": "lifeandstyle", "sectionName": "Life and style", "webPublicationDate": "2011-08-17T15:27:00Z", "webTitle": "Bringing home the bacon: could butchers come back to the high street?", "webUrl": "https://www.theguardian.com/lifeandstyle/wordofmouth/2011/aug/17/butchers-return-high-street-independent", "apiUrl": "https://content.guardianapis.com/lifeandstyle/wordofmouth/2011/aug/17/butchers-return-high-street-independent", "isHosted": false, "pillarId": "pillar/lifestyle", "pillarName": "Lifestyle"}, {"id": "lifeandstyle/2011/aug/17/new-butchers-revitalising-high-street", "type": "article", "sectionId": "food", "sectionName": "Food", "webPublicationDate": "2011-08-17T15:00:00Z", "webTitle": "A new breed of butcher's is revitalising the high street", "webUrl": "https://www.theguardian.com/lifeandstyle/2011/aug/17/new-butchers-revitalising-high-street", "apiUrl": "https://content.guardianapis.com/lifeandstyle/2011/aug/17/new-butchers-revitalising-high-street", "isHosted": false, "pillarId": "pillar/lifestyle", "pillarName": "Lifestyle"}, {"id": "world/2011/aug/17/insect-snacks-eu-safety-tests", "type": "article", "sectionId": "world", "sectionName": "World news", "webPublicationDate": "2011-08-17T12:58:07Z", "webTitle": "Insect snacks to undergo EU safety tests", "webUrl": "https://www.theguardian.com/world/2011/aug/17/insect-snacks-eu-safety-tests", "apiUrl": "https://content.guardianapis.com/world/2011/aug/17/insect-snacks-eu-safety-tests", "isHosted": false, "pillarId": "pillar/news", "pillarName": "News"}]}}