{"response": {"status": "ok", "userTier": "developer", "total": 94227, "startIndex": 1, "pageSize": 50, "currentPage": 1, "pages": 1885, "orderBy": "newest", "results": [{"id": "football/2015/aug/29/you-are-the-ref-paul-trevillion", "type": "article", "sectionId": "football", "sectionName": "Football", "webPublicationDate": "2015-08-30T23:05:00Z", "webTitle": "You are the Ref No337: Claudio Ranieri", "webUrl": "https://www.theguardian.com/football/2015/aug/29/you-are-the-ref-paul-trevillion", "apiUrl": "https://content.guardianapis.com/football/2015/aug/29/you-are-the-ref-paul-trevillion", "isHosted": false, "pillarId": "pillar/sport", "pillarName": "Sport"}, {"id": "football/2015/aug/30/eddie-howe-bournemouth-passing-principles-late-slip", "type": "article", "sectionId": "football", "sectionName": "Football", "webPublicationDate": "2015-08-30T22:03:00Z", "webTitle": "Eddie Howe sticks to Bournemouth\u2019s passing principles despite costly late slip", "webUrl": "https://www.theguardian.com/football/2015/aug/30/eddie-howe-bournemouth-passing-principles-late-slip", "apiUrl": "https://content.guardianapis.com/football/2015/aug/30/eddie-howe-bournemouth-passing-principles-late-slip", "isHosted": false, "pillarId": "pillar/sport", "pillarName": "Sport"}, {"id": "football/2015/aug/30/arsenal-wenger-newcastle-mcclaren-aleksander-mitrovic-theo-walcott-need-strikers", "type": "article", "sectionId": "football", "sectionName": "Football", "webPublicationDate": "2015-08-30T21:54:00Z", "webTitle": "Arsenal\u2019s Wenger and Newcastle\u2019s McClaren need strikers, and quickly", "webUrl": "https://www.theguardian.com/football/2015/aug/30/arsenal-wenger-newcastle-mcclaren-aleksander-mitrovic-theo-walcott-need-strikers", "apiUrl": "https://content.guardianapis.com/football/2015/aug/30/arsenal-wenger-newcastle-mcclaren-aleksander-mitrovic-theo-walcott-need-strikers", "isHosted": false, "pillarId": "pillar/sport", "pillarName": "Sport"}, {"id": "football/2015/aug/30/chelsea-crystal-palace-energy-conviction-motivation", "type": "article", "sectionId": "football", "sectionName": "Football", "webPublicationDate": "2015-08-30T21:47:00Z", "webTitle": "Chelsea shortcomings exposed by energy and motivation of Crystal Palace", "webUrl": "https://www.theguardian.com/football/2015/aug/30/chelsea-crystal-palace-energy-conviction-motivation", "apiUrl": "https://content.guardianapis.com/football/2015/aug/30/chelsea-crystal-palace-energy-conviction-motivation", "isHosted": false, "pillarId": "pillar/sport", "pillarName": "Sport"}, {"id": "football/2015/aug/30/tim-sherwood-aston-villa-gabriel-agbonlahor-sunderland", "type": "article", "sectionId": "football", "sectionName": "Football", "webPublicationDate": "2015-08-30T21:36:00Z", "webTitle": "Tim Sherwood urges Aston Villa\u2019s Gabriel Agbonlahor to show bottle", "webUrl": "https://www.theguardian.com/football/2015/aug/30/tim-sherwood-aston-villa-gabriel-agbonlahor-sunderland", "apiUrl": "https://content.guardianapis.com/football/2015/aug/30/tim-sherwood-aston-villa-gabriel-agbonlahor-sunderland", "isHosted": false, "pillarId": "pillar/sport", "pillarName": "Sport"}, {"id": "football/2015/aug/30/west-ham-liverpool-dejan-lovren-slaven-bilic", "type": "article", "sectionId": "football", "sectionName": "Football", "webPublicationDate": "2015-08-30T21:30:17Z", "webTitle": "West Ham\u2019s win over Liverpool not down to Dejan Lovren, says Slaven Bilic", "webUrl": "https://www.theguardian.com/football/2015/aug/30/west-ham-liverpool-dejan-lovren-slaven-bilic", "apiUrl": "https://content.guardianapis.com/football/2015/aug/30/west-ham-liverpool-dejan-lovren-slaven-bilic", "isHosted": false, "pillarId": "pillar/sport", "pillarName": "Sport"}, {"id": "football/2015/aug/30/tony-pulis-west-brom-jonny-evans-stoke", "type": "article", "sectionId": "football", "sectionName": "Football", "webPublicationDate": "2015-08-30T21:30:17Z", "webTitle": "West Brom\u2019s Tony Pulis sees patience rewarded after Stoke see red", "webUrl": "https://www.theguardian.com/football/2015/aug/30/tony-pulis-west-brom-jonny-evans-stoke", "apiUrl": "https://content.guardianapis.com/football/2015/aug/30/tony-pulis-west-brom-jonny-evans-stoke", "isHosted": false, "pillarId": "pillar/sport", "pillarName": "Sport"}, {"id": "football/2015/aug/30/manuel-pellegrini-manchester-city-raheem-sterling", "type": "article", "sectionId": "football", "sectionName": "Football", "webPublicationDate": "2015-08-30T21:30:17Z", "webTitle": "Manuel Pellegrini looking relaxed at record-breaking Manchester City", "webUrl": "https://www.theguardian.com/football/2015/aug/30/manuel-pellegrini-manchester-city-raheem-sterling", "apiUrl": "https://content.guardianapis.com/football/2015/aug/30/manuel-pellegrini-manchester-city-raheem-sterling", "isHosted": false, "pillarId": "pillar/sport", "pillarName": "Sport"}, {"id": "football/football-league-blog/2015/aug/30/hartlepool-united-carlisle-united-league-two", "type": "article", "sectionId": "football", "sectionName": "Football", "webPublicationDate": "2015-08-30T21:30:17Z", "webTitle": "Hartlepool\u2019s August optimism dented by un-neighbourly Carlisle United | Jeremy Alexander", "webUrl": "https://www.theguardian.com/football/football-league-blog/2015/aug/30/hartlepool-united-carlisle-united-league-two", "apiUrl": "https://content.guardianapis.com/football/football-league-blog/2015/aug/30/hartlepool-united-carlisle-united-league-two", "isHosted": false, "pillarId": "pillar/sport", "pillarName": "Sport"}, {"id": "football/2015/aug/30/jose-mourinho-chelsea-changes", "type": "article", "sectionId": "football", "sectionName": "Football", "webPublicationDate": "2015-08-30T21:30:16Z", "webTitle": "Jos\u00e9 Mourinho tells Chelsea players medals should motivate them", "webUrl": "https://www.theguardian.com/football/2015/aug/30/jose-mourinho-chelsea-changes", "apiUrl": "https://content.guardianapis.com/football/2015/aug/30/jose-mourinho-chelsea-changes", "isHosted": false, "pillarId": "pillar/sport", "pillarName": "Sport"}, {"id": "football/2015/aug/30/vincent-kompany-kevin-de-bruyne-manchester-city", "type": "article", "sectionId": "football", "sectionName": "Football", "webPublicationDate": "2015-08-30T21:29:16Z", "webTitle": "Vincent Kompany hails City signing Kevin De Bruyne as a \u2018game-changer\u2019", "webUrl": "https://www.theguardian.com/football/2015/aug/30/vincent-kompany-kevin-de-bruyne-manchester-city", "apiUrl": "https://content.guardianapis.com/football/2015/aug/30/vincent-kompany-kevin-de-bruyne-manchester-city", "isHosted": false, "pillarId": "pillar/sport", "pillarName": "Sport"}, {"id": "football/2015/aug/30/roberto-martinez-everton-john-stones-chelsea", "type": "article", "sectionId": "football", "sectionName": "Football", "webPublicationDate": "2015-08-30T21:29:16Z", "webTitle": "Roberto Mart\u00ednez says John Stones a \u2018true Evertonian\u2019 after Spurs draw", "webUrl": "https://www.theguardian.com/football/2015/aug/30/roberto-martinez-everton-john-stones-chelsea", "apiUrl": "https://content.guardianapis.com/football/2015/aug/30/roberto-martinez-everton-john-stones-chelsea", "isHosted": false, "pillarId": "pillar/sport", "pillarName": "Sport"}, {"id": "football/live/2015/aug/30/monaco-v-psg-ligue-1-live", "type": "liveblog", "sectionId": "football", "sectionName": "Football", "webPublicationDate": "2015-08-30T21:00:55Z", "webTitle": "Monaco v PSG: Ligue 1 \u2013 as it happened", "webUrl": "https://www.theguardian.com/football/live/2015/aug/30/monaco-v-psg-ligue-1-live", "apiUrl": "https://content.guardianapis.com/football/live/2015/aug/30/monaco-v-psg-ligue-1-live", "isHosted": false, "pillarId": "pillar/sport", "pillarName": "Sport"}, {"id": "football/2015/aug/30/jonjo-shelvey-england-euro-2016-jamie-vardy-roy-hodgson-san-marino-switzerland", "type": "article", "sectionId": "football", "sectionName": "Football", "webPublicationDate": "2015-08-30T19:53:17Z", "webTitle": "Jonjo Shelvey is recalled to England squad for Euro 2016 qualifiers", "webUrl": "https://www.theguardian.com/football/2015/aug/30/jonjo-shelvey-england-euro-2016-jamie-vardy-roy-hodgson-san-marino-switzerland", "apiUrl": "https://content.guardianapis.com/football/2015/aug/30/jonjo-shelvey-england-euro-2016-jamie-vardy-roy-hodgson-san-marino-switzerland", "isHosted": false, "pillarId": "pillar/sport", "pillarName": "Sport"}, {"id": "football/2015/aug/30/louis-van-gaal-sergio-romero-swansea-goalkeeper", "type": "article", "sectionId": "football", "sectionName": "Football", "webPublicationDate": "2015-08-30T19:39:52Z", "webTitle": "Louis van Gaal refuses to blame Sergio Romero for Swansea defeat", "webUrl": "https://www.theguardian.com/football/2015/aug/30/louis-van-gaal-sergio-romero-swansea-goalkeeper", "apiUrl": "https://content.guardianapis.com/football/2015/aug/30/louis-van-gaal-sergio-romero-swansea-goalkeeper", "isHosted": false, "pillarId": "pillar/sport", "pillarName": "Sport"}, {"id": "football/2015/aug/30/tim-howard-makes-usa-return-for-brazil-and-peru-friendlies", "type": "article", "sectionId": "football", "sectionName": "Football", "webPublicationDate": "2015-08-30T19:25:07Z", "webTitle": "Tim Howard makes USA return for Brazil and Peru friendlies", "webUrl": "https://www.theguardian.com/football/2015/aug/30/tim-howard-makes-usa-return-for-brazil-and-peru-friendlies", "apiUrl": "https://content.guardianapis.com/football/2015/aug/30/tim-howard-makes-usa-return-for-brazil-and-peru-friendlies", "isHosted": false, "pillarId": "pillar/sport", "pillarName": "Sport"}, {"id": "football/live/2015/aug/30/roma-v-juventus-serie-a-live", "type": "liveblog", "sectionId": "football", "sectionName": "Football", "webPublicationDate": "2015-08-30T17:57:27Z", "webTitle": "Roma 2-1 Juventus: Serie A \u2013 as it happened!", "webUrl": "https://www.theguardian.com/football/live/2015/aug/30/roma-v-juventus-serie-a-live", "apiUrl": "https://content.guardianapis.com/football/live/2015/aug/30/roma-v-juventus-serie-a-live", "isHosted": false, "pillarId": "pillar/sport", "pillarName": "Sport"}, {"id": "football/2015/aug/30/swansea-city-manchester-united-premier-league-report", "type": "article", "sectionId": "football", "sectionName": "Football", "webPublicationDate": "2015-08-30T17:04:21Z", "webTitle": "Swansea stun Manchester United with Andr\u00e9 Ayew and Baf\u00e9timbi Gomis goals", "webUrl": "https://www.theguardian.com/football/2015/aug/30/swansea-city-manchester-united-premier-league-report", "apiUrl": "https://content.guardianapis.com/football/2015/aug/30/swansea-city-manchester-united-premier-league-report", "isHosted": false, "pillarId": "pillar/sport", "pillarName": "Sport"}, {"id": "football/live/2015/aug/30/swansea-city-v-manchester-united-premier-league-live", "type": "liveblog", "sectionId": "football", "sectionName": "Football", "webPublicationDate": "2015-08-30T16:55:24Z", "webTitle": "Swansea City v Manchester United: Premier League \u2013 as it happened", "webUrl": "https://www.theguardian.com/football/live/2015/aug/30/swansea-city-v-manchester-united-premier-league-live", "apiUrl": "https://content.guardianapis.com/football/live/2015/aug/30/swansea-city-v-manchester-united-premier-league-live", "isHosted": false, "pillarId": "pillar/sport", "pillarName": "Sport"}, {"id": "football/2015/aug/30/southamptons-ronald-koeman-says-victor-wanyama-is-risking-future", "type": "article", "sectionId": "football", "sectionName": "Football", "webPublicationDate": "2015-08-30T16:21:29Z", "webTitle": "Southampton\u2019s Ronald Koeman says Victor Wanyama is risking his future", "webUrl": "https://www.theguardian.com/football/2015/aug/30/southamptons-ronald-koeman-says-victor-wanyama-is-risking-future", "apiUrl": "https://content.guardianapis.com/football/2015/aug/30/southamptons-ronald-koeman-says-victor-wanyama-is-risking-future", "isHosted": false, "pillarId": "pillar/sport", "pillarName": "Sport"}, {"id": "football/2015/aug/30/manchester-city-confirm-signing-kevin-de-bruyne-wolfsburg", "type": "article", "sectionId": "football", "sectionName": "Football", "webPublicationDate": "2015-08-30T15:14:43Z", "webTitle": "Manchester City confirm signing of Kevin De Bruyne from Wolfsburg", "webUrl": "https://www.theguardian.com/football/2015/aug/30/manchester-city-confirm-signing-kevin-de-bruyne-wolfsburg", "apiUrl": "https://content.guardianapis.com/football/2015/aug/30/manchester-city-confirm-signing-kevin-de-bruyne-wolfsburg", "isHosted": false, "pillarId": "pillar/sport", "pillarName": "Sport"}, {"id": "football/2015/aug/30/southampton-norwich-city-premier-league-match-report", "type": "article", "sectionId": "football", "sectionName": "Football", "webPublicationDate": "2015-08-30T14:38:13Z", "webTitle": "Dusan Tadic double helps Southampton to 3-0 win over 10-man Norwich", "webUrl": "https://www.theguardian.com/football/2015/aug/30/southampton-norwich-city-premier-league-match-report", "apiUrl": "https://content.guardianapis.com/football/2015/aug/30/southampton-norwich-city-premier-league-match-report", "isHosted": false, "pillarId": "pillar/sport", "pillarName": "Sport"}, {"id": "football/live/2015/aug/30/southampton-v-norwich-city-premier-league-live", "type": "liveblog", "sectionId": "football", "sectionName": "Football", "webPublicationDate": "2015-08-30T14:25:40Z", "webTitle": "Southampton 3-0  Norwich City: Premier League \u2013 as it happened!", "webUrl": "https://www.theguardian.com/football/live/2015/aug/30/southampton-v-norwich-city-premier-league-live", "apiUrl": "https://content.guardianapis.com/football/live/2015/aug/30/southampton-v-norwich-city-premier-league-live", "isHosted": false, "pillarId": "pillar/sport", "pillarName": "Sport"}, {"id": "football/2015/aug/30/saturday-sundae-aleksandar-mitrovic-cards-newcaste", "type": "article", "sectionId": "football", "sectionName": "Football", "webPublicationDate": "2015-08-29T23:04:25Z", "webTitle": "Saturday Sundae: Aleksandar Mitrovic is collecting cards at Newcastle United", "webUrl": "https://www.theguardian.com/football/2015/aug/30/saturday-sundae-aleksandar-mitrovic-cards-newcaste", "apiUrl": "https://content.guardianapis.com/football/2015/aug/30/saturday-sundae-aleksandar-mitrovic-cards-newcaste", "isHosted": false, "pillarId": "pillar/sport", "pillarName": "Sport"}, {"id": "football/2015/aug/29/louis-van-gaal-wayne-rooney-manchester-united", "type": "article", "sectionId": "football", "sectionName": "Football", "webPublicationDate": "2015-08-29T21:30:06Z", "webTitle": "Louis van Gaal insists chats with Wayne Rooney often help change his mind", "webUrl": "https://www.theguardian.com/football/2015/aug/29/louis-van-gaal-wayne-rooney-manchester-united", "apiUrl": "https://content.guardianapis.com/football/2015/aug/29/louis-van-gaal-wayne-rooney-manchester-united", "isHosted": false, "pillarId": "pillar/sport", "pillarName": "Sport"}, {"id": "football/2015/aug/29/federico-fernandez-swansea-city-premier-league-lionel-messi-argentina-world-cup", "type": "article", "sectionId": "football", "sectionName": "Football", "webPublicationDate": "2015-08-29T21:00:05Z", "webTitle": "Federico Fern\u00e1ndez on Lionel Messi and his big ambitions for Swansea", "webUrl": "https://www.theguardian.com/football/2015/aug/29/federico-fernandez-swansea-city-premier-league-lionel-messi-argentina-world-cup", "apiUrl": "https://content.guardianapis.com/football/2015/aug/29/federico-fernandez-swansea-city-premier-league-lionel-messi-argentina-world-cup", "isHosted": false, "pillarId": "pillar/sport", "pillarName": "Sport"}, {"id": "football/blog/2015/aug/29/wayne-rooney-england-san-marino-bobby-charlton-manchester-united", "type": "article", "sectionId": "football", "sectionName": "Football", "webPublicationDate": "2015-08-29T21:00:05Z", "webTitle": "Wayne Rooney may be burning out but deserves more acclaim for records | Daniel Taylor", "webUrl": "https://www.theguardian.com/football/blog/2015/aug/29/wayne-rooney-england-san-marino-bobby-charlton-manchester-united", "apiUrl": "https://content.guardianapis.com/football/blog/2015/aug/29/wayne-rooney-england-san-marino-bobby-charlton-manchester-united", "isHosted": false, "pillarId": "pillar/sport", "pillarName": "Sport"}, {"id": "football/live/2015/aug/29/barcelona-malaga-la-liga-live", "type": "liveblog", "sectionId": "football", "sectionName": "Football", "webPublicationDate": "2015-08-29T20:23:04Z", "webTitle": "Barcelona 1-0 M\u00e1laga: La Liga \u2013\u00a0as it happened!", "webUrl": "https://www.theguardian.com/football/live/2015/aug/29/barcelona-malaga-la-liga-live", "apiUrl": "https://content.guardianapis.com/football/live/2015/aug/29/barcelona-malaga-la-liga-live", "isHosted": false, "pillarId": "pillar/sport", "pillarName": "Sport"}, {"id": "football/2015/aug/29/aberdeen-dundee-hearts-inverness-scottish-premiership", "type": "article", "sectionId": "football", "sectionName": "Football", "webPublicationDate": "2015-08-29T20:18:00Z", "webTitle": "Scottish roundup: Adam Rooney scores as Aberdeen win at Partick", "webUrl": "https://www.theguardian.com/football/2015/aug/29/aberdeen-dundee-hearts-inverness-scottish-premiership", "apiUrl": "https://content.guardianapis.com/football/2015/aug/29/aberdeen-dundee-hearts-inverness-scottish-premiership", "isHosted": false, "pillarId": "pillar/sport", "pillarName": "Sport"}, {"id": "football/2015/aug/29/southampton-ronald-koeman-premier-league-2015-norwich-city-defensive-problems", "type": "article", "sectionId": "football", "sectionName": "Football", "webPublicationDate": "2015-08-29T20:00:04Z", "webTitle": "Southampton and Ronald Koeman struggle to find right defensive formula", "webUrl": "https://www.theguardian.com/football/2015/aug/29/southampton-ronald-koeman-premier-league-2015-norwich-city-defensive-problems", "apiUrl": "https://content.guardianapis.com/football/2015/aug/29/southampton-ronald-koeman-premier-league-2015-norwich-city-defensive-problems", "isHosted": false, "pillarId": "pillar/sport", "pillarName": "Sport"}, {"id": "football/2015/aug/29/euro-2016-qualifiers-england-squad", "type": "article", "sectionId": "football", "sectionName": "Football", "webPublicationDate": "2015-08-29T19:30:03Z", "webTitle": "Euro 2016 qualifiers: how things stand for England and what to look out for", "webUrl": "https://www.theguardian.com/football/2015/aug/29/euro-2016-qualifiers-england-squad", "apiUrl": "https://content.guardianapis.com/football/2015/aug/29/euro-2016-qualifiers-england-squad", "isHosted": false, "pillarId": "pillar/sport", "pillarName": "Sport"}, {"id": "football/2015/aug/29/jose-mourinho-rounds-on-players-for-limp-display-against-crystal-palace", "type": "article", "sectionId": "football", "sectionName": "Football", "webPublicationDate": "2015-08-29T19:01:05Z", "webTitle": "Jos\u00e9 Mourinho rounds on players for limp display against Crystal Palace", "webUrl": "https://www.theguardian.com/football/2015/aug/29/jose-mourinho-rounds-on-players-for-limp-display-against-crystal-palace", "apiUrl": "https://content.guardianapis.com/football/2015/aug/29/jose-mourinho-rounds-on-players-for-limp-display-against-crystal-palace", "isHosted": false, "pillarId": "pillar/sport", "pillarName": "Sport"}, {"id": "football/2015/aug/29/tottenham-hotspur-everton-premier-league-match-report", "type": "article", "sectionId": "football", "sectionName": "Football", "webPublicationDate": "2015-08-29T18:39:44Z", "webTitle": "Tottenham\u2019s wait goes on after Harry Kane fires more blanks against Everton", "webUrl": "https://www.theguardian.com/football/2015/aug/29/tottenham-hotspur-everton-premier-league-match-report", "apiUrl": "https://content.guardianapis.com/football/2015/aug/29/tottenham-hotspur-everton-premier-league-match-report", "isHosted": false, "pillarId": "pillar/sport", "pillarName": "Sport"}, {"id": "football/2015/aug/29/kevin-de-bruyne-medical-manchester-city-manuel-pellegrini", "type": "article", "sectionId": "football", "sectionName": "Football", "webPublicationDate": "2015-08-29T18:37:23Z", "webTitle": "Kevin De Bruyne close to \u00a351m transfer after medical at Manchester City", "webUrl": "https://www.theguardian.com/football/2015/aug/29/kevin-de-bruyne-medical-manchester-city-manuel-pellegrini", "apiUrl": "https://content.guardianapis.com/football/2015/aug/29/kevin-de-bruyne-medical-manchester-city-manuel-pellegrini", "isHosted": false, "pillarId": "pillar/sport", "pillarName": "Sport"}, {"id": "football/live/2015/aug/29/tottenham-hotspur-v-everton-premier-league-live", "type": "liveblog", "sectionId": "football", "sectionName": "Football", "webPublicationDate": "2015-08-29T18:26:21Z", "webTitle": "Tottenham Hotspur 0-0 Everton: Premier League - as it happened | Barry Glendenning", "webUrl": "https://www.theguardian.com/football/live/2015/aug/29/tottenham-hotspur-v-everton-premier-league-live", "apiUrl": "https://content.guardianapis.com/football/live/2015/aug/29/tottenham-hotspur-v-everton-premier-league-live", "isHosted": false, "pillarId": "pillar/sport", "pillarName": "Sport"}, {"id": "football/football-league-blog/2015/aug/29/football-league-your-thoughts", "type": "article", "sectionId": "football", "sectionName": "Football", "webPublicationDate": "2015-08-29T17:55:20Z", "webTitle": "Football League: your thoughts", "webUrl": "https://www.theguardian.com/football/football-league-blog/2015/aug/29/football-league-your-thoughts", "apiUrl": "https://content.guardianapis.com/football/football-league-blog/2015/aug/29/football-league-your-thoughts", "isHosted": false, "pillarId": "pillar/sport", "pillarName": "Sport"}, {"id": "football/2015/aug/29/chelsea-crystal-palace-premier-league-match-report", "type": "article", "sectionId": "football", "sectionName": "Football", "webPublicationDate": "2015-08-29T16:19:15Z", "webTitle": "Chelsea humbled at home after Sako and Ward strike for Crystal Palace", "webUrl": "https://www.theguardian.com/football/2015/aug/29/chelsea-crystal-palace-premier-league-match-report", "apiUrl": "https://content.guardianapis.com/football/2015/aug/29/chelsea-crystal-palace-premier-league-match-report", "isHosted": false, "pillarId": "pillar/sport", "pillarName": "Sport"}, {"id": "football/2015/aug/29/bournemouth-leicester-city-premier-league-match-report", "type": "article", "sectionId": "football", "sectionName": "Football", "webPublicationDate": "2015-08-29T16:18:29Z", "webTitle": "Leicester snatch draw at Bournemouth thanks to Jamie Vardy\u2019s late penalty", "webUrl": "https://www.theguardian.com/football/2015/aug/29/bournemouth-leicester-city-premier-league-match-report", "apiUrl": "https://content.guardianapis.com/football/2015/aug/29/bournemouth-leicester-city-premier-league-match-report", "isHosted": false, "pillarId": "pillar/sport", "pillarName": "Sport"}, {"id": "football/2015/aug/29/liverpool-west-ham-united-premier-league-match-report", "type": "article", "sectionId": "football", "sectionName": "Football", "webPublicationDate": "2015-08-29T16:17:22Z", "webTitle": "Liverpool\u2019s wheels come off as West Ham end over 50 years of Anfield pain", "webUrl": "https://www.theguardian.com/football/2015/aug/29/liverpool-west-ham-united-premier-league-match-report", "apiUrl": "https://content.guardianapis.com/football/2015/aug/29/liverpool-west-ham-united-premier-league-match-report", "isHosted": false, "pillarId": "pillar/sport", "pillarName": "Sport"}, {"id": "football/2015/aug/29/stoke-city-west-bromwich-albion-premier-league-match-report", "type": "article", "sectionId": "football", "sectionName": "Football", "webPublicationDate": "2015-08-29T16:13:28Z", "webTitle": "Nine-man Stoke City crash at home to Tony Pulis\u2019s West Bromwich Albion", "webUrl": "https://www.theguardian.com/football/2015/aug/29/stoke-city-west-bromwich-albion-premier-league-match-report", "apiUrl": "https://content.guardianapis.com/football/2015/aug/29/stoke-city-west-bromwich-albion-premier-league-match-report", "isHosted": false, "pillarId": "pillar/sport", "pillarName": "Sport"}, {"id": "football/2015/aug/29/ipswich-town-brighton-championship-match-report", "type": "article", "sectionId": "football", "sectionName": "Football", "webPublicationDate": "2015-08-29T16:11:56Z", "webTitle": "Tomer Hemed\u2019s double sees off Ipswich and propels Brighton to top spot", "webUrl": "https://www.theguardian.com/football/2015/aug/29/ipswich-town-brighton-championship-match-report", "apiUrl": "https://content.guardianapis.com/football/2015/aug/29/ipswich-town-brighton-championship-match-report", "isHosted": false, "pillarId": "pillar/sport", "pillarName": "Sport"}, {"id": "football/2015/aug/29/aston-villa-sunderland-premier-league-match-report", "type": "article", "sectionId": "football", "sectionName": "Football", "webPublicationDate": "2015-08-29T16:06:11Z", "webTitle": "Sunderland battle back through Jeremain Lens after Aston Villa revival", "webUrl": "https://www.theguardian.com/football/2015/aug/29/aston-villa-sunderland-premier-league-match-report", "apiUrl": "https://content.guardianapis.com/football/2015/aug/29/aston-villa-sunderland-premier-league-match-report", "isHosted": false, "pillarId": "pillar/sport", "pillarName": "Sport"}, {"id": "football/2015/aug/29/manchester-city-watford-premier-league-match-report", "type": "article", "sectionId": "football", "sectionName": "Football", "webPublicationDate": "2015-08-29T16:04:48Z", "webTitle": "Raheem Sterling helps Manchester City maintain perfect start against Watford", "webUrl": "https://www.theguardian.com/football/2015/aug/29/manchester-city-watford-premier-league-match-report", "apiUrl": "https://content.guardianapis.com/football/2015/aug/29/manchester-city-watford-premier-league-match-report", "isHosted": false, "pillarId": "pillar/sport", "pillarName": "Sport"}, {"id": "football/live/2015/aug/29/premier-league-football-league-saturday-clockwatch-live", "type": "liveblog", "sectionId": "football", "sectionName": "Football", "webPublicationDate": "2015-08-29T16:02:59Z", "webTitle": "Premier League, Football League and more: Saturday clockwatch \u2013 as it happened!", "webUrl": "https://www.theguardian.com/football/live/2015/aug/29/premier-league-football-league-saturday-clockwatch-live", "apiUrl": "https://content.guardianapis.com/football/live/2015/aug/29/premier-league-football-league-saturday-clockwatch-live", "isHosted": false, "pillarId": "pillar/sport", "pillarName": "Sport"}, {"id": "football/live/2015/aug/29/chelsea-crystal-palace-premier-league-live", "type": "liveblog", "sectionId": "football", "sectionName": "Football", "webPublicationDate": "2015-08-29T16:02:28Z", "webTitle": "Chelsea stunned by Crystal Palace at Stamford Bridge \u2013 as it happened", "webUrl": "https://www.theguardian.com/football/live/2015/aug/29/chelsea-crystal-palace-premier-league-live", "apiUrl": "https://content.guardianapis.com/football/live/2015/aug/29/chelsea-crystal-palace-premier-league-live", "isHosted": false, "pillarId": "pillar/sport", "pillarName": "Sport"}, {"id": "football/2015/aug/29/newcastle-united-arsenal-premier-league-match-report", "type": "article", "sectionId": "football", "sectionName": "Football", "webPublicationDate": "2015-08-29T14:25:50Z", "webTitle": "Arsenal capitalise on Mitrovic red and Coloccini error at Newcastle", "webUrl": "https://www.theguardian.com/football/2015/aug/29/newcastle-united-arsenal-premier-league-match-report", "apiUrl": "https://content.guardianapis.com/football/2015/aug/29/newcastle-united-arsenal-premier-league-match-report", "isHosted": false, "pillarId": "pillar/sport", "pillarName": "Sport"}, {"id": "football/live/2015/aug/29/newcastle-arsenal-premier-league-live", "type": "liveblog", "sectionId": "football", "sectionName": "Football", "webPublicationDate": "2015-08-29T13:55:52Z", "webTitle": "Newcastle 0-1 Arsenal: Premier League \u2013 as it happened | Barry Glendenning", "webUrl": "https://www.theguardian.com/football/live/2015/aug/29/newcastle-arsenal-premier-league-live", "apiUrl": "https://content.guardianapis.com/football/live/2015/aug/29/newcastle-arsenal-premier-league-live", "isHosted": false, "pillarId": "pillar/sport", "pillarName": "Sport"}, {"id": "sport/2015/aug/29/gifs-keep-giving-flying-goalkeepers-bikes-fists-skis", "type": "article", "sectionId": "sport", "sectionName": "Sport", "webPublicationDate": "2015-08-29T08:55:10Z", "webTitle": "The gifs that keep on giving: flying goalkeepers, bikes, fists and skis", "webUrl": "https://www.theguardian.com/sport/2015/aug/29/gifs-keep-giving-flying-goalkeepers-bikes-fists-skis", "apiUrl": "https://content.guardianapis.com/sport/2015/aug/29/gifs-keep-giving-flying-goalkeepers-bikes-fists-skis", "isHosted": false, "pillarId": "pillar/sport", "pillarName": "Sport"}, {"id": "football/2015/aug/28/brendan-rodgers-dejan-lovren-liverpool", "type": "article", "sectionId": "football", "sectionName": "Football", "webPublicationDate": "2015-08-28T22:11:00Z", "webTitle": "Liverpool\u2019s Brendan Rodgers praises Dejan Lovren for bouncing back", "webUrl": "https://www.theguardian.com/football/2015/aug/28/brendan-rodgers-dejan-lovren-liverpool", "apiUrl": "https://content.guardianapis.com/football/2015/aug/28/brendan-rodgers-dejan-lovren-liverpool", "isHosted": false, "pillarId": "pillar/sport", "pillarName": "Sport"}, {"id": "football/2015/aug/28/roberto-martinez-everton-john-stones-chelsea", "type": "article", "sectionId": "football", "sectionName": "Football", "webPublicationDate": "2015-08-28T21:51:00Z", "webTitle": "Everton\u2019s Roberto Mart\u00ednez criticises Chelsea over John Stones pursuit", "webUrl": "https://www.theguardian.com/football/2015/aug/28/roberto-martinez-everton-john-stones-chelsea", "apiUrl": "https://content.guardianapis.com/football/2015/aug/28/roberto-martinez-everton-john-stones-chelsea", "isHosted": false, "pillarId": "pillar/sport", "pillarName": "Sport"}]}}