{"response": {"status": "ok", "userTier": "developer", "total": 92273, "startIndex": 1, "pageSize": 50, "currentPage": 1, "pages": 1846, "orderBy": "newest", "results": [{"id": "football/2014/aug/31/saturday-sundae-zaha-diouf-routledge-magath", "type": "article", "sectionId": "football", "sectionName": "Football", "webPublicationDate": "2014-08-30T23:40:18Z", "webTitle": "Saturday Sundae: Big licks for Zaha, Diouf and Routledge", "webUrl": "https://www.theguardian.com/football/2014/aug/31/saturday-sundae-zaha-diouf-routledge-magath", "apiUrl": "https://content.guardianapis.com/football/2014/aug/31/saturday-sundae-zaha-diouf-routledge-magath", "isHosted": false, "pillarId": "pillar/sport", "pillarName": "Sport"}, {"id": "football/2014/aug/30/football-news-in-brief", "type": "article", "sectionId": "football", "sectionName": "Football", "webPublicationDate": "2014-08-30T22:55:15Z", "webTitle": "Football news in brief", "webUrl": "https://www.theguardian.com/football/2014/aug/30/football-news-in-brief", "apiUrl": "https://content.guardianapis.com/football/2014/aug/30/football-news-in-brief", "isHosted": false, "pillarId": "pillar/sport", "pillarName": "Sport"}, {"id": "football/2014/aug/30/championship-roundup-leeds-bolton", "type": "article", "sectionId": "football", "sectionName": "Football", "webPublicationDate": "2014-08-30T21:53:15Z", "webTitle": "Championship roundup: Leeds seal narrow win over Bolton", "webUrl": "https://www.theguardian.com/football/2014/aug/30/championship-roundup-leeds-bolton", "apiUrl": "https://content.guardianapis.com/football/2014/aug/30/championship-roundup-leeds-bolton", "isHosted": false, "pillarId": "pillar/sport", "pillarName": "Sport"}, {"id": "football/2014/aug/30/roy-hodgson-england-banish-negativity-world-cup-failure", "type": "article", "sectionId": "football", "sectionName": "Football", "webPublicationDate": "2014-08-30T21:30:07Z", "webTitle": "Roy Hodgson tells England to banish negativity after World Cup failure", "webUrl": "https://www.theguardian.com/football/2014/aug/30/roy-hodgson-england-banish-negativity-world-cup-failure", "apiUrl": "https://content.guardianapis.com/football/2014/aug/30/roy-hodgson-england-banish-negativity-world-cup-failure", "isHosted": false, "pillarId": "pillar/sport", "pillarName": "Sport"}, {"id": "football/2014/aug/30/atletico-madrid-eibar-la-liga-match-report", "type": "article", "sectionId": "football", "sectionName": "Football", "webPublicationDate": "2014-08-30T21:29:30Z", "webTitle": "Atl\u00e9tico Madrid 2-1 Eibar | La Liga match report", "webUrl": "https://www.theguardian.com/football/2014/aug/30/atletico-madrid-eibar-la-liga-match-report", "apiUrl": "https://content.guardianapis.com/football/2014/aug/30/atletico-madrid-eibar-la-liga-match-report", "isHosted": false, "pillarId": "pillar/sport", "pillarName": "Sport"}, {"id": "football/blog/2014/aug/30/mauricio-pochettino-tottenham-liverpool-premier-league", "type": "article", "sectionId": "football", "sectionName": "Football", "webPublicationDate": "2014-08-30T21:29:07Z", "webTitle": "Mauricio Pochettino\u2019s fast-starting Tottenham face test against Liverpool | Paul Wilson", "webUrl": "https://www.theguardian.com/football/blog/2014/aug/30/mauricio-pochettino-tottenham-liverpool-premier-league", "apiUrl": "https://content.guardianapis.com/football/blog/2014/aug/30/mauricio-pochettino-tottenham-liverpool-premier-league", "isHosted": false, "pillarId": "pillar/sport", "pillarName": "Sport"}, {"id": "football/2014/aug/30/liverpool-brendan-rodgers-mario-balotelli-tottenham", "type": "article", "sectionId": "football", "sectionName": "Football", "webPublicationDate": "2014-08-30T21:29:07Z", "webTitle": "Liverpool\u2019s Brendan Rodgers relishes Mario Balotelli challenge", "webUrl": "https://www.theguardian.com/football/2014/aug/30/liverpool-brendan-rodgers-mario-balotelli-tottenham", "apiUrl": "https://content.guardianapis.com/football/2014/aug/30/liverpool-brendan-rodgers-mario-balotelli-tottenham", "isHosted": false, "pillarId": "pillar/sport", "pillarName": "Sport"}, {"id": "football/2014/aug/30/roberto-martinez-unhappy-diego-costa-seamus-coleman", "type": "article", "sectionId": "football", "sectionName": "Football", "webPublicationDate": "2014-08-30T21:13:28Z", "webTitle": "Roberto Mart\u00ednez unhappy at Diego Costa\u2019s taunting of S\u00e9amus Coleman", "webUrl": "https://www.theguardian.com/football/2014/aug/30/roberto-martinez-unhappy-diego-costa-seamus-coleman", "apiUrl": "https://content.guardianapis.com/football/2014/aug/30/roberto-martinez-unhappy-diego-costa-seamus-coleman", "isHosted": false, "pillarId": "pillar/sport", "pillarName": "Sport"}, {"id": "football/2014/aug/30/said-and-done-michel-platini", "type": "article", "sectionId": "football", "sectionName": "Football", "webPublicationDate": "2014-08-30T21:02:51Z", "webTitle": "Said & Done: Michel Platini; Massimo Cellino\u2019s ego; and a \u00a32,800 Chihuahua", "webUrl": "https://www.theguardian.com/football/2014/aug/30/said-and-done-michel-platini", "apiUrl": "https://content.guardianapis.com/football/2014/aug/30/said-and-done-michel-platini", "isHosted": false, "pillarId": "pillar/sport", "pillarName": "Sport"}, {"id": "football/2014/aug/30/angel-di-maria-premier-league-transfers", "type": "article", "sectionId": "football", "sectionName": "Football", "webPublicationDate": "2014-08-30T20:59:07Z", "webTitle": "\u00c1ngel di Mar\u00eda\u2019s sky-high fee shows Premier League\u2019s flight of fancy", "webUrl": "https://www.theguardian.com/football/2014/aug/30/angel-di-maria-premier-league-transfers", "apiUrl": "https://content.guardianapis.com/football/2014/aug/30/angel-di-maria-premier-league-transfers", "isHosted": false, "pillarId": "pillar/sport", "pillarName": "Sport"}, {"id": "sport/gallery/2014/aug/30/premier-league-roundup-in-pictures", "type": "gallery", "sectionId": "football", "sectionName": "Football", "webPublicationDate": "2014-08-30T19:18:15Z", "webTitle": "Premier League: Saturday's matches \u2013 in pictures", "webUrl": "https://www.theguardian.com/sport/gallery/2014/aug/30/premier-league-roundup-in-pictures", "apiUrl": "https://content.guardianapis.com/sport/gallery/2014/aug/30/premier-league-roundup-in-pictures", "isHosted": false, "pillarId": "pillar/sport", "pillarName": "Sport"}, {"id": "football/2014/aug/30/everton-chelsea-premier-league-match-report", "type": "article", "sectionId": "football", "sectionName": "Football", "webPublicationDate": "2014-08-30T19:11:07Z", "webTitle": "Everton 3-6 Chelsea | Premier League match report", "webUrl": "https://www.theguardian.com/football/2014/aug/30/everton-chelsea-premier-league-match-report", "apiUrl": "https://content.guardianapis.com/football/2014/aug/30/everton-chelsea-premier-league-match-report", "isHosted": false, "pillarId": "pillar/sport", "pillarName": "Sport"}, {"id": "sport/2014/aug/30/agenda-justin-gatland-diamond-league", "type": "article", "sectionId": "sport", "sectionName": "Sport", "webPublicationDate": "2014-08-30T19:00:04Z", "webTitle": "The Agenda: Justin Gatlin to give Diamond League a final flourish", "webUrl": "https://www.theguardian.com/sport/2014/aug/30/agenda-justin-gatland-diamond-league", "apiUrl": "https://content.guardianapis.com/sport/2014/aug/30/agenda-justin-gatland-diamond-league", "isHosted": false, "pillarId": "pillar/sport", "pillarName": "Sport"}, {"id": "football/blog/2014/aug/30/manchester-city-chelsea-deadline-day", "type": "article", "sectionId": "football", "sectionName": "Football", "webPublicationDate": "2014-08-30T19:00:04Z", "webTitle": "Manchester City and Chelsea show way to flustered opponents on deadline day | Daniel Taylor", "webUrl": "https://www.theguardian.com/football/blog/2014/aug/30/manchester-city-chelsea-deadline-day", "apiUrl": "https://content.guardianapis.com/football/blog/2014/aug/30/manchester-city-chelsea-deadline-day", "isHosted": false, "pillarId": "pillar/sport", "pillarName": "Sport"}, {"id": "football/blog/2014/aug/30/football-league-your-thoughts", "type": "article", "sectionId": "football", "sectionName": "Football", "webPublicationDate": "2014-08-30T18:31:15Z", "webTitle": "Football League: your thoughts | Gerard Meagher", "webUrl": "https://www.theguardian.com/football/blog/2014/aug/30/football-league-your-thoughts", "apiUrl": "https://content.guardianapis.com/football/blog/2014/aug/30/football-league-your-thoughts", "isHosted": false, "pillarId": "pillar/sport", "pillarName": "Sport"}, {"id": "football/2014/aug/30/sporting-kansas-city-dom-dwyer-selfie-mls", "type": "article", "sectionId": "football", "sectionName": "Football", "webPublicationDate": "2014-08-30T18:30:04Z", "webTitle": "Sporting Kansas City's Dom Dwyer: a selfie portrait of unlikely MLS success", "webUrl": "https://www.theguardian.com/football/2014/aug/30/sporting-kansas-city-dom-dwyer-selfie-mls", "apiUrl": "https://content.guardianapis.com/football/2014/aug/30/sporting-kansas-city-dom-dwyer-selfie-mls", "isHosted": false, "pillarId": "pillar/sport", "pillarName": "Sport"}, {"id": "football/live/2014/aug/30/everton-v-chelsea-premier-league-live", "type": "liveblog", "sectionId": "football", "sectionName": "Football", "webPublicationDate": "2014-08-30T18:25:59Z", "webTitle": "Everton v Chelsea: Premier League \u2013\u00a0as it happened | Scott Murray", "webUrl": "https://www.theguardian.com/football/live/2014/aug/30/everton-v-chelsea-premier-league-live", "apiUrl": "https://content.guardianapis.com/football/live/2014/aug/30/everton-v-chelsea-premier-league-live", "isHosted": false, "pillarId": "pillar/sport", "pillarName": "Sport"}, {"id": "football/2014/aug/30/aberdeen-hamilton-rangers-hearts-scottish-premiership", "type": "article", "sectionId": "football", "sectionName": "Football", "webPublicationDate": "2014-08-30T18:06:19Z", "webTitle": "Scottish roundup: Mickael Antoine-Curier has County in spot of bother", "webUrl": "https://www.theguardian.com/football/2014/aug/30/aberdeen-hamilton-rangers-hearts-scottish-premiership", "apiUrl": "https://content.guardianapis.com/football/2014/aug/30/aberdeen-hamilton-rangers-hearts-scottish-premiership", "isHosted": false, "pillarId": "pillar/sport", "pillarName": "Sport"}, {"id": "football/2014/aug/30/fulham-cardiff-city-championship-football", "type": "article", "sectionId": "football", "sectionName": "Football", "webPublicationDate": "2014-08-30T17:07:24Z", "webTitle": "Fulham 1-1 Cardiff City | Championship match report", "webUrl": "https://www.theguardian.com/football/2014/aug/30/fulham-cardiff-city-championship-football", "apiUrl": "https://content.guardianapis.com/football/2014/aug/30/fulham-cardiff-city-championship-football", "isHosted": false, "pillarId": "pillar/sport", "pillarName": "Sport"}, {"id": "football/2014/aug/30/manchester-united-louis-van-gaal-burnley-sean-dyche", "type": "article", "sectionId": "football", "sectionName": "Football", "webPublicationDate": "2014-08-30T16:59:47Z", "webTitle": "Manchester United\u2019s Louis van Gaal pleads for \u2018belief\u2019 after Burnley draw", "webUrl": "https://www.theguardian.com/football/2014/aug/30/manchester-united-louis-van-gaal-burnley-sean-dyche", "apiUrl": "https://content.guardianapis.com/football/2014/aug/30/manchester-united-louis-van-gaal-burnley-sean-dyche", "isHosted": false, "pillarId": "pillar/sport", "pillarName": "Sport"}, {"id": "football/blog/2014/aug/30/angel-di-maria-manchester-united-debut-burnley", "type": "article", "sectionId": "football", "sectionName": "Football", "webPublicationDate": "2014-08-30T16:27:45Z", "webTitle": "\u00c1ngel di Mar\u00eda\u2019s strong debut cannot mask Manchester United\u2019s depth issues | Jamie Jackson", "webUrl": "https://www.theguardian.com/football/blog/2014/aug/30/angel-di-maria-manchester-united-debut-burnley", "apiUrl": "https://content.guardianapis.com/football/blog/2014/aug/30/angel-di-maria-manchester-united-debut-burnley", "isHosted": false, "pillarId": "pillar/sport", "pillarName": "Sport"}, {"id": "football/2014/aug/30/qpr-sunderland-premier-league-match-report", "type": "article", "sectionId": "football", "sectionName": "Football", "webPublicationDate": "2014-08-30T16:26:56Z", "webTitle": "QPR 1-0 Sunderland | Premier League match report", "webUrl": "https://www.theguardian.com/football/2014/aug/30/qpr-sunderland-premier-league-match-report", "apiUrl": "https://content.guardianapis.com/football/2014/aug/30/qpr-sunderland-premier-league-match-report", "isHosted": false, "pillarId": "pillar/sport", "pillarName": "Sport"}, {"id": "football/2014/aug/30/newcastle-crystal-palace-premier-league-match-report", "type": "article", "sectionId": "football", "sectionName": "Football", "webPublicationDate": "2014-08-30T16:22:55Z", "webTitle": "Newcastle United 3-3 Crystal Palace | Premier League match report", "webUrl": "https://www.theguardian.com/football/2014/aug/30/newcastle-crystal-palace-premier-league-match-report", "apiUrl": "https://content.guardianapis.com/football/2014/aug/30/newcastle-crystal-palace-premier-league-match-report", "isHosted": false, "pillarId": "pillar/sport", "pillarName": "Sport"}, {"id": "football/live/2014/aug/30/premier-league-clockwatch-live", "type": "liveblog", "sectionId": "football", "sectionName": "Football", "webPublicationDate": "2014-08-30T16:21:14Z", "webTitle": "Premier League clockwatch \u2013\u00a0as it happened", "webUrl": "https://www.theguardian.com/football/live/2014/aug/30/premier-league-clockwatch-live", "apiUrl": "https://content.guardianapis.com/football/live/2014/aug/30/premier-league-clockwatch-live", "isHosted": false, "pillarId": "pillar/sport", "pillarName": "Sport"}, {"id": "football/2014/aug/30/manchester-city-stoke-city-premier-league-match-report", "type": "article", "sectionId": "football", "sectionName": "Football", "webPublicationDate": "2014-08-30T16:10:08Z", "webTitle": "Manchester City 0-1 Stoke City | Premier League match report", "webUrl": "https://www.theguardian.com/football/2014/aug/30/manchester-city-stoke-city-premier-league-match-report", "apiUrl": "https://content.guardianapis.com/football/2014/aug/30/manchester-city-stoke-city-premier-league-match-report", "isHosted": false, "pillarId": "pillar/sport", "pillarName": "Sport"}, {"id": "football/2014/aug/30/swansea-city-west-bromwich-albion-premier-league", "type": "article", "sectionId": "football", "sectionName": "Football", "webPublicationDate": "2014-08-30T16:07:19Z", "webTitle": "Swansea City 3-0 West Bromwich Albion | Premier League match report", "webUrl": "https://www.theguardian.com/football/2014/aug/30/swansea-city-west-bromwich-albion-premier-league", "apiUrl": "https://content.guardianapis.com/football/2014/aug/30/swansea-city-west-bromwich-albion-premier-league", "isHosted": false, "pillarId": "pillar/sport", "pillarName": "Sport"}, {"id": "football/2014/aug/30/west-ham-sign-alex-song-loan-barcelona", "type": "article", "sectionId": "football", "sectionName": "Football", "webPublicationDate": "2014-08-30T14:09:45Z", "webTitle": "West Ham sign Alex Song on season-long loan from Barcelona", "webUrl": "https://www.theguardian.com/football/2014/aug/30/west-ham-sign-alex-song-loan-barcelona", "apiUrl": "https://content.guardianapis.com/football/2014/aug/30/west-ham-sign-alex-song-loan-barcelona", "isHosted": false, "pillarId": "pillar/sport", "pillarName": "Sport"}, {"id": "football/2014/aug/30/burnley-manchester-united-premier-league-match-report", "type": "article", "sectionId": "football", "sectionName": "Football", "webPublicationDate": "2014-08-30T13:48:34Z", "webTitle": "Burnley 0-0 Manchester United | Premier League match report", "webUrl": "https://www.theguardian.com/football/2014/aug/30/burnley-manchester-united-premier-league-match-report", "apiUrl": "https://content.guardianapis.com/football/2014/aug/30/burnley-manchester-united-premier-league-match-report", "isHosted": false, "pillarId": "pillar/sport", "pillarName": "Sport"}, {"id": "football/live/2014/aug/30/burnley-v-manchester-united-premier-league-live", "type": "liveblog", "sectionId": "football", "sectionName": "Football", "webPublicationDate": "2014-08-30T13:39:35Z", "webTitle": "Burnley v Manchester United: Premier League \u2013\u00a0as it happenend | Scott Murray", "webUrl": "https://www.theguardian.com/football/live/2014/aug/30/burnley-v-manchester-united-premier-league-live", "apiUrl": "https://content.guardianapis.com/football/live/2014/aug/30/burnley-v-manchester-united-premier-league-live", "isHosted": false, "pillarId": "pillar/sport", "pillarName": "Sport"}, {"id": "sport/blog/2014/aug/30/gifs-giving-ba-van-persie-taekwondo-higuita", "type": "article", "sectionId": "sport", "sectionName": "Sport", "webPublicationDate": "2014-08-30T08:55:00Z", "webTitle": "The gifs that keep on giving: Robin van Persie, Demba Ba and Ren\u00e9 Higuita", "webUrl": "https://www.theguardian.com/sport/blog/2014/aug/30/gifs-giving-ba-van-persie-taekwondo-higuita", "apiUrl": "https://content.guardianapis.com/sport/blog/2014/aug/30/gifs-giving-ba-van-persie-taekwondo-higuita", "isHosted": false, "pillarId": "pillar/sport", "pillarName": "Sport"}, {"id": "football/2014/aug/30/manchester-united-daley-blind-ajax-louis-van-gaal", "type": "article", "sectionId": "football", "sectionName": "Football", "webPublicationDate": "2014-08-30T08:40:51Z", "webTitle": "Manchester United close in on \u00a315m signing of Daley Blind from Ajax", "webUrl": "https://www.theguardian.com/football/2014/aug/30/manchester-united-daley-blind-ajax-louis-van-gaal", "apiUrl": "https://content.guardianapis.com/football/2014/aug/30/manchester-united-daley-blind-ajax-louis-van-gaal", "isHosted": false, "pillarId": "pillar/sport", "pillarName": "Sport"}, {"id": "world/2014/aug/30/mh17-body-second-british-football-fan-identified", "type": "article", "sectionId": "world", "sectionName": "World news", "webPublicationDate": "2014-08-30T08:17:25Z", "webTitle": "MH17: body of second British football fan identified", "webUrl": "https://www.theguardian.com/world/2014/aug/30/mh17-body-second-british-football-fan-identified", "apiUrl": "https://content.guardianapis.com/world/2014/aug/30/mh17-body-second-british-football-fan-identified", "isHosted": false, "pillarId": "pillar/news", "pillarName": "News"}, {"id": "football/2014/aug/30/remy-cabella-newcastle-united", "type": "article", "sectionId": "football", "sectionName": "Football", "webPublicationDate": "2014-08-29T23:15:58Z", "webTitle": "R\u00e9my Cabella brings smile and flair to Newcastle side in need of spark", "webUrl": "https://www.theguardian.com/football/2014/aug/30/remy-cabella-newcastle-united", "apiUrl": "https://content.guardianapis.com/football/2014/aug/30/remy-cabella-newcastle-united", "isHosted": false, "pillarId": "pillar/sport", "pillarName": "Sport"}, {"id": "football/2014/aug/29/arsene-wenger-arsenal-new-striker-not-essential", "type": "article", "sectionId": "football", "sectionName": "Football", "webPublicationDate": "2014-08-29T22:00:08Z", "webTitle": "Ars\u00e8ne Wenger says new striker not essential for Arsenal", "webUrl": "https://www.theguardian.com/football/2014/aug/29/arsene-wenger-arsenal-new-striker-not-essential", "apiUrl": "https://content.guardianapis.com/football/2014/aug/29/arsene-wenger-arsenal-new-striker-not-essential", "isHosted": false, "pillarId": "pillar/sport", "pillarName": "Sport"}, {"id": "football/blog/2014/aug/29/mario-balotelli-liverpool-milan-italy", "type": "article", "sectionId": "football", "sectionName": "Football", "webPublicationDate": "2014-08-29T21:30:08Z", "webTitle": "What made Liverpool\u2019s Mario Balotelli the man he is today? | Paolo Bandini", "webUrl": "https://www.theguardian.com/football/blog/2014/aug/29/mario-balotelli-liverpool-milan-italy", "apiUrl": "https://content.guardianapis.com/football/blog/2014/aug/29/mario-balotelli-liverpool-milan-italy", "isHosted": false, "pillarId": "pillar/sport", "pillarName": "Sport"}, {"id": "football/2014/aug/29/louis-van-gaal-manchester-united-luke-shaw-roy-hodgson", "type": "article", "sectionId": "football", "sectionName": "Football", "webPublicationDate": "2014-08-29T21:30:08Z", "webTitle": "Louis van Gaal defends Manchester United\u2019s Luke Shaw on fitness claims", "webUrl": "https://www.theguardian.com/football/2014/aug/29/louis-van-gaal-manchester-united-luke-shaw-roy-hodgson", "apiUrl": "https://content.guardianapis.com/football/2014/aug/29/louis-van-gaal-manchester-united-luke-shaw-roy-hodgson", "isHosted": false, "pillarId": "pillar/sport", "pillarName": "Sport"}, {"id": "football/2014/aug/29/brendan-rodgers-liverpool-century-real-potential-anfield", "type": "article", "sectionId": "football", "sectionName": "Football", "webPublicationDate": "2014-08-29T21:30:08Z", "webTitle": "Brendan Rodgers reaches Liverpool century with Real promise at Anfield", "webUrl": "https://www.theguardian.com/football/2014/aug/29/brendan-rodgers-liverpool-century-real-potential-anfield", "apiUrl": "https://content.guardianapis.com/football/2014/aug/29/brendan-rodgers-liverpool-century-real-potential-anfield", "isHosted": false, "pillarId": "pillar/sport", "pillarName": "Sport"}, {"id": "football/2014/aug/29/manchester-united-louis-van-gaal-burnley", "type": "article", "sectionId": "football", "sectionName": "Football", "webPublicationDate": "2014-08-29T21:30:08Z", "webTitle": "Louis van Gaal: I can revive Manchester United \u2018step by step\u2019", "webUrl": "https://www.theguardian.com/football/2014/aug/29/manchester-united-louis-van-gaal-burnley", "apiUrl": "https://content.guardianapis.com/football/2014/aug/29/manchester-united-louis-van-gaal-burnley", "isHosted": false, "pillarId": "pillar/sport", "pillarName": "Sport"}, {"id": "football/2014/aug/29/everton-steven-naismith-largesse-chelsea-season-tickets", "type": "article", "sectionId": "football", "sectionName": "Football", "webPublicationDate": "2014-08-29T21:30:08Z", "webTitle": "Chelsea the fare for next beneficiaries of Steven Naismith\u2019s largesse", "webUrl": "https://www.theguardian.com/football/2014/aug/29/everton-steven-naismith-largesse-chelsea-season-tickets", "apiUrl": "https://content.guardianapis.com/football/2014/aug/29/everton-steven-naismith-largesse-chelsea-season-tickets", "isHosted": false, "pillarId": "pillar/sport", "pillarName": "Sport"}, {"id": "football/2014/aug/29/mario-balotell-liverpool-debut-white-hart-lane-tottenham-brendan-rodgers", "type": "article", "sectionId": "football", "sectionName": "Football", "webPublicationDate": "2014-08-29T21:29:08Z", "webTitle": "Liverpool\u2019s Brendan Rodgers to unleash Mario Balotelli at Tottenham", "webUrl": "https://www.theguardian.com/football/2014/aug/29/mario-balotell-liverpool-debut-white-hart-lane-tottenham-brendan-rodgers", "apiUrl": "https://content.guardianapis.com/football/2014/aug/29/mario-balotell-liverpool-debut-white-hart-lane-tottenham-brendan-rodgers", "isHosted": false, "pillarId": "pillar/sport", "pillarName": "Sport"}, {"id": "football/2014/aug/29/neil-warnock-crystal-palace-newcastle-united-manager", "type": "article", "sectionId": "football", "sectionName": "Football", "webPublicationDate": "2014-08-29T21:29:08Z", "webTitle": "Neil Warnock and Crystal Palace want payback at Newcastle United", "webUrl": "https://www.theguardian.com/football/2014/aug/29/neil-warnock-crystal-palace-newcastle-united-manager", "apiUrl": "https://content.guardianapis.com/football/2014/aug/29/neil-warnock-crystal-palace-newcastle-united-manager", "isHosted": false, "pillarId": "pillar/sport", "pillarName": "Sport"}, {"id": "football/2014/aug/29/gus-poyet-lee-cattermole-jack-colback-sunderland-england", "type": "article", "sectionId": "football", "sectionName": "Football", "webPublicationDate": "2014-08-29T21:00:07Z", "webTitle": "Lee Cattermole can get into England team, says Gus Poyet", "webUrl": "https://www.theguardian.com/football/2014/aug/29/gus-poyet-lee-cattermole-jack-colback-sunderland-england", "apiUrl": "https://content.guardianapis.com/football/2014/aug/29/gus-poyet-lee-cattermole-jack-colback-sunderland-england", "isHosted": false, "pillarId": "pillar/sport", "pillarName": "Sport"}, {"id": "football/2014/aug/29/tottenham-benjamin-stambouli-montpellier", "type": "article", "sectionId": "football", "sectionName": "Football", "webPublicationDate": "2014-08-29T19:44:42Z", "webTitle": "Tottenham secure deal to sign Benjamin Stambouli from Montpellier", "webUrl": "https://www.theguardian.com/football/2014/aug/29/tottenham-benjamin-stambouli-montpellier", "apiUrl": "https://content.guardianapis.com/football/2014/aug/29/tottenham-benjamin-stambouli-montpellier", "isHosted": false, "pillarId": "pillar/sport", "pillarName": "Sport"}, {"id": "football/blog/2014/aug/29/louis-van-gaal-manchester-united-352-tactics", "type": "article", "sectionId": "football", "sectionName": "Football", "webPublicationDate": "2014-08-29T19:32:00Z", "webTitle": "Why is Louis van Gaal so hell-bent on using 3-5-2 at Manchester United? | Jonathan Wilson", "webUrl": "https://www.theguardian.com/football/blog/2014/aug/29/louis-van-gaal-manchester-united-352-tactics", "apiUrl": "https://content.guardianapis.com/football/blog/2014/aug/29/louis-van-gaal-manchester-united-352-tactics", "isHosted": false, "pillarId": "pillar/sport", "pillarName": "Sport"}, {"id": "football/2014/aug/29/mauricio-pochettino-mario-balotelli-tottenham-liverpool", "type": "article", "sectionId": "football", "sectionName": "Football", "webPublicationDate": "2014-08-29T18:57:24Z", "webTitle": "Mauricio Pochettino plays down Balotelli and Spurs\u2019 Liverpool past", "webUrl": "https://www.theguardian.com/football/2014/aug/29/mauricio-pochettino-mario-balotelli-tottenham-liverpool", "apiUrl": "https://content.guardianapis.com/football/2014/aug/29/mauricio-pochettino-mario-balotelli-tottenham-liverpool", "isHosted": false, "pillarId": "pillar/sport", "pillarName": "Sport"}, {"id": "football/2014/aug/29/chelsea-fernando-torres-milan-jose-mourinho", "type": "article", "sectionId": "football", "sectionName": "Football", "webPublicationDate": "2014-08-29T18:50:21Z", "webTitle": "Fernando Torres agrees to leave Chelsea for Milan on free transfer", "webUrl": "https://www.theguardian.com/football/2014/aug/29/chelsea-fernando-torres-milan-jose-mourinho", "apiUrl": "https://content.guardianapis.com/football/2014/aug/29/chelsea-fernando-torres-milan-jose-mourinho", "isHosted": false, "pillarId": "pillar/sport", "pillarName": "Sport"}, {"id": "football/2014/aug/29/west-ham-united-southampton-match-preview", "type": "article", "sectionId": "football", "sectionName": "Football", "webPublicationDate": "2014-08-29T18:26:00Z", "webTitle": "West Ham United v Southampton: match preview", "webUrl": "https://www.theguardian.com/football/2014/aug/29/west-ham-united-southampton-match-preview", "apiUrl": "https://content.guardianapis.com/football/2014/aug/29/west-ham-united-southampton-match-preview", "isHosted": false, "pillarId": "pillar/sport", "pillarName": "Sport"}, {"id": "football/2014/aug/29/felix-magath-critics-fulham-mohamed-al-fayed-cardiff", "type": "article", "sectionId": "football", "sectionName": "Football", "webPublicationDate": "2014-08-29T18:21:06Z", "webTitle": "Felix Magath sticks to his guns after critics target Fulham record", "webUrl": "https://www.theguardian.com/football/2014/aug/29/felix-magath-critics-fulham-mohamed-al-fayed-cardiff", "apiUrl": "https://content.guardianapis.com/football/2014/aug/29/felix-magath-critics-fulham-mohamed-al-fayed-cardiff", "isHosted": false, "pillarId": "pillar/sport", "pillarName": "Sport"}, {"id": "football/2014/aug/29/queens-park-rangers-sunderland-match-preview", "type": "article", "sectionId": "football", "sectionName": "Football", "webPublicationDate": "2014-08-29T18:11:44Z", "webTitle": "Queens Park Rangers v Sunderland: match preview", "webUrl": "https://www.theguardian.com/football/2014/aug/29/queens-park-rangers-sunderland-match-preview", "apiUrl": "https://content.guardianapis.com/football/2014/aug/29/queens-park-rangers-sunderland-match-preview", "isHosted": false, "pillarId": "pillar/sport", "pillarName": "Sport"}, {"id": "football/2014/aug/29/neil-warnock-crystal-palace-transfers-armand-traore", "type": "article", "sectionId": "football", "sectionName": "Football", "webPublicationDate": "2014-08-29T17:27:37Z", "webTitle": "Neil Warnock lodges bid to bring Armand Traor\u00e9 to Crystal Palace", "webUrl": "https://www.theguardian.com/football/2014/aug/29/neil-warnock-crystal-palace-transfers-armand-traore", "apiUrl": "https://content.guardianapis.com/football/2014/aug/29/neil-warnock-crystal-palace-transfers-armand-traore", "isHosted": false, "pillarId": "pillar/sport", "pillarName": "Sport"}]}}