{"response": {"status": "ok", "userTier": "developer", "total": 21878, "startIndex": 1, "pageSize": 50, "currentPage": 1, "pages": 438, "orderBy": "newest", "results": [{"id": "lifeandstyle/2015/aug/30/espigoladors-barcelona-catalan-food-funny-shaped-vegetables-people-need", "type": "article", "sectionId": "food", "sectionName": "Food", "webPublicationDate": "2015-08-30T13:25:18Z", "webTitle": "Catalan project harvests unwanted fruit and veg for people in need", "webUrl": "https://www.theguardian.com/lifeandstyle/2015/aug/30/espigoladors-barcelona-catalan-food-funny-shaped-vegetables-people-need", "apiUrl": "https://content.guardianapis.com/lifeandstyle/2015/aug/30/espigoladors-barcelona-catalan-food-funny-shaped-vegetables-people-need", "isHosted": false, "pillarId": "pillar/lifestyle", "pillarName": "Lifestyle"}, {"id": "business/2015/aug/30/inquiry-tipping-abuse-restaurants-service-charges", "type": "article", "sectionId": "business", "sectionName": "Business", "webPublicationDate": "2015-08-30T11:50:07Z", "webTitle": "Inquiry launched into abuse of tipping", "webUrl": "https://www.theguardian.com/business/2015/aug/30/inquiry-tipping-abuse-restaurants-service-charges", "apiUrl": "https://content.guardianapis.com/business/2015/aug/30/inquiry-tipping-abuse-restaurants-service-charges", "isHosted": false, "pillarId": "pillar/news", "pillarName": "News"}, {"id": "lifeandstyle/2015/aug/27/leftover-bread-packed-lunch-panzanella-club-sandwich", "type": "article", "sectionId": "food", "sectionName": "Food", "webPublicationDate": "2015-08-30T09:00:01Z", "webTitle": "Turn leftover bread into a packed lunch  | The Lunch Box", "webUrl": "https://www.theguardian.com/lifeandstyle/2015/aug/27/leftover-bread-packed-lunch-panzanella-club-sandwich", "apiUrl": "https://content.guardianapis.com/lifeandstyle/2015/aug/27/leftover-bread-packed-lunch-panzanella-club-sandwich", "isHosted": false, "pillarId": "pillar/lifestyle", "pillarName": "Lifestyle"}, {"id": "lifeandstyle/2015/aug/30/suvlaki-restaurant-review-jay-rayner", "type": "article", "sectionId": "food", "sectionName": "Food", "webPublicationDate": "2015-08-30T05:00:15Z", "webTitle": "Suvlaki: restaurant review | Jay Rayner", "webUrl": "https://www.theguardian.com/lifeandstyle/2015/aug/30/suvlaki-restaurant-review-jay-rayner", "apiUrl": "https://content.guardianapis.com/lifeandstyle/2015/aug/30/suvlaki-restaurant-review-jay-rayner", "isHosted": false, "pillarId": "pillar/lifestyle", "pillarName": "Lifestyle"}, {"id": "lifeandstyle/2015/aug/30/wines-with-a-pepper-flavour", "type": "article", "sectionId": "food", "sectionName": "Food", "webPublicationDate": "2015-08-30T04:59:15Z", "webTitle": "Wines which pack a peppery punch | David Williams", "webUrl": "https://www.theguardian.com/lifeandstyle/2015/aug/30/wines-with-a-pepper-flavour", "apiUrl": "https://content.guardianapis.com/lifeandstyle/2015/aug/30/wines-with-a-pepper-flavour", "isHosted": false, "pillarId": "pillar/lifestyle", "pillarName": "Lifestyle"}, {"id": "commentisfree/2015/aug/30/observer-view-jamie-oliver-sugar-campaign", "type": "article", "sectionId": "commentisfree", "sectionName": "Opinion", "webPublicationDate": "2015-08-29T23:03:08Z", "webTitle": "The Observer view on Jamie Oliver\u2019s sugar campaign | Observer editorial", "webUrl": "https://www.theguardian.com/commentisfree/2015/aug/30/observer-view-jamie-oliver-sugar-campaign", "apiUrl": "https://content.guardianapis.com/commentisfree/2015/aug/30/observer-view-jamie-oliver-sugar-campaign", "isHosted": false, "pillarId": "pillar/opinion", "pillarName": "Opinion"}, {"id": "lifeandstyle/2015/aug/29/las-iguanas-tipping-policy-change-staff-diners", "type": "article", "sectionId": "food", "sectionName": "Food", "webPublicationDate": "2015-08-29T22:30:08Z", "webTitle": "Las Iguanas faces backlash over \u2018grossly unfair\u2019 tipping policy", "webUrl": "https://www.theguardian.com/lifeandstyle/2015/aug/29/las-iguanas-tipping-policy-change-staff-diners", "apiUrl": "https://content.guardianapis.com/lifeandstyle/2015/aug/29/las-iguanas-tipping-policy-change-staff-diners", "isHosted": false, "pillarId": "pillar/lifestyle", "pillarName": "Lifestyle"}, {"id": "lifeandstyle/2015/aug/29/cereal-shoebox-new-york-latest-food-trend", "type": "article", "sectionId": "food", "sectionName": "Food", "webPublicationDate": "2015-08-29T12:30:15Z", "webTitle": "Cereal out of a shoebox: New York's latest food trend", "webUrl": "https://www.theguardian.com/lifeandstyle/2015/aug/29/cereal-shoebox-new-york-latest-food-trend", "apiUrl": "https://content.guardianapis.com/lifeandstyle/2015/aug/29/cereal-shoebox-new-york-latest-food-trend", "isHosted": false, "pillarId": "pillar/lifestyle", "pillarName": "Lifestyle"}, {"id": "lifeandstyle/2015/aug/29/one-roast-rib-of-beef-four-dishes", "type": "article", "sectionId": "lifeandstyle", "sectionName": "Life and style", "webPublicationDate": "2015-08-29T10:59:13Z", "webTitle": "One delicious roast rib of beef becomes four different dishes | Get Ahead", "webUrl": "https://www.theguardian.com/lifeandstyle/2015/aug/29/one-roast-rib-of-beef-four-dishes", "apiUrl": "https://content.guardianapis.com/lifeandstyle/2015/aug/29/one-roast-rib-of-beef-four-dishes", "isHosted": false, "pillarId": "pillar/lifestyle", "pillarName": "Lifestyle"}, {"id": "small-business-network/2015/aug/29/five-healthy-lunches-to-take-to-work", "type": "article", "sectionId": "small-business-network", "sectionName": "Guardian Small Business Network", "webPublicationDate": "2015-08-29T07:30:09Z", "webTitle": "Five healthy lunches to take to work", "webUrl": "https://www.theguardian.com/small-business-network/2015/aug/29/five-healthy-lunches-to-take-to-work", "apiUrl": "https://content.guardianapis.com/small-business-network/2015/aug/29/five-healthy-lunches-to-take-to-work", "isHosted": false, "pillarId": "pillar/news", "pillarName": "News"}, {"id": "uk-news/2015/aug/29/a-shed-load-of-top-cuisine-in-anglesey-food-wales", "type": "article", "sectionId": "uk-news", "sectionName": "UK news", "webPublicationDate": "2015-08-29T07:00:09Z", "webTitle": "Hut cuisine: shed cafe enters the Good Food Guide", "webUrl": "https://www.theguardian.com/uk-news/2015/aug/29/a-shed-load-of-top-cuisine-in-anglesey-food-wales", "apiUrl": "https://content.guardianapis.com/uk-news/2015/aug/29/a-shed-load-of-top-cuisine-in-anglesey-food-wales", "isHosted": false, "pillarId": "pillar/news", "pillarName": "News"}, {"id": "lifeandstyle/2015/aug/29/raspberry-recipes-salad-ice-cream-thomasina-miers", "type": "article", "sectionId": "food", "sectionName": "Food", "webPublicationDate": "2015-08-29T07:00:08Z", "webTitle": "The weekend cook: Thomasina Miers\u2019 raspberry recipes", "webUrl": "https://www.theguardian.com/lifeandstyle/2015/aug/29/raspberry-recipes-salad-ice-cream-thomasina-miers", "apiUrl": "https://content.guardianapis.com/lifeandstyle/2015/aug/29/raspberry-recipes-salad-ice-cream-thomasina-miers", "isHosted": false, "pillarId": "pillar/lifestyle", "pillarName": "Lifestyle"}, {"id": "lifeandstyle/2015/aug/29/family-life-secret-archive-losing-my-religion-rem-pink-salad", "type": "article", "sectionId": "lifeandstyle", "sectionName": "Life and style", "webPublicationDate": "2015-08-29T05:29:06Z", "webTitle": "Family life: a secret archive discovered, Losing My Religion by REM and Grandma Maisie\u2019s pink salad", "webUrl": "https://www.theguardian.com/lifeandstyle/2015/aug/29/family-life-secret-archive-losing-my-religion-rem-pink-salad", "apiUrl": "https://content.guardianapis.com/lifeandstyle/2015/aug/29/family-life-secret-archive-losing-my-religion-rem-pink-salad", "isHosted": false, "pillarId": "pillar/lifestyle", "pillarName": "Lifestyle"}, {"id": "lifeandstyle/2015/aug/29/readers-recipe-swap-raw", "type": "article", "sectionId": "lifeandstyle", "sectionName": "Life and style", "webPublicationDate": "2015-08-29T05:00:08Z", "webTitle": "Raw recipes | Readers Recipe Swap", "webUrl": "https://www.theguardian.com/lifeandstyle/2015/aug/29/readers-recipe-swap-raw", "apiUrl": "https://content.guardianapis.com/lifeandstyle/2015/aug/29/readers-recipe-swap-raw", "isHosted": false, "pillarId": "pillar/lifestyle", "pillarName": "Lifestyle"}, {"id": "lifeandstyle/2015/aug/29/rock-cake-recipe-apple-spice-cake-ruby-tandoh", "type": "article", "sectionId": "lifeandstyle", "sectionName": "Life and style", "webPublicationDate": "2015-08-29T05:00:08Z", "webTitle": "Ruby Tandoh\u2019s school of rock cakes | Ruby bakes", "webUrl": "https://www.theguardian.com/lifeandstyle/2015/aug/29/rock-cake-recipe-apple-spice-cake-ruby-tandoh", "apiUrl": "https://content.guardianapis.com/lifeandstyle/2015/aug/29/rock-cake-recipe-apple-spice-cake-ruby-tandoh", "isHosted": false, "pillarId": "pillar/lifestyle", "pillarName": "Lifestyle"}, {"id": "lifeandstyle/2015/aug/29/tom-ford-breakfast-of-champions", "type": "article", "sectionId": "lifeandstyle", "sectionName": "Life and style", "webPublicationDate": "2015-08-29T05:00:08Z", "webTitle": "Breakfast of champions: Tom Ford\u2019s iced coffee", "webUrl": "https://www.theguardian.com/lifeandstyle/2015/aug/29/tom-ford-breakfast-of-champions", "apiUrl": "https://content.guardianapis.com/lifeandstyle/2015/aug/29/tom-ford-breakfast-of-champions", "isHosted": false, "pillarId": "pillar/lifestyle", "pillarName": "Lifestyle"}, {"id": "lifeandstyle/2015/aug/29/great-british-bake-off-lion-loaf-crush", "type": "article", "sectionId": "food", "sectionName": "Food", "webPublicationDate": "2015-08-29T05:00:08Z", "webTitle": "Crush of the week: the Great British Bake Off\u2019s lion loaf", "webUrl": "https://www.theguardian.com/lifeandstyle/2015/aug/29/great-british-bake-off-lion-loaf-crush", "apiUrl": "https://content.guardianapis.com/lifeandstyle/2015/aug/29/great-british-bake-off-lion-loaf-crush", "isHosted": false, "pillarId": "pillar/lifestyle", "pillarName": "Lifestyle"}, {"id": "lifeandstyle/2015/aug/29/wine-burgundy-lidl", "type": "article", "sectionId": "food", "sectionName": "Food", "webPublicationDate": "2015-08-29T05:00:07Z", "webTitle": "Wine: got a taste for burgundy? Go to Lidl", "webUrl": "https://www.theguardian.com/lifeandstyle/2015/aug/29/wine-burgundy-lidl", "apiUrl": "https://content.guardianapis.com/lifeandstyle/2015/aug/29/wine-burgundy-lidl", "isHosted": false, "pillarId": "pillar/lifestyle", "pillarName": "Lifestyle"}, {"id": "lifeandstyle/2015/aug/28/plum-shrub-recipe-claire-thomson", "type": "article", "sectionId": "food", "sectionName": "Food", "webPublicationDate": "2015-08-28T16:00:13Z", "webTitle": "The good mixer: plum shrub with ginger ale", "webUrl": "https://www.theguardian.com/lifeandstyle/2015/aug/28/plum-shrub-recipe-claire-thomson", "apiUrl": "https://content.guardianapis.com/lifeandstyle/2015/aug/28/plum-shrub-recipe-claire-thomson", "isHosted": false, "pillarId": "pillar/lifestyle", "pillarName": "Lifestyle"}, {"id": "lifeandstyle/2015/aug/28/chapul-exo-jungle-cricket-flour-bars-eating-insects-usda-fda", "type": "article", "sectionId": "lifeandstyle", "sectionName": "Life and style", "webPublicationDate": "2015-08-28T15:09:54Z", "webTitle": "Is the US ready to stomach eating bugs?", "webUrl": "https://www.theguardian.com/lifeandstyle/2015/aug/28/chapul-exo-jungle-cricket-flour-bars-eating-insects-usda-fda", "apiUrl": "https://content.guardianapis.com/lifeandstyle/2015/aug/28/chapul-exo-jungle-cricket-flour-bars-eating-insects-usda-fda", "isHosted": false, "pillarId": "pillar/lifestyle", "pillarName": "Lifestyle"}, {"id": "lifeandstyle/2015/aug/28/ognisko-london-sw7-restaurant-review-marina-oloughlin", "type": "article", "sectionId": "lifeandstyle", "sectionName": "Life and style", "webPublicationDate": "2015-08-28T13:00:02Z", "webTitle": "Ognisko, London SW7 \u2013 restaurant review", "webUrl": "https://www.theguardian.com/lifeandstyle/2015/aug/28/ognisko-london-sw7-restaurant-review-marina-oloughlin", "apiUrl": "https://content.guardianapis.com/lifeandstyle/2015/aug/28/ognisko-london-sw7-restaurant-review-marina-oloughlin", "isHosted": false, "pillarId": "pillar/lifestyle", "pillarName": "Lifestyle"}, {"id": "lifeandstyle/2015/aug/28/chef-mary-ellen-mctague-last-meal", "type": "article", "sectionId": "lifeandstyle", "sectionName": "Life and style", "webPublicationDate": "2015-08-28T11:30:01Z", "webTitle": "A farm farewell: Mary Ellen McTague\u2019s last meal | Last Bites", "webUrl": "https://www.theguardian.com/lifeandstyle/2015/aug/28/chef-mary-ellen-mctague-last-meal", "apiUrl": "https://content.guardianapis.com/lifeandstyle/2015/aug/28/chef-mary-ellen-mctague-last-meal", "isHosted": false, "pillarId": "pillar/lifestyle", "pillarName": "Lifestyle"}, {"id": "lifeandstyle/2015/aug/28/a-fright-on-the-tiles-a-paella-recipe-without-the-drama", "type": "article", "sectionId": "lifeandstyle", "sectionName": "Life and style", "webPublicationDate": "2015-08-28T11:00:03Z", "webTitle": "A fright on the tiles: a paella recipe without the drama | Feasting", "webUrl": "https://www.theguardian.com/lifeandstyle/2015/aug/28/a-fright-on-the-tiles-a-paella-recipe-without-the-drama", "apiUrl": "https://content.guardianapis.com/lifeandstyle/2015/aug/28/a-fright-on-the-tiles-a-paella-recipe-without-the-drama", "isHosted": false, "pillarId": "pillar/lifestyle", "pillarName": "Lifestyle"}, {"id": "lifeandstyle/2015/aug/28/empire-drinks-novels-crave-booze-fiction", "type": "article", "sectionId": "lifeandstyle", "sectionName": "Life and style", "webPublicationDate": "2015-08-28T11:00:03Z", "webTitle": "Novels that will make you crave booze | Empire of Drinks", "webUrl": "https://www.theguardian.com/lifeandstyle/2015/aug/28/empire-drinks-novels-crave-booze-fiction", "apiUrl": "https://content.guardianapis.com/lifeandstyle/2015/aug/28/empire-drinks-novels-crave-booze-fiction", "isHosted": false, "pillarId": "pillar/lifestyle", "pillarName": "Lifestyle"}, {"id": "artanddesign/2015/aug/28/inns-whimsical-pubs-interwar-years-win-grade-ii-listing", "type": "article", "sectionId": "artanddesign", "sectionName": "Art and design", "webPublicationDate": "2015-08-28T06:00:06Z", "webTitle": "The innbetweeners: whimsical pubs of interwar years win Grade II listing", "webUrl": "https://www.theguardian.com/artanddesign/2015/aug/28/inns-whimsical-pubs-interwar-years-win-grade-ii-listing", "apiUrl": "https://content.guardianapis.com/artanddesign/2015/aug/28/inns-whimsical-pubs-interwar-years-win-grade-ii-listing", "isHosted": false, "pillarId": "pillar/arts", "pillarName": "Arts"}, {"id": "travel/2015/aug/28/whats-new-in-new-orleans-the-citys-post-katrina-highlights", "type": "article", "sectionId": "travel", "sectionName": "Travel", "webPublicationDate": "2015-08-28T05:30:03Z", "webTitle": "What\u2019s new in New Orleans? The city\u2019s post-Katrina highlights", "webUrl": "https://www.theguardian.com/travel/2015/aug/28/whats-new-in-new-orleans-the-citys-post-katrina-highlights", "apiUrl": "https://content.guardianapis.com/travel/2015/aug/28/whats-new-in-new-orleans-the-citys-post-katrina-highlights", "isHosted": false, "pillarId": "pillar/lifestyle", "pillarName": "Lifestyle"}, {"id": "lifeandstyle/2015/aug/27/bakded-potato-beans-on-toast-recipes-cornershop-ingredients", "type": "article", "sectionId": "lifeandstyle", "sectionName": "Life and style", "webPublicationDate": "2015-08-27T11:39:03Z", "webTitle": "Get creative with convenience store standby recipes | Cook residency", "webUrl": "https://www.theguardian.com/lifeandstyle/2015/aug/27/bakded-potato-beans-on-toast-recipes-cornershop-ingredients", "apiUrl": "https://content.guardianapis.com/lifeandstyle/2015/aug/27/bakded-potato-beans-on-toast-recipes-cornershop-ingredients", "isHosted": false, "pillarId": "pillar/lifestyle", "pillarName": "Lifestyle"}, {"id": "lifeandstyle/wordofmouth/2015/aug/27/can-craft-beer-really-be-defined-were-about-to-find-out", "type": "article", "sectionId": "lifeandstyle", "sectionName": "Life and style", "webPublicationDate": "2015-08-27T11:05:43Z", "webTitle": "Can craft beer really be defined? We're about to find out", "webUrl": "https://www.theguardian.com/lifeandstyle/wordofmouth/2015/aug/27/can-craft-beer-really-be-defined-were-about-to-find-out", "apiUrl": "https://content.guardianapis.com/lifeandstyle/wordofmouth/2015/aug/27/can-craft-beer-really-be-defined-were-about-to-find-out", "isHosted": false, "pillarId": "pillar/lifestyle", "pillarName": "Lifestyle"}, {"id": "lifeandstyle/2015/aug/27/how-to-make-the-perfect-porchetta", "type": "article", "sectionId": "food", "sectionName": "Food", "webPublicationDate": "2015-08-27T07:10:00Z", "webTitle": "How to make the perfect porchetta", "webUrl": "https://www.theguardian.com/lifeandstyle/2015/aug/27/how-to-make-the-perfect-porchetta", "apiUrl": "https://content.guardianapis.com/lifeandstyle/2015/aug/27/how-to-make-the-perfect-porchetta", "isHosted": false, "pillarId": "pillar/lifestyle", "pillarName": "Lifestyle"}, {"id": "world/2015/aug/27/russian-sanctions-quiz-forbidden-food-and-contraband-clothes", "type": "article", "sectionId": "world", "sectionName": "World news", "webPublicationDate": "2015-08-27T06:00:20Z", "webTitle": "Forbidden food and contraband clothes: the Russian sanctions quiz", "webUrl": "https://www.theguardian.com/world/2015/aug/27/russian-sanctions-quiz-forbidden-food-and-contraband-clothes", "apiUrl": "https://content.guardianapis.com/world/2015/aug/27/russian-sanctions-quiz-forbidden-food-and-contraband-clothes", "isHosted": false, "pillarId": "pillar/news", "pillarName": "News"}, {"id": "tv-and-radio/2015/aug/27/terry-wogan-bbc2-terry-and-mason-great-food-trip-interview", "type": "article", "sectionId": "tv-and-radio", "sectionName": "Television & radio", "webPublicationDate": "2015-08-27T06:00:19Z", "webTitle": "Terry Wogan: 'If I squeeze another sausage I'll go mad'", "webUrl": "https://www.theguardian.com/tv-and-radio/2015/aug/27/terry-wogan-bbc2-terry-and-mason-great-food-trip-interview", "apiUrl": "https://content.guardianapis.com/tv-and-radio/2015/aug/27/terry-wogan-bbc2-terry-and-mason-great-food-trip-interview", "isHosted": false, "pillarId": "pillar/arts", "pillarName": "Arts"}, {"id": "environment/2015/aug/27/why-i-ate-a-roadkill-squirrel", "type": "article", "sectionId": "environment", "sectionName": "Environment", "webPublicationDate": "2015-08-27T05:00:17Z", "webTitle": "Why I ate a roadkill squirrel", "webUrl": "https://www.theguardian.com/environment/2015/aug/27/why-i-ate-a-roadkill-squirrel", "apiUrl": "https://content.guardianapis.com/environment/2015/aug/27/why-i-ate-a-roadkill-squirrel", "isHosted": false, "pillarId": "pillar/news", "pillarName": "News"}, {"id": "lifeandstyle/australia-food-blog/2015/aug/27/not-all-cuisines-are-created-equal-so-which-country-has-the-worst-food", "type": "article", "sectionId": "food", "sectionName": "Food", "webPublicationDate": "2015-08-27T01:29:52Z", "webTitle": "Not all cuisines are created equal, so which country has the worst food?", "webUrl": "https://www.theguardian.com/lifeandstyle/australia-food-blog/2015/aug/27/not-all-cuisines-are-created-equal-so-which-country-has-the-worst-food", "apiUrl": "https://content.guardianapis.com/lifeandstyle/australia-food-blog/2015/aug/27/not-all-cuisines-are-created-equal-so-which-country-has-the-worst-food", "isHosted": false, "pillarId": "pillar/lifestyle", "pillarName": "Lifestyle"}, {"id": "lifeandstyle/shortcuts/2015/aug/26/a-parisian-baguette-shortage-quelle-horreur", "type": "article", "sectionId": "food", "sectionName": "Food", "webPublicationDate": "2015-08-26T18:14:06Z", "webTitle": "A Parisian baguette shortage? Quelle horreur!", "webUrl": "https://www.theguardian.com/lifeandstyle/shortcuts/2015/aug/26/a-parisian-baguette-shortage-quelle-horreur", "apiUrl": "https://content.guardianapis.com/lifeandstyle/shortcuts/2015/aug/26/a-parisian-baguette-shortage-quelle-horreur", "isHosted": false, "pillarId": "pillar/lifestyle", "pillarName": "Lifestyle"}, {"id": "lifeandstyle/2015/aug/26/garum-sauce-colatura-di-alici-italy-fish", "type": "article", "sectionId": "food", "sectionName": "Food", "webPublicationDate": "2015-08-26T16:32:49Z", "webTitle": "Garum sauce: ancient Rome's 'ketchup' becomes a modern-day secret ingredient", "webUrl": "https://www.theguardian.com/lifeandstyle/2015/aug/26/garum-sauce-colatura-di-alici-italy-fish", "apiUrl": "https://content.guardianapis.com/lifeandstyle/2015/aug/26/garum-sauce-colatura-di-alici-italy-fish", "isHosted": false, "pillarId": "pillar/lifestyle", "pillarName": "Lifestyle"}, {"id": "lifeandstyle/2015/aug/26/best-cookbooks-all-time-chosen-by-experts", "type": "article", "sectionId": "food", "sectionName": "Food", "webPublicationDate": "2015-08-26T14:50:21Z", "webTitle": "The best cookbooks of all time, as chosen by the experts", "webUrl": "https://www.theguardian.com/lifeandstyle/2015/aug/26/best-cookbooks-all-time-chosen-by-experts", "apiUrl": "https://content.guardianapis.com/lifeandstyle/2015/aug/26/best-cookbooks-all-time-chosen-by-experts", "isHosted": false, "pillarId": "pillar/lifestyle", "pillarName": "Lifestyle"}, {"id": "lifeandstyle/2015/aug/26/why-does-rocket-taste-awful", "type": "article", "sectionId": "lifeandstyle", "sectionName": "Life and style", "webPublicationDate": "2015-08-26T14:05:17Z", "webTitle": "Do you have to be middle-class to like rocket? (I think it\u2019s horrible)", "webUrl": "https://www.theguardian.com/lifeandstyle/2015/aug/26/why-does-rocket-taste-awful", "apiUrl": "https://content.guardianapis.com/lifeandstyle/2015/aug/26/why-does-rocket-taste-awful", "isHosted": false, "pillarId": "pillar/lifestyle", "pillarName": "Lifestyle"}, {"id": "lifeandstyle/2015/aug/26/recipe-swap-noodles", "type": "article", "sectionId": "food", "sectionName": "Food", "webPublicationDate": "2015-08-26T13:31:58Z", "webTitle": "Recipe swap: noodles", "webUrl": "https://www.theguardian.com/lifeandstyle/2015/aug/26/recipe-swap-noodles", "apiUrl": "https://content.guardianapis.com/lifeandstyle/2015/aug/26/recipe-swap-noodles", "isHosted": false, "pillarId": "pillar/lifestyle", "pillarName": "Lifestyle"}, {"id": "lifeandstyle/2015/aug/26/kitchen-gadgets-review-aircraft-aluminium-rolling-pin", "type": "article", "sectionId": "lifeandstyle", "sectionName": "Life and style", "webPublicationDate": "2015-08-26T10:49:42Z", "webTitle": "Kitchen gadgets review: Aircraft Aluminium Rolling Pin \u2013 the least domestic thing I\u2018ve ever seen", "webUrl": "https://www.theguardian.com/lifeandstyle/2015/aug/26/kitchen-gadgets-review-aircraft-aluminium-rolling-pin", "apiUrl": "https://content.guardianapis.com/lifeandstyle/2015/aug/26/kitchen-gadgets-review-aircraft-aluminium-rolling-pin", "isHosted": false, "pillarId": "pillar/lifestyle", "pillarName": "Lifestyle"}, {"id": "lifeandstyle/australia-food-blog/2015/aug/26/tipping-in-australia-what-are-the-rules-for-rewarding-waiters", "type": "article", "sectionId": "lifeandstyle", "sectionName": "Life and style", "webPublicationDate": "2015-08-25T23:52:58Z", "webTitle": "Tipping in Australia:\u00a0what are the rules for rewarding waiters?", "webUrl": "https://www.theguardian.com/lifeandstyle/australia-food-blog/2015/aug/26/tipping-in-australia-what-are-the-rules-for-rewarding-waiters", "apiUrl": "https://content.guardianapis.com/lifeandstyle/australia-food-blog/2015/aug/26/tipping-in-australia-what-are-the-rules-for-rewarding-waiters", "isHosted": false, "pillarId": "pillar/lifestyle", "pillarName": "Lifestyle"}, {"id": "sustainable-business/2015/aug/25/coca-cola-replenish-water-goals-early-watersheds", "type": "article", "sectionId": "sustainable-business", "sectionName": "Guardian Sustainable Business", "webPublicationDate": "2015-08-25T23:08:45Z", "webTitle": "Coca-Cola to reach water goal five years early", "webUrl": "https://www.theguardian.com/sustainable-business/2015/aug/25/coca-cola-replenish-water-goals-early-watersheds", "apiUrl": "https://content.guardianapis.com/sustainable-business/2015/aug/25/coca-cola-replenish-water-goals-early-watersheds", "isHosted": false}, {"id": "business/2015/aug/25/just-mayo-mayonnaise-eggs-name-fda", "type": "article", "sectionId": "business", "sectionName": "Business", "webPublicationDate": "2015-08-25T19:42:09Z", "webTitle": "Just Mayo is just not mayo: FDA says eggless mayonnaise must change name", "webUrl": "https://www.theguardian.com/business/2015/aug/25/just-mayo-mayonnaise-eggs-name-fda", "apiUrl": "https://content.guardianapis.com/business/2015/aug/25/just-mayo-mayonnaise-eggs-name-fda", "isHosted": false, "pillarId": "pillar/news", "pillarName": "News"}, {"id": "us-news/2015/aug/25/america-tipping-restaurants-minimum-wage-service", "type": "article", "sectionId": "us-news", "sectionName": "US news", "webPublicationDate": "2015-08-25T17:21:36Z", "webTitle": "What's behind America's burning desire to stick with tipping at restaurants?", "webUrl": "https://www.theguardian.com/us-news/2015/aug/25/america-tipping-restaurants-minimum-wage-service", "apiUrl": "https://content.guardianapis.com/us-news/2015/aug/25/america-tipping-restaurants-minimum-wage-service", "isHosted": false, "pillarId": "pillar/news", "pillarName": "News"}, {"id": "lifeandstyle/2015/aug/25/millennials-whiskey-trend-vodka", "type": "article", "sectionId": "food", "sectionName": "Food", "webPublicationDate": "2015-08-25T16:15:15Z", "webTitle": "Why millennials are ditching vodka for Manhattans and picklebacks", "webUrl": "https://www.theguardian.com/lifeandstyle/2015/aug/25/millennials-whiskey-trend-vodka", "apiUrl": "https://content.guardianapis.com/lifeandstyle/2015/aug/25/millennials-whiskey-trend-vodka", "isHosted": false, "pillarId": "pillar/lifestyle", "pillarName": "Lifestyle"}, {"id": "lifeandstyle/shortcuts/2015/aug/25/kale-crisis-aphids-could-destroy-the-superfood-smoothie-revolution", "type": "article", "sectionId": "food", "sectionName": "Food", "webPublicationDate": "2015-08-25T15:04:02Z", "webTitle": "Kale crisis: aphids could destroy the superfood-smoothie revolution\r\n\r\n", "webUrl": "https://www.theguardian.com/lifeandstyle/shortcuts/2015/aug/25/kale-crisis-aphids-could-destroy-the-superfood-smoothie-revolution", "apiUrl": "https://content.guardianapis.com/lifeandstyle/shortcuts/2015/aug/25/kale-crisis-aphids-could-destroy-the-superfood-smoothie-revolution", "isHosted": false, "pillarId": "pillar/lifestyle", "pillarName": "Lifestyle"}, {"id": "commentisfree/2015/aug/25/sunday-roast-menu-head-to-head", "type": "article", "sectionId": "commentisfree", "sectionName": "Opinion", "webPublicationDate": "2015-08-25T15:00:03Z", "webTitle": "Should Sunday roast dinners still be on the menu? | Fay Schopen and Philip Hoare", "webUrl": "https://www.theguardian.com/commentisfree/2015/aug/25/sunday-roast-menu-head-to-head", "apiUrl": "https://content.guardianapis.com/commentisfree/2015/aug/25/sunday-roast-menu-head-to-head", "isHosted": false, "pillarId": "pillar/opinion", "pillarName": "Opinion"}, {"id": "lifeandstyle/australia-food-blog/2015/aug/25/fitzroy-fried-chicken-and-other-delights-why-the-dirty-bird-is-so-hot-right-now", "type": "article", "sectionId": "lifeandstyle", "sectionName": "Life and style", "webPublicationDate": "2015-08-25T03:32:04Z", "webTitle": "Fitzroy fried chicken and other delights: why the dirty bird is so hot right now", "webUrl": "https://www.theguardian.com/lifeandstyle/australia-food-blog/2015/aug/25/fitzroy-fried-chicken-and-other-delights-why-the-dirty-bird-is-so-hot-right-now", "apiUrl": "https://content.guardianapis.com/lifeandstyle/australia-food-blog/2015/aug/25/fitzroy-fried-chicken-and-other-delights-why-the-dirty-bird-is-so-hot-right-now", "isHosted": false, "pillarId": "pillar/lifestyle", "pillarName": "Lifestyle"}, {"id": "lifeandstyle/2015/aug/24/cheap-healthy-dorm-room-recipes", "type": "article", "sectionId": "food", "sectionName": "Food", "webPublicationDate": "2015-08-24T15:38:36Z", "webTitle": "Campus cooking: three cheap and healthy dorm room recipes", "webUrl": "https://www.theguardian.com/lifeandstyle/2015/aug/24/cheap-healthy-dorm-room-recipes", "apiUrl": "https://content.guardianapis.com/lifeandstyle/2015/aug/24/cheap-healthy-dorm-room-recipes", "isHosted": false, "pillarId": "pillar/lifestyle", "pillarName": "Lifestyle"}, {"id": "lifeandstyle/wordofmouth/2015/aug/24/do-you-like-salad-youre-a-fool", "type": "article", "sectionId": "food", "sectionName": "Food", "webPublicationDate": "2015-08-24T15:08:49Z", "webTitle": "Do you like salad? You're a fool", "webUrl": "https://www.theguardian.com/lifeandstyle/wordofmouth/2015/aug/24/do-you-like-salad-youre-a-fool", "apiUrl": "https://content.guardianapis.com/lifeandstyle/wordofmouth/2015/aug/24/do-you-like-salad-youre-a-fool", "isHosted": false, "pillarId": "pillar/lifestyle", "pillarName": "Lifestyle"}, {"id": "lifeandstyle/2015/aug/24/heston-blumenthal-dogs-dinner-fat-duck", "type": "article", "sectionId": "lifeandstyle", "sectionName": "Life and style", "webPublicationDate": "2015-08-24T13:40:25Z", "webTitle": "Enough with Heston Blumenthal\u2019s puffing puddings at the Fat Duck \u2013 I\u2019d prefer a dog\u2019s dinner", "webUrl": "https://www.theguardian.com/lifeandstyle/2015/aug/24/heston-blumenthal-dogs-dinner-fat-duck", "apiUrl": "https://content.guardianapis.com/lifeandstyle/2015/aug/24/heston-blumenthal-dogs-dinner-fat-duck", "isHosted": false, "pillarId": "pillar/lifestyle", "pillarName": "Lifestyle"}]}}