{"response": {"status": "ok", "userTier": "developer", "total": 133424, "startIndex": 1, "pageSize": 50, "currentPage": 1, "pages": 2669, "orderBy": "newest", "results": [{"id": "business/2012/aug/31/banks-basic-account-cash-machines", "type": "article", "sectionId": "money", "sectionName": "Money", "webPublicationDate": "2012-08-30T23:10:11Z", "webTitle": "MPs urge banks to allow basic account customers to use rival ATMs", "webUrl": "https://www.theguardian.com/business/2012/aug/31/banks-basic-account-cash-machines", "apiUrl": "https://content.guardianapis.com/business/2012/aug/31/banks-basic-account-cash-machines", "isHosted": false, "pillarId": "pillar/lifestyle", "pillarName": "Lifestyle"}, {"id": "business/2012/aug/31/business-leaders-plead-stimulus-tuc-economy-shrink", "type": "article", "sectionId": "business", "sectionName": "Business", "webPublicationDate": "2012-08-30T23:04:00Z", "webTitle": "Business leaders plead for growth as CBI predicts economy will shrink 0.3%", "webUrl": "https://www.theguardian.com/business/2012/aug/31/business-leaders-plead-stimulus-tuc-economy-shrink", "apiUrl": "https://content.guardianapis.com/business/2012/aug/31/business-leaders-plead-stimulus-tuc-economy-shrink", "isHosted": false, "pillarId": "pillar/news", "pillarName": "News"}, {"id": "education/2012/aug/31/free-schools-government-wasting-millions", "type": "article", "sectionId": "education", "sectionName": "Education", "webPublicationDate": "2012-08-30T23:03:02Z", "webTitle": "Free schools: government accused of wasting \u00a32.3m", "webUrl": "https://www.theguardian.com/education/2012/aug/31/free-schools-government-wasting-millions", "apiUrl": "https://content.guardianapis.com/education/2012/aug/31/free-schools-government-wasting-millions", "isHosted": false, "pillarId": "pillar/news", "pillarName": "News"}, {"id": "commentisfree/2012/aug/30/cabinet-reshuffle-change-cameron-editorial", "type": "article", "sectionId": "commentisfree", "sectionName": "Opinion", "webPublicationDate": "2012-08-30T22:06:25Z", "webTitle": "Cabinet reshuffle: change and Mr Cameron | Editorial", "webUrl": "https://www.theguardian.com/commentisfree/2012/aug/30/cabinet-reshuffle-change-cameron-editorial", "apiUrl": "https://content.guardianapis.com/commentisfree/2012/aug/30/cabinet-reshuffle-change-cameron-editorial", "isHosted": false, "pillarId": "pillar/opinion", "pillarName": "Opinion"}, {"id": "politics/2012/aug/30/hugh-muir-diary-conrad-black-america", "type": "article", "sectionId": "politics", "sectionName": "Politics", "webPublicationDate": "2012-08-30T21:57:01Z", "webTitle": "Hugh Muir's diary", "webUrl": "https://www.theguardian.com/politics/2012/aug/30/hugh-muir-diary-conrad-black-america", "apiUrl": "https://content.guardianapis.com/politics/2012/aug/30/hugh-muir-diary-conrad-black-america", "isHosted": false, "pillarId": "pillar/news", "pillarName": "News"}, {"id": "commentisfree/cartoon/2012/aug/30/phil-disley-atos-paralympics-cartoon", "type": "picture", "sectionId": "commentisfree", "sectionName": "Opinion", "webPublicationDate": "2012-08-30T21:25:30Z", "webTitle": "Phil Disley on Atos's involvement with the Paralympics - cartoon", "webUrl": "https://www.theguardian.com/commentisfree/cartoon/2012/aug/30/phil-disley-atos-paralympics-cartoon", "apiUrl": "https://content.guardianapis.com/commentisfree/cartoon/2012/aug/30/phil-disley-atos-paralympics-cartoon", "isHosted": false, "pillarId": "pillar/opinion", "pillarName": "Opinion"}, {"id": "commentisfree/2012/aug/30/miliband-labour-forgive-lib-dems", "type": "article", "sectionId": "commentisfree", "sectionName": "Opinion", "webPublicationDate": "2012-08-30T20:30:00Z", "webTitle": "As Ed Miliband knows, Labour must learn to forgive the Lib Dems | Polly Toynbee", "webUrl": "https://www.theguardian.com/commentisfree/2012/aug/30/miliband-labour-forgive-lib-dems", "apiUrl": "https://content.guardianapis.com/commentisfree/2012/aug/30/miliband-labour-forgive-lib-dems", "isHosted": false, "pillarId": "pillar/opinion", "pillarName": "Opinion"}, {"id": "politics/2012/aug/30/nick-clegg-big-questions", "type": "article", "sectionId": "politics", "sectionName": "Politics", "webPublicationDate": "2012-08-30T19:59:01Z", "webTitle": "Letters: Nick Clegg and the big questions for all of us", "webUrl": "https://www.theguardian.com/politics/2012/aug/30/nick-clegg-big-questions", "apiUrl": "https://content.guardianapis.com/politics/2012/aug/30/nick-clegg-big-questions", "isHosted": false, "pillarId": "pillar/news", "pillarName": "News"}, {"id": "politics/2012/aug/30/ministers-nick-clegg-paddy-ashdown", "type": "article", "sectionId": "politics", "sectionName": "Politics", "webPublicationDate": "2012-08-30T19:50:58Z", "webTitle": "Lib Dem ministers should stand behind Nick Clegg, urges Paddy Ashdown", "webUrl": "https://www.theguardian.com/politics/2012/aug/30/ministers-nick-clegg-paddy-ashdown", "apiUrl": "https://content.guardianapis.com/politics/2012/aug/30/ministers-nick-clegg-paddy-ashdown", "isHosted": false, "pillarId": "pillar/news", "pillarName": "News"}, {"id": "media/2012/aug/30/martin-sorrell-wpp-london-move", "type": "article", "sectionId": "media", "sectionName": "Media", "webPublicationDate": "2012-08-30T19:35:45Z", "webTitle": "Martin Sorrell prepares to move WPP headquarters back to London", "webUrl": "https://www.theguardian.com/media/2012/aug/30/martin-sorrell-wpp-london-move", "apiUrl": "https://content.guardianapis.com/media/2012/aug/30/martin-sorrell-wpp-london-move", "isHosted": false, "pillarId": "pillar/news", "pillarName": "News"}, {"id": "commentisfree/2012/aug/30/liberal-democrats-must-back-nick-clegg", "type": "article", "sectionId": "commentisfree", "sectionName": "Opinion", "webPublicationDate": "2012-08-30T19:30:00Z", "webTitle": "Liberal Democrats must back Nick Clegg and let him finish the job | Paddy Ashdown", "webUrl": "https://www.theguardian.com/commentisfree/2012/aug/30/liberal-democrats-must-back-nick-clegg", "apiUrl": "https://content.guardianapis.com/commentisfree/2012/aug/30/liberal-democrats-must-back-nick-clegg", "isHosted": false, "pillarId": "pillar/opinion", "pillarName": "Opinion"}, {"id": "politics/2012/aug/30/osborne-to-cut-welfare-further", "type": "article", "sectionId": "politics", "sectionName": "Politics", "webPublicationDate": "2012-08-30T19:08:53Z", "webTitle": "Osborne prepares to cut welfare spending by a further \u00a310bn", "webUrl": "https://www.theguardian.com/politics/2012/aug/30/osborne-to-cut-welfare-further", "apiUrl": "https://content.guardianapis.com/politics/2012/aug/30/osborne-to-cut-welfare-further", "isHosted": false, "pillarId": "pillar/news", "pillarName": "News"}, {"id": "business/nils-pratley-on-finance/2012/aug/30/wpp-martin-sorrell-income-tax", "type": "article", "sectionId": "business", "sectionName": "Business", "webPublicationDate": "2012-08-30T18:44:46Z", "webTitle": "WPP boss Martin Sorrell criticises income tax cut", "webUrl": "https://www.theguardian.com/business/nils-pratley-on-finance/2012/aug/30/wpp-martin-sorrell-income-tax", "apiUrl": "https://content.guardianapis.com/business/nils-pratley-on-finance/2012/aug/30/wpp-martin-sorrell-income-tax", "isHosted": false, "pillarId": "pillar/news", "pillarName": "News"}, {"id": "politics/2012/aug/30/nick-clegg-hits-back-lib-dem-peer", "type": "article", "sectionId": "politics", "sectionName": "Politics", "webPublicationDate": "2012-08-30T17:31:07Z", "webTitle": "Nick Clegg hits back at Lib Dem peer", "webUrl": "https://www.theguardian.com/politics/2012/aug/30/nick-clegg-hits-back-lib-dem-peer", "apiUrl": "https://content.guardianapis.com/politics/2012/aug/30/nick-clegg-hits-back-lib-dem-peer", "isHosted": false, "pillarId": "pillar/news", "pillarName": "News"}, {"id": "politics/2012/aug/30/margaret-thatchers-suits-for-sale", "type": "article", "sectionId": "politics", "sectionName": "Politics", "webPublicationDate": "2012-08-30T16:02:45Z", "webTitle": "Margaret Thatcher's 70s suits up for sale", "webUrl": "https://www.theguardian.com/politics/2012/aug/30/margaret-thatchers-suits-for-sale", "apiUrl": "https://content.guardianapis.com/politics/2012/aug/30/margaret-thatchers-suits-for-sale", "isHosted": false, "pillarId": "pillar/news", "pillarName": "News"}, {"id": "education/video/2012/aug/30/london-metropolitan-university-students-march-video", "type": "video", "sectionId": "education", "sectionName": "Education", "webPublicationDate": "2012-08-30T15:22:00Z", "webTitle": "London Met students march on Downing Street - video", "webUrl": "https://www.theguardian.com/education/video/2012/aug/30/london-metropolitan-university-students-march-video", "apiUrl": "https://content.guardianapis.com/education/video/2012/aug/30/london-metropolitan-university-students-march-video", "isHosted": false, "pillarId": "pillar/news", "pillarName": "News"}, {"id": "politics/blog/2012/aug/30/a-new-marching-dispute", "type": "article", "sectionId": "politics", "sectionName": "Politics", "webPublicationDate": "2012-08-30T14:52:00Z", "webTitle": "Loyalists create a new flashpoint and shoot themselves in foot", "webUrl": "https://www.theguardian.com/politics/blog/2012/aug/30/a-new-marching-dispute", "apiUrl": "https://content.guardianapis.com/politics/blog/2012/aug/30/a-new-marching-dispute", "isHosted": false, "pillarId": "pillar/news", "pillarName": "News"}, {"id": "politics/audio/2012/aug/30/politics-weekly-podcast-leadership-cameron", "type": "audio", "sectionId": "politics", "sectionName": "Politics", "webPublicationDate": "2012-08-30T14:09:38Z", "webTitle": "Politics Weekly podcast: Who'd be a party leader?", "webUrl": "https://www.theguardian.com/politics/audio/2012/aug/30/politics-weekly-podcast-leadership-cameron", "apiUrl": "https://content.guardianapis.com/politics/audio/2012/aug/30/politics-weekly-podcast-leadership-cameron", "isHosted": false, "pillarId": "pillar/news", "pillarName": "News"}, {"id": "education/video/2012/aug/30/london-met-students-vice-chancellor-video", "type": "video", "sectionId": "education", "sectionName": "Education", "webPublicationDate": "2012-08-30T13:56:00Z", "webTitle": "London Met concentrating on students, says vice-chancellor - video", "webUrl": "https://www.theguardian.com/education/video/2012/aug/30/london-met-students-vice-chancellor-video", "apiUrl": "https://content.guardianapis.com/education/video/2012/aug/30/london-met-students-vice-chancellor-video", "isHosted": false, "pillarId": "pillar/news", "pillarName": "News"}, {"id": "politics/2012/aug/30/rhodes-boyson", "type": "article", "sectionId": "politics", "sectionName": "Politics", "webPublicationDate": "2012-08-30T13:48:48Z", "webTitle": "Sir Rhodes Boyson obituary", "webUrl": "https://www.theguardian.com/politics/2012/aug/30/rhodes-boyson", "apiUrl": "https://content.guardianapis.com/politics/2012/aug/30/rhodes-boyson", "isHosted": false, "pillarId": "pillar/news", "pillarName": "News"}, {"id": "education/2012/aug/30/london-metropolitan-university-international-students", "type": "article", "sectionId": "education", "sectionName": "Education", "webPublicationDate": "2012-08-30T13:45:00Z", "webTitle": "London Met crisis will damage UK's brand, says vice-chancellor", "webUrl": "https://www.theguardian.com/education/2012/aug/30/london-metropolitan-university-international-students", "apiUrl": "https://content.guardianapis.com/education/2012/aug/30/london-metropolitan-university-international-students", "isHosted": false, "pillarId": "pillar/news", "pillarName": "News"}, {"id": "business/economics-blog/2012/aug/30/cbi-george-osborne-growth-forecast", "type": "article", "sectionId": "business", "sectionName": "Business", "webPublicationDate": "2012-08-30T12:57:17Z", "webTitle": "CBI sticking with Osborne despite slashing UK growth forecast", "webUrl": "https://www.theguardian.com/business/economics-blog/2012/aug/30/cbi-george-osborne-growth-forecast", "apiUrl": "https://content.guardianapis.com/business/economics-blog/2012/aug/30/cbi-george-osborne-growth-forecast", "isHosted": false, "pillarId": "pillar/news", "pillarName": "News"}, {"id": "commentisfree/2012/aug/30/stop-playing-net-migration-numbers-game", "type": "article", "sectionId": "commentisfree", "sectionName": "Opinion", "webPublicationDate": "2012-08-30T12:40:00Z", "webTitle": "Stop playing the net migration numbers game | Sarah Mulley", "webUrl": "https://www.theguardian.com/commentisfree/2012/aug/30/stop-playing-net-migration-numbers-game", "apiUrl": "https://content.guardianapis.com/commentisfree/2012/aug/30/stop-playing-net-migration-numbers-game", "isHosted": false, "pillarId": "pillar/opinion", "pillarName": "Opinion"}, {"id": "education/2012/aug/30/london-metropolitan-university-visa-revoked", "type": "article", "sectionId": "education", "sectionName": "Education", "webPublicationDate": "2012-08-30T12:31:58Z", "webTitle": "London Metropolitan University visa licence revoked: Q&A", "webUrl": "https://www.theguardian.com/education/2012/aug/30/london-metropolitan-university-visa-revoked", "apiUrl": "https://content.guardianapis.com/education/2012/aug/30/london-metropolitan-university-visa-revoked", "isHosted": false, "pillarId": "pillar/news", "pillarName": "News"}, {"id": "commentisfree/2012/aug/30/unpaid-work-experience-jobseekers", "type": "article", "sectionId": "commentisfree", "sectionName": "Opinion", "webPublicationDate": "2012-08-30T12:11:09Z", "webTitle": "If we insist on unpaid work experience, let jobseekers choose their placement | Steph Weedy", "webUrl": "https://www.theguardian.com/commentisfree/2012/aug/30/unpaid-work-experience-jobseekers", "apiUrl": "https://content.guardianapis.com/commentisfree/2012/aug/30/unpaid-work-experience-jobseekers", "isHosted": false, "pillarId": "pillar/opinion", "pillarName": "Opinion"}, {"id": "media/2012/aug/30/bbc-trust-diane-abbott-this-week", "type": "article", "sectionId": "media", "sectionName": "Media", "webPublicationDate": "2012-08-30T11:51:26Z", "webTitle": "BBC Trust finds broadcaster breached its rules over fees for MP Diane Abbott", "webUrl": "https://www.theguardian.com/media/2012/aug/30/bbc-trust-diane-abbott-this-week", "apiUrl": "https://content.guardianapis.com/media/2012/aug/30/bbc-trust-diane-abbott-this-week", "isHosted": false, "pillarId": "pillar/news", "pillarName": "News"}, {"id": "uk/video/2012/aug/30/immigration-figures-damian-green-video", "type": "video", "sectionId": "uk-news", "sectionName": "UK news", "webPublicationDate": "2012-08-30T11:50:00Z", "webTitle": "Immigration figures benefiting from strong measures, says Damian Green - video", "webUrl": "https://www.theguardian.com/uk/video/2012/aug/30/immigration-figures-damian-green-video", "apiUrl": "https://content.guardianapis.com/uk/video/2012/aug/30/immigration-figures-damian-green-video", "isHosted": false, "pillarId": "pillar/news", "pillarName": "News"}, {"id": "world/gallery/2012/aug/30/republican-national-convention-in-pictures", "type": "gallery", "sectionId": "us-news", "sectionName": "US news", "webPublicationDate": "2012-08-30T11:47:06Z", "webTitle": "Republican national convention day three - in pictures", "webUrl": "https://www.theguardian.com/world/gallery/2012/aug/30/republican-national-convention-in-pictures", "apiUrl": "https://content.guardianapis.com/world/gallery/2012/aug/30/republican-national-convention-in-pictures", "isHosted": false, "pillarId": "pillar/news", "pillarName": "News"}, {"id": "politics/2012/aug/30/dr-rhodes-boyson-dies-87", "type": "article", "sectionId": "politics", "sectionName": "Politics", "webPublicationDate": "2012-08-30T11:00:55Z", "webTitle": "Sir Rhodes Boyson dies aged 87", "webUrl": "https://www.theguardian.com/politics/2012/aug/30/dr-rhodes-boyson-dies-87", "apiUrl": "https://content.guardianapis.com/politics/2012/aug/30/dr-rhodes-boyson-dies-87", "isHosted": false, "pillarId": "pillar/news", "pillarName": "News"}, {"id": "society/patrick-butler-cuts-blog/2012/aug/30/welfare-cuts-when-charity-workers-pick-up-thebill", "type": "article", "sectionId": "society", "sectionName": "Society", "webPublicationDate": "2012-08-30T10:21:02Z", "webTitle": "Welfare cuts: when all else fails, it's charity workers who pay the bills", "webUrl": "https://www.theguardian.com/society/patrick-butler-cuts-blog/2012/aug/30/welfare-cuts-when-charity-workers-pick-up-thebill", "apiUrl": "https://content.guardianapis.com/society/patrick-butler-cuts-blog/2012/aug/30/welfare-cuts-when-charity-workers-pick-up-thebill", "isHosted": false, "pillarId": "pillar/news", "pillarName": "News"}, {"id": "politics/2012/aug/30/lib-dems-nick-clegg-peer", "type": "article", "sectionId": "politics", "sectionName": "Politics", "webPublicationDate": "2012-08-30T10:17:32Z", "webTitle": "Lib Dems should consider deposing Nick Clegg, says peer", "webUrl": "https://www.theguardian.com/politics/2012/aug/30/lib-dems-nick-clegg-peer", "apiUrl": "https://content.guardianapis.com/politics/2012/aug/30/lib-dems-nick-clegg-peer", "isHosted": false, "pillarId": "pillar/news", "pillarName": "News"}, {"id": "film/video/2012/aug/30/queen-of-versailles-clip", "type": "video", "sectionId": "film", "sectionName": "Film", "webPublicationDate": "2012-08-30T08:32:00Z", "webTitle": "The Queen of Versailles: watch an exclusive clip", "webUrl": "https://www.theguardian.com/film/video/2012/aug/30/queen-of-versailles-clip", "apiUrl": "https://content.guardianapis.com/film/video/2012/aug/30/queen-of-versailles-clip", "isHosted": false, "pillarId": "pillar/arts", "pillarName": "Arts"}, {"id": "commentisfree/2012/aug/30/paid-work-britain-values", "type": "article", "sectionId": "commentisfree", "sectionName": "Opinion", "webPublicationDate": "2012-08-30T08:00:26Z", "webTitle": "Why did paid work become the only thing Britain really values? | Ellie Mae O'Hagan", "webUrl": "https://www.theguardian.com/commentisfree/2012/aug/30/paid-work-britain-values", "apiUrl": "https://content.guardianapis.com/commentisfree/2012/aug/30/paid-work-britain-values", "isHosted": false, "pillarId": "pillar/opinion", "pillarName": "Opinion"}, {"id": "politics/2012/aug/30/politics-live-readers-edition-30-august", "type": "article", "sectionId": "politics", "sectionName": "Politics", "webPublicationDate": "2012-08-30T08:00:00Z", "webTitle": "Politics live: readers' edition - Thursday 30 August", "webUrl": "https://www.theguardian.com/politics/2012/aug/30/politics-live-readers-edition-30-august", "apiUrl": "https://content.guardianapis.com/politics/2012/aug/30/politics-live-readers-edition-30-august", "isHosted": false, "pillarId": "pillar/news", "pillarName": "News"}, {"id": "social-care-network/2012/aug/30/disabled-people-tidal-wave-prejudice-discrimination", "type": "article", "sectionId": "social-care-network", "sectionName": "Social Care Network", "webPublicationDate": "2012-08-30T07:30:00Z", "webTitle": "Disabled people face a tidal wave of prejudice and discrimination", "webUrl": "https://www.theguardian.com/social-care-network/2012/aug/30/disabled-people-tidal-wave-prejudice-discrimination", "apiUrl": "https://content.guardianapis.com/social-care-network/2012/aug/30/disabled-people-tidal-wave-prejudice-discrimination", "isHosted": false, "pillarId": "pillar/news", "pillarName": "News"}, {"id": "public-leaders-network/2012/aug/30/civil-service-whitehall-reality-check", "type": "article", "sectionId": "public-leaders-network", "sectionName": "Public Leaders Network", "webPublicationDate": "2012-08-30T07:00:01Z", "webTitle": "Whitehall needs reality check over civil service talent cut", "webUrl": "https://www.theguardian.com/public-leaders-network/2012/aug/30/civil-service-whitehall-reality-check", "apiUrl": "https://content.guardianapis.com/public-leaders-network/2012/aug/30/civil-service-whitehall-reality-check", "isHosted": false, "pillarId": "pillar/news", "pillarName": "News"}, {"id": "commentisfree/cartoon/2012/aug/29/nick-clegg-tax-proposals-cartoon", "type": "picture", "sectionId": "commentisfree", "sectionName": "Opinion", "webPublicationDate": "2012-08-29T22:04:07Z", "webTitle": "Martin Rowson on Nick Clegg's tax proposals", "webUrl": "https://www.theguardian.com/commentisfree/cartoon/2012/aug/29/nick-clegg-tax-proposals-cartoon", "apiUrl": "https://content.guardianapis.com/commentisfree/cartoon/2012/aug/29/nick-clegg-tax-proposals-cartoon", "isHosted": false, "pillarId": "pillar/opinion", "pillarName": "Opinion"}, {"id": "politics/2012/aug/29/hugh-muir-diary-cheshire-conservative-club", "type": "article", "sectionId": "politics", "sectionName": "Politics", "webPublicationDate": "2012-08-29T21:56:01Z", "webTitle": "Hugh Muir's Diary", "webUrl": "https://www.theguardian.com/politics/2012/aug/29/hugh-muir-diary-cheshire-conservative-club", "apiUrl": "https://content.guardianapis.com/politics/2012/aug/29/hugh-muir-diary-cheshire-conservative-club", "isHosted": false, "pillarId": "pillar/news", "pillarName": "News"}, {"id": "commentisfree/2012/aug/29/honours-community-country-political-influence", "type": "article", "sectionId": "commentisfree", "sectionName": "Opinion", "webPublicationDate": "2012-08-29T21:00:01Z", "webTitle": "We honour the unsung who serve community and country", "webUrl": "https://www.theguardian.com/commentisfree/2012/aug/29/honours-community-country-political-influence", "apiUrl": "https://content.guardianapis.com/commentisfree/2012/aug/29/honours-community-country-political-influence", "isHosted": false, "pillarId": "pillar/opinion", "pillarName": "Opinion"}, {"id": "society/2012/aug/29/we-are-angry-no-one-listening", "type": "article", "sectionId": "society", "sectionName": "Society", "webPublicationDate": "2012-08-29T20:00:03Z", "webTitle": "Letter: We are angry, but no one's listening", "webUrl": "https://www.theguardian.com/society/2012/aug/29/we-are-angry-no-one-listening", "apiUrl": "https://content.guardianapis.com/society/2012/aug/29/we-are-angry-no-one-listening", "isHosted": false, "pillarId": "pillar/news", "pillarName": "News"}, {"id": "environment/2012/aug/29/runway-anywhere-but-london", "type": "article", "sectionId": "environment", "sectionName": "Environment", "webPublicationDate": "2012-08-29T20:00:02Z", "webTitle": "Letters: A runway anywhere but London", "webUrl": "https://www.theguardian.com/environment/2012/aug/29/runway-anywhere-but-london", "apiUrl": "https://content.guardianapis.com/environment/2012/aug/29/runway-anywhere-but-london", "isHosted": false, "pillarId": "pillar/news", "pillarName": "News"}, {"id": "politics/2012/aug/29/westminster-digested-osborne-worried", "type": "article", "sectionId": "politics", "sectionName": "Politics", "webPublicationDate": "2012-08-29T20:00:01Z", "webTitle": "Westminster digested: Osborne is a little worried", "webUrl": "https://www.theguardian.com/politics/2012/aug/29/westminster-digested-osborne-worried", "apiUrl": "https://content.guardianapis.com/politics/2012/aug/29/westminster-digested-osborne-worried", "isHosted": false, "pillarId": "pillar/news", "pillarName": "News"}, {"id": "commentisfree/2012/aug/29/nick-clegg-tax-wealthy", "type": "article", "sectionId": "commentisfree", "sectionName": "Opinion", "webPublicationDate": "2012-08-29T19:57:17Z", "webTitle": "Nick Clegg interview: taxing thoughts | Editorial", "webUrl": "https://www.theguardian.com/commentisfree/2012/aug/29/nick-clegg-tax-wealthy", "apiUrl": "https://content.guardianapis.com/commentisfree/2012/aug/29/nick-clegg-tax-wealthy", "isHosted": false, "pillarId": "pillar/opinion", "pillarName": "Opinion"}, {"id": "politics/2012/aug/29/lib-dems-french-style-tax-wealthy-assets", "type": "article", "sectionId": "politics", "sectionName": "Politics", "webPublicationDate": "2012-08-29T19:20:47Z", "webTitle": "Lib Dems will propose French-style tax on wealthy people's assets", "webUrl": "https://www.theguardian.com/politics/2012/aug/29/lib-dems-french-style-tax-wealthy-assets", "apiUrl": "https://content.guardianapis.com/politics/2012/aug/29/lib-dems-french-style-tax-wealthy-assets", "isHosted": false, "pillarId": "pillar/news", "pillarName": "News"}, {"id": "society/2012/aug/29/nhs-formal-complaints-rise-health", "type": "article", "sectionId": "society", "sectionName": "Society", "webPublicationDate": "2012-08-29T18:36:10Z", "webTitle": "Formal complaints about National Health Service rise by 8%", "webUrl": "https://www.theguardian.com/society/2012/aug/29/nhs-formal-complaints-rise-health", "apiUrl": "https://content.guardianapis.com/society/2012/aug/29/nhs-formal-complaints-rise-health", "isHosted": false, "pillarId": "pillar/news", "pillarName": "News"}, {"id": "politics/2012/aug/29/nick-clegg-lib-dems-tax", "type": "article", "sectionId": "politics", "sectionName": "Politics", "webPublicationDate": "2012-08-29T18:26:54Z", "webTitle": "Nick Clegg puts space between Lib Dems and Tories with tax bombshell", "webUrl": "https://www.theguardian.com/politics/2012/aug/29/nick-clegg-lib-dems-tax", "apiUrl": "https://content.guardianapis.com/politics/2012/aug/29/nick-clegg-lib-dems-tax", "isHosted": false, "pillarId": "pillar/news", "pillarName": "News"}, {"id": "commentisfree/2012/aug/29/free-schools-shambles-bradford", "type": "article", "sectionId": "commentisfree", "sectionName": "Opinion", "webPublicationDate": "2012-08-29T17:59:01Z", "webTitle": "This free schools shambles throws parents' dreams into doubt | Toby Blume", "webUrl": "https://www.theguardian.com/commentisfree/2012/aug/29/free-schools-shambles-bradford", "apiUrl": "https://content.guardianapis.com/commentisfree/2012/aug/29/free-schools-shambles-bradford", "isHosted": false, "pillarId": "pillar/opinion", "pillarName": "Opinion"}, {"id": "commentisfree/2012/aug/29/wealth-taxes-nick-clegg-bernard-jenkin", "type": "article", "sectionId": "commentisfree", "sectionName": "Opinion", "webPublicationDate": "2012-08-29T17:36:25Z", "webTitle": "Wealth taxes have failed elsewhere. Why does Nick Clegg propose them? | Bernard Jenkin", "webUrl": "https://www.theguardian.com/commentisfree/2012/aug/29/wealth-taxes-nick-clegg-bernard-jenkin", "apiUrl": "https://content.guardianapis.com/commentisfree/2012/aug/29/wealth-taxes-nick-clegg-bernard-jenkin", "isHosted": false, "pillarId": "pillar/opinion", "pillarName": "Opinion"}, {"id": "politics/shortcuts/2012/aug/29/nick-clegg-politics-of-envy", "type": "article", "sectionId": "politics", "sectionName": "Politics", "webPublicationDate": "2012-08-29T16:39:30Z", "webTitle": "Nick Clegg's 'politics of envy': a brief history", "webUrl": "https://www.theguardian.com/politics/shortcuts/2012/aug/29/nick-clegg-politics-of-envy", "apiUrl": "https://content.guardianapis.com/politics/shortcuts/2012/aug/29/nick-clegg-politics-of-envy", "isHosted": false, "pillarId": "pillar/news", "pillarName": "News"}, {"id": "politics/2012/aug/29/george-osborne-emergency-wealth-tax", "type": "article", "sectionId": "politics", "sectionName": "Politics", "webPublicationDate": "2012-08-29T13:47:00Z", "webTitle": "Emergency wealth tax could hamper recovery, Osborne warns", "webUrl": "https://www.theguardian.com/politics/2012/aug/29/george-osborne-emergency-wealth-tax", "apiUrl": "https://content.guardianapis.com/politics/2012/aug/29/george-osborne-emergency-wealth-tax", "isHosted": false, "pillarId": "pillar/news", "pillarName": "News"}]}}