{"response": {"status": "ok", "userTier": "developer", "total": 126603, "startIndex": 1, "pageSize": 50, "currentPage": 1, "pages": 2533, "orderBy": "newest", "results": [{"id": "politics/2010/aug/31/hugh-muir-mactaggart", "type": "article", "sectionId": "politics", "sectionName": "Politics", "webPublicationDate": "2010-08-30T23:15:02Z", "webTitle": "Hugh Muir's Diary", "webUrl": "https://www.theguardian.com/politics/2010/aug/31/hugh-muir-mactaggart", "apiUrl": "https://content.guardianapis.com/politics/2010/aug/31/hugh-muir-mactaggart", "isHosted": false, "pillarId": "pillar/news", "pillarName": "News"}, {"id": "commentisfree/2010/aug/31/in-praise-of-david-lloyd-george", "type": "article", "sectionId": "commentisfree", "sectionName": "Opinion", "webPublicationDate": "2010-08-30T23:05:12Z", "webTitle": "In praise of \u2026 David Lloyd George | Editorial", "webUrl": "https://www.theguardian.com/commentisfree/2010/aug/31/in-praise-of-david-lloyd-george", "apiUrl": "https://content.guardianapis.com/commentisfree/2010/aug/31/in-praise-of-david-lloyd-george", "isHosted": false, "pillarId": "pillar/opinion", "pillarName": "Opinion"}, {"id": "commentisfree/2010/aug/31/libraries-coalition-volunteers", "type": "article", "sectionId": "commentisfree", "sectionName": "Opinion", "webPublicationDate": "2010-08-30T23:05:11Z", "webTitle": "Libraries: Open books | Editorial", "webUrl": "https://www.theguardian.com/commentisfree/2010/aug/31/libraries-coalition-volunteers", "apiUrl": "https://content.guardianapis.com/commentisfree/2010/aug/31/libraries-coalition-volunteers", "isHosted": false, "pillarId": "pillar/opinion", "pillarName": "Opinion"}, {"id": "theguardian/2010/aug/31/uk-complicit-bankrolling-congo-conflict", "type": "article", "sectionId": "world", "sectionName": "World news", "webPublicationDate": "2010-08-30T23:05:07Z", "webTitle": "Letter: UK complicit in bankrolling Congo conflict", "webUrl": "https://www.theguardian.com/theguardian/2010/aug/31/uk-complicit-bankrolling-congo-conflict", "apiUrl": "https://content.guardianapis.com/theguardian/2010/aug/31/uk-complicit-bankrolling-congo-conflict", "isHosted": false, "pillarId": "pillar/news", "pillarName": "News"}, {"id": "politics/2010/aug/31/last-lap-for-labour-hopefuls", "type": "article", "sectionId": "politics", "sectionName": "Politics", "webPublicationDate": "2010-08-30T23:05:06Z", "webTitle": "Letters: Last lap for the Labour hopefuls", "webUrl": "https://www.theguardian.com/politics/2010/aug/31/last-lap-for-labour-hopefuls", "apiUrl": "https://content.guardianapis.com/politics/2010/aug/31/last-lap-for-labour-hopefuls", "isHosted": false, "pillarId": "pillar/news", "pillarName": "News"}, {"id": "commentisfree/cartoon/2010/aug/31/bob-moran-labour-leadership-race-cartoon", "type": "picture", "sectionId": "commentisfree", "sectionName": "Opinion", "webPublicationDate": "2010-08-30T23:05:00Z", "webTitle": "Cartoon: Bob Moran on the Labour leadership race", "webUrl": "https://www.theguardian.com/commentisfree/cartoon/2010/aug/31/bob-moran-labour-leadership-race-cartoon", "apiUrl": "https://content.guardianapis.com/commentisfree/cartoon/2010/aug/31/bob-moran-labour-leadership-race-cartoon", "isHosted": false, "pillarId": "pillar/opinion", "pillarName": "Opinion"}, {"id": "politics/2010/aug/31/david-miliband-peter-mandelson", "type": "article", "sectionId": "politics", "sectionName": "Politics", "webPublicationDate": "2010-08-30T23:01:03Z", "webTitle": "Labour leadership: David Miliband irked by Mandelson intervention", "webUrl": "https://www.theguardian.com/politics/2010/aug/31/david-miliband-peter-mandelson", "apiUrl": "https://content.guardianapis.com/politics/2010/aug/31/david-miliband-peter-mandelson", "isHosted": false, "pillarId": "pillar/news", "pillarName": "News"}, {"id": "society/2010/aug/31/home-building-policy-exchange", "type": "article", "sectionId": "society", "sectionName": "Society", "webPublicationDate": "2010-08-30T23:01:03Z", "webTitle": "\u00a310,000 rake-off plan for residents who approve new homes", "webUrl": "https://www.theguardian.com/society/2010/aug/31/home-building-policy-exchange", "apiUrl": "https://content.guardianapis.com/society/2010/aug/31/home-building-policy-exchange", "isHosted": false, "pillarId": "pillar/news", "pillarName": "News"}, {"id": "politics/wintour-and-watt/2010/aug/30/edballs-labourleadership", "type": "article", "sectionId": "politics", "sectionName": "Politics", "webPublicationDate": "2010-08-30T22:57:46Z", "webTitle": "Ed Balls books place at Labour's top table after aggressive campaign", "webUrl": "https://www.theguardian.com/politics/wintour-and-watt/2010/aug/30/edballs-labourleadership", "apiUrl": "https://content.guardianapis.com/politics/wintour-and-watt/2010/aug/30/edballs-labourleadership", "isHosted": false, "pillarId": "pillar/news", "pillarName": "News"}, {"id": "commentisfree/2010/aug/30/vain-venal-has-beens-mandelson", "type": "article", "sectionId": "commentisfree", "sectionName": "Opinion", "webPublicationDate": "2010-08-30T22:00:02Z", "webTitle": "Labour's vain, venal has-beens should bow out and shut up | Polly Toynbee", "webUrl": "https://www.theguardian.com/commentisfree/2010/aug/30/vain-venal-has-beens-mandelson", "apiUrl": "https://content.guardianapis.com/commentisfree/2010/aug/30/vain-venal-has-beens-mandelson", "isHosted": false, "pillarId": "pillar/opinion", "pillarName": "Opinion"}, {"id": "world/2010/aug/30/inquiry-iraqi-boy-disappearance-from-base", "type": "article", "sectionId": "world", "sectionName": "World news", "webPublicationDate": "2010-08-30T21:00:06Z", "webTitle": "Iraq war: Inquiry launched into Iraqi boy's disappearance from UK base", "webUrl": "https://www.theguardian.com/world/2010/aug/30/inquiry-iraqi-boy-disappearance-from-base", "apiUrl": "https://content.guardianapis.com/world/2010/aug/30/inquiry-iraqi-boy-disappearance-from-base", "isHosted": false, "pillarId": "pillar/news", "pillarName": "News"}, {"id": "world/2010/aug/30/coalition-opts-out-sex-trafficking", "type": "article", "sectionId": "world", "sectionName": "World news", "webPublicationDate": "2010-08-30T19:55:17Z", "webTitle": "Labour condemns UK 'opt out' from EU directive against sex trafficking", "webUrl": "https://www.theguardian.com/world/2010/aug/30/coalition-opts-out-sex-trafficking", "apiUrl": "https://content.guardianapis.com/world/2010/aug/30/coalition-opts-out-sex-trafficking", "isHosted": false, "pillarId": "pillar/news", "pillarName": "News"}, {"id": "commentisfree/2010/aug/30/fairness-inequality-free-market-growth", "type": "article", "sectionId": "commentisfree", "sectionName": "Opinion", "webPublicationDate": "2010-08-30T19:00:08Z", "webTitle": "We lost sight of fairness in the false promise of wealth | Ha-Joon Chang", "webUrl": "https://www.theguardian.com/commentisfree/2010/aug/30/fairness-inequality-free-market-growth", "apiUrl": "https://content.guardianapis.com/commentisfree/2010/aug/30/fairness-inequality-free-market-growth", "isHosted": false, "pillarId": "pillar/opinion", "pillarName": "Opinion"}, {"id": "politics/2010/aug/30/andy-burnham-nhs-liberal-democrat", "type": "article", "sectionId": "politics", "sectionName": "Politics", "webPublicationDate": "2010-08-30T18:24:36Z", "webTitle": "Andy Burnham calls on Lib Dem MPs to oppose Tory NHS 'break-up'", "webUrl": "https://www.theguardian.com/politics/2010/aug/30/andy-burnham-nhs-liberal-democrat", "apiUrl": "https://content.guardianapis.com/politics/2010/aug/30/andy-burnham-nhs-liberal-democrat", "isHosted": false, "pillarId": "pillar/news", "pillarName": "News"}, {"id": "politics/2010/aug/30/lord-lyell-of-markyate-obituary", "type": "article", "sectionId": "politics", "sectionName": "Politics", "webPublicationDate": "2010-08-30T17:36:00Z", "webTitle": "Lord Lyell of Markyate obituary", "webUrl": "https://www.theguardian.com/politics/2010/aug/30/lord-lyell-of-markyate-obituary", "apiUrl": "https://content.guardianapis.com/politics/2010/aug/30/lord-lyell-of-markyate-obituary", "isHosted": false, "pillarId": "pillar/news", "pillarName": "News"}, {"id": "business/2010/aug/30/ba-rejects-union-demands-strike-possible", "type": "article", "sectionId": "business", "sectionName": "Business", "webPublicationDate": "2010-08-30T16:58:52Z", "webTitle": "Cabin crew may strike again as BA rejects demands", "webUrl": "https://www.theguardian.com/business/2010/aug/30/ba-rejects-union-demands-strike-possible", "apiUrl": "https://content.guardianapis.com/business/2010/aug/30/ba-rejects-union-demands-strike-possible", "isHosted": false, "pillarId": "pillar/news", "pillarName": "News"}, {"id": "politics/blog/2010/aug/30/david-cameron-nick-clegg-coalition-baby", "type": "article", "sectionId": "politics", "sectionName": "Politics", "webPublicationDate": "2010-08-30T14:45:06Z", "webTitle": "Oh, baby \u2013 a new take on David Cameron's coalition government", "webUrl": "https://www.theguardian.com/politics/blog/2010/aug/30/david-cameron-nick-clegg-coalition-baby", "apiUrl": "https://content.guardianapis.com/politics/blog/2010/aug/30/david-cameron-nick-clegg-coalition-baby", "isHosted": false, "pillarId": "pillar/news", "pillarName": "News"}, {"id": "uk/video/2010/aug/30/english-defence-league-bradford-protest", "type": "video", "sectionId": "uk-news", "sectionName": "UK news", "webPublicationDate": "2010-08-30T12:32:00Z", "webTitle": "Video: The EDL descends on Bradford for the 'Big One'", "webUrl": "https://www.theguardian.com/uk/video/2010/aug/30/english-defence-league-bradford-protest", "apiUrl": "https://content.guardianapis.com/uk/video/2010/aug/30/english-defence-league-bradford-protest", "isHosted": false, "pillarId": "pillar/news", "pillarName": "News"}, {"id": "commentisfree/2010/aug/30/labour-europe-conservatives", "type": "article", "sectionId": "commentisfree", "sectionName": "Opinion", "webPublicationDate": "2010-08-30T08:59:57Z", "webTitle": "What Labour can learn from Cameron | Benjamin Fox", "webUrl": "https://www.theguardian.com/commentisfree/2010/aug/30/labour-europe-conservatives", "apiUrl": "https://content.guardianapis.com/commentisfree/2010/aug/30/labour-europe-conservatives", "isHosted": false, "pillarId": "pillar/opinion", "pillarName": "Opinion"}, {"id": "commentisfree/2010/aug/30/david-miliband-persona-ed-easier", "type": "article", "sectionId": "commentisfree", "sectionName": "Opinion", "webPublicationDate": "2010-08-30T07:01:02Z", "webTitle": "David Miliband would have to alter his persona. That's very hard | Jackie Ashley", "webUrl": "https://www.theguardian.com/commentisfree/2010/aug/30/david-miliband-persona-ed-easier", "apiUrl": "https://content.guardianapis.com/commentisfree/2010/aug/30/david-miliband-persona-ed-easier", "isHosted": false, "pillarId": "pillar/opinion", "pillarName": "Opinion"}, {"id": "politics/2010/aug/30/david-miliband-labour-leadership-contest", "type": "article", "sectionId": "politics", "sectionName": "Politics", "webPublicationDate": "2010-08-30T07:01:01Z", "webTitle": "David Miliband: 'I can fire the imagination of the public as well as the Labour party'", "webUrl": "https://www.theguardian.com/politics/2010/aug/30/david-miliband-labour-leadership-contest", "apiUrl": "https://content.guardianapis.com/politics/2010/aug/30/david-miliband-labour-leadership-contest", "isHosted": false, "pillarId": "pillar/news", "pillarName": "News"}, {"id": "business/2010/aug/30/bcc-economic-forecast-recession", "type": "article", "sectionId": "business", "sectionName": "Business", "webPublicationDate": "2010-08-30T00:00:55Z", "webTitle": "British Chamber of Commerce predicts faster UK economic growth", "webUrl": "https://www.theguardian.com/business/2010/aug/30/bcc-economic-forecast-recession", "apiUrl": "https://content.guardianapis.com/business/2010/aug/30/bcc-economic-forecast-recession", "isHosted": false, "pillarId": "pillar/news", "pillarName": "News"}, {"id": "commentisfree/cartoon/2010/aug/30/david-cameron-nick-clegg", "type": "picture", "sectionId": "commentisfree", "sectionName": "Opinion", "webPublicationDate": "2010-08-29T23:10:00Z", "webTitle": "Martin Rowson: The Conservatives play games with Nick Clegg", "webUrl": "https://www.theguardian.com/commentisfree/cartoon/2010/aug/30/david-cameron-nick-clegg", "apiUrl": "https://content.guardianapis.com/commentisfree/cartoon/2010/aug/30/david-cameron-nick-clegg", "isHosted": false, "pillarId": "pillar/opinion", "pillarName": "Opinion"}, {"id": "uk/2010/aug/30/travel-cuts-disabled-older-people", "type": "article", "sectionId": "uk-news", "sectionName": "UK news", "webPublicationDate": "2010-08-29T23:06:01Z", "webTitle": "Letters: Travel cuts will leave disabled and older people stranded", "webUrl": "https://www.theguardian.com/uk/2010/aug/30/travel-cuts-disabled-older-people", "apiUrl": "https://content.guardianapis.com/uk/2010/aug/30/travel-cuts-disabled-older-people", "isHosted": false, "pillarId": "pillar/news", "pillarName": "News"}, {"id": "politics/2010/aug/30/scargill-right-on-miners-strike", "type": "article", "sectionId": "politics", "sectionName": "Politics", "webPublicationDate": "2010-08-29T23:06:01Z", "webTitle": "Letters: Scargill was right on the miners' strike", "webUrl": "https://www.theguardian.com/politics/2010/aug/30/scargill-right-on-miners-strike", "apiUrl": "https://content.guardianapis.com/politics/2010/aug/30/scargill-right-on-miners-strike", "isHosted": false, "pillarId": "pillar/news", "pillarName": "News"}, {"id": "commentisfree/2010/aug/30/charlie-brooker-buzzwords-blowhards", "type": "article", "sectionId": "commentisfree", "sectionName": "Opinion", "webPublicationDate": "2010-08-29T23:05:56Z", "webTitle": "Charlie Brooker | Buzzwords for blowhards", "webUrl": "https://www.theguardian.com/commentisfree/2010/aug/30/charlie-brooker-buzzwords-blowhards", "apiUrl": "https://content.guardianapis.com/commentisfree/2010/aug/30/charlie-brooker-buzzwords-blowhards", "isHosted": false, "pillarId": "pillar/opinion", "pillarName": "Opinion"}, {"id": "commentisfree/2010/aug/30/in-praise-of-teds", "type": "article", "sectionId": "commentisfree", "sectionName": "Opinion", "webPublicationDate": "2010-08-29T23:02:05Z", "webTitle": "In praise of ... Teds | Editorial", "webUrl": "https://www.theguardian.com/commentisfree/2010/aug/30/in-praise-of-teds", "apiUrl": "https://content.guardianapis.com/commentisfree/2010/aug/30/in-praise-of-teds", "isHosted": false, "pillarId": "pillar/opinion", "pillarName": "Opinion"}, {"id": "world/2010/aug/29/bush-white-house-grave-doubts-brown", "type": "article", "sectionId": "us-news", "sectionName": "US news", "webPublicationDate": "2010-08-29T20:30:01Z", "webTitle": "George Bush's White House had 'grave doubts' about Gordon Brown as PM", "webUrl": "https://www.theguardian.com/world/2010/aug/29/bush-white-house-grave-doubts-brown", "apiUrl": "https://content.guardianapis.com/world/2010/aug/29/bush-white-house-grave-doubts-brown", "isHosted": false, "pillarId": "pillar/news", "pillarName": "News"}, {"id": "politics/2010/aug/29/margaret-thatcher-undermine-miners-union", "type": "article", "sectionId": "politics", "sectionName": "Politics", "webPublicationDate": "2010-08-29T20:00:56Z", "webTitle": "How Margaret Thatcher planned to undermine miners' union", "webUrl": "https://www.theguardian.com/politics/2010/aug/29/margaret-thatcher-undermine-miners-union", "apiUrl": "https://content.guardianapis.com/politics/2010/aug/29/margaret-thatcher-undermine-miners-union", "isHosted": false, "pillarId": "pillar/news", "pillarName": "News"}, {"id": "politics/2010/aug/29/margaret-thatcher-soviet-aid-miners", "type": "article", "sectionId": "politics", "sectionName": "Politics", "webPublicationDate": "2010-08-29T20:00:55Z", "webTitle": "Margaret Thatcher blocked Soviet aid for striking miners, files reveal", "webUrl": "https://www.theguardian.com/politics/2010/aug/29/margaret-thatcher-soviet-aid-miners", "apiUrl": "https://content.guardianapis.com/politics/2010/aug/29/margaret-thatcher-soviet-aid-miners", "isHosted": false, "pillarId": "pillar/news", "pillarName": "News"}, {"id": "politics/2010/aug/29/labour-contenders-tony-blair", "type": "article", "sectionId": "politics", "sectionName": "Politics", "webPublicationDate": "2010-08-29T19:35:16Z", "webTitle": "Labour contenders await Tony Blair intervention", "webUrl": "https://www.theguardian.com/politics/2010/aug/29/labour-contenders-tony-blair", "apiUrl": "https://content.guardianapis.com/politics/2010/aug/29/labour-contenders-tony-blair", "isHosted": false, "pillarId": "pillar/news", "pillarName": "News"}, {"id": "politics/2010/aug/29/protests-uk-security-aid-policy", "type": "article", "sectionId": "politics", "sectionName": "Politics", "webPublicationDate": "2010-08-29T19:19:55Z", "webTitle": "Protests as UK security put at heart of government's aid policy", "webUrl": "https://www.theguardian.com/politics/2010/aug/29/protests-uk-security-aid-policy", "apiUrl": "https://content.guardianapis.com/politics/2010/aug/29/protests-uk-security-aid-policy", "isHosted": false, "pillarId": "pillar/news", "pillarName": "News"}, {"id": "commentisfree/2010/aug/29/liberal-guilt-good-for-you", "type": "article", "sectionId": "commentisfree", "sectionName": "Opinion", "webPublicationDate": "2010-08-29T19:00:56Z", "webTitle": "Liberal guilt? Good for you | Theo Hobson", "webUrl": "https://www.theguardian.com/commentisfree/2010/aug/29/liberal-guilt-good-for-you", "apiUrl": "https://content.guardianapis.com/commentisfree/2010/aug/29/liberal-guilt-good-for-you", "isHosted": false, "pillarId": "pillar/opinion", "pillarName": "Opinion"}, {"id": "society/2010/aug/29/traveller-gypsy-unauthorised-sites", "type": "article", "sectionId": "society", "sectionName": "Society", "webPublicationDate": "2010-08-29T17:45:19Z", "webTitle": "Travellers face clampdown on unauthorised sites", "webUrl": "https://www.theguardian.com/society/2010/aug/29/traveller-gypsy-unauthorised-sites", "apiUrl": "https://content.guardianapis.com/society/2010/aug/29/traveller-gypsy-unauthorised-sites", "isHosted": false, "pillarId": "pillar/news", "pillarName": "News"}, {"id": "politics/2010/aug/29/lord-mcintosh-of-haringey", "type": "article", "sectionId": "politics", "sectionName": "Politics", "webPublicationDate": "2010-08-29T16:54:20Z", "webTitle": "Lord McIntosh of Haringey obituary", "webUrl": "https://www.theguardian.com/politics/2010/aug/29/lord-mcintosh-of-haringey", "apiUrl": "https://content.guardianapis.com/politics/2010/aug/29/lord-mcintosh-of-haringey", "isHosted": false, "pillarId": "pillar/news", "pillarName": "News"}, {"id": "politics/2010/aug/29/boris-johnson-resignation-threat-crossrail", "type": "article", "sectionId": "politics", "sectionName": "Politics", "webPublicationDate": "2010-08-29T16:29:12Z", "webTitle": "Boris Johnson 'issues resignation threat' over Crossrail cuts", "webUrl": "https://www.theguardian.com/politics/2010/aug/29/boris-johnson-resignation-threat-crossrail", "apiUrl": "https://content.guardianapis.com/politics/2010/aug/29/boris-johnson-resignation-threat-crossrail", "isHosted": false, "pillarId": "pillar/news", "pillarName": "News"}, {"id": "commentisfree/2010/aug/29/latin-inspire-love-languages", "type": "article", "sectionId": "commentisfree", "sectionName": "Opinion", "webPublicationDate": "2010-08-29T15:00:53Z", "webTitle": "Latin can inspire a love of languages | Cressida Ryan", "webUrl": "https://www.theguardian.com/commentisfree/2010/aug/29/latin-inspire-love-languages", "apiUrl": "https://content.guardianapis.com/commentisfree/2010/aug/29/latin-inspire-love-languages", "isHosted": false, "pillarId": "pillar/opinion", "pillarName": "Opinion"}, {"id": "business/2010/aug/29/asil-nadir-conservative-party-donations", "type": "article", "sectionId": "business", "sectionName": "Business", "webPublicationDate": "2010-08-29T14:37:53Z", "webTitle": "Conservatives ready to repay Asil Nadir's donations", "webUrl": "https://www.theguardian.com/business/2010/aug/29/asil-nadir-conservative-party-donations", "apiUrl": "https://content.guardianapis.com/business/2010/aug/29/asil-nadir-conservative-party-donations", "isHosted": false, "pillarId": "pillar/news", "pillarName": "News"}, {"id": "commentisfree/2010/aug/29/international-development-leaked-memo-andrew-mitchell", "type": "article", "sectionId": "commentisfree", "sectionName": "Opinion", "webPublicationDate": "2010-08-29T12:59:53Z", "webTitle": "A myopic Tory approach to fighting global poverty | John Hilary", "webUrl": "https://www.theguardian.com/commentisfree/2010/aug/29/international-development-leaked-memo-andrew-mitchell", "apiUrl": "https://content.guardianapis.com/commentisfree/2010/aug/29/international-development-leaked-memo-andrew-mitchell", "isHosted": false, "pillarId": "pillar/opinion", "pillarName": "Opinion"}, {"id": "commentisfree/2010/aug/29/ed-miliband-labour-leadership-change", "type": "article", "sectionId": "commentisfree", "sectionName": "Opinion", "webPublicationDate": "2010-08-28T23:07:48Z", "webTitle": "I'll make capitalism work for the people | Ed Miliband", "webUrl": "https://www.theguardian.com/commentisfree/2010/aug/29/ed-miliband-labour-leadership-change", "apiUrl": "https://content.guardianapis.com/commentisfree/2010/aug/29/ed-miliband-labour-leadership-change", "isHosted": false, "pillarId": "pillar/opinion", "pillarName": "Opinion"}, {"id": "politics/2010/aug/29/danny-alexander-treasury-tax-warning", "type": "article", "sectionId": "politics", "sectionName": "Politics", "webPublicationDate": "2010-08-28T23:06:45Z", "webTitle": "Danny Alexander issues stark warning on taxes", "webUrl": "https://www.theguardian.com/politics/2010/aug/29/danny-alexander-treasury-tax-warning", "apiUrl": "https://content.guardianapis.com/politics/2010/aug/29/danny-alexander-treasury-tax-warning", "isHosted": false, "pillarId": "pillar/news", "pillarName": "News"}, {"id": "politics/2010/aug/29/danny-alexander-cuts-first-interview", "type": "article", "sectionId": "politics", "sectionName": "Politics", "webPublicationDate": "2010-08-28T23:06:44Z", "webTitle": "Treasury secretary Danny Alexander defends budget cuts as coalition comes under fire", "webUrl": "https://www.theguardian.com/politics/2010/aug/29/danny-alexander-cuts-first-interview", "apiUrl": "https://content.guardianapis.com/politics/2010/aug/29/danny-alexander-cuts-first-interview", "isHosted": false, "pillarId": "pillar/news", "pillarName": "News"}, {"id": "world/2010/aug/29/british-army-gurkhas-spending", "type": "article", "sectionId": "world", "sectionName": "World news", "webPublicationDate": "2010-08-28T23:06:43Z", "webTitle": "Gurkha regiment faces axe as Liam Fox insists on \u00a320bn Trident replacement", "webUrl": "https://www.theguardian.com/world/2010/aug/29/british-army-gurkhas-spending", "apiUrl": "https://content.guardianapis.com/world/2010/aug/29/british-army-gurkhas-spending", "isHosted": false, "pillarId": "pillar/news", "pillarName": "News"}, {"id": "politics/2010/aug/29/miliband-labour-leadership-race", "type": "article", "sectionId": "politics", "sectionName": "Politics", "webPublicationDate": "2010-08-28T23:06:43Z", "webTitle": "David and Ed Miliband turn leadership race into verdict on New Labour", "webUrl": "https://www.theguardian.com/politics/2010/aug/29/miliband-labour-leadership-race", "apiUrl": "https://content.guardianapis.com/politics/2010/aug/29/miliband-labour-leadership-race", "isHosted": false, "pillarId": "pillar/news", "pillarName": "News"}, {"id": "politics/2010/aug/29/david-cameron-florence-daughter-first-photographs", "type": "article", "sectionId": "politics", "sectionName": "Politics", "webPublicationDate": "2010-08-28T23:06:42Z", "webTitle": "Camerons release first pictures of newborn daughter Florence", "webUrl": "https://www.theguardian.com/politics/2010/aug/29/david-cameron-florence-daughter-first-photographs", "apiUrl": "https://content.guardianapis.com/politics/2010/aug/29/david-cameron-florence-daughter-first-photographs", "isHosted": false, "pillarId": "pillar/news", "pillarName": "News"}, {"id": "politics/2010/aug/29/tory-donors-audit-commission", "type": "article", "sectionId": "politics", "sectionName": "Politics", "webPublicationDate": "2010-08-28T23:06:34Z", "webTitle": "Conservative party donors likely to benefit from axing of Audit Commission", "webUrl": "https://www.theguardian.com/politics/2010/aug/29/tory-donors-audit-commission", "apiUrl": "https://content.guardianapis.com/politics/2010/aug/29/tory-donors-audit-commission", "isHosted": false, "pillarId": "pillar/news", "pillarName": "News"}, {"id": "media/2010/aug/29/denis-macshane-mps-expenses", "type": "article", "sectionId": "media", "sectionName": "Media", "webPublicationDate": "2010-08-28T23:06:25Z", "webTitle": "Row over MPs' expletives undeleted poses a question of standards", "webUrl": "https://www.theguardian.com/media/2010/aug/29/denis-macshane-mps-expenses", "apiUrl": "https://content.guardianapis.com/media/2010/aug/29/denis-macshane-mps-expenses", "isHosted": false, "pillarId": "pillar/news", "pillarName": "News"}, {"id": "media/2010/aug/29/bbc-trust-mark-thompson", "type": "article", "sectionId": "media", "sectionName": "Media", "webPublicationDate": "2010-08-28T23:06:21Z", "webTitle": "Big Brother may be off-air but he has got his beady eyes on BBC trustees", "webUrl": "https://www.theguardian.com/media/2010/aug/29/bbc-trust-mark-thompson", "apiUrl": "https://content.guardianapis.com/media/2010/aug/29/bbc-trust-mark-thompson", "isHosted": false, "pillarId": "pillar/news", "pillarName": "News"}, {"id": "business/2010/aug/29/coalition-spending-review-clegg", "type": "article", "sectionId": "business", "sectionName": "Business", "webPublicationDate": "2010-08-28T23:06:12Z", "webTitle": "U-turn on budget cuts will dog the deputy prime minister in days to come", "webUrl": "https://www.theguardian.com/business/2010/aug/29/coalition-spending-review-clegg", "apiUrl": "https://content.guardianapis.com/business/2010/aug/29/coalition-spending-review-clegg", "isHosted": false, "pillarId": "pillar/news", "pillarName": "News"}, {"id": "media/2010/aug/28/jeremy-hunt-bbc-cuts", "type": "article", "sectionId": "media", "sectionName": "Media", "webPublicationDate": "2010-08-28T16:10:55Z", "webTitle": "Culture secretary Jeremy Hunt tells BBC to prepare for deeper cuts", "webUrl": "https://www.theguardian.com/media/2010/aug/28/jeremy-hunt-bbc-cuts", "apiUrl": "https://content.guardianapis.com/media/2010/aug/28/jeremy-hunt-bbc-cuts", "isHosted": false, "pillarId": "pillar/news", "pillarName": "News"}]}}