{"response": {"status": "ok", "userTier": "developer", "total": 15148, "startIndex": 1, "pageSize": 50, "currentPage": 1, "pages": 303, "orderBy": "newest", "results": [{"id": "lifeandstyle/2010/aug/30/nigella-lawson-kitchen", "type": "article", "sectionId": "food", "sectionName": "Food", "webPublicationDate": "2010-08-30T19:00:04Z", "webTitle": "Nigella Lawson's kitchen confessions", "webUrl": "https://www.theguardian.com/lifeandstyle/2010/aug/30/nigella-lawson-kitchen", "apiUrl": "https://content.guardianapis.com/lifeandstyle/2010/aug/30/nigella-lawson-kitchen", "isHosted": false, "pillarId": "pillar/lifestyle", "pillarName": "Lifestyle"}, {"id": "world/2010/aug/29/italian-mountain-mushrooms-claim-lives", "type": "article", "sectionId": "world", "sectionName": "World news", "webPublicationDate": "2010-08-29T22:10:12Z", "webTitle": "Italian mountain mushrooms claim lives", "webUrl": "https://www.theguardian.com/world/2010/aug/29/italian-mountain-mushrooms-claim-lives", "apiUrl": "https://content.guardianapis.com/world/2010/aug/29/italian-mountain-mushrooms-claim-lives", "isHosted": false, "pillarId": "pillar/news", "pillarName": "News"}, {"id": "uk/2010/aug/29/borough-market-wholesalers-court-battle", "type": "article", "sectionId": "uk-news", "sectionName": "UK news", "webPublicationDate": "2010-08-29T18:04:21Z", "webTitle": "Borough Market wholesalers sue trust in lease row", "webUrl": "https://www.theguardian.com/uk/2010/aug/29/borough-market-wholesalers-court-battle", "apiUrl": "https://content.guardianapis.com/uk/2010/aug/29/borough-market-wholesalers-court-battle", "isHosted": false, "pillarId": "pillar/news", "pillarName": "News"}, {"id": "lifeandstyle/2010/aug/29/koffmanns-restaurant-review-allan-jenkins", "type": "article", "sectionId": "food", "sectionName": "Food", "webPublicationDate": "2010-08-29T11:03:52Z", "webTitle": "Restaurant review: Koffmann's | Allan Jenkins |", "webUrl": "https://www.theguardian.com/lifeandstyle/2010/aug/29/koffmanns-restaurant-review-allan-jenkins", "apiUrl": "https://content.guardianapis.com/lifeandstyle/2010/aug/29/koffmanns-restaurant-review-allan-jenkins", "isHosted": false, "pillarId": "pillar/lifestyle", "pillarName": "Lifestyle"}, {"id": "travel/2010/aug/28/wine-harvest-festivals", "type": "article", "sectionId": "travel", "sectionName": "Travel", "webPublicationDate": "2010-08-27T23:05:59Z", "webTitle": "Grape fun: wine harvest festivals", "webUrl": "https://www.theguardian.com/travel/2010/aug/28/wine-harvest-festivals", "apiUrl": "https://content.guardianapis.com/travel/2010/aug/28/wine-harvest-festivals", "isHosted": false, "pillarId": "pillar/lifestyle", "pillarName": "Lifestyle"}, {"id": "lifeandstyle/2010/aug/28/readers-favourite-photographs-songs-recipes", "type": "article", "sectionId": "lifeandstyle", "sectionName": "Life and style", "webPublicationDate": "2010-08-27T23:05:21Z", "webTitle": "Family life", "webUrl": "https://www.theguardian.com/lifeandstyle/2010/aug/28/readers-favourite-photographs-songs-recipes", "apiUrl": "https://content.guardianapis.com/lifeandstyle/2010/aug/28/readers-favourite-photographs-songs-recipes", "isHosted": false, "pillarId": "pillar/lifestyle", "pillarName": "Lifestyle"}, {"id": "travel/2010/aug/28/champagne-harvest-weekend-vineyard-france", "type": "article", "sectionId": "travel", "sectionName": "Travel", "webPublicationDate": "2010-08-27T23:05:10Z", "webTitle": "Champagne moments \u2013 a vineyard harvest tour", "webUrl": "https://www.theguardian.com/travel/2010/aug/28/champagne-harvest-weekend-vineyard-france", "apiUrl": "https://content.guardianapis.com/travel/2010/aug/28/champagne-harvest-weekend-vineyard-france", "isHosted": false, "pillarId": "pillar/lifestyle", "pillarName": "Lifestyle"}, {"id": "lifeandstyle/2010/aug/28/jane-baxter-squash-corn-goats-cheese-recipe", "type": "article", "sectionId": "lifeandstyle", "sectionName": "Life and style", "webPublicationDate": "2010-08-27T23:02:18Z", "webTitle": "Jane Baxter's baked squash, corn and goat's cheese recipe", "webUrl": "https://www.theguardian.com/lifeandstyle/2010/aug/28/jane-baxter-squash-corn-goats-cheese-recipe", "apiUrl": "https://content.guardianapis.com/lifeandstyle/2010/aug/28/jane-baxter-squash-corn-goats-cheese-recipe", "isHosted": false, "pillarId": "pillar/lifestyle", "pillarName": "Lifestyle"}, {"id": "lifeandstyle/2010/aug/28/dan-lepard-potato-olive-bread-recipe", "type": "article", "sectionId": "lifeandstyle", "sectionName": "Life and style", "webPublicationDate": "2010-08-27T23:02:18Z", "webTitle": "Dan Lepard's roasted potato olive bread recipe", "webUrl": "https://www.theguardian.com/lifeandstyle/2010/aug/28/dan-lepard-potato-olive-bread-recipe", "apiUrl": "https://content.guardianapis.com/lifeandstyle/2010/aug/28/dan-lepard-potato-olive-bread-recipe", "isHosted": false, "pillarId": "pillar/lifestyle", "pillarName": "Lifestyle"}, {"id": "lifeandstyle/2010/aug/28/yotam-ottolenghi-cakes-cookies-tarts-recipes", "type": "article", "sectionId": "food", "sectionName": "Food", "webPublicationDate": "2010-08-27T23:02:17Z", "webTitle": "Yotam Ottolenghi's cakes, cookies and tart recipes", "webUrl": "https://www.theguardian.com/lifeandstyle/2010/aug/28/yotam-ottolenghi-cakes-cookies-tarts-recipes", "apiUrl": "https://content.guardianapis.com/lifeandstyle/2010/aug/28/yotam-ottolenghi-cakes-cookies-tarts-recipes", "isHosted": false, "pillarId": "pillar/lifestyle", "pillarName": "Lifestyle"}, {"id": "lifeandstyle/2010/aug/28/cabernet-franc-loire-wine-review", "type": "article", "sectionId": "lifeandstyle", "sectionName": "Life and style", "webPublicationDate": "2010-08-27T23:02:17Z", "webTitle": "Wine: Cabernet Franc, the Loire's unsung hero", "webUrl": "https://www.theguardian.com/lifeandstyle/2010/aug/28/cabernet-franc-loire-wine-review", "apiUrl": "https://content.guardianapis.com/lifeandstyle/2010/aug/28/cabernet-franc-loire-wine-review", "isHosted": false, "pillarId": "pillar/lifestyle", "pillarName": "Lifestyle"}, {"id": "lifeandstyle/2010/aug/28/how-to-sterilise-jars-ergonomic-kitchen-tools", "type": "article", "sectionId": "lifeandstyle", "sectionName": "Life and style", "webPublicationDate": "2010-08-27T23:02:14Z", "webTitle": "Food for fort: Sterilising jars and search for ergonomic knives", "webUrl": "https://www.theguardian.com/lifeandstyle/2010/aug/28/how-to-sterilise-jars-ergonomic-kitchen-tools", "apiUrl": "https://content.guardianapis.com/lifeandstyle/2010/aug/28/how-to-sterilise-jars-ergonomic-kitchen-tools", "isHosted": false, "pillarId": "pillar/lifestyle", "pillarName": "Lifestyle"}, {"id": "lifeandstyle/2010/aug/28/restaurant-review-aumbry-prestwich", "type": "article", "sectionId": "food", "sectionName": "Food", "webPublicationDate": "2010-08-27T23:02:10Z", "webTitle": "Restaurant: Aumbry, Prestwich, Greater Manchester", "webUrl": "https://www.theguardian.com/lifeandstyle/2010/aug/28/restaurant-review-aumbry-prestwich", "apiUrl": "https://content.guardianapis.com/lifeandstyle/2010/aug/28/restaurant-review-aumbry-prestwich", "isHosted": false, "pillarId": "pillar/lifestyle", "pillarName": "Lifestyle"}, {"id": "lifeandstyle/cartoon/2010/aug/28/food-and-drink", "type": "picture", "sectionId": "food", "sectionName": "Food", "webPublicationDate": "2010-08-27T23:02:00Z", "webTitle": "Berger & Wyse", "webUrl": "https://www.theguardian.com/lifeandstyle/cartoon/2010/aug/28/food-and-drink", "apiUrl": "https://content.guardianapis.com/lifeandstyle/cartoon/2010/aug/28/food-and-drink", "isHosted": false, "pillarId": "pillar/lifestyle", "pillarName": "Lifestyle"}, {"id": "lifeandstyle/2010/aug/27/heston-blumenthal-bray-pub", "type": "article", "sectionId": "food", "sectionName": "Food", "webPublicationDate": "2010-08-27T17:42:07Z", "webTitle": "Heston Blumenthal upsets Bray drinkers by 'ruining' last local pub", "webUrl": "https://www.theguardian.com/lifeandstyle/2010/aug/27/heston-blumenthal-bray-pub", "apiUrl": "https://content.guardianapis.com/lifeandstyle/2010/aug/27/heston-blumenthal-bray-pub", "isHosted": false, "pillarId": "pillar/lifestyle", "pillarName": "Lifestyle"}, {"id": "lifeandstyle/2010/aug/27/heston-blumenthal-icecream-meat-pie", "type": "article", "sectionId": "food", "sectionName": "Food", "webPublicationDate": "2010-08-27T17:42:03Z", "webTitle": "Heston Blumenthal's latest creation: ice-cream meat pie", "webUrl": "https://www.theguardian.com/lifeandstyle/2010/aug/27/heston-blumenthal-icecream-meat-pie", "apiUrl": "https://content.guardianapis.com/lifeandstyle/2010/aug/27/heston-blumenthal-icecream-meat-pie", "isHosted": false, "pillarId": "pillar/lifestyle", "pillarName": "Lifestyle"}, {"id": "science/blog/2010/aug/23/science-art-whisky-making", "type": "article", "sectionId": "science", "sectionName": "Science", "webPublicationDate": "2010-08-27T16:25:38Z", "webTitle": "The science and art of whisky making | Andy Connelly", "webUrl": "https://www.theguardian.com/science/blog/2010/aug/23/science-art-whisky-making", "apiUrl": "https://content.guardianapis.com/science/blog/2010/aug/23/science-art-whisky-making", "isHosted": false, "pillarId": "pillar/news", "pillarName": "News"}, {"id": "lifeandstyle/wordofmouth/2010/aug/27/cannibal-restaurant-hoax", "type": "article", "sectionId": "lifeandstyle", "sectionName": "Life and style", "webPublicationDate": "2010-08-27T12:30:00Z", "webTitle": "The 'cannibal restaurant' and other themed eateries", "webUrl": "https://www.theguardian.com/lifeandstyle/wordofmouth/2010/aug/27/cannibal-restaurant-hoax", "apiUrl": "https://content.guardianapis.com/lifeandstyle/wordofmouth/2010/aug/27/cannibal-restaurant-hoax", "isHosted": false, "pillarId": "pillar/lifestyle", "pillarName": "Lifestyle"}, {"id": "lifeandstyle/gallery/2010/aug/27/cake-britain-mad-artists-tea-party", "type": "gallery", "sectionId": "lifeandstyle", "sectionName": "Life and style", "webPublicationDate": "2010-08-27T11:06:54Z", "webTitle": "Cake Britain: The Mad Artist\u2019s Tea Party", "webUrl": "https://www.theguardian.com/lifeandstyle/gallery/2010/aug/27/cake-britain-mad-artists-tea-party", "apiUrl": "https://content.guardianapis.com/lifeandstyle/gallery/2010/aug/27/cake-britain-mad-artists-tea-party", "isHosted": false, "pillarId": "pillar/lifestyle", "pillarName": "Lifestyle"}, {"id": "lifeandstyle/wordofmouth/2010/aug/27/cheap-food-drink-oxford", "type": "article", "sectionId": "lifeandstyle", "sectionName": "Life and style", "webPublicationDate": "2010-08-27T10:50:00Z", "webTitle": "Oxford bloat race", "webUrl": "https://www.theguardian.com/lifeandstyle/wordofmouth/2010/aug/27/cheap-food-drink-oxford", "apiUrl": "https://content.guardianapis.com/lifeandstyle/wordofmouth/2010/aug/27/cheap-food-drink-oxford", "isHosted": false, "pillarId": "pillar/lifestyle", "pillarName": "Lifestyle"}, {"id": "travel/2010/aug/27/britains-best-budget-eats-oxford", "type": "article", "sectionId": "travel", "sectionName": "Travel", "webPublicationDate": "2010-08-27T10:29:44Z", "webTitle": "Oxford's top 10 budget eats", "webUrl": "https://www.theguardian.com/travel/2010/aug/27/britains-best-budget-eats-oxford", "apiUrl": "https://content.guardianapis.com/travel/2010/aug/27/britains-best-budget-eats-oxford", "isHosted": false, "pillarId": "pillar/lifestyle", "pillarName": "Lifestyle"}, {"id": "lifeandstyle/wordofmouth/2010/aug/27/queue-wait", "type": "article", "sectionId": "lifeandstyle", "sectionName": "Life and style", "webPublicationDate": "2010-08-27T09:40:00Z", "webTitle": "Right on queue", "webUrl": "https://www.theguardian.com/lifeandstyle/wordofmouth/2010/aug/27/queue-wait", "apiUrl": "https://content.guardianapis.com/lifeandstyle/wordofmouth/2010/aug/27/queue-wait", "isHosted": false, "pillarId": "pillar/lifestyle", "pillarName": "Lifestyle"}, {"id": "world/2010/aug/26/cannibal-restaurant-flime-germany", "type": "article", "sectionId": "world", "sectionName": "World news", "webPublicationDate": "2010-08-26T15:46:53Z", "webTitle": "Cannibal restaurant adverts turn German stomachs", "webUrl": "https://www.theguardian.com/world/2010/aug/26/cannibal-restaurant-flime-germany", "apiUrl": "https://content.guardianapis.com/world/2010/aug/26/cannibal-restaurant-flime-germany", "isHosted": false, "pillarId": "pillar/news", "pillarName": "News"}, {"id": "commentisfree/2010/aug/26/russia-buckwheat-shortage", "type": "article", "sectionId": "commentisfree", "sectionName": "Opinion", "webPublicationDate": "2010-08-26T12:00:01Z", "webTitle": "Buckwheat crisis hurts Russian pride | Alexey Kovalev", "webUrl": "https://www.theguardian.com/commentisfree/2010/aug/26/russia-buckwheat-shortage", "apiUrl": "https://content.guardianapis.com/commentisfree/2010/aug/26/russia-buckwheat-shortage", "isHosted": false, "pillarId": "pillar/opinion", "pillarName": "Opinion"}, {"id": "commentisfree/video/2010/aug/26/david-mitchell-soap-box-communal-eating", "type": "video", "sectionId": "commentisfree", "sectionName": "Opinion", "webPublicationDate": "2010-08-26T10:00:00Z", "webTitle": "Video: David Mitchell's Soap Box: Communal eating", "webUrl": "https://www.theguardian.com/commentisfree/video/2010/aug/26/david-mitchell-soap-box-communal-eating", "apiUrl": "https://content.guardianapis.com/commentisfree/video/2010/aug/26/david-mitchell-soap-box-communal-eating", "isHosted": false, "pillarId": "pillar/opinion", "pillarName": "Opinion"}, {"id": "lifeandstyle/wordofmouth/2010/aug/26/tea-bars", "type": "article", "sectionId": "lifeandstyle", "sectionName": "Life and style", "webPublicationDate": "2010-08-26T09:00:00Z", "webTitle": "Where are all the tea bars?", "webUrl": "https://www.theguardian.com/lifeandstyle/wordofmouth/2010/aug/26/tea-bars", "apiUrl": "https://content.guardianapis.com/lifeandstyle/wordofmouth/2010/aug/26/tea-bars", "isHosted": false, "pillarId": "pillar/lifestyle", "pillarName": "Lifestyle"}, {"id": "lifeandstyle/2010/aug/26/sherry-revival-wine", "type": "article", "sectionId": "food", "sectionName": "Food", "webPublicationDate": "2010-08-26T06:00:43Z", "webTitle": "The sherry revival", "webUrl": "https://www.theguardian.com/lifeandstyle/2010/aug/26/sherry-revival-wine", "apiUrl": "https://content.guardianapis.com/lifeandstyle/2010/aug/26/sherry-revival-wine", "isHosted": false, "pillarId": "pillar/lifestyle", "pillarName": "Lifestyle"}, {"id": "lifeandstyle/gallery/2010/aug/26/food-and-drink", "type": "gallery", "sectionId": "food", "sectionName": "Food", "webPublicationDate": "2010-08-26T06:00:00Z", "webTitle": "The test... parmigiano reggiano", "webUrl": "https://www.theguardian.com/lifeandstyle/gallery/2010/aug/26/food-and-drink", "apiUrl": "https://content.guardianapis.com/lifeandstyle/gallery/2010/aug/26/food-and-drink", "isHosted": false, "pillarId": "pillar/lifestyle", "pillarName": "Lifestyle"}, {"id": "lifeandstyle/wordofmouth/2010/aug/26/how-to-make-perfect-pasta", "type": "article", "sectionId": "lifeandstyle", "sectionName": "Life and style", "webPublicationDate": "2010-08-26T06:00:00Z", "webTitle": "How to make perfect pasta", "webUrl": "https://www.theguardian.com/lifeandstyle/wordofmouth/2010/aug/26/how-to-make-perfect-pasta", "apiUrl": "https://content.guardianapis.com/lifeandstyle/wordofmouth/2010/aug/26/how-to-make-perfect-pasta", "isHosted": false, "pillarId": "pillar/lifestyle", "pillarName": "Lifestyle"}, {"id": "environment/2010/aug/25/gm-salmon-us-fda-consultation", "type": "article", "sectionId": "environment", "sectionName": "Environment", "webPublicationDate": "2010-08-25T20:24:22Z", "webTitle": "GM salmon may go on sale in US after public consultation", "webUrl": "https://www.theguardian.com/environment/2010/aug/25/gm-salmon-us-fda-consultation", "apiUrl": "https://content.guardianapis.com/environment/2010/aug/25/gm-salmon-us-fda-consultation", "isHosted": false, "pillarId": "pillar/news", "pillarName": "News"}, {"id": "lifeandstyle/wordofmouth/2010/aug/24/live-chat-mark-hix", "type": "article", "sectionId": "lifeandstyle", "sectionName": "Life and style", "webPublicationDate": "2010-08-25T09:10:00Z", "webTitle": "Live chat: Mark Hix", "webUrl": "https://www.theguardian.com/lifeandstyle/wordofmouth/2010/aug/24/live-chat-mark-hix", "apiUrl": "https://content.guardianapis.com/lifeandstyle/wordofmouth/2010/aug/24/live-chat-mark-hix", "isHosted": false, "pillarId": "pillar/lifestyle", "pillarName": "Lifestyle"}, {"id": "lifeandstyle/wordofmouth/2010/aug/25/stella-artois-black-lager", "type": "article", "sectionId": "food", "sectionName": "Food", "webPublicationDate": "2010-08-25T09:00:00Z", "webTitle": "A black day for lager?", "webUrl": "https://www.theguardian.com/lifeandstyle/wordofmouth/2010/aug/25/stella-artois-black-lager", "apiUrl": "https://content.guardianapis.com/lifeandstyle/wordofmouth/2010/aug/25/stella-artois-black-lager", "isHosted": false, "pillarId": "pillar/lifestyle", "pillarName": "Lifestyle"}, {"id": "theguardian/2010/aug/24/shortcuts-plum-job-glut", "type": "article", "sectionId": "food", "sectionName": "Food", "webPublicationDate": "2010-08-24T19:00:07Z", "webTitle": "It's a plum job dealing with gluts", "webUrl": "https://www.theguardian.com/theguardian/2010/aug/24/shortcuts-plum-job-glut", "apiUrl": "https://content.guardianapis.com/theguardian/2010/aug/24/shortcuts-plum-job-glut", "isHosted": false, "pillarId": "pillar/lifestyle", "pillarName": "Lifestyle"}, {"id": "lifeandstyle/audio/2010/aug/24/guardian-focus-podcast-pubs", "type": "audio", "sectionId": "lifeandstyle", "sectionName": "Life and style", "webPublicationDate": "2010-08-24T15:02:35Z", "webTitle": "Guardian Focus podcast: The future of the British pub", "webUrl": "https://www.theguardian.com/lifeandstyle/audio/2010/aug/24/guardian-focus-podcast-pubs", "apiUrl": "https://content.guardianapis.com/lifeandstyle/audio/2010/aug/24/guardian-focus-podcast-pubs", "isHosted": false, "pillarId": "pillar/lifestyle", "pillarName": "Lifestyle"}, {"id": "lifeandstyle/wordofmouth/2010/aug/24/99-flake-ice-cream", "type": "article", "sectionId": "lifeandstyle", "sectionName": "Life and style", "webPublicationDate": "2010-08-24T08:50:00Z", "webTitle": "Consider the 99 Flake", "webUrl": "https://www.theguardian.com/lifeandstyle/wordofmouth/2010/aug/24/99-flake-ice-cream", "apiUrl": "https://content.guardianapis.com/lifeandstyle/wordofmouth/2010/aug/24/99-flake-ice-cream", "isHosted": false, "pillarId": "pillar/lifestyle", "pillarName": "Lifestyle"}, {"id": "lifeandstyle/wordofmouth/2010/aug/23/mediterranean-diet-world-heritage", "type": "article", "sectionId": "lifeandstyle", "sectionName": "Life and style", "webPublicationDate": "2010-08-23T15:40:00Z", "webTitle": "The Mediterranean 'heritage' diet", "webUrl": "https://www.theguardian.com/lifeandstyle/wordofmouth/2010/aug/23/mediterranean-diet-world-heritage", "apiUrl": "https://content.guardianapis.com/lifeandstyle/wordofmouth/2010/aug/23/mediterranean-diet-world-heritage", "isHosted": false, "pillarId": "pillar/lifestyle", "pillarName": "Lifestyle"}, {"id": "world/2010/aug/23/mediterranean-diet-world-heritage-list", "type": "article", "sectionId": "world", "sectionName": "World news", "webPublicationDate": "2010-08-23T15:03:03Z", "webTitle": "Mediterranean diet set for place on world heritage list", "webUrl": "https://www.theguardian.com/world/2010/aug/23/mediterranean-diet-world-heritage-list", "apiUrl": "https://content.guardianapis.com/world/2010/aug/23/mediterranean-diet-world-heritage-list", "isHosted": false, "pillarId": "pillar/news", "pillarName": "News"}, {"id": "lifeandstyle/wordofmouth/2010/aug/23/flavour-behaviour", "type": "article", "sectionId": "lifeandstyle", "sectionName": "Life and style", "webPublicationDate": "2010-08-23T10:00:00Z", "webTitle": "Changing flavour behaviour", "webUrl": "https://www.theguardian.com/lifeandstyle/wordofmouth/2010/aug/23/flavour-behaviour", "apiUrl": "https://content.guardianapis.com/lifeandstyle/wordofmouth/2010/aug/23/flavour-behaviour", "isHosted": false, "pillarId": "pillar/lifestyle", "pillarName": "Lifestyle"}, {"id": "lifeandstyle/2010/aug/22/allan-jenkins-chilli-cool-restaurant", "type": "article", "sectionId": "food", "sectionName": "Food", "webPublicationDate": "2010-08-21T23:07:54Z", "webTitle": "Restaurant review: Chilli Cool", "webUrl": "https://www.theguardian.com/lifeandstyle/2010/aug/22/allan-jenkins-chilli-cool-restaurant", "apiUrl": "https://content.guardianapis.com/lifeandstyle/2010/aug/22/allan-jenkins-chilli-cool-restaurant", "isHosted": false, "pillarId": "pillar/lifestyle", "pillarName": "Lifestyle"}, {"id": "lifeandstyle/cartoon/2010/aug/21/berger-and-wyse", "type": "picture", "sectionId": "food", "sectionName": "Food", "webPublicationDate": "2010-08-21T13:38:00Z", "webTitle": "Berger & Wyse", "webUrl": "https://www.theguardian.com/lifeandstyle/cartoon/2010/aug/21/berger-and-wyse", "apiUrl": "https://content.guardianapis.com/lifeandstyle/cartoon/2010/aug/21/berger-and-wyse", "isHosted": false, "pillarId": "pillar/lifestyle", "pillarName": "Lifestyle"}, {"id": "lifeandstyle/2010/aug/21/snapshot-playlist-recipes", "type": "article", "sectionId": "lifeandstyle", "sectionName": "Life and style", "webPublicationDate": "2010-08-20T23:05:50Z", "webTitle": "Family life", "webUrl": "https://www.theguardian.com/lifeandstyle/2010/aug/21/snapshot-playlist-recipes", "apiUrl": "https://content.guardianapis.com/lifeandstyle/2010/aug/21/snapshot-playlist-recipes", "isHosted": false, "pillarId": "pillar/lifestyle", "pillarName": "Lifestyle"}, {"id": "lifeandstyle/2010/aug/21/summer-wine-review", "type": "article", "sectionId": "lifeandstyle", "sectionName": "Life and style", "webPublicationDate": "2010-08-20T23:02:55Z", "webTitle": "Last of the summer wines", "webUrl": "https://www.theguardian.com/lifeandstyle/2010/aug/21/summer-wine-review", "apiUrl": "https://content.guardianapis.com/lifeandstyle/2010/aug/21/summer-wine-review", "isHosted": false, "pillarId": "pillar/lifestyle", "pillarName": "Lifestyle"}, {"id": "lifeandstyle/2010/aug/21/koffmanns-knightsbridge-restaurant-review", "type": "article", "sectionId": "food", "sectionName": "Food", "webPublicationDate": "2010-08-20T23:02:51Z", "webTitle": "Restaurant: Koffmann's Knightsbridge, London", "webUrl": "https://www.theguardian.com/lifeandstyle/2010/aug/21/koffmanns-knightsbridge-restaurant-review", "apiUrl": "https://content.guardianapis.com/lifeandstyle/2010/aug/21/koffmanns-knightsbridge-restaurant-review", "isHosted": false, "pillarId": "pillar/lifestyle", "pillarName": "Lifestyle"}, {"id": "lifeandstyle/2010/aug/21/steak-sandwich-recipe-yotam-ottolenghi", "type": "article", "sectionId": "food", "sectionName": "Food", "webPublicationDate": "2010-08-20T23:02:47Z", "webTitle": "The ultimate steak sandwich recipe | Yotam Ottolenghi | Food", "webUrl": "https://www.theguardian.com/lifeandstyle/2010/aug/21/steak-sandwich-recipe-yotam-ottolenghi", "apiUrl": "https://content.guardianapis.com/lifeandstyle/2010/aug/21/steak-sandwich-recipe-yotam-ottolenghi", "isHosted": false, "pillarId": "pillar/lifestyle", "pillarName": "Lifestyle"}, {"id": "lifeandstyle/2010/aug/21/pear-pastis-recipe-dan-lepard", "type": "article", "sectionId": "lifeandstyle", "sectionName": "Life and style", "webPublicationDate": "2010-08-20T23:02:46Z", "webTitle": "Pear pastis recipe | Dan Lepard | Food | Baking", "webUrl": "https://www.theguardian.com/lifeandstyle/2010/aug/21/pear-pastis-recipe-dan-lepard", "apiUrl": "https://content.guardianapis.com/lifeandstyle/2010/aug/21/pear-pastis-recipe-dan-lepard", "isHosted": false, "pillarId": "pillar/lifestyle", "pillarName": "Lifestyle"}, {"id": "lifeandstyle/2010/aug/21/saffron-risotto-cake-recipe-vegetarian", "type": "article", "sectionId": "lifeandstyle", "sectionName": "Life and style", "webPublicationDate": "2010-08-20T23:02:46Z", "webTitle": "Saffron risotto cake with grilled veg recipe | Jane Baxter | Food | Vegetarian", "webUrl": "https://www.theguardian.com/lifeandstyle/2010/aug/21/saffron-risotto-cake-recipe-vegetarian", "apiUrl": "https://content.guardianapis.com/lifeandstyle/2010/aug/21/saffron-risotto-cake-recipe-vegetarian", "isHosted": false, "pillarId": "pillar/lifestyle", "pillarName": "Lifestyle"}, {"id": "lifeandstyle/wordofmouth/2010/aug/20/worst-food-books", "type": "article", "sectionId": "lifeandstyle", "sectionName": "Life and style", "webPublicationDate": "2010-08-20T11:00:00Z", "webTitle": "Let's burn a few books", "webUrl": "https://www.theguardian.com/lifeandstyle/wordofmouth/2010/aug/20/worst-food-books", "apiUrl": "https://content.guardianapis.com/lifeandstyle/wordofmouth/2010/aug/20/worst-food-books", "isHosted": false, "pillarId": "pillar/lifestyle", "pillarName": "Lifestyle"}, {"id": "lifeandstyle/wordofmouth/2010/aug/20/deep-fried-america", "type": "article", "sectionId": "lifeandstyle", "sectionName": "Life and style", "webPublicationDate": "2010-08-20T09:04:00Z", "webTitle": "God bless deep fried America", "webUrl": "https://www.theguardian.com/lifeandstyle/wordofmouth/2010/aug/20/deep-fried-america", "apiUrl": "https://content.guardianapis.com/lifeandstyle/wordofmouth/2010/aug/20/deep-fried-america", "isHosted": false, "pillarId": "pillar/lifestyle", "pillarName": "Lifestyle"}, {"id": "commentisfree/2010/aug/19/eating-etiquette-manners", "type": "article", "sectionId": "commentisfree", "sectionName": "Opinion", "webPublicationDate": "2010-08-19T13:32:00Z", "webTitle": "The end of eating etiquette | Open thread", "webUrl": "https://www.theguardian.com/commentisfree/2010/aug/19/eating-etiquette-manners", "apiUrl": "https://content.guardianapis.com/commentisfree/2010/aug/19/eating-etiquette-manners", "isHosted": false, "pillarId": "pillar/opinion", "pillarName": "Opinion"}, {"id": "lifeandstyle/wordofmouth/2010/aug/19/local-seasonal-sustainable-food-uk", "type": "article", "sectionId": "lifeandstyle", "sectionName": "Life and style", "webPublicationDate": "2010-08-19T09:00:00Z", "webTitle": "Eating Britain", "webUrl": "https://www.theguardian.com/lifeandstyle/wordofmouth/2010/aug/19/local-seasonal-sustainable-food-uk", "apiUrl": "https://content.guardianapis.com/lifeandstyle/wordofmouth/2010/aug/19/local-seasonal-sustainable-food-uk", "isHosted": false, "pillarId": "pillar/lifestyle", "pillarName": "Lifestyle"}]}}