{"response": {"status": "ok", "userTier": "developer", "total": 132924, "startIndex": 1, "pageSize": 50, "currentPage": 1, "pages": 2659, "orderBy": "newest", "results": [{"id": "world/2013/aug/30/household-bills-australia-wages-rising", "type": "article", "sectionId": "australia-news", "sectionName": "Australia news", "webPublicationDate": "2013-08-30T21:02:00Z", "webTitle": "Rising cost of living 'just an illusion'", "webUrl": "https://www.theguardian.com/world/2013/aug/30/household-bills-australia-wages-rising", "apiUrl": "https://content.guardianapis.com/world/2013/aug/30/household-bills-australia-wages-rising", "isHosted": false, "pillarId": "pillar/news", "pillarName": "News"}, {"id": "commentisfree/2013/aug/30/syria-vote-britains-new-mood-editorial", "type": "article", "sectionId": "commentisfree", "sectionName": "Opinion", "webPublicationDate": "2013-08-30T20:05:57Z", "webTitle": "The Syria vote: Britain's new mood | Editorial", "webUrl": "https://www.theguardian.com/commentisfree/2013/aug/30/syria-vote-britains-new-mood-editorial", "apiUrl": "https://content.guardianapis.com/commentisfree/2013/aug/30/syria-vote-britains-new-mood-editorial", "isHosted": false, "pillarId": "pillar/opinion", "pillarName": "Opinion"}, {"id": "commentisfree/2013/aug/30/fragile-leader-david-cameron-past-treacherous", "type": "article", "sectionId": "commentisfree", "sectionName": "Opinion", "webPublicationDate": "2013-08-30T20:00:16Z", "webTitle": "For a fragile leader like Cameron, the past is a treacherous guide | Steve Richards", "webUrl": "https://www.theguardian.com/commentisfree/2013/aug/30/fragile-leader-david-cameron-past-treacherous", "apiUrl": "https://content.guardianapis.com/commentisfree/2013/aug/30/fragile-leader-david-cameron-past-treacherous", "isHosted": false, "pillarId": "pillar/opinion", "pillarName": "Opinion"}, {"id": "politics/2013/aug/30/miliband-moral-vacuum-heart-uk-politics", "type": "article", "sectionId": "politics", "sectionName": "Politics", "webPublicationDate": "2013-08-30T19:59:00Z", "webTitle": "Letters: Ed Miliband's chance to fill the moral vacuum at the heart of UK politics", "webUrl": "https://www.theguardian.com/politics/2013/aug/30/miliband-moral-vacuum-heart-uk-politics", "apiUrl": "https://content.guardianapis.com/politics/2013/aug/30/miliband-moral-vacuum-heart-uk-politics", "isHosted": false, "pillarId": "pillar/news", "pillarName": "News"}, {"id": "politics/2013/aug/30/syria-ed-miliband-labour-party-confidence-leadership", "type": "article", "sectionId": "politics", "sectionName": "Politics", "webPublicationDate": "2013-08-30T19:45:58Z", "webTitle": "Ed Miliband restores party confidence in his leadership on Syria motion", "webUrl": "https://www.theguardian.com/politics/2013/aug/30/syria-ed-miliband-labour-party-confidence-leadership", "apiUrl": "https://content.guardianapis.com/politics/2013/aug/30/syria-ed-miliband-labour-party-confidence-leadership", "isHosted": false, "pillarId": "pillar/news", "pillarName": "News"}, {"id": "politics/2013/aug/30/uk-us-special-relationship-danger", "type": "article", "sectionId": "politics", "sectionName": "Politics", "webPublicationDate": "2013-08-30T19:30:07Z", "webTitle": "UK-US special relationship in danger, warns Philip Hammond", "webUrl": "https://www.theguardian.com/politics/2013/aug/30/uk-us-special-relationship-danger", "apiUrl": "https://content.guardianapis.com/politics/2013/aug/30/uk-us-special-relationship-danger", "isHosted": false, "pillarId": "pillar/news", "pillarName": "News"}, {"id": "lifeandstyle/2013/aug/30/mumsnet-social-media-forums-feminism", "type": "article", "sectionId": "lifeandstyle", "sectionName": "Life and style", "webPublicationDate": "2013-08-30T19:30:00Z", "webTitle": "Why Mumsnet and social media are important new forums for feminism", "webUrl": "https://www.theguardian.com/lifeandstyle/2013/aug/30/mumsnet-social-media-forums-feminism", "apiUrl": "https://content.guardianapis.com/lifeandstyle/2013/aug/30/mumsnet-social-media-forums-feminism", "isHosted": false, "pillarId": "pillar/lifestyle", "pillarName": "Lifestyle"}, {"id": "commentisfree/2013/aug/30/britain-still-difference-syria", "type": "article", "sectionId": "commentisfree", "sectionName": "Opinion", "webPublicationDate": "2013-08-30T19:30:00Z", "webTitle": "I believe Britain can still make a difference in Syria | Ed Miliband", "webUrl": "https://www.theguardian.com/commentisfree/2013/aug/30/britain-still-difference-syria", "apiUrl": "https://content.guardianapis.com/commentisfree/2013/aug/30/britain-still-difference-syria", "isHosted": false, "pillarId": "pillar/opinion", "pillarName": "Opinion"}, {"id": "politics/2013/aug/30/green-party-leader-natalie-bennett", "type": "article", "sectionId": "politics", "sectionName": "Politics", "webPublicationDate": "2013-08-30T19:00:01Z", "webTitle": "Green party leader Natalie Bennett: 'We have a complete suite of policies'", "webUrl": "https://www.theguardian.com/politics/2013/aug/30/green-party-leader-natalie-bennett", "apiUrl": "https://content.guardianapis.com/politics/2013/aug/30/green-party-leader-natalie-bennett", "isHosted": false, "pillarId": "pillar/news", "pillarName": "News"}, {"id": "politics/2013/aug/30/ministers-syria-vote-discuss-rwanda", "type": "article", "sectionId": "politics", "sectionName": "Politics", "webPublicationDate": "2013-08-30T18:57:20Z", "webTitle": "Ministers who missed vote were 'discussing Rwanda'", "webUrl": "https://www.theguardian.com/politics/2013/aug/30/ministers-syria-vote-discuss-rwanda", "apiUrl": "https://content.guardianapis.com/politics/2013/aug/30/ministers-syria-vote-discuss-rwanda", "isHosted": false, "pillarId": "pillar/news", "pillarName": "News"}, {"id": "politics/2013/aug/30/cameron-tories-overhaul-syria", "type": "article", "sectionId": "politics", "sectionName": "Politics", "webPublicationDate": "2013-08-30T18:42:26Z", "webTitle": "David Cameron must rebuild his broken party, say ministers", "webUrl": "https://www.theguardian.com/politics/2013/aug/30/cameron-tories-overhaul-syria", "apiUrl": "https://content.guardianapis.com/politics/2013/aug/30/cameron-tories-overhaul-syria", "isHosted": false, "pillarId": "pillar/news", "pillarName": "News"}, {"id": "commentisfree/cartoon/2013/aug/30/david-cameron-syria", "type": "picture", "sectionId": "commentisfree", "sectionName": "Opinion", "webPublicationDate": "2013-08-30T18:09:59Z", "webTitle": "Martin Rowson on David Cameron and Syria \u2013 cartoon", "webUrl": "https://www.theguardian.com/commentisfree/cartoon/2013/aug/30/david-cameron-syria", "apiUrl": "https://content.guardianapis.com/commentisfree/cartoon/2013/aug/30/david-cameron-syria", "isHosted": false, "pillarId": "pillar/opinion", "pillarName": "Opinion"}, {"id": "politics/2013/aug/30/peace-campaigners-commons-syria", "type": "article", "sectionId": "politics", "sectionName": "Politics", "webPublicationDate": "2013-08-30T17:40:15Z", "webTitle": "Peace campaigners hail Commons verdict on Syria strikes", "webUrl": "https://www.theguardian.com/politics/2013/aug/30/peace-campaigners-commons-syria", "apiUrl": "https://content.guardianapis.com/politics/2013/aug/30/peace-campaigners-commons-syria", "isHosted": false, "pillarId": "pillar/news", "pillarName": "News"}, {"id": "world/2013/aug/30/syria-david-cameron-historic-commons", "type": "article", "sectionId": "world", "sectionName": "World news", "webPublicationDate": "2013-08-30T17:24:08Z", "webTitle": "Syria, David Cameron and a historic night in the House of Commons", "webUrl": "https://www.theguardian.com/world/2013/aug/30/syria-david-cameron-historic-commons", "apiUrl": "https://content.guardianapis.com/world/2013/aug/30/syria-david-cameron-historic-commons", "isHosted": false, "pillarId": "pillar/news", "pillarName": "News"}, {"id": "world/2013/aug/30/us-led-attack-syria-coalition", "type": "article", "sectionId": "world", "sectionName": "World news", "webPublicationDate": "2013-08-30T16:59:29Z", "webTitle": "US-led attack on Syria reduced to 'coalition \u00e0 deux'", "webUrl": "https://www.theguardian.com/world/2013/aug/30/us-led-attack-syria-coalition", "apiUrl": "https://content.guardianapis.com/world/2013/aug/30/us-led-attack-syria-coalition", "isHosted": false, "pillarId": "pillar/news", "pillarName": "News"}, {"id": "uk-news/2013/aug/30/syria-vote-politics-military-uk-role", "type": "article", "sectionId": "uk-news", "sectionName": "UK news", "webPublicationDate": "2013-08-30T16:19:40Z", "webTitle": "Syria vote: a disastrous mismatch between politics and military reality", "webUrl": "https://www.theguardian.com/uk-news/2013/aug/30/syria-vote-politics-military-uk-role", "apiUrl": "https://content.guardianapis.com/uk-news/2013/aug/30/syria-vote-politics-military-uk-role", "isHosted": false, "pillarId": "pillar/news", "pillarName": "News"}, {"id": "world/2013/aug/30/syrians-commons-vote-air-strikes", "type": "article", "sectionId": "world", "sectionName": "World news", "webPublicationDate": "2013-08-30T16:16:43Z", "webTitle": "Syrians welcome Commons vote against British involvement in air strikes", "webUrl": "https://www.theguardian.com/world/2013/aug/30/syrians-commons-vote-air-strikes", "apiUrl": "https://content.guardianapis.com/world/2013/aug/30/syrians-commons-vote-air-strikes", "isHosted": false, "pillarId": "pillar/news", "pillarName": "News"}, {"id": "world/2013/aug/30/david-miranda-police-powers-data", "type": "article", "sectionId": "world", "sectionName": "World news", "webPublicationDate": "2013-08-30T16:12:00Z", "webTitle": "UK took three weeks to act over data at New York Times, says Guardian", "webUrl": "https://www.theguardian.com/world/2013/aug/30/david-miranda-police-powers-data", "apiUrl": "https://content.guardianapis.com/world/2013/aug/30/david-miranda-police-powers-data", "isHosted": false, "pillarId": "pillar/news", "pillarName": "News"}, {"id": "uk-news/2013/aug/30/appoint-hs2-minister-lord-adonis", "type": "article", "sectionId": "uk-news", "sectionName": "UK news", "webPublicationDate": "2013-08-30T15:50:15Z", "webTitle": "Appoint HS2 minister to get grip on costs, urges Lord Adonis", "webUrl": "https://www.theguardian.com/uk-news/2013/aug/30/appoint-hs2-minister-lord-adonis", "apiUrl": "https://content.guardianapis.com/uk-news/2013/aug/30/appoint-hs2-minister-lord-adonis", "isHosted": false, "pillarId": "pillar/news", "pillarName": "News"}, {"id": "business/2013/aug/30/north-sea-oil-culture-helicopter-crash-bob-crow", "type": "article", "sectionId": "business", "sectionName": "Business", "webPublicationDate": "2013-08-30T15:45:24Z", "webTitle": "North Sea oil culture needs to change, says union leader after helicopter crash", "webUrl": "https://www.theguardian.com/business/2013/aug/30/north-sea-oil-culture-helicopter-crash-bob-crow", "apiUrl": "https://content.guardianapis.com/business/2013/aug/30/north-sea-oil-culture-helicopter-crash-bob-crow", "isHosted": false, "pillarId": "pillar/news", "pillarName": "News"}, {"id": "commentisfree/2013/aug/30/syria-intervention-case-paddy-ashdown", "type": "article", "sectionId": "commentisfree", "sectionName": "Opinion", "webPublicationDate": "2013-08-30T15:45:00Z", "webTitle": "Britain did not turn away from Syria. The case for action was not made | Jack Straw", "webUrl": "https://www.theguardian.com/commentisfree/2013/aug/30/syria-intervention-case-paddy-ashdown", "apiUrl": "https://content.guardianapis.com/commentisfree/2013/aug/30/syria-intervention-case-paddy-ashdown", "isHosted": false, "pillarId": "pillar/opinion", "pillarName": "Opinion"}, {"id": "politics/2013/aug/30/david-cameron-accused-miliband-siding-russia", "type": "article", "sectionId": "politics", "sectionName": "Politics", "webPublicationDate": "2013-08-30T15:22:07Z", "webTitle": "David Cameron accused Ed Miliband of 'siding with Russia' over Syria", "webUrl": "https://www.theguardian.com/politics/2013/aug/30/david-cameron-accused-miliband-siding-russia", "apiUrl": "https://content.guardianapis.com/politics/2013/aug/30/david-cameron-accused-miliband-siding-russia", "isHosted": false, "pillarId": "pillar/news", "pillarName": "News"}, {"id": "commentisfree/2013/aug/30/drug-confessions-toronto-mayor", "type": "article", "sectionId": "commentisfree", "sectionName": "Opinion", "webPublicationDate": "2013-08-30T14:30:00Z", "webTitle": "How to make a drug confession without scaring the electorate | Oscar Rickett", "webUrl": "https://www.theguardian.com/commentisfree/2013/aug/30/drug-confessions-toronto-mayor", "apiUrl": "https://content.guardianapis.com/commentisfree/2013/aug/30/drug-confessions-toronto-mayor", "isHosted": false, "pillarId": "pillar/opinion", "pillarName": "Opinion"}, {"id": "politics/2013/aug/30/syria-david-cameron-chemical-weapons", "type": "article", "sectionId": "politics", "sectionName": "Politics", "webPublicationDate": "2013-08-30T12:10:32Z", "webTitle": "Syria crisis: David Cameron still wants 'robust response' to chemical weapons", "webUrl": "https://www.theguardian.com/politics/2013/aug/30/syria-david-cameron-chemical-weapons", "apiUrl": "https://content.guardianapis.com/politics/2013/aug/30/syria-david-cameron-chemical-weapons", "isHosted": false, "pillarId": "pillar/news", "pillarName": "News"}, {"id": "commentisfree/2013/aug/30/syria-debate-voted-against-military-intervention", "type": "article", "sectionId": "commentisfree", "sectionName": "Opinion", "webPublicationDate": "2013-08-30T12:00:05Z", "webTitle": "Syria debate: why I voted against military intervention | Sarah Wollaston", "webUrl": "https://www.theguardian.com/commentisfree/2013/aug/30/syria-debate-voted-against-military-intervention", "apiUrl": "https://content.guardianapis.com/commentisfree/2013/aug/30/syria-debate-voted-against-military-intervention", "isHosted": false, "pillarId": "pillar/opinion", "pillarName": "Opinion"}, {"id": "politics/video/2013/aug/30/george-osborne-syria-intervention-video", "type": "video", "sectionId": "politics", "sectionName": "Politics", "webPublicationDate": "2013-08-30T10:48:00Z", "webTitle": "George Osborne: 'We're going to listen to the country' on Syria intervention - video", "webUrl": "https://www.theguardian.com/politics/video/2013/aug/30/george-osborne-syria-intervention-video", "apiUrl": "https://content.guardianapis.com/politics/video/2013/aug/30/george-osborne-syria-intervention-video", "isHosted": false, "pillarId": "pillar/news", "pillarName": "News"}, {"id": "politics/video/2013/aug/30/paddy-ashdown-syria-intervention-vote-video", "type": "video", "sectionId": "politics", "sectionName": "Politics", "webPublicationDate": "2013-08-30T09:52:00Z", "webTitle": "Paddy Ashdown: Syria intervention vote 'a bad night for Britain' - video", "webUrl": "https://www.theguardian.com/politics/video/2013/aug/30/paddy-ashdown-syria-intervention-vote-video", "apiUrl": "https://content.guardianapis.com/politics/video/2013/aug/30/paddy-ashdown-syria-intervention-vote-video", "isHosted": false, "pillarId": "pillar/news", "pillarName": "News"}, {"id": "commentisfree/2013/aug/30/syria-debate-five-things-vote", "type": "article", "sectionId": "commentisfree", "sectionName": "Opinion", "webPublicationDate": "2013-08-30T09:25:27Z", "webTitle": "Syria debate: five things we learned from last night's vote | Anne Perkins", "webUrl": "https://www.theguardian.com/commentisfree/2013/aug/30/syria-debate-five-things-vote", "apiUrl": "https://content.guardianapis.com/commentisfree/2013/aug/30/syria-debate-five-things-vote", "isHosted": false, "pillarId": "pillar/opinion", "pillarName": "Opinion"}, {"id": "politics/blog/2013/aug/30/politics-live-readers-edition", "type": "article", "sectionId": "politics", "sectionName": "Politics", "webPublicationDate": "2013-08-30T09:19:00Z", "webTitle": "Politics live: readers' edition - Friday 30 August", "webUrl": "https://www.theguardian.com/politics/blog/2013/aug/30/politics-live-readers-edition", "apiUrl": "https://content.guardianapis.com/politics/blog/2013/aug/30/politics-live-readers-edition", "isHosted": false, "pillarId": "pillar/news", "pillarName": "News"}, {"id": "politics/2013/aug/30/george-osborne-syria-vote", "type": "article", "sectionId": "politics", "sectionName": "Politics", "webPublicationDate": "2013-08-30T08:57:48Z", "webTitle": "George Osborne: UK should not turn its back on world after Syria vote", "webUrl": "https://www.theguardian.com/politics/2013/aug/30/george-osborne-syria-vote", "apiUrl": "https://content.guardianapis.com/politics/2013/aug/30/george-osborne-syria-vote", "isHosted": false, "pillarId": "pillar/news", "pillarName": "News"}, {"id": "politics/video/2013/aug/30/cameron-loses-syria-vote-video", "type": "video", "sectionId": "politics", "sectionName": "Politics", "webPublicationDate": "2013-08-30T08:27:00Z", "webTitle": "Cameron loses crucial vote on military intervention in Syria - video", "webUrl": "https://www.theguardian.com/politics/video/2013/aug/30/cameron-loses-syria-vote-video", "apiUrl": "https://content.guardianapis.com/politics/video/2013/aug/30/cameron-loses-syria-vote-video", "isHosted": false, "pillarId": "pillar/news", "pillarName": "News"}, {"id": "media/greenslade/2013/aug/30/davidcameron-syria", "type": "article", "sectionId": "media", "sectionName": "Media", "webPublicationDate": "2013-08-30T08:01:00Z", "webTitle": "David Cameron humiliated \u2013 the newspaper reaction to his defeat", "webUrl": "https://www.theguardian.com/media/greenslade/2013/aug/30/davidcameron-syria", "apiUrl": "https://content.guardianapis.com/media/greenslade/2013/aug/30/davidcameron-syria", "isHosted": false, "pillarId": "pillar/news", "pillarName": "News"}, {"id": "environment/georgemonbiot/2013/aug/30/fracking-climate-change-fossil-fuels-debate", "type": "article", "sectionId": "environment", "sectionName": "Environment", "webPublicationDate": "2013-08-30T06:00:00Z", "webTitle": "Fracking  brings climate debate closer to home | George Monbiot", "webUrl": "https://www.theguardian.com/environment/georgemonbiot/2013/aug/30/fracking-climate-change-fossil-fuels-debate", "apiUrl": "https://content.guardianapis.com/environment/georgemonbiot/2013/aug/30/fracking-climate-change-fossil-fuels-debate", "isHosted": false, "pillarId": "pillar/news", "pillarName": "News"}, {"id": "politics/2013/aug/30/cameron-mps-syria", "type": "article", "sectionId": "politics", "sectionName": "Politics", "webPublicationDate": "2013-08-30T00:15:33Z", "webTitle": "Blow to Cameron's authority as MPs rule out British assault on Syria", "webUrl": "https://www.theguardian.com/politics/2013/aug/30/cameron-mps-syria", "apiUrl": "https://content.guardianapis.com/politics/2013/aug/30/cameron-mps-syria", "isHosted": false, "pillarId": "pillar/news", "pillarName": "News"}, {"id": "world/2013/aug/30/syria-debate-coalition-mps-defy-government", "type": "article", "sectionId": "world", "sectionName": "World news", "webPublicationDate": "2013-08-30T00:04:48Z", "webTitle": "Syria: coalition MPs defy Cameron and Clegg's call for military action", "webUrl": "https://www.theguardian.com/world/2013/aug/30/syria-debate-coalition-mps-defy-government", "apiUrl": "https://content.guardianapis.com/world/2013/aug/30/syria-debate-coalition-mps-defy-government", "isHosted": false, "pillarId": "pillar/news", "pillarName": "News"}, {"id": "politics/2013/aug/30/syria-vote-david-cameron", "type": "article", "sectionId": "politics", "sectionName": "Politics", "webPublicationDate": "2013-08-29T23:37:24Z", "webTitle": "Cabinet frustration over Syria vote as Cameron misreads Tory party's mood", "webUrl": "https://www.theguardian.com/politics/2013/aug/30/syria-vote-david-cameron", "apiUrl": "https://content.guardianapis.com/politics/2013/aug/30/syria-vote-david-cameron", "isHosted": false, "pillarId": "pillar/news", "pillarName": "News"}, {"id": "politics/blog/2013/aug/29/mps-debate-syria-live-blog", "type": "liveblog", "sectionId": "politics", "sectionName": "Politics", "webPublicationDate": "2013-08-29T23:32:00Z", "webTitle": "MPs vote down military intervention in Syria: Politics live blog", "webUrl": "https://www.theguardian.com/politics/blog/2013/aug/29/mps-debate-syria-live-blog", "apiUrl": "https://content.guardianapis.com/politics/blog/2013/aug/29/mps-debate-syria-live-blog", "isHosted": false, "pillarId": "pillar/news", "pillarName": "News"}, {"id": "world/2013/aug/30/syria-debate-tory-rebels", "type": "article", "sectionId": "politics", "sectionName": "Politics", "webPublicationDate": "2013-08-29T23:28:29Z", "webTitle": "Syria debate: the Tory rebels who voted against government on military action", "webUrl": "https://www.theguardian.com/world/2013/aug/30/syria-debate-tory-rebels", "apiUrl": "https://content.guardianapis.com/world/2013/aug/30/syria-debate-tory-rebels", "isHosted": false, "pillarId": "pillar/news", "pillarName": "News"}, {"id": "commentisfree/cartoon/2013/aug/29/strike-syria", "type": "picture", "sectionId": "commentisfree", "sectionName": "Opinion", "webPublicationDate": "2013-08-29T22:57:45Z", "webTitle": "Ben Jennings on a possible strike against Syria \u2013 cartoon", "webUrl": "https://www.theguardian.com/commentisfree/cartoon/2013/aug/29/strike-syria", "apiUrl": "https://content.guardianapis.com/commentisfree/cartoon/2013/aug/29/strike-syria", "isHosted": false, "pillarId": "pillar/opinion", "pillarName": "Opinion"}, {"id": "commentisfree/2013/aug/29/syria-more-courage-to-say-nothing-can-do", "type": "article", "sectionId": "commentisfree", "sectionName": "Opinion", "webPublicationDate": "2013-08-29T22:42:00Z", "webTitle": "Syria: it takes more courage to say there is nothing outsiders can do | Simon Jenkins", "webUrl": "https://www.theguardian.com/commentisfree/2013/aug/29/syria-more-courage-to-say-nothing-can-do", "apiUrl": "https://content.guardianapis.com/commentisfree/2013/aug/29/syria-more-courage-to-say-nothing-can-do", "isHosted": false, "pillarId": "pillar/opinion", "pillarName": "Opinion"}, {"id": "commentisfree/2013/aug/29/no-10-curses-but-empire-is-over", "type": "article", "sectionId": "commentisfree", "sectionName": "Opinion", "webPublicationDate": "2013-08-29T22:40:19Z", "webTitle": "No 10 curses, but Britain's illusion of empire is over | Polly Toynbee", "webUrl": "https://www.theguardian.com/commentisfree/2013/aug/29/no-10-curses-but-empire-is-over", "apiUrl": "https://content.guardianapis.com/commentisfree/2013/aug/29/no-10-curses-but-empire-is-over", "isHosted": false, "pillarId": "pillar/opinion", "pillarName": "Opinion"}, {"id": "commentisfree/2013/aug/29/syria-debate-parliament-editorial", "type": "article", "sectionId": "commentisfree", "sectionName": "Opinion", "webPublicationDate": "2013-08-29T22:32:28Z", "webTitle": "Syria debate: parliament did its job when it mattered | Editorial", "webUrl": "https://www.theguardian.com/commentisfree/2013/aug/29/syria-debate-parliament-editorial", "apiUrl": "https://content.guardianapis.com/commentisfree/2013/aug/29/syria-debate-parliament-editorial", "isHosted": false, "pillarId": "pillar/opinion", "pillarName": "Opinion"}, {"id": "world/2013/aug/29/cameron-british-attack-syria-mps", "type": "article", "sectionId": "world", "sectionName": "World news", "webPublicationDate": "2013-08-29T22:07:47Z", "webTitle": "Cameron forced to rule out British attack on Syria after MPs reject motion", "webUrl": "https://www.theguardian.com/world/2013/aug/29/cameron-british-attack-syria-mps", "apiUrl": "https://content.guardianapis.com/world/2013/aug/29/cameron-british-attack-syria-mps", "isHosted": false, "pillarId": "pillar/news", "pillarName": "News"}, {"id": "politics/2013/aug/29/hugh-muir-diary-greens-london-assembly", "type": "article", "sectionId": "politics", "sectionName": "Politics", "webPublicationDate": "2013-08-29T22:00:00Z", "webTitle": "Hugh Muir's diary", "webUrl": "https://www.theguardian.com/politics/2013/aug/29/hugh-muir-diary-greens-london-assembly", "apiUrl": "https://content.guardianapis.com/politics/2013/aug/29/hugh-muir-diary-greens-london-assembly", "isHosted": false, "pillarId": "pillar/news", "pillarName": "News"}, {"id": "world/2013/aug/29/syria-tories-ed-miliband", "type": "article", "sectionId": "world", "sectionName": "World news", "webPublicationDate": "2013-08-29T20:45:45Z", "webTitle": "Syria divisions laid bare as Tories savage Ed Miliband", "webUrl": "https://www.theguardian.com/world/2013/aug/29/syria-tories-ed-miliband", "apiUrl": "https://content.guardianapis.com/world/2013/aug/29/syria-tories-ed-miliband", "isHosted": false, "pillarId": "pillar/news", "pillarName": "News"}, {"id": "world/2013/aug/29/syria-intelligence-iraq-debate", "type": "article", "sectionId": "world", "sectionName": "World news", "webPublicationDate": "2013-08-29T20:14:21Z", "webTitle": "Syria: MPs call for better intelligence as Iraq shadow looms over debate", "webUrl": "https://www.theguardian.com/world/2013/aug/29/syria-intelligence-iraq-debate", "apiUrl": "https://content.guardianapis.com/world/2013/aug/29/syria-intelligence-iraq-debate", "isHosted": false, "pillarId": "pillar/news", "pillarName": "News"}, {"id": "world/2013/aug/29/syria-amoral-guardians-complete-breakdown-trust", "type": "article", "sectionId": "world", "sectionName": "World news", "webPublicationDate": "2013-08-29T20:00:03Z", "webTitle": "Letters: Syria, our amoral guardians, and the complete breakdown of trust", "webUrl": "https://www.theguardian.com/world/2013/aug/29/syria-amoral-guardians-complete-breakdown-trust", "apiUrl": "https://content.guardianapis.com/world/2013/aug/29/syria-amoral-guardians-complete-breakdown-trust", "isHosted": false, "pillarId": "pillar/news", "pillarName": "News"}, {"id": "world/2013/aug/29/time-free-lives-traffic-hell", "type": "article", "sectionId": "world", "sectionName": "World news", "webPublicationDate": "2013-08-29T20:00:03Z", "webTitle": "Letters: It's time to free our lives from traffic hell", "webUrl": "https://www.theguardian.com/world/2013/aug/29/time-free-lives-traffic-hell", "apiUrl": "https://content.guardianapis.com/world/2013/aug/29/time-free-lives-traffic-hell", "isHosted": false, "pillarId": "pillar/news", "pillarName": "News"}, {"id": "lifeandstyle/2013/aug/29/jamie-oliver-healthy-eating-not-simple", "type": "article", "sectionId": "food", "sectionName": "Food", "webPublicationDate": "2013-08-29T20:00:02Z", "webTitle": "Letters: Healthy eating is not so simple, Jamie Oliver", "webUrl": "https://www.theguardian.com/lifeandstyle/2013/aug/29/jamie-oliver-healthy-eating-not-simple", "apiUrl": "https://content.guardianapis.com/lifeandstyle/2013/aug/29/jamie-oliver-healthy-eating-not-simple", "isHosted": false, "pillarId": "pillar/lifestyle", "pillarName": "Lifestyle"}, {"id": "world/2013/aug/29/syria-us-uk-special-relationship", "type": "article", "sectionId": "world", "sectionName": "World news", "webPublicationDate": "2013-08-29T18:59:45Z", "webTitle": "Syria: after years of distancing, how special is the US-UK relationship?", "webUrl": "https://www.theguardian.com/world/2013/aug/29/syria-us-uk-special-relationship", "apiUrl": "https://content.guardianapis.com/world/2013/aug/29/syria-us-uk-special-relationship", "isHosted": false, "pillarId": "pillar/news", "pillarName": "News"}]}}