{"response": {"status": "ok", "userTier": "developer", "total": 37318, "startIndex": 1, "pageSize": 50, "currentPage": 1, "pages": 747, "orderBy": "newest", "results": [{"id": "environment/2013/aug/30/walking-shark-discovered", "type": "article", "sectionId": "environment", "sectionName": "Environment", "webPublicationDate": "2013-08-30T22:37:01Z", "webTitle": "'Walking shark' discovered in Indonesia", "webUrl": "https://www.theguardian.com/environment/2013/aug/30/walking-shark-discovered", "apiUrl": "https://content.guardianapis.com/environment/2013/aug/30/walking-shark-discovered", "isHosted": false, "pillarId": "pillar/news", "pillarName": "News"}, {"id": "environment/2013/aug/30/warwickslade-new-forest-wood-ants", "type": "article", "sectionId": "environment", "sectionName": "Environment", "webPublicationDate": "2013-08-30T20:00:15Z", "webTitle": "Country diary: Warwickslade, New Forest: Wood ants aren't to be messed with", "webUrl": "https://www.theguardian.com/environment/2013/aug/30/warwickslade-new-forest-wood-ants", "apiUrl": "https://content.guardianapis.com/environment/2013/aug/30/warwickslade-new-forest-wood-ants", "isHosted": false, "pillarId": "pillar/news", "pillarName": "News"}, {"id": "politics/2013/aug/30/green-party-leader-natalie-bennett", "type": "article", "sectionId": "politics", "sectionName": "Politics", "webPublicationDate": "2013-08-30T19:00:01Z", "webTitle": "Green party leader Natalie Bennett: 'We have a complete suite of policies'", "webUrl": "https://www.theguardian.com/politics/2013/aug/30/green-party-leader-natalie-bennett", "apiUrl": "https://content.guardianapis.com/politics/2013/aug/30/green-party-leader-natalie-bennett", "isHosted": false, "pillarId": "pillar/news", "pillarName": "News"}, {"id": "environment/2013/aug/30/british-apple-growers-crop-summer", "type": "article", "sectionId": "environment", "sectionName": "Environment", "webPublicationDate": "2013-08-30T18:04:53Z", "webTitle": "British apple growers hope for sunny September to boost crop", "webUrl": "https://www.theguardian.com/environment/2013/aug/30/british-apple-growers-crop-summer", "apiUrl": "https://content.guardianapis.com/environment/2013/aug/30/british-apple-growers-crop-summer", "isHosted": false, "pillarId": "pillar/news", "pillarName": "News"}, {"id": "environment/earth-insight/2013/aug/30/syria-chemical-attack-war-intervention-oil-gas-energy-pipelines", "type": "article", "sectionId": "environment", "sectionName": "Environment", "webPublicationDate": "2013-08-30T16:11:00Z", "webTitle": "Syria intervention plans fuelled by oil interests, not chemical weapon concerns | Nafeez Ahmed", "webUrl": "https://www.theguardian.com/environment/earth-insight/2013/aug/30/syria-chemical-attack-war-intervention-oil-gas-energy-pipelines", "apiUrl": "https://content.guardianapis.com/environment/earth-insight/2013/aug/30/syria-chemical-attack-war-intervention-oil-gas-energy-pipelines", "isHosted": false, "pillarId": "pillar/news", "pillarName": "News"}, {"id": "environment/gallery/2013/aug/30/week-in-wildlife-in-pictures", "type": "gallery", "sectionId": "environment", "sectionName": "Environment", "webPublicationDate": "2013-08-30T13:28:00Z", "webTitle": "The week in wildlife \u2013 in pictures", "webUrl": "https://www.theguardian.com/environment/gallery/2013/aug/30/week-in-wildlife-in-pictures", "apiUrl": "https://content.guardianapis.com/environment/gallery/2013/aug/30/week-in-wildlife-in-pictures", "isHosted": false, "pillarId": "pillar/news", "pillarName": "News"}, {"id": "business/2013/aug/30/bp-oil-spill-louisiana-leaders-political-grandstanding-deepwater-horizon", "type": "article", "sectionId": "business", "sectionName": "Business", "webPublicationDate": "2013-08-30T11:47:27Z", "webTitle": "BP accuses Louisiana leaders of 'political grandstanding' over oil spill", "webUrl": "https://www.theguardian.com/business/2013/aug/30/bp-oil-spill-louisiana-leaders-political-grandstanding-deepwater-horizon", "apiUrl": "https://content.guardianapis.com/business/2013/aug/30/bp-oil-spill-louisiana-leaders-political-grandstanding-deepwater-horizon", "isHosted": false, "pillarId": "pillar/news", "pillarName": "News"}, {"id": "global-development-professionals-network/2013/aug/30/kickstarter-goat-dairy-grenada", "type": "article", "sectionId": "working-in-development", "sectionName": "Working in development", "webPublicationDate": "2013-08-30T10:01:25Z", "webTitle": "Kickstarting the Goat Dairy in Grenada", "webUrl": "https://www.theguardian.com/global-development-professionals-network/2013/aug/30/kickstarter-goat-dairy-grenada", "apiUrl": "https://content.guardianapis.com/global-development-professionals-network/2013/aug/30/kickstarter-goat-dairy-grenada", "isHosted": false}, {"id": "world/2013/aug/30/coalition-vow-on-rainforest-protection", "type": "article", "sectionId": "australia-news", "sectionName": "Australia news", "webPublicationDate": "2013-08-30T07:59:10Z", "webTitle": "Coalition vows to lead G20 in new rainforest protection strategy", "webUrl": "https://www.theguardian.com/world/2013/aug/30/coalition-vow-on-rainforest-protection", "apiUrl": "https://content.guardianapis.com/world/2013/aug/30/coalition-vow-on-rainforest-protection", "isHosted": false, "pillarId": "pillar/news", "pillarName": "News"}, {"id": "environment/georgemonbiot/2013/aug/30/fracking-climate-change-fossil-fuels-debate", "type": "article", "sectionId": "environment", "sectionName": "Environment", "webPublicationDate": "2013-08-30T06:00:00Z", "webTitle": "Fracking  brings climate debate closer to home | George Monbiot", "webUrl": "https://www.theguardian.com/environment/georgemonbiot/2013/aug/30/fracking-climate-change-fossil-fuels-debate", "apiUrl": "https://content.guardianapis.com/environment/georgemonbiot/2013/aug/30/fracking-climate-change-fossil-fuels-debate", "isHosted": false, "pillarId": "pillar/news", "pillarName": "News"}, {"id": "sustainable-business/protect-nature-conserve-health-wellbeing", "type": "article", "sectionId": "sustainable-business", "sectionName": "Guardian Sustainable Business", "webPublicationDate": "2013-08-30T06:00:00Z", "webTitle": "We must protect nature to conserve peoples' wellbeing", "webUrl": "https://www.theguardian.com/sustainable-business/protect-nature-conserve-health-wellbeing", "apiUrl": "https://content.guardianapis.com/sustainable-business/protect-nature-conserve-health-wellbeing", "isHosted": false}, {"id": "environment/planet-oz/2013/aug/30/queensland-coal-hunger-strike-campaign-rail-project-galilee-basin", "type": "article", "sectionId": "environment", "sectionName": "Environment", "webPublicationDate": "2013-08-30T03:00:00Z", "webTitle": "Climate campaigners start 'hunger strike' to block Queensland coal project | Graham Readfearn", "webUrl": "https://www.theguardian.com/environment/planet-oz/2013/aug/30/queensland-coal-hunger-strike-campaign-rail-project-galilee-basin", "apiUrl": "https://content.guardianapis.com/environment/planet-oz/2013/aug/30/queensland-coal-hunger-strike-campaign-rail-project-galilee-basin", "isHosted": false, "pillarId": "pillar/news", "pillarName": "News"}, {"id": "environment/2013/aug/29/pulborough-brooks-west-sussex-nymphs", "type": "article", "sectionId": "environment", "sectionName": "Environment", "webPublicationDate": "2013-08-29T20:00:01Z", "webTitle": "Country diary: Pulborough Brooks, West Sussex: Nymphs and aliens emerge from the pond", "webUrl": "https://www.theguardian.com/environment/2013/aug/29/pulborough-brooks-west-sussex-nymphs", "apiUrl": "https://content.guardianapis.com/environment/2013/aug/29/pulborough-brooks-west-sussex-nymphs", "isHosted": false, "pillarId": "pillar/news", "pillarName": "News"}, {"id": "commentisfree/2013/aug/29/pygmy-protestors-no-heirs-to-martin-luther-king", "type": "article", "sectionId": "commentisfree", "sectionName": "Opinion", "webPublicationDate": "2013-08-29T19:29:00Z", "webTitle": "Today's pygmy protesters are no heirs to Martin Luther King | Nick Herbert", "webUrl": "https://www.theguardian.com/commentisfree/2013/aug/29/pygmy-protestors-no-heirs-to-martin-luther-king", "apiUrl": "https://content.guardianapis.com/commentisfree/2013/aug/29/pygmy-protestors-no-heirs-to-martin-luther-king", "isHosted": false, "pillarId": "pillar/opinion", "pillarName": "Opinion"}, {"id": "environment/2013/aug/29/biofuel-crops-food-security-prices-europe", "type": "article", "sectionId": "environment", "sectionName": "Environment", "webPublicationDate": "2013-08-29T17:06:12Z", "webTitle": "Biofuel crops: food security must come first | Ben Phalan", "webUrl": "https://www.theguardian.com/environment/2013/aug/29/biofuel-crops-food-security-prices-europe", "apiUrl": "https://content.guardianapis.com/environment/2013/aug/29/biofuel-crops-food-security-prices-europe", "isHosted": false, "pillarId": "pillar/news", "pillarName": "News"}, {"id": "environment/2013/aug/29/long-tailed-blue-butterfly-dover", "type": "article", "sectionId": "environment", "sectionName": "Environment", "webPublicationDate": "2013-08-29T14:09:38Z", "webTitle": "Exotic butterfly to make spectacular late-summer emergence", "webUrl": "https://www.theguardian.com/environment/2013/aug/29/long-tailed-blue-butterfly-dover", "apiUrl": "https://content.guardianapis.com/environment/2013/aug/29/long-tailed-blue-butterfly-dover", "isHosted": false, "pillarId": "pillar/news", "pillarName": "News"}, {"id": "environment/2013/aug/29/fracking-balcombe-residents-complain-letter-protests", "type": "article", "sectionId": "environment", "sectionName": "Environment", "webPublicationDate": "2013-08-29T10:02:08Z", "webTitle": "Balcombe residents complain about continuing fracking protests", "webUrl": "https://www.theguardian.com/environment/2013/aug/29/fracking-balcombe-residents-complain-letter-protests", "apiUrl": "https://content.guardianapis.com/environment/2013/aug/29/fracking-balcombe-residents-complain-letter-protests", "isHosted": false, "pillarId": "pillar/news", "pillarName": "News"}, {"id": "environment/2013/aug/28/cuadrilla-uk-energy-policy-shambles", "type": "article", "sectionId": "environment", "sectionName": "Environment", "webPublicationDate": "2013-08-28T20:00:03Z", "webTitle": "Letters: Cuadrilla's not in business to solve the UK's energy policy shambles", "webUrl": "https://www.theguardian.com/environment/2013/aug/28/cuadrilla-uk-energy-policy-shambles", "apiUrl": "https://content.guardianapis.com/environment/2013/aug/28/cuadrilla-uk-energy-policy-shambles", "isHosted": false, "pillarId": "pillar/news", "pillarName": "News"}, {"id": "environment/2013/aug/28/crook-county-durham-mosquito-larvae-expressions", "type": "article", "sectionId": "environment", "sectionName": "Environment", "webPublicationDate": "2013-08-28T20:00:00Z", "webTitle": "Country diary: Crook, County Durham: The mosquito larvae's baleful expressions provoked an urge to tease", "webUrl": "https://www.theguardian.com/environment/2013/aug/28/crook-county-durham-mosquito-larvae-expressions", "apiUrl": "https://content.guardianapis.com/environment/2013/aug/28/crook-county-durham-mosquito-larvae-expressions", "isHosted": false, "pillarId": "pillar/news", "pillarName": "News"}, {"id": "environment/2013/aug/28/cooling-pacific-dampened-global-warming", "type": "article", "sectionId": "environment", "sectionName": "Environment", "webPublicationDate": "2013-08-28T17:00:00Z", "webTitle": "Cooling Pacific has dampened global warming, research shows", "webUrl": "https://www.theguardian.com/environment/2013/aug/28/cooling-pacific-dampened-global-warming", "apiUrl": "https://content.guardianapis.com/environment/2013/aug/28/cooling-pacific-dampened-global-warming", "isHosted": false, "pillarId": "pillar/news", "pillarName": "News"}, {"id": "world/2013/aug/28/berliners-co-op-aims-run-electricity", "type": "article", "sectionId": "environment", "sectionName": "Environment", "webPublicationDate": "2013-08-28T15:52:17Z", "webTitle": "Berliners' co-op aims to take over and run electricity grid of city", "webUrl": "https://www.theguardian.com/world/2013/aug/28/berliners-co-op-aims-run-electricity", "apiUrl": "https://content.guardianapis.com/world/2013/aug/28/berliners-co-op-aims-run-electricity", "isHosted": false, "pillarId": "pillar/news", "pillarName": "News"}, {"id": "world/video/2013/aug/28/elephant-smashes-into-car-kruger-national-park-south-africa-video", "type": "video", "sectionId": "world", "sectionName": "World news", "webPublicationDate": "2013-08-28T15:41:00Z", "webTitle": "Elephant smashes into car at Kruger national park, South Africa - video", "webUrl": "https://www.theguardian.com/world/video/2013/aug/28/elephant-smashes-into-car-kruger-national-park-south-africa-video", "apiUrl": "https://content.guardianapis.com/world/video/2013/aug/28/elephant-smashes-into-car-kruger-national-park-south-africa-video", "isHosted": false, "pillarId": "pillar/news", "pillarName": "News"}, {"id": "environment/2013/aug/28/ecudaor-drill-oil-yasuni-damage", "type": "article", "sectionId": "environment", "sectionName": "Environment", "webPublicationDate": "2013-08-28T15:34:24Z", "webTitle": "If Ecuador must drill for Yasun\u00ed oil, let's encourage the least damaging methods | Kelly Swing", "webUrl": "https://www.theguardian.com/environment/2013/aug/28/ecudaor-drill-oil-yasuni-damage", "apiUrl": "https://content.guardianapis.com/environment/2013/aug/28/ecudaor-drill-oil-yasuni-damage", "isHosted": false, "pillarId": "pillar/news", "pillarName": "News"}, {"id": "environment/2013/aug/28/bee-popluation-risk-west-nile-insecticide", "type": "article", "sectionId": "environment", "sectionName": "Environment", "webPublicationDate": "2013-08-28T15:16:59Z", "webTitle": "Fragile honeybee population under threat from West Nile insecticide", "webUrl": "https://www.theguardian.com/environment/2013/aug/28/bee-popluation-risk-west-nile-insecticide", "apiUrl": "https://content.guardianapis.com/environment/2013/aug/28/bee-popluation-risk-west-nile-insecticide", "isHosted": false, "pillarId": "pillar/news", "pillarName": "News"}, {"id": "environment/shortcuts/2013/aug/28/beekeeping-top-buzz-bez-happy-mondays", "type": "article", "sectionId": "environment", "sectionName": "Environment", "webPublicationDate": "2013-08-28T14:48:02Z", "webTitle": "Beekeeping is a top buzz for Bez", "webUrl": "https://www.theguardian.com/environment/shortcuts/2013/aug/28/beekeeping-top-buzz-bez-happy-mondays", "apiUrl": "https://content.guardianapis.com/environment/shortcuts/2013/aug/28/beekeeping-top-buzz-bez-happy-mondays", "isHosted": false, "pillarId": "pillar/news", "pillarName": "News"}, {"id": "world/2013/aug/28/california-wildfire-rim-fire-yosemite-battle", "type": "article", "sectionId": "world", "sectionName": "World news", "webPublicationDate": "2013-08-28T14:17:00Z", "webTitle": "California firefighters take on nature: 'This is a battle. But we have a system'", "webUrl": "https://www.theguardian.com/world/2013/aug/28/california-wildfire-rim-fire-yosemite-battle", "apiUrl": "https://content.guardianapis.com/world/2013/aug/28/california-wildfire-rim-fire-yosemite-battle", "isHosted": false, "pillarId": "pillar/news", "pillarName": "News"}, {"id": "environment/nature-up/2013/aug/28/demand-reduction-protect-rhino-elephant", "type": "article", "sectionId": "environment", "sectionName": "Environment", "webPublicationDate": "2013-08-28T12:42:00Z", "webTitle": "Reducing ivory and rhino horn demand is key to the species' survival | Adam Welz", "webUrl": "https://www.theguardian.com/environment/nature-up/2013/aug/28/demand-reduction-protect-rhino-elephant", "apiUrl": "https://content.guardianapis.com/environment/nature-up/2013/aug/28/demand-reduction-protect-rhino-elephant", "isHosted": false, "pillarId": "pillar/news", "pillarName": "News"}, {"id": "artanddesign/picture/2013/aug/28/drought-1976-photography", "type": "picture", "sectionId": "artanddesign", "sectionName": "Art and design", "webPublicationDate": "2013-08-28T12:09:19Z", "webTitle": "The great drought, 1976 - a picture from the past", "webUrl": "https://www.theguardian.com/artanddesign/picture/2013/aug/28/drought-1976-photography", "apiUrl": "https://content.guardianapis.com/artanddesign/picture/2013/aug/28/drought-1976-photography", "isHosted": false, "pillarId": "pillar/arts", "pillarName": "Arts"}, {"id": "environment/blog/2013/aug/28/era-climate-change-denial-over", "type": "article", "sectionId": "environment", "sectionName": "Environment", "webPublicationDate": "2013-08-28T11:20:54Z", "webTitle": "The era of climate change 'denial' is over | Leo Hickman", "webUrl": "https://www.theguardian.com/environment/blog/2013/aug/28/era-climate-change-denial-over", "apiUrl": "https://content.guardianapis.com/environment/blog/2013/aug/28/era-climate-change-denial-over", "isHosted": false, "pillarId": "pillar/news", "pillarName": "News"}, {"id": "environment/gallery/2013/aug/28/wildlife-photographer-of-the-year-2013-in-pictures", "type": "gallery", "sectionId": "environment", "sectionName": "Environment", "webPublicationDate": "2013-08-28T09:46:00Z", "webTitle": "Wildlife photographer of the year competition \u2013 2013 commended entries", "webUrl": "https://www.theguardian.com/environment/gallery/2013/aug/28/wildlife-photographer-of-the-year-2013-in-pictures", "apiUrl": "https://content.guardianapis.com/environment/gallery/2013/aug/28/wildlife-photographer-of-the-year-2013-in-pictures", "isHosted": false, "pillarId": "pillar/news", "pillarName": "News"}, {"id": "environment/video/2013/aug/28/swim-jellyfish-lake-palau-video", "type": "video", "sectionId": "environment", "sectionName": "Environment", "webPublicationDate": "2013-08-28T09:46:00Z", "webTitle": "A swim through Jellyfish Lake, Palau \u2013 video", "webUrl": "https://www.theguardian.com/environment/video/2013/aug/28/swim-jellyfish-lake-palau-video", "apiUrl": "https://content.guardianapis.com/environment/video/2013/aug/28/swim-jellyfish-lake-palau-video", "isHosted": false, "pillarId": "pillar/news", "pillarName": "News"}, {"id": "environment/2013/aug/27/wenlock-edge-meadow-grasshopper", "type": "article", "sectionId": "environment", "sectionName": "Environment", "webPublicationDate": "2013-08-27T19:59:00Z", "webTitle": "Country diary: Wenlock Edge: One jump at a time, the meadow grasshopper has come a long way", "webUrl": "https://www.theguardian.com/environment/2013/aug/27/wenlock-edge-meadow-grasshopper", "apiUrl": "https://content.guardianapis.com/environment/2013/aug/27/wenlock-edge-meadow-grasshopper", "isHosted": false, "pillarId": "pillar/news", "pillarName": "News"}, {"id": "environment/2013/aug/27/badger-cull-protest-pilot-areas", "type": "article", "sectionId": "environment", "sectionName": "Environment", "webPublicationDate": "2013-08-27T17:09:25Z", "webTitle": "Badger cull: activists on night vigil yet to see dead animals", "webUrl": "https://www.theguardian.com/environment/2013/aug/27/badger-cull-protest-pilot-areas", "apiUrl": "https://content.guardianapis.com/environment/2013/aug/27/badger-cull-protest-pilot-areas", "isHosted": false, "pillarId": "pillar/news", "pillarName": "News"}, {"id": "environment/shortcuts/2013/aug/27/chris-packham-pet-badgers-owen-paterson", "type": "article", "sectionId": "environment", "sectionName": "Environment", "webPublicationDate": "2013-08-27T15:31:26Z", "webTitle": "Chris Packham: like Owen Paterson, I had pet badgers. But their real place was in the wild", "webUrl": "https://www.theguardian.com/environment/shortcuts/2013/aug/27/chris-packham-pet-badgers-owen-paterson", "apiUrl": "https://content.guardianapis.com/environment/shortcuts/2013/aug/27/chris-packham-pet-badgers-owen-paterson", "isHosted": false, "pillarId": "pillar/news", "pillarName": "News"}, {"id": "environment/video/2013/aug/27/shell-belgian-f-1-grand-prix-greenpeace-protest", "type": "video", "sectionId": "environment", "sectionName": "Environment", "webPublicationDate": "2013-08-27T15:24:00Z", "webTitle": "Greenpeace protest at Shell Grand Prix event \u2013 video", "webUrl": "https://www.theguardian.com/environment/video/2013/aug/27/shell-belgian-f-1-grand-prix-greenpeace-protest", "apiUrl": "https://content.guardianapis.com/environment/video/2013/aug/27/shell-belgian-f-1-grand-prix-greenpeace-protest", "isHosted": false, "pillarId": "pillar/news", "pillarName": "News"}, {"id": "environment/2013/aug/27/icepod-greenland-melting-sheet-radar", "type": "article", "sectionId": "environment", "sectionName": "Environment", "webPublicationDate": "2013-08-27T13:40:14Z", "webTitle": "Flying low over Greenland, Icepod  tracks changes in the ice sheet", "webUrl": "https://www.theguardian.com/environment/2013/aug/27/icepod-greenland-melting-sheet-radar", "apiUrl": "https://content.guardianapis.com/environment/2013/aug/27/icepod-greenland-melting-sheet-radar", "isHosted": false, "pillarId": "pillar/news", "pillarName": "News"}, {"id": "world/2013/aug/27/drones-polar-melting-ice-antarctica-greenland", "type": "article", "sectionId": "world", "sectionName": "World news", "webPublicationDate": "2013-08-27T13:36:03Z", "webTitle": "Drones proving useful in polar regions to study the melting of the ice", "webUrl": "https://www.theguardian.com/world/2013/aug/27/drones-polar-melting-ice-antarctica-greenland", "apiUrl": "https://content.guardianapis.com/world/2013/aug/27/drones-polar-melting-ice-antarctica-greenland", "isHosted": false, "pillarId": "pillar/news", "pillarName": "News"}, {"id": "world/2013/aug/27/letter-from-papua-new-guinea", "type": "article", "sectionId": "world", "sectionName": "World news", "webPublicationDate": "2013-08-27T13:01:29Z", "webTitle": "Letter from Papua New Guinea: logging as a mixed blessing", "webUrl": "https://www.theguardian.com/world/2013/aug/27/letter-from-papua-new-guinea", "apiUrl": "https://content.guardianapis.com/world/2013/aug/27/letter-from-papua-new-guinea", "isHosted": false, "pillarId": "pillar/news", "pillarName": "News"}, {"id": "environment/gallery/2013/aug/27/woodland-trust-photography-competition-winners-2013", "type": "gallery", "sectionId": "environment", "sectionName": "Environment", "webPublicationDate": "2013-08-27T12:31:04Z", "webTitle": "Woodland Trust photography competition 2013 winners \u2013 in pictures", "webUrl": "https://www.theguardian.com/environment/gallery/2013/aug/27/woodland-trust-photography-competition-winners-2013", "apiUrl": "https://content.guardianapis.com/environment/gallery/2013/aug/27/woodland-trust-photography-competition-winners-2013", "isHosted": false, "pillarId": "pillar/news", "pillarName": "News"}, {"id": "world/video/2013/aug/27/california-wildfire-threatens-san-francisco-water-supply-video", "type": "video", "sectionId": "world", "sectionName": "World news", "webPublicationDate": "2013-08-27T12:19:00Z", "webTitle": "California wildfire threatens San Francisco water supply - video", "webUrl": "https://www.theguardian.com/world/video/2013/aug/27/california-wildfire-threatens-san-francisco-water-supply-video", "apiUrl": "https://content.guardianapis.com/world/video/2013/aug/27/california-wildfire-threatens-san-francisco-water-supply-video", "isHosted": false, "pillarId": "pillar/news", "pillarName": "News"}, {"id": "environment/terra-india/2013/aug/27/solarpower-india", "type": "article", "sectionId": "environment", "sectionName": "Environment", "webPublicationDate": "2013-08-27T11:59:00Z", "webTitle": "India's most industrialised state pushes for clean energy", "webUrl": "https://www.theguardian.com/environment/terra-india/2013/aug/27/solarpower-india", "apiUrl": "https://content.guardianapis.com/environment/terra-india/2013/aug/27/solarpower-india", "isHosted": false, "pillarId": "pillar/news", "pillarName": "News"}, {"id": "science/grrlscientist/2013/aug/27/in-search-of-delicate-flapwort-richard-carter", "type": "article", "sectionId": "environment", "sectionName": "Environment", "webPublicationDate": "2013-08-27T11:00:01Z", "webTitle": "In search of the delicate flapwort\u2014and why we need tricorders | @FriendsofDarwin", "webUrl": "https://www.theguardian.com/science/grrlscientist/2013/aug/27/in-search-of-delicate-flapwort-richard-carter", "apiUrl": "https://content.guardianapis.com/science/grrlscientist/2013/aug/27/in-search-of-delicate-flapwort-richard-carter", "isHosted": false, "pillarId": "pillar/news", "pillarName": "News"}, {"id": "environment/2013/aug/27/badger-cull-bovine-tb", "type": "article", "sectionId": "environment", "sectionName": "Environment", "webPublicationDate": "2013-08-27T10:49:32Z", "webTitle": "Badger cull: key questions answered", "webUrl": "https://www.theguardian.com/environment/2013/aug/27/badger-cull-bovine-tb", "apiUrl": "https://content.guardianapis.com/environment/2013/aug/27/badger-cull-bovine-tb", "isHosted": false, "pillarId": "pillar/news", "pillarName": "News"}, {"id": "environment/video/2013/aug/27/badger-cull-first-day-owen-paterson-defends-video", "type": "video", "sectionId": "environment", "sectionName": "Environment", "webPublicationDate": "2013-08-27T10:04:00Z", "webTitle": "Badger cull defended by environment minister as anti-TB campaign starts - video", "webUrl": "https://www.theguardian.com/environment/video/2013/aug/27/badger-cull-first-day-owen-paterson-defends-video", "apiUrl": "https://content.guardianapis.com/environment/video/2013/aug/27/badger-cull-first-day-owen-paterson-defends-video", "isHosted": false, "pillarId": "pillar/news", "pillarName": "News"}, {"id": "environment/2013/aug/27/badger-cull-environment-secretary-defends-move", "type": "article", "sectionId": "environment", "sectionName": "Environment", "webPublicationDate": "2013-08-27T09:25:28Z", "webTitle": "Badger cull: environment secretary defends move on 'dark day'", "webUrl": "https://www.theguardian.com/environment/2013/aug/27/badger-cull-environment-secretary-defends-move", "apiUrl": "https://content.guardianapis.com/environment/2013/aug/27/badger-cull-environment-secretary-defends-move", "isHosted": false, "pillarId": "pillar/news", "pillarName": "News"}, {"id": "environment/blog/2013/aug/27/badger-cull-your-stories-photos", "type": "article", "sectionId": "environment", "sectionName": "Environment", "webPublicationDate": "2013-08-27T08:54:52Z", "webTitle": "Badger cull: share your stories", "webUrl": "https://www.theguardian.com/environment/blog/2013/aug/27/badger-cull-your-stories-photos", "apiUrl": "https://content.guardianapis.com/environment/blog/2013/aug/27/badger-cull-your-stories-photos", "isHosted": false, "pillarId": "pillar/news", "pillarName": "News"}, {"id": "world/2013/aug/27/senate-climate-change-direct-action-paid-parental-leave", "type": "article", "sectionId": "australia-news", "sectionName": "Australia news", "webPublicationDate": "2013-08-27T04:53:27Z", "webTitle": "Opposition to Tony Abbott's key policies raises possibility of double dissolution", "webUrl": "https://www.theguardian.com/world/2013/aug/27/senate-climate-change-direct-action-paid-parental-leave", "apiUrl": "https://content.guardianapis.com/world/2013/aug/27/senate-climate-change-direct-action-paid-parental-leave", "isHosted": false, "pillarId": "pillar/news", "pillarName": "News"}, {"id": "environment/2013/aug/26/south-downs-way-west-sussex-devils-jumps", "type": "article", "sectionId": "environment", "sectionName": "Environment", "webPublicationDate": "2013-08-26T20:00:00Z", "webTitle": "Country diary: South Downs Way, West Sussex: A tiny corpse by the Devil's Jumps", "webUrl": "https://www.theguardian.com/environment/2013/aug/26/south-downs-way-west-sussex-devils-jumps", "apiUrl": "https://content.guardianapis.com/environment/2013/aug/26/south-downs-way-west-sussex-devils-jumps", "isHosted": false, "pillarId": "pillar/news", "pillarName": "News"}, {"id": "environment/2013/aug/26/badger-cull-protesters-claim-success", "type": "article", "sectionId": "environment", "sectionName": "Environment", "webPublicationDate": "2013-08-26T16:45:49Z", "webTitle": "Badger cull: protesters claim success in opening battles", "webUrl": "https://www.theguardian.com/environment/2013/aug/26/badger-cull-protesters-claim-success", "apiUrl": "https://content.guardianapis.com/environment/2013/aug/26/badger-cull-protesters-claim-success", "isHosted": false, "pillarId": "pillar/news", "pillarName": "News"}, {"id": "lifeandstyle/shortcuts/2013/aug/26/underwater-cemetery-neptune-memorial-reef", "type": "article", "sectionId": "society", "sectionName": "Society", "webPublicationDate": "2013-08-26T14:30:07Z", "webTitle": "The underwater cemetery where you can literally sleep with the fishes", "webUrl": "https://www.theguardian.com/lifeandstyle/shortcuts/2013/aug/26/underwater-cemetery-neptune-memorial-reef", "apiUrl": "https://content.guardianapis.com/lifeandstyle/shortcuts/2013/aug/26/underwater-cemetery-neptune-memorial-reef", "isHosted": false, "pillarId": "pillar/news", "pillarName": "News"}]}}