{"response": {"status": "ok", "userTier": "developer", "total": 17909, "startIndex": 1, "pageSize": 50, "currentPage": 1, "pages": 359, "orderBy": "newest", "results": [{"id": "science/2012/aug/29/chocolate-reduces-risk-of-strokes-for-men", "type": "article", "sectionId": "science", "sectionName": "Science", "webPublicationDate": "2012-08-30T07:00:00Z", "webTitle": "Chocolate reduces stroke risk for men, research claims", "webUrl": "https://www.theguardian.com/science/2012/aug/29/chocolate-reduces-risk-of-strokes-for-men", "apiUrl": "https://content.guardianapis.com/science/2012/aug/29/chocolate-reduces-risk-of-strokes-for-men", "isHosted": false, "pillarId": "pillar/news", "pillarName": "News"}, {"id": "lifeandstyle/wordofmouth/2012/aug/30/how-to-cook-perfect-banana-bread", "type": "article", "sectionId": "food", "sectionName": "Food", "webPublicationDate": "2012-08-29T23:10:00Z", "webTitle": "How to cook perfect banana bread", "webUrl": "https://www.theguardian.com/lifeandstyle/wordofmouth/2012/aug/30/how-to-cook-perfect-banana-bread", "apiUrl": "https://content.guardianapis.com/lifeandstyle/wordofmouth/2012/aug/30/how-to-cook-perfect-banana-bread", "isHosted": false, "pillarId": "pillar/lifestyle", "pillarName": "Lifestyle"}, {"id": "lifeandstyle/2012/aug/29/wales-top-gastro-tourism-destination", "type": "article", "sectionId": "food", "sectionName": "Food", "webPublicationDate": "2012-08-29T19:00:00Z", "webTitle": "Wales becomes a top gastro-tourism destination", "webUrl": "https://www.theguardian.com/lifeandstyle/2012/aug/29/wales-top-gastro-tourism-destination", "apiUrl": "https://content.guardianapis.com/lifeandstyle/2012/aug/29/wales-top-gastro-tourism-destination", "isHosted": false, "pillarId": "pillar/lifestyle", "pillarName": "Lifestyle"}, {"id": "world/gallery/2012/aug/29/tomatina-festival-spain-in-pictures", "type": "gallery", "sectionId": "world", "sectionName": "World news", "webPublicationDate": "2012-08-29T15:05:00Z", "webTitle": "Tomatina festival in Spain - in pictures", "webUrl": "https://www.theguardian.com/world/gallery/2012/aug/29/tomatina-festival-spain-in-pictures", "apiUrl": "https://content.guardianapis.com/world/gallery/2012/aug/29/tomatina-festival-spain-in-pictures", "isHosted": false, "pillarId": "pillar/news", "pillarName": "News"}, {"id": "lifeandstyle/2012/aug/29/sea-trout-with-new-potatoes-recipe", "type": "article", "sectionId": "lifeandstyle", "sectionName": "Life and style", "webPublicationDate": "2012-08-29T13:00:00Z", "webTitle": "Sea trout with new potatoes recipe | Angela Hartnett", "webUrl": "https://www.theguardian.com/lifeandstyle/2012/aug/29/sea-trout-with-new-potatoes-recipe", "apiUrl": "https://content.guardianapis.com/lifeandstyle/2012/aug/29/sea-trout-with-new-potatoes-recipe", "isHosted": false, "pillarId": "pillar/lifestyle", "pillarName": "Lifestyle"}, {"id": "media/2012/aug/29/pork-not-porkies-ads-banned", "type": "article", "sectionId": "media", "sectionName": "Media", "webPublicationDate": "2012-08-28T23:02:00Z", "webTitle": "Red Tractor 'pork not porkies' ads banned", "webUrl": "https://www.theguardian.com/media/2012/aug/29/pork-not-porkies-ads-banned", "apiUrl": "https://content.guardianapis.com/media/2012/aug/29/pork-not-porkies-ads-banned", "isHosted": false, "pillarId": "pillar/news", "pillarName": "News"}, {"id": "commentisfree/2012/aug/28/forget-meat-vegetarian-food-shortages", "type": "article", "sectionId": "commentisfree", "sectionName": "Opinion", "webPublicationDate": "2012-08-28T11:16:40Z", "webTitle": "Forget meat \u2013 there's a world of vegetarian food out there | Lagusta Yearwood", "webUrl": "https://www.theguardian.com/commentisfree/2012/aug/28/forget-meat-vegetarian-food-shortages", "apiUrl": "https://content.guardianapis.com/commentisfree/2012/aug/28/forget-meat-vegetarian-food-shortages", "isHosted": false, "pillarId": "pillar/opinion", "pillarName": "Opinion"}, {"id": "lifeandstyle/wordofmouth/2012/aug/28/microwaves-in-restaurants", "type": "article", "sectionId": "food", "sectionName": "Food", "webPublicationDate": "2012-08-28T09:00:00Z", "webTitle": "Sultans of ping: microwaves in restaurants", "webUrl": "https://www.theguardian.com/lifeandstyle/wordofmouth/2012/aug/28/microwaves-in-restaurants", "apiUrl": "https://content.guardianapis.com/lifeandstyle/wordofmouth/2012/aug/28/microwaves-in-restaurants", "isHosted": false, "pillarId": "pillar/lifestyle", "pillarName": "Lifestyle"}, {"id": "lifeandstyle/2012/aug/26/wines-of-week-david-williams", "type": "article", "sectionId": "food", "sectionName": "Food", "webPublicationDate": "2012-08-25T23:05:34Z", "webTitle": "Wines of the week", "webUrl": "https://www.theguardian.com/lifeandstyle/2012/aug/26/wines-of-week-david-williams", "apiUrl": "https://content.guardianapis.com/lifeandstyle/2012/aug/26/wines-of-week-david-williams", "isHosted": false, "pillarId": "pillar/lifestyle", "pillarName": "Lifestyle"}, {"id": "culture/2012/aug/26/why-we-are-watching-hunt-darton-artists", "type": "article", "sectionId": "culture", "sectionName": "Culture", "webPublicationDate": "2012-08-25T23:05:32Z", "webTitle": "Why we're watching: Hunt & Darton", "webUrl": "https://www.theguardian.com/culture/2012/aug/26/why-we-are-watching-hunt-darton-artists", "apiUrl": "https://content.guardianapis.com/culture/2012/aug/26/why-we-are-watching-hunt-darton-artists", "isHosted": false, "pillarId": "pillar/arts", "pillarName": "Arts"}, {"id": "lifeandstyle/2012/aug/26/restaurant-review-fm-mangal-london", "type": "article", "sectionId": "food", "sectionName": "Food", "webPublicationDate": "2012-08-25T23:05:10Z", "webTitle": "Restaurant review: FM Mangal, London SE5", "webUrl": "https://www.theguardian.com/lifeandstyle/2012/aug/26/restaurant-review-fm-mangal-london", "apiUrl": "https://content.guardianapis.com/lifeandstyle/2012/aug/26/restaurant-review-fm-mangal-london", "isHosted": false, "pillarId": "pillar/lifestyle", "pillarName": "Lifestyle"}, {"id": "tv-and-radio/2012/aug/25/tv-food-simon-cowell", "type": "article", "sectionId": "tv-and-radio", "sectionName": "Television & radio", "webPublicationDate": "2012-08-25T13:11:19Z", "webTitle": "Britain's food factor: how cakes, bakes and souffles became TV's new growth industry", "webUrl": "https://www.theguardian.com/tv-and-radio/2012/aug/25/tv-food-simon-cowell", "apiUrl": "https://content.guardianapis.com/tv-and-radio/2012/aug/25/tv-food-simon-cowell", "isHosted": false, "pillarId": "pillar/arts", "pillarName": "Arts"}, {"id": "lifeandstyle/2012/aug/24/rum-fiona-beckett", "type": "article", "sectionId": "food", "sectionName": "Food", "webPublicationDate": "2012-08-24T21:59:39Z", "webTitle": "Drink: rum", "webUrl": "https://www.theguardian.com/lifeandstyle/2012/aug/24/rum-fiona-beckett", "apiUrl": "https://content.guardianapis.com/lifeandstyle/2012/aug/24/rum-fiona-beckett", "isHosted": false, "pillarId": "pillar/lifestyle", "pillarName": "Lifestyle"}, {"id": "lifeandstyle/2012/aug/24/chard-recipes-hugh-fearnley-whittingstall", "type": "article", "sectionId": "lifeandstyle", "sectionName": "Life and style", "webPublicationDate": "2012-08-24T21:59:02Z", "webTitle": "Chard recipes | Hugh Fearnley-Whittingstall", "webUrl": "https://www.theguardian.com/lifeandstyle/2012/aug/24/chard-recipes-hugh-fearnley-whittingstall", "apiUrl": "https://content.guardianapis.com/lifeandstyle/2012/aug/24/chard-recipes-hugh-fearnley-whittingstall", "isHosted": false, "pillarId": "pillar/lifestyle", "pillarName": "Lifestyle"}, {"id": "lifeandstyle/2012/aug/24/herb-fish-cakes-recipe-ottolenghi", "type": "article", "sectionId": "food", "sectionName": "Food", "webPublicationDate": "2012-08-24T21:59:01Z", "webTitle": "Full-of-herbs fish cakes recipe, plus steamed aubergine with sesame and spring onion | Yotam Ottolenghi", "webUrl": "https://www.theguardian.com/lifeandstyle/2012/aug/24/herb-fish-cakes-recipe-ottolenghi", "apiUrl": "https://content.guardianapis.com/lifeandstyle/2012/aug/24/herb-fish-cakes-recipe-ottolenghi", "isHosted": false, "pillarId": "pillar/lifestyle", "pillarName": "Lifestyle"}, {"id": "lifeandstyle/2012/aug/24/baking-with-treacle-recipes-lepard", "type": "article", "sectionId": "lifeandstyle", "sectionName": "Life and style", "webPublicationDate": "2012-08-24T21:59:00Z", "webTitle": "Baking with treacle recipes | Dan Lepard", "webUrl": "https://www.theguardian.com/lifeandstyle/2012/aug/24/baking-with-treacle-recipes-lepard", "apiUrl": "https://content.guardianapis.com/lifeandstyle/2012/aug/24/baking-with-treacle-recipes-lepard", "isHosted": false, "pillarId": "pillar/lifestyle", "pillarName": "Lifestyle"}, {"id": "business/2012/aug/24/anchovy-price-leap-food-industry-chain", "type": "article", "sectionId": "business", "sectionName": "Business", "webPublicationDate": "2012-08-24T17:46:29Z", "webTitle": "Anchovy price leap causes food industry chain reaction", "webUrl": "https://www.theguardian.com/business/2012/aug/24/anchovy-price-leap-food-industry-chain", "apiUrl": "https://content.guardianapis.com/business/2012/aug/24/anchovy-price-leap-food-industry-chain", "isHosted": false, "pillarId": "pillar/news", "pillarName": "News"}, {"id": "commentisfree/2012/aug/24/jamie-oliver-dollop-mega-branding", "type": "article", "sectionId": "commentisfree", "sectionName": "Opinion", "webPublicationDate": "2012-08-24T16:24:45Z", "webTitle": "Jamie Oliver's dinners \u2013 served with a legendary dollop of mega branding | Felicity Cloake", "webUrl": "https://www.theguardian.com/commentisfree/2012/aug/24/jamie-oliver-dollop-mega-branding", "apiUrl": "https://content.guardianapis.com/commentisfree/2012/aug/24/jamie-oliver-dollop-mega-branding", "isHosted": false, "pillarId": "pillar/opinion", "pillarName": "Opinion"}, {"id": "artanddesign/gallery/2012/aug/24/ice-cream-vans-pictures-luke-stephenson", "type": "gallery", "sectionId": "artanddesign", "sectionName": "Art and design", "webPublicationDate": "2012-08-24T15:20:00Z", "webTitle": "Ice-cream vans, by Luke Stephenson \u2013 in pictures", "webUrl": "https://www.theguardian.com/artanddesign/gallery/2012/aug/24/ice-cream-vans-pictures-luke-stephenson", "apiUrl": "https://content.guardianapis.com/artanddesign/gallery/2012/aug/24/ice-cream-vans-pictures-luke-stephenson", "isHosted": false, "pillarId": "pillar/arts", "pillarName": "Arts"}, {"id": "lifeandstyle/wordofmouth/2012/aug/24/cocktails-back-in-the-red", "type": "article", "sectionId": "food", "sectionName": "Food", "webPublicationDate": "2012-08-24T08:40:00Z", "webTitle": "Cocktails: back in the red", "webUrl": "https://www.theguardian.com/lifeandstyle/wordofmouth/2012/aug/24/cocktails-back-in-the-red", "apiUrl": "https://content.guardianapis.com/lifeandstyle/wordofmouth/2012/aug/24/cocktails-back-in-the-red", "isHosted": false, "pillarId": "pillar/lifestyle", "pillarName": "Lifestyle"}, {"id": "money/2012/aug/24/store-wars-dominos-pizza-hut", "type": "article", "sectionId": "money", "sectionName": "Money", "webPublicationDate": "2012-08-24T07:45:00Z", "webTitle": "Store Wars: Domino's and Pizza Hut", "webUrl": "https://www.theguardian.com/money/2012/aug/24/store-wars-dominos-pizza-hut", "apiUrl": "https://content.guardianapis.com/money/2012/aug/24/store-wars-dominos-pizza-hut", "isHosted": false, "pillarId": "pillar/lifestyle", "pillarName": "Lifestyle"}, {"id": "travel/2012/aug/24/southampton-top-10-budget-eats-restaurants", "type": "article", "sectionId": "travel", "sectionName": "Travel", "webPublicationDate": "2012-08-24T05:00:01Z", "webTitle": "Southampton's top 10 budget eats", "webUrl": "https://www.theguardian.com/travel/2012/aug/24/southampton-top-10-budget-eats-restaurants", "apiUrl": "https://content.guardianapis.com/travel/2012/aug/24/southampton-top-10-budget-eats-restaurants", "isHosted": false, "pillarId": "pillar/lifestyle", "pillarName": "Lifestyle"}, {"id": "world/2012/aug/23/south-africa-threatens-wine-war-against-uk-bulk-exports", "type": "article", "sectionId": "world", "sectionName": "World news", "webPublicationDate": "2012-08-23T17:16:22Z", "webTitle": "South Africa threatens 'wine war' against UK over bulk exports", "webUrl": "https://www.theguardian.com/world/2012/aug/23/south-africa-threatens-wine-war-against-uk-bulk-exports", "apiUrl": "https://content.guardianapis.com/world/2012/aug/23/south-africa-threatens-wine-war-against-uk-bulk-exports", "isHosted": false, "pillarId": "pillar/news", "pillarName": "News"}, {"id": "commentisfree/2012/aug/23/eric-pickles-allotments-vegetables", "type": "article", "sectionId": "commentisfree", "sectionName": "Opinion", "webPublicationDate": "2012-08-23T16:22:04Z", "webTitle": "Eric Pickles' plots are an opportunity for gritty growers of vegetables | Alys Fowler", "webUrl": "https://www.theguardian.com/commentisfree/2012/aug/23/eric-pickles-allotments-vegetables", "apiUrl": "https://content.guardianapis.com/commentisfree/2012/aug/23/eric-pickles-allotments-vegetables", "isHosted": false, "pillarId": "pillar/opinion", "pillarName": "Opinion"}, {"id": "travel/2012/aug/23/london-most-expensive-hotel-breakfast", "type": "article", "sectionId": "travel", "sectionName": "Travel", "webPublicationDate": "2012-08-23T16:05:00Z", "webTitle": "The \u00a339 fry-up: London's most expensive hotel breakfast", "webUrl": "https://www.theguardian.com/travel/2012/aug/23/london-most-expensive-hotel-breakfast", "apiUrl": "https://content.guardianapis.com/travel/2012/aug/23/london-most-expensive-hotel-breakfast", "isHosted": false, "pillarId": "pillar/lifestyle", "pillarName": "Lifestyle"}, {"id": "business/2012/aug/23/hain-celestial-purchase-hartleys-sun-pat", "type": "article", "sectionId": "business", "sectionName": "Business", "webPublicationDate": "2012-08-23T08:10:28Z", "webTitle": "Hain Celestial spreads taste for UK with purchase of Hartley's and Sun-Pat", "webUrl": "https://www.theguardian.com/business/2012/aug/23/hain-celestial-purchase-hartleys-sun-pat", "apiUrl": "https://content.guardianapis.com/business/2012/aug/23/hain-celestial-purchase-hartleys-sun-pat", "isHosted": false, "pillarId": "pillar/news", "pillarName": "News"}, {"id": "lifeandstyle/wordofmouth/2012/aug/23/how-cook-perfect-crab-cakes", "type": "article", "sectionId": "food", "sectionName": "Food", "webPublicationDate": "2012-08-22T23:10:00Z", "webTitle": "How to cook perfect crab cakes", "webUrl": "https://www.theguardian.com/lifeandstyle/wordofmouth/2012/aug/23/how-cook-perfect-crab-cakes", "apiUrl": "https://content.guardianapis.com/lifeandstyle/wordofmouth/2012/aug/23/how-cook-perfect-crab-cakes", "isHosted": false, "pillarId": "pillar/lifestyle", "pillarName": "Lifestyle"}, {"id": "commentisfree/2012/aug/22/letter-from-india-women-drink", "type": "article", "sectionId": "commentisfree", "sectionName": "Opinion", "webPublicationDate": "2012-08-22T19:00:02Z", "webTitle": "Letter from India: it's no easy matter being a woman looking for a decent drink in Delhi | Helen Pidd", "webUrl": "https://www.theguardian.com/commentisfree/2012/aug/22/letter-from-india-women-drink", "apiUrl": "https://content.guardianapis.com/commentisfree/2012/aug/22/letter-from-india-women-drink", "isHosted": false, "pillarId": "pillar/opinion", "pillarName": "Opinion"}, {"id": "lifeandstyle/2012/aug/22/peppers-progress-getting-gourmet-treatment", "type": "article", "sectionId": "food", "sectionName": "Food", "webPublicationDate": "2012-08-22T19:00:00Z", "webTitle": "Pepper's progress", "webUrl": "https://www.theguardian.com/lifeandstyle/2012/aug/22/peppers-progress-getting-gourmet-treatment", "apiUrl": "https://content.guardianapis.com/lifeandstyle/2012/aug/22/peppers-progress-getting-gourmet-treatment", "isHosted": false, "pillarId": "pillar/lifestyle", "pillarName": "Lifestyle"}, {"id": "commentisfree/2012/aug/22/kebabs-true-turkish-delight", "type": "article", "sectionId": "commentisfree", "sectionName": "Opinion", "webPublicationDate": "2012-08-22T14:30:00Z", "webTitle": "Kebabs \u2013 the true Turkish delight | Oliver Thring", "webUrl": "https://www.theguardian.com/commentisfree/2012/aug/22/kebabs-true-turkish-delight", "apiUrl": "https://content.guardianapis.com/commentisfree/2012/aug/22/kebabs-true-turkish-delight", "isHosted": false, "pillarId": "pillar/opinion", "pillarName": "Opinion"}, {"id": "lifeandstyle/2012/aug/22/spaghetti-with-tomatoes-and-mozzarella-recipe", "type": "article", "sectionId": "food", "sectionName": "Food", "webPublicationDate": "2012-08-22T13:00:00Z", "webTitle": "Spaghetti with cherry tomatoes, mozzarella and basil | Angela Hartnett", "webUrl": "https://www.theguardian.com/lifeandstyle/2012/aug/22/spaghetti-with-tomatoes-and-mozzarella-recipe", "apiUrl": "https://content.guardianapis.com/lifeandstyle/2012/aug/22/spaghetti-with-tomatoes-and-mozzarella-recipe", "isHosted": false, "pillarId": "pillar/lifestyle", "pillarName": "Lifestyle"}, {"id": "lifeandstyle/wordofmouth/2012/aug/22/are-gentlemen-too-butch-for-cake", "type": "article", "sectionId": "food", "sectionName": "Food", "webPublicationDate": "2012-08-22T09:30:00Z", "webTitle": "Are gentlemen too butch for cake?", "webUrl": "https://www.theguardian.com/lifeandstyle/wordofmouth/2012/aug/22/are-gentlemen-too-butch-for-cake", "apiUrl": "https://content.guardianapis.com/lifeandstyle/wordofmouth/2012/aug/22/are-gentlemen-too-butch-for-cake", "isHosted": false, "pillarId": "pillar/lifestyle", "pillarName": "Lifestyle"}, {"id": "books/2012/aug/21/fifty-shades-of-grey-hairy-dieters", "type": "article", "sectionId": "books", "sectionName": "Books", "webPublicationDate": "2012-08-21T12:37:05Z", "webTitle": "Fifty Shades of Grey eclipsed by Hairy Dieters", "webUrl": "https://www.theguardian.com/books/2012/aug/21/fifty-shades-of-grey-hairy-dieters", "apiUrl": "https://content.guardianapis.com/books/2012/aug/21/fifty-shades-of-grey-hairy-dieters", "isHosted": false, "pillarId": "pillar/arts", "pillarName": "Arts"}, {"id": "lifeandstyle/wordofmouth/2012/aug/21/chooks-away-fried-chicken-goes-gourmet", "type": "article", "sectionId": "food", "sectionName": "Food", "webPublicationDate": "2012-08-21T08:40:00Z", "webTitle": "Chooks away: fried chicken goes gourmet", "webUrl": "https://www.theguardian.com/lifeandstyle/wordofmouth/2012/aug/21/chooks-away-fried-chicken-goes-gourmet", "apiUrl": "https://content.guardianapis.com/lifeandstyle/wordofmouth/2012/aug/21/chooks-away-fried-chicken-goes-gourmet", "isHosted": false, "pillarId": "pillar/lifestyle", "pillarName": "Lifestyle"}, {"id": "lifeandstyle/wordofmouth/2012/aug/20/britains-most-hated-foods", "type": "article", "sectionId": "food", "sectionName": "Food", "webPublicationDate": "2012-08-20T10:00:00Z", "webTitle": "Britain's most hated foods: texture trouble", "webUrl": "https://www.theguardian.com/lifeandstyle/wordofmouth/2012/aug/20/britains-most-hated-foods", "apiUrl": "https://content.guardianapis.com/lifeandstyle/wordofmouth/2012/aug/20/britains-most-hated-foods", "isHosted": false, "pillarId": "pillar/lifestyle", "pillarName": "Lifestyle"}, {"id": "travel/2012/aug/20/london-historic-food-drink-bars", "type": "article", "sectionId": "travel", "sectionName": "Travel", "webPublicationDate": "2012-08-20T09:38:00Z", "webTitle": "Historic pubs and places to eat in London", "webUrl": "https://www.theguardian.com/travel/2012/aug/20/london-historic-food-drink-bars", "apiUrl": "https://content.guardianapis.com/travel/2012/aug/20/london-historic-food-drink-bars", "isHosted": false, "pillarId": "pillar/lifestyle", "pillarName": "Lifestyle"}, {"id": "society/2012/aug/19/should-eat-chocolate-relieve-dementia", "type": "article", "sectionId": "lifeandstyle", "sectionName": "Life and style", "webPublicationDate": "2012-08-19T20:00:00Z", "webTitle": "Should I eat chocolate to relieve dementia?", "webUrl": "https://www.theguardian.com/society/2012/aug/19/should-eat-chocolate-relieve-dementia", "apiUrl": "https://content.guardianapis.com/society/2012/aug/19/should-eat-chocolate-relieve-dementia", "isHosted": false, "pillarId": "pillar/lifestyle", "pillarName": "Lifestyle"}, {"id": "lifeandstyle/2012/aug/19/chefs-mentors-anna-hansen", "type": "article", "sectionId": "food", "sectionName": "Food", "webPublicationDate": "2012-08-18T23:08:03Z", "webTitle": "Me and my mentor: Ami Blakely and Anna Hansen", "webUrl": "https://www.theguardian.com/lifeandstyle/2012/aug/19/chefs-mentors-anna-hansen", "apiUrl": "https://content.guardianapis.com/lifeandstyle/2012/aug/19/chefs-mentors-anna-hansen", "isHosted": false, "pillarId": "pillar/lifestyle", "pillarName": "Lifestyle"}, {"id": "lifeandstyle/2012/aug/19/wine-food-and-drink", "type": "article", "sectionId": "food", "sectionName": "Food", "webPublicationDate": "2012-08-18T23:08:02Z", "webTitle": "Wine's women on song", "webUrl": "https://www.theguardian.com/lifeandstyle/2012/aug/19/wine-food-and-drink", "apiUrl": "https://content.guardianapis.com/lifeandstyle/2012/aug/19/wine-food-and-drink", "isHosted": false, "pillarId": "pillar/lifestyle", "pillarName": "Lifestyle"}, {"id": "lifeandstyle/2012/aug/19/eating-myself-to-death-rayner", "type": "article", "sectionId": "food", "sectionName": "Food", "webPublicationDate": "2012-08-18T23:08:01Z", "webTitle": "Oh dear. I'm eating myself to death", "webUrl": "https://www.theguardian.com/lifeandstyle/2012/aug/19/eating-myself-to-death-rayner", "apiUrl": "https://content.guardianapis.com/lifeandstyle/2012/aug/19/eating-myself-to-death-rayner", "isHosted": false, "pillarId": "pillar/lifestyle", "pillarName": "Lifestyle"}, {"id": "lifeandstyle/2012/aug/19/clare-smyth-chefs-mentors", "type": "article", "sectionId": "food", "sectionName": "Food", "webPublicationDate": "2012-08-18T23:07:30Z", "webTitle": "Me and my mentor: Sally Abe and Clare Smyth", "webUrl": "https://www.theguardian.com/lifeandstyle/2012/aug/19/clare-smyth-chefs-mentors", "apiUrl": "https://content.guardianapis.com/lifeandstyle/2012/aug/19/clare-smyth-chefs-mentors", "isHosted": false, "pillarId": "pillar/lifestyle", "pillarName": "Lifestyle"}, {"id": "lifeandstyle/2012/aug/19/chef-mentor-helene-darroze", "type": "article", "sectionId": "food", "sectionName": "Food", "webPublicationDate": "2012-08-18T23:07:27Z", "webTitle": "Me and my mentor: Bernadette Box and H\u00e9l\u00e8ne Darroze", "webUrl": "https://www.theguardian.com/lifeandstyle/2012/aug/19/chef-mentor-helene-darroze", "apiUrl": "https://content.guardianapis.com/lifeandstyle/2012/aug/19/chef-mentor-helene-darroze", "isHosted": false, "pillarId": "pillar/lifestyle", "pillarName": "Lifestyle"}, {"id": "lifeandstyle/2012/aug/19/angela-hartnett-mentor-protege", "type": "article", "sectionId": "food", "sectionName": "Food", "webPublicationDate": "2012-08-18T23:07:04Z", "webTitle": "Me and my mentor: Suzanna Kean and Angela Hartnett", "webUrl": "https://www.theguardian.com/lifeandstyle/2012/aug/19/angela-hartnett-mentor-protege", "apiUrl": "https://content.guardianapis.com/lifeandstyle/2012/aug/19/angela-hartnett-mentor-protege", "isHosted": false, "pillarId": "pillar/lifestyle", "pillarName": "Lifestyle"}, {"id": "lifeandstyle/2012/aug/19/toby-jones-interview", "type": "article", "sectionId": "food", "sectionName": "Food", "webPublicationDate": "2012-08-18T23:07:02Z", "webTitle": "Toby Jones: ' So Robert de Niro booked us a table at El Bulli'", "webUrl": "https://www.theguardian.com/lifeandstyle/2012/aug/19/toby-jones-interview", "apiUrl": "https://content.guardianapis.com/lifeandstyle/2012/aug/19/toby-jones-interview", "isHosted": false, "pillarId": "pillar/lifestyle", "pillarName": "Lifestyle"}, {"id": "lifeandstyle/2012/aug/19/rose-gray-my-mother-tribute", "type": "article", "sectionId": "food", "sectionName": "Food", "webPublicationDate": "2012-08-18T23:07:01Z", "webTitle": "'My mother Rose Gray had an instinctive way of cooking'", "webUrl": "https://www.theguardian.com/lifeandstyle/2012/aug/19/rose-gray-my-mother-tribute", "apiUrl": "https://content.guardianapis.com/lifeandstyle/2012/aug/19/rose-gray-my-mother-tribute", "isHosted": false, "pillarId": "pillar/lifestyle", "pillarName": "Lifestyle"}, {"id": "lifeandstyle/2012/aug/19/barbara-cartland-health-food", "type": "article", "sectionId": "lifeandstyle", "sectionName": "Life and style", "webPublicationDate": "2012-08-18T23:07:01Z", "webTitle": "Tea with Barbara Cartland", "webUrl": "https://www.theguardian.com/lifeandstyle/2012/aug/19/barbara-cartland-health-food", "apiUrl": "https://content.guardianapis.com/lifeandstyle/2012/aug/19/barbara-cartland-health-food", "isHosted": false, "pillarId": "pillar/lifestyle", "pillarName": "Lifestyle"}, {"id": "lifeandstyle/2012/aug/19/margot-henderson-rochelle-canteen-interview", "type": "article", "sectionId": "food", "sectionName": "Food", "webPublicationDate": "2012-08-18T23:07:00Z", "webTitle": "Margot Henderson: British food's best-kept secret", "webUrl": "https://www.theguardian.com/lifeandstyle/2012/aug/19/margot-henderson-rochelle-canteen-interview", "apiUrl": "https://content.guardianapis.com/lifeandstyle/2012/aug/19/margot-henderson-rochelle-canteen-interview", "isHosted": false, "pillarId": "pillar/lifestyle", "pillarName": "Lifestyle"}, {"id": "lifeandstyle/2012/aug/19/elena-arzak-basque-chef", "type": "article", "sectionId": "food", "sectionName": "Food", "webPublicationDate": "2012-08-18T23:07:00Z", "webTitle": "Elena Arzak: the best female chef on the planet", "webUrl": "https://www.theguardian.com/lifeandstyle/2012/aug/19/elena-arzak-basque-chef", "apiUrl": "https://content.guardianapis.com/lifeandstyle/2012/aug/19/elena-arzak-basque-chef", "isHosted": false, "pillarId": "pillar/lifestyle", "pillarName": "Lifestyle"}, {"id": "lifeandstyle/2012/aug/19/gin-cocktails-spirit-comeback", "type": "article", "sectionId": "food", "sectionName": "Food", "webPublicationDate": "2012-08-18T23:07:00Z", "webTitle": "It's farewell to mother's ruin: cocktail set give gin a shake-up", "webUrl": "https://www.theguardian.com/lifeandstyle/2012/aug/19/gin-cocktails-spirit-comeback", "apiUrl": "https://content.guardianapis.com/lifeandstyle/2012/aug/19/gin-cocktails-spirit-comeback", "isHosted": false, "pillarId": "pillar/lifestyle", "pillarName": "Lifestyle"}, {"id": "lifeandstyle/2012/aug/19/jay-rayner-restaurant-review-brasserie-zedel", "type": "article", "sectionId": "food", "sectionName": "Food", "webPublicationDate": "2012-08-18T23:05:05Z", "webTitle": "Restaurant review: Brasserie Zedel, London W1", "webUrl": "https://www.theguardian.com/lifeandstyle/2012/aug/19/jay-rayner-restaurant-review-brasserie-zedel", "apiUrl": "https://content.guardianapis.com/lifeandstyle/2012/aug/19/jay-rayner-restaurant-review-brasserie-zedel", "isHosted": false, "pillarId": "pillar/lifestyle", "pillarName": "Lifestyle"}]}}