{"response": {"status": "ok", "userTier": "developer", "total": 130413, "startIndex": 1, "pageSize": 50, "currentPage": 1, "pages": 2609, "orderBy": "newest", "results": [{"id": "cities/2014/aug/31/one-north-regeneration-railways-jobs-cities", "type": "article", "sectionId": "cities", "sectionName": "Cities", "webPublicationDate": "2014-08-30T23:35:00Z", "webTitle": "Will the north follow Scotland and search for greater power?", "webUrl": "https://www.theguardian.com/cities/2014/aug/31/one-north-regeneration-railways-jobs-cities", "apiUrl": "https://content.guardianapis.com/cities/2014/aug/31/one-north-regeneration-railways-jobs-cities", "isHosted": false, "pillarId": "pillar/news", "pillarName": "News"}, {"id": "commentisfree/2014/aug/31/however-scotland-votes-england-must-change", "type": "article", "sectionId": "commentisfree", "sectionName": "Opinion", "webPublicationDate": "2014-08-30T23:05:32Z", "webTitle": "Whichever way Scotland votes, more power must be devolved in England", "webUrl": "https://www.theguardian.com/commentisfree/2014/aug/31/however-scotland-votes-england-must-change", "apiUrl": "https://content.guardianapis.com/commentisfree/2014/aug/31/however-scotland-votes-england-must-change", "isHosted": false, "pillarId": "pillar/opinion", "pillarName": "Opinion"}, {"id": "politics/2014/aug/31/scottish-referendum-debate-need-new-rulebook", "type": "article", "sectionId": "politics", "sectionName": "Politics", "webPublicationDate": "2014-08-30T23:05:20Z", "webTitle": "Scottish referendum: after the debate, it's time to set better rules", "webUrl": "https://www.theguardian.com/politics/2014/aug/31/scottish-referendum-debate-need-new-rulebook", "apiUrl": "https://content.guardianapis.com/politics/2014/aug/31/scottish-referendum-debate-need-new-rulebook", "isHosted": false, "pillarId": "pillar/news", "pillarName": "News"}, {"id": "politics/2014/aug/31/boris-johnson-nigel-farage-in-quotes", "type": "article", "sectionId": "politics", "sectionName": "Politics", "webPublicationDate": "2014-08-30T23:05:15Z", "webTitle": "Boris Johnson and Nigel Farage: their wit and wisdom", "webUrl": "https://www.theguardian.com/politics/2014/aug/31/boris-johnson-nigel-farage-in-quotes", "apiUrl": "https://content.guardianapis.com/politics/2014/aug/31/boris-johnson-nigel-farage-in-quotes", "isHosted": false, "pillarId": "pillar/news", "pillarName": "News"}, {"id": "politics/2014/aug/30/david-cameron-caught-virtues-vices-europe", "type": "article", "sectionId": "politics", "sectionName": "Politics", "webPublicationDate": "2014-08-30T22:50:00Z", "webTitle": "David Cameron is caught between the virtues and vices of Europe", "webUrl": "https://www.theguardian.com/politics/2014/aug/30/david-cameron-caught-virtues-vices-europe", "apiUrl": "https://content.guardianapis.com/politics/2014/aug/30/david-cameron-caught-virtues-vices-europe", "isHosted": false, "pillarId": "pillar/news", "pillarName": "News"}, {"id": "society/2014/aug/30/low-pay-workers-one-in-three", "type": "article", "sectionId": "society", "sectionName": "Society", "webPublicationDate": "2014-08-30T21:31:31Z", "webTitle": "One in three young workers on low pay", "webUrl": "https://www.theguardian.com/society/2014/aug/30/low-pay-workers-one-in-three", "apiUrl": "https://content.guardianapis.com/society/2014/aug/30/low-pay-workers-one-in-three", "isHosted": false, "pillarId": "pillar/news", "pillarName": "News"}, {"id": "commentisfree/2014/aug/30/counter-terrorism-jiahdis-britain-strategy-islam", "type": "article", "sectionId": "commentisfree", "sectionName": "Opinion", "webPublicationDate": "2014-08-30T19:52:17Z", "webTitle": "Britain's best defence to the terror threat is international action", "webUrl": "https://www.theguardian.com/commentisfree/2014/aug/30/counter-terrorism-jiahdis-britain-strategy-islam", "apiUrl": "https://content.guardianapis.com/commentisfree/2014/aug/30/counter-terrorism-jiahdis-britain-strategy-islam", "isHosted": false, "pillarId": "pillar/opinion", "pillarName": "Opinion"}, {"id": "politics/2014/aug/30/paddy-ashdown-kneejerk-reaction-jihadi-threat", "type": "article", "sectionId": "politics", "sectionName": "Politics", "webPublicationDate": "2014-08-30T19:51:29Z", "webTitle": "Paddy Ashdown slams 'kneejerk' Tory response to jihadi terror threat", "webUrl": "https://www.theguardian.com/politics/2014/aug/30/paddy-ashdown-kneejerk-reaction-jihadi-threat", "apiUrl": "https://content.guardianapis.com/politics/2014/aug/30/paddy-ashdown-kneejerk-reaction-jihadi-threat", "isHosted": false, "pillarId": "pillar/news", "pillarName": "News"}, {"id": "uk-news/2014/aug/30/rotherham-yvette-cooper-call-law-change", "type": "article", "sectionId": "uk-news", "sectionName": "UK news", "webPublicationDate": "2014-08-30T19:26:08Z", "webTitle": "Rotherham: Yvette Cooper calls for change to law after abuse scandal", "webUrl": "https://www.theguardian.com/uk-news/2014/aug/30/rotherham-yvette-cooper-call-law-change", "apiUrl": "https://content.guardianapis.com/uk-news/2014/aug/30/rotherham-yvette-cooper-call-law-change", "isHosted": false, "pillarId": "pillar/news", "pillarName": "News"}, {"id": "commentisfree/2014/aug/30/francois-hollande-economics-gamble-with-europe", "type": "article", "sectionId": "commentisfree", "sectionName": "Opinion", "webPublicationDate": "2014-08-30T18:45:00Z", "webTitle": "France is in turmoil as advocates of austerity and investment fight it out | Will Hutton", "webUrl": "https://www.theguardian.com/commentisfree/2014/aug/30/francois-hollande-economics-gamble-with-europe", "apiUrl": "https://content.guardianapis.com/commentisfree/2014/aug/30/francois-hollande-economics-gamble-with-europe", "isHosted": false, "pillarId": "pillar/opinion", "pillarName": "Opinion"}, {"id": "commentisfree/2014/aug/30/all-women-shortlists-only-way-forward", "type": "article", "sectionId": "commentisfree", "sectionName": "Opinion", "webPublicationDate": "2014-08-30T18:15:00Z", "webTitle": "Why all-women shortlists? Simple: nothing else works | Catherine Bennett", "webUrl": "https://www.theguardian.com/commentisfree/2014/aug/30/all-women-shortlists-only-way-forward", "apiUrl": "https://content.guardianapis.com/commentisfree/2014/aug/30/all-women-shortlists-only-way-forward", "isHosted": false, "pillarId": "pillar/opinion", "pillarName": "Opinion"}, {"id": "commentisfree/2014/aug/30/scotland-referendum-benefits-independence-alex-salmond-alistair-darling-better-together", "type": "article", "sectionId": "commentisfree", "sectionName": "Opinion", "webPublicationDate": "2014-08-30T17:15:00Z", "webTitle": "Scotland referendum: warmth and honesty are missing from both sides of the divide | Kevin McKenna", "webUrl": "https://www.theguardian.com/commentisfree/2014/aug/30/scotland-referendum-benefits-independence-alex-salmond-alistair-darling-better-together", "apiUrl": "https://content.guardianapis.com/commentisfree/2014/aug/30/scotland-referendum-benefits-independence-alex-salmond-alistair-darling-better-together", "isHosted": false, "pillarId": "pillar/opinion", "pillarName": "Opinion"}, {"id": "commentisfree/2014/aug/30/low-pay-frances-o-grady-tuc-commentary", "type": "article", "sectionId": "commentisfree", "sectionName": "Opinion", "webPublicationDate": "2014-08-30T16:49:08Z", "webTitle": "Why Britain needs a pay rise | Frances O'Grady", "webUrl": "https://www.theguardian.com/commentisfree/2014/aug/30/low-pay-frances-o-grady-tuc-commentary", "apiUrl": "https://content.guardianapis.com/commentisfree/2014/aug/30/low-pay-frances-o-grady-tuc-commentary", "isHosted": false, "pillarId": "pillar/opinion", "pillarName": "Opinion"}, {"id": "politics/2014/aug/30/ed-miliband-labour-put-nhs-centre-general-election-campaign", "type": "article", "sectionId": "politics", "sectionName": "Politics", "webPublicationDate": "2014-08-30T16:16:23Z", "webTitle": "Ed Miliband to put NHS at centre of general election campaign", "webUrl": "https://www.theguardian.com/politics/2014/aug/30/ed-miliband-labour-put-nhs-centre-general-election-campaign", "apiUrl": "https://content.guardianapis.com/politics/2014/aug/30/ed-miliband-labour-put-nhs-centre-general-election-campaign", "isHosted": false, "pillarId": "pillar/news", "pillarName": "News"}, {"id": "politics/2014/aug/30/independence-referendum-scotland-vote-women", "type": "article", "sectionId": "politics", "sectionName": "Politics", "webPublicationDate": "2014-08-30T15:16:11Z", "webTitle": "Scottish women may swing the referendum vote with three weeks to go", "webUrl": "https://www.theguardian.com/politics/2014/aug/30/independence-referendum-scotland-vote-women", "apiUrl": "https://content.guardianapis.com/politics/2014/aug/30/independence-referendum-scotland-vote-women", "isHosted": false, "pillarId": "pillar/news", "pillarName": "News"}, {"id": "society/2014/aug/30/nhs-bosses-summits-contracts-unitedhealth-insurer", "type": "article", "sectionId": "society", "sectionName": "Society", "webPublicationDate": "2014-08-30T12:16:01Z", "webTitle": "Calls for greater disclosure on NHS chiefs' meetings with private US health insurer", "webUrl": "https://www.theguardian.com/society/2014/aug/30/nhs-bosses-summits-contracts-unitedhealth-insurer", "apiUrl": "https://content.guardianapis.com/society/2014/aug/30/nhs-bosses-summits-contracts-unitedhealth-insurer", "isHosted": false, "pillarId": "pillar/news", "pillarName": "News"}, {"id": "politics/2014/aug/30/george-galloway-released-hospital-assault", "type": "article", "sectionId": "politics", "sectionName": "Politics", "webPublicationDate": "2014-08-30T10:50:45Z", "webTitle": "Man charged over George Galloway assault", "webUrl": "https://www.theguardian.com/politics/2014/aug/30/george-galloway-released-hospital-assault", "apiUrl": "https://content.guardianapis.com/politics/2014/aug/30/george-galloway-released-hospital-assault", "isHosted": false, "pillarId": "pillar/news", "pillarName": "News"}, {"id": "politics/2014/aug/30/miliband-tougher-action-britons-iraq-syria", "type": "article", "sectionId": "politics", "sectionName": "Politics", "webPublicationDate": "2014-08-30T10:29:24Z", "webTitle": "Miliband calls for tougher action on Britons travelling to Iraq and Syria", "webUrl": "https://www.theguardian.com/politics/2014/aug/30/miliband-tougher-action-britons-iraq-syria", "apiUrl": "https://content.guardianapis.com/politics/2014/aug/30/miliband-tougher-action-britons-iraq-syria", "isHosted": false, "pillarId": "pillar/news", "pillarName": "News"}, {"id": "uk-news/davehillblog/2014/aug/30/the-great-boris-bus-stop", "type": "article", "sectionId": "uk-news", "sectionName": "UK news", "webPublicationDate": "2014-08-30T08:38:01Z", "webTitle": "The great Boris bus stop", "webUrl": "https://www.theguardian.com/uk-news/davehillblog/2014/aug/30/the-great-boris-bus-stop", "apiUrl": "https://content.guardianapis.com/uk-news/davehillblog/2014/aug/30/the-great-boris-bus-stop", "isHosted": false, "pillarId": "pillar/news", "pillarName": "News"}, {"id": "commentisfree/2014/aug/30/scotlands-complicity-with-empire-does-not-disqualify-independence", "type": "article", "sectionId": "commentisfree", "sectionName": "Opinion", "webPublicationDate": "2014-08-30T07:00:00Z", "webTitle": "Nationalist Scots embody a wider dissatisfaction with our top-down world | Pankaj Mishra", "webUrl": "https://www.theguardian.com/commentisfree/2014/aug/30/scotlands-complicity-with-empire-does-not-disqualify-independence", "apiUrl": "https://content.guardianapis.com/commentisfree/2014/aug/30/scotlands-complicity-with-empire-does-not-disqualify-independence", "isHosted": false, "pillarId": "pillar/opinion", "pillarName": "Opinion"}, {"id": "technology/2014/aug/30/saviours-universe-four-unlikely-men-save-world", "type": "article", "sectionId": "technology", "sectionName": "Technology", "webPublicationDate": "2014-08-30T06:00:00Z", "webTitle": "The scientific A-Team saving the world from killer viruses, rogue AI and the paperclip apocalypse", "webUrl": "https://www.theguardian.com/technology/2014/aug/30/saviours-universe-four-unlikely-men-save-world", "apiUrl": "https://content.guardianapis.com/technology/2014/aug/30/saviours-universe-four-unlikely-men-save-world", "isHosted": false, "pillarId": "pillar/news", "pillarName": "News"}, {"id": "politics/2014/aug/29/george-galloway-injured-london-street-attack", "type": "article", "sectionId": "politics", "sectionName": "Politics", "webPublicationDate": "2014-08-29T22:29:28Z", "webTitle": "George Galloway badly injured in street attack", "webUrl": "https://www.theguardian.com/politics/2014/aug/29/george-galloway-injured-london-street-attack", "apiUrl": "https://content.guardianapis.com/politics/2014/aug/29/george-galloway-injured-london-street-attack", "isHosted": false, "pillarId": "pillar/news", "pillarName": "News"}, {"id": "politics/2014/aug/29/david-cameron-uk-security-powers-isis-threat", "type": "article", "sectionId": "politics", "sectionName": "Politics", "webPublicationDate": "2014-08-29T19:18:35Z", "webTitle": "David Cameron promises new UK powers to tackle Isis terror threat", "webUrl": "https://www.theguardian.com/politics/2014/aug/29/david-cameron-uk-security-powers-isis-threat", "apiUrl": "https://content.guardianapis.com/politics/2014/aug/29/david-cameron-uk-security-powers-isis-threat", "isHosted": false, "pillarId": "pillar/news", "pillarName": "News"}, {"id": "commentisfree/2014/aug/29/rotherham-pc-gone-mad-defence-racism-contempt-pakistani-heritage", "type": "article", "sectionId": "commentisfree", "sectionName": "Opinion", "webPublicationDate": "2014-08-29T18:44:37Z", "webTitle": "Rotherham inquiry: the \u2018PC gone mad\u2019 defence is itself a form of racism | Jonathan Freedland", "webUrl": "https://www.theguardian.com/commentisfree/2014/aug/29/rotherham-pc-gone-mad-defence-racism-contempt-pakistani-heritage", "apiUrl": "https://content.guardianapis.com/commentisfree/2014/aug/29/rotherham-pc-gone-mad-defence-racism-contempt-pakistani-heritage", "isHosted": false, "pillarId": "pillar/opinion", "pillarName": "Opinion"}, {"id": "politics/2014/aug/29/conservatives-split-david-cameron-fails-renegotiate-eu-membership", "type": "article", "sectionId": "politics", "sectionName": "Politics", "webPublicationDate": "2014-08-29T18:36:19Z", "webTitle": "Conservatives will split if PM fails to renegotiate EU membership, say MPs", "webUrl": "https://www.theguardian.com/politics/2014/aug/29/conservatives-split-david-cameron-fails-renegotiate-eu-membership", "apiUrl": "https://content.guardianapis.com/politics/2014/aug/29/conservatives-split-david-cameron-fails-renegotiate-eu-membership", "isHosted": false, "pillarId": "pillar/news", "pillarName": "News"}, {"id": "politics/2014/aug/29/counter-terrorism-legislation-hands-tied", "type": "article", "sectionId": "politics", "sectionName": "Politics", "webPublicationDate": "2014-08-29T18:35:00Z", "webTitle": "How can David Cameron rein in extremists when his hands are tied? | Alan Travis", "webUrl": "https://www.theguardian.com/politics/2014/aug/29/counter-terrorism-legislation-hands-tied", "apiUrl": "https://content.guardianapis.com/politics/2014/aug/29/counter-terrorism-legislation-hands-tied", "isHosted": false, "pillarId": "pillar/news", "pillarName": "News"}, {"id": "society/2014/aug/29/elitism-skewed-view-britain-diversity", "type": "article", "sectionId": "society", "sectionName": "Society", "webPublicationDate": "2014-08-29T18:09:17Z", "webTitle": "Elitism and a skewed view of Britain\u2019s diversity", "webUrl": "https://www.theguardian.com/society/2014/aug/29/elitism-skewed-view-britain-diversity", "apiUrl": "https://content.guardianapis.com/society/2014/aug/29/elitism-skewed-view-britain-diversity", "isHosted": false, "pillarId": "pillar/news", "pillarName": "News"}, {"id": "politics/2014/aug/29/uk-accused-libyan-grand-mufti-sadik-al-ghariani", "type": "article", "sectionId": "politics", "sectionName": "Politics", "webPublicationDate": "2014-08-29T18:08:11Z", "webTitle": "UK accused of harbouring Libyan cleric who helped aid Islamist insurgency", "webUrl": "https://www.theguardian.com/politics/2014/aug/29/uk-accused-libyan-grand-mufti-sadik-al-ghariani", "apiUrl": "https://content.guardianapis.com/politics/2014/aug/29/uk-accused-libyan-grand-mufti-sadik-al-ghariani", "isHosted": false, "pillarId": "pillar/news", "pillarName": "News"}, {"id": "uk-news/2014/aug/29/scotland-referendum-jim-murphy-abuse", "type": "article", "sectionId": "uk-news", "sectionName": "UK news", "webPublicationDate": "2014-08-29T17:55:54Z", "webTitle": "Jim Murphy suspends referendum meetings citing 'coordinated' abuse", "webUrl": "https://www.theguardian.com/uk-news/2014/aug/29/scotland-referendum-jim-murphy-abuse", "apiUrl": "https://content.guardianapis.com/uk-news/2014/aug/29/scotland-referendum-jim-murphy-abuse", "isHosted": false, "pillarId": "pillar/news", "pillarName": "News"}, {"id": "commentisfree/2014/aug/29/trust-terror-threat-rating-intelligence-agencies", "type": "article", "sectionId": "commentisfree", "sectionName": "Opinion", "webPublicationDate": "2014-08-29T17:46:51Z", "webTitle": "Substantial, severe, critical \u2013 can we trust the terror threat rating?  | Richard Norton-Taylor", "webUrl": "https://www.theguardian.com/commentisfree/2014/aug/29/trust-terror-threat-rating-intelligence-agencies", "apiUrl": "https://content.guardianapis.com/commentisfree/2014/aug/29/trust-terror-threat-rating-intelligence-agencies", "isHosted": false, "pillarId": "pillar/opinion", "pillarName": "Opinion"}, {"id": "education/2014/aug/29/primary-school-free-meals-pledge-pub-sandwiches", "type": "article", "sectionId": "education", "sectionName": "Education", "webPublicationDate": "2014-08-29T17:33:32Z", "webTitle": "Primary school may have to serve pub sandwiches to meet free meals pledge", "webUrl": "https://www.theguardian.com/education/2014/aug/29/primary-school-free-meals-pledge-pub-sandwiches", "apiUrl": "https://content.guardianapis.com/education/2014/aug/29/primary-school-free-meals-pledge-pub-sandwiches", "isHosted": false, "pillarId": "pillar/news", "pillarName": "News"}, {"id": "politics/2014/aug/29/jim-murphy-scotland-better-together-speaking-tour-suspended-intimidation", "type": "article", "sectionId": "politics", "sectionName": "Politics", "webPublicationDate": "2014-08-29T14:59:06Z", "webTitle": "Better Together's Jim Murphy suspends speaking tour over 'intimidation'", "webUrl": "https://www.theguardian.com/politics/2014/aug/29/jim-murphy-scotland-better-together-speaking-tour-suspended-intimidation", "apiUrl": "https://content.guardianapis.com/politics/2014/aug/29/jim-murphy-scotland-better-together-speaking-tour-suspended-intimidation", "isHosted": false, "pillarId": "pillar/news", "pillarName": "News"}, {"id": "politics/2014/aug/29/cameron-seize-passports-terror-threats", "type": "article", "sectionId": "politics", "sectionName": "Politics", "webPublicationDate": "2014-08-29T14:37:00Z", "webTitle": "Cameron plans to seize suspects' passports in response to terrorist threat", "webUrl": "https://www.theguardian.com/politics/2014/aug/29/cameron-seize-passports-terror-threats", "apiUrl": "https://content.guardianapis.com/politics/2014/aug/29/cameron-seize-passports-terror-threats", "isHosted": false, "pillarId": "pillar/news", "pillarName": "News"}, {"id": "commentisfree/2014/aug/29/scotland-catalonia-nationalism-difference-without-much", "type": "article", "sectionId": "commentisfree", "sectionName": "Opinion", "webPublicationDate": "2014-08-29T14:00:24Z", "webTitle": "In Scotland or Catalonia, the pitch is for difference without much difference | Peter Preston", "webUrl": "https://www.theguardian.com/commentisfree/2014/aug/29/scotland-catalonia-nationalism-difference-without-much", "apiUrl": "https://content.guardianapis.com/commentisfree/2014/aug/29/scotland-catalonia-nationalism-difference-without-much", "isHosted": false, "pillarId": "pillar/opinion", "pillarName": "Opinion"}, {"id": "business/2014/aug/29/heathrow-boss-boris-johnson-third-runway", "type": "article", "sectionId": "business", "sectionName": "Business", "webPublicationDate": "2014-08-29T13:41:08Z", "webTitle": "Heathrow boss urges Boris Johnson to back third runway", "webUrl": "https://www.theguardian.com/business/2014/aug/29/heathrow-boss-boris-johnson-third-runway", "apiUrl": "https://content.guardianapis.com/business/2014/aug/29/heathrow-boss-boris-johnson-third-runway", "isHosted": false, "pillarId": "pillar/news", "pillarName": "News"}, {"id": "politics/2014/aug/29/douglas-carswell-ukip-michael-white", "type": "article", "sectionId": "politics", "sectionName": "Politics", "webPublicationDate": "2014-08-29T13:39:09Z", "webTitle": "What next for 'Kamikaze Carswell' after the romance of revolt wears off?", "webUrl": "https://www.theguardian.com/politics/2014/aug/29/douglas-carswell-ukip-michael-white", "apiUrl": "https://content.guardianapis.com/politics/2014/aug/29/douglas-carswell-ukip-michael-white", "isHosted": false, "pillarId": "pillar/news", "pillarName": "News"}, {"id": "science/political-science/2014/aug/29/the-eu-needs-science-policy-but-does-that-mean-it-needs-a-chief-scientific-adviser", "type": "article", "sectionId": "science", "sectionName": "Science", "webPublicationDate": "2014-08-29T13:38:04Z", "webTitle": "The EU needs good science policy. But does that mean it needs a Chief Scientific Adviser? | Doug Parr", "webUrl": "https://www.theguardian.com/science/political-science/2014/aug/29/the-eu-needs-science-policy-but-does-that-mean-it-needs-a-chief-scientific-adviser", "apiUrl": "https://content.guardianapis.com/science/political-science/2014/aug/29/the-eu-needs-science-policy-but-does-that-mean-it-needs-a-chief-scientific-adviser", "isHosted": false, "pillarId": "pillar/news", "pillarName": "News"}, {"id": "commentisfree/2014/aug/29/five-ways-more-women-uk-politics", "type": "article", "sectionId": "commentisfree", "sectionName": "Opinion", "webPublicationDate": "2014-08-29T12:30:08Z", "webTitle": "We need more women in politics \u2013 here\u2019s how to do it | Nan Sloane", "webUrl": "https://www.theguardian.com/commentisfree/2014/aug/29/five-ways-more-women-uk-politics", "apiUrl": "https://content.guardianapis.com/commentisfree/2014/aug/29/five-ways-more-women-uk-politics", "isHosted": false, "pillarId": "pillar/opinion", "pillarName": "Opinion"}, {"id": "books/2014/aug/29/socialism-for-the-rich", "type": "article", "sectionId": "books", "sectionName": "Books", "webPublicationDate": "2014-08-29T12:30:00Z", "webTitle": "It's socialism for the rich and capitalism for the rest of us in Britain", "webUrl": "https://www.theguardian.com/books/2014/aug/29/socialism-for-the-rich", "apiUrl": "https://content.guardianapis.com/books/2014/aug/29/socialism-for-the-rich", "isHosted": false, "pillarId": "pillar/arts", "pillarName": "Arts"}, {"id": "world/2014/aug/29/russia-100-battle-tanks-ukraine-uk-tells-united-nations", "type": "article", "sectionId": "world", "sectionName": "World news", "webPublicationDate": "2014-08-29T12:24:48Z", "webTitle": "Russia has up to 100 battle tanks fighting in Ukraine, UK believes", "webUrl": "https://www.theguardian.com/world/2014/aug/29/russia-100-battle-tanks-ukraine-uk-tells-united-nations", "apiUrl": "https://content.guardianapis.com/world/2014/aug/29/russia-100-battle-tanks-ukraine-uk-tells-united-nations", "isHosted": false, "pillarId": "pillar/news", "pillarName": "News"}, {"id": "uk-news/2014/aug/29/alex-salmond-denies-referendum-promotes-anti-english-sentiment", "type": "article", "sectionId": "uk-news", "sectionName": "UK news", "webPublicationDate": "2014-08-29T10:25:17Z", "webTitle": "Alex Salmond denies referendum promotes anti-English sentiment", "webUrl": "https://www.theguardian.com/uk-news/2014/aug/29/alex-salmond-denies-referendum-promotes-anti-english-sentiment", "apiUrl": "https://content.guardianapis.com/uk-news/2014/aug/29/alex-salmond-denies-referendum-promotes-anti-english-sentiment", "isHosted": false, "pillarId": "pillar/news", "pillarName": "News"}, {"id": "politics/2014/aug/29/tory-defections-ukip-distraction-real-eurosceptics-plot", "type": "article", "sectionId": "politics", "sectionName": "Politics", "webPublicationDate": "2014-08-29T10:09:42Z", "webTitle": "Tory defections to Ukip a distraction from real Eurosceptics plot", "webUrl": "https://www.theguardian.com/politics/2014/aug/29/tory-defections-ukip-distraction-real-eurosceptics-plot", "apiUrl": "https://content.guardianapis.com/politics/2014/aug/29/tory-defections-ukip-distraction-real-eurosceptics-plot", "isHosted": false, "pillarId": "pillar/news", "pillarName": "News"}, {"id": "politics/2014/aug/29/ukip-eight-tory-mps-john-redwood-defect-douglas-carswell", "type": "article", "sectionId": "politics", "sectionName": "Politics", "webPublicationDate": "2014-08-29T09:29:57Z", "webTitle": "Ukip eight 'a figment of party's imagination' says John Redwood", "webUrl": "https://www.theguardian.com/politics/2014/aug/29/ukip-eight-tory-mps-john-redwood-defect-douglas-carswell", "apiUrl": "https://content.guardianapis.com/politics/2014/aug/29/ukip-eight-tory-mps-john-redwood-defect-douglas-carswell", "isHosted": false, "pillarId": "pillar/news", "pillarName": "News"}, {"id": "uk-news/davehillblog/2014/aug/29/more-power-to-london-who-could-possibly-disagree", "type": "article", "sectionId": "uk-news", "sectionName": "UK news", "webPublicationDate": "2014-08-29T08:12:43Z", "webTitle": "More power to London? Who could possibly disagree?", "webUrl": "https://www.theguardian.com/uk-news/davehillblog/2014/aug/29/more-power-to-london-who-could-possibly-disagree", "apiUrl": "https://content.guardianapis.com/uk-news/davehillblog/2014/aug/29/more-power-to-london-who-could-possibly-disagree", "isHosted": false, "pillarId": "pillar/news", "pillarName": "News"}, {"id": "politics/blog/2014/aug/29/politics-live-blog-readers-edition-friday-29-august", "type": "article", "sectionId": "politics", "sectionName": "Politics", "webPublicationDate": "2014-08-29T07:00:01Z", "webTitle": "Politics Live blog - readers\u2019 edition: Friday 29 August", "webUrl": "https://www.theguardian.com/politics/blog/2014/aug/29/politics-live-blog-readers-edition-friday-29-august", "apiUrl": "https://content.guardianapis.com/politics/blog/2014/aug/29/politics-live-blog-readers-edition-friday-29-august", "isHosted": false, "pillarId": "pillar/news", "pillarName": "News"}, {"id": "uk-news/2014/aug/28/rotherham-abuse-south-yorkshire-police-victims-john-mann-shaun-wright", "type": "article", "sectionId": "uk-news", "sectionName": "UK news", "webPublicationDate": "2014-08-29T06:46:00Z", "webTitle": "Rotherham: police spent 'great deal of time' trying to disprove victim abuse", "webUrl": "https://www.theguardian.com/uk-news/2014/aug/28/rotherham-abuse-south-yorkshire-police-victims-john-mann-shaun-wright", "apiUrl": "https://content.guardianapis.com/uk-news/2014/aug/28/rotherham-abuse-south-yorkshire-police-victims-john-mann-shaun-wright", "isHosted": false, "pillarId": "pillar/news", "pillarName": "News"}, {"id": "world/2014/aug/28/ukraine-russia-emergency-un-nato-eu-meetings-invasion-claim", "type": "article", "sectionId": "politics", "sectionName": "Politics", "webPublicationDate": "2014-08-29T06:44:00Z", "webTitle": "Ukraine crisis: emergency Nato, UN and EU meetings after Russian invasion claim", "webUrl": "https://www.theguardian.com/world/2014/aug/28/ukraine-russia-emergency-un-nato-eu-meetings-invasion-claim", "apiUrl": "https://content.guardianapis.com/world/2014/aug/28/ukraine-russia-emergency-un-nato-eu-meetings-invasion-claim", "isHosted": false, "pillarId": "pillar/news", "pillarName": "News"}, {"id": "politics/2014/aug/28/douglas-carswell-ukip-conservatives-byelection", "type": "article", "sectionId": "politics", "sectionName": "Politics", "webPublicationDate": "2014-08-29T06:42:00Z", "webTitle": "Carswell's Ukip defection puts pressure on Cameron", "webUrl": "https://www.theguardian.com/politics/2014/aug/28/douglas-carswell-ukip-conservatives-byelection", "apiUrl": "https://content.guardianapis.com/politics/2014/aug/28/douglas-carswell-ukip-conservatives-byelection", "isHosted": false, "pillarId": "pillar/news", "pillarName": "News"}, {"id": "science/blog/2014/aug/29/libertarian-ideology-natural-enemy-science", "type": "article", "sectionId": "science", "sectionName": "Science", "webPublicationDate": "2014-08-29T06:00:00Z", "webTitle": "Libertarian ideology is the natural enemy of science | David Robert Grimes", "webUrl": "https://www.theguardian.com/science/blog/2014/aug/29/libertarian-ideology-natural-enemy-science", "apiUrl": "https://content.guardianapis.com/science/blog/2014/aug/29/libertarian-ideology-natural-enemy-science", "isHosted": false, "pillarId": "pillar/news", "pillarName": "News"}, {"id": "politics/2014/aug/29/nhs-hospital-meals-quality-hunt", "type": "article", "sectionId": "politics", "sectionName": "Politics", "webPublicationDate": "2014-08-28T23:00:05Z", "webTitle": "Jeremy Hunt tells hospitals they must serve up better and healthier food", "webUrl": "https://www.theguardian.com/politics/2014/aug/29/nhs-hospital-meals-quality-hunt", "apiUrl": "https://content.guardianapis.com/politics/2014/aug/29/nhs-hospital-meals-quality-hunt", "isHosted": false, "pillarId": "pillar/news", "pillarName": "News"}]}}