{"response": {"status": "ok", "userTier": "developer", "total": 86341, "startIndex": 1, "pageSize": 50, "currentPage": 1, "pages": 1727, "orderBy": "newest", "results": [{"id": "football/2011/aug/31/the-knowledge-footballer-names-tv", "type": "article", "sectionId": "football", "sectionName": "Football", "webPublicationDate": "2011-08-30T23:08:00Z", "webTitle": "The Knowledge | Footballers' names used in TV and film", "webUrl": "https://www.theguardian.com/football/2011/aug/31/the-knowledge-footballer-names-tv", "apiUrl": "https://content.guardianapis.com/football/2011/aug/31/the-knowledge-footballer-names-tv", "isHosted": false, "pillarId": "pillar/sport", "pillarName": "Sport"}, {"id": "football/quiz/2011/aug/31/football-quiz-tattoos", "type": "article", "sectionId": "global", "sectionName": "Global", "webPublicationDate": "2011-08-30T23:06:00Z", "webTitle": "Football quiz: Tattoos", "webUrl": "https://www.theguardian.com/football/quiz/2011/aug/31/football-quiz-tattoos", "apiUrl": "https://content.guardianapis.com/football/quiz/2011/aug/31/football-quiz-tattoos", "isHosted": false}, {"id": "football/2011/aug/30/owen-hargreaves-manchester-city", "type": "article", "sectionId": "football", "sectionName": "Football", "webPublicationDate": "2011-08-30T22:00:03Z", "webTitle": "Owen Hargreaves given chance to resurrect career at Manchester City", "webUrl": "https://www.theguardian.com/football/2011/aug/30/owen-hargreaves-manchester-city", "apiUrl": "https://content.guardianapis.com/football/2011/aug/30/owen-hargreaves-manchester-city", "isHosted": false, "pillarId": "pillar/sport", "pillarName": "Sport"}, {"id": "sport/2011/aug/30/stan-kroenke-arsenal", "type": "article", "sectionId": "sport", "sectionName": "Sport", "webPublicationDate": "2011-08-30T22:00:02Z", "webTitle": "Arsenal's Stan Kroenke could be tempted by Alisher Usmanov's millions", "webUrl": "https://www.theguardian.com/sport/2011/aug/30/stan-kroenke-arsenal", "apiUrl": "https://content.guardianapis.com/sport/2011/aug/30/stan-kroenke-arsenal", "isHosted": false, "pillarId": "pillar/sport", "pillarName": "Sport"}, {"id": "football/blog/2011/aug/30/oldham-athletic-rob-smyth", "type": "article", "sectionId": "football", "sectionName": "Football", "webPublicationDate": "2011-08-30T22:00:01Z", "webTitle": "How Oldham Athletic's pinch-me season won over a nation | Rob Smyth", "webUrl": "https://www.theguardian.com/football/blog/2011/aug/30/oldham-athletic-rob-smyth", "apiUrl": "https://content.guardianapis.com/football/blog/2011/aug/30/oldham-athletic-rob-smyth", "isHosted": false, "pillarId": "pillar/sport", "pillarName": "Sport"}, {"id": "football/2011/aug/30/arsene-wenger-mertesacker-arsenal", "type": "article", "sectionId": "football", "sectionName": "Football", "webPublicationDate": "2011-08-30T21:30:00Z", "webTitle": "Ars\u00e8ne Wenger makes leap of faith by bringing Mertesacker to Arsenal", "webUrl": "https://www.theguardian.com/football/2011/aug/30/arsene-wenger-mertesacker-arsenal", "apiUrl": "https://content.guardianapis.com/football/2011/aug/30/arsene-wenger-mertesacker-arsenal", "isHosted": false, "pillarId": "pillar/sport", "pillarName": "Sport"}, {"id": "football/blog/2011/aug/30/wayne-rooney-manchester-united-england", "type": "article", "sectionId": "football", "sectionName": "Football", "webPublicationDate": "2011-08-30T21:30:00Z", "webTitle": "After a year to forget, Wayne Rooney is at his best and smiling again | Dominic Fifield", "webUrl": "https://www.theguardian.com/football/blog/2011/aug/30/wayne-rooney-manchester-united-england", "apiUrl": "https://content.guardianapis.com/football/blog/2011/aug/30/wayne-rooney-manchester-united-england", "isHosted": false, "pillarId": "pillar/sport", "pillarName": "Sport"}, {"id": "football/2011/aug/30/newcastle-manchester-united-federico-macheda", "type": "article", "sectionId": "football", "sectionName": "Football", "webPublicationDate": "2011-08-30T21:25:00Z", "webTitle": "Newcastle turn sights on Manchester United striker Federico Macheda", "webUrl": "https://www.theguardian.com/football/2011/aug/30/newcastle-manchester-united-federico-macheda", "apiUrl": "https://content.guardianapis.com/football/2011/aug/30/newcastle-manchester-united-federico-macheda", "isHosted": false, "pillarId": "pillar/sport", "pillarName": "Sport"}, {"id": "football/2011/aug/30/joleon-lescott-england", "type": "article", "sectionId": "football", "sectionName": "Football", "webPublicationDate": "2011-08-30T21:00:06Z", "webTitle": "Carlos Tevez and friends give Joleon Lescott workout for Bulgaria test", "webUrl": "https://www.theguardian.com/football/2011/aug/30/joleon-lescott-england", "apiUrl": "https://content.guardianapis.com/football/2011/aug/30/joleon-lescott-england", "isHosted": false, "pillarId": "pillar/sport", "pillarName": "Sport"}, {"id": "commentisfree/2011/aug/30/evo-stik-premier-league-grassroots", "type": "article", "sectionId": "commentisfree", "sectionName": "Opinion", "webPublicationDate": "2011-08-30T21:00:00Z", "webTitle": "In the Evo-Stik, fans can still tell a team from a business | John Harris", "webUrl": "https://www.theguardian.com/commentisfree/2011/aug/30/evo-stik-premier-league-grassroots", "apiUrl": "https://content.guardianapis.com/commentisfree/2011/aug/30/evo-stik-premier-league-grassroots", "isHosted": false, "pillarId": "pillar/opinion", "pillarName": "Opinion"}, {"id": "football/2011/aug/30/sunderland-peter-crouch-spurs-deals", "type": "article", "sectionId": "football", "sectionName": "Football", "webPublicationDate": "2011-08-30T20:44:00Z", "webTitle": "Sunderland in for Peter Crouch as Spurs get set for day of deals", "webUrl": "https://www.theguardian.com/football/2011/aug/30/sunderland-peter-crouch-spurs-deals", "apiUrl": "https://content.guardianapis.com/football/2011/aug/30/sunderland-peter-crouch-spurs-deals", "isHosted": false, "pillarId": "pillar/sport", "pillarName": "Sport"}, {"id": "football/2011/aug/30/manchester-united-record-operating-profits", "type": "article", "sectionId": "football", "sectionName": "Football", "webPublicationDate": "2011-08-30T20:27:31Z", "webTitle": "Manchester United set to post record profits before Asia flotation", "webUrl": "https://www.theguardian.com/football/2011/aug/30/manchester-united-record-operating-profits", "apiUrl": "https://content.guardianapis.com/football/2011/aug/30/manchester-united-record-operating-profits", "isHosted": false, "pillarId": "pillar/sport", "pillarName": "Sport"}, {"id": "football/2011/aug/30/joe-cole-liverpool-loan-lille", "type": "article", "sectionId": "football", "sectionName": "Football", "webPublicationDate": "2011-08-30T20:18:29Z", "webTitle": "Joe Cole's unhappy time at Liverpool to end with loan to Lille", "webUrl": "https://www.theguardian.com/football/2011/aug/30/joe-cole-liverpool-loan-lille", "apiUrl": "https://content.guardianapis.com/football/2011/aug/30/joe-cole-liverpool-loan-lille", "isHosted": false, "pillarId": "pillar/sport", "pillarName": "Sport"}, {"id": "football/blog/2011/aug/30/owen-hargreaves-manchester-city", "type": "article", "sectionId": "football", "sectionName": "Football", "webPublicationDate": "2011-08-30T20:06:00Z", "webTitle": "Owen Hargreaves's move is a risk worth taking for Manchester City | Andy Hunter", "webUrl": "https://www.theguardian.com/football/blog/2011/aug/30/owen-hargreaves-manchester-city", "apiUrl": "https://content.guardianapis.com/football/blog/2011/aug/30/owen-hargreaves-manchester-city", "isHosted": false, "pillarId": "pillar/sport", "pillarName": "Sport"}, {"id": "football/blog/2011/aug/30/manchester-united-glazers-singapore-exchange", "type": "article", "sectionId": "football", "sectionName": "Football", "webPublicationDate": "2011-08-30T18:35:42Z", "webTitle": "Manchester United to float on Singapore's exchange | Owen Gibson", "webUrl": "https://www.theguardian.com/football/blog/2011/aug/30/manchester-united-glazers-singapore-exchange", "apiUrl": "https://content.guardianapis.com/football/blog/2011/aug/30/manchester-united-glazers-singapore-exchange", "isHosted": false, "pillarId": "pillar/sport", "pillarName": "Sport"}, {"id": "football/2011/aug/30/rangers-leicester-bid-nikica-jelavic", "type": "article", "sectionId": "football", "sectionName": "Football", "webPublicationDate": "2011-08-30T17:53:43Z", "webTitle": "Rangers reject Leicester City's \u00a36.5m bid for Nikica Jelavic", "webUrl": "https://www.theguardian.com/football/2011/aug/30/rangers-leicester-bid-nikica-jelavic", "apiUrl": "https://content.guardianapis.com/football/2011/aug/30/rangers-leicester-bid-nikica-jelavic", "isHosted": false, "pillarId": "pillar/sport", "pillarName": "Sport"}, {"id": "media/2011/aug/30/talksport-andy-gray-richard-keys", "type": "article", "sectionId": "media", "sectionName": "Media", "webPublicationDate": "2011-08-30T16:02:35Z", "webTitle": "TalkSport's hiring of Andy Gray and Richard Keys hits costs", "webUrl": "https://www.theguardian.com/media/2011/aug/30/talksport-andy-gray-richard-keys", "apiUrl": "https://content.guardianapis.com/media/2011/aug/30/talksport-andy-gray-richard-keys", "isHosted": false, "pillarId": "pillar/news", "pillarName": "News"}, {"id": "football/2011/aug/30/the-fiver-arsenal-grimsby-town", "type": "article", "sectionId": "football", "sectionName": "Football", "webPublicationDate": "2011-08-30T15:14:27Z", "webTitle": "The Fiver | Heady heights; and Grimsby Town | Scott Murray and Barney Ronay", "webUrl": "https://www.theguardian.com/football/2011/aug/30/the-fiver-arsenal-grimsby-town", "apiUrl": "https://content.guardianapis.com/football/2011/aug/30/the-fiver-arsenal-grimsby-town", "isHosted": false, "pillarId": "pillar/sport", "pillarName": "Sport"}, {"id": "uk/2011/aug/30/man-blackmail-coleen-rooney-mobile", "type": "article", "sectionId": "uk-news", "sectionName": "UK news", "webPublicationDate": "2011-08-30T13:23:25Z", "webTitle": "Man admits blackmailing Coleen Rooney over lost mobile", "webUrl": "https://www.theguardian.com/uk/2011/aug/30/man-blackmail-coleen-rooney-mobile", "apiUrl": "https://content.guardianapis.com/uk/2011/aug/30/man-blackmail-coleen-rooney-mobile", "isHosted": false, "pillarId": "pillar/news", "pillarName": "News"}, {"id": "football/blog/2011/aug/30/park-chu-young-wenger-arsenal", "type": "article", "sectionId": "football", "sectionName": "Football", "webPublicationDate": "2011-08-30T12:30:30Z", "webTitle": "Park Chu-young resembles a Wenger player but Arsenal fans may disagree | John Duerden", "webUrl": "https://www.theguardian.com/football/blog/2011/aug/30/park-chu-young-wenger-arsenal", "apiUrl": "https://content.guardianapis.com/football/blog/2011/aug/30/park-chu-young-wenger-arsenal", "isHosted": false, "pillarId": "pillar/sport", "pillarName": "Sport"}, {"id": "commentisfree/video/2011/aug/30/fan-owned-football-clubs-chester-fc-video", "type": "video", "sectionId": "commentisfree", "sectionName": "Opinion", "webPublicationDate": "2011-08-30T11:30:00Z", "webTitle": "Battle of the fan-owned football clubs \u2013 video", "webUrl": "https://www.theguardian.com/commentisfree/video/2011/aug/30/fan-owned-football-clubs-chester-fc-video", "apiUrl": "https://content.guardianapis.com/commentisfree/video/2011/aug/30/fan-owned-football-clubs-chester-fc-video", "isHosted": false, "pillarId": "pillar/opinion", "pillarName": "Opinion"}, {"id": "football/2011/aug/30/arsenal-per-mertesacker-andre-santos", "type": "article", "sectionId": "football", "sectionName": "Football", "webPublicationDate": "2011-08-30T11:08:29Z", "webTitle": "Arsenal on verge of signing defenders Per Mertesacker and Andr\u00e9 Santos", "webUrl": "https://www.theguardian.com/football/2011/aug/30/arsenal-per-mertesacker-andre-santos", "apiUrl": "https://content.guardianapis.com/football/2011/aug/30/arsenal-per-mertesacker-andre-santos", "isHosted": false, "pillarId": "pillar/sport", "pillarName": "Sport"}, {"id": "football/blog/2011/aug/30/youth-crucial-european-success", "type": "article", "sectionId": "football", "sectionName": "Football", "webPublicationDate": "2011-08-30T10:49:39Z", "webTitle": "Youth is crucial to success \u2013 but don't write off experience | Jonathan Wilson", "webUrl": "https://www.theguardian.com/football/blog/2011/aug/30/youth-crucial-european-success", "apiUrl": "https://content.guardianapis.com/football/blog/2011/aug/30/youth-crucial-european-success", "isHosted": false, "pillarId": "pillar/sport", "pillarName": "Sport"}, {"id": "football/2011/aug/30/football-transfer-rumours-arsenal", "type": "article", "sectionId": "football", "sectionName": "Football", "webPublicationDate": "2011-08-30T08:25:00Z", "webTitle": "Football transfer rumours: Wesley Sneijder to Arsenal?", "webUrl": "https://www.theguardian.com/football/2011/aug/30/football-transfer-rumours-arsenal", "apiUrl": "https://content.guardianapis.com/football/2011/aug/30/football-transfer-rumours-arsenal", "isHosted": false, "pillarId": "pillar/sport", "pillarName": "Sport"}, {"id": "football/blog/2011/aug/29/arsenal-money-premier-league", "type": "article", "sectionId": "football", "sectionName": "Football", "webPublicationDate": "2011-08-30T00:08:00Z", "webTitle": "Arsenal find that money talks in battle to keep pace with the jet set | Kevin McCarra", "webUrl": "https://www.theguardian.com/football/blog/2011/aug/29/arsenal-money-premier-league", "apiUrl": "https://content.guardianapis.com/football/blog/2011/aug/29/arsenal-money-premier-league", "isHosted": false, "pillarId": "pillar/sport", "pillarName": "Sport"}, {"id": "football/2011/aug/29/arsene-wenger-arsenal-health", "type": "article", "sectionId": "football", "sectionName": "Football", "webPublicationDate": "2011-08-29T23:47:00Z", "webTitle": "Ars\u00e8ne Wenger is safe, say Arsenal amid fears over manager's health", "webUrl": "https://www.theguardian.com/football/2011/aug/29/arsene-wenger-arsenal-health", "apiUrl": "https://content.guardianapis.com/football/2011/aug/29/arsene-wenger-arsenal-health", "isHosted": false, "pillarId": "pillar/sport", "pillarName": "Sport"}, {"id": "football/blog/2011/aug/29/wayne-rooney-manchester-united-england", "type": "article", "sectionId": "football", "sectionName": "Football", "webPublicationDate": "2011-08-29T23:18:00Z", "webTitle": "Wayne Rooney's revival promises a flourish on the grand stage | Richard Williams", "webUrl": "https://www.theguardian.com/football/blog/2011/aug/29/wayne-rooney-manchester-united-england", "apiUrl": "https://content.guardianapis.com/football/blog/2011/aug/29/wayne-rooney-manchester-united-england", "isHosted": false, "pillarId": "pillar/sport", "pillarName": "Sport"}, {"id": "football/gallery/2011/aug/30/the-gallery-cesc-fabregas", "type": "gallery", "sectionId": "football", "sectionName": "Football", "webPublicationDate": "2011-08-29T23:06:00Z", "webTitle": "The Gallery: Cesc F\u00e1bregas", "webUrl": "https://www.theguardian.com/football/gallery/2011/aug/30/the-gallery-cesc-fabregas", "apiUrl": "https://content.guardianapis.com/football/gallery/2011/aug/30/the-gallery-cesc-fabregas", "isHosted": false, "pillarId": "pillar/sport", "pillarName": "Sport"}, {"id": "football/2011/aug/29/chelsea-liverpool-raul-meireles", "type": "article", "sectionId": "football", "sectionName": "Football", "webPublicationDate": "2011-08-29T22:48:00Z", "webTitle": "Chelsea cash plus player bid for Liverpool's Raul Meireles rejected", "webUrl": "https://www.theguardian.com/football/2011/aug/29/chelsea-liverpool-raul-meireles", "apiUrl": "https://content.guardianapis.com/football/2011/aug/29/chelsea-liverpool-raul-meireles", "isHosted": false, "pillarId": "pillar/sport", "pillarName": "Sport"}, {"id": "global/2011/aug/29/lothar-matthaus-bulgaria-england", "type": "article", "sectionId": "football", "sectionName": "Football", "webPublicationDate": "2011-08-29T22:40:00Z", "webTitle": "Lothar Matth\u00e4us seeks win over England to help end his German exile", "webUrl": "https://www.theguardian.com/global/2011/aug/29/lothar-matthaus-bulgaria-england", "apiUrl": "https://content.guardianapis.com/global/2011/aug/29/lothar-matthaus-bulgaria-england", "isHosted": false, "pillarId": "pillar/sport", "pillarName": "Sport"}, {"id": "football/2011/aug/29/steve-mcclaren-nottingham-forest", "type": "article", "sectionId": "football", "sectionName": "Football", "webPublicationDate": "2011-08-29T21:44:20Z", "webTitle": "Steve McClaren warns of long season ahead unless Nottingham Forest buy", "webUrl": "https://www.theguardian.com/football/2011/aug/29/steve-mcclaren-nottingham-forest", "apiUrl": "https://content.guardianapis.com/football/2011/aug/29/steve-mcclaren-nottingham-forest", "isHosted": false, "pillarId": "pillar/sport", "pillarName": "Sport"}, {"id": "football/blog/2011/aug/29/arsene-wenger-arsenal-transfers", "type": "article", "sectionId": "football", "sectionName": "Football", "webPublicationDate": "2011-08-29T21:04:00Z", "webTitle": "Ars\u00e8ne Wenger safe from sack but only urgent action can save Arsenal | David Hytner", "webUrl": "https://www.theguardian.com/football/blog/2011/aug/29/arsene-wenger-arsenal-transfers", "apiUrl": "https://content.guardianapis.com/football/blog/2011/aug/29/arsene-wenger-arsenal-transfers", "isHosted": false, "pillarId": "pillar/sport", "pillarName": "Sport"}, {"id": "football/2011/aug/29/lothar-matthaus-bulgaria-england", "type": "article", "sectionId": "football", "sectionName": "Football", "webPublicationDate": "2011-08-29T21:01:00Z", "webTitle": "England lack stability under Fabio Capello, says Lothar Matth\u00e4us", "webUrl": "https://www.theguardian.com/football/2011/aug/29/lothar-matthaus-bulgaria-england", "apiUrl": "https://content.guardianapis.com/football/2011/aug/29/lothar-matthaus-bulgaria-england", "isHosted": false, "pillarId": "pillar/sport", "pillarName": "Sport"}, {"id": "football/2011/aug/29/steve-bruce-sunderland", "type": "article", "sectionId": "football", "sectionName": "Football", "webPublicationDate": "2011-08-29T18:44:27Z", "webTitle": "Steve Bruce looking for more fire power up front for Sunderland", "webUrl": "https://www.theguardian.com/football/2011/aug/29/steve-bruce-sunderland", "apiUrl": "https://content.guardianapis.com/football/2011/aug/29/steve-bruce-sunderland", "isHosted": false, "pillarId": "pillar/sport", "pillarName": "Sport"}, {"id": "football/2011/aug/29/newcastle-united-davide-santon", "type": "article", "sectionId": "football", "sectionName": "Football", "webPublicationDate": "2011-08-29T17:34:09Z", "webTitle": "Newcastle close in on Internazionale full-back Davide Santon", "webUrl": "https://www.theguardian.com/football/2011/aug/29/newcastle-united-davide-santon", "apiUrl": "https://content.guardianapis.com/football/2011/aug/29/newcastle-united-davide-santon", "isHosted": false, "pillarId": "pillar/sport", "pillarName": "Sport"}, {"id": "football/2011/aug/29/arsenal-free-tickets-manchester-united", "type": "article", "sectionId": "football", "sectionName": "Football", "webPublicationDate": "2011-08-29T14:53:09Z", "webTitle": "Arsenal offer free tickets to fans after Manchester United humiliation", "webUrl": "https://www.theguardian.com/football/2011/aug/29/arsenal-free-tickets-manchester-united", "apiUrl": "https://content.guardianapis.com/football/2011/aug/29/arsenal-free-tickets-manchester-united", "isHosted": false, "pillarId": "pillar/sport", "pillarName": "Sport"}, {"id": "football/blog/2011/aug/29/alvaro-negredo-malaga-la-liga", "type": "article", "sectionId": "football", "sectionName": "Football", "webPublicationDate": "2011-08-29T13:34:49Z", "webTitle": "Alvaro Negredo makes M\u00e1laga's brave new world feel remarkably familiar | Sid Lowe", "webUrl": "https://www.theguardian.com/football/blog/2011/aug/29/alvaro-negredo-malaga-la-liga", "apiUrl": "https://content.guardianapis.com/football/blog/2011/aug/29/alvaro-negredo-malaga-la-liga", "isHosted": false, "pillarId": "pillar/sport", "pillarName": "Sport"}, {"id": "football/audio/2011/aug/29/football-weekly-podcast-arsenal-manchester-united", "type": "audio", "sectionId": "football", "sectionName": "Football", "webPublicationDate": "2011-08-29T13:23:00Z", "webTitle": "Football Weekly: Sorry Arsenal humiliated by rampant United", "webUrl": "https://www.theguardian.com/football/audio/2011/aug/29/football-weekly-podcast-arsenal-manchester-united", "apiUrl": "https://content.guardianapis.com/football/audio/2011/aug/29/football-weekly-podcast-arsenal-manchester-united", "isHosted": false, "pillarId": "pillar/sport", "pillarName": "Sport"}, {"id": "football/gallery/2011/aug/29/arsenal-transfer-targets", "type": "gallery", "sectionId": "football", "sectionName": "Football", "webPublicationDate": "2011-08-29T12:28:13Z", "webTitle": "Arsenal transfer targets \u2013 in pictures", "webUrl": "https://www.theguardian.com/football/gallery/2011/aug/29/arsenal-transfer-targets", "apiUrl": "https://content.guardianapis.com/football/gallery/2011/aug/29/arsenal-transfer-targets", "isHosted": false, "pillarId": "pillar/sport", "pillarName": "Sport"}, {"id": "football/blog/2011/aug/29/bayer-leverkusen-dortmund-bundesliga", "type": "article", "sectionId": "football", "sectionName": "Football", "webPublicationDate": "2011-08-29T10:10:36Z", "webTitle": "Bayer Leverkusen and Borussia Dortmund draw on English influence | Raphael Honigstein", "webUrl": "https://www.theguardian.com/football/blog/2011/aug/29/bayer-leverkusen-dortmund-bundesliga", "apiUrl": "https://content.guardianapis.com/football/blog/2011/aug/29/bayer-leverkusen-dortmund-bundesliga", "isHosted": false, "pillarId": "pillar/sport", "pillarName": "Sport"}, {"id": "football/blog/2011/aug/29/premier-league-chalkboard-analysis", "type": "article", "sectionId": "football", "sectionName": "Football", "webPublicationDate": "2011-08-29T09:46:12Z", "webTitle": "Premier League chalkboard analysis | Michael Cox", "webUrl": "https://www.theguardian.com/football/blog/2011/aug/29/premier-league-chalkboard-analysis", "apiUrl": "https://content.guardianapis.com/football/blog/2011/aug/29/premier-league-chalkboard-analysis", "isHosted": false, "pillarId": "pillar/sport", "pillarName": "Sport"}, {"id": "football/2011/aug/29/football-transfer-rumours-arsenal-alex", "type": "article", "sectionId": "football", "sectionName": "Football", "webPublicationDate": "2011-08-29T08:26:17Z", "webTitle": "Football transfer rumours: Arsenal to sign Alex from Chelsea?", "webUrl": "https://www.theguardian.com/football/2011/aug/29/football-transfer-rumours-arsenal-alex", "apiUrl": "https://content.guardianapis.com/football/2011/aug/29/football-transfer-rumours-arsenal-alex", "isHosted": false, "pillarId": "pillar/sport", "pillarName": "Sport"}, {"id": "football/blog/2011/aug/29/five-things-learned-premier-league", "type": "article", "sectionId": "football", "sectionName": "Football", "webPublicationDate": "2011-08-29T06:59:01Z", "webTitle": "Five things we learned from the Premier League this weekend | Jacob Steinberg and Ian McCourt", "webUrl": "https://www.theguardian.com/football/blog/2011/aug/29/five-things-learned-premier-league", "apiUrl": "https://content.guardianapis.com/football/blog/2011/aug/29/five-things-learned-premier-league", "isHosted": false, "pillarId": "pillar/sport", "pillarName": "Sport"}, {"id": "sport/blog/2011/aug/29/andre-villas-boas-chelsea-penalty", "type": "article", "sectionId": "sport", "sectionName": "Sport", "webPublicationDate": "2011-08-28T23:23:47Z", "webTitle": "Andr\u00e9 Villas-Boas masters art of post-match put down", "webUrl": "https://www.theguardian.com/sport/blog/2011/aug/29/andre-villas-boas-chelsea-penalty", "apiUrl": "https://content.guardianapis.com/sport/blog/2011/aug/29/andre-villas-boas-chelsea-penalty", "isHosted": false, "pillarId": "pillar/sport", "pillarName": "Sport"}, {"id": "football/2011/aug/28/tika-taka", "type": "article", "sectionId": "football", "sectionName": "Football", "webPublicationDate": "2011-08-28T22:30:00Z", "webTitle": "Tiki-taka: Alan Tate's leg-break adds to gallery of freak injuries", "webUrl": "https://www.theguardian.com/football/2011/aug/28/tika-taka", "apiUrl": "https://content.guardianapis.com/football/2011/aug/28/tika-taka", "isHosted": false, "pillarId": "pillar/sport", "pillarName": "Sport"}, {"id": "football/2011/aug/28/aston-villa-james-collins-houllier", "type": "article", "sectionId": "football", "sectionName": "Football", "webPublicationDate": "2011-08-28T22:01:00Z", "webTitle": "Aston Villa's James Collins admits to personality clash with Houllier", "webUrl": "https://www.theguardian.com/football/2011/aug/28/aston-villa-james-collins-houllier", "apiUrl": "https://content.guardianapis.com/football/2011/aug/28/aston-villa-james-collins-houllier", "isHosted": false, "pillarId": "pillar/sport", "pillarName": "Sport"}, {"id": "football/2011/aug/28/steve-kean-blackburn", "type": "article", "sectionId": "football", "sectionName": "Football", "webPublicationDate": "2011-08-28T22:00:09Z", "webTitle": "Steve Kean blind to the only stat that matters to misfiring Blackburn", "webUrl": "https://www.theguardian.com/football/2011/aug/28/steve-kean-blackburn", "apiUrl": "https://content.guardianapis.com/football/2011/aug/28/steve-kean-blackburn", "isHosted": false, "pillarId": "pillar/sport", "pillarName": "Sport"}, {"id": "football/2011/aug/28/swansea-sunderland-premier-league", "type": "article", "sectionId": "football", "sectionName": "Football", "webPublicationDate": "2011-08-28T22:00:08Z", "webTitle": "Sunderland want Peter Crouch after goalless draw with Swansea City", "webUrl": "https://www.theguardian.com/football/2011/aug/28/swansea-sunderland-premier-league", "apiUrl": "https://content.guardianapis.com/football/2011/aug/28/swansea-sunderland-premier-league", "isHosted": false, "pillarId": "pillar/sport", "pillarName": "Sport"}, {"id": "football/2011/aug/28/chelsea-need-rejuvenation-norwich", "type": "article", "sectionId": "football", "sectionName": "Football", "webPublicationDate": "2011-08-28T22:00:07Z", "webTitle": "Chelsea in need of rejuvenation despite flattering defeat of Norwich", "webUrl": "https://www.theguardian.com/football/2011/aug/28/chelsea-need-rejuvenation-norwich", "apiUrl": "https://content.guardianapis.com/football/2011/aug/28/chelsea-need-rejuvenation-norwich", "isHosted": false, "pillarId": "pillar/sport", "pillarName": "Sport"}, {"id": "football/2011/aug/28/wigan-qpr-neil-warnock-barton-joey", "type": "article", "sectionId": "football", "sectionName": "Football", "webPublicationDate": "2011-08-28T22:00:06Z", "webTitle": "QPR need Joey Barton to deliver after Wigan defeat, says Neil Warnock", "webUrl": "https://www.theguardian.com/football/2011/aug/28/wigan-qpr-neil-warnock-barton-joey", "apiUrl": "https://content.guardianapis.com/football/2011/aug/28/wigan-qpr-neil-warnock-barton-joey", "isHosted": false, "pillarId": "pillar/sport", "pillarName": "Sport"}]}}