{"response": {"status": "ok", "userTier": "developer", "total": 30250, "startIndex": 1, "pageSize": 50, "currentPage": 1, "pages": 605, "orderBy": "newest", "results": [{"id": "environment/2011/aug/30/country-diary-stithians-cornwall", "type": "article", "sectionId": "environment", "sectionName": "Environment", "webPublicationDate": "2011-08-30T22:01:01Z", "webTitle": "Country diary: Stithians, Cornwall", "webUrl": "https://www.theguardian.com/environment/2011/aug/30/country-diary-stithians-cornwall", "apiUrl": "https://content.guardianapis.com/environment/2011/aug/30/country-diary-stithians-cornwall", "isHosted": false, "pillarId": "pillar/news", "pillarName": "News"}, {"id": "world/2011/aug/30/daryl-hannah-arrested-at-white-house", "type": "article", "sectionId": "environment", "sectionName": "Environment", "webPublicationDate": "2011-08-30T20:34:37Z", "webTitle": "Daryl Hannah arrested at protest", "webUrl": "https://www.theguardian.com/world/2011/aug/30/daryl-hannah-arrested-at-white-house", "apiUrl": "https://content.guardianapis.com/world/2011/aug/30/daryl-hannah-arrested-at-white-house", "isHosted": false, "pillarId": "pillar/news", "pillarName": "News"}, {"id": "business/2011/aug/30/exxonmobil-rosneft-deal-transparency", "type": "article", "sectionId": "business", "sectionName": "Business", "webPublicationDate": "2011-08-30T19:28:58Z", "webTitle": "ExxonMobil-Rosneft oil deal unlikely to open the taps of transparency", "webUrl": "https://www.theguardian.com/business/2011/aug/30/exxonmobil-rosneft-deal-transparency", "apiUrl": "https://content.guardianapis.com/business/2011/aug/30/exxonmobil-rosneft-deal-transparency", "isHosted": false, "pillarId": "pillar/news", "pillarName": "News"}, {"id": "business/2011/aug/30/exxon-rosneft-oil-arctic", "type": "article", "sectionId": "business", "sectionName": "Business", "webPublicationDate": "2011-08-30T19:10:00Z", "webTitle": "ExxonMobil clinches Arctic oil deal with Rosneft", "webUrl": "https://www.theguardian.com/business/2011/aug/30/exxon-rosneft-oil-arctic", "apiUrl": "https://content.guardianapis.com/business/2011/aug/30/exxon-rosneft-oil-arctic", "isHosted": false, "pillarId": "pillar/news", "pillarName": "News"}, {"id": "environment/blog/2011/aug/30/wikileaks-reveals-us-hopes-for-environmental-activism-china", "type": "article", "sectionId": "environment", "sectionName": "Environment", "webPublicationDate": "2011-08-30T17:41:00Z", "webTitle": "Wikileaks reveals US hopes for environmental activism in China | Jonathan Watts", "webUrl": "https://www.theguardian.com/environment/blog/2011/aug/30/wikileaks-reveals-us-hopes-for-environmental-activism-china", "apiUrl": "https://content.guardianapis.com/environment/blog/2011/aug/30/wikileaks-reveals-us-hopes-for-environmental-activism-china", "isHosted": false, "pillarId": "pillar/news", "pillarName": "News"}, {"id": "environment/blog/2011/aug/30/rivers-spin-environment-agency", "type": "article", "sectionId": "environment", "sectionName": "Environment", "webPublicationDate": "2011-08-30T15:46:18Z", "webTitle": "How the Environment Agency has spun the news on river quality | John Vidal", "webUrl": "https://www.theguardian.com/environment/blog/2011/aug/30/rivers-spin-environment-agency", "apiUrl": "https://content.guardianapis.com/environment/blog/2011/aug/30/rivers-spin-environment-agency", "isHosted": false, "pillarId": "pillar/news", "pillarName": "News"}, {"id": "environment/damian-carrington-blog/2011/aug/30/nimby-solar-wind-energy", "type": "article", "sectionId": "environment", "sectionName": "Environment", "webPublicationDate": "2011-08-30T15:09:52Z", "webTitle": "The new mutations of renewable energy nimbys | Damian Carrington", "webUrl": "https://www.theguardian.com/environment/damian-carrington-blog/2011/aug/30/nimby-solar-wind-energy", "apiUrl": "https://content.guardianapis.com/environment/damian-carrington-blog/2011/aug/30/nimby-solar-wind-energy", "isHosted": false, "pillarId": "pillar/news", "pillarName": "News"}, {"id": "science/2011/aug/30/firing-laser-beams-atmosphere-rain", "type": "article", "sectionId": "science", "sectionName": "Science", "webPublicationDate": "2011-08-30T15:00:00Z", "webTitle": "Firing laser beams into the sky could make it rain, say scientists", "webUrl": "https://www.theguardian.com/science/2011/aug/30/firing-laser-beams-atmosphere-rain", "apiUrl": "https://content.guardianapis.com/science/2011/aug/30/firing-laser-beams-atmosphere-rain", "isHosted": false, "pillarId": "pillar/news", "pillarName": "News"}, {"id": "environment/damian-carrington-blog/2011/aug/30/climate-change-opinion-skeptic", "type": "article", "sectionId": "environment", "sectionName": "Environment", "webPublicationDate": "2011-08-30T13:18:00Z", "webTitle": "Climate change concern tumbles in US and China | Damian Carrington", "webUrl": "https://www.theguardian.com/environment/damian-carrington-blog/2011/aug/30/climate-change-opinion-skeptic", "apiUrl": "https://content.guardianapis.com/environment/damian-carrington-blog/2011/aug/30/climate-change-opinion-skeptic", "isHosted": false, "pillarId": "pillar/news", "pillarName": "News"}, {"id": "world/video/2011/aug/30/happy-feet-heads-home-antarctica", "type": "video", "sectionId": "world", "sectionName": "World news", "webPublicationDate": "2011-08-30T13:16:00Z", "webTitle": "Happy Feet heads home to Antarctica - video", "webUrl": "https://www.theguardian.com/world/video/2011/aug/30/happy-feet-heads-home-antarctica", "apiUrl": "https://content.guardianapis.com/world/video/2011/aug/30/happy-feet-heads-home-antarctica", "isHosted": false, "pillarId": "pillar/news", "pillarName": "News"}, {"id": "politics/2011/aug/30/planning-reform-undemocratic-green-groups", "type": "article", "sectionId": "politics", "sectionName": "Politics", "webPublicationDate": "2011-08-30T11:02:31Z", "webTitle": "Planning reform will lead to development 'free-for-all'", "webUrl": "https://www.theguardian.com/politics/2011/aug/30/planning-reform-undemocratic-green-groups", "apiUrl": "https://content.guardianapis.com/politics/2011/aug/30/planning-reform-undemocratic-green-groups", "isHosted": false, "pillarId": "pillar/news", "pillarName": "News"}, {"id": "education/mortarboard/2011/aug/30/beekeeping-in-schools", "type": "article", "sectionId": "education", "sectionName": "Education", "webPublicationDate": "2011-08-30T06:30:00Z", "webTitle": "Beekeeping takes flight in primary school", "webUrl": "https://www.theguardian.com/education/mortarboard/2011/aug/30/beekeeping-in-schools", "apiUrl": "https://content.guardianapis.com/education/mortarboard/2011/aug/30/beekeeping-in-schools", "isHosted": false, "pillarId": "pillar/news", "pillarName": "News"}, {"id": "world/2011/aug/29/hurricane-irene-trail-destruction", "type": "article", "sectionId": "us-news", "sectionName": "US news", "webPublicationDate": "2011-08-30T00:42:00Z", "webTitle": "Hurricane Irene leaves US trail of destruction 1,100 miles long", "webUrl": "https://www.theguardian.com/world/2011/aug/29/hurricane-irene-trail-destruction", "apiUrl": "https://content.guardianapis.com/world/2011/aug/29/hurricane-irene-trail-destruction", "isHosted": false, "pillarId": "pillar/news", "pillarName": "News"}, {"id": "environment/2011/aug/30/rivers-healthiest-due-to-pollution-controls", "type": "article", "sectionId": "environment", "sectionName": "Environment", "webPublicationDate": "2011-08-29T23:01:01Z", "webTitle": "Rivers the healthiest in a generation due to stricter pollution controls", "webUrl": "https://www.theguardian.com/environment/2011/aug/30/rivers-healthiest-due-to-pollution-controls", "apiUrl": "https://content.guardianapis.com/environment/2011/aug/30/rivers-healthiest-due-to-pollution-controls", "isHosted": false, "pillarId": "pillar/news", "pillarName": "News"}, {"id": "environment/2011/aug/29/country-diary-roger-redfern-langsett-moor-snailsden", "type": "article", "sectionId": "environment", "sectionName": "Environment", "webPublicationDate": "2011-08-29T21:54:01Z", "webTitle": "Country diary: Langsett", "webUrl": "https://www.theguardian.com/environment/2011/aug/29/country-diary-roger-redfern-langsett-moor-snailsden", "apiUrl": "https://content.guardianapis.com/environment/2011/aug/29/country-diary-roger-redfern-langsett-moor-snailsden", "isHosted": false, "pillarId": "pillar/news", "pillarName": "News"}, {"id": "world/2011/aug/29/us-pakistan-dam-funding", "type": "article", "sectionId": "world", "sectionName": "World news", "webPublicationDate": "2011-08-29T20:05:48Z", "webTitle": "US support for Pakistan dam could help stem flow of bad blood", "webUrl": "https://www.theguardian.com/world/2011/aug/29/us-pakistan-dam-funding", "apiUrl": "https://content.guardianapis.com/world/2011/aug/29/us-pakistan-dam-funding", "isHosted": false, "pillarId": "pillar/news", "pillarName": "News"}, {"id": "politics/2011/aug/29/green-party-100-days-brighton", "type": "article", "sectionId": "politics", "sectionName": "Politics", "webPublicationDate": "2011-08-29T18:30:39Z", "webTitle": "Green party's first 100 days in Brighton: the honeymoon's not over yet", "webUrl": "https://www.theguardian.com/politics/2011/aug/29/green-party-100-days-brighton", "apiUrl": "https://content.guardianapis.com/politics/2011/aug/29/green-party-100-days-brighton", "isHosted": false, "pillarId": "pillar/news", "pillarName": "News"}, {"id": "world/2011/aug/29/divers-war-submarine-disaster", "type": "article", "sectionId": "world", "sectionName": "World news", "webPublicationDate": "2011-08-29T14:40:59Z", "webTitle": "Divers survey Scottish graveyard of first world war submarine disaster", "webUrl": "https://www.theguardian.com/world/2011/aug/29/divers-war-submarine-disaster", "apiUrl": "https://content.guardianapis.com/world/2011/aug/29/divers-war-submarine-disaster", "isHosted": false, "pillarId": "pillar/news", "pillarName": "News"}, {"id": "environment/2011/aug/29/greenpeace-rainbow-warrior-bangladesh-hospital", "type": "article", "sectionId": "environment", "sectionName": "Environment", "webPublicationDate": "2011-08-29T13:33:25Z", "webTitle": "Greenpeace's Rainbow Warrior begins refit as Bangladesh hospital ship", "webUrl": "https://www.theguardian.com/environment/2011/aug/29/greenpeace-rainbow-warrior-bangladesh-hospital", "apiUrl": "https://content.guardianapis.com/environment/2011/aug/29/greenpeace-rainbow-warrior-bangladesh-hospital", "isHosted": false, "pillarId": "pillar/news", "pillarName": "News"}, {"id": "lifeandstyle/video/2011/aug/29/new-nordic-cuisine-food-foraging-video", "type": "video", "sectionId": "food", "sectionName": "Food", "webPublicationDate": "2011-08-29T06:00:00Z", "webTitle": "New Nordic cuisine: the art of food foraging - video", "webUrl": "https://www.theguardian.com/lifeandstyle/video/2011/aug/29/new-nordic-cuisine-food-foraging-video", "apiUrl": "https://content.guardianapis.com/lifeandstyle/video/2011/aug/29/new-nordic-cuisine-food-foraging-video", "isHosted": false, "pillarId": "pillar/lifestyle", "pillarName": "Lifestyle"}, {"id": "science/audio/2011/aug/29/science-weekly-podcast-space-sounds", "type": "audio", "sectionId": "science", "sectionName": "Science", "webPublicationDate": "2011-08-28T23:05:00Z", "webTitle": "Science Weekly podcast: Blogging the brain, and the sounds of space", "webUrl": "https://www.theguardian.com/science/audio/2011/aug/29/science-weekly-podcast-space-sounds", "apiUrl": "https://content.guardianapis.com/science/audio/2011/aug/29/science-weekly-podcast-space-sounds", "isHosted": false, "pillarId": "pillar/news", "pillarName": "News"}, {"id": "environment/2011/aug/28/country-diary-allendale-bats", "type": "article", "sectionId": "environment", "sectionName": "Environment", "webPublicationDate": "2011-08-28T22:01:01Z", "webTitle": "Country diary: Allendale, Northumberland", "webUrl": "https://www.theguardian.com/environment/2011/aug/28/country-diary-allendale-bats", "apiUrl": "https://content.guardianapis.com/environment/2011/aug/28/country-diary-allendale-bats", "isHosted": false, "pillarId": "pillar/news", "pillarName": "News"}, {"id": "news/2011/aug/28/weatherwatch-emmenopterys-henryi", "type": "article", "sectionId": "news", "sectionName": "News", "webPublicationDate": "2011-08-28T22:01:01Z", "webTitle": "Weatherwatch: Emmenopterys henryi blossoms", "webUrl": "https://www.theguardian.com/news/2011/aug/28/weatherwatch-emmenopterys-henryi", "apiUrl": "https://content.guardianapis.com/news/2011/aug/28/weatherwatch-emmenopterys-henryi", "isHosted": false, "pillarId": "pillar/news", "pillarName": "News"}, {"id": "world/2011/aug/28/hurricane-iren-shuts-nuclear-reactor", "type": "article", "sectionId": "us-news", "sectionName": "US news", "webPublicationDate": "2011-08-28T17:49:59Z", "webTitle": "Hurricane Irene shuts down US nuclear reactors", "webUrl": "https://www.theguardian.com/world/2011/aug/28/hurricane-iren-shuts-nuclear-reactor", "apiUrl": "https://content.guardianapis.com/world/2011/aug/28/hurricane-iren-shuts-nuclear-reactor", "isHosted": false, "pillarId": "pillar/news", "pillarName": "News"}, {"id": "world/blog/2011/aug/28/hurricane-irene-natural-disasters", "type": "article", "sectionId": "us-news", "sectionName": "US news", "webPublicationDate": "2011-08-28T15:56:00Z", "webTitle": "Can Hurricane Irene batter Republicans into a U-turn on NOAA cuts?", "webUrl": "https://www.theguardian.com/world/blog/2011/aug/28/hurricane-irene-natural-disasters", "apiUrl": "https://content.guardianapis.com/world/blog/2011/aug/28/hurricane-irene-natural-disasters", "isHosted": false, "pillarId": "pillar/news", "pillarName": "News"}, {"id": "science/punctuated-equilibrium/2011/aug/28/2", "type": "article", "sectionId": "global", "sectionName": "Global", "webPublicationDate": "2011-08-28T11:00:00Z", "webTitle": "Birdbooker Report 185 #books", "webUrl": "https://www.theguardian.com/science/punctuated-equilibrium/2011/aug/28/2", "apiUrl": "https://content.guardianapis.com/science/punctuated-equilibrium/2011/aug/28/2", "isHosted": false}, {"id": "environment/2011/aug/28/ethical-living-plastic-bags-environment", "type": "article", "sectionId": "environment", "sectionName": "Environment", "webPublicationDate": "2011-08-27T23:05:17Z", "webTitle": "The ethical price of groceries", "webUrl": "https://www.theguardian.com/environment/2011/aug/28/ethical-living-plastic-bags-environment", "apiUrl": "https://content.guardianapis.com/environment/2011/aug/28/ethical-living-plastic-bags-environment", "isHosted": false, "pillarId": "pillar/news", "pillarName": "News"}, {"id": "science/2011/aug/28/new-to-nature-daemonosaurus-chauliodus", "type": "article", "sectionId": "science", "sectionName": "Science", "webPublicationDate": "2011-08-27T23:03:01Z", "webTitle": "New to Nature No 52: Daemonosaurus chauliodus", "webUrl": "https://www.theguardian.com/science/2011/aug/28/new-to-nature-daemonosaurus-chauliodus", "apiUrl": "https://content.guardianapis.com/science/2011/aug/28/new-to-nature-daemonosaurus-chauliodus", "isHosted": false, "pillarId": "pillar/news", "pillarName": "News"}, {"id": "politics/2011/aug/27/councils-greenfield-sites-planning-proposals", "type": "article", "sectionId": "politics", "sectionName": "Politics", "webPublicationDate": "2011-08-27T21:16:07Z", "webTitle": "Councils 'to have final say' on greenfield sites under planning proposals", "webUrl": "https://www.theguardian.com/politics/2011/aug/27/councils-greenfield-sites-planning-proposals", "apiUrl": "https://content.guardianapis.com/politics/2011/aug/27/councils-greenfield-sites-planning-proposals", "isHosted": false, "pillarId": "pillar/news", "pillarName": "News"}, {"id": "environment/2011/aug/26/country-diary-cambridgeshire-woodland", "type": "article", "sectionId": "environment", "sectionName": "Environment", "webPublicationDate": "2011-08-26T22:05:01Z", "webTitle": "Country diary: Waresley, Cambridgeshire", "webUrl": "https://www.theguardian.com/environment/2011/aug/26/country-diary-cambridgeshire-woodland", "apiUrl": "https://content.guardianapis.com/environment/2011/aug/26/country-diary-cambridgeshire-woodland", "isHosted": false, "pillarId": "pillar/news", "pillarName": "News"}, {"id": "environment/2011/aug/26/obama-approves-pipeline-alberta-texas", "type": "article", "sectionId": "environment", "sectionName": "Environment", "webPublicationDate": "2011-08-26T21:16:49Z", "webTitle": "Obama administration backs oil pipeline from Alberta to Texas", "webUrl": "https://www.theguardian.com/environment/2011/aug/26/obama-approves-pipeline-alberta-texas", "apiUrl": "https://content.guardianapis.com/environment/2011/aug/26/obama-approves-pipeline-alberta-texas", "isHosted": false, "pillarId": "pillar/news", "pillarName": "News"}, {"id": "environment/2011/aug/26/nuclear-train-dounreay-sellafield-opposition", "type": "article", "sectionId": "environment", "sectionName": "Environment", "webPublicationDate": "2011-08-26T19:18:17Z", "webTitle": "Nuclear train route to Sellafield runs into opposition from local councils", "webUrl": "https://www.theguardian.com/environment/2011/aug/26/nuclear-train-dounreay-sellafield-opposition", "apiUrl": "https://content.guardianapis.com/environment/2011/aug/26/nuclear-train-dounreay-sellafield-opposition", "isHosted": false, "pillarId": "pillar/news", "pillarName": "News"}, {"id": "environment/2011/aug/26/ray-anderson-obituary", "type": "article", "sectionId": "environment", "sectionName": "Environment", "webPublicationDate": "2011-08-26T15:45:44Z", "webTitle": "Ray Anderson obituary", "webUrl": "https://www.theguardian.com/environment/2011/aug/26/ray-anderson-obituary", "apiUrl": "https://content.guardianapis.com/environment/2011/aug/26/ray-anderson-obituary", "isHosted": false, "pillarId": "pillar/news", "pillarName": "News"}, {"id": "environment/gallery/2011/aug/26/wildlife-animals", "type": "gallery", "sectionId": "environment", "sectionName": "Environment", "webPublicationDate": "2011-08-26T15:35:00Z", "webTitle": "The week in wildlife - in pictures", "webUrl": "https://www.theguardian.com/environment/gallery/2011/aug/26/wildlife-animals", "apiUrl": "https://content.guardianapis.com/environment/gallery/2011/aug/26/wildlife-animals", "isHosted": false, "pillarId": "pillar/news", "pillarName": "News"}, {"id": "environment/2011/aug/26/wikileaks-china-dangerous-pollution", "type": "article", "sectionId": "environment", "sectionName": "Environment", "webPublicationDate": "2011-08-26T11:19:50Z", "webTitle": "WikiLeaks reveals China's failure to measure dangerous pollution", "webUrl": "https://www.theguardian.com/environment/2011/aug/26/wikileaks-china-dangerous-pollution", "apiUrl": "https://content.guardianapis.com/environment/2011/aug/26/wikileaks-china-dangerous-pollution", "isHosted": false, "pillarId": "pillar/news", "pillarName": "News"}, {"id": "environment/blog/2011/aug/26/water-conservation-women-shower-shaving", "type": "article", "sectionId": "environment", "sectionName": "Environment", "webPublicationDate": "2011-08-26T10:51:41Z", "webTitle": "Water companies should sort out their leaks before telling women how to shave | Leo Hickman", "webUrl": "https://www.theguardian.com/environment/blog/2011/aug/26/water-conservation-women-shower-shaving", "apiUrl": "https://content.guardianapis.com/environment/blog/2011/aug/26/water-conservation-women-shower-shaving", "isHosted": false, "pillarId": "pillar/news", "pillarName": "News"}, {"id": "environment/2011/aug/26/underground-river-amazon", "type": "article", "sectionId": "environment", "sectionName": "Environment", "webPublicationDate": "2011-08-26T09:44:36Z", "webTitle": "Underground river 'Rio Hamza' discovered 4km beneath the Amazon", "webUrl": "https://www.theguardian.com/environment/2011/aug/26/underground-river-amazon", "apiUrl": "https://content.guardianapis.com/environment/2011/aug/26/underground-river-amazon", "isHosted": false, "pillarId": "pillar/news", "pillarName": "News"}, {"id": "environment/2011/aug/25/country-diary-south-uist-jellyfish", "type": "article", "sectionId": "environment", "sectionName": "Environment", "webPublicationDate": "2011-08-25T22:01:01Z", "webTitle": "Country diary: South Uist", "webUrl": "https://www.theguardian.com/environment/2011/aug/25/country-diary-south-uist-jellyfish", "apiUrl": "https://content.guardianapis.com/environment/2011/aug/25/country-diary-south-uist-jellyfish", "isHosted": false, "pillarId": "pillar/news", "pillarName": "News"}, {"id": "environment/2011/aug/25/us-diplomat-china-tiger-farm", "type": "article", "sectionId": "environment", "sectionName": "Environment", "webPublicationDate": "2011-08-25T16:45:28Z", "webTitle": "US diplomat posed as Korean tourist in undercover visit to China tiger farm", "webUrl": "https://www.theguardian.com/environment/2011/aug/25/us-diplomat-china-tiger-farm", "apiUrl": "https://content.guardianapis.com/environment/2011/aug/25/us-diplomat-china-tiger-farm", "isHosted": false, "pillarId": "pillar/news", "pillarName": "News"}, {"id": "environment/2011/aug/25/new-monkey-species-amazon", "type": "article", "sectionId": "environment", "sectionName": "Environment", "webPublicationDate": "2011-08-25T15:54:13Z", "webTitle": "New monkey species discovered in the Amazon", "webUrl": "https://www.theguardian.com/environment/2011/aug/25/new-monkey-species-amazon", "apiUrl": "https://content.guardianapis.com/environment/2011/aug/25/new-monkey-species-amazon", "isHosted": false, "pillarId": "pillar/news", "pillarName": "News"}, {"id": "environment/2011/aug/25/wikileaks-fears-china-nuclear-safety", "type": "article", "sectionId": "environment", "sectionName": "Environment", "webPublicationDate": "2011-08-25T15:02:44Z", "webTitle": "WikiLeaks cables reveal fears over China's nuclear safety", "webUrl": "https://www.theguardian.com/environment/2011/aug/25/wikileaks-fears-china-nuclear-safety", "apiUrl": "https://content.guardianapis.com/environment/2011/aug/25/wikileaks-fears-china-nuclear-safety", "isHosted": false, "pillarId": "pillar/news", "pillarName": "News"}, {"id": "environment/2011/aug/25/conocophillips-china-oil-spill", "type": "article", "sectionId": "environment", "sectionName": "Environment", "webPublicationDate": "2011-08-25T12:41:43Z", "webTitle": "ConocoPhillips warned that Chinese partner could hinder oil spill clean-up", "webUrl": "https://www.theguardian.com/environment/2011/aug/25/conocophillips-china-oil-spill", "apiUrl": "https://content.guardianapis.com/environment/2011/aug/25/conocophillips-china-oil-spill", "isHosted": false, "pillarId": "pillar/news", "pillarName": "News"}, {"id": "environment/2011/aug/25/sustainability-leaders-security", "type": "article", "sectionId": "environment", "sectionName": "Environment", "webPublicationDate": "2011-08-25T11:50:00Z", "webTitle": "Sustainability will remain a pipe dream until leaders understand 'security'", "webUrl": "https://www.theguardian.com/environment/2011/aug/25/sustainability-leaders-security", "apiUrl": "https://content.guardianapis.com/environment/2011/aug/25/sustainability-leaders-security", "isHosted": false, "pillarId": "pillar/news", "pillarName": "News"}, {"id": "environment/gallery/2011/aug/25/marine-species-gorringe-seamount", "type": "gallery", "sectionId": "environment", "sectionName": "Environment", "webPublicationDate": "2011-08-25T11:35:45Z", "webTitle": "Marine species discovered on Gorringe seamount - in pictures", "webUrl": "https://www.theguardian.com/environment/gallery/2011/aug/25/marine-species-gorringe-seamount", "apiUrl": "https://content.guardianapis.com/environment/gallery/2011/aug/25/marine-species-gorringe-seamount", "isHosted": false, "pillarId": "pillar/news", "pillarName": "News"}, {"id": "environment/2011/aug/25/shell-oil-export-nigeria-pipeline-sabotage", "type": "article", "sectionId": "environment", "sectionName": "Environment", "webPublicationDate": "2011-08-25T10:06:59Z", "webTitle": "Shell's failure to protect Nigeria pipeline 'led to sabotage'", "webUrl": "https://www.theguardian.com/environment/2011/aug/25/shell-oil-export-nigeria-pipeline-sabotage", "apiUrl": "https://content.guardianapis.com/environment/2011/aug/25/shell-oil-export-nigeria-pipeline-sabotage", "isHosted": false, "pillarId": "pillar/news", "pillarName": "News"}, {"id": "science/punctuated-equilibrium/2011/aug/25/1", "type": "article", "sectionId": "global", "sectionName": "Global", "webPublicationDate": "2011-08-25T07:00:00Z", "webTitle": "The great ape program [video]", "webUrl": "https://www.theguardian.com/science/punctuated-equilibrium/2011/aug/25/1", "apiUrl": "https://content.guardianapis.com/science/punctuated-equilibrium/2011/aug/25/1", "isHosted": false}, {"id": "environment/damian-carrington-blog/2011/aug/25/food-price-arab-middle-east-protests", "type": "article", "sectionId": "environment", "sectionName": "Environment", "webPublicationDate": "2011-08-25T06:00:00Z", "webTitle": "Are food prices approaching a violent tipping point? | Damian Carrington", "webUrl": "https://www.theguardian.com/environment/damian-carrington-blog/2011/aug/25/food-price-arab-middle-east-protests", "apiUrl": "https://content.guardianapis.com/environment/damian-carrington-blog/2011/aug/25/food-price-arab-middle-east-protests", "isHosted": false, "pillarId": "pillar/news", "pillarName": "News"}, {"id": "travel/2011/aug/25/watts-tower-los-angeles-sculpture", "type": "article", "sectionId": "travel", "sectionName": "Travel", "webPublicationDate": "2011-08-25T05:00:00Z", "webTitle": "Watts Towers: LA's weird masterpiece", "webUrl": "https://www.theguardian.com/travel/2011/aug/25/watts-tower-los-angeles-sculpture", "apiUrl": "https://content.guardianapis.com/travel/2011/aug/25/watts-tower-los-angeles-sculpture", "isHosted": false, "pillarId": "pillar/lifestyle", "pillarName": "Lifestyle"}, {"id": "uk/2011/aug/25/scottish-deer-farms", "type": "article", "sectionId": "uk-news", "sectionName": "UK news", "webPublicationDate": "2011-08-25T00:37:07Z", "webTitle": "Scots landowners lobby for deer farms", "webUrl": "https://www.theguardian.com/uk/2011/aug/25/scottish-deer-farms", "apiUrl": "https://content.guardianapis.com/uk/2011/aug/25/scottish-deer-farms", "isHosted": false, "pillarId": "pillar/news", "pillarName": "News"}, {"id": "environment/2011/aug/24/country-diary-strathnairn-pine-marten", "type": "article", "sectionId": "environment", "sectionName": "Environment", "webPublicationDate": "2011-08-24T22:05:01Z", "webTitle": "Country Diary: Strathnairn", "webUrl": "https://www.theguardian.com/environment/2011/aug/24/country-diary-strathnairn-pine-marten", "apiUrl": "https://content.guardianapis.com/environment/2011/aug/24/country-diary-strathnairn-pine-marten", "isHosted": false, "pillarId": "pillar/news", "pillarName": "News"}]}}