{"response": {"status": "ok", "userTier": "developer", "total": 20499, "startIndex": 1, "pageSize": 50, "currentPage": 1, "pages": 410, "orderBy": "newest", "results": [{"id": "books/2014/aug/31/under-a-mackerel-sky-rick-stein-review-raw-memoir", "type": "article", "sectionId": "books", "sectionName": "Books", "webPublicationDate": "2014-08-30T23:06:00Z", "webTitle": "Under a Mackerel Sky by Rick Stein review \u2013 raw memoir lays the chef bare", "webUrl": "https://www.theguardian.com/books/2014/aug/31/under-a-mackerel-sky-rick-stein-review-raw-memoir", "apiUrl": "https://content.guardianapis.com/books/2014/aug/31/under-a-mackerel-sky-rick-stein-review-raw-memoir", "isHosted": false, "pillarId": "pillar/arts", "pillarName": "Arts"}, {"id": "theobserver/2014/aug/31/profile-clare-smyth-gordon-ramsay-chef-perfect-ten", "type": "article", "sectionId": "theobserver", "sectionName": "From the Observer", "webPublicationDate": "2014-08-30T23:03:00Z", "webTitle": "Clare Smyth: queen of cuisine steps out of the shadows | profile", "webUrl": "https://www.theguardian.com/theobserver/2014/aug/31/profile-clare-smyth-gordon-ramsay-chef-perfect-ten", "apiUrl": "https://content.guardianapis.com/theobserver/2014/aug/31/profile-clare-smyth-gordon-ramsay-chef-perfect-ten", "isHosted": false, "pillarId": "pillar/news", "pillarName": "News"}, {"id": "lifeandstyle/2014/aug/30/modern-way-to-eat-anna-jones-cookworm-cook-book-review-", "type": "article", "sectionId": "lifeandstyle", "sectionName": "Life and style", "webPublicationDate": "2014-08-30T06:00:05Z", "webTitle": "A Modern Way to Eat, Anna Jones | Cookworm", "webUrl": "https://www.theguardian.com/lifeandstyle/2014/aug/30/modern-way-to-eat-anna-jones-cookworm-cook-book-review-", "apiUrl": "https://content.guardianapis.com/lifeandstyle/2014/aug/30/modern-way-to-eat-anna-jones-cookworm-cook-book-review-", "isHosted": false, "pillarId": "pillar/lifestyle", "pillarName": "Lifestyle"}, {"id": "lifeandstyle/2014/aug/30/biodynamic-farming-behind-the-scenes-fern-verrow-farm-", "type": "article", "sectionId": "lifeandstyle", "sectionName": "Life and style", "webPublicationDate": "2014-08-30T06:00:05Z", "webTitle": "Working on a biodynamic farm | Behind the scenes", "webUrl": "https://www.theguardian.com/lifeandstyle/2014/aug/30/biodynamic-farming-behind-the-scenes-fern-verrow-farm-", "apiUrl": "https://content.guardianapis.com/lifeandstyle/2014/aug/30/biodynamic-farming-behind-the-scenes-fern-verrow-farm-", "isHosted": false, "pillarId": "pillar/lifestyle", "pillarName": "Lifestyle"}, {"id": "lifeandstyle/2014/aug/30/blackpool-holiday-special-song-aunt-dorothys-treat", "type": "article", "sectionId": "lifeandstyle", "sectionName": "Life and style", "webPublicationDate": "2014-08-30T05:16:04Z", "webTitle": "Family life: My Blackpool holiday, Ma\u2019s special song, and Aunt Dorothy\u2019s Treat", "webUrl": "https://www.theguardian.com/lifeandstyle/2014/aug/30/blackpool-holiday-special-song-aunt-dorothys-treat", "apiUrl": "https://content.guardianapis.com/lifeandstyle/2014/aug/30/blackpool-holiday-special-song-aunt-dorothys-treat", "isHosted": false, "pillarId": "pillar/lifestyle", "pillarName": "Lifestyle"}, {"id": "lifeandstyle/2014/aug/30/almond-recipes-tagine-soup-roti-10-best", "type": "article", "sectionId": "food", "sectionName": "Food", "webPublicationDate": "2014-08-30T05:00:04Z", "webTitle": "Our 10 best almond recipes", "webUrl": "https://www.theguardian.com/lifeandstyle/2014/aug/30/almond-recipes-tagine-soup-roti-10-best", "apiUrl": "https://content.guardianapis.com/lifeandstyle/2014/aug/30/almond-recipes-tagine-soup-roti-10-best", "isHosted": false, "pillarId": "pillar/lifestyle", "pillarName": "Lifestyle"}, {"id": "lifeandstyle/2014/aug/30/poached-recipes-pear-salad-oyster-lettuce-readers-recipe-swap", "type": "article", "sectionId": "food", "sectionName": "Food", "webPublicationDate": "2014-08-30T05:00:04Z", "webTitle": "Readers\u2019 recipe swap: Poached | Eve O\u2019Sullivan", "webUrl": "https://www.theguardian.com/lifeandstyle/2014/aug/30/poached-recipes-pear-salad-oyster-lettuce-readers-recipe-swap", "apiUrl": "https://content.guardianapis.com/lifeandstyle/2014/aug/30/poached-recipes-pear-salad-oyster-lettuce-readers-recipe-swap", "isHosted": false, "pillarId": "pillar/lifestyle", "pillarName": "Lifestyle"}, {"id": "lifeandstyle/2014/aug/30/fiona-beckett-austrian-wines", "type": "article", "sectionId": "food", "sectionName": "Food", "webPublicationDate": "2014-08-30T05:00:00Z", "webTitle": "Wine: Austrian bottles from two offbeat sellers", "webUrl": "https://www.theguardian.com/lifeandstyle/2014/aug/30/fiona-beckett-austrian-wines", "apiUrl": "https://content.guardianapis.com/lifeandstyle/2014/aug/30/fiona-beckett-austrian-wines", "isHosted": false, "pillarId": "pillar/lifestyle", "pillarName": "Lifestyle"}, {"id": "lifeandstyle/2014/aug/30/blackberry-recipes-choux-bun-upside-down-cake-baking-ruby-tandoh1", "type": "article", "sectionId": "food", "sectionName": "Food", "webPublicationDate": "2014-08-30T05:00:00Z", "webTitle": "The subtle poetry of baking with blackberries | Ruby bakes", "webUrl": "https://www.theguardian.com/lifeandstyle/2014/aug/30/blackberry-recipes-choux-bun-upside-down-cake-baking-ruby-tandoh1", "apiUrl": "https://content.guardianapis.com/lifeandstyle/2014/aug/30/blackberry-recipes-choux-bun-upside-down-cake-baking-ruby-tandoh1", "isHosted": false, "pillarId": "pillar/lifestyle", "pillarName": "Lifestyle"}, {"id": "commentisfree/2014/aug/30/eating-an-egg-based-brunch-right-now-you-might-want-to-put-your-fork-down", "type": "article", "sectionId": "commentisfree", "sectionName": "Opinion", "webPublicationDate": "2014-08-29T22:45:09Z", "webTitle": "Eating an egg-based brunch right now? You might want to put your fork down | Chris Rodley", "webUrl": "https://www.theguardian.com/commentisfree/2014/aug/30/eating-an-egg-based-brunch-right-now-you-might-want-to-put-your-fork-down", "apiUrl": "https://content.guardianapis.com/commentisfree/2014/aug/30/eating-an-egg-based-brunch-right-now-you-might-want-to-put-your-fork-down", "isHosted": false, "pillarId": "pillar/opinion", "pillarName": "Opinion"}, {"id": "lifeandstyle/2014/aug/29/barrafina-london-wc2-restaurant-review", "type": "article", "sectionId": "lifeandstyle", "sectionName": "Life and style", "webPublicationDate": "2014-08-29T20:00:00Z", "webTitle": "Barrafina, London WC2 \u2013 restaurant review", "webUrl": "https://www.theguardian.com/lifeandstyle/2014/aug/29/barrafina-london-wc2-restaurant-review", "apiUrl": "https://content.guardianapis.com/lifeandstyle/2014/aug/29/barrafina-london-wc2-restaurant-review", "isHosted": false, "pillarId": "pillar/lifestyle", "pillarName": "Lifestyle"}, {"id": "lifeandstyle/2014/aug/29/courgette-recipes-mary-ellen-mctague", "type": "article", "sectionId": "lifeandstyle", "sectionName": "Life and style", "webPublicationDate": "2014-08-29T20:00:00Z", "webTitle": "Cor for courgettes: Mary-Ellen McTague's recipes for how to make the most of courgettes", "webUrl": "https://www.theguardian.com/lifeandstyle/2014/aug/29/courgette-recipes-mary-ellen-mctague", "apiUrl": "https://content.guardianapis.com/lifeandstyle/2014/aug/29/courgette-recipes-mary-ellen-mctague", "isHosted": false, "pillarId": "pillar/lifestyle", "pillarName": "Lifestyle"}, {"id": "lifeandstyle/2014/aug/29/cake-baking-disasters-readers-photos", "type": "article", "sectionId": "food", "sectionName": "Food", "webPublicationDate": "2014-08-29T13:13:03Z", "webTitle": "Baking disasters: share your photos", "webUrl": "https://www.theguardian.com/lifeandstyle/2014/aug/29/cake-baking-disasters-readers-photos", "apiUrl": "https://content.guardianapis.com/lifeandstyle/2014/aug/29/cake-baking-disasters-readers-photos", "isHosted": false, "pillarId": "pillar/lifestyle", "pillarName": "Lifestyle"}, {"id": "lifeandstyle/2014/aug/29/how-to-make-mezze-kids-cooking-recipe-courgette-walnut-yoghurt", "type": "article", "sectionId": "lifeandstyle", "sectionName": "Life and style", "webPublicationDate": "2014-08-29T13:07:55Z", "webTitle": "How to make courgette, walnut and yogurt mezze \u2013 recipe", "webUrl": "https://www.theguardian.com/lifeandstyle/2014/aug/29/how-to-make-mezze-kids-cooking-recipe-courgette-walnut-yoghurt", "apiUrl": "https://content.guardianapis.com/lifeandstyle/2014/aug/29/how-to-make-mezze-kids-cooking-recipe-courgette-walnut-yoghurt", "isHosted": false, "pillarId": "pillar/lifestyle", "pillarName": "Lifestyle"}, {"id": "lifeandstyle/2014/aug/29/drink-in-the-bath-christian-holthausen-relaxation", "type": "article", "sectionId": "food", "sectionName": "Food", "webPublicationDate": "2014-08-29T11:30:07Z", "webTitle": "A drink for self-indulgent moments | Drink aloud", "webUrl": "https://www.theguardian.com/lifeandstyle/2014/aug/29/drink-in-the-bath-christian-holthausen-relaxation", "apiUrl": "https://content.guardianapis.com/lifeandstyle/2014/aug/29/drink-in-the-bath-christian-holthausen-relaxation", "isHosted": false, "pillarId": "pillar/lifestyle", "pillarName": "Lifestyle"}, {"id": "lifeandstyle/2014/aug/29/tom-aiken-last-meal-toms-kitchen", "type": "article", "sectionId": "lifeandstyle", "sectionName": "Life and style", "webPublicationDate": "2014-08-29T11:30:07Z", "webTitle": "Tom Aiken\u2019s final meal | Last bites", "webUrl": "https://www.theguardian.com/lifeandstyle/2014/aug/29/tom-aiken-last-meal-toms-kitchen", "apiUrl": "https://content.guardianapis.com/lifeandstyle/2014/aug/29/tom-aiken-last-meal-toms-kitchen", "isHosted": false, "pillarId": "pillar/lifestyle", "pillarName": "Lifestyle"}, {"id": "lifeandstyle/2014/aug/29/cook-residency-honey-and-co-restaurant-hake-in-matbuha-sauce-recipe-itamar-srulovic", "type": "article", "sectionId": "lifeandstyle", "sectionName": "Life and style", "webPublicationDate": "2014-08-29T11:30:07Z", "webTitle": "Honey and Co: A twist of hake | Cook residency", "webUrl": "https://www.theguardian.com/lifeandstyle/2014/aug/29/cook-residency-honey-and-co-restaurant-hake-in-matbuha-sauce-recipe-itamar-srulovic", "apiUrl": "https://content.guardianapis.com/lifeandstyle/2014/aug/29/cook-residency-honey-and-co-restaurant-hake-in-matbuha-sauce-recipe-itamar-srulovic", "isHosted": false, "pillarId": "pillar/lifestyle", "pillarName": "Lifestyle"}, {"id": "lifeandstyle/2014/aug/29/toasted-bread-salad-recipe-back-to-basics-henry-dimbleby", "type": "article", "sectionId": "lifeandstyle", "sectionName": "Life and style", "webPublicationDate": "2014-08-29T11:29:07Z", "webTitle": "Summery recipes to banish the rainy-day blues | Back to basics", "webUrl": "https://www.theguardian.com/lifeandstyle/2014/aug/29/toasted-bread-salad-recipe-back-to-basics-henry-dimbleby", "apiUrl": "https://content.guardianapis.com/lifeandstyle/2014/aug/29/toasted-bread-salad-recipe-back-to-basics-henry-dimbleby", "isHosted": false, "pillarId": "pillar/lifestyle", "pillarName": "Lifestyle"}, {"id": "lifeandstyle/2014/aug/29/slaughterhouse-crossing-line-between-life-meat", "type": "article", "sectionId": "lifeandstyle", "sectionName": "Life and style", "webPublicationDate": "2014-08-29T09:17:42Z", "webTitle": "My visit to the slaughterhouse: crossing the line between life and meat", "webUrl": "https://www.theguardian.com/lifeandstyle/2014/aug/29/slaughterhouse-crossing-line-between-life-meat", "apiUrl": "https://content.guardianapis.com/lifeandstyle/2014/aug/29/slaughterhouse-crossing-line-between-life-meat", "isHosted": false, "pillarId": "pillar/lifestyle", "pillarName": "Lifestyle"}, {"id": "lifeandstyle/wordofmouth/2014/aug/29/how-to-eat-burritos-fast-food-chicken-beef-guacamole-cheese", "type": "article", "sectionId": "lifeandstyle", "sectionName": "Life and style", "webPublicationDate": "2014-08-29T07:00:00Z", "webTitle": "How to eat: burritos", "webUrl": "https://www.theguardian.com/lifeandstyle/wordofmouth/2014/aug/29/how-to-eat-burritos-fast-food-chicken-beef-guacamole-cheese", "apiUrl": "https://content.guardianapis.com/lifeandstyle/wordofmouth/2014/aug/29/how-to-eat-burritos-fast-food-chicken-beef-guacamole-cheese", "isHosted": false, "pillarId": "pillar/lifestyle", "pillarName": "Lifestyle"}, {"id": "tv-and-radio/2014/aug/28/great-british-bake-off-scandal-unacceptable", "type": "article", "sectionId": "commentisfree", "sectionName": "Opinion", "webPublicationDate": "2014-08-29T06:50:00Z", "webTitle": "Ruby Tandoh on the Great British Bake Off: it's the editors who are 'sort of unacceptable'", "webUrl": "https://www.theguardian.com/tv-and-radio/2014/aug/28/great-british-bake-off-scandal-unacceptable", "apiUrl": "https://content.guardianapis.com/tv-and-radio/2014/aug/28/great-british-bake-off-scandal-unacceptable", "isHosted": false, "pillarId": "pillar/opinion", "pillarName": "Opinion"}, {"id": "sustainable-business/food-blog/2014/aug/29/food-industry-elliot-review-supply-chain-scandal", "type": "article", "sectionId": "sustainable-business", "sectionName": "Guardian Sustainable Business", "webPublicationDate": "2014-08-29T06:00:00Z", "webTitle": "Food industry shouldn\u2019t wait for Elliott Review to make changes", "webUrl": "https://www.theguardian.com/sustainable-business/food-blog/2014/aug/29/food-industry-elliot-review-supply-chain-scandal", "apiUrl": "https://content.guardianapis.com/sustainable-business/food-blog/2014/aug/29/food-industry-elliot-review-supply-chain-scandal", "isHosted": false}, {"id": "tv-and-radio/2014/aug/28/great-british-bake-off-ian-watters-speaks-diana-beard", "type": "article", "sectionId": "tv-and-radio", "sectionName": "Television & radio", "webPublicationDate": "2014-08-28T15:39:20Z", "webTitle": "Great British Bake Off: Iain Watters speaks out as Diana Beard quits", "webUrl": "https://www.theguardian.com/tv-and-radio/2014/aug/28/great-british-bake-off-ian-watters-speaks-diana-beard", "apiUrl": "https://content.guardianapis.com/tv-and-radio/2014/aug/28/great-british-bake-off-ian-watters-speaks-diana-beard", "isHosted": false, "pillarId": "pillar/arts", "pillarName": "Arts"}, {"id": "lifeandstyle/video/2014/aug/28/hake-basque-recipe-video", "type": "video", "sectionId": "lifeandstyle", "sectionName": "Life and style", "webPublicationDate": "2014-08-28T14:15:00Z", "webTitle": "Let them eat hake! A classic Basque recipe \u2013 video", "webUrl": "https://www.theguardian.com/lifeandstyle/video/2014/aug/28/hake-basque-recipe-video", "apiUrl": "https://content.guardianapis.com/lifeandstyle/video/2014/aug/28/hake-basque-recipe-video", "isHosted": false, "pillarId": "pillar/lifestyle", "pillarName": "Lifestyle"}, {"id": "lifeandstyle/2014/aug/28/quick-quiche-recipes-for-your-packed-lunch", "type": "article", "sectionId": "lifeandstyle", "sectionName": "Life and style", "webPublicationDate": "2014-08-28T11:29:15Z", "webTitle": "Quick quiche recipes for your packed lunch | The lunch box", "webUrl": "https://www.theguardian.com/lifeandstyle/2014/aug/28/quick-quiche-recipes-for-your-packed-lunch", "apiUrl": "https://content.guardianapis.com/lifeandstyle/2014/aug/28/quick-quiche-recipes-for-your-packed-lunch", "isHosted": false, "pillarId": "pillar/lifestyle", "pillarName": "Lifestyle"}, {"id": "lifeandstyle/2014/aug/23/meet-the-head-of-cafes-at-crisis", "type": "article", "sectionId": "lifeandstyle", "sectionName": "Life and style", "webPublicationDate": "2014-08-28T09:46:51Z", "webTitle": "Jobs on the menu | Behind the scenes", "webUrl": "https://www.theguardian.com/lifeandstyle/2014/aug/23/meet-the-head-of-cafes-at-crisis", "apiUrl": "https://content.guardianapis.com/lifeandstyle/2014/aug/23/meet-the-head-of-cafes-at-crisis", "isHosted": false, "pillarId": "pillar/lifestyle", "pillarName": "Lifestyle"}, {"id": "lifeandstyle/2014/aug/28/5-of-the-best-fish-cookbooks", "type": "article", "sectionId": "lifeandstyle", "sectionName": "Life and style", "webPublicationDate": "2014-08-28T09:43:39Z", "webTitle": "5 of the best fish cookbooks", "webUrl": "https://www.theguardian.com/lifeandstyle/2014/aug/28/5-of-the-best-fish-cookbooks", "apiUrl": "https://content.guardianapis.com/lifeandstyle/2014/aug/28/5-of-the-best-fish-cookbooks", "isHosted": false, "pillarId": "pillar/lifestyle", "pillarName": "Lifestyle"}, {"id": "lifeandstyle/2014/aug/28/sustainable-fishing-view-down-the-line-head-chefs", "type": "article", "sectionId": "lifeandstyle", "sectionName": "Life and style", "webPublicationDate": "2014-08-28T09:43:29Z", "webTitle": "Sustainable fishing: a view down the line from head chefs", "webUrl": "https://www.theguardian.com/lifeandstyle/2014/aug/28/sustainable-fishing-view-down-the-line-head-chefs", "apiUrl": "https://content.guardianapis.com/lifeandstyle/2014/aug/28/sustainable-fishing-view-down-the-line-head-chefs", "isHosted": false, "pillarId": "pillar/lifestyle", "pillarName": "Lifestyle"}, {"id": "lifeandstyle/wordofmouth/2014/aug/28/homebrewing-hobby-craft-beer-uk", "type": "article", "sectionId": "lifeandstyle", "sectionName": "Life and style", "webPublicationDate": "2014-08-28T08:01:00Z", "webTitle": "Brewing better beer than the pros", "webUrl": "https://www.theguardian.com/lifeandstyle/wordofmouth/2014/aug/28/homebrewing-hobby-craft-beer-uk", "apiUrl": "https://content.guardianapis.com/lifeandstyle/wordofmouth/2014/aug/28/homebrewing-hobby-craft-beer-uk", "isHosted": false, "pillarId": "pillar/lifestyle", "pillarName": "Lifestyle"}, {"id": "lifeandstyle/australia-food-blog/2014/aug/28/seasons-eatings-brussels-sprouts-in-a-winter-vegetable-slaw", "type": "article", "sectionId": "food", "sectionName": "Food", "webPublicationDate": "2014-08-28T02:26:32Z", "webTitle": "Season\u2019s eatings: brussels sprouts in a winter vegetable slaw", "webUrl": "https://www.theguardian.com/lifeandstyle/australia-food-blog/2014/aug/28/seasons-eatings-brussels-sprouts-in-a-winter-vegetable-slaw", "apiUrl": "https://content.guardianapis.com/lifeandstyle/australia-food-blog/2014/aug/28/seasons-eatings-brussels-sprouts-in-a-winter-vegetable-slaw", "isHosted": false, "pillarId": "pillar/lifestyle", "pillarName": "Lifestyle"}, {"id": "tv-and-radio/tvandradioblog/live/2014/aug/27/the-great-british-bake-off-2014-episode-four-as-it-happens", "type": "liveblog", "sectionId": "tv-and-radio", "sectionName": "Television & radio", "webPublicationDate": "2014-08-27T20:02:38Z", "webTitle": "The Great British Bake Off 2014 episode four \u2013 as it happened", "webUrl": "https://www.theguardian.com/tv-and-radio/tvandradioblog/live/2014/aug/27/the-great-british-bake-off-2014-episode-four-as-it-happens", "apiUrl": "https://content.guardianapis.com/tv-and-radio/tvandradioblog/live/2014/aug/27/the-great-british-bake-off-2014-episode-four-as-it-happens", "isHosted": false, "pillarId": "pillar/arts", "pillarName": "Arts"}, {"id": "lifeandstyle/shortcuts/2014/aug/27/supermarket-guilt-lanes-customers-health-aldi-tesco-sainsburys-marks-waitrose", "type": "article", "sectionId": "lifeandstyle", "sectionName": "Life and style", "webPublicationDate": "2014-08-27T17:33:18Z", "webTitle": "Supermarket guilt lanes: who cares the most about their customers' health?", "webUrl": "https://www.theguardian.com/lifeandstyle/shortcuts/2014/aug/27/supermarket-guilt-lanes-customers-health-aldi-tesco-sainsburys-marks-waitrose", "apiUrl": "https://content.guardianapis.com/lifeandstyle/shortcuts/2014/aug/27/supermarket-guilt-lanes-customers-health-aldi-tesco-sainsburys-marks-waitrose", "isHosted": false, "pillarId": "pillar/lifestyle", "pillarName": "Lifestyle"}, {"id": "lifeandstyle/wordofmouth/2014/aug/27/how-to-cook-perfect-oatcakes-recipe", "type": "article", "sectionId": "food", "sectionName": "Food", "webPublicationDate": "2014-08-27T14:35:00Z", "webTitle": "How to cook the perfect oatcakes", "webUrl": "https://www.theguardian.com/lifeandstyle/wordofmouth/2014/aug/27/how-to-cook-perfect-oatcakes-recipe", "apiUrl": "https://content.guardianapis.com/lifeandstyle/wordofmouth/2014/aug/27/how-to-cook-perfect-oatcakes-recipe", "isHosted": false, "pillarId": "pillar/lifestyle", "pillarName": "Lifestyle"}, {"id": "lifeandstyle/wordofmouth/2014/aug/27/best-caramel-ice-cream-taste-test", "type": "article", "sectionId": "food", "sectionName": "Food", "webPublicationDate": "2014-08-27T11:30:00Z", "webTitle": "The best caramel ice-cream: taste test", "webUrl": "https://www.theguardian.com/lifeandstyle/wordofmouth/2014/aug/27/best-caramel-ice-cream-taste-test", "apiUrl": "https://content.guardianapis.com/lifeandstyle/wordofmouth/2014/aug/27/best-caramel-ice-cream-taste-test", "isHosted": false, "pillarId": "pillar/lifestyle", "pillarName": "Lifestyle"}, {"id": "world/2014/aug/26/letter-from-new-york-changing-brooklyn", "type": "article", "sectionId": "world", "sectionName": "World news", "webPublicationDate": "2014-08-26T12:59:20Z", "webTitle": "Letter from the US: new New York", "webUrl": "https://www.theguardian.com/world/2014/aug/26/letter-from-new-york-changing-brooklyn", "apiUrl": "https://content.guardianapis.com/world/2014/aug/26/letter-from-new-york-changing-brooklyn", "isHosted": false, "pillarId": "pillar/news", "pillarName": "News"}, {"id": "lifeandstyle/2014/aug/26/18-recipes-for-leftover-mint", "type": "article", "sectionId": "lifeandstyle", "sectionName": "Life and style", "webPublicationDate": "2014-08-26T12:00:18Z", "webTitle": "18 recipes for leftover mint", "webUrl": "https://www.theguardian.com/lifeandstyle/2014/aug/26/18-recipes-for-leftover-mint", "apiUrl": "https://content.guardianapis.com/lifeandstyle/2014/aug/26/18-recipes-for-leftover-mint", "isHosted": false, "pillarId": "pillar/lifestyle", "pillarName": "Lifestyle"}, {"id": "commentisfree/2014/aug/26/coffee-revolution-pay-more-manifesto", "type": "article", "sectionId": "commentisfree", "sectionName": "Opinion", "webPublicationDate": "2014-08-26T11:15:17Z", "webTitle": "The hipster coffee revolution is going to save your morning and the planet. Are you ready to pay a little more to help? | Chermelle Edwards", "webUrl": "https://www.theguardian.com/commentisfree/2014/aug/26/coffee-revolution-pay-more-manifesto", "apiUrl": "https://content.guardianapis.com/commentisfree/2014/aug/26/coffee-revolution-pay-more-manifesto", "isHosted": false, "pillarId": "pillar/opinion", "pillarName": "Opinion"}, {"id": "lifeandstyle/2014/aug/26/heathly-snacks-recipes-halva-popcorn-cookie-pate-10-best", "type": "article", "sectionId": "lifeandstyle", "sectionName": "Life and style", "webPublicationDate": "2014-08-26T10:44:04Z", "webTitle": "Our 10 best healthy snacks", "webUrl": "https://www.theguardian.com/lifeandstyle/2014/aug/26/heathly-snacks-recipes-halva-popcorn-cookie-pate-10-best", "apiUrl": "https://content.guardianapis.com/lifeandstyle/2014/aug/26/heathly-snacks-recipes-halva-popcorn-cookie-pate-10-best", "isHosted": false, "pillarId": "pillar/lifestyle", "pillarName": "Lifestyle"}, {"id": "lifeandstyle/2014/aug/26/can-supermarkets-ever-be-sustainable", "type": "article", "sectionId": "lifeandstyle", "sectionName": "Life and style", "webPublicationDate": "2014-08-26T08:49:31Z", "webTitle": "Can supermarkets ever be sustainable?", "webUrl": "https://www.theguardian.com/lifeandstyle/2014/aug/26/can-supermarkets-ever-be-sustainable", "apiUrl": "https://content.guardianapis.com/lifeandstyle/2014/aug/26/can-supermarkets-ever-be-sustainable", "isHosted": false, "pillarId": "pillar/lifestyle", "pillarName": "Lifestyle"}, {"id": "lifeandstyle/wordofmouth/2014/aug/26/best-food-markets-around-world", "type": "article", "sectionId": "lifeandstyle", "sectionName": "Life and style", "webPublicationDate": "2014-08-26T06:00:00Z", "webTitle": "The best food markets around the world", "webUrl": "https://www.theguardian.com/lifeandstyle/wordofmouth/2014/aug/26/best-food-markets-around-world", "apiUrl": "https://content.guardianapis.com/lifeandstyle/wordofmouth/2014/aug/26/best-food-markets-around-world", "isHosted": false, "pillarId": "pillar/lifestyle", "pillarName": "Lifestyle"}, {"id": "business/2014/aug/25/olive-oil-prices-rise-andalusia-spain-drought-poor-harvest", "type": "article", "sectionId": "business", "sectionName": "Business", "webPublicationDate": "2014-08-25T15:43:44Z", "webTitle": "Olive oil prices set to rise sharply after Andalusia drought", "webUrl": "https://www.theguardian.com/business/2014/aug/25/olive-oil-prices-rise-andalusia-spain-drought-poor-harvest", "apiUrl": "https://content.guardianapis.com/business/2014/aug/25/olive-oil-prices-rise-andalusia-spain-drought-poor-harvest", "isHosted": false, "pillarId": "pillar/news", "pillarName": "News"}, {"id": "travel/2014/aug/25/europe-best-ice-cream-parlours", "type": "article", "sectionId": "travel", "sectionName": "Travel", "webPublicationDate": "2014-08-25T06:04:05Z", "webTitle": "Europe\u2019s best ice-cream parlours: readers\u2019 travel tips", "webUrl": "https://www.theguardian.com/travel/2014/aug/25/europe-best-ice-cream-parlours", "apiUrl": "https://content.guardianapis.com/travel/2014/aug/25/europe-best-ice-cream-parlours", "isHosted": false, "pillarId": "pillar/lifestyle", "pillarName": "Lifestyle"}, {"id": "lifeandstyle/2014/aug/24/robert-lustig-sugar-poison", "type": "article", "sectionId": "lifeandstyle", "sectionName": "Life and style", "webPublicationDate": "2014-08-24T17:00:00Z", "webTitle": "Robert Lustig: the man who believes sugar is poison", "webUrl": "https://www.theguardian.com/lifeandstyle/2014/aug/24/robert-lustig-sugar-poison", "apiUrl": "https://content.guardianapis.com/lifeandstyle/2014/aug/24/robert-lustig-sugar-poison", "isHosted": false, "pillarId": "pillar/lifestyle", "pillarName": "Lifestyle"}, {"id": "environment/2014/aug/24/britian-summer-harvest-weather", "type": "article", "sectionId": "environment", "sectionName": "Environment", "webPublicationDate": "2014-08-24T16:26:49Z", "webTitle": "From berries to barley \u2013 Britain enjoys a bumper harvest", "webUrl": "https://www.theguardian.com/environment/2014/aug/24/britian-summer-harvest-weather", "apiUrl": "https://content.guardianapis.com/environment/2014/aug/24/britian-summer-harvest-weather", "isHosted": false, "pillarId": "pillar/news", "pillarName": "News"}, {"id": "lifeandstyle/2014/aug/24/central-europe-wines-well-worth-a-try", "type": "article", "sectionId": "food", "sectionName": "Food", "webPublicationDate": "2014-08-24T05:08:22Z", "webTitle": "Central Europe wines well worth a try | David Williams", "webUrl": "https://www.theguardian.com/lifeandstyle/2014/aug/24/central-europe-wines-well-worth-a-try", "apiUrl": "https://content.guardianapis.com/lifeandstyle/2014/aug/24/central-europe-wines-well-worth-a-try", "isHosted": false, "pillarId": "pillar/lifestyle", "pillarName": "Lifestyle"}, {"id": "lifeandstyle/2014/aug/24/the-pompadour-by-galvin-restaurant-review", "type": "article", "sectionId": "food", "sectionName": "Food", "webPublicationDate": "2014-08-24T04:59:22Z", "webTitle": "The Pompadour by Galvin: restaurant review | Jay Rayner", "webUrl": "https://www.theguardian.com/lifeandstyle/2014/aug/24/the-pompadour-by-galvin-restaurant-review", "apiUrl": "https://content.guardianapis.com/lifeandstyle/2014/aug/24/the-pompadour-by-galvin-restaurant-review", "isHosted": false, "pillarId": "pillar/lifestyle", "pillarName": "Lifestyle"}, {"id": "lifeandstyle/2014/aug/23/postwar-wedding-joy-supremes-mums-red-spaghetti", "type": "article", "sectionId": "lifeandstyle", "sectionName": "Life and style", "webPublicationDate": "2014-08-23T05:30:01Z", "webTitle": "Family life: Postwar wedding joy, the Supremes, and Mum's red spaghetti", "webUrl": "https://www.theguardian.com/lifeandstyle/2014/aug/23/postwar-wedding-joy-supremes-mums-red-spaghetti", "apiUrl": "https://content.guardianapis.com/lifeandstyle/2014/aug/23/postwar-wedding-joy-supremes-mums-red-spaghetti", "isHosted": false, "pillarId": "pillar/lifestyle", "pillarName": "Lifestyle"}, {"id": "lifeandstyle/2014/aug/23/midlands-recipes-tom-kerridge-britain-on-a-plate", "type": "article", "sectionId": "food", "sectionName": "Food", "webPublicationDate": "2014-08-23T05:00:08Z", "webTitle": "Food from the Midlands | Britain on a Plate", "webUrl": "https://www.theguardian.com/lifeandstyle/2014/aug/23/midlands-recipes-tom-kerridge-britain-on-a-plate", "apiUrl": "https://content.guardianapis.com/lifeandstyle/2014/aug/23/midlands-recipes-tom-kerridge-britain-on-a-plate", "isHosted": false, "pillarId": "pillar/lifestyle", "pillarName": "Lifestyle"}, {"id": "lifeandstyle/2014/aug/23/ruby-bakes-with-yoghurt", "type": "article", "sectionId": "lifeandstyle", "sectionName": "Life and style", "webPublicationDate": "2014-08-23T05:00:08Z", "webTitle": "Ruby bakes \u2026 with yoghurt | Ruby Tandoh", "webUrl": "https://www.theguardian.com/lifeandstyle/2014/aug/23/ruby-bakes-with-yoghurt", "apiUrl": "https://content.guardianapis.com/lifeandstyle/2014/aug/23/ruby-bakes-with-yoghurt", "isHosted": false, "pillarId": "pillar/lifestyle", "pillarName": "Lifestyle"}, {"id": "lifeandstyle/2014/aug/23/book-of-the-week-the-boat-cookbook-fiona-sims", "type": "article", "sectionId": "lifeandstyle", "sectionName": "Life and style", "webPublicationDate": "2014-08-23T05:00:08Z", "webTitle": "The Boat Cookbook by Fiona Sims | Cookworm", "webUrl": "https://www.theguardian.com/lifeandstyle/2014/aug/23/book-of-the-week-the-boat-cookbook-fiona-sims", "apiUrl": "https://content.guardianapis.com/lifeandstyle/2014/aug/23/book-of-the-week-the-boat-cookbook-fiona-sims", "isHosted": false, "pillarId": "pillar/lifestyle", "pillarName": "Lifestyle"}]}}