{"response": {"status": "ok", "userTier": "developer", "total": 19251, "startIndex": 1, "pageSize": 50, "currentPage": 1, "pages": 386, "orderBy": "newest", "results": [{"id": "lifeandstyle/2013/aug/30/lunchbox-filler-recipes-10-best", "type": "article", "sectionId": "lifeandstyle", "sectionName": "Life and style", "webPublicationDate": "2013-08-30T22:16:38Z", "webTitle": "The 10 best lunchbox fillers", "webUrl": "https://www.theguardian.com/lifeandstyle/2013/aug/30/lunchbox-filler-recipes-10-best", "apiUrl": "https://content.guardianapis.com/lifeandstyle/2013/aug/30/lunchbox-filler-recipes-10-best", "isHosted": false, "pillarId": "pillar/lifestyle", "pillarName": "Lifestyle"}, {"id": "travel/2013/aug/30/chefs-food-restaurant-tour-north-yorkshire", "type": "article", "sectionId": "travel", "sectionName": "Travel", "webPublicationDate": "2013-08-30T20:00:08Z", "webTitle": "A chef's tour of North Yorkshire", "webUrl": "https://www.theguardian.com/travel/2013/aug/30/chefs-food-restaurant-tour-north-yorkshire", "apiUrl": "https://content.guardianapis.com/travel/2013/aug/30/chefs-food-restaurant-tour-north-yorkshire", "isHosted": false, "pillarId": "pillar/lifestyle", "pillarName": "Lifestyle"}, {"id": "travel/2013/aug/30/north-west-manchester-food-restaurant-guide", "type": "article", "sectionId": "travel", "sectionName": "Travel", "webPublicationDate": "2013-08-30T20:00:02Z", "webTitle": "A chef's tour of north-west England", "webUrl": "https://www.theguardian.com/travel/2013/aug/30/north-west-manchester-food-restaurant-guide", "apiUrl": "https://content.guardianapis.com/travel/2013/aug/30/north-west-manchester-food-restaurant-guide", "isHosted": false, "pillarId": "pillar/lifestyle", "pillarName": "Lifestyle"}, {"id": "lifeandstyle/2013/aug/30/fiona-beckett-dessert-wine", "type": "article", "sectionId": "food", "sectionName": "Food", "webPublicationDate": "2013-08-30T20:00:01Z", "webTitle": "Wine: sweet and heat can go together", "webUrl": "https://www.theguardian.com/lifeandstyle/2013/aug/30/fiona-beckett-dessert-wine", "apiUrl": "https://content.guardianapis.com/lifeandstyle/2013/aug/30/fiona-beckett-dessert-wine", "isHosted": false, "pillarId": "pillar/lifestyle", "pillarName": "Lifestyle"}, {"id": "travel/2013/aug/30/florence-knight-soho-london-cafes-restaurants", "type": "article", "sectionId": "travel", "sectionName": "Travel", "webPublicationDate": "2013-08-30T20:00:00Z", "webTitle": "A chef's restaurant tour of Soho, London", "webUrl": "https://www.theguardian.com/travel/2013/aug/30/florence-knight-soho-london-cafes-restaurants", "apiUrl": "https://content.guardianapis.com/travel/2013/aug/30/florence-knight-soho-london-cafes-restaurants", "isHosted": false, "pillarId": "pillar/lifestyle", "pillarName": "Lifestyle"}, {"id": "travel/2013/aug/30/food-restaurant-tour-belfast-northern-ireland", "type": "article", "sectionId": "travel", "sectionName": "Travel", "webPublicationDate": "2013-08-30T20:00:00Z", "webTitle": "A food and restaurant tour of Belfast", "webUrl": "https://www.theguardian.com/travel/2013/aug/30/food-restaurant-tour-belfast-northern-ireland", "apiUrl": "https://content.guardianapis.com/travel/2013/aug/30/food-restaurant-tour-belfast-northern-ireland", "isHosted": false, "pillarId": "pillar/lifestyle", "pillarName": "Lifestyle"}, {"id": "travel/2013/aug/30/food-restaurant-tour-edinburgh-scotland", "type": "article", "sectionId": "travel", "sectionName": "Travel", "webPublicationDate": "2013-08-30T20:00:00Z", "webTitle": "Tom Kitchin, on a chef's tour of Edinburgh \u2026 and Lothian", "webUrl": "https://www.theguardian.com/travel/2013/aug/30/food-restaurant-tour-edinburgh-scotland", "apiUrl": "https://content.guardianapis.com/travel/2013/aug/30/food-restaurant-tour-edinburgh-scotland", "isHosted": false, "pillarId": "pillar/lifestyle", "pillarName": "Lifestyle"}, {"id": "travel/2013/aug/30/chef-mitch-tonks-food-tour-south-west-england", "type": "article", "sectionId": "travel", "sectionName": "Travel", "webPublicationDate": "2013-08-30T20:00:00Z", "webTitle": "Mitch Tonks' food tour of the West Country", "webUrl": "https://www.theguardian.com/travel/2013/aug/30/chef-mitch-tonks-food-tour-south-west-england", "apiUrl": "https://content.guardianapis.com/travel/2013/aug/30/chef-mitch-tonks-food-tour-south-west-england", "isHosted": false, "pillarId": "pillar/lifestyle", "pillarName": "Lifestyle"}, {"id": "commentisfree/2013/aug/30/credit-jamie-oliver-doesnt-understand", "type": "article", "sectionId": "commentisfree", "sectionName": "Opinion", "webPublicationDate": "2013-08-30T18:30:00Z", "webTitle": "Credit to Jamie where it's\u00a0due, but he doesn't understand food poverty | Rhiannon Lucy Cosslett", "webUrl": "https://www.theguardian.com/commentisfree/2013/aug/30/credit-jamie-oliver-doesnt-understand", "apiUrl": "https://content.guardianapis.com/commentisfree/2013/aug/30/credit-jamie-oliver-doesnt-understand", "isHosted": false, "pillarId": "pillar/opinion", "pillarName": "Opinion"}, {"id": "environment/2013/aug/30/british-apple-growers-crop-summer", "type": "article", "sectionId": "environment", "sectionName": "Environment", "webPublicationDate": "2013-08-30T18:04:53Z", "webTitle": "British apple growers hope for sunny September to boost crop", "webUrl": "https://www.theguardian.com/environment/2013/aug/30/british-apple-growers-crop-summer", "apiUrl": "https://content.guardianapis.com/environment/2013/aug/30/british-apple-growers-crop-summer", "isHosted": false, "pillarId": "pillar/news", "pillarName": "News"}, {"id": "lifeandstyle/2013/aug/30/avozilla-world-largest-avocado-sale", "type": "article", "sectionId": "food", "sectionName": "Food", "webPublicationDate": "2013-08-30T15:31:08Z", "webTitle": "Avozilla: world's largest avocado goes on sale", "webUrl": "https://www.theguardian.com/lifeandstyle/2013/aug/30/avozilla-world-largest-avocado-sale", "apiUrl": "https://content.guardianapis.com/lifeandstyle/2013/aug/30/avozilla-world-largest-avocado-sale", "isHosted": false, "pillarId": "pillar/lifestyle", "pillarName": "Lifestyle"}, {"id": "lifeandstyle/2013/aug/30/how-make-halloumi-cheese", "type": "article", "sectionId": "food", "sectionName": "Food", "webPublicationDate": "2013-08-30T13:20:17Z", "webTitle": "How to make your own halloumi cheese", "webUrl": "https://www.theguardian.com/lifeandstyle/2013/aug/30/how-make-halloumi-cheese", "apiUrl": "https://content.guardianapis.com/lifeandstyle/2013/aug/30/how-make-halloumi-cheese", "isHosted": false, "pillarId": "pillar/lifestyle", "pillarName": "Lifestyle"}, {"id": "lifeandstyle/picture/2013/aug/30/avozilla-world-largest-avocado", "type": "picture", "sectionId": "food", "sectionName": "Food", "webPublicationDate": "2013-08-30T11:19:00Z", "webTitle": "Avozilla: the world's largest avocado", "webUrl": "https://www.theguardian.com/lifeandstyle/picture/2013/aug/30/avozilla-world-largest-avocado", "apiUrl": "https://content.guardianapis.com/lifeandstyle/picture/2013/aug/30/avozilla-world-largest-avocado", "isHosted": false, "pillarId": "pillar/lifestyle", "pillarName": "Lifestyle"}, {"id": "lifeandstyle/2013/aug/30/jamie-oliver-my-family-values", "type": "article", "sectionId": "lifeandstyle", "sectionName": "Life and style", "webPublicationDate": "2013-08-30T11:00:04Z", "webTitle": "Jamie Oliver: My family values", "webUrl": "https://www.theguardian.com/lifeandstyle/2013/aug/30/jamie-oliver-my-family-values", "apiUrl": "https://content.guardianapis.com/lifeandstyle/2013/aug/30/jamie-oliver-my-family-values", "isHosted": false, "pillarId": "pillar/lifestyle", "pillarName": "Lifestyle"}, {"id": "society/2013/aug/30/diabetes-fought-fruit-juice", "type": "article", "sectionId": "society", "sectionName": "Society", "webPublicationDate": "2013-08-30T08:51:03Z", "webTitle": "Diabetes best fought with fruit not juice, says study", "webUrl": "https://www.theguardian.com/society/2013/aug/30/diabetes-fought-fruit-juice", "apiUrl": "https://content.guardianapis.com/society/2013/aug/30/diabetes-fought-fruit-juice", "isHosted": false, "pillarId": "pillar/news", "pillarName": "News"}, {"id": "lifeandstyle/2013/aug/30/steamed-whole-fish-vietnamese-recipe", "type": "article", "sectionId": "food", "sectionName": "Food", "webPublicationDate": "2013-08-30T08:30:00Z", "webTitle": "Steamed whole fish with ginger, spring onions and soy recipe", "webUrl": "https://www.theguardian.com/lifeandstyle/2013/aug/30/steamed-whole-fish-vietnamese-recipe", "apiUrl": "https://content.guardianapis.com/lifeandstyle/2013/aug/30/steamed-whole-fish-vietnamese-recipe", "isHosted": false, "pillarId": "pillar/lifestyle", "pillarName": "Lifestyle"}, {"id": "lifeandstyle/gallery/2013/aug/30/beautiful-homewares-simple-things-in-pictures", "type": "gallery", "sectionId": "lifeandstyle", "sectionName": "Life and style", "webPublicationDate": "2013-08-30T06:45:09Z", "webTitle": "Beautiful homewares from The Simple Things \u2013 in pictures", "webUrl": "https://www.theguardian.com/lifeandstyle/gallery/2013/aug/30/beautiful-homewares-simple-things-in-pictures", "apiUrl": "https://content.guardianapis.com/lifeandstyle/gallery/2013/aug/30/beautiful-homewares-simple-things-in-pictures", "isHosted": false, "pillarId": "pillar/lifestyle", "pillarName": "Lifestyle"}, {"id": "lifeandstyle/2013/aug/29/jamie-oliver-healthy-eating-not-simple", "type": "article", "sectionId": "food", "sectionName": "Food", "webPublicationDate": "2013-08-29T20:00:02Z", "webTitle": "Letters: Healthy eating is not so simple, Jamie Oliver", "webUrl": "https://www.theguardian.com/lifeandstyle/2013/aug/29/jamie-oliver-healthy-eating-not-simple", "apiUrl": "https://content.guardianapis.com/lifeandstyle/2013/aug/29/jamie-oliver-healthy-eating-not-simple", "isHosted": false, "pillarId": "pillar/lifestyle", "pillarName": "Lifestyle"}, {"id": "lifeandstyle/2013/aug/29/gazpacho-shooter-drinks-make-your-own", "type": "article", "sectionId": "lifeandstyle", "sectionName": "Life and style", "webPublicationDate": "2013-08-29T14:51:00Z", "webTitle": "Make your own gazpacho shooter", "webUrl": "https://www.theguardian.com/lifeandstyle/2013/aug/29/gazpacho-shooter-drinks-make-your-own", "apiUrl": "https://content.guardianapis.com/lifeandstyle/2013/aug/29/gazpacho-shooter-drinks-make-your-own", "isHosted": false, "pillarId": "pillar/lifestyle", "pillarName": "Lifestyle"}, {"id": "books/2013/aug/29/jamie-oliver-cookbook-libraries-save-with", "type": "article", "sectionId": "books", "sectionName": "Books", "webPublicationDate": "2013-08-29T12:51:52Z", "webTitle": "Jamie Oliver donates his latest cookbook to over 4,000 UK libraries", "webUrl": "https://www.theguardian.com/books/2013/aug/29/jamie-oliver-cookbook-libraries-save-with", "apiUrl": "https://content.guardianapis.com/books/2013/aug/29/jamie-oliver-cookbook-libraries-save-with", "isHosted": false, "pillarId": "pillar/arts", "pillarName": "Arts"}, {"id": "commentisfree/2013/aug/29/pub-traditional-boozer-community-life", "type": "article", "sectionId": "commentisfree", "sectionName": "Opinion", "webPublicationDate": "2013-08-29T11:39:33Z", "webTitle": "Let's hope it's not closing time for the traditional pub | Michael Moran", "webUrl": "https://www.theguardian.com/commentisfree/2013/aug/29/pub-traditional-boozer-community-life", "apiUrl": "https://content.guardianapis.com/commentisfree/2013/aug/29/pub-traditional-boozer-community-life", "isHosted": false, "pillarId": "pillar/opinion", "pillarName": "Opinion"}, {"id": "lifeandstyle/2013/aug/29/squid-pineapple-garlic-recipe", "type": "article", "sectionId": "food", "sectionName": "Food", "webPublicationDate": "2013-08-29T10:10:20Z", "webTitle": "Squid with pineapple and toasted garlic recipe", "webUrl": "https://www.theguardian.com/lifeandstyle/2013/aug/29/squid-pineapple-garlic-recipe", "apiUrl": "https://content.guardianapis.com/lifeandstyle/2013/aug/29/squid-pineapple-garlic-recipe", "isHosted": false, "pillarId": "pillar/lifestyle", "pillarName": "Lifestyle"}, {"id": "lifeandstyle/wordofmouth/2013/aug/29/how-to-cook-perfect-cherry-clafoutis", "type": "article", "sectionId": "food", "sectionName": "Food", "webPublicationDate": "2013-08-29T07:00:00Z", "webTitle": "How to cook the perfect cherry clafoutis", "webUrl": "https://www.theguardian.com/lifeandstyle/wordofmouth/2013/aug/29/how-to-cook-perfect-cherry-clafoutis", "apiUrl": "https://content.guardianapis.com/lifeandstyle/wordofmouth/2013/aug/29/how-to-cook-perfect-cherry-clafoutis", "isHosted": false, "pillarId": "pillar/lifestyle", "pillarName": "Lifestyle"}, {"id": "business/2013/aug/29/shut-british-pubs-drinkers", "type": "article", "sectionId": "business", "sectionName": "Business", "webPublicationDate": "2013-08-28T23:01:03Z", "webTitle": "Doors will shut on 4,000 'complacent' British pubs, warns drinkers' guide", "webUrl": "https://www.theguardian.com/business/2013/aug/29/shut-british-pubs-drinkers", "apiUrl": "https://content.guardianapis.com/business/2013/aug/29/shut-british-pubs-drinkers", "isHosted": false, "pillarId": "pillar/news", "pillarName": "News"}, {"id": "commentisfree/2013/aug/28/in-praise-of-broccoli-editorial", "type": "article", "sectionId": "commentisfree", "sectionName": "Opinion", "webPublicationDate": "2013-08-28T22:27:59Z", "webTitle": "In praise of \u2026 broccoli | Editorial", "webUrl": "https://www.theguardian.com/commentisfree/2013/aug/28/in-praise-of-broccoli-editorial", "apiUrl": "https://content.guardianapis.com/commentisfree/2013/aug/28/in-praise-of-broccoli-editorial", "isHosted": false, "pillarId": "pillar/opinion", "pillarName": "Opinion"}, {"id": "commentisfree/2013/aug/28/pubs-calling-time-closures-editorial", "type": "article", "sectionId": "commentisfree", "sectionName": "Opinion", "webPublicationDate": "2013-08-28T22:17:34Z", "webTitle": "Pubs: calling time | Editorial", "webUrl": "https://www.theguardian.com/commentisfree/2013/aug/28/pubs-calling-time-closures-editorial", "apiUrl": "https://content.guardianapis.com/commentisfree/2013/aug/28/pubs-calling-time-closures-editorial", "isHosted": false, "pillarId": "pillar/opinion", "pillarName": "Opinion"}, {"id": "lifeandstyle/2013/aug/28/cherries-finest-fruits", "type": "article", "sectionId": "food", "sectionName": "Food", "webPublicationDate": "2013-08-28T16:00:00Z", "webTitle": "Cherries: the finest of all fruits?", "webUrl": "https://www.theguardian.com/lifeandstyle/2013/aug/28/cherries-finest-fruits", "apiUrl": "https://content.guardianapis.com/lifeandstyle/2013/aug/28/cherries-finest-fruits", "isHosted": false, "pillarId": "pillar/lifestyle", "pillarName": "Lifestyle"}, {"id": "commentisfree/2013/aug/28/austerity-cooking-jack-monroe-hijacked-moralisers", "type": "article", "sectionId": "commentisfree", "sectionName": "Opinion", "webPublicationDate": "2013-08-28T14:46:43Z", "webTitle": "'Austerity cooking' has been hijacked by the moralisers | Richard Seymour", "webUrl": "https://www.theguardian.com/commentisfree/2013/aug/28/austerity-cooking-jack-monroe-hijacked-moralisers", "apiUrl": "https://content.guardianapis.com/commentisfree/2013/aug/28/austerity-cooking-jack-monroe-hijacked-moralisers", "isHosted": false, "pillarId": "pillar/opinion", "pillarName": "Opinion"}, {"id": "lifeandstyle/shortcuts/2013/aug/28/having-to-pay-tomato-ketchup-racist", "type": "article", "sectionId": "food", "sectionName": "Food", "webPublicationDate": "2013-08-28T14:33:35Z", "webTitle": "Is having to pay for tomato ketchup racist?", "webUrl": "https://www.theguardian.com/lifeandstyle/shortcuts/2013/aug/28/having-to-pay-tomato-ketchup-racist", "apiUrl": "https://content.guardianapis.com/lifeandstyle/shortcuts/2013/aug/28/having-to-pay-tomato-ketchup-racist", "isHosted": false, "pillarId": "pillar/lifestyle", "pillarName": "Lifestyle"}, {"id": "lifeandstyle/2013/aug/28/vietnamese-beef-noodle-soup-recipe", "type": "article", "sectionId": "food", "sectionName": "Food", "webPublicationDate": "2013-08-28T11:16:10Z", "webTitle": "Vietnamese beef noodle soup recipe", "webUrl": "https://www.theguardian.com/lifeandstyle/2013/aug/28/vietnamese-beef-noodle-soup-recipe", "apiUrl": "https://content.guardianapis.com/lifeandstyle/2013/aug/28/vietnamese-beef-noodle-soup-recipe", "isHosted": false, "pillarId": "pillar/lifestyle", "pillarName": "Lifestyle"}, {"id": "lifeandstyle/2013/aug/28/angela-hartnett-bean-fennel-tuna-recipe", "type": "article", "sectionId": "lifeandstyle", "sectionName": "Life and style", "webPublicationDate": "2013-08-28T09:37:36Z", "webTitle": "Angela Hartnett's yellow bean, fennel and tuna salad recipe", "webUrl": "https://www.theguardian.com/lifeandstyle/2013/aug/28/angela-hartnett-bean-fennel-tuna-recipe", "apiUrl": "https://content.guardianapis.com/lifeandstyle/2013/aug/28/angela-hartnett-bean-fennel-tuna-recipe", "isHosted": false, "pillarId": "pillar/lifestyle", "pillarName": "Lifestyle"}, {"id": "lifeandstyle/australia-food-blog/video/2013/aug/28/baking-dan-lepard-cheescake-video", "type": "video", "sectionId": "food", "sectionName": "Food", "webPublicationDate": "2013-08-28T01:31:00Z", "webTitle": "Dan Lepard's Australian Baking Bible: Cheesecake - video", "webUrl": "https://www.theguardian.com/lifeandstyle/australia-food-blog/video/2013/aug/28/baking-dan-lepard-cheescake-video", "apiUrl": "https://content.guardianapis.com/lifeandstyle/australia-food-blog/video/2013/aug/28/baking-dan-lepard-cheescake-video", "isHosted": false, "pillarId": "pillar/lifestyle", "pillarName": "Lifestyle"}, {"id": "lifeandstyle/2013/aug/27/buy-of-the-day", "type": "article", "sectionId": "lifeandstyle", "sectionName": "Life and style", "webPublicationDate": "2013-08-27T14:34:00Z", "webTitle": "Buy of the day", "webUrl": "https://www.theguardian.com/lifeandstyle/2013/aug/27/buy-of-the-day", "apiUrl": "https://content.guardianapis.com/lifeandstyle/2013/aug/27/buy-of-the-day", "isHosted": false, "pillarId": "pillar/lifestyle", "pillarName": "Lifestyle"}, {"id": "commentisfree/2013/aug/27/jamie-oliver-poverty-ready-meals-tv", "type": "article", "sectionId": "commentisfree", "sectionName": "Opinion", "webPublicationDate": "2013-08-27T13:47:56Z", "webTitle": "Jamie Oliver, you haven't tasted real poverty. Cut out the tutting | Alex Andreou", "webUrl": "https://www.theguardian.com/commentisfree/2013/aug/27/jamie-oliver-poverty-ready-meals-tv", "apiUrl": "https://content.guardianapis.com/commentisfree/2013/aug/27/jamie-oliver-poverty-ready-meals-tv", "isHosted": false, "pillarId": "pillar/opinion", "pillarName": "Opinion"}, {"id": "commentisfree/2013/aug/27/the-great-british-bake-off-patisserie", "type": "article", "sectionId": "commentisfree", "sectionName": "Opinion", "webPublicationDate": "2013-08-27T13:02:32Z", "webTitle": "The Great British Bake Off is patisserie minus the beauty, taste, elegance \u2026 | Agn\u00e8s Poirier", "webUrl": "https://www.theguardian.com/commentisfree/2013/aug/27/the-great-british-bake-off-patisserie", "apiUrl": "https://content.guardianapis.com/commentisfree/2013/aug/27/the-great-british-bake-off-patisserie", "isHosted": false, "pillarId": "pillar/opinion", "pillarName": "Opinion"}, {"id": "lifeandstyle/2013/aug/27/vietnamese-lemongrass-chicken-recipe", "type": "article", "sectionId": "food", "sectionName": "Food", "webPublicationDate": "2013-08-27T09:00:00Z", "webTitle": "Vietnamese lemongrass chicken recipe", "webUrl": "https://www.theguardian.com/lifeandstyle/2013/aug/27/vietnamese-lemongrass-chicken-recipe", "apiUrl": "https://content.guardianapis.com/lifeandstyle/2013/aug/27/vietnamese-lemongrass-chicken-recipe", "isHosted": false, "pillarId": "pillar/lifestyle", "pillarName": "Lifestyle"}, {"id": "lifeandstyle/wordofmouth/2013/aug/26/restaurant-pet-hates-ruin-my-appetite", "type": "article", "sectionId": "food", "sectionName": "Food", "webPublicationDate": "2013-08-26T18:00:00Z", "webTitle": "Restaurant pet hates: 11 ways to ruin my appetite | Marina O'Loughlin", "webUrl": "https://www.theguardian.com/lifeandstyle/wordofmouth/2013/aug/26/restaurant-pet-hates-ruin-my-appetite", "apiUrl": "https://content.guardianapis.com/lifeandstyle/wordofmouth/2013/aug/26/restaurant-pet-hates-ruin-my-appetite", "isHosted": false, "pillarId": "pillar/lifestyle", "pillarName": "Lifestyle"}, {"id": "lifeandstyle/2013/aug/26/restaurants-rise-private-equity-buyout", "type": "article", "sectionId": "business", "sectionName": "Business", "webPublicationDate": "2013-08-26T17:10:47Z", "webTitle": "Chain gang: restaurants whose fortunes have risen", "webUrl": "https://www.theguardian.com/lifeandstyle/2013/aug/26/restaurants-rise-private-equity-buyout", "apiUrl": "https://content.guardianapis.com/lifeandstyle/2013/aug/26/restaurants-rise-private-equity-buyout", "isHosted": false, "pillarId": "pillar/news", "pillarName": "News"}, {"id": "lifeandstyle/2013/aug/26/sichuan-cucumber-pickle-recipe", "type": "article", "sectionId": "food", "sectionName": "Food", "webPublicationDate": "2013-08-26T12:25:02Z", "webTitle": "Sichuan cucumber pickle recipe", "webUrl": "https://www.theguardian.com/lifeandstyle/2013/aug/26/sichuan-cucumber-pickle-recipe", "apiUrl": "https://content.guardianapis.com/lifeandstyle/2013/aug/26/sichuan-cucumber-pickle-recipe", "isHosted": false, "pillarId": "pillar/lifestyle", "pillarName": "Lifestyle"}, {"id": "news/datablog/2013/aug/26/sandwich-fillings-data-perfect-number", "type": "article", "sectionId": "news", "sectionName": "News", "webPublicationDate": "2013-08-26T02:15:00Z", "webTitle": "Once more with filling: the secret to a perfect sandwich", "webUrl": "https://www.theguardian.com/news/datablog/2013/aug/26/sandwich-fillings-data-perfect-number", "apiUrl": "https://content.guardianapis.com/news/datablog/2013/aug/26/sandwich-fillings-data-perfect-number", "isHosted": false, "pillarId": "pillar/news", "pillarName": "News"}, {"id": "lifeandstyle/2013/aug/25/whyte-and-brown-restaurant-review", "type": "article", "sectionId": "food", "sectionName": "Food", "webPublicationDate": "2013-08-25T06:30:00Z", "webTitle": "Whyte & Brown: restaurant review", "webUrl": "https://www.theguardian.com/lifeandstyle/2013/aug/25/whyte-and-brown-restaurant-review", "apiUrl": "https://content.guardianapis.com/lifeandstyle/2013/aug/25/whyte-and-brown-restaurant-review", "isHosted": false, "pillarId": "pillar/lifestyle", "pillarName": "Lifestyle"}, {"id": "lifeandstyle/2013/aug/24/david-williams-wines-of-the-week", "type": "article", "sectionId": "food", "sectionName": "Food", "webPublicationDate": "2013-08-24T12:00:01Z", "webTitle": "Three perfect bottles for a barbecue summer", "webUrl": "https://www.theguardian.com/lifeandstyle/2013/aug/24/david-williams-wines-of-the-week", "apiUrl": "https://content.guardianapis.com/lifeandstyle/2013/aug/24/david-williams-wines-of-the-week", "isHosted": false, "pillarId": "pillar/lifestyle", "pillarName": "Lifestyle"}, {"id": "lifeandstyle/2013/aug/24/restaurant-champignon-sauvage-cheltenham", "type": "article", "sectionId": "lifeandstyle", "sectionName": "Life and style", "webPublicationDate": "2013-08-24T08:00:00Z", "webTitle": "Restaurants: Le Champignon Sauvage, Cheltenham", "webUrl": "https://www.theguardian.com/lifeandstyle/2013/aug/24/restaurant-champignon-sauvage-cheltenham", "apiUrl": "https://content.guardianapis.com/lifeandstyle/2013/aug/24/restaurant-champignon-sauvage-cheltenham", "isHosted": false, "pillarId": "pillar/lifestyle", "pillarName": "Lifestyle"}, {"id": "lifeandstyle/2013/aug/24/grandads-meeting-with-lord-mountbatten", "type": "article", "sectionId": "lifeandstyle", "sectionName": "Life and style", "webPublicationDate": "2013-08-24T06:15:01Z", "webTitle": "Family life: My grandad's meeting with Lord Mountbatten, our family's Saturday nights, and a Greek fish dish", "webUrl": "https://www.theguardian.com/lifeandstyle/2013/aug/24/grandads-meeting-with-lord-mountbatten", "apiUrl": "https://content.guardianapis.com/lifeandstyle/2013/aug/24/grandads-meeting-with-lord-mountbatten", "isHosted": false, "pillarId": "pillar/lifestyle", "pillarName": "Lifestyle"}, {"id": "lifeandstyle/2013/aug/24/recipe-swap-smoked-recipes", "type": "article", "sectionId": "lifeandstyle", "sectionName": "Life and style", "webPublicationDate": "2013-08-24T06:01:59Z", "webTitle": "Readers' recipe swap: smoked | Felicity Cloake", "webUrl": "https://www.theguardian.com/lifeandstyle/2013/aug/24/recipe-swap-smoked-recipes", "apiUrl": "https://content.guardianapis.com/lifeandstyle/2013/aug/24/recipe-swap-smoked-recipes", "isHosted": false, "pillarId": "pillar/lifestyle", "pillarName": "Lifestyle"}, {"id": "lifeandstyle/2013/aug/24/caribbean-plantain-curry-nut-free-dairy-free-mustard-free", "type": "article", "sectionId": "lifeandstyle", "sectionName": "Life and style", "webPublicationDate": "2013-08-24T06:00:00Z", "webTitle": "Just as tasty: Caribbean plantain curry free from nuts, dairy and mustard", "webUrl": "https://www.theguardian.com/lifeandstyle/2013/aug/24/caribbean-plantain-curry-nut-free-dairy-free-mustard-free", "apiUrl": "https://content.guardianapis.com/lifeandstyle/2013/aug/24/caribbean-plantain-curry-nut-free-dairy-free-mustard-free", "isHosted": false, "pillarId": "pillar/lifestyle", "pillarName": "Lifestyle"}, {"id": "lifeandstyle/2013/aug/24/lemon-sgroppino-with-sambuca-recipe", "type": "article", "sectionId": "lifeandstyle", "sectionName": "Life and style", "webPublicationDate": "2013-08-24T06:00:00Z", "webTitle": "Lemon sgroppino with sambuca recipe", "webUrl": "https://www.theguardian.com/lifeandstyle/2013/aug/24/lemon-sgroppino-with-sambuca-recipe", "apiUrl": "https://content.guardianapis.com/lifeandstyle/2013/aug/24/lemon-sgroppino-with-sambuca-recipe", "isHosted": false, "pillarId": "pillar/lifestyle", "pillarName": "Lifestyle"}, {"id": "lifeandstyle/2013/aug/24/meet-the-honey-producer", "type": "article", "sectionId": "lifeandstyle", "sectionName": "Life and style", "webPublicationDate": "2013-08-24T06:00:00Z", "webTitle": "Hive flyer: Meet the honey producer", "webUrl": "https://www.theguardian.com/lifeandstyle/2013/aug/24/meet-the-honey-producer", "apiUrl": "https://content.guardianapis.com/lifeandstyle/2013/aug/24/meet-the-honey-producer", "isHosted": false, "pillarId": "pillar/lifestyle", "pillarName": "Lifestyle"}, {"id": "lifeandstyle/2013/aug/24/get-togethers-vegan-brunch", "type": "article", "sectionId": "lifeandstyle", "sectionName": "Life and style", "webPublicationDate": "2013-08-24T06:00:00Z", "webTitle": "A post-race vegan brunch | Get-togethers", "webUrl": "https://www.theguardian.com/lifeandstyle/2013/aug/24/get-togethers-vegan-brunch", "apiUrl": "https://content.guardianapis.com/lifeandstyle/2013/aug/24/get-togethers-vegan-brunch", "isHosted": false, "pillarId": "pillar/lifestyle", "pillarName": "Lifestyle"}, {"id": "lifeandstyle/2013/aug/24/why-plums-are-good-for-you", "type": "article", "sectionId": "lifeandstyle", "sectionName": "Life and style", "webPublicationDate": "2013-08-24T06:00:00Z", "webTitle": "Why plums are good for you", "webUrl": "https://www.theguardian.com/lifeandstyle/2013/aug/24/why-plums-are-good-for-you", "apiUrl": "https://content.guardianapis.com/lifeandstyle/2013/aug/24/why-plums-are-good-for-you", "isHosted": false, "pillarId": "pillar/lifestyle", "pillarName": "Lifestyle"}]}}