{"response": {"status": "ok", "userTier": "developer", "total": 34215, "startIndex": 1, "pageSize": 50, "currentPage": 1, "pages": 685, "orderBy": "newest", "results": [{"id": "environment/2012/oct/01/climate-change-campaigners-threshold-warning", "type": "article", "sectionId": "environment", "sectionName": "Environment", "webPublicationDate": "2012-09-30T23:05:01Z", "webTitle": "Ignoring global warming is 'reckless' of the government, warn campaigners", "webUrl": "https://www.theguardian.com/environment/2012/oct/01/climate-change-campaigners-threshold-warning", "apiUrl": "https://content.guardianapis.com/environment/2012/oct/01/climate-change-campaigners-threshold-warning", "isHosted": false, "pillarId": "pillar/news", "pillarName": "News"}, {"id": "environment/2012/oct/01/50-months-tackle-climate-change", "type": "article", "sectionId": "environment", "sectionName": "Environment", "webPublicationDate": "2012-09-30T23:05:01Z", "webTitle": "Letters: Just 50 months to tackle climate change", "webUrl": "https://www.theguardian.com/environment/2012/oct/01/50-months-tackle-climate-change", "apiUrl": "https://content.guardianapis.com/environment/2012/oct/01/50-months-tackle-climate-change", "isHosted": false, "pillarId": "pillar/news", "pillarName": "News"}, {"id": "environment/2012/oct/01/green-deal-spurned-retailers", "type": "article", "sectionId": "environment", "sectionName": "Environment", "webPublicationDate": "2012-09-30T23:02:00Z", "webTitle": "Government's 'green deal' spurned by major retailers", "webUrl": "https://www.theguardian.com/environment/2012/oct/01/green-deal-spurned-retailers", "apiUrl": "https://content.guardianapis.com/environment/2012/oct/01/green-deal-spurned-retailers", "isHosted": false, "pillarId": "pillar/news", "pillarName": "News"}, {"id": "environment/2012/sep/30/50-months-anna-coote", "type": "article", "sectionId": "environment", "sectionName": "Environment", "webPublicationDate": "2012-09-30T22:55:03Z", "webTitle": "'We need to slow down and think carefully about what matters' | Anna Coote", "webUrl": "https://www.theguardian.com/environment/2012/sep/30/50-months-anna-coote", "apiUrl": "https://content.guardianapis.com/environment/2012/sep/30/50-months-anna-coote", "isHosted": false, "pillarId": "pillar/news", "pillarName": "News"}, {"id": "environment/2012/sep/30/50-months-james-gustave-speth", "type": "article", "sectionId": "environment", "sectionName": "Environment", "webPublicationDate": "2012-09-30T22:55:02Z", "webTitle": "'The world needs a global Tahrir Square' | James Gustave Speth", "webUrl": "https://www.theguardian.com/environment/2012/sep/30/50-months-james-gustave-speth", "apiUrl": "https://content.guardianapis.com/environment/2012/sep/30/50-months-james-gustave-speth", "isHosted": false, "pillarId": "pillar/news", "pillarName": "News"}, {"id": "environment/2012/sep/30/50-months-ed-mayo", "type": "article", "sectionId": "environment", "sectionName": "Environment", "webPublicationDate": "2012-09-30T22:55:01Z", "webTitle": "'Individual ownership is the number one source of inefficiency' | Ed Mayo", "webUrl": "https://www.theguardian.com/environment/2012/sep/30/50-months-ed-mayo", "apiUrl": "https://content.guardianapis.com/environment/2012/sep/30/50-months-ed-mayo", "isHosted": false, "pillarId": "pillar/news", "pillarName": "News"}, {"id": "environment/2012/sep/30/50-months-catherine-howarth", "type": "article", "sectionId": "environment", "sectionName": "Environment", "webPublicationDate": "2012-09-30T22:55:01Z", "webTitle": "'The catalysts for faster change will be pension savers' | Catherine Howarth", "webUrl": "https://www.theguardian.com/environment/2012/sep/30/50-months-catherine-howarth", "apiUrl": "https://content.guardianapis.com/environment/2012/sep/30/50-months-catherine-howarth", "isHosted": false, "pillarId": "pillar/news", "pillarName": "News"}, {"id": "environment/blog/2012/sep/30/50-months-climate-change", "type": "article", "sectionId": "environment", "sectionName": "Environment", "webPublicationDate": "2012-09-30T22:55:00Z", "webTitle": "50 months to avoid climate disaster \u2013 and a change is in the air | Andrew Simms", "webUrl": "https://www.theguardian.com/environment/blog/2012/sep/30/50-months-climate-change", "apiUrl": "https://content.guardianapis.com/environment/blog/2012/sep/30/50-months-climate-change", "isHosted": false, "pillarId": "pillar/news", "pillarName": "News"}, {"id": "environment/2012/sep/30/claxton-norfolk-beautiful-music-birdsong", "type": "article", "sectionId": "environment", "sectionName": "Environment", "webPublicationDate": "2012-09-30T19:59:01Z", "webTitle": "Country diary: Claxton, Norfolk: An evening of extraordinarily beautiful music based on birdsong", "webUrl": "https://www.theguardian.com/environment/2012/sep/30/claxton-norfolk-beautiful-music-birdsong", "apiUrl": "https://content.guardianapis.com/environment/2012/sep/30/claxton-norfolk-beautiful-music-birdsong", "isHosted": false, "pillarId": "pillar/news", "pillarName": "News"}, {"id": "business/2012/sep/30/unions-job-losses-biffa-creditors", "type": "article", "sectionId": "business", "sectionName": "Business", "webPublicationDate": "2012-09-30T18:20:00Z", "webTitle": "Unions fear job losses at private equity-owned Biffa as creditors close in", "webUrl": "https://www.theguardian.com/business/2012/sep/30/unions-job-losses-biffa-creditors", "apiUrl": "https://content.guardianapis.com/business/2012/sep/30/unions-job-losses-biffa-creditors", "isHosted": false, "pillarId": "pillar/news", "pillarName": "News"}, {"id": "business/2012/sep/30/sainsburys-boss-justin-king-green-values", "type": "article", "sectionId": "business", "sectionName": "Business", "webPublicationDate": "2012-09-30T18:07:34Z", "webTitle": "Sainsbury's boss welcomes grilling on green values and ambitions", "webUrl": "https://www.theguardian.com/business/2012/sep/30/sainsburys-boss-justin-king-green-values", "apiUrl": "https://content.guardianapis.com/business/2012/sep/30/sainsburys-boss-justin-king-green-values", "isHosted": false, "pillarId": "pillar/news", "pillarName": "News"}, {"id": "environment/2012/sep/30/crispin-aubrey", "type": "article", "sectionId": "environment", "sectionName": "Environment", "webPublicationDate": "2012-09-30T17:46:00Z", "webTitle": "Crispin Aubrey obituary", "webUrl": "https://www.theguardian.com/environment/2012/sep/30/crispin-aubrey", "apiUrl": "https://content.guardianapis.com/environment/2012/sep/30/crispin-aubrey", "isHosted": false, "pillarId": "pillar/news", "pillarName": "News"}, {"id": "environment/2012/sep/30/fish-shrink-climate-change", "type": "article", "sectionId": "environment", "sectionName": "Environment", "webPublicationDate": "2012-09-30T17:00:00Z", "webTitle": "Fish to shrink by up to a quarter due to climate change, study reveals", "webUrl": "https://www.theguardian.com/environment/2012/sep/30/fish-shrink-climate-change", "apiUrl": "https://content.guardianapis.com/environment/2012/sep/30/fish-shrink-climate-change", "isHosted": false, "pillarId": "pillar/news", "pillarName": "News"}, {"id": "world/2012/sep/30/fortnum-geese-claims-foie-gras", "type": "article", "sectionId": "world", "sectionName": "World news", "webPublicationDate": "2012-09-29T23:05:54Z", "webTitle": "Fortnum's to investigate claims of cruelty made in undercover film at foie gras farms", "webUrl": "https://www.theguardian.com/world/2012/sep/30/fortnum-geese-claims-foie-gras", "apiUrl": "https://content.guardianapis.com/world/2012/sep/30/fortnum-geese-claims-foie-gras", "isHosted": false, "pillarId": "pillar/news", "pillarName": "News"}, {"id": "environment/2012/sep/30/ethical-living-oil-spills-lucy-siegle", "type": "article", "sectionId": "environment", "sectionName": "Environment", "webPublicationDate": "2012-09-29T23:05:18Z", "webTitle": "Ethical living: have we got slicks licked?", "webUrl": "https://www.theguardian.com/environment/2012/sep/30/ethical-living-oil-spills-lucy-siegle", "apiUrl": "https://content.guardianapis.com/environment/2012/sep/30/ethical-living-oil-spills-lucy-siegle", "isHosted": false, "pillarId": "pillar/news", "pillarName": "News"}, {"id": "film/2012/sep/30/isabella-rossellini-bee-movie", "type": "article", "sectionId": "film", "sectionName": "Film", "webPublicationDate": "2012-09-29T23:05:16Z", "webTitle": "Isabella Rossellini: the Bee movie star", "webUrl": "https://www.theguardian.com/film/2012/sep/30/isabella-rossellini-bee-movie", "apiUrl": "https://content.guardianapis.com/film/2012/sep/30/isabella-rossellini-bee-movie", "isHosted": false, "pillarId": "pillar/arts", "pillarName": "Arts"}, {"id": "books/2012/sep/30/blue-horizon-fagan-thirst-mithen", "type": "article", "sectionId": "books", "sectionName": "Books", "webPublicationDate": "2012-09-29T23:05:06Z", "webTitle": "Beyond the Blue Horizon by Brian Fagan; Thirst by Steven Mithen \u2013 review", "webUrl": "https://www.theguardian.com/books/2012/sep/30/blue-horizon-fagan-thirst-mithen", "apiUrl": "https://content.guardianapis.com/books/2012/sep/30/blue-horizon-fagan-thirst-mithen", "isHosted": false, "pillarId": "pillar/arts", "pillarName": "Arts"}, {"id": "environment/2012/sep/30/ice-age-human-survival-alice-roberts", "type": "article", "sectionId": "environment", "sectionName": "Environment", "webPublicationDate": "2012-09-29T23:05:01Z", "webTitle": "Humans may notice a chill in the air", "webUrl": "https://www.theguardian.com/environment/2012/sep/30/ice-age-human-survival-alice-roberts", "apiUrl": "https://content.guardianapis.com/environment/2012/sep/30/ice-age-human-survival-alice-roberts", "isHosted": false, "pillarId": "pillar/news", "pillarName": "News"}, {"id": "commentisfree/2012/sep/30/observer-editorial-renewable-energy-good", "type": "article", "sectionId": "commentisfree", "sectionName": "Opinion", "webPublicationDate": "2012-09-29T23:04:40Z", "webTitle": "Renewable energy: the chancellor is misguided to back a new dash for gas | Observer editorial", "webUrl": "https://www.theguardian.com/commentisfree/2012/sep/30/observer-editorial-renewable-energy-good", "apiUrl": "https://content.guardianapis.com/commentisfree/2012/sep/30/observer-editorial-renewable-energy-good", "isHosted": false, "pillarId": "pillar/opinion", "pillarName": "Opinion"}, {"id": "science/2012/sep/30/discus-rupivagus-canary-island-snail", "type": "article", "sectionId": "science", "sectionName": "Science", "webPublicationDate": "2012-09-29T23:02:04Z", "webTitle": "New to Nature No 86: Discus rupivagus", "webUrl": "https://www.theguardian.com/science/2012/sep/30/discus-rupivagus-canary-island-snail", "apiUrl": "https://content.guardianapis.com/science/2012/sep/30/discus-rupivagus-canary-island-snail", "isHosted": false, "pillarId": "pillar/news", "pillarName": "News"}, {"id": "environment/2012/sep/30/badger-cull-bovine-tb-farmers", "type": "article", "sectionId": "environment", "sectionName": "Environment", "webPublicationDate": "2012-09-29T19:39:46Z", "webTitle": "Tempers rising over badger cull as farmers confront activists", "webUrl": "https://www.theguardian.com/environment/2012/sep/30/badger-cull-bovine-tb-farmers", "apiUrl": "https://content.guardianapis.com/environment/2012/sep/30/badger-cull-bovine-tb-farmers", "isHosted": false, "pillarId": "pillar/news", "pillarName": "News"}, {"id": "world/2012/sep/29/flash-floods-spain-torrential-rain", "type": "article", "sectionId": "world", "sectionName": "World news", "webPublicationDate": "2012-09-29T19:31:02Z", "webTitle": "Flash floods kill 10 in Spain as torrential rain causes havoc", "webUrl": "https://www.theguardian.com/world/2012/sep/29/flash-floods-spain-torrential-rain", "apiUrl": "https://content.guardianapis.com/world/2012/sep/29/flash-floods-spain-torrential-rain", "isHosted": false, "pillarId": "pillar/news", "pillarName": "News"}, {"id": "environment/2012/sep/29/axing-british-antarctic-survey-juniper", "type": "article", "sectionId": "environment", "sectionName": "Environment", "webPublicationDate": "2012-09-29T19:00:13Z", "webTitle": "'Axing the British Antarctic Survey would mean the end of Scott's legacy'", "webUrl": "https://www.theguardian.com/environment/2012/sep/29/axing-british-antarctic-survey-juniper", "apiUrl": "https://content.guardianapis.com/environment/2012/sep/29/axing-british-antarctic-survey-juniper", "isHosted": false, "pillarId": "pillar/news", "pillarName": "News"}, {"id": "world/2012/sep/29/british-antarctic-survey-cuts-merger", "type": "article", "sectionId": "world", "sectionName": "World news", "webPublicationDate": "2012-09-29T19:00:06Z", "webTitle": "Cuts threat to UK Antarctic research on climate change", "webUrl": "https://www.theguardian.com/world/2012/sep/29/british-antarctic-survey-cuts-merger", "apiUrl": "https://content.guardianapis.com/world/2012/sep/29/british-antarctic-survey-cuts-merger", "isHosted": false, "pillarId": "pillar/news", "pillarName": "News"}, {"id": "world/2012/sep/29/antarctic-base-ozone-government-cuts", "type": "article", "sectionId": "world", "sectionName": "World news", "webPublicationDate": "2012-09-29T19:00:03Z", "webTitle": "Antarctic research at risk as government cuts back on science", "webUrl": "https://www.theguardian.com/world/2012/sep/29/antarctic-base-ozone-government-cuts", "apiUrl": "https://content.guardianapis.com/world/2012/sep/29/antarctic-base-ozone-government-cuts", "isHosted": false, "pillarId": "pillar/news", "pillarName": "News"}, {"id": "environment/2012/sep/29/us-polar-bear-researcher-cleared", "type": "article", "sectionId": "environment", "sectionName": "Environment", "webPublicationDate": "2012-09-29T13:55:28Z", "webTitle": "US polar bear researcher Charles Monnett cleared of scientific misconduct", "webUrl": "https://www.theguardian.com/environment/2012/sep/29/us-polar-bear-researcher-cleared", "apiUrl": "https://content.guardianapis.com/environment/2012/sep/29/us-polar-bear-researcher-cleared", "isHosted": false, "pillarId": "pillar/news", "pillarName": "News"}, {"id": "theguardian/2012/sep/29/brian-may-me-and-animal-passions", "type": "article", "sectionId": "theguardian", "sectionName": "From the Guardian", "webPublicationDate": "2012-09-28T23:06:00Z", "webTitle": "Brian May: Me and my animal passions", "webUrl": "https://www.theguardian.com/theguardian/2012/sep/29/brian-may-me-and-animal-passions", "apiUrl": "https://content.guardianapis.com/theguardian/2012/sep/29/brian-may-me-and-animal-passions", "isHosted": false, "pillarId": "pillar/news", "pillarName": "News"}, {"id": "money/2012/sep/28/green-deal-insulate-home-rising-energy-bills", "type": "article", "sectionId": "money", "sectionName": "Money", "webPublicationDate": "2012-09-28T22:02:16Z", "webTitle": "Fuel bills: Green Deal insulates your home, you pay through what you save", "webUrl": "https://www.theguardian.com/money/2012/sep/28/green-deal-insulate-home-rising-energy-bills", "apiUrl": "https://content.guardianapis.com/money/2012/sep/28/green-deal-insulate-home-rising-energy-bills", "isHosted": false, "pillarId": "pillar/lifestyle", "pillarName": "Lifestyle"}, {"id": "money/2012/sep/28/green-deal-too-complicated-saving-energy", "type": "article", "sectionId": "money", "sectionName": "Money", "webPublicationDate": "2012-09-28T22:01:52Z", "webTitle": "Green deal is too complicated for saving energy", "webUrl": "https://www.theguardian.com/money/2012/sep/28/green-deal-too-complicated-saving-energy", "apiUrl": "https://content.guardianapis.com/money/2012/sep/28/green-deal-too-complicated-saving-energy", "isHosted": false, "pillarId": "pillar/lifestyle", "pillarName": "Lifestyle"}, {"id": "environment/2012/sep/28/obama-blocks-chinese-firm-wind-farm", "type": "article", "sectionId": "environment", "sectionName": "Environment", "webPublicationDate": "2012-09-28T21:11:34Z", "webTitle": "Obama blocks Chinese firm's purchase of four US wind farms", "webUrl": "https://www.theguardian.com/environment/2012/sep/28/obama-blocks-chinese-firm-wind-farm", "apiUrl": "https://content.guardianapis.com/environment/2012/sep/28/obama-blocks-chinese-firm-wind-farm", "isHosted": false, "pillarId": "pillar/news", "pillarName": "News"}, {"id": "commentisfree/2012/sep/28/end-flooding-misery-new-deal-north", "type": "article", "sectionId": "commentisfree", "sectionName": "Opinion", "webPublicationDate": "2012-09-28T21:00:01Z", "webTitle": "End the flooding misery cycle with a new deal for the north | Martin Wainwright", "webUrl": "https://www.theguardian.com/commentisfree/2012/sep/28/end-flooding-misery-new-deal-north", "apiUrl": "https://content.guardianapis.com/commentisfree/2012/sep/28/end-flooding-misery-new-deal-north", "isHosted": false, "pillarId": "pillar/opinion", "pillarName": "Opinion"}, {"id": "world/2012/sep/28/roads-protest-twyford-down", "type": "article", "sectionId": "world", "sectionName": "World news", "webPublicationDate": "2012-09-28T20:00:04Z", "webTitle": "Letters: Roads protest", "webUrl": "https://www.theguardian.com/world/2012/sep/28/roads-protest-twyford-down", "apiUrl": "https://content.guardianapis.com/world/2012/sep/28/roads-protest-twyford-down", "isHosted": false, "pillarId": "pillar/news", "pillarName": "News"}, {"id": "environment/2012/sep/28/pignall-new-forest-hard-work-winter", "type": "article", "sectionId": "environment", "sectionName": "Environment", "webPublicationDate": "2012-09-28T20:00:02Z", "webTitle": "Country diary: Pignall, New Forest: The forest is hard at work, preparing for the coming winter", "webUrl": "https://www.theguardian.com/environment/2012/sep/28/pignall-new-forest-hard-work-winter", "apiUrl": "https://content.guardianapis.com/environment/2012/sep/28/pignall-new-forest-hard-work-winter", "isHosted": false, "pillarId": "pillar/news", "pillarName": "News"}, {"id": "world/gallery/2012/sep/28/twyford-down-m3-protest-pictures", "type": "gallery", "sectionId": "world", "sectionName": "World news", "webPublicationDate": "2012-09-28T19:39:00Z", "webTitle": "The Twyford Down M3 protest in 1992 - in pictures", "webUrl": "https://www.theguardian.com/world/gallery/2012/sep/28/twyford-down-m3-protest-pictures", "apiUrl": "https://content.guardianapis.com/world/gallery/2012/sep/28/twyford-down-m3-protest-pictures", "isHosted": false, "pillarId": "pillar/news", "pillarName": "News"}, {"id": "world/2012/sep/28/twyford-down-20years-m3-protest", "type": "article", "sectionId": "world", "sectionName": "World news", "webPublicationDate": "2012-09-28T17:54:40Z", "webTitle": "Twyford Down's Dongas return 20 years after M3 protest", "webUrl": "https://www.theguardian.com/world/2012/sep/28/twyford-down-20years-m3-protest", "apiUrl": "https://content.guardianapis.com/world/2012/sep/28/twyford-down-20years-m3-protest", "isHosted": false, "pillarId": "pillar/news", "pillarName": "News"}, {"id": "environment/2012/sep/28/study-gm-maize-cancer", "type": "article", "sectionId": "environment", "sectionName": "Environment", "webPublicationDate": "2012-09-28T16:19:24Z", "webTitle": "Study linking GM maize to cancer must be taken seriously by regulators | John Vidal", "webUrl": "https://www.theguardian.com/environment/2012/sep/28/study-gm-maize-cancer", "apiUrl": "https://content.guardianapis.com/environment/2012/sep/28/study-gm-maize-cancer", "isHosted": false, "pillarId": "pillar/news", "pillarName": "News"}, {"id": "business/2012/sep/28/shell-rejects-warning-arctic-oil", "type": "article", "sectionId": "business", "sectionName": "Business", "webPublicationDate": "2012-09-28T16:05:29Z", "webTitle": "Shell rejects Total warning over Arctic oil search", "webUrl": "https://www.theguardian.com/business/2012/sep/28/shell-rejects-warning-arctic-oil", "apiUrl": "https://content.guardianapis.com/business/2012/sep/28/shell-rejects-warning-arctic-oil", "isHosted": false, "pillarId": "pillar/news", "pillarName": "News"}, {"id": "environment/gallery/2012/sep/28/week-in-wildlife-in-pictures", "type": "gallery", "sectionId": "environment", "sectionName": "Environment", "webPublicationDate": "2012-09-28T13:05:05Z", "webTitle": "The week in wildlife \u2013 in pictures", "webUrl": "https://www.theguardian.com/environment/gallery/2012/sep/28/week-in-wildlife-in-pictures", "apiUrl": "https://content.guardianapis.com/environment/gallery/2012/sep/28/week-in-wildlife-in-pictures", "isHosted": false, "pillarId": "pillar/news", "pillarName": "News"}, {"id": "environment/blog/2012/sep/28/labour-green-issues-opposition", "type": "article", "sectionId": "environment", "sectionName": "Environment", "webPublicationDate": "2012-09-28T11:48:44Z", "webTitle": "Why is Labour so quiet on green issues? | Craig Bennett", "webUrl": "https://www.theguardian.com/environment/blog/2012/sep/28/labour-green-issues-opposition", "apiUrl": "https://content.guardianapis.com/environment/blog/2012/sep/28/labour-green-issues-opposition", "isHosted": false, "pillarId": "pillar/news", "pillarName": "News"}, {"id": "environment/2012/sep/28/flooding-north-east-england-homes-demolished", "type": "article", "sectionId": "environment", "sectionName": "Environment", "webPublicationDate": "2012-09-28T11:17:29Z", "webTitle": "Flooding leaves homes facing demolition in north-east England", "webUrl": "https://www.theguardian.com/environment/2012/sep/28/flooding-north-east-england-homes-demolished", "apiUrl": "https://content.guardianapis.com/environment/2012/sep/28/flooding-north-east-england-homes-demolished", "isHosted": false, "pillarId": "pillar/news", "pillarName": "News"}, {"id": "environment/blog/2012/sep/28/nuclear-power-betamax-energy-world", "type": "article", "sectionId": "environment", "sectionName": "Environment", "webPublicationDate": "2012-09-28T10:41:28Z", "webTitle": "Nuclear power is the Betamax of the energy world | Natalie Bennett", "webUrl": "https://www.theguardian.com/environment/blog/2012/sep/28/nuclear-power-betamax-energy-world", "apiUrl": "https://content.guardianapis.com/environment/blog/2012/sep/28/nuclear-power-betamax-energy-world", "isHosted": false, "pillarId": "pillar/news", "pillarName": "News"}, {"id": "environment/2012/sep/28/great-white-sharks-killed-australia", "type": "article", "sectionId": "environment", "sectionName": "Environment", "webPublicationDate": "2012-09-28T09:27:40Z", "webTitle": "Plan to kill great white sharks that swim too close to Australian beaches", "webUrl": "https://www.theguardian.com/environment/2012/sep/28/great-white-sharks-killed-australia", "apiUrl": "https://content.guardianapis.com/environment/2012/sep/28/great-white-sharks-killed-australia", "isHosted": false, "pillarId": "pillar/news", "pillarName": "News"}, {"id": "environment/2012/sep/28/gas-fired-power-stations-uk", "type": "article", "sectionId": "environment", "sectionName": "Environment", "webPublicationDate": "2012-09-28T08:52:39Z", "webTitle": "Twenty gas-fired power stations planned for the UK", "webUrl": "https://www.theguardian.com/environment/2012/sep/28/gas-fired-power-stations-uk", "apiUrl": "https://content.guardianapis.com/environment/2012/sep/28/gas-fired-power-stations-uk", "isHosted": false, "pillarId": "pillar/news", "pillarName": "News"}, {"id": "commentisfree/2012/sep/28/badger-cull-bovine-tb", "type": "article", "sectionId": "commentisfree", "sectionName": "Opinion", "webPublicationDate": "2012-09-28T08:00:07Z", "webTitle": "Badger cull: not in this farmer's name | Steve Jones", "webUrl": "https://www.theguardian.com/commentisfree/2012/sep/28/badger-cull-bovine-tb", "apiUrl": "https://content.guardianapis.com/commentisfree/2012/sep/28/badger-cull-bovine-tb", "isHosted": false, "pillarId": "pillar/opinion", "pillarName": "Opinion"}, {"id": "environment/damian-carrington-blog/2012/sep/28/shale-gas-fracking-uk-carbon-energy", "type": "article", "sectionId": "environment", "sectionName": "Environment", "webPublicationDate": "2012-09-28T07:00:00Z", "webTitle": "UK shale gas is more lead balloon than silver bullet | Damian Carrington", "webUrl": "https://www.theguardian.com/environment/damian-carrington-blog/2012/sep/28/shale-gas-fracking-uk-carbon-energy", "apiUrl": "https://content.guardianapis.com/environment/damian-carrington-blog/2012/sep/28/shale-gas-fracking-uk-carbon-energy", "isHosted": false, "pillarId": "pillar/news", "pillarName": "News"}, {"id": "environment/georgemonbiot/2012/sep/28/expanding-uk-airports-runways", "type": "article", "sectionId": "environment", "sectionName": "Environment", "webPublicationDate": "2012-09-28T06:30:05Z", "webTitle": "The case for expanding UK airports is based on fallacy | George Monbiot", "webUrl": "https://www.theguardian.com/environment/georgemonbiot/2012/sep/28/expanding-uk-airports-runways", "apiUrl": "https://content.guardianapis.com/environment/georgemonbiot/2012/sep/28/expanding-uk-airports-runways", "isHosted": false, "pillarId": "pillar/news", "pillarName": "News"}, {"id": "environment/2012/sep/27/aberystwyth-visions-moving-landscape", "type": "article", "sectionId": "environment", "sectionName": "Environment", "webPublicationDate": "2012-09-27T19:59:00Z", "webTitle": "Country Diary: Aberystwyth: Visions of a moving landscape", "webUrl": "https://www.theguardian.com/environment/2012/sep/27/aberystwyth-visions-moving-landscape", "apiUrl": "https://content.guardianapis.com/environment/2012/sep/27/aberystwyth-visions-moving-landscape", "isHosted": false, "pillarId": "pillar/news", "pillarName": "News"}, {"id": "uk/2012/sep/27/uk-flooding-wrexham-couple-drowned", "type": "article", "sectionId": "uk-news", "sectionName": "UK news", "webPublicationDate": "2012-09-27T17:03:19Z", "webTitle": "UK flooding: north Wales couple drowned in 'tragic accident'", "webUrl": "https://www.theguardian.com/uk/2012/sep/27/uk-flooding-wrexham-couple-drowned", "apiUrl": "https://content.guardianapis.com/uk/2012/sep/27/uk-flooding-wrexham-couple-drowned", "isHosted": false, "pillarId": "pillar/news", "pillarName": "News"}, {"id": "environment/2012/sep/27/ugly-fruit-vegetables-supermarkets-harvest", "type": "article", "sectionId": "environment", "sectionName": "Environment", "webPublicationDate": "2012-09-27T16:05:10Z", "webTitle": "'Ugly' fruit and veg make the grade on UK supermarket shelves", "webUrl": "https://www.theguardian.com/environment/2012/sep/27/ugly-fruit-vegetables-supermarkets-harvest", "apiUrl": "https://content.guardianapis.com/environment/2012/sep/27/ugly-fruit-vegetables-supermarkets-harvest", "isHosted": false, "pillarId": "pillar/news", "pillarName": "News"}, {"id": "environment/2012/sep/27/red-squirrel-population-northern-italy", "type": "article", "sectionId": "environment", "sectionName": "Environment", "webPublicationDate": "2012-09-27T15:14:01Z", "webTitle": "Red squirrel populations wiped out in northern Italy", "webUrl": "https://www.theguardian.com/environment/2012/sep/27/red-squirrel-population-northern-italy", "apiUrl": "https://content.guardianapis.com/environment/2012/sep/27/red-squirrel-population-northern-italy", "isHosted": false, "pillarId": "pillar/news", "pillarName": "News"}]}}