{"response": {"status": "ok", "userTier": "developer", "total": 86563, "startIndex": 1, "pageSize": 50, "currentPage": 1, "pages": 1732, "orderBy": "newest", "results": [{"id": "football/2011/sep/30/wayne-rooney-javier-hernandez", "type": "article", "sectionId": "football", "sectionName": "Football", "webPublicationDate": "2011-09-30T22:03:06Z", "webTitle": "Rooney and Hern\u00e1ndez can match Yorke and Cole, says Sir Alex Ferguson", "webUrl": "https://www.theguardian.com/football/2011/sep/30/wayne-rooney-javier-hernandez", "apiUrl": "https://content.guardianapis.com/football/2011/sep/30/wayne-rooney-javier-hernandez", "isHosted": false, "pillarId": "pillar/sport", "pillarName": "Sport"}, {"id": "football/2011/sep/30/chelsea-andre-villas-boas", "type": "article", "sectionId": "football", "sectionName": "Football", "webPublicationDate": "2011-09-30T22:03:06Z", "webTitle": "Chelsea's Andr\u00e9 Villas-Boas to unwind with motorcycles and mountains", "webUrl": "https://www.theguardian.com/football/2011/sep/30/chelsea-andre-villas-boas", "apiUrl": "https://content.guardianapis.com/football/2011/sep/30/chelsea-andre-villas-boas", "isHosted": false, "pillarId": "pillar/sport", "pillarName": "Sport"}, {"id": "football/blog/2011/sep/30/emmanuel-adebayor-score-against-arsenal", "type": "article", "sectionId": "football", "sectionName": "Football", "webPublicationDate": "2011-09-30T22:03:05Z", "webTitle": "Emmanuel Adebayor is ready to score against Arsenal | David Hytner", "webUrl": "https://www.theguardian.com/football/blog/2011/sep/30/emmanuel-adebayor-score-against-arsenal", "apiUrl": "https://content.guardianapis.com/football/blog/2011/sep/30/emmanuel-adebayor-score-against-arsenal", "isHosted": false, "pillarId": "pillar/sport", "pillarName": "Sport"}, {"id": "football/2011/sep/30/football-news-in-brief", "type": "article", "sectionId": "football", "sectionName": "Football", "webPublicationDate": "2011-09-30T22:03:03Z", "webTitle": "Football news in brief", "webUrl": "https://www.theguardian.com/football/2011/sep/30/football-news-in-brief", "apiUrl": "https://content.guardianapis.com/football/2011/sep/30/football-news-in-brief", "isHosted": false, "pillarId": "pillar/sport", "pillarName": "Sport"}, {"id": "football/2011/sep/30/arsene-wenger-manchester-city-strikers", "type": "article", "sectionId": "football", "sectionName": "Football", "webPublicationDate": "2011-09-30T22:03:03Z", "webTitle": "Ars\u00e8ne Wenger takes aim at Manchester City collecting strikers", "webUrl": "https://www.theguardian.com/football/2011/sep/30/arsene-wenger-manchester-city-strikers", "apiUrl": "https://content.guardianapis.com/football/2011/sep/30/arsene-wenger-manchester-city-strikers", "isHosted": false, "pillarId": "pillar/sport", "pillarName": "Sport"}, {"id": "football/2011/sep/30/harry-redknapp-tottenham-hotspur-arsenal", "type": "article", "sectionId": "football", "sectionName": "Football", "webPublicationDate": "2011-09-30T22:03:02Z", "webTitle": "Harry Redknapp says Tottenham Hotspur can become London's top team", "webUrl": "https://www.theguardian.com/football/2011/sep/30/harry-redknapp-tottenham-hotspur-arsenal", "apiUrl": "https://content.guardianapis.com/football/2011/sep/30/harry-redknapp-tottenham-hotspur-arsenal", "isHosted": false, "pillarId": "pillar/sport", "pillarName": "Sport"}, {"id": "football/blog/2011/sep/30/phil-jones-manchester-united", "type": "article", "sectionId": "football", "sectionName": "Football", "webPublicationDate": "2011-09-30T22:03:01Z", "webTitle": "English Rolls-Royce defenders are allowed to crash the occasional gear | Barney Ronay", "webUrl": "https://www.theguardian.com/football/blog/2011/sep/30/phil-jones-manchester-united", "apiUrl": "https://content.guardianapis.com/football/blog/2011/sep/30/phil-jones-manchester-united", "isHosted": false, "pillarId": "pillar/sport", "pillarName": "Sport"}, {"id": "football/2011/sep/30/neil-lennon-hearts-fan", "type": "article", "sectionId": "football", "sectionName": "Football", "webPublicationDate": "2011-09-30T22:03:01Z", "webTitle": "Neil Lennon hits out at 'slap on wrist' for Hearts over fan attack", "webUrl": "https://www.theguardian.com/football/2011/sep/30/neil-lennon-hearts-fan", "apiUrl": "https://content.guardianapis.com/football/2011/sep/30/neil-lennon-hearts-fan", "isHosted": false, "pillarId": "pillar/sport", "pillarName": "Sport"}, {"id": "football/david-conn-inside-sport-blog/2011/sep/30/carlos-tevez-manchester-city-roberto-mancini", "type": "article", "sectionId": "football", "sectionName": "Football", "webPublicationDate": "2011-09-30T22:03:00Z", "webTitle": "Carlos Tevez affair has strengthened Manchester City's Roberto Mancini | David Conn", "webUrl": "https://www.theguardian.com/football/david-conn-inside-sport-blog/2011/sep/30/carlos-tevez-manchester-city-roberto-mancini", "apiUrl": "https://content.guardianapis.com/football/david-conn-inside-sport-blog/2011/sep/30/carlos-tevez-manchester-city-roberto-mancini", "isHosted": false, "pillarId": "pillar/sport", "pillarName": "Sport"}, {"id": "football/2011/sep/30/david-moyes-everton-liverpool", "type": "article", "sectionId": "football", "sectionName": "Football", "webPublicationDate": "2011-09-30T22:02:42Z", "webTitle": "David Moyes: Liverpool have spent considerably more money than Everton", "webUrl": "https://www.theguardian.com/football/2011/sep/30/david-moyes-everton-liverpool", "apiUrl": "https://content.guardianapis.com/football/2011/sep/30/david-moyes-everton-liverpool", "isHosted": false, "pillarId": "pillar/sport", "pillarName": "Sport"}, {"id": "football/2011/sep/30/roberto-mancini-manchester-city", "type": "article", "sectionId": "football", "sectionName": "Football", "webPublicationDate": "2011-09-30T22:02:37Z", "webTitle": "Roberto Mancini wants to be at 'fantastic' Manchester City beyond 2013", "webUrl": "https://www.theguardian.com/football/2011/sep/30/roberto-mancini-manchester-city", "apiUrl": "https://content.guardianapis.com/football/2011/sep/30/roberto-mancini-manchester-city", "isHosted": false, "pillarId": "pillar/sport", "pillarName": "Sport"}, {"id": "football/2011/sep/30/steven-gerrard-england-fabio-capello", "type": "article", "sectionId": "football", "sectionName": "Football", "webPublicationDate": "2011-09-30T22:02:32Z", "webTitle": "Fabio Capello unsure over fitness of Steven Gerrard for Montenegro", "webUrl": "https://www.theguardian.com/football/2011/sep/30/steven-gerrard-england-fabio-capello", "apiUrl": "https://content.guardianapis.com/football/2011/sep/30/steven-gerrard-england-fabio-capello", "isHosted": false, "pillarId": "pillar/sport", "pillarName": "Sport"}, {"id": "football/blog/2011/sep/30/the-secret-footballer", "type": "article", "sectionId": "football", "sectionName": "Football", "webPublicationDate": "2011-09-30T22:02:26Z", "webTitle": "There are few things worse than faking injury | The Secret Footballer", "webUrl": "https://www.theguardian.com/football/blog/2011/sep/30/the-secret-footballer", "apiUrl": "https://content.guardianapis.com/football/blog/2011/sep/30/the-secret-footballer", "isHosted": false, "pillarId": "pillar/sport", "pillarName": "Sport"}, {"id": "football/2011/sep/30/25-years-merseyside-trailing-manchester", "type": "article", "sectionId": "football", "sectionName": "Football", "webPublicationDate": "2011-09-30T21:30:03Z", "webTitle": "How 25 years of poor planning left Merseyside trailing Manchester", "webUrl": "https://www.theguardian.com/football/2011/sep/30/25-years-merseyside-trailing-manchester", "apiUrl": "https://content.guardianapis.com/football/2011/sep/30/25-years-merseyside-trailing-manchester", "isHosted": false, "pillarId": "pillar/sport", "pillarName": "Sport"}, {"id": "football/2011/sep/30/leighton-baines-everton", "type": "article", "sectionId": "football", "sectionName": "Football", "webPublicationDate": "2011-09-30T21:30:02Z", "webTitle": "It's Liverpool or Everton \u2013 you don't do both, says Leighton Baines", "webUrl": "https://www.theguardian.com/football/2011/sep/30/leighton-baines-everton", "apiUrl": "https://content.guardianapis.com/football/2011/sep/30/leighton-baines-everton", "isHosted": false, "pillarId": "pillar/sport", "pillarName": "Sport"}, {"id": "sport/2011/sep/30/boris-johnson-spurs-north-london", "type": "article", "sectionId": "sport", "sectionName": "Sport", "webPublicationDate": "2011-09-30T18:55:00Z", "webTitle": "Boris Johnson sets Spurs new deadline to commit to north London home", "webUrl": "https://www.theguardian.com/sport/2011/sep/30/boris-johnson-spurs-north-london", "apiUrl": "https://content.guardianapis.com/sport/2011/sep/30/boris-johnson-spurs-north-london", "isHosted": false, "pillarId": "pillar/sport", "pillarName": "Sport"}, {"id": "football/2011/sep/30/arsenal-annual-accounts", "type": "article", "sectionId": "football", "sectionName": "Football", "webPublicationDate": "2011-09-30T18:30:33Z", "webTitle": "Arsenal's total salary bill rises 12% to \u00a3124.4m, annual accounts show", "webUrl": "https://www.theguardian.com/football/2011/sep/30/arsenal-annual-accounts", "apiUrl": "https://content.guardianapis.com/football/2011/sep/30/arsenal-annual-accounts", "isHosted": false, "pillarId": "pillar/sport", "pillarName": "Sport"}, {"id": "football/2011/sep/30/squad-sheets-tottenham-arsenal", "type": "article", "sectionId": "football", "sectionName": "Football", "webPublicationDate": "2011-09-30T16:55:42Z", "webTitle": "Squad sheets: Tottenham Hotspur v Arsenal", "webUrl": "https://www.theguardian.com/football/2011/sep/30/squad-sheets-tottenham-arsenal", "apiUrl": "https://content.guardianapis.com/football/2011/sep/30/squad-sheets-tottenham-arsenal", "isHosted": false, "pillarId": "pillar/sport", "pillarName": "Sport"}, {"id": "football/2011/sep/30/squad-sheets-swansea-stoke", "type": "article", "sectionId": "football", "sectionName": "Football", "webPublicationDate": "2011-09-30T16:29:58Z", "webTitle": "Squad sheets: Swansea City v Stoke City", "webUrl": "https://www.theguardian.com/football/2011/sep/30/squad-sheets-swansea-stoke", "apiUrl": "https://content.guardianapis.com/football/2011/sep/30/squad-sheets-swansea-stoke", "isHosted": false, "pillarId": "pillar/sport", "pillarName": "Sport"}, {"id": "football/2011/sep/30/squad-sheets-fulham-qpr", "type": "article", "sectionId": "football", "sectionName": "Football", "webPublicationDate": "2011-09-30T16:02:08Z", "webTitle": "Squad sheets: Fulham v Queens Park Rangers", "webUrl": "https://www.theguardian.com/football/2011/sep/30/squad-sheets-fulham-qpr", "apiUrl": "https://content.guardianapis.com/football/2011/sep/30/squad-sheets-fulham-qpr", "isHosted": false, "pillarId": "pillar/sport", "pillarName": "Sport"}, {"id": "football/2011/sep/30/gus-poyet-signs-brighton-contract", "type": "article", "sectionId": "football", "sectionName": "Football", "webPublicationDate": "2011-09-30T15:42:19Z", "webTitle": "Gus Poyet signs new five-year contract at Brighton", "webUrl": "https://www.theguardian.com/football/2011/sep/30/gus-poyet-signs-brighton-contract", "apiUrl": "https://content.guardianapis.com/football/2011/sep/30/gus-poyet-signs-brighton-contract", "isHosted": false, "pillarId": "pillar/sport", "pillarName": "Sport"}, {"id": "football/2011/sep/30/squad-sheets-bolton-chelsea", "type": "article", "sectionId": "football", "sectionName": "Football", "webPublicationDate": "2011-09-30T15:41:16Z", "webTitle": "Squad sheets: Bolton Wanderers v Chelsea", "webUrl": "https://www.theguardian.com/football/2011/sep/30/squad-sheets-bolton-chelsea", "apiUrl": "https://content.guardianapis.com/football/2011/sep/30/squad-sheets-bolton-chelsea", "isHosted": false, "pillarId": "pillar/sport", "pillarName": "Sport"}, {"id": "football/2011/sep/30/the-fiver-roberto-mancini", "type": "article", "sectionId": "football", "sectionName": "Football", "webPublicationDate": "2011-09-30T15:19:03Z", "webTitle": "The Fiver | Coruscating Satirical Comment | Scott Murray and Paolo Bandini", "webUrl": "https://www.theguardian.com/football/2011/sep/30/the-fiver-roberto-mancini", "apiUrl": "https://content.guardianapis.com/football/2011/sep/30/the-fiver-roberto-mancini", "isHosted": false, "pillarId": "pillar/sport", "pillarName": "Sport"}, {"id": "football/2011/sep/30/squad-sheets-sunderland-west-bromwich-albion", "type": "article", "sectionId": "football", "sectionName": "Football", "webPublicationDate": "2011-09-30T15:11:00Z", "webTitle": "Squad sheets: Sunderland v West Bromwich Albion", "webUrl": "https://www.theguardian.com/football/2011/sep/30/squad-sheets-sunderland-west-bromwich-albion", "apiUrl": "https://content.guardianapis.com/football/2011/sep/30/squad-sheets-sunderland-west-bromwich-albion", "isHosted": false, "pillarId": "pillar/sport", "pillarName": "Sport"}, {"id": "football/2011/sep/30/squad-sheets-wolves-newcastle", "type": "article", "sectionId": "football", "sectionName": "Football", "webPublicationDate": "2011-09-30T14:44:39Z", "webTitle": "Squad sheets: Wolverhampton Wanderers v Newcastle United", "webUrl": "https://www.theguardian.com/football/2011/sep/30/squad-sheets-wolves-newcastle", "apiUrl": "https://content.guardianapis.com/football/2011/sep/30/squad-sheets-wolves-newcastle", "isHosted": false, "pillarId": "pillar/sport", "pillarName": "Sport"}, {"id": "football/blog/2011/sep/30/carlos-tevez-manchester-city-roberto-mancini", "type": "article", "sectionId": "football", "sectionName": "Football", "webPublicationDate": "2011-09-30T14:34:01Z", "webTitle": "Mancini a hostage to fortune on Manchester City's good ship Venus | David Lacey", "webUrl": "https://www.theguardian.com/football/blog/2011/sep/30/carlos-tevez-manchester-city-roberto-mancini", "apiUrl": "https://content.guardianapis.com/football/blog/2011/sep/30/carlos-tevez-manchester-city-roberto-mancini", "isHosted": false, "pillarId": "pillar/sport", "pillarName": "Sport"}, {"id": "football/2011/sep/30/squad-sheets-manchester-united-norwich", "type": "article", "sectionId": "football", "sectionName": "Football", "webPublicationDate": "2011-09-30T13:53:28Z", "webTitle": "Squad sheets: Manchester United v Norwich City", "webUrl": "https://www.theguardian.com/football/2011/sep/30/squad-sheets-manchester-united-norwich", "apiUrl": "https://content.guardianapis.com/football/2011/sep/30/squad-sheets-manchester-united-norwich", "isHosted": false, "pillarId": "pillar/sport", "pillarName": "Sport"}, {"id": "football/2011/sep/30/manuel-almunia-west-ham-arsenal", "type": "article", "sectionId": "football", "sectionName": "Football", "webPublicationDate": "2011-09-30T13:32:36Z", "webTitle": "Arsenal's Manuel Almunia signs for West Ham on emergency loan", "webUrl": "https://www.theguardian.com/football/2011/sep/30/manuel-almunia-west-ham-arsenal", "apiUrl": "https://content.guardianapis.com/football/2011/sep/30/manuel-almunia-west-ham-arsenal", "isHosted": false, "pillarId": "pillar/sport", "pillarName": "Sport"}, {"id": "football/blog/2011/sep/30/scotland-referees-not-above-scrutiny", "type": "article", "sectionId": "football", "sectionName": "Football", "webPublicationDate": "2011-09-30T13:19:35Z", "webTitle": "Scotland's referees should not be above scrutiny | Ewan Murray", "webUrl": "https://www.theguardian.com/football/blog/2011/sep/30/scotland-referees-not-above-scrutiny", "apiUrl": "https://content.guardianapis.com/football/blog/2011/sep/30/scotland-referees-not-above-scrutiny", "isHosted": false, "pillarId": "pillar/sport", "pillarName": "Sport"}, {"id": "football/blog/2011/sep/30/not-talk-about-carlos", "type": "article", "sectionId": "football", "sectionName": "Football", "webPublicationDate": "2011-09-30T12:56:37Z", "webTitle": "'We need to not talk about Carlos' | Barney Ronay", "webUrl": "https://www.theguardian.com/football/blog/2011/sep/30/not-talk-about-carlos", "apiUrl": "https://content.guardianapis.com/football/blog/2011/sep/30/not-talk-about-carlos", "isHosted": false, "pillarId": "pillar/sport", "pillarName": "Sport"}, {"id": "football/2011/sep/30/squad-sheets-everton-liverpool", "type": "article", "sectionId": "football", "sectionName": "Football", "webPublicationDate": "2011-09-30T12:53:03Z", "webTitle": "Squad sheets: Everton v Liverpool", "webUrl": "https://www.theguardian.com/football/2011/sep/30/squad-sheets-everton-liverpool", "apiUrl": "https://content.guardianapis.com/football/2011/sep/30/squad-sheets-everton-liverpool", "isHosted": false, "pillarId": "pillar/sport", "pillarName": "Sport"}, {"id": "football/2011/sep/30/squad-sheets-blackburn-manchester-city", "type": "article", "sectionId": "football", "sectionName": "Football", "webPublicationDate": "2011-09-30T12:28:40Z", "webTitle": "Squad sheets: Blackburn Rovers v Manchester City", "webUrl": "https://www.theguardian.com/football/2011/sep/30/squad-sheets-blackburn-manchester-city", "apiUrl": "https://content.guardianapis.com/football/2011/sep/30/squad-sheets-blackburn-manchester-city", "isHosted": false, "pillarId": "pillar/sport", "pillarName": "Sport"}, {"id": "football/video/2011/sep/30/carlos-tevez-manchester-city-video", "type": "video", "sectionId": "football", "sectionName": "Football", "webPublicationDate": "2011-09-30T12:19:00Z", "webTitle": "Carlos Tevez: Manchester City bans journalists' questions - video", "webUrl": "https://www.theguardian.com/football/video/2011/sep/30/carlos-tevez-manchester-city-video", "apiUrl": "https://content.guardianapis.com/football/video/2011/sep/30/carlos-tevez-manchester-city-video", "isHosted": false, "pillarId": "pillar/sport", "pillarName": "Sport"}, {"id": "football/2011/sep/30/squad-sheets-aston-villa-wigan", "type": "article", "sectionId": "football", "sectionName": "Football", "webPublicationDate": "2011-09-30T11:52:43Z", "webTitle": "Squad sheets: Aston Villa v Wigan Athletic", "webUrl": "https://www.theguardian.com/football/2011/sep/30/squad-sheets-aston-villa-wigan", "apiUrl": "https://content.guardianapis.com/football/2011/sep/30/squad-sheets-aston-villa-wigan", "isHosted": false, "pillarId": "pillar/sport", "pillarName": "Sport"}, {"id": "law/2011/sep/30/rio-ferdinand-sunday-mirror-kiss-tell", "type": "article", "sectionId": "law", "sectionName": "Law", "webPublicationDate": "2011-09-30T11:23:58Z", "webTitle": "Sunday Mirror eludes Ferdinand offside trap, but it's no reprieve for 'kiss and tell' | Andrew Scott", "webUrl": "https://www.theguardian.com/law/2011/sep/30/rio-ferdinand-sunday-mirror-kiss-tell", "apiUrl": "https://content.guardianapis.com/law/2011/sep/30/rio-ferdinand-sunday-mirror-kiss-tell", "isHosted": false, "pillarId": "pillar/news", "pillarName": "News"}, {"id": "football/2011/sep/30/fenerbahce-women-only-spectators-area", "type": "article", "sectionId": "football", "sectionName": "Football", "webPublicationDate": "2011-09-30T10:44:41Z", "webTitle": "Fenerbah\u00e7e to set up women-only spectators' area", "webUrl": "https://www.theguardian.com/football/2011/sep/30/fenerbahce-women-only-spectators-area", "apiUrl": "https://content.guardianapis.com/football/2011/sep/30/fenerbahce-women-only-spectators-area", "isHosted": false, "pillarId": "pillar/sport", "pillarName": "Sport"}, {"id": "football/blog/2011/sep/30/joy-of-six-merseyside-derby", "type": "article", "sectionId": "football", "sectionName": "Football", "webPublicationDate": "2011-09-30T10:38:44Z", "webTitle": "The Joy of Six: Merseyside derby moments | Scott Murray", "webUrl": "https://www.theguardian.com/football/blog/2011/sep/30/joy-of-six-merseyside-derby", "apiUrl": "https://content.guardianapis.com/football/blog/2011/sep/30/joy-of-six-merseyside-derby", "isHosted": false, "pillarId": "pillar/sport", "pillarName": "Sport"}, {"id": "society/gallery/2011/sep/30/stuart-roy-clarke-football-photography", "type": "gallery", "sectionId": "society", "sectionName": "Society", "webPublicationDate": "2011-09-30T09:00:00Z", "webTitle": "Capturing the essence of football", "webUrl": "https://www.theguardian.com/society/gallery/2011/sep/30/stuart-roy-clarke-football-photography", "apiUrl": "https://content.guardianapis.com/society/gallery/2011/sep/30/stuart-roy-clarke-football-photography", "isHosted": false, "pillarId": "pillar/news", "pillarName": "News"}, {"id": "society/2011/sep/30/stuart-roy-clarke-photos-football-roots", "type": "article", "sectionId": "society", "sectionName": "Society", "webPublicationDate": "2011-09-30T09:00:00Z", "webTitle": "Football photographs highlight grass roots of game", "webUrl": "https://www.theguardian.com/society/2011/sep/30/stuart-roy-clarke-photos-football-roots", "apiUrl": "https://content.guardianapis.com/society/2011/sep/30/stuart-roy-clarke-photos-football-roots", "isHosted": false, "pillarId": "pillar/news", "pillarName": "News"}, {"id": "football/football-league-blog/2011/sep/30/football-league-weekender-blog", "type": "article", "sectionId": "football", "sectionName": "Football", "webPublicationDate": "2011-09-30T08:30:00Z", "webTitle": "Football League weekender | James Dart", "webUrl": "https://www.theguardian.com/football/football-league-blog/2011/sep/30/football-league-weekender-blog", "apiUrl": "https://content.guardianapis.com/football/football-league-blog/2011/sep/30/football-league-weekender-blog", "isHosted": false, "pillarId": "pillar/sport", "pillarName": "Sport"}, {"id": "football/2011/sep/30/football-transfer-rumours-chelsea", "type": "article", "sectionId": "football", "sectionName": "Football", "webPublicationDate": "2011-09-30T08:08:40Z", "webTitle": "Football transfer rumours: Chelsea eyeing Sami Khedira? | Scott Murray", "webUrl": "https://www.theguardian.com/football/2011/sep/30/football-transfer-rumours-chelsea", "apiUrl": "https://content.guardianapis.com/football/2011/sep/30/football-transfer-rumours-chelsea", "isHosted": false, "pillarId": "pillar/sport", "pillarName": "Sport"}, {"id": "football/gallery/2011/sep/30/europa-league-gallery", "type": "gallery", "sectionId": "football", "sectionName": "Football", "webPublicationDate": "2011-09-30T00:11:44Z", "webTitle": "Europa League groups matchday 2 - in pictures", "webUrl": "https://www.theguardian.com/football/gallery/2011/sep/30/europa-league-gallery", "apiUrl": "https://content.guardianapis.com/football/gallery/2011/sep/30/europa-league-gallery", "isHosted": false, "pillarId": "pillar/sport", "pillarName": "Sport"}, {"id": "football/2011/sep/29/tom-hicks-george-gillett-liverpool", "type": "article", "sectionId": "football", "sectionName": "Football", "webPublicationDate": "2011-09-29T23:58:00Z", "webTitle": "Tom Hicks and George Gillett continue to seek Liverpool damages", "webUrl": "https://www.theguardian.com/football/2011/sep/29/tom-hicks-george-gillett-liverpool", "apiUrl": "https://content.guardianapis.com/football/2011/sep/29/tom-hicks-george-gillett-liverpool", "isHosted": false, "pillarId": "pillar/sport", "pillarName": "Sport"}, {"id": "football/2011/sep/30/arsenal-stan-kroenke-arsene-wenger", "type": "article", "sectionId": "football", "sectionName": "Football", "webPublicationDate": "2011-09-29T23:38:06Z", "webTitle": "Arsenal's owner Stan Kroenke hails Ars\u00e8ne Wenger as 'great manager'", "webUrl": "https://www.theguardian.com/football/2011/sep/30/arsenal-stan-kroenke-arsene-wenger", "apiUrl": "https://content.guardianapis.com/football/2011/sep/30/arsenal-stan-kroenke-arsene-wenger", "isHosted": false, "pillarId": "pillar/sport", "pillarName": "Sport"}, {"id": "football/2011/sep/29/robin-van-persie-carlos-tevez-manchester-city", "type": "article", "sectionId": "football", "sectionName": "Football", "webPublicationDate": "2011-09-29T22:18:00Z", "webTitle": "Manchester City line up Robin van Persie to replace Carlos Tevez", "webUrl": "https://www.theguardian.com/football/2011/sep/29/robin-van-persie-carlos-tevez-manchester-city", "apiUrl": "https://content.guardianapis.com/football/2011/sep/29/robin-van-persie-carlos-tevez-manchester-city", "isHosted": false, "pillarId": "pillar/sport", "pillarName": "Sport"}, {"id": "football/video/2011/sep/30/james-richardson-european-paper-review-video", "type": "video", "sectionId": "football", "sectionName": "Football", "webPublicationDate": "2011-09-29T22:07:00Z", "webTitle": "James Richardson's European football papers review \u2013 video", "webUrl": "https://www.theguardian.com/football/video/2011/sep/30/james-richardson-european-paper-review-video", "apiUrl": "https://content.guardianapis.com/football/video/2011/sep/30/james-richardson-european-paper-review-video", "isHosted": false, "pillarId": "pillar/sport", "pillarName": "Sport"}, {"id": "football/2011/sep/29/fabio-capello-steven-gerrard-england", "type": "article", "sectionId": "football", "sectionName": "Football", "webPublicationDate": "2011-09-29T22:00:06Z", "webTitle": "Fabio Capello keen to get Steven Gerrard back into England colours", "webUrl": "https://www.theguardian.com/football/2011/sep/29/fabio-capello-steven-gerrard-england", "apiUrl": "https://content.guardianapis.com/football/2011/sep/29/fabio-capello-steven-gerrard-england", "isHosted": false, "pillarId": "pillar/sport", "pillarName": "Sport"}, {"id": "football/2011/sep/29/arsenal-alex-oxlade-chamberlain-arsene-wenger", "type": "article", "sectionId": "football", "sectionName": "Football", "webPublicationDate": "2011-09-29T22:00:04Z", "webTitle": "Alex Oxlade-Chamberlain hails Ars\u00e8ne Wenger's influence at Arsenal", "webUrl": "https://www.theguardian.com/football/2011/sep/29/arsenal-alex-oxlade-chamberlain-arsene-wenger", "apiUrl": "https://content.guardianapis.com/football/2011/sep/29/arsenal-alex-oxlade-chamberlain-arsene-wenger", "isHosted": false, "pillarId": "pillar/sport", "pillarName": "Sport"}, {"id": "football/2011/sep/29/football-news-in-brief", "type": "article", "sectionId": "football", "sectionName": "Football", "webPublicationDate": "2011-09-29T22:00:04Z", "webTitle": "Football news in brief", "webUrl": "https://www.theguardian.com/football/2011/sep/29/football-news-in-brief", "apiUrl": "https://content.guardianapis.com/football/2011/sep/29/football-news-in-brief", "isHosted": false, "pillarId": "pillar/sport", "pillarName": "Sport"}, {"id": "football/2011/sep/29/alan-shearer-roberto-mancini-carlos-tevez", "type": "article", "sectionId": "football", "sectionName": "Football", "webPublicationDate": "2011-09-29T22:00:03Z", "webTitle": "Alan Shearer tells Manchester City to discard inexcusable Carlos Tevez", "webUrl": "https://www.theguardian.com/football/2011/sep/29/alan-shearer-roberto-mancini-carlos-tevez", "apiUrl": "https://content.guardianapis.com/football/2011/sep/29/alan-shearer-roberto-mancini-carlos-tevez", "isHosted": false, "pillarId": "pillar/sport", "pillarName": "Sport"}]}}