{"response": {"status": "ok", "userTier": "developer", "total": 133894, "startIndex": 1, "pageSize": 50, "currentPage": 1, "pages": 2678, "orderBy": "newest", "results": [{"id": "politics/2012/sep/30/labour-plan-defence-budget-gap", "type": "article", "sectionId": "politics", "sectionName": "Politics", "webPublicationDate": "2012-09-30T23:24:00Z", "webTitle": "Labour to present plan to close defence budget gap", "webUrl": "https://www.theguardian.com/politics/2012/sep/30/labour-plan-defence-budget-gap", "apiUrl": "https://content.guardianapis.com/politics/2012/sep/30/labour-plan-defence-budget-gap", "isHosted": false, "pillarId": "pillar/news", "pillarName": "News"}, {"id": "environment/2012/oct/01/climate-change-campaigners-threshold-warning", "type": "article", "sectionId": "environment", "sectionName": "Environment", "webPublicationDate": "2012-09-30T23:05:01Z", "webTitle": "Ignoring global warming is 'reckless' of the government, warn campaigners", "webUrl": "https://www.theguardian.com/environment/2012/oct/01/climate-change-campaigners-threshold-warning", "apiUrl": "https://content.guardianapis.com/environment/2012/oct/01/climate-change-campaigners-threshold-warning", "isHosted": false, "pillarId": "pillar/news", "pillarName": "News"}, {"id": "environment/2012/oct/01/50-months-tackle-climate-change", "type": "article", "sectionId": "environment", "sectionName": "Environment", "webPublicationDate": "2012-09-30T23:05:01Z", "webTitle": "Letters: Just 50 months to tackle climate change", "webUrl": "https://www.theguardian.com/environment/2012/oct/01/50-months-tackle-climate-change", "apiUrl": "https://content.guardianapis.com/environment/2012/oct/01/50-months-tackle-climate-change", "isHosted": false, "pillarId": "pillar/news", "pillarName": "News"}, {"id": "environment/2012/oct/01/green-deal-spurned-retailers", "type": "article", "sectionId": "environment", "sectionName": "Environment", "webPublicationDate": "2012-09-30T23:02:00Z", "webTitle": "Government's 'green deal' spurned by major retailers", "webUrl": "https://www.theguardian.com/environment/2012/oct/01/green-deal-spurned-retailers", "apiUrl": "https://content.guardianapis.com/environment/2012/oct/01/green-deal-spurned-retailers", "isHosted": false, "pillarId": "pillar/news", "pillarName": "News"}, {"id": "politics/2012/oct/01/labour-taskforce-tackle-youth-unemployment", "type": "article", "sectionId": "politics", "sectionName": "Politics", "webPublicationDate": "2012-09-30T23:01:00Z", "webTitle": "Labour taskforce to tackle youth unemployment", "webUrl": "https://www.theguardian.com/politics/2012/oct/01/labour-taskforce-tackle-youth-unemployment", "apiUrl": "https://content.guardianapis.com/politics/2012/oct/01/labour-taskforce-tackle-youth-unemployment", "isHosted": false, "pillarId": "pillar/news", "pillarName": "News"}, {"id": "politics/2012/sep/30/tessa-jowell-role-international-aid", "type": "article", "sectionId": "politics", "sectionName": "Politics", "webPublicationDate": "2012-09-30T22:53:00Z", "webTitle": "Jowell gets role helping mothers and children in developing countries", "webUrl": "https://www.theguardian.com/politics/2012/sep/30/tessa-jowell-role-international-aid", "apiUrl": "https://content.guardianapis.com/politics/2012/sep/30/tessa-jowell-role-international-aid", "isHosted": false, "pillarId": "pillar/news", "pillarName": "News"}, {"id": "politics/2012/sep/30/balls-labour-windfall-housebuilding-pledge", "type": "article", "sectionId": "politics", "sectionName": "Politics", "webPublicationDate": "2012-09-30T21:12:00Z", "webTitle": "Ed Balls pledges extra \u00a33bn to build 100,000 affordable homes from 4G sale", "webUrl": "https://www.theguardian.com/politics/2012/sep/30/balls-labour-windfall-housebuilding-pledge", "apiUrl": "https://content.guardianapis.com/politics/2012/sep/30/balls-labour-windfall-housebuilding-pledge", "isHosted": false, "pillarId": "pillar/news", "pillarName": "News"}, {"id": "politics/2012/sep/30/labour-second-chance-tackle-waste", "type": "article", "sectionId": "politics", "sectionName": "Politics", "webPublicationDate": "2012-09-30T21:03:00Z", "webTitle": "Tackle wasteful spending to earn second chance, Labour told", "webUrl": "https://www.theguardian.com/politics/2012/sep/30/labour-second-chance-tackle-waste", "apiUrl": "https://content.guardianapis.com/politics/2012/sep/30/labour-second-chance-tackle-waste", "isHosted": false, "pillarId": "pillar/news", "pillarName": "News"}, {"id": "commentisfree/2012/sep/30/labour-conference-prepare-government", "type": "article", "sectionId": "commentisfree", "sectionName": "Opinion", "webPublicationDate": "2012-09-30T20:37:44Z", "webTitle": "Labour conference: start preparing for government | Editorial", "webUrl": "https://www.theguardian.com/commentisfree/2012/sep/30/labour-conference-prepare-government", "apiUrl": "https://content.guardianapis.com/commentisfree/2012/sep/30/labour-conference-prepare-government", "isHosted": false, "pillarId": "pillar/opinion", "pillarName": "Opinion"}, {"id": "commentisfree/2012/sep/30/miliband-has-got-answers", "type": "article", "sectionId": "commentisfree", "sectionName": "Opinion", "webPublicationDate": "2012-09-30T20:30:00Z", "webTitle": "Ed Miliband has got answers, so stop asking the wrong questions | Jackie Ashley", "webUrl": "https://www.theguardian.com/commentisfree/2012/sep/30/miliband-has-got-answers", "apiUrl": "https://content.guardianapis.com/commentisfree/2012/sep/30/miliband-has-got-answers", "isHosted": false, "pillarId": "pillar/opinion", "pillarName": "Opinion"}, {"id": "politics/2012/sep/30/labour-conference-2012-markets", "type": "article", "sectionId": "politics", "sectionName": "Politics", "webPublicationDate": "2012-09-30T20:11:46Z", "webTitle": "Labour conference 2012: a cerebral address on moral limits of markets", "webUrl": "https://www.theguardian.com/politics/2012/sep/30/labour-conference-2012-markets", "apiUrl": "https://content.guardianapis.com/politics/2012/sep/30/labour-conference-2012-markets", "isHosted": false, "pillarId": "pillar/news", "pillarName": "News"}, {"id": "uk/2012/sep/30/bringing-sanity-to-trident-debate", "type": "article", "sectionId": "uk-news", "sectionName": "UK news", "webPublicationDate": "2012-09-30T20:00:11Z", "webTitle": "Letters: Bringing sanity to the Trident debate", "webUrl": "https://www.theguardian.com/uk/2012/sep/30/bringing-sanity-to-trident-debate", "apiUrl": "https://content.guardianapis.com/uk/2012/sep/30/bringing-sanity-to-trident-debate", "isHosted": false, "pillarId": "pillar/news", "pillarName": "News"}, {"id": "society/2012/sep/30/generations-united-for-better-society", "type": "article", "sectionId": "society", "sectionName": "Society", "webPublicationDate": "2012-09-30T19:59:02Z", "webTitle": "Letters: Generations united for a better society", "webUrl": "https://www.theguardian.com/society/2012/sep/30/generations-united-for-better-society", "apiUrl": "https://content.guardianapis.com/society/2012/sep/30/generations-united-for-better-society", "isHosted": false, "pillarId": "pillar/news", "pillarName": "News"}, {"id": "education/2012/sep/30/new-schools-smaller-coalition-budget", "type": "article", "sectionId": "education", "sectionName": "Education", "webPublicationDate": "2012-09-30T19:37:00Z", "webTitle": "New schools to be smaller after coalition cuts building budget", "webUrl": "https://www.theguardian.com/education/2012/sep/30/new-schools-smaller-coalition-budget", "apiUrl": "https://content.guardianapis.com/education/2012/sep/30/new-schools-smaller-coalition-budget", "isHosted": false, "pillarId": "pillar/news", "pillarName": "News"}, {"id": "politics/2012/sep/30/labour-conference-diary-class-act", "type": "article", "sectionId": "politics", "sectionName": "Politics", "webPublicationDate": "2012-09-30T19:07:09Z", "webTitle": "Labour conference diary: a class act", "webUrl": "https://www.theguardian.com/politics/2012/sep/30/labour-conference-diary-class-act", "apiUrl": "https://content.guardianapis.com/politics/2012/sep/30/labour-conference-diary-class-act", "isHosted": false, "pillarId": "pillar/news", "pillarName": "News"}, {"id": "world/2012/sep/30/kofi-annan-dont-pick-fight", "type": "article", "sectionId": "world", "sectionName": "World news", "webPublicationDate": "2012-09-30T19:00:00Z", "webTitle": "Kofi Annan: 'Sometimes you don't have to pick a fight to get your way'", "webUrl": "https://www.theguardian.com/world/2012/sep/30/kofi-annan-dont-pick-fight", "apiUrl": "https://content.guardianapis.com/world/2012/sep/30/kofi-annan-dont-pick-fight", "isHosted": false, "pillarId": "pillar/news", "pillarName": "News"}, {"id": "politics/2012/sep/30/cameron-johnson-football-conservative-rivalry", "type": "article", "sectionId": "politics", "sectionName": "Politics", "webPublicationDate": "2012-09-30T18:58:37Z", "webTitle": "David Cameron's unity with Boris Johnson fails to win the day", "webUrl": "https://www.theguardian.com/politics/2012/sep/30/cameron-johnson-football-conservative-rivalry", "apiUrl": "https://content.guardianapis.com/politics/2012/sep/30/cameron-johnson-football-conservative-rivalry", "isHosted": false, "pillarId": "pillar/news", "pillarName": "News"}, {"id": "politics/2012/sep/30/grant-shapps-alter-ego", "type": "article", "sectionId": "politics", "sectionName": "Politics", "webPublicationDate": "2012-09-30T18:31:34Z", "webTitle": "Grant Shapps: Use of alter ego was not sign of double life", "webUrl": "https://www.theguardian.com/politics/2012/sep/30/grant-shapps-alter-ego", "apiUrl": "https://content.guardianapis.com/politics/2012/sep/30/grant-shapps-alter-ego", "isHosted": false, "pillarId": "pillar/news", "pillarName": "News"}, {"id": "business/2012/sep/30/unions-job-losses-biffa-creditors", "type": "article", "sectionId": "business", "sectionName": "Business", "webPublicationDate": "2012-09-30T18:20:00Z", "webTitle": "Unions fear job losses at private equity-owned Biffa as creditors close in", "webUrl": "https://www.theguardian.com/business/2012/sep/30/unions-job-losses-biffa-creditors", "apiUrl": "https://content.guardianapis.com/business/2012/sep/30/unions-job-losses-biffa-creditors", "isHosted": false, "pillarId": "pillar/news", "pillarName": "News"}, {"id": "politics/2012/sep/30/labour-conference-shiny-toffs", "type": "article", "sectionId": "politics", "sectionName": "Politics", "webPublicationDate": "2012-09-30T18:16:58Z", "webTitle": "Labour's shiny toffs are taking control", "webUrl": "https://www.theguardian.com/politics/2012/sep/30/labour-conference-shiny-toffs", "apiUrl": "https://content.guardianapis.com/politics/2012/sep/30/labour-conference-shiny-toffs", "isHosted": false, "pillarId": "pillar/news", "pillarName": "News"}, {"id": "politics/2012/sep/30/miliband-labour-conference-banks-nhs", "type": "article", "sectionId": "politics", "sectionName": "Politics", "webPublicationDate": "2012-09-30T18:01:32Z", "webTitle": "Break up the banks and restore 50p tax rate, says Ed Miliband", "webUrl": "https://www.theguardian.com/politics/2012/sep/30/miliband-labour-conference-banks-nhs", "apiUrl": "https://content.guardianapis.com/politics/2012/sep/30/miliband-labour-conference-banks-nhs", "isHosted": false, "pillarId": "pillar/news", "pillarName": "News"}, {"id": "commentisfree/2012/sep/30/ed-miliband-better-britain-means-people", "type": "article", "sectionId": "commentisfree", "sectionName": "Opinion", "webPublicationDate": "2012-09-30T16:00:02Z", "webTitle": "Ed Miliband should spell out what his 'better Britain' means for people | Jack Straw", "webUrl": "https://www.theguardian.com/commentisfree/2012/sep/30/ed-miliband-better-britain-means-people", "apiUrl": "https://content.guardianapis.com/commentisfree/2012/sep/30/ed-miliband-better-britain-means-people", "isHosted": false, "pillarId": "pillar/opinion", "pillarName": "Opinion"}, {"id": "business/economics-blog/2012/sep/30/labour-legacy-balls-economic-credibility", "type": "article", "sectionId": "business", "sectionName": "Business", "webPublicationDate": "2012-09-30T14:37:24Z", "webTitle": "Labour still has a long way to go to restore its economic credibility", "webUrl": "https://www.theguardian.com/business/economics-blog/2012/sep/30/labour-legacy-balls-economic-credibility", "apiUrl": "https://content.guardianapis.com/business/economics-blog/2012/sep/30/labour-legacy-balls-economic-credibility", "isHosted": false, "pillarId": "pillar/news", "pillarName": "News"}, {"id": "politics/2012/sep/30/malcolm-wicks", "type": "article", "sectionId": "politics", "sectionName": "Politics", "webPublicationDate": "2012-09-30T12:37:31Z", "webTitle": "Malcolm Wicks obituary", "webUrl": "https://www.theguardian.com/politics/2012/sep/30/malcolm-wicks", "apiUrl": "https://content.guardianapis.com/politics/2012/sep/30/malcolm-wicks", "isHosted": false, "pillarId": "pillar/news", "pillarName": "News"}, {"id": "commentisfree/2012/sep/30/britain-working-labour-nationalise-banks", "type": "article", "sectionId": "commentisfree", "sectionName": "Opinion", "webPublicationDate": "2012-09-30T12:00:01Z", "webTitle": "Labour should nationalise the banks to get Britain working again | Jonathan White", "webUrl": "https://www.theguardian.com/commentisfree/2012/sep/30/britain-working-labour-nationalise-banks", "apiUrl": "https://content.guardianapis.com/commentisfree/2012/sep/30/britain-working-labour-nationalise-banks", "isHosted": false, "pillarId": "pillar/opinion", "pillarName": "Opinion"}, {"id": "politics/2012/sep/30/ed-miliband-bank-threat", "type": "article", "sectionId": "politics", "sectionName": "Politics", "webPublicationDate": "2012-09-30T10:46:35Z", "webTitle": "Ed Miliband dismisses banks' threat to abandon UK", "webUrl": "https://www.theguardian.com/politics/2012/sep/30/ed-miliband-bank-threat", "apiUrl": "https://content.guardianapis.com/politics/2012/sep/30/ed-miliband-bank-threat", "isHosted": false, "pillarId": "pillar/news", "pillarName": "News"}, {"id": "politics/2012/sep/30/ed-miliband-labour-sectional-interests", "type": "article", "sectionId": "politics", "sectionName": "Politics", "webPublicationDate": "2012-09-30T10:26:34Z", "webTitle": "Ed Miliband: Labour not in thrall to 'sectional interests'", "webUrl": "https://www.theguardian.com/politics/2012/sep/30/ed-miliband-labour-sectional-interests", "apiUrl": "https://content.guardianapis.com/politics/2012/sep/30/ed-miliband-labour-sectional-interests", "isHosted": false, "pillarId": "pillar/news", "pillarName": "News"}, {"id": "uk/the-northerner/2012/sep/30/liberal-democrat-conference-brighton-nick-clegg", "type": "article", "sectionId": "uk-news", "sectionName": "UK news", "webPublicationDate": "2012-09-30T08:12:04Z", "webTitle": "Liberal Democrats in the firestorm - time to push the vision", "webUrl": "https://www.theguardian.com/uk/the-northerner/2012/sep/30/liberal-democrat-conference-brighton-nick-clegg", "apiUrl": "https://content.guardianapis.com/uk/the-northerner/2012/sep/30/liberal-democrat-conference-brighton-nick-clegg", "isHosted": false, "pillarId": "pillar/news", "pillarName": "News"}, {"id": "commentisfree/2012/sep/30/will-hutton-new-model-capitalism", "type": "article", "sectionId": "commentisfree", "sectionName": "Opinion", "webPublicationDate": "2012-09-29T23:11:01Z", "webTitle": "We need a revolution in how our companies are owned and run | Will Hutton", "webUrl": "https://www.theguardian.com/commentisfree/2012/sep/30/will-hutton-new-model-capitalism", "apiUrl": "https://content.guardianapis.com/commentisfree/2012/sep/30/will-hutton-new-model-capitalism", "isHosted": false, "pillarId": "pillar/opinion", "pillarName": "Opinion"}, {"id": "commentisfree/2012/sep/30/observer-editorial-markets-and-morality", "type": "article", "sectionId": "commentisfree", "sectionName": "Opinion", "webPublicationDate": "2012-09-29T23:07:04Z", "webTitle": "Markets and morals: hurrah for the man who says there are things you can't buy | Observer editorial", "webUrl": "https://www.theguardian.com/commentisfree/2012/sep/30/observer-editorial-markets-and-morality", "apiUrl": "https://content.guardianapis.com/commentisfree/2012/sep/30/observer-editorial-markets-and-morality", "isHosted": false, "pillarId": "pillar/opinion", "pillarName": "Opinion"}, {"id": "politics/2012/sep/30/jack-straw-memoirs-interview", "type": "article", "sectionId": "politics", "sectionName": "Politics", "webPublicationDate": "2012-09-29T23:07:00Z", "webTitle": "Jack Straw: 'I didn't have a nervous breakdown, but I was close to one'", "webUrl": "https://www.theguardian.com/politics/2012/sep/30/jack-straw-memoirs-interview", "apiUrl": "https://content.guardianapis.com/politics/2012/sep/30/jack-straw-memoirs-interview", "isHosted": false, "pillarId": "pillar/news", "pillarName": "News"}, {"id": "books/2012/sep/30/virtuous-citizen-review-tim-soutphommasane", "type": "article", "sectionId": "books", "sectionName": "Books", "webPublicationDate": "2012-09-29T23:05:09Z", "webTitle": "The Virtuous Citizen: Patriotism in a Multicultural Society by Tim Soutphommasane \u2013 review", "webUrl": "https://www.theguardian.com/books/2012/sep/30/virtuous-citizen-review-tim-soutphommasane", "apiUrl": "https://content.guardianapis.com/books/2012/sep/30/virtuous-citizen-review-tim-soutphommasane", "isHosted": false, "pillarId": "pillar/arts", "pillarName": "Arts"}, {"id": "commentisfree/2012/sep/30/victoria-coren-secret-identities-for-mps", "type": "article", "sectionId": "commentisfree", "sectionName": "Opinion", "webPublicationDate": "2012-09-29T23:04:34Z", "webTitle": "Give every MP a secret identity | Victoria Coren", "webUrl": "https://www.theguardian.com/commentisfree/2012/sep/30/victoria-coren-secret-identities-for-mps", "apiUrl": "https://content.guardianapis.com/commentisfree/2012/sep/30/victoria-coren-secret-identities-for-mps", "isHosted": false, "pillarId": "pillar/opinion", "pillarName": "Opinion"}, {"id": "film/2012/sep/30/the-campaign-review-jay-roach", "type": "article", "sectionId": "film", "sectionName": "Film", "webPublicationDate": "2012-09-29T23:03:05Z", "webTitle": "The Campaign \u2013 review", "webUrl": "https://www.theguardian.com/film/2012/sep/30/the-campaign-review-jay-roach", "apiUrl": "https://content.guardianapis.com/film/2012/sep/30/the-campaign-review-jay-roach", "isHosted": false, "pillarId": "pillar/arts", "pillarName": "Arts"}, {"id": "media/2012/sep/30/cameron-letterman-british-tv-heavyweight", "type": "article", "sectionId": "media", "sectionName": "Media", "webPublicationDate": "2012-09-29T23:01:13Z", "webTitle": "Cameron v Letterman shows British TV needs more heavyweight encounters", "webUrl": "https://www.theguardian.com/media/2012/sep/30/cameron-letterman-british-tv-heavyweight", "apiUrl": "https://content.guardianapis.com/media/2012/sep/30/cameron-letterman-british-tv-heavyweight", "isHosted": false, "pillarId": "pillar/news", "pillarName": "News"}, {"id": "politics/2012/sep/29/ed-miliband-banks-gurus-coalitions", "type": "article", "sectionId": "politics", "sectionName": "Politics", "webPublicationDate": "2012-09-29T22:58:00Z", "webTitle": "Ed Miliband on the banks, gurus, coalitions \u2026 and being human", "webUrl": "https://www.theguardian.com/politics/2012/sep/29/ed-miliband-banks-gurus-coalitions", "apiUrl": "https://content.guardianapis.com/politics/2012/sep/29/ed-miliband-banks-gurus-coalitions", "isHosted": false, "pillarId": "pillar/news", "pillarName": "News"}, {"id": "culture/gallery/2012/sep/29/1962-year-pictures", "type": "gallery", "sectionId": "culture", "sectionName": "Culture", "webPublicationDate": "2012-09-29T22:27:00Z", "webTitle": "1962: a year packed with drama \u2013 in pictures", "webUrl": "https://www.theguardian.com/culture/gallery/2012/sep/29/1962-year-pictures", "apiUrl": "https://content.guardianapis.com/culture/gallery/2012/sep/29/1962-year-pictures", "isHosted": false, "pillarId": "pillar/arts", "pillarName": "Arts"}, {"id": "uk/2012/sep/29/labour-mp-malcolm-wicks-dies", "type": "article", "sectionId": "politics", "sectionName": "Politics", "webPublicationDate": "2012-09-29T21:23:30Z", "webTitle": "Labour MP Malcolm Wicks dies aged 65", "webUrl": "https://www.theguardian.com/uk/2012/sep/29/labour-mp-malcolm-wicks-dies", "apiUrl": "https://content.guardianapis.com/uk/2012/sep/29/labour-mp-malcolm-wicks-dies", "isHosted": false, "pillarId": "pillar/news", "pillarName": "News"}, {"id": "politics/2012/sep/29/ed-miliband-british-banks", "type": "article", "sectionId": "politics", "sectionName": "Politics", "webPublicationDate": "2012-09-29T19:02:00Z", "webTitle": "Ed Miliband tells British banks: change now or be broken up", "webUrl": "https://www.theguardian.com/politics/2012/sep/29/ed-miliband-british-banks", "apiUrl": "https://content.guardianapis.com/politics/2012/sep/29/ed-miliband-british-banks", "isHosted": false, "pillarId": "pillar/news", "pillarName": "News"}, {"id": "environment/2012/sep/29/axing-british-antarctic-survey-juniper", "type": "article", "sectionId": "environment", "sectionName": "Environment", "webPublicationDate": "2012-09-29T19:00:13Z", "webTitle": "'Axing the British Antarctic Survey would mean the end of Scott's legacy'", "webUrl": "https://www.theguardian.com/environment/2012/sep/29/axing-british-antarctic-survey-juniper", "apiUrl": "https://content.guardianapis.com/environment/2012/sep/29/axing-british-antarctic-survey-juniper", "isHosted": false, "pillarId": "pillar/news", "pillarName": "News"}, {"id": "politics/2012/sep/29/ed-balls-labour-lib-dems", "type": "article", "sectionId": "politics", "sectionName": "Politics", "webPublicationDate": "2012-09-29T19:00:10Z", "webTitle": "We can work with Labour but Ed Balls must go say Lib Dems", "webUrl": "https://www.theguardian.com/politics/2012/sep/29/ed-balls-labour-lib-dems", "apiUrl": "https://content.guardianapis.com/politics/2012/sep/29/ed-balls-labour-lib-dems", "isHosted": false, "pillarId": "pillar/news", "pillarName": "News"}, {"id": "commentisfree/2012/sep/29/editorial-bank-regulation-ed-miliband", "type": "article", "sectionId": "commentisfree", "sectionName": "Opinion", "webPublicationDate": "2012-09-29T19:00:07Z", "webTitle": "Ed Miliband is right to threaten the banks | Observer editorial", "webUrl": "https://www.theguardian.com/commentisfree/2012/sep/29/editorial-bank-regulation-ed-miliband", "apiUrl": "https://content.guardianapis.com/commentisfree/2012/sep/29/editorial-bank-regulation-ed-miliband", "isHosted": false, "pillarId": "pillar/opinion", "pillarName": "Opinion"}, {"id": "world/2012/sep/29/british-antarctic-survey-cuts-merger", "type": "article", "sectionId": "world", "sectionName": "World news", "webPublicationDate": "2012-09-29T19:00:06Z", "webTitle": "Cuts threat to UK Antarctic research on climate change", "webUrl": "https://www.theguardian.com/world/2012/sep/29/british-antarctic-survey-cuts-merger", "apiUrl": "https://content.guardianapis.com/world/2012/sep/29/british-antarctic-survey-cuts-merger", "isHosted": false, "pillarId": "pillar/news", "pillarName": "News"}, {"id": "politics/2012/sep/29/labour-tories-10-points-conference", "type": "article", "sectionId": "politics", "sectionName": "Politics", "webPublicationDate": "2012-09-29T19:00:04Z", "webTitle": "Labour lead Tories by 10 points in poll as party begins conference", "webUrl": "https://www.theguardian.com/politics/2012/sep/29/labour-tories-10-points-conference", "apiUrl": "https://content.guardianapis.com/politics/2012/sep/29/labour-tories-10-points-conference", "isHosted": false, "pillarId": "pillar/news", "pillarName": "News"}, {"id": "world/2012/sep/29/antarctic-base-ozone-government-cuts", "type": "article", "sectionId": "world", "sectionName": "World news", "webPublicationDate": "2012-09-29T19:00:03Z", "webTitle": "Antarctic research at risk as government cuts back on science", "webUrl": "https://www.theguardian.com/world/2012/sep/29/antarctic-base-ozone-government-cuts", "apiUrl": "https://content.guardianapis.com/world/2012/sep/29/antarctic-base-ozone-government-cuts", "isHosted": false, "pillarId": "pillar/news", "pillarName": "News"}, {"id": "commentisfree/2012/sep/29/ed-miliband-labour-andrew-rawnsley", "type": "article", "sectionId": "commentisfree", "sectionName": "Opinion", "webPublicationDate": "2012-09-29T19:00:01Z", "webTitle": "Ed Miliband's big test is to make voters see him as prime minister | Andrew Rawnsley", "webUrl": "https://www.theguardian.com/commentisfree/2012/sep/29/ed-miliband-labour-andrew-rawnsley", "apiUrl": "https://content.guardianapis.com/commentisfree/2012/sep/29/ed-miliband-labour-andrew-rawnsley", "isHosted": false, "pillarId": "pillar/opinion", "pillarName": "Opinion"}, {"id": "politics/2012/sep/29/ed-mliband-labour-vision-conference", "type": "article", "sectionId": "politics", "sectionName": "Politics", "webPublicationDate": "2012-09-29T16:27:02Z", "webTitle": "Ed Miliband lays out Labour's vision before start of conference", "webUrl": "https://www.theguardian.com/politics/2012/sep/29/ed-mliband-labour-vision-conference", "apiUrl": "https://content.guardianapis.com/politics/2012/sep/29/ed-mliband-labour-vision-conference", "isHosted": false, "pillarId": "pillar/news", "pillarName": "News"}, {"id": "world/2012/sep/29/generation-women-toxic-ageism-sexism", "type": "article", "sectionId": "world", "sectionName": "World news", "webPublicationDate": "2012-09-29T13:26:44Z", "webTitle": "Generation of women hit by 'toxic combination of ageism and sexism'", "webUrl": "https://www.theguardian.com/world/2012/sep/29/generation-women-toxic-ageism-sexism", "apiUrl": "https://content.guardianapis.com/world/2012/sep/29/generation-women-toxic-ageism-sexism", "isHosted": false, "pillarId": "pillar/news", "pillarName": "News"}, {"id": "world/2012/sep/29/kofi-annan-tony-blair-iraq", "type": "article", "sectionId": "world", "sectionName": "World news", "webPublicationDate": "2012-09-29T11:26:11Z", "webTitle": "Kofi Annan: Tony Blair could ultimately have stopped Iraq war", "webUrl": "https://www.theguardian.com/world/2012/sep/29/kofi-annan-tony-blair-iraq", "apiUrl": "https://content.guardianapis.com/world/2012/sep/29/kofi-annan-tony-blair-iraq", "isHosted": false, "pillarId": "pillar/news", "pillarName": "News"}, {"id": "commentisfree/2012/sep/29/labour-2015-general-election", "type": "article", "sectionId": "commentisfree", "sectionName": "Opinion", "webPublicationDate": "2012-09-29T10:00:01Z", "webTitle": "Labour policy: look left, Ed, and the 2015 election is yours | Andrew Harrop", "webUrl": "https://www.theguardian.com/commentisfree/2012/sep/29/labour-2015-general-election", "apiUrl": "https://content.guardianapis.com/commentisfree/2012/sep/29/labour-2015-general-election", "isHosted": false, "pillarId": "pillar/opinion", "pillarName": "Opinion"}]}}