{"response": {"status": "ok", "userTier": "developer", "total": 133065, "startIndex": 1, "pageSize": 50, "currentPage": 1, "pages": 2662, "orderBy": "newest", "results": [{"id": "society/2013/oct/01/benefit-claimants-jobcentre-attendance", "type": "article", "sectionId": "society", "sectionName": "Society", "webPublicationDate": "2013-09-30T23:05:00Z", "webTitle": "Some benefit claimants face 35 hours a week in jobcentre", "webUrl": "https://www.theguardian.com/society/2013/oct/01/benefit-claimants-jobcentre-attendance", "apiUrl": "https://content.guardianapis.com/society/2013/oct/01/benefit-claimants-jobcentre-attendance", "isHosted": false, "pillarId": "pillar/news", "pillarName": "News"}, {"id": "society/2013/oct/01/heat-eat-loan-liverpool", "type": "article", "sectionId": "society", "sectionName": "Society", "webPublicationDate": "2013-09-30T23:01:05Z", "webTitle": "Heat or eat? Or take out a loan, do both, and hope for the best?", "webUrl": "https://www.theguardian.com/society/2013/oct/01/heat-eat-loan-liverpool", "apiUrl": "https://content.guardianapis.com/society/2013/oct/01/heat-eat-loan-liverpool", "isHosted": false, "pillarId": "pillar/news", "pillarName": "News"}, {"id": "business/cartoon/2013/sep/30/kipper-williams-help-to-buy", "type": "picture", "sectionId": "business", "sectionName": "Business", "webPublicationDate": "2013-09-30T22:09:00Z", "webTitle": "Kipper Williams on the Help to Buy scheme \u2013 cartoon", "webUrl": "https://www.theguardian.com/business/cartoon/2013/sep/30/kipper-williams-help-to-buy", "apiUrl": "https://content.guardianapis.com/business/cartoon/2013/sep/30/kipper-williams-help-to-buy", "isHosted": false, "pillarId": "pillar/news", "pillarName": "News"}, {"id": "politics/2013/sep/30/hugh-muirs-diary-ids-shiplee", "type": "article", "sectionId": "politics", "sectionName": "Politics", "webPublicationDate": "2013-09-30T21:59:00Z", "webTitle": "Hugh Muir's diary: He may not be the village idiot. But we do need to talk about Iain", "webUrl": "https://www.theguardian.com/politics/2013/sep/30/hugh-muirs-diary-ids-shiplee", "apiUrl": "https://content.guardianapis.com/politics/2013/sep/30/hugh-muirs-diary-ids-shiplee", "isHosted": false, "pillarId": "pillar/news", "pillarName": "News"}, {"id": "uk-news/2013/sep/30/massaging-opinion-military-operations", "type": "article", "sectionId": "uk-news", "sectionName": "UK news", "webPublicationDate": "2013-09-30T20:00:02Z", "webTitle": "Letters: Massaging opinion on military operations", "webUrl": "https://www.theguardian.com/uk-news/2013/sep/30/massaging-opinion-military-operations", "apiUrl": "https://content.guardianapis.com/uk-news/2013/sep/30/massaging-opinion-military-operations", "isHosted": false, "pillarId": "pillar/news", "pillarName": "News"}, {"id": "politics/2013/sep/30/protests-against-something-for-nothing-government", "type": "article", "sectionId": "politics", "sectionName": "Politics", "webPublicationDate": "2013-09-30T20:00:00Z", "webTitle": "Letters: Protests against this 'something for nothing' government", "webUrl": "https://www.theguardian.com/politics/2013/sep/30/protests-against-something-for-nothing-government", "apiUrl": "https://content.guardianapis.com/politics/2013/sep/30/protests-against-something-for-nothing-government", "isHosted": false, "pillarId": "pillar/news", "pillarName": "News"}, {"id": "politics/2013/sep/30/david-cameron-bans-conservative-mps-ukip-leader", "type": "article", "sectionId": "politics", "sectionName": "Politics", "webPublicationDate": "2013-09-30T19:42:05Z", "webTitle": "Cameron bans Tories from teaming up with Ukip amid claims from its leader", "webUrl": "https://www.theguardian.com/politics/2013/sep/30/david-cameron-bans-conservative-mps-ukip-leader", "apiUrl": "https://content.guardianapis.com/politics/2013/sep/30/david-cameron-bans-conservative-mps-ukip-leader", "isHosted": false, "pillarId": "pillar/news", "pillarName": "News"}, {"id": "society/2013/sep/30/councils-bust-tory-local-government", "type": "article", "sectionId": "society", "sectionName": "Society", "webPublicationDate": "2013-09-30T19:13:40Z", "webTitle": "Councils close to going bust, says Tory local government chief", "webUrl": "https://www.theguardian.com/society/2013/sep/30/councils-bust-tory-local-government", "apiUrl": "https://content.guardianapis.com/society/2013/sep/30/councils-bust-tory-local-government", "isHosted": false, "pillarId": "pillar/news", "pillarName": "News"}, {"id": "commentisfree/2013/sep/30/incredible-shrinking-tory-party-david-cameron", "type": "article", "sectionId": "commentisfree", "sectionName": "Opinion", "webPublicationDate": "2013-09-30T19:00:02Z", "webTitle": "The incredible shrinking Tory party | Aditya Chakrabortty", "webUrl": "https://www.theguardian.com/commentisfree/2013/sep/30/incredible-shrinking-tory-party-david-cameron", "apiUrl": "https://content.guardianapis.com/commentisfree/2013/sep/30/incredible-shrinking-tory-party-david-cameron", "isHosted": false, "pillarId": "pillar/opinion", "pillarName": "Opinion"}, {"id": "education/2013/sep/30/michael-gove-destruction-of-school-democracy", "type": "article", "sectionId": "education", "sectionName": "Education", "webPublicationDate": "2013-09-30T18:45:00Z", "webTitle": "Dear Mr Gove: Michael Rosen's letter from a curious parent", "webUrl": "https://www.theguardian.com/education/2013/sep/30/michael-gove-destruction-of-school-democracy", "apiUrl": "https://content.guardianapis.com/education/2013/sep/30/michael-gove-destruction-of-school-democracy", "isHosted": false, "pillarId": "pillar/news", "pillarName": "News"}, {"id": "commentisfree/2013/sep/30/george-osborne-ruthless-minor", "type": "article", "sectionId": "commentisfree", "sectionName": "Opinion", "webPublicationDate": "2013-09-30T18:44:48Z", "webTitle": "George Osborne: ruthless in a minor key | Editorial", "webUrl": "https://www.theguardian.com/commentisfree/2013/sep/30/george-osborne-ruthless-minor", "apiUrl": "https://content.guardianapis.com/commentisfree/2013/sep/30/george-osborne-ruthless-minor", "isHosted": false, "pillarId": "pillar/opinion", "pillarName": "Opinion"}, {"id": "commentisfree/2013/sep/30/pact-ukip-disastrous-conservative-party", "type": "article", "sectionId": "commentisfree", "sectionName": "Opinion", "webPublicationDate": "2013-09-30T18:32:00Z", "webTitle": "A pact with angry old Ukip would be disastrous for the Conservative party | Nick Herbert", "webUrl": "https://www.theguardian.com/commentisfree/2013/sep/30/pact-ukip-disastrous-conservative-party", "apiUrl": "https://content.guardianapis.com/commentisfree/2013/sep/30/pact-ukip-disastrous-conservative-party", "isHosted": false, "pillarId": "pillar/opinion", "pillarName": "Opinion"}, {"id": "law/2013/sep/30/conservitives-scrap-human-rights-act", "type": "article", "sectionId": "law", "sectionName": "Law", "webPublicationDate": "2013-09-30T18:15:45Z", "webTitle": "Conservatives promise to scrap Human Rights Act after next election", "webUrl": "https://www.theguardian.com/law/2013/sep/30/conservitives-scrap-human-rights-act", "apiUrl": "https://content.guardianapis.com/law/2013/sep/30/conservitives-scrap-human-rights-act", "isHosted": false, "pillarId": "pillar/news", "pillarName": "News"}, {"id": "education/2013/sep/30/higher-education-policy-political-parties", "type": "article", "sectionId": "education", "sectionName": "Education", "webPublicationDate": "2013-09-30T18:15:00Z", "webTitle": "Does any party have a higher education policy? Answer: No", "webUrl": "https://www.theguardian.com/education/2013/sep/30/higher-education-policy-political-parties", "apiUrl": "https://content.guardianapis.com/education/2013/sep/30/higher-education-policy-political-parties", "isHosted": false, "pillarId": "pillar/news", "pillarName": "News"}, {"id": "politics/2013/sep/30/hoggart-tory-conference-osborne-grown-up", "type": "article", "sectionId": "politics", "sectionName": "Politics", "webPublicationDate": "2013-09-30T18:06:37Z", "webTitle": "Johnson and Farage deface Osborne's rosy picture", "webUrl": "https://www.theguardian.com/politics/2013/sep/30/hoggart-tory-conference-osborne-grown-up", "apiUrl": "https://content.guardianapis.com/politics/2013/sep/30/hoggart-tory-conference-osborne-grown-up", "isHosted": false, "pillarId": "pillar/news", "pillarName": "News"}, {"id": "business/blog/2013/sep/30/finance-small-business-britain-george-osborne", "type": "article", "sectionId": "business", "sectionName": "Business", "webPublicationDate": "2013-09-30T17:55:00Z", "webTitle": "Loans for small businesses is where George Osborne really needs to focus", "webUrl": "https://www.theguardian.com/business/blog/2013/sep/30/finance-small-business-britain-george-osborne", "apiUrl": "https://content.guardianapis.com/business/blog/2013/sep/30/finance-small-business-britain-george-osborne", "isHosted": false, "pillarId": "pillar/news", "pillarName": "News"}, {"id": "politics/2013/sep/30/conservative-conference-george-osbornes-work-for-benefits-speech-politics-live-blog", "type": "liveblog", "sectionId": "politics", "sectionName": "Politics", "webPublicationDate": "2013-09-30T17:53:51Z", "webTitle": "Boris Johnson speaks to Conservative conference \u2013 politics live blog", "webUrl": "https://www.theguardian.com/politics/2013/sep/30/conservative-conference-george-osbornes-work-for-benefits-speech-politics-live-blog", "apiUrl": "https://content.guardianapis.com/politics/2013/sep/30/conservative-conference-george-osbornes-work-for-benefits-speech-politics-live-blog", "isHosted": false, "pillarId": "pillar/news", "pillarName": "News"}, {"id": "politics/blog/2013/sep/30/george-osborne-surplus-more-cuts", "type": "article", "sectionId": "business", "sectionName": "Business", "webPublicationDate": "2013-09-30T17:42:03Z", "webTitle": "George Osborne's surplus will need yet more cuts", "webUrl": "https://www.theguardian.com/politics/blog/2013/sep/30/george-osborne-surplus-more-cuts", "apiUrl": "https://content.guardianapis.com/politics/blog/2013/sep/30/george-osborne-surplus-more-cuts", "isHosted": false, "pillarId": "pillar/news", "pillarName": "News"}, {"id": "media/2013/sep/30/bbc-nhs-cuts-criticised-andy-burnham", "type": "article", "sectionId": "media", "sectionName": "Media", "webPublicationDate": "2013-09-30T16:36:00Z", "webTitle": "BBC's NHS cuts coverage criticised as being 'cursory'", "webUrl": "https://www.theguardian.com/media/2013/sep/30/bbc-nhs-cuts-criticised-andy-burnham", "apiUrl": "https://content.guardianapis.com/media/2013/sep/30/bbc-nhs-cuts-criticised-andy-burnham", "isHosted": false, "pillarId": "pillar/news", "pillarName": "News"}, {"id": "politics/2013/sep/30/theresa-may-tory-conference-catwalk", "type": "article", "sectionId": "politics", "sectionName": "Politics", "webPublicationDate": "2013-09-30T16:33:39Z", "webTitle": "Theresa May makes political power play on Tory conference catwalk", "webUrl": "https://www.theguardian.com/politics/2013/sep/30/theresa-may-tory-conference-catwalk", "apiUrl": "https://content.guardianapis.com/politics/2013/sep/30/theresa-may-tory-conference-catwalk", "isHosted": false, "pillarId": "pillar/news", "pillarName": "News"}, {"id": "commentisfree/2013/sep/30/scientists-democracy-dissent-reasonable-boyd", "type": "article", "sectionId": "commentisfree", "sectionName": "Opinion", "webPublicationDate": "2013-09-30T16:30:00Z", "webTitle": "For scientists in a democracy, to dissent is to be reasonable | George Monbiot", "webUrl": "https://www.theguardian.com/commentisfree/2013/sep/30/scientists-democracy-dissent-reasonable-boyd", "apiUrl": "https://content.guardianapis.com/commentisfree/2013/sep/30/scientists-democracy-dissent-reasonable-boyd", "isHosted": false, "pillarId": "pillar/opinion", "pillarName": "Opinion"}, {"id": "politics/2013/sep/30/aldi-mum-immigration-childcare-ukip-worcester", "type": "article", "sectionId": "politics", "sectionName": "Politics", "webPublicationDate": "2013-09-30T16:06:25Z", "webTitle": "Westminster just isn't listening to us, say 'Aldi mums'", "webUrl": "https://www.theguardian.com/politics/2013/sep/30/aldi-mum-immigration-childcare-ukip-worcester", "apiUrl": "https://content.guardianapis.com/politics/2013/sep/30/aldi-mum-immigration-childcare-ukip-worcester", "isHosted": false, "pillarId": "pillar/news", "pillarName": "News"}, {"id": "politics/2013/sep/30/list-thinktanks-uk", "type": "article", "sectionId": "politics", "sectionName": "Politics", "webPublicationDate": "2013-09-30T15:49:41Z", "webTitle": "List of thinktanks in the UK", "webUrl": "https://www.theguardian.com/politics/2013/sep/30/list-thinktanks-uk", "apiUrl": "https://content.guardianapis.com/politics/2013/sep/30/list-thinktanks-uk", "isHosted": false, "pillarId": "pillar/news", "pillarName": "News"}, {"id": "world/2013/sep/30/alan-duncan-losing-syria-vote-international-development-minister", "type": "article", "sectionId": "world", "sectionName": "World news", "webPublicationDate": "2013-09-30T15:44:00Z", "webTitle": "Alan Duncan: we are in a 'better place' due to losing Syria vote", "webUrl": "https://www.theguardian.com/world/2013/sep/30/alan-duncan-losing-syria-vote-international-development-minister", "apiUrl": "https://content.guardianapis.com/world/2013/sep/30/alan-duncan-losing-syria-vote-international-development-minister", "isHosted": false, "pillarId": "pillar/news", "pillarName": "News"}, {"id": "politics/2013/sep/30/nigel-farage-ukip-tory-walkout", "type": "article", "sectionId": "politics", "sectionName": "Politics", "webPublicationDate": "2013-09-30T15:26:20Z", "webTitle": "Nigel Farage speech prompts Tory walkout", "webUrl": "https://www.theguardian.com/politics/2013/sep/30/nigel-farage-ukip-tory-walkout", "apiUrl": "https://content.guardianapis.com/politics/2013/sep/30/nigel-farage-ukip-tory-walkout", "isHosted": false, "pillarId": "pillar/news", "pillarName": "News"}, {"id": "politics/shortcuts/2013/sep/30/damian-mcbride-meaning-foo-fighters", "type": "article", "sectionId": "politics", "sectionName": "Politics", "webPublicationDate": "2013-09-30T15:23:00Z", "webTitle": "Damian McBride and the real meaning of Foo Fighters' Best of You", "webUrl": "https://www.theguardian.com/politics/shortcuts/2013/sep/30/damian-mcbride-meaning-foo-fighters", "apiUrl": "https://content.guardianapis.com/politics/shortcuts/2013/sep/30/damian-mcbride-meaning-foo-fighters", "isHosted": false, "pillarId": "pillar/news", "pillarName": "News"}, {"id": "media/mediamonkeyblog/2013/sep/30/daily-mail-ed-miliband-election", "type": "article", "sectionId": "media", "sectionName": "Media", "webPublicationDate": "2013-09-30T15:13:03Z", "webTitle": "Daily Mail will not support Ed Miliband shock \u2013 Monkey Election Watch 2015 | Media Monkey", "webUrl": "https://www.theguardian.com/media/mediamonkeyblog/2013/sep/30/daily-mail-ed-miliband-election", "apiUrl": "https://content.guardianapis.com/media/mediamonkeyblog/2013/sep/30/daily-mail-ed-miliband-election", "isHosted": false, "pillarId": "pillar/news", "pillarName": "News"}, {"id": "education/2013/sep/30/state-education-private-school-league-tables", "type": "article", "sectionId": "education", "sectionName": "Education", "webPublicationDate": "2013-09-30T15:00:01Z", "webTitle": "Love has disappeared from state education, says private school leader", "webUrl": "https://www.theguardian.com/education/2013/sep/30/state-education-private-school-league-tables", "apiUrl": "https://content.guardianapis.com/education/2013/sep/30/state-education-private-school-league-tables", "isHosted": false, "pillarId": "pillar/news", "pillarName": "News"}, {"id": "politics/video/2013/sep/30/tory-conference-theresa-may-police-stop-and-search-concerns-video", "type": "video", "sectionId": "politics", "sectionName": "Politics", "webPublicationDate": "2013-09-30T14:51:00Z", "webTitle": "Tory conference: Theresa May recognises concerns over police stop and search powers  - video", "webUrl": "https://www.theguardian.com/politics/video/2013/sep/30/tory-conference-theresa-may-police-stop-and-search-concerns-video", "apiUrl": "https://content.guardianapis.com/politics/video/2013/sep/30/tory-conference-theresa-may-police-stop-and-search-concerns-video", "isHosted": false, "pillarId": "pillar/news", "pillarName": "News"}, {"id": "commentisfree/2013/sep/30/theresa-may-right-family-life-human-rights", "type": "article", "sectionId": "commentisfree", "sectionName": "Opinion", "webPublicationDate": "2013-09-30T14:36:20Z", "webTitle": "Theresa May's assault on the right to family life ignores a complex reality | Julian Norman", "webUrl": "https://www.theguardian.com/commentisfree/2013/sep/30/theresa-may-right-family-life-human-rights", "apiUrl": "https://content.guardianapis.com/commentisfree/2013/sep/30/theresa-may-right-family-life-human-rights", "isHosted": false, "pillarId": "pillar/opinion", "pillarName": "Opinion"}, {"id": "environment/damian-carrington-blog/2013/sep/30/george-osborne-green-economy-stupid", "type": "article", "sectionId": "environment", "sectionName": "Environment", "webPublicationDate": "2013-09-30T14:23:00Z", "webTitle": "Memo to Osborne: It's the green economy, stupid | Damian Carrington", "webUrl": "https://www.theguardian.com/environment/damian-carrington-blog/2013/sep/30/george-osborne-green-economy-stupid", "apiUrl": "https://content.guardianapis.com/environment/damian-carrington-blog/2013/sep/30/george-osborne-green-economy-stupid", "isHosted": false, "pillarId": "pillar/news", "pillarName": "News"}, {"id": "politics/reality-check/2013/sep/30/george-osborne-fuel-duty-freeze-impact-petrol-prices", "type": "article", "sectionId": "news", "sectionName": "News", "webPublicationDate": "2013-09-30T14:01:00Z", "webTitle": "George Osborne's fuel duty freeze: does it make a difference?", "webUrl": "https://www.theguardian.com/politics/reality-check/2013/sep/30/george-osborne-fuel-duty-freeze-impact-petrol-prices", "apiUrl": "https://content.guardianapis.com/politics/reality-check/2013/sep/30/george-osborne-fuel-duty-freeze-impact-petrol-prices", "isHosted": false, "pillarId": "pillar/news", "pillarName": "News"}, {"id": "politics/video/2013/sep/30/defence-secretary-tory-conference-colonels-video", "type": "video", "sectionId": "politics", "sectionName": "Politics", "webPublicationDate": "2013-09-30T13:30:00Z", "webTitle": "Defence secretary Philip Hammond heckled at Tory conference by retired colonels - video", "webUrl": "https://www.theguardian.com/politics/video/2013/sep/30/defence-secretary-tory-conference-colonels-video", "apiUrl": "https://content.guardianapis.com/politics/video/2013/sep/30/defence-secretary-tory-conference-colonels-video", "isHosted": false, "pillarId": "pillar/news", "pillarName": "News"}, {"id": "money/2013/sep/30/crown-estate-sovereign-weath-fund-labour", "type": "article", "sectionId": "business", "sectionName": "Business", "webPublicationDate": "2013-09-30T13:11:46Z", "webTitle": "Turn crown estate into sovereign wealth fund, Labour MPs to urge", "webUrl": "https://www.theguardian.com/money/2013/sep/30/crown-estate-sovereign-weath-fund-labour", "apiUrl": "https://content.guardianapis.com/money/2013/sep/30/crown-estate-sovereign-weath-fund-labour", "isHosted": false, "pillarId": "pillar/news", "pillarName": "News"}, {"id": "uk-news/2013/sep/30/cardiff-three-police-corruption-investigation-ipcc-lynette-white", "type": "article", "sectionId": "uk-news", "sectionName": "UK news", "webPublicationDate": "2013-09-30T13:11:31Z", "webTitle": "Cardiff Three police corruption investigation satisfies IPCC", "webUrl": "https://www.theguardian.com/uk-news/2013/sep/30/cardiff-three-police-corruption-investigation-ipcc-lynette-white", "apiUrl": "https://content.guardianapis.com/uk-news/2013/sep/30/cardiff-three-police-corruption-investigation-ipcc-lynette-white", "isHosted": false, "pillarId": "pillar/news", "pillarName": "News"}, {"id": "politics/video/2013/sep/30/george-osborne-benefit-work-welfare-video", "type": "video", "sectionId": "politics", "sectionName": "Politics", "webPublicationDate": "2013-09-30T12:58:00Z", "webTitle": "Osborne pledges to make benefit claimants work for their welfare - video", "webUrl": "https://www.theguardian.com/politics/video/2013/sep/30/george-osborne-benefit-work-welfare-video", "apiUrl": "https://content.guardianapis.com/politics/video/2013/sep/30/george-osborne-benefit-work-welfare-video", "isHosted": false, "pillarId": "pillar/news", "pillarName": "News"}, {"id": "environment/2013/sep/30/owen-paterson-minister-climate-change-advantages", "type": "article", "sectionId": "environment", "sectionName": "Environment", "webPublicationDate": "2013-09-30T11:51:00Z", "webTitle": "Global warming can have a positive side, says Owen Paterson", "webUrl": "https://www.theguardian.com/environment/2013/sep/30/owen-paterson-minister-climate-change-advantages", "apiUrl": "https://content.guardianapis.com/environment/2013/sep/30/owen-paterson-minister-climate-change-advantages", "isHosted": false, "pillarId": "pillar/news", "pillarName": "News"}, {"id": "uk-news/2013/sep/30/tories-curb-right-appeal-deportation", "type": "article", "sectionId": "uk-news", "sectionName": "UK news", "webPublicationDate": "2013-09-30T11:34:00Z", "webTitle": "Tory immigration bill to curb right of appeal against deportation", "webUrl": "https://www.theguardian.com/uk-news/2013/sep/30/tories-curb-right-appeal-deportation", "apiUrl": "https://content.guardianapis.com/uk-news/2013/sep/30/tories-curb-right-appeal-deportation", "isHosted": false, "pillarId": "pillar/news", "pillarName": "News"}, {"id": "science/political-science/2013/sep/30/military-research-uk-government-weapons", "type": "article", "sectionId": "science", "sectionName": "Science", "webPublicationDate": "2013-09-30T11:27:00Z", "webTitle": "UK military R&D is aggressive and counter-productive | Stuart Parkinson", "webUrl": "https://www.theguardian.com/science/political-science/2013/sep/30/military-research-uk-government-weapons", "apiUrl": "https://content.guardianapis.com/science/political-science/2013/sep/30/military-research-uk-government-weapons", "isHosted": false, "pillarId": "pillar/news", "pillarName": "News"}, {"id": "environment/blog/2013/sep/30/owen-paterson-science-climate-change", "type": "article", "sectionId": "environment", "sectionName": "Environment", "webPublicationDate": "2013-09-30T11:13:05Z", "webTitle": "Owen Paterson v the science of climate change", "webUrl": "https://www.theguardian.com/environment/blog/2013/sep/30/owen-paterson-science-climate-change", "apiUrl": "https://content.guardianapis.com/environment/blog/2013/sep/30/owen-paterson-science-climate-change", "isHosted": false, "pillarId": "pillar/news", "pillarName": "News"}, {"id": "politics/2013/sep/30/george-osborne-tough-love-analysis", "type": "article", "sectionId": "politics", "sectionName": "Politics", "webPublicationDate": "2013-09-30T11:03:56Z", "webTitle": "Osborne's tough love is a lost cause", "webUrl": "https://www.theguardian.com/politics/2013/sep/30/george-osborne-tough-love-analysis", "apiUrl": "https://content.guardianapis.com/politics/2013/sep/30/george-osborne-tough-love-analysis", "isHosted": false, "pillarId": "pillar/news", "pillarName": "News"}, {"id": "politics/blog/2013/sep/30/ukip-tory-pact-nigel-farage", "type": "article", "sectionId": "politics", "sectionName": "Politics", "webPublicationDate": "2013-09-30T10:40:51Z", "webTitle": "A Ukip-Tory pact? We've been here before", "webUrl": "https://www.theguardian.com/politics/blog/2013/sep/30/ukip-tory-pact-nigel-farage", "apiUrl": "https://content.guardianapis.com/politics/blog/2013/sep/30/ukip-tory-pact-nigel-farage", "isHosted": false, "pillarId": "pillar/news", "pillarName": "News"}, {"id": "business/2013/sep/30/eurostar-keolis-bid-east-coast-rail", "type": "article", "sectionId": "business", "sectionName": "Business", "webPublicationDate": "2013-09-30T10:36:02Z", "webTitle": "Eurostar and Keolis bid to run east coast railway line", "webUrl": "https://www.theguardian.com/business/2013/sep/30/eurostar-keolis-bid-east-coast-rail", "apiUrl": "https://content.guardianapis.com/business/2013/sep/30/eurostar-keolis-bid-east-coast-rail", "isHosted": false, "pillarId": "pillar/news", "pillarName": "News"}, {"id": "world/2013/sep/30/julia-gillard-anne-summers-opera", "type": "article", "sectionId": "commentisfree", "sectionName": "Opinion", "webPublicationDate": "2013-09-30T10:30:01Z", "webTitle": "Open thread: Julia Gillard's first interview | Open thread", "webUrl": "https://www.theguardian.com/world/2013/sep/30/julia-gillard-anne-summers-opera", "apiUrl": "https://content.guardianapis.com/world/2013/sep/30/julia-gillard-anne-summers-opera", "isHosted": false, "pillarId": "pillar/opinion", "pillarName": "Opinion"}, {"id": "politics/scottish-independence-blog/2013/sep/30/scottish-independence-march-european-nationalists", "type": "article", "sectionId": "politics", "sectionName": "Politics", "webPublicationDate": "2013-09-30T10:16:00Z", "webTitle": "Europe's nationalists seek solidarity with Scotland's independence campaign", "webUrl": "https://www.theguardian.com/politics/scottish-independence-blog/2013/sep/30/scottish-independence-march-european-nationalists", "apiUrl": "https://content.guardianapis.com/politics/scottish-independence-blog/2013/sep/30/scottish-independence-march-european-nationalists", "isHosted": false, "pillarId": "pillar/news", "pillarName": "News"}, {"id": "society/2013/sep/30/george-osborne-jobless-benefit-conservatives", "type": "article", "sectionId": "society", "sectionName": "Society", "webPublicationDate": "2013-09-30T09:22:11Z", "webTitle": "George Osborne: jobless benefit conditions are 'tough love'", "webUrl": "https://www.theguardian.com/society/2013/sep/30/george-osborne-jobless-benefit-conservatives", "apiUrl": "https://content.guardianapis.com/society/2013/sep/30/george-osborne-jobless-benefit-conservatives", "isHosted": false, "pillarId": "pillar/news", "pillarName": "News"}, {"id": "politics/2013/sep/29/george-osborne-crackdown-jobless-costs", "type": "article", "sectionId": "politics", "sectionName": "Politics", "webPublicationDate": "2013-09-30T08:55:00Z", "webTitle": "George Osborne in crackdown on benefits claimants", "webUrl": "https://www.theguardian.com/politics/2013/sep/29/george-osborne-crackdown-jobless-costs", "apiUrl": "https://content.guardianapis.com/politics/2013/sep/29/george-osborne-crackdown-jobless-costs", "isHosted": false, "pillarId": "pillar/news", "pillarName": "News"}, {"id": "housing-network/2013/sep/30/labour-conference-housing-watershed", "type": "article", "sectionId": "housing-network", "sectionName": "Housing Network", "webPublicationDate": "2013-09-30T08:47:09Z", "webTitle": "Why Labour conference was a watershed moment for housing", "webUrl": "https://www.theguardian.com/housing-network/2013/sep/30/labour-conference-housing-watershed", "apiUrl": "https://content.guardianapis.com/housing-network/2013/sep/30/labour-conference-housing-watershed", "isHosted": false, "pillarId": "pillar/news", "pillarName": "News"}, {"id": "commentisfree/2013/sep/30/nigel-farage-tories-ukip-local-elections", "type": "article", "sectionId": "commentisfree", "sectionName": "Opinion", "webPublicationDate": "2013-09-30T08:32:26Z", "webTitle": "Nigel Farage has made an offer the Tories shouldn't refuse | Simon Jenkins", "webUrl": "https://www.theguardian.com/commentisfree/2013/sep/30/nigel-farage-tories-ukip-local-elections", "apiUrl": "https://content.guardianapis.com/commentisfree/2013/sep/30/nigel-farage-tories-ukip-local-elections", "isHosted": false, "pillarId": "pillar/opinion", "pillarName": "Opinion"}, {"id": "business/2013/sep/30/sse-warns-first-half-profits-below-2012", "type": "article", "sectionId": "business", "sectionName": "Business", "webPublicationDate": "2013-09-30T08:28:07Z", "webTitle": "SSE predicts first-half profits below 2012 levels", "webUrl": "https://www.theguardian.com/business/2013/sep/30/sse-warns-first-half-profits-below-2012", "apiUrl": "https://content.guardianapis.com/business/2013/sep/30/sse-warns-first-half-profits-below-2012", "isHosted": false, "pillarId": "pillar/news", "pillarName": "News"}]}}