{"response": {"status": "ok", "userTier": "developer", "total": 132263, "startIndex": 1, "pageSize": 50, "currentPage": 1, "pages": 2646, "orderBy": "newest", "results": [{"id": "theguardian/2011/oct/01/vicky-pryce-interview", "type": "article", "sectionId": "theguardian", "sectionName": "From the Guardian", "webPublicationDate": "2011-09-30T23:07:30Z", "webTitle": "Vicky Pryce: 'I thought we were a unit'", "webUrl": "https://www.theguardian.com/theguardian/2011/oct/01/vicky-pryce-interview", "apiUrl": "https://content.guardianapis.com/theguardian/2011/oct/01/vicky-pryce-interview", "isHosted": false, "pillarId": "pillar/news", "pillarName": "News"}, {"id": "theguardian/2011/oct/01/jesse-anderson-student-loans-ed-miliband-rihanna", "type": "article", "sectionId": "theguardian", "sectionName": "From the Guardian", "webPublicationDate": "2011-09-30T23:04:04Z", "webTitle": "Our pick of the week: The story, the stat, the quote, the tweet", "webUrl": "https://www.theguardian.com/theguardian/2011/oct/01/jesse-anderson-student-loans-ed-miliband-rihanna", "apiUrl": "https://content.guardianapis.com/theguardian/2011/oct/01/jesse-anderson-student-loans-ed-miliband-rihanna", "isHosted": false, "pillarId": "pillar/news", "pillarName": "News"}, {"id": "commentisfree/2011/sep/30/unthinkable-scrapping-party-conferences", "type": "article", "sectionId": "commentisfree", "sectionName": "Opinion", "webPublicationDate": "2011-09-30T22:30:00Z", "webTitle": "Unthinkable? Scrapping party conferences | editorial", "webUrl": "https://www.theguardian.com/commentisfree/2011/sep/30/unthinkable-scrapping-party-conferences", "apiUrl": "https://content.guardianapis.com/commentisfree/2011/sep/30/unthinkable-scrapping-party-conferences", "isHosted": false, "pillarId": "pillar/opinion", "pillarName": "Opinion"}, {"id": "politics/2011/sep/30/city-conservatives-donations", "type": "article", "sectionId": "politics", "sectionName": "Politics", "webPublicationDate": "2011-09-30T22:13:00Z", "webTitle": "City's influence over Conservatives laid bare by research into donations", "webUrl": "https://www.theguardian.com/politics/2011/sep/30/city-conservatives-donations", "apiUrl": "https://content.guardianapis.com/politics/2011/sep/30/city-conservatives-donations", "isHosted": false, "pillarId": "pillar/news", "pillarName": "News"}, {"id": "politics/2011/sep/30/conservative-conference-michael-gove-interview-education", "type": "article", "sectionId": "politics", "sectionName": "Politics", "webPublicationDate": "2011-09-30T22:07:00Z", "webTitle": "Conservative conference: Gove spells out next step on his agenda for schools", "webUrl": "https://www.theguardian.com/politics/2011/sep/30/conservative-conference-michael-gove-interview-education", "apiUrl": "https://content.guardianapis.com/politics/2011/sep/30/conservative-conference-michael-gove-interview-education", "isHosted": false, "pillarId": "pillar/news", "pillarName": "News"}, {"id": "business/2011/sep/30/city-labour-leaning-blip", "type": "article", "sectionId": "politics", "sectionName": "Politics", "webPublicationDate": "2011-09-30T21:37:00Z", "webTitle": "City's Labour leanings were a blip", "webUrl": "https://www.theguardian.com/business/2011/sep/30/city-labour-leaning-blip", "apiUrl": "https://content.guardianapis.com/business/2011/sep/30/city-labour-leaning-blip", "isHosted": false, "pillarId": "pillar/news", "pillarName": "News"}, {"id": "politics/2011/sep/30/david-cameron-conservative-donors", "type": "article", "sectionId": "politics", "sectionName": "Politics", "webPublicationDate": "2011-09-30T21:30:03Z", "webTitle": "David Cameron's \u00a350,000 price tag finds 70 people willing to pay up", "webUrl": "https://www.theguardian.com/politics/2011/sep/30/david-cameron-conservative-donors", "apiUrl": "https://content.guardianapis.com/politics/2011/sep/30/david-cameron-conservative-donors", "isHosted": false, "pillarId": "pillar/news", "pillarName": "News"}, {"id": "commentisfree/2011/sep/30/ed-miliband-speech-conservatives-business", "type": "article", "sectionId": "commentisfree", "sectionName": "Opinion", "webPublicationDate": "2011-09-30T21:30:01Z", "webTitle": "Hands off our big society | Jesse Norman", "webUrl": "https://www.theguardian.com/commentisfree/2011/sep/30/ed-miliband-speech-conservatives-business", "apiUrl": "https://content.guardianapis.com/commentisfree/2011/sep/30/ed-miliband-speech-conservatives-business", "isHosted": false, "pillarId": "pillar/opinion", "pillarName": "Opinion"}, {"id": "politics/2011/sep/30/tory-donations-where-money-comes-from", "type": "article", "sectionId": "politics", "sectionName": "Politics", "webPublicationDate": "2011-09-30T21:30:00Z", "webTitle": "Conservative donations: where does the money come from?", "webUrl": "https://www.theguardian.com/politics/2011/sep/30/tory-donations-where-money-comes-from", "apiUrl": "https://content.guardianapis.com/politics/2011/sep/30/tory-donations-where-money-comes-from", "isHosted": false, "pillarId": "pillar/news", "pillarName": "News"}, {"id": "politics/2011/sep/30/michael-gove-teaching-languages-conference", "type": "article", "sectionId": "politics", "sectionName": "Politics", "webPublicationDate": "2011-09-30T21:11:00Z", "webTitle": "Michael Gove proposes teaching foreign languages from age five", "webUrl": "https://www.theguardian.com/politics/2011/sep/30/michael-gove-teaching-languages-conference", "apiUrl": "https://content.guardianapis.com/politics/2011/sep/30/michael-gove-teaching-languages-conference", "isHosted": false, "pillarId": "pillar/news", "pillarName": "News"}, {"id": "theguardian/2011/sep/30/manchester-finds-conservatives-irrevelant", "type": "article", "sectionId": "theguardian", "sectionName": "From the Guardian", "webPublicationDate": "2011-09-30T20:31:01Z", "webTitle": "We all love Manchester. But it's nothing to do with politicians", "webUrl": "https://www.theguardian.com/theguardian/2011/sep/30/manchester-finds-conservatives-irrevelant", "apiUrl": "https://content.guardianapis.com/theguardian/2011/sep/30/manchester-finds-conservatives-irrevelant", "isHosted": false, "pillarId": "pillar/news", "pillarName": "News"}, {"id": "politics/2011/sep/30/louise-mensch-phone-hacking-politics", "type": "article", "sectionId": "politics", "sectionName": "Politics", "webPublicationDate": "2011-09-30T20:30:00Z", "webTitle": "Louise Mensch: 'We're not all ogres'", "webUrl": "https://www.theguardian.com/politics/2011/sep/30/louise-mensch-phone-hacking-politics", "apiUrl": "https://content.guardianapis.com/politics/2011/sep/30/louise-mensch-phone-hacking-politics", "isHosted": false, "pillarId": "pillar/news", "pillarName": "News"}, {"id": "politics/2011/sep/30/unemployed-should-work-harder-benefits", "type": "article", "sectionId": "politics", "sectionName": "Politics", "webPublicationDate": "2011-09-30T20:12:54Z", "webTitle": "Conservatives to announce unemployed should work harder for benefits", "webUrl": "https://www.theguardian.com/politics/2011/sep/30/unemployed-should-work-harder-benefits", "apiUrl": "https://content.guardianapis.com/politics/2011/sep/30/unemployed-should-work-harder-benefits", "isHosted": false, "pillarId": "pillar/news", "pillarName": "News"}, {"id": "business/2011/sep/30/backing-for-robin-hood-tax", "type": "article", "sectionId": "business", "sectionName": "Business", "webPublicationDate": "2011-09-30T20:00:04Z", "webTitle": "Letters: Backing for a Robin Hood tax", "webUrl": "https://www.theguardian.com/business/2011/sep/30/backing-for-robin-hood-tax", "apiUrl": "https://content.guardianapis.com/business/2011/sep/30/backing-for-robin-hood-tax", "isHosted": false, "pillarId": "pillar/news", "pillarName": "News"}, {"id": "politics/2011/sep/30/fed-up-besuited-political-automatons", "type": "article", "sectionId": "politics", "sectionName": "Politics", "webPublicationDate": "2011-09-30T20:00:03Z", "webTitle": "Letters: Fed up with besuited political automatons", "webUrl": "https://www.theguardian.com/politics/2011/sep/30/fed-up-besuited-political-automatons", "apiUrl": "https://content.guardianapis.com/politics/2011/sep/30/fed-up-besuited-political-automatons", "isHosted": false, "pillarId": "pillar/news", "pillarName": "News"}, {"id": "commentisfree/2011/sep/30/conference-season-alessio-rastani-goldman-sachs", "type": "article", "sectionId": "commentisfree", "sectionName": "Opinion", "webPublicationDate": "2011-09-30T20:00:01Z", "webTitle": "Dinner at Downton Abbey has livelier debates than party conferences today | Ian Jack", "webUrl": "https://www.theguardian.com/commentisfree/2011/sep/30/conference-season-alessio-rastani-goldman-sachs", "apiUrl": "https://content.guardianapis.com/commentisfree/2011/sep/30/conference-season-alessio-rastani-goldman-sachs", "isHosted": false, "pillarId": "pillar/opinion", "pillarName": "Opinion"}, {"id": "commentisfree/2011/sep/30/camerons-leadership-jobs-growth-conservatives-conference", "type": "article", "sectionId": "commentisfree", "sectionName": "Opinion", "webPublicationDate": "2011-09-30T19:00:00Z", "webTitle": "The Tory swagger is no help to a struggling, fearful land | Polly Toynbee", "webUrl": "https://www.theguardian.com/commentisfree/2011/sep/30/camerons-leadership-jobs-growth-conservatives-conference", "apiUrl": "https://content.guardianapis.com/commentisfree/2011/sep/30/camerons-leadership-jobs-growth-conservatives-conference", "isHosted": false, "pillarId": "pillar/opinion", "pillarName": "Opinion"}, {"id": "sport/2011/sep/30/boris-johnson-spurs-north-london", "type": "article", "sectionId": "sport", "sectionName": "Sport", "webPublicationDate": "2011-09-30T18:55:00Z", "webTitle": "Boris Johnson sets Spurs new deadline to commit to north London home", "webUrl": "https://www.theguardian.com/sport/2011/sep/30/boris-johnson-spurs-north-london", "apiUrl": "https://content.guardianapis.com/sport/2011/sep/30/boris-johnson-spurs-north-london", "isHosted": false, "pillarId": "pillar/sport", "pillarName": "Sport"}, {"id": "world/2011/sep/30/william-hague-sentencing-bahrain-medics", "type": "article", "sectionId": "world", "sectionName": "World news", "webPublicationDate": "2011-09-30T18:25:39Z", "webTitle": "William Hague condemns sentencing of Bahrain medics", "webUrl": "https://www.theguardian.com/world/2011/sep/30/william-hague-sentencing-bahrain-medics", "apiUrl": "https://content.guardianapis.com/world/2011/sep/30/william-hague-sentencing-bahrain-medics", "isHosted": false, "pillarId": "pillar/news", "pillarName": "News"}, {"id": "politics/2011/sep/30/labour-welfare-state-economic-growth", "type": "article", "sectionId": "politics", "sectionName": "Politics", "webPublicationDate": "2011-09-30T18:23:49Z", "webTitle": "Welfare state good for entrepreneurship and economic growth, say experts", "webUrl": "https://www.theguardian.com/politics/2011/sep/30/labour-welfare-state-economic-growth", "apiUrl": "https://content.guardianapis.com/politics/2011/sep/30/labour-welfare-state-economic-growth", "isHosted": false, "pillarId": "pillar/news", "pillarName": "News"}, {"id": "society/2011/sep/30/nhs-shakeup-political-control-warning", "type": "article", "sectionId": "society", "sectionName": "Society", "webPublicationDate": "2011-09-30T17:36:41Z", "webTitle": "NHS shakeup poses threat to political control, Lords committee claims", "webUrl": "https://www.theguardian.com/society/2011/sep/30/nhs-shakeup-political-control-warning", "apiUrl": "https://content.guardianapis.com/society/2011/sep/30/nhs-shakeup-political-control-warning", "isHosted": false, "pillarId": "pillar/news", "pillarName": "News"}, {"id": "environment/2011/sep/30/speed-limit-rise-deaths-pollution", "type": "article", "sectionId": "environment", "sectionName": "Environment", "webPublicationDate": "2011-09-30T17:06:33Z", "webTitle": "Speed limit rise would increase deaths and pollution, admits government", "webUrl": "https://www.theguardian.com/environment/2011/sep/30/speed-limit-rise-deaths-pollution", "apiUrl": "https://content.guardianapis.com/environment/2011/sep/30/speed-limit-rise-deaths-pollution", "isHosted": false, "pillarId": "pillar/news", "pillarName": "News"}, {"id": "commentisfree/2011/sep/30/ed-miliband-economics-taboo-1970s", "type": "article", "sectionId": "commentisfree", "sectionName": "Opinion", "webPublicationDate": "2011-09-30T16:59:01Z", "webTitle": "To tackle fast-buck economics, Ed Miliband might look to the taboo 1970s | Hilary Wainwright", "webUrl": "https://www.theguardian.com/commentisfree/2011/sep/30/ed-miliband-economics-taboo-1970s", "apiUrl": "https://content.guardianapis.com/commentisfree/2011/sep/30/ed-miliband-economics-taboo-1970s", "isHosted": false, "pillarId": "pillar/opinion", "pillarName": "Opinion"}, {"id": "politics/2011/sep/30/mps-unions-support-student-demonstrations", "type": "article", "sectionId": "politics", "sectionName": "Politics", "webPublicationDate": "2011-09-30T16:03:30Z", "webTitle": "Labour MPs and unions lend support to November student protests", "webUrl": "https://www.theguardian.com/politics/2011/sep/30/mps-unions-support-student-demonstrations", "apiUrl": "https://content.guardianapis.com/politics/2011/sep/30/mps-unions-support-student-demonstrations", "isHosted": false, "pillarId": "pillar/news", "pillarName": "News"}, {"id": "uk/2011/sep/30/palestinian-activist-compensation-detention-uk", "type": "article", "sectionId": "uk-news", "sectionName": "UK news", "webPublicationDate": "2011-09-30T15:58:53Z", "webTitle": "Palestinian activist wins compensation over detention in UK", "webUrl": "https://www.theguardian.com/uk/2011/sep/30/palestinian-activist-compensation-detention-uk", "apiUrl": "https://content.guardianapis.com/uk/2011/sep/30/palestinian-activist-compensation-detention-uk", "isHosted": false, "pillarId": "pillar/news", "pillarName": "News"}, {"id": "uk/video/2011/sep/30/mp-wife-cctv-stealing-cat-video", "type": "video", "sectionId": "uk-news", "sectionName": "UK news", "webPublicationDate": "2011-09-30T14:51:00Z", "webTitle": "CCTV shows MP's wife stealing kitten - video", "webUrl": "https://www.theguardian.com/uk/video/2011/sep/30/mp-wife-cctv-stealing-cat-video", "apiUrl": "https://content.guardianapis.com/uk/video/2011/sep/30/mp-wife-cctv-stealing-cat-video", "isHosted": false, "pillarId": "pillar/news", "pillarName": "News"}, {"id": "commentisfree/2011/sep/30/conservative-conference-interview-tory-mps", "type": "article", "sectionId": "commentisfree", "sectionName": "Opinion", "webPublicationDate": "2011-09-30T14:36:08Z", "webTitle": "Rising Tory stars: you ask the questions | Andrew Rawnsley", "webUrl": "https://www.theguardian.com/commentisfree/2011/sep/30/conservative-conference-interview-tory-mps", "apiUrl": "https://content.guardianapis.com/commentisfree/2011/sep/30/conservative-conference-interview-tory-mps", "isHosted": false, "pillarId": "pillar/opinion", "pillarName": "Opinion"}, {"id": "science/2011/sep/30/ecstasy-trial-ptsd-sufferers", "type": "article", "sectionId": "science", "sectionName": "Science", "webPublicationDate": "2011-09-30T14:34:53Z", "webTitle": "Ecstasy trial planned to test benefits for trauma victims", "webUrl": "https://www.theguardian.com/science/2011/sep/30/ecstasy-trial-ptsd-sufferers", "apiUrl": "https://content.guardianapis.com/science/2011/sep/30/ecstasy-trial-ptsd-sufferers", "isHosted": false, "pillarId": "pillar/news", "pillarName": "News"}, {"id": "environment/2011/sep/30/renewable-heat-incentive-withdrawn", "type": "article", "sectionId": "environment", "sectionName": "Environment", "webPublicationDate": "2011-09-30T14:27:47Z", "webTitle": "Renewable Heat Incentive withdrawn by government hours before launch", "webUrl": "https://www.theguardian.com/environment/2011/sep/30/renewable-heat-incentive-withdrawn", "apiUrl": "https://content.guardianapis.com/environment/2011/sep/30/renewable-heat-incentive-withdrawn", "isHosted": false, "pillarId": "pillar/news", "pillarName": "News"}, {"id": "commentisfree/2011/sep/30/tony-blair-peacemaker-hate-figure", "type": "article", "sectionId": "commentisfree", "sectionName": "Opinion", "webPublicationDate": "2011-09-30T13:48:30Z", "webTitle": "Tony Blair, peacemaker and hate-figure | Jonathan Jones", "webUrl": "https://www.theguardian.com/commentisfree/2011/sep/30/tony-blair-peacemaker-hate-figure", "apiUrl": "https://content.guardianapis.com/commentisfree/2011/sep/30/tony-blair-peacemaker-hate-figure", "isHosted": false, "pillarId": "pillar/opinion", "pillarName": "Opinion"}, {"id": "politics/davehillblog/2011/sep/30/boris-johnson-falling-police-numbers", "type": "article", "sectionId": "politics", "sectionName": "Politics", "webPublicationDate": "2011-09-30T13:31:00Z", "webTitle": "Boris Johnson and his falling police numbers", "webUrl": "https://www.theguardian.com/politics/davehillblog/2011/sep/30/boris-johnson-falling-police-numbers", "apiUrl": "https://content.guardianapis.com/politics/davehillblog/2011/sep/30/boris-johnson-falling-police-numbers", "isHosted": false, "pillarId": "pillar/news", "pillarName": "News"}, {"id": "business/2011/sep/30/federation-small-businesses-criticises-government-policy", "type": "article", "sectionId": "business", "sectionName": "Business", "webPublicationDate": "2011-09-30T13:05:19Z", "webTitle": "Osborne out of touch, says small businesses lobby", "webUrl": "https://www.theguardian.com/business/2011/sep/30/federation-small-businesses-criticises-government-policy", "apiUrl": "https://content.guardianapis.com/business/2011/sep/30/federation-small-businesses-criticises-government-policy", "isHosted": false, "pillarId": "pillar/news", "pillarName": "News"}, {"id": "commentisfree/2011/sep/30/weekly-rubbish-collections-waste", "type": "article", "sectionId": "commentisfree", "sectionName": "Opinion", "webPublicationDate": "2011-09-30T11:58:02Z", "webTitle": "Weekly rubbish collections? So much for Cameron's war on waste | Sarah Ditum", "webUrl": "https://www.theguardian.com/commentisfree/2011/sep/30/weekly-rubbish-collections-waste", "apiUrl": "https://content.guardianapis.com/commentisfree/2011/sep/30/weekly-rubbish-collections-waste", "isHosted": false, "pillarId": "pillar/opinion", "pillarName": "Opinion"}, {"id": "politics/blog/2011/sep/30/speed-limit-philip-hammond-accelerator", "type": "article", "sectionId": "politics", "sectionName": "Politics", "webPublicationDate": "2011-09-30T11:22:36Z", "webTitle": "Speed limit: Philip Hammond puts his foot on the accelerator | Michael White", "webUrl": "https://www.theguardian.com/politics/blog/2011/sep/30/speed-limit-philip-hammond-accelerator", "apiUrl": "https://content.guardianapis.com/politics/blog/2011/sep/30/speed-limit-philip-hammond-accelerator", "isHosted": false, "pillarId": "pillar/news", "pillarName": "News"}, {"id": "environment/2011/sep/30/welsh-traders-shoppers-bag-charge", "type": "article", "sectionId": "environment", "sectionName": "Environment", "webPublicationDate": "2011-09-30T11:17:40Z", "webTitle": "Welsh traders and shoppers adjust to 5p bag charge", "webUrl": "https://www.theguardian.com/environment/2011/sep/30/welsh-traders-shoppers-bag-charge", "apiUrl": "https://content.guardianapis.com/environment/2011/sep/30/welsh-traders-shoppers-bag-charge", "isHosted": false, "pillarId": "pillar/news", "pillarName": "News"}, {"id": "uk/the-northerner/2011/sep/30/labour-conference-ed-miliband-northern-reaction-liverpool", "type": "article", "sectionId": "uk-news", "sectionName": "UK news", "webPublicationDate": "2011-09-30T09:57:06Z", "webTitle": "A long haul ahead for Ed", "webUrl": "https://www.theguardian.com/uk/the-northerner/2011/sep/30/labour-conference-ed-miliband-northern-reaction-liverpool", "apiUrl": "https://content.guardianapis.com/uk/the-northerner/2011/sep/30/labour-conference-ed-miliband-northern-reaction-liverpool", "isHosted": false, "pillarId": "pillar/news", "pillarName": "News"}, {"id": "books/2011/sep/30/just-boris-johnson-purnell-review", "type": "article", "sectionId": "books", "sectionName": "Books", "webPublicationDate": "2011-09-30T09:00:00Z", "webTitle": "Just Boris: The Irresistible Rise of a Political Celebrity by Sonia Purnell \u2013 review", "webUrl": "https://www.theguardian.com/books/2011/sep/30/just-boris-johnson-purnell-review", "apiUrl": "https://content.guardianapis.com/books/2011/sep/30/just-boris-johnson-purnell-review", "isHosted": false, "pillarId": "pillar/arts", "pillarName": "Arts"}, {"id": "politics/blog/2011/sep/30/politics-readers-edition-30-september", "type": "article", "sectionId": "politics", "sectionName": "Politics", "webPublicationDate": "2011-09-30T08:39:00Z", "webTitle": "Politics live: readers' edition - Friday 30 September 2011", "webUrl": "https://www.theguardian.com/politics/blog/2011/sep/30/politics-readers-edition-30-september", "apiUrl": "https://content.guardianapis.com/politics/blog/2011/sep/30/politics-readers-edition-30-september", "isHosted": false, "pillarId": "pillar/news", "pillarName": "News"}, {"id": "politics/2011/sep/30/250m-weekly-bin-collections-fund-pickles", "type": "article", "sectionId": "politics", "sectionName": "Politics", "webPublicationDate": "2011-09-30T08:27:34Z", "webTitle": "\u00a3250m weekly bin collections fund is what people want, says Pickles", "webUrl": "https://www.theguardian.com/politics/2011/sep/30/250m-weekly-bin-collections-fund-pickles", "apiUrl": "https://content.guardianapis.com/politics/2011/sep/30/250m-weekly-bin-collections-fund-pickles", "isHosted": false, "pillarId": "pillar/news", "pillarName": "News"}, {"id": "environment/georgemonbiot/2011/sep/30/wales-bag-charge-overdue-welcome", "type": "article", "sectionId": "environment", "sectionName": "Environment", "webPublicationDate": "2011-09-30T06:00:02Z", "webTitle": "It's not the second coming, but Wales's bag charge is welcome and overdue | George Monbiot", "webUrl": "https://www.theguardian.com/environment/georgemonbiot/2011/sep/30/wales-bag-charge-overdue-welcome", "apiUrl": "https://content.guardianapis.com/environment/georgemonbiot/2011/sep/30/wales-bag-charge-overdue-welcome", "isHosted": false, "pillarId": "pillar/news", "pillarName": "News"}, {"id": "politics/2011/sep/30/simon-hoggart-sketch-labour-conference", "type": "article", "sectionId": "politics", "sectionName": "Politics", "webPublicationDate": "2011-09-29T23:41:36Z", "webTitle": "Labour bring back The Red Flag, melodious and neutered", "webUrl": "https://www.theguardian.com/politics/2011/sep/30/simon-hoggart-sketch-labour-conference", "apiUrl": "https://content.guardianapis.com/politics/2011/sep/30/simon-hoggart-sketch-labour-conference", "isHosted": false, "pillarId": "pillar/news", "pillarName": "News"}, {"id": "politics/2011/sep/30/foreign-office-public-accounts-committee", "type": "article", "sectionId": "politics", "sectionName": "Politics", "webPublicationDate": "2011-09-29T23:01:08Z", "webTitle": "Foreign Office overspent by \u00a391m", "webUrl": "https://www.theguardian.com/politics/2011/sep/30/foreign-office-public-accounts-committee", "apiUrl": "https://content.guardianapis.com/politics/2011/sep/30/foreign-office-public-accounts-committee", "isHosted": false, "pillarId": "pillar/news", "pillarName": "News"}, {"id": "society/2011/sep/30/electronic-tags-offenders", "type": "article", "sectionId": "society", "sectionName": "Society", "webPublicationDate": "2011-09-29T23:01:06Z", "webTitle": "Ministers plan big rise in use of electronic tags on offenders", "webUrl": "https://www.theguardian.com/society/2011/sep/30/electronic-tags-offenders", "apiUrl": "https://content.guardianapis.com/society/2011/sep/30/electronic-tags-offenders", "isHosted": false, "pillarId": "pillar/news", "pillarName": "News"}, {"id": "commentisfree/2011/sep/29/in-praise-of-55mph-editorial", "type": "article", "sectionId": "commentisfree", "sectionName": "Opinion", "webPublicationDate": "2011-09-29T22:17:40Z", "webTitle": "In praise of \u2026 55mph | Editorial", "webUrl": "https://www.theguardian.com/commentisfree/2011/sep/29/in-praise-of-55mph-editorial", "apiUrl": "https://content.guardianapis.com/commentisfree/2011/sep/29/in-praise-of-55mph-editorial", "isHosted": false, "pillarId": "pillar/opinion", "pillarName": "Opinion"}, {"id": "commentisfree/2011/sep/29/defence-spending-strategic-mistakes-editorial", "type": "article", "sectionId": "commentisfree", "sectionName": "Opinion", "webPublicationDate": "2011-09-29T21:57:01Z", "webTitle": "Defence spending: strategic mistakes | Editorial", "webUrl": "https://www.theguardian.com/commentisfree/2011/sep/29/defence-spending-strategic-mistakes-editorial", "apiUrl": "https://content.guardianapis.com/commentisfree/2011/sep/29/defence-spending-strategic-mistakes-editorial", "isHosted": false, "pillarId": "pillar/opinion", "pillarName": "Opinion"}, {"id": "politics/2011/sep/29/hugh-muir-diary-labour-party-conference", "type": "article", "sectionId": "politics", "sectionName": "Politics", "webPublicationDate": "2011-09-29T21:50:02Z", "webTitle": "Hugh Muir's diary", "webUrl": "https://www.theguardian.com/politics/2011/sep/29/hugh-muir-diary-labour-party-conference", "apiUrl": "https://content.guardianapis.com/politics/2011/sep/29/hugh-muir-diary-labour-party-conference", "isHosted": false, "pillarId": "pillar/news", "pillarName": "News"}, {"id": "environment/damian-carrington-blog/2011/sep/29/damian-carrington-blog-fast-lane-to-nowhere", "type": "article", "sectionId": "environment", "sectionName": "Environment", "webPublicationDate": "2011-09-29T21:09:47Z", "webTitle": "Higher speed limit is the fast track to more fumes and funerals | Damian Carrington", "webUrl": "https://www.theguardian.com/environment/damian-carrington-blog/2011/sep/29/damian-carrington-blog-fast-lane-to-nowhere", "apiUrl": "https://content.guardianapis.com/environment/damian-carrington-blog/2011/sep/29/damian-carrington-blog-fast-lane-to-nowhere", "isHosted": false, "pillarId": "pillar/news", "pillarName": "News"}, {"id": "politics/2011/sep/29/westminster-digested-labour-party-conference", "type": "article", "sectionId": "politics", "sectionName": "Politics", "webPublicationDate": "2011-09-29T20:59:01Z", "webTitle": "Westminster digested", "webUrl": "https://www.theguardian.com/politics/2011/sep/29/westminster-digested-labour-party-conference", "apiUrl": "https://content.guardianapis.com/politics/2011/sep/29/westminster-digested-labour-party-conference", "isHosted": false, "pillarId": "pillar/news", "pillarName": "News"}, {"id": "politics/2011/sep/29/defence-minister-liam-fox-cuts", "type": "article", "sectionId": "politics", "sectionName": "Politics", "webPublicationDate": "2011-09-29T20:30:04Z", "webTitle": "Defence minister: 'MoD dug itself a hole it couldn't climb out of'", "webUrl": "https://www.theguardian.com/politics/2011/sep/29/defence-minister-liam-fox-cuts", "apiUrl": "https://content.guardianapis.com/politics/2011/sep/29/defence-minister-liam-fox-cuts", "isHosted": false, "pillarId": "pillar/news", "pillarName": "News"}, {"id": "commentisfree/2011/sep/29/ed-miliband-alternative-labour", "type": "article", "sectionId": "commentisfree", "sectionName": "Opinion", "webPublicationDate": "2011-09-29T20:30:03Z", "webTitle": "Ed has offered an alternative \u2013 but will anyone vote for it? | Martin Kettle", "webUrl": "https://www.theguardian.com/commentisfree/2011/sep/29/ed-miliband-alternative-labour", "apiUrl": "https://content.guardianapis.com/commentisfree/2011/sep/29/ed-miliband-alternative-labour", "isHosted": false, "pillarId": "pillar/opinion", "pillarName": "Opinion"}]}}