{"response": {"status": "ok", "userTier": "developer", "total": 17967, "startIndex": 1, "pageSize": 50, "currentPage": 1, "pages": 360, "orderBy": "newest", "results": [{"id": "lifeandstyle/video/2012/oct/01/nigel-slater-cake-pudding-recipes-observer", "type": "video", "sectionId": "food", "sectionName": "Food", "webPublicationDate": "2012-09-30T22:01:00Z", "webTitle": "Nigel Slater's exclusive cake and pudding recipes for the Observer - video", "webUrl": "https://www.theguardian.com/lifeandstyle/video/2012/oct/01/nigel-slater-cake-pudding-recipes-observer", "apiUrl": "https://content.guardianapis.com/lifeandstyle/video/2012/oct/01/nigel-slater-cake-pudding-recipes-observer", "isHosted": false, "pillarId": "pillar/lifestyle", "pillarName": "Lifestyle"}, {"id": "environment/2012/sep/30/fish-shrink-climate-change", "type": "article", "sectionId": "environment", "sectionName": "Environment", "webPublicationDate": "2012-09-30T17:00:00Z", "webTitle": "Fish to shrink by up to a quarter due to climate change, study reveals", "webUrl": "https://www.theguardian.com/environment/2012/sep/30/fish-shrink-climate-change", "apiUrl": "https://content.guardianapis.com/environment/2012/sep/30/fish-shrink-climate-change", "isHosted": false, "pillarId": "pillar/news", "pillarName": "News"}, {"id": "lifeandstyle/2012/sep/30/jay-rayner-restaurant-heliot-casino-hippodrome", "type": "article", "sectionId": "food", "sectionName": "Food", "webPublicationDate": "2012-09-29T23:07:02Z", "webTitle": "Restaurant review: The Heliot, London WC2", "webUrl": "https://www.theguardian.com/lifeandstyle/2012/sep/30/jay-rayner-restaurant-heliot-casino-hippodrome", "apiUrl": "https://content.guardianapis.com/lifeandstyle/2012/sep/30/jay-rayner-restaurant-heliot-casino-hippodrome", "isHosted": false, "pillarId": "pillar/lifestyle", "pillarName": "Lifestyle"}, {"id": "lifeandstyle/2012/sep/30/michelin-guide-country-pubs-stars", "type": "article", "sectionId": "food", "sectionName": "Food", "webPublicationDate": "2012-09-29T23:05:52Z", "webTitle": "Country pubs shine in the latest Michelin guide", "webUrl": "https://www.theguardian.com/lifeandstyle/2012/sep/30/michelin-guide-country-pubs-stars", "apiUrl": "https://content.guardianapis.com/lifeandstyle/2012/sep/30/michelin-guide-country-pubs-stars", "isHosted": false, "pillarId": "pillar/lifestyle", "pillarName": "Lifestyle"}, {"id": "lifeandstyle/2012/sep/30/wines-of-the-week-david-williams", "type": "article", "sectionId": "food", "sectionName": "Food", "webPublicationDate": "2012-09-29T23:05:26Z", "webTitle": "Wines of the week", "webUrl": "https://www.theguardian.com/lifeandstyle/2012/sep/30/wines-of-the-week-david-williams", "apiUrl": "https://content.guardianapis.com/lifeandstyle/2012/sep/30/wines-of-the-week-david-williams", "isHosted": false, "pillarId": "pillar/lifestyle", "pillarName": "Lifestyle"}, {"id": "lifeandstyle/2012/sep/28/goat-kid-recipes-fearnley-whittingstall", "type": "article", "sectionId": "lifeandstyle", "sectionName": "Life and style", "webPublicationDate": "2012-09-28T21:59:26Z", "webTitle": "The kids are alright: kid and goat recipes | Hugh Fearnley-Whittingstall", "webUrl": "https://www.theguardian.com/lifeandstyle/2012/sep/28/goat-kid-recipes-fearnley-whittingstall", "apiUrl": "https://content.guardianapis.com/lifeandstyle/2012/sep/28/goat-kid-recipes-fearnley-whittingstall", "isHosted": false, "pillarId": "pillar/lifestyle", "pillarName": "Lifestyle"}, {"id": "lifeandstyle/2012/sep/28/wine-special-offers-not-special", "type": "article", "sectionId": "food", "sectionName": "Food", "webPublicationDate": "2012-09-28T21:59:08Z", "webTitle": "Wine: some special offers are more special than others", "webUrl": "https://www.theguardian.com/lifeandstyle/2012/sep/28/wine-special-offers-not-special", "apiUrl": "https://content.guardianapis.com/lifeandstyle/2012/sep/28/wine-special-offers-not-special", "isHosted": false, "pillarId": "pillar/lifestyle", "pillarName": "Lifestyle"}, {"id": "lifeandstyle/2012/sep/28/wapping-food-restaurant-review-london", "type": "article", "sectionId": "lifeandstyle", "sectionName": "Life and style", "webPublicationDate": "2012-09-28T21:59:01Z", "webTitle": "Restaurant: Wapping Food, London E1", "webUrl": "https://www.theguardian.com/lifeandstyle/2012/sep/28/wapping-food-restaurant-review-london", "apiUrl": "https://content.guardianapis.com/lifeandstyle/2012/sep/28/wapping-food-restaurant-review-london", "isHosted": false, "pillarId": "pillar/lifestyle", "pillarName": "Lifestyle"}, {"id": "lifeandstyle/video/2012/sep/28/ombra-venice-video", "type": "video", "sectionId": "food", "sectionName": "Food", "webPublicationDate": "2012-09-28T12:30:00Z", "webTitle": "Ombra Venice: La Serenissima comes to Hackney - video", "webUrl": "https://www.theguardian.com/lifeandstyle/video/2012/sep/28/ombra-venice-video", "apiUrl": "https://content.guardianapis.com/lifeandstyle/video/2012/sep/28/ombra-venice-video", "isHosted": false, "pillarId": "pillar/lifestyle", "pillarName": "Lifestyle"}, {"id": "lifeandstyle/quiz/2012/sep/28/food-and-drink-quiz-september", "type": "article", "sectionId": "global", "sectionName": "Global", "webPublicationDate": "2012-09-28T11:40:00Z", "webTitle": "Food and drink quiz - September", "webUrl": "https://www.theguardian.com/lifeandstyle/quiz/2012/sep/28/food-and-drink-quiz-september", "apiUrl": "https://content.guardianapis.com/lifeandstyle/quiz/2012/sep/28/food-and-drink-quiz-september", "isHosted": false}, {"id": "artanddesign/2012/sep/27/frieze-art-fair-details-announced", "type": "article", "sectionId": "artanddesign", "sectionName": "Art and design", "webPublicationDate": "2012-09-27T16:28:01Z", "webTitle": "Heart-stopping Frieze art fair unveiled", "webUrl": "https://www.theguardian.com/artanddesign/2012/sep/27/frieze-art-fair-details-announced", "apiUrl": "https://content.guardianapis.com/artanddesign/2012/sep/27/frieze-art-fair-details-announced", "isHosted": false, "pillarId": "pillar/arts", "pillarName": "Arts"}, {"id": "environment/2012/sep/27/ugly-fruit-vegetables-supermarkets-harvest", "type": "article", "sectionId": "environment", "sectionName": "Environment", "webPublicationDate": "2012-09-27T16:05:10Z", "webTitle": "'Ugly' fruit and veg make the grade on UK supermarket shelves", "webUrl": "https://www.theguardian.com/environment/2012/sep/27/ugly-fruit-vegetables-supermarkets-harvest", "apiUrl": "https://content.guardianapis.com/environment/2012/sep/27/ugly-fruit-vegetables-supermarkets-harvest", "isHosted": false, "pillarId": "pillar/news", "pillarName": "News"}, {"id": "lifeandstyle/2012/sep/27/michelin-restautant-guide", "type": "article", "sectionId": "food", "sectionName": "Food", "webPublicationDate": "2012-09-27T15:18:00Z", "webTitle": "Michelin leaks own restaurant guide a week early", "webUrl": "https://www.theguardian.com/lifeandstyle/2012/sep/27/michelin-restautant-guide", "apiUrl": "https://content.guardianapis.com/lifeandstyle/2012/sep/27/michelin-restautant-guide", "isHosted": false, "pillarId": "pillar/lifestyle", "pillarName": "Lifestyle"}, {"id": "lifeandstyle/gallery/2012/sep/27/making-15-minute-meal-jamie-in-pictures", "type": "gallery", "sectionId": "food", "sectionName": "Food", "webPublicationDate": "2012-09-27T10:47:00Z", "webTitle": "Making a 15 minute meal of Jamie - in pictures", "webUrl": "https://www.theguardian.com/lifeandstyle/gallery/2012/sep/27/making-15-minute-meal-jamie-in-pictures", "apiUrl": "https://content.guardianapis.com/lifeandstyle/gallery/2012/sep/27/making-15-minute-meal-jamie-in-pictures", "isHosted": false, "pillarId": "pillar/lifestyle", "pillarName": "Lifestyle"}, {"id": "world/2012/sep/27/mooncakes-china-traditional-festive-gift", "type": "article", "sectionId": "world", "sectionName": "World news", "webPublicationDate": "2012-09-27T10:04:44Z", "webTitle": "Mooncakes, China's traditional festive gift, are getting a makeover", "webUrl": "https://www.theguardian.com/world/2012/sep/27/mooncakes-china-traditional-festive-gift", "apiUrl": "https://content.guardianapis.com/world/2012/sep/27/mooncakes-china-traditional-festive-gift", "isHosted": false, "pillarId": "pillar/news", "pillarName": "News"}, {"id": "travel/2012/sep/27/cheshire-best-budget-restaurants", "type": "article", "sectionId": "travel", "sectionName": "Travel", "webPublicationDate": "2012-09-27T04:30:00Z", "webTitle": "Cheshire's 10 best budget restaurants", "webUrl": "https://www.theguardian.com/travel/2012/sep/27/cheshire-best-budget-restaurants", "apiUrl": "https://content.guardianapis.com/travel/2012/sep/27/cheshire-best-budget-restaurants", "isHosted": false, "pillarId": "pillar/lifestyle", "pillarName": "Lifestyle"}, {"id": "lifeandstyle/wordofmouth/2012/sep/27/how-to-cook-perfect-pilaf", "type": "article", "sectionId": "food", "sectionName": "Food", "webPublicationDate": "2012-09-26T23:10:00Z", "webTitle": "How to cook perfect pilaf", "webUrl": "https://www.theguardian.com/lifeandstyle/wordofmouth/2012/sep/27/how-to-cook-perfect-pilaf", "apiUrl": "https://content.guardianapis.com/lifeandstyle/wordofmouth/2012/sep/27/how-to-cook-perfect-pilaf", "isHosted": false, "pillarId": "pillar/lifestyle", "pillarName": "Lifestyle"}, {"id": "lifeandstyle/2012/sep/26/nathan-outlaw-fish-seafood-grill", "type": "article", "sectionId": "food", "sectionName": "Food", "webPublicationDate": "2012-09-26T15:22:00Z", "webTitle": "Nathan Outlaw: the chef who loves fish", "webUrl": "https://www.theguardian.com/lifeandstyle/2012/sep/26/nathan-outlaw-fish-seafood-grill", "apiUrl": "https://content.guardianapis.com/lifeandstyle/2012/sep/26/nathan-outlaw-fish-seafood-grill", "isHosted": false, "pillarId": "pillar/lifestyle", "pillarName": "Lifestyle"}, {"id": "money/2012/sep/26/abel-cole-ex-customers-persistent-calls", "type": "article", "sectionId": "money", "sectionName": "Money", "webPublicationDate": "2012-09-26T14:57:00Z", "webTitle": "Abel & Cole angers ex-customers with persistent calls", "webUrl": "https://www.theguardian.com/money/2012/sep/26/abel-cole-ex-customers-persistent-calls", "apiUrl": "https://content.guardianapis.com/money/2012/sep/26/abel-cole-ex-customers-persistent-calls", "isHosted": false, "pillarId": "pillar/lifestyle", "pillarName": "Lifestyle"}, {"id": "money/2012/sep/26/rotisserie-chicken-vat-laws", "type": "article", "sectionId": "money", "sectionName": "Money", "webPublicationDate": "2012-09-26T12:08:29Z", "webTitle": "Rotisserie chicken falls foul of VAT laws", "webUrl": "https://www.theguardian.com/money/2012/sep/26/rotisserie-chicken-vat-laws", "apiUrl": "https://content.guardianapis.com/money/2012/sep/26/rotisserie-chicken-vat-laws", "isHosted": false, "pillarId": "pillar/lifestyle", "pillarName": "Lifestyle"}, {"id": "lifeandstyle/2012/sep/26/angela-hartnett-sardine-escabeche-recipe", "type": "article", "sectionId": "food", "sectionName": "Food", "webPublicationDate": "2012-09-26T12:04:01Z", "webTitle": "Angela Hartnett's sardine escabeche recipe", "webUrl": "https://www.theguardian.com/lifeandstyle/2012/sep/26/angela-hartnett-sardine-escabeche-recipe", "apiUrl": "https://content.guardianapis.com/lifeandstyle/2012/sep/26/angela-hartnett-sardine-escabeche-recipe", "isHosted": false, "pillarId": "pillar/lifestyle", "pillarName": "Lifestyle"}, {"id": "travel/2012/sep/26/philadephia-pizza-power-museum-us", "type": "article", "sectionId": "travel", "sectionName": "Travel", "webPublicationDate": "2012-09-26T11:56:54Z", "webTitle": "Welcome to the world's first pizza museum", "webUrl": "https://www.theguardian.com/travel/2012/sep/26/philadephia-pizza-power-museum-us", "apiUrl": "https://content.guardianapis.com/travel/2012/sep/26/philadephia-pizza-power-museum-us", "isHosted": false, "pillarId": "pillar/lifestyle", "pillarName": "Lifestyle"}, {"id": "travel/2012/sep/26/new-ice-cream-museum-bologna-italy", "type": "article", "sectionId": "travel", "sectionName": "Travel", "webPublicationDate": "2012-09-26T11:48:00Z", "webTitle": "Bologna's new ice-cream museum charts history of the Italian treat", "webUrl": "https://www.theguardian.com/travel/2012/sep/26/new-ice-cream-museum-bologna-italy", "apiUrl": "https://content.guardianapis.com/travel/2012/sep/26/new-ice-cream-museum-bologna-italy", "isHosted": false, "pillarId": "pillar/lifestyle", "pillarName": "Lifestyle"}, {"id": "commentisfree/2012/sep/26/britain-resist-pumpkin-spice-latte", "type": "article", "sectionId": "commentisfree", "sectionName": "Opinion", "webPublicationDate": "2012-09-26T11:22:21Z", "webTitle": "Britain should resist the US pumpkin invasion | Lagusta Yearwood", "webUrl": "https://www.theguardian.com/commentisfree/2012/sep/26/britain-resist-pumpkin-spice-latte", "apiUrl": "https://content.guardianapis.com/commentisfree/2012/sep/26/britain-resist-pumpkin-spice-latte", "isHosted": false, "pillarId": "pillar/opinion", "pillarName": "Opinion"}, {"id": "tv-and-radio/tvandradioblog/2012/sep/26/six-to-watch-tv-chefs", "type": "article", "sectionId": "tv-and-radio", "sectionName": "Television & radio", "webPublicationDate": "2012-09-26T11:06:00Z", "webTitle": "Six to watch: TV chefs", "webUrl": "https://www.theguardian.com/tv-and-radio/tvandradioblog/2012/sep/26/six-to-watch-tv-chefs", "apiUrl": "https://content.guardianapis.com/tv-and-radio/tvandradioblog/2012/sep/26/six-to-watch-tv-chefs", "isHosted": false, "pillarId": "pillar/arts", "pillarName": "Arts"}, {"id": "environment/2012/sep/25/pork-bacon-shortage-unavoidable-drought", "type": "article", "sectionId": "environment", "sectionName": "Environment", "webPublicationDate": "2012-09-25T17:07:00Z", "webTitle": "Pork and bacon shortage 'unavoidable' as record drought raises feed costs", "webUrl": "https://www.theguardian.com/environment/2012/sep/25/pork-bacon-shortage-unavoidable-drought", "apiUrl": "https://content.guardianapis.com/environment/2012/sep/25/pork-bacon-shortage-unavoidable-drought", "isHosted": false, "pillarId": "pillar/news", "pillarName": "News"}, {"id": "lifeandstyle/wordofmouth/2012/sep/25/eating-badger-a-sett-menu", "type": "article", "sectionId": "food", "sectionName": "Food", "webPublicationDate": "2012-09-25T15:22:06Z", "webTitle": "Eating badger: a sett menu", "webUrl": "https://www.theguardian.com/lifeandstyle/wordofmouth/2012/sep/25/eating-badger-a-sett-menu", "apiUrl": "https://content.guardianapis.com/lifeandstyle/wordofmouth/2012/sep/25/eating-badger-a-sett-menu", "isHosted": false, "pillarId": "pillar/lifestyle", "pillarName": "Lifestyle"}, {"id": "environment/2012/sep/25/supermarkets-protests-badger-cull", "type": "article", "sectionId": "environment", "sectionName": "Environment", "webPublicationDate": "2012-09-25T12:32:04Z", "webTitle": "Supermarkets face protests over support for badger cull", "webUrl": "https://www.theguardian.com/environment/2012/sep/25/supermarkets-protests-badger-cull", "apiUrl": "https://content.guardianapis.com/environment/2012/sep/25/supermarkets-protests-badger-cull", "isHosted": false, "pillarId": "pillar/news", "pillarName": "News"}, {"id": "lifeandstyle/wordofmouth/2012/sep/25/revolting-names-for-delicious-dishes", "type": "article", "sectionId": "food", "sectionName": "Food", "webPublicationDate": "2012-09-25T10:00:00Z", "webTitle": "Revolting names for delicious dishes", "webUrl": "https://www.theguardian.com/lifeandstyle/wordofmouth/2012/sep/25/revolting-names-for-delicious-dishes", "apiUrl": "https://content.guardianapis.com/lifeandstyle/wordofmouth/2012/sep/25/revolting-names-for-delicious-dishes", "isHosted": false, "pillarId": "pillar/lifestyle", "pillarName": "Lifestyle"}, {"id": "tv-and-radio/2012/sep/24/tv-review-nigellissima", "type": "article", "sectionId": "tv-and-radio", "sectionName": "Television & radio", "webPublicationDate": "2012-09-24T20:00:00Z", "webTitle": "TV review: Nigellissima", "webUrl": "https://www.theguardian.com/tv-and-radio/2012/sep/24/tv-review-nigellissima", "apiUrl": "https://content.guardianapis.com/tv-and-radio/2012/sep/24/tv-review-nigellissima", "isHosted": false, "pillarId": "pillar/arts", "pillarName": "Arts"}, {"id": "lifeandstyle/wordofmouth/2012/sep/24/barack-obama-beer-white-house-brew-house", "type": "article", "sectionId": "food", "sectionName": "Food", "webPublicationDate": "2012-09-24T10:05:00Z", "webTitle": "Barack Obama's beer: White House to brew house", "webUrl": "https://www.theguardian.com/lifeandstyle/wordofmouth/2012/sep/24/barack-obama-beer-white-house-brew-house", "apiUrl": "https://content.guardianapis.com/lifeandstyle/wordofmouth/2012/sep/24/barack-obama-beer-white-house-brew-house", "isHosted": false, "pillarId": "pillar/lifestyle", "pillarName": "Lifestyle"}, {"id": "lifeandstyle/2012/sep/23/david-williams-wines-of-the-week-rioja-gamay-giulia", "type": "article", "sectionId": "food", "sectionName": "Food", "webPublicationDate": "2012-09-22T23:07:42Z", "webTitle": "Wines of the week", "webUrl": "https://www.theguardian.com/lifeandstyle/2012/sep/23/david-williams-wines-of-the-week-rioja-gamay-giulia", "apiUrl": "https://content.guardianapis.com/lifeandstyle/2012/sep/23/david-williams-wines-of-the-week-rioja-gamay-giulia", "isHosted": false, "pillarId": "pillar/lifestyle", "pillarName": "Lifestyle"}, {"id": "business/2012/sep/23/olive-oil-prices-soar-spain", "type": "article", "sectionId": "business", "sectionName": "Business", "webPublicationDate": "2012-09-22T23:05:50Z", "webTitle": "Olive oil prices to soar after Spanish drought devastates crop", "webUrl": "https://www.theguardian.com/business/2012/sep/23/olive-oil-prices-soar-spain", "apiUrl": "https://content.guardianapis.com/business/2012/sep/23/olive-oil-prices-soar-spain", "isHosted": false, "pillarId": "pillar/news", "pillarName": "News"}, {"id": "travel/2012/sep/23/scotland-golf-holiday", "type": "article", "sectionId": "travel", "sectionName": "Travel", "webPublicationDate": "2012-09-22T23:05:16Z", "webTitle": "Fairways to heaven \u2013 a golfing break in Scotland", "webUrl": "https://www.theguardian.com/travel/2012/sep/23/scotland-golf-holiday", "apiUrl": "https://content.guardianapis.com/travel/2012/sep/23/scotland-golf-holiday", "isHosted": false, "pillarId": "pillar/lifestyle", "pillarName": "Lifestyle"}, {"id": "lifeandstyle/2012/sep/23/jay-rayner-restaurants-red-duster", "type": "article", "sectionId": "food", "sectionName": "Food", "webPublicationDate": "2012-09-22T23:03:01Z", "webTitle": "Restaurant review: The Red Duster, Isle of Wight", "webUrl": "https://www.theguardian.com/lifeandstyle/2012/sep/23/jay-rayner-restaurants-red-duster", "apiUrl": "https://content.guardianapis.com/lifeandstyle/2012/sep/23/jay-rayner-restaurants-red-duster", "isHosted": false, "pillarId": "pillar/lifestyle", "pillarName": "Lifestyle"}, {"id": "tv-and-radio/shortcuts/2012/sep/22/masterchef-winner-emma-kennedy-tips", "type": "article", "sectionId": "tv-and-radio", "sectionName": "Television & radio", "webPublicationDate": "2012-09-22T08:00:00Z", "webTitle": "MasterChef winner Emma Kennedy on how to be a champion", "webUrl": "https://www.theguardian.com/tv-and-radio/shortcuts/2012/sep/22/masterchef-winner-emma-kennedy-tips", "apiUrl": "https://content.guardianapis.com/tv-and-radio/shortcuts/2012/sep/22/masterchef-winner-emma-kennedy-tips", "isHosted": false, "pillarId": "pillar/arts", "pillarName": "Arts"}, {"id": "lifeandstyle/2012/sep/21/perry-drinks-review-fiona-beckett", "type": "article", "sectionId": "food", "sectionName": "Food", "webPublicationDate": "2012-09-21T21:59:06Z", "webTitle": "Drink: give perry a chance", "webUrl": "https://www.theguardian.com/lifeandstyle/2012/sep/21/perry-drinks-review-fiona-beckett", "apiUrl": "https://content.guardianapis.com/lifeandstyle/2012/sep/21/perry-drinks-review-fiona-beckett", "isHosted": false, "pillarId": "pillar/lifestyle", "pillarName": "Lifestyle"}, {"id": "lifeandstyle/2012/sep/21/ag-hendy-hastings-restaurant-review", "type": "article", "sectionId": "lifeandstyle", "sectionName": "Life and style", "webPublicationDate": "2012-09-21T21:58:01Z", "webTitle": "Restaurant: AG Hendy & Co Home Store Kitchen, Hastings", "webUrl": "https://www.theguardian.com/lifeandstyle/2012/sep/21/ag-hendy-hastings-restaurant-review", "apiUrl": "https://content.guardianapis.com/lifeandstyle/2012/sep/21/ag-hendy-hastings-restaurant-review", "isHosted": false, "pillarId": "pillar/lifestyle", "pillarName": "Lifestyle"}, {"id": "travel/2012/sep/21/peru-lima-food-restaurants-revolution", "type": "article", "sectionId": "travel", "sectionName": "Travel", "webPublicationDate": "2012-09-21T21:45:01Z", "webTitle": "Peru's fantastic food revolution", "webUrl": "https://www.theguardian.com/travel/2012/sep/21/peru-lima-food-restaurants-revolution", "apiUrl": "https://content.guardianapis.com/travel/2012/sep/21/peru-lima-food-restaurants-revolution", "isHosted": false, "pillarId": "pillar/lifestyle", "pillarName": "Lifestyle"}, {"id": "world/2012/sep/21/oktoberfest-beer-price-rises-munich", "type": "article", "sectionId": "world", "sectionName": "World news", "webPublicationDate": "2012-09-21T20:54:00Z", "webTitle": "Oktoberfest beer prices take the froth off the fun", "webUrl": "https://www.theguardian.com/world/2012/sep/21/oktoberfest-beer-price-rises-munich", "apiUrl": "https://content.guardianapis.com/world/2012/sep/21/oktoberfest-beer-price-rises-munich", "isHosted": false, "pillarId": "pillar/news", "pillarName": "News"}, {"id": "environment/blog/2012/sep/21/water-footprint", "type": "article", "sectionId": "environment", "sectionName": "Environment", "webPublicationDate": "2012-09-21T13:32:40Z", "webTitle": "Do you know the water footprint of your cafe meal? | Bibi van der Zee", "webUrl": "https://www.theguardian.com/environment/blog/2012/sep/21/water-footprint", "apiUrl": "https://content.guardianapis.com/environment/blog/2012/sep/21/water-footprint", "isHosted": false, "pillarId": "pillar/news", "pillarName": "News"}, {"id": "commentisfree/2012/sep/21/home-kitchen-250000-cooking-need", "type": "article", "sectionId": "commentisfree", "sectionName": "Opinion", "webPublicationDate": "2012-09-21T12:59:12Z", "webTitle": "The \u00a3250,000 home kitchen that nobody needs | Oliver Thring", "webUrl": "https://www.theguardian.com/commentisfree/2012/sep/21/home-kitchen-250000-cooking-need", "apiUrl": "https://content.guardianapis.com/commentisfree/2012/sep/21/home-kitchen-250000-cooking-need", "isHosted": false, "pillarId": "pillar/opinion", "pillarName": "Opinion"}, {"id": "lifeandstyle/wordofmouth/2012/sep/21/nigellissima-nigella-lawson-review", "type": "article", "sectionId": "food", "sectionName": "Food", "webPublicationDate": "2012-09-21T12:17:00Z", "webTitle": "Nigellissima by Nigella Lawson - review", "webUrl": "https://www.theguardian.com/lifeandstyle/wordofmouth/2012/sep/21/nigellissima-nigella-lawson-review", "apiUrl": "https://content.guardianapis.com/lifeandstyle/wordofmouth/2012/sep/21/nigellissima-nigella-lawson-review", "isHosted": false, "pillarId": "pillar/lifestyle", "pillarName": "Lifestyle"}, {"id": "lifeandstyle/video/2012/sep/21/cassoulet-student-recipe-video", "type": "video", "sectionId": "education", "sectionName": "Education", "webPublicationDate": "2012-09-21T11:00:00Z", "webTitle": "How to cook the best cassoulet ever - student recipe video", "webUrl": "https://www.theguardian.com/lifeandstyle/video/2012/sep/21/cassoulet-student-recipe-video", "apiUrl": "https://content.guardianapis.com/lifeandstyle/video/2012/sep/21/cassoulet-student-recipe-video", "isHosted": false, "pillarId": "pillar/news", "pillarName": "News"}, {"id": "tv-and-radio/tvandradioblog/2012/sep/21/celebrity-masterchef-who-win", "type": "article", "sectionId": "food", "sectionName": "Food", "webPublicationDate": "2012-09-21T09:59:00Z", "webTitle": "Celebrity MasterChef: who should win?", "webUrl": "https://www.theguardian.com/tv-and-radio/tvandradioblog/2012/sep/21/celebrity-masterchef-who-win", "apiUrl": "https://content.guardianapis.com/tv-and-radio/tvandradioblog/2012/sep/21/celebrity-masterchef-who-win", "isHosted": false, "pillarId": "pillar/lifestyle", "pillarName": "Lifestyle"}, {"id": "commentisfree/2012/sep/20/rising-food-prices-peoples-panel", "type": "article", "sectionId": "commentisfree", "sectionName": "Opinion", "webPublicationDate": "2012-09-20T18:46:00Z", "webTitle": "Coping with rising food prices worldwide: readers respond", "webUrl": "https://www.theguardian.com/commentisfree/2012/sep/20/rising-food-prices-peoples-panel", "apiUrl": "https://content.guardianapis.com/commentisfree/2012/sep/20/rising-food-prices-peoples-panel", "isHosted": false, "pillarId": "pillar/opinion", "pillarName": "Opinion"}, {"id": "lifeandstyle/2012/sep/20/250000-most-expensive-domestic-kitchen", "type": "article", "sectionId": "food", "sectionName": "Food", "webPublicationDate": "2012-09-20T17:06:01Z", "webTitle": "The \u00a3250,000 kitchen? Blame the molecular gastronomists", "webUrl": "https://www.theguardian.com/lifeandstyle/2012/sep/20/250000-most-expensive-domestic-kitchen", "apiUrl": "https://content.guardianapis.com/lifeandstyle/2012/sep/20/250000-most-expensive-domestic-kitchen", "isHosted": false, "pillarId": "pillar/lifestyle", "pillarName": "Lifestyle"}, {"id": "lifeandstyle/video/2012/sep/20/mediterranean-fish-stew-recipe-video", "type": "video", "sectionId": "education", "sectionName": "Education", "webPublicationDate": "2012-09-20T11:00:00Z", "webTitle": "How to cook the best Mediterranean fish stew ever - student recipe video", "webUrl": "https://www.theguardian.com/lifeandstyle/video/2012/sep/20/mediterranean-fish-stew-recipe-video", "apiUrl": "https://content.guardianapis.com/lifeandstyle/video/2012/sep/20/mediterranean-fish-stew-recipe-video", "isHosted": false, "pillarId": "pillar/news", "pillarName": "News"}, {"id": "lifeandstyle/wordofmouth/2012/sep/20/how-to-cook-perfect-creme-brulee", "type": "article", "sectionId": "food", "sectionName": "Food", "webPublicationDate": "2012-09-19T23:10:00Z", "webTitle": "How to cook perfect creme brulee", "webUrl": "https://www.theguardian.com/lifeandstyle/wordofmouth/2012/sep/20/how-to-cook-perfect-creme-brulee", "apiUrl": "https://content.guardianapis.com/lifeandstyle/wordofmouth/2012/sep/20/how-to-cook-perfect-creme-brulee", "isHosted": false, "pillarId": "pillar/lifestyle", "pillarName": "Lifestyle"}, {"id": "business/2012/sep/20/low-fat-foods-calorie-standard", "type": "article", "sectionId": "business", "sectionName": "Business", "webPublicationDate": "2012-09-19T23:01:00Z", "webTitle": "Many 'low fat' foods have similar calorie count to standard products, study finds", "webUrl": "https://www.theguardian.com/business/2012/sep/20/low-fat-foods-calorie-standard", "apiUrl": "https://content.guardianapis.com/business/2012/sep/20/low-fat-foods-calorie-standard", "isHosted": false, "pillarId": "pillar/news", "pillarName": "News"}]}}