{"response": {"status": "ok", "userTier": "developer", "total": 15379, "startIndex": 1, "pageSize": 50, "currentPage": 1, "pages": 308, "orderBy": "newest", "results": [{"id": "lifeandstyle/video/2010/sep/30/cabbies-guide-london-food", "type": "video", "sectionId": "lifeandstyle", "sectionName": "Life and style", "webPublicationDate": "2010-09-30T20:20:00Z", "webTitle": "Video: A cabbie's guide to London food", "webUrl": "https://www.theguardian.com/lifeandstyle/video/2010/sep/30/cabbies-guide-london-food", "apiUrl": "https://content.guardianapis.com/lifeandstyle/video/2010/sep/30/cabbies-guide-london-food", "isHosted": false, "pillarId": "pillar/lifestyle", "pillarName": "Lifestyle"}, {"id": "lifeandstyle/2010/sep/30/gordon-ramsay-chef-suicide-joseph-cerniglia", "type": "article", "sectionId": "food", "sectionName": "Food", "webPublicationDate": "2010-09-30T20:00:03Z", "webTitle": "Gordon Ramsay, reality TV and the suicide of chef Joseph Cerniglia", "webUrl": "https://www.theguardian.com/lifeandstyle/2010/sep/30/gordon-ramsay-chef-suicide-joseph-cerniglia", "apiUrl": "https://content.guardianapis.com/lifeandstyle/2010/sep/30/gordon-ramsay-chef-suicide-joseph-cerniglia", "isHosted": false, "pillarId": "pillar/lifestyle", "pillarName": "Lifestyle"}, {"id": "lifeandstyle/wordofmouth/2010/sep/30/how-to-make-perfect-shortbread", "type": "article", "sectionId": "lifeandstyle", "sectionName": "Life and style", "webPublicationDate": "2010-09-30T06:00:00Z", "webTitle": "How to make perfect shortbread", "webUrl": "https://www.theguardian.com/lifeandstyle/wordofmouth/2010/sep/30/how-to-make-perfect-shortbread", "apiUrl": "https://content.guardianapis.com/lifeandstyle/wordofmouth/2010/sep/30/how-to-make-perfect-shortbread", "isHosted": false, "pillarId": "pillar/lifestyle", "pillarName": "Lifestyle"}, {"id": "lifeandstyle/gallery/2010/sep/30/the-test-storage-jars", "type": "gallery", "sectionId": "food", "sectionName": "Food", "webPublicationDate": "2010-09-30T06:00:00Z", "webTitle": "The test . . . storage jars", "webUrl": "https://www.theguardian.com/lifeandstyle/gallery/2010/sep/30/the-test-storage-jars", "apiUrl": "https://content.guardianapis.com/lifeandstyle/gallery/2010/sep/30/the-test-storage-jars", "isHosted": false, "pillarId": "pillar/lifestyle", "pillarName": "Lifestyle"}, {"id": "lifeandstyle/2010/sep/30/linguine-clams-recipe", "type": "article", "sectionId": "food", "sectionName": "Food", "webPublicationDate": "2010-09-30T06:00:00Z", "webTitle": "Linguine with clams recipe", "webUrl": "https://www.theguardian.com/lifeandstyle/2010/sep/30/linguine-clams-recipe", "apiUrl": "https://content.guardianapis.com/lifeandstyle/2010/sep/30/linguine-clams-recipe", "isHosted": false, "pillarId": "pillar/lifestyle", "pillarName": "Lifestyle"}, {"id": "lifeandstyle/2010/sep/30/recreating-favourite-holiday-meals", "type": "article", "sectionId": "food", "sectionName": "Food", "webPublicationDate": "2010-09-30T05:59:00Z", "webTitle": "Cooking up holiday memories", "webUrl": "https://www.theguardian.com/lifeandstyle/2010/sep/30/recreating-favourite-holiday-meals", "apiUrl": "https://content.guardianapis.com/lifeandstyle/2010/sep/30/recreating-favourite-holiday-meals", "isHosted": false, "pillarId": "pillar/lifestyle", "pillarName": "Lifestyle"}, {"id": "lifeandstyle/2010/sep/30/thai-larb-meat-salad-recipe", "type": "article", "sectionId": "food", "sectionName": "Food", "webPublicationDate": "2010-09-30T01:00:00Z", "webTitle": "Thai larb recipe", "webUrl": "https://www.theguardian.com/lifeandstyle/2010/sep/30/thai-larb-meat-salad-recipe", "apiUrl": "https://content.guardianapis.com/lifeandstyle/2010/sep/30/thai-larb-meat-salad-recipe", "isHosted": false, "pillarId": "pillar/lifestyle", "pillarName": "Lifestyle"}, {"id": "lifeandstyle/2010/sep/30/salted-caramel-ice-cream-recipe", "type": "article", "sectionId": "food", "sectionName": "Food", "webPublicationDate": "2010-09-30T00:00:00Z", "webTitle": "Salted caramel ice-cream recipe", "webUrl": "https://www.theguardian.com/lifeandstyle/2010/sep/30/salted-caramel-ice-cream-recipe", "apiUrl": "https://content.guardianapis.com/lifeandstyle/2010/sep/30/salted-caramel-ice-cream-recipe", "isHosted": false, "pillarId": "pillar/lifestyle", "pillarName": "Lifestyle"}, {"id": "lifeandstyle/2010/sep/29/ikea-food-recipes-photography-carl-kleiner", "type": "article", "sectionId": "food", "sectionName": "Food", "webPublicationDate": "2010-09-29T19:00:03Z", "webTitle": "Delicious recipes, no allen key required", "webUrl": "https://www.theguardian.com/lifeandstyle/2010/sep/29/ikea-food-recipes-photography-carl-kleiner", "apiUrl": "https://content.guardianapis.com/lifeandstyle/2010/sep/29/ikea-food-recipes-photography-carl-kleiner", "isHosted": false, "pillarId": "pillar/lifestyle", "pillarName": "Lifestyle"}, {"id": "lifeandstyle/2010/sep/29/london-food-experiences", "type": "article", "sectionId": "food", "sectionName": "Food", "webPublicationDate": "2010-09-29T10:00:00Z", "webTitle": "Five top London food experiences", "webUrl": "https://www.theguardian.com/lifeandstyle/2010/sep/29/london-food-experiences", "apiUrl": "https://content.guardianapis.com/lifeandstyle/2010/sep/29/london-food-experiences", "isHosted": false, "pillarId": "pillar/lifestyle", "pillarName": "Lifestyle"}, {"id": "lifeandstyle/2010/sep/29/best-london-supper-clubs", "type": "article", "sectionId": "food", "sectionName": "Food", "webPublicationDate": "2010-09-29T09:45:00Z", "webTitle": "Best London supper clubs", "webUrl": "https://www.theguardian.com/lifeandstyle/2010/sep/29/best-london-supper-clubs", "apiUrl": "https://content.guardianapis.com/lifeandstyle/2010/sep/29/best-london-supper-clubs", "isHosted": false, "pillarId": "pillar/lifestyle", "pillarName": "Lifestyle"}, {"id": "lifeandstyle/wordofmouth/2010/sep/29/wine-led-restaurant", "type": "article", "sectionId": "food", "sectionName": "Food", "webPublicationDate": "2010-09-29T09:00:00Z", "webTitle": "Wine, then dine", "webUrl": "https://www.theguardian.com/lifeandstyle/wordofmouth/2010/sep/29/wine-led-restaurant", "apiUrl": "https://content.guardianapis.com/lifeandstyle/wordofmouth/2010/sep/29/wine-led-restaurant", "isHosted": false, "pillarId": "pillar/lifestyle", "pillarName": "Lifestyle"}, {"id": "tv-and-radio/2010/sep/29/whites-harry-paul-born-free", "type": "article", "sectionId": "tv-and-radio", "sectionName": "Television & radio", "webPublicationDate": "2010-09-29T07:00:05Z", "webTitle": "Whites, Harry and Paul and The Born Free Legacy | TV review", "webUrl": "https://www.theguardian.com/tv-and-radio/2010/sep/29/whites-harry-paul-born-free", "apiUrl": "https://content.guardianapis.com/tv-and-radio/2010/sep/29/whites-harry-paul-born-free", "isHosted": false, "pillarId": "pillar/arts", "pillarName": "Arts"}, {"id": "business/2010/sep/29/which-supermarket-value-packs", "type": "article", "sectionId": "money", "sectionName": "Money", "webPublicationDate": "2010-09-29T06:00:03Z", "webTitle": "Which? report finds supermarket 'value' packs more costly than single items", "webUrl": "https://www.theguardian.com/business/2010/sep/29/which-supermarket-value-packs", "apiUrl": "https://content.guardianapis.com/business/2010/sep/29/which-supermarket-value-packs", "isHosted": false, "pillarId": "pillar/lifestyle", "pillarName": "Lifestyle"}, {"id": "business/2010/sep/28/unilever-ben-jerrys-ingredients-watchdog", "type": "article", "sectionId": "business", "sectionName": "Business", "webPublicationDate": "2010-09-28T17:33:10Z", "webTitle": "Ben and Jerry's admits ice-cream with a liberal conscience not 'all natural'", "webUrl": "https://www.theguardian.com/business/2010/sep/28/unilever-ben-jerrys-ingredients-watchdog", "apiUrl": "https://content.guardianapis.com/business/2010/sep/28/unilever-ben-jerrys-ingredients-watchdog", "isHosted": false, "pillarId": "pillar/news", "pillarName": "News"}, {"id": "world/2010/sep/28/angela-merkel-stockpiling-food-east-germany", "type": "article", "sectionId": "world", "sectionName": "World news", "webPublicationDate": "2010-09-28T17:07:46Z", "webTitle": "Angela Merkel reveals her East German food stockpiling habit", "webUrl": "https://www.theguardian.com/world/2010/sep/28/angela-merkel-stockpiling-food-east-germany", "apiUrl": "https://content.guardianapis.com/world/2010/sep/28/angela-merkel-stockpiling-food-east-germany", "isHosted": false, "pillarId": "pillar/news", "pillarName": "News"}, {"id": "lifeandstyle/2010/sep/28/tunnocks-teacake-workers-strike", "type": "article", "sectionId": "food", "sectionName": "Food", "webPublicationDate": "2010-09-28T14:02:45Z", "webTitle": "Tunnock's biscuit workers go on strike", "webUrl": "https://www.theguardian.com/lifeandstyle/2010/sep/28/tunnocks-teacake-workers-strike", "apiUrl": "https://content.guardianapis.com/lifeandstyle/2010/sep/28/tunnocks-teacake-workers-strike", "isHosted": false, "pillarId": "pillar/lifestyle", "pillarName": "Lifestyle"}, {"id": "lifeandstyle/2010/sep/28/cider-apples-new-uk-varieties", "type": "article", "sectionId": "food", "sectionName": "Food", "webPublicationDate": "2010-09-28T13:11:13Z", "webTitle": "Harvest time for 29 new varieties of English cider apples", "webUrl": "https://www.theguardian.com/lifeandstyle/2010/sep/28/cider-apples-new-uk-varieties", "apiUrl": "https://content.guardianapis.com/lifeandstyle/2010/sep/28/cider-apples-new-uk-varieties", "isHosted": false, "pillarId": "pillar/lifestyle", "pillarName": "Lifestyle"}, {"id": "commentisfree/2010/sep/28/mouse-loaf-food-horror-stories", "type": "article", "sectionId": "commentisfree", "sectionName": "Opinion", "webPublicationDate": "2010-09-28T13:08:34Z", "webTitle": "Non-essential ingredients | Open thread", "webUrl": "https://www.theguardian.com/commentisfree/2010/sep/28/mouse-loaf-food-horror-stories", "apiUrl": "https://content.guardianapis.com/commentisfree/2010/sep/28/mouse-loaf-food-horror-stories", "isHosted": false, "pillarId": "pillar/opinion", "pillarName": "Opinion"}, {"id": "lifeandstyle/wordofmouth/2010/sep/27/vampire-twilight-lily-vanilli-cookbook", "type": "article", "sectionId": "lifeandstyle", "sectionName": "Life and style", "webPublicationDate": "2010-09-28T10:00:00Z", "webTitle": "Fantasy food cookbooks", "webUrl": "https://www.theguardian.com/lifeandstyle/wordofmouth/2010/sep/27/vampire-twilight-lily-vanilli-cookbook", "apiUrl": "https://content.guardianapis.com/lifeandstyle/wordofmouth/2010/sep/27/vampire-twilight-lily-vanilli-cookbook", "isHosted": false, "pillarId": "pillar/lifestyle", "pillarName": "Lifestyle"}, {"id": "lifeandstyle/video/2010/sep/28/raf-tea-battle-britain", "type": "video", "sectionId": "food", "sectionName": "Food", "webPublicationDate": "2010-09-28T09:15:00Z", "webTitle": "Video | Teacups raised to spirit of the blitz", "webUrl": "https://www.theguardian.com/lifeandstyle/video/2010/sep/28/raf-tea-battle-britain", "apiUrl": "https://content.guardianapis.com/lifeandstyle/video/2010/sep/28/raf-tea-battle-britain", "isHosted": false, "pillarId": "pillar/lifestyle", "pillarName": "Lifestyle"}, {"id": "lifeandstyle/wordofmouth/2010/sep/28/consider-spam", "type": "article", "sectionId": "lifeandstyle", "sectionName": "Life and style", "webPublicationDate": "2010-09-28T08:30:00Z", "webTitle": "Consider spam", "webUrl": "https://www.theguardian.com/lifeandstyle/wordofmouth/2010/sep/28/consider-spam", "apiUrl": "https://content.guardianapis.com/lifeandstyle/wordofmouth/2010/sep/28/consider-spam", "isHosted": false, "pillarId": "pillar/lifestyle", "pillarName": "Lifestyle"}, {"id": "commentisfree/2010/sep/28/in-praise-of-jaffa-cakes", "type": "article", "sectionId": "commentisfree", "sectionName": "Opinion", "webPublicationDate": "2010-09-27T23:01:03Z", "webTitle": "In praise of \u2026 Jaffa Cakes | Editorial", "webUrl": "https://www.theguardian.com/commentisfree/2010/sep/28/in-praise-of-jaffa-cakes", "apiUrl": "https://content.guardianapis.com/commentisfree/2010/sep/28/in-praise-of-jaffa-cakes", "isHosted": false, "pillarId": "pillar/opinion", "pillarName": "Opinion"}, {"id": "lifeandstyle/2010/sep/27/buy-of-the-day-ethical", "type": "article", "sectionId": "lifeandstyle", "sectionName": "Life and style", "webPublicationDate": "2010-09-27T11:24:04Z", "webTitle": "Buy of the day", "webUrl": "https://www.theguardian.com/lifeandstyle/2010/sep/27/buy-of-the-day-ethical", "apiUrl": "https://content.guardianapis.com/lifeandstyle/2010/sep/27/buy-of-the-day-ethical", "isHosted": false, "pillarId": "pillar/lifestyle", "pillarName": "Lifestyle"}, {"id": "lifeandstyle/wordofmouth/2010/sep/27/kitchen-utensil-cooks-best-friend", "type": "article", "sectionId": "lifeandstyle", "sectionName": "Life and style", "webPublicationDate": "2010-09-27T09:00:00Z", "webTitle": "Cook's best friends", "webUrl": "https://www.theguardian.com/lifeandstyle/wordofmouth/2010/sep/27/kitchen-utensil-cooks-best-friend", "apiUrl": "https://content.guardianapis.com/lifeandstyle/wordofmouth/2010/sep/27/kitchen-utensil-cooks-best-friend", "isHosted": false, "pillarId": "pillar/lifestyle", "pillarName": "Lifestyle"}, {"id": "commentisfree/2010/sep/27/in-praise-of-sloe-gin", "type": "article", "sectionId": "commentisfree", "sectionName": "Opinion", "webPublicationDate": "2010-09-26T23:05:52Z", "webTitle": "In praise of \u2026 sloe gin | Editorial", "webUrl": "https://www.theguardian.com/commentisfree/2010/sep/27/in-praise-of-sloe-gin", "apiUrl": "https://content.guardianapis.com/commentisfree/2010/sep/27/in-praise-of-sloe-gin", "isHosted": false, "pillarId": "pillar/opinion", "pillarName": "Opinion"}, {"id": "lifeandstyle/2010/sep/27/real-ale-reviving-says-cask-report", "type": "article", "sectionId": "food", "sectionName": "Food", "webPublicationDate": "2010-09-26T23:02:41Z", "webTitle": "Real ale revival continues as women and young buy more", "webUrl": "https://www.theguardian.com/lifeandstyle/2010/sep/27/real-ale-reviving-says-cask-report", "apiUrl": "https://content.guardianapis.com/lifeandstyle/2010/sep/27/real-ale-reviving-says-cask-report", "isHosted": false, "pillarId": "pillar/lifestyle", "pillarName": "Lifestyle"}, {"id": "business/2010/sep/26/budweiser-giveaway-halt-sales-decline", "type": "article", "sectionId": "business", "sectionName": "Business", "webPublicationDate": "2010-09-26T14:42:32Z", "webTitle": "Anheuser lines up 500,000 free Budweisers in US in attempt to halt sales slide", "webUrl": "https://www.theguardian.com/business/2010/sep/26/budweiser-giveaway-halt-sales-decline", "apiUrl": "https://content.guardianapis.com/business/2010/sep/26/budweiser-giveaway-halt-sales-decline", "isHosted": false, "pillarId": "pillar/news", "pillarName": "News"}, {"id": "lifeandstyle/2010/sep/26/jay-rayner-restaurant-review-redhook-steakhouse", "type": "article", "sectionId": "food", "sectionName": "Food", "webPublicationDate": "2010-09-25T23:06:22Z", "webTitle": "Restaurant review: Redhook", "webUrl": "https://www.theguardian.com/lifeandstyle/2010/sep/26/jay-rayner-restaurant-review-redhook-steakhouse", "apiUrl": "https://content.guardianapis.com/lifeandstyle/2010/sep/26/jay-rayner-restaurant-review-redhook-steakhouse", "isHosted": false, "pillarId": "pillar/lifestyle", "pillarName": "Lifestyle"}, {"id": "lifeandstyle/2010/sep/25/this-weeks-new-food-reviews", "type": "article", "sectionId": "food", "sectionName": "Food", "webPublicationDate": "2010-09-24T23:06:22Z", "webTitle": "This week's new food reviews", "webUrl": "https://www.theguardian.com/lifeandstyle/2010/sep/25/this-weeks-new-food-reviews", "apiUrl": "https://content.guardianapis.com/lifeandstyle/2010/sep/25/this-weeks-new-food-reviews", "isHosted": false, "pillarId": "pillar/lifestyle", "pillarName": "Lifestyle"}, {"id": "lifeandstyle/2010/sep/25/family-life-snapshot-playlist-recipe", "type": "article", "sectionId": "lifeandstyle", "sectionName": "Life and style", "webPublicationDate": "2010-09-24T23:05:50Z", "webTitle": "Family life", "webUrl": "https://www.theguardian.com/lifeandstyle/2010/sep/25/family-life-snapshot-playlist-recipe", "apiUrl": "https://content.guardianapis.com/lifeandstyle/2010/sep/25/family-life-snapshot-playlist-recipe", "isHosted": false, "pillarId": "pillar/lifestyle", "pillarName": "Lifestyle"}, {"id": "lifeandstyle/2010/sep/25/choux-pastry-beurre-blanc-recipes", "type": "article", "sectionId": "lifeandstyle", "sectionName": "Life and style", "webPublicationDate": "2010-09-24T23:03:07Z", "webTitle": "Beurre blanc, choux pastry and tarte tatin recipes | Hugh Fearnley-Whittingstall | Food", "webUrl": "https://www.theguardian.com/lifeandstyle/2010/sep/25/choux-pastry-beurre-blanc-recipes", "apiUrl": "https://content.guardianapis.com/lifeandstyle/2010/sep/25/choux-pastry-beurre-blanc-recipes", "isHosted": false, "pillarId": "pillar/lifestyle", "pillarName": "Lifestyle"}, {"id": "lifeandstyle/2010/sep/25/wine-to-drink-with-pork", "type": "article", "sectionId": "lifeandstyle", "sectionName": "Life and style", "webPublicationDate": "2010-09-24T23:03:06Z", "webTitle": "Wine: What to drink with pork | Victoria Moore", "webUrl": "https://www.theguardian.com/lifeandstyle/2010/sep/25/wine-to-drink-with-pork", "apiUrl": "https://content.guardianapis.com/lifeandstyle/2010/sep/25/wine-to-drink-with-pork", "isHosted": false, "pillarId": "pillar/lifestyle", "pillarName": "Lifestyle"}, {"id": "lifeandstyle/2010/sep/25/chillies-ringpulls-pizzoccheri-matthew-fort", "type": "article", "sectionId": "lifeandstyle", "sectionName": "Life and style", "webPublicationDate": "2010-09-24T23:03:00Z", "webTitle": "Food for Fort: On chillies, ring pulls and unusual pasta | Matthew Fort | Food and drink", "webUrl": "https://www.theguardian.com/lifeandstyle/2010/sep/25/chillies-ringpulls-pizzoccheri-matthew-fort", "apiUrl": "https://content.guardianapis.com/lifeandstyle/2010/sep/25/chillies-ringpulls-pizzoccheri-matthew-fort", "isHosted": false, "pillarId": "pillar/lifestyle", "pillarName": "Lifestyle"}, {"id": "lifeandstyle/2010/sep/25/fish-shed-topsham-devon-review", "type": "article", "sectionId": "lifeandstyle", "sectionName": "Life and style", "webPublicationDate": "2010-09-24T23:02:52Z", "webTitle": "Restaurant: The Fish Shed, Topsham, Devon | John Lanchester", "webUrl": "https://www.theguardian.com/lifeandstyle/2010/sep/25/fish-shed-topsham-devon-review", "apiUrl": "https://content.guardianapis.com/lifeandstyle/2010/sep/25/fish-shed-topsham-devon-review", "isHosted": false, "pillarId": "pillar/lifestyle", "pillarName": "Lifestyle"}, {"id": "lifeandstyle/2010/sep/25/quinoa-fennel-salad-recipe-ottolenghi", "type": "article", "sectionId": "lifeandstyle", "sectionName": "Life and style", "webPublicationDate": "2010-09-24T23:02:51Z", "webTitle": "Quinoa and fennel salad recipe | Yotam Ottolenghi", "webUrl": "https://www.theguardian.com/lifeandstyle/2010/sep/25/quinoa-fennel-salad-recipe-ottolenghi", "apiUrl": "https://content.guardianapis.com/lifeandstyle/2010/sep/25/quinoa-fennel-salad-recipe-ottolenghi", "isHosted": false, "pillarId": "pillar/lifestyle", "pillarName": "Lifestyle"}, {"id": "lifeandstyle/2010/sep/25/malt-whisky-ginger-cake-recipe", "type": "article", "sectionId": "lifeandstyle", "sectionName": "Life and style", "webPublicationDate": "2010-09-24T23:02:49Z", "webTitle": "Malt whisky ginger cake recipe | Dan Lepard | Baking", "webUrl": "https://www.theguardian.com/lifeandstyle/2010/sep/25/malt-whisky-ginger-cake-recipe", "apiUrl": "https://content.guardianapis.com/lifeandstyle/2010/sep/25/malt-whisky-ginger-cake-recipe", "isHosted": false, "pillarId": "pillar/lifestyle", "pillarName": "Lifestyle"}, {"id": "lifeandstyle/cartoon/2010/sep/25/1", "type": "picture", "sectionId": "lifeandstyle", "sectionName": "Life and style", "webPublicationDate": "2010-09-24T23:02:00Z", "webTitle": "Berger & Wyse", "webUrl": "https://www.theguardian.com/lifeandstyle/cartoon/2010/sep/25/1", "apiUrl": "https://content.guardianapis.com/lifeandstyle/cartoon/2010/sep/25/1", "isHosted": false, "pillarId": "pillar/lifestyle", "pillarName": "Lifestyle"}, {"id": "science/blog/2010/sep/24/sugar-honeycomb-cinder-toffee", "type": "article", "sectionId": "science", "sectionName": "Science", "webPublicationDate": "2010-09-24T11:45:45Z", "webTitle": "The science and magic of cinder toffee | Andy Connelly", "webUrl": "https://www.theguardian.com/science/blog/2010/sep/24/sugar-honeycomb-cinder-toffee", "apiUrl": "https://content.guardianapis.com/science/blog/2010/sep/24/sugar-honeycomb-cinder-toffee", "isHosted": false, "pillarId": "pillar/news", "pillarName": "News"}, {"id": "lifeandstyle/wordofmouth/2010/sep/24/cheap-eats-stratford-avon-leamington", "type": "article", "sectionId": "lifeandstyle", "sectionName": "Life and style", "webPublicationDate": "2010-09-24T10:20:00Z", "webTitle": "Stuffed in Stratford", "webUrl": "https://www.theguardian.com/lifeandstyle/wordofmouth/2010/sep/24/cheap-eats-stratford-avon-leamington", "apiUrl": "https://content.guardianapis.com/lifeandstyle/wordofmouth/2010/sep/24/cheap-eats-stratford-avon-leamington", "isHosted": false, "pillarId": "pillar/lifestyle", "pillarName": "Lifestyle"}, {"id": "travel/2010/sep/24/stratford-upon-avon-best-budget-eats", "type": "article", "sectionId": "travel", "sectionName": "Travel", "webPublicationDate": "2010-09-24T09:57:36Z", "webTitle": "Top 10 budget eats in Shakespeare country", "webUrl": "https://www.theguardian.com/travel/2010/sep/24/stratford-upon-avon-best-budget-eats", "apiUrl": "https://content.guardianapis.com/travel/2010/sep/24/stratford-upon-avon-best-budget-eats", "isHosted": false, "pillarId": "pillar/lifestyle", "pillarName": "Lifestyle"}, {"id": "lifeandstyle/wordofmouth/2010/sep/24/gumbo-mumbo-jumbo", "type": "article", "sectionId": "lifeandstyle", "sectionName": "Life and style", "webPublicationDate": "2010-09-24T09:30:00Z", "webTitle": "Gumbo mumbo jumbo", "webUrl": "https://www.theguardian.com/lifeandstyle/wordofmouth/2010/sep/24/gumbo-mumbo-jumbo", "apiUrl": "https://content.guardianapis.com/lifeandstyle/wordofmouth/2010/sep/24/gumbo-mumbo-jumbo", "isHosted": false, "pillarId": "pillar/lifestyle", "pillarName": "Lifestyle"}, {"id": "stage/theatreblog/2010/sep/23/theatre-food-restaurants-barbican", "type": "article", "sectionId": "stage", "sectionName": "Stage", "webPublicationDate": "2010-09-23T16:34:26Z", "webTitle": "Can the Barbican change the script on theatre food?", "webUrl": "https://www.theguardian.com/stage/theatreblog/2010/sep/23/theatre-food-restaurants-barbican", "apiUrl": "https://content.guardianapis.com/stage/theatreblog/2010/sep/23/theatre-food-restaurants-barbican", "isHosted": false, "pillarId": "pillar/arts", "pillarName": "Arts"}, {"id": "lifeandstyle/wordofmouth/2010/sep/23/tunnocks-strike-teacakes-caramel-wafers", "type": "article", "sectionId": "lifeandstyle", "sectionName": "Life and style", "webPublicationDate": "2010-09-23T11:50:00Z", "webTitle": "Tunnock's teacakes threatened by strike", "webUrl": "https://www.theguardian.com/lifeandstyle/wordofmouth/2010/sep/23/tunnocks-strike-teacakes-caramel-wafers", "apiUrl": "https://content.guardianapis.com/lifeandstyle/wordofmouth/2010/sep/23/tunnocks-strike-teacakes-caramel-wafers", "isHosted": false, "pillarId": "pillar/lifestyle", "pillarName": "Lifestyle"}, {"id": "lifeandstyle/wordofmouth/2010/sep/23/make-perfect-thai-green-curry", "type": "article", "sectionId": "lifeandstyle", "sectionName": "Life and style", "webPublicationDate": "2010-09-23T06:00:00Z", "webTitle": "How to make perfect Thai green curry", "webUrl": "https://www.theguardian.com/lifeandstyle/wordofmouth/2010/sep/23/make-perfect-thai-green-curry", "apiUrl": "https://content.guardianapis.com/lifeandstyle/wordofmouth/2010/sep/23/make-perfect-thai-green-curry", "isHosted": false, "pillarId": "pillar/lifestyle", "pillarName": "Lifestyle"}, {"id": "lifeandstyle/2010/sep/23/gourmet-taco-trucks-los-angeles", "type": "article", "sectionId": "food", "sectionName": "Food", "webPublicationDate": "2010-09-23T05:59:31Z", "webTitle": "The gourmet taco truck invasion", "webUrl": "https://www.theguardian.com/lifeandstyle/2010/sep/23/gourmet-taco-trucks-los-angeles", "apiUrl": "https://content.guardianapis.com/lifeandstyle/2010/sep/23/gourmet-taco-trucks-los-angeles", "isHosted": false, "pillarId": "pillar/lifestyle", "pillarName": "Lifestyle"}, {"id": "lifeandstyle/2010/sep/23/goose-apple-watercress-salad-recipe", "type": "article", "sectionId": "food", "sectionName": "Food", "webPublicationDate": "2010-09-23T02:00:00Z", "webTitle": "Goose, apple and watercress salad recipe", "webUrl": "https://www.theguardian.com/lifeandstyle/2010/sep/23/goose-apple-watercress-salad-recipe", "apiUrl": "https://content.guardianapis.com/lifeandstyle/2010/sep/23/goose-apple-watercress-salad-recipe", "isHosted": false, "pillarId": "pillar/lifestyle", "pillarName": "Lifestyle"}, {"id": "lifeandstyle/2010/sep/23/hashed-goose-recipe", "type": "article", "sectionId": "food", "sectionName": "Food", "webPublicationDate": "2010-09-23T01:30:00Z", "webTitle": "Hashed goose recipe", "webUrl": "https://www.theguardian.com/lifeandstyle/2010/sep/23/hashed-goose-recipe", "apiUrl": "https://content.guardianapis.com/lifeandstyle/2010/sep/23/hashed-goose-recipe", "isHosted": false, "pillarId": "pillar/lifestyle", "pillarName": "Lifestyle"}, {"id": "lifeandstyle/wordofmouth/2010/sep/23/goose", "type": "article", "sectionId": "lifeandstyle", "sectionName": "Life and style", "webPublicationDate": "2010-09-23T00:00:00Z", "webTitle": "The golden goose", "webUrl": "https://www.theguardian.com/lifeandstyle/wordofmouth/2010/sep/23/goose", "apiUrl": "https://content.guardianapis.com/lifeandstyle/wordofmouth/2010/sep/23/goose", "isHosted": false, "pillarId": "pillar/lifestyle", "pillarName": "Lifestyle"}, {"id": "lifeandstyle/2010/sep/23/student-cookbook-cheap-meals-ingredients", "type": "article", "sectionId": "education", "sectionName": "Education", "webPublicationDate": "2010-09-22T23:05:31Z", "webTitle": "Letters: Student Cookbook: they don't have the\u00a0thyme for this", "webUrl": "https://www.theguardian.com/lifeandstyle/2010/sep/23/student-cookbook-cheap-meals-ingredients", "apiUrl": "https://content.guardianapis.com/lifeandstyle/2010/sep/23/student-cookbook-cheap-meals-ingredients", "isHosted": false, "pillarId": "pillar/news", "pillarName": "News"}]}}