{"response": {"status": "ok", "userTier": "developer", "total": 94353, "startIndex": 1, "pageSize": 50, "currentPage": 1, "pages": 1888, "orderBy": "newest", "results": [{"id": "football/2015/oct/01/louis-van-gaal-manchester-united-wolfsburg-champions-league", "type": "article", "sectionId": "football", "sectionName": "Football", "webPublicationDate": "2015-09-30T23:20:47Z", "webTitle": "Louis van Gaal: Manchester United must improve to win Champions League", "webUrl": "https://www.theguardian.com/football/2015/oct/01/louis-van-gaal-manchester-united-wolfsburg-champions-league", "apiUrl": "https://content.guardianapis.com/football/2015/oct/01/louis-van-gaal-manchester-united-wolfsburg-champions-league", "isHosted": false, "pillarId": "pillar/sport", "pillarName": "Sport"}, {"id": "football/2015/sep/30/bastian-schweinsteiger-manchester-united-wolfsburg-champions-league", "type": "article", "sectionId": "football", "sectionName": "Football", "webPublicationDate": "2015-09-30T21:53:16Z", "webTitle": "Bastian Schweinsteiger\u2019s competitive spirit fires up Manchester United  | Paul Wilson", "webUrl": "https://www.theguardian.com/football/2015/sep/30/bastian-schweinsteiger-manchester-united-wolfsburg-champions-league", "apiUrl": "https://content.guardianapis.com/football/2015/sep/30/bastian-schweinsteiger-manchester-united-wolfsburg-champions-league", "isHosted": false, "pillarId": "pillar/sport", "pillarName": "Sport"}, {"id": "football/2015/sep/30/arsenal-defend-olympiakos-alfred-finnbogason-champions-league", "type": "article", "sectionId": "football", "sectionName": "Football", "webPublicationDate": "2015-09-30T21:30:01Z", "webTitle": "Arsenal \u2018don\u2019t want to defend\u2019 says Olympiakos\u2019s Alfred Finnbogason", "webUrl": "https://www.theguardian.com/football/2015/sep/30/arsenal-defend-olympiakos-alfred-finnbogason-champions-league", "apiUrl": "https://content.guardianapis.com/football/2015/sep/30/arsenal-defend-olympiakos-alfred-finnbogason-champions-league", "isHosted": false, "pillarId": "pillar/sport", "pillarName": "Sport"}, {"id": "football/2015/sep/30/chelsea-squad-concerned-jose-mourinho-scapegoating", "type": "article", "sectionId": "football", "sectionName": "Football", "webPublicationDate": "2015-09-30T21:30:01Z", "webTitle": "Chelsea squad concerned about Jos\u00e9 Mourinho\u2019s perceived scapegoating", "webUrl": "https://www.theguardian.com/football/2015/sep/30/chelsea-squad-concerned-jose-mourinho-scapegoating", "apiUrl": "https://content.guardianapis.com/football/2015/sep/30/chelsea-squad-concerned-jose-mourinho-scapegoating", "isHosted": false, "pillarId": "pillar/sport", "pillarName": "Sport"}, {"id": "football/2015/sep/30/manchester-united-wolfsburg-champions-league-match-report", "type": "article", "sectionId": "football", "sectionName": "Football", "webPublicationDate": "2015-09-30T20:49:34Z", "webTitle": "Manchester United grateful to Chris Smalling as they see off Wolfsburg", "webUrl": "https://www.theguardian.com/football/2015/sep/30/manchester-united-wolfsburg-champions-league-match-report", "apiUrl": "https://content.guardianapis.com/football/2015/sep/30/manchester-united-wolfsburg-champions-league-match-report", "isHosted": false, "pillarId": "pillar/sport", "pillarName": "Sport"}, {"id": "football/2015/sep/30/borussia-monchengladbach-manchester-city-champions-league-match-report", "type": "article", "sectionId": "football", "sectionName": "Football", "webPublicationDate": "2015-09-30T20:45:14Z", "webTitle": "Sergio Ag\u00fcero seals late Manchester City win at Borussia M\u00f6nchengladbach", "webUrl": "https://www.theguardian.com/football/2015/sep/30/borussia-monchengladbach-manchester-city-champions-league-match-report", "apiUrl": "https://content.guardianapis.com/football/2015/sep/30/borussia-monchengladbach-manchester-city-champions-league-match-report", "isHosted": false, "pillarId": "pillar/sport", "pillarName": "Sport"}, {"id": "football/live/2015/sep/30/borussia-monchengladbach-v-manchester-city-champions-league-live", "type": "liveblog", "sectionId": "football", "sectionName": "Football", "webPublicationDate": "2015-09-30T20:43:37Z", "webTitle": "Borussia M\u00f6nchengladbach v Manchester City: Champions League \u2013 as it happened", "webUrl": "https://www.theguardian.com/football/live/2015/sep/30/borussia-monchengladbach-v-manchester-city-champions-league-live", "apiUrl": "https://content.guardianapis.com/football/live/2015/sep/30/borussia-monchengladbach-v-manchester-city-champions-league-live", "isHosted": false, "pillarId": "pillar/sport", "pillarName": "Sport"}, {"id": "football/live/2015/sep/30/manchester-united-v-wolfsburg-champions-league-live", "type": "liveblog", "sectionId": "football", "sectionName": "Football", "webPublicationDate": "2015-09-30T20:36:46Z", "webTitle": "Manchester United v Wolfsburg: Champions League \u2013 as it happened", "webUrl": "https://www.theguardian.com/football/live/2015/sep/30/manchester-united-v-wolfsburg-champions-league-live", "apiUrl": "https://content.guardianapis.com/football/live/2015/sep/30/manchester-united-v-wolfsburg-champions-league-live", "isHosted": false, "pillarId": "pillar/sport", "pillarName": "Sport"}, {"id": "football/2015/sep/30/fa-michel-platini-fifa-president", "type": "article", "sectionId": "football", "sectionName": "Football", "webPublicationDate": "2015-09-30T17:28:52Z", "webTitle": "FA confirms backing for Michel Platini\u2019s bid to become Fifa president", "webUrl": "https://www.theguardian.com/football/2015/sep/30/fa-michel-platini-fifa-president", "apiUrl": "https://content.guardianapis.com/football/2015/sep/30/fa-michel-platini-fifa-president", "isHosted": false, "pillarId": "pillar/sport", "pillarName": "Sport"}, {"id": "football/2015/sep/30/the-fiver-big-cup-questionable-emissions", "type": "article", "sectionId": "football", "sectionName": "Football", "webPublicationDate": "2015-09-30T15:06:28Z", "webTitle": "The Fiver | Belching out a few questionable emissions", "webUrl": "https://www.theguardian.com/football/2015/sep/30/the-fiver-big-cup-questionable-emissions", "apiUrl": "https://content.guardianapis.com/football/2015/sep/30/the-fiver-big-cup-questionable-emissions", "isHosted": false, "pillarId": "pillar/sport", "pillarName": "Sport"}, {"id": "football/blog/2015/sep/30/arsenal-champions-league-arsene-wenger-naivety", "type": "article", "sectionId": "football", "sectionName": "Football", "webPublicationDate": "2015-09-30T14:51:00Z", "webTitle": "Arsenal\u2019s Champions League experience means nothing as same old naivety continues | Amy Lawrence", "webUrl": "https://www.theguardian.com/football/blog/2015/sep/30/arsenal-champions-league-arsene-wenger-naivety", "apiUrl": "https://content.guardianapis.com/football/blog/2015/sep/30/arsenal-champions-league-arsene-wenger-naivety", "isHosted": false, "pillarId": "pillar/sport", "pillarName": "Sport"}, {"id": "football/2015/sep/30/nwsl-mark-parsons-portland-washington-spirit", "type": "article", "sectionId": "football", "sectionName": "Football", "webPublicationDate": "2015-09-30T13:37:58Z", "webTitle": "NWSL: Mark Parsons set for Portland job after leaving Washington Spirit", "webUrl": "https://www.theguardian.com/football/2015/sep/30/nwsl-mark-parsons-portland-washington-spirit", "apiUrl": "https://content.guardianapis.com/football/2015/sep/30/nwsl-mark-parsons-portland-washington-spirit", "isHosted": false, "pillarId": "pillar/sport", "pillarName": "Sport"}, {"id": "football/2015/sep/30/brendan-rodgers-football-english-failings-europe", "type": "article", "sectionId": "football", "sectionName": "Football", "webPublicationDate": "2015-09-30T13:13:11Z", "webTitle": "Brendan Rodgers: authorities must do more to help English clubs in Europe", "webUrl": "https://www.theguardian.com/football/2015/sep/30/brendan-rodgers-football-english-failings-europe", "apiUrl": "https://content.guardianapis.com/football/2015/sep/30/brendan-rodgers-football-english-failings-europe", "isHosted": false, "pillarId": "pillar/sport", "pillarName": "Sport"}, {"id": "football/2015/sep/30/best-goals-week-balotelli-bebe-drogba-robert-lewandowski", "type": "article", "sectionId": "football", "sectionName": "Football", "webPublicationDate": "2015-09-30T11:15:21Z", "webTitle": "The best goals of the week: Balotelli, Beb\u00e9, Ben Arfa and Lewandowski", "webUrl": "https://www.theguardian.com/football/2015/sep/30/best-goals-week-balotelli-bebe-drogba-robert-lewandowski", "apiUrl": "https://content.guardianapis.com/football/2015/sep/30/best-goals-week-balotelli-bebe-drogba-robert-lewandowski", "isHosted": false, "pillarId": "pillar/sport", "pillarName": "Sport"}, {"id": "football/blog/2015/sep/30/arsenal-chelsea-champions-league", "type": "article", "sectionId": "football", "sectionName": "Football", "webPublicationDate": "2015-09-30T10:47:21Z", "webTitle": "Arsenal and Chelsea: why they imploded in the Champions League", "webUrl": "https://www.theguardian.com/football/blog/2015/sep/30/arsenal-chelsea-champions-league", "apiUrl": "https://content.guardianapis.com/football/blog/2015/sep/30/arsenal-chelsea-champions-league", "isHosted": false, "pillarId": "pillar/sport", "pillarName": "Sport"}, {"id": "football/blog/2015/sep/30/greg-dyke-fa-michel-platini-fifa", "type": "article", "sectionId": "football", "sectionName": "Football", "webPublicationDate": "2015-09-30T10:21:53Z", "webTitle": "Greg Dyke\u2019s moral high ground crumbles as FA\u2019s man Michel Platini feels the heat | Marina Hyde", "webUrl": "https://www.theguardian.com/football/blog/2015/sep/30/greg-dyke-fa-michel-platini-fifa", "apiUrl": "https://content.guardianapis.com/football/blog/2015/sep/30/greg-dyke-fa-michel-platini-fifa", "isHosted": false, "pillarId": "pillar/sport", "pillarName": "Sport"}, {"id": "football/blog/2015/sep/30/us-open-cup-final-philadelphia-union-sporting-kc", "type": "article", "sectionId": "football", "sectionName": "Football", "webPublicationDate": "2015-09-30T10:00:10Z", "webTitle": "US Open Cup final: unfinished business for underdogs Philadelphia", "webUrl": "https://www.theguardian.com/football/blog/2015/sep/30/us-open-cup-final-philadelphia-union-sporting-kc", "apiUrl": "https://content.guardianapis.com/football/blog/2015/sep/30/us-open-cup-final-philadelphia-union-sporting-kc", "isHosted": false, "pillarId": "pillar/sport", "pillarName": "Sport"}, {"id": "football/2015/sep/30/monaco-tottenham-europa-league", "type": "article", "sectionId": "football", "sectionName": "Football", "webPublicationDate": "2015-09-30T10:00:10Z", "webTitle": "Monaco\u2019s flux gives Tottenham chance to make Europa League headway", "webUrl": "https://www.theguardian.com/football/2015/sep/30/monaco-tottenham-europa-league", "apiUrl": "https://content.guardianapis.com/football/2015/sep/30/monaco-tottenham-europa-league", "isHosted": false, "pillarId": "pillar/sport", "pillarName": "Sport"}, {"id": "football/2015/sep/30/champions-league-arsenal-olympiakos-in-numbers", "type": "article", "sectionId": "football", "sectionName": "Football", "webPublicationDate": "2015-09-30T09:45:09Z", "webTitle": "Champions League: Arsenal\u2019s defeat against Olympiakos in numbers", "webUrl": "https://www.theguardian.com/football/2015/sep/30/champions-league-arsenal-olympiakos-in-numbers", "apiUrl": "https://content.guardianapis.com/football/2015/sep/30/champions-league-arsenal-olympiakos-in-numbers", "isHosted": false, "pillarId": "pillar/sport", "pillarName": "Sport"}, {"id": "football/2015/sep/30/goal-celebrations-vehicles-the-knowledge", "type": "article", "sectionId": "football", "sectionName": "Football", "webPublicationDate": "2015-09-30T09:03:05Z", "webTitle": "Goal celebrations involving vehicles | The Knowledge", "webUrl": "https://www.theguardian.com/football/2015/sep/30/goal-celebrations-vehicles-the-knowledge", "apiUrl": "https://content.guardianapis.com/football/2015/sep/30/goal-celebrations-vehicles-the-knowledge", "isHosted": false, "pillarId": "pillar/sport", "pillarName": "Sport"}, {"id": "football/2015/sep/30/manchester-united-city-home-same-night-capital-one-cup", "type": "article", "sectionId": "football", "sectionName": "Football", "webPublicationDate": "2015-09-30T09:00:23Z", "webTitle": "Manchester United and City cleared to play home games on same night", "webUrl": "https://www.theguardian.com/football/2015/sep/30/manchester-united-city-home-same-night-capital-one-cup", "apiUrl": "https://content.guardianapis.com/football/2015/sep/30/manchester-united-city-home-same-night-capital-one-cup", "isHosted": false, "pillarId": "pillar/sport", "pillarName": "Sport"}, {"id": "football/2015/sep/30/football-transfer-rumours-john-terry-set-to-join-fenerbahce", "type": "article", "sectionId": "football", "sectionName": "Football", "webPublicationDate": "2015-09-30T08:20:25Z", "webTitle": "Football transfer rumours: John Terry set to join Fenerbahce?", "webUrl": "https://www.theguardian.com/football/2015/sep/30/football-transfer-rumours-john-terry-set-to-join-fenerbahce", "apiUrl": "https://content.guardianapis.com/football/2015/sep/30/football-transfer-rumours-john-terry-set-to-join-fenerbahce", "isHosted": false, "pillarId": "pillar/sport", "pillarName": "Sport"}, {"id": "football/2015/sep/30/arsene-wenger-david-ospina-arsenal-defeat-farce-olympiakos", "type": "article", "sectionId": "football", "sectionName": "Football", "webPublicationDate": "2015-09-29T23:15:54Z", "webTitle": "Ars\u00e8ne Wenger says blaming David Ospina for Arsenal defeat is a farce", "webUrl": "https://www.theguardian.com/football/2015/sep/30/arsene-wenger-david-ospina-arsenal-defeat-farce-olympiakos", "apiUrl": "https://content.guardianapis.com/football/2015/sep/30/arsene-wenger-david-ospina-arsenal-defeat-farce-olympiakos", "isHosted": false, "pillarId": "pillar/sport", "pillarName": "Sport"}, {"id": "football/blog/2015/sep/29/arsenal-olympiakos-champions-league", "type": "article", "sectionId": "football", "sectionName": "Football", "webPublicationDate": "2015-09-29T22:43:42Z", "webTitle": "Arsenal suffer on another bleak night for Europe\u2019s most bafflingly ineffective league | Barney Ronay", "webUrl": "https://www.theguardian.com/football/blog/2015/sep/29/arsenal-olympiakos-champions-league", "apiUrl": "https://content.guardianapis.com/football/blog/2015/sep/29/arsenal-olympiakos-champions-league", "isHosted": false, "pillarId": "pillar/sport", "pillarName": "Sport"}, {"id": "football/2015/sep/29/jose-mourinho-chelsea-porto-champions-league", "type": "article", "sectionId": "football", "sectionName": "Football", "webPublicationDate": "2015-09-29T22:16:40Z", "webTitle": "Jos\u00e9 Mourinho blames \u2018ridiculous mistakes\u2019 for Chelsea\u2019s defeat at Porto", "webUrl": "https://www.theguardian.com/football/2015/sep/29/jose-mourinho-chelsea-porto-champions-league", "apiUrl": "https://content.guardianapis.com/football/2015/sep/29/jose-mourinho-chelsea-porto-champions-league", "isHosted": false, "pillarId": "pillar/sport", "pillarName": "Sport"}, {"id": "football/live/2015/sep/29/porto-v-chelsea-champions-league-live", "type": "liveblog", "sectionId": "football", "sectionName": "Football", "webPublicationDate": "2015-09-29T21:11:20Z", "webTitle": "Porto v Chelsea: Champions League \u2013 as it happened", "webUrl": "https://www.theguardian.com/football/live/2015/sep/29/porto-v-chelsea-champions-league-live", "apiUrl": "https://content.guardianapis.com/football/live/2015/sep/29/porto-v-chelsea-champions-league-live", "isHosted": false, "pillarId": "pillar/sport", "pillarName": "Sport"}, {"id": "football/2015/sep/29/arsenal-olympiakos-champions-league-match-report", "type": "article", "sectionId": "football", "sectionName": "Football", "webPublicationDate": "2015-09-29T21:03:05Z", "webTitle": "Arsenal on the brink after dire defeat to Olympiakos in Champions League", "webUrl": "https://www.theguardian.com/football/2015/sep/29/arsenal-olympiakos-champions-league-match-report", "apiUrl": "https://content.guardianapis.com/football/2015/sep/29/arsenal-olympiakos-champions-league-match-report", "isHosted": false, "pillarId": "pillar/sport", "pillarName": "Sport"}, {"id": "football/2015/sep/29/porto-chelsea-champions-league-match-report", "type": "article", "sectionId": "football", "sectionName": "Football", "webPublicationDate": "2015-09-29T20:51:52Z", "webTitle": "Maicon downs Chelsea as Mourinho\u2019s return to Porto ends in defeat", "webUrl": "https://www.theguardian.com/football/2015/sep/29/porto-chelsea-champions-league-match-report", "apiUrl": "https://content.guardianapis.com/football/2015/sep/29/porto-chelsea-champions-league-match-report", "isHosted": false, "pillarId": "pillar/sport", "pillarName": "Sport"}, {"id": "football/live/2015/sep/29/barcelona-v-bayer-leverkusen-champions-league-live", "type": "liveblog", "sectionId": "football", "sectionName": "Football", "webPublicationDate": "2015-09-29T20:47:40Z", "webTitle": "Barcelona 2-1 Bayer Leverkusen: Champions League \u2013 as it happened", "webUrl": "https://www.theguardian.com/football/live/2015/sep/29/barcelona-v-bayer-leverkusen-champions-league-live", "apiUrl": "https://content.guardianapis.com/football/live/2015/sep/29/barcelona-v-bayer-leverkusen-champions-league-live", "isHosted": false, "pillarId": "pillar/sport", "pillarName": "Sport"}, {"id": "football/live/2015/sep/29/arsenal-olympiakos-champions-league-live", "type": "liveblog", "sectionId": "football", "sectionName": "Football", "webPublicationDate": "2015-09-29T20:45:11Z", "webTitle": "Arsenal v Olympiakos: Champions League \u2013 as it happened", "webUrl": "https://www.theguardian.com/football/live/2015/sep/29/arsenal-olympiakos-champions-league-live", "apiUrl": "https://content.guardianapis.com/football/live/2015/sep/29/arsenal-olympiakos-champions-league-live", "isHosted": false, "pillarId": "pillar/sport", "pillarName": "Sport"}, {"id": "football/2015/sep/29/uefa-michel-platini-fifa-sepp-blatter", "type": "article", "sectionId": "football", "sectionName": "Football", "webPublicationDate": "2015-09-29T20:37:22Z", "webTitle": "Uefa president Michel Platini still plans for run for Fifa role despite controversy", "webUrl": "https://www.theguardian.com/football/2015/sep/29/uefa-michel-platini-fifa-sepp-blatter", "apiUrl": "https://content.guardianapis.com/football/2015/sep/29/uefa-michel-platini-fifa-sepp-blatter", "isHosted": false, "pillarId": "pillar/sport", "pillarName": "Sport"}, {"id": "football/2015/sep/29/manchester-city-champions-league-borussia-monchengladbach", "type": "article", "sectionId": "football", "sectionName": "Football", "webPublicationDate": "2015-09-29T19:23:03Z", "webTitle": "Stuttering Manchester City hope to get their mojo back in M\u00f6nchengladbach", "webUrl": "https://www.theguardian.com/football/2015/sep/29/manchester-city-champions-league-borussia-monchengladbach", "apiUrl": "https://content.guardianapis.com/football/2015/sep/29/manchester-city-champions-league-borussia-monchengladbach", "isHosted": false, "pillarId": "pillar/sport", "pillarName": "Sport"}, {"id": "football/2015/sep/29/louis-van-gaal-manchester-united-champions-league", "type": "article", "sectionId": "football", "sectionName": "Football", "webPublicationDate": "2015-09-29T18:52:53Z", "webTitle": "Louis van Gaal eyes \u2018paradise\u2019 but could yet extend Manchester United stay", "webUrl": "https://www.theguardian.com/football/2015/sep/29/louis-van-gaal-manchester-united-champions-league", "apiUrl": "https://content.guardianapis.com/football/2015/sep/29/louis-van-gaal-manchester-united-champions-league", "isHosted": false, "pillarId": "pillar/sport", "pillarName": "Sport"}, {"id": "football/2015/sep/29/manuel-pellegrini-manchester-city-passport", "type": "article", "sectionId": "football", "sectionName": "Football", "webPublicationDate": "2015-09-29T17:58:28Z", "webTitle": "Manchester City\u2019s Manuel Pellegrini brings wrong passport to airport", "webUrl": "https://www.theguardian.com/football/2015/sep/29/manuel-pellegrini-manchester-city-passport", "apiUrl": "https://content.guardianapis.com/football/2015/sep/29/manuel-pellegrini-manchester-city-passport", "isHosted": false, "pillarId": "pillar/sport", "pillarName": "Sport"}, {"id": "football/2015/sep/29/chelsea-set-sign-marco-amelia-former-milan-goalkeeper", "type": "article", "sectionId": "football", "sectionName": "Football", "webPublicationDate": "2015-09-29T15:45:00Z", "webTitle": "Chelsea set to sign former Milan goalkeeper Marco Amelia", "webUrl": "https://www.theguardian.com/football/2015/sep/29/chelsea-set-sign-marco-amelia-former-milan-goalkeeper", "apiUrl": "https://content.guardianapis.com/football/2015/sep/29/chelsea-set-sign-marco-amelia-former-milan-goalkeeper", "isHosted": false, "pillarId": "pillar/sport", "pillarName": "Sport"}, {"id": "technology/2015/sep/29/youtube-channel-copa90-marketing-campaign", "type": "article", "sectionId": "technology", "sectionName": "Technology", "webPublicationDate": "2015-09-29T15:26:14Z", "webTitle": "YouTube football channel Copa90 takes on big broadcasters with new ads", "webUrl": "https://www.theguardian.com/technology/2015/sep/29/youtube-channel-copa90-marketing-campaign", "apiUrl": "https://content.guardianapis.com/technology/2015/sep/29/youtube-channel-copa90-marketing-campaign", "isHosted": false, "pillarId": "pillar/news", "pillarName": "News"}, {"id": "football/2015/sep/29/the-sharpshooting-spirit-of-joao-saldanha", "type": "article", "sectionId": "football", "sectionName": "Football", "webPublicationDate": "2015-09-29T15:05:18Z", "webTitle": "The Fiver | The sharpshooting spirit of Jo\u00e3o Saldanha", "webUrl": "https://www.theguardian.com/football/2015/sep/29/the-sharpshooting-spirit-of-joao-saldanha", "apiUrl": "https://content.guardianapis.com/football/2015/sep/29/the-sharpshooting-spirit-of-joao-saldanha", "isHosted": false, "pillarId": "pillar/sport", "pillarName": "Sport"}, {"id": "football/2015/sep/29/turkish-referee-apologies-for-error-live-on-television-deniz-coban", "type": "article", "sectionId": "football", "sectionName": "Football", "webPublicationDate": "2015-09-29T12:46:43Z", "webTitle": "Turkish referee apologises for error live on television", "webUrl": "https://www.theguardian.com/football/2015/sep/29/turkish-referee-apologies-for-error-live-on-television-deniz-coban", "apiUrl": "https://content.guardianapis.com/football/2015/sep/29/turkish-referee-apologies-for-error-live-on-television-deniz-coban", "isHosted": false, "pillarId": "pillar/sport", "pillarName": "Sport"}, {"id": "football/2015/sep/29/scotland-call-up-graeme-shinnie-kevin-mcdonald-poland-gibraltar-euro-2016-qualifying", "type": "article", "sectionId": "football", "sectionName": "Football", "webPublicationDate": "2015-09-29T12:05:50Z", "webTitle": "Scotland call up Graeme Shinnie and Kevin McDonald for Poland and Gibraltar", "webUrl": "https://www.theguardian.com/football/2015/sep/29/scotland-call-up-graeme-shinnie-kevin-mcdonald-poland-gibraltar-euro-2016-qualifying", "apiUrl": "https://content.guardianapis.com/football/2015/sep/29/scotland-call-up-graeme-shinnie-kevin-mcdonald-poland-gibraltar-euro-2016-qualifying", "isHosted": false, "pillarId": "pillar/sport", "pillarName": "Sport"}, {"id": "football/2015/sep/29/villarreal-top-la-liga-first-time-history", "type": "article", "sectionId": "football", "sectionName": "Football", "webPublicationDate": "2015-09-29T11:33:47Z", "webTitle": "Villarreal sit top of La Liga for the first time in their history \u2026 and it matters | Sid Lowe", "webUrl": "https://www.theguardian.com/football/2015/sep/29/villarreal-top-la-liga-first-time-history", "apiUrl": "https://content.guardianapis.com/football/2015/sep/29/villarreal-top-la-liga-first-time-history", "isHosted": false, "pillarId": "pillar/sport", "pillarName": "Sport"}, {"id": "football/2015/sep/29/jack-warner-banned-football-life-fifa-ethics-committee", "type": "article", "sectionId": "football", "sectionName": "Football", "webPublicationDate": "2015-09-29T11:30:41Z", "webTitle": "Jack Warner queries timing of life ban from football by Fifa\u2019s ethics committee", "webUrl": "https://www.theguardian.com/football/2015/sep/29/jack-warner-banned-football-life-fifa-ethics-committee", "apiUrl": "https://content.guardianapis.com/football/2015/sep/29/jack-warner-banned-football-life-fifa-ethics-committee", "isHosted": false, "pillarId": "pillar/sport", "pillarName": "Sport"}, {"id": "football/2015/sep/29/crystal-palace-open-talks-dwight-gayle-contract-extension", "type": "article", "sectionId": "football", "sectionName": "Football", "webPublicationDate": "2015-09-29T10:51:47Z", "webTitle": "Crystal Palace open talks with Dwight Gayle over contract extension", "webUrl": "https://www.theguardian.com/football/2015/sep/29/crystal-palace-open-talks-dwight-gayle-contract-extension", "apiUrl": "https://content.guardianapis.com/football/2015/sep/29/crystal-palace-open-talks-dwight-gayle-contract-extension", "isHosted": false, "pillarId": "pillar/sport", "pillarName": "Sport"}, {"id": "football/2015/sep/29/ronaldinho-leaves-fluminense-nine-appearances-three-months", "type": "article", "sectionId": "football", "sectionName": "Football", "webPublicationDate": "2015-09-29T10:00:21Z", "webTitle": "Ronaldinho leaves Fluminense after just nine appearances in three months", "webUrl": "https://www.theguardian.com/football/2015/sep/29/ronaldinho-leaves-fluminense-nine-appearances-three-months", "apiUrl": "https://content.guardianapis.com/football/2015/sep/29/ronaldinho-leaves-fluminense-nine-appearances-three-months", "isHosted": false, "pillarId": "pillar/sport", "pillarName": "Sport"}, {"id": "football/2015/sep/29/mandela-egbo-borussia-monchengladbach-crystal-palace", "type": "article", "sectionId": "football", "sectionName": "Football", "webPublicationDate": "2015-09-29T10:00:02Z", "webTitle": "English teenager Mandela Egbo savours life at Borussia M\u00f6nchengladbach", "webUrl": "https://www.theguardian.com/football/2015/sep/29/mandela-egbo-borussia-monchengladbach-crystal-palace", "apiUrl": "https://content.guardianapis.com/football/2015/sep/29/mandela-egbo-borussia-monchengladbach-crystal-palace", "isHosted": false, "pillarId": "pillar/sport", "pillarName": "Sport"}, {"id": "football/blog/2015/sep/29/three-months-on-is-the-nwsl-failing-to-exploit-usas-world-cup-victory", "type": "article", "sectionId": "football", "sectionName": "Football", "webPublicationDate": "2015-09-29T09:00:01Z", "webTitle": "Three months on, is the NWSL failing to exploit USA's World Cup victory?", "webUrl": "https://www.theguardian.com/football/blog/2015/sep/29/three-months-on-is-the-nwsl-failing-to-exploit-usas-world-cup-victory", "apiUrl": "https://content.guardianapis.com/football/blog/2015/sep/29/three-months-on-is-the-nwsl-failing-to-exploit-usas-world-cup-victory", "isHosted": false, "pillarId": "pillar/sport", "pillarName": "Sport"}, {"id": "media/2015/sep/29/still-a-man-u-supporter-but-no-longer-a-fan-of-sky-tv", "type": "article", "sectionId": "media", "sectionName": "Media", "webPublicationDate": "2015-09-29T08:08:53Z", "webTitle": "I\u2019m still a supporter of Manchester United but no longer a fan of Sky TV", "webUrl": "https://www.theguardian.com/media/2015/sep/29/still-a-man-u-supporter-but-no-longer-a-fan-of-sky-tv", "apiUrl": "https://content.guardianapis.com/media/2015/sep/29/still-a-man-u-supporter-but-no-longer-a-fan-of-sky-tv", "isHosted": false, "pillarId": "pillar/news", "pillarName": "News"}, {"id": "football/2015/sep/29/football-transfer-rumours-yacine-brahimi-chelsea-porto", "type": "article", "sectionId": "football", "sectionName": "Football", "webPublicationDate": "2015-09-29T07:46:18Z", "webTitle": "Football transfer rumours: Porto\u2019s Yacine Brahimi to Chelsea?", "webUrl": "https://www.theguardian.com/football/2015/sep/29/football-transfer-rumours-yacine-brahimi-chelsea-porto", "apiUrl": "https://content.guardianapis.com/football/2015/sep/29/football-transfer-rumours-yacine-brahimi-chelsea-porto", "isHosted": false, "pillarId": "pillar/sport", "pillarName": "Sport"}, {"id": "football/2015/sep/28/jose-mourinho-questions-chelsea-porto-champions-league", "type": "article", "sectionId": "football", "sectionName": "Football", "webPublicationDate": "2015-09-28T21:30:06Z", "webTitle": "Jos\u00e9 Mourinho questions Chelsea\u2019s desire and wants answers at Porto", "webUrl": "https://www.theguardian.com/football/2015/sep/28/jose-mourinho-questions-chelsea-porto-champions-league", "apiUrl": "https://content.guardianapis.com/football/2015/sep/28/jose-mourinho-questions-chelsea-porto-champions-league", "isHosted": false, "pillarId": "pillar/sport", "pillarName": "Sport"}, {"id": "football/2015/sep/28/ashley-young-england-manchester-united", "type": "article", "sectionId": "football", "sectionName": "Football", "webPublicationDate": "2015-09-28T21:30:06Z", "webTitle": "Manchester United\u2019s Ashley Young not giving up hope of England recall", "webUrl": "https://www.theguardian.com/football/2015/sep/28/ashley-young-england-manchester-united", "apiUrl": "https://content.guardianapis.com/football/2015/sep/28/ashley-young-england-manchester-united", "isHosted": false, "pillarId": "pillar/sport", "pillarName": "Sport"}, {"id": "football/2015/sep/28/alexis-sanchez-alex-oxlade-chamberlain-arsenal", "type": "article", "sectionId": "football", "sectionName": "Football", "webPublicationDate": "2015-09-28T21:30:06Z", "webTitle": "Alexis S\u00e1nchez sets the tone for Alex Oxlade-Chamberlain and team-mates", "webUrl": "https://www.theguardian.com/football/2015/sep/28/alexis-sanchez-alex-oxlade-chamberlain-arsenal", "apiUrl": "https://content.guardianapis.com/football/2015/sep/28/alexis-sanchez-alex-oxlade-chamberlain-arsenal", "isHosted": false, "pillarId": "pillar/sport", "pillarName": "Sport"}]}}