{"response": {"status": "ok", "userTier": "developer", "total": 20637, "startIndex": 1, "pageSize": 50, "currentPage": 1, "pages": 413, "orderBy": "newest", "results": [{"id": "lifeandstyle/2014/sep/30/simple-sustainable-not-superchef-silo-uk-first-zero-waste-restaurant", "type": "article", "sectionId": "lifeandstyle", "sectionName": "Life and style", "webPublicationDate": "2014-09-30T14:59:09Z", "webTitle": "Simple, sustainable and not 'superchef': the UK's first zero-waste restaurant", "webUrl": "https://www.theguardian.com/lifeandstyle/2014/sep/30/simple-sustainable-not-superchef-silo-uk-first-zero-waste-restaurant", "apiUrl": "https://content.guardianapis.com/lifeandstyle/2014/sep/30/simple-sustainable-not-superchef-silo-uk-first-zero-waste-restaurant", "isHosted": false, "pillarId": "pillar/lifestyle", "pillarName": "Lifestyle"}, {"id": "lifeandstyle/2014/sep/30/16-recipe-ideas-for-leftover-peanut-butter", "type": "article", "sectionId": "lifeandstyle", "sectionName": "Life and style", "webPublicationDate": "2014-09-30T14:00:00Z", "webTitle": "16 recipe ideas for leftover peanut butter", "webUrl": "https://www.theguardian.com/lifeandstyle/2014/sep/30/16-recipe-ideas-for-leftover-peanut-butter", "apiUrl": "https://content.guardianapis.com/lifeandstyle/2014/sep/30/16-recipe-ideas-for-leftover-peanut-butter", "isHosted": false, "pillarId": "pillar/lifestyle", "pillarName": "Lifestyle"}, {"id": "society/2014/sep/30/uk-toothache-why-children-losing-teeth", "type": "article", "sectionId": "society", "sectionName": "Society", "webPublicationDate": "2014-09-30T13:47:27Z", "webTitle": "The UK's toothache - why children are losing their teeth", "webUrl": "https://www.theguardian.com/society/2014/sep/30/uk-toothache-why-children-losing-teeth", "apiUrl": "https://content.guardianapis.com/society/2014/sep/30/uk-toothache-why-children-losing-teeth", "isHosted": false, "pillarId": "pillar/news", "pillarName": "News"}, {"id": "money/2014/sep/30/maria-fernandes-dunkin-donuts-part-time-work-hours-schedule-crisis", "type": "article", "sectionId": "money", "sectionName": "Money", "webPublicationDate": "2014-09-30T12:00:07Z", "webTitle": "Lies, fear and tragedy: Maria Fernandes and the crisis of part-time work", "webUrl": "https://www.theguardian.com/money/2014/sep/30/maria-fernandes-dunkin-donuts-part-time-work-hours-schedule-crisis", "apiUrl": "https://content.guardianapis.com/money/2014/sep/30/maria-fernandes-dunkin-donuts-part-time-work-hours-schedule-crisis", "isHosted": false, "pillarId": "pillar/lifestyle", "pillarName": "Lifestyle"}, {"id": "news/datablog/ng-interactive/2014/sep/30/childrens-tooth-decay-in-england-mapped-dental-health", "type": "interactive", "sectionId": "news", "sectionName": "News", "webPublicationDate": "2014-09-30T10:31:12Z", "webTitle": "How bad is the dental health of three year-olds in your area? Children's tooth decay in England - mapped", "webUrl": "https://www.theguardian.com/news/datablog/ng-interactive/2014/sep/30/childrens-tooth-decay-in-england-mapped-dental-health", "apiUrl": "https://content.guardianapis.com/news/datablog/ng-interactive/2014/sep/30/childrens-tooth-decay-in-england-mapped-dental-health", "isHosted": false, "pillarId": "pillar/news", "pillarName": "News"}, {"id": "lifeandstyle/wordofmouth/2014/sep/30/grazing-underrated-way-to-eat", "type": "article", "sectionId": "food", "sectionName": "Food", "webPublicationDate": "2014-09-30T09:25:49Z", "webTitle": "The joys of grazing", "webUrl": "https://www.theguardian.com/lifeandstyle/wordofmouth/2014/sep/30/grazing-underrated-way-to-eat", "apiUrl": "https://content.guardianapis.com/lifeandstyle/wordofmouth/2014/sep/30/grazing-underrated-way-to-eat", "isHosted": false, "pillarId": "pillar/lifestyle", "pillarName": "Lifestyle"}, {"id": "uk-news/2014/sep/30/sugary-drinks-tooth-extractions-children", "type": "article", "sectionId": "uk-news", "sectionName": "UK news", "webPublicationDate": "2014-09-30T04:00:05Z", "webTitle": "Sugary drinks in baby bottles triggering rise in tooth extractions", "webUrl": "https://www.theguardian.com/uk-news/2014/sep/30/sugary-drinks-tooth-extractions-children", "apiUrl": "https://content.guardianapis.com/uk-news/2014/sep/30/sugary-drinks-tooth-extractions-children", "isHosted": false, "pillarId": "pillar/news", "pillarName": "News"}, {"id": "cities/2014/sep/29/amsterdam-e-trikes-revolutionise-local-food-system", "type": "article", "sectionId": "cities", "sectionName": "Cities", "webPublicationDate": "2014-09-29T12:23:03Z", "webTitle": "Can Amsterdam\u2019s e-trikes revolutionise the city\u2019s food system?", "webUrl": "https://www.theguardian.com/cities/2014/sep/29/amsterdam-e-trikes-revolutionise-local-food-system", "apiUrl": "https://content.guardianapis.com/cities/2014/sep/29/amsterdam-e-trikes-revolutionise-local-food-system", "isHosted": false, "pillarId": "pillar/news", "pillarName": "News"}, {"id": "lifeandstyle/wordofmouth/2014/sep/29/how-to-eat-chips", "type": "article", "sectionId": "food", "sectionName": "Food", "webPublicationDate": "2014-09-29T10:17:10Z", "webTitle": "How to eat: chips", "webUrl": "https://www.theguardian.com/lifeandstyle/wordofmouth/2014/sep/29/how-to-eat-chips", "apiUrl": "https://content.guardianapis.com/lifeandstyle/wordofmouth/2014/sep/29/how-to-eat-chips", "isHosted": false, "pillarId": "pillar/lifestyle", "pillarName": "Lifestyle"}, {"id": "uk-news/2014/sep/29/smokies-west-african-sheep-goat-blowtorch-illegal-uk", "type": "article", "sectionId": "uk-news", "sectionName": "UK news", "webPublicationDate": "2014-09-29T07:00:02Z", "webTitle": "Smokies: the West African delicacies that are illegal in the UK", "webUrl": "https://www.theguardian.com/uk-news/2014/sep/29/smokies-west-african-sheep-goat-blowtorch-illegal-uk", "apiUrl": "https://content.guardianapis.com/uk-news/2014/sep/29/smokies-west-african-sheep-goat-blowtorch-illegal-uk", "isHosted": false, "pillarId": "pillar/news", "pillarName": "News"}, {"id": "travel/2014/sep/29/top-10-hong-kong-restaurants-regional-chinese-cuisine", "type": "article", "sectionId": "travel", "sectionName": "Travel", "webPublicationDate": "2014-09-29T05:00:01Z", "webTitle": "Top 10 Hong Kong restaurants for regional Chinese cuisine", "webUrl": "https://www.theguardian.com/travel/2014/sep/29/top-10-hong-kong-restaurants-regional-chinese-cuisine", "apiUrl": "https://content.guardianapis.com/travel/2014/sep/29/top-10-hong-kong-restaurants-regional-chinese-cuisine", "isHosted": false, "pillarId": "pillar/lifestyle", "pillarName": "Lifestyle"}, {"id": "business/2014/sep/29/british-blackberry-sales-rocket", "type": "article", "sectionId": "business", "sectionName": "Business", "webPublicationDate": "2014-09-28T23:05:32Z", "webTitle": "British blackberry sales rocket as warm weather delivers bumper harvest", "webUrl": "https://www.theguardian.com/business/2014/sep/29/british-blackberry-sales-rocket", "apiUrl": "https://content.guardianapis.com/business/2014/sep/29/british-blackberry-sales-rocket", "isHosted": false, "pillarId": "pillar/news", "pillarName": "News"}, {"id": "lifeandstyle/2014/sep/28/should-i-use-sports-drinks", "type": "article", "sectionId": "lifeandstyle", "sectionName": "Life and style", "webPublicationDate": "2014-09-28T17:15:25Z", "webTitle": "Should I use sports drinks?", "webUrl": "https://www.theguardian.com/lifeandstyle/2014/sep/28/should-i-use-sports-drinks", "apiUrl": "https://content.guardianapis.com/lifeandstyle/2014/sep/28/should-i-use-sports-drinks", "isHosted": false, "pillarId": "pillar/lifestyle", "pillarName": "Lifestyle"}, {"id": "travel/2014/sep/28/gone-girl-locations-kansas-city-missouri", "type": "article", "sectionId": "travel", "sectionName": "Travel", "webPublicationDate": "2014-09-28T06:00:11Z", "webTitle": "Kansas City, Missouri: the city Gone Girl\u2019s Amy loved to hate", "webUrl": "https://www.theguardian.com/travel/2014/sep/28/gone-girl-locations-kansas-city-missouri", "apiUrl": "https://content.guardianapis.com/travel/2014/sep/28/gone-girl-locations-kansas-city-missouri", "isHosted": false, "pillarId": "pillar/lifestyle", "pillarName": "Lifestyle"}, {"id": "lifeandstyle/2014/sep/28/norse-at-baltzersens-restaurant-review-harrogate", "type": "article", "sectionId": "food", "sectionName": "Food", "webPublicationDate": "2014-09-28T05:00:10Z", "webTitle": "Norse (at Baltzersen\u2019s): restaurant review", "webUrl": "https://www.theguardian.com/lifeandstyle/2014/sep/28/norse-at-baltzersens-restaurant-review-harrogate", "apiUrl": "https://content.guardianapis.com/lifeandstyle/2014/sep/28/norse-at-baltzersens-restaurant-review-harrogate", "isHosted": false, "pillarId": "pillar/lifestyle", "pillarName": "Lifestyle"}, {"id": "culture/2014/sep/28/colm-toibin-my-cultural-highlights", "type": "article", "sectionId": "culture", "sectionName": "Culture", "webPublicationDate": "2014-09-27T23:04:03Z", "webTitle": "On my radar: Colm T\u00f3ib\u00edn\u2019s cultural highlights", "webUrl": "https://www.theguardian.com/culture/2014/sep/28/colm-toibin-my-cultural-highlights", "apiUrl": "https://content.guardianapis.com/culture/2014/sep/28/colm-toibin-my-cultural-highlights", "isHosted": false, "pillarId": "pillar/arts", "pillarName": "Arts"}, {"id": "world/2014/sep/27/potato-salad-kickstarter-ohio-fundraising-potatostock-party", "type": "article", "sectionId": "world", "sectionName": "World news", "webPublicationDate": "2014-09-27T20:22:49Z", "webTitle": "PotatoStock 2014 fulfils Ohio man's Kickstarter dream of a first potato salad", "webUrl": "https://www.theguardian.com/world/2014/sep/27/potato-salad-kickstarter-ohio-fundraising-potatostock-party", "apiUrl": "https://content.guardianapis.com/world/2014/sep/27/potato-salad-kickstarter-ohio-fundraising-potatostock-party", "isHosted": false, "pillarId": "pillar/news", "pillarName": "News"}, {"id": "lifeandstyle/2014/sep/27/anjum-anand-last-meal-black-pepper-chicken-recipe", "type": "article", "sectionId": "food", "sectionName": "Food", "webPublicationDate": "2014-09-27T11:00:01Z", "webTitle": "Anjum Anand\u2019s final meal | Last bites", "webUrl": "https://www.theguardian.com/lifeandstyle/2014/sep/27/anjum-anand-last-meal-black-pepper-chicken-recipe", "apiUrl": "https://content.guardianapis.com/lifeandstyle/2014/sep/27/anjum-anand-last-meal-black-pepper-chicken-recipe", "isHosted": false, "pillarId": "pillar/lifestyle", "pillarName": "Lifestyle"}, {"id": "travel/2014/sep/27/brothl-restaurant-melbourne-australia", "type": "article", "sectionId": "travel", "sectionName": "Travel", "webPublicationDate": "2014-09-27T06:00:43Z", "webTitle": "Pavia Rosati: it was love at first soup at a new Melbourne restaurant", "webUrl": "https://www.theguardian.com/travel/2014/sep/27/brothl-restaurant-melbourne-australia", "apiUrl": "https://content.guardianapis.com/travel/2014/sep/27/brothl-restaurant-melbourne-australia", "isHosted": false, "pillarId": "pillar/lifestyle", "pillarName": "Lifestyle"}, {"id": "travel/2014/sep/27/narberth-wales-pembrokeshire-food-festival", "type": "article", "sectionId": "travel", "sectionName": "Travel", "webPublicationDate": "2014-09-27T05:30:42Z", "webTitle": "Narberth: a rare bit of Wales", "webUrl": "https://www.theguardian.com/travel/2014/sep/27/narberth-wales-pembrokeshire-food-festival", "apiUrl": "https://content.guardianapis.com/travel/2014/sep/27/narberth-wales-pembrokeshire-food-festival", "isHosted": false, "pillarId": "pillar/lifestyle", "pillarName": "Lifestyle"}, {"id": "travel/2014/sep/27/hanoi-tay-ho-vietnam-food-fashion-fragrance", "type": "article", "sectionId": "travel", "sectionName": "Travel", "webPublicationDate": "2014-09-27T05:30:42Z", "webTitle": "Tay Ho: Hanoi\u2019s new food, fashion and creative quarter", "webUrl": "https://www.theguardian.com/travel/2014/sep/27/hanoi-tay-ho-vietnam-food-fashion-fragrance", "apiUrl": "https://content.guardianapis.com/travel/2014/sep/27/hanoi-tay-ho-vietnam-food-fashion-fragrance", "isHosted": false, "pillarId": "pillar/lifestyle", "pillarName": "Lifestyle"}, {"id": "lifeandstyle/2014/sep/27/dad-playing-trumpet-runaway-train-soul-asylum-tomato-pasta", "type": "article", "sectionId": "lifeandstyle", "sectionName": "Life and style", "webPublicationDate": "2014-09-27T05:30:42Z", "webTitle": "Family life: Dad playing the trumpet, Runaway Train by Soul Asylum and mashed tomato pasta", "webUrl": "https://www.theguardian.com/lifeandstyle/2014/sep/27/dad-playing-trumpet-runaway-train-soul-asylum-tomato-pasta", "apiUrl": "https://content.guardianapis.com/lifeandstyle/2014/sep/27/dad-playing-trumpet-runaway-train-soul-asylum-tomato-pasta", "isHosted": false, "pillarId": "pillar/lifestyle", "pillarName": "Lifestyle"}, {"id": "travel/2014/sep/27/bebel-gilberto-favourite-places-rio-the-way-i-see-it", "type": "article", "sectionId": "travel", "sectionName": "Travel", "webPublicationDate": "2014-09-27T05:30:42Z", "webTitle": "Bebel Gilberto: my favourite places in Rio de Janeiro", "webUrl": "https://www.theguardian.com/travel/2014/sep/27/bebel-gilberto-favourite-places-rio-the-way-i-see-it", "apiUrl": "https://content.guardianapis.com/travel/2014/sep/27/bebel-gilberto-favourite-places-rio-the-way-i-see-it", "isHosted": false, "pillarId": "pillar/lifestyle", "pillarName": "Lifestyle"}, {"id": "travel/2014/sep/27/foodie-traveller-rome-trapizzino-new-pizza", "type": "article", "sectionId": "travel", "sectionName": "Travel", "webPublicationDate": "2014-09-27T05:30:42Z", "webTitle": "The foodie traveller: Rome\u2019s new take on pizza", "webUrl": "https://www.theguardian.com/travel/2014/sep/27/foodie-traveller-rome-trapizzino-new-pizza", "apiUrl": "https://content.guardianapis.com/travel/2014/sep/27/foodie-traveller-rome-trapizzino-new-pizza", "isHosted": false, "pillarId": "pillar/lifestyle", "pillarName": "Lifestyle"}, {"id": "lifeandstyle/2014/sep/27/mayonnaise-recipes-potato-salad-olivier-recipe-swap", "type": "article", "sectionId": "lifeandstyle", "sectionName": "Life and style", "webPublicationDate": "2014-09-27T05:00:42Z", "webTitle": "Readers\u2019 recipe swap: mayonnaise | Eve'O'Sullivan", "webUrl": "https://www.theguardian.com/lifeandstyle/2014/sep/27/mayonnaise-recipes-potato-salad-olivier-recipe-swap", "apiUrl": "https://content.guardianapis.com/lifeandstyle/2014/sep/27/mayonnaise-recipes-potato-salad-olivier-recipe-swap", "isHosted": false, "pillarId": "pillar/lifestyle", "pillarName": "Lifestyle"}, {"id": "lifeandstyle/2014/sep/27/book-of-the-week-green-kitchen-travels-cookworm", "type": "article", "sectionId": "lifeandstyle", "sectionName": "Life and style", "webPublicationDate": "2014-09-27T05:00:41Z", "webTitle": "David Frenkiel and Luise Vindahl, Green Kitchen Travels | Cookworm", "webUrl": "https://www.theguardian.com/lifeandstyle/2014/sep/27/book-of-the-week-green-kitchen-travels-cookworm", "apiUrl": "https://content.guardianapis.com/lifeandstyle/2014/sep/27/book-of-the-week-green-kitchen-travels-cookworm", "isHosted": false, "pillarId": "pillar/lifestyle", "pillarName": "Lifestyle"}, {"id": "lifeandstyle/2014/sep/27/how-to-bake-with-figs-recipes-cheesecake-flatbread-ruby-tandoh", "type": "article", "sectionId": "lifeandstyle", "sectionName": "Life and style", "webPublicationDate": "2014-09-27T05:00:41Z", "webTitle": "How to bake with figs | Ruby Tandoh", "webUrl": "https://www.theguardian.com/lifeandstyle/2014/sep/27/how-to-bake-with-figs-recipes-cheesecake-flatbread-ruby-tandoh", "apiUrl": "https://content.guardianapis.com/lifeandstyle/2014/sep/27/how-to-bake-with-figs-recipes-cheesecake-flatbread-ruby-tandoh", "isHosted": false, "pillarId": "pillar/lifestyle", "pillarName": "Lifestyle"}, {"id": "lifeandstyle/2014/sep/27/hop-farm-brewery-ale-larkins-bob-dockerty", "type": "article", "sectionId": "lifeandstyle", "sectionName": "Life and style", "webPublicationDate": "2014-09-27T05:00:41Z", "webTitle": "Top of the hops: the brewer who grows his own ingredients", "webUrl": "https://www.theguardian.com/lifeandstyle/2014/sep/27/hop-farm-brewery-ale-larkins-bob-dockerty", "apiUrl": "https://content.guardianapis.com/lifeandstyle/2014/sep/27/hop-farm-brewery-ale-larkins-bob-dockerty", "isHosted": false, "pillarId": "pillar/lifestyle", "pillarName": "Lifestyle"}, {"id": "lifeandstyle/2014/sep/27/plum-recipes-tarts-roast-duck-souffle-chutney-10-best", "type": "article", "sectionId": "lifeandstyle", "sectionName": "Life and style", "webPublicationDate": "2014-09-27T05:00:41Z", "webTitle": "Our 10 best plum recipes", "webUrl": "https://www.theguardian.com/lifeandstyle/2014/sep/27/plum-recipes-tarts-roast-duck-souffle-chutney-10-best", "apiUrl": "https://content.guardianapis.com/lifeandstyle/2014/sep/27/plum-recipes-tarts-roast-duck-souffle-chutney-10-best", "isHosted": false, "pillarId": "pillar/lifestyle", "pillarName": "Lifestyle"}, {"id": "lifeandstyle/2014/sep/27/is-it-worth-it-coconut-water", "type": "article", "sectionId": "lifeandstyle", "sectionName": "Life and style", "webPublicationDate": "2014-09-27T05:00:10Z", "webTitle": "Is it worth it? Coconut water", "webUrl": "https://www.theguardian.com/lifeandstyle/2014/sep/27/is-it-worth-it-coconut-water", "apiUrl": "https://content.guardianapis.com/lifeandstyle/2014/sep/27/is-it-worth-it-coconut-water", "isHosted": false, "pillarId": "pillar/lifestyle", "pillarName": "Lifestyle"}, {"id": "lifeandstyle/2014/sep/27/love-hate-grape-varieties-wine-fiona-beckett", "type": "article", "sectionId": "food", "sectionName": "Food", "webPublicationDate": "2014-09-27T05:00:00Z", "webTitle": "Wine: learn to love the grapes you distrust", "webUrl": "https://www.theguardian.com/lifeandstyle/2014/sep/27/love-hate-grape-varieties-wine-fiona-beckett", "apiUrl": "https://content.guardianapis.com/lifeandstyle/2014/sep/27/love-hate-grape-varieties-wine-fiona-beckett", "isHosted": false, "pillarId": "pillar/lifestyle", "pillarName": "Lifestyle"}, {"id": "lifeandstyle/2014/sep/27/franklin-d-roosevelt-doughnuts-breakfast", "type": "article", "sectionId": "lifeandstyle", "sectionName": "Life and style", "webPublicationDate": "2014-09-27T05:00:00Z", "webTitle": "Breakfast of champions: Franklin D Roosevelt's Berliner pfannkuchen", "webUrl": "https://www.theguardian.com/lifeandstyle/2014/sep/27/franklin-d-roosevelt-doughnuts-breakfast", "apiUrl": "https://content.guardianapis.com/lifeandstyle/2014/sep/27/franklin-d-roosevelt-doughnuts-breakfast", "isHosted": false, "pillarId": "pillar/lifestyle", "pillarName": "Lifestyle"}, {"id": "lifeandstyle/2014/sep/27/food-and-drink-of-the-week", "type": "article", "sectionId": "food", "sectionName": "Food", "webPublicationDate": "2014-09-27T04:59:41Z", "webTitle": "The best places to eat out and drink this week", "webUrl": "https://www.theguardian.com/lifeandstyle/2014/sep/27/food-and-drink-of-the-week", "apiUrl": "https://content.guardianapis.com/lifeandstyle/2014/sep/27/food-and-drink-of-the-week", "isHosted": false, "pillarId": "pillar/lifestyle", "pillarName": "Lifestyle"}, {"id": "lifeandstyle/2014/sep/27/spiced-apple-blackberry-cinnamon-juice-recipe-ethicurean", "type": "article", "sectionId": "food", "sectionName": "Food", "webPublicationDate": "2014-09-27T04:59:00Z", "webTitle": "The good mixer: recipe for spiced apple, blackberry and cinnamon juice", "webUrl": "https://www.theguardian.com/lifeandstyle/2014/sep/27/spiced-apple-blackberry-cinnamon-juice-recipe-ethicurean", "apiUrl": "https://content.guardianapis.com/lifeandstyle/2014/sep/27/spiced-apple-blackberry-cinnamon-juice-recipe-ethicurean", "isHosted": false, "pillarId": "pillar/lifestyle", "pillarName": "Lifestyle"}, {"id": "lifeandstyle/2014/sep/26/ritas-brunswick-house-restaurant-review-london-marina-oloughlin", "type": "article", "sectionId": "lifeandstyle", "sectionName": "Life and style", "webPublicationDate": "2014-09-26T20:00:00Z", "webTitle": "Rita's, London E8, and Brunswick House, London SW8 \u2013 restaurant review | Marina O'Loughlin", "webUrl": "https://www.theguardian.com/lifeandstyle/2014/sep/26/ritas-brunswick-house-restaurant-review-london-marina-oloughlin", "apiUrl": "https://content.guardianapis.com/lifeandstyle/2014/sep/26/ritas-brunswick-house-restaurant-review-london-marina-oloughlin", "isHosted": false, "pillarId": "pillar/lifestyle", "pillarName": "Lifestyle"}, {"id": "lifeandstyle/2014/sep/26/chinese-roast-duck-recipe-artichoke-butter", "type": "article", "sectionId": "food", "sectionName": "Food", "webPublicationDate": "2014-09-26T17:00:00Z", "webTitle": "Thomasina Miers' recipes for Chinese-style roast duck and globe artichokes with burnt butter", "webUrl": "https://www.theguardian.com/lifeandstyle/2014/sep/26/chinese-roast-duck-recipe-artichoke-butter", "apiUrl": "https://content.guardianapis.com/lifeandstyle/2014/sep/26/chinese-roast-duck-recipe-artichoke-butter", "isHosted": false, "pillarId": "pillar/lifestyle", "pillarName": "Lifestyle"}, {"id": "lifeandstyle/2014/sep/26/eat-shoots-and-small-leaves-how-to-grow-microgreens-in-winter", "type": "article", "sectionId": "lifeandstyle", "sectionName": "Life and style", "webPublicationDate": "2014-09-26T15:02:16Z", "webTitle": "Eat shoots and small leaves: how to grow microgreens in winter", "webUrl": "https://www.theguardian.com/lifeandstyle/2014/sep/26/eat-shoots-and-small-leaves-how-to-grow-microgreens-in-winter", "apiUrl": "https://content.guardianapis.com/lifeandstyle/2014/sep/26/eat-shoots-and-small-leaves-how-to-grow-microgreens-in-winter", "isHosted": false, "pillarId": "pillar/lifestyle", "pillarName": "Lifestyle"}, {"id": "lifeandstyle/2014/sep/26/best-wine-for-game-venison-grouse-rabbit", "type": "article", "sectionId": "food", "sectionName": "Food", "webPublicationDate": "2014-09-26T11:30:11Z", "webTitle": "Matching game with the right wine is like finding the perfect partner", "webUrl": "https://www.theguardian.com/lifeandstyle/2014/sep/26/best-wine-for-game-venison-grouse-rabbit", "apiUrl": "https://content.guardianapis.com/lifeandstyle/2014/sep/26/best-wine-for-game-venison-grouse-rabbit", "isHosted": false, "pillarId": "pillar/lifestyle", "pillarName": "Lifestyle"}, {"id": "lifeandstyle/2014/sep/26/how-to-cook-easy-salmon-recipes-back-to-basics", "type": "article", "sectionId": "food", "sectionName": "Food", "webPublicationDate": "2014-09-26T11:29:11Z", "webTitle": "How to cook easy salmon recipes | Back to basics", "webUrl": "https://www.theguardian.com/lifeandstyle/2014/sep/26/how-to-cook-easy-salmon-recipes-back-to-basics", "apiUrl": "https://content.guardianapis.com/lifeandstyle/2014/sep/26/how-to-cook-easy-salmon-recipes-back-to-basics", "isHosted": false, "pillarId": "pillar/lifestyle", "pillarName": "Lifestyle"}, {"id": "lifeandstyle/2014/sep/26/north-east-england-recipes-tom-kerridge-britain-on-a-plate", "type": "article", "sectionId": "food", "sectionName": "Food", "webPublicationDate": "2014-09-26T11:00:10Z", "webTitle": "It\u2019s yum up\u00a0north: Tom Kerridge\u2019s recipes from the north-east of England | Tom Kerridge", "webUrl": "https://www.theguardian.com/lifeandstyle/2014/sep/26/north-east-england-recipes-tom-kerridge-britain-on-a-plate", "apiUrl": "https://content.guardianapis.com/lifeandstyle/2014/sep/26/north-east-england-recipes-tom-kerridge-britain-on-a-plate", "isHosted": false, "pillarId": "pillar/lifestyle", "pillarName": "Lifestyle"}, {"id": "lifeandstyle/wordofmouth/2014/sep/26/cater-meat-free-wedding-vegan-vegetarian-party-food", "type": "article", "sectionId": "lifeandstyle", "sectionName": "Life and style", "webPublicationDate": "2014-09-26T07:00:05Z", "webTitle": "Why wouldn\u2019t anyone cater our meat-free wedding?", "webUrl": "https://www.theguardian.com/lifeandstyle/wordofmouth/2014/sep/26/cater-meat-free-wedding-vegan-vegetarian-party-food", "apiUrl": "https://content.guardianapis.com/lifeandstyle/wordofmouth/2014/sep/26/cater-meat-free-wedding-vegan-vegetarian-party-food", "isHosted": false, "pillarId": "pillar/lifestyle", "pillarName": "Lifestyle"}, {"id": "lifeandstyle/2014/sep/25/skye-scottish-island-restaurant-awarded-michelin-stars", "type": "article", "sectionId": "food", "sectionName": "Food", "webPublicationDate": "2014-09-25T17:37:23Z", "webTitle": "Skye\u2019s the limit for island as second restaurant awarded Michelin stars", "webUrl": "https://www.theguardian.com/lifeandstyle/2014/sep/25/skye-scottish-island-restaurant-awarded-michelin-stars", "apiUrl": "https://content.guardianapis.com/lifeandstyle/2014/sep/25/skye-scottish-island-restaurant-awarded-michelin-stars", "isHosted": false, "pillarId": "pillar/lifestyle", "pillarName": "Lifestyle"}, {"id": "lifeandstyle/2014/sep/25/paula-deen-network-racism-scandal", "type": "article", "sectionId": "food", "sectionName": "Food", "webPublicationDate": "2014-09-25T16:53:34Z", "webTitle": "Paula Deen Network: folksy, extremely unhealthy and definitely not racist", "webUrl": "https://www.theguardian.com/lifeandstyle/2014/sep/25/paula-deen-network-racism-scandal", "apiUrl": "https://content.guardianapis.com/lifeandstyle/2014/sep/25/paula-deen-network-racism-scandal", "isHosted": false, "pillarId": "pillar/lifestyle", "pillarName": "Lifestyle"}, {"id": "lifeandstyle/2014/sep/25/packed-lunch-ideas-raw-food-nuts-salad-fruit-prepare-at-work", "type": "article", "sectionId": "food", "sectionName": "Food", "webPublicationDate": "2014-09-25T11:30:10Z", "webTitle": "Packed lunch ideas: save time by preparing raw food at work", "webUrl": "https://www.theguardian.com/lifeandstyle/2014/sep/25/packed-lunch-ideas-raw-food-nuts-salad-fruit-prepare-at-work", "apiUrl": "https://content.guardianapis.com/lifeandstyle/2014/sep/25/packed-lunch-ideas-raw-food-nuts-salad-fruit-prepare-at-work", "isHosted": false, "pillarId": "pillar/lifestyle", "pillarName": "Lifestyle"}, {"id": "lifeandstyle/wordofmouth/2014/sep/25/how-to-cook-perfect-pasta-puttanesca-recipe", "type": "article", "sectionId": "food", "sectionName": "Food", "webPublicationDate": "2014-09-25T06:00:02Z", "webTitle": "How to cook the perfect pasta puttanesca", "webUrl": "https://www.theguardian.com/lifeandstyle/wordofmouth/2014/sep/25/how-to-cook-perfect-pasta-puttanesca-recipe", "apiUrl": "https://content.guardianapis.com/lifeandstyle/wordofmouth/2014/sep/25/how-to-cook-perfect-pasta-puttanesca-recipe", "isHosted": false, "pillarId": "pillar/lifestyle", "pillarName": "Lifestyle"}, {"id": "lifeandstyle/australia-food-blog/2014/sep/25/seasons-eatings-spring-honey-cake", "type": "article", "sectionId": "lifeandstyle", "sectionName": "Life and style", "webPublicationDate": "2014-09-25T05:49:12Z", "webTitle": "Season's eatings: spring honey cake", "webUrl": "https://www.theguardian.com/lifeandstyle/australia-food-blog/2014/sep/25/seasons-eatings-spring-honey-cake", "apiUrl": "https://content.guardianapis.com/lifeandstyle/australia-food-blog/2014/sep/25/seasons-eatings-spring-honey-cake", "isHosted": false, "pillarId": "pillar/lifestyle", "pillarName": "Lifestyle"}, {"id": "environment/2014/sep/25/wild-salmon-fish-seafood-guide-mackerel", "type": "article", "sectionId": "environment", "sectionName": "Environment", "webPublicationDate": "2014-09-25T04:00:11Z", "webTitle": "Don't buy wild-caught salmon, British shoppers told", "webUrl": "https://www.theguardian.com/environment/2014/sep/25/wild-salmon-fish-seafood-guide-mackerel", "apiUrl": "https://content.guardianapis.com/environment/2014/sep/25/wild-salmon-fish-seafood-guide-mackerel", "isHosted": false, "pillarId": "pillar/news", "pillarName": "News"}, {"id": "tv-and-radio/live/2014/sep/24/the-great-british-bake-off-2014-episode-eight-as-it-happens", "type": "liveblog", "sectionId": "tv-and-radio", "sectionName": "Television & radio", "webPublicationDate": "2014-09-24T20:05:10Z", "webTitle": "The Great British Bake Off 2014: episode eight \u2013 as it happened", "webUrl": "https://www.theguardian.com/tv-and-radio/live/2014/sep/24/the-great-british-bake-off-2014-episode-eight-as-it-happens", "apiUrl": "https://content.guardianapis.com/tv-and-radio/live/2014/sep/24/the-great-british-bake-off-2014-episode-eight-as-it-happens", "isHosted": false, "pillarId": "pillar/arts", "pillarName": "Arts"}, {"id": "lifeandstyle/2014/sep/24/why-go-off-coffee-when-unwell", "type": "article", "sectionId": "lifeandstyle", "sectionName": "Life and style", "webPublicationDate": "2014-09-24T14:00:02Z", "webTitle": "Why do I go off coffee when I\u2019m unwell?", "webUrl": "https://www.theguardian.com/lifeandstyle/2014/sep/24/why-go-off-coffee-when-unwell", "apiUrl": "https://content.guardianapis.com/lifeandstyle/2014/sep/24/why-go-off-coffee-when-unwell", "isHosted": false, "pillarId": "pillar/lifestyle", "pillarName": "Lifestyle"}, {"id": "lifeandstyle/2014/sep/24/why-angry-about-oatcakes", "type": "article", "sectionId": "lifeandstyle", "sectionName": "Life and style", "webPublicationDate": "2014-09-24T14:00:02Z", "webTitle": "Why do people get so angry about stuff like oatcakes?", "webUrl": "https://www.theguardian.com/lifeandstyle/2014/sep/24/why-angry-about-oatcakes", "apiUrl": "https://content.guardianapis.com/lifeandstyle/2014/sep/24/why-angry-about-oatcakes", "isHosted": false, "pillarId": "pillar/lifestyle", "pillarName": "Lifestyle"}]}}