{"response": {"status": "ok", "userTier": "developer", "total": 92365, "startIndex": 1, "pageSize": 50, "currentPage": 1, "pages": 1848, "orderBy": "newest", "results": [{"id": "football/2014/oct/01/champions-league-roundup-porto-shakhtar-donetsk", "type": "article", "sectionId": "football", "sectionName": "Football", "webPublicationDate": "2014-09-30T23:45:33Z", "webTitle": "Champions League round-up: Porto rescue draw at Shakhtar Donetsk", "webUrl": "https://www.theguardian.com/football/2014/oct/01/champions-league-roundup-porto-shakhtar-donetsk", "apiUrl": "https://content.guardianapis.com/football/2014/oct/01/champions-league-roundup-porto-shakhtar-donetsk", "isHosted": false, "pillarId": "pillar/sport", "pillarName": "Sport"}, {"id": "football/2014/oct/01/manue-pellegrini-manchester-city-players-roma-paul-scholes-eithad-fans", "type": "article", "sectionId": "football", "sectionName": "Football", "webPublicationDate": "2014-09-30T23:40:39Z", "webTitle": "Manuel Pellegrini criticises Manchester City\u2019s players after Roma draw", "webUrl": "https://www.theguardian.com/football/2014/oct/01/manue-pellegrini-manchester-city-players-roma-paul-scholes-eithad-fans", "apiUrl": "https://content.guardianapis.com/football/2014/oct/01/manue-pellegrini-manchester-city-players-roma-paul-scholes-eithad-fans", "isHosted": false, "pillarId": "pillar/sport", "pillarName": "Sport"}, {"id": "football/2014/oct/01/which-player-the-most-distant-debut", "type": "article", "sectionId": "football", "sectionName": "Football", "webPublicationDate": "2014-09-30T23:05:00Z", "webTitle": "Which player has made the most distant debut? | The Knowledge", "webUrl": "https://www.theguardian.com/football/2014/oct/01/which-player-the-most-distant-debut", "apiUrl": "https://content.guardianapis.com/football/2014/oct/01/which-player-the-most-distant-debut", "isHosted": false, "pillarId": "pillar/sport", "pillarName": "Sport"}, {"id": "football/2014/sep/30/jose-mourinho-maribor-chelsea-key-champions-league", "type": "article", "sectionId": "football", "sectionName": "Football", "webPublicationDate": "2014-09-30T22:28:56Z", "webTitle": "Jos\u00e9 Mourinho: two ties against Maribor key to Chelsea\u2019s progress", "webUrl": "https://www.theguardian.com/football/2014/sep/30/jose-mourinho-maribor-chelsea-key-champions-league", "apiUrl": "https://content.guardianapis.com/football/2014/sep/30/jose-mourinho-maribor-chelsea-key-champions-league", "isHosted": false, "pillarId": "pillar/sport", "pillarName": "Sport"}, {"id": "football/2014/sep/30/steven-gerrard-liverpool-basel-champions-league", "type": "article", "sectionId": "football", "sectionName": "Football", "webPublicationDate": "2014-09-30T21:30:09Z", "webTitle": "Basel nightmare made Steven Gerrard Liverpool\u2019s dream midfielder", "webUrl": "https://www.theguardian.com/football/2014/sep/30/steven-gerrard-liverpool-basel-champions-league", "apiUrl": "https://content.guardianapis.com/football/2014/sep/30/steven-gerrard-liverpool-basel-champions-league", "isHosted": false, "pillarId": "pillar/sport", "pillarName": "Sport"}, {"id": "football/2014/sep/30/arsenal-injury-blight-arsene-wenger-galatasaray", "type": "article", "sectionId": "football", "sectionName": "Football", "webPublicationDate": "2014-09-30T21:30:09Z", "webTitle": "Arsenal\u2019s mystery injury blight has Ars\u00e8ne Wenger scratching his head", "webUrl": "https://www.theguardian.com/football/2014/sep/30/arsenal-injury-blight-arsene-wenger-galatasaray", "apiUrl": "https://content.guardianapis.com/football/2014/sep/30/arsenal-injury-blight-arsene-wenger-galatasaray", "isHosted": false, "pillarId": "pillar/sport", "pillarName": "Sport"}, {"id": "football/2014/sep/30/brendan-rodgers-daniel-sturridge-liverpool-england", "type": "article", "sectionId": "football", "sectionName": "Football", "webPublicationDate": "2014-09-30T21:30:00Z", "webTitle": "Brendan Rodgers: Daniel Sturridge fit for Liverpool but not England", "webUrl": "https://www.theguardian.com/football/2014/sep/30/brendan-rodgers-daniel-sturridge-liverpool-england", "apiUrl": "https://content.guardianapis.com/football/2014/sep/30/brendan-rodgers-daniel-sturridge-liverpool-england", "isHosted": false, "pillarId": "pillar/sport", "pillarName": "Sport"}, {"id": "football/blog/2014/sep/30/ashley-cole-roma-manchester-city-champions-league", "type": "article", "sectionId": "football", "sectionName": "Football", "webPublicationDate": "2014-09-30T21:26:05Z", "webTitle": "Ashley Cole and Roma\u2019s veterans show it is a not-so-young man\u2019s game | Barney Ronay", "webUrl": "https://www.theguardian.com/football/blog/2014/sep/30/ashley-cole-roma-manchester-city-champions-league", "apiUrl": "https://content.guardianapis.com/football/blog/2014/sep/30/ashley-cole-roma-manchester-city-champions-league", "isHosted": false, "pillarId": "pillar/sport", "pillarName": "Sport"}, {"id": "football/blog/2014/sep/30/five-taking-points-manchester-city-roma", "type": "article", "sectionId": "football", "sectionName": "Football", "webPublicationDate": "2014-09-30T21:06:32Z", "webTitle": "Manchester City 1-1 Roma: five talking points | Jamie Jackson", "webUrl": "https://www.theguardian.com/football/blog/2014/sep/30/five-taking-points-manchester-city-roma", "apiUrl": "https://content.guardianapis.com/football/blog/2014/sep/30/five-taking-points-manchester-city-roma", "isHosted": false, "pillarId": "pillar/sport", "pillarName": "Sport"}, {"id": "football/2014/sep/30/sporting-lisbon-chelsea-champions-league-match-report", "type": "article", "sectionId": "football", "sectionName": "Football", "webPublicationDate": "2014-09-30T20:58:57Z", "webTitle": "Sporting Lisbon 0-1 Chelsea | Champions League match report", "webUrl": "https://www.theguardian.com/football/2014/sep/30/sporting-lisbon-chelsea-champions-league-match-report", "apiUrl": "https://content.guardianapis.com/football/2014/sep/30/sporting-lisbon-chelsea-champions-league-match-report", "isHosted": false, "pillarId": "pillar/sport", "pillarName": "Sport"}, {"id": "football/live/2014/sep/30/manchester-city-v-roma-champions-league-live", "type": "liveblog", "sectionId": "football", "sectionName": "Football", "webPublicationDate": "2014-09-30T20:51:28Z", "webTitle": "Manchester City v Roma: Champions League \u2013 as it happened", "webUrl": "https://www.theguardian.com/football/live/2014/sep/30/manchester-city-v-roma-champions-league-live", "apiUrl": "https://content.guardianapis.com/football/live/2014/sep/30/manchester-city-v-roma-champions-league-live", "isHosted": false, "pillarId": "pillar/sport", "pillarName": "Sport"}, {"id": "football/live/2014/sep/30/sporting-lisbon-v-chelsea-champions-league-live", "type": "liveblog", "sectionId": "football", "sectionName": "Football", "webPublicationDate": "2014-09-30T20:40:51Z", "webTitle": "Sporting Lisbon v Chelsea: Champions League \u2013 as it happened", "webUrl": "https://www.theguardian.com/football/live/2014/sep/30/sporting-lisbon-v-chelsea-champions-league-live", "apiUrl": "https://content.guardianapis.com/football/live/2014/sep/30/sporting-lisbon-v-chelsea-champions-league-live", "isHosted": false, "pillarId": "pillar/sport", "pillarName": "Sport"}, {"id": "football/2014/sep/30/manchester-city-roma-champions-league-match-report", "type": "article", "sectionId": "football", "sectionName": "Football", "webPublicationDate": "2014-09-30T20:40:07Z", "webTitle": "Manchester City 1-1 Roma | Champions League match report", "webUrl": "https://www.theguardian.com/football/2014/sep/30/manchester-city-roma-champions-league-match-report", "apiUrl": "https://content.guardianapis.com/football/2014/sep/30/manchester-city-roma-champions-league-match-report", "isHosted": false, "pillarId": "pillar/sport", "pillarName": "Sport"}, {"id": "football/live/2014/sep/30/cska-moscow-v-bayern-munich-champions-league-live", "type": "liveblog", "sectionId": "football", "sectionName": "Football", "webPublicationDate": "2014-09-30T17:51:51Z", "webTitle": "CSKA Moscow v Bayern Munich: Champions League \u2013 as it happened", "webUrl": "https://www.theguardian.com/football/live/2014/sep/30/cska-moscow-v-bayern-munich-champions-league-live", "apiUrl": "https://content.guardianapis.com/football/live/2014/sep/30/cska-moscow-v-bayern-munich-champions-league-live", "isHosted": false, "pillarId": "pillar/sport", "pillarName": "Sport"}, {"id": "football/2014/sep/30/mats-hummels-manchester-united-not-tempted", "type": "article", "sectionId": "football", "sectionName": "Football", "webPublicationDate": "2014-09-30T15:49:52Z", "webTitle": "Mats Hummels: \u2018I am not tempted by a move to Manchester United\u2019", "webUrl": "https://www.theguardian.com/football/2014/sep/30/mats-hummels-manchester-united-not-tempted", "apiUrl": "https://content.guardianapis.com/football/2014/sep/30/mats-hummels-manchester-united-not-tempted", "isHosted": false, "pillarId": "pillar/sport", "pillarName": "Sport"}, {"id": "football/2014/sep/30/the-fiver-big-cup", "type": "article", "sectionId": "football", "sectionName": "Football", "webPublicationDate": "2014-09-30T15:42:09Z", "webTitle": "The Fiver | As if it was the brainchild of George Osborne", "webUrl": "https://www.theguardian.com/football/2014/sep/30/the-fiver-big-cup", "apiUrl": "https://content.guardianapis.com/football/2014/sep/30/the-fiver-big-cup", "isHosted": false, "pillarId": "pillar/sport", "pillarName": "Sport"}, {"id": "football/2014/sep/30/manchester-united-delay-ander-herrera-injury-update-concerns-grow", "type": "article", "sectionId": "football", "sectionName": "Football", "webPublicationDate": "2014-09-30T14:12:00Z", "webTitle": "Ander Herrera fractures rib to add to Manchester United woes", "webUrl": "https://www.theguardian.com/football/2014/sep/30/manchester-united-delay-ander-herrera-injury-update-concerns-grow", "apiUrl": "https://content.guardianapis.com/football/2014/sep/30/manchester-united-delay-ander-herrera-injury-update-concerns-grow", "isHosted": false, "pillarId": "pillar/sport", "pillarName": "Sport"}, {"id": "football/2014/sep/30/hull-yannick-sagbo-wolverhampton-wanders-loan-january", "type": "article", "sectionId": "football", "sectionName": "Football", "webPublicationDate": "2014-09-30T13:04:23Z", "webTitle": "Yannick Sagbo joins Wolves on loan from Hull City until January", "webUrl": "https://www.theguardian.com/football/2014/sep/30/hull-yannick-sagbo-wolverhampton-wanders-loan-january", "apiUrl": "https://content.guardianapis.com/football/2014/sep/30/hull-yannick-sagbo-wolverhampton-wanders-loan-january", "isHosted": false, "pillarId": "pillar/sport", "pillarName": "Sport"}, {"id": "football/2014/sep/30/las-vegas-mls-bid-public-funded-stadium-plans", "type": "article", "sectionId": "football", "sectionName": "Football", "webPublicationDate": "2014-09-30T13:00:08Z", "webTitle": "Las Vegas MLS bid hopes public-funded stadium comes up trumps", "webUrl": "https://www.theguardian.com/football/2014/sep/30/las-vegas-mls-bid-public-funded-stadium-plans", "apiUrl": "https://content.guardianapis.com/football/2014/sep/30/las-vegas-mls-bid-public-funded-stadium-plans", "isHosted": false, "pillarId": "pillar/sport", "pillarName": "Sport"}, {"id": "football/2014/sep/30/james-wilson-manchester-united-11th-player-injured", "type": "article", "sectionId": "football", "sectionName": "Football", "webPublicationDate": "2014-09-30T12:22:04Z", "webTitle": "James Wilson becomes Manchester United\u2019s 11th player out injured", "webUrl": "https://www.theguardian.com/football/2014/sep/30/james-wilson-manchester-united-11th-player-injured", "apiUrl": "https://content.guardianapis.com/football/2014/sep/30/james-wilson-manchester-united-11th-player-injured", "isHosted": false, "pillarId": "pillar/sport", "pillarName": "Sport"}, {"id": "football/2014/sep/30/olivier-giroud-signs-two-year-contract-extension-arsenal", "type": "article", "sectionId": "football", "sectionName": "Football", "webPublicationDate": "2014-09-30T11:59:00Z", "webTitle": "Olivier Giroud signs two-year contract extension at Arsenal despite injury", "webUrl": "https://www.theguardian.com/football/2014/sep/30/olivier-giroud-signs-two-year-contract-extension-arsenal", "apiUrl": "https://content.guardianapis.com/football/2014/sep/30/olivier-giroud-signs-two-year-contract-extension-arsenal", "isHosted": false, "pillarId": "pillar/sport", "pillarName": "Sport"}, {"id": "football/blog/2014/sep/30/xavi-hernandez-champions-league-record", "type": "article", "sectionId": "football", "sectionName": "Football", "webPublicationDate": "2014-09-30T11:01:04Z", "webTitle": "Xavi Hern\u00e1ndez, the football romantic, set to make Champions League history | Sid Lowe", "webUrl": "https://www.theguardian.com/football/blog/2014/sep/30/xavi-hernandez-champions-league-record", "apiUrl": "https://content.guardianapis.com/football/blog/2014/sep/30/xavi-hernandez-champions-league-record", "isHosted": false, "pillarId": "pillar/sport", "pillarName": "Sport"}, {"id": "football/2014/sep/30/mamadou-sakho-daniel-sturridge-out-basel", "type": "article", "sectionId": "football", "sectionName": "Football", "webPublicationDate": "2014-09-30T10:30:44Z", "webTitle": "Liverpool\u2019s Mamadou Sakho and Daniel Sturridge not in squad for Basel game", "webUrl": "https://www.theguardian.com/football/2014/sep/30/mamadou-sakho-daniel-sturridge-out-basel", "apiUrl": "https://content.guardianapis.com/football/2014/sep/30/mamadou-sakho-daniel-sturridge-out-basel", "isHosted": false, "pillarId": "pillar/sport", "pillarName": "Sport"}, {"id": "football/2014/sep/30/basel-paulo-sousa-swansea-liverpool-brendan-rodgers", "type": "article", "sectionId": "football", "sectionName": "Football", "webPublicationDate": "2014-09-30T09:44:41Z", "webTitle": "Basel\u2019s Paulo Sousa: \u2018Yes, I made a mistake in leaving Swansea\u2019", "webUrl": "https://www.theguardian.com/football/2014/sep/30/basel-paulo-sousa-swansea-liverpool-brendan-rodgers", "apiUrl": "https://content.guardianapis.com/football/2014/sep/30/basel-paulo-sousa-swansea-liverpool-brendan-rodgers", "isHosted": false, "pillarId": "pillar/sport", "pillarName": "Sport"}, {"id": "football/blog/2014/sep/30/forgotten-story-patrick-oconnell-saved-barcelona", "type": "article", "sectionId": "football", "sectionName": "Football", "webPublicationDate": "2014-09-30T09:01:11Z", "webTitle": "The forgotten story of \u2026 Patrick O\u2019Connell, saviour of Barcelona | Paul Doyle", "webUrl": "https://www.theguardian.com/football/blog/2014/sep/30/forgotten-story-patrick-oconnell-saved-barcelona", "apiUrl": "https://content.guardianapis.com/football/blog/2014/sep/30/forgotten-story-patrick-oconnell-saved-barcelona", "isHosted": false, "pillarId": "pillar/sport", "pillarName": "Sport"}, {"id": "football/2014/sep/30/football-transfer-rumour-mill-manchester-united-seamus-coleman", "type": "article", "sectionId": "football", "sectionName": "Football", "webPublicationDate": "2014-09-30T07:55:52Z", "webTitle": "Football transfer rumours: Manchester United to move for Seamus Coleman?", "webUrl": "https://www.theguardian.com/football/2014/sep/30/football-transfer-rumour-mill-manchester-united-seamus-coleman", "apiUrl": "https://content.guardianapis.com/football/2014/sep/30/football-transfer-rumour-mill-manchester-united-seamus-coleman", "isHosted": false, "pillarId": "pillar/sport", "pillarName": "Sport"}, {"id": "football/2014/sep/30/alan-pardew-future-newcastle-united-defeat-stoke-city", "type": "article", "sectionId": "football", "sectionName": "Football", "webPublicationDate": "2014-09-29T23:35:02Z", "webTitle": "Alan Pardew admits Newcastle future is in doubt after defeat at Stoke", "webUrl": "https://www.theguardian.com/football/2014/sep/30/alan-pardew-future-newcastle-united-defeat-stoke-city", "apiUrl": "https://content.guardianapis.com/football/2014/sep/30/alan-pardew-future-newcastle-united-defeat-stoke-city", "isHosted": false, "pillarId": "pillar/sport", "pillarName": "Sport"}, {"id": "football/2014/sep/29/robin-van-persie-manchester-united-louis-van-gaal", "type": "article", "sectionId": "football", "sectionName": "Football", "webPublicationDate": "2014-09-29T21:53:00Z", "webTitle": "Robin van Persie confident Manchester United will frighten teams again", "webUrl": "https://www.theguardian.com/football/2014/sep/29/robin-van-persie-manchester-united-louis-van-gaal", "apiUrl": "https://content.guardianapis.com/football/2014/sep/29/robin-van-persie-manchester-united-louis-van-gaal", "isHosted": false, "pillarId": "pillar/sport", "pillarName": "Sport"}, {"id": "football/2014/sep/29/louis-van-gaal-manchester-united-england-back-room", "type": "article", "sectionId": "football", "sectionName": "Football", "webPublicationDate": "2014-09-29T21:32:00Z", "webTitle": "Louis van Gaal pulls rank on England over Manchester United fitness staff", "webUrl": "https://www.theguardian.com/football/2014/sep/29/louis-van-gaal-manchester-united-england-back-room", "apiUrl": "https://content.guardianapis.com/football/2014/sep/29/louis-van-gaal-manchester-united-england-back-room", "isHosted": false, "pillarId": "pillar/sport", "pillarName": "Sport"}, {"id": "football/2014/sep/29/liverpool-simon-mignolet-rumours-future-barcelona", "type": "article", "sectionId": "football", "sectionName": "Football", "webPublicationDate": "2014-09-29T21:30:09Z", "webTitle": "Liverpool\u2019s Simon Mignolet insists he is not worried over his future", "webUrl": "https://www.theguardian.com/football/2014/sep/29/liverpool-simon-mignolet-rumours-future-barcelona", "apiUrl": "https://content.guardianapis.com/football/2014/sep/29/liverpool-simon-mignolet-rumours-future-barcelona", "isHosted": false, "pillarId": "pillar/sport", "pillarName": "Sport"}, {"id": "football/2014/sep/29/manchester-city-roma-manuel-pellegrini-champions-league", "type": "article", "sectionId": "football", "sectionName": "Football", "webPublicationDate": "2014-09-29T21:27:48Z", "webTitle": "Manchester City determined to find cutting edge against Roma", "webUrl": "https://www.theguardian.com/football/2014/sep/29/manchester-city-roma-manuel-pellegrini-champions-league", "apiUrl": "https://content.guardianapis.com/football/2014/sep/29/manchester-city-roma-manuel-pellegrini-champions-league", "isHosted": false, "pillarId": "pillar/sport", "pillarName": "Sport"}, {"id": "football/live/2014/sep/29/newcastle-v-stoke-city-premier-league-live", "type": "liveblog", "sectionId": "football", "sectionName": "Football", "webPublicationDate": "2014-09-29T21:05:13Z", "webTitle": "Stoke City 1-0 Newcastle: Premier League \u2013 as it happened | Simon Burnton", "webUrl": "https://www.theguardian.com/football/live/2014/sep/29/newcastle-v-stoke-city-premier-league-live", "apiUrl": "https://content.guardianapis.com/football/live/2014/sep/29/newcastle-v-stoke-city-premier-league-live", "isHosted": false, "pillarId": "pillar/sport", "pillarName": "Sport"}, {"id": "football/2014/sep/29/stoke-city-newcastle-united-premier-league-match-report", "type": "article", "sectionId": "football", "sectionName": "Football", "webPublicationDate": "2014-09-29T21:04:44Z", "webTitle": "Stoke City 1-0 Newcastle United | Premier League match report", "webUrl": "https://www.theguardian.com/football/2014/sep/29/stoke-city-newcastle-united-premier-league-match-report", "apiUrl": "https://content.guardianapis.com/football/2014/sep/29/stoke-city-newcastle-united-premier-league-match-report", "isHosted": false, "pillarId": "pillar/sport", "pillarName": "Sport"}, {"id": "football/2014/sep/29/chelsea-sporting-lisbon-diego-costa-champions-league", "type": "article", "sectionId": "football", "sectionName": "Football", "webPublicationDate": "2014-09-29T20:48:25Z", "webTitle": "Jos\u00e9 Mourinho determined to risk Diego Costa at Sporting Lisbon", "webUrl": "https://www.theguardian.com/football/2014/sep/29/chelsea-sporting-lisbon-diego-costa-champions-league", "apiUrl": "https://content.guardianapis.com/football/2014/sep/29/chelsea-sporting-lisbon-diego-costa-champions-league", "isHosted": false, "pillarId": "pillar/sport", "pillarName": "Sport"}, {"id": "football/2014/sep/29/talking-points-experts-european-football", "type": "article", "sectionId": "football", "sectionName": "Football", "webPublicationDate": "2014-09-29T19:54:01Z", "webTitle": "Talking Points: our experts round up exciting weekend of European football", "webUrl": "https://www.theguardian.com/football/2014/sep/29/talking-points-experts-european-football", "apiUrl": "https://content.guardianapis.com/football/2014/sep/29/talking-points-experts-european-football", "isHosted": false, "pillarId": "pillar/sport", "pillarName": "Sport"}, {"id": "news/datablog/2014/sep/29/premier-league-clubs-moved-original-grounds", "type": "article", "sectionId": "news", "sectionName": "News", "webPublicationDate": "2014-09-29T16:44:14Z", "webTitle": "How far have Premier League clubs moved from their original grounds?", "webUrl": "https://www.theguardian.com/news/datablog/2014/sep/29/premier-league-clubs-moved-original-grounds", "apiUrl": "https://content.guardianapis.com/news/datablog/2014/sep/29/premier-league-clubs-moved-original-grounds", "isHosted": false, "pillarId": "pillar/news", "pillarName": "News"}, {"id": "football/2014/sep/29/west-ham-diafra-sakho-punishment-luke-shaw-manchester-united", "type": "article", "sectionId": "football", "sectionName": "Football", "webPublicationDate": "2014-09-29T16:23:27Z", "webTitle": "West Ham\u2019s Diafra Sakho escapes punishment for alleged Luke Shaw butt", "webUrl": "https://www.theguardian.com/football/2014/sep/29/west-ham-diafra-sakho-punishment-luke-shaw-manchester-united", "apiUrl": "https://content.guardianapis.com/football/2014/sep/29/west-ham-diafra-sakho-punishment-luke-shaw-manchester-united", "isHosted": false, "pillarId": "pillar/sport", "pillarName": "Sport"}, {"id": "football/blog/2014/sep/29/schalke-win-borussia-dortmund-ruhr-derby-jens-keller", "type": "article", "sectionId": "football", "sectionName": "Football", "webPublicationDate": "2014-09-29T15:42:27Z", "webTitle": "Schalke\u2019s win over Borussia Dortmund has their fans riding high | Raphael Honigstein", "webUrl": "https://www.theguardian.com/football/blog/2014/sep/29/schalke-win-borussia-dortmund-ruhr-derby-jens-keller", "apiUrl": "https://content.guardianapis.com/football/blog/2014/sep/29/schalke-win-borussia-dortmund-ruhr-derby-jens-keller", "isHosted": false, "pillarId": "pillar/sport", "pillarName": "Sport"}, {"id": "football/2014/sep/29/the-fiver-newcastle-alan-pardew-mike-ashley", "type": "article", "sectionId": "football", "sectionName": "Football", "webPublicationDate": "2014-09-29T15:28:45Z", "webTitle": "The Fiver | Supping in the Last Chance Saloon | Barry Glendenning", "webUrl": "https://www.theguardian.com/football/2014/sep/29/the-fiver-newcastle-alan-pardew-mike-ashley", "apiUrl": "https://content.guardianapis.com/football/2014/sep/29/the-fiver-newcastle-alan-pardew-mike-ashley", "isHosted": false, "pillarId": "pillar/sport", "pillarName": "Sport"}, {"id": "football/2014/sep/29/arsenal-aaron-ramsey-out-least-month-hamstring-injury-jack-wilshere", "type": "article", "sectionId": "football", "sectionName": "Football", "webPublicationDate": "2014-09-29T14:51:58Z", "webTitle": "Arsenal\u2019s Aaron Ramsey out for at least a month with hamstring injury", "webUrl": "https://www.theguardian.com/football/2014/sep/29/arsenal-aaron-ramsey-out-least-month-hamstring-injury-jack-wilshere", "apiUrl": "https://content.guardianapis.com/football/2014/sep/29/arsenal-aaron-ramsey-out-least-month-hamstring-injury-jack-wilshere", "isHosted": false, "pillarId": "pillar/sport", "pillarName": "Sport"}, {"id": "football/2014/sep/29/andre-santos-signs-fc-goa-zico", "type": "article", "sectionId": "football", "sectionName": "Football", "webPublicationDate": "2014-09-29T14:40:49Z", "webTitle": "Former Arsenal defender Andr\u00e9 Santos joins Goa in Indian Super League", "webUrl": "https://www.theguardian.com/football/2014/sep/29/andre-santos-signs-fc-goa-zico", "apiUrl": "https://content.guardianapis.com/football/2014/sep/29/andre-santos-signs-fc-goa-zico", "isHosted": false, "pillarId": "pillar/sport", "pillarName": "Sport"}, {"id": "football/blog/2014/sep/29/diego-simeone-atletico-madrid-return-la-liga", "type": "article", "sectionId": "football", "sectionName": "Football", "webPublicationDate": "2014-09-29T14:22:09Z", "webTitle": "Diego Simeone\u2019s return raises temperature as Atl\u00e9tico burn Sevilla | Sid Lowe", "webUrl": "https://www.theguardian.com/football/blog/2014/sep/29/diego-simeone-atletico-madrid-return-la-liga", "apiUrl": "https://content.guardianapis.com/football/blog/2014/sep/29/diego-simeone-atletico-madrid-return-la-liga", "isHosted": false, "pillarId": "pillar/sport", "pillarName": "Sport"}, {"id": "football/2014/sep/29/eniola-aluko-first-female-match-of-the-day-pundit", "type": "article", "sectionId": "football", "sectionName": "Football", "webPublicationDate": "2014-09-29T13:26:44Z", "webTitle": "Eniola Aluko makes history as first female Match of the Day pundit", "webUrl": "https://www.theguardian.com/football/2014/sep/29/eniola-aluko-first-female-match-of-the-day-pundit", "apiUrl": "https://content.guardianapis.com/football/2014/sep/29/eniola-aluko-first-female-match-of-the-day-pundit", "isHosted": false, "pillarId": "pillar/sport", "pillarName": "Sport"}, {"id": "football/2014/sep/29/watford-appoint-billy-mckinlay-oscar-garcia-leaves", "type": "article", "sectionId": "football", "sectionName": "Football", "webPublicationDate": "2014-09-29T12:45:33Z", "webTitle": "Watford appoint Billy McKinlay after \u00d3scar Garc\u00eda leaves to recuperate", "webUrl": "https://www.theguardian.com/football/2014/sep/29/watford-appoint-billy-mckinlay-oscar-garcia-leaves", "apiUrl": "https://content.guardianapis.com/football/2014/sep/29/watford-appoint-billy-mckinlay-oscar-garcia-leaves", "isHosted": false, "pillarId": "pillar/sport", "pillarName": "Sport"}, {"id": "sport/2014/sep/29/michael-bradley-jermaine-jones-mls-designated-players", "type": "article", "sectionId": "football", "sectionName": "Football", "webPublicationDate": "2014-09-29T12:43:55Z", "webTitle": "Michael Bradley and Jermaine Jones make case for MLS designated players", "webUrl": "https://www.theguardian.com/sport/2014/sep/29/michael-bradley-jermaine-jones-mls-designated-players", "apiUrl": "https://content.guardianapis.com/sport/2014/sep/29/michael-bradley-jermaine-jones-mls-designated-players", "isHosted": false, "pillarId": "pillar/sport", "pillarName": "Sport"}, {"id": "football/2014/sep/29/zlatan-ibrahimovic-pep-guardiola-blames-champions-league", "type": "article", "sectionId": "football", "sectionName": "Football", "webPublicationDate": "2014-09-29T12:42:11Z", "webTitle": "Zlatan Ibrahimovic blames Guardiola for Barcelona Champions League flop", "webUrl": "https://www.theguardian.com/football/2014/sep/29/zlatan-ibrahimovic-pep-guardiola-blames-champions-league", "apiUrl": "https://content.guardianapis.com/football/2014/sep/29/zlatan-ibrahimovic-pep-guardiola-blames-champions-league", "isHosted": false, "pillarId": "pillar/sport", "pillarName": "Sport"}, {"id": "football/2014/sep/29/joe-hart-hard-see-positives-dropped-manchester-city-manuel-pellegrini", "type": "article", "sectionId": "football", "sectionName": "Football", "webPublicationDate": "2014-09-29T12:34:32Z", "webTitle": "Joe Hart struggles to see positives in being dropped by Manchester City", "webUrl": "https://www.theguardian.com/football/2014/sep/29/joe-hart-hard-see-positives-dropped-manchester-city-manuel-pellegrini", "apiUrl": "https://content.guardianapis.com/football/2014/sep/29/joe-hart-hard-see-positives-dropped-manchester-city-manuel-pellegrini", "isHosted": false, "pillarId": "pillar/sport", "pillarName": "Sport"}, {"id": "football/2014/sep/29/manchester-city-roma-fernando-jovetic-train-champions-league", "type": "article", "sectionId": "football", "sectionName": "Football", "webPublicationDate": "2014-09-29T10:50:23Z", "webTitle": "Fernando and Stevan Jovetic join Manchester City\u2019s training for Roma", "webUrl": "https://www.theguardian.com/football/2014/sep/29/manchester-city-roma-fernando-jovetic-train-champions-league", "apiUrl": "https://content.guardianapis.com/football/2014/sep/29/manchester-city-roma-fernando-jovetic-train-champions-league", "isHosted": false, "pillarId": "pillar/sport", "pillarName": "Sport"}, {"id": "football/2014/sep/29/peter-lim-salford-city-third-party-ownership-class-of-92", "type": "article", "sectionId": "football", "sectionName": "Football", "webPublicationDate": "2014-09-29T10:01:06Z", "webTitle": "Peter Lim: Salford City investment not connected to third-party ownership", "webUrl": "https://www.theguardian.com/football/2014/sep/29/peter-lim-salford-city-third-party-ownership-class-of-92", "apiUrl": "https://content.guardianapis.com/football/2014/sep/29/peter-lim-salford-city-third-party-ownership-class-of-92", "isHosted": false, "pillarId": "pillar/sport", "pillarName": "Sport"}, {"id": "football/2014/sep/29/roberto-mancini-roma-can-beat-manchester-city-champions-league", "type": "article", "sectionId": "football", "sectionName": "Football", "webPublicationDate": "2014-09-29T09:38:22Z", "webTitle": "Roberto Mancini: Roma can beat Manchester City in Champions League", "webUrl": "https://www.theguardian.com/football/2014/sep/29/roberto-mancini-roma-can-beat-manchester-city-champions-league", "apiUrl": "https://content.guardianapis.com/football/2014/sep/29/roberto-mancini-roma-can-beat-manchester-city-champions-league", "isHosted": false, "pillarId": "pillar/sport", "pillarName": "Sport"}]}}