{"response": {"status": "ok", "userTier": "developer", "total": 16844, "startIndex": 1, "pageSize": 50, "currentPage": 1, "pages": 337, "orderBy": "newest", "results": [{"id": "lifeandstyle/2011/oct/01/ferran-adria-el-bulli-family-meal", "type": "article", "sectionId": "lifeandstyle", "sectionName": "Life and style", "webPublicationDate": "2011-09-30T23:04:00Z", "webTitle": "From El Bulli to the family kitchen", "webUrl": "https://www.theguardian.com/lifeandstyle/2011/oct/01/ferran-adria-el-bulli-family-meal", "apiUrl": "https://content.guardianapis.com/lifeandstyle/2011/oct/01/ferran-adria-el-bulli-family-meal", "isHosted": false, "pillarId": "pillar/lifestyle", "pillarName": "Lifestyle"}, {"id": "lifeandstyle/2011/sep/30/fig-tart-roast-honey-recipes", "type": "article", "sectionId": "lifeandstyle", "sectionName": "Life and style", "webPublicationDate": "2011-09-30T21:59:37Z", "webTitle": "Fig recipes | Hugh Fearnley-Whittingstall", "webUrl": "https://www.theguardian.com/lifeandstyle/2011/sep/30/fig-tart-roast-honey-recipes", "apiUrl": "https://content.guardianapis.com/lifeandstyle/2011/sep/30/fig-tart-roast-honey-recipes", "isHosted": false, "pillarId": "pillar/lifestyle", "pillarName": "Lifestyle"}, {"id": "lifeandstyle/2011/sep/30/mount-fuji-swindon-restaurant-review", "type": "article", "sectionId": "lifeandstyle", "sectionName": "Life and style", "webPublicationDate": "2011-09-30T21:59:15Z", "webTitle": "Restaurant review: Mount Fuji, Swindon | John Lanchester", "webUrl": "https://www.theguardian.com/lifeandstyle/2011/sep/30/mount-fuji-swindon-restaurant-review", "apiUrl": "https://content.guardianapis.com/lifeandstyle/2011/sep/30/mount-fuji-swindon-restaurant-review", "isHosted": false, "pillarId": "pillar/lifestyle", "pillarName": "Lifestyle"}, {"id": "lifeandstyle/2011/sep/30/tamarind-spice-biscuits-recipe-lepard", "type": "article", "sectionId": "lifeandstyle", "sectionName": "Life and style", "webPublicationDate": "2011-09-30T21:59:09Z", "webTitle": "Tamarind spice biscuits recipe | Dan Lepard", "webUrl": "https://www.theguardian.com/lifeandstyle/2011/sep/30/tamarind-spice-biscuits-recipe-lepard", "apiUrl": "https://content.guardianapis.com/lifeandstyle/2011/sep/30/tamarind-spice-biscuits-recipe-lepard", "isHosted": false, "pillarId": "pillar/lifestyle", "pillarName": "Lifestyle"}, {"id": "lifeandstyle/2011/sep/30/chillies-long-spaghetti-matthew-fort", "type": "article", "sectionId": "lifeandstyle", "sectionName": "Life and style", "webPublicationDate": "2011-09-30T21:59:07Z", "webTitle": "Food for Fort: what's the point of chillies?", "webUrl": "https://www.theguardian.com/lifeandstyle/2011/sep/30/chillies-long-spaghetti-matthew-fort", "apiUrl": "https://content.guardianapis.com/lifeandstyle/2011/sep/30/chillies-long-spaghetti-matthew-fort", "isHosted": false, "pillarId": "pillar/lifestyle", "pillarName": "Lifestyle"}, {"id": "lifeandstyle/2011/sep/30/life-changing-wine-fiona-beckett", "type": "article", "sectionId": "food", "sectionName": "Food", "webPublicationDate": "2011-09-30T21:59:05Z", "webTitle": "Wine: go on, treat yourself", "webUrl": "https://www.theguardian.com/lifeandstyle/2011/sep/30/life-changing-wine-fiona-beckett", "apiUrl": "https://content.guardianapis.com/lifeandstyle/2011/sep/30/life-changing-wine-fiona-beckett", "isHosted": false, "pillarId": "pillar/lifestyle", "pillarName": "Lifestyle"}, {"id": "lifeandstyle/2011/sep/30/turkey-cake-yoghurt-dip-recipes", "type": "article", "sectionId": "food", "sectionName": "Food", "webPublicationDate": "2011-09-30T21:59:00Z", "webTitle": "Turkey cakes with wasabi guacamole recipe, plus yoghurt and kaffir lime leaf spread | Yotam Ottolenghi", "webUrl": "https://www.theguardian.com/lifeandstyle/2011/sep/30/turkey-cake-yoghurt-dip-recipes", "apiUrl": "https://content.guardianapis.com/lifeandstyle/2011/sep/30/turkey-cake-yoghurt-dip-recipes", "isHosted": false, "pillarId": "pillar/lifestyle", "pillarName": "Lifestyle"}, {"id": "travel/2011/sep/30/aberdeen-harbour-market-hong-kong", "type": "article", "sectionId": "travel", "sectionName": "Travel", "webPublicationDate": "2011-09-30T21:45:03Z", "webTitle": "On the waterfront in Hong Kong", "webUrl": "https://www.theguardian.com/travel/2011/sep/30/aberdeen-harbour-market-hong-kong", "apiUrl": "https://content.guardianapis.com/travel/2011/sep/30/aberdeen-harbour-market-hong-kong", "isHosted": false, "pillarId": "pillar/lifestyle", "pillarName": "Lifestyle"}, {"id": "commentisfree/2011/sep/30/e-coli-outbreak-secrecy", "type": "article", "sectionId": "commentisfree", "sectionName": "Opinion", "webPublicationDate": "2011-09-30T17:30:00Z", "webTitle": "Lift the cloak of secrecy around this E coli outbreak | Erik Millstone", "webUrl": "https://www.theguardian.com/commentisfree/2011/sep/30/e-coli-outbreak-secrecy", "apiUrl": "https://content.guardianapis.com/commentisfree/2011/sep/30/e-coli-outbreak-secrecy", "isHosted": false, "pillarId": "pillar/opinion", "pillarName": "Opinion"}, {"id": "travel/video/2011/sep/30/lebanon-vineyards-bekaa-valley-video", "type": "video", "sectionId": "travel", "sectionName": "Travel", "webPublicationDate": "2011-09-30T12:43:00Z", "webTitle": "A tour of Lebanon's vineyards - video", "webUrl": "https://www.theguardian.com/travel/video/2011/sep/30/lebanon-vineyards-bekaa-valley-video", "apiUrl": "https://content.guardianapis.com/travel/video/2011/sep/30/lebanon-vineyards-bekaa-valley-video", "isHosted": false, "pillarId": "pillar/lifestyle", "pillarName": "Lifestyle"}, {"id": "books/2011/sep/30/jamie-oliver-christmas-number-one", "type": "article", "sectionId": "books", "sectionName": "Books", "webPublicationDate": "2011-09-30T11:22:25Z", "webTitle": "Jamie Oliver tipped for another Christmas number one", "webUrl": "https://www.theguardian.com/books/2011/sep/30/jamie-oliver-christmas-number-one", "apiUrl": "https://content.guardianapis.com/books/2011/sep/30/jamie-oliver-christmas-number-one", "isHosted": false, "pillarId": "pillar/arts", "pillarName": "Arts"}, {"id": "lifeandstyle/wordofmouth/2011/sep/30/indian-summer-barbecue-weekend", "type": "article", "sectionId": "food", "sectionName": "Food", "webPublicationDate": "2011-09-30T11:00:00Z", "webTitle": "Indian summer, barbecue weekend", "webUrl": "https://www.theguardian.com/lifeandstyle/wordofmouth/2011/sep/30/indian-summer-barbecue-weekend", "apiUrl": "https://content.guardianapis.com/lifeandstyle/wordofmouth/2011/sep/30/indian-summer-barbecue-weekend", "isHosted": false, "pillarId": "pillar/lifestyle", "pillarName": "Lifestyle"}, {"id": "lifeandstyle/2011/sep/30/confit-duck-legs-recipe", "type": "article", "sectionId": "food", "sectionName": "Food", "webPublicationDate": "2011-09-30T10:10:00Z", "webTitle": "Confit duck legs with carrots, spring onions and beetroot relish recipe", "webUrl": "https://www.theguardian.com/lifeandstyle/2011/sep/30/confit-duck-legs-recipe", "apiUrl": "https://content.guardianapis.com/lifeandstyle/2011/sep/30/confit-duck-legs-recipe", "isHosted": false, "pillarId": "pillar/lifestyle", "pillarName": "Lifestyle"}, {"id": "lifeandstyle/gallery/2011/sep/30/how-to-cook-confit-duck", "type": "gallery", "sectionId": "lifeandstyle", "sectionName": "Life and style", "webPublicationDate": "2011-09-30T10:10:00Z", "webTitle": "How to cook confit duck legs - in pictures", "webUrl": "https://www.theguardian.com/lifeandstyle/gallery/2011/sep/30/how-to-cook-confit-duck", "apiUrl": "https://content.guardianapis.com/lifeandstyle/gallery/2011/sep/30/how-to-cook-confit-duck", "isHosted": false, "pillarId": "pillar/lifestyle", "pillarName": "Lifestyle"}, {"id": "lifeandstyle/2011/sep/30/faggots-recipe", "type": "article", "sectionId": "food", "sectionName": "Food", "webPublicationDate": "2011-09-30T10:05:00Z", "webTitle": "Faggots recipe", "webUrl": "https://www.theguardian.com/lifeandstyle/2011/sep/30/faggots-recipe", "apiUrl": "https://content.guardianapis.com/lifeandstyle/2011/sep/30/faggots-recipe", "isHosted": false, "pillarId": "pillar/lifestyle", "pillarName": "Lifestyle"}, {"id": "lifeandstyle/gallery/2011/sep/30/how-make-terrine-in-pictures", "type": "gallery", "sectionId": "food", "sectionName": "Food", "webPublicationDate": "2011-09-30T10:00:00Z", "webTitle": "How to make a terrine - in pictures", "webUrl": "https://www.theguardian.com/lifeandstyle/gallery/2011/sep/30/how-make-terrine-in-pictures", "apiUrl": "https://content.guardianapis.com/lifeandstyle/gallery/2011/sep/30/how-make-terrine-in-pictures", "isHosted": false, "pillarId": "pillar/lifestyle", "pillarName": "Lifestyle"}, {"id": "lifeandstyle/2011/sep/30/rabbit-pickled-walnut-terrine-recipe", "type": "article", "sectionId": "food", "sectionName": "Food", "webPublicationDate": "2011-09-30T10:00:00Z", "webTitle": "Rabbit and pickled walnut terrine recipe", "webUrl": "https://www.theguardian.com/lifeandstyle/2011/sep/30/rabbit-pickled-walnut-terrine-recipe", "apiUrl": "https://content.guardianapis.com/lifeandstyle/2011/sep/30/rabbit-pickled-walnut-terrine-recipe", "isHosted": false, "pillarId": "pillar/lifestyle", "pillarName": "Lifestyle"}, {"id": "lifeandstyle/wordofmouth/2011/sep/30/mutual-mastication-dating-for-foodies", "type": "article", "sectionId": "lifeandstyle", "sectionName": "Life and style", "webPublicationDate": "2011-09-30T08:30:00Z", "webTitle": "Dating for foodies", "webUrl": "https://www.theguardian.com/lifeandstyle/wordofmouth/2011/sep/30/mutual-mastication-dating-for-foodies", "apiUrl": "https://content.guardianapis.com/lifeandstyle/wordofmouth/2011/sep/30/mutual-mastication-dating-for-foodies", "isHosted": false, "pillarId": "pillar/lifestyle", "pillarName": "Lifestyle"}, {"id": "tv-and-radio/2011/sep/29/last-nights-tv-shirley", "type": "article", "sectionId": "tv-and-radio", "sectionName": "Television & radio", "webPublicationDate": "2011-09-29T21:15:02Z", "webTitle": "TV review: Shirley; The Marvellous Mrs Beeton, with Sophie Dahl", "webUrl": "https://www.theguardian.com/tv-and-radio/2011/sep/29/last-nights-tv-shirley", "apiUrl": "https://content.guardianapis.com/tv-and-radio/2011/sep/29/last-nights-tv-shirley", "isHosted": false, "pillarId": "pillar/arts", "pillarName": "Arts"}, {"id": "environment/2011/sep/29/woeful-2011-blackberry-crops", "type": "article", "sectionId": "environment", "sectionName": "Environment", "webPublicationDate": "2011-09-29T14:05:10Z", "webTitle": "Woeful 2011 for blackberry crops", "webUrl": "https://www.theguardian.com/environment/2011/sep/29/woeful-2011-blackberry-crops", "apiUrl": "https://content.guardianapis.com/environment/2011/sep/29/woeful-2011-blackberry-crops", "isHosted": false, "pillarId": "pillar/news", "pillarName": "News"}, {"id": "world/2011/sep/29/listeria-symptoms-risks-avoid", "type": "article", "sectionId": "world", "sectionName": "World news", "webPublicationDate": "2011-09-29T11:08:51Z", "webTitle": "Listeria: the symptoms, the risks and how to avoid it", "webUrl": "https://www.theguardian.com/world/2011/sep/29/listeria-symptoms-risks-avoid", "apiUrl": "https://content.guardianapis.com/world/2011/sep/29/listeria-symptoms-risks-avoid", "isHosted": false, "pillarId": "pillar/news", "pillarName": "News"}, {"id": "lifeandstyle/wordofmouth/2011/sep/29/stage-culinary-internship", "type": "article", "sectionId": "food", "sectionName": "Food", "webPublicationDate": "2011-09-29T09:45:00Z", "webTitle": "The stage: a culinary internship", "webUrl": "https://www.theguardian.com/lifeandstyle/wordofmouth/2011/sep/29/stage-culinary-internship", "apiUrl": "https://content.guardianapis.com/lifeandstyle/wordofmouth/2011/sep/29/stage-culinary-internship", "isHosted": false, "pillarId": "pillar/lifestyle", "pillarName": "Lifestyle"}, {"id": "lifeandstyle/wordofmouth/2011/sep/29/how-cook-perfect-battered-fish", "type": "article", "sectionId": "food", "sectionName": "Food", "webPublicationDate": "2011-09-29T06:00:00Z", "webTitle": "How to cook perfect battered fish", "webUrl": "https://www.theguardian.com/lifeandstyle/wordofmouth/2011/sep/29/how-cook-perfect-battered-fish", "apiUrl": "https://content.guardianapis.com/lifeandstyle/wordofmouth/2011/sep/29/how-cook-perfect-battered-fish", "isHosted": false, "pillarId": "pillar/lifestyle", "pillarName": "Lifestyle"}, {"id": "lifeandstyle/2011/sep/28/joyce-molyneux-female-chef-michelin", "type": "article", "sectionId": "food", "sectionName": "Food", "webPublicationDate": "2011-09-28T17:30:00Z", "webTitle": "Joyce Molyneux: 'I just loved cooking'", "webUrl": "https://www.theguardian.com/lifeandstyle/2011/sep/28/joyce-molyneux-female-chef-michelin", "apiUrl": "https://content.guardianapis.com/lifeandstyle/2011/sep/28/joyce-molyneux-female-chef-michelin", "isHosted": false, "pillarId": "pillar/lifestyle", "pillarName": "Lifestyle"}, {"id": "lifeandstyle/2011/sep/28/poached-lamb-caper-sauce-recipe", "type": "article", "sectionId": "food", "sectionName": "Food", "webPublicationDate": "2011-09-28T17:30:00Z", "webTitle": "Poached leg of lamb with caper sauce recipe", "webUrl": "https://www.theguardian.com/lifeandstyle/2011/sep/28/poached-lamb-caper-sauce-recipe", "apiUrl": "https://content.guardianapis.com/lifeandstyle/2011/sep/28/poached-lamb-caper-sauce-recipe", "isHosted": false, "pillarId": "pillar/lifestyle", "pillarName": "Lifestyle"}, {"id": "lifeandstyle/2011/sep/28/cherry-and-almond-filos-recipe", "type": "article", "sectionId": "food", "sectionName": "Food", "webPublicationDate": "2011-09-28T17:30:00Z", "webTitle": "Cherry and almond filos recipe", "webUrl": "https://www.theguardian.com/lifeandstyle/2011/sep/28/cherry-and-almond-filos-recipe", "apiUrl": "https://content.guardianapis.com/lifeandstyle/2011/sep/28/cherry-and-almond-filos-recipe", "isHosted": false, "pillarId": "pillar/lifestyle", "pillarName": "Lifestyle"}, {"id": "lifeandstyle/2011/sep/28/marinated-aubergine-in-honey-and-vinegar-recipe", "type": "article", "sectionId": "food", "sectionName": "Food", "webPublicationDate": "2011-09-28T17:30:00Z", "webTitle": "Marinated aubergine in honey and vinegar recipe", "webUrl": "https://www.theguardian.com/lifeandstyle/2011/sep/28/marinated-aubergine-in-honey-and-vinegar-recipe", "apiUrl": "https://content.guardianapis.com/lifeandstyle/2011/sep/28/marinated-aubergine-in-honey-and-vinegar-recipe", "isHosted": false, "pillarId": "pillar/lifestyle", "pillarName": "Lifestyle"}, {"id": "lifeandstyle/2011/sep/28/wood-pigeon-salad-recipe-angela-hartnett", "type": "article", "sectionId": "lifeandstyle", "sectionName": "Life and style", "webPublicationDate": "2011-09-28T15:00:00Z", "webTitle": "Wood pigeon salad recipe | Angela Hartnett", "webUrl": "https://www.theguardian.com/lifeandstyle/2011/sep/28/wood-pigeon-salad-recipe-angela-hartnett", "apiUrl": "https://content.guardianapis.com/lifeandstyle/2011/sep/28/wood-pigeon-salad-recipe-angela-hartnett", "isHosted": false, "pillarId": "pillar/lifestyle", "pillarName": "Lifestyle"}, {"id": "lifeandstyle/wordofmouth/2011/sep/28/rosh-hashanah-jewish-new-year-food", "type": "article", "sectionId": "lifeandstyle", "sectionName": "Life and style", "webPublicationDate": "2011-09-28T10:15:00Z", "webTitle": "Rosh Hashanah: Jewish new year food", "webUrl": "https://www.theguardian.com/lifeandstyle/wordofmouth/2011/sep/28/rosh-hashanah-jewish-new-year-food", "apiUrl": "https://content.guardianapis.com/lifeandstyle/wordofmouth/2011/sep/28/rosh-hashanah-jewish-new-year-food", "isHosted": false, "pillarId": "pillar/lifestyle", "pillarName": "Lifestyle"}, {"id": "lifeandstyle/wordofmouth/2011/sep/28/how-make-dandelion-burdock-beer", "type": "article", "sectionId": "food", "sectionName": "Food", "webPublicationDate": "2011-09-28T08:30:00Z", "webTitle": "How to make dandelion and burdock beer", "webUrl": "https://www.theguardian.com/lifeandstyle/wordofmouth/2011/sep/28/how-make-dandelion-burdock-beer", "apiUrl": "https://content.guardianapis.com/lifeandstyle/wordofmouth/2011/sep/28/how-make-dandelion-burdock-beer", "isHosted": false, "pillarId": "pillar/lifestyle", "pillarName": "Lifestyle"}, {"id": "media/2011/sep/28/vegetarian-dating-site", "type": "article", "sectionId": "media", "sectionName": "Media", "webPublicationDate": "2011-09-27T23:01:00Z", "webTitle": "'Vegetarian' dating site pulled off the menu", "webUrl": "https://www.theguardian.com/media/2011/sep/28/vegetarian-dating-site", "apiUrl": "https://content.guardianapis.com/media/2011/sep/28/vegetarian-dating-site", "isHosted": false, "pillarId": "pillar/news", "pillarName": "News"}, {"id": "commentisfree/2011/sep/27/coffee-women-happier-vices", "type": "article", "sectionId": "commentisfree", "sectionName": "Opinion", "webPublicationDate": "2011-09-27T21:30:01Z", "webTitle": "Why drinking coffee makes women full of beans | Lisa Appignanesi", "webUrl": "https://www.theguardian.com/commentisfree/2011/sep/27/coffee-women-happier-vices", "apiUrl": "https://content.guardianapis.com/commentisfree/2011/sep/27/coffee-women-happier-vices", "isHosted": false, "pillarId": "pillar/opinion", "pillarName": "Opinion"}, {"id": "lifeandstyle/2011/sep/27/vegan-strip-club", "type": "article", "sectionId": "lifeandstyle", "sectionName": "Life and style", "webPublicationDate": "2011-09-27T19:00:00Z", "webTitle": "The world's first vegan strip club", "webUrl": "https://www.theguardian.com/lifeandstyle/2011/sep/27/vegan-strip-club", "apiUrl": "https://content.guardianapis.com/lifeandstyle/2011/sep/27/vegan-strip-club", "isHosted": false, "pillarId": "pillar/lifestyle", "pillarName": "Lifestyle"}, {"id": "business/2011/sep/27/mitchells-butlers-bid-lewis-piedmont", "type": "article", "sectionId": "business", "sectionName": "Business", "webPublicationDate": "2011-09-27T18:01:00Z", "webTitle": "Mitchells & Butlers' lacklustre results increase likelihood of bargain takeover", "webUrl": "https://www.theguardian.com/business/2011/sep/27/mitchells-butlers-bid-lewis-piedmont", "apiUrl": "https://content.guardianapis.com/business/2011/sep/27/mitchells-butlers-bid-lewis-piedmont", "isHosted": false, "pillarId": "pillar/news", "pillarName": "News"}, {"id": "lifeandstyle/2011/sep/27/coffee-may-help-prevent-depression", "type": "article", "sectionId": "food", "sectionName": "Food", "webPublicationDate": "2011-09-27T12:17:00Z", "webTitle": "Coffee may help prevent depression in women", "webUrl": "https://www.theguardian.com/lifeandstyle/2011/sep/27/coffee-may-help-prevent-depression", "apiUrl": "https://content.guardianapis.com/lifeandstyle/2011/sep/27/coffee-may-help-prevent-depression", "isHosted": false, "pillarId": "pillar/lifestyle", "pillarName": "Lifestyle"}, {"id": "lifeandstyle/wordofmouth/2011/sep/27/celebrity-chefs-and-their-products", "type": "article", "sectionId": "lifeandstyle", "sectionName": "Life and style", "webPublicationDate": "2011-09-27T09:00:00Z", "webTitle": "Panning for gold: chef-branded wares", "webUrl": "https://www.theguardian.com/lifeandstyle/wordofmouth/2011/sep/27/celebrity-chefs-and-their-products", "apiUrl": "https://content.guardianapis.com/lifeandstyle/wordofmouth/2011/sep/27/celebrity-chefs-and-their-products", "isHosted": false, "pillarId": "pillar/lifestyle", "pillarName": "Lifestyle"}, {"id": "tv-and-radio/2011/sep/26/home-cooking-made-easy-review", "type": "article", "sectionId": "tv-and-radio", "sectionName": "Television & radio", "webPublicationDate": "2011-09-26T20:00:00Z", "webTitle": "TV review: Home Cooking Made Easy; There's No Taste Like Home", "webUrl": "https://www.theguardian.com/tv-and-radio/2011/sep/26/home-cooking-made-easy-review", "apiUrl": "https://content.guardianapis.com/tv-and-radio/2011/sep/26/home-cooking-made-easy-review", "isHosted": false, "pillarId": "pillar/arts", "pillarName": "Arts"}, {"id": "travel/2011/sep/26/new-york-best-street-food", "type": "article", "sectionId": "travel", "sectionName": "Travel", "webPublicationDate": "2011-09-26T12:42:00Z", "webTitle": "The best street food in New York", "webUrl": "https://www.theguardian.com/travel/2011/sep/26/new-york-best-street-food", "apiUrl": "https://content.guardianapis.com/travel/2011/sep/26/new-york-best-street-food", "isHosted": false, "pillarId": "pillar/lifestyle", "pillarName": "Lifestyle"}, {"id": "lifeandstyle/wordofmouth/2011/sep/26/which-true-king-of-cheeses", "type": "article", "sectionId": "food", "sectionName": "Food", "webPublicationDate": "2011-09-26T11:42:00Z", "webTitle": "Which is the true king of cheeses?", "webUrl": "https://www.theguardian.com/lifeandstyle/wordofmouth/2011/sep/26/which-true-king-of-cheeses", "apiUrl": "https://content.guardianapis.com/lifeandstyle/wordofmouth/2011/sep/26/which-true-king-of-cheeses", "isHosted": false, "pillarId": "pillar/lifestyle", "pillarName": "Lifestyle"}, {"id": "lifeandstyle/wordofmouth/2011/sep/26/new-generation-student-cooks", "type": "article", "sectionId": "education", "sectionName": "Education", "webPublicationDate": "2011-09-26T09:10:00Z", "webTitle": "A new generation of student cooks?", "webUrl": "https://www.theguardian.com/lifeandstyle/wordofmouth/2011/sep/26/new-generation-student-cooks", "apiUrl": "https://content.guardianapis.com/lifeandstyle/wordofmouth/2011/sep/26/new-generation-student-cooks", "isHosted": false, "pillarId": "pillar/news", "pillarName": "News"}, {"id": "lifeandstyle/video/2011/sep/26/how-cook-barbecued-steak-video", "type": "video", "sectionId": "food", "sectionName": "Food", "webPublicationDate": "2011-09-26T00:00:00Z", "webTitle": "How to cook: barbecued steak - video", "webUrl": "https://www.theguardian.com/lifeandstyle/video/2011/sep/26/how-cook-barbecued-steak-video", "apiUrl": "https://content.guardianapis.com/lifeandstyle/video/2011/sep/26/how-cook-barbecued-steak-video", "isHosted": false, "pillarId": "pillar/lifestyle", "pillarName": "Lifestyle"}, {"id": "lifeandstyle/2011/sep/26/real-ale-helping-british-pubs", "type": "article", "sectionId": "food", "sectionName": "Food", "webPublicationDate": "2011-09-25T23:05:00Z", "webTitle": "Real ale 'helping UK pubs stay open'", "webUrl": "https://www.theguardian.com/lifeandstyle/2011/sep/26/real-ale-helping-british-pubs", "apiUrl": "https://content.guardianapis.com/lifeandstyle/2011/sep/26/real-ale-helping-british-pubs", "isHosted": false, "pillarId": "pillar/lifestyle", "pillarName": "Lifestyle"}, {"id": "theguardian/2011/sep/25/worlds-most-expensive-kitchen", "type": "article", "sectionId": "lifeandstyle", "sectionName": "Life and style", "webPublicationDate": "2011-09-25T19:29:00Z", "webTitle": "The world's most expensive fitted kitchen", "webUrl": "https://www.theguardian.com/theguardian/2011/sep/25/worlds-most-expensive-kitchen", "apiUrl": "https://content.guardianapis.com/theguardian/2011/sep/25/worlds-most-expensive-kitchen", "isHosted": false, "pillarId": "pillar/lifestyle", "pillarName": "Lifestyle"}, {"id": "lifeandstyle/2011/sep/25/david-williams-shiraz-viognier-sauvignon", "type": "article", "sectionId": "food", "sectionName": "Food", "webPublicationDate": "2011-09-24T23:10:08Z", "webTitle": "Wines of the week", "webUrl": "https://www.theguardian.com/lifeandstyle/2011/sep/25/david-williams-shiraz-viognier-sauvignon", "apiUrl": "https://content.guardianapis.com/lifeandstyle/2011/sep/25/david-williams-shiraz-viognier-sauvignon", "isHosted": false, "pillarId": "pillar/lifestyle", "pillarName": "Lifestyle"}, {"id": "lifeandstyle/2011/sep/25/brands-when-familiarity-breeds-contempt", "type": "article", "sectionId": "lifeandstyle", "sectionName": "Life and style", "webPublicationDate": "2011-09-24T23:10:04Z", "webTitle": "When familiarity breeds contempt", "webUrl": "https://www.theguardian.com/lifeandstyle/2011/sep/25/brands-when-familiarity-breeds-contempt", "apiUrl": "https://content.guardianapis.com/lifeandstyle/2011/sep/25/brands-when-familiarity-breeds-contempt", "isHosted": false, "pillarId": "pillar/lifestyle", "pillarName": "Lifestyle"}, {"id": "lifeandstyle/2011/sep/25/jay-rayner-british-larder-suffolk", "type": "article", "sectionId": "food", "sectionName": "Food", "webPublicationDate": "2011-09-24T23:10:01Z", "webTitle": "Restaurant review: the British Larder", "webUrl": "https://www.theguardian.com/lifeandstyle/2011/sep/25/jay-rayner-british-larder-suffolk", "apiUrl": "https://content.guardianapis.com/lifeandstyle/2011/sep/25/jay-rayner-british-larder-suffolk", "isHosted": false, "pillarId": "pillar/lifestyle", "pillarName": "Lifestyle"}, {"id": "lifeandstyle/cartoon/2011/sep/24/1", "type": "picture", "sectionId": "lifeandstyle", "sectionName": "Life and style", "webPublicationDate": "2011-09-24T02:00:00Z", "webTitle": "Berger & Wyse", "webUrl": "https://www.theguardian.com/lifeandstyle/cartoon/2011/sep/24/1", "apiUrl": "https://content.guardianapis.com/lifeandstyle/cartoon/2011/sep/24/1", "isHosted": false, "pillarId": "pillar/lifestyle", "pillarName": "Lifestyle"}, {"id": "lifeandstyle/2011/sep/24/readers-favourite-photographs-songs-recipes", "type": "article", "sectionId": "lifeandstyle", "sectionName": "Life and style", "webPublicationDate": "2011-09-23T23:05:47Z", "webTitle": "Family life", "webUrl": "https://www.theguardian.com/lifeandstyle/2011/sep/24/readers-favourite-photographs-songs-recipes", "apiUrl": "https://content.guardianapis.com/lifeandstyle/2011/sep/24/readers-favourite-photographs-songs-recipes", "isHosted": false, "pillarId": "pillar/lifestyle", "pillarName": "Lifestyle"}, {"id": "lifeandstyle/2011/sep/23/hedone-london-w4-restaurant-review", "type": "article", "sectionId": "lifeandstyle", "sectionName": "Life and style", "webPublicationDate": "2011-09-23T21:59:26Z", "webTitle": "Restaurant: Hedone, London W4 | review | John Lanchester", "webUrl": "https://www.theguardian.com/lifeandstyle/2011/sep/23/hedone-london-w4-restaurant-review", "apiUrl": "https://content.guardianapis.com/lifeandstyle/2011/sep/23/hedone-london-w4-restaurant-review", "isHosted": false, "pillarId": "pillar/lifestyle", "pillarName": "Lifestyle"}, {"id": "lifeandstyle/2011/sep/23/cured-lomo-salted-capers-advice", "type": "article", "sectionId": "lifeandstyle", "sectionName": "Life and style", "webPublicationDate": "2011-09-23T21:59:14Z", "webTitle": "Food for Fort: on cured lomo and salted capers | Matthew Fort", "webUrl": "https://www.theguardian.com/lifeandstyle/2011/sep/23/cured-lomo-salted-capers-advice", "apiUrl": "https://content.guardianapis.com/lifeandstyle/2011/sep/23/cured-lomo-salted-capers-advice", "isHosted": false, "pillarId": "pillar/lifestyle", "pillarName": "Lifestyle"}]}}