{"response": {"status": "ok", "userTier": "developer", "total": 89370, "startIndex": 1, "pageSize": 50, "currentPage": 1, "pages": 1788, "orderBy": "newest", "results": [{"id": "football/gallery/2013/oct/01/aaron-ramsey-the-gallery", "type": "gallery", "sectionId": "football", "sectionName": "Football", "webPublicationDate": "2013-09-30T23:06:00Z", "webTitle": "Aaron Ramsey | The Gallery", "webUrl": "https://www.theguardian.com/football/gallery/2013/oct/01/aaron-ramsey-the-gallery", "apiUrl": "https://content.guardianapis.com/football/gallery/2013/oct/01/aaron-ramsey-the-gallery", "isHosted": false, "pillarId": "pillar/sport", "pillarName": "Sport"}, {"id": "football/2013/oct/01/fifa-ethics-world-cup-2018-2022-investigation", "type": "article", "sectionId": "football", "sectionName": "Football", "webPublicationDate": "2013-09-30T23:02:01Z", "webTitle": "Fifa head of ethics to gather World Cup 2018 and 2022 bid evidence", "webUrl": "https://www.theguardian.com/football/2013/oct/01/fifa-ethics-world-cup-2018-2022-investigation", "apiUrl": "https://content.guardianapis.com/football/2013/oct/01/fifa-ethics-world-cup-2018-2022-investigation", "isHosted": false, "pillarId": "pillar/sport", "pillarName": "Sport"}, {"id": "football/2013/sep/30/celtic-barcelona-messi-champions-league", "type": "article", "sectionId": "football", "sectionName": "Football", "webPublicationDate": "2013-09-30T22:00:00Z", "webTitle": "Celtic's Neil Lennon fears Barcelona will be fired up by Messi absence", "webUrl": "https://www.theguardian.com/football/2013/sep/30/celtic-barcelona-messi-champions-league", "apiUrl": "https://content.guardianapis.com/football/2013/sep/30/celtic-barcelona-messi-champions-league", "isHosted": false, "pillarId": "pillar/sport", "pillarName": "Sport"}, {"id": "football/2013/sep/30/manchester-city-bayern-champions-league", "type": "article", "sectionId": "football", "sectionName": "Football", "webPublicationDate": "2013-09-30T21:44:00Z", "webTitle": "Manchester City hoping David Silva will be fit to face Bayern Munich", "webUrl": "https://www.theguardian.com/football/2013/sep/30/manchester-city-bayern-champions-league", "apiUrl": "https://content.guardianapis.com/football/2013/sep/30/manchester-city-bayern-champions-league", "isHosted": false, "pillarId": "pillar/sport", "pillarName": "Sport"}, {"id": "football/2013/sep/30/arsene-wenger-arsenal-champions-league", "type": "article", "sectionId": "football", "sectionName": "Football", "webPublicationDate": "2013-09-30T21:31:00Z", "webTitle": "Ars\u00e8ne Wenger feels positive about Arsenal's Champions League chances", "webUrl": "https://www.theguardian.com/football/2013/sep/30/arsene-wenger-arsenal-champions-league", "apiUrl": "https://content.guardianapis.com/football/2013/sep/30/arsene-wenger-arsenal-champions-league", "isHosted": false, "pillarId": "pillar/sport", "pillarName": "Sport"}, {"id": "football/2013/sep/30/manchester-united-david-moyes-glazer", "type": "article", "sectionId": "football", "sectionName": "Football", "webPublicationDate": "2013-09-30T21:30:01Z", "webTitle": "Manchester United's David Moyes to be backed by Glazer cash in January", "webUrl": "https://www.theguardian.com/football/2013/sep/30/manchester-united-david-moyes-glazer", "apiUrl": "https://content.guardianapis.com/football/2013/sep/30/manchester-united-david-moyes-glazer", "isHosted": false, "pillarId": "pillar/sport", "pillarName": "Sport"}, {"id": "football/2013/sep/30/steven-gerrard-luis-suarez-arsenal", "type": "article", "sectionId": "football", "sectionName": "Football", "webPublicationDate": "2013-09-30T21:30:00Z", "webTitle": "Steven Gerrard praises Luis Su\u00e1rez reaction to blocked Arsenal move", "webUrl": "https://www.theguardian.com/football/2013/sep/30/steven-gerrard-luis-suarez-arsenal", "apiUrl": "https://content.guardianapis.com/football/2013/sep/30/steven-gerrard-luis-suarez-arsenal", "isHosted": false, "pillarId": "pillar/sport", "pillarName": "Sport"}, {"id": "football/2013/sep/30/napoli-arsenal-arsene-wenger-champions-league", "type": "article", "sectionId": "football", "sectionName": "Football", "webPublicationDate": "2013-09-30T21:30:00Z", "webTitle": "Napoli next for Arsenal as Ars\u00e8ne Wenger contemplates gap on his CV", "webUrl": "https://www.theguardian.com/football/2013/sep/30/napoli-arsenal-arsene-wenger-champions-league", "apiUrl": "https://content.guardianapis.com/football/2013/sep/30/napoli-arsenal-arsene-wenger-champions-league", "isHosted": false, "pillarId": "pillar/sport", "pillarName": "Sport"}, {"id": "football/2013/sep/30/everton-newcastle-united-match-report", "type": "article", "sectionId": "football", "sectionName": "Football", "webPublicationDate": "2013-09-30T21:01:54Z", "webTitle": "Everton 3-2 Newcastle United | Premier League match report", "webUrl": "https://www.theguardian.com/football/2013/sep/30/everton-newcastle-united-match-report", "apiUrl": "https://content.guardianapis.com/football/2013/sep/30/everton-newcastle-united-match-report", "isHosted": false, "pillarId": "pillar/sport", "pillarName": "Sport"}, {"id": "football/2013/sep/30/everton-newcastle-united-live-mbm", "type": "liveblog", "sectionId": "football", "sectionName": "Football", "webPublicationDate": "2013-09-30T20:58:01Z", "webTitle": "Everton v Newcastle United \u2013 as it happened | Jacob Steinberg", "webUrl": "https://www.theguardian.com/football/2013/sep/30/everton-newcastle-united-live-mbm", "apiUrl": "https://content.guardianapis.com/football/2013/sep/30/everton-newcastle-united-live-mbm", "isHosted": false, "pillarId": "pillar/sport", "pillarName": "Sport"}, {"id": "football/2013/sep/30/manchester-united-womens-football-team", "type": "article", "sectionId": "football", "sectionName": "Football", "webPublicationDate": "2013-09-30T19:29:33Z", "webTitle": "Manchester United consider setting up new women's football team", "webUrl": "https://www.theguardian.com/football/2013/sep/30/manchester-united-womens-football-team", "apiUrl": "https://content.guardianapis.com/football/2013/sep/30/manchester-united-womens-football-team", "isHosted": false, "pillarId": "pillar/sport", "pillarName": "Sport"}, {"id": "football/2013/sep/30/jose-mourinho-chelsea-steaua-bucharest-champions-league", "type": "article", "sectionId": "football", "sectionName": "Football", "webPublicationDate": "2013-09-30T19:27:15Z", "webTitle": "Jos\u00e9 Mourinho's mood darkens as Chelsea arrive for Steaua Bucharest test", "webUrl": "https://www.theguardian.com/football/2013/sep/30/jose-mourinho-chelsea-steaua-bucharest-champions-league", "apiUrl": "https://content.guardianapis.com/football/2013/sep/30/jose-mourinho-chelsea-steaua-bucharest-champions-league", "isHosted": false, "pillarId": "pillar/sport", "pillarName": "Sport"}, {"id": "football/2013/sep/30/nottingham-forest-jim-price-billy-davies", "type": "article", "sectionId": "football", "sectionName": "Football", "webPublicationDate": "2013-09-30T18:29:33Z", "webTitle": "Key Nottingham Forest figure Jim Price may not pass fit and proper test", "webUrl": "https://www.theguardian.com/football/2013/sep/30/nottingham-forest-jim-price-billy-davies", "apiUrl": "https://content.guardianapis.com/football/2013/sep/30/nottingham-forest-jim-price-billy-davies", "isHosted": false, "pillarId": "pillar/sport", "pillarName": "Sport"}, {"id": "sport/picture/2013/sep/30/sport-picture-of-the-day-turnstile", "type": "picture", "sectionId": "sport", "sectionName": "Sport", "webPublicationDate": "2013-09-30T17:08:41Z", "webTitle": "Sport picture of the day: At the Turnstile", "webUrl": "https://www.theguardian.com/sport/picture/2013/sep/30/sport-picture-of-the-day-turnstile", "apiUrl": "https://content.guardianapis.com/sport/picture/2013/sep/30/sport-picture-of-the-day-turnstile", "isHosted": false, "pillarId": "pillar/sport", "pillarName": "Sport"}, {"id": "football/2013/sep/30/derby-steve-mcclaren-new-manager", "type": "article", "sectionId": "football", "sectionName": "Football", "webPublicationDate": "2013-09-30T16:51:41Z", "webTitle": "Derby County confirm Steve McClaren as new manager at Pride Park", "webUrl": "https://www.theguardian.com/football/2013/sep/30/derby-steve-mcclaren-new-manager", "apiUrl": "https://content.guardianapis.com/football/2013/sep/30/derby-steve-mcclaren-new-manager", "isHosted": false, "pillarId": "pillar/sport", "pillarName": "Sport"}, {"id": "football/blog/2013/sep/30/schalke-hoffenheim-bundesliga-roundup", "type": "article", "sectionId": "football", "sectionName": "Football", "webPublicationDate": "2013-09-30T16:46:08Z", "webTitle": "Schalke staggering towards another shambles after Hoffenheim draw", "webUrl": "https://www.theguardian.com/football/blog/2013/sep/30/schalke-hoffenheim-bundesliga-roundup", "apiUrl": "https://content.guardianapis.com/football/blog/2013/sep/30/schalke-hoffenheim-bundesliga-roundup", "isHosted": false, "pillarId": "pillar/sport", "pillarName": "Sport"}, {"id": "football/2013/sep/30/hillsborough-inquest-held-warrington-liverpool", "type": "article", "sectionId": "football", "sectionName": "Football", "webPublicationDate": "2013-09-30T16:42:14Z", "webTitle": "Hillsborough inquest to be held in Warrington", "webUrl": "https://www.theguardian.com/football/2013/sep/30/hillsborough-inquest-held-warrington-liverpool", "apiUrl": "https://content.guardianapis.com/football/2013/sep/30/hillsborough-inquest-held-warrington-liverpool", "isHosted": false, "pillarId": "pillar/sport", "pillarName": "Sport"}, {"id": "football/2013/sep/30/jose-mourinho-storms-out-press-conference-chelsea", "type": "article", "sectionId": "football", "sectionName": "Football", "webPublicationDate": "2013-09-30T16:23:55Z", "webTitle": "Jos\u00e9 Mourinho walks out of press conference over De Bruyne omission", "webUrl": "https://www.theguardian.com/football/2013/sep/30/jose-mourinho-storms-out-press-conference-chelsea", "apiUrl": "https://content.guardianapis.com/football/2013/sep/30/jose-mourinho-storms-out-press-conference-chelsea", "isHosted": false, "pillarId": "pillar/sport", "pillarName": "Sport"}, {"id": "football/blog/audio/2013/sep/30/football-weekly-west-brom-david-moyes-champions-league", "type": "audio", "sectionId": "football", "sectionName": "Football", "webPublicationDate": "2013-09-30T15:59:00Z", "webTitle": "Football Weekly: West Brom heap more misery on David Moyes", "webUrl": "https://www.theguardian.com/football/blog/audio/2013/sep/30/football-weekly-west-brom-david-moyes-champions-league", "apiUrl": "https://content.guardianapis.com/football/blog/audio/2013/sep/30/football-weekly-west-brom-david-moyes-champions-league", "isHosted": false, "pillarId": "pillar/sport", "pillarName": "Sport"}, {"id": "football/2013/sep/30/the-fiver-manchester-united-david-moyes", "type": "article", "sectionId": "football", "sectionName": "Football", "webPublicationDate": "2013-09-30T15:51:18Z", "webTitle": "The Fiver | David Moyes's tribute to Manchester United's 70s heritage | Jacob Steinberg", "webUrl": "https://www.theguardian.com/football/2013/sep/30/the-fiver-manchester-united-david-moyes", "apiUrl": "https://content.guardianapis.com/football/2013/sep/30/the-fiver-manchester-united-david-moyes", "isHosted": false, "pillarId": "pillar/sport", "pillarName": "Sport"}, {"id": "football/2013/sep/30/gary-lineker-motd-attacks-critics", "type": "article", "sectionId": "football", "sectionName": "Football", "webPublicationDate": "2013-09-30T15:15:00Z", "webTitle": "Match of the Day still sets the tone for TV coverage, says Gary Lineker", "webUrl": "https://www.theguardian.com/football/2013/sep/30/gary-lineker-motd-attacks-critics", "apiUrl": "https://content.guardianapis.com/football/2013/sep/30/gary-lineker-motd-attacks-critics", "isHosted": false, "pillarId": "pillar/sport", "pillarName": "Sport"}, {"id": "football/2013/sep/30/gary-lineker-defies-match-of-the-day-critics", "type": "article", "sectionId": "football", "sectionName": "Football", "webPublicationDate": "2013-09-30T15:14:13Z", "webTitle": "Gary Lineker defies Match of the Day critics with a striker's fervour", "webUrl": "https://www.theguardian.com/football/2013/sep/30/gary-lineker-defies-match-of-the-day-critics", "apiUrl": "https://content.guardianapis.com/football/2013/sep/30/gary-lineker-defies-match-of-the-day-critics", "isHosted": false, "pillarId": "pillar/sport", "pillarName": "Sport"}, {"id": "football/blog/2013/sep/30/atletico-madrid-real-madrid-la-liga-roundup", "type": "article", "sectionId": "football", "sectionName": "Football", "webPublicationDate": "2013-09-30T14:45:51Z", "webTitle": "Atl\u00e9tico Madrid have truly arrived after conquering Real Madrid again | Sid Lowe", "webUrl": "https://www.theguardian.com/football/blog/2013/sep/30/atletico-madrid-real-madrid-la-liga-roundup", "apiUrl": "https://content.guardianapis.com/football/blog/2013/sep/30/atletico-madrid-real-madrid-la-liga-roundup", "isHosted": false, "pillarId": "pillar/sport", "pillarName": "Sport"}, {"id": "sport/blog/2013/sep/30/mls-week-31-seattle-sounders-new-york-red-bulls-thierry-henry", "type": "article", "sectionId": "football", "sectionName": "Football", "webPublicationDate": "2013-09-30T13:58:00Z", "webTitle": "MLS: five things we learned in week 31 | Graham Parker and Richard Farley", "webUrl": "https://www.theguardian.com/sport/blog/2013/sep/30/mls-week-31-seattle-sounders-new-york-red-bulls-thierry-henry", "apiUrl": "https://content.guardianapis.com/sport/blog/2013/sep/30/mls-week-31-seattle-sounders-new-york-red-bulls-thierry-henry", "isHosted": false, "pillarId": "pillar/sport", "pillarName": "Sport"}, {"id": "football/blog/2013/sep/30/serie-a-roundup-torino-juventus", "type": "article", "sectionId": "football", "sectionName": "Football", "webPublicationDate": "2013-09-30T10:19:48Z", "webTitle": "Torino make their mark on Carlos Tevez, but Juventus take the points | Paolo Bandini", "webUrl": "https://www.theguardian.com/football/blog/2013/sep/30/serie-a-roundup-torino-juventus", "apiUrl": "https://content.guardianapis.com/football/blog/2013/sep/30/serie-a-roundup-torino-juventus", "isHosted": false, "pillarId": "pillar/sport", "pillarName": "Sport"}, {"id": "football/blog/2013/sep/30/premier-league-talking-points-liverpool", "type": "article", "sectionId": "football", "sectionName": "Football", "webPublicationDate": "2013-09-30T09:56:00Z", "webTitle": "Premier League: 10 talking points from the weekend's action | Guardian writers", "webUrl": "https://www.theguardian.com/football/blog/2013/sep/30/premier-league-talking-points-liverpool", "apiUrl": "https://content.guardianapis.com/football/blog/2013/sep/30/premier-league-talking-points-liverpool", "isHosted": false, "pillarId": "pillar/sport", "pillarName": "Sport"}, {"id": "global/2013/sep/30/steve-mcclaren-manager-derby-county", "type": "article", "sectionId": "football", "sectionName": "Football", "webPublicationDate": "2013-09-30T09:30:01Z", "webTitle": "Steve McClaren to be new manager of Derby County", "webUrl": "https://www.theguardian.com/global/2013/sep/30/steve-mcclaren-manager-derby-county", "apiUrl": "https://content.guardianapis.com/global/2013/sep/30/steve-mcclaren-manager-derby-county", "isHosted": false, "pillarId": "pillar/sport", "pillarName": "Sport"}, {"id": "football/2013/sep/30/football-transfer-rumours-philippe-coutinho", "type": "article", "sectionId": "football", "sectionName": "Football", "webPublicationDate": "2013-09-30T08:24:40Z", "webTitle": "Football transfer rumours: Philippe Coutinho to Atl\u00e9tico Madrid?", "webUrl": "https://www.theguardian.com/football/2013/sep/30/football-transfer-rumours-philippe-coutinho", "apiUrl": "https://content.guardianapis.com/football/2013/sep/30/football-transfer-rumours-philippe-coutinho", "isHosted": false, "pillarId": "pillar/sport", "pillarName": "Sport"}, {"id": "football/2013/sep/29/fulham-cardiff-city-premier-league-match-report", "type": "article", "sectionId": "football", "sectionName": "Football", "webPublicationDate": "2013-09-29T22:10:00Z", "webTitle": "Martin Jol realises end could be nigh after Fulham vote of confidence", "webUrl": "https://www.theguardian.com/football/2013/sep/29/fulham-cardiff-city-premier-league-match-report", "apiUrl": "https://content.guardianapis.com/football/2013/sep/29/fulham-cardiff-city-premier-league-match-report", "isHosted": false, "pillarId": "pillar/sport", "pillarName": "Sport"}, {"id": "football/2013/sep/29/hull-west-ham-premier-league-match-report", "type": "article", "sectionId": "football", "sectionName": "Football", "webPublicationDate": "2013-09-29T22:01:01Z", "webTitle": "Hull's Tom Huddlestone could be a hair's breadth from England call-up", "webUrl": "https://www.theguardian.com/football/2013/sep/29/hull-west-ham-premier-league-match-report", "apiUrl": "https://content.guardianapis.com/football/2013/sep/29/hull-west-ham-premier-league-match-report", "isHosted": false, "pillarId": "pillar/sport", "pillarName": "Sport"}, {"id": "football/blog/2013/sep/29/graham-alexander-fleetwood-exeter", "type": "article", "sectionId": "football", "sectionName": "Football", "webPublicationDate": "2013-09-29T22:01:00Z", "webTitle": "Graham Alexander rues a failure of Fleetwood industry for Exeter's net gain | Jeremy Alexander", "webUrl": "https://www.theguardian.com/football/blog/2013/sep/29/graham-alexander-fleetwood-exeter", "apiUrl": "https://content.guardianapis.com/football/blog/2013/sep/29/graham-alexander-fleetwood-exeter", "isHosted": false, "pillarId": "pillar/sport", "pillarName": "Sport"}, {"id": "football/2013/sep/29/southampton-crystal-palace-match-report", "type": "article", "sectionId": "football", "sectionName": "Football", "webPublicationDate": "2013-09-29T22:01:00Z", "webTitle": "Southampton in nosebleed territory but soaring Saints are a work in progress", "webUrl": "https://www.theguardian.com/football/2013/sep/29/southampton-crystal-palace-match-report", "apiUrl": "https://content.guardianapis.com/football/2013/sep/29/southampton-crystal-palace-match-report", "isHosted": false, "pillarId": "pillar/sport", "pillarName": "Sport"}, {"id": "football/blog/2013/sep/29/david-moyes-manchester-united", "type": "article", "sectionId": "football", "sectionName": "Football", "webPublicationDate": "2013-09-29T22:00:01Z", "webTitle": "David Moyes at Manchester United: where is it all going wrong? | Jamie Jackson", "webUrl": "https://www.theguardian.com/football/blog/2013/sep/29/david-moyes-manchester-united", "apiUrl": "https://content.guardianapis.com/football/blog/2013/sep/29/david-moyes-manchester-united", "isHosted": false, "pillarId": "pillar/sport", "pillarName": "Sport"}, {"id": "football/2013/sep/29/swansea-city-arsenal-premier-league", "type": "article", "sectionId": "football", "sectionName": "Football", "webPublicationDate": "2013-09-29T22:00:00Z", "webTitle": "Ars\u00e8ne Wenger says confident Arsenal can figure in 'very open' title race", "webUrl": "https://www.theguardian.com/football/2013/sep/29/swansea-city-arsenal-premier-league", "apiUrl": "https://content.guardianapis.com/football/2013/sep/29/swansea-city-arsenal-premier-league", "isHosted": false, "pillarId": "pillar/sport", "pillarName": "Sport"}, {"id": "football/2013/sep/29/aston-villa-manchester-city-premier-league", "type": "article", "sectionId": "football", "sectionName": "Football", "webPublicationDate": "2013-09-29T21:59:00Z", "webTitle": "Manchester City told to shape up for Bayern Munich after Aston Villa defeat", "webUrl": "https://www.theguardian.com/football/2013/sep/29/aston-villa-manchester-city-premier-league", "apiUrl": "https://content.guardianapis.com/football/2013/sep/29/aston-villa-manchester-city-premier-league", "isHosted": false, "pillarId": "pillar/sport", "pillarName": "Sport"}, {"id": "football/2013/sep/29/tottenham-chelsea-premier-league-match-report", "type": "article", "sectionId": "football", "sectionName": "Football", "webPublicationDate": "2013-09-29T21:30:01Z", "webTitle": "Chelsea's Torres could face further charges for Vertonghen scratch", "webUrl": "https://www.theguardian.com/football/2013/sep/29/tottenham-chelsea-premier-league-match-report", "apiUrl": "https://content.guardianapis.com/football/2013/sep/29/tottenham-chelsea-premier-league-match-report", "isHosted": false, "pillarId": "pillar/sport", "pillarName": "Sport"}, {"id": "football/2013/sep/29/tottenham-andros-townsend-chelsea", "type": "article", "sectionId": "football", "sectionName": "Football", "webPublicationDate": "2013-09-29T21:30:01Z", "webTitle": "Tottenham's Andros Townsend apologises for 'dive' against Chelsea", "webUrl": "https://www.theguardian.com/football/2013/sep/29/tottenham-andros-townsend-chelsea", "apiUrl": "https://content.guardianapis.com/football/2013/sep/29/tottenham-andros-townsend-chelsea", "isHosted": false, "pillarId": "pillar/sport", "pillarName": "Sport"}, {"id": "football/2013/sep/29/david-moyes-manchester-united", "type": "article", "sectionId": "football", "sectionName": "Football", "webPublicationDate": "2013-09-29T21:30:00Z", "webTitle": "Manchester United's David Moyes: Champions League is much harder now", "webUrl": "https://www.theguardian.com/football/2013/sep/29/david-moyes-manchester-united", "apiUrl": "https://content.guardianapis.com/football/2013/sep/29/david-moyes-manchester-united", "isHosted": false, "pillarId": "pillar/sport", "pillarName": "Sport"}, {"id": "football/2013/sep/29/stoke-norwich-premier-league-match-report", "type": "article", "sectionId": "football", "sectionName": "Football", "webPublicationDate": "2013-09-29T20:16:00Z", "webTitle": "Stoke City 0-1 Norwich City | Premier League match report", "webUrl": "https://www.theguardian.com/football/2013/sep/29/stoke-norwich-premier-league-match-report", "apiUrl": "https://content.guardianapis.com/football/2013/sep/29/stoke-norwich-premier-league-match-report", "isHosted": false, "pillarId": "pillar/sport", "pillarName": "Sport"}, {"id": "football/2013/sep/29/sunderland-liverpool-tactics", "type": "article", "sectionId": "football", "sectionName": "Football", "webPublicationDate": "2013-09-29T19:47:41Z", "webTitle": "Sunderland v Liverpool: Tactical analysis", "webUrl": "https://www.theguardian.com/football/2013/sep/29/sunderland-liverpool-tactics", "apiUrl": "https://content.guardianapis.com/football/2013/sep/29/sunderland-liverpool-tactics", "isHosted": false, "pillarId": "pillar/sport", "pillarName": "Sport"}, {"id": "football/2013/sep/29/luis-suarez-brendan-rodgers-liverpool", "type": "article", "sectionId": "football", "sectionName": "Football", "webPublicationDate": "2013-09-29T19:29:00Z", "webTitle": "Luis Su\u00e1rez and Daniel Sturridge can be the best \u2013 Brendan Rodgers", "webUrl": "https://www.theguardian.com/football/2013/sep/29/luis-suarez-brendan-rodgers-liverpool", "apiUrl": "https://content.guardianapis.com/football/2013/sep/29/luis-suarez-brendan-rodgers-liverpool", "isHosted": false, "pillarId": "pillar/sport", "pillarName": "Sport"}, {"id": "football/2013/sep/29/liverpool-bristol-academy-match-report", "type": "article", "sectionId": "football", "sectionName": "Football", "webPublicationDate": "2013-09-29T18:59:23Z", "webTitle": "Liverpool Ladies 2-0 Bristol Academy | Women's Super League", "webUrl": "https://www.theguardian.com/football/2013/sep/29/liverpool-bristol-academy-match-report", "apiUrl": "https://content.guardianapis.com/football/2013/sep/29/liverpool-bristol-academy-match-report", "isHosted": false, "pillarId": "pillar/sport", "pillarName": "Sport"}, {"id": "football/2013/sep/29/sunderland-liverpool-premier-league-match-report", "type": "article", "sectionId": "football", "sectionName": "Football", "webPublicationDate": "2013-09-29T17:31:09Z", "webTitle": "Sunderland 1-3 Liverpool | Premier League match report", "webUrl": "https://www.theguardian.com/football/2013/sep/29/sunderland-liverpool-premier-league-match-report", "apiUrl": "https://content.guardianapis.com/football/2013/sep/29/sunderland-liverpool-premier-league-match-report", "isHosted": false, "pillarId": "pillar/sport", "pillarName": "Sport"}, {"id": "football/gallery/2013/sep/29/liverpool-luis-suarez", "type": "gallery", "sectionId": "football", "sectionName": "Football", "webPublicationDate": "2013-09-29T15:49:00Z", "webTitle": "Premier League: Sunderland v Liverpool \u2013 in pictures", "webUrl": "https://www.theguardian.com/football/gallery/2013/sep/29/liverpool-luis-suarez", "apiUrl": "https://content.guardianapis.com/football/gallery/2013/sep/29/liverpool-luis-suarez", "isHosted": false, "pillarId": "pillar/sport", "pillarName": "Sport"}, {"id": "football/2013/sep/29/stoke-city-norwich-city-live-mbm", "type": "liveblog", "sectionId": "football", "sectionName": "Football", "webPublicationDate": "2013-09-29T14:26:00Z", "webTitle": "Stoke City v Norwich City \u2013 as it happened", "webUrl": "https://www.theguardian.com/football/2013/sep/29/stoke-city-norwich-city-live-mbm", "apiUrl": "https://content.guardianapis.com/football/2013/sep/29/stoke-city-norwich-city-live-mbm", "isHosted": false, "pillarId": "pillar/sport", "pillarName": "Sport"}, {"id": "media/greenslade/2013/sep/29/bbc-theobserver", "type": "article", "sectionId": "media", "sectionName": "Media", "webPublicationDate": "2013-09-29T11:33:06Z", "webTitle": "Charlotte Green nets high praise for her football results debut", "webUrl": "https://www.theguardian.com/media/greenslade/2013/sep/29/bbc-theobserver", "apiUrl": "https://content.guardianapis.com/media/greenslade/2013/sep/29/bbc-theobserver", "isHosted": false, "pillarId": "pillar/news", "pillarName": "News"}, {"id": "football/2013/sep/28/real-madrid-atletico-madrid-la-liga", "type": "article", "sectionId": "football", "sectionName": "Football", "webPublicationDate": "2013-09-28T22:41:08Z", "webTitle": "Real Madrid 0-1 Atl\u00e9tico Madrid | La Liga match report", "webUrl": "https://www.theguardian.com/football/2013/sep/28/real-madrid-atletico-madrid-la-liga", "apiUrl": "https://content.guardianapis.com/football/2013/sep/28/real-madrid-atletico-madrid-la-liga", "isHosted": false, "pillarId": "pillar/sport", "pillarName": "Sport"}, {"id": "football/2013/sep/28/manchester-city-pellegrini-bayern-munich", "type": "article", "sectionId": "football", "sectionName": "Football", "webPublicationDate": "2013-09-28T22:30:00Z", "webTitle": "Manuel Pellegrini not intimidated by Bayern Munich in Guardiola hands", "webUrl": "https://www.theguardian.com/football/2013/sep/28/manchester-city-pellegrini-bayern-munich", "apiUrl": "https://content.guardianapis.com/football/2013/sep/28/manchester-city-pellegrini-bayern-munich", "isHosted": false, "pillarId": "pillar/sport", "pillarName": "Sport"}, {"id": "football/2013/sep/28/saturday-sundae", "type": "article", "sectionId": "football", "sectionName": "Football", "webPublicationDate": "2013-09-28T22:19:42Z", "webTitle": "Saturday Sundae: Morgan Amalfitano leads a merry dance at Old Trafford", "webUrl": "https://www.theguardian.com/football/2013/sep/28/saturday-sundae", "apiUrl": "https://content.guardianapis.com/football/2013/sep/28/saturday-sundae", "isHosted": false, "pillarId": "pillar/sport", "pillarName": "Sport"}, {"id": "football/2013/sep/28/brendan-rodgers-liverpool-di-canio", "type": "article", "sectionId": "football", "sectionName": "Football", "webPublicationDate": "2013-09-28T22:00:01Z", "webTitle": "Brendan Rodgers: passion can help Paolo Di Canio recover from sacking", "webUrl": "https://www.theguardian.com/football/2013/sep/28/brendan-rodgers-liverpool-di-canio", "apiUrl": "https://content.guardianapis.com/football/2013/sep/28/brendan-rodgers-liverpool-di-canio", "isHosted": false, "pillarId": "pillar/sport", "pillarName": "Sport"}]}}