{"response": {"status": "ok", "userTier": "developer", "total": 127696, "startIndex": 1, "pageSize": 50, "currentPage": 1, "pages": 2554, "orderBy": "newest", "results": [{"id": "society/2010/oct/01/nhs-reform-slash-burn-bma", "type": "article", "sectionId": "society", "sectionName": "Society", "webPublicationDate": "2010-09-30T23:30:38Z", "webTitle": "NHS reform is a 'slash-and-burn approach', says doctors' union", "webUrl": "https://www.theguardian.com/society/2010/oct/01/nhs-reform-slash-burn-bma", "apiUrl": "https://content.guardianapis.com/society/2010/oct/01/nhs-reform-slash-burn-bma", "isHosted": false, "pillarId": "pillar/news", "pillarName": "News"}, {"id": "commentisfree/2010/oct/01/defence-cuts-liam-fox-editorial", "type": "article", "sectionId": "commentisfree", "sectionName": "Opinion", "webPublicationDate": "2010-09-30T23:28:42Z", "webTitle": "Defence cuts: Foxtrot | Editorial", "webUrl": "https://www.theguardian.com/commentisfree/2010/oct/01/defence-cuts-liam-fox-editorial", "apiUrl": "https://content.guardianapis.com/commentisfree/2010/oct/01/defence-cuts-liam-fox-editorial", "isHosted": false, "pillarId": "pillar/opinion", "pillarName": "Opinion"}, {"id": "commentisfree/cartoon/2010/oct/01/nick-clegg-david-cameron-steve-bell", "type": "picture", "sectionId": "commentisfree", "sectionName": "Opinion", "webPublicationDate": "2010-09-30T23:22:00Z", "webTitle": "Steve Bell on the BBC strike threat", "webUrl": "https://www.theguardian.com/commentisfree/cartoon/2010/oct/01/nick-clegg-david-cameron-steve-bell", "apiUrl": "https://content.guardianapis.com/commentisfree/cartoon/2010/oct/01/nick-clegg-david-cameron-steve-bell", "isHosted": false, "pillarId": "pillar/opinion", "pillarName": "Opinion"}, {"id": "money/audio/2010/oct/01/focus-podcast-minimum-wage-audio", "type": "audio", "sectionId": "money", "sectionName": "Money", "webPublicationDate": "2010-09-30T23:01:00Z", "webTitle": "Guardian Focus podcast: The minimum wage", "webUrl": "https://www.theguardian.com/money/audio/2010/oct/01/focus-podcast-minimum-wage-audio", "apiUrl": "https://content.guardianapis.com/money/audio/2010/oct/01/focus-podcast-minimum-wage-audio", "isHosted": false, "pillarId": "pillar/lifestyle", "pillarName": "Lifestyle"}, {"id": "education/2010/sep/30/scientists-threaten-leave-britain-funding", "type": "article", "sectionId": "education", "sectionName": "Education", "webPublicationDate": "2010-09-30T22:00:05Z", "webTitle": "Scientists threatening to leave Britain: case studies", "webUrl": "https://www.theguardian.com/education/2010/sep/30/scientists-threaten-leave-britain-funding", "apiUrl": "https://content.guardianapis.com/education/2010/sep/30/scientists-threaten-leave-britain-funding", "isHosted": false, "pillarId": "pillar/news", "pillarName": "News"}, {"id": "science/2010/sep/30/british-science-university-budget-cuts", "type": "article", "sectionId": "science", "sectionName": "Science", "webPublicationDate": "2010-09-30T21:59:01Z", "webTitle": "Cash-strapped science departments face overseas brain drain", "webUrl": "https://www.theguardian.com/science/2010/sep/30/british-science-university-budget-cuts", "apiUrl": "https://content.guardianapis.com/science/2010/sep/30/british-science-university-budget-cuts", "isHosted": false, "pillarId": "pillar/news", "pillarName": "News"}, {"id": "commentisfree/2010/sep/30/kindest-cuts-my-daughter", "type": "article", "sectionId": "commentisfree", "sectionName": "Opinion", "webPublicationDate": "2010-09-30T21:30:05Z", "webTitle": "The kindest cuts of all | Ian Birrell", "webUrl": "https://www.theguardian.com/commentisfree/2010/sep/30/kindest-cuts-my-daughter", "apiUrl": "https://content.guardianapis.com/commentisfree/2010/sep/30/kindest-cuts-my-daughter", "isHosted": false, "pillarId": "pillar/opinion", "pillarName": "Opinion"}, {"id": "uk/2010/sep/30/police-surveillance-muslims-no-regard-law", "type": "article", "sectionId": "uk-news", "sectionName": "UK news", "webPublicationDate": "2010-09-30T20:54:25Z", "webTitle": "Police surveillance of Muslims set up with 'no regard for law'", "webUrl": "https://www.theguardian.com/uk/2010/sep/30/police-surveillance-muslims-no-regard-law", "apiUrl": "https://content.guardianapis.com/uk/2010/sep/30/police-surveillance-muslims-no-regard-law", "isHosted": false, "pillarId": "pillar/news", "pillarName": "News"}, {"id": "commentisfree/2010/sep/30/coalition-labour-optimists-damage-cameron", "type": "article", "sectionId": "politics", "sectionName": "Politics", "webPublicationDate": "2010-09-30T20:00:03Z", "webTitle": "The coalition is far stronger than Labour optimists think | Martin Kettle", "webUrl": "https://www.theguardian.com/commentisfree/2010/sep/30/coalition-labour-optimists-damage-cameron", "apiUrl": "https://content.guardianapis.com/commentisfree/2010/sep/30/coalition-labour-optimists-damage-cameron", "isHosted": false, "pillarId": "pillar/news", "pillarName": "News"}, {"id": "world/2010/sep/30/ireland-cuts-public-sector-unemployment", "type": "article", "sectionId": "world", "sectionName": "World news", "webPublicationDate": "2010-09-30T19:36:21Z", "webTitle": "Ireland's anger a taste of life after cuts", "webUrl": "https://www.theguardian.com/world/2010/sep/30/ireland-cuts-public-sector-unemployment", "apiUrl": "https://content.guardianapis.com/world/2010/sep/30/ireland-cuts-public-sector-unemployment", "isHosted": false, "pillarId": "pillar/news", "pillarName": "News"}, {"id": "politics/2010/sep/30/david-cameron-liam-fox-defence-spending", "type": "article", "sectionId": "politics", "sectionName": "Politics", "webPublicationDate": "2010-09-30T19:35:56Z", "webTitle": "David Cameron hits back at Liam Fox over defence spending", "webUrl": "https://www.theguardian.com/politics/2010/sep/30/david-cameron-liam-fox-defence-spending", "apiUrl": "https://content.guardianapis.com/politics/2010/sep/30/david-cameron-liam-fox-defence-spending", "isHosted": false, "pillarId": "pillar/news", "pillarName": "News"}, {"id": "politics/2010/sep/30/ed-miliband-unmarried-unbelieving-leader", "type": "article", "sectionId": "politics", "sectionName": "Politics", "webPublicationDate": "2010-09-30T19:26:11Z", "webTitle": "Middle England takes the unmarried unbeliever Ed Miliband in its stride", "webUrl": "https://www.theguardian.com/politics/2010/sep/30/ed-miliband-unmarried-unbelieving-leader", "apiUrl": "https://content.guardianapis.com/politics/2010/sep/30/ed-miliband-unmarried-unbelieving-leader", "isHosted": false, "pillarId": "pillar/news", "pillarName": "News"}, {"id": "business/2010/sep/30/john-rose-quits-rolls-royce", "type": "article", "sectionId": "business", "sectionName": "Business", "webPublicationDate": "2010-09-30T18:38:49Z", "webTitle": "John Rose to quit Rolls-Royce after 14 years at helm | Business", "webUrl": "https://www.theguardian.com/business/2010/sep/30/john-rose-quits-rolls-royce", "apiUrl": "https://content.guardianapis.com/business/2010/sep/30/john-rose-quits-rolls-royce", "isHosted": false, "pillarId": "pillar/news", "pillarName": "News"}, {"id": "society/2010/sep/30/equality-law-gender-pay-gap", "type": "article", "sectionId": "inequality", "sectionName": "Inequality", "webPublicationDate": "2010-09-30T18:32:41Z", "webTitle": "Equality law rendered 'toothless' by coalition review", "webUrl": "https://www.theguardian.com/society/2010/sep/30/equality-law-gender-pay-gap", "apiUrl": "https://content.guardianapis.com/society/2010/sep/30/equality-law-gender-pay-gap", "isHosted": false, "pillarId": "pillar/news", "pillarName": "News"}, {"id": "politics/2010/sep/30/chris-hulne-energy-funding-cuts", "type": "article", "sectionId": "politics", "sectionName": "Politics", "webPublicationDate": "2010-09-30T18:11:39Z", "webTitle": "Energy secretary Chris Huhne agrees funding cuts settlement", "webUrl": "https://www.theguardian.com/politics/2010/sep/30/chris-hulne-energy-funding-cuts", "apiUrl": "https://content.guardianapis.com/politics/2010/sep/30/chris-hulne-energy-funding-cuts", "isHosted": false, "pillarId": "pillar/news", "pillarName": "News"}, {"id": "politics/2010/sep/30/communities-department-spent-millions", "type": "article", "sectionId": "politics", "sectionName": "Politics", "webPublicationDate": "2010-09-30T18:06:15Z", "webTitle": "Audit Commission spent \u00a313,000 on do at London zoo", "webUrl": "https://www.theguardian.com/politics/2010/sep/30/communities-department-spent-millions", "apiUrl": "https://content.guardianapis.com/politics/2010/sep/30/communities-department-spent-millions", "isHosted": false, "pillarId": "pillar/news", "pillarName": "News"}, {"id": "uk/2010/sep/30/iraq-war-inquiry", "type": "article", "sectionId": "uk-news", "sectionName": "UK news", "webPublicationDate": "2010-09-30T17:30:59Z", "webTitle": "Blair's case for Iraq invasion was self-serving, lawyers tell Chilcot inquiry", "webUrl": "https://www.theguardian.com/uk/2010/sep/30/iraq-war-inquiry", "apiUrl": "https://content.guardianapis.com/uk/2010/sep/30/iraq-war-inquiry", "isHosted": false, "pillarId": "pillar/news", "pillarName": "News"}, {"id": "uk/2010/sep/30/johnny-edgecombe-obituary", "type": "article", "sectionId": "uk-news", "sectionName": "UK news", "webPublicationDate": "2010-09-30T17:23:49Z", "webTitle": "Johnny Edgecombe obituary", "webUrl": "https://www.theguardian.com/uk/2010/sep/30/johnny-edgecombe-obituary", "apiUrl": "https://content.guardianapis.com/uk/2010/sep/30/johnny-edgecombe-obituary", "isHosted": false, "pillarId": "pillar/news", "pillarName": "News"}, {"id": "politics/2010/sep/30/ed-miliband-north-jewish-reaction", "type": "article", "sectionId": "politics", "sectionName": "Politics", "webPublicationDate": "2010-09-30T17:10:48Z", "webTitle": "Ed Miliband gets lukewarm welcome from north of England Jews", "webUrl": "https://www.theguardian.com/politics/2010/sep/30/ed-miliband-north-jewish-reaction", "apiUrl": "https://content.guardianapis.com/politics/2010/sep/30/ed-miliband-north-jewish-reaction", "isHosted": false, "pillarId": "pillar/news", "pillarName": "News"}, {"id": "science/2010/sep/30/science-research-spending-cuts", "type": "article", "sectionId": "science", "sectionName": "Science", "webPublicationDate": "2010-09-30T15:43:34Z", "webTitle": "Britain faces brain drain as cuts force top scientists to leave country", "webUrl": "https://www.theguardian.com/science/2010/sep/30/science-research-spending-cuts", "apiUrl": "https://content.guardianapis.com/science/2010/sep/30/science-research-spending-cuts", "isHosted": false, "pillarId": "pillar/news", "pillarName": "News"}, {"id": "education/2010/sep/30/all-surrey-schools-to-be-academies", "type": "article", "sectionId": "education", "sectionName": "Education", "webPublicationDate": "2010-09-30T15:26:12Z", "webTitle": "All Surrey schools could become academies", "webUrl": "https://www.theguardian.com/education/2010/sep/30/all-surrey-schools-to-be-academies", "apiUrl": "https://content.guardianapis.com/education/2010/sep/30/all-surrey-schools-to-be-academies", "isHosted": false, "pillarId": "pillar/news", "pillarName": "News"}, {"id": "commentisfree/belief/2010/sep/30/even-atheists-can-do-god", "type": "article", "sectionId": "commentisfree", "sectionName": "Opinion", "webPublicationDate": "2010-09-30T15:25:06Z", "webTitle": "Even atheists can, and should, 'do God' |", "webUrl": "https://www.theguardian.com/commentisfree/belief/2010/sep/30/even-atheists-can-do-god", "apiUrl": "https://content.guardianapis.com/commentisfree/belief/2010/sep/30/even-atheists-can-do-god", "isHosted": false, "pillarId": "pillar/opinion", "pillarName": "Opinion"}, {"id": "media/2010/sep/30/mark-thompson-bbc-pension", "type": "article", "sectionId": "media", "sectionName": "Media", "webPublicationDate": "2010-09-30T14:35:33Z", "webTitle": "Mark Thompson: I will give up my BBC pension top-ups", "webUrl": "https://www.theguardian.com/media/2010/sep/30/mark-thompson-bbc-pension", "apiUrl": "https://content.guardianapis.com/media/2010/sep/30/mark-thompson-bbc-pension", "isHosted": false, "pillarId": "pillar/news", "pillarName": "News"}, {"id": "politics/davehillblog/2010/sep/28/tower-hamlets-mayoral-election-campaign-peter-golds-neil-king-conservatives", "type": "article", "sectionId": "politics", "sectionName": "Politics", "webPublicationDate": "2010-09-30T14:29:46Z", "webTitle": "Tower Hamlets: the Conservative mayoral case", "webUrl": "https://www.theguardian.com/politics/davehillblog/2010/sep/28/tower-hamlets-mayoral-election-campaign-peter-golds-neil-king-conservatives", "apiUrl": "https://content.guardianapis.com/politics/davehillblog/2010/sep/28/tower-hamlets-mayoral-election-campaign-peter-golds-neil-king-conservatives", "isHosted": false, "pillarId": "pillar/news", "pillarName": "News"}, {"id": "politics/video/2010/sep/30/harriet-harman-labour-conference-video", "type": "video", "sectionId": "politics", "sectionName": "Politics", "webPublicationDate": "2010-09-30T13:51:00Z", "webTitle": "Video: Harriet Harman closes Labour conference", "webUrl": "https://www.theguardian.com/politics/video/2010/sep/30/harriet-harman-labour-conference-video", "apiUrl": "https://content.guardianapis.com/politics/video/2010/sep/30/harriet-harman-labour-conference-video", "isHosted": false, "pillarId": "pillar/news", "pillarName": "News"}, {"id": "politics/blog/2010/sep/30/10-things-learned-labour-conference", "type": "article", "sectionId": "politics", "sectionName": "Politics", "webPublicationDate": "2010-09-30T13:40:39Z", "webTitle": "10 things I've learned at the Labour conference | Andrew Sparrow", "webUrl": "https://www.theguardian.com/politics/blog/2010/sep/30/10-things-learned-labour-conference", "apiUrl": "https://content.guardianapis.com/politics/blog/2010/sep/30/10-things-learned-labour-conference", "isHosted": false, "pillarId": "pillar/news", "pillarName": "News"}, {"id": "politics/2010/sep/30/labour-laser-focus-harriet-harman", "type": "article", "sectionId": "politics", "sectionName": "Politics", "webPublicationDate": "2010-09-30T13:33:14Z", "webTitle": "Labour has a 'laser focus' on the future, says Harriet Harman", "webUrl": "https://www.theguardian.com/politics/2010/sep/30/labour-laser-focus-harriet-harman", "apiUrl": "https://content.guardianapis.com/politics/2010/sep/30/labour-laser-focus-harriet-harman", "isHosted": false, "pillarId": "pillar/news", "pillarName": "News"}, {"id": "politics/2010/sep/30/government-question-voting-reform-referendum", "type": "article", "sectionId": "politics", "sectionName": "Politics", "webPublicationDate": "2010-09-30T12:35:00Z", "webTitle": "Government urged to clarify question in voting reform referendum", "webUrl": "https://www.theguardian.com/politics/2010/sep/30/government-question-voting-reform-referendum", "apiUrl": "https://content.guardianapis.com/politics/2010/sep/30/government-question-voting-reform-referendum", "isHosted": false, "pillarId": "pillar/news", "pillarName": "News"}, {"id": "commentisfree/libertycentral/2010/sep/30/miliband-straw-labour-civil-liberties", "type": "article", "sectionId": "politics", "sectionName": "Politics", "webPublicationDate": "2010-09-30T12:34:12Z", "webTitle": "How liberal is Ed Miliband? | Charlotte Gore", "webUrl": "https://www.theguardian.com/commentisfree/libertycentral/2010/sep/30/miliband-straw-labour-civil-liberties", "apiUrl": "https://content.guardianapis.com/commentisfree/libertycentral/2010/sep/30/miliband-straw-labour-civil-liberties", "isHosted": false, "pillarId": "pillar/news", "pillarName": "News"}, {"id": "commentisfree/2010/sep/30/diane-abbott-minister-cities", "type": "article", "sectionId": "commentisfree", "sectionName": "Opinion", "webPublicationDate": "2010-09-30T12:24:58Z", "webTitle": "Do we need a minister for cities? | Open thread", "webUrl": "https://www.theguardian.com/commentisfree/2010/sep/30/diane-abbott-minister-cities", "apiUrl": "https://content.guardianapis.com/commentisfree/2010/sep/30/diane-abbott-minister-cities", "isHosted": false, "pillarId": "pillar/opinion", "pillarName": "Opinion"}, {"id": "commentisfree/2010/sep/30/health-responsiblity-incentives", "type": "article", "sectionId": "commentisfree", "sectionName": "Opinion", "webPublicationDate": "2010-09-30T12:03:52Z", "webTitle": "The role of health incentives | Harald Schmidt", "webUrl": "https://www.theguardian.com/commentisfree/2010/sep/30/health-responsiblity-incentives", "apiUrl": "https://content.guardianapis.com/commentisfree/2010/sep/30/health-responsiblity-incentives", "isHosted": false, "pillarId": "pillar/opinion", "pillarName": "Opinion"}, {"id": "politics/2010/sep/30/cameron-dismisses-fears-over-defence-cuts", "type": "article", "sectionId": "politics", "sectionName": "Politics", "webPublicationDate": "2010-09-30T12:02:15Z", "webTitle": "David Cameron dismisses 'unfounded' fears over defence cuts", "webUrl": "https://www.theguardian.com/politics/2010/sep/30/cameron-dismisses-fears-over-defence-cuts", "apiUrl": "https://content.guardianapis.com/politics/2010/sep/30/cameron-dismisses-fears-over-defence-cuts", "isHosted": false, "pillarId": "pillar/news", "pillarName": "News"}, {"id": "media/2010/sep/30/jeremy-paxman-bbc-strike-tory-conference", "type": "article", "sectionId": "media", "sectionName": "Media", "webPublicationDate": "2010-09-30T11:47:42Z", "webTitle": "Paxman and top BBC journalists warn against strike during Tory conference", "webUrl": "https://www.theguardian.com/media/2010/sep/30/jeremy-paxman-bbc-strike-tory-conference", "apiUrl": "https://content.guardianapis.com/media/2010/sep/30/jeremy-paxman-bbc-strike-tory-conference", "isHosted": false, "pillarId": "pillar/news", "pillarName": "News"}, {"id": "politics/2010/sep/30/hilary-benn-hunting-ban", "type": "article", "sectionId": "politics", "sectionName": "Politics", "webPublicationDate": "2010-09-30T11:33:38Z", "webTitle": "Hilary Benn vows to fight plans to revoke hunting ban", "webUrl": "https://www.theguardian.com/politics/2010/sep/30/hilary-benn-hunting-ban", "apiUrl": "https://content.guardianapis.com/politics/2010/sep/30/hilary-benn-hunting-ban", "isHosted": false, "pillarId": "pillar/news", "pillarName": "News"}, {"id": "money/2010/sep/30/energy-suppliers-price-rises-ofgem", "type": "article", "sectionId": "money", "sectionName": "Money", "webPublicationDate": "2010-09-30T11:25:24Z", "webTitle": "Energy suppliers should flag up price rises in advance, Ofgem says", "webUrl": "https://www.theguardian.com/money/2010/sep/30/energy-suppliers-price-rises-ofgem", "apiUrl": "https://content.guardianapis.com/money/2010/sep/30/energy-suppliers-price-rises-ofgem", "isHosted": false, "pillarId": "pillar/lifestyle", "pillarName": "Lifestyle"}, {"id": "politics/2010/sep/30/harriet-harman-labour-conference-rollercoaster", "type": "article", "sectionId": "politics", "sectionName": "Politics", "webPublicationDate": "2010-09-30T10:25:00Z", "webTitle": "Harriet Harman closes 'rollercoaster' Labour conference", "webUrl": "https://www.theguardian.com/politics/2010/sep/30/harriet-harman-labour-conference-rollercoaster", "apiUrl": "https://content.guardianapis.com/politics/2010/sep/30/harriet-harman-labour-conference-rollercoaster", "isHosted": false, "pillarId": "pillar/news", "pillarName": "News"}, {"id": "politics/2010/sep/30/bnp-uturn-stroud-headquarters", "type": "article", "sectionId": "politics", "sectionName": "Politics", "webPublicationDate": "2010-09-30T10:17:36Z", "webTitle": "BNP U-turn on Stroud headquarters", "webUrl": "https://www.theguardian.com/politics/2010/sep/30/bnp-uturn-stroud-headquarters", "apiUrl": "https://content.guardianapis.com/politics/2010/sep/30/bnp-uturn-stroud-headquarters", "isHosted": false, "pillarId": "pillar/news", "pillarName": "News"}, {"id": "commentisfree/2010/sep/30/ed-miliband-fantasy-david-cameron", "type": "article", "sectionId": "commentisfree", "sectionName": "Opinion", "webPublicationDate": "2010-09-30T09:22:38Z", "webTitle": "Now voters have a choice: Ed Miliband's brand of fantasy or David Cameron's | Deborah Orr", "webUrl": "https://www.theguardian.com/commentisfree/2010/sep/30/ed-miliband-fantasy-david-cameron", "apiUrl": "https://content.guardianapis.com/commentisfree/2010/sep/30/ed-miliband-fantasy-david-cameron", "isHosted": false, "pillarId": "pillar/opinion", "pillarName": "Opinion"}, {"id": "politics/davehillblog/2010/sep/30/british-national-party-expels-richard-barnbrook-activists-barnet-eye", "type": "article", "sectionId": "politics", "sectionName": "Politics", "webPublicationDate": "2010-09-30T08:48:47Z", "webTitle": "British National Party: lurking in Barnet", "webUrl": "https://www.theguardian.com/politics/davehillblog/2010/sep/30/british-national-party-expels-richard-barnbrook-activists-barnet-eye", "apiUrl": "https://content.guardianapis.com/politics/davehillblog/2010/sep/30/british-national-party-expels-richard-barnbrook-activists-barnet-eye", "isHosted": false, "pillarId": "pillar/news", "pillarName": "News"}, {"id": "commentisfree/2010/sep/30/labour-conference-final-verdict", "type": "article", "sectionId": "politics", "sectionName": "Politics", "webPublicationDate": "2010-09-30T08:35:00Z", "webTitle": "Labour party conference: the final verdict | Open thread", "webUrl": "https://www.theguardian.com/commentisfree/2010/sep/30/labour-conference-final-verdict", "apiUrl": "https://content.guardianapis.com/commentisfree/2010/sep/30/labour-conference-final-verdict", "isHosted": false, "pillarId": "pillar/news", "pillarName": "News"}, {"id": "global/blog/2010/sep/30/labourconference-labour", "type": "article", "sectionId": "politics", "sectionName": "Politics", "webPublicationDate": "2010-09-30T07:58:05Z", "webTitle": "Labour conference live - Thursday 30 September", "webUrl": "https://www.theguardian.com/global/blog/2010/sep/30/labourconference-labour", "apiUrl": "https://content.guardianapis.com/global/blog/2010/sep/30/labourconference-labour", "isHosted": false, "pillarId": "pillar/news", "pillarName": "News"}, {"id": "commentisfree/video/2010/sep/30/labour-conference-middle-england", "type": "video", "sectionId": "commentisfree", "sectionName": "Opinion", "webPublicationDate": "2010-09-30T07:30:00Z", "webTitle": "Video | Labour party conference: Miliband's middle England", "webUrl": "https://www.theguardian.com/commentisfree/video/2010/sep/30/labour-conference-middle-england", "apiUrl": "https://content.guardianapis.com/commentisfree/video/2010/sep/30/labour-conference-middle-england", "isHosted": false, "pillarId": "pillar/opinion", "pillarName": "Opinion"}, {"id": "politics/2010/sep/30/speech-labour-conference-ed-miliband", "type": "article", "sectionId": "politics", "sectionName": "Politics", "webPublicationDate": "2010-09-30T06:44:36Z", "webTitle": "How one speech turned the Labour conference around", "webUrl": "https://www.theguardian.com/politics/2010/sep/30/speech-labour-conference-ed-miliband", "apiUrl": "https://content.guardianapis.com/politics/2010/sep/30/speech-labour-conference-ed-miliband", "isHosted": false, "pillarId": "pillar/news", "pillarName": "News"}, {"id": "media/2010/sep/30/welsh-tv-channel-s4c", "type": "article", "sectionId": "media", "sectionName": "Media", "webPublicationDate": "2010-09-30T06:30:43Z", "webTitle": "Welsh stars defend S4C", "webUrl": "https://www.theguardian.com/media/2010/sep/30/welsh-tv-channel-s4c", "apiUrl": "https://content.guardianapis.com/media/2010/sep/30/welsh-tv-channel-s4c", "isHosted": false, "pillarId": "pillar/news", "pillarName": "News"}, {"id": "politics/2010/sep/30/david-miliband-geek-to-chic", "type": "article", "sectionId": "politics", "sectionName": "Politics", "webPublicationDate": "2010-09-30T05:00:00Z", "webTitle": "David Miliband - from geek to chic", "webUrl": "https://www.theguardian.com/politics/2010/sep/30/david-miliband-geek-to-chic", "apiUrl": "https://content.guardianapis.com/politics/2010/sep/30/david-miliband-geek-to-chic", "isHosted": false, "pillarId": "pillar/news", "pillarName": "News"}, {"id": "politics/2010/sep/30/pregnant-women-flu-jab-list", "type": "article", "sectionId": "politics", "sectionName": "Politics", "webPublicationDate": "2010-09-30T04:00:00Z", "webTitle": "Pregnant women added to flu jab list", "webUrl": "https://www.theguardian.com/politics/2010/sep/30/pregnant-women-flu-jab-list", "apiUrl": "https://content.guardianapis.com/politics/2010/sep/30/pregnant-women-flu-jab-list", "isHosted": false, "pillarId": "pillar/news", "pillarName": "News"}, {"id": "commentisfree/cartoon/2010/sep/30/david-miliband-ed-miliband-steve-bell", "type": "picture", "sectionId": "commentisfree", "sectionName": "Opinion", "webPublicationDate": "2010-09-30T00:38:39Z", "webTitle": "Steve Bell on David Miliband's future", "webUrl": "https://www.theguardian.com/commentisfree/cartoon/2010/sep/30/david-miliband-ed-miliband-steve-bell", "apiUrl": "https://content.guardianapis.com/commentisfree/cartoon/2010/sep/30/david-miliband-ed-miliband-steve-bell", "isHosted": false, "pillarId": "pillar/opinion", "pillarName": "Opinion"}, {"id": "politics/2010/sep/30/hugh-muirs-diary-ian-blair", "type": "article", "sectionId": "politics", "sectionName": "Politics", "webPublicationDate": "2010-09-29T23:15:00Z", "webTitle": "Hugh Muir's diary", "webUrl": "https://www.theguardian.com/politics/2010/sep/30/hugh-muirs-diary-ian-blair", "apiUrl": "https://content.guardianapis.com/politics/2010/sep/30/hugh-muirs-diary-ian-blair", "isHosted": false, "pillarId": "pillar/news", "pillarName": "News"}, {"id": "commentisfree/2010/sep/30/labour-party-milibands-edirorial", "type": "article", "sectionId": "commentisfree", "sectionName": "Opinion", "webPublicationDate": "2010-09-29T23:05:07Z", "webTitle": "Labour party: Brotherly breach | Editorial", "webUrl": "https://www.theguardian.com/commentisfree/2010/sep/30/labour-party-milibands-edirorial", "apiUrl": "https://content.guardianapis.com/commentisfree/2010/sep/30/labour-party-milibands-edirorial", "isHosted": false, "pillarId": "pillar/opinion", "pillarName": "Opinion"}, {"id": "politics/2010/sep/30/ed-miliband-cultural-revolution-labour", "type": "article", "sectionId": "politics", "sectionName": "Politics", "webPublicationDate": "2010-09-29T23:05:04Z", "webTitle": "Letters: Now Ed Miliband must start a cultural revolution", "webUrl": "https://www.theguardian.com/politics/2010/sep/30/ed-miliband-cultural-revolution-labour", "apiUrl": "https://content.guardianapis.com/politics/2010/sep/30/ed-miliband-cultural-revolution-labour", "isHosted": false, "pillarId": "pillar/news", "pillarName": "News"}]}}