{"response": {"status": "ok", "userTier": "developer", "total": 130695, "startIndex": 1, "pageSize": 50, "currentPage": 1, "pages": 2614, "orderBy": "newest", "results": [{"id": "politics/2014/sep/30/ashcroft-michael-white-sketch", "type": "article", "sectionId": "politics", "sectionName": "Politics", "webPublicationDate": "2014-09-30T20:28:23Z", "webTitle": "Tory conference diary: Not even Ashcroft can make the numbers add up", "webUrl": "https://www.theguardian.com/politics/2014/sep/30/ashcroft-michael-white-sketch", "apiUrl": "https://content.guardianapis.com/politics/2014/sep/30/ashcroft-michael-white-sketch", "isHosted": false, "pillarId": "pillar/news", "pillarName": "News"}, {"id": "politics/2014/sep/30/home-secretary-audience-purring-boris", "type": "article", "sectionId": "politics", "sectionName": "Politics", "webPublicationDate": "2014-09-30T20:06:36Z", "webTitle": "May has the audience purring and Boris delivers the laughs | Nicholas Watt", "webUrl": "https://www.theguardian.com/politics/2014/sep/30/home-secretary-audience-purring-boris", "apiUrl": "https://content.guardianapis.com/politics/2014/sep/30/home-secretary-audience-purring-boris", "isHosted": false, "pillarId": "pillar/news", "pillarName": "News"}, {"id": "uk-news/2014/sep/30/uk-capitalise-on-immigration-integration-diversity", "type": "article", "sectionId": "education", "sectionName": "Education", "webPublicationDate": "2014-09-30T19:31:11Z", "webTitle": "Immigration and diversity: Britain must integrate to accumulate", "webUrl": "https://www.theguardian.com/uk-news/2014/sep/30/uk-capitalise-on-immigration-integration-diversity", "apiUrl": "https://content.guardianapis.com/uk-news/2014/sep/30/uk-capitalise-on-immigration-integration-diversity", "isHosted": false, "pillarId": "pillar/news", "pillarName": "News"}, {"id": "society/2014/sep/30/seven-day-access-to-gps-sounds-good-but-devil-in-detail", "type": "article", "sectionId": "society", "sectionName": "Society", "webPublicationDate": "2014-09-30T19:16:40Z", "webTitle": "Seven-day access to GPs sounds good, but the devil will be in the detail | @guardianletters", "webUrl": "https://www.theguardian.com/society/2014/sep/30/seven-day-access-to-gps-sounds-good-but-devil-in-detail", "apiUrl": "https://content.guardianapis.com/society/2014/sep/30/seven-day-access-to-gps-sounds-good-but-devil-in-detail", "isHosted": false, "pillarId": "pillar/news", "pillarName": "News"}, {"id": "commentisfree/2014/sep/30/guardian-view-theresa-may-proposals-counter-extremism", "type": "article", "sectionId": "commentisfree", "sectionName": "Opinion", "webPublicationDate": "2014-09-30T19:13:35Z", "webTitle": "The Guardian view on Theresa May\u2019s proposals to counter extremism | Editorial", "webUrl": "https://www.theguardian.com/commentisfree/2014/sep/30/guardian-view-theresa-may-proposals-counter-extremism", "apiUrl": "https://content.guardianapis.com/commentisfree/2014/sep/30/guardian-view-theresa-may-proposals-counter-extremism", "isHosted": false, "pillarId": "pillar/opinion", "pillarName": "Opinion"}, {"id": "commentisfree/2014/sep/30/guardian-view-on-state-of-childrens-teeth", "type": "article", "sectionId": "commentisfree", "sectionName": "Opinion", "webPublicationDate": "2014-09-30T19:08:28Z", "webTitle": "The Guardian view on the state of children\u2019s teeth | Editorial", "webUrl": "https://www.theguardian.com/commentisfree/2014/sep/30/guardian-view-on-state-of-childrens-teeth", "apiUrl": "https://content.guardianapis.com/commentisfree/2014/sep/30/guardian-view-on-state-of-childrens-teeth", "isHosted": false, "pillarId": "pillar/opinion", "pillarName": "Opinion"}, {"id": "world/2014/sep/30/united-states-cant-take-lead-recognising-palestine", "type": "article", "sectionId": "world", "sectionName": "World news", "webPublicationDate": "2014-09-30T19:07:13Z", "webTitle": "US can\u2019t take the lead on recognising Palestine | @guardianletters", "webUrl": "https://www.theguardian.com/world/2014/sep/30/united-states-cant-take-lead-recognising-palestine", "apiUrl": "https://content.guardianapis.com/world/2014/sep/30/united-states-cant-take-lead-recognising-palestine", "isHosted": false, "pillarId": "pillar/news", "pillarName": "News"}, {"id": "culture/2014/sep/30/hilary-mantel-thatcher-exhibit-b-facts-fantasy", "type": "article", "sectionId": "culture", "sectionName": "Culture", "webPublicationDate": "2014-09-30T19:06:59Z", "webTitle": "Hilary Mantel\u2019s Thatcher tale, Exhibit B and the failure to tell facts from fantasy | @guardianletters", "webUrl": "https://www.theguardian.com/culture/2014/sep/30/hilary-mantel-thatcher-exhibit-b-facts-fantasy", "apiUrl": "https://content.guardianapis.com/culture/2014/sep/30/hilary-mantel-thatcher-exhibit-b-facts-fantasy", "isHosted": false, "pillarId": "pillar/arts", "pillarName": "Arts"}, {"id": "politics/2014/sep/30/faced-with-labour-contempt-vote-ukip", "type": "article", "sectionId": "politics", "sectionName": "Politics", "webPublicationDate": "2014-09-30T19:06:42Z", "webTitle": "Faced with Labour\u2019s contempt, I\u2019ll vote Ukip | @guardianletters", "webUrl": "https://www.theguardian.com/politics/2014/sep/30/faced-with-labour-contempt-vote-ukip", "apiUrl": "https://content.guardianapis.com/politics/2014/sep/30/faced-with-labour-contempt-vote-ukip", "isHosted": false, "pillarId": "pillar/news", "pillarName": "News"}, {"id": "politics/2014/sep/30/dismal-truths-uk-economic-policy", "type": "article", "sectionId": "politics", "sectionName": "Politics", "webPublicationDate": "2014-09-30T19:06:25Z", "webTitle": "Dismal truths about UK economic policy | @guardianletters", "webUrl": "https://www.theguardian.com/politics/2014/sep/30/dismal-truths-uk-economic-policy", "apiUrl": "https://content.guardianapis.com/politics/2014/sep/30/dismal-truths-uk-economic-policy", "isHosted": false, "pillarId": "pillar/news", "pillarName": "News"}, {"id": "politics/2014/sep/30/nicky-morgan-praises-teachers-promises-reduce-workload", "type": "article", "sectionId": "politics", "sectionName": "Politics", "webPublicationDate": "2014-09-30T19:02:25Z", "webTitle": "Nicky Morgan praises teachers and promises to reduce their workloads", "webUrl": "https://www.theguardian.com/politics/2014/sep/30/nicky-morgan-praises-teachers-promises-reduce-workload", "apiUrl": "https://content.guardianapis.com/politics/2014/sep/30/nicky-morgan-praises-teachers-promises-reduce-workload", "isHosted": false, "pillarId": "pillar/news", "pillarName": "News"}, {"id": "politics/2014/sep/30/vince-cable-ethnic-minority-board-members", "type": "article", "sectionId": "politics", "sectionName": "Politics", "webPublicationDate": "2014-09-30T18:40:28Z", "webTitle": "Vince Cable to review number of ethnic minority board members", "webUrl": "https://www.theguardian.com/politics/2014/sep/30/vince-cable-ethnic-minority-board-members", "apiUrl": "https://content.guardianapis.com/politics/2014/sep/30/vince-cable-ethnic-minority-board-members", "isHosted": false, "pillarId": "pillar/news", "pillarName": "News"}, {"id": "commentisfree/2014/sep/30/isis-bomb-muslim-world-air-strikes-saudi-arabia", "type": "article", "sectionId": "commentisfree", "sectionName": "Opinion", "webPublicationDate": "2014-09-30T18:26:49Z", "webTitle": "Why stop at Isis when we could bomb the whole Muslim world? | George Monbiot", "webUrl": "https://www.theguardian.com/commentisfree/2014/sep/30/isis-bomb-muslim-world-air-strikes-saudi-arabia", "apiUrl": "https://content.guardianapis.com/commentisfree/2014/sep/30/isis-bomb-muslim-world-air-strikes-saudi-arabia", "isHosted": false, "pillarId": "pillar/opinion", "pillarName": "Opinion"}, {"id": "commentisfree/2014/sep/30/ukip-nightingales-labour-rochester-ramsgate-migrants-farage", "type": "article", "sectionId": "commentisfree", "sectionName": "Opinion", "webPublicationDate": "2014-09-30T18:14:02Z", "webTitle": "Can Ukip conquer this stronghold of nightingales and Labour? | Catherine Shoard", "webUrl": "https://www.theguardian.com/commentisfree/2014/sep/30/ukip-nightingales-labour-rochester-ramsgate-migrants-farage", "apiUrl": "https://content.guardianapis.com/commentisfree/2014/sep/30/ukip-nightingales-labour-rochester-ramsgate-migrants-farage", "isHosted": false, "pillarId": "pillar/opinion", "pillarName": "Opinion"}, {"id": "politics/2014/sep/30/tories-war-troublemakers-egotists-backstabbers-ukip-leadership-annual-conference", "type": "article", "sectionId": "politics", "sectionName": "Politics", "webPublicationDate": "2014-09-30T17:58:59Z", "webTitle": "The Tories at war: troublemakers, egotists and backstabbers", "webUrl": "https://www.theguardian.com/politics/2014/sep/30/tories-war-troublemakers-egotists-backstabbers-ukip-leadership-annual-conference", "apiUrl": "https://content.guardianapis.com/politics/2014/sep/30/tories-war-troublemakers-egotists-backstabbers-ukip-leadership-annual-conference", "isHosted": false, "pillarId": "pillar/news", "pillarName": "News"}, {"id": "politics/2014/sep/30/boris-johnson-performance-conservative-conference", "type": "article", "sectionId": "politics", "sectionName": "Politics", "webPublicationDate": "2014-09-30T17:28:29Z", "webTitle": "Best man Boris Johnson makes an effortless performance | John Crace", "webUrl": "https://www.theguardian.com/politics/2014/sep/30/boris-johnson-performance-conservative-conference", "apiUrl": "https://content.guardianapis.com/politics/2014/sep/30/boris-johnson-performance-conservative-conference", "isHosted": false, "pillarId": "pillar/news", "pillarName": "News"}, {"id": "media/2014/sep/30/brooks-newmark-sex-sting-guido-fawkes-sunday-mirror", "type": "article", "sectionId": "media", "sectionName": "Media", "webPublicationDate": "2014-09-30T17:08:01Z", "webTitle": "Brooks Newmark sex sting: Guido Fawkes blog defends its reporter\u2019s story", "webUrl": "https://www.theguardian.com/media/2014/sep/30/brooks-newmark-sex-sting-guido-fawkes-sunday-mirror", "apiUrl": "https://content.guardianapis.com/media/2014/sep/30/brooks-newmark-sex-sting-guido-fawkes-sunday-mirror", "isHosted": false, "pillarId": "pillar/news", "pillarName": "News"}, {"id": "society/2014/sep/30/taxing-questions-for-scotland-england-devolution", "type": "article", "sectionId": "society", "sectionName": "Society", "webPublicationDate": "2014-09-30T17:04:00Z", "webTitle": "The taxing questions facing Scotland and England", "webUrl": "https://www.theguardian.com/society/2014/sep/30/taxing-questions-for-scotland-england-devolution", "apiUrl": "https://content.guardianapis.com/society/2014/sep/30/taxing-questions-for-scotland-england-devolution", "isHosted": false, "pillarId": "pillar/news", "pillarName": "News"}, {"id": "politics/blog/live/2014/sep/30/tory-conference-2014-camerons-morning-intervews-politics-live-blog", "type": "liveblog", "sectionId": "politics", "sectionName": "Politics", "webPublicationDate": "2014-09-30T16:45:18Z", "webTitle": "Tory conference 2014 - Theresa May slams Lib Dems over communications data bill: Politics live blog", "webUrl": "https://www.theguardian.com/politics/blog/live/2014/sep/30/tory-conference-2014-camerons-morning-intervews-politics-live-blog", "apiUrl": "https://content.guardianapis.com/politics/blog/live/2014/sep/30/tory-conference-2014-camerons-morning-intervews-politics-live-blog", "isHosted": false, "pillarId": "pillar/news", "pillarName": "News"}, {"id": "media/2014/sep/30/sunday-mirror-sex-sting-brooks-newmark", "type": "article", "sectionId": "media", "sectionName": "Media", "webPublicationDate": "2014-09-30T16:29:44Z", "webTitle": "Did the Sunday Mirror\u2019s sex sting protect women, or exploit them?", "webUrl": "https://www.theguardian.com/media/2014/sep/30/sunday-mirror-sex-sting-brooks-newmark", "apiUrl": "https://content.guardianapis.com/media/2014/sep/30/sunday-mirror-sex-sting-brooks-newmark", "isHosted": false, "pillarId": "pillar/news", "pillarName": "News"}, {"id": "commentisfree/2014/sep/30/greggs-woman-spirt-of-scotland-yes-movement", "type": "article", "sectionId": "commentisfree", "sectionName": "Opinion", "webPublicationDate": "2014-09-30T15:45:02Z", "webTitle": "Why Greggs woman is the true spirit of Scotland\u2019s yes movement | Libby Brooks", "webUrl": "https://www.theguardian.com/commentisfree/2014/sep/30/greggs-woman-spirt-of-scotland-yes-movement", "apiUrl": "https://content.guardianapis.com/commentisfree/2014/sep/30/greggs-woman-spirt-of-scotland-yes-movement", "isHosted": false, "pillarId": "pillar/opinion", "pillarName": "Opinion"}, {"id": "commentisfree/2014/sep/30/tories-prepaid-benefit-cards-welfare-poverty", "type": "article", "sectionId": "commentisfree", "sectionName": "Opinion", "webPublicationDate": "2014-09-30T15:33:45Z", "webTitle": "The Tories\u2019 proposed prepaid benefit cards make welfare an even dirtier word | Vonny Moyes", "webUrl": "https://www.theguardian.com/commentisfree/2014/sep/30/tories-prepaid-benefit-cards-welfare-poverty", "apiUrl": "https://content.guardianapis.com/commentisfree/2014/sep/30/tories-prepaid-benefit-cards-welfare-poverty", "isHosted": false, "pillarId": "pillar/opinion", "pillarName": "Opinion"}, {"id": "politics/shortcuts/2014/sep/30/george-osborne-speech-echoes-trainspotting-irvine-welsh", "type": "article", "sectionId": "politics", "sectionName": "Politics", "webPublicationDate": "2014-09-30T15:15:53Z", "webTitle": "Did George Osborne choose Trainspotting for his speech?", "webUrl": "https://www.theguardian.com/politics/shortcuts/2014/sep/30/george-osborne-speech-echoes-trainspotting-irvine-welsh", "apiUrl": "https://content.guardianapis.com/politics/shortcuts/2014/sep/30/george-osborne-speech-echoes-trainspotting-irvine-welsh", "isHosted": false, "pillarId": "pillar/news", "pillarName": "News"}, {"id": "uk-news/2014/sep/30/tory-plan-silence-extremists-20-years-end-ulster-broadcast-ban", "type": "article", "sectionId": "uk-news", "sectionName": "UK news", "webPublicationDate": "2014-09-30T15:14:00Z", "webTitle": "Plan to silence extremists comes 20 years after end of Ulster broadcast ban", "webUrl": "https://www.theguardian.com/uk-news/2014/sep/30/tory-plan-silence-extremists-20-years-end-ulster-broadcast-ban", "apiUrl": "https://content.guardianapis.com/uk-news/2014/sep/30/tory-plan-silence-extremists-20-years-end-ulster-broadcast-ban", "isHosted": false, "pillarId": "pillar/news", "pillarName": "News"}, {"id": "environment/2014/sep/30/lord-lawsons-charity-blurring-fact-and-comment-on-climate-change", "type": "article", "sectionId": "environment", "sectionName": "Environment", "webPublicationDate": "2014-09-30T14:33:25Z", "webTitle": "Lord Lawson's charity 'blurring fact and comment on climate change'", "webUrl": "https://www.theguardian.com/environment/2014/sep/30/lord-lawsons-charity-blurring-fact-and-comment-on-climate-change", "apiUrl": "https://content.guardianapis.com/environment/2014/sep/30/lord-lawsons-charity-blurring-fact-and-comment-on-climate-change", "isHosted": false, "pillarId": "pillar/news", "pillarName": "News"}, {"id": "world/2014/sep/30/iranian-president-cameron-week-historic-meeting", "type": "article", "sectionId": "world", "sectionName": "World news", "webPublicationDate": "2014-09-30T14:13:30Z", "webTitle": "Iranian president attacks Cameron a week after historic meeting", "webUrl": "https://www.theguardian.com/world/2014/sep/30/iranian-president-cameron-week-historic-meeting", "apiUrl": "https://content.guardianapis.com/world/2014/sep/30/iranian-president-cameron-week-historic-meeting", "isHosted": false, "pillarId": "pillar/news", "pillarName": "News"}, {"id": "business/2014/sep/30/fall-uk-living-standards-deeper-ons-tuc", "type": "article", "sectionId": "business", "sectionName": "Business", "webPublicationDate": "2014-09-30T14:08:57Z", "webTitle": "Fall in UK living standards deeper than thought, TUC says", "webUrl": "https://www.theguardian.com/business/2014/sep/30/fall-uk-living-standards-deeper-ons-tuc", "apiUrl": "https://content.guardianapis.com/business/2014/sep/30/fall-uk-living-standards-deeper-ons-tuc", "isHosted": false, "pillarId": "pillar/news", "pillarName": "News"}, {"id": "politics/2014/sep/30/scottish-tory-leader-refuses-rule-out-pact-snp-hung-parliament", "type": "article", "sectionId": "politics", "sectionName": "Politics", "webPublicationDate": "2014-09-30T14:02:11Z", "webTitle": "Scottish Tory leader refuses to rule out pact with SNP in hung parliament", "webUrl": "https://www.theguardian.com/politics/2014/sep/30/scottish-tory-leader-refuses-rule-out-pact-snp-hung-parliament", "apiUrl": "https://content.guardianapis.com/politics/2014/sep/30/scottish-tory-leader-refuses-rule-out-pact-snp-hung-parliament", "isHosted": false, "pillarId": "pillar/news", "pillarName": "News"}, {"id": "politics/2014/sep/30/boris-johnson-speech-miliband-tory-conference", "type": "article", "sectionId": "politics", "sectionName": "Politics", "webPublicationDate": "2014-09-30T13:30:57Z", "webTitle": "Boris Johnson mocks Ed Miliband in speech to lift spirits at Tory conference", "webUrl": "https://www.theguardian.com/politics/2014/sep/30/boris-johnson-speech-miliband-tory-conference", "apiUrl": "https://content.guardianapis.com/politics/2014/sep/30/boris-johnson-speech-miliband-tory-conference", "isHosted": false, "pillarId": "pillar/news", "pillarName": "News"}, {"id": "politics/2014/sep/30/theresa-may-tory-government-snoopers-charter", "type": "article", "sectionId": "politics", "sectionName": "Politics", "webPublicationDate": "2014-09-30T13:24:00Z", "webTitle": "Theresa May vows Tory government would introduce \u2018snooper\u2019s charter\u2019", "webUrl": "https://www.theguardian.com/politics/2014/sep/30/theresa-may-tory-government-snoopers-charter", "apiUrl": "https://content.guardianapis.com/politics/2014/sep/30/theresa-may-tory-government-snoopers-charter", "isHosted": false, "pillarId": "pillar/news", "pillarName": "News"}, {"id": "world/2014/sep/30/uk-leaving-eu-not-heartbroken-david-cameron", "type": "article", "sectionId": "world", "sectionName": "World news", "webPublicationDate": "2014-09-30T11:27:00Z", "webTitle": "Leaving EU would not break my heart, says David Cameron", "webUrl": "https://www.theguardian.com/world/2014/sep/30/uk-leaving-eu-not-heartbroken-david-cameron", "apiUrl": "https://content.guardianapis.com/world/2014/sep/30/uk-leaving-eu-not-heartbroken-david-cameron", "isHosted": false, "pillarId": "pillar/news", "pillarName": "News"}, {"id": "commentisfree/2014/sep/30/newsnight-david-cameron-evan-davis-prime-minister-moderniser-conservative", "type": "article", "sectionId": "commentisfree", "sectionName": "Opinion", "webPublicationDate": "2014-09-30T10:24:59Z", "webTitle": "What did Newsnight\u2019s litmus test tell us about David Cameron\u2019s values? | Open thread", "webUrl": "https://www.theguardian.com/commentisfree/2014/sep/30/newsnight-david-cameron-evan-davis-prime-minister-moderniser-conservative", "apiUrl": "https://content.guardianapis.com/commentisfree/2014/sep/30/newsnight-david-cameron-evan-davis-prime-minister-moderniser-conservative", "isHosted": false, "pillarId": "pillar/opinion", "pillarName": "Opinion"}, {"id": "politics/2014/sep/30/david-cameron-no-vote-conservative-party-scotland", "type": "article", "sectionId": "politics", "sectionName": "Politics", "webPublicationDate": "2014-09-30T10:22:15Z", "webTitle": "David Cameron says no vote will bolster Conservatives in Scotland", "webUrl": "https://www.theguardian.com/politics/2014/sep/30/david-cameron-no-vote-conservative-party-scotland", "apiUrl": "https://content.guardianapis.com/politics/2014/sep/30/david-cameron-no-vote-conservative-party-scotland", "isHosted": false, "pillarId": "pillar/news", "pillarName": "News"}, {"id": "society/2014/sep/30/welfare-rights-shame-iain-duncan-smith-nick-dilworth-reform", "type": "article", "sectionId": "society", "sectionName": "Society", "webPublicationDate": "2014-09-30T09:59:12Z", "webTitle": "The welfare rights adviser on a mission to shame Iain Duncan Smith | Mary O\u2019Hara", "webUrl": "https://www.theguardian.com/society/2014/sep/30/welfare-rights-shame-iain-duncan-smith-nick-dilworth-reform", "apiUrl": "https://content.guardianapis.com/society/2014/sep/30/welfare-rights-shame-iain-duncan-smith-nick-dilworth-reform", "isHosted": false, "pillarId": "pillar/news", "pillarName": "News"}, {"id": "politics/2014/sep/30/theresa-may-extremism-disruption-orders", "type": "article", "sectionId": "politics", "sectionName": "Politics", "webPublicationDate": "2014-09-30T09:56:54Z", "webTitle": "What are Theresa May\u2019s new \u2018extremism disruption orders\u2019?", "webUrl": "https://www.theguardian.com/politics/2014/sep/30/theresa-may-extremism-disruption-orders", "apiUrl": "https://content.guardianapis.com/politics/2014/sep/30/theresa-may-extremism-disruption-orders", "isHosted": false, "pillarId": "pillar/news", "pillarName": "News"}, {"id": "society/2014/sep/30/kris-hopkins-tory-planning-old-age-individual-responsibility", "type": "article", "sectionId": "society", "sectionName": "Society", "webPublicationDate": "2014-09-30T09:56:28Z", "webTitle": "Tory minister: start planning for old age now \u2013 responsibility lies with individual", "webUrl": "https://www.theguardian.com/society/2014/sep/30/kris-hopkins-tory-planning-old-age-individual-responsibility", "apiUrl": "https://content.guardianapis.com/society/2014/sep/30/kris-hopkins-tory-planning-old-age-individual-responsibility", "isHosted": false, "pillarId": "pillar/news", "pillarName": "News"}, {"id": "politics/2014/sep/30/boris-johnson-deputy-richard-barnes-quits-tories-ukip", "type": "article", "sectionId": "politics", "sectionName": "Politics", "webPublicationDate": "2014-09-30T09:46:15Z", "webTitle": "Former Boris Johnson deputy Richard Barnes quits Tories for Ukip", "webUrl": "https://www.theguardian.com/politics/2014/sep/30/boris-johnson-deputy-richard-barnes-quits-tories-ukip", "apiUrl": "https://content.guardianapis.com/politics/2014/sep/30/boris-johnson-deputy-richard-barnes-quits-tories-ukip", "isHosted": false, "pillarId": "pillar/news", "pillarName": "News"}, {"id": "politics/2014/sep/30/david-cameron-cut-benefits-working-poor", "type": "article", "sectionId": "politics", "sectionName": "Politics", "webPublicationDate": "2014-09-30T09:28:00Z", "webTitle": "David Cameron defends plans to cut benefits for working poor", "webUrl": "https://www.theguardian.com/politics/2014/sep/30/david-cameron-cut-benefits-working-poor", "apiUrl": "https://content.guardianapis.com/politics/2014/sep/30/david-cameron-cut-benefits-working-poor", "isHosted": false, "pillarId": "pillar/news", "pillarName": "News"}, {"id": "politics/2014/sep/30/post-referendum-scotland-feminist-paradise", "type": "article", "sectionId": "politics", "sectionName": "Politics", "webPublicationDate": "2014-09-30T09:07:06Z", "webTitle": "Is post-referendum Scotland a feminist paradise?", "webUrl": "https://www.theguardian.com/politics/2014/sep/30/post-referendum-scotland-feminist-paradise", "apiUrl": "https://content.guardianapis.com/politics/2014/sep/30/post-referendum-scotland-feminist-paradise", "isHosted": false, "pillarId": "pillar/news", "pillarName": "News"}, {"id": "media/greenslade/2014/sep/30/sundaymirror-guidofawkes", "type": "article", "sectionId": "media", "sectionName": "Media", "webPublicationDate": "2014-09-30T09:03:00Z", "webTitle": "Two papers rejected sting operation on Tory MP by Guido Fawkes reporter", "webUrl": "https://www.theguardian.com/media/greenslade/2014/sep/30/sundaymirror-guidofawkes", "apiUrl": "https://content.guardianapis.com/media/greenslade/2014/sep/30/sundaymirror-guidofawkes", "isHosted": false, "pillarId": "pillar/news", "pillarName": "News"}, {"id": "commentisfree/2014/sep/30/bombing-isis-futile-air-strikes-iraq", "type": "article", "sectionId": "commentisfree", "sectionName": "Opinion", "webPublicationDate": "2014-09-30T09:00:11Z", "webTitle": "Bombing Isis will be futile \u2013 and expensive | Richard Norton-Taylor", "webUrl": "https://www.theguardian.com/commentisfree/2014/sep/30/bombing-isis-futile-air-strikes-iraq", "apiUrl": "https://content.guardianapis.com/commentisfree/2014/sep/30/bombing-isis-futile-air-strikes-iraq", "isHosted": false, "pillarId": "pillar/opinion", "pillarName": "Opinion"}, {"id": "technology/2014/sep/30/what-do-you-do-if-your-pictures-are-used-without-your-consent-on-social-networks", "type": "article", "sectionId": "technology", "sectionName": "Technology", "webPublicationDate": "2014-09-30T08:55:54Z", "webTitle": "What do you do if your pictures are used without your consent on social networks?", "webUrl": "https://www.theguardian.com/technology/2014/sep/30/what-do-you-do-if-your-pictures-are-used-without-your-consent-on-social-networks", "apiUrl": "https://content.guardianapis.com/technology/2014/sep/30/what-do-you-do-if-your-pictures-are-used-without-your-consent-on-social-networks", "isHosted": false, "pillarId": "pillar/news", "pillarName": "News"}, {"id": "media/2014/sep/30/newsnight-evan-davis-cameron-review-paxman", "type": "article", "sectionId": "media", "sectionName": "Media", "webPublicationDate": "2014-09-30T07:31:00Z", "webTitle": "Newsnight review: Evan Davis gets off on right foot", "webUrl": "https://www.theguardian.com/media/2014/sep/30/newsnight-evan-davis-cameron-review-paxman", "apiUrl": "https://content.guardianapis.com/media/2014/sep/30/newsnight-evan-davis-cameron-review-paxman", "isHosted": false, "pillarId": "pillar/news", "pillarName": "News"}, {"id": "commentisfree/2014/sep/30/shame-modern-poverty-poor-people-tory-welfare-cuts", "type": "article", "sectionId": "commentisfree", "sectionName": "Opinion", "webPublicationDate": "2014-09-30T07:00:09Z", "webTitle": "Why shame is the most dominant feature of modern poverty | Jeremy Seabrook", "webUrl": "https://www.theguardian.com/commentisfree/2014/sep/30/shame-modern-poverty-poor-people-tory-welfare-cuts", "apiUrl": "https://content.guardianapis.com/commentisfree/2014/sep/30/shame-modern-poverty-poor-people-tory-welfare-cuts", "isHosted": false, "pillarId": "pillar/opinion", "pillarName": "Opinion"}, {"id": "politics/2014/sep/29/george-osborne-benefits-tax-credits-conservative", "type": "article", "sectionId": "politics", "sectionName": "Politics", "webPublicationDate": "2014-09-30T06:43:56Z", "webTitle": "George Osborne aims at tax credits and benefits in new squeeze on working poor", "webUrl": "https://www.theguardian.com/politics/2014/sep/29/george-osborne-benefits-tax-credits-conservative", "apiUrl": "https://content.guardianapis.com/politics/2014/sep/29/george-osborne-benefits-tax-credits-conservative", "isHosted": false, "pillarId": "pillar/news", "pillarName": "News"}, {"id": "uk-news/davehillblog/2014/sep/30/boris-johnson-moves-to-meet-city-concerns-about-cycle-superhighways", "type": "article", "sectionId": "uk-news", "sectionName": "UK news", "webPublicationDate": "2014-09-30T05:59:09Z", "webTitle": "Boris Johnson acknowledges City concerns about cycle superhighways | Dave Hill", "webUrl": "https://www.theguardian.com/uk-news/davehillblog/2014/sep/30/boris-johnson-moves-to-meet-city-concerns-about-cycle-superhighways", "apiUrl": "https://content.guardianapis.com/uk-news/davehillblog/2014/sep/30/boris-johnson-moves-to-meet-city-concerns-about-cycle-superhighways", "isHosted": false, "pillarId": "pillar/news", "pillarName": "News"}, {"id": "commentisfree/2014/sep/30/tories-ukip-david-cameron-europhobic-right", "type": "article", "sectionId": "commentisfree", "sectionName": "Opinion", "webPublicationDate": "2014-09-30T05:00:06Z", "webTitle": "These brutal new Tories are happy playing Ukip\u2019s game | Polly Toynbee", "webUrl": "https://www.theguardian.com/commentisfree/2014/sep/30/tories-ukip-david-cameron-europhobic-right", "apiUrl": "https://content.guardianapis.com/commentisfree/2014/sep/30/tories-ukip-david-cameron-europhobic-right", "isHosted": false, "pillarId": "pillar/opinion", "pillarName": "Opinion"}, {"id": "society/2014/sep/30/gp-access-seven-days-week-2020-tory-cameron", "type": "article", "sectionId": "society", "sectionName": "Society", "webPublicationDate": "2014-09-30T04:00:05Z", "webTitle": "GP access seven days a week by 2020 \u2018guaranteed\u2019 under Tories \u2013 Cameron", "webUrl": "https://www.theguardian.com/society/2014/sep/30/gp-access-seven-days-week-2020-tory-cameron", "apiUrl": "https://content.guardianapis.com/society/2014/sep/30/gp-access-seven-days-week-2020-tory-cameron", "isHosted": false, "pillarId": "pillar/news", "pillarName": "News"}, {"id": "media/2014/sep/30/sunday-mirror-women-photos-sexting-brooks-newmark", "type": "article", "sectionId": "media", "sectionName": "Media", "webPublicationDate": "2014-09-29T23:53:46Z", "webTitle": "Sunday Mirror chief apologises for use of women\u2019s photos in sex sting", "webUrl": "https://www.theguardian.com/media/2014/sep/30/sunday-mirror-women-photos-sexting-brooks-newmark", "apiUrl": "https://content.guardianapis.com/media/2014/sep/30/sunday-mirror-women-photos-sexting-brooks-newmark", "isHosted": false, "pillarId": "pillar/news", "pillarName": "News"}, {"id": "uk-news/2014/sep/30/theresa-may-ban-extremists-television", "type": "article", "sectionId": "uk-news", "sectionName": "UK news", "webPublicationDate": "2014-09-29T23:05:11Z", "webTitle": "Theresa May plans new powers to ban extremists from TV appearances", "webUrl": "https://www.theguardian.com/uk-news/2014/sep/30/theresa-may-ban-extremists-television", "apiUrl": "https://content.guardianapis.com/uk-news/2014/sep/30/theresa-may-ban-extremists-television", "isHosted": false, "pillarId": "pillar/news", "pillarName": "News"}]}}