{"response": {"status": "ok", "userTier": "developer", "total": 19331, "startIndex": 1, "pageSize": 50, "currentPage": 1, "pages": 387, "orderBy": "newest", "results": [{"id": "lifeandstyle/2013/oct/01/marcella-hazan-tributes", "type": "article", "sectionId": "food", "sectionName": "Food", "webPublicationDate": "2013-09-30T23:23:16Z", "webTitle": "Food world mourns cookery writer Marcella Hazan", "webUrl": "https://www.theguardian.com/lifeandstyle/2013/oct/01/marcella-hazan-tributes", "apiUrl": "https://content.guardianapis.com/lifeandstyle/2013/oct/01/marcella-hazan-tributes", "isHosted": false, "pillarId": "pillar/lifestyle", "pillarName": "Lifestyle"}, {"id": "lifeandstyle/wordofmouth/2013/sep/30/marcella-hazan-matthew-fort-tribute", "type": "article", "sectionId": "food", "sectionName": "Food", "webPublicationDate": "2013-09-30T12:26:00Z", "webTitle": "Marcella Hazan: Matthew Fort pays tribute", "webUrl": "https://www.theguardian.com/lifeandstyle/wordofmouth/2013/sep/30/marcella-hazan-matthew-fort-tribute", "apiUrl": "https://content.guardianapis.com/lifeandstyle/wordofmouth/2013/sep/30/marcella-hazan-matthew-fort-tribute", "isHosted": false, "pillarId": "pillar/lifestyle", "pillarName": "Lifestyle"}, {"id": "lifeandstyle/wordofmouth/2013/sep/30/sandwich-banh-mi-blt-ice-cream", "type": "article", "sectionId": "lifeandstyle", "sectionName": "Life and style", "webPublicationDate": "2013-09-30T12:22:03Z", "webTitle": "Why the world loves a sandwich", "webUrl": "https://www.theguardian.com/lifeandstyle/wordofmouth/2013/sep/30/sandwich-banh-mi-blt-ice-cream", "apiUrl": "https://content.guardianapis.com/lifeandstyle/wordofmouth/2013/sep/30/sandwich-banh-mi-blt-ice-cream", "isHosted": false, "pillarId": "pillar/lifestyle", "pillarName": "Lifestyle"}, {"id": "lifeandstyle/2013/sep/29/boulestin-restaurant-review-london", "type": "article", "sectionId": "food", "sectionName": "Food", "webPublicationDate": "2013-09-29T06:30:00Z", "webTitle": "Boulestin: restaurant review | Jay Rayner", "webUrl": "https://www.theguardian.com/lifeandstyle/2013/sep/29/boulestin-restaurant-review-london", "apiUrl": "https://content.guardianapis.com/lifeandstyle/2013/sep/29/boulestin-restaurant-review-london", "isHosted": false, "pillarId": "pillar/lifestyle", "pillarName": "Lifestyle"}, {"id": "lifeandstyle/2013/sep/29/juice-diet-health-juicing", "type": "article", "sectionId": "food", "sectionName": "Food", "webPublicationDate": "2013-09-29T05:08:00Z", "webTitle": "Give me the green juice: confessions of a juicing fanatic", "webUrl": "https://www.theguardian.com/lifeandstyle/2013/sep/29/juice-diet-health-juicing", "apiUrl": "https://content.guardianapis.com/lifeandstyle/2013/sep/29/juice-diet-health-juicing", "isHosted": false, "pillarId": "pillar/lifestyle", "pillarName": "Lifestyle"}, {"id": "world/2013/sep/29/pasta-pro-gay-social-media", "type": "article", "sectionId": "world", "sectionName": "World news", "webPublicationDate": "2013-09-28T23:04:00Z", "webTitle": "Pasta-maker in hot water as rival posts pro-gay imagery on social media", "webUrl": "https://www.theguardian.com/world/2013/sep/29/pasta-pro-gay-social-media", "apiUrl": "https://content.guardianapis.com/world/2013/sep/29/pasta-pro-gay-social-media", "isHosted": false, "pillarId": "pillar/news", "pillarName": "News"}, {"id": "artanddesign/gallery/2013/sep/28/subversive-art-of-cooking", "type": "gallery", "sectionId": "artanddesign", "sectionName": "Art and design", "webPublicationDate": "2013-09-28T17:00:00Z", "webTitle": "The subversive art of cooking", "webUrl": "https://www.theguardian.com/artanddesign/gallery/2013/sep/28/subversive-art-of-cooking", "apiUrl": "https://content.guardianapis.com/artanddesign/gallery/2013/sep/28/subversive-art-of-cooking", "isHosted": false, "pillarId": "pillar/arts", "pillarName": "Arts"}, {"id": "lifeandstyle/2013/sep/28/lebanese-dinner-feast-recipes", "type": "article", "sectionId": "lifeandstyle", "sectionName": "Life and style", "webPublicationDate": "2013-09-28T14:59:00Z", "webTitle": "A Lebanese nostalgic feast | Get-togethers", "webUrl": "https://www.theguardian.com/lifeandstyle/2013/sep/28/lebanese-dinner-feast-recipes", "apiUrl": "https://content.guardianapis.com/lifeandstyle/2013/sep/28/lebanese-dinner-feast-recipes", "isHosted": false, "pillarId": "pillar/lifestyle", "pillarName": "Lifestyle"}, {"id": "lifeandstyle/2013/sep/28/wines-from-the-arab-world-david-williams", "type": "article", "sectionId": "food", "sectionName": "Food", "webPublicationDate": "2013-09-28T11:59:00Z", "webTitle": "Three wines from the Arab world | David Williams", "webUrl": "https://www.theguardian.com/lifeandstyle/2013/sep/28/wines-from-the-arab-world-david-williams", "apiUrl": "https://content.guardianapis.com/lifeandstyle/2013/sep/28/wines-from-the-arab-world-david-williams", "isHosted": false, "pillarId": "pillar/lifestyle", "pillarName": "Lifestyle"}, {"id": "lifeandstyle/2013/sep/28/notting-hill-kitchen-london-review", "type": "article", "sectionId": "lifeandstyle", "sectionName": "Life and style", "webPublicationDate": "2013-09-28T08:00:09Z", "webTitle": "Restaurant: Notting Hill Kitchen, London W11", "webUrl": "https://www.theguardian.com/lifeandstyle/2013/sep/28/notting-hill-kitchen-london-review", "apiUrl": "https://content.guardianapis.com/lifeandstyle/2013/sep/28/notting-hill-kitchen-london-review", "isHosted": false, "pillarId": "pillar/lifestyle", "pillarName": "Lifestyle"}, {"id": "lifeandstyle/2013/sep/28/wine-style-taste-regional-differences", "type": "article", "sectionId": "food", "sectionName": "Food", "webPublicationDate": "2013-09-28T08:00:00Z", "webTitle": "Wine: regional differences", "webUrl": "https://www.theguardian.com/lifeandstyle/2013/sep/28/wine-style-taste-regional-differences", "apiUrl": "https://content.guardianapis.com/lifeandstyle/2013/sep/28/wine-style-taste-regional-differences", "isHosted": false, "pillarId": "pillar/lifestyle", "pillarName": "Lifestyle"}, {"id": "lifeandstyle/2013/sep/28/scottish-pounds-valentine-moon-apricot-dumplings", "type": "article", "sectionId": "lifeandstyle", "sectionName": "Life and style", "webPublicationDate": "2013-09-28T06:30:00Z", "webTitle": "Family life | Scottish pound notes, Valentine Moon and Marillenknoedal", "webUrl": "https://www.theguardian.com/lifeandstyle/2013/sep/28/scottish-pounds-valentine-moon-apricot-dumplings", "apiUrl": "https://content.guardianapis.com/lifeandstyle/2013/sep/28/scottish-pounds-valentine-moon-apricot-dumplings", "isHosted": false, "pillarId": "pillar/lifestyle", "pillarName": "Lifestyle"}, {"id": "money/blog/2013/sep/28/tastecard-worth-money", "type": "article", "sectionId": "money", "sectionName": "Money", "webPublicationDate": "2013-09-28T06:00:56Z", "webTitle": "Is a Tastecard worth the money?", "webUrl": "https://www.theguardian.com/money/blog/2013/sep/28/tastecard-worth-money", "apiUrl": "https://content.guardianapis.com/money/blog/2013/sep/28/tastecard-worth-money", "isHosted": false, "pillarId": "pillar/lifestyle", "pillarName": "Lifestyle"}, {"id": "lifeandstyle/2013/sep/28/readers-recipe-swap-steamed-puddings-and-meatballs-recipes", "type": "article", "sectionId": "lifeandstyle", "sectionName": "Life and style", "webPublicationDate": "2013-09-28T06:00:30Z", "webTitle": "Readers' recipe swap | Steamed | Felicity Cloake", "webUrl": "https://www.theguardian.com/lifeandstyle/2013/sep/28/readers-recipe-swap-steamed-puddings-and-meatballs-recipes", "apiUrl": "https://content.guardianapis.com/lifeandstyle/2013/sep/28/readers-recipe-swap-steamed-puddings-and-meatballs-recipes", "isHosted": false, "pillarId": "pillar/lifestyle", "pillarName": "Lifestyle"}, {"id": "lifeandstyle/2013/sep/28/10-best-egg-recipes", "type": "article", "sectionId": "lifeandstyle", "sectionName": "Life and style", "webPublicationDate": "2013-09-28T06:00:13Z", "webTitle": "The 10 best egg recipes", "webUrl": "https://www.theguardian.com/lifeandstyle/2013/sep/28/10-best-egg-recipes", "apiUrl": "https://content.guardianapis.com/lifeandstyle/2013/sep/28/10-best-egg-recipes", "isHosted": false, "pillarId": "pillar/lifestyle", "pillarName": "Lifestyle"}, {"id": "lifeandstyle/2013/sep/28/venison-deer-meat-health-heart-benefits", "type": "article", "sectionId": "lifeandstyle", "sectionName": "Life and style", "webPublicationDate": "2013-09-28T06:00:11Z", "webTitle": "Why venison is good for you | Joanna Blythman and Rosie Sykes", "webUrl": "https://www.theguardian.com/lifeandstyle/2013/sep/28/venison-deer-meat-health-heart-benefits", "apiUrl": "https://content.guardianapis.com/lifeandstyle/2013/sep/28/venison-deer-meat-health-heart-benefits", "isHosted": false, "pillarId": "pillar/lifestyle", "pillarName": "Lifestyle"}, {"id": "tv-and-radio/2013/sep/27/great-british-bake-off-increases-demand-pastry-sugar-waitrose", "type": "article", "sectionId": "tv-and-radio", "sectionName": "Television & radio", "webPublicationDate": "2013-09-27T19:09:43Z", "webTitle": "Waitrose: The Great British Bake Off whips up demand for pastry and sugar", "webUrl": "https://www.theguardian.com/tv-and-radio/2013/sep/27/great-british-bake-off-increases-demand-pastry-sugar-waitrose", "apiUrl": "https://content.guardianapis.com/tv-and-radio/2013/sep/27/great-british-bake-off-increases-demand-pastry-sugar-waitrose", "isHosted": false, "pillarId": "pillar/arts", "pillarName": "Arts"}, {"id": "lifeandstyle/video/2013/sep/27/london-halal-food-festival-video", "type": "video", "sectionId": "food", "sectionName": "Food", "webPublicationDate": "2013-09-27T19:08:00Z", "webTitle": "Halal Food Festival opens in London - video", "webUrl": "https://www.theguardian.com/lifeandstyle/video/2013/sep/27/london-halal-food-festival-video", "apiUrl": "https://content.guardianapis.com/lifeandstyle/video/2013/sep/27/london-halal-food-festival-video", "isHosted": false, "pillarId": "pillar/lifestyle", "pillarName": "Lifestyle"}, {"id": "world/2013/sep/27/eating-dog-vietnam-thailand-kate-hodal", "type": "article", "sectionId": "world", "sectionName": "World news", "webPublicationDate": "2013-09-27T17:00:00Z", "webTitle": "How eating dog became big business in Vietnam", "webUrl": "https://www.theguardian.com/world/2013/sep/27/eating-dog-vietnam-thailand-kate-hodal", "apiUrl": "https://content.guardianapis.com/world/2013/sep/27/eating-dog-vietnam-thailand-kate-hodal", "isHosted": false, "pillarId": "pillar/news", "pillarName": "News"}, {"id": "lifeandstyle/2013/sep/27/halal-food-festival-london", "type": "article", "sectionId": "food", "sectionName": "Food", "webPublicationDate": "2013-09-27T16:40:20Z", "webTitle": "Haloodie heaven: the Halal Food Festival opens in London", "webUrl": "https://www.theguardian.com/lifeandstyle/2013/sep/27/halal-food-festival-london", "apiUrl": "https://content.guardianapis.com/lifeandstyle/2013/sep/27/halal-food-festival-london", "isHosted": false, "pillarId": "pillar/lifestyle", "pillarName": "Lifestyle"}, {"id": "lifeandstyle/wordofmouth/2013/sep/27/cooking-whisky-great-ingredient-waste-dram", "type": "article", "sectionId": "food", "sectionName": "Food", "webPublicationDate": "2013-09-27T11:30:08Z", "webTitle": "Cooking with whisky: great ingredient or waste of a dram?", "webUrl": "https://www.theguardian.com/lifeandstyle/wordofmouth/2013/sep/27/cooking-whisky-great-ingredient-waste-dram", "apiUrl": "https://content.guardianapis.com/lifeandstyle/wordofmouth/2013/sep/27/cooking-whisky-great-ingredient-waste-dram", "isHosted": false, "pillarId": "pillar/lifestyle", "pillarName": "Lifestyle"}, {"id": "lifeandstyle/2013/sep/27/how-to-make-fruit-pastilles", "type": "article", "sectionId": "lifeandstyle", "sectionName": "Life and style", "webPublicationDate": "2013-09-27T09:00:00Z", "webTitle": "How to make fruit pastilles", "webUrl": "https://www.theguardian.com/lifeandstyle/2013/sep/27/how-to-make-fruit-pastilles", "apiUrl": "https://content.guardianapis.com/lifeandstyle/2013/sep/27/how-to-make-fruit-pastilles", "isHosted": false, "pillarId": "pillar/lifestyle", "pillarName": "Lifestyle"}, {"id": "lifeandstyle/2013/sep/26/heston-blumenthal-michelin-star-dinner", "type": "article", "sectionId": "food", "sectionName": "Food", "webPublicationDate": "2013-09-26T16:04:15Z", "webTitle": "Heston Blumenthal served up another Michelin star for Dinner", "webUrl": "https://www.theguardian.com/lifeandstyle/2013/sep/26/heston-blumenthal-michelin-star-dinner", "apiUrl": "https://content.guardianapis.com/lifeandstyle/2013/sep/26/heston-blumenthal-michelin-star-dinner", "isHosted": false, "pillarId": "pillar/lifestyle", "pillarName": "Lifestyle"}, {"id": "commentisfree/2013/sep/26/american-diet-report-card-unhealty", "type": "article", "sectionId": "commentisfree", "sectionName": "Opinion", "webPublicationDate": "2013-09-26T14:34:00Z", "webTitle": "The way America eats is killing us. Something has to change | Jill Filipovic", "webUrl": "https://www.theguardian.com/commentisfree/2013/sep/26/american-diet-report-card-unhealty", "apiUrl": "https://content.guardianapis.com/commentisfree/2013/sep/26/american-diet-report-card-unhealty", "isHosted": false, "pillarId": "pillar/opinion", "pillarName": "Opinion"}, {"id": "lifeandstyle/gallery/2013/sep/26/food-snack-vans-britain-gallery", "type": "gallery", "sectionId": "lifeandstyle", "sectionName": "Life and style", "webPublicationDate": "2013-09-26T13:28:50Z", "webTitle": "Snack vans: food on the go - in pictures", "webUrl": "https://www.theguardian.com/lifeandstyle/gallery/2013/sep/26/food-snack-vans-britain-gallery", "apiUrl": "https://content.guardianapis.com/lifeandstyle/gallery/2013/sep/26/food-snack-vans-britain-gallery", "isHosted": false, "pillarId": "pillar/lifestyle", "pillarName": "Lifestyle"}, {"id": "lifeandstyle/2013/sep/26/table-delights-theatrical-restaurants", "type": "article", "sectionId": "food", "sectionName": "Food", "webPublicationDate": "2013-09-26T06:00:00Z", "webTitle": "The Table of Delights: a theatrical take on restaurants", "webUrl": "https://www.theguardian.com/lifeandstyle/2013/sep/26/table-delights-theatrical-restaurants", "apiUrl": "https://content.guardianapis.com/lifeandstyle/2013/sep/26/table-delights-theatrical-restaurants", "isHosted": false, "pillarId": "pillar/lifestyle", "pillarName": "Lifestyle"}, {"id": "lifeandstyle/2013/sep/25/halal-food-why-hard-find-britain", "type": "article", "sectionId": "food", "sectionName": "Food", "webPublicationDate": "2013-09-25T18:17:00Z", "webTitle": "Halal food: a market waiting to be tapped into?", "webUrl": "https://www.theguardian.com/lifeandstyle/2013/sep/25/halal-food-why-hard-find-britain", "apiUrl": "https://content.guardianapis.com/lifeandstyle/2013/sep/25/halal-food-why-hard-find-britain", "isHosted": false, "pillarId": "pillar/lifestyle", "pillarName": "Lifestyle"}, {"id": "commentisfree/2013/sep/25/woo-man-make-sandwich-sexism", "type": "article", "sectionId": "commentisfree", "sectionName": "Opinion", "webPublicationDate": "2013-09-25T17:15:00Z", "webTitle": "Is the way to a man's heart through his stomach?  | Open thread", "webUrl": "https://www.theguardian.com/commentisfree/2013/sep/25/woo-man-make-sandwich-sexism", "apiUrl": "https://content.guardianapis.com/commentisfree/2013/sep/25/woo-man-make-sandwich-sexism", "isHosted": false, "pillarId": "pillar/opinion", "pillarName": "Opinion"}, {"id": "lifeandstyle/2013/sep/25/angela-hartnett-chard-taleggio-pancakes-recipe", "type": "article", "sectionId": "lifeandstyle", "sectionName": "Life and style", "webPublicationDate": "2013-09-25T13:00:00Z", "webTitle": "Angela Hartnett's chard and taleggio pancake recipe", "webUrl": "https://www.theguardian.com/lifeandstyle/2013/sep/25/angela-hartnett-chard-taleggio-pancakes-recipe", "apiUrl": "https://content.guardianapis.com/lifeandstyle/2013/sep/25/angela-hartnett-chard-taleggio-pancakes-recipe", "isHosted": false, "pillarId": "pillar/lifestyle", "pillarName": "Lifestyle"}, {"id": "lifeandstyle/wordofmouth/2013/sep/25/vietnamese-pho-trademark-soup-cafe", "type": "article", "sectionId": "food", "sectionName": "Food", "webPublicationDate": "2013-09-25T12:49:00Z", "webTitle": "The Vietnamese pho war \u2013 can you trademark a soup?", "webUrl": "https://www.theguardian.com/lifeandstyle/wordofmouth/2013/sep/25/vietnamese-pho-trademark-soup-cafe", "apiUrl": "https://content.guardianapis.com/lifeandstyle/wordofmouth/2013/sep/25/vietnamese-pho-trademark-soup-cafe", "isHosted": false, "pillarId": "pillar/lifestyle", "pillarName": "Lifestyle"}, {"id": "lifeandstyle/wordofmouth/2013/sep/25/how-to-make-perfect-baba-ganoush", "type": "article", "sectionId": "food", "sectionName": "Food", "webPublicationDate": "2013-09-25T10:41:00Z", "webTitle": "How to make the perfect baba ganoush", "webUrl": "https://www.theguardian.com/lifeandstyle/wordofmouth/2013/sep/25/how-to-make-perfect-baba-ganoush", "apiUrl": "https://content.guardianapis.com/lifeandstyle/wordofmouth/2013/sep/25/how-to-make-perfect-baba-ganoush", "isHosted": false, "pillarId": "pillar/lifestyle", "pillarName": "Lifestyle"}, {"id": "lifeandstyle/australia-food-blog/2013/sep/25/fish-curry-recipe-anna-gare", "type": "article", "sectionId": "lifeandstyle", "sectionName": "Life and style", "webPublicationDate": "2013-09-25T02:12:00Z", "webTitle": "Anna Gare's family recipes: Creamy coconut fish curry", "webUrl": "https://www.theguardian.com/lifeandstyle/australia-food-blog/2013/sep/25/fish-curry-recipe-anna-gare", "apiUrl": "https://content.guardianapis.com/lifeandstyle/australia-food-blog/2013/sep/25/fish-curry-recipe-anna-gare", "isHosted": false, "pillarId": "pillar/lifestyle", "pillarName": "Lifestyle"}, {"id": "tv-and-radio/2013/sep/24/the-great-british-bake-off-2013-episode-six-live-blog", "type": "liveblog", "sectionId": "tv-and-radio", "sectionName": "Television & radio", "webPublicationDate": "2013-09-24T20:01:29Z", "webTitle": "The Great British Bake Off 2013 episode six \u2013 live blog", "webUrl": "https://www.theguardian.com/tv-and-radio/2013/sep/24/the-great-british-bake-off-2013-episode-six-live-blog", "apiUrl": "https://content.guardianapis.com/tv-and-radio/2013/sep/24/the-great-british-bake-off-2013-episode-six-live-blog", "isHosted": false, "pillarId": "pillar/arts", "pillarName": "Arts"}, {"id": "world/shortcuts/2013/sep/24/arthurs-day-ireland-dark-side-guinness", "type": "article", "sectionId": "world", "sectionName": "World news", "webPublicationDate": "2013-09-24T17:04:00Z", "webTitle": "Arthur's day: Ireland faces up to the dark side of the Guinness celebrations", "webUrl": "https://www.theguardian.com/world/shortcuts/2013/sep/24/arthurs-day-ireland-dark-side-guinness", "apiUrl": "https://content.guardianapis.com/world/shortcuts/2013/sep/24/arthurs-day-ireland-dark-side-guinness", "isHosted": false, "pillarId": "pillar/news", "pillarName": "News"}, {"id": "commentisfree/2013/sep/24/snap-artemis-wildland-food-stamps", "type": "article", "sectionId": "commentisfree", "sectionName": "Opinion", "webPublicationDate": "2013-09-24T12:30:00Z", "webTitle": "'Artemis of the wildland' and the food stamp haters | Nick Mattos", "webUrl": "https://www.theguardian.com/commentisfree/2013/sep/24/snap-artemis-wildland-food-stamps", "apiUrl": "https://content.guardianapis.com/commentisfree/2013/sep/24/snap-artemis-wildland-food-stamps", "isHosted": false, "pillarId": "pillar/opinion", "pillarName": "Opinion"}, {"id": "travel/2013/sep/24/top-10-restaurants-philadelphia", "type": "article", "sectionId": "travel", "sectionName": "Travel", "webPublicationDate": "2013-09-24T12:27:35Z", "webTitle": "Top 10 restaurants in Philadelphia", "webUrl": "https://www.theguardian.com/travel/2013/sep/24/top-10-restaurants-philadelphia", "apiUrl": "https://content.guardianapis.com/travel/2013/sep/24/top-10-restaurants-philadelphia", "isHosted": false, "pillarId": "pillar/lifestyle", "pillarName": "Lifestyle"}, {"id": "lifeandstyle/2013/sep/24/posh-marshmallows-cure-austerity-blues", "type": "article", "sectionId": "food", "sectionName": "Food", "webPublicationDate": "2013-09-24T12:16:00Z", "webTitle": "Posh marshmallows \u2013 the perfect cure for the austerity blues", "webUrl": "https://www.theguardian.com/lifeandstyle/2013/sep/24/posh-marshmallows-cure-austerity-blues", "apiUrl": "https://content.guardianapis.com/lifeandstyle/2013/sep/24/posh-marshmallows-cure-austerity-blues", "isHosted": false, "pillarId": "pillar/lifestyle", "pillarName": "Lifestyle"}, {"id": "lifeandstyle/2013/sep/24/fiona-beckett-supermarket-wine", "type": "article", "sectionId": "food", "sectionName": "Food", "webPublicationDate": "2013-09-24T08:00:03Z", "webTitle": "Wine: now you see it\u2026", "webUrl": "https://www.theguardian.com/lifeandstyle/2013/sep/24/fiona-beckett-supermarket-wine", "apiUrl": "https://content.guardianapis.com/lifeandstyle/2013/sep/24/fiona-beckett-supermarket-wine", "isHosted": false, "pillarId": "pillar/lifestyle", "pillarName": "Lifestyle"}, {"id": "social-enterprise-network/2013/sep/24/day-in-life-social-enterprise-apprentice", "type": "article", "sectionId": "sustainable-business", "sectionName": "Guardian Sustainable Business", "webPublicationDate": "2013-09-24T05:58:00Z", "webTitle": "A day in the life of: a social enterprise apprentice", "webUrl": "https://www.theguardian.com/social-enterprise-network/2013/sep/24/day-in-life-social-enterprise-apprentice", "apiUrl": "https://content.guardianapis.com/social-enterprise-network/2013/sep/24/day-in-life-social-enterprise-apprentice", "isHosted": false}, {"id": "lifeandstyle/australia-food-blog/2013/sep/24/anna-gare-lollipop-chops-couscous1", "type": "article", "sectionId": "lifeandstyle", "sectionName": "Life and style", "webPublicationDate": "2013-09-24T02:32:00Z", "webTitle": "Anna Gare's family recipes: lollipop chops with roasted veg couscous", "webUrl": "https://www.theguardian.com/lifeandstyle/australia-food-blog/2013/sep/24/anna-gare-lollipop-chops-couscous1", "apiUrl": "https://content.guardianapis.com/lifeandstyle/australia-food-blog/2013/sep/24/anna-gare-lollipop-chops-couscous1", "isHosted": false, "pillarId": "pillar/lifestyle", "pillarName": "Lifestyle"}, {"id": "money/blog/2013/sep/23/roll-your-vice-save-widget", "type": "article", "sectionId": "money", "sectionName": "Money", "webPublicationDate": "2013-09-23T19:14:00Z", "webTitle": "Roll your vice \u2013 and save your money: adding up the costs of every day", "webUrl": "https://www.theguardian.com/money/blog/2013/sep/23/roll-your-vice-save-widget", "apiUrl": "https://content.guardianapis.com/money/blog/2013/sep/23/roll-your-vice-save-widget", "isHosted": false, "pillarId": "pillar/lifestyle", "pillarName": "Lifestyle"}, {"id": "lifeandstyle/2013/sep/23/student-recipes-incredible-spice-men", "type": "article", "sectionId": "education", "sectionName": "Education", "webPublicationDate": "2013-09-23T16:49:00Z", "webTitle": "Student recipes from the Incredible Spice Men", "webUrl": "https://www.theguardian.com/lifeandstyle/2013/sep/23/student-recipes-incredible-spice-men", "apiUrl": "https://content.guardianapis.com/lifeandstyle/2013/sep/23/student-recipes-incredible-spice-men", "isHosted": false, "pillarId": "pillar/news", "pillarName": "News"}, {"id": "lifeandstyle/wordofmouth/2013/sep/23/best-countries-to-be-vegetarian", "type": "article", "sectionId": "food", "sectionName": "Food", "webPublicationDate": "2013-09-23T13:58:34Z", "webTitle": "The best countries in the world for vegetarians", "webUrl": "https://www.theguardian.com/lifeandstyle/wordofmouth/2013/sep/23/best-countries-to-be-vegetarian", "apiUrl": "https://content.guardianapis.com/lifeandstyle/wordofmouth/2013/sep/23/best-countries-to-be-vegetarian", "isHosted": false, "pillarId": "pillar/lifestyle", "pillarName": "Lifestyle"}, {"id": "lifeandstyle/2013/sep/23/buy-of-the-day", "type": "article", "sectionId": "lifeandstyle", "sectionName": "Life and style", "webPublicationDate": "2013-09-23T10:47:00Z", "webTitle": "Buy of the day", "webUrl": "https://www.theguardian.com/lifeandstyle/2013/sep/23/buy-of-the-day", "apiUrl": "https://content.guardianapis.com/lifeandstyle/2013/sep/23/buy-of-the-day", "isHosted": false, "pillarId": "pillar/lifestyle", "pillarName": "Lifestyle"}, {"id": "environment/2013/sep/23/organic-food-drink-sector-stabilises-sales-rise", "type": "article", "sectionId": "environment", "sectionName": "Environment", "webPublicationDate": "2013-09-23T06:00:40Z", "webTitle": "Organic food and drink sector stabilises as sales rise by 0.6%", "webUrl": "https://www.theguardian.com/environment/2013/sep/23/organic-food-drink-sector-stabilises-sales-rise", "apiUrl": "https://content.guardianapis.com/environment/2013/sep/23/organic-food-drink-sector-stabilises-sales-rise", "isHosted": false, "pillarId": "pillar/news", "pillarName": "News"}, {"id": "lifeandstyle/2013/sep/22/leon-de-bruxelles-restaurant-review", "type": "article", "sectionId": "food", "sectionName": "Food", "webPublicationDate": "2013-09-22T09:50:36Z", "webTitle": "Leon de Bruxelles: restaurant review | Jay Rayner", "webUrl": "https://www.theguardian.com/lifeandstyle/2013/sep/22/leon-de-bruxelles-restaurant-review", "apiUrl": "https://content.guardianapis.com/lifeandstyle/2013/sep/22/leon-de-bruxelles-restaurant-review", "isHosted": false, "pillarId": "pillar/lifestyle", "pillarName": "Lifestyle"}, {"id": "lifeandstyle/2013/sep/22/dont-make-children-eat-greens", "type": "article", "sectionId": "lifeandstyle", "sectionName": "Life and style", "webPublicationDate": "2013-09-22T08:00:00Z", "webTitle": "Don't make children eat their greens", "webUrl": "https://www.theguardian.com/lifeandstyle/2013/sep/22/dont-make-children-eat-greens", "apiUrl": "https://content.guardianapis.com/lifeandstyle/2013/sep/22/dont-make-children-eat-greens", "isHosted": false, "pillarId": "pillar/lifestyle", "pillarName": "Lifestyle"}, {"id": "lifeandstyle/2013/sep/22/allan-jenkins-welcome-september-ofm", "type": "article", "sectionId": "food", "sectionName": "Food", "webPublicationDate": "2013-09-22T08:00:00Z", "webTitle": "Allan Jenkins: welcome to Observer Food Monthly's September issue", "webUrl": "https://www.theguardian.com/lifeandstyle/2013/sep/22/allan-jenkins-welcome-september-ofm", "apiUrl": "https://content.guardianapis.com/lifeandstyle/2013/sep/22/allan-jenkins-welcome-september-ofm", "isHosted": false, "pillarId": "pillar/lifestyle", "pillarName": "Lifestyle"}, {"id": "commentisfree/2013/sep/22/observer-editorial-nigel-slater-20-years", "type": "article", "sectionId": "commentisfree", "sectionName": "Opinion", "webPublicationDate": "2013-09-21T23:06:07Z", "webTitle": "Nigel Slater, king of cooks | Observer editorial", "webUrl": "https://www.theguardian.com/commentisfree/2013/sep/22/observer-editorial-nigel-slater-20-years", "apiUrl": "https://content.guardianapis.com/commentisfree/2013/sep/22/observer-editorial-nigel-slater-20-years", "isHosted": false, "pillarId": "pillar/opinion", "pillarName": "Opinion"}, {"id": "commentisfree/2013/sep/22/free-school-meals-health-education", "type": "article", "sectionId": "commentisfree", "sectionName": "Opinion", "webPublicationDate": "2013-09-21T23:05:36Z", "webTitle": "Are free school meals a\u00a0good idea?", "webUrl": "https://www.theguardian.com/commentisfree/2013/sep/22/free-school-meals-health-education", "apiUrl": "https://content.guardianapis.com/commentisfree/2013/sep/22/free-school-meals-health-education", "isHosted": false, "pillarId": "pillar/opinion", "pillarName": "Opinion"}]}}