{"response": {"status": "ok", "userTier": "developer", "total": 87431, "startIndex": 1, "pageSize": 50, "currentPage": 1, "pages": 1749, "orderBy": "newest", "results": [{"id": "football/2012/sep/30/everton-southampton-premier-league-match-report", "type": "article", "sectionId": "football", "sectionName": "Football", "webPublicationDate": "2012-09-30T22:01:00Z", "webTitle": "Kevin Mirallas is key to win over Southampton and Everton's heady rise", "webUrl": "https://www.theguardian.com/football/2012/sep/30/everton-southampton-premier-league-match-report", "apiUrl": "https://content.guardianapis.com/football/2012/sep/30/everton-southampton-premier-league-match-report", "isHosted": false, "pillarId": "pillar/sport", "pillarName": "Sport"}, {"id": "football/football-league-blog/2012/sep/30/championship-brighton-birmingham-city", "type": "article", "sectionId": "football", "sectionName": "Football", "webPublicationDate": "2012-09-30T22:00:10Z", "webTitle": "Brighton stay top despite falling to resurgent Birmingham City | Jeremy Alexander", "webUrl": "https://www.theguardian.com/football/football-league-blog/2012/sep/30/championship-brighton-birmingham-city", "apiUrl": "https://content.guardianapis.com/football/football-league-blog/2012/sep/30/championship-brighton-birmingham-city", "isHosted": false, "pillarId": "pillar/sport", "pillarName": "Sport"}, {"id": "football/2012/sep/30/tottenham-expose-manchester-united-frailties", "type": "article", "sectionId": "football", "sectionName": "Football", "webPublicationDate": "2012-09-30T22:00:06Z", "webTitle": "Tottenham Hotspur's historic win exposes Manchester United's frailties", "webUrl": "https://www.theguardian.com/football/2012/sep/30/tottenham-expose-manchester-united-frailties", "apiUrl": "https://content.guardianapis.com/football/2012/sep/30/tottenham-expose-manchester-united-frailties", "isHosted": false, "pillarId": "pillar/sport", "pillarName": "Sport"}, {"id": "football/2012/sep/30/arsenal-chelsea-premier-league", "type": "article", "sectionId": "football", "sectionName": "Football", "webPublicationDate": "2012-09-30T22:00:05Z", "webTitle": "Chelsea profit after defensive errors add to familiar Arsenal flaws", "webUrl": "https://www.theguardian.com/football/2012/sep/30/arsenal-chelsea-premier-league", "apiUrl": "https://content.guardianapis.com/football/2012/sep/30/arsenal-chelsea-premier-league", "isHosted": false, "pillarId": "pillar/sport", "pillarName": "Sport"}, {"id": "football/2012/sep/30/sunderland-wigan-premier-league-match-report", "type": "article", "sectionId": "football", "sectionName": "Football", "webPublicationDate": "2012-09-30T22:00:04Z", "webTitle": "Steven Fletcher fires again to keep unbeaten Sunderland in good company", "webUrl": "https://www.theguardian.com/football/2012/sep/30/sunderland-wigan-premier-league-match-report", "apiUrl": "https://content.guardianapis.com/football/2012/sep/30/sunderland-wigan-premier-league-match-report", "isHosted": false, "pillarId": "pillar/sport", "pillarName": "Sport"}, {"id": "football/2012/sep/30/newcastle-united-reading-alan-pardew", "type": "article", "sectionId": "football", "sectionName": "Football", "webPublicationDate": "2012-09-30T22:00:04Z", "webTitle": "Newcastle United's Champions League dreams are disrupted by Reading", "webUrl": "https://www.theguardian.com/football/2012/sep/30/newcastle-united-reading-alan-pardew", "apiUrl": "https://content.guardianapis.com/football/2012/sep/30/newcastle-united-reading-alan-pardew", "isHosted": false, "pillarId": "pillar/sport", "pillarName": "Sport"}, {"id": "football/2012/sep/30/manchester-city-fulham-premier-league", "type": "article", "sectionId": "football", "sectionName": "Football", "webPublicationDate": "2012-09-30T22:00:03Z", "webTitle": "Manchester City's Sergio Ag\u00fcero claims bias despite victory at Fulham", "webUrl": "https://www.theguardian.com/football/2012/sep/30/manchester-city-fulham-premier-league", "apiUrl": "https://content.guardianapis.com/football/2012/sep/30/manchester-city-fulham-premier-league", "isHosted": false, "pillarId": "pillar/sport", "pillarName": "Sport"}, {"id": "football/2012/sep/30/liverpool-norwich-match-report-luis-suarez", "type": "article", "sectionId": "football", "sectionName": "Football", "webPublicationDate": "2012-09-30T22:00:01Z", "webTitle": "Liverpool 'fear' Luis Su\u00e1rez is being treated unfairly by officials", "webUrl": "https://www.theguardian.com/football/2012/sep/30/liverpool-norwich-match-report-luis-suarez", "apiUrl": "https://content.guardianapis.com/football/2012/sep/30/liverpool-norwich-match-report-luis-suarez", "isHosted": false, "pillarId": "pillar/sport", "pillarName": "Sport"}, {"id": "football/blog/2012/sep/30/tottenham-manchester-united-jermain-defoe", "type": "article", "sectionId": "football", "sectionName": "Football", "webPublicationDate": "2012-09-30T22:00:00Z", "webTitle": "Jermain Defoe's deft movement provides Tottenham with fresh threat | Michael Cox", "webUrl": "https://www.theguardian.com/football/blog/2012/sep/30/tottenham-manchester-united-jermain-defoe", "apiUrl": "https://content.guardianapis.com/football/blog/2012/sep/30/tottenham-manchester-united-jermain-defoe", "isHosted": false, "pillarId": "pillar/sport", "pillarName": "Sport"}, {"id": "football/2012/sep/30/arsenal-super-league-title-doncaster", "type": "article", "sectionId": "football", "sectionName": "Football", "webPublicationDate": "2012-09-30T20:08:51Z", "webTitle": "Arsenal women retain Super League title with victory over Doncaster", "webUrl": "https://www.theguardian.com/football/2012/sep/30/arsenal-super-league-title-doncaster", "apiUrl": "https://content.guardianapis.com/football/2012/sep/30/arsenal-super-league-title-doncaster", "isHosted": false, "pillarId": "pillar/sport", "pillarName": "Sport"}, {"id": "football/2012/sep/30/darren-bent-aston-villa-west-brom", "type": "article", "sectionId": "football", "sectionName": "Football", "webPublicationDate": "2012-09-30T17:15:21Z", "webTitle": "Aston Villa 1-1 West Bromwich Albion | Premier League match report", "webUrl": "https://www.theguardian.com/football/2012/sep/30/darren-bent-aston-villa-west-brom", "apiUrl": "https://content.guardianapis.com/football/2012/sep/30/darren-bent-aston-villa-west-brom", "isHosted": false, "pillarId": "pillar/sport", "pillarName": "Sport"}, {"id": "football/2012/sep/30/aston-villa-west-bromwich-albion-mbm", "type": "article", "sectionId": "football", "sectionName": "Football", "webPublicationDate": "2012-09-30T16:54:00Z", "webTitle": "Aston Villa v West Bromwich Albion \u2013 live! Jacob Steinberg", "webUrl": "https://www.theguardian.com/football/2012/sep/30/aston-villa-west-bromwich-albion-mbm", "apiUrl": "https://content.guardianapis.com/football/2012/sep/30/aston-villa-west-bromwich-albion-mbm", "isHosted": false, "pillarId": "pillar/sport", "pillarName": "Sport"}, {"id": "football/blog/2012/sep/30/manchester-united-tottenham-time-wasting", "type": "article", "sectionId": "football", "sectionName": "Football", "webPublicationDate": "2012-09-30T12:20:31Z", "webTitle": "Sir Alex Ferguson was right to complain about Tottenham's time-wasting | Daniel Harris", "webUrl": "https://www.theguardian.com/football/blog/2012/sep/30/manchester-united-tottenham-time-wasting", "apiUrl": "https://content.guardianapis.com/football/blog/2012/sep/30/manchester-united-tottenham-time-wasting", "isHosted": false, "pillarId": "pillar/sport", "pillarName": "Sport"}, {"id": "football/2012/sep/30/sam-allardyce-west-ham", "type": "article", "sectionId": "football", "sectionName": "Football", "webPublicationDate": "2012-09-29T23:11:08Z", "webTitle": "'Pretty football' is history at Sam Allardyce's West Ham academy", "webUrl": "https://www.theguardian.com/football/2012/sep/30/sam-allardyce-west-ham", "apiUrl": "https://content.guardianapis.com/football/2012/sep/30/sam-allardyce-west-ham", "isHosted": false, "pillarId": "pillar/sport", "pillarName": "Sport"}, {"id": "commentisfree/2012/sep/30/sunder-katwala-racism-football-terry", "type": "article", "sectionId": "commentisfree", "sectionName": "Opinion", "webPublicationDate": "2012-09-29T23:04:00Z", "webTitle": "Forget John Terry. Football has striven to fight racism | Sunder Katwala", "webUrl": "https://www.theguardian.com/commentisfree/2012/sep/30/sunder-katwala-racism-football-terry", "apiUrl": "https://content.guardianapis.com/commentisfree/2012/sep/30/sunder-katwala-racism-football-terry", "isHosted": false, "pillarId": "pillar/opinion", "pillarName": "Opinion"}, {"id": "commentisfree/2012/sep/30/observer-editorial-john-terry-lose-captaincy", "type": "article", "sectionId": "commentisfree", "sectionName": "Opinion", "webPublicationDate": "2012-09-29T23:01:00Z", "webTitle": "John Terry: the FA has been equivocal in its approach to racism | Observer editorial", "webUrl": "https://www.theguardian.com/commentisfree/2012/sep/30/observer-editorial-john-terry-lose-captaincy", "apiUrl": "https://content.guardianapis.com/commentisfree/2012/sep/30/observer-editorial-john-terry-lose-captaincy", "isHosted": false, "pillarId": "pillar/opinion", "pillarName": "Opinion"}, {"id": "football/2012/sep/29/championship-roundup-hull-city", "type": "article", "sectionId": "football", "sectionName": "Football", "webPublicationDate": "2012-09-29T23:00:00Z", "webTitle": "Championship roundup: Hull City suffer second straight 3-1 defeat", "webUrl": "https://www.theguardian.com/football/2012/sep/29/championship-roundup-hull-city", "apiUrl": "https://content.guardianapis.com/football/2012/sep/29/championship-roundup-hull-city", "isHosted": false, "pillarId": "pillar/sport", "pillarName": "Sport"}, {"id": "football/2012/sep/29/said-and-done-ken-bates", "type": "article", "sectionId": "football", "sectionName": "Football", "webPublicationDate": "2012-09-29T22:31:34Z", "webTitle": "Said & Done: Ken Bates on Leeds fans; Sepp's pet hate; plus brothel news", "webUrl": "https://www.theguardian.com/football/2012/sep/29/said-and-done-ken-bates", "apiUrl": "https://content.guardianapis.com/football/2012/sep/29/said-and-done-ken-bates", "isHosted": false, "pillarId": "pillar/sport", "pillarName": "Sport"}, {"id": "football/gallery/2012/sep/29/premierleague-arsenal", "type": "gallery", "sectionId": "football", "sectionName": "Football", "webPublicationDate": "2012-09-29T22:28:58Z", "webTitle": "Premier League: Arsenal v Chelsea - in pictures", "webUrl": "https://www.theguardian.com/football/gallery/2012/sep/29/premierleague-arsenal", "apiUrl": "https://content.guardianapis.com/football/gallery/2012/sep/29/premierleague-arsenal", "isHosted": false, "pillarId": "pillar/sport", "pillarName": "Sport"}, {"id": "football/2012/sep/29/saturday-sundae-andre-villas-boas-tottenham-hotspur", "type": "article", "sectionId": "football", "sectionName": "Football", "webPublicationDate": "2012-09-29T21:51:01Z", "webTitle": "Saturday Sundae: Andr\u00e9 Villas-Boas ends 'Tottenham turmoil' rumours", "webUrl": "https://www.theguardian.com/football/2012/sep/29/saturday-sundae-andre-villas-boas-tottenham-hotspur", "apiUrl": "https://content.guardianapis.com/football/2012/sep/29/saturday-sundae-andre-villas-boas-tottenham-hotspur", "isHosted": false, "pillarId": "pillar/sport", "pillarName": "Sport"}, {"id": "football/2012/sep/29/andre-villas-boas-manchester-united-tottenham", "type": "article", "sectionId": "football", "sectionName": "Football", "webPublicationDate": "2012-09-29T21:38:37Z", "webTitle": "Andr\u00e9 Villas-Boas hails historic Tottenham win over Manchester United", "webUrl": "https://www.theguardian.com/football/2012/sep/29/andre-villas-boas-manchester-united-tottenham", "apiUrl": "https://content.guardianapis.com/football/2012/sep/29/andre-villas-boas-manchester-united-tottenham", "isHosted": false, "pillarId": "pillar/sport", "pillarName": "Sport"}, {"id": "football/2012/sep/29/west-brom-aston-villa-superiority", "type": "article", "sectionId": "football", "sectionName": "Football", "webPublicationDate": "2012-09-29T21:00:02Z", "webTitle": "West Brom enjoy unfamiliar feeling against Aston Villa \u2013 superiority | Stuart James", "webUrl": "https://www.theguardian.com/football/2012/sep/29/west-brom-aston-villa-superiority", "apiUrl": "https://content.guardianapis.com/football/2012/sep/29/west-brom-aston-villa-superiority", "isHosted": false, "pillarId": "pillar/sport", "pillarName": "Sport"}, {"id": "football/blog/2012/sep/29/rio-ferdinand-roy-hodgson-john-terry", "type": "article", "sectionId": "football", "sectionName": "Football", "webPublicationDate": "2012-09-29T20:00:01Z", "webTitle": "Rio Ferdinand still has the power but is cast out by Roy Hodgson's England | Daniel Taylor", "webUrl": "https://www.theguardian.com/football/blog/2012/sep/29/rio-ferdinand-roy-hodgson-john-terry", "apiUrl": "https://content.guardianapis.com/football/blog/2012/sep/29/rio-ferdinand-roy-hodgson-john-terry", "isHosted": false, "pillarId": "pillar/sport", "pillarName": "Sport"}, {"id": "football/2012/sep/29/roberto-di-matteo-chelsea-arsenal", "type": "article", "sectionId": "football", "sectionName": "Football", "webPublicationDate": "2012-09-29T19:34:34Z", "webTitle": "Roberto Di Matteo says Chelsea's belief will grow after win at Arsenal", "webUrl": "https://www.theguardian.com/football/2012/sep/29/roberto-di-matteo-chelsea-arsenal", "apiUrl": "https://content.guardianapis.com/football/2012/sep/29/roberto-di-matteo-chelsea-arsenal", "isHosted": false, "pillarId": "pillar/sport", "pillarName": "Sport"}, {"id": "football/2012/sep/29/aberdeen-hibs-hearts-kilmarnock-dundee-scottish-premier-league", "type": "article", "sectionId": "football", "sectionName": "Football", "webPublicationDate": "2012-09-29T18:49:40Z", "webTitle": "Richie Foran's two goals inspire Inverness to beat Dundee United 4-0", "webUrl": "https://www.theguardian.com/football/2012/sep/29/aberdeen-hibs-hearts-kilmarnock-dundee-scottish-premier-league", "apiUrl": "https://content.guardianapis.com/football/2012/sep/29/aberdeen-hibs-hearts-kilmarnock-dundee-scottish-premier-league", "isHosted": false, "pillarId": "pillar/sport", "pillarName": "Sport"}, {"id": "football/2012/sep/29/manchester-united-tottenham-hotspur-premier-league", "type": "article", "sectionId": "football", "sectionName": "Football", "webPublicationDate": "2012-09-29T18:45:24Z", "webTitle": "Manchester United 2-3 Tottenham Hotspur | Premier League match report", "webUrl": "https://www.theguardian.com/football/2012/sep/29/manchester-united-tottenham-hotspur-premier-league", "apiUrl": "https://content.guardianapis.com/football/2012/sep/29/manchester-united-tottenham-hotspur-premier-league", "isHosted": false, "pillarId": "pillar/sport", "pillarName": "Sport"}, {"id": "football/2012/sep/29/manchester-united-tottenham-hotspur", "type": "article", "sectionId": "football", "sectionName": "Football", "webPublicationDate": "2012-09-29T18:23:00Z", "webTitle": "Manchester United v Tottenham Hotspur - as it happened | Rob Smyth", "webUrl": "https://www.theguardian.com/football/2012/sep/29/manchester-united-tottenham-hotspur", "apiUrl": "https://content.guardianapis.com/football/2012/sep/29/manchester-united-tottenham-hotspur", "isHosted": false, "pillarId": "pillar/sport", "pillarName": "Sport"}, {"id": "football/2012/sep/29/john-terry-handshake-arsenal-chelsea", "type": "article", "sectionId": "football", "sectionName": "Football", "webPublicationDate": "2012-09-29T17:22:16Z", "webTitle": "John Terry's prehistoric language falls on some deaf ears, at least", "webUrl": "https://www.theguardian.com/football/2012/sep/29/john-terry-handshake-arsenal-chelsea", "apiUrl": "https://content.guardianapis.com/football/2012/sep/29/john-terry-handshake-arsenal-chelsea", "isHosted": false, "pillarId": "pillar/sport", "pillarName": "Sport"}, {"id": "football/2012/sep/29/charlton-athletic-blackburn-rovers-championship", "type": "article", "sectionId": "football", "sectionName": "Football", "webPublicationDate": "2012-09-29T17:03:10Z", "webTitle": "Charlton Athletic 1-1 Blackburn Rovers | Championship match report", "webUrl": "https://www.theguardian.com/football/2012/sep/29/charlton-athletic-blackburn-rovers-championship", "apiUrl": "https://content.guardianapis.com/football/2012/sep/29/charlton-athletic-blackburn-rovers-championship", "isHosted": false, "pillarId": "pillar/sport", "pillarName": "Sport"}, {"id": "football/football-league-blog/2012/sep/29/football-league-your-thoughts", "type": "article", "sectionId": "football", "sectionName": "Football", "webPublicationDate": "2012-09-29T16:32:27Z", "webTitle": "Football League: your thoughts", "webUrl": "https://www.theguardian.com/football/football-league-blog/2012/sep/29/football-league-your-thoughts", "apiUrl": "https://content.guardianapis.com/football/football-league-blog/2012/sep/29/football-league-your-thoughts", "isHosted": false, "pillarId": "pillar/sport", "pillarName": "Sport"}, {"id": "football/2012/sep/29/everton-southampton-premier-league", "type": "article", "sectionId": "football", "sectionName": "Football", "webPublicationDate": "2012-09-29T16:15:26Z", "webTitle": "Everton 3-1 Southampton | Premier League match report", "webUrl": "https://www.theguardian.com/football/2012/sep/29/everton-southampton-premier-league", "apiUrl": "https://content.guardianapis.com/football/2012/sep/29/everton-southampton-premier-league", "isHosted": false, "pillarId": "pillar/sport", "pillarName": "Sport"}, {"id": "football/2012/sep/29/fulham-manchester-city-premier-league", "type": "article", "sectionId": "football", "sectionName": "Football", "webPublicationDate": "2012-09-29T16:10:58Z", "webTitle": "Fulham 1-2 Manchester City | Premier League match report", "webUrl": "https://www.theguardian.com/football/2012/sep/29/fulham-manchester-city-premier-league", "apiUrl": "https://content.guardianapis.com/football/2012/sep/29/fulham-manchester-city-premier-league", "isHosted": false, "pillarId": "pillar/sport", "pillarName": "Sport"}, {"id": "football/2012/sep/29/sunderland-wigan-athletic-premier-league", "type": "article", "sectionId": "football", "sectionName": "Football", "webPublicationDate": "2012-09-29T16:10:41Z", "webTitle": "Sunderland 1-0 Wigan Athletic | Premier League match report", "webUrl": "https://www.theguardian.com/football/2012/sep/29/sunderland-wigan-athletic-premier-league", "apiUrl": "https://content.guardianapis.com/football/2012/sep/29/sunderland-wigan-athletic-premier-league", "isHosted": false, "pillarId": "pillar/sport", "pillarName": "Sport"}, {"id": "football/2012/sep/29/reading-newcastle-united-premier-league", "type": "article", "sectionId": "football", "sectionName": "Football", "webPublicationDate": "2012-09-29T16:09:08Z", "webTitle": "Reading 2-2 Newcastle United | Premier League match report", "webUrl": "https://www.theguardian.com/football/2012/sep/29/reading-newcastle-united-premier-league", "apiUrl": "https://content.guardianapis.com/football/2012/sep/29/reading-newcastle-united-premier-league", "isHosted": false, "pillarId": "pillar/sport", "pillarName": "Sport"}, {"id": "football/2012/sep/29/norwich-city-liverpool-premier-league", "type": "article", "sectionId": "football", "sectionName": "Football", "webPublicationDate": "2012-09-29T16:08:46Z", "webTitle": "Norwich City 2-5 Liverpool | Premier League match report", "webUrl": "https://www.theguardian.com/football/2012/sep/29/norwich-city-liverpool-premier-league", "apiUrl": "https://content.guardianapis.com/football/2012/sep/29/norwich-city-liverpool-premier-league", "isHosted": false, "pillarId": "pillar/sport", "pillarName": "Sport"}, {"id": "football/2012/sep/29/arsenal-chelsea-premier-league1", "type": "article", "sectionId": "football", "sectionName": "Football", "webPublicationDate": "2012-09-29T13:53:19Z", "webTitle": "Arsenal 1-2 Chelsea | Premier League match report", "webUrl": "https://www.theguardian.com/football/2012/sep/29/arsenal-chelsea-premier-league1", "apiUrl": "https://content.guardianapis.com/football/2012/sep/29/arsenal-chelsea-premier-league1", "isHosted": false, "pillarId": "pillar/sport", "pillarName": "Sport"}, {"id": "tv-and-radio/2012/sep/29/being-liverpool-tv-review", "type": "article", "sectionId": "tv-and-radio", "sectionName": "Television & radio", "webPublicationDate": "2012-09-29T08:00:02Z", "webTitle": "TV review: Being Liverpool", "webUrl": "https://www.theguardian.com/tv-and-radio/2012/sep/29/being-liverpool-tv-review", "apiUrl": "https://content.guardianapis.com/tv-and-radio/2012/sep/29/being-liverpool-tv-review", "isHosted": false, "pillarId": "pillar/arts", "pillarName": "Arts"}, {"id": "football/2012/sep/28/ferguson-van-persie-rooney-partnership", "type": "article", "sectionId": "football", "sectionName": "Football", "webPublicationDate": "2012-09-28T22:03:03Z", "webTitle": "Sir Alex Ferguson views Van Persie-Rooney partnership with relish", "webUrl": "https://www.theguardian.com/football/2012/sep/28/ferguson-van-persie-rooney-partnership", "apiUrl": "https://content.guardianapis.com/football/2012/sep/28/ferguson-van-persie-rooney-partnership", "isHosted": false, "pillarId": "pillar/sport", "pillarName": "Sport"}, {"id": "football/2012/sep/28/villas-boas-tottenham-jermain-defoe", "type": "article", "sectionId": "football", "sectionName": "Football", "webPublicationDate": "2012-09-28T22:03:03Z", "webTitle": "Andr\u00e9 Villas-Boas praises the impact of Tottenham's Jermain Defoe", "webUrl": "https://www.theguardian.com/football/2012/sep/28/villas-boas-tottenham-jermain-defoe", "apiUrl": "https://content.guardianapis.com/football/2012/sep/28/villas-boas-tottenham-jermain-defoe", "isHosted": false, "pillarId": "pillar/sport", "pillarName": "Sport"}, {"id": "football/2012/sep/28/roberto-mancini-carlos-tevez-fitness", "type": "article", "sectionId": "football", "sectionName": "Football", "webPublicationDate": "2012-09-28T22:03:02Z", "webTitle": "Roberto Mancini says Carlos Tevez lost his fitness during break", "webUrl": "https://www.theguardian.com/football/2012/sep/28/roberto-mancini-carlos-tevez-fitness", "apiUrl": "https://content.guardianapis.com/football/2012/sep/28/roberto-mancini-carlos-tevez-fitness", "isHosted": false, "pillarId": "pillar/sport", "pillarName": "Sport"}, {"id": "football/blog/2012/sep/28/mikel-arteta-arsenal-midfield", "type": "article", "sectionId": "football", "sectionName": "Football", "webPublicationDate": "2012-09-28T22:03:01Z", "webTitle": "Mikel Arteta's footballing sense has revived the Arsenal midfield | Amy Lawrence", "webUrl": "https://www.theguardian.com/football/blog/2012/sep/28/mikel-arteta-arsenal-midfield", "apiUrl": "https://content.guardianapis.com/football/blog/2012/sep/28/mikel-arteta-arsenal-midfield", "isHosted": false, "pillarId": "pillar/sport", "pillarName": "Sport"}, {"id": "football/2012/sep/28/chelsea-john-terry-captain-racism", "type": "article", "sectionId": "football", "sectionName": "Football", "webPublicationDate": "2012-09-28T22:02:36Z", "webTitle": "Chelsea's John Terry continues as captain despite racism ruling", "webUrl": "https://www.theguardian.com/football/2012/sep/28/chelsea-john-terry-captain-racism", "apiUrl": "https://content.guardianapis.com/football/2012/sep/28/chelsea-john-terry-captain-racism", "isHosted": false, "pillarId": "pillar/sport", "pillarName": "Sport"}, {"id": "football/2012/sep/28/gareth-bale-tottenham-hotspur-future", "type": "article", "sectionId": "football", "sectionName": "Football", "webPublicationDate": "2012-09-28T22:02:00Z", "webTitle": "Tottenham's future looks bright \u2026 just give us time, says Gareth Bale", "webUrl": "https://www.theguardian.com/football/2012/sep/28/gareth-bale-tottenham-hotspur-future", "apiUrl": "https://content.guardianapis.com/football/2012/sep/28/gareth-bale-tottenham-hotspur-future", "isHosted": false, "pillarId": "pillar/sport", "pillarName": "Sport"}, {"id": "football/2012/sep/28/alan-pardew-deal-newcastle-everton", "type": "article", "sectionId": "football", "sectionName": "Football", "webPublicationDate": "2012-09-28T21:30:02Z", "webTitle": "Alan Pardew astounded when handed eight-year deal by Newcastle", "webUrl": "https://www.theguardian.com/football/2012/sep/28/alan-pardew-deal-newcastle-everton", "apiUrl": "https://content.guardianapis.com/football/2012/sep/28/alan-pardew-deal-newcastle-everton", "isHosted": false, "pillarId": "pillar/sport", "pillarName": "Sport"}, {"id": "football/2012/sep/28/stewart-downing-brendan-rodgers", "type": "article", "sectionId": "football", "sectionName": "Football", "webPublicationDate": "2012-09-28T21:29:01Z", "webTitle": "Stewart Downing will have to fight for shirt says Brendan Rodgers", "webUrl": "https://www.theguardian.com/football/2012/sep/28/stewart-downing-brendan-rodgers", "apiUrl": "https://content.guardianapis.com/football/2012/sep/28/stewart-downing-brendan-rodgers", "isHosted": false, "pillarId": "pillar/sport", "pillarName": "Sport"}, {"id": "football/2012/sep/28/qpr-west-ham-squad-sheets", "type": "article", "sectionId": "football", "sectionName": "Football", "webPublicationDate": "2012-09-28T19:49:00Z", "webTitle": "Queens Park Rangers v West Ham United: squad sheets", "webUrl": "https://www.theguardian.com/football/2012/sep/28/qpr-west-ham-squad-sheets", "apiUrl": "https://content.guardianapis.com/football/2012/sep/28/qpr-west-ham-squad-sheets", "isHosted": false, "pillarId": "pillar/sport", "pillarName": "Sport"}, {"id": "football/2012/sep/28/steve-kean-resign-blackburn-rovers", "type": "article", "sectionId": "football", "sectionName": "Football", "webPublicationDate": "2012-09-28T18:41:32Z", "webTitle": "Steve Kean 'forced' to resign as Blackburn Rovers manager", "webUrl": "https://www.theguardian.com/football/2012/sep/28/steve-kean-resign-blackburn-rovers", "apiUrl": "https://content.guardianapis.com/football/2012/sep/28/steve-kean-resign-blackburn-rovers", "isHosted": false, "pillarId": "pillar/sport", "pillarName": "Sport"}, {"id": "football/2012/sep/28/stoke-city-swansea-city-squad-sheet", "type": "article", "sectionId": "football", "sectionName": "Football", "webPublicationDate": "2012-09-28T17:42:46Z", "webTitle": "Stoke City v Swansea City: squad sheets", "webUrl": "https://www.theguardian.com/football/2012/sep/28/stoke-city-swansea-city-squad-sheet", "apiUrl": "https://content.guardianapis.com/football/2012/sep/28/stoke-city-swansea-city-squad-sheet", "isHosted": false, "pillarId": "pillar/sport", "pillarName": "Sport"}, {"id": "football/2012/sep/28/newcastle-reading", "type": "article", "sectionId": "football", "sectionName": "Football", "webPublicationDate": "2012-09-28T17:37:04Z", "webTitle": "Reading v Newcastle United: squad sheets", "webUrl": "https://www.theguardian.com/football/2012/sep/28/newcastle-reading", "apiUrl": "https://content.guardianapis.com/football/2012/sep/28/newcastle-reading", "isHosted": false, "pillarId": "pillar/sport", "pillarName": "Sport"}, {"id": "uk/the-northerner/2012/sep/28/liverpool-homeless-football-games", "type": "article", "sectionId": "uk-news", "sectionName": "UK news", "webPublicationDate": "2012-09-28T17:34:39Z", "webTitle": "Players from Liverpool to participate in the World Homeless Games", "webUrl": "https://www.theguardian.com/uk/the-northerner/2012/sep/28/liverpool-homeless-football-games", "apiUrl": "https://content.guardianapis.com/uk/the-northerner/2012/sep/28/liverpool-homeless-football-games", "isHosted": false, "pillarId": "pillar/news", "pillarName": "News"}]}}