{"response": {"status": "ok", "userTier": "developer", "total": 83322, "startIndex": 1, "pageSize": 50, "currentPage": 1, "pages": 1667, "orderBy": "newest", "results": [{"id": "football/blog/2010/oct/01/arsene-wenger-goalkeeping-harry-pearson", "type": "article", "sectionId": "football", "sectionName": "Football", "webPublicationDate": "2010-09-30T23:37:39Z", "webTitle": "Ars\u00e8ne Wenger's goalkeeping blindspot is simply bananas | Harry Pearson", "webUrl": "https://www.theguardian.com/football/blog/2010/oct/01/arsene-wenger-goalkeeping-harry-pearson", "apiUrl": "https://content.guardianapis.com/football/blog/2010/oct/01/arsene-wenger-goalkeeping-harry-pearson", "isHosted": false, "pillarId": "pillar/sport", "pillarName": "Sport"}, {"id": "sport/2010/oct/01/gareth-southgate-small-talk", "type": "article", "sectionId": "sport", "sectionName": "Sport", "webPublicationDate": "2010-09-30T23:12:54Z", "webTitle": "Gareth Southgate | Small Talk", "webUrl": "https://www.theguardian.com/sport/2010/oct/01/gareth-southgate-small-talk", "apiUrl": "https://content.guardianapis.com/sport/2010/oct/01/gareth-southgate-small-talk", "isHosted": false, "pillarId": "pillar/sport", "pillarName": "Sport"}, {"id": "football/2010/oct/01/sir-alex-ferguson-fernando-torres-media", "type": "article", "sectionId": "football", "sectionName": "Football", "webPublicationDate": "2010-09-30T23:11:08Z", "webTitle": "Sir Alex Ferguson cuts communication in row over 'cheat' accusation", "webUrl": "https://www.theguardian.com/football/2010/oct/01/sir-alex-ferguson-fernando-torres-media", "apiUrl": "https://content.guardianapis.com/football/2010/oct/01/sir-alex-ferguson-fernando-torres-media", "isHosted": false, "pillarId": "pillar/sport", "pillarName": "Sport"}, {"id": "football/quiz/2010/oct/01/robin-friday-football-quiz", "type": "article", "sectionId": "global", "sectionName": "Global", "webPublicationDate": "2010-09-30T23:06:00Z", "webTitle": "Football quiz: Robin Friday", "webUrl": "https://www.theguardian.com/football/quiz/2010/oct/01/robin-friday-football-quiz", "apiUrl": "https://content.guardianapis.com/football/quiz/2010/oct/01/robin-friday-football-quiz", "isHosted": false}, {"id": "football/gallery/2010/sep/30/uefa-europa-league-utrecht", "type": "gallery", "sectionId": "football", "sectionName": "Football", "webPublicationDate": "2010-09-30T22:38:21Z", "webTitle": "Europa League: Group stage matchday two", "webUrl": "https://www.theguardian.com/football/gallery/2010/sep/30/uefa-europa-league-utrecht", "apiUrl": "https://content.guardianapis.com/football/gallery/2010/sep/30/uefa-europa-league-utrecht", "isHosted": false, "pillarId": "pillar/sport", "pillarName": "Sport"}, {"id": "football/blog/2010/sep/30/joe-hart-england-manchester-city", "type": "article", "sectionId": "football", "sectionName": "Football", "webPublicationDate": "2010-09-30T21:58:11Z", "webTitle": "Joe Hart shows signs of frailty in front of Fabio Capello | Paul Wilson", "webUrl": "https://www.theguardian.com/football/blog/2010/sep/30/joe-hart-england-manchester-city", "apiUrl": "https://content.guardianapis.com/football/blog/2010/sep/30/joe-hart-england-manchester-city", "isHosted": false, "pillarId": "pillar/sport", "pillarName": "Sport"}, {"id": "football/2010/sep/30/ryan-giggs-wayne-rooney-kevin-keegan", "type": "article", "sectionId": "football", "sectionName": "Football", "webPublicationDate": "2010-09-30T21:31:02Z", "webTitle": "Ryan Giggs leaps to defence of troubled team-mate Wayne Rooney", "webUrl": "https://www.theguardian.com/football/2010/sep/30/ryan-giggs-wayne-rooney-kevin-keegan", "apiUrl": "https://content.guardianapis.com/football/2010/sep/30/ryan-giggs-wayne-rooney-kevin-keegan", "isHosted": false, "pillarId": "pillar/sport", "pillarName": "Sport"}, {"id": "football/2010/sep/30/manchester-city-juventus-europa-league", "type": "article", "sectionId": "football", "sectionName": "Football", "webPublicationDate": "2010-09-30T21:08:27Z", "webTitle": "Manchester City 1-1 Juventus | Europa League match report", "webUrl": "https://www.theguardian.com/football/2010/sep/30/manchester-city-juventus-europa-league", "apiUrl": "https://content.guardianapis.com/football/2010/sep/30/manchester-city-juventus-europa-league", "isHosted": false, "pillarId": "pillar/sport", "pillarName": "Sport"}, {"id": "football/2010/sep/30/utrecht-liverpool-europa-league", "type": "article", "sectionId": "football", "sectionName": "Football", "webPublicationDate": "2010-09-30T21:07:38Z", "webTitle": "Utrecht 0-0 Liverpool | Europa League match report", "webUrl": "https://www.theguardian.com/football/2010/sep/30/utrecht-liverpool-europa-league", "apiUrl": "https://content.guardianapis.com/football/2010/sep/30/utrecht-liverpool-europa-league", "isHosted": false, "pillarId": "pillar/sport", "pillarName": "Sport"}, {"id": "football/2010/sep/30/craig-levein-barry-ferguson-scotland", "type": "article", "sectionId": "football", "sectionName": "Football", "webPublicationDate": "2010-09-30T21:01:02Z", "webTitle": "Scotland manager Craig Levein draws a line under Barry Ferguson saga", "webUrl": "https://www.theguardian.com/football/2010/sep/30/craig-levein-barry-ferguson-scotland", "apiUrl": "https://content.guardianapis.com/football/2010/sep/30/craig-levein-barry-ferguson-scotland", "isHosted": false, "pillarId": "pillar/sport", "pillarName": "Sport"}, {"id": "football/2010/sep/30/rangers-champions-league-bougherra-valencia", "type": "article", "sectionId": "football", "sectionName": "Football", "webPublicationDate": "2010-09-30T21:01:01Z", "webTitle": "Rangers ready for next step in the Champions League, says Madjid Bougherra", "webUrl": "https://www.theguardian.com/football/2010/sep/30/rangers-champions-league-bougherra-valencia", "apiUrl": "https://content.guardianapis.com/football/2010/sep/30/rangers-champions-league-bougherra-valencia", "isHosted": false, "pillarId": "pillar/sport", "pillarName": "Sport"}, {"id": "media/2010/sep/30/al-jazeera-world-cup-jordan", "type": "article", "sectionId": "media", "sectionName": "Media", "webPublicationDate": "2010-09-30T18:53:21Z", "webTitle": "Jordan denies illegal jamming of al-Jazeera World Cup TV", "webUrl": "https://www.theguardian.com/media/2010/sep/30/al-jazeera-world-cup-jordan", "apiUrl": "https://content.guardianapis.com/media/2010/sep/30/al-jazeera-world-cup-jordan", "isHosted": false, "pillarId": "pillar/news", "pillarName": "News"}, {"id": "football/2010/sep/30/manchester-city-juventus-live-europa-league", "type": "article", "sectionId": "football", "sectionName": "Football", "webPublicationDate": "2010-09-30T18:02:30Z", "webTitle": "Manchester City v Juventus - as it happened | Paul Doyle", "webUrl": "https://www.theguardian.com/football/2010/sep/30/manchester-city-juventus-live-europa-league", "apiUrl": "https://content.guardianapis.com/football/2010/sep/30/manchester-city-juventus-live-europa-league", "isHosted": false, "pillarId": "pillar/sport", "pillarName": "Sport"}, {"id": "football/2010/sep/30/rio-ferdinand-united-injury", "type": "article", "sectionId": "football", "sectionName": "Football", "webPublicationDate": "2010-09-30T17:00:00Z", "webTitle": "Manchester United's Rio Ferdinand ready to put injury woes behind him", "webUrl": "https://www.theguardian.com/football/2010/sep/30/rio-ferdinand-united-injury", "apiUrl": "https://content.guardianapis.com/football/2010/sep/30/rio-ferdinand-united-injury", "isHosted": false, "pillarId": "pillar/sport", "pillarName": "Sport"}, {"id": "football/2010/sep/30/utrecht-liverpool-live-europa-league", "type": "article", "sectionId": "football", "sectionName": "Football", "webPublicationDate": "2010-09-30T16:47:54Z", "webTitle": "Utrecht v Liverpool - as it happened | Scott Murray", "webUrl": "https://www.theguardian.com/football/2010/sep/30/utrecht-liverpool-live-europa-league", "apiUrl": "https://content.guardianapis.com/football/2010/sep/30/utrecht-liverpool-live-europa-league", "isHosted": false, "pillarId": "pillar/sport", "pillarName": "Sport"}, {"id": "football/blog/audio/2010/sep/30/football-weekly-extra-champions-league", "type": "audio", "sectionId": "football", "sectionName": "Football", "webPublicationDate": "2010-09-30T16:29:34Z", "webTitle": "Football Weekly Extra: A five-star Champions League display", "webUrl": "https://www.theguardian.com/football/blog/audio/2010/sep/30/football-weekly-extra-champions-league", "apiUrl": "https://content.guardianapis.com/football/blog/audio/2010/sep/30/football-weekly-extra-champions-league", "isHosted": false, "pillarId": "pillar/sport", "pillarName": "Sport"}, {"id": "football/2010/sep/30/the-fiver-europa-champions-league", "type": "article", "sectionId": "football", "sectionName": "Football", "webPublicationDate": "2010-09-30T15:44:21Z", "webTitle": "The Fiver | Triple espresso; and sub-zero blast | Sean Ingle and Paolo Bandini", "webUrl": "https://www.theguardian.com/football/2010/sep/30/the-fiver-europa-champions-league", "apiUrl": "https://content.guardianapis.com/football/2010/sep/30/the-fiver-europa-champions-league", "isHosted": false, "pillarId": "pillar/sport", "pillarName": "Sport"}, {"id": "football/blog/2010/sep/30/manchester-united-hernandez-champions-league", "type": "article", "sectionId": "football", "sectionName": "Football", "webPublicationDate": "2010-09-30T14:35:41Z", "webTitle": "Exquisite Hern\u00e1ndez upholds United's youthful tradition | Paul Hayward", "webUrl": "https://www.theguardian.com/football/blog/2010/sep/30/manchester-united-hernandez-champions-league", "apiUrl": "https://content.guardianapis.com/football/blog/2010/sep/30/manchester-united-hernandez-champions-league", "isHosted": false, "pillarId": "pillar/sport", "pillarName": "Sport"}, {"id": "football/video/2010/sep/30/rangers-bursaspor-champions-league-video", "type": "video", "sectionId": "football", "sectionName": "Football", "webPublicationDate": "2010-09-30T08:48:00Z", "webTitle": "Video: Champions League review: Rangers 1-0 Bursaspor", "webUrl": "https://www.theguardian.com/football/video/2010/sep/30/rangers-bursaspor-champions-league-video", "apiUrl": "https://content.guardianapis.com/football/video/2010/sep/30/rangers-bursaspor-champions-league-video", "isHosted": false, "pillarId": "pillar/sport", "pillarName": "Sport"}, {"id": "football/2010/sep/30/football-transfer-rumours-luis-suarez", "type": "article", "sectionId": "football", "sectionName": "Football", "webPublicationDate": "2010-09-30T08:25:18Z", "webTitle": "Football transfer rumours: Luis Su\u00e1rez to Manchester City?", "webUrl": "https://www.theguardian.com/football/2010/sep/30/football-transfer-rumours-luis-suarez", "apiUrl": "https://content.guardianapis.com/football/2010/sep/30/football-transfer-rumours-luis-suarez", "isHosted": false, "pillarId": "pillar/sport", "pillarName": "Sport"}, {"id": "sport/blog/2010/sep/30/classic-youtube-football-fakers-sports-clips", "type": "article", "sectionId": "sport", "sectionName": "Sport", "webPublicationDate": "2010-09-30T07:00:01Z", "webTitle": "Classic YouTube | Football fakers, ballboy brilliance and women making the game beautiful", "webUrl": "https://www.theguardian.com/sport/blog/2010/sep/30/classic-youtube-football-fakers-sports-clips", "apiUrl": "https://content.guardianapis.com/sport/blog/2010/sep/30/classic-youtube-football-fakers-sports-clips", "isHosted": false, "pillarId": "pillar/sport", "pillarName": "Sport"}, {"id": "football/2010/sep/30/javier-hernandez-sir-alex-ferguson", "type": "article", "sectionId": "football", "sectionName": "Football", "webPublicationDate": "2010-09-30T06:00:09Z", "webTitle": "Javier Hern\u00e1ndez's clinical finish puts United in commanding position", "webUrl": "https://www.theguardian.com/football/2010/sep/30/javier-hernandez-sir-alex-ferguson", "apiUrl": "https://content.guardianapis.com/football/2010/sep/30/javier-hernandez-sir-alex-ferguson", "isHosted": false, "pillarId": "pillar/sport", "pillarName": "Sport"}, {"id": "football/2010/sep/30/harry-redknapp-tottenham-hotspur-twente", "type": "article", "sectionId": "football", "sectionName": "Football", "webPublicationDate": "2010-09-30T06:00:08Z", "webTitle": "Harry Redknapp puts Tottenham's victory down to his team selection", "webUrl": "https://www.theguardian.com/football/2010/sep/30/harry-redknapp-tottenham-hotspur-twente", "apiUrl": "https://content.guardianapis.com/football/2010/sep/30/harry-redknapp-tottenham-hotspur-twente", "isHosted": false, "pillarId": "pillar/sport", "pillarName": "Sport"}, {"id": "football/2010/sep/30/trevor-brooking-fa", "type": "article", "sectionId": "sport", "sectionName": "Sport", "webPublicationDate": "2010-09-29T23:45:00Z", "webTitle": "Football Association takes control of coaching from Trevor Brooking", "webUrl": "https://www.theguardian.com/football/2010/sep/30/trevor-brooking-fa", "apiUrl": "https://content.guardianapis.com/football/2010/sep/30/trevor-brooking-fa", "isHosted": false, "pillarId": "pillar/sport", "pillarName": "Sport"}, {"id": "football/quiz/2010/sep/28/football-quiz-charlie-george", "type": "article", "sectionId": "global", "sectionName": "Global", "webPublicationDate": "2010-09-29T23:10:01Z", "webTitle": "Football quiz: Charlie George", "webUrl": "https://www.theguardian.com/football/quiz/2010/sep/28/football-quiz-charlie-george", "apiUrl": "https://content.guardianapis.com/football/quiz/2010/sep/28/football-quiz-charlie-george", "isHosted": false}, {"id": "football/2010/sep/29/samuel-etoo-inter-werder-bremen", "type": "article", "sectionId": "football", "sectionName": "Football", "webPublicationDate": "2010-09-29T22:28:59Z", "webTitle": "Samuel Eto'o scores hat-trick in Inter's win over Werder Bremen", "webUrl": "https://www.theguardian.com/football/2010/sep/29/samuel-etoo-inter-werder-bremen", "apiUrl": "https://content.guardianapis.com/football/2010/sep/29/samuel-etoo-inter-werder-bremen", "isHosted": false, "pillarId": "pillar/sport", "pillarName": "Sport"}, {"id": "football/2010/sep/29/fa-qpr-millwall-violence", "type": "article", "sectionId": "football", "sectionName": "Football", "webPublicationDate": "2010-09-29T21:35:00Z", "webTitle": "QPR and Millwall face fines as FA gathers evidence after crowd trouble", "webUrl": "https://www.theguardian.com/football/2010/sep/29/fa-qpr-millwall-violence", "apiUrl": "https://content.guardianapis.com/football/2010/sep/29/fa-qpr-millwall-violence", "isHosted": false, "pillarId": "pillar/sport", "pillarName": "Sport"}, {"id": "football/2010/sep/29/john-terry-chelsea-manchester-city", "type": "article", "sectionId": "football", "sectionName": "Football", "webPublicationDate": "2010-09-29T21:30:01Z", "webTitle": "Chelsea captain John Terry believes Manchester City can win the title", "webUrl": "https://www.theguardian.com/football/2010/sep/29/john-terry-chelsea-manchester-city", "apiUrl": "https://content.guardianapis.com/football/2010/sep/29/john-terry-chelsea-manchester-city", "isHosted": false, "pillarId": "pillar/sport", "pillarName": "Sport"}, {"id": "football/2010/sep/29/tottenham-white-hart-lane-champions-league", "type": "article", "sectionId": "football", "sectionName": "Football", "webPublicationDate": "2010-09-29T21:21:07Z", "webTitle": "Tottenham make their mark at White Hart Lane after a shaky start", "webUrl": "https://www.theguardian.com/football/2010/sep/29/tottenham-white-hart-lane-champions-league", "apiUrl": "https://content.guardianapis.com/football/2010/sep/29/tottenham-white-hart-lane-champions-league", "isHosted": false, "pillarId": "pillar/sport", "pillarName": "Sport"}, {"id": "football/gallery/2010/sep/29/champions-league-manchester-united-tottenham", "type": "gallery", "sectionId": "football", "sectionName": "Football", "webPublicationDate": "2010-09-29T21:11:15Z", "webTitle": "Champions League: Manchester United and Tottenham's group games", "webUrl": "https://www.theguardian.com/football/gallery/2010/sep/29/champions-league-manchester-united-tottenham", "apiUrl": "https://content.guardianapis.com/football/gallery/2010/sep/29/champions-league-manchester-united-tottenham", "isHosted": false, "pillarId": "pillar/sport", "pillarName": "Sport"}, {"id": "football/2010/sep/29/rangers-bursaspor-champions-league", "type": "article", "sectionId": "football", "sectionName": "Football", "webPublicationDate": "2010-09-29T20:51:23Z", "webTitle": "Rangers 1-0 Bursaspor | Champions League match report", "webUrl": "https://www.theguardian.com/football/2010/sep/29/rangers-bursaspor-champions-league", "apiUrl": "https://content.guardianapis.com/football/2010/sep/29/rangers-bursaspor-champions-league", "isHosted": false, "pillarId": "pillar/sport", "pillarName": "Sport"}, {"id": "football/2010/sep/29/valencia-manchester-united-champions-league", "type": "article", "sectionId": "football", "sectionName": "Football", "webPublicationDate": "2010-09-29T20:42:08Z", "webTitle": "Valencia 0-1 Manchester United | Champions League report", "webUrl": "https://www.theguardian.com/football/2010/sep/29/valencia-manchester-united-champions-league", "apiUrl": "https://content.guardianapis.com/football/2010/sep/29/valencia-manchester-united-champions-league", "isHosted": false, "pillarId": "pillar/sport", "pillarName": "Sport"}, {"id": "football/2010/sep/29/manchester-city-juventus-europa-league", "type": "article", "sectionId": "football", "sectionName": "Football", "webPublicationDate": "2010-09-29T19:58:44Z", "webTitle": "Manchester City can start a journey against Juventus \u2013 Roberto Mancini", "webUrl": "https://www.theguardian.com/football/2010/sep/29/manchester-city-juventus-europa-league", "apiUrl": "https://content.guardianapis.com/football/2010/sep/29/manchester-city-juventus-europa-league", "isHosted": false, "pillarId": "pillar/sport", "pillarName": "Sport"}, {"id": "football/2010/sep/29/fernando-torres-liverpool-utrecht", "type": "article", "sectionId": "football", "sectionName": "Football", "webPublicationDate": "2010-09-29T19:47:38Z", "webTitle": "Liverpool call upon Fernando Torres for change of fortunes in Utrecht", "webUrl": "https://www.theguardian.com/football/2010/sep/29/fernando-torres-liverpool-utrecht", "apiUrl": "https://content.guardianapis.com/football/2010/sep/29/fernando-torres-liverpool-utrecht", "isHosted": false, "pillarId": "pillar/sport", "pillarName": "Sport"}, {"id": "football/2010/sep/29/lukasz-fabianski-manuel-almunia-arsenal", "type": "article", "sectionId": "football", "sectionName": "Football", "webPublicationDate": "2010-09-29T18:45:37Z", "webTitle": "Lukasz Fabianski ready to unseat Manuel Almunia as Arsenal No1 keeper", "webUrl": "https://www.theguardian.com/football/2010/sep/29/lukasz-fabianski-manuel-almunia-arsenal", "apiUrl": "https://content.guardianapis.com/football/2010/sep/29/lukasz-fabianski-manuel-almunia-arsenal", "isHosted": false, "pillarId": "pillar/sport", "pillarName": "Sport"}, {"id": "media/2010/sep/29/al-jazeera-world-cup-jordan", "type": "article", "sectionId": "media", "sectionName": "Media", "webPublicationDate": "2010-09-29T18:06:37Z", "webTitle": "Al-Jazeera World Cup broadcasts were jammed from Jordan", "webUrl": "https://www.theguardian.com/media/2010/sep/29/al-jazeera-world-cup-jordan", "apiUrl": "https://content.guardianapis.com/media/2010/sep/29/al-jazeera-world-cup-jordan", "isHosted": false, "pillarId": "pillar/news", "pillarName": "News"}, {"id": "football/2010/sep/29/valencia-manchester-united-champions-league-live", "type": "article", "sectionId": "football", "sectionName": "Football", "webPublicationDate": "2010-09-29T17:47:58Z", "webTitle": "Valencia v Manchester United - as it happened | Barney Ronay", "webUrl": "https://www.theguardian.com/football/2010/sep/29/valencia-manchester-united-champions-league-live", "apiUrl": "https://content.guardianapis.com/football/2010/sep/29/valencia-manchester-united-champions-league-live", "isHosted": false, "pillarId": "pillar/sport", "pillarName": "Sport"}, {"id": "football/2010/sep/29/tottenham-hotspur-fc-twente-live", "type": "article", "sectionId": "football", "sectionName": "Football", "webPublicationDate": "2010-09-29T17:45:00Z", "webTitle": "Tottenham Hotspur v FC Twente \u2013  as it happened | Scott Murray", "webUrl": "https://www.theguardian.com/football/2010/sep/29/tottenham-hotspur-fc-twente-live", "apiUrl": "https://content.guardianapis.com/football/2010/sep/29/tottenham-hotspur-fc-twente-live", "isHosted": false, "pillarId": "pillar/sport", "pillarName": "Sport"}, {"id": "football/2010/sep/29/the-fiver-champions-league", "type": "article", "sectionId": "football", "sectionName": "Football", "webPublicationDate": "2010-09-29T15:13:56Z", "webTitle": "The Fiver | Electrifying; and Michael Crawford | Barney Ronay and Tom Lutz", "webUrl": "https://www.theguardian.com/football/2010/sep/29/the-fiver-champions-league", "apiUrl": "https://content.guardianapis.com/football/2010/sep/29/the-fiver-champions-league", "isHosted": false, "pillarId": "pillar/sport", "pillarName": "Sport"}, {"id": "sport/blog/2010/sep/29/football-league-blog", "type": "article", "sectionId": "football", "sectionName": "Football", "webPublicationDate": "2010-09-29T11:24:56Z", "webTitle": "Gary Madine shrugs off brush with law to inspire Carlisle United | Simon Burnton", "webUrl": "https://www.theguardian.com/sport/blog/2010/sep/29/football-league-blog", "apiUrl": "https://content.guardianapis.com/sport/blog/2010/sep/29/football-league-blog", "isHosted": false, "pillarId": "pillar/sport", "pillarName": "Sport"}, {"id": "football/football-league-blog/2010/sep/29/preston-north-end-leeds-united", "type": "article", "sectionId": "football", "sectionName": "Football", "webPublicationDate": "2010-09-29T10:46:35Z", "webTitle": "Preston need more magical nights after suffering 49 years of hurt | Tony Paley", "webUrl": "https://www.theguardian.com/football/football-league-blog/2010/sep/29/preston-north-end-leeds-united", "apiUrl": "https://content.guardianapis.com/football/football-league-blog/2010/sep/29/preston-north-end-leeds-united", "isHosted": false, "pillarId": "pillar/sport", "pillarName": "Sport"}, {"id": "football/blog/2010/sep/29/wayne-rooney-manchester-united", "type": "article", "sectionId": "football", "sectionName": "Football", "webPublicationDate": "2010-09-29T10:21:30Z", "webTitle": "Wayne Rooney may have been changed by celebrity, but all is not lost | Paul Wilson", "webUrl": "https://www.theguardian.com/football/blog/2010/sep/29/wayne-rooney-manchester-united", "apiUrl": "https://content.guardianapis.com/football/blog/2010/sep/29/wayne-rooney-manchester-united", "isHosted": false, "pillarId": "pillar/sport", "pillarName": "Sport"}, {"id": "football/2010/sep/29/football-transfer-rumours-steven-pienaar", "type": "article", "sectionId": "football", "sectionName": "Football", "webPublicationDate": "2010-09-29T08:00:44Z", "webTitle": "Football transfer rumours: Steven Pienaar to Juventus?", "webUrl": "https://www.theguardian.com/football/2010/sep/29/football-transfer-rumours-steven-pienaar", "apiUrl": "https://content.guardianapis.com/football/2010/sep/29/football-transfer-rumours-steven-pienaar", "isHosted": false, "pillarId": "pillar/sport", "pillarName": "Sport"}, {"id": "sport/2010/sep/29/portsmouth-administrator-earnings-digger", "type": "article", "sectionId": "sport", "sectionName": "Sport", "webPublicationDate": "2010-09-28T23:06:01Z", "webTitle": "Portsmouth count the cost of entering administration", "webUrl": "https://www.theguardian.com/sport/2010/sep/29/portsmouth-administrator-earnings-digger", "apiUrl": "https://content.guardianapis.com/sport/2010/sep/29/portsmouth-administrator-earnings-digger", "isHosted": false, "pillarId": "pillar/sport", "pillarName": "Sport"}, {"id": "football/blog/2010/sep/29/carlos-tevez-goal-celebrations", "type": "article", "sectionId": "football", "sectionName": "Football", "webPublicationDate": "2010-09-28T23:06:00Z", "webTitle": "Spontaneity the secret of a memorable goal celebration | Rob Bagchi", "webUrl": "https://www.theguardian.com/football/blog/2010/sep/29/carlos-tevez-goal-celebrations", "apiUrl": "https://content.guardianapis.com/football/blog/2010/sep/29/carlos-tevez-goal-celebrations", "isHosted": false, "pillarId": "pillar/sport", "pillarName": "Sport"}, {"id": "tv-and-radio/2010/sep/29/start-your-own-school", "type": "article", "sectionId": "tv-and-radio", "sectionName": "Television & radio", "webPublicationDate": "2010-09-28T23:05:02Z", "webTitle": "Tonight's TV highlights: Start Your Own School | Live Uefa Champions League | Gossip Girl | Michael Wood's Story of England | Secret Iraq | Mad Men", "webUrl": "https://www.theguardian.com/tv-and-radio/2010/sep/29/start-your-own-school", "apiUrl": "https://content.guardianapis.com/tv-and-radio/2010/sep/29/start-your-own-school", "isHosted": false, "pillarId": "pillar/arts", "pillarName": "Arts"}, {"id": "football/2010/sep/29/ships-named-after-football-clubs", "type": "article", "sectionId": "football", "sectionName": "Football", "webPublicationDate": "2010-09-28T23:05:01Z", "webTitle": "Which football clubs have ships named after them? | The Knowledge", "webUrl": "https://www.theguardian.com/football/2010/sep/29/ships-named-after-football-clubs", "apiUrl": "https://content.guardianapis.com/football/2010/sep/29/ships-named-after-football-clubs", "isHosted": false, "pillarId": "pillar/sport", "pillarName": "Sport"}, {"id": "football/gallery/2010/sep/28/champions-league-chelsea-arsenal", "type": "gallery", "sectionId": "football", "sectionName": "Football", "webPublicationDate": "2010-09-28T22:59:00Z", "webTitle": "Champions League: Chelsea and Arsenal group stage action", "webUrl": "https://www.theguardian.com/football/gallery/2010/sep/28/champions-league-chelsea-arsenal", "apiUrl": "https://content.guardianapis.com/football/gallery/2010/sep/28/champions-league-chelsea-arsenal", "isHosted": false, "pillarId": "pillar/sport", "pillarName": "Sport"}, {"id": "football/2010/sep/28/qpr-millwall-championship", "type": "article", "sectionId": "football", "sectionName": "Football", "webPublicationDate": "2010-09-28T22:13:20Z", "webTitle": "Queens Park Rangers 0-0 Millwall | Championship match report", "webUrl": "https://www.theguardian.com/football/2010/sep/28/qpr-millwall-championship", "apiUrl": "https://content.guardianapis.com/football/2010/sep/28/qpr-millwall-championship", "isHosted": false, "pillarId": "pillar/sport", "pillarName": "Sport"}, {"id": "football/2010/sep/28/real-madrid-bayern-munich-champions-league", "type": "article", "sectionId": "football", "sectionName": "Football", "webPublicationDate": "2010-09-28T21:37:14Z", "webTitle": "Real Madrid and Bayern rewarded with late Champions League winners", "webUrl": "https://www.theguardian.com/football/2010/sep/28/real-madrid-bayern-munich-champions-league", "apiUrl": "https://content.guardianapis.com/football/2010/sep/28/real-madrid-bayern-munich-champions-league", "isHosted": false, "pillarId": "pillar/sport", "pillarName": "Sport"}]}}