{"response": {"status": "ok", "userTier": "developer", "total": 37575, "startIndex": 1, "pageSize": 50, "currentPage": 1, "pages": 752, "orderBy": "newest", "results": [{"id": "environment/2013/sep/30/cothelstone-somerset-village-shelley-daughter", "type": "article", "sectionId": "environment", "sectionName": "Environment", "webPublicationDate": "2013-09-30T20:00:00Z", "webTitle": "Country diary: Cothelstone, Somerset: The Quantock village where Shelley's daughter lived", "webUrl": "https://www.theguardian.com/environment/2013/sep/30/cothelstone-somerset-village-shelley-daughter", "apiUrl": "https://content.guardianapis.com/environment/2013/sep/30/cothelstone-somerset-village-shelley-daughter", "isHosted": false, "pillarId": "pillar/news", "pillarName": "News"}, {"id": "environment/2013/sep/30/bp-gulf-oil-spill-negligence-fines", "type": "article", "sectionId": "environment", "sectionName": "Environment", "webPublicationDate": "2013-09-30T17:08:00Z", "webTitle": "BP may face $18bn in fines for gross negligence as federal trial resumes", "webUrl": "https://www.theguardian.com/environment/2013/sep/30/bp-gulf-oil-spill-negligence-fines", "apiUrl": "https://content.guardianapis.com/environment/2013/sep/30/bp-gulf-oil-spill-negligence-fines", "isHosted": false, "pillarId": "pillar/news", "pillarName": "News"}, {"id": "commentisfree/2013/sep/30/scientists-democracy-dissent-reasonable-boyd", "type": "article", "sectionId": "commentisfree", "sectionName": "Opinion", "webPublicationDate": "2013-09-30T16:30:00Z", "webTitle": "For scientists in a democracy, to dissent is to be reasonable | George Monbiot", "webUrl": "https://www.theguardian.com/commentisfree/2013/sep/30/scientists-democracy-dissent-reasonable-boyd", "apiUrl": "https://content.guardianapis.com/commentisfree/2013/sep/30/scientists-democracy-dissent-reasonable-boyd", "isHosted": false, "pillarId": "pillar/opinion", "pillarName": "Opinion"}, {"id": "environment/2013/sep/30/terrapin-london-regents-canal-uk-breeding", "type": "article", "sectionId": "environment", "sectionName": "Environment", "webPublicationDate": "2013-09-30T15:26:01Z", "webTitle": "Baby terrapin sighting in London suggests possible threat to UK wildlife", "webUrl": "https://www.theguardian.com/environment/2013/sep/30/terrapin-london-regents-canal-uk-breeding", "apiUrl": "https://content.guardianapis.com/environment/2013/sep/30/terrapin-london-regents-canal-uk-breeding", "isHosted": false, "pillarId": "pillar/news", "pillarName": "News"}, {"id": "environment/damian-carrington-blog/2013/sep/30/george-osborne-green-economy-stupid", "type": "article", "sectionId": "environment", "sectionName": "Environment", "webPublicationDate": "2013-09-30T14:23:00Z", "webTitle": "Memo to Osborne: It's the green economy, stupid | Damian Carrington", "webUrl": "https://www.theguardian.com/environment/damian-carrington-blog/2013/sep/30/george-osborne-green-economy-stupid", "apiUrl": "https://content.guardianapis.com/environment/damian-carrington-blog/2013/sep/30/george-osborne-green-economy-stupid", "isHosted": false, "pillarId": "pillar/news", "pillarName": "News"}, {"id": "environment/2013/sep/30/owen-paterson-minister-climate-change-advantages", "type": "article", "sectionId": "environment", "sectionName": "Environment", "webPublicationDate": "2013-09-30T11:51:00Z", "webTitle": "Global warming can have a positive side, says Owen Paterson", "webUrl": "https://www.theguardian.com/environment/2013/sep/30/owen-paterson-minister-climate-change-advantages", "apiUrl": "https://content.guardianapis.com/environment/2013/sep/30/owen-paterson-minister-climate-change-advantages", "isHosted": false, "pillarId": "pillar/news", "pillarName": "News"}, {"id": "environment/blog/2013/sep/30/owen-paterson-science-climate-change", "type": "article", "sectionId": "environment", "sectionName": "Environment", "webPublicationDate": "2013-09-30T11:13:05Z", "webTitle": "Owen Paterson v the science of climate change", "webUrl": "https://www.theguardian.com/environment/blog/2013/sep/30/owen-paterson-science-climate-change", "apiUrl": "https://content.guardianapis.com/environment/blog/2013/sep/30/owen-paterson-science-climate-change", "isHosted": false, "pillarId": "pillar/news", "pillarName": "News"}, {"id": "environment/2013/sep/30/david-attenborough-orangutan-from-extinction", "type": "article", "sectionId": "environment", "sectionName": "Environment", "webPublicationDate": "2013-09-30T08:59:30Z", "webTitle": "David Attenborough supports effort to save orangutan from extinction", "webUrl": "https://www.theguardian.com/environment/2013/sep/30/david-attenborough-orangutan-from-extinction", "apiUrl": "https://content.guardianapis.com/environment/2013/sep/30/david-attenborough-orangutan-from-extinction", "isHosted": false, "pillarId": "pillar/news", "pillarName": "News"}, {"id": "politics/2013/sep/30/chris-grayling-fracking-solution-energy-bills-conservative", "type": "article", "sectionId": "politics", "sectionName": "Politics", "webPublicationDate": "2013-09-30T06:00:18Z", "webTitle": "Chris Grayling: fracking is 'solution' to high energy bills", "webUrl": "https://www.theguardian.com/politics/2013/sep/30/chris-grayling-fracking-solution-energy-bills-conservative", "apiUrl": "https://content.guardianapis.com/politics/2013/sep/30/chris-grayling-fracking-solution-energy-bills-conservative", "isHosted": false, "pillarId": "pillar/news", "pillarName": "News"}, {"id": "world/2013/sep/30/carbon-pricing-labor-albanese-shorten", "type": "article", "sectionId": "australia-news", "sectionName": "Australia news", "webPublicationDate": "2013-09-30T05:11:54Z", "webTitle": "Carbon pricing: Anthony Albanese and Bill Shorten promise to stand firm", "webUrl": "https://www.theguardian.com/world/2013/sep/30/carbon-pricing-labor-albanese-shorten", "apiUrl": "https://content.guardianapis.com/world/2013/sep/30/carbon-pricing-labor-albanese-shorten", "isHosted": false, "pillarId": "pillar/news", "pillarName": "News"}, {"id": "science/audio/2013/sep/30/science-weekly-podcast-compatibility-gene", "type": "audio", "sectionId": "science", "sectionName": "Science", "webPublicationDate": "2013-09-30T04:00:00Z", "webTitle": "Science Weekly podcast: Daniel M Davis on the immune system's wonders", "webUrl": "https://www.theguardian.com/science/audio/2013/sep/30/science-weekly-podcast-compatibility-gene", "apiUrl": "https://content.guardianapis.com/science/audio/2013/sep/30/science-weekly-podcast-compatibility-gene", "isHosted": false, "pillarId": "pillar/news", "pillarName": "News"}, {"id": "environment/2013/sep/29/action-not-egos-climate-change-debate", "type": "article", "sectionId": "environment", "sectionName": "Environment", "webPublicationDate": "2013-09-29T20:00:00Z", "webTitle": "Letters: We need action not egos in climate-change debate", "webUrl": "https://www.theguardian.com/environment/2013/sep/29/action-not-egos-climate-change-debate", "apiUrl": "https://content.guardianapis.com/environment/2013/sep/29/action-not-egos-climate-change-debate", "isHosted": false, "pillarId": "pillar/news", "pillarName": "News"}, {"id": "environment/2013/sep/29/blackwater-carr-norfolk-knopper-galls-walnuts", "type": "article", "sectionId": "environment", "sectionName": "Environment", "webPublicationDate": "2013-09-29T19:59:00Z", "webTitle": "Country diary: Blackwater Carr, Norfolk: The so-called 'knopper' galls are shaped like naked walnuts", "webUrl": "https://www.theguardian.com/environment/2013/sep/29/blackwater-carr-norfolk-knopper-galls-walnuts", "apiUrl": "https://content.guardianapis.com/environment/2013/sep/29/blackwater-carr-norfolk-knopper-galls-walnuts", "isHosted": false, "pillarId": "pillar/news", "pillarName": "News"}, {"id": "environment/shortcuts/2013/sep/29/false-widow-spider-small-deadly-uk", "type": "article", "sectionId": "environment", "sectionName": "Environment", "webPublicationDate": "2013-09-29T19:00:00Z", "webTitle": "False widow spider: small, deadly \u2013 and in the UK", "webUrl": "https://www.theguardian.com/environment/shortcuts/2013/sep/29/false-widow-spider-small-deadly-uk", "apiUrl": "https://content.guardianapis.com/environment/shortcuts/2013/sep/29/false-widow-spider-small-deadly-uk", "isHosted": false, "pillarId": "pillar/news", "pillarName": "News"}, {"id": "environment/2013/sep/29/carbon-budget-talks-urgent-ipcc-lord-stern", "type": "article", "sectionId": "environment", "sectionName": "Environment", "webPublicationDate": "2013-09-29T18:45:39Z", "webTitle": "'Carbon budget' talks urgent, warns Lord Stern", "webUrl": "https://www.theguardian.com/environment/2013/sep/29/carbon-budget-talks-urgent-ipcc-lord-stern", "apiUrl": "https://content.guardianapis.com/environment/2013/sep/29/carbon-budget-talks-urgent-ipcc-lord-stern", "isHosted": false, "pillarId": "pillar/news", "pillarName": "News"}, {"id": "uk-news/shortcuts/2013/sep/29/sodastream-israeli-run-shop-dividing-brighton", "type": "article", "sectionId": "uk-news", "sectionName": "UK news", "webPublicationDate": "2013-09-29T18:00:00Z", "webTitle": "SodaStream: the Israeli-run shop dividing Brighton", "webUrl": "https://www.theguardian.com/uk-news/shortcuts/2013/sep/29/sodastream-israeli-run-shop-dividing-brighton", "apiUrl": "https://content.guardianapis.com/uk-news/shortcuts/2013/sep/29/sodastream-israeli-run-shop-dividing-brighton", "isHosted": false, "pillarId": "pillar/news", "pillarName": "News"}, {"id": "commentisfree/2013/sep/29/britain-energy-bills-tough-with-us", "type": "article", "sectionId": "commentisfree", "sectionName": "Opinion", "webPublicationDate": "2013-09-29T17:15:00Z", "webTitle": "If Britain wants to cut energy bills it must get tough with the United States | Chris Huhne", "webUrl": "https://www.theguardian.com/commentisfree/2013/sep/29/britain-energy-bills-tough-with-us", "apiUrl": "https://content.guardianapis.com/commentisfree/2013/sep/29/britain-energy-bills-tough-with-us", "isHosted": false, "pillarId": "pillar/opinion", "pillarName": "Opinion"}, {"id": "environment/2013/sep/29/bp-court-deepwater-horizon-spill", "type": "article", "sectionId": "environment", "sectionName": "Environment", "webPublicationDate": "2013-09-29T17:05:17Z", "webTitle": "BP returns to court over Deepwater Horizon spill as \u00a311bn in fines loom", "webUrl": "https://www.theguardian.com/environment/2013/sep/29/bp-court-deepwater-horizon-spill", "apiUrl": "https://content.guardianapis.com/environment/2013/sep/29/bp-court-deepwater-horizon-spill", "isHosted": false, "pillarId": "pillar/news", "pillarName": "News"}, {"id": "world/2013/sep/29/monsieur-made-in-france-foreign-goods", "type": "article", "sectionId": "world", "sectionName": "World news", "webPublicationDate": "2013-09-29T13:44:04Z", "webTitle": "Monsieur Made-in-France eschews foreign goods in name of patriotism", "webUrl": "https://www.theguardian.com/world/2013/sep/29/monsieur-made-in-france-foreign-goods", "apiUrl": "https://content.guardianapis.com/world/2013/sep/29/monsieur-made-in-france-foreign-goods", "isHosted": false, "pillarId": "pillar/news", "pillarName": "News"}, {"id": "environment/2013/sep/29/sorted-recycling-rubbish-waste-incinerated", "type": "article", "sectionId": "environment", "sectionName": "Environment", "webPublicationDate": "2013-09-29T07:30:00Z", "webTitle": "How can I make sure my recycling isn't incinerated? | Lucy Siegle", "webUrl": "https://www.theguardian.com/environment/2013/sep/29/sorted-recycling-rubbish-waste-incinerated", "apiUrl": "https://content.guardianapis.com/environment/2013/sep/29/sorted-recycling-rubbish-waste-incinerated", "isHosted": false, "pillarId": "pillar/news", "pillarName": "News"}, {"id": "environment/2013/sep/29/sunpower-programme-climate-change", "type": "article", "sectionId": "environment", "sectionName": "Environment", "webPublicationDate": "2013-09-28T23:06:00Z", "webTitle": "British plan to avert climate disaster using sun power", "webUrl": "https://www.theguardian.com/environment/2013/sep/29/sunpower-programme-climate-change", "apiUrl": "https://content.guardianapis.com/environment/2013/sep/29/sunpower-programme-climate-change", "isHosted": false, "pillarId": "pillar/news", "pillarName": "News"}, {"id": "theobserver/2013/sep/29/climate-change-sceptics-renewable-energy", "type": "article", "sectionId": "news", "sectionName": "News", "webPublicationDate": "2013-09-28T23:05:28Z", "webTitle": "Global warming deniers are foolish to put their faith in God | The big issue", "webUrl": "https://www.theguardian.com/theobserver/2013/sep/29/climate-change-sceptics-renewable-energy", "apiUrl": "https://content.guardianapis.com/theobserver/2013/sep/29/climate-change-sceptics-renewable-energy", "isHosted": false, "pillarId": "pillar/news", "pillarName": "News"}, {"id": "uk-news/2013/sep/28/scrapping-hs2-disaster-warns-transport-secretary", "type": "article", "sectionId": "uk-news", "sectionName": "UK news", "webPublicationDate": "2013-09-28T21:06:56Z", "webTitle": "Scrapping HS2 rail link would be a disaster, warns transport secretary", "webUrl": "https://www.theguardian.com/uk-news/2013/sep/28/scrapping-hs2-disaster-warns-transport-secretary", "apiUrl": "https://content.guardianapis.com/uk-news/2013/sep/28/scrapping-hs2-disaster-warns-transport-secretary", "isHosted": false, "pillarId": "pillar/news", "pillarName": "News"}, {"id": "environment/2013/sep/28/how-spain-saved-the-iberian-lynx", "type": "article", "sectionId": "environment", "sectionName": "Environment", "webPublicationDate": "2013-09-28T20:30:30Z", "webTitle": "How Spain saved the lynx", "webUrl": "https://www.theguardian.com/environment/2013/sep/28/how-spain-saved-the-iberian-lynx", "apiUrl": "https://content.guardianapis.com/environment/2013/sep/28/how-spain-saved-the-iberian-lynx", "isHosted": false, "pillarId": "pillar/news", "pillarName": "News"}, {"id": "world/2013/sep/28/arizona-wildfires-report-radio-communication", "type": "article", "sectionId": "us-news", "sectionName": "US news", "webPublicationDate": "2013-09-28T19:48:00Z", "webTitle": "Arizona wildfire report cites poor radio communication in 19 firefighter deaths", "webUrl": "https://www.theguardian.com/world/2013/sep/28/arizona-wildfires-report-radio-communication", "apiUrl": "https://content.guardianapis.com/world/2013/sep/28/arizona-wildfires-report-radio-communication", "isHosted": false, "pillarId": "pillar/news", "pillarName": "News"}, {"id": "environment/2013/sep/29/scottish-wildcat-extinction-by-stealth", "type": "article", "sectionId": "environment", "sectionName": "Environment", "webPublicationDate": "2013-09-28T19:43:11Z", "webTitle": "Extinction by stealth: how long can the Scottish wildcat survive?", "webUrl": "https://www.theguardian.com/environment/2013/sep/29/scottish-wildcat-extinction-by-stealth", "apiUrl": "https://content.guardianapis.com/environment/2013/sep/29/scottish-wildcat-extinction-by-stealth", "isHosted": false, "pillarId": "pillar/news", "pillarName": "News"}, {"id": "commentisfree/2013/sep/28/observer-editorial-climate-change-government-must-act", "type": "article", "sectionId": "commentisfree", "sectionName": "Opinion", "webPublicationDate": "2013-09-28T18:30:00Z", "webTitle": "No more denial. Time to act on climate change  | Observer editorial", "webUrl": "https://www.theguardian.com/commentisfree/2013/sep/28/observer-editorial-climate-change-government-must-act", "apiUrl": "https://content.guardianapis.com/commentisfree/2013/sep/28/observer-editorial-climate-change-government-must-act", "isHosted": false, "pillarId": "pillar/opinion", "pillarName": "Opinion"}, {"id": "commentisfree/2013/sep/28/ipcc-climate-change-deniers", "type": "article", "sectionId": "commentisfree", "sectionName": "Opinion", "webPublicationDate": "2013-09-28T15:36:00Z", "webTitle": "The new IPCC climate change report makes deniers overheat | Michael Mann", "webUrl": "https://www.theguardian.com/commentisfree/2013/sep/28/ipcc-climate-change-deniers", "apiUrl": "https://content.guardianapis.com/commentisfree/2013/sep/28/ipcc-climate-change-deniers", "isHosted": false, "pillarId": "pillar/opinion", "pillarName": "Opinion"}, {"id": "environment/2013/sep/28/climate-change-energy-bills-george-osborne", "type": "article", "sectionId": "environment", "sectionName": "Environment", "webPublicationDate": "2013-09-28T10:10:28Z", "webTitle": "I don't want UK to be at forefront of tackling climate change, says Osborne", "webUrl": "https://www.theguardian.com/environment/2013/sep/28/climate-change-energy-bills-george-osborne", "apiUrl": "https://content.guardianapis.com/environment/2013/sep/28/climate-change-energy-bills-george-osborne", "isHosted": false, "pillarId": "pillar/news", "pillarName": "News"}, {"id": "commentisfree/2013/sep/28/bangalore-changed-so-have-i-ian-jack", "type": "article", "sectionId": "commentisfree", "sectionName": "Opinion", "webPublicationDate": "2013-09-28T07:30:01Z", "webTitle": "The prospect of travelling used to excite me. Now it evokes a moderate dread \u2026 | Ian Jack", "webUrl": "https://www.theguardian.com/commentisfree/2013/sep/28/bangalore-changed-so-have-i-ian-jack", "apiUrl": "https://content.guardianapis.com/commentisfree/2013/sep/28/bangalore-changed-so-have-i-ian-jack", "isHosted": false, "pillarId": "pillar/opinion", "pillarName": "Opinion"}, {"id": "money/2013/sep/28/solar-investment-high-dividend-yields", "type": "article", "sectionId": "money", "sectionName": "Money", "webPublicationDate": "2013-09-28T06:00:00Z", "webTitle": "Investing: does solar offer a bright future \u2026 or burned fingers?", "webUrl": "https://www.theguardian.com/money/2013/sep/28/solar-investment-high-dividend-yields", "apiUrl": "https://content.guardianapis.com/money/2013/sep/28/solar-investment-high-dividend-yields", "isHosted": false, "pillarId": "pillar/lifestyle", "pillarName": "Lifestyle"}, {"id": "commentisfree/cartoon/2013/sep/27/ipcc-global-climate-talks", "type": "picture", "sectionId": "commentisfree", "sectionName": "Opinion", "webPublicationDate": "2013-09-27T21:19:20Z", "webTitle": "Martin Rowson on the IPCC report", "webUrl": "https://www.theguardian.com/commentisfree/cartoon/2013/sep/27/ipcc-global-climate-talks", "apiUrl": "https://content.guardianapis.com/commentisfree/cartoon/2013/sep/27/ipcc-global-climate-talks", "isHosted": false, "pillarId": "pillar/opinion", "pillarName": "Opinion"}, {"id": "science/2013/sep/27/plantwatch-beech-mast-nuts-berries-foraging-pannage", "type": "article", "sectionId": "science", "sectionName": "Science", "webPublicationDate": "2013-09-27T20:30:05Z", "webTitle": "Plantwatch: Rich pickings for foragers", "webUrl": "https://www.theguardian.com/science/2013/sep/27/plantwatch-beech-mast-nuts-berries-foraging-pannage", "apiUrl": "https://content.guardianapis.com/science/2013/sep/27/plantwatch-beech-mast-nuts-berries-foraging-pannage", "isHosted": false, "pillarId": "pillar/news", "pillarName": "News"}, {"id": "environment/2013/sep/27/new-forest-marsh-gentians-colourful-promise", "type": "article", "sectionId": "environment", "sectionName": "Environment", "webPublicationDate": "2013-09-27T20:00:12Z", "webTitle": "Country diary: New Forest: Marsh gentians' colourful promise", "webUrl": "https://www.theguardian.com/environment/2013/sep/27/new-forest-marsh-gentians-colourful-promise", "apiUrl": "https://content.guardianapis.com/environment/2013/sep/27/new-forest-marsh-gentians-colourful-promise", "isHosted": false, "pillarId": "pillar/news", "pillarName": "News"}, {"id": "environment/georgemonbiot/2013/sep/27/ipcc-climate-change-report-global-warming", "type": "article", "sectionId": "environment", "sectionName": "Environment", "webPublicationDate": "2013-09-27T19:07:07Z", "webTitle": "Climate change? Try catastrophic climate breakdown", "webUrl": "https://www.theguardian.com/environment/georgemonbiot/2013/sep/27/ipcc-climate-change-report-global-warming", "apiUrl": "https://content.guardianapis.com/environment/georgemonbiot/2013/sep/27/ipcc-climate-change-report-global-warming", "isHosted": false, "pillarId": "pillar/news", "pillarName": "News"}, {"id": "environment/2013/sep/27/ipcc-world-dangerous-climate-change", "type": "article", "sectionId": "environment", "sectionName": "Environment", "webPublicationDate": "2013-09-27T18:36:36Z", "webTitle": "IPCC: 30 years to climate calamity if we carry on blowing the carbon budget", "webUrl": "https://www.theguardian.com/environment/2013/sep/27/ipcc-world-dangerous-climate-change", "apiUrl": "https://content.guardianapis.com/environment/2013/sep/27/ipcc-world-dangerous-climate-change", "isHosted": false, "pillarId": "pillar/news", "pillarName": "News"}, {"id": "global-development/2013/sep/27/ipcc-climate-change-world-farmers", "type": "article", "sectionId": "global-development", "sectionName": "Global development", "webPublicationDate": "2013-09-27T16:53:04Z", "webTitle": "Is the IPCC right on climate change? Just ask the world's farmers | John Vidal", "webUrl": "https://www.theguardian.com/global-development/2013/sep/27/ipcc-climate-change-world-farmers", "apiUrl": "https://content.guardianapis.com/global-development/2013/sep/27/ipcc-climate-change-world-farmers", "isHosted": false, "pillarId": "pillar/news", "pillarName": "News"}, {"id": "environment/2013/sep/27/ipcc-climate-report-digested-read", "type": "article", "sectionId": "environment", "sectionName": "Environment", "webPublicationDate": "2013-09-27T16:29:59Z", "webTitle": "IPCC climate report: the digested read", "webUrl": "https://www.theguardian.com/environment/2013/sep/27/ipcc-climate-report-digested-read", "apiUrl": "https://content.guardianapis.com/environment/2013/sep/27/ipcc-climate-report-digested-read", "isHosted": false, "pillarId": "pillar/news", "pillarName": "News"}, {"id": "business/2013/sep/27/sse-pull-out-wave-tidal-power", "type": "article", "sectionId": "business", "sectionName": "Business", "webPublicationDate": "2013-09-27T16:19:00Z", "webTitle": "SSE in talks to scale back on wave and tidal power projects", "webUrl": "https://www.theguardian.com/business/2013/sep/27/sse-pull-out-wave-tidal-power", "apiUrl": "https://content.guardianapis.com/business/2013/sep/27/sse-pull-out-wave-tidal-power", "isHosted": false, "pillarId": "pillar/news", "pillarName": "News"}, {"id": "environment/2013/sep/27/ipcc-climate-change-report-ar5-live-coverage", "type": "liveblog", "sectionId": "environment", "sectionName": "Environment", "webPublicationDate": "2013-09-27T16:01:21Z", "webTitle": "Climate change report: live reaction to IPCC conclusions", "webUrl": "https://www.theguardian.com/environment/2013/sep/27/ipcc-climate-change-report-ar5-live-coverage", "apiUrl": "https://content.guardianapis.com/environment/2013/sep/27/ipcc-climate-change-report-ar5-live-coverage", "isHosted": false, "pillarId": "pillar/news", "pillarName": "News"}, {"id": "sustainable-business/blog/vital-business-act-ipcc-warnings", "type": "article", "sectionId": "sustainable-business", "sectionName": "Guardian Sustainable Business", "webPublicationDate": "2013-09-27T14:35:00Z", "webTitle": "It's vital that business acts on the IPCC's warnings", "webUrl": "https://www.theguardian.com/sustainable-business/blog/vital-business-act-ipcc-warnings", "apiUrl": "https://content.guardianapis.com/sustainable-business/blog/vital-business-act-ipcc-warnings", "isHosted": false}, {"id": "environment/2013/sep/27/climate-change-uk-weather-ipcc", "type": "article", "sectionId": "environment", "sectionName": "Environment", "webPublicationDate": "2013-09-27T14:29:26Z", "webTitle": "Climate change likely to turn UK's weather more extreme", "webUrl": "https://www.theguardian.com/environment/2013/sep/27/climate-change-uk-weather-ipcc", "apiUrl": "https://content.guardianapis.com/environment/2013/sep/27/climate-change-uk-weather-ipcc", "isHosted": false, "pillarId": "pillar/news", "pillarName": "News"}, {"id": "environment/damian-carrington-blog/2013/sep/27/global-warming-pause-mirage-ipcc", "type": "article", "sectionId": "environment", "sectionName": "Environment", "webPublicationDate": "2013-09-27T14:14:47Z", "webTitle": "Global warming pause is a mirage: the science is clear and the threat real | Damian Carrington", "webUrl": "https://www.theguardian.com/environment/damian-carrington-blog/2013/sep/27/global-warming-pause-mirage-ipcc", "apiUrl": "https://content.guardianapis.com/environment/damian-carrington-blog/2013/sep/27/global-warming-pause-mirage-ipcc", "isHosted": false, "pillarId": "pillar/news", "pillarName": "News"}, {"id": "environment/gallery/2013/sep/27/week-in-wildlife-in-pictures", "type": "gallery", "sectionId": "environment", "sectionName": "Environment", "webPublicationDate": "2013-09-27T14:00:02Z", "webTitle": "The week in wildlife \u2013 in pictures", "webUrl": "https://www.theguardian.com/environment/gallery/2013/sep/27/week-in-wildlife-in-pictures", "apiUrl": "https://content.guardianapis.com/environment/gallery/2013/sep/27/week-in-wildlife-in-pictures", "isHosted": false, "pillarId": "pillar/news", "pillarName": "News"}, {"id": "environment/video/2013/sep/27/ippc-presents-report-climate-science-video", "type": "video", "sectionId": "environment", "sectionName": "Environment", "webPublicationDate": "2013-09-27T13:59:00Z", "webTitle": "IPCC presents report on climate science - video", "webUrl": "https://www.theguardian.com/environment/video/2013/sep/27/ippc-presents-report-climate-science-video", "apiUrl": "https://content.guardianapis.com/environment/video/2013/sep/27/ippc-presents-report-climate-science-video", "isHosted": false, "pillarId": "pillar/news", "pillarName": "News"}, {"id": "environment/2013/sep/27/ipcc-climate-report-six-things-learned", "type": "article", "sectionId": "environment", "sectionName": "Environment", "webPublicationDate": "2013-09-27T12:58:38Z", "webTitle": "IPCC climate report: six things we've learned", "webUrl": "https://www.theguardian.com/environment/2013/sep/27/ipcc-climate-report-six-things-learned", "apiUrl": "https://content.guardianapis.com/environment/2013/sep/27/ipcc-climate-report-six-things-learned", "isHosted": false, "pillarId": "pillar/news", "pillarName": "News"}, {"id": "environment/2013/sep/27/ipcc-climate-report-un-secretary-general", "type": "article", "sectionId": "environment", "sectionName": "Environment", "webPublicationDate": "2013-09-27T10:48:29Z", "webTitle": "IPCC climate report: human impact is 'unequivocal'", "webUrl": "https://www.theguardian.com/environment/2013/sep/27/ipcc-climate-report-un-secretary-general", "apiUrl": "https://content.guardianapis.com/environment/2013/sep/27/ipcc-climate-report-un-secretary-general", "isHosted": false, "pillarId": "pillar/news", "pillarName": "News"}, {"id": "environment/world-on-a-plate/2013/sep/27/environment-food-ipcc-emissions-greenhouse-gas-livestock-vegetarian-meat", "type": "article", "sectionId": "environment", "sectionName": "Environment", "webPublicationDate": "2013-09-27T10:25:00Z", "webTitle": "Do the UN's new numbers for livestock emissions kill the argument for vegetarianism?", "webUrl": "https://www.theguardian.com/environment/world-on-a-plate/2013/sep/27/environment-food-ipcc-emissions-greenhouse-gas-livestock-vegetarian-meat", "apiUrl": "https://content.guardianapis.com/environment/world-on-a-plate/2013/sep/27/environment-food-ipcc-emissions-greenhouse-gas-livestock-vegetarian-meat", "isHosted": false, "pillarId": "pillar/news", "pillarName": "News"}, {"id": "books/2013/sep/27/badgerlands-patrick-barkham-review", "type": "article", "sectionId": "books", "sectionName": "Books", "webPublicationDate": "2013-09-27T09:00:00Z", "webTitle": "Badgerlands: The Twilight World of Britain's Most Enigmatic Animal by Patrick Barkham \u2013 review", "webUrl": "https://www.theguardian.com/books/2013/sep/27/badgerlands-patrick-barkham-review", "apiUrl": "https://content.guardianapis.com/books/2013/sep/27/badgerlands-patrick-barkham-review", "isHosted": false, "pillarId": "pillar/arts", "pillarName": "Arts"}, {"id": "commentisfree/2013/sep/27/climate-change-ed-miliband-energy-freeze", "type": "article", "sectionId": "commentisfree", "sectionName": "Opinion", "webPublicationDate": "2013-09-27T08:35:09Z", "webTitle": "We can't wash our hands of climate change. So let's roll up our sleeves  | Tim Farron", "webUrl": "https://www.theguardian.com/commentisfree/2013/sep/27/climate-change-ed-miliband-energy-freeze", "apiUrl": "https://content.guardianapis.com/commentisfree/2013/sep/27/climate-change-ed-miliband-energy-freeze", "isHosted": false, "pillarId": "pillar/opinion", "pillarName": "Opinion"}]}}