{"response": {"status": "ok", "userTier": "developer", "total": 26910, "startIndex": 1, "pageSize": 50, "currentPage": 1, "pages": 539, "orderBy": "newest", "results": [{"id": "environment/blog/2010/sep/30/10-10-no-pressure-film", "type": "article", "sectionId": "environment", "sectionName": "Environment", "webPublicationDate": "2010-09-30T18:31:57Z", "webTitle": "There will be blood \u2013 watch exclusive of 10:10 campaign's 'No Pressure' film", "webUrl": "https://www.theguardian.com/environment/blog/2010/sep/30/10-10-no-pressure-film", "apiUrl": "https://content.guardianapis.com/environment/blog/2010/sep/30/10-10-no-pressure-film", "isHosted": false, "pillarId": "pillar/news", "pillarName": "News"}, {"id": "environment/2010/sep/30/uk-renewable-energy-production-drops", "type": "article", "sectionId": "environment", "sectionName": "Environment", "webPublicationDate": "2010-09-30T17:08:02Z", "webTitle": "UK renewable energy production falls for second time in 2010", "webUrl": "https://www.theguardian.com/environment/2010/sep/30/uk-renewable-energy-production-drops", "apiUrl": "https://content.guardianapis.com/environment/2010/sep/30/uk-renewable-energy-production-drops", "isHosted": false, "pillarId": "pillar/news", "pillarName": "News"}, {"id": "environment/2010/sep/30/chris-packham-bbc-gulls-scilly", "type": "article", "sectionId": "environment", "sectionName": "Environment", "webPublicationDate": "2010-09-30T13:20:34Z", "webTitle": "Police step in as BBC wildlife presenter feeds gulls", "webUrl": "https://www.theguardian.com/environment/2010/sep/30/chris-packham-bbc-gulls-scilly", "apiUrl": "https://content.guardianapis.com/environment/2010/sep/30/chris-packham-bbc-gulls-scilly", "isHosted": false, "pillarId": "pillar/news", "pillarName": "News"}, {"id": "environment/gallery/2010/sep/24/extreme-insects-richard-jones", "type": "gallery", "sectionId": "environment", "sectionName": "Environment", "webPublicationDate": "2010-09-30T12:45:39Z", "webTitle": "Extreme Insects by Richard Jones", "webUrl": "https://www.theguardian.com/environment/gallery/2010/sep/24/extreme-insects-richard-jones", "apiUrl": "https://content.guardianapis.com/environment/gallery/2010/sep/24/extreme-insects-richard-jones", "isHosted": false, "pillarId": "pillar/news", "pillarName": "News"}, {"id": "environment/2010/sep/30/prop-23-battle-heats-up", "type": "article", "sectionId": "environment", "sectionName": "Environment", "webPublicationDate": "2010-09-30T11:33:55Z", "webTitle": "Prop 23 battle heats up in California as Schwarzenegger comes out fighting", "webUrl": "https://www.theguardian.com/environment/2010/sep/30/prop-23-battle-heats-up", "apiUrl": "https://content.guardianapis.com/environment/2010/sep/30/prop-23-battle-heats-up", "isHosted": false, "pillarId": "pillar/news", "pillarName": "News"}, {"id": "environment/2010/sep/30/free-solar-panels-not-bargain", "type": "article", "sectionId": "environment", "sectionName": "Environment", "webPublicationDate": "2010-09-30T06:00:02Z", "webTitle": "Free solar panels may not be the bargain that they appear to be", "webUrl": "https://www.theguardian.com/environment/2010/sep/30/free-solar-panels-not-bargain", "apiUrl": "https://content.guardianapis.com/environment/2010/sep/30/free-solar-panels-not-bargain", "isHosted": false, "pillarId": "pillar/news", "pillarName": "News"}, {"id": "environment/2010/sep/30/country-diary-allen-banks-northumberland", "type": "article", "sectionId": "environment", "sectionName": "Environment", "webPublicationDate": "2010-09-29T23:10:01Z", "webTitle": "Country diary: Allen Banks, Northumberland", "webUrl": "https://www.theguardian.com/environment/2010/sep/30/country-diary-allen-banks-northumberland", "apiUrl": "https://content.guardianapis.com/environment/2010/sep/30/country-diary-allen-banks-northumberland", "isHosted": false, "pillarId": "pillar/news", "pillarName": "News"}, {"id": "law/2010/sep/30/slavery-trawlers-europe", "type": "article", "sectionId": "law", "sectionName": "Law", "webPublicationDate": "2010-09-29T23:01:07Z", "webTitle": "'Slavery' uncovered on trawlers fishing for Europe", "webUrl": "https://www.theguardian.com/law/2010/sep/30/slavery-trawlers-europe", "apiUrl": "https://content.guardianapis.com/law/2010/sep/30/slavery-trawlers-europe", "isHosted": false, "pillarId": "pillar/news", "pillarName": "News"}, {"id": "environment/2010/sep/30/royal-society-climate-change-guide", "type": "article", "sectionId": "environment", "sectionName": "Environment", "webPublicationDate": "2010-09-29T23:01:04Z", "webTitle": "Royal Society's climate change guide cuts confusion out of the hard science | Duncan Clark", "webUrl": "https://www.theguardian.com/environment/2010/sep/30/royal-society-climate-change-guide", "apiUrl": "https://content.guardianapis.com/environment/2010/sep/30/royal-society-climate-change-guide", "isHosted": false, "pillarId": "pillar/news", "pillarName": "News"}, {"id": "environment/video/2010/sep/29/pirate-fishing-ship-treat-staff", "type": "video", "sectionId": "environment", "sectionName": "Environment", "webPublicationDate": "2010-09-29T22:01:00Z", "webTitle": "Video: Fishing ship treat staff 'worse than the fish they catch'", "webUrl": "https://www.theguardian.com/environment/video/2010/sep/29/pirate-fishing-ship-treat-staff", "apiUrl": "https://content.guardianapis.com/environment/video/2010/sep/29/pirate-fishing-ship-treat-staff", "isHosted": false, "pillarId": "pillar/news", "pillarName": "News"}, {"id": "business/2010/sep/29/bp-safety-shake-up-bob-dudley", "type": "article", "sectionId": "business", "sectionName": "Business", "webPublicationDate": "2010-09-29T19:31:51Z", "webTitle": "BP's head of production quits in safety shake-up", "webUrl": "https://www.theguardian.com/business/2010/sep/29/bp-safety-shake-up-bob-dudley", "apiUrl": "https://content.guardianapis.com/business/2010/sep/29/bp-safety-shake-up-bob-dudley", "isHosted": false, "pillarId": "pillar/news", "pillarName": "News"}, {"id": "environment/picture/2010/sep/29/water-pollution1", "type": "picture", "sectionId": "environment", "sectionName": "Environment", "webPublicationDate": "2010-09-29T17:00:00Z", "webTitle": "How biodiversity is threatened across the world's rivers", "webUrl": "https://www.theguardian.com/environment/picture/2010/sep/29/water-pollution1", "apiUrl": "https://content.guardianapis.com/environment/picture/2010/sep/29/water-pollution1", "isHosted": false, "pillarId": "pillar/news", "pillarName": "News"}, {"id": "environment/picture/2010/sep/29/water-pollution", "type": "picture", "sectionId": "environment", "sectionName": "Environment", "webPublicationDate": "2010-09-29T17:00:00Z", "webTitle": "How human water security is threatened across the world's rivers", "webUrl": "https://www.theguardian.com/environment/picture/2010/sep/29/water-pollution", "apiUrl": "https://content.guardianapis.com/environment/picture/2010/sep/29/water-pollution", "isHosted": false, "pillarId": "pillar/news", "pillarName": "News"}, {"id": "environment/2010/sep/29/human-impact-world-rivers-water-security", "type": "article", "sectionId": "environment", "sectionName": "Environment", "webPublicationDate": "2010-09-29T16:53:27Z", "webTitle": "Human impact on world's rivers 'threatens water security of 5 billion'", "webUrl": "https://www.theguardian.com/environment/2010/sep/29/human-impact-world-rivers-water-security", "apiUrl": "https://content.guardianapis.com/environment/2010/sep/29/human-impact-world-rivers-water-security", "isHosted": false, "pillarId": "pillar/news", "pillarName": "News"}, {"id": "environment/2010/sep/29/biodiversity-international-rescue-plan", "type": "article", "sectionId": "environment", "sectionName": "Environment", "webPublicationDate": "2010-09-29T13:42:50Z", "webTitle": "Biodiversity loss needs an internationally agreed rescue plan | Robert Bloomfield", "webUrl": "https://www.theguardian.com/environment/2010/sep/29/biodiversity-international-rescue-plan", "apiUrl": "https://content.guardianapis.com/environment/2010/sep/29/biodiversity-international-rescue-plan", "isHosted": false, "pillarId": "pillar/news", "pillarName": "News"}, {"id": "global-development/poverty-matters/2010/sep/29/gates-foundation-gm-monsanto", "type": "article", "sectionId": "global-development", "sectionName": "Global development", "webPublicationDate": "2010-09-29T12:27:03Z", "webTitle": "Why is the Gates foundation investing in GM giant Monsanto? | John Vidal", "webUrl": "https://www.theguardian.com/global-development/poverty-matters/2010/sep/29/gates-foundation-gm-monsanto", "apiUrl": "https://content.guardianapis.com/global-development/poverty-matters/2010/sep/29/gates-foundation-gm-monsanto", "isHosted": false, "pillarId": "pillar/news", "pillarName": "News"}, {"id": "environment/2010/sep/29/ice-land-gm-salmon-dung-studies", "type": "article", "sectionId": "environment", "sectionName": "Environment", "webPublicationDate": "2010-09-29T10:37:24Z", "webTitle": "Green light: Ice Land theme park, GM salmon and dung studies", "webUrl": "https://www.theguardian.com/environment/2010/sep/29/ice-land-gm-salmon-dung-studies", "apiUrl": "https://content.guardianapis.com/environment/2010/sep/29/ice-land-gm-salmon-dung-studies", "isHosted": false, "pillarId": "pillar/news", "pillarName": "News"}, {"id": "environment/blog/2010/sep/28/tar-sands-ethical-oil-conservative", "type": "article", "sectionId": "environment", "sectionName": "Environment", "webPublicationDate": "2010-09-29T10:01:20Z", "webTitle": "Alberta's tar sands are a source of 'ethical oil', claims conservative activist", "webUrl": "https://www.theguardian.com/environment/blog/2010/sep/28/tar-sands-ethical-oil-conservative", "apiUrl": "https://content.guardianapis.com/environment/blog/2010/sep/28/tar-sands-ethical-oil-conservative", "isHosted": false, "pillarId": "pillar/news", "pillarName": "News"}, {"id": "environment/2010/sep/29/plant-species-face-extinction", "type": "article", "sectionId": "environment", "sectionName": "Environment", "webPublicationDate": "2010-09-29T04:59:00Z", "webTitle": "One in five plant species faces extinction", "webUrl": "https://www.theguardian.com/environment/2010/sep/29/plant-species-face-extinction", "apiUrl": "https://content.guardianapis.com/environment/2010/sep/29/plant-species-face-extinction", "isHosted": false, "pillarId": "pillar/news", "pillarName": "News"}, {"id": "environment/2010/sep/29/country-diary-cornwall", "type": "article", "sectionId": "environment", "sectionName": "Environment", "webPublicationDate": "2010-09-28T23:05:11Z", "webTitle": "Country diary: Cornwall", "webUrl": "https://www.theguardian.com/environment/2010/sep/29/country-diary-cornwall", "apiUrl": "https://content.guardianapis.com/environment/2010/sep/29/country-diary-cornwall", "isHosted": false, "pillarId": "pillar/news", "pillarName": "News"}, {"id": "environment/2010/sep/29/third-of-extinct-species-alive", "type": "article", "sectionId": "environment", "sectionName": "Environment", "webPublicationDate": "2010-09-28T23:05:04Z", "webTitle": "This seal was declared extinct in 1892. So what is it doing alive and well today?", "webUrl": "https://www.theguardian.com/environment/2010/sep/29/third-of-extinct-species-alive", "apiUrl": "https://content.guardianapis.com/environment/2010/sep/29/third-of-extinct-species-alive", "isHosted": false, "pillarId": "pillar/news", "pillarName": "News"}, {"id": "environment/2010/sep/28/greenpeace-banned-intercepting-oil-drilling-ship", "type": "article", "sectionId": "environment", "sectionName": "Environment", "webPublicationDate": "2010-09-28T18:26:35Z", "webTitle": "Greenpeace banned from intercepting oil-drilling ship", "webUrl": "https://www.theguardian.com/environment/2010/sep/28/greenpeace-banned-intercepting-oil-drilling-ship", "apiUrl": "https://content.guardianapis.com/environment/2010/sep/28/greenpeace-banned-intercepting-oil-drilling-ship", "isHosted": false, "pillarId": "pillar/news", "pillarName": "News"}, {"id": "business/2010/sep/28/unilever-ben-jerrys-ingredients-watchdog", "type": "article", "sectionId": "business", "sectionName": "Business", "webPublicationDate": "2010-09-28T17:33:10Z", "webTitle": "Ben and Jerry's admits ice-cream with a liberal conscience not 'all natural'", "webUrl": "https://www.theguardian.com/business/2010/sep/28/unilever-ben-jerrys-ingredients-watchdog", "apiUrl": "https://content.guardianapis.com/business/2010/sep/28/unilever-ben-jerrys-ingredients-watchdog", "isHosted": false, "pillarId": "pillar/news", "pillarName": "News"}, {"id": "environment/2010/sep/28/weekly-rubbish-collection-dent-recycling", "type": "article", "sectionId": "environment", "sectionName": "Environment", "webPublicationDate": "2010-09-28T16:55:19Z", "webTitle": "Return to weekly rubbish collection 'would damage UK recycling'", "webUrl": "https://www.theguardian.com/environment/2010/sep/28/weekly-rubbish-collection-dent-recycling", "apiUrl": "https://content.guardianapis.com/environment/2010/sep/28/weekly-rubbish-collection-dent-recycling", "isHosted": false, "pillarId": "pillar/news", "pillarName": "News"}, {"id": "environment/blog/2010/sep/28/salmond-green-electricity-scotland", "type": "article", "sectionId": "environment", "sectionName": "Environment", "webPublicationDate": "2010-09-28T16:04:42Z", "webTitle": "Salmond claims 100% green electricity in Scotland 'achievable' by 2025", "webUrl": "https://www.theguardian.com/environment/blog/2010/sep/28/salmond-green-electricity-scotland", "apiUrl": "https://content.guardianapis.com/environment/blog/2010/sep/28/salmond-green-electricity-scotland", "isHosted": false, "pillarId": "pillar/news", "pillarName": "News"}, {"id": "environment/2010/sep/28/bp-oil-spill-science-research-fund", "type": "article", "sectionId": "environment", "sectionName": "Environment", "webPublicationDate": "2010-09-28T14:34:16Z", "webTitle": "BP spill: Scientists scramble to find out where the oil went", "webUrl": "https://www.theguardian.com/environment/2010/sep/28/bp-oil-spill-science-research-fund", "apiUrl": "https://content.guardianapis.com/environment/2010/sep/28/bp-oil-spill-science-research-fund", "isHosted": false, "pillarId": "pillar/news", "pillarName": "News"}, {"id": "lifeandstyle/2010/sep/28/cider-apples-new-uk-varieties", "type": "article", "sectionId": "food", "sectionName": "Food", "webPublicationDate": "2010-09-28T13:11:13Z", "webTitle": "Harvest time for 29 new varieties of English cider apples", "webUrl": "https://www.theguardian.com/lifeandstyle/2010/sep/28/cider-apples-new-uk-varieties", "apiUrl": "https://content.guardianapis.com/lifeandstyle/2010/sep/28/cider-apples-new-uk-varieties", "isHosted": false, "pillarId": "pillar/lifestyle", "pillarName": "Lifestyle"}, {"id": "environment/blog/2010/sep/28/uae-global-warming-theme-park", "type": "article", "sectionId": "environment", "sectionName": "Environment", "webPublicationDate": "2010-09-28T10:48:06Z", "webTitle": "Middle East's largest theme park makes a gimmick of global warming | Leo Hickman", "webUrl": "https://www.theguardian.com/environment/blog/2010/sep/28/uae-global-warming-theme-park", "apiUrl": "https://content.guardianapis.com/environment/blog/2010/sep/28/uae-global-warming-theme-park", "isHosted": false, "pillarId": "pillar/news", "pillarName": "News"}, {"id": "global-development/poverty-matters/2010/sep/28/ecuador-oil-extraction-amazon-yasuni", "type": "article", "sectionId": "global-development", "sectionName": "Global development", "webPublicationDate": "2010-09-28T10:18:17Z", "webTitle": "Oil: Can Ecuador see past the black stuff?", "webUrl": "https://www.theguardian.com/global-development/poverty-matters/2010/sep/28/ecuador-oil-extraction-amazon-yasuni", "apiUrl": "https://content.guardianapis.com/global-development/poverty-matters/2010/sep/28/ecuador-oil-extraction-amazon-yasuni", "isHosted": false, "pillarId": "pillar/news", "pillarName": "News"}, {"id": "environment/gallery/2010/apr/20/patagonia-rave-rivers", "type": "gallery", "sectionId": "environment", "sectionName": "Environment", "webPublicationDate": "2010-09-28T10:00:44Z", "webTitle": "In pictures: Chilean Patagonia and the way of life under threat by dams", "webUrl": "https://www.theguardian.com/environment/gallery/2010/apr/20/patagonia-rave-rivers", "apiUrl": "https://content.guardianapis.com/environment/gallery/2010/apr/20/patagonia-rave-rivers", "isHosted": false, "pillarId": "pillar/news", "pillarName": "News"}, {"id": "environment/blog/2010/sep/28/live-kelly-rigg-tcktkctck-climate", "type": "article", "sectionId": "environment", "sectionName": "Environment", "webPublicationDate": "2010-09-28T08:36:08Z", "webTitle": "Live web chat: Kelly Rigg of the TckTckTck climate movement", "webUrl": "https://www.theguardian.com/environment/blog/2010/sep/28/live-kelly-rigg-tcktkctck-climate", "apiUrl": "https://content.guardianapis.com/environment/blog/2010/sep/28/live-kelly-rigg-tcktkctck-climate", "isHosted": false, "pillarId": "pillar/news", "pillarName": "News"}, {"id": "environment/cif-green/2010/sep/28/ed-miliband-turn-labour-green", "type": "article", "sectionId": "environment", "sectionName": "Environment", "webPublicationDate": "2010-09-28T06:00:05Z", "webTitle": "'Red' Ed Miliband can turn Labour green", "webUrl": "https://www.theguardian.com/environment/cif-green/2010/sep/28/ed-miliband-turn-labour-green", "apiUrl": "https://content.guardianapis.com/environment/cif-green/2010/sep/28/ed-miliband-turn-labour-green", "isHosted": false, "pillarId": "pillar/news", "pillarName": "News"}, {"id": "environment/2010/sep/28/barack-obama-gulf-oil-spill", "type": "article", "sectionId": "environment", "sectionName": "Environment", "webPublicationDate": "2010-09-27T23:17:04Z", "webTitle": "Barack Obama under fire for grossly underestimating Gulf oil spill", "webUrl": "https://www.theguardian.com/environment/2010/sep/28/barack-obama-gulf-oil-spill", "apiUrl": "https://content.guardianapis.com/environment/2010/sep/28/barack-obama-gulf-oil-spill", "isHosted": false, "pillarId": "pillar/news", "pillarName": "News"}, {"id": "environment/2010/sep/28/country-diary-north-derbyshire", "type": "article", "sectionId": "environment", "sectionName": "Environment", "webPublicationDate": "2010-09-27T23:05:10Z", "webTitle": "Country diary: North Derbyshire", "webUrl": "https://www.theguardian.com/environment/2010/sep/28/country-diary-north-derbyshire", "apiUrl": "https://content.guardianapis.com/environment/2010/sep/28/country-diary-north-derbyshire", "isHosted": false, "pillarId": "pillar/news", "pillarName": "News"}, {"id": "environment/2010/sep/27/kogi-warn-the-west", "type": "article", "sectionId": "environment", "sectionName": "Environment", "webPublicationDate": "2010-09-27T19:30:00Z", "webTitle": "Save the planet \u2013 a message from another world", "webUrl": "https://www.theguardian.com/environment/2010/sep/27/kogi-warn-the-west", "apiUrl": "https://content.guardianapis.com/environment/2010/sep/27/kogi-warn-the-west", "isHosted": false, "pillarId": "pillar/news", "pillarName": "News"}, {"id": "lifeandstyle/2010/sep/27/mammoth-ivory-ethical-jewellery", "type": "article", "sectionId": "fashion", "sectionName": "Fashion", "webPublicationDate": "2010-09-27T19:00:02Z", "webTitle": "Does mammoth ivory make ethical jewellery?", "webUrl": "https://www.theguardian.com/lifeandstyle/2010/sep/27/mammoth-ivory-ethical-jewellery", "apiUrl": "https://content.guardianapis.com/lifeandstyle/2010/sep/27/mammoth-ivory-ethical-jewellery", "isHosted": false, "pillarId": "pillar/lifestyle", "pillarName": "Lifestyle"}, {"id": "commentisfree/cif-green/2010/sep/27/why-are-we-prospecting-for-oil", "type": "article", "sectionId": "commentisfree", "sectionName": "Opinion", "webPublicationDate": "2010-09-27T18:05:01Z", "webTitle": "We can't use it \u2013 so why the heck are we prospecting for new oil? | George Monbiot", "webUrl": "https://www.theguardian.com/commentisfree/cif-green/2010/sep/27/why-are-we-prospecting-for-oil", "apiUrl": "https://content.guardianapis.com/commentisfree/cif-green/2010/sep/27/why-are-we-prospecting-for-oil", "isHosted": false, "pillarId": "pillar/opinion", "pillarName": "Opinion"}, {"id": "environment/2010/sep/27/new-zealand-foreign-farmland-purchases", "type": "article", "sectionId": "environment", "sectionName": "Environment", "webPublicationDate": "2010-09-27T16:30:57Z", "webTitle": "New Zealand puts squeeze on foreign farmland purchasing", "webUrl": "https://www.theguardian.com/environment/2010/sep/27/new-zealand-foreign-farmland-purchases", "apiUrl": "https://content.guardianapis.com/environment/2010/sep/27/new-zealand-foreign-farmland-purchases", "isHosted": false, "pillarId": "pillar/news", "pillarName": "News"}, {"id": "environment/2010/sep/27/wind-turbine-costs-fall-2025", "type": "article", "sectionId": "environment", "sectionName": "Environment", "webPublicationDate": "2010-09-27T14:42:39Z", "webTitle": "Wind turbine price 'could fall 25% by 2025'", "webUrl": "https://www.theguardian.com/environment/2010/sep/27/wind-turbine-costs-fall-2025", "apiUrl": "https://content.guardianapis.com/environment/2010/sep/27/wind-turbine-costs-fall-2025", "isHosted": false, "pillarId": "pillar/news", "pillarName": "News"}, {"id": "world/gallery/2010/sep/27/chile-mining", "type": "gallery", "sectionId": "world", "sectionName": "World news", "webPublicationDate": "2010-09-27T14:07:00Z", "webTitle": "Trapped Chilean miners: rescue efforts boosted by capsule arrival", "webUrl": "https://www.theguardian.com/world/gallery/2010/sep/27/chile-mining", "apiUrl": "https://content.guardianapis.com/world/gallery/2010/sep/27/chile-mining", "isHosted": false, "pillarId": "pillar/news", "pillarName": "News"}, {"id": "environment/2010/sep/27/segway-boss-jimi-heselden-dies-cliff-fall", "type": "article", "sectionId": "uk-news", "sectionName": "UK news", "webPublicationDate": "2010-09-27T13:01:00Z", "webTitle": "Segway boss Jimi Heselden dies in scooter cliff fall", "webUrl": "https://www.theguardian.com/environment/2010/sep/27/segway-boss-jimi-heselden-dies-cliff-fall", "apiUrl": "https://content.guardianapis.com/environment/2010/sep/27/segway-boss-jimi-heselden-dies-cliff-fall", "isHosted": false, "pillarId": "pillar/news", "pillarName": "News"}, {"id": "environment/2010/sep/27/alex-salmond-offshore-windfarms-conference", "type": "article", "sectionId": "environment", "sectionName": "Environment", "webPublicationDate": "2010-09-27T08:36:45Z", "webTitle": "Business leaders call for more incentives to invest in renewables", "webUrl": "https://www.theguardian.com/environment/2010/sep/27/alex-salmond-offshore-windfarms-conference", "apiUrl": "https://content.guardianapis.com/environment/2010/sep/27/alex-salmond-offshore-windfarms-conference", "isHosted": false, "pillarId": "pillar/news", "pillarName": "News"}, {"id": "business/2010/sep/27/energy-industry-energy", "type": "article", "sectionId": "business", "sectionName": "Business", "webPublicationDate": "2010-09-27T08:22:00Z", "webTitle": "Japan to drill for controversial 'fire ice'", "webUrl": "https://www.theguardian.com/business/2010/sep/27/energy-industry-energy", "apiUrl": "https://content.guardianapis.com/business/2010/sep/27/energy-industry-energy", "isHosted": false, "pillarId": "pillar/news", "pillarName": "News"}, {"id": "lifeandstyle/2010/sep/27/fashion-ethical-living", "type": "article", "sectionId": "fashion", "sectionName": "Fashion", "webPublicationDate": "2010-09-27T08:01:13Z", "webTitle": "Ethical Fashion Show: Sustainable chic hits capital of fashion", "webUrl": "https://www.theguardian.com/lifeandstyle/2010/sep/27/fashion-ethical-living", "apiUrl": "https://content.guardianapis.com/lifeandstyle/2010/sep/27/fashion-ethical-living", "isHosted": false, "pillarId": "pillar/lifestyle", "pillarName": "Lifestyle"}, {"id": "environment/blog/2010/sep/27/1", "type": "article", "sectionId": "environment", "sectionName": "Environment", "webPublicationDate": "2010-09-27T07:48:47Z", "webTitle": "Environment Weekly - tell us what to cover", "webUrl": "https://www.theguardian.com/environment/blog/2010/sep/27/1", "apiUrl": "https://content.guardianapis.com/environment/blog/2010/sep/27/1", "isHosted": false, "pillarId": "pillar/news", "pillarName": "News"}, {"id": "environment/2010/sep/27/ethical-food-labelling-which-survey", "type": "article", "sectionId": "environment", "sectionName": "Environment", "webPublicationDate": "2010-09-27T06:00:50Z", "webTitle": "Food labelling confuses ethical shoppers, says survey", "webUrl": "https://www.theguardian.com/environment/2010/sep/27/ethical-food-labelling-which-survey", "apiUrl": "https://content.guardianapis.com/environment/2010/sep/27/ethical-food-labelling-which-survey", "isHosted": false, "pillarId": "pillar/news", "pillarName": "News"}, {"id": "environment/2010/sep/27/country-diary-kentmere", "type": "article", "sectionId": "environment", "sectionName": "Environment", "webPublicationDate": "2010-09-26T23:05:49Z", "webTitle": "Country diary: Kentmere", "webUrl": "https://www.theguardian.com/environment/2010/sep/27/country-diary-kentmere", "apiUrl": "https://content.guardianapis.com/environment/2010/sep/27/country-diary-kentmere", "isHosted": false, "pillarId": "pillar/news", "pillarName": "News"}, {"id": "business/2010/sep/27/government-conflict-greenpeace-shetlands-drilling", "type": "article", "sectionId": "environment", "sectionName": "Environment", "webPublicationDate": "2010-09-26T23:03:44Z", "webTitle": "Shetland deepwater wells likely to be approved in face of Greenpeace action", "webUrl": "https://www.theguardian.com/business/2010/sep/27/government-conflict-greenpeace-shetlands-drilling", "apiUrl": "https://content.guardianapis.com/business/2010/sep/27/government-conflict-greenpeace-shetlands-drilling", "isHosted": false, "pillarId": "pillar/news", "pillarName": "News"}, {"id": "theguardian/2010/sep/26/septic-tanks-washout-malibu", "type": "article", "sectionId": "environment", "sectionName": "Environment", "webPublicationDate": "2010-09-26T19:00:30Z", "webTitle": "Why septic tanks are a washout in Malibu", "webUrl": "https://www.theguardian.com/theguardian/2010/sep/26/septic-tanks-washout-malibu", "apiUrl": "https://content.guardianapis.com/theguardian/2010/sep/26/septic-tanks-washout-malibu", "isHosted": false, "pillarId": "pillar/news", "pillarName": "News"}, {"id": "science/2010/sep/26/global-warming-ancient-artefacts", "type": "article", "sectionId": "science", "sectionName": "Science", "webPublicationDate": "2010-09-25T23:35:18Z", "webTitle": "How global warming is aiding \u2013 and frustrating \u2013 archaeologists | Discover", "webUrl": "https://www.theguardian.com/science/2010/sep/26/global-warming-ancient-artefacts", "apiUrl": "https://content.guardianapis.com/science/2010/sep/26/global-warming-ancient-artefacts", "isHosted": false, "pillarId": "pillar/news", "pillarName": "News"}]}}