{"response": {"status": "ok", "userTier": "developer", "total": 94220, "startIndex": 1, "pageSize": 50, "currentPage": 1, "pages": 1885, "orderBy": "newest", "results": [{"id": "football/2016/sep/30/arsene-wenger-perfect-england-manager-martin-glenn", "type": "article", "sectionId": "football", "sectionName": "Football", "webPublicationDate": "2016-09-30T22:26:00Z", "webTitle": "FA chief: Wenger has \u2018perfect criteria\u2019 for England and Allardyce could face ban", "webUrl": "https://www.theguardian.com/football/2016/sep/30/arsene-wenger-perfect-england-manager-martin-glenn", "apiUrl": "https://content.guardianapis.com/football/2016/sep/30/arsene-wenger-perfect-england-manager-martin-glenn", "isHosted": false, "pillarId": "pillar/sport", "pillarName": "Sport"}, {"id": "football/2016/sep/30/mauricio-pochettino-pep-guardiola-rivalry-tottenham-hotspur-manchester-city", "type": "article", "sectionId": "football", "sectionName": "Football", "webPublicationDate": "2016-09-30T21:39:00Z", "webTitle": "Mauricio Pochettino to face Guardiola as an equal in a rivalry born in Barcelona", "webUrl": "https://www.theguardian.com/football/2016/sep/30/mauricio-pochettino-pep-guardiola-rivalry-tottenham-hotspur-manchester-city", "apiUrl": "https://content.guardianapis.com/football/2016/sep/30/mauricio-pochettino-pep-guardiola-rivalry-tottenham-hotspur-manchester-city", "isHosted": false, "pillarId": "pillar/sport", "pillarName": "Sport"}, {"id": "football/2016/sep/30/chelsea-antonio-conte-no-magic-wand", "type": "article", "sectionId": "football", "sectionName": "Football", "webPublicationDate": "2016-09-30T21:34:00Z", "webTitle": "Chelsea\u2019s Antonio Conte says he has no magic wand to solve team\u2019s problems", "webUrl": "https://www.theguardian.com/football/2016/sep/30/chelsea-antonio-conte-no-magic-wand", "apiUrl": "https://content.guardianapis.com/football/2016/sep/30/chelsea-antonio-conte-no-magic-wand", "isHosted": false, "pillarId": "pillar/sport", "pillarName": "Sport"}, {"id": "football/2016/sep/30/david-moyes-sunderland-impossible-job-premier-league", "type": "article", "sectionId": "football", "sectionName": "Football", "webPublicationDate": "2016-09-30T21:30:01Z", "webTitle": "David Moyes denies Sunderland is an \u2018impossible job\u2019 as he chases first win", "webUrl": "https://www.theguardian.com/football/2016/sep/30/david-moyes-sunderland-impossible-job-premier-league", "apiUrl": "https://content.guardianapis.com/football/2016/sep/30/david-moyes-sunderland-impossible-job-premier-league", "isHosted": false, "pillarId": "pillar/sport", "pillarName": "Sport"}, {"id": "football/2016/sep/30/pep-guardiola-manchester-city-levels-must-not-drop", "type": "article", "sectionId": "football", "sectionName": "Football", "webPublicationDate": "2016-09-30T21:30:01Z", "webTitle": "Pep Guardiola tells Manchester City players effort levels must not drop", "webUrl": "https://www.theguardian.com/football/2016/sep/30/pep-guardiola-manchester-city-levels-must-not-drop", "apiUrl": "https://content.guardianapis.com/football/2016/sep/30/pep-guardiola-manchester-city-levels-must-not-drop", "isHosted": false, "pillarId": "pillar/sport", "pillarName": "Sport"}, {"id": "football/2016/sep/30/jurgen-klopp-liverpool-europe-swansea-city", "type": "article", "sectionId": "football", "sectionName": "Football", "webPublicationDate": "2016-09-30T21:30:01Z", "webTitle": "J\u00fcrgen Klopp urges Liverpool to make most of European absence this season", "webUrl": "https://www.theguardian.com/football/2016/sep/30/jurgen-klopp-liverpool-europe-swansea-city", "apiUrl": "https://content.guardianapis.com/football/2016/sep/30/jurgen-klopp-liverpool-europe-swansea-city", "isHosted": false, "pillarId": "pillar/sport", "pillarName": "Sport"}, {"id": "football/2016/sep/30/arsene-wenger-not-obsessed-final-trophy-arsenal-england", "type": "article", "sectionId": "football", "sectionName": "Football", "webPublicationDate": "2016-09-30T21:30:01Z", "webTitle": "Ars\u00e8ne Wenger says he is not obsessed by winning one final trophy at Arsenal", "webUrl": "https://www.theguardian.com/football/2016/sep/30/arsene-wenger-not-obsessed-final-trophy-arsenal-england", "apiUrl": "https://content.guardianapis.com/football/2016/sep/30/arsene-wenger-not-obsessed-final-trophy-arsenal-england", "isHosted": false, "pillarId": "pillar/sport", "pillarName": "Sport"}, {"id": "football/2016/sep/30/jose-mourinho-manchester-united-tough-schedule", "type": "article", "sectionId": "football", "sectionName": "Football", "webPublicationDate": "2016-09-30T21:30:01Z", "webTitle": "Jos\u00e9 Mourinho says tough schedule is motivation for Manchester United", "webUrl": "https://www.theguardian.com/football/2016/sep/30/jose-mourinho-manchester-united-tough-schedule", "apiUrl": "https://content.guardianapis.com/football/2016/sep/30/jose-mourinho-manchester-united-tough-schedule", "isHosted": false, "pillarId": "pillar/sport", "pillarName": "Sport"}, {"id": "football/live/2016/sep/30/everton-v-crystal-palace-premier-league-live", "type": "liveblog", "sectionId": "football", "sectionName": "Football", "webPublicationDate": "2016-09-30T21:04:53Z", "webTitle": "Everton 1-1 Crystal Palace: Premier League \u2013 as it happened", "webUrl": "https://www.theguardian.com/football/live/2016/sep/30/everton-v-crystal-palace-premier-league-live", "apiUrl": "https://content.guardianapis.com/football/live/2016/sep/30/everton-v-crystal-palace-premier-league-live", "isHosted": false, "pillarId": "pillar/sport", "pillarName": "Sport"}, {"id": "football/2016/sep/30/everton-crystal-palace-premier-league-match-report", "type": "article", "sectionId": "football", "sectionName": "Football", "webPublicationDate": "2016-09-30T20:58:34Z", "webTitle": "Crystal Palace\u2019s Christian Benteke heads home to earn draw with Everton", "webUrl": "https://www.theguardian.com/football/2016/sep/30/everton-crystal-palace-premier-league-match-report", "apiUrl": "https://content.guardianapis.com/football/2016/sep/30/everton-crystal-palace-premier-league-match-report", "isHosted": false, "pillarId": "pillar/sport", "pillarName": "Sport"}, {"id": "football/2016/sep/30/hope-is-all-that-england-football-needs", "type": "article", "sectionId": "football", "sectionName": "Football", "webPublicationDate": "2016-09-30T17:46:35Z", "webTitle": "Hope is all that England football needs", "webUrl": "https://www.theguardian.com/football/2016/sep/30/hope-is-all-that-england-football-needs", "apiUrl": "https://content.guardianapis.com/football/2016/sep/30/hope-is-all-that-england-football-needs", "isHosted": false, "pillarId": "pillar/sport", "pillarName": "Sport"}, {"id": "football/2016/sep/30/manchester-united-stoke-city-match-preview", "type": "article", "sectionId": "football", "sectionName": "Football", "webPublicationDate": "2016-09-30T17:26:44Z", "webTitle": "Manchester United v Stoke City: match preview", "webUrl": "https://www.theguardian.com/football/2016/sep/30/manchester-united-stoke-city-match-preview", "apiUrl": "https://content.guardianapis.com/football/2016/sep/30/manchester-united-stoke-city-match-preview", "isHosted": false, "pillarId": "pillar/sport", "pillarName": "Sport"}, {"id": "football/2016/sep/30/tottenham-hotspur-manchester-city-match-preview", "type": "article", "sectionId": "football", "sectionName": "Football", "webPublicationDate": "2016-09-30T17:06:39Z", "webTitle": "Tottenham Hotspur v Manchester City: match preview", "webUrl": "https://www.theguardian.com/football/2016/sep/30/tottenham-hotspur-manchester-city-match-preview", "apiUrl": "https://content.guardianapis.com/football/2016/sep/30/tottenham-hotspur-manchester-city-match-preview", "isHosted": false, "pillarId": "pillar/sport", "pillarName": "Sport"}, {"id": "football/2016/sep/30/leicester-city-southampton-match-preview", "type": "article", "sectionId": "football", "sectionName": "Football", "webPublicationDate": "2016-09-30T16:35:02Z", "webTitle": "Leicester City v Southampton: match preview", "webUrl": "https://www.theguardian.com/football/2016/sep/30/leicester-city-southampton-match-preview", "apiUrl": "https://content.guardianapis.com/football/2016/sep/30/leicester-city-southampton-match-preview", "isHosted": false, "pillarId": "pillar/sport", "pillarName": "Sport"}, {"id": "football/2016/sep/30/hull-city-chelsea-match-preview", "type": "article", "sectionId": "football", "sectionName": "Football", "webPublicationDate": "2016-09-30T16:14:12Z", "webTitle": "Hull City v Chelsea: match preview", "webUrl": "https://www.theguardian.com/football/2016/sep/30/hull-city-chelsea-match-preview", "apiUrl": "https://content.guardianapis.com/football/2016/sep/30/hull-city-chelsea-match-preview", "isHosted": false, "pillarId": "pillar/sport", "pillarName": "Sport"}, {"id": "football/2016/sep/30/sunderland-west-bromwich-albion-match-preview", "type": "article", "sectionId": "football", "sectionName": "Football", "webPublicationDate": "2016-09-30T16:02:43Z", "webTitle": "Sunderland v West Bromwich Albion: match preview", "webUrl": "https://www.theguardian.com/football/2016/sep/30/sunderland-west-bromwich-albion-match-preview", "apiUrl": "https://content.guardianapis.com/football/2016/sep/30/sunderland-west-bromwich-albion-match-preview", "isHosted": false, "pillarId": "pillar/sport", "pillarName": "Sport"}, {"id": "football/2016/sep/30/west-ham-united-middlesbrough-match-preview", "type": "article", "sectionId": "football", "sectionName": "Football", "webPublicationDate": "2016-09-30T15:27:20Z", "webTitle": "West Ham United v Middlesbrough: match preview", "webUrl": "https://www.theguardian.com/football/2016/sep/30/west-ham-united-middlesbrough-match-preview", "apiUrl": "https://content.guardianapis.com/football/2016/sep/30/west-ham-united-middlesbrough-match-preview", "isHosted": false, "pillarId": "pillar/sport", "pillarName": "Sport"}, {"id": "football/2016/sep/30/burnley-arsenal-match-preview", "type": "article", "sectionId": "football", "sectionName": "Football", "webPublicationDate": "2016-09-30T15:17:30Z", "webTitle": "Burnley v Arsenal: match preview", "webUrl": "https://www.theguardian.com/football/2016/sep/30/burnley-arsenal-match-preview", "apiUrl": "https://content.guardianapis.com/football/2016/sep/30/burnley-arsenal-match-preview", "isHosted": false, "pillarId": "pillar/sport", "pillarName": "Sport"}, {"id": "football/2016/sep/30/the-fiver-one-last-england-fiver-for-a-little-bit-hopefully", "type": "article", "sectionId": "football", "sectionName": "Football", "webPublicationDate": "2016-09-30T15:12:37Z", "webTitle": "The Fiver | Who the hell sends postcards?", "webUrl": "https://www.theguardian.com/football/2016/sep/30/the-fiver-one-last-england-fiver-for-a-little-bit-hopefully", "apiUrl": "https://content.guardianapis.com/football/2016/sep/30/the-fiver-one-last-england-fiver-for-a-little-bit-hopefully", "isHosted": false, "pillarId": "pillar/sport", "pillarName": "Sport"}, {"id": "football/2016/sep/30/watford-bournemouth-match-preview", "type": "article", "sectionId": "football", "sectionName": "Football", "webPublicationDate": "2016-09-30T14:45:03Z", "webTitle": "Watford v Bournemouth: match preview", "webUrl": "https://www.theguardian.com/football/2016/sep/30/watford-bournemouth-match-preview", "apiUrl": "https://content.guardianapis.com/football/2016/sep/30/watford-bournemouth-match-preview", "isHosted": false, "pillarId": "pillar/sport", "pillarName": "Sport"}, {"id": "football/2016/sep/30/pep-guardiola-mauricio-pochettino-manchester-city-tottenham-best-world", "type": "article", "sectionId": "football", "sectionName": "Football", "webPublicationDate": "2016-09-30T13:35:23Z", "webTitle": "Pep Guardiola: Tottenham\u2019s Mauricio Pochettino is one of world\u2019s best managers", "webUrl": "https://www.theguardian.com/football/2016/sep/30/pep-guardiola-mauricio-pochettino-manchester-city-tottenham-best-world", "apiUrl": "https://content.guardianapis.com/football/2016/sep/30/pep-guardiola-mauricio-pochettino-manchester-city-tottenham-best-world", "isHosted": false, "pillarId": "pillar/sport", "pillarName": "Sport"}, {"id": "football/2016/sep/30/swansea-city-liverpool-match-preview", "type": "article", "sectionId": "football", "sectionName": "Football", "webPublicationDate": "2016-09-30T13:18:01Z", "webTitle": "Swansea City v Liverpool: match preview", "webUrl": "https://www.theguardian.com/football/2016/sep/30/swansea-city-liverpool-match-preview", "apiUrl": "https://content.guardianapis.com/football/2016/sep/30/swansea-city-liverpool-match-preview", "isHosted": false, "pillarId": "pillar/sport", "pillarName": "Sport"}, {"id": "football/blog/2016/sep/30/chris-sutton-football-angry-pundit-bt-sport", "type": "article", "sectionId": "football", "sectionName": "Football", "webPublicationDate": "2016-09-30T13:12:40Z", "webTitle": "How Chris Sutton became the king of football\u2019s cinematic miserablists | Barney Ronay", "webUrl": "https://www.theguardian.com/football/blog/2016/sep/30/chris-sutton-football-angry-pundit-bt-sport", "apiUrl": "https://content.guardianapis.com/football/blog/2016/sep/30/chris-sutton-football-angry-pundit-bt-sport", "isHosted": false, "pillarId": "pillar/sport", "pillarName": "Sport"}, {"id": "football/2016/sep/30/ahmed-musa-leicester-city-nigerian-interview", "type": "article", "sectionId": "football", "sectionName": "Football", "webPublicationDate": "2016-09-30T11:28:07Z", "webTitle": "Ahmed Musa: I want to give something to people back home in Nigeria", "webUrl": "https://www.theguardian.com/football/2016/sep/30/ahmed-musa-leicester-city-nigerian-interview", "apiUrl": "https://content.guardianapis.com/football/2016/sep/30/ahmed-musa-leicester-city-nigerian-interview", "isHosted": false, "pillarId": "pillar/sport", "pillarName": "Sport"}, {"id": "football/blog/2016/sep/30/mls-weekend-previews-atlanta-united-tata-martino-seattle", "type": "article", "sectionId": "football", "sectionName": "Football", "webPublicationDate": "2016-09-30T10:00:04Z", "webTitle": "MLS weekend: Atlanta United pick a star in Tata Martino, and Seattle hit form", "webUrl": "https://www.theguardian.com/football/blog/2016/sep/30/mls-weekend-previews-atlanta-united-tata-martino-seattle", "apiUrl": "https://content.guardianapis.com/football/blog/2016/sep/30/mls-weekend-previews-atlanta-united-tata-martino-seattle", "isHosted": false, "pillarId": "pillar/sport", "pillarName": "Sport"}, {"id": "sport/2016/sep/30/sports-quiz-week-ryder-cup-sam-allardyce-arnold-palmer", "type": "article", "sectionId": "sport", "sectionName": "Sport", "webPublicationDate": "2016-09-30T09:59:22Z", "webTitle": "Sports quiz of the week: Ryder Cup, Sam Allardyce and Arnold Palmer's cocktail", "webUrl": "https://www.theguardian.com/sport/2016/sep/30/sports-quiz-week-ryder-cup-sam-allardyce-arnold-palmer", "apiUrl": "https://content.guardianapis.com/sport/2016/sep/30/sports-quiz-week-ryder-cup-sam-allardyce-arnold-palmer", "isHosted": false, "pillarId": "pillar/sport", "pillarName": "Sport"}, {"id": "football/2016/sep/30/arsenal-francis-coquelin-injury-return", "type": "article", "sectionId": "football", "sectionName": "Football", "webPublicationDate": "2016-09-30T09:52:53Z", "webTitle": "Arsenal relieved Francis Coquelin\u2019s injury not as bad as first feared", "webUrl": "https://www.theguardian.com/football/2016/sep/30/arsenal-francis-coquelin-injury-return", "apiUrl": "https://content.guardianapis.com/football/2016/sep/30/arsenal-francis-coquelin-injury-return", "isHosted": false, "pillarId": "pillar/sport", "pillarName": "Sport"}, {"id": "technology/2016/sep/30/fifa-17-review-ea-sports-story-mode", "type": "article", "sectionId": "games", "sectionName": "Games", "webPublicationDate": "2016-09-30T09:37:24Z", "webTitle": "Fifa 17 review: new story mode and on-pitch tweaks keep veteran in the game", "webUrl": "https://www.theguardian.com/technology/2016/sep/30/fifa-17-review-ea-sports-story-mode", "apiUrl": "https://content.guardianapis.com/technology/2016/sep/30/fifa-17-review-ea-sports-story-mode", "isHosted": false, "pillarId": "pillar/arts", "pillarName": "Arts"}, {"id": "football/2016/sep/30/south-yorkshire-police-chief-court-action-calls-resign-hillsborough", "type": "article", "sectionId": "uk-news", "sectionName": "UK news", "webPublicationDate": "2016-09-30T09:11:11Z", "webTitle": "South Yorkshire police chief to take court action over calls to resign", "webUrl": "https://www.theguardian.com/football/2016/sep/30/south-yorkshire-police-chief-court-action-calls-resign-hillsborough", "apiUrl": "https://content.guardianapis.com/football/2016/sep/30/south-yorkshire-police-chief-court-action-calls-resign-hillsborough", "isHosted": false, "pillarId": "pillar/news", "pillarName": "News"}, {"id": "football/2016/sep/30/golden-goal-ritchie-humphreys-sheffield-wednesday-leicester", "type": "article", "sectionId": "football", "sectionName": "Football", "webPublicationDate": "2016-09-30T09:01:03Z", "webTitle": "Golden Goal: Ritchie Humphreys for Sheffield Wednesday v Leicester (1996)", "webUrl": "https://www.theguardian.com/football/2016/sep/30/golden-goal-ritchie-humphreys-sheffield-wednesday-leicester", "apiUrl": "https://content.guardianapis.com/football/2016/sep/30/golden-goal-ritchie-humphreys-sheffield-wednesday-leicester", "isHosted": false, "pillarId": "pillar/sport", "pillarName": "Sport"}, {"id": "football/2016/sep/30/arsene-wenger-england-arsenal-one-day", "type": "article", "sectionId": "football", "sectionName": "Football", "webPublicationDate": "2016-09-30T08:35:33Z", "webTitle": "Arsenal\u2019s Ars\u00e8ne Wenger leaves door open to England approach \u2018one day\u2019", "webUrl": "https://www.theguardian.com/football/2016/sep/30/arsene-wenger-england-arsenal-one-day", "apiUrl": "https://content.guardianapis.com/football/2016/sep/30/arsene-wenger-england-arsenal-one-day", "isHosted": false, "pillarId": "pillar/sport", "pillarName": "Sport"}, {"id": "football/2016/sep/30/football-transfer-rumours-celtics-moussa-dembele-to-arsenal", "type": "article", "sectionId": "football", "sectionName": "Football", "webPublicationDate": "2016-09-30T08:20:37Z", "webTitle": "Football transfer rumours: Celtic's Moussa Demb\u00e9l\u00e9 to Arsenal?", "webUrl": "https://www.theguardian.com/football/2016/sep/30/football-transfer-rumours-celtics-moussa-dembele-to-arsenal", "apiUrl": "https://content.guardianapis.com/football/2016/sep/30/football-transfer-rumours-celtics-moussa-dembele-to-arsenal", "isHosted": false, "pillarId": "pillar/sport", "pillarName": "Sport"}, {"id": "football/2016/sep/30/jose-mourinho-manchester-united-backroom-staff", "type": "article", "sectionId": "football", "sectionName": "Football", "webPublicationDate": "2016-09-30T08:20:23Z", "webTitle": "Jos\u00e9 Mourinho hits out at backroom staff before Manchester United victory", "webUrl": "https://www.theguardian.com/football/2016/sep/30/jose-mourinho-manchester-united-backroom-staff", "apiUrl": "https://content.guardianapis.com/football/2016/sep/30/jose-mourinho-manchester-united-backroom-staff", "isHosted": false, "pillarId": "pillar/sport", "pillarName": "Sport"}, {"id": "football/blog/2016/sep/30/premier-league-10-things-to-look-out-for-this-weekend", "type": "article", "sectionId": "football", "sectionName": "Football", "webPublicationDate": "2016-09-30T08:03:02Z", "webTitle": "Premier League: 10 things to look out for this weekend", "webUrl": "https://www.theguardian.com/football/blog/2016/sep/30/premier-league-10-things-to-look-out-for-this-weekend", "apiUrl": "https://content.guardianapis.com/football/blog/2016/sep/30/premier-league-10-things-to-look-out-for-this-weekend", "isHosted": false, "pillarId": "pillar/sport", "pillarName": "Sport"}, {"id": "world/2016/sep/30/a-different-ball-game-bangkoks-crooked-football-pitches", "type": "article", "sectionId": "world", "sectionName": "World news", "webPublicationDate": "2016-09-30T06:30:56Z", "webTitle": "A different ball game: Bangkok's crooked football pitches", "webUrl": "https://www.theguardian.com/world/2016/sep/30/a-different-ball-game-bangkoks-crooked-football-pitches", "apiUrl": "https://content.guardianapis.com/world/2016/sep/30/a-different-ball-game-bangkoks-crooked-football-pitches", "isHosted": false, "pillarId": "pillar/news", "pillarName": "News"}, {"id": "football/2016/sep/30/england-postcards-sam-allardyce-fa-players", "type": "article", "sectionId": "football", "sectionName": "Football", "webPublicationDate": "2016-09-30T00:13:13Z", "webTitle": "FA red-faced as England players receive Sam Allardyce postcards", "webUrl": "https://www.theguardian.com/football/2016/sep/30/england-postcards-sam-allardyce-fa-players", "apiUrl": "https://content.guardianapis.com/football/2016/sep/30/england-postcards-sam-allardyce-fa-players", "isHosted": false, "pillarId": "pillar/sport", "pillarName": "Sport"}, {"id": "football/2016/sep/29/alan-pardew-gareth-southgate-england", "type": "article", "sectionId": "football", "sectionName": "Football", "webPublicationDate": "2016-09-29T21:30:02Z", "webTitle": "Alan Pardew urges Gareth Southgate to find \u2018X Factor\u2019 with England", "webUrl": "https://www.theguardian.com/football/2016/sep/29/alan-pardew-gareth-southgate-england", "apiUrl": "https://content.guardianapis.com/football/2016/sep/29/alan-pardew-gareth-southgate-england", "isHosted": false, "pillarId": "pillar/sport", "pillarName": "Sport"}, {"id": "football/2016/sep/29/wales-aaron-ramsey-chris-coleman-arsenal", "type": "article", "sectionId": "football", "sectionName": "Football", "webPublicationDate": "2016-09-29T21:30:02Z", "webTitle": "Chris Coleman frustrated as injury rules Aaron Ramsey out for Wales", "webUrl": "https://www.theguardian.com/football/2016/sep/29/wales-aaron-ramsey-chris-coleman-arsenal", "apiUrl": "https://content.guardianapis.com/football/2016/sep/29/wales-aaron-ramsey-chris-coleman-arsenal", "isHosted": false, "pillarId": "pillar/sport", "pillarName": "Sport"}, {"id": "football/2016/sep/29/gareth-southgate-call-reassures-wayne-rooney-england-captaincy", "type": "article", "sectionId": "football", "sectionName": "Football", "webPublicationDate": "2016-09-29T21:30:02Z", "webTitle": "Gareth Southgate\u2019s call reassures Wayne Rooney on England captaincy", "webUrl": "https://www.theguardian.com/football/2016/sep/29/gareth-southgate-call-reassures-wayne-rooney-england-captaincy", "apiUrl": "https://content.guardianapis.com/football/2016/sep/29/gareth-southgate-call-reassures-wayne-rooney-england-captaincy", "isHosted": false, "pillarId": "pillar/sport", "pillarName": "Sport"}, {"id": "football/2016/sep/29/alan-pardew-crystal-palace-yannick-bolasie-everton", "type": "article", "sectionId": "football", "sectionName": "Football", "webPublicationDate": "2016-09-29T21:30:02Z", "webTitle": "Alan Pardew and Crystal Palace attuned to Yannick Bolasie threat", "webUrl": "https://www.theguardian.com/football/2016/sep/29/alan-pardew-crystal-palace-yannick-bolasie-everton", "apiUrl": "https://content.guardianapis.com/football/2016/sep/29/alan-pardew-crystal-palace-yannick-bolasie-everton", "isHosted": false, "pillarId": "pillar/sport", "pillarName": "Sport"}, {"id": "football/live/2016/sep/29/manchester-united-v-zorya-luhansk-europa-league-live", "type": "liveblog", "sectionId": "football", "sectionName": "Football", "webPublicationDate": "2016-09-29T20:59:29Z", "webTitle": "Manchester United 1-0 Zorya Luhansk: Europa League \u2013 as it happened", "webUrl": "https://www.theguardian.com/football/live/2016/sep/29/manchester-united-v-zorya-luhansk-europa-league-live", "apiUrl": "https://content.guardianapis.com/football/live/2016/sep/29/manchester-united-v-zorya-luhansk-europa-league-live", "isHosted": false, "pillarId": "pillar/sport", "pillarName": "Sport"}, {"id": "football/2016/sep/29/manchester-united-zorya-lugansk-europa-league-match-report", "type": "article", "sectionId": "football", "sectionName": "Football", "webPublicationDate": "2016-09-29T20:56:55Z", "webTitle": "Zlatan Ibrahimovic gives Manchester United the edge over Zorya Luhansk", "webUrl": "https://www.theguardian.com/football/2016/sep/29/manchester-united-zorya-lugansk-europa-league-match-report", "apiUrl": "https://content.guardianapis.com/football/2016/sep/29/manchester-united-zorya-lugansk-europa-league-match-report", "isHosted": false, "pillarId": "pillar/sport", "pillarName": "Sport"}, {"id": "football/2016/sep/29/football-association-meets-city-of-london-police", "type": "article", "sectionId": "football", "sectionName": "Football", "webPublicationDate": "2016-09-29T20:30:14Z", "webTitle": "Football Association will speak to police as part of its corruption investigation", "webUrl": "https://www.theguardian.com/football/2016/sep/29/football-association-meets-city-of-london-police", "apiUrl": "https://content.guardianapis.com/football/2016/sep/29/football-association-meets-city-of-london-police", "isHosted": false, "pillarId": "pillar/sport", "pillarName": "Sport"}, {"id": "football/live/2016/sep/29/hapoel-beer-sheva-v-southampton-europa-league-live", "type": "liveblog", "sectionId": "football", "sectionName": "Football", "webPublicationDate": "2016-09-29T18:52:57Z", "webTitle": "Hapoel Beer-Sheva 0-0 Southampton: Europa League \u2013 as it happened", "webUrl": "https://www.theguardian.com/football/live/2016/sep/29/hapoel-beer-sheva-v-southampton-europa-league-live", "apiUrl": "https://content.guardianapis.com/football/live/2016/sep/29/hapoel-beer-sheva-v-southampton-europa-league-live", "isHosted": false, "pillarId": "pillar/sport", "pillarName": "Sport"}, {"id": "football/2016/sep/29/celtic-manchester-city-brendan-rodgers-", "type": "article", "sectionId": "football", "sectionName": "Football", "webPublicationDate": "2016-09-29T17:41:18Z", "webTitle": "Manchester City may find the Celtic result becomes a pressing issue", "webUrl": "https://www.theguardian.com/football/2016/sep/29/celtic-manchester-city-brendan-rodgers-", "apiUrl": "https://content.guardianapis.com/football/2016/sep/29/celtic-manchester-city-brendan-rodgers-", "isHosted": false, "pillarId": "pillar/sport", "pillarName": "Sport"}, {"id": "football/2016/sep/29/redrawing-the-european-map", "type": "article", "sectionId": "football", "sectionName": "Football", "webPublicationDate": "2016-09-29T15:55:47Z", "webTitle": "Redrawing the European map", "webUrl": "https://www.theguardian.com/football/2016/sep/29/redrawing-the-european-map", "apiUrl": "https://content.guardianapis.com/football/2016/sep/29/redrawing-the-european-map", "isHosted": false, "pillarId": "pillar/sport", "pillarName": "Sport"}, {"id": "football/2016/sep/29/jurgen-klopp-warns-liverpool-squad-social-media-sakho-snapchat-outburst", "type": "article", "sectionId": "football", "sectionName": "Football", "webPublicationDate": "2016-09-29T14:58:19Z", "webTitle": "Klopp warns Liverpool squad over social media after Sakho Snapchat outburst", "webUrl": "https://www.theguardian.com/football/2016/sep/29/jurgen-klopp-warns-liverpool-squad-social-media-sakho-snapchat-outburst", "apiUrl": "https://content.guardianapis.com/football/2016/sep/29/jurgen-klopp-warns-liverpool-squad-social-media-sakho-snapchat-outburst", "isHosted": false, "pillarId": "pillar/sport", "pillarName": "Sport"}, {"id": "football/2016/sep/29/nicolas-anelka-sam-allardyce-facebook-support-england-manager-job", "type": "article", "sectionId": "football", "sectionName": "Football", "webPublicationDate": "2016-09-29T13:58:06Z", "webTitle": "Nicolas Anelka tells Sam Allardyce: \u2018We all make mistakes. We still love you\u2019", "webUrl": "https://www.theguardian.com/football/2016/sep/29/nicolas-anelka-sam-allardyce-facebook-support-england-manager-job", "apiUrl": "https://content.guardianapis.com/football/2016/sep/29/nicolas-anelka-sam-allardyce-facebook-support-england-manager-job", "isHosted": false, "pillarId": "pillar/sport", "pillarName": "Sport"}, {"id": "football/2016/sep/29/managers-demand-full-disclosure-football-corruption", "type": "article", "sectionId": "football", "sectionName": "Football", "webPublicationDate": "2016-09-29T13:04:05Z", "webTitle": "LMA demands \u2018full disclosure\u2019 of newspaper\u2019s corruption investigation", "webUrl": "https://www.theguardian.com/football/2016/sep/29/managers-demand-full-disclosure-football-corruption", "apiUrl": "https://content.guardianapis.com/football/2016/sep/29/managers-demand-full-disclosure-football-corruption", "isHosted": false, "pillarId": "pillar/sport", "pillarName": "Sport"}, {"id": "football/2016/sep/29/golden-boy-rashford-alli-iwobi", "type": "article", "sectionId": "football", "sectionName": "Football", "webPublicationDate": "2016-09-29T12:28:51Z", "webTitle": "Rashford, Alli, Iwobi and Demb\u00e9l\u00e9 among Golden Boy nominees", "webUrl": "https://www.theguardian.com/football/2016/sep/29/golden-boy-rashford-alli-iwobi", "apiUrl": "https://content.guardianapis.com/football/2016/sep/29/golden-boy-rashford-alli-iwobi", "isHosted": false, "pillarId": "pillar/sport", "pillarName": "Sport"}]}}