{"response": {"status": "ok", "userTier": "developer", "total": 30601, "startIndex": 1, "pageSize": 50, "currentPage": 1, "pages": 613, "orderBy": "newest", "results": [{"id": "environment/gallery/2011/oct/01/wildlife-photographer-of-year-highly-commended", "type": "gallery", "sectionId": "environment", "sectionName": "Environment", "webPublicationDate": "2011-09-30T23:01:00Z", "webTitle": "Veolia wildlife photographer of the year highly commended images \u2013 in pictures", "webUrl": "https://www.theguardian.com/environment/gallery/2011/oct/01/wildlife-photographer-of-year-highly-commended", "apiUrl": "https://content.guardianapis.com/environment/gallery/2011/oct/01/wildlife-photographer-of-year-highly-commended", "isHosted": false, "pillarId": "pillar/news", "pillarName": "News"}, {"id": "money/2011/sep/30/lpg-conversion-green-cheaper", "type": "article", "sectionId": "money", "sectionName": "Money", "webPublicationDate": "2011-09-30T22:02:04Z", "webTitle": "LPG: It's lean, green and cheaper too", "webUrl": "https://www.theguardian.com/money/2011/sep/30/lpg-conversion-green-cheaper", "apiUrl": "https://content.guardianapis.com/money/2011/sep/30/lpg-conversion-green-cheaper", "isHosted": false, "pillarId": "pillar/lifestyle", "pillarName": "Lifestyle"}, {"id": "money/2011/sep/30/npower-solar-feed-in-tariff", "type": "article", "sectionId": "money", "sectionName": "Money", "webPublicationDate": "2011-09-30T22:01:17Z", "webTitle": "Raising the solar roof over npower feed-in tariff payments", "webUrl": "https://www.theguardian.com/money/2011/sep/30/npower-solar-feed-in-tariff", "apiUrl": "https://content.guardianapis.com/money/2011/sep/30/npower-solar-feed-in-tariff", "isHosted": false, "pillarId": "pillar/lifestyle", "pillarName": "Lifestyle"}, {"id": "uk/2011/sep/30/britain-hottest-september-october", "type": "article", "sectionId": "uk-news", "sectionName": "UK news", "webPublicationDate": "2011-09-30T20:24:37Z", "webTitle": "Britain basks in hottest September 30 for a century \u2013 and more is on the way", "webUrl": "https://www.theguardian.com/uk/2011/sep/30/britain-hottest-september-october", "apiUrl": "https://content.guardianapis.com/uk/2011/sep/30/britain-hottest-september-october", "isHosted": false, "pillarId": "pillar/news", "pillarName": "News"}, {"id": "society/2011/sep/30/projects-also-need-social-sustainability", "type": "article", "sectionId": "society", "sectionName": "Society", "webPublicationDate": "2011-09-30T20:00:02Z", "webTitle": "Letters: Projects also need social sustainability", "webUrl": "https://www.theguardian.com/society/2011/sep/30/projects-also-need-social-sustainability", "apiUrl": "https://content.guardianapis.com/society/2011/sep/30/projects-also-need-social-sustainability", "isHosted": false, "pillarId": "pillar/news", "pillarName": "News"}, {"id": "commentisfree/2011/sep/30/e-coli-outbreak-secrecy", "type": "article", "sectionId": "commentisfree", "sectionName": "Opinion", "webPublicationDate": "2011-09-30T17:30:00Z", "webTitle": "Lift the cloak of secrecy around this E coli outbreak | Erik Millstone", "webUrl": "https://www.theguardian.com/commentisfree/2011/sep/30/e-coli-outbreak-secrecy", "apiUrl": "https://content.guardianapis.com/commentisfree/2011/sep/30/e-coli-outbreak-secrecy", "isHosted": false, "pillarId": "pillar/opinion", "pillarName": "Opinion"}, {"id": "environment/2011/sep/30/paris-bubble-car-scheme-launches", "type": "article", "sectionId": "environment", "sectionName": "Environment", "webPublicationDate": "2011-09-30T17:15:51Z", "webTitle": "Bubble car self-service scheme launches in Paris", "webUrl": "https://www.theguardian.com/environment/2011/sep/30/paris-bubble-car-scheme-launches", "apiUrl": "https://content.guardianapis.com/environment/2011/sep/30/paris-bubble-car-scheme-launches", "isHosted": false, "pillarId": "pillar/news", "pillarName": "News"}, {"id": "environment/2011/sep/30/speed-limit-rise-deaths-pollution", "type": "article", "sectionId": "environment", "sectionName": "Environment", "webPublicationDate": "2011-09-30T17:06:33Z", "webTitle": "Speed limit rise would increase deaths and pollution, admits government", "webUrl": "https://www.theguardian.com/environment/2011/sep/30/speed-limit-rise-deaths-pollution", "apiUrl": "https://content.guardianapis.com/environment/2011/sep/30/speed-limit-rise-deaths-pollution", "isHosted": false, "pillarId": "pillar/news", "pillarName": "News"}, {"id": "environment/2011/sep/30/renewable-heat-incentive-withdrawn", "type": "article", "sectionId": "environment", "sectionName": "Environment", "webPublicationDate": "2011-09-30T14:27:47Z", "webTitle": "Renewable Heat Incentive withdrawn by government hours before launch", "webUrl": "https://www.theguardian.com/environment/2011/sep/30/renewable-heat-incentive-withdrawn", "apiUrl": "https://content.guardianapis.com/environment/2011/sep/30/renewable-heat-incentive-withdrawn", "isHosted": false, "pillarId": "pillar/news", "pillarName": "News"}, {"id": "environment/blog/2011/sep/30/autumn-colours-green-shoots-photographs", "type": "article", "sectionId": "environment", "sectionName": "Environment", "webPublicationDate": "2011-09-30T14:21:41Z", "webTitle": "Autumn \u2013 the UK's most spectacular time of year", "webUrl": "https://www.theguardian.com/environment/blog/2011/sep/30/autumn-colours-green-shoots-photographs", "apiUrl": "https://content.guardianapis.com/environment/blog/2011/sep/30/autumn-colours-green-shoots-photographs", "isHosted": false, "pillarId": "pillar/news", "pillarName": "News"}, {"id": "environment/gallery/2011/sep/30/week-in-wildlife-in-pictures", "type": "gallery", "sectionId": "environment", "sectionName": "Environment", "webPublicationDate": "2011-09-30T13:12:00Z", "webTitle": "The week in wildlife - in pictures", "webUrl": "https://www.theguardian.com/environment/gallery/2011/sep/30/week-in-wildlife-in-pictures", "apiUrl": "https://content.guardianapis.com/environment/gallery/2011/sep/30/week-in-wildlife-in-pictures", "isHosted": false, "pillarId": "pillar/news", "pillarName": "News"}, {"id": "world/2011/sep/30/us-embassy-cables-burma-myitsone-dam", "type": "article", "sectionId": "us-news", "sectionName": "US news", "webPublicationDate": "2011-09-30T12:27:53Z", "webTitle": "WikiLeaks cables: Americans funded groups that stalled Burma dam project", "webUrl": "https://www.theguardian.com/world/2011/sep/30/us-embassy-cables-burma-myitsone-dam", "apiUrl": "https://content.guardianapis.com/world/2011/sep/30/us-embassy-cables-burma-myitsone-dam", "isHosted": false, "pillarId": "pillar/news", "pillarName": "News"}, {"id": "world/2011/sep/30/us-embassy-cables-myitsone-dam-document", "type": "article", "sectionId": "us-news", "sectionName": "US news", "webPublicationDate": "2011-09-30T12:26:19Z", "webTitle": "US embassy cables: how Rangoon office helped opponents of Myitsone dam", "webUrl": "https://www.theguardian.com/world/2011/sep/30/us-embassy-cables-myitsone-dam-document", "apiUrl": "https://content.guardianapis.com/world/2011/sep/30/us-embassy-cables-myitsone-dam-document", "isHosted": false, "pillarId": "pillar/news", "pillarName": "News"}, {"id": "commentisfree/2011/sep/30/weekly-rubbish-collections-waste", "type": "article", "sectionId": "commentisfree", "sectionName": "Opinion", "webPublicationDate": "2011-09-30T11:58:02Z", "webTitle": "Weekly rubbish collections? So much for Cameron's war on waste | Sarah Ditum", "webUrl": "https://www.theguardian.com/commentisfree/2011/sep/30/weekly-rubbish-collections-waste", "apiUrl": "https://content.guardianapis.com/commentisfree/2011/sep/30/weekly-rubbish-collections-waste", "isHosted": false, "pillarId": "pillar/opinion", "pillarName": "Opinion"}, {"id": "environment/2011/sep/30/welsh-traders-shoppers-bag-charge", "type": "article", "sectionId": "environment", "sectionName": "Environment", "webPublicationDate": "2011-09-30T11:17:40Z", "webTitle": "Welsh traders and shoppers adjust to 5p bag charge", "webUrl": "https://www.theguardian.com/environment/2011/sep/30/welsh-traders-shoppers-bag-charge", "apiUrl": "https://content.guardianapis.com/environment/2011/sep/30/welsh-traders-shoppers-bag-charge", "isHosted": false, "pillarId": "pillar/news", "pillarName": "News"}, {"id": "environment/2011/sep/30/uk-cod-collapse-overfishing", "type": "article", "sectionId": "environment", "sectionName": "Environment", "webPublicationDate": "2011-09-30T10:29:33Z", "webTitle": "UK cod collapse due to overfishing and political failure, says fisheries expert", "webUrl": "https://www.theguardian.com/environment/2011/sep/30/uk-cod-collapse-overfishing", "apiUrl": "https://content.guardianapis.com/environment/2011/sep/30/uk-cod-collapse-overfishing", "isHosted": false, "pillarId": "pillar/news", "pillarName": "News"}, {"id": "world/2011/sep/30/victory-burma-reformers-dam-project", "type": "article", "sectionId": "world", "sectionName": "World news", "webPublicationDate": "2011-09-30T09:26:22Z", "webTitle": "Victory for Burma reformers over dam project", "webUrl": "https://www.theguardian.com/world/2011/sep/30/victory-burma-reformers-dam-project", "apiUrl": "https://content.guardianapis.com/world/2011/sep/30/victory-burma-reformers-dam-project", "isHosted": false, "pillarId": "pillar/news", "pillarName": "News"}, {"id": "uk/the-northerner/2011/sep/30/irton-tree-north-yorkshire-preservation-orders", "type": "article", "sectionId": "uk-news", "sectionName": "UK news", "webPublicationDate": "2011-09-30T09:02:00Z", "webTitle": "Is it D-Day for the Irton Tree? Two courts will decide today", "webUrl": "https://www.theguardian.com/uk/the-northerner/2011/sep/30/irton-tree-north-yorkshire-preservation-orders", "apiUrl": "https://content.guardianapis.com/uk/the-northerner/2011/sep/30/irton-tree-north-yorkshire-preservation-orders", "isHosted": false, "pillarId": "pillar/news", "pillarName": "News"}, {"id": "politics/2011/sep/30/250m-weekly-bin-collections-fund-pickles", "type": "article", "sectionId": "politics", "sectionName": "Politics", "webPublicationDate": "2011-09-30T08:27:34Z", "webTitle": "\u00a3250m weekly bin collections fund is what people want, says Pickles", "webUrl": "https://www.theguardian.com/politics/2011/sep/30/250m-weekly-bin-collections-fund-pickles", "apiUrl": "https://content.guardianapis.com/politics/2011/sep/30/250m-weekly-bin-collections-fund-pickles", "isHosted": false, "pillarId": "pillar/news", "pillarName": "News"}, {"id": "science/2011/sep/30/silent-spring-rachel-carson-review", "type": "article", "sectionId": "science", "sectionName": "Science", "webPublicationDate": "2011-09-30T07:09:00Z", "webTitle": "Silent Spring by Rachel Carson \u2013 review | Tim Radford", "webUrl": "https://www.theguardian.com/science/2011/sep/30/silent-spring-rachel-carson-review", "apiUrl": "https://content.guardianapis.com/science/2011/sep/30/silent-spring-rachel-carson-review", "isHosted": false, "pillarId": "pillar/news", "pillarName": "News"}, {"id": "environment/georgemonbiot/2011/sep/30/wales-bag-charge-overdue-welcome", "type": "article", "sectionId": "environment", "sectionName": "Environment", "webPublicationDate": "2011-09-30T06:00:02Z", "webTitle": "It's not the second coming, but Wales's bag charge is welcome and overdue | George Monbiot", "webUrl": "https://www.theguardian.com/environment/georgemonbiot/2011/sep/30/wales-bag-charge-overdue-welcome", "apiUrl": "https://content.guardianapis.com/environment/georgemonbiot/2011/sep/30/wales-bag-charge-overdue-welcome", "isHosted": false, "pillarId": "pillar/news", "pillarName": "News"}, {"id": "environment/2011/sep/29/country-diary-aberystwyth", "type": "article", "sectionId": "environment", "sectionName": "Environment", "webPublicationDate": "2011-09-29T22:01:01Z", "webTitle": "Country diary: Aberystwyth", "webUrl": "https://www.theguardian.com/environment/2011/sep/29/country-diary-aberystwyth", "apiUrl": "https://content.guardianapis.com/environment/2011/sep/29/country-diary-aberystwyth", "isHosted": false, "pillarId": "pillar/news", "pillarName": "News"}, {"id": "environment/damian-carrington-blog/2011/sep/29/damian-carrington-blog-fast-lane-to-nowhere", "type": "article", "sectionId": "environment", "sectionName": "Environment", "webPublicationDate": "2011-09-29T21:09:47Z", "webTitle": "Higher speed limit is the fast track to more fumes and funerals | Damian Carrington", "webUrl": "https://www.theguardian.com/environment/damian-carrington-blog/2011/sep/29/damian-carrington-blog-fast-lane-to-nowhere", "apiUrl": "https://content.guardianapis.com/environment/damian-carrington-blog/2011/sep/29/damian-carrington-blog-fast-lane-to-nowhere", "isHosted": false, "pillarId": "pillar/news", "pillarName": "News"}, {"id": "business/2011/sep/29/north-sea-gas-production-falls-by-a-quarter", "type": "article", "sectionId": "business", "sectionName": "Business", "webPublicationDate": "2011-09-29T17:10:23Z", "webTitle": "North Sea gas production falls 25%", "webUrl": "https://www.theguardian.com/business/2011/sep/29/north-sea-gas-production-falls-by-a-quarter", "apiUrl": "https://content.guardianapis.com/business/2011/sep/29/north-sea-gas-production-falls-by-a-quarter", "isHosted": false, "pillarId": "pillar/news", "pillarName": "News"}, {"id": "environment/2011/sep/29/brazilian-judge-monte-bello-dam", "type": "article", "sectionId": "environment", "sectionName": "Environment", "webPublicationDate": "2011-09-29T15:34:03Z", "webTitle": "Brazilian judge orders construction of Amazon dam to stop", "webUrl": "https://www.theguardian.com/environment/2011/sep/29/brazilian-judge-monte-bello-dam", "apiUrl": "https://content.guardianapis.com/environment/2011/sep/29/brazilian-judge-monte-bello-dam", "isHosted": false, "pillarId": "pillar/news", "pillarName": "News"}, {"id": "environment/2011/sep/29/little-ice-age", "type": "article", "sectionId": "environment", "sectionName": "Environment", "webPublicationDate": "2011-09-29T14:40:05Z", "webTitle": "What was the little ice age?", "webUrl": "https://www.theguardian.com/environment/2011/sep/29/little-ice-age", "apiUrl": "https://content.guardianapis.com/environment/2011/sep/29/little-ice-age", "isHosted": false, "pillarId": "pillar/news", "pillarName": "News"}, {"id": "environment/2011/sep/29/woeful-2011-blackberry-crops", "type": "article", "sectionId": "environment", "sectionName": "Environment", "webPublicationDate": "2011-09-29T14:05:10Z", "webTitle": "Woeful 2011 for blackberry crops", "webUrl": "https://www.theguardian.com/environment/2011/sep/29/woeful-2011-blackberry-crops", "apiUrl": "https://content.guardianapis.com/environment/2011/sep/29/woeful-2011-blackberry-crops", "isHosted": false, "pillarId": "pillar/news", "pillarName": "News"}, {"id": "environment/gallery/2011/sep/29/wildlife-high-speed-in-pictures", "type": "gallery", "sectionId": "environment", "sectionName": "Environment", "webPublicationDate": "2011-09-29T12:24:45Z", "webTitle": "UK wildlife at high-speed \u2013 in pictures", "webUrl": "https://www.theguardian.com/environment/gallery/2011/sep/29/wildlife-high-speed-in-pictures", "apiUrl": "https://content.guardianapis.com/environment/gallery/2011/sep/29/wildlife-high-speed-in-pictures", "isHosted": false, "pillarId": "pillar/news", "pillarName": "News"}, {"id": "environment/2011/sep/29/battle-airline-industry-going-global", "type": "article", "sectionId": "environment", "sectionName": "Environment", "webPublicationDate": "2011-09-29T11:49:55Z", "webTitle": "Heathrow campaigners hit US as battle with the airline industry goes global", "webUrl": "https://www.theguardian.com/environment/2011/sep/29/battle-airline-industry-going-global", "apiUrl": "https://content.guardianapis.com/environment/2011/sep/29/battle-airline-industry-going-global", "isHosted": false, "pillarId": "pillar/news", "pillarName": "News"}, {"id": "environment/2011/sep/29/cameron-law-plastic-bag-use", "type": "article", "sectionId": "environment", "sectionName": "Environment", "webPublicationDate": "2011-09-29T09:31:48Z", "webTitle": "Cameron threatens new law following 'unacceptable' rise in plastic bag use", "webUrl": "https://www.theguardian.com/environment/2011/sep/29/cameron-law-plastic-bag-use", "apiUrl": "https://content.guardianapis.com/environment/2011/sep/29/cameron-law-plastic-bag-use", "isHosted": false, "pillarId": "pillar/news", "pillarName": "News"}, {"id": "science/punctuated-equilibrium/2011/sep/29/1", "type": "article", "sectionId": "global", "sectionName": "Global", "webPublicationDate": "2011-09-29T07:00:00Z", "webTitle": "Fighting a contagious cancer | @GrrlScientist | Punctuated Equilibrium", "webUrl": "https://www.theguardian.com/science/punctuated-equilibrium/2011/sep/29/1", "apiUrl": "https://content.guardianapis.com/science/punctuated-equilibrium/2011/sep/29/1", "isHosted": false}, {"id": "uk/gallery/2011/sep/28/weather", "type": "gallery", "sectionId": "uk-news", "sectionName": "UK news", "webPublicationDate": "2011-09-28T21:49:00Z", "webTitle": "Summer finally comes to Britain \u2013 in pictures", "webUrl": "https://www.theguardian.com/uk/gallery/2011/sep/28/weather", "apiUrl": "https://content.guardianapis.com/uk/gallery/2011/sep/28/weather", "isHosted": false, "pillarId": "pillar/news", "pillarName": "News"}, {"id": "world/2011/sep/28/amazon-brazil-protect-trees", "type": "article", "sectionId": "environment", "sectionName": "Environment", "webPublicationDate": "2011-09-28T20:55:00Z", "webTitle": "Death in the Amazon: Brazil accused of protecting trees but not its people", "webUrl": "https://www.theguardian.com/world/2011/sep/28/amazon-brazil-protect-trees", "apiUrl": "https://content.guardianapis.com/world/2011/sep/28/amazon-brazil-protect-trees", "isHosted": false, "pillarId": "pillar/news", "pillarName": "News"}, {"id": "environment/2011/sep/28/shale-boom-bath-pollute-water", "type": "article", "sectionId": "environment", "sectionName": "Environment", "webPublicationDate": "2011-09-28T19:30:21Z", "webTitle": "Shale boom in Bath could pollute water supplies, warn council leaders", "webUrl": "https://www.theguardian.com/environment/2011/sep/28/shale-boom-bath-pollute-water", "apiUrl": "https://content.guardianapis.com/environment/2011/sep/28/shale-boom-bath-pollute-water", "isHosted": false, "pillarId": "pillar/news", "pillarName": "News"}, {"id": "environment/video/2011/sep/28/al-jazera-correspondent-crying-forest-video", "type": "video", "sectionId": "environment", "sectionName": "Environment", "webPublicationDate": "2011-09-28T19:00:00Z", "webTitle": "Al-Jazeera Correspondent: The Crying Forest - video", "webUrl": "https://www.theguardian.com/environment/video/2011/sep/28/al-jazera-correspondent-crying-forest-video", "apiUrl": "https://content.guardianapis.com/environment/video/2011/sep/28/al-jazera-correspondent-crying-forest-video", "isHosted": false, "pillarId": "pillar/news", "pillarName": "News"}, {"id": "uk/2011/sep/28/indian-summer-retailers-cash-in", "type": "article", "sectionId": "uk-news", "sectionName": "UK news", "webPublicationDate": "2011-09-28T18:52:33Z", "webTitle": "Indian summer sees retailers double stocks of burger baps and ros\u00e9 wine", "webUrl": "https://www.theguardian.com/uk/2011/sep/28/indian-summer-retailers-cash-in", "apiUrl": "https://content.guardianapis.com/uk/2011/sep/28/indian-summer-retailers-cash-in", "isHosted": false, "pillarId": "pillar/news", "pillarName": "News"}, {"id": "technology/2011/sep/28/nissan-car-reads-drivers-mind", "type": "article", "sectionId": "technology", "sectionName": "Technology", "webPublicationDate": "2011-09-28T18:31:07Z", "webTitle": "Mind-reading car could drive you round the bend", "webUrl": "https://www.theguardian.com/technology/2011/sep/28/nissan-car-reads-drivers-mind", "apiUrl": "https://content.guardianapis.com/technology/2011/sep/28/nissan-car-reads-drivers-mind", "isHosted": false, "pillarId": "pillar/news", "pillarName": "News"}, {"id": "business/2011/sep/28/cairn-under-fire-over-greenland-drilling", "type": "article", "sectionId": "business", "sectionName": "Business", "webPublicationDate": "2011-09-28T18:16:39Z", "webTitle": "Cairn's Greenland oil failure under fire", "webUrl": "https://www.theguardian.com/business/2011/sep/28/cairn-under-fire-over-greenland-drilling", "apiUrl": "https://content.guardianapis.com/business/2011/sep/28/cairn-under-fire-over-greenland-drilling", "isHosted": false, "pillarId": "pillar/news", "pillarName": "News"}, {"id": "environment/2011/sep/28/hectors-dolphins-near-extinction", "type": "article", "sectionId": "environment", "sectionName": "Environment", "webPublicationDate": "2011-09-28T17:06:11Z", "webTitle": "Endangered dolphins near extinction", "webUrl": "https://www.theguardian.com/environment/2011/sep/28/hectors-dolphins-near-extinction", "apiUrl": "https://content.guardianapis.com/environment/2011/sep/28/hectors-dolphins-near-extinction", "isHosted": false, "pillarId": "pillar/news", "pillarName": "News"}, {"id": "environment/2011/sep/28/lancashire-added-yorkshire-dales-national-park", "type": "article", "sectionId": "environment", "sectionName": "Environment", "webPublicationDate": "2011-09-28T16:42:23Z", "webTitle": "Yorkshire Dales national park to take in parts of Lancashire and Cumbria", "webUrl": "https://www.theguardian.com/environment/2011/sep/28/lancashire-added-yorkshire-dales-national-park", "apiUrl": "https://content.guardianapis.com/environment/2011/sep/28/lancashire-added-yorkshire-dales-national-park", "isHosted": false, "pillarId": "pillar/news", "pillarName": "News"}, {"id": "commentisfree/cifamerica/2011/sep/28/keystone-xl-pipeline-protest-canada", "type": "article", "sectionId": "environment", "sectionName": "Environment", "webPublicationDate": "2011-09-28T16:15:00Z", "webTitle": "Keystone XL pipeline protest stirs in Canada | Martin Lukacs", "webUrl": "https://www.theguardian.com/commentisfree/cifamerica/2011/sep/28/keystone-xl-pipeline-protest-canada", "apiUrl": "https://content.guardianapis.com/commentisfree/cifamerica/2011/sep/28/keystone-xl-pipeline-protest-canada", "isHosted": false, "pillarId": "pillar/news", "pillarName": "News"}, {"id": "environment/2011/sep/28/green-news-roundup", "type": "article", "sectionId": "environment", "sectionName": "Environment", "webPublicationDate": "2011-09-28T15:40:12Z", "webTitle": "Green news roundup: Wangari Maathai, seabirds and tidal power", "webUrl": "https://www.theguardian.com/environment/2011/sep/28/green-news-roundup", "apiUrl": "https://content.guardianapis.com/environment/2011/sep/28/green-news-roundup", "isHosted": false, "pillarId": "pillar/news", "pillarName": "News"}, {"id": "environment/2011/sep/28/al-gore-proof-climate-change", "type": "article", "sectionId": "environment", "sectionName": "Environment", "webPublicationDate": "2011-09-28T15:37:05Z", "webTitle": "Al Gore: clear proof that climate change causes extreme weather", "webUrl": "https://www.theguardian.com/environment/2011/sep/28/al-gore-proof-climate-change", "apiUrl": "https://content.guardianapis.com/environment/2011/sep/28/al-gore-proof-climate-change", "isHosted": false, "pillarId": "pillar/news", "pillarName": "News"}, {"id": "environment/2011/sep/28/shale-gas-threaten-bath-springs", "type": "article", "sectionId": "environment", "sectionName": "Environment", "webPublicationDate": "2011-09-28T14:56:33Z", "webTitle": "Fracking in Mendips 'may threaten Bath hot springs'", "webUrl": "https://www.theguardian.com/environment/2011/sep/28/shale-gas-threaten-bath-springs", "apiUrl": "https://content.guardianapis.com/environment/2011/sep/28/shale-gas-threaten-bath-springs", "isHosted": false, "pillarId": "pillar/news", "pillarName": "News"}, {"id": "environment/2011/sep/28/al-gore-group-eco-domain", "type": "article", "sectionId": "environment", "sectionName": "Environment", "webPublicationDate": "2011-09-28T12:27:01Z", "webTitle": "Al Gore gives way to Mikhail Gorbachev for control of .eco domain", "webUrl": "https://www.theguardian.com/environment/2011/sep/28/al-gore-group-eco-domain", "apiUrl": "https://content.guardianapis.com/environment/2011/sep/28/al-gore-group-eco-domain", "isHosted": false, "pillarId": "pillar/news", "pillarName": "News"}, {"id": "environment/2011/sep/28/planning-reforms-threat-to-countryside", "type": "article", "sectionId": "environment", "sectionName": "Environment", "webPublicationDate": "2011-09-28T11:08:01Z", "webTitle": "Planning reforms are bigger threat to our countryside than forest sell-off | Caroline Lucas", "webUrl": "https://www.theguardian.com/environment/2011/sep/28/planning-reforms-threat-to-countryside", "apiUrl": "https://content.guardianapis.com/environment/2011/sep/28/planning-reforms-threat-to-countryside", "isHosted": false, "pillarId": "pillar/news", "pillarName": "News"}, {"id": "environment/2011/sep/28/donald-trump-scottish-offshore-windfarm", "type": "article", "sectionId": "environment", "sectionName": "Environment", "webPublicationDate": "2011-09-28T10:23:42Z", "webTitle": "Donald Trump continues to battle Scottish offshore windfarm plans", "webUrl": "https://www.theguardian.com/environment/2011/sep/28/donald-trump-scottish-offshore-windfarm", "apiUrl": "https://content.guardianapis.com/environment/2011/sep/28/donald-trump-scottish-offshore-windfarm", "isHosted": false, "pillarId": "pillar/news", "pillarName": "News"}, {"id": "books/2011/sep/28/on-extinction-melanie-challenger-review", "type": "article", "sectionId": "books", "sectionName": "Books", "webPublicationDate": "2011-09-28T09:00:01Z", "webTitle": "On Extinction by Melanie Challenger - review", "webUrl": "https://www.theguardian.com/books/2011/sep/28/on-extinction-melanie-challenger-review", "apiUrl": "https://content.guardianapis.com/books/2011/sep/28/on-extinction-melanie-challenger-review", "isHosted": false, "pillarId": "pillar/arts", "pillarName": "Arts"}, {"id": "environment/damian-carrington-blog/2011/sep/28/labour-nuclear-power-subsidy-horizon", "type": "article", "sectionId": "environment", "sectionName": "Environment", "webPublicationDate": "2011-09-28T08:47:09Z", "webTitle": "Labour's love-in with the nuclear industry still blossoming", "webUrl": "https://www.theguardian.com/environment/damian-carrington-blog/2011/sep/28/labour-nuclear-power-subsidy-horizon", "apiUrl": "https://content.guardianapis.com/environment/damian-carrington-blog/2011/sep/28/labour-nuclear-power-subsidy-horizon", "isHosted": false, "pillarId": "pillar/news", "pillarName": "News"}, {"id": "environment/2011/sep/28/councils-companies-recycling-uk", "type": "article", "sectionId": "environment", "sectionName": "Environment", "webPublicationDate": "2011-09-28T05:30:03Z", "webTitle": "Councils 'failing' companies that want to recycle", "webUrl": "https://www.theguardian.com/environment/2011/sep/28/councils-companies-recycling-uk", "apiUrl": "https://content.guardianapis.com/environment/2011/sep/28/councils-companies-recycling-uk", "isHosted": false, "pillarId": "pillar/news", "pillarName": "News"}]}}